Final Bets: red - 20 bets for 7,698G (47.9%, x1.09); blue - 13 bets for 8,371G (52.1%, x0.92)

red bets:
Rislyeu: 1,000G (13.0%, 8,844G)
mirapoix: 874G (11.4%, 1,748G)
Rytor: 871G (11.3%, 871G)
maicovisky: 699G (9.1%, 46,699G)
coralreeferz: 550G (7.1%, 22,028G)
Vacillents: 500G (6.5%, 1,893G)
Aldrammech: 500G (6.5%, 4,019G)
Laserman1000: 450G (5.8%, 2,900G)
randgridr: 440G (5.7%, 8,788G)
Thyrandaal: 336G (4.4%, 336G)
gorgewall: 201G (2.6%, 5,331G)
AllInBot: 200G (2.6%, 200G)
KasugaiRoastedPeas: 200G (2.6%, 10,801G)
Legionx13: 200G (2.6%, 4,001G)
datadrivenbot: 200G (2.6%, 32,782G)
ohhinm: 123G (1.6%, 8,492G)
douchetron: 104G (1.4%, 104G)
POGpope: 100G (1.3%, 1,193G)
shineeyo: 100G (1.3%, 12,500G)
nhammen: 50G (0.6%, 3,404G)

blue bets:
sinnyil2: 3,854G (46.0%, 7,708G)
superdevon1: 1,318G (15.7%, 2,637G)
BirbBrainsBot: 1,000G (11.9%, 135,316G)
GoatShow2: 328G (3.9%, 328G)
lyonslegacy: 300G (3.6%, 1,230G)
CapnChaos12: 300G (3.6%, 2,844G)
OverlordSS4: 283G (3.4%, 283G)
Lythe_Caraker: 250G (3.0%, 155,107G)
getthemoneyz: 238G (2.8%, 1,330,692G)
Sye990: 200G (2.4%, 23,314G)
fluffskull: 100G (1.2%, 3,308G)
Miku_Shikhu: 100G (1.2%, 15,394G)
Othatmattkid: 100G (1.2%, 590G)
