Final Bets: brown - 15 bets for 7,155G (51.1%, x0.96); champion - 13 bets for 6,841G (48.9%, x1.05)

brown bets:
Rytor: 1,391G (19.4%, 1,391G)
Thyrandaal: 1,128G (15.8%, 1,128G)
pplvee1: 1,000G (14.0%, 16,277G)
ColetteMSLP: 540G (7.5%, 540G)
moonliquor: 500G (7.0%, 37,045G)
Aldrammech: 500G (7.0%, 9,436G)
randgridr: 440G (6.1%, 8,955G)
AllInBot: 318G (4.4%, 318G)
fluffskull: 300G (4.2%, 7,427G)
astrozin11: 300G (4.2%, 2,808G)
iBardic: 216G (3.0%, 216G)
gorgewall: 201G (2.8%, 5,560G)
datadrivenbot: 200G (2.8%, 31,995G)
mirapoix: 100G (1.4%, 574G)
Hasterious: 21G (0.3%, 2,196G)

champion bets:
BirbBrainsBot: 1,000G (14.6%, 135,763G)
Rislyeu: 1,000G (14.6%, 9,556G)
getthemoneyz: 944G (13.8%, 1,330,307G)
douchetron: 677G (9.9%, 677G)
ohhinm: 653G (9.5%, 8,869G)
Laserman1000: 620G (9.1%, 620G)
nekojin: 500G (7.3%, 4,552G)
benticore: 500G (7.3%, 30,125G)
superdevon1: 347G (5.1%, 3,478G)
CapnChaos12: 300G (4.4%, 2,539G)
nhammen: 100G (1.5%, 2,088G)
Powermhero: 100G (1.5%, 29,760G)
Legionx13: 100G (1.5%, 4,545G)
