Final Bets: green - 18 bets for 24,275G (79.0%, x0.27); yellow - 17 bets for 6,467G (21.0%, x3.75)

green bets:
DeathTaxesAndAnime: 6,818G (28.1%, 6,818G)
nhammen: 5,000G (20.6%, 204,213G)
JumbocactuarX27: 2,035G (8.4%, 2,035G)
SkylerBunny: 1,700G (7.0%, 306,040G)
latebit: 1,567G (6.5%, 3,074G)
DustBirdEX: 1,162G (4.8%, 2,325G)
DLJuggernaut: 1,004G (4.1%, 1,004G)
BirbBrainsBot: 1,000G (4.1%, 47,187G)
Error72: 932G (3.8%, 932G)
LDSkinny: 681G (2.8%, 681G)
Shalloween: 500G (2.1%, 20,127G)
pplvee1: 468G (1.9%, 1,700G)
ArashiKurobara: 372G (1.5%, 4,792G)
Rilgon: 272G (1.1%, 272G)
iBardic: 264G (1.1%, 264G)
AllInBot: 200G (0.8%, 200G)
CosmicTactician: 200G (0.8%, 5,027G)
PoroTact: 100G (0.4%, 5,847G)

yellow bets:
yetichamp: 1,000G (15.5%, 8,571G)
Nizaha: 688G (10.6%, 17,840G)
VolgraTheMoose: 656G (10.1%, 656G)
Scurg: 500G (7.7%, 16,383G)
Nickyfive: 500G (7.7%, 6,018G)
SephDarkheart: 488G (7.5%, 18,719G)
getthemoneyz: 482G (7.5%, 1,556,524G)
powergems: 432G (6.7%, 432G)
acid_flashback: 302G (4.7%, 7,562G)
brenogarwin: 300G (4.6%, 300G)
Lord_Gwarth: 250G (3.9%, 2,203G)
JonnyCue: 209G (3.2%, 209G)
ZombiFrancis: 198G (3.1%, 3,979G)
holdenmagronik: 150G (2.3%, 2,610G)
Pbjellytimez: 112G (1.7%, 112G)
Firesheath: 100G (1.5%, 23,964G)
DouglasDragonThePoet: 100G (1.5%, 1,678G)
