Final Bets: white - 16 bets for 8,404G (45.4%, x1.20); black - 12 bets for 10,096G (54.6%, x0.83)

white bets:
Scurg: 2,000G (23.8%, 15,883G)
pplvee1: 1,825G (21.7%, 1,825G)
LDSkinny: 862G (10.3%, 862G)
VolgraTheMoose: 656G (7.8%, 656G)
acid_flashback: 508G (6.0%, 7,260G)
Kronikle: 492G (5.9%, 11,191G)
powergems: 432G (5.1%, 432G)
DavenIII: 384G (4.6%, 384G)
AllInBot: 253G (3.0%, 253G)
ArashiKurobara: 200G (2.4%, 4,891G)
Shalloween: 200G (2.4%, 20,260G)
brenogarwin: 136G (1.6%, 136G)
JonnyCue: 128G (1.5%, 128G)
Gunz232323: 116G (1.4%, 116G)
Pbjellytimez: 112G (1.3%, 112G)
JumbocactuarX27: 100G (1.2%, 2,577G)

black bets:
evdoggity: 4,000G (39.6%, 256,204G)
latebit: 1,780G (17.6%, 3,491G)
Nickyfive: 1,000G (9.9%, 5,518G)
nhammen: 1,000G (9.9%, 205,545G)
Nizaha: 688G (6.8%, 17,152G)
Rilgon: 344G (3.4%, 344G)
iBardic: 334G (3.3%, 334G)
BirbBrainsBot: 318G (3.1%, 47,453G)
kahjeethaswares: 316G (3.1%, 316G)
holdenmagronik: 150G (1.5%, 2,460G)
getthemoneyz: 116G (1.1%, 1,556,042G)
DouglasDragonThePoet: 50G (0.5%, 1,578G)
