Final Bets: blue - 15 bets for 8,121G (33.6%, x1.98); green - 13 bets for 16,053G (66.4%, x0.51)

blue bets:
Nickyfive: 2,000G (24.6%, 4,850G)
latebit: 1,050G (12.9%, 3,923G)
BirbBrainsBot: 1,000G (12.3%, 51,720G)
Nizaha: 688G (8.5%, 20,479G)
VolgraTheMoose: 656G (8.1%, 656G)
DLJuggernaut: 623G (7.7%, 623G)
iBardic: 612G (7.5%, 612G)
getthemoneyz: 414G (5.1%, 1,556,643G)
Lord_Gwarth: 250G (3.1%, 1,953G)
AllInBot: 200G (2.5%, 200G)
nhammen: 200G (2.5%, 207,578G)
JonnyCue: 128G (1.6%, 128G)
CosmicTactician: 100G (1.2%, 4,980G)
Gunz232323: 100G (1.2%, 580G)
Pbjellytimez: 100G (1.2%, 560G)

green bets:
Scurg: 6,942G (43.2%, 6,942G)
DeathTaxesAndAnime: 4,403G (27.4%, 8,634G)
JumbocactuarX27: 1,239G (7.7%, 1,239G)
DustBirdEX: 1,054G (6.6%, 2,108G)
pplvee1: 468G (2.9%, 2,341G)
Error72: 428G (2.7%, 428G)
ArashiKurobara: 372G (2.3%, 4,319G)
Rilgon: 315G (2.0%, 630G)
CapnChaos12: 300G (1.9%, 12,026G)
acid_flashback: 232G (1.4%, 232G)
holdenmagronik: 150G (0.9%, 2,435G)
Firesheath: 100G (0.6%, 24,264G)
DouglasDragonThePoet: 50G (0.3%, 2,020G)
