Final Bets: green - 17 bets for 13,135G (74.0%, x0.35); yellow - 10 bets for 4,625G (26.0%, x2.84)

green bets:
E_Ballard: 2,428G (18.5%, 2,428G)
Meta_Five: 2,000G (15.2%, 40,204G)
Zeroroute: 1,665G (12.7%, 4,049G)
SkylerBunny: 1,600G (12.2%, 509,785G)
JumbocactuarX27: 1,000G (7.6%, 10,714G)
sparker9: 1,000G (7.6%, 10,900G)
prince_rogers_nelson_: 600G (4.6%, 600G)
Laserman1000: 537G (4.1%, 5,837G)
KasugaiRoastedPeas: 528G (4.0%, 528G)
killth3kid: 500G (3.8%, 10,465G)
AltimaMantoid: 250G (1.9%, 1,000G)
extinctrational: 224G (1.7%, 224G)
gorgewall: 201G (1.5%, 26,817G)
Flameatron: 200G (1.5%, 3,175G)
ar_tactic: 200G (1.5%, 54,477G)
Chuckolator: 102G (0.8%, 122,883G)
datadrivenbot: 100G (0.8%, 48,756G)

yellow bets:
BirbBrainsBot: 1,000G (21.6%, 36,785G)
helpimabug: 853G (18.4%, 853G)
HaateXIII: 592G (12.8%, 592G)
sososteve: 500G (10.8%, 1,459G)
getthemoneyz: 428G (9.3%, 1,067,357G)
Shalloween: 400G (8.6%, 82,590G)
DuraiPapers: 352G (7.6%, 352G)
MattMan119: 200G (4.3%, 5,683G)
CosmicTactician: 200G (4.3%, 22,625G)
silentkaster: 100G (2.2%, 11,680G)
