Final Bets: green - 20 bets for 15,530G (46.5%, x1.15); yellow - 23 bets for 17,837G (53.5%, x0.87)

green bets:
twelfthrootoftwo: 1,905G (12.3%, 3,737G)
Lord_Burrah: 1,500G (9.7%, 86,000G)
NIghtdew14: 1,500G (9.7%, 42,864G)
VolgraTheMoose: 1,242G (8.0%, 2,485G)
ColetteMSLP: 1,000G (6.4%, 23,794G)
reinoe: 1,000G (6.4%, 109,400G)
ForagerCats: 1,000G (6.4%, 4,618G)
HaateXIII: 856G (5.5%, 856G)
AllInBot: 838G (5.4%, 838G)
Zagorsek: 736G (4.7%, 736G)
E_Ballard: 608G (3.9%, 608G)
LAGBOT30000: 561G (3.6%, 11,221G)
Lanshaft: 500G (3.2%, 21,803G)
Seaweed_B: 500G (3.2%, 10,701G)
fluffskull: 464G (3.0%, 464G)
Kronikle: 444G (2.9%, 7,652G)
Miku_Shikhu: 320G (2.1%, 320G)
Arcblazer23: 280G (1.8%, 280G)
getthemoneyz: 176G (1.1%, 1,360,780G)
ZCKaiser: 100G (0.6%, 14,138G)

yellow bets:
Virilikus: 3,000G (16.8%, 193,167G)
Thyrandaal: 2,222G (12.5%, 67,168G)
NicoSavoy: 2,000G (11.2%, 269,451G)
RaIshtar: 2,000G (11.2%, 6,992G)
cowlander: 1,000G (5.6%, 5,790G)
BirbBrainsBot: 1,000G (5.6%, 9,919G)
victoriolue: 986G (5.5%, 986G)
JLinkletter: 922G (5.2%, 922G)
coralreeferz: 750G (4.2%, 31,030G)
RunicMagus: 720G (4.0%, 720G)
Laserman1000: 654G (3.7%, 3,354G)
solomongrundy85: 600G (3.4%, 4,385G)
RageImmortaI: 308G (1.7%, 886G)
TasisSai: 300G (1.7%, 5,335G)
gorgewall: 201G (1.1%, 16,882G)
GladiatorLupe: 200G (1.1%, 407G)
datadrivenbot: 200G (1.1%, 37,596G)
douchetron: 160G (0.9%, 160G)
Vultuous: 152G (0.9%, 152G)
BaronHaynes: 150G (0.8%, 16,943G)
Hirameki85: 108G (0.6%, 108G)
ribbiks: 104G (0.6%, 104G)
Twisted_Nutsatchel: 100G (0.6%, 13,075G)
