Final Bets: blue - 18 bets for 11,253G (47.1%, x1.12); white - 22 bets for 12,659G (52.9%, x0.89)

blue bets:
Virilikus: 3,000G (26.7%, 188,512G)
NIghtdew14: 1,500G (13.3%, 47,931G)
ColetteMSLP: 1,000G (8.9%, 24,363G)
Zbgs: 1,000G (8.9%, 10,218G)
GladiatorLupe: 809G (7.2%, 809G)
victoriolue: 600G (5.3%, 600G)
LAGBOT30000: 508G (4.5%, 10,174G)
BaronHaynes: 500G (4.4%, 16,847G)
Zagorsek: 440G (3.9%, 440G)
RageImmortaI: 308G (2.7%, 520G)
ribbiks: 270G (2.4%, 270G)
Vultuous: 257G (2.3%, 257G)
gorgewall: 201G (1.8%, 16,820G)
AllInBot: 200G (1.8%, 200G)
DeathTaxesAndAnime: 200G (1.8%, 2,581G)
Grandlanzer: 200G (1.8%, 111,189G)
douchetron: 160G (1.4%, 160G)
ZCKaiser: 100G (0.9%, 14,253G)

white bets:
NicoSavoy: 2,000G (15.8%, 270,591G)
Arcblazer23: 1,247G (9.9%, 1,247G)
BirbBrainsBot: 1,000G (7.9%, 8,144G)
RaIshtar: 1,000G (7.9%, 6,072G)
Thyrandaal: 1,000G (7.9%, 63,835G)
TheMurkGnome: 879G (6.9%, 879G)
Miku_Shikhu: 595G (4.7%, 595G)
getthemoneyz: 538G (4.2%, 1,360,147G)
Lanshaft: 500G (3.9%, 21,913G)
TasisSai: 500G (3.9%, 3,642G)
Laserman1000: 499G (3.9%, 2,899G)
fluffskull: 468G (3.7%, 468G)
coralreeferz: 464G (3.7%, 28,730G)
MLWebz0r: 300G (2.4%, 3,226G)
JLinkletter: 296G (2.3%, 296G)
Hirameki85: 291G (2.3%, 291G)
latebit: 212G (1.7%, 212G)
scottydeluxe: 210G (1.7%, 1,000G)
datadrivenbot: 200G (1.6%, 37,510G)
acedude1981: 200G (1.6%, 30,690G)
nhammen: 160G (1.3%, 2,934G)
Twisted_Nutsatchel: 100G (0.8%, 12,944G)
