Final Bets: green - 17 bets for 9,960G (53.3%, x0.88); yellow - 9 bets for 8,734G (46.7%, x1.14)

green bets:
Evewho: 1,866G (18.7%, 1,866G)
Zetchryn: 1,500G (15.1%, 3,780G)
DeathTaxesAndAnime: 1,414G (14.2%, 1,414G)
mirapoix: 931G (9.3%, 931G)
datadrivenbot: 814G (8.2%, 26,002G)
Bulleta: 500G (5.0%, 3,736G)
Shalloween: 500G (5.0%, 28,344G)
getthemoneyz: 454G (4.6%, 460,319G)
waterwatereverywhere: 435G (4.4%, 435G)
superdevon1: 392G (3.9%, 7,854G)
BlinkFS: 232G (2.3%, 232G)
Chuckolator: 211G (2.1%, 3,318G)
TheMM42: 200G (2.0%, 2,515G)
KasugaiRoastedPeas: 200G (2.0%, 14,358G)
byrdturbo: 111G (1.1%, 8,138G)
RughSontos: 100G (1.0%, 2,491G)
Shadowmare250: 100G (1.0%, 877G)

yellow bets:
HASTERIOUS: 4,069G (46.6%, 4,069G)
sinnyil2: 1,200G (13.7%, 5,642G)
reinoe: 1,000G (11.4%, 21,093G)
BirbBrainsBot: 1,000G (11.4%, 46,587G)
upvla: 732G (8.4%, 22,492G)
AllInBot: 340G (3.9%, 340G)
jjones032109: 193G (2.2%, 193G)
ApplesauceBoss: 100G (1.1%, 2,516G)
Slowbrofist: 100G (1.1%, 1,325G)
