Final Bets: green - 12 bets for 15,790G (78.8%, x0.27); yellow - 9 bets for 4,253G (21.2%, x3.71)

green bets:
3ngag3: 5,000G (31.7%, 10,000G)
nhammen: 5,000G (31.7%, 258,167G)
getthemoneyz: 1,000G (6.3%, 2,005,131G)
BirbBrainsBot: 1,000G (6.3%, 158,471G)
reinoe: 1,000G (6.3%, 23,159G)
skillomono: 883G (5.6%, 883G)
lowlf: 564G (3.6%, 20,033G)
krombobreaker: 500G (3.2%, 8,706G)
Neech: 320G (2.0%, 2,876G)
xsifthewolf: 223G (1.4%, 4,529G)
AllInBot: 200G (1.3%, 200G)
scsuperstar: 100G (0.6%, 134G)

yellow bets:
Arcblazer23: 1,250G (29.4%, 1,250G)
latebit: 703G (16.5%, 703G)
Raixelol: 600G (14.1%, 6,585G)
lube_squid: 500G (11.8%, 7,962G)
robespyah: 500G (11.8%, 5,359G)
CorpusCav: 300G (7.1%, 5,842G)
datadrivenbot: 200G (4.7%, 73,283G)
RunicMagus: 100G (2.4%, 12,841G)
ANFz: 100G (2.4%, 5,519G)
