Final Bets: white - 32 bets for 13,644G (55.6%, x0.80); black - 13 bets for 10,899G (44.4%, x1.25)

white bets:
volgrathemoose: 1,001G (7.3%, 19,919G)
ungabunga_bot: 1,000G (7.3%, 276,376G)
deenglow: 1,000G (7.3%, 51,636G)
BirbBrainsBot: 1,000G (7.3%, 73,665G)
JumbocactuarX27: 1,000G (7.3%, 9,869G)
sinnyil2: 832G (6.1%, 832G)
FoxtrotNovemberCharlie: 621G (4.6%, 621G)
Zeroroute: 600G (4.4%, 600G)
Nizaha: 501G (3.7%, 7,146G)
ANFz: 500G (3.7%, 19,900G)
killth3kid: 500G (3.7%, 28,361G)
midori_ribbon: 500G (3.7%, 2,082G)
Chuckolator: 453G (3.3%, 23,344G)
luminarii: 450G (3.3%, 19,385G)
Cryptopsy70: 380G (2.8%, 29,877G)
duskps: 364G (2.7%, 364G)
MrDiggs49: 348G (2.6%, 348G)
cgMcWhiskers: 310G (2.3%, 310G)
museofdoom: 300G (2.2%, 1,712G)
Anethum: 300G (2.2%, 2,811G)
definitely_not_shroud: 285G (2.1%, 285G)
LivingHitokiri: 276G (2.0%, 276G)
BadErosion: 200G (1.5%, 7,061G)
ar_tactic: 150G (1.1%, 29,119G)
Banzem: 112G (0.8%, 112G)
daveb_: 111G (0.8%, 1,260G)
maakur_: 100G (0.7%, 112,728G)
Firesheath: 100G (0.7%, 10,670G)
frozentomato: 100G (0.7%, 1,471G)
datadrivenbot: 100G (0.7%, 5,192G)
astrozin11: 100G (0.7%, 2,714G)
richardserious: 50G (0.4%, 1,084G)

black bets:
ko2q: 3,961G (36.3%, 7,922G)
aStatue: 1,415G (13.0%, 1,415G)
JonnyCue: 1,000G (9.2%, 31,753G)
coralreeferz: 1,000G (9.2%, 20,599G)
ZephyrTempest: 908G (8.3%, 6,059G)
holyonline: 791G (7.3%, 791G)
getthemoneyz: 646G (5.9%, 601,255G)
superdevon1: 500G (4.6%, 15,528G)
troublesometree: 208G (1.9%, 208G)
KasugaiRoastedPeas: 200G (1.8%, 2,837G)
sukotsuto: 120G (1.1%, 120G)
nifboy: 100G (0.9%, 5,605G)
DrAntiSocial: 50G (0.5%, 19,295G)
