Final Bets: blue - 18 bets for 9,733G (28.0%, x2.57); green - 19 bets for 25,057G (72.0%, x0.39)

blue bets:
TheChainNerd: 2,500G (25.7%, 36,000G)
LAGBOT30000: 1,380G (14.2%, 27,609G)
Jeeboheebo: 1,311G (13.5%, 2,623G)
BoneMiser: 843G (8.7%, 843G)
HASTERIOUS: 600G (6.2%, 12,014G)
Vex_Novisk: 500G (5.1%, 20,129G)
killth3kid: 500G (5.1%, 25,795G)
lifeguard_dan: 439G (4.5%, 439G)
flowinprose: 400G (4.1%, 120,332G)
getthemoneyz: 334G (3.4%, 743,387G)
gorgewall: 201G (2.1%, 22,168G)
DAC169: 200G (2.1%, 3,643G)
gr8keeper: 100G (1.0%, 1,767G)
Evewho: 100G (1.0%, 19,504G)
maakur_: 100G (1.0%, 8,645G)
datadrivenbot: 100G (1.0%, 26,932G)
Xeldena: 100G (1.0%, 141G)
zepharoth89: 25G (0.3%, 2,155G)

green bets:
NicoSavoy: 7,831G (31.3%, 7,831G)
dogsandcatsand: 4,000G (16.0%, 7,437G)
LanseDM: 3,000G (12.0%, 32,590G)
Theseawolf1: 2,000G (8.0%, 48,624G)
ANFz: 1,718G (6.9%, 3,437G)
Rislyeu: 1,246G (5.0%, 1,246G)
TheMM42: 1,000G (4.0%, 28,390G)
BirbBrainsBot: 1,000G (4.0%, 20,096G)
E_Ballard: 736G (2.9%, 736G)
AllInBot: 547G (2.2%, 547G)
Cryptopsy70: 464G (1.9%, 464G)
DustBirdEX: 345G (1.4%, 4,206G)
Kyune: 250G (1.0%, 30,341G)
Arcblazer23: 214G (0.9%, 214G)
d4rr1n: 200G (0.8%, 3,028G)
kaelsun: 186G (0.7%, 186G)
bokurakira: 120G (0.5%, 208G)
CorpusCav: 100G (0.4%, 5,127G)
OneHundredFists: 100G (0.4%, 18,960G)
