Final Bets: green - 20 bets for 9,980G (49.5%, x1.02); yellow - 25 bets for 10,181G (50.5%, x0.98)

green bets:
Nizaha: 2,001G (20.1%, 21,194G)
ThePineappleSalesman: 1,395G (14.0%, 1,395G)
jethrothrul: 1,205G (12.1%, 1,205G)
sinnyil2: 1,200G (12.0%, 99,584G)
DeathTaxesAndAnime: 600G (6.0%, 600G)
Aldrammech: 600G (6.0%, 600G)
Jonusfatson: 591G (5.9%, 591G)
CapnChaos12: 548G (5.5%, 548G)
Shalloween: 500G (5.0%, 6,781G)
YaBoy125: 221G (2.2%, 22,157G)
ugoplatamia: 200G (2.0%, 7,765G)
Ausuri: 200G (2.0%, 1,228G)
rNdOrchestra: 108G (1.1%, 108G)
ungabunga_bot: 106G (1.1%, 60,963G)
rjA0zcOQ96: 100G (1.0%, 5,355G)
ApplesauceBoss: 100G (1.0%, 4,292G)
maakur_: 100G (1.0%, 2,793G)
datadrivenbot: 100G (1.0%, 22,454G)
BuffaloCrunch: 100G (1.0%, 14,842G)
ko2q: 5G (0.1%, 2,324G)

yellow bets:
upvla: 1,219G (12.0%, 130,591G)
RunicMagus: 1,200G (11.8%, 46,953G)
GreatRedDragon: 932G (9.2%, 932G)
bad1dea: 800G (7.9%, 45,919G)
BirbBrainsBot: 760G (7.5%, 256,785G)
DudeMonkey77: 736G (7.2%, 736G)
Lanshaft: 600G (5.9%, 4,738G)
Evewho: 500G (4.9%, 3,029G)
EnemyController: 450G (4.4%, 26,886G)
Baron_von_Scrub: 353G (3.5%, 13,872G)
OneHundredFists: 344G (3.4%, 344G)
DrAntiSocial: 240G (2.4%, 1,066G)
ZephyrTempest: 239G (2.3%, 23,890G)
joewcarson: 226G (2.2%, 226G)
old_overholt_: 224G (2.2%, 224G)
moonliquor: 216G (2.1%, 216G)
urieltheflameofgod: 200G (2.0%, 2,078G)
getthemoneyz: 154G (1.5%, 443,775G)
AllInBot: 144G (1.4%, 144G)
edgehead62888: 124G (1.2%, 124G)
Vyroxe: 120G (1.2%, 120G)
Firesheath: 100G (1.0%, 5,342G)
Basmal: 100G (1.0%, 57,707G)
Wolvaroo: 100G (1.0%, 781G)
rico_flex: 100G (1.0%, 3,122G)
