Final Bets: red - 18 bets for 7,905G (55.5%, x0.80); yellow - 14 bets for 6,347G (44.5%, x1.25)

red bets:
volgrathemoose: 1,001G (12.7%, 6,746G)
TheChainNerd: 1,000G (12.7%, 15,218G)
Lord_Burrah: 1,000G (12.7%, 92,639G)
Treapvort: 800G (10.1%, 23,852G)
Lanshaft: 600G (7.6%, 10,839G)
Draconis345: 500G (6.3%, 2,218G)
Wigraf: 500G (6.3%, 13,350G)
UmaiJam: 492G (6.2%, 492G)
Phytik: 400G (5.1%, 3,048G)
getthemoneyz: 316G (4.0%, 400,625G)
ko2q: 296G (3.7%, 296G)
ugoplatamia: 200G (2.5%, 18,639G)
tmo50x: 200G (2.5%, 1,002G)
maakur_: 200G (2.5%, 2,653G)
Verxl: 100G (1.3%, 2,273G)
ZephyrTempest: 100G (1.3%, 18,852G)
JumbocactuarX27: 100G (1.3%, 601G)
datadrivenbot: 100G (1.3%, 15,368G)

yellow bets:
superdevon1: 1,011G (15.9%, 1,011G)
BirbBrainsBot: 1,000G (15.8%, 109,608G)
bad1dea: 1,000G (15.8%, 321,060G)
Cataphract116: 681G (10.7%, 681G)
PatSouI: 647G (10.2%, 647G)
snkey: 332G (5.2%, 332G)
LDSkinny: 312G (4.9%, 312G)
Aeolus_000: 300G (4.7%, 3,579G)
Anethum: 264G (4.2%, 264G)
SomeCallMeGON: 200G (3.2%, 1,409G)
InOzWeTrust: 200G (3.2%, 2,325G)
Aneyus: 200G (3.2%, 11,762G)
RezzaDV: 100G (1.6%, 829G)
TheBodaciousLlama: 100G (1.6%, 100G)
