Final Bets: white - 7 bets for 10,388G (44.7%, x1.24); black - 15 bets for 12,836G (55.3%, x0.81)

white bets:
aStatue: 8,281G (79.7%, 8,281G)
R_Raynos: 927G (8.9%, 927G)
ColetteMSLP: 500G (4.8%, 27,030G)
ShintaroNayaka: 400G (3.9%, 20,109G)
KerikXI: 160G (1.5%, 160G)
ParadiseNinja: 82G (0.8%, 828G)
roqqqpsi: 38G (0.4%, 1,908G)

black bets:
HaplessOne: 3,333G (26.0%, 116,513G)
Lydian_C: 2,400G (18.7%, 138,444G)
HASTERIOUS: 1,343G (10.5%, 8,955G)
BirbBrainsBot: 1,000G (7.8%, 109,724G)
Cataphract116: 1,000G (7.8%, 29,812G)
ungabunga_bot: 749G (5.8%, 193,522G)
CassiePhoenix: 740G (5.8%, 740G)
Goust18: 600G (4.7%, 7,839G)
Mikumari12: 588G (4.6%, 588G)
Dexsana: 500G (3.9%, 4,750G)
getthemoneyz: 282G (2.2%, 543,515G)
AllInBot: 100G (0.8%, 100G)
pLifer: 100G (0.8%, 1,960G)
datadrivenbot: 100G (0.8%, 141G)
PatSouI: 1G (0.0%, 17,656G)
