Final Bets: purple - 5 bets for 6,585G (41.6%, x1.41); brown - 17 bets for 9,254G (58.4%, x0.71)

purple bets:
Estan_AD: 5,248G (79.7%, 10,497G)
DeathTaxesAndAnime: 540G (8.2%, 540G)
josephiroth_143: 447G (6.8%, 447G)
otakutaylor: 200G (3.0%, 3,932G)
Communis: 150G (2.3%, 2,559G)

brown bets:
ZZ_Yoshi: 1,400G (15.1%, 41,512G)
ungabunga_bot: 1,000G (10.8%, 536,135G)
BirbBrainsBot: 1,000G (10.8%, 150,200G)
getthemoneyz: 1,000G (10.8%, 684,128G)
reinoe: 1,000G (10.8%, 10,886G)
HawkSick: 1,000G (10.8%, 8,336G)
CorpusCav: 829G (9.0%, 829G)
tronfonne: 472G (5.1%, 472G)
Phytik: 324G (3.5%, 324G)
twelfthrootoftwo: 300G (3.2%, 16,511G)
gorgewall: 201G (2.2%, 10,783G)
Palladigm: 200G (2.2%, 9,004G)
CrownOfHorns: 120G (1.3%, 120G)
itsZaes: 108G (1.2%, 108G)
datadrivenbot: 100G (1.1%, 18,769G)
VulcanPanderp: 100G (1.1%, 4,193G)
alecttox: 100G (1.1%, 4,344G)
