Final Bets: blue - 9 bets for 10,495G (30.3%, x2.29); champion - 19 bets for 24,086G (69.7%, x0.44)

blue bets:
Phytik: 3,091G (29.5%, 3,091G)
Triskiut: 2,044G (19.5%, 2,044G)
Lali_Lulelo: 1,276G (12.2%, 1,276G)
martymcfly2021: 1,264G (12.0%, 1,264G)
BirbBrainsBot: 1,000G (9.5%, 151,582G)
Sairentozon7: 920G (8.8%, 920G)
HorusTaurus: 500G (4.8%, 7,396G)
KasugaiRoastedPeas: 200G (1.9%, 368G)
twelfthrootoftwo: 200G (1.9%, 16,325G)

champion bets:
VulcanPanderp: 4,000G (16.6%, 12,607G)
BlackfyreRoy: 3,001G (12.5%, 3,001G)
DaveStrider55: 2,464G (10.2%, 2,464G)
alecttox: 2,250G (9.3%, 4,500G)
HawkSick: 2,000G (8.3%, 7,114G)
leakimiko: 1,500G (6.2%, 44,149G)
Evewho: 1,274G (5.3%, 2,499G)
Digitalsocrates: 1,270G (5.3%, 1,270G)
CorpusCav: 1,200G (5.0%, 1,200G)
tronfonne: 808G (3.4%, 808G)
sinnyil2: 796G (3.3%, 796G)
OrganicArtist: 777G (3.2%, 4,716G)
getthemoneyz: 630G (2.6%, 685,162G)
Laserman1000: 600G (2.5%, 13,700G)
R_Raynos: 564G (2.3%, 564G)
ungabunga_bot: 544G (2.3%, 536,289G)
otakutaylor: 200G (0.8%, 3,789G)
itsZaes: 108G (0.4%, 108G)
datadrivenbot: 100G (0.4%, 18,540G)
