Final Bets: white - 25 bets for 15,274G (72.8%, x0.37); champion - 11 bets for 5,714G (27.2%, x2.67)

white bets:
ShintaroNayaka: 1,938G (12.7%, 3,522G)
UmaiJam: 1,500G (9.8%, 58,117G)
EnemyController: 1,500G (9.8%, 1,383,500G)
fenaen: 1,400G (9.2%, 26,480G)
mpghappiness: 1,234G (8.1%, 3,621G)
BirbBrainsBot: 1,000G (6.5%, 167,186G)
Mathlexis: 750G (4.9%, 7,831G)
E_Ballard: 734G (4.8%, 734G)
Shalloween: 700G (4.6%, 70,530G)
Blastinus: 645G (4.2%, 645G)
TheChainNerd: 584G (3.8%, 5,842G)
GladiatorLupe: 528G (3.5%, 528G)
killth3kid: 444G (2.9%, 8,228G)
DeathTaxesAndAnime: 300G (2.0%, 1,991G)
joewcarson: 300G (2.0%, 3,735G)
SQUiDSQUARKLIN: 300G (2.0%, 2,607G)
JLinkletter: 250G (1.6%, 3,251G)
DaKoopa49: 216G (1.4%, 216G)
gorgewall: 201G (1.3%, 29,097G)
Grandlanzer: 200G (1.3%, 39,183G)
ar_tactic: 150G (1.0%, 62,513G)
CosmicTactician: 100G (0.7%, 22,251G)
Quadh0nk: 100G (0.7%, 6,168G)
DuneMeta: 100G (0.7%, 1,523G)
datadrivenbot: 100G (0.7%, 47,619G)

champion bets:
ZCKaiser: 1,026G (18.0%, 10,261G)
Thyrandaal: 1,000G (17.5%, 18,914G)
Seef2208: 750G (13.1%, 5,000G)
ArashiKurobara: 736G (12.9%, 736G)
Laserman1000: 600G (10.5%, 13,100G)
DLJuggernaut: 500G (8.8%, 3,236G)
CapnChaos12: 300G (5.3%, 6,158G)
JumbocactuarX27: 300G (5.3%, 14,795G)
benticore: 250G (4.4%, 2,393G)
getthemoneyz: 152G (2.7%, 1,113,335G)
Sans_from_Snowdin: 100G (1.8%, 28,410G)
