Final Bets: red - 26 bets for 12,302G (53.3%, x0.88); blue - 21 bets for 10,784G (46.7%, x1.14)

red bets:
Nickyfive: 2,221G (18.1%, 4,442G)
RongRongArts: 1,160G (9.4%, 2,320G)
Lodrak: 1,001G (8.1%, 7,284G)
BirbBrainsBot: 1,000G (8.1%, 199,554G)
bad1dea: 1,000G (8.1%, 189,097G)
ShintaroNayaka: 958G (7.8%, 958G)
Aldrammech: 600G (4.9%, 600G)
getthemoneyz: 510G (4.1%, 352,737G)
DavenIII: 508G (4.1%, 508G)
LDSkinny: 500G (4.1%, 2,913G)
ThePineappleSalesman: 388G (3.2%, 388G)
thaetreis: 341G (2.8%, 341G)
ZephyrTempest: 248G (2.0%, 11,847G)
Baron_von_Scrub: 228G (1.9%, 228G)
roqqqpsi: 222G (1.8%, 2,246G)
inzo24: 203G (1.7%, 678G)
Maeveen: 200G (1.6%, 7,377G)
Humble_Fabio: 160G (1.3%, 160G)
ungabunga_bot: 143G (1.2%, 764G)
Jordache7K: 111G (0.9%, 14,792G)
Zagorsek: 100G (0.8%, 279,381G)
Bongomon7: 100G (0.8%, 4,473G)
datadrivenbot: 100G (0.8%, 13,151G)
bernoullisb1tch: 100G (0.8%, 151G)
Glory_Seeker: 100G (0.8%, 3,954G)
ko2q: 100G (0.8%, 804G)

blue bets:
NovaKnight21: 2,241G (20.8%, 4,483G)
TheChainNerd: 1,769G (16.4%, 17,699G)
rechaun: 1,332G (12.4%, 1,332G)
z32o: 1,017G (9.4%, 3,912G)
rocl: 779G (7.2%, 7,790G)
MoonSlayerRS: 525G (4.9%, 525G)
genoguy: 500G (4.6%, 2,097G)
Theseawolf1: 500G (4.6%, 5,509G)
ColetteMSLP: 300G (2.8%, 8,419G)
DHaveWord: 288G (2.7%, 288G)
commandlistfgc: 250G (2.3%, 3,955G)
fenixcrest: 231G (2.1%, 4,636G)
kai_shee: 200G (1.9%, 39,849G)
Oshimi12: 200G (1.9%, 1,804G)
Treapvort: 200G (1.9%, 2,965G)
maakur_: 100G (0.9%, 54,879G)
PlatinumPlume: 100G (0.9%, 3,883G)
wodthehunter: 100G (0.9%, 1,107G)
wackyzachyy: 100G (0.9%, 100G)
WinnerBit: 50G (0.5%, 1,295G)
daveb_: 2G (0.0%, 1,862G)
