Final Bets: green - 15 bets for 15,848G (66.3%, x0.51); white - 12 bets for 8,073G (33.7%, x1.96)

green bets:
cam_ATS: 5,000G (31.5%, 16,726G)
Firesheath: 2,327G (14.7%, 2,327G)
TheChainNerd: 1,464G (9.2%, 1,464G)
JumbocactuarX27: 1,000G (6.3%, 3,798G)
Rytor: 1,000G (6.3%, 9,415G)
Laserman1000: 987G (6.2%, 19,487G)
AllInBot: 851G (5.4%, 851G)
fluffskull: 751G (4.7%, 751G)
roqqqpsi: 655G (4.1%, 5,962G)
Kronikle: 600G (3.8%, 16,130G)
Cryptopsy70: 528G (3.3%, 10,476G)
Quadh0nk: 284G (1.8%, 284G)
gorgewall: 201G (1.3%, 15,395G)
ko2q: 100G (0.6%, 1,295G)
datadrivenbot: 100G (0.6%, 34,576G)

white bets:
mayfu: 2,500G (31.0%, 64,194G)
Error72: 1,000G (12.4%, 9,003G)
BirbBrainsBot: 1,000G (12.4%, 128,659G)
old_overholt_: 1,000G (12.4%, 37,224G)
bruubarg: 599G (7.4%, 599G)
Oobs56: 500G (6.2%, 1,530G)
joewcarson: 400G (5.0%, 57,858G)
metagameface: 380G (4.7%, 380G)
Evewho: 200G (2.5%, 6,867G)
BoneMiser: 200G (2.5%, 1,294G)
getthemoneyz: 194G (2.4%, 916,137G)
Digitalsocrates: 100G (1.2%, 29,553G)
