Final Bets: purple - 13 bets for 6,036G (13.1%, x6.62); brown - 17 bets for 39,966G (86.9%, x0.15)

purple bets:
volgrathemoose: 1,125G (18.6%, 1,125G)
BirbBrainsBot: 1,000G (16.6%, 27,608G)
bad1dea: 1,000G (16.6%, 257,159G)
getthemoneyz: 568G (9.4%, 396,630G)
0utlier: 507G (8.4%, 507G)
Treapvort: 500G (8.3%, 20,769G)
DeathTaxesAndAnime: 464G (7.7%, 464G)
Baron_von_Scrub: 272G (4.5%, 272G)
rrazzoug: 200G (3.3%, 7,592G)
ApplesauceBoss: 100G (1.7%, 1,255G)
CidDurai: 100G (1.7%, 1,968G)
kanehrym: 100G (1.7%, 1,032G)
noztril: 100G (1.7%, 889G)

brown bets:
Zeroroute: 13,429G (33.6%, 23,075G)
Aldrammech: 10,049G (25.1%, 10,049G)
Zetchryn: 8,299G (20.8%, 8,299G)
Rastanar: 3,000G (7.5%, 6,192G)
NovaKnight21: 1,104G (2.8%, 1,104G)
DudeMonkey77: 1,000G (2.5%, 31,247G)
reinoe: 500G (1.3%, 11,130G)
Scar3dCr0w: 500G (1.3%, 3,080G)
HaplessOne: 500G (1.3%, 40,604G)
Wizard_01: 400G (1.0%, 23,447G)
fenaen: 300G (0.8%, 2,196G)
ko2q: 268G (0.7%, 268G)
jhazor: 208G (0.5%, 208G)
Aeolus_000: 200G (0.5%, 943G)
robespyah: 108G (0.3%, 108G)
datadrivenbot: 100G (0.3%, 17,907G)
daveb_: 1G (0.0%, 704G)
