Final Bets: green - 9 bets for 3,979G (23.0%, x3.34); yellow - 17 bets for 13,296G (77.0%, x0.30)

green bets:
Thyrandaal: 1,453G (36.5%, 1,453G)
NicoSavoy: 1,056G (26.5%, 1,056G)
JonnyCue: 500G (12.6%, 14,675G)
Reddash9: 240G (6.0%, 240G)
getthemoneyz: 218G (5.5%, 2,175,587G)
WhiteDog420: 200G (5.0%, 1,925G)
FE34923: 112G (2.8%, 112G)
cloudycube: 100G (2.5%, 454G)
Firesheath: 100G (2.5%, 1,930G)

yellow bets:
DLJuggernaut: 4,174G (31.4%, 8,185G)
DeathTaxesAndAnime: 2,007G (15.1%, 2,007G)
CorpusCav: 1,500G (11.3%, 66,301G)
BirbBrainsBot: 1,000G (7.5%, 97,294G)
WireLord: 743G (5.6%, 743G)
Lionhermit: 525G (3.9%, 1,031G)
krombobreaker: 500G (3.8%, 38,669G)
Mushufasa_: 500G (3.8%, 14,783G)
ColetteMSLP: 500G (3.8%, 17,558G)
iBardic: 404G (3.0%, 404G)
2b_yorha_b: 400G (3.0%, 16,984G)
alexknyde: 360G (2.7%, 360G)
AllInBot: 200G (1.5%, 200G)
datadrivenbot: 200G (1.5%, 88,215G)
MillionGhosts: 172G (1.3%, 172G)
gorgewall: 101G (0.8%, 8,199G)
nhammen: 10G (0.1%, 46,279G)
