Final Bets: white - 14 bets for 9,631G (67.9%, x0.47); black - 10 bets for 4,551G (32.1%, x2.12)

white bets:
reinoe: 3,834G (39.8%, 3,834G)
DeathTaxesAndAnime: 1,330G (13.8%, 2,608G)
Thyrandaal: 776G (8.1%, 776G)
iBardic: 525G (5.5%, 525G)
krombobreaker: 500G (5.2%, 38,819G)
Laserman1000: 500G (5.2%, 11,100G)
old_overholt_: 500G (5.2%, 58,029G)
alexknyde: 468G (4.9%, 468G)
3ngag3: 448G (4.7%, 19,940G)
Reddash9: 240G (2.5%, 240G)
ValensEXP_: 200G (2.1%, 6,157G)
datadrivenbot: 200G (2.1%, 88,275G)
GiggleStik: 100G (1.0%, 20,543G)
nhammen: 10G (0.1%, 46,282G)

black bets:
CorpusCav: 1,200G (26.4%, 66,750G)
BirbBrainsBot: 1,000G (22.0%, 97,593G)
NicoSavoy: 564G (12.4%, 564G)
Mushufasa_: 500G (11.0%, 14,933G)
2b_yorha_b: 400G (8.8%, 17,104G)
AllInBot: 260G (5.7%, 260G)
MillionGhosts: 223G (4.9%, 223G)
getthemoneyz: 192G (4.2%, 2,175,369G)
FE34923: 112G (2.5%, 112G)
cloudycube: 100G (2.2%, 354G)
