Final Bets: purple - 16 bets for 11,764G (69.8%, x0.43); brown - 9 bets for 5,088G (30.2%, x2.31)

purple bets:
Mesmaster: 4,803G (40.8%, 4,803G)
ExecutedGiraffe: 2,048G (17.4%, 2,048G)
Rislyeu: 925G (7.9%, 1,850G)
BirbBrainsBot: 878G (7.5%, 163,886G)
YaBoy125: 772G (6.6%, 772G)
gorgewall: 376G (3.2%, 376G)
just_here2: 374G (3.2%, 3,740G)
Belkra: 359G (3.1%, 359G)
Breakdown777: 300G (2.6%, 7,613G)
serperemagus: 229G (1.9%, 229G)
prince_rogers_nelson_: 200G (1.7%, 1,239G)
Celdia: 100G (0.9%, 2,326G)
nhammen: 100G (0.9%, 459G)
E_Ballard: 100G (0.9%, 3,542G)
datadrivenbot: 100G (0.9%, 35,334G)
brokenknight201: 100G (0.9%, 801G)

brown bets:
SeniorBunk: 2,000G (39.3%, 10,529G)
edgehead62888: 1,000G (19.7%, 21,424G)
VolgraTheMoose: 500G (9.8%, 8,982G)
RaIshtar: 479G (9.4%, 479G)
beowulfrulez: 300G (5.9%, 300G)
josephiroth_143: 300G (5.9%, 6,663G)
getthemoneyz: 186G (3.7%, 844,382G)
ShadowedFlames: 171G (3.4%, 171G)
Thyrandaal: 152G (3.0%, 152G)
