Final Bets: black - 11 bets for 7,151G (58.2%, x0.72); purple - 13 bets for 5,137G (41.8%, x1.39)

black bets:
VolgraTheMoose: 2,001G (28.0%, 9,244G)
edgehead62888: 2,000G (28.0%, 19,424G)
josephiroth_143: 2,000G (28.0%, 6,863G)
richardserious: 300G (4.2%, 2,811G)
Belkra: 290G (4.1%, 581G)
bokurakira: 150G (2.1%, 896G)
ThePineappleSalesman: 100G (1.4%, 2,457G)
lastly: 100G (1.4%, 12,275G)
datadrivenbot: 100G (1.4%, 35,403G)
IphoneDarkness: 100G (1.4%, 2,275G)
getthemoneyz: 10G (0.1%, 844,282G)

purple bets:
BirbBrainsBot: 1,000G (19.5%, 163,266G)
Mesmaster: 1,000G (19.5%, 9,685G)
Thyrandaal: 652G (12.7%, 652G)
Phi_Sig: 555G (10.8%, 153,715G)
gorgewall: 380G (7.4%, 380G)
Breakdown777: 300G (5.8%, 8,247G)
Flameatron: 280G (5.5%, 280G)
BruddaShrine: 250G (4.9%, 1,006G)
prince_rogers_nelson_: 200G (3.9%, 1,626G)
Rislyeu: 200G (3.9%, 3,339G)
YaBoy125: 120G (2.3%, 1,606G)
Celdia: 100G (1.9%, 2,895G)
megakim: 100G (1.9%, 6,026G)
