Final Bets: white - 11 bets for 9,668G (20.0%, x3.99); champion - 16 bets for 38,555G (80.0%, x0.25)

white bets:
ko2q: 3,038G (31.4%, 6,077G)
FoxtrotNovemberCharlie: 1,395G (14.4%, 1,395G)
Rislyeu: 1,237G (12.8%, 1,237G)
ungabunga_bot: 1,000G (10.3%, 285,362G)
BirbBrainsBot: 1,000G (10.3%, 72,023G)
ColetteMSLP: 600G (6.2%, 22,332G)
cgMcWhiskers: 500G (5.2%, 1,956G)
LivingHitokiri: 288G (3.0%, 288G)
Pink_LuigiX: 256G (2.6%, 256G)
getthemoneyz: 254G (2.6%, 604,580G)
Anethum: 100G (1.0%, 2,042G)

champion bets:
Lydian_C: 21,501G (55.8%, 42,160G)
leakimiko: 5,497G (14.3%, 10,780G)
sagafrontier2: 3,095G (8.0%, 3,095G)
Jeeboheebo: 1,504G (3.9%, 1,504G)
Reductions: 1,191G (3.1%, 1,191G)
midori_ribbon: 1,074G (2.8%, 2,106G)
Mesmaster: 1,000G (2.6%, 14,131G)
reinoe: 600G (1.6%, 600G)
passingthedays: 583G (1.5%, 583G)
DeathTaxesAndAnime: 576G (1.5%, 576G)
UmbraKnights: 500G (1.3%, 7,900G)
lobsterlobster: 485G (1.3%, 485G)
astrozin11: 393G (1.0%, 5,793G)
AllInBot: 356G (0.9%, 356G)
datadrivenbot: 100G (0.3%, 7,158G)
Evewho: 100G (0.3%, 6,418G)
