Final Bets: white - 13 bets for 5,240G (28.4%, x2.52); purple - 23 bets for 13,215G (71.6%, x0.40)

white bets:
DarrenDinosaurs: 1,000G (19.1%, 5,360G)
DeathTaxesAndAnime: 839G (16.0%, 1,647G)
Laserman1000: 809G (15.4%, 16,409G)
EnemyController: 500G (9.5%, 35,074G)
truestrike: 500G (9.5%, 5,588G)
thevilmen: 498G (9.5%, 498G)
pandasforsale: 444G (8.5%, 16,042G)
DaMadPanda182: 200G (3.8%, 2,488G)
AllInBot: 100G (1.9%, 100G)
rjA0zcOQ96: 100G (1.9%, 6,168G)
Aremath: 100G (1.9%, 6,904G)
Evewho: 100G (1.9%, 3,848G)
cougboi: 50G (1.0%, 4,550G)

purple bets:
eltejongrande: 4,000G (30.3%, 9,280G)
sinnyil2: 1,500G (11.4%, 12,484G)
Shalloween: 1,200G (9.1%, 17,452G)
BirbBrainsBot: 1,000G (7.6%, 276,713G)
I_nod_my_head_when_I_lose: 750G (5.7%, 14,447G)
Ausuri: 688G (5.2%, 13,776G)
luminarii: 553G (4.2%, 14,747G)
Faplo: 500G (3.8%, 2,201G)
Treapvort: 360G (2.7%, 360G)
0utlier: 350G (2.6%, 5,249G)
HaateXIII: 316G (2.4%, 316G)
CapnChaos12: 300G (2.3%, 3,706G)
ColetteMSLP: 300G (2.3%, 12,371G)
ungabunga_bot: 244G (1.8%, 84,813G)
Chuckolator: 231G (1.7%, 5,496G)
getthemoneyz: 178G (1.3%, 446,964G)
electric_glass: 150G (1.1%, 1,401G)
NoNotBees: 100G (0.8%, 243G)
RughSontos: 100G (0.8%, 1,451G)
BlinkFS: 100G (0.8%, 3,192G)
datadrivenbot: 100G (0.8%, 24,968G)
Sup_Johnny: 100G (0.8%, 388G)
DrAntiSocial: 95G (0.7%, 3,493G)
