Final Bets: green - 17 bets for 4,262G (23.7%, x3.22); yellow - 24 bets for 13,720G (76.3%, x0.31)

green bets:
Lali_Lulelo: 568G (13.3%, 568G)
DeathTaxesAndAnime: 508G (11.9%, 508G)
genericco: 500G (11.7%, 6,006G)
LivingHitokiri: 409G (9.6%, 409G)
Sairentozon7: 392G (9.2%, 392G)
solomongrundy85: 300G (7.0%, 18,491G)
Lythe_Caraker: 250G (5.9%, 116,401G)
OverlordCuddles: 250G (5.9%, 10,689G)
gorgewall: 201G (4.7%, 7,536G)
NicoSavoy: 200G (4.7%, 8,637G)
rico_flex: 140G (3.3%, 31,154G)
nok____: 128G (3.0%, 10,150G)
Kyune: 100G (2.3%, 1,665G)
cupholderr: 100G (2.3%, 4,935G)
mikesk1: 100G (2.3%, 3,380G)
HawkSick: 66G (1.5%, 4,434G)
benticore: 50G (1.2%, 3,078G)

yellow bets:
Estan_AD: 2,659G (19.4%, 5,318G)
sinnyil2: 1,200G (8.7%, 3,028G)
HaateXIII: 1,083G (7.9%, 1,083G)
Dexsana: 1,000G (7.3%, 5,084G)
theNGUYENNER: 1,000G (7.3%, 10,456G)
stukerk: 908G (6.6%, 908G)
SirCherish: 688G (5.0%, 688G)
getthemoneyz: 640G (4.7%, 655,040G)
Laserman1000: 539G (3.9%, 10,039G)
CorpusCav: 520G (3.8%, 3,575G)
BuffaloCrunch: 500G (3.6%, 2,138G)
Boojob: 399G (2.9%, 399G)
ungabunga_bot: 383G (2.8%, 429,066G)
SimplyRed: 300G (2.2%, 2,848G)
CapnChaos12: 300G (2.2%, 2,485G)
ZZ_Yoshi: 240G (1.7%, 4,284G)
BirbBrainsBot: 237G (1.7%, 158,241G)
Ungaiii: 228G (1.7%, 228G)
King_Harb: 224G (1.6%, 1,724G)
grayeternity: 200G (1.5%, 1,073G)
pstud: 172G (1.3%, 172G)
rjA0zcOQ96: 100G (0.7%, 12,844G)
datadrivenbot: 100G (0.7%, 12,611G)
FlohIristhrae: 100G (0.7%, 834G)
