Final Bets: blue - 5 bets for 6,632G (81.5%, x0.23); yellow - 5 bets for 1,501G (18.5%, x4.42)

blue bets:
krombobreaker: 5,322G (80.2%, 5,322G)
Aldrammech: 500G (7.5%, 2,158G)
getthemoneyz: 342G (5.2%, 1,774,564G)
MemoriesofFinal: 268G (4.0%, 268G)
datadrivenbot: 200G (3.0%, 58,023G)

yellow bets:
BirbBrainsBot: 1,000G (66.6%, 123,625G)
Omally_: 200G (13.3%, 212G)
gorgewall: 101G (6.7%, 10,210G)
AllInBot: 100G (6.7%, 100G)
brenogarwin: 100G (6.7%, 1,632G)
