Final Bets: red - 14 bets for 10,645G (61.4%, x0.63); blue - 8 bets for 6,682G (38.6%, x1.59)

red bets:
Mesmaster: 2,000G (18.8%, 30,730G)
NicoSavoy: 2,000G (18.8%, 163,284G)
OneHundredFists: 1,988G (18.7%, 1,988G)
UmaiJam: 1,600G (15.0%, 61,376G)
BirbBrainsBot: 1,000G (9.4%, 165,817G)
getthemoneyz: 376G (3.5%, 1,232,646G)
prince_rogers_nelson_: 352G (3.3%, 352G)
Shalloween: 300G (2.8%, 55,114G)
SaltiestMage: 250G (2.3%, 2,061G)
ThreeMileIsland: 236G (2.2%, 236G)
datadrivenbot: 200G (1.9%, 61,401G)
Ixionnyu: 122G (1.1%, 122G)
Lydian_C: 121G (1.1%, 122,653G)
Aquios_: 100G (0.9%, 450G)

blue bets:
NovaKnight21: 4,000G (59.9%, 27,120G)
DeathTaxesAndAnime: 1,054G (15.8%, 1,054G)
Laserman1000: 600G (9.0%, 26,800G)
JethroThrul: 352G (5.3%, 352G)
superdevon1: 272G (4.1%, 2,721G)
Kronikle: 200G (3.0%, 3,379G)
Salted_Cliff_Racer: 104G (1.6%, 104G)
Ring_Wyrm: 100G (1.5%, 11,488G)
