Final Bets: red - 13 bets for 3,786G (43.3%, x1.31); blue - 20 bets for 4,963G (56.7%, x0.76)

red bets:
TheChainNerd: 1,000G (26.4%, 5,424G)
DeathTaxesAndAnime: 662G (17.5%, 662G)
volgrathemoose: 636G (16.8%, 1,272G)
HaplessOne: 500G (13.2%, 19,303G)
ugoplatamia: 200G (5.3%, 14,886G)
RezzaDV: 187G (4.9%, 187G)
CidDurai: 100G (2.6%, 1,716G)
maakur_: 100G (2.6%, 3,755G)
ko2q: 100G (2.6%, 789G)
datadrivenbot: 100G (2.6%, 15,652G)
rocl: 100G (2.6%, 5,341G)
InOzWeTrust: 100G (2.6%, 2,108G)
daveb_: 1G (0.0%, 1,322G)

blue bets:
kai_shee: 800G (16.1%, 43,257G)
Laserman1000: 494G (10.0%, 2,894G)
z32o: 412G (8.3%, 412G)
bad1dea: 400G (8.1%, 323,841G)
rechaun: 390G (7.9%, 390G)
UmaiJam: 325G (6.5%, 3,254G)
PatSouI: 316G (6.4%, 316G)
Error72: 250G (5.0%, 5,830G)
ZephyrTempest: 213G (4.3%, 20,286G)
Blakelmenakle: 200G (4.0%, 1,633G)
Cataphract116: 200G (4.0%, 887G)
BirbBrainsBot: 161G (3.2%, 111,809G)
xDeadlytoxinsx: 150G (3.0%, 1,000G)
getthemoneyz: 136G (2.7%, 401,637G)
rjA0zcOQ96: 110G (2.2%, 1,618G)
jethrothrul: 100G (2.0%, 1,015G)
Aneyus: 100G (2.0%, 11,490G)
Aislingeach: 100G (2.0%, 3,556G)
jhazor: 56G (1.1%, 1,139G)
WinnerBit: 50G (1.0%, 1,202G)
