Final Bets: purple - 17 bets for 7,373G (52.9%, x0.89); brown - 8 bets for 6,575G (47.1%, x1.12)

purple bets:
jhazor: 1,029G (14.0%, 1,029G)
inzo_bettingbot: 1,000G (13.6%, 51,853G)
BirbBrainsBot: 1,000G (13.6%, 110,426G)
bad1dea: 1,000G (13.6%, 322,041G)
kai_shee: 850G (11.5%, 42,229G)
rechaun: 457G (6.2%, 914G)
ZephyrTempest: 297G (4.0%, 19,627G)
ko2q: 296G (4.0%, 296G)
getthemoneyz: 280G (3.8%, 401,845G)
kekkerscrew: 228G (3.1%, 228G)
ugoplatamia: 200G (2.7%, 15,100G)
koou: 200G (2.7%, 268G)
lastly: 136G (1.8%, 136G)
Verxl: 100G (1.4%, 2,149G)
RezzaDV: 100G (1.4%, 828G)
maakur_: 100G (1.4%, 3,119G)
datadrivenbot: 100G (1.4%, 15,583G)

brown bets:
z32o: 1,291G (19.6%, 1,291G)
InOzWeTrust: 1,019G (15.5%, 2,039G)
TheChainNerd: 1,000G (15.2%, 8,278G)
Treapvort: 1,000G (15.2%, 22,110G)
PatSouI: 997G (15.2%, 997G)
volgrathemoose: 668G (10.2%, 2,675G)
waterwatereverywhere: 400G (6.1%, 3,871G)
CidDurai: 200G (3.0%, 1,925G)
