Final Bets: white - 17 bets for 6,747G (25.0%, x2.99); black - 24 bets for 20,188G (75.0%, x0.33)

white bets:
Lodrak: 1,122G (16.6%, 1,122G)
Lanshaft: 1,089G (16.1%, 1,089G)
BirbBrainsBot: 1,000G (14.8%, 11,526G)
LDSkinny: 1,000G (14.8%, 8,040G)
Pie108: 500G (7.4%, 13,322G)
kingchadking: 476G (7.1%, 476G)
mexskacin: 399G (5.9%, 399G)
getthemoneyz: 282G (4.2%, 453,040G)
ZephyrTempest: 236G (3.5%, 40,886G)
AllInBot: 100G (1.5%, 100G)
loveyouallfriends: 100G (1.5%, 20,452G)
wollise89: 100G (1.5%, 1,348G)
Slowbrofist: 100G (1.5%, 3,638G)
rico_flex: 100G (1.5%, 2,787G)
DrAntiSocial: 71G (1.1%, 3,260G)
tmo50x: 50G (0.7%, 2,348G)
roqqqpsi: 22G (0.3%, 3,097G)

black bets:
Shakarak: 5,589G (27.7%, 5,589G)
Nizaha: 2,079G (10.3%, 4,159G)
DeathTaxesAndAnime: 1,309G (6.5%, 1,309G)
TheChainNerd: 1,180G (5.8%, 5,904G)
TheManInPlaid: 1,034G (5.1%, 1,034G)
proper__noun__: 1,034G (5.1%, 1,034G)
old_overholt_: 1,000G (5.0%, 2,160G)
SeedSC: 1,000G (5.0%, 249,295G)
CCRUNNER149UWP: 999G (4.9%, 6,313G)
MoonSlayerRS: 755G (3.7%, 755G)
upvla: 721G (3.6%, 10,429G)
galkife: 500G (2.5%, 91,238G)
Bulleta: 500G (2.5%, 7,431G)
CapnChaos12: 500G (2.5%, 7,632G)
Cataphract116: 500G (2.5%, 2,430G)
joewcarson: 427G (2.1%, 427G)
byrdturbo: 333G (1.6%, 6,918G)
kekkerscrew: 300G (1.5%, 1,906G)
Aurilliux: 100G (0.5%, 4,090G)
MeleeWizard: 100G (0.5%, 697G)
datadrivenbot: 100G (0.5%, 24,399G)
BuffaloCrunch: 100G (0.5%, 14,413G)
Rikrizen: 23G (0.1%, 476G)
ko2q: 5G (0.0%, 7,736G)
