Final Bets: purple - 18 bets for 12,251G (47.6%, x1.10); brown - 24 bets for 13,486G (52.4%, x0.91)

purple bets:
Nizaha: 2,427G (19.8%, 4,854G)
Lord_Burrah: 1,900G (15.5%, 83,902G)
TheChainNerd: 1,259G (10.3%, 6,298G)
CCRUNNER149UWP: 1,111G (9.1%, 6,647G)
MoonSlayerRS: 1,007G (8.2%, 1,007G)
LDSkinny: 1,000G (8.2%, 7,040G)
Lanshaft: 600G (4.9%, 600G)
Lodrak: 528G (4.3%, 528G)
kingchadking: 476G (3.9%, 476G)
alrightbye: 400G (3.3%, 6,552G)
Cataphract116: 350G (2.9%, 2,597G)
RunicMagus: 304G (2.5%, 304G)
mexskacin: 220G (1.8%, 220G)
wollise89: 200G (1.6%, 1,248G)
byrdturbo: 169G (1.4%, 7,029G)
AllInBot: 100G (0.8%, 100G)
MeleeWizard: 100G (0.8%, 730G)
Bulleta: 100G (0.8%, 7,598G)

brown bets:
proper__noun__: 1,380G (10.2%, 1,380G)
leakimiko: 1,362G (10.1%, 27,246G)
BirbBrainsBot: 1,000G (7.4%, 10,526G)
getthemoneyz: 1,000G (7.4%, 452,758G)
SeedSC: 1,000G (7.4%, 249,629G)
Slowbrofist: 1,000G (7.4%, 3,538G)
red__lancer: 1,000G (7.4%, 25,193G)
saynt_garmo: 950G (7.0%, 950G)
DeathTaxesAndAnime: 890G (6.6%, 1,746G)
urieltheflameofgod: 706G (5.2%, 4,709G)
joewcarson: 570G (4.2%, 570G)
NovaKnight21: 500G (3.7%, 8,729G)
ko2q: 500G (3.7%, 7,738G)
kekkerscrew: 500G (3.7%, 2,006G)
ZephyrTempest: 246G (1.8%, 40,650G)
DrAntiSocial: 175G (1.3%, 3,189G)
rico_flex: 150G (1.1%, 2,687G)
TheManInPlaid: 111G (0.8%, 1,380G)
loveyouallfriends: 100G (0.7%, 20,352G)
datadrivenbot: 100G (0.7%, 24,432G)
jhazor: 100G (0.7%, 2,558G)
BuffaloCrunch: 100G (0.7%, 14,446G)
Rikrizen: 24G (0.2%, 484G)
roqqqpsi: 22G (0.2%, 3,075G)
