Final Bets: black - 14 bets for 11,815G (53.7%, x0.86); brown - 14 bets for 10,174G (46.3%, x1.16)

black bets:
thaetreis: 4,500G (38.1%, 25,637G)
douchetron: 1,411G (11.9%, 1,411G)
Shalloween: 1,200G (10.2%, 9,073G)
randgridr: 1,148G (9.7%, 1,148G)
Radiance89: 1,000G (8.5%, 8,526G)
killth3kid: 576G (4.9%, 15,244G)
gorgewall: 516G (4.4%, 516G)
fluffskull: 492G (4.2%, 492G)
AllInBot: 391G (3.3%, 391G)
datadrivenbot: 200G (1.7%, 44,270G)
MynenARS: 196G (1.7%, 196G)
rednecknazgul: 100G (0.8%, 1,454G)
Rikrizen: 80G (0.7%, 8,035G)
moonliquor: 5G (0.0%, 41,054G)

brown bets:
sinnyil2: 3,924G (38.6%, 7,849G)
Thyrandaal: 1,234G (12.1%, 112,031G)
mpghappiness: 1,174G (11.5%, 1,174G)
BirbBrainsBot: 1,000G (9.8%, 78,376G)
reinoe: 1,000G (9.8%, 88,369G)
Nizaha: 632G (6.2%, 8,657G)
maximumcrit: 300G (2.9%, 4,794G)
ribbiks: 200G (2.0%, 7,537G)
Brainstew29: 200G (2.0%, 11,057G)
getthemoneyz: 110G (1.1%, 1,460,307G)
holdenmagronik: 100G (1.0%, 2,382G)
CT_5_Holy: 100G (1.0%, 4,685G)
BaronHaynes: 100G (1.0%, 8,691G)
rNdOrchestra: 100G (1.0%, 1,124G)
