Final Bets: green - 20 bets for 15,354G (45.5%, x1.20); champion - 27 bets for 18,370G (54.5%, x0.84)

green bets:
MagicBottle: 2,486G (16.2%, 49,720G)
DeathTaxesAndAnime: 2,154G (14.0%, 4,225G)
gooseyourself: 2,000G (13.0%, 15,467G)
HaplessOne: 1,111G (7.2%, 18,951G)
Draconis345: 1,000G (6.5%, 87,841G)
Lionhermit: 1,000G (6.5%, 40,725G)
BirbBrainsBot: 1,000G (6.5%, 104,056G)
Laserman1000: 993G (6.5%, 69,393G)
sinnyil2: 700G (4.6%, 3,257G)
cgMcWhiskers: 500G (3.3%, 3,907G)
haigy: 500G (3.3%, 3,822G)
CoderCalamity: 500G (3.3%, 2,109G)
Estan_AD: 500G (3.3%, 3,688G)
itsonlyspencer: 200G (1.3%, 3,286G)
lijarkh: 200G (1.3%, 7,003G)
Sans_from_Snowdin: 160G (1.0%, 160G)
ANFz: 100G (0.7%, 20,843G)
Firesheath: 100G (0.7%, 10,705G)
mraarm: 100G (0.7%, 1,000G)
cougboi: 50G (0.3%, 21,407G)

champion bets:
Dymntd: 5,852G (31.9%, 11,704G)
Rislyeu: 3,465G (18.9%, 3,465G)
Baron_von_Scrub: 1,111G (6.0%, 82,445G)
Arlum: 1,009G (5.5%, 1,009G)
ungabunga_bot: 1,000G (5.4%, 278,096G)
killth3kid: 1,000G (5.4%, 45,480G)
rico_flex: 1,000G (5.4%, 26,225G)
AmewTheFox: 750G (4.1%, 25,375G)
animefan112233: 500G (2.7%, 1,000G)
LivingHitokiri: 500G (2.7%, 8,012G)
electric_glass: 300G (1.6%, 6,034G)
jhaller2: 300G (1.6%, 6,447G)
ACSpree: 224G (1.2%, 224G)
Fenrislfr: 200G (1.1%, 2,427G)
byrdturbo: 111G (0.6%, 6,819G)
ZephyrTempest: 101G (0.5%, 1,852G)
AllInBot: 100G (0.5%, 100G)
Tougou: 100G (0.5%, 11,482G)
nifboy: 100G (0.5%, 5,189G)
floopinthepig: 100G (0.5%, 100G)
Evewho: 100G (0.5%, 10,332G)
Realitydown: 100G (0.5%, 3,255G)
blacksinister: 100G (0.5%, 1,149G)
datadrivenbot: 100G (0.5%, 9,072G)
getthemoneyz: 86G (0.5%, 606,002G)
Bioticism: 50G (0.3%, 2,298G)
roofiepops: 11G (0.1%, 9,928G)
