Final Bets: purple - 21 bets for 14,192G (86.7%, x0.15); brown - 5 bets for 2,184G (13.3%, x6.50)

purple bets:
NovaKnight21: 3,037G (21.4%, 6,074G)
Lydian_C: 2,994G (21.1%, 5,871G)
leakimiko: 1,469G (10.4%, 29,395G)
sinnyil2: 1,200G (8.5%, 60,863G)
HaychDub: 800G (5.6%, 26,002G)
reinoe: 783G (5.5%, 783G)
waterwatereverywhere: 500G (3.5%, 500G)
z32o: 500G (3.5%, 25,057G)
JustSuperish: 500G (3.5%, 4,320G)
UmaiJam: 452G (3.2%, 452G)
Humble_Fabio: 333G (2.3%, 1,475G)
RezzaDV: 287G (2.0%, 287G)
ko2q: 287G (2.0%, 287G)
Treapvort: 200G (1.4%, 15,295G)
rubenflonne: 200G (1.4%, 2,214G)
Maeveen: 200G (1.4%, 8,855G)
ApplesauceBoss: 100G (0.7%, 8,881G)
WoooBlaaa: 100G (0.7%, 900G)
SeedSC: 100G (0.7%, 143,067G)
BuffaloCrunch: 100G (0.7%, 15,880G)
andycyca: 50G (0.4%, 6,875G)

brown bets:
RongRongArts: 1,100G (50.4%, 23,481G)
inzo_bettingbot: 548G (25.1%, 10,965G)
Tyerenex: 236G (10.8%, 236G)
getthemoneyz: 200G (9.2%, 369,417G)
BadBlanket: 100G (4.6%, 3,729G)
