Final Bets: white - 11 bets for 9,598G (63.9%, x0.57); purple - 17 bets for 5,424G (36.1%, x1.77)

white bets:
sinnyil2: 3,048G (31.8%, 3,048G)
Mesmaster: 3,000G (31.3%, 67,591G)
lobsterlobster: 1,000G (10.4%, 24,647G)
KasugaiRoastedPeas: 1,000G (10.4%, 3,429G)
ungabunga_bot: 344G (3.6%, 310,209G)
red_celt: 300G (3.1%, 10,919G)
Cataphract116: 300G (3.1%, 19,493G)
FoxtrotNovemberCharlie: 296G (3.1%, 296G)
goro_0924: 200G (2.1%, 2,500G)
ar_tactic: 100G (1.0%, 32,411G)
getthemoneyz: 10G (0.1%, 613,416G)

purple bets:
superdevon1: 1,264G (23.3%, 1,264G)
BirbBrainsBot: 628G (11.6%, 174,563G)
NovaKnight21: 500G (9.2%, 5,524G)
TheMM42: 500G (9.2%, 7,013G)
ccordc: 402G (7.4%, 402G)
PotionDweller: 320G (5.9%, 320G)
kaidykat: 300G (5.5%, 1,877G)
Rislyeu: 240G (4.4%, 240G)
OverlordCuddles: 220G (4.1%, 220G)
LorianFaust: 200G (3.7%, 1,000G)
twelfthrootoftwo: 200G (3.7%, 2,272G)
Zachara: 196G (3.6%, 61,196G)
belife42: 104G (1.9%, 104G)
Shalthen: 100G (1.8%, 100G)
DeathTaxesAndAnime: 100G (1.8%, 56,056G)
datadrivenbot: 100G (1.8%, 11,385G)
letdowncity: 50G (0.9%, 550G)
