Final Bets: white - 14 bets for 12,550G (52.8%, x0.89); black - 8 bets for 11,230G (47.2%, x1.12)

white bets:
NIghtdew14: 3,365G (26.8%, 16,829G)
douchetron: 2,580G (20.6%, 5,060G)
randgridr: 1,578G (12.6%, 1,578G)
Mister_Quof: 1,208G (9.6%, 1,208G)
maximumcrit: 1,000G (8.0%, 11,599G)
BoneMiser: 934G (7.4%, 934G)
RaIshtar: 812G (6.5%, 812G)
AllInBot: 200G (1.6%, 200G)
ar_tactic: 200G (1.6%, 83,293G)
datadrivenbot: 200G (1.6%, 51,015G)
SensualADC: 150G (1.2%, 1,886G)
roqqqpsi: 123G (1.0%, 2,474G)
ArlanKels: 100G (0.8%, 1,392G)
Bongomon7: 100G (0.8%, 5,477G)

black bets:
E_Ballard: 4,839G (43.1%, 4,839G)
sparker9: 2,000G (17.8%, 12,902G)
Zachara: 1,000G (8.9%, 136,500G)
ColetteMSLP: 1,000G (8.9%, 19,190G)
BirbBrainsBot: 1,000G (8.9%, 134,293G)
WhattayaBrian: 670G (6.0%, 670G)
skipsandwiches: 503G (4.5%, 503G)
getthemoneyz: 218G (1.9%, 1,475,091G)
