Final Bets: purple - 21 bets for 8,792G (19.7%, x4.08); brown - 18 bets for 35,895G (80.3%, x0.24)

purple bets:
MagicBottle: 1,426G (16.2%, 14,263G)
BirbBrainsBot: 1,000G (11.4%, 98,838G)
HaplessOne: 888G (10.1%, 22,720G)
getthemoneyz: 860G (9.8%, 603,641G)
ColetteMSLP: 600G (6.8%, 27,694G)
cgMcWhiskers: 592G (6.7%, 592G)
itsdigitalbro: 504G (5.7%, 504G)
superdevon1: 500G (5.7%, 3,295G)
Jerboj: 500G (5.7%, 59,950G)
ko2q: 304G (3.5%, 304G)
KasugaiRoastedPeas: 300G (3.4%, 7,999G)
Sogeki_Dan: 213G (2.4%, 213G)
LivingHitokiri: 200G (2.3%, 13,091G)
Rislyeu: 200G (2.3%, 1,002G)
genericco: 104G (1.2%, 104G)
midori_ribbon: 101G (1.1%, 3,203G)
moonliquor: 100G (1.1%, 571G)
Evewho: 100G (1.1%, 12,492G)
emperor_knight: 100G (1.1%, 1,419G)
Estan_AD: 100G (1.1%, 2,056G)
Conome: 100G (1.1%, 1,669G)

brown bets:
DeathTaxesAndAnime: 23,593G (65.7%, 46,261G)
Mesmaster: 5,000G (13.9%, 28,099G)
sinnyil2: 2,006G (5.6%, 2,006G)
jakeduhhsnake: 1,000G (2.8%, 50,907G)
reinoe: 1,000G (2.8%, 6,624G)
Bulleta: 999G (2.8%, 999G)
Laserman1000: 520G (1.4%, 70,020G)
Dymntd: 500G (1.4%, 11,046G)
ACSpree: 224G (0.6%, 224G)
AmewTheFox: 200G (0.6%, 23,493G)
mirapoix: 200G (0.6%, 5,480G)
uncharreted: 200G (0.6%, 3,105G)
ungabunga_bot: 101G (0.3%, 277,350G)
AllInBot: 100G (0.3%, 100G)
datadrivenbot: 100G (0.3%, 9,674G)
Clydethecamel: 100G (0.3%, 549G)
Bioticism: 50G (0.1%, 2,129G)
daveb_: 2G (0.0%, 3,865G)
