Final Bets: yellow - 15 bets for 9,289G (36.3%, x1.76); black - 13 bets for 16,317G (63.7%, x0.57)

yellow bets:
Mesmaster: 2,892G (31.1%, 5,784G)
NicoSavoy: 1,396G (15.0%, 1,396G)
BirbBrainsBot: 1,000G (10.8%, 128,801G)
CorpusCav: 600G (6.5%, 28,933G)
getthemoneyz: 590G (6.4%, 2,127,485G)
seppu777: 480G (5.2%, 480G)
TheDeeyo: 400G (4.3%, 8,992G)
Arcblazer23: 352G (3.8%, 352G)
lijarkh: 316G (3.4%, 2,531G)
lotharek: 300G (3.2%, 8,143G)
TheBrett: 240G (2.6%, 8,296G)
ValensEXP_: 200G (2.2%, 8,070G)
resjudicata3: 200G (2.2%, 9,135G)
datadrivenbot: 200G (2.2%, 78,560G)
LuckyLuckLuc2: 123G (1.3%, 4,955G)

black bets:
OneHundredFists: 5,001G (30.6%, 43,527G)
thunderducker: 2,909G (17.8%, 2,909G)
Shalloween: 2,241G (13.7%, 2,241G)
reinoe: 2,000G (12.3%, 54,395G)
sireaulou: 958G (5.9%, 958G)
bigbongsmoker: 711G (4.4%, 711G)
Firesheath: 636G (3.9%, 636G)
FatTunaKing: 516G (3.2%, 516G)
Evewho: 500G (3.1%, 2,994G)
IaibOaob: 345G (2.1%, 22,031G)
AllInBot: 200G (1.2%, 200G)
cloudycube: 200G (1.2%, 1,492G)
grimthegameking: 100G (0.6%, 100G)
