Final Bets: purple - 20 bets for 12,630G (69.8%, x0.43); brown - 14 bets for 5,452G (30.2%, x2.32)

purple bets:
killth3kid: 2,000G (15.8%, 21,319G)
Lord_Burrah: 1,845G (14.6%, 100,845G)
Nickyfive: 1,192G (9.4%, 1,192G)
volgrathemoose: 1,001G (7.9%, 5,031G)
Aldrammech: 1,000G (7.9%, 10,928G)
NicoSavoy: 1,000G (7.9%, 9,051G)
HaateXIII: 680G (5.4%, 680G)
SamaelMerihem: 666G (5.3%, 762G)
old_overholt_: 500G (4.0%, 11,345G)
eudes89: 500G (4.0%, 3,350G)
Estan_AD: 472G (3.7%, 472G)
CapnChaos12: 300G (2.4%, 8,261G)
CorpusCav: 300G (2.4%, 13,186G)
nifboy: 250G (2.0%, 2,823G)
foofermoofer: 218G (1.7%, 218G)
ungabunga_bot: 206G (1.6%, 474,039G)
otakutaylor: 200G (1.6%, 5,784G)
FaytKion: 100G (0.8%, 257G)
CosmicTactician: 100G (0.8%, 11,060G)
lastly: 100G (0.8%, 7,757G)

brown bets:
Grimmace45: 1,200G (22.0%, 33,621G)
BirbBrainsBot: 1,000G (18.3%, 18,099G)
getthemoneyz: 536G (9.8%, 674,531G)
EnemyController: 500G (9.2%, 229,346G)
ACSpree: 500G (9.2%, 3,471G)
DustBirdEX: 346G (6.3%, 14,639G)
ApplesauceBoss: 320G (5.9%, 320G)
luminarii: 300G (5.5%, 13,441G)
TheJonTerp: 200G (3.7%, 4,842G)
KonzeraLive: 200G (3.7%, 14,166G)
Dymntd: 100G (1.8%, 5,977G)
Firesheath: 100G (1.8%, 25,121G)
theNGUYENNER: 100G (1.8%, 13,923G)
ihavenoideawhatname: 50G (0.9%, 621G)
