Final Bets: white - 14 bets for 7,739G (38.5%, x1.59); purple - 19 bets for 12,340G (61.5%, x0.63)

white bets:
volgrathemoose: 1,001G (12.9%, 5,463G)
nifboy: 1,000G (12.9%, 2,681G)
Aldrammech: 1,000G (12.9%, 11,360G)
CorpusCav: 866G (11.2%, 12,966G)
E_Ballard: 600G (7.8%, 600G)
Lokenwow: 593G (7.7%, 593G)
Baron_von_Scrub: 535G (6.9%, 33,069G)
Kyune: 500G (6.5%, 2,659G)
EnemyController: 500G (6.5%, 230,026G)
KonzeraLive: 400G (5.2%, 13,966G)
turquoise_mage: 300G (3.9%, 1,438G)
twelfthrootoftwo: 200G (2.6%, 5,701G)
Vilarus: 124G (1.6%, 124G)
a_mo22: 120G (1.6%, 1,212G)

purple bets:
fenaen: 1,680G (13.6%, 1,680G)
SamaelMerihem: 1,666G (13.5%, 1,835G)
Evewho: 1,333G (10.8%, 2,614G)
ungabunga_bot: 1,000G (8.1%, 473,128G)
BirbBrainsBot: 1,000G (8.1%, 16,099G)
Lionhermit: 1,000G (8.1%, 49,829G)
NicoSavoy: 1,000G (8.1%, 10,663G)
Lord_Burrah: 1,000G (8.1%, 101,641G)
old_overholt_: 500G (4.1%, 11,561G)
DustBirdEX: 345G (2.8%, 13,948G)
otakutaylor: 300G (2.4%, 6,106G)
CapnChaos12: 300G (2.4%, 8,745G)
ValtonZenola: 268G (2.2%, 268G)
TheJonTerp: 200G (1.6%, 4,442G)
Digitalsocrates: 200G (1.6%, 2,226G)
FaytKion: 200G (1.6%, 654G)
getthemoneyz: 148G (1.2%, 673,799G)
lastly: 100G (0.8%, 7,700G)
vampyreinabox: 100G (0.8%, 1,072G)
