Final Bets: blue - 17 bets for 10,043G (42.6%, x1.35); yellow - 22 bets for 13,511G (57.4%, x0.74)

blue bets:
SamaelMerihem: 1,666G (16.6%, 2,930G)
Firesheath: 1,132G (11.3%, 1,132G)
ungabunga_bot: 1,000G (10.0%, 509,399G)
LeoNightFury: 1,000G (10.0%, 3,366G)
BirbBrainsBot: 1,000G (10.0%, 115,444G)
NicoSavoy: 1,000G (10.0%, 25,315G)
killth3kid: 600G (6.0%, 8,735G)
CCRUNNER149UWP: 542G (5.4%, 542G)
Drusic: 500G (5.0%, 7,372G)
DLJuggernaut: 332G (3.3%, 332G)
Breakdown777: 300G (3.0%, 3,750G)
KasugaiRoastedPeas: 200G (2.0%, 3,853G)
Tsuike: 200G (2.0%, 919G)
byrdturbo: 169G (1.7%, 13,029G)
getthemoneyz: 160G (1.6%, 681,577G)
nok____: 142G (1.4%, 16,042G)
datadrivenbot: 100G (1.0%, 18,580G)

yellow bets:
OneHundredFists: 4,126G (30.5%, 8,092G)
roofiepops: 1,777G (13.2%, 48,503G)
reinoe: 1,406G (10.4%, 2,813G)
Maldoree: 996G (7.4%, 996G)
helpimabug: 642G (4.8%, 1,284G)
DaveStrider55: 540G (4.0%, 540G)
twelfthrootoftwo: 500G (3.7%, 12,040G)
Theseawolf1: 500G (3.7%, 54,610G)
Moshyhero: 500G (3.7%, 2,285G)
CorpusCav: 300G (2.2%, 6,000G)
joewcarson: 300G (2.2%, 7,033G)
AsceticGamer: 300G (2.2%, 1,850G)
TheUnforgivenRage: 300G (2.2%, 300G)
Kyune: 250G (1.9%, 1,655G)
Powermhero: 250G (1.9%, 10,515G)
Thundahmoose: 200G (1.5%, 429G)
Arcblazer23: 124G (0.9%, 124G)
rjA0zcOQ96: 100G (0.7%, 2,255G)
Jampck: 100G (0.7%, 653G)
neocarbuncle: 100G (0.7%, 100G)
Palladigm: 100G (0.7%, 6,678G)
maakur_: 100G (0.7%, 1,862G)
