Final Bets: red - 21 bets for 17,681G (62.4%, x0.60); blue - 17 bets for 10,656G (37.6%, x1.66)

red bets:
roofiepops: 2,872G (16.2%, 2,872G)
Nizaha: 2,463G (13.9%, 4,926G)
HASTERIOUS: 2,327G (13.2%, 2,327G)
LuckyLuckLuc2: 2,222G (12.6%, 2,983G)
OmnibotGamma: 1,000G (5.7%, 7,451G)
catfashions: 1,000G (5.7%, 8,675G)
LASERJESUS1337: 1,000G (5.7%, 53,675G)
volgrathemoose: 948G (5.4%, 948G)
Lanshaft: 600G (3.4%, 600G)
Laserman1000: 579G (3.3%, 10,879G)
Pie108: 500G (2.8%, 12,170G)
fenaen: 500G (2.8%, 6,019G)
luminarii: 500G (2.8%, 14,488G)
getthemoneyz: 414G (2.3%, 454,505G)
NoNotBees: 216G (1.2%, 216G)
L2_Sentinel: 200G (1.1%, 20,188G)
ungabunga_bot: 134G (0.8%, 89,005G)
maakur_: 100G (0.6%, 3,661G)
datadrivenbot: 100G (0.6%, 24,455G)
ko2q: 5G (0.0%, 5,552G)
daveb_: 1G (0.0%, 2,536G)

blue bets:
Shakarak: 2,000G (18.8%, 21,813G)
kingchadking: 1,277G (12.0%, 1,277G)
BirbBrainsBot: 1,000G (9.4%, 16,789G)
Evewho: 954G (9.0%, 954G)
jhazor: 888G (8.3%, 888G)
ANFz: 876G (8.2%, 876G)
DeathTaxesAndAnime: 668G (6.3%, 668G)
Jerboj: 500G (4.7%, 15,955G)
Dothan89: 500G (4.7%, 5,938G)
SkylerBunny: 356G (3.3%, 356G)
Baron_von_Scrub: 353G (3.3%, 4,781G)
AllInBot: 327G (3.1%, 327G)
ZephyrTempest: 273G (2.6%, 45,443G)
Sairentozon7: 272G (2.6%, 272G)
thejoden: 212G (2.0%, 212G)
ApplesauceBoss: 100G (0.9%, 2,942G)
Slowbrofist: 100G (0.9%, 1,292G)
