Final Bets: red - 10 bets for 4,421G (41.7%, x1.40); blue - 12 bets for 6,169G (58.3%, x0.72)

red bets:
Shakarak: 2,000G (45.2%, 50,959G)
ColetteMSLP: 800G (18.1%, 70,136G)
solomongrundy85: 400G (9.0%, 14,417G)
Banzem: 291G (6.6%, 291G)
WitchHunterIX: 236G (5.3%, 236G)
Slider1012: 212G (4.8%, 212G)
Nelrith: 182G (4.1%, 282G)
protoyolo: 100G (2.3%, 1,419G)
datadrivenbot: 100G (2.3%, 23,293G)
Digitalsocrates: 100G (2.3%, 1,138G)

blue bets:
mardokttv: 2,004G (32.5%, 2,004G)
Mesmaster: 2,000G (32.4%, 82,414G)
HASTERIOUS: 619G (10.0%, 12,399G)
ZZ_Yoshi: 400G (6.5%, 21,404G)
red_celt: 400G (6.5%, 12,996G)
Aneyus: 320G (5.2%, 32,060G)
bruubarg: 116G (1.9%, 116G)
dowdlron: 104G (1.7%, 104G)
Evewho: 100G (1.6%, 8,927G)
BirbBrainsBot: 51G (0.8%, 29,623G)
SuppleThink: 50G (0.8%, 949G)
daveb_: 5G (0.1%, 1,788G)
