Final Bets: red - 2 bets for 614G (10.1%, x8.94); blue - 6 bets for 5,487G (89.9%, x0.11)

red bets:
getthemoneyz: 358G (58.3%, 1,232,809G)
SephDarkheart: 256G (41.7%, 256G)

blue bets:
NovaKnight21: 3,000G (54.7%, 20,896G)
ForagerCats: 1,000G (18.2%, 15,090G)
BirbBrainsBot: 987G (18.0%, 180,158G)
datadrivenbot: 200G (3.6%, 63,184G)
CosmicTactician: 200G (3.6%, 45,024G)
reinoe: 100G (1.8%, 49,045G)
