Final Bets: white - 5 bets for 16,225G (47.3%, x1.11); brown - 15 bets for 18,078G (52.7%, x0.90)

white bets:
Aldrammech: 15,000G (92.4%, 45,005G)
blorpy_: 704G (4.3%, 17,602G)
Starfire6789: 216G (1.3%, 216G)
JCBoorgo: 204G (1.3%, 204G)
gorgewall: 101G (0.6%, 5,927G)

brown bets:
Mesmaster: 10,087G (55.8%, 10,087G)
resjudicata3: 1,333G (7.4%, 1,333G)
latebit: 1,100G (6.1%, 24,152G)
Theseawolf1: 1,000G (5.5%, 12,638G)
BirbBrainsBot: 1,000G (5.5%, 48,403G)
Sairentozon7: 1,000G (5.5%, 23,260G)
douchetron: 600G (3.3%, 600G)
iBardic: 500G (2.8%, 3,399G)
getthemoneyz: 340G (1.9%, 1,677,179G)
AllInBot: 262G (1.4%, 262G)
rNdOrchestra: 240G (1.3%, 7,531G)
datadrivenbot: 200G (1.1%, 64,296G)
Belivalan: 184G (1.0%, 184G)
ForestMagi: 132G (0.7%, 132G)
nifboy: 100G (0.6%, 1,698G)
