Final Bets: green - 13 bets for 8,042G (28.3%, x2.54); yellow - 28 bets for 20,390G (71.7%, x0.39)

green bets:
DavenIII: 1,500G (18.7%, 17,972G)
IndecisiveNinja: 1,237G (15.4%, 1,237G)
Baron_von_Scrub: 1,111G (13.8%, 75,400G)
volgrathemoose: 1,001G (12.4%, 7,259G)
LDSkinny: 1,000G (12.4%, 24,941G)
gggamezzz: 800G (9.9%, 1,666G)
ZephyrTempest: 400G (5.0%, 4,709G)
Mandoragan: 300G (3.7%, 30,597G)
ThePineappleSalesman: 200G (2.5%, 20,858G)
getthemoneyz: 160G (2.0%, 602,183G)
SquidgyXom: 133G (1.7%, 2,673G)
FriendSquirrel: 100G (1.2%, 28,013G)
Jahshine: 100G (1.2%, 4,021G)

yellow bets:
Lydian_C: 3,400G (16.7%, 67,056G)
deenglow: 2,000G (9.8%, 49,802G)
Zeroroute: 1,689G (8.3%, 1,689G)
fenaen: 1,500G (7.4%, 70,724G)
coralreeferz: 1,250G (6.1%, 3,451G)
leakimiko: 1,243G (6.1%, 8,287G)
joewcarson: 1,014G (5.0%, 1,014G)
TheChainNerd: 1,001G (4.9%, 1,001G)
ungabunga_bot: 1,000G (4.9%, 264,355G)
BirbBrainsBot: 1,000G (4.9%, 64,776G)
HorusTaurus: 716G (3.5%, 716G)
SQUiDSQUARKLIN: 675G (3.3%, 675G)
aStatue: 600G (2.9%, 600G)
catfashions: 500G (2.5%, 7,178G)
Anethum: 428G (2.1%, 428G)
Eldente: 396G (1.9%, 396G)
RangerRab: 368G (1.8%, 1,328G)
itzover9001: 312G (1.5%, 312G)
FreefallSirius: 273G (1.3%, 273G)
DrAntiSocial: 250G (1.2%, 22,869G)
Pink_LuigiX: 148G (0.7%, 148G)
FoeSquirrel: 100G (0.5%, 6,845G)
Bongomon7: 100G (0.5%, 1,332G)
RuneS_77: 100G (0.5%, 6,200G)
datadrivenbot: 100G (0.5%, 4,214G)
maakur_: 100G (0.5%, 111,752G)
daveb_: 77G (0.4%, 1,455G)
tmo50x: 50G (0.2%, 4,675G)
