Final Bets: blue - 18 bets for 10,398G (38.4%, x1.61); yellow - 17 bets for 16,707G (61.6%, x0.62)

blue bets:
Zeroroute: 2,023G (19.5%, 3,436G)
volgrathemoose: 1,001G (9.6%, 7,566G)
catfashions: 1,000G (9.6%, 6,599G)
ungabunga_bot: 1,000G (9.6%, 265,346G)
BirbBrainsBot: 1,000G (9.6%, 64,629G)
JumbocactuarX27: 1,000G (9.6%, 9,101G)
TheRylander: 700G (6.7%, 3,661G)
ZephyrTempest: 526G (5.1%, 3,509G)
killth3kid: 500G (4.8%, 23,858G)
TheChainNerd: 356G (3.4%, 356G)
Jahshine: 250G (2.4%, 3,490G)
ThePineappleSalesman: 200G (1.9%, 20,658G)
courtjesteroriginal: 200G (1.9%, 465G)
gggamezzz: 200G (1.9%, 366G)
getthemoneyz: 192G (1.8%, 601,569G)
maakur_: 100G (1.0%, 111,902G)
HorusTaurus: 100G (1.0%, 1,904G)
tmo50x: 50G (0.5%, 4,645G)

yellow bets:
Lydian_C: 3,400G (20.4%, 65,766G)
deenglow: 2,500G (15.0%, 51,147G)
aStatue: 2,019G (12.1%, 2,019G)
Pie108: 2,000G (12.0%, 274,863G)
fenaen: 1,500G (9.0%, 70,797G)
JonnyCue: 1,000G (6.0%, 37,987G)
Lionhermit: 1,000G (6.0%, 32,148G)
Anethum: 871G (5.2%, 871G)
Pink_LuigiX: 498G (3.0%, 498G)
IndecisiveNinja: 464G (2.8%, 464G)
FreefallSirius: 406G (2.4%, 406G)
toka222: 308G (1.8%, 308G)
nifboy: 230G (1.4%, 2,886G)
roofiepops: 200G (1.2%, 8,335G)
daveb_: 111G (0.7%, 1,631G)
datadrivenbot: 100G (0.6%, 4,364G)
RuneS_77: 100G (0.6%, 6,239G)
