Final Bets: green - 14 bets for 6,877G (39.5%, x1.53); yellow - 27 bets for 10,520G (60.5%, x0.65)

green bets:
kingchadking: 1,128G (16.4%, 1,128G)
ungabunga_bot: 800G (11.6%, 22,279G)
DHaveWord: 777G (11.3%, 777G)
jethrothrul: 712G (10.4%, 712G)
Lanshaft: 600G (8.7%, 6,898G)
DudeMonkey77: 592G (8.6%, 592G)
volgrathemoose: 501G (7.3%, 16,486G)
EnemyController: 500G (7.3%, 15,505G)
yure1x: 426G (6.2%, 426G)
ApplesauceBoss: 420G (6.1%, 420G)
action_otter: 200G (2.9%, 200G)
edgehead62888: 120G (1.7%, 120G)
oogthecaveman: 100G (1.5%, 3,319G)
ko2q: 1G (0.0%, 530G)

yellow bets:
Shalloween: 2,000G (19.0%, 101,561G)
BirbBrainsBot: 1,000G (9.5%, 214,038G)
bad1dea: 1,000G (9.5%, 35,531G)
mirapoix: 1,000G (9.5%, 10,933G)
DeathTaxesAndAnime: 564G (5.4%, 564G)
luminarii: 512G (4.9%, 6,176G)
omegasuspekt: 340G (3.2%, 340G)
ZephyrTempest: 325G (3.1%, 20,388G)
Conome: 323G (3.1%, 323G)
Baron_von_Scrub: 314G (3.0%, 9,351G)
evdoggity: 300G (2.9%, 4,151G)
JIDkomu: 300G (2.9%, 3,885G)
getthemoneyz: 288G (2.7%, 433,689G)
catfashions: 280G (2.7%, 280G)
robespyah: 238G (2.3%, 954G)
soapydragonfly: 216G (2.1%, 216G)
ugoplatamia: 200G (1.9%, 9,510G)
maichenambrai: 200G (1.9%, 1,370G)
Powermhero: 200G (1.9%, 8,200G)
b0shii: 200G (1.9%, 558G)
Evewho: 200G (1.9%, 2,520G)
chronoxtrigger: 148G (1.4%, 1,748G)
AllInBot: 100G (1.0%, 100G)
datadrivenbot: 100G (1.0%, 16,729G)
silentperogy: 100G (1.0%, 7,289G)
richardserious: 50G (0.5%, 827G)
roqqqpsi: 22G (0.2%, 1,399G)
