Final Bets: black - 22 bets for 14,007G (71.9%, x0.39); brown - 17 bets for 5,462G (28.1%, x2.56)

black bets:
HASTERIOUS: 5,000G (35.7%, 72,031G)
BenYuPoker: 1,040G (7.4%, 1,040G)
mirapoix: 1,000G (7.1%, 10,146G)
BirbBrainsBot: 918G (6.6%, 213,251G)
bad1dea: 900G (6.4%, 34,744G)
ko2q: 604G (4.3%, 604G)
getthemoneyz: 532G (3.8%, 433,891G)
edgehead62888: 449G (3.2%, 449G)
ApplesauceBoss: 424G (3.0%, 424G)
waterwatereverywhere: 400G (2.9%, 3,246G)
herrshaun: 386G (2.8%, 386G)
soapydragonfly: 379G (2.7%, 379G)
Dothan89: 372G (2.7%, 372G)
luminarii: 339G (2.4%, 5,949G)
ZephyrTempest: 319G (2.3%, 19,881G)
b0shii: 216G (1.5%, 216G)
robespyah: 179G (1.3%, 895G)
ungabunga_bot: 150G (1.1%, 22,103G)
ANFz: 100G (0.7%, 5,263G)
Basmal: 100G (0.7%, 58,656G)
datadrivenbot: 100G (0.7%, 16,651G)
rico_flex: 100G (0.7%, 1,525G)

brown bets:
Shalloween: 800G (14.6%, 93,761G)
Lanshaft: 600G (11.0%, 6,616G)
DeathTaxesAndAnime: 564G (10.3%, 564G)
Lodrak: 501G (9.2%, 33,430G)
Adam1949: 500G (9.2%, 5,500G)
Skarthe: 371G (6.8%, 371G)
Baron_von_Scrub: 325G (6.0%, 12,346G)
urieltheflameofgod: 320G (5.9%, 320G)
WoooBlaaa: 313G (5.7%, 313G)
roqqqpsi: 222G (4.1%, 1,111G)
ugoplatamia: 200G (3.7%, 9,352G)
Evewho: 200G (3.7%, 4,269G)
AllInBot: 176G (3.2%, 176G)
joewcarson: 120G (2.2%, 120G)
dreadnxught: 100G (1.8%, 6,102G)
Lordminsc: 100G (1.8%, 15,230G)
richardserious: 50G (0.9%, 715G)
