Final Bets: white - 18 bets for 22,231G (17.1%, x4.85); black - 22 bets for 107,780G (82.9%, x0.21)

white bets:
mayfu: 8,212G (36.9%, 8,212G)
josephiroth_143: 2,874G (12.9%, 2,874G)
killth3kid: 2,827G (12.7%, 2,827G)
Lyner87: 2,000G (9.0%, 64,710G)
toka222: 1,500G (6.7%, 72,339G)
sukotsuto: 1,000G (4.5%, 4,603G)
mpghappiness: 600G (2.7%, 600G)
coralreeferz: 450G (2.0%, 7,623G)
boosted420: 436G (2.0%, 436G)
Thyrandaal: 420G (1.9%, 420G)
neerrm: 388G (1.7%, 388G)
Error72: 376G (1.7%, 376G)
Miku_Shikhu: 356G (1.6%, 356G)
RiffRoff: 300G (1.3%, 5,669G)
ohhinm: 234G (1.1%, 4,559G)
RuneS_77: 100G (0.4%, 11,064G)
RunicMagus: 100G (0.4%, 3,070G)
getthemoneyz: 58G (0.3%, 1,404,425G)

black bets:
AllInBot: 79,087G (73.4%, 79,087G)
Shalloween: 15,487G (14.4%, 30,975G)
ShintaroNayaka: 2,000G (1.9%, 11,755G)
Lord_Burrah: 1,660G (1.5%, 82,660G)
SephDarkheart: 1,598G (1.5%, 1,598G)
dogsandcatsand: 1,212G (1.1%, 1,212G)
JumbocactuarX27: 1,000G (0.9%, 15,649G)
BirbBrainsBot: 1,000G (0.9%, 128,373G)
pplvee1: 1,000G (0.9%, 12,718G)
Nizaha: 588G (0.5%, 18,647G)
ForagerCats: 500G (0.5%, 5,246G)
DLJuggernaut: 388G (0.4%, 388G)
ruleof5: 300G (0.3%, 7,872G)
ScottyDeluxe: 298G (0.3%, 298G)
Gawyel95: 287G (0.3%, 287G)
DavenIII: 255G (0.2%, 510G)
RyanTheRebs: 240G (0.2%, 240G)
Hirameki85: 240G (0.2%, 6,555G)
holdenmagronik: 228G (0.2%, 228G)
thehotrefrigerator: 212G (0.2%, 212G)
DouglasDragonThePoet: 100G (0.1%, 1,298G)
FoeSquirrel: 100G (0.1%, 15,370G)
