Final Bets: green - 15 bets for 16,344G (58.4%, x0.71); purple - 16 bets for 11,623G (41.6%, x1.41)

green bets:
pplvee1: 5,000G (30.6%, 17,713G)
toka222: 1,750G (10.7%, 83,183G)
DavenIII: 1,550G (9.5%, 1,550G)
TheChainNerd: 1,284G (7.9%, 1,284G)
RyanTheRebs: 1,085G (6.6%, 1,085G)
BirbBrainsBot: 1,000G (6.1%, 126,208G)
Thyrandaal: 1,000G (6.1%, 6,885G)
ShintaroNayaka: 800G (4.9%, 9,992G)
dogsandcatsand: 668G (4.1%, 668G)
maakur_: 596G (3.6%, 596G)
Nizaha: 592G (3.6%, 19,627G)
benticore: 500G (3.1%, 48,102G)
Hirameki85: 240G (1.5%, 6,914G)
nhammen: 200G (1.2%, 25,611G)
DouglasDragonThePoet: 79G (0.5%, 1,455G)

purple bets:
mayfu: 2,500G (21.5%, 46,199G)
SephDarkheart: 2,100G (18.1%, 2,100G)
Lord_Burrah: 1,495G (12.9%, 81,495G)
sukotsuto: 1,400G (12.0%, 11,281G)
mpghappiness: 1,100G (9.5%, 1,100G)
josephiroth_143: 1,000G (8.6%, 15,812G)
ruleof5: 300G (2.6%, 9,929G)
RuneS_77: 300G (2.6%, 11,882G)
cameloramelo: 250G (2.2%, 2,846G)
ohhinm: 234G (2.0%, 6,297G)
AllInBot: 200G (1.7%, 200G)
TasisSai: 200G (1.7%, 2,348G)
Rytor: 200G (1.7%, 22,065G)
getthemoneyz: 136G (1.2%, 1,404,897G)
Gawyel95: 108G (0.9%, 108G)
mirapoix: 100G (0.9%, 45,242G)
