Final Bets: red - 12 bets for 5,760G (46.2%, x1.16); green - 11 bets for 6,705G (53.8%, x0.86)

red bets:
BirbBrainsBot: 1,000G (17.4%, 117,215G)
crimsonhellkite666: 1,000G (17.4%, 11,310G)
JumbocactuarX27: 1,000G (17.4%, 14,409G)
Mesmaster: 1,000G (17.4%, 24,326G)
aStatue: 600G (10.4%, 600G)
twelfthrootoftwo: 300G (5.2%, 5,796G)
RubenFlonne: 200G (3.5%, 17,306G)
nuka1120: 200G (3.5%, 699G)
getthemoneyz: 160G (2.8%, 606,947G)
AllInBot: 100G (1.7%, 100G)
Jahshine: 100G (1.7%, 6,618G)
DustyRelic: 100G (1.7%, 16,113G)

green bets:
ShintaroNayaka: 1,828G (27.3%, 1,828G)
fenaen: 1,500G (22.4%, 71,232G)
HaplessOne: 777G (11.6%, 14,561G)
lobsterlobster: 614G (9.2%, 614G)
volgrathemoose: 501G (7.5%, 23,254G)
gorgewall: 500G (7.5%, 13,600G)
superdevon1: 500G (7.5%, 27,927G)
ungabunga_bot: 177G (2.6%, 285,645G)
Rislyeu: 108G (1.6%, 108G)
SaintOmerville: 100G (1.5%, 8,697G)
datadrivenbot: 100G (1.5%, 10,198G)
