Final Bets: white - 11 bets for 5,642G (47.0%, x1.13); black - 13 bets for 6,357G (53.0%, x0.89)

white bets:
NovaKnight21: 1,117G (19.8%, 1,117G)
Zbgs: 1,000G (17.7%, 11,973G)
BirbBrainsBot: 1,000G (17.7%, 131,731G)
Zagorsek: 849G (15.0%, 1,698G)
reinoe: 500G (8.9%, 73,972G)
getthemoneyz: 402G (7.1%, 1,462,499G)
gorgewall: 201G (3.6%, 12,340G)
AllInBot: 200G (3.5%, 200G)
brokenknight201: 200G (3.5%, 754G)
roofiepops: 123G (2.2%, 17,065G)
super_robo_mg: 50G (0.9%, 1,627G)

black bets:
NicoSavoy: 2,000G (31.5%, 322,877G)
E_Ballard: 764G (12.0%, 764G)
TimeJannies: 577G (9.1%, 577G)
coralreeferz: 524G (8.2%, 698G)
letdowncity: 480G (7.6%, 15,810G)
Lydian_C: 420G (6.6%, 2,735G)
g1nger4le: 400G (6.3%, 3,136G)
maximumcrit: 300G (4.7%, 8,928G)
neocarbuncle: 210G (3.3%, 1,179G)
holdenmagronik: 200G (3.1%, 1,116G)
datadrivenbot: 200G (3.1%, 43,815G)
Laserman1000: 174G (2.7%, 1,374G)
RetroGameCommander: 108G (1.7%, 108G)
