Final Bets: purple - 15 bets for 12,404G (62.1%, x0.61); brown - 18 bets for 7,585G (37.9%, x1.64)

purple bets:
UmaiJam: 2,000G (16.1%, 62,933G)
NicoSavoy: 2,000G (16.1%, 324,652G)
SamaelMerihem: 1,666G (13.4%, 2,563G)
E_Ballard: 1,442G (11.6%, 1,442G)
BirbBrainsBot: 1,000G (8.1%, 130,731G)
Thyrandaal: 1,000G (8.1%, 148,234G)
reinoe: 1,000G (8.1%, 73,472G)
Aldrammech: 560G (4.5%, 560G)
letdowncity: 480G (3.9%, 16,236G)
Forkmore: 368G (3.0%, 24,990G)
HaateXIII: 250G (2.0%, 998G)
TasisSai: 200G (1.6%, 14,843G)
g1nger4le: 200G (1.6%, 3,491G)
Laserman1000: 128G (1.0%, 1,528G)
neocarbuncle: 110G (0.9%, 1,365G)

brown bets:
coralreeferz: 1,163G (15.3%, 1,163G)
randgridr: 1,000G (13.2%, 5,654G)
getthemoneyz: 1,000G (13.2%, 1,462,097G)
brokenknight201: 554G (7.3%, 554G)
Lanshaft: 540G (7.1%, 27,279G)
NovaKnight21: 516G (6.8%, 516G)
Zagorsek: 424G (5.6%, 849G)
Lydian_C: 420G (5.5%, 3,108G)
Shalloween: 400G (5.3%, 24,185G)
holdenmagronik: 294G (3.9%, 294G)
gorgewall: 201G (2.6%, 12,139G)
AllInBot: 200G (2.6%, 200G)
datadrivenbot: 200G (2.6%, 43,993G)
turquoise_mage: 200G (2.6%, 3,858G)
Andrain: 150G (2.0%, 150G)
roofiepops: 123G (1.6%, 16,942G)
CosmicTactician: 100G (1.3%, 24,475G)
super_robo_mg: 100G (1.3%, 1,577G)
