Final Bets: black - 15 bets for 9,029G (56.6%, x0.77); brown - 12 bets for 6,933G (43.4%, x1.30)

black bets:
NicoSavoy: 2,000G (22.2%, 322,652G)
Shalloween: 1,500G (16.6%, 24,839G)
BirbBrainsBot: 1,000G (11.1%, 128,731G)
Thyrandaal: 1,000G (11.1%, 146,234G)
reinoe: 1,000G (11.1%, 75,271G)
Snowfats: 500G (5.5%, 12,173G)
SephDarkheart: 436G (4.8%, 7,760G)
Lydian_C: 420G (4.7%, 2,595G)
neocarbuncle: 250G (2.8%, 1,373G)
datadrivenbot: 200G (2.2%, 44,432G)
TasisSai: 200G (2.2%, 14,755G)
TimeJannies: 173G (1.9%, 1,089G)
holdenmagronik: 150G (1.7%, 859G)
super_robo_mg: 100G (1.1%, 1,641G)
Laserman1000: 100G (1.1%, 1,400G)

brown bets:
coralreeferz: 3,065G (44.2%, 3,065G)
SamaelMerihem: 666G (9.6%, 1,270G)
getthemoneyz: 568G (8.2%, 1,463,908G)
Lanshaft: 540G (7.8%, 28,162G)
turquoise_mage: 500G (7.2%, 4,465G)
Forkmore: 372G (5.4%, 24,832G)
brokenknight201: 300G (4.3%, 1,460G)
Andrain: 295G (4.3%, 295G)
RetroGameCommander: 204G (2.9%, 204G)
AllInBot: 200G (2.9%, 200G)
roofiepops: 123G (1.8%, 17,143G)
ArlanKels: 100G (1.4%, 2,081G)
