Final Bets: white - 13 bets for 15,067G (63.3%, x0.58); purple - 16 bets for 8,720G (36.7%, x1.73)

white bets:
Virilikus: 5,000G (33.2%, 231,666G)
DavenIII: 3,302G (21.9%, 6,604G)
latebit: 2,222G (14.7%, 20,358G)
DeathTaxesAndAnime: 1,001G (6.6%, 20,686G)
NicoSavoy: 1,000G (6.6%, 97,566G)
arumz: 1,000G (6.6%, 30,075G)
krombobreaker: 500G (3.3%, 7,549G)
AllInBot: 413G (2.7%, 413G)
resjudicata3: 200G (1.3%, 866G)
J_MacC1991: 128G (0.8%, 1,925G)
gorgewall: 101G (0.7%, 4,002G)
BartTradingCompany: 100G (0.7%, 10,988G)
nhammen: 100G (0.7%, 308,977G)

purple bets:
CorpusCav: 1,300G (14.9%, 39,400G)
TrogdorTheMemeinator: 1,171G (13.4%, 1,171G)
BirbBrainsBot: 1,000G (11.5%, 2,694G)
robespyah: 1,000G (11.5%, 3,107G)
roofiepops: 888G (10.2%, 2,790G)
Smashy: 747G (8.6%, 1,495G)
getthemoneyz: 566G (6.5%, 1,961,095G)
Lord_Gwarth: 500G (5.7%, 590G)
biske13: 336G (3.9%, 336G)
ValensEXP_: 324G (3.7%, 2,828G)
ZPawZ: 224G (2.6%, 224G)
MemoriesofFinal: 200G (2.3%, 24,003G)
Twisted_Nutsatchel: 164G (1.9%, 164G)
RunicMagus: 100G (1.1%, 11,192G)
Widewalk: 100G (1.1%, 100G)
Rytor: 100G (1.1%, 20,501G)
