Final Bets: blue - 8 bets for 3,918G (30.5%, x2.27); yellow - 9 bets for 8,911G (69.5%, x0.44)

blue bets:
Dexsana: 1,194G (30.5%, 1,194G)
VolgraTheMoose: 1,064G (27.2%, 1,064G)
SuzakuReii: 877G (22.4%, 877G)
BirbBrainsBot: 349G (8.9%, 95,358G)
getthemoneyz: 134G (3.4%, 1,100,467G)
maakur_: 100G (2.6%, 76,996G)
Armorgames1: 100G (2.6%, 1,522G)
datadrivenbot: 100G (2.6%, 46,361G)

yellow bets:
roqqqpsi: 2,672G (30.0%, 24,292G)
DavenIII: 1,903G (21.4%, 3,807G)
E_Ballard: 1,192G (13.4%, 1,192G)
prince_rogers_nelson_: 1,100G (12.3%, 1,100G)
GladiatorLupe: 1,000G (11.2%, 7,358G)
JLinkletter: 500G (5.6%, 3,318G)
asherban: 212G (2.4%, 212G)
twelfthrootoftwo: 200G (2.2%, 12,876G)
Lydian_C: 132G (1.5%, 177,902G)
