Final Bets: purple - 11 bets for 15,549G (61.1%, x0.64); champion - 14 bets for 9,909G (38.9%, x1.57)

purple bets:
E_Ballard: 5,446G (35.0%, 5,446G)
prince_rogers_nelson_: 3,024G (19.4%, 3,024G)
thaetreis: 2,200G (14.1%, 15,181G)
SeniorBunk: 1,500G (9.6%, 8,958G)
Lydian_C: 1,200G (7.7%, 173,851G)
JLinkletter: 1,000G (6.4%, 4,655G)
Dexsana: 456G (2.9%, 456G)
TheKillerNacho: 392G (2.5%, 392G)
VolgraTheMoose: 131G (0.8%, 1,651G)
datadrivenbot: 100G (0.6%, 46,061G)
Error72: 100G (0.6%, 19,556G)

champion bets:
roqqqpsi: 2,845G (28.7%, 25,868G)
Draconis345: 2,000G (20.2%, 49,631G)
BirbBrainsBot: 1,000G (10.1%, 94,918G)
run_with_stone_GUNs: 895G (9.0%, 29,836G)
RaIshtar: 800G (8.1%, 8,012G)
Artea_: 500G (5.0%, 9,786G)
EizanTayama: 500G (5.0%, 7,169G)
getthemoneyz: 320G (3.2%, 1,100,291G)
twelfthrootoftwo: 300G (3.0%, 12,464G)
SuzakuReii: 248G (2.5%, 248G)
gorgewall: 201G (2.0%, 26,912G)
maakur_: 100G (1.0%, 76,896G)
Armorgames1: 100G (1.0%, 1,222G)
bahumat989: 100G (1.0%, 1,832G)
