Final Bets: purple - 22 bets for 11,289G (46.8%, x1.14); brown - 21 bets for 12,833G (53.2%, x0.88)

purple bets:
Zbgs: 2,000G (17.7%, 54,122G)
HaychDub: 1,805G (16.0%, 3,611G)
DeathTaxesAndAnime: 1,644G (14.6%, 1,644G)
Kalabain: 1,074G (9.5%, 1,074G)
volgrathemoose: 1,001G (8.9%, 7,941G)
reinoe: 600G (5.3%, 600G)
Grandlanzer: 500G (4.4%, 1,451G)
metagameface: 336G (3.0%, 336G)
killth3kid: 324G (2.9%, 1,114G)
Flameatron: 300G (2.7%, 4,865G)
Coolguye: 204G (1.8%, 204G)
L2_Sentinel: 200G (1.8%, 31,783G)
regios91: 200G (1.8%, 3,080G)
old_overholt_: 200G (1.8%, 28,962G)
KasugaiRoastedPeas: 200G (1.8%, 1,019G)
gorgewall: 101G (0.9%, 1,318G)
E_Ballard: 100G (0.9%, 2,471G)
lastly: 100G (0.9%, 13,981G)
Evewho: 100G (0.9%, 5,252G)
Ring_Wyrm: 100G (0.9%, 912G)
datadrivenbot: 100G (0.9%, 33,278G)
ar_tactic: 100G (0.9%, 58,284G)

brown bets:
roofiepops: 1,400G (10.9%, 4,609G)
Stealthtoucan: 1,172G (9.1%, 1,172G)
HaateXIII: 1,082G (8.4%, 2,165G)
Jeeboheebo: 1,000G (7.8%, 12,327G)
Rislyeu: 1,000G (7.8%, 7,483G)
BirbBrainsBot: 1,000G (7.8%, 54,255G)
aznwanderor: 1,000G (7.8%, 16,200G)
Thyrandaal: 1,000G (7.8%, 8,157G)
ApplesauceBoss: 528G (4.1%, 528G)
letdowncity: 501G (3.9%, 21,414G)
EnemyController: 500G (3.9%, 547,696G)
OneHundredFists: 500G (3.9%, 7,699G)
DustBirdEX: 456G (3.6%, 7,504G)
baconbacon1207: 400G (3.1%, 5,400G)
DAC169: 352G (2.7%, 352G)
pandasforsale: 324G (2.5%, 324G)
Anak761: 250G (1.9%, 1,431G)
cptjdang: 220G (1.7%, 220G)
KyleWonToLiveForever: 136G (1.1%, 136G)
Nohurty: 10G (0.1%, 1,250G)
getthemoneyz: 2G (0.0%, 819,236G)
