Final Bets: green - 12 bets for 12,571G (59.7%, x0.67); yellow - 14 bets for 8,475G (40.3%, x1.48)

green bets:
reinoe: 10,000G (79.5%, 50,732G)
ShintaroNayaka: 628G (5.0%, 628G)
IDruggedShamu: 427G (3.4%, 427G)
SkylerBunny: 412G (3.3%, 412G)
ArashiKurobara: 280G (2.2%, 11,955G)
datadrivenbot: 200G (1.6%, 57,234G)
hiros13gts: 174G (1.4%, 174G)
upidstupid: 100G (0.8%, 100G)
enkikavlar: 100G (0.8%, 5,406G)
darkwatersedge: 100G (0.8%, 1,039G)
JumbocactuarX27: 100G (0.8%, 10,458G)
silverelmdor: 50G (0.4%, 1,520G)

yellow bets:
Nickyfive: 1,500G (17.7%, 8,374G)
Zagorsek: 1,280G (15.1%, 1,280G)
fenaen: 1,200G (14.2%, 25,444G)
BirbBrainsBot: 983G (11.6%, 84,009G)
mirapoix: 759G (9.0%, 759G)
Laserman1000: 597G (7.0%, 22,497G)
E_Ballard: 476G (5.6%, 476G)
getthemoneyz: 464G (5.5%, 1,203,324G)
ZCKaiser: 300G (3.5%, 6,582G)
Chanar_ejin: 250G (2.9%, 1,804G)
dogsandcatsand: 222G (2.6%, 1,290G)
xLilAsia: 212G (2.5%, 212G)
SephDarkheart: 132G (1.6%, 132G)
serperemagus: 100G (1.2%, 3,785G)
