Final Bets: red - 18 bets for 7,974G (33.6%, x1.97); blue - 21 bets for 15,724G (66.4%, x0.51)

red bets:
SkylerBunny: 1,000G (12.5%, 634,653G)
metagameface: 1,000G (12.5%, 12,109G)
cam_ATS: 840G (10.5%, 840G)
Aldrammech: 736G (9.2%, 7,366G)
LionelParks: 613G (7.7%, 613G)
neocarbuncle: 510G (6.4%, 2,109G)
Magicandy: 500G (6.3%, 5,048G)
Dymntd: 500G (6.3%, 28,422G)
GatsbysGhost: 500G (6.3%, 7,790G)
kolding: 445G (5.6%, 445G)
eudes89: 380G (4.8%, 380G)
DuraiPapers: 250G (3.1%, 2,452G)
Evewho: 200G (2.5%, 3,550G)
nifboy: 100G (1.3%, 2,481G)
maakur_: 100G (1.3%, 71,432G)
ApplesauceBoss: 100G (1.3%, 12,008G)
datadrivenbot: 100G (1.3%, 44,819G)
TheNiDDleR180: 100G (1.3%, 100G)

blue bets:
phrossi_v: 2,348G (14.9%, 2,348G)
MrFlabyo: 2,000G (12.7%, 476,644G)
Mesmaster: 2,000G (12.7%, 269,622G)
EnemyController: 1,500G (9.5%, 1,227,904G)
lowlf: 1,201G (7.6%, 79,289G)
Digitalsocrates: 1,000G (6.4%, 39,741G)
BirbBrainsBot: 1,000G (6.4%, 16,897G)
Oobs56: 1,000G (6.4%, 19,679G)
Breakdown777: 715G (4.5%, 1,430G)
DudeMonkey77: 648G (4.1%, 648G)
Strifu: 500G (3.2%, 6,977G)
rednecknazgul: 312G (2.0%, 312G)
MadnessR: 300G (1.9%, 10,972G)
CorpusCav: 300G (1.9%, 5,193G)
Kronikle: 200G (1.3%, 23,021G)
letdowncity: 200G (1.3%, 4,167G)
Nizaha: 100G (0.6%, 12,511G)
Firesheath: 100G (0.6%, 14,139G)
nhammen: 100G (0.6%, 4,750G)
E_Ballard: 100G (0.6%, 13,627G)
ericzubat: 100G (0.6%, 214G)
