Final Bets: white - 18 bets for 19,963G (73.0%, x0.37); black - 17 bets for 7,369G (27.0%, x2.71)

white bets:
soren_of_tyto: 12,394G (62.1%, 12,394G)
DudeMonkey77: 977G (4.9%, 977G)
RunicMagus: 800G (4.0%, 27,392G)
placidphoenix: 724G (3.6%, 724G)
neocarbuncle: 710G (3.6%, 2,947G)
GatsbysGhost: 600G (3.0%, 6,790G)
LionelParks: 554G (2.8%, 554G)
solomongrundy85: 540G (2.7%, 540G)
Nizaha: 501G (2.5%, 13,237G)
MadnessR: 500G (2.5%, 10,624G)
DuraiPapers: 350G (1.8%, 1,702G)
CorpusCav: 270G (1.4%, 5,884G)
getthemoneyz: 266G (1.3%, 1,003,514G)
letdowncity: 200G (1.0%, 4,537G)
fluffskull: 200G (1.0%, 6,188G)
nok____: 177G (0.9%, 4,677G)
Evewho: 100G (0.5%, 3,150G)
JumbocactuarX27: 100G (0.5%, 10,173G)

black bets:
lowlf: 1,201G (16.3%, 78,697G)
rednecknazgul: 1,103G (15.0%, 1,103G)
metagameface: 1,000G (13.6%, 10,109G)
benticore: 520G (7.1%, 10,403G)
Rislyeu: 500G (6.8%, 33,206G)
Strifu: 500G (6.8%, 7,231G)
Magicandy: 500G (6.8%, 4,548G)
Oobs56: 500G (6.8%, 19,686G)
Breakdown777: 448G (6.1%, 897G)
GladiatorLupe: 300G (4.1%, 17,443G)
BirbBrainsBot: 197G (2.7%, 16,404G)
CosmicTactician: 100G (1.4%, 10,246G)
ericzubat: 100G (1.4%, 400G)
datadrivenbot: 100G (1.4%, 44,854G)
Kaynin_Shadowwalker: 100G (1.4%, 780G)
phrossi_v: 100G (1.4%, 3,039G)
E_Ballard: 100G (1.4%, 13,578G)
