Final Bets: white - 6 bets for 4,496G (14.3%, x6.01); black - 21 bets for 27,005G (85.7%, x0.17)

white bets:
E_Ballard: 1,524G (33.9%, 3,049G)
SkylerBunny: 1,500G (33.4%, 26,787G)
douchetron: 600G (13.3%, 600G)
evontno: 500G (11.1%, 4,255G)
CT_5_Holy: 200G (4.4%, 2,833G)
getthemoneyz: 172G (3.8%, 1,661,247G)

black bets:
toka222: 6,599G (24.4%, 108,874G)
sinnyil2: 5,596G (20.7%, 11,192G)
Drusiform: 2,990G (11.1%, 7,032G)
dogsandcatsand: 2,370G (8.8%, 2,370G)
nhammen: 2,000G (7.4%, 28,207G)
Forkmore: 1,230G (4.6%, 2,412G)
BirbBrainsBot: 1,000G (3.7%, 170,671G)
ANFz: 848G (3.1%, 848G)
skipsandwiches: 642G (2.4%, 642G)
SephDarkheart: 592G (2.2%, 120,160G)
timthehoodie: 500G (1.9%, 2,995G)
TrogdorTheMemeinator: 496G (1.8%, 496G)
nekojin: 496G (1.8%, 14,280G)
Tarheels218: 464G (1.7%, 464G)
3ngag3: 250G (0.9%, 750G)
mizukouken: 200G (0.7%, 208G)
DeathTaxesAndAnime: 200G (0.7%, 2,159G)
Valgram: 200G (0.7%, 1,239G)
arctodus13: 132G (0.5%, 132G)
AllInBot: 100G (0.4%, 100G)
aznalan15: 100G (0.4%, 100G)
