Final Bets: green - 15 bets for 16,337G (33.1%, x2.02); black - 19 bets for 32,977G (66.9%, x0.50)

green bets:
evdoggity: 4,000G (24.5%, 243,096G)
Thyrandaal: 3,333G (20.4%, 308,774G)
toka222: 2,500G (15.3%, 118,421G)
SkylerBunny: 2,000G (12.2%, 21,787G)
douchetron: 1,100G (6.7%, 1,100G)
BirbBrainsBot: 1,000G (6.1%, 171,492G)
ANFz: 489G (3.0%, 489G)
lowlf: 469G (2.9%, 469G)
skipsandwiches: 328G (2.0%, 328G)
resjudicata3: 300G (1.8%, 5,005G)
Tarheels218: 272G (1.7%, 272G)
TrogdorTheMemeinator: 244G (1.5%, 244G)
getthemoneyz: 102G (0.6%, 1,660,531G)
Valgram: 100G (0.6%, 1,008G)
CT_5_Holy: 100G (0.6%, 2,641G)

black bets:
MagicBottle: 9,767G (29.6%, 9,767G)
sinnyil2: 7,155G (21.7%, 14,311G)
Sans_from_Snowdin: 6,000G (18.2%, 28,583G)
evontno: 2,000G (6.1%, 3,591G)
Forkmore: 1,553G (4.7%, 3,046G)
timthehoodie: 1,000G (3.0%, 1,828G)
Zbgs: 1,000G (3.0%, 3,017G)
E_Ballard: 950G (2.9%, 1,900G)
Vahn_Blade: 500G (1.5%, 10,191G)
Error72: 500G (1.5%, 2,441G)
technominari: 500G (1.5%, 85,886G)
nekojin: 496G (1.5%, 14,367G)
SomthingMore: 400G (1.2%, 43,414G)
DeathTaxesAndAnime: 250G (0.8%, 2,764G)
Starfire6789: 208G (0.6%, 208G)
VolgraTheMoose: 200G (0.6%, 6,235G)
arctodus13: 200G (0.6%, 1,262G)
AllInBot: 198G (0.6%, 198G)
nhammen: 100G (0.3%, 32,648G)
