Final Bets: white - 8 bets for 6,006G (71.2%, x0.40); black - 7 bets for 2,432G (28.8%, x2.47)

white bets:
amiture: 2,000G (33.3%, 15,020G)
CT_5_Holy: 1,038G (17.3%, 1,038G)
Raixelol: 1,000G (16.7%, 18,238G)
BirbBrainsBot: 928G (15.5%, 54,061G)
DesertWooder: 350G (5.8%, 9,808G)
PantherIscariot: 345G (5.7%, 3,621G)
datadrivenbot: 200G (3.3%, 52,006G)
luv_thy_neighbor: 145G (2.4%, 145G)

black bets:
ko2q: 1,000G (41.1%, 16,631G)
Klednar21: 500G (20.6%, 10,528G)
AllInBot: 349G (14.4%, 349G)
gorgewall: 201G (8.3%, 3,445G)
getthemoneyz: 182G (7.5%, 1,513,500G)
douchetron: 100G (4.1%, 20,847G)
red_celt: 100G (4.1%, 1,785G)
