Final Bets: brown - 16 bets for 7,257G (33.7%, x1.96); champion - 14 bets for 14,253G (66.3%, x0.51)

brown bets:
BirbBrainsBot: 1,000G (13.8%, 110,035G)
NicoSavoy: 1,000G (13.8%, 22,245G)
reinoe: 1,000G (13.8%, 6,436G)
latebit: 847G (11.7%, 847G)
KasugaiRoastedPeas: 520G (7.2%, 520G)
getthemoneyz: 478G (6.6%, 1,876,153G)
ValensEXP_: 400G (5.5%, 1,763G)
mindblownnnn: 400G (5.5%, 3,176G)
CorpusCav: 381G (5.3%, 26,132G)
killth3kid: 300G (4.1%, 47,575G)
RonaldoTheGypsy: 250G (3.4%, 4,183G)
AllInBot: 249G (3.4%, 249G)
khelor_: 132G (1.8%, 132G)
victoriolue: 100G (1.4%, 97,752G)
farside00831: 100G (1.4%, 1,028G)
CosmicTactician: 100G (1.4%, 35,107G)

champion bets:
DeathTaxesAndAnime: 6,015G (42.2%, 11,796G)
Thyrandaal: 3,542G (24.9%, 6,946G)
seppu777: 777G (5.5%, 11,129G)
sinnyil2: 767G (5.4%, 23,347G)
Riley331: 626G (4.4%, 3,132G)
Raixelol: 552G (3.9%, 28,644G)
krombobreaker: 500G (3.5%, 9,563G)
dem0nj0ns: 428G (3.0%, 428G)
lijarkh: 324G (2.3%, 324G)
RobotOcelot: 256G (1.8%, 256G)
datadrivenbot: 200G (1.4%, 57,218G)
WildVol: 100G (0.7%, 100G)
velvet_muffins: 100G (0.7%, 2,428G)
BartTradingCompany: 66G (0.5%, 662G)
