Final Bets: red - 18 bets for 28,568G (68.2%, x0.47); black - 12 bets for 13,294G (31.8%, x2.15)

red bets:
NicoSavoy: 6,000G (21.0%, 76,131G)
DejaPoo21: 5,844G (20.5%, 5,844G)
Raixelol: 4,170G (14.6%, 4,170G)
Mesmaster: 4,000G (14.0%, 242,686G)
Shalloween: 1,935G (6.8%, 3,871G)
lowlf: 1,828G (6.4%, 1,828G)
escobro: 1,673G (5.9%, 1,673G)
BirbBrainsBot: 1,000G (3.5%, 182,826G)
Musashi45: 332G (1.2%, 332G)
ValensEXP_: 316G (1.1%, 4,332G)
AbandonedHall: 300G (1.1%, 3,328G)
DracoknightZero: 276G (1.0%, 1,977G)
PolkaGrandma: 212G (0.7%, 212G)
MemoriesofFinal: 200G (0.7%, 21,359G)
datadrivenbot: 200G (0.7%, 61,948G)
BartTradingCompany: 100G (0.4%, 9,328G)
latebit: 100G (0.4%, 3,649G)
getthemoneyz: 82G (0.3%, 1,940,949G)

black bets:
biske13: 4,000G (30.1%, 25,695G)
reinoe: 2,976G (22.4%, 5,953G)
DeathTaxesAndAnime: 1,339G (10.1%, 2,626G)
brokenknight201: 1,200G (9.0%, 23,219G)
EnemyController: 1,111G (8.4%, 1,789,612G)
Laserman1000: 768G (5.8%, 768G)
AllInBot: 720G (5.4%, 720G)
ColetteMSLP: 400G (3.0%, 825G)
tripaplex: 300G (2.3%, 4,331G)
Chihuahua_Charity: 256G (1.9%, 256G)
J_MacC1991: 124G (0.9%, 1,350G)
J_52: 100G (0.8%, 740G)
