Final Bets: red - 24 bets for 24,956G (77.9%, x0.28); blue - 5 bets for 7,076G (22.1%, x3.53)

red bets:
AllInBot: 5,608G (22.5%, 5,608G)
Mesmaster: 5,000G (20.0%, 93,884G)
furrytomahawkk: 2,876G (11.5%, 2,876G)
HaateXIII: 1,640G (6.6%, 1,640G)
evontno: 1,500G (6.0%, 4,594G)
Error72: 1,012G (4.1%, 1,012G)
BirbBrainsBot: 1,000G (4.0%, 23,376G)
JumbocactuarX27: 1,000G (4.0%, 47,059G)
bahamutlagooon: 840G (3.4%, 9,335G)
Nizaha: 552G (2.2%, 7,207G)
cho_pin: 500G (2.0%, 5,525G)
Zeroroute: 500G (2.0%, 500G)
Jaku618: 500G (2.0%, 5,149G)
skipsandwiches: 489G (2.0%, 489G)
killth3kid: 424G (1.7%, 2,545G)
CapnChaos12: 300G (1.2%, 7,054G)
getthemoneyz: 214G (0.9%, 1,302,151G)
gorgewall: 201G (0.8%, 10,356G)
bringmoreknives: 200G (0.8%, 13,684G)
datadrivenbot: 200G (0.8%, 32,793G)
Firesheath: 100G (0.4%, 12,224G)
Bongomon7: 100G (0.4%, 12,186G)
TasisSai: 100G (0.4%, 5,780G)
boosted420: 100G (0.4%, 112G)

blue bets:
Royal_Ruckus: 6,452G (91.2%, 6,452G)
MMagnetMan: 224G (3.2%, 224G)
UnderOneLight: 200G (2.8%, 1,798G)
nifboy: 100G (1.4%, 2,538G)
Kronikle: 100G (1.4%, 6,713G)
