Final Bets: red - 27 bets for 42,099G (86.2%, x0.16); champion - 12 bets for 6,723G (13.8%, x6.26)

red bets:
Thyrandaal: 9,260G (22.0%, 9,260G)
Forkmore: 6,460G (15.3%, 15,381G)
Jaku618: 4,441G (10.5%, 4,441G)
RaIshtar: 4,000G (9.5%, 49,978G)
skipsandwiches: 3,521G (8.4%, 3,521G)
Error72: 2,962G (7.0%, 5,808G)
pplvee1: 2,000G (4.8%, 13,744G)
Rytor: 1,722G (4.1%, 1,722G)
evontno: 1,001G (2.4%, 1,001G)
BirbBrainsBot: 1,000G (2.4%, 27,451G)
JumbocactuarX27: 1,000G (2.4%, 49,452G)
Nizaha: 552G (1.3%, 9,519G)
bahamutlagooon: 531G (1.3%, 10,624G)
gorgewall: 501G (1.2%, 10,914G)
Zeroroute: 500G (1.2%, 500G)
killth3kid: 428G (1.0%, 2,773G)
furrytomahawkk: 408G (1.0%, 4,408G)
Cryptopsy70: 312G (0.7%, 3,582G)
TasisSai: 300G (0.7%, 5,819G)
CapnChaos12: 300G (0.7%, 7,039G)
AllInBot: 200G (0.5%, 200G)
datadrivenbot: 200G (0.5%, 32,571G)
Firesheath: 100G (0.2%, 12,784G)
Miku_Shikhu: 100G (0.2%, 17,660G)
bringmoreknives: 100G (0.2%, 15,606G)
Bongomon7: 100G (0.2%, 12,740G)
DouglasDragonThePoet: 100G (0.2%, 654G)

champion bets:
acedude1981: 2,000G (29.7%, 13,039G)
ericzubat: 1,137G (16.9%, 1,137G)
HaateXIII: 1,071G (15.9%, 1,071G)
cho_pin: 500G (7.4%, 3,934G)
RunicMagus: 444G (6.6%, 444G)
getthemoneyz: 396G (5.9%, 1,303,093G)
brokenknight201: 309G (4.6%, 1,416G)
AND4H: 300G (4.5%, 9,410G)
UnderOneLight: 300G (4.5%, 1,362G)
Royal_Ruckus: 116G (1.7%, 116G)
Heroebal: 100G (1.5%, 4,422G)
Othatmattkid: 50G (0.7%, 1,720G)
