Final Bets: white - 17 bets for 9,430G (45.5%, x1.20); black - 22 bets for 11,296G (54.5%, x0.83)

white bets:
Nickyfive: 2,691G (28.5%, 5,383G)
sinnyil2: 1,436G (15.2%, 1,436G)
CorpusCav: 1,020G (10.8%, 20,630G)
AniZero: 750G (8.0%, 37,191G)
EnemyController: 500G (5.3%, 481,363G)
gorgewall: 490G (5.2%, 490G)
DrPoopersMD: 347G (3.7%, 2,286G)
OneHundredFists: 316G (3.4%, 316G)
killth3kid: 308G (3.3%, 459G)
CapnChaos12: 300G (3.2%, 12,772G)
CandyTamer: 260G (2.8%, 712G)
BlackJack3D6: 228G (2.4%, 228G)
Polygamic: 204G (2.2%, 204G)
Belkra: 192G (2.0%, 384G)
regios91: 188G (2.0%, 188G)
CosmicTactician: 100G (1.1%, 7,582G)
foofermoofer: 100G (1.1%, 697G)

black bets:
Zbgs: 2,500G (22.1%, 46,324G)
Lydian_C: 1,464G (13.0%, 1,464G)
BirbBrainsBot: 1,000G (8.9%, 174,047G)
Hamborn: 1,000G (8.9%, 67,976G)
reinoe: 600G (5.3%, 600G)
fenaen: 600G (5.3%, 5,576G)
nifboy: 560G (5.0%, 560G)
AmaninAmide: 500G (4.4%, 4,439G)
volgrathemoose: 500G (4.4%, 7,235G)
getthemoneyz: 444G (3.9%, 802,256G)
Powerpinch: 326G (2.9%, 326G)
beowulfrulez: 300G (2.7%, 300G)
HaateXIII: 250G (2.2%, 6,595G)
Nizaha: 201G (1.8%, 16,235G)
KasugaiRoastedPeas: 200G (1.8%, 4,945G)
Digitalsocrates: 200G (1.8%, 7,474G)
s_o_b_e_q: 150G (1.3%, 1,804G)
Firesheath: 101G (0.9%, 1,872G)
Evewho: 100G (0.9%, 6,663G)
Tougou: 100G (0.9%, 3,312G)
moocaotao: 100G (0.9%, 942G)
datadrivenbot: 100G (0.9%, 32,248G)
