Final Bets: red - 10 bets for 14,984G (40.9%, x1.44); green - 17 bets for 21,632G (59.1%, x0.69)

red bets:
Aldrammech: 6,231G (41.6%, 6,231G)
killth3kid: 3,731G (24.9%, 3,731G)
BirbBrainsBot: 1,000G (6.7%, 82,724G)
dogsandcatsand: 1,000G (6.7%, 286,777G)
ko2q: 700G (4.7%, 1,401G)
E_Ballard: 664G (4.4%, 664G)
Miku_Shikhu: 558G (3.7%, 558G)
JonnyCue: 500G (3.3%, 2,350G)
Virilikus: 500G (3.3%, 186,873G)
CosmicTactician: 100G (0.7%, 2,964G)

green bets:
SkylerBunny: 10,000G (46.2%, 214,085G)
DeathTaxesAndAnime: 2,216G (10.2%, 2,216G)
coralreeferz: 1,250G (5.8%, 13,306G)
OniXiion: 1,034G (4.8%, 2,585G)
nhammen: 1,000G (4.6%, 91,668G)
fenaen: 808G (3.7%, 808G)
resjudicata3: 718G (3.3%, 718G)
Nizaha: 688G (3.2%, 19,503G)
twelfthrootoftwo: 673G (3.1%, 673G)
gorgewall: 620G (2.9%, 620G)
Drusiform: 600G (2.8%, 2,390G)
triniculo: 545G (2.5%, 545G)
DHaveWord: 452G (2.1%, 452G)
AllInBot: 401G (1.9%, 401G)
getthemoneyz: 216G (1.0%, 1,533,203G)
PantherIscariot: 211G (1.0%, 221G)
datadrivenbot: 200G (0.9%, 50,257G)
