Final Bets: purple - 13 bets for 18,384G (71.1%, x0.41); brown - 17 bets for 7,478G (28.9%, x2.46)

purple bets:
NicoSavoy: 10,000G (54.4%, 63,195G)
Kyune: 3,522G (19.2%, 3,522G)
HaplessOne: 1,500G (8.2%, 280,724G)
BirbBrainsBot: 1,000G (5.4%, 178,885G)
BoneMiser: 600G (3.3%, 600G)
killth3kid: 500G (2.7%, 19,746G)
otakutaylor: 300G (1.6%, 2,065G)
nifboy: 250G (1.4%, 12,836G)
AllInBot: 211G (1.1%, 211G)
TeaTime29: 200G (1.1%, 1,000G)
gorgewall: 101G (0.5%, 10,173G)
moocaotao: 100G (0.5%, 1,127G)
DAC169: 100G (0.5%, 1,000G)

brown bets:
Laserman1000: 1,321G (17.7%, 2,642G)
genericco: 1,137G (15.2%, 1,137G)
getthemoneyz: 854G (11.4%, 725,659G)
argentbast: 800G (10.7%, 2,010G)
CorpusCav: 501G (6.7%, 8,416G)
Klednar21: 500G (6.7%, 1,458G)
Phytik: 453G (6.1%, 453G)
Rislyeu: 412G (5.5%, 412G)
Digitalsocrates: 300G (4.0%, 2,399G)
Xcessive30: 200G (2.7%, 200G)
puerfleur: 200G (2.7%, 594G)
helpimabug: 200G (2.7%, 1,433G)
mardokttv: 200G (2.7%, 4,040G)
Dymntd: 100G (1.3%, 20,871G)
DeathTaxesAndAnime: 100G (1.3%, 5,103G)
Heroebal: 100G (1.3%, 8,258G)
datadrivenbot: 100G (1.3%, 19,295G)
