Final Bets: red - 15 bets for 6,345G (41.9%, x1.38); brown - 16 bets for 8,782G (58.1%, x0.72)

red bets:
HaplessOne: 1,500G (23.6%, 280,015G)
YaBoy125: 1,246G (19.6%, 2,493G)
BirbBrainsBot: 1,000G (15.8%, 175,885G)
electric_algus: 420G (6.6%, 6,288G)
Kyune: 416G (6.6%, 416G)
byrdturbo: 333G (5.2%, 18,546G)
LivingHitokiri: 300G (4.7%, 13,496G)
nifboy: 250G (3.9%, 12,086G)
otakutaylor: 200G (3.2%, 2,042G)
getthemoneyz: 180G (2.8%, 727,571G)
Firesheath: 100G (1.6%, 703G)
TheMM42: 100G (1.6%, 22,414G)
Dymntd: 100G (1.6%, 21,836G)
Heroebal: 100G (1.6%, 8,404G)
CorpusCav: 100G (1.6%, 10,155G)

brown bets:
BoneMiser: 1,249G (14.2%, 1,249G)
TeaTime29: 1,018G (11.6%, 1,018G)
argentbast: 1,000G (11.4%, 2,477G)
genericco: 1,000G (11.4%, 4,628G)
Rislyeu: 884G (10.1%, 884G)
Xcessive30: 848G (9.7%, 848G)
Laserman1000: 657G (7.5%, 6,457G)
mardokttv: 500G (5.7%, 4,302G)
puerfleur: 400G (4.6%, 1,095G)
helpimabug: 400G (4.6%, 1,493G)
happyfundude: 217G (2.5%, 217G)
AllInBot: 209G (2.4%, 209G)
moocaotao: 100G (1.1%, 997G)
Evewho: 100G (1.1%, 7,574G)
DeathTaxesAndAnime: 100G (1.1%, 5,442G)
datadrivenbot: 100G (1.1%, 19,634G)
