Final Bets: purple - 15 bets for 12,027G (36.6%, x1.73); brown - 15 bets for 20,824G (63.4%, x0.58)

purple bets:
Forkmore: 5,000G (41.6%, 25,685G)
Zeroroute: 2,885G (24.0%, 5,340G)
resjudicata3: 1,000G (8.3%, 5,406G)
pandasforsale: 777G (6.5%, 20,694G)
Smashy: 500G (4.2%, 5,100G)
silverChangeling: 352G (2.9%, 7,043G)
Galeronis: 244G (2.0%, 244G)
Lillifen: 224G (1.9%, 224G)
ShanksMcShiv: 224G (1.9%, 224G)
Kellios11: 200G (1.7%, 23,699G)
datadrivenbot: 200G (1.7%, 56,839G)
PantherIscariot: 111G (0.9%, 5,085G)
neocarbuncle: 110G (0.9%, 1,114G)
ko2q: 100G (0.8%, 2,349G)
Tarheels218: 100G (0.8%, 10,318G)

brown bets:
douchetron: 6,595G (31.7%, 6,595G)
reinoe: 5,000G (24.0%, 121,262G)
DeathTaxesAndAnime: 1,986G (9.5%, 3,895G)
Chuckolator: 1,356G (6.5%, 1,356G)
BirbBrainsBot: 1,000G (4.8%, 46,797G)
benticore: 1,000G (4.8%, 39,452G)
Thyrandaal: 1,000G (4.8%, 252,135G)
nhammen: 784G (3.8%, 7,847G)
Mesmaster: 688G (3.3%, 688G)
Amorial: 411G (2.0%, 411G)
Yasmosis: 386G (1.9%, 386G)
AllInBot: 348G (1.7%, 348G)
Skjodo: 120G (0.6%, 120G)
MinBetBot: 100G (0.5%, 22,923G)
getthemoneyz: 50G (0.2%, 1,612,620G)
