Final Bets: green - 14 bets for 10,185G (72.3%, x0.38); yellow - 6 bets for 3,899G (27.7%, x2.61)

green bets:
Willjin: 6,000G (58.9%, 159,932G)
Dasutin23: 1,000G (9.8%, 40,383G)
Sir_Jim_0f_Slim: 805G (7.9%, 805G)
Smashy: 500G (4.9%, 5,223G)
douchetron: 248G (2.4%, 248G)
HentaiWriter: 220G (2.2%, 220G)
HS39: 212G (2.1%, 212G)
BirbBrainsBot: 208G (2.0%, 158,021G)
CorpusCav: 200G (2.0%, 5,022G)
datadrivenbot: 200G (2.0%, 62,255G)
krombobreaker: 200G (2.0%, 2,183G)
Leonidusx: 200G (2.0%, 16,175G)
Zerguzen: 100G (1.0%, 2,777G)
getthemoneyz: 92G (0.9%, 1,782,871G)

yellow bets:
xendriick: 1,500G (38.5%, 3,773G)
gorgewall: 1,132G (29.0%, 1,132G)
Thyrandaal: 544G (14.0%, 544G)
highelectricaltemperature: 500G (12.8%, 1,084G)
Lydian_C: 123G (3.2%, 16,662G)
BartTradingCompany: 100G (2.6%, 940G)
