Final Bets: green - 13 bets for 9,926G (67.0%, x0.49); yellow - 6 bets for 4,896G (33.0%, x2.03)

green bets:
douchetron: 2,610G (26.3%, 5,221G)
Mesmaster: 2,062G (20.8%, 2,062G)
JumbocactuarX27: 1,313G (13.2%, 1,313G)
latebit: 1,000G (10.1%, 36,201G)
VolgraTheMoose: 724G (7.3%, 724G)
SephDarkheart: 568G (5.7%, 102,917G)
Tarheels218: 500G (5.0%, 2,063G)
skipsandwiches: 308G (3.1%, 12,969G)
AllInBot: 200G (2.0%, 200G)
datadrivenbot: 200G (2.0%, 69,494G)
CosmicTactician: 200G (2.0%, 22,169G)
BirbBrainsBot: 141G (1.4%, 94,214G)
ko2q: 100G (1.0%, 6,393G)

yellow bets:
DavenIII: 2,925G (59.7%, 11,703G)
sinnyil2: 896G (18.3%, 896G)
powergems: 747G (15.3%, 747G)
Banzem: 124G (2.5%, 124G)
getthemoneyz: 104G (2.1%, 1,619,945G)
dowsingmouse: 100G (2.0%, 1,662G)
