Final Bets: red - 16 bets for 8,110G (51.8%, x0.93); purple - 7 bets for 7,536G (48.2%, x1.08)

red bets:
Zeroroute: 1,502G (18.5%, 1,502G)
DavenIII: 1,236G (15.2%, 17,660G)
BirbBrainsBot: 1,000G (12.3%, 93,000G)
LDSkinny: 1,000G (12.3%, 2,944G)
JumbocactuarX27: 616G (7.6%, 616G)
SephDarkheart: 568G (7.0%, 102,360G)
VolgraTheMoose: 501G (6.2%, 1,767G)
latebit: 332G (4.1%, 35,209G)
xBizzy: 244G (3.0%, 671G)
datadrivenbot: 200G (2.5%, 69,292G)
WhiteTigress: 200G (2.5%, 2,760G)
getthemoneyz: 180G (2.2%, 1,620,513G)
holdenmagronik: 150G (1.8%, 2,440G)
maddrave09: 144G (1.8%, 1,048G)
nhammen: 137G (1.7%, 13,711G)
RunicMagus: 100G (1.2%, 3,281G)

purple bets:
coralreeferz: 2,973G (39.5%, 2,973G)
pplvee1: 2,776G (36.8%, 2,776G)
douchetron: 604G (8.0%, 604G)
Mesmaster: 428G (5.7%, 428G)
AllInBot: 305G (4.0%, 305G)
Klednar21: 250G (3.3%, 250G)
CosmicTactician: 200G (2.7%, 21,718G)
