Final Bets: red - 11 bets for 8,747G (40.0%, x1.50); blue - 11 bets for 13,106G (60.0%, x0.67)

red bets:
Aldrammech: 4,747G (54.3%, 4,747G)
silentkaster: 1,000G (11.4%, 7,700G)
E_Ballard: 811G (9.3%, 811G)
VolgraTheMoose: 501G (5.7%, 8,138G)
maximumcrit: 500G (5.7%, 7,442G)
powergems: 440G (5.0%, 440G)
AllInBot: 200G (2.3%, 200G)
datadrivenbot: 200G (2.3%, 51,652G)
inzo24: 198G (2.3%, 497G)
Miku_Shikhu: 100G (1.1%, 1,864G)
wkhumes: 50G (0.6%, 1,065G)

blue bets:
dogsandcatsand: 6,666G (50.9%, 39,737G)
latebit: 1,864G (14.2%, 1,864G)
douchetron: 1,798G (13.7%, 3,597G)
BirbBrainsBot: 1,000G (7.6%, 136,073G)
TasisSai: 500G (3.8%, 18,515G)
getthemoneyz: 474G (3.6%, 1,562,997G)
lastly: 300G (2.3%, 300G)
foxfaeez: 200G (1.5%, 19,112G)
Skjodo: 104G (0.8%, 104G)
MinBetBot: 100G (0.8%, 16,941G)
Tarheels218: 100G (0.8%, 1,152G)
