Final Bets: green - 15 bets for 8,642G (36.4%, x1.75); champion - 20 bets for 15,115G (63.6%, x0.57)

green bets:
Galeronis: 1,758G (20.3%, 3,516G)
E_Ballard: 1,032G (11.9%, 2,065G)
ThreeMileIsland: 1,000G (11.6%, 4,344G)
Sans_from_Snowdin: 1,000G (11.6%, 7,842G)
resjudicata3: 979G (11.3%, 979G)
douchetron: 600G (6.9%, 600G)
Forkmore: 560G (6.5%, 560G)
loveyouallfriends: 500G (5.8%, 44,873G)
AllInBot: 265G (3.1%, 265G)
Chuckolator: 264G (3.1%, 3,680G)
braveboyblue: 224G (2.6%, 14,993G)
Mao420: 160G (1.9%, 1,139G)
MinBetBot: 100G (1.2%, 6,878G)
Qaz12301: 100G (1.2%, 1,644G)
itsonlyspencer: 100G (1.2%, 3,513G)

champion bets:
Virilikus: 3,000G (19.8%, 197,292G)
Mesmaster: 2,000G (13.2%, 25,858G)
NIghtdew14: 1,678G (11.1%, 3,356G)
MagicBottle: 1,591G (10.5%, 1,591G)
BirbBrainsBot: 1,000G (6.6%, 50,975G)
Tarheels218: 1,000G (6.6%, 3,582G)
SkylerBunny: 768G (5.1%, 768G)
roofiepops: 580G (3.8%, 580G)
letdowncity: 540G (3.6%, 19,236G)
Zeroroute: 504G (3.3%, 504G)
Smashy: 500G (3.3%, 2,548G)
DeathTaxesAndAnime: 400G (2.6%, 1,771G)
Docrad_: 369G (2.4%, 738G)
nok____: 350G (2.3%, 350G)
ff7g00ru: 278G (1.8%, 278G)
datadrivenbot: 200G (1.3%, 66,987G)
gorgewall: 101G (0.7%, 3,766G)
3ngag3: 100G (0.7%, 318G)
CosmicTactician: 100G (0.7%, 28,693G)
getthemoneyz: 56G (0.4%, 1,664,680G)
