Final Bets: blue - 13 bets for 9,845G (59.9%, x0.67); green - 10 bets for 6,589G (40.1%, x1.49)

blue bets:
UmaiJam: 2,000G (20.3%, 53,111G)
Shalloween: 1,400G (14.2%, 23,710G)
BirbBrainsBot: 1,000G (10.2%, 71,722G)
josephiroth_143: 1,000G (10.2%, 11,429G)
fenaen: 934G (9.5%, 934G)
DustBirdEX: 783G (8.0%, 7,834G)
killth3kid: 572G (5.8%, 7,476G)
coralreeferz: 512G (5.2%, 512G)
Miku_Shikhu: 498G (5.1%, 498G)
getthemoneyz: 420G (4.3%, 1,457,761G)
holdenmagronik: 256G (2.6%, 256G)
HaateXIII: 250G (2.5%, 1,602G)
captainmilestw: 220G (2.2%, 220G)

green bets:
toka222: 2,500G (37.9%, 79,175G)
VolgraTheMoose: 864G (13.1%, 864G)
Hasterious: 796G (12.1%, 796G)
super_robo_mg: 677G (10.3%, 677G)
nifboy: 504G (7.6%, 504G)
TasisSai: 500G (7.6%, 12,343G)
Chambs12: 248G (3.8%, 1,408G)
AllInBot: 200G (3.0%, 200G)
datadrivenbot: 200G (3.0%, 44,173G)
Firesheath: 100G (1.5%, 2,860G)
