Final Bets: blue - 15 bets for 16,533G (49.1%, x1.04); yellow - 27 bets for 17,145G (50.9%, x0.96)

blue bets:
joewcarson: 8,487G (51.3%, 8,487G)
jakeduhhsnake: 2,000G (12.1%, 62,870G)
Zbgs: 1,000G (6.0%, 63,172G)
RyuTsuno: 876G (5.3%, 876G)
RestIessNight: 624G (3.8%, 624G)
Aldrammech: 600G (3.6%, 600G)
volgrathemoose: 501G (3.0%, 5,101G)
TheGuesty: 500G (3.0%, 28,411G)
Wonser: 500G (3.0%, 3,236G)
itsdigitalbro: 400G (2.4%, 1,100G)
getthemoneyz: 284G (1.7%, 611,976G)
genericco: 136G (0.8%, 136G)
midori_ribbon: 120G (0.7%, 1,242G)
Evewho: 100G (0.6%, 8,053G)

yellow bets:
killth3kid: 2,000G (11.7%, 51,730G)
Shalloween: 1,588G (9.3%, 1,588G)
Bioticism: 1,279G (7.5%, 1,279G)
sinnyil2: 1,200G (7.0%, 22,927G)
ungabunga_bot: 1,000G (5.8%, 338,906G)
BirbBrainsBot: 1,000G (5.8%, 11,802G)
Dexsana: 1,000G (5.8%, 12,917G)
carsenhk: 1,000G (5.8%, 13,094G)
Zeroroute: 926G (5.4%, 926G)
OmnibotGamma: 879G (5.1%, 879G)
Grimmace45: 789G (4.6%, 2,632G)
DeathTaxesAndAnime: 720G (4.2%, 720G)
Error72: 592G (3.5%, 1,184G)
EnemyController: 551G (3.2%, 180,111G)
aznwanderor: 550G (3.2%, 550G)
luminarii: 500G (2.9%, 13,913G)
astrozin11: 500G (2.9%, 6,511G)
superdevon1: 405G (2.4%, 4,054G)
clesseses: 204G (1.2%, 204G)
KasugaiRoastedPeas: 200G (1.2%, 2,165G)
Realitydown: 100G (0.6%, 5,467G)
maakur_: 100G (0.6%, 121,012G)
nifboy: 100G (0.6%, 5,568G)
datadrivenbot: 100G (0.6%, 14,626G)
DHaveWord: 100G (0.6%, 2,804G)
Firesheath: 100G (0.6%, 13,538G)
DrAntiSocial: 50G (0.3%, 8,843G)
daveb_: 12G (0.1%, 874G)
