Final Bets: purple - 19 bets for 11,909G (30.9%, x2.23); champion - 23 bets for 26,598G (69.1%, x0.45)

purple bets:
Evewho: 2,888G (24.3%, 5,663G)
gooseyourself: 2,000G (16.8%, 14,462G)
Lionhermit: 2,000G (16.8%, 48,937G)
maakur_: 754G (6.3%, 754G)
Baron_von_Scrub: 535G (4.5%, 23,342G)
dogsandcatsand: 500G (4.2%, 9,399G)
Dexsana: 424G (3.6%, 424G)
Lydian_C: 420G (3.5%, 4,356G)
Sairentozon7: 400G (3.4%, 400G)
rico_flex: 333G (2.8%, 29,402G)
nifboy: 304G (2.6%, 304G)
evdoggity: 300G (2.5%, 4,645G)
Cataphract116: 300G (2.5%, 15,605G)
Ross_from_Cali: 240G (2.0%, 240G)
ANFz: 121G (1.0%, 50,194G)
Lythe_Caraker: 100G (0.8%, 117,589G)
Lali_Lulelo: 100G (0.8%, 5,356G)
OneHundredFists: 100G (0.8%, 3,674G)
getthemoneyz: 90G (0.8%, 672,896G)

champion bets:
Grimmace45: 5,369G (20.2%, 26,847G)
Dymntd: 3,000G (11.3%, 11,174G)
NicoSavoy: 3,000G (11.3%, 4,115G)
Mesmaster: 3,000G (11.3%, 128,150G)
mpghappiness: 2,526G (9.5%, 4,953G)
killth3kid: 2,000G (7.5%, 59,557G)
roofiepops: 1,327G (5.0%, 1,327G)
sinnyil2: 1,200G (4.5%, 20,200G)
ApplesauceBoss: 1,111G (4.2%, 1,111G)
EnemyController: 1,000G (3.8%, 227,317G)
HaateXIII: 668G (2.5%, 668G)
Pie108: 500G (1.9%, 8,343G)
sSwing: 308G (1.2%, 308G)
GnielKnows: 270G (1.0%, 540G)
ungabunga_bot: 217G (0.8%, 475,225G)
BirbBrainsBot: 200G (0.8%, 200G)
Realitydown: 200G (0.8%, 3,083G)
grayeternity: 180G (0.7%, 180G)
daveb_: 122G (0.5%, 1,991G)
E_Ballard: 100G (0.4%, 4,508G)
JIDkomu: 100G (0.4%, 8,031G)
rjA0zcOQ96: 100G (0.4%, 12,643G)
datadrivenbot: 100G (0.4%, 13,219G)
