Final Bets: purple - 22 bets for 16,758G (67.7%, x0.48); brown - 19 bets for 7,979G (32.3%, x2.10)

purple bets:
Snowfats: 2,179G (13.0%, 2,179G)
bpc2163: 2,000G (11.9%, 8,772G)
fenaen: 1,612G (9.6%, 1,612G)
Lodrak: 1,465G (8.7%, 1,465G)
Lanshaft: 1,301G (7.8%, 1,301G)
kai_shee: 1,001G (6.0%, 127,450G)
Dothan89: 1,000G (6.0%, 8,659G)
catfashions: 1,000G (6.0%, 28,092G)
Lord_Burrah: 1,000G (6.0%, 96,245G)
datadrivenbot: 744G (4.4%, 24,425G)
Goust18: 600G (3.6%, 12,102G)
getthemoneyz: 504G (3.0%, 471,710G)
JumbocactuarX27: 500G (3.0%, 2,142G)
Vampire_Killer: 500G (3.0%, 3,305G)
DejaPoo21: 364G (2.2%, 364G)
Bulleta: 250G (1.5%, 3,287G)
AllInBot: 218G (1.3%, 218G)
NUMBER1DB: 112G (0.7%, 112G)
wollise89: 108G (0.6%, 108G)
ANFz: 100G (0.6%, 2,371G)
friendsquirrel: 100G (0.6%, 4,226G)
organizing_secrets: 100G (0.6%, 100G)

brown bets:
DeathTaxesAndAnime: 1,449G (18.2%, 2,842G)
IndecisiveNinja: 1,000G (12.5%, 3,691G)
BirbBrainsBot: 1,000G (12.5%, 52,771G)
Pie108: 700G (8.8%, 17,126G)
Shalloween: 600G (7.5%, 26,268G)
nifboy: 500G (6.3%, 5,712G)
Jerboj: 500G (6.3%, 20,887G)
HaateXIII: 328G (4.1%, 328G)
EnemyController: 300G (3.8%, 38,800G)
hales_bopp_it: 300G (3.8%, 4,746G)
ZephyrTempest: 278G (3.5%, 47,442G)
Baron_von_Scrub: 252G (3.2%, 1,509G)
mexskacin: 228G (2.9%, 228G)
roqqqpsi: 114G (1.4%, 1,037G)
maakur_: 100G (1.3%, 2,119G)
ko2q: 100G (1.3%, 1,821G)
DudeMonkey77: 100G (1.3%, 348G)
jhazor: 80G (1.0%, 1,602G)
madming25: 50G (0.6%, 983G)
