Final Bets: red - 16 bets for 12,111G (35.1%, x1.85); yellow - 22 bets for 22,395G (64.9%, x0.54)

red bets:
pplvee1: 3,422G (28.3%, 3,422G)
prince_rogers_nelson_: 2,000G (16.5%, 18,513G)
DusterW: 1,000G (8.3%, 7,545G)
Thyrandaal: 1,000G (8.3%, 40,894G)
BirbBrainsBot: 1,000G (8.3%, 49,502G)
Creggers: 1,000G (8.3%, 9,803G)
WitchHunterIX: 1,000G (8.3%, 12,162G)
Aldrammech: 354G (2.9%, 3,548G)
benticore: 334G (2.8%, 6,689G)
gorgewall: 301G (2.5%, 18,955G)
butterbelljedi: 200G (1.7%, 200G)
biffcake01: 100G (0.8%, 2,173G)
Meta_Five: 100G (0.8%, 23,938G)
Nizaha: 100G (0.8%, 24,994G)
ko2q: 100G (0.8%, 9,358G)
muffin_money: 100G (0.8%, 100G)

yellow bets:
toka222: 5,000G (22.3%, 60,605G)
Mesmaster: 5,000G (22.3%, 76,107G)
soren_of_tyto: 2,761G (12.3%, 2,761G)
Evewho: 1,588G (7.1%, 1,588G)
Baron_von_Scrub: 1,347G (6.0%, 2,695G)
NicoSavoy: 1,000G (4.5%, 15,721G)
DeathTaxesAndAnime: 938G (4.2%, 938G)
roofiepops: 828G (3.7%, 828G)
HaateXIII: 788G (3.5%, 788G)
Cryptopsy70: 544G (2.4%, 21,725G)
moonliquor: 500G (2.2%, 3,776G)
LAGBOT30000: 384G (1.7%, 384G)
AllInBot: 374G (1.7%, 374G)
old_overholt_: 300G (1.3%, 23,097G)
KyleWonToLiveForever: 268G (1.2%, 268G)
RunicMagus: 150G (0.7%, 49,416G)
MrMarkPolo: 125G (0.6%, 2,996G)
OtherBrand: 100G (0.4%, 5,737G)
silentkaster: 100G (0.4%, 2,728G)
OneHundredFists: 100G (0.4%, 17,790G)
datadrivenbot: 100G (0.4%, 42,186G)
MadnessR: 100G (0.4%, 2,471G)
