Final Bets: purple - 24 bets for 19,206G (23.8%, x3.20); brown - 7 bets for 61,364G (76.2%, x0.31)

purple bets:
volgrathemoose: 4,032G (21.0%, 8,064G)
LDSkinny: 1,471G (7.7%, 1,471G)
RagequitSA: 1,224G (6.4%, 1,224G)
JumbocactuarX27: 1,068G (5.6%, 2,137G)
getthemoneyz: 1,000G (5.2%, 687,026G)
BirbBrainsBot: 1,000G (5.2%, 174,573G)
Lord_Burrah: 1,000G (5.2%, 94,000G)
Draconis345: 1,000G (5.2%, 73,721G)
Error72: 1,000G (5.2%, 8,399G)
toka222: 1,000G (5.2%, 47,565G)
SQUiDSQUARKLIN: 957G (5.0%, 957G)
Bryon_W: 769G (4.0%, 769G)
rjA0zcOQ96: 678G (3.5%, 678G)
roqqqpsi: 558G (2.9%, 564G)
HaplessOne: 555G (2.9%, 7,353G)
TheChainNerd: 500G (2.6%, 9,759G)
FriendSquirrel: 344G (1.8%, 344G)
go_pack: 300G (1.6%, 3,748G)
nifboy: 250G (1.3%, 3,592G)
ko2q: 100G (0.5%, 2,272G)
maakur_: 100G (0.5%, 5,467G)
datadrivenbot: 100G (0.5%, 18,566G)
MADTheta: 100G (0.5%, 812G)
zeando: 100G (0.5%, 2,600G)

brown bets:
TheKillerNacho: 59,388G (96.8%, 59,388G)
ThePineappleSalesman: 876G (1.4%, 876G)
reinoe: 500G (0.8%, 6,836G)
joewcarson: 300G (0.5%, 3,630G)
Evewho: 100G (0.2%, 9,334G)
run_with_stone_GUNs: 100G (0.2%, 6,399G)
ungabunga_bot: 100G (0.2%, 512,866G)
