Final Bets: red - 9 bets for 4,796G (36.3%, x1.76); blue - 15 bets for 8,423G (63.7%, x0.57)

red bets:
safira125: 1,000G (20.9%, 4,337G)
Smokegiant: 1,000G (20.9%, 86,070G)
Firesheath: 676G (14.1%, 676G)
prince_rogers_nelson_: 600G (12.5%, 600G)
killth3kid: 444G (9.3%, 78,062G)
Magicandy: 400G (8.3%, 31,737G)
amishninja: 400G (8.3%, 2,473G)
n2ash: 220G (4.6%, 1,955G)
getthemoneyz: 56G (1.2%, 1,126,253G)

blue bets:
SkylerBunny: 1,716G (20.4%, 1,716G)
HaateXIII: 1,165G (13.8%, 1,165G)
CrownOfHorns: 909G (10.8%, 909G)
Laserman1000: 800G (9.5%, 16,500G)
BirbBrainsBot: 775G (9.2%, 28,036G)
Cryptopsy70: 616G (7.3%, 15,534G)
ciprofloxacin: 580G (6.9%, 580G)
twelfthrootoftwo: 500G (5.9%, 18,612G)
reinoe: 500G (5.9%, 4,117G)
neocarbuncle: 310G (3.7%, 9,122G)
ChaoreLance: 152G (1.8%, 152G)
Evewho: 100G (1.2%, 15,663G)
Quadh0nk: 100G (1.2%, 4,385G)
datadrivenbot: 100G (1.2%, 50,211G)
letdowncity: 100G (1.2%, 10,794G)
