Final Bets: green - 13 bets for 9,961G (53.4%, x0.87); yellow - 10 bets for 8,693G (46.6%, x1.15)

green bets:
UmaiJam: 3,800G (38.1%, 90,558G)
nekojin: 1,000G (10.0%, 2,134G)
BirbBrainsBot: 1,000G (10.0%, 28,477G)
Laserman1000: 856G (8.6%, 16,956G)
Firesheath: 676G (6.8%, 676G)
Cryptopsy70: 616G (6.2%, 15,885G)
HuffFlex: 500G (5.0%, 2,583G)
CrownOfHorns: 427G (4.3%, 427G)
Magicandy: 400G (4.0%, 30,337G)
getthemoneyz: 286G (2.9%, 1,126,197G)
letdowncity: 200G (2.0%, 10,851G)
Ring_Wyrm: 100G (1.0%, 5,534G)
datadrivenbot: 100G (1.0%, 50,268G)

yellow bets:
reinoe: 2,201G (25.3%, 4,402G)
SkylerBunny: 1,346G (15.5%, 2,693G)
lowlf: 1,212G (13.9%, 97,041G)
ciprofloxacin: 910G (10.5%, 910G)
n2ash: 700G (8.1%, 1,735G)
evontno: 524G (6.0%, 524G)
neerrm: 500G (5.8%, 49,948G)
Evewho: 500G (5.8%, 15,720G)
Smokegiant: 500G (5.8%, 84,070G)
Kronikle: 300G (3.5%, 17,039G)
