Final Bets: blue - 14 bets for 7,392G (48.3%, x1.07); white - 12 bets for 7,922G (51.7%, x0.93)

blue bets:
BirbBrainsBot: 1,000G (13.5%, 27,976G)
Smokegiant: 1,000G (13.5%, 93,401G)
Laserman1000: 800G (10.8%, 16,700G)
getthemoneyz: 698G (9.4%, 1,126,289G)
Firesheath: 676G (9.1%, 676G)
Cryptopsy70: 616G (8.3%, 15,802G)
Magicandy: 500G (6.8%, 30,598G)
HuffFlex: 500G (6.8%, 3,250G)
reddwind_: 500G (6.8%, 7,623G)
Phytik: 352G (4.8%, 352G)
twelfthrootoftwo: 300G (4.1%, 18,892G)
safira125: 250G (3.4%, 3,837G)
letdowncity: 100G (1.4%, 10,996G)
Evewho: 100G (1.4%, 16,333G)

white bets:
reinoe: 2,000G (25.2%, 7,400G)
LordSDB: 2,000G (25.2%, 56,374G)
lowlf: 1,212G (15.3%, 97,006G)
SkylerBunny: 1,000G (12.6%, 7,853G)
evontno: 524G (6.6%, 524G)
WunUP: 386G (4.9%, 386G)
ThreeMileIsland: 250G (3.2%, 971G)
maleblackfiora: 150G (1.9%, 1,124G)
E_Ballard: 100G (1.3%, 8,053G)
Quadh0nk: 100G (1.3%, 5,342G)
datadrivenbot: 100G (1.3%, 50,483G)
ALY327: 100G (1.3%, 39,877G)
