Final Bets: red - 8 bets for 5,443G (50.7%, x0.97); blue - 14 bets for 5,288G (49.3%, x1.03)

red bets:
KasugaiRoastedPeas: 3,088G (56.7%, 3,088G)
NovaKnight21: 718G (13.2%, 718G)
BirbBrainsBot: 527G (9.7%, 49,514G)
KyleWonToLiveForever: 440G (8.1%, 440G)
Chuckolator: 344G (6.3%, 344G)
OniXiion: 200G (3.7%, 2,557G)
getthemoneyz: 76G (1.4%, 1,617,442G)
ArrenJevleth: 50G (0.9%, 917G)

blue bets:
AllInBot: 1,026G (19.4%, 1,026G)
Mesmaster: 696G (13.2%, 696G)
superdevon1: 658G (12.4%, 65,829G)
Draconis345: 500G (9.5%, 10,371G)
DAC169: 448G (8.5%, 448G)
DeathTaxesAndAnime: 400G (7.6%, 4,103G)
LAGBOT30000: 376G (7.1%, 1,880G)
gorgewall: 301G (5.7%, 3,361G)
xBizzy: 228G (4.3%, 228G)
datadrivenbot: 200G (3.8%, 58,873G)
maddrave09: 132G (2.5%, 1,305G)
Lydian_C: 123G (2.3%, 8,265G)
MinBetBot: 100G (1.9%, 22,127G)
ko2q: 100G (1.9%, 1,393G)
