High Risers:
1. Nizaha: +4,471G
2. Bruubarg: +4,085G
3. Nhammen: +3,505G
4. Greggernaut: +3,107G
5. Latebit: +2,859G
6. Nicosavoy: +2,563G
7. Tripaplex: +2,303G
8. Jonnycue: +1,572G
9. Daveniii: +1,337G
10. Lyner87: +1,216G
11. Smugzug: +1,013G
12. Killth3kid: +784G
13. Valensexp_: +721G
14. Willjin: +611G
15. Roofiepops: +573G
16. Sephdarkheart: +461G
17. Foesquirrel: +411G
18. Onehundredfists: +393G
19. Lowlf: +351G
20. J_macc1991: +297G
21. Maakur_: +207G
22. Fenaen: +137G
23. Arumz: +78G
24. Cosmictactician: +65G
25. Lythe_caraker: +5G
26. Grishhammer: +2G
27. Hotpocketsofficial: -19G
28. Snarkmage: -48G
29. Helpimabug: -65G
30. Onehitslay: -67G
31. Actual_jp: -100G
32. Yangusburger: -200G
33. Cazueladevacuno3: -200G
34. Gorgewall: -202G
35. Mirapoix: -257G
36. Dogsandcatsand: -267G
37. Just_here2: -300G
38. Friendsquirrel: -300G
39. Mrfripps: -300G
40. Porotact: -300G
41. Corpuscav: -374G
42. Brokenknight201: -400G
43. Cryptopsy70: -406G
44. Volgrathemoose: -450G
45. Error72: -500G
46. Khelor_: -532G
47. Powergems: -555G
48. Litarmada: -600G
49. Wonser: -789G
50. Run_with_stone_guns: -893G
51. Old_overholt_: -1,000G
52. E_ballard: -1,000G
53. Snkey: -1,000G
54. Jumbocactuarx27: -1,000G
55. Disindjinnuous: -1,000G
56. Bongomon7: -1,000G
57. Thunderducker: -1,133G
58. Resjudicata3: -1,200G
59. Thyrandaal: -1,278G
60. Capnchaos12: -1,300G
61. Runicmagus: -1,396G
62. Krombobreaker: -1,722G
63. Skipsandwiches: -2,300G
64. Zachara: -2,700G
65. Baronhaynes: -4,691G
66. Livinghitokiri: -4,983G
67. Moonliquor: -6,943G
68. Musashi45: -9,955G
