Final Bets: purple - 11 bets for 5,917G (39.8%, x1.51); brown - 15 bets for 8,938G (60.2%, x0.66)

purple bets:
PoroTact: 1,926G (32.6%, 2,678G)
Nizaha: 840G (14.2%, 75,752G)
BirbBrainsBot: 813G (13.7%, 813G)
dogsandcatsand: 636G (10.7%, 35,066G)
getthemoneyz: 452G (7.6%, 1,957,669G)
Greggernaut: 300G (5.1%, 32,755G)
killth3kid: 250G (4.2%, 11,172G)
Lyner87: 200G (3.4%, 107,464G)
Smugzug: 200G (3.4%, 5,170G)
tripaplex: 200G (3.4%, 5,619G)
nhammen: 100G (1.7%, 362,248G)

brown bets:
Musashi45: 2,000G (22.4%, 8,000G)
CorpusCav: 2,000G (22.4%, 45,371G)
Zachara: 1,800G (20.1%, 145,600G)
bruubarg: 1,000G (11.2%, 5,083G)
moonliquor: 500G (5.6%, 70,508G)
roofiepops: 424G (4.7%, 424G)
ericzubat: 254G (2.8%, 254G)
khelor_: 200G (2.2%, 3,031G)
datadrivenbot: 200G (2.2%, 66,214G)
SnarkMage: 159G (1.8%, 159G)
AllInBot: 100G (1.1%, 100G)
BartTradingCompany: 100G (1.1%, 10,830G)
RunicMagus: 100G (1.1%, 9,367G)
BaronHaynes: 100G (1.1%, 37,217G)
latebit: 1G (0.0%, 9,638G)
