Final Bets: white - 13 bets for 7,740G (43.8%, x1.28); purple - 19 bets for 9,917G (56.2%, x0.78)

white bets:
CorpusCav: 2,000G (25.8%, 43,938G)
NicoSavoy: 2,000G (25.8%, 88,088G)
BirbBrainsBot: 1,000G (12.9%, 2,282G)
JonnyCue: 947G (12.2%, 947G)
roofiepops: 424G (5.5%, 424G)
FoeSquirrel: 321G (4.1%, 642G)
ValensEXP_: 320G (4.1%, 4,582G)
onehitslay: 200G (2.6%, 4,034G)
J_MacC1991: 128G (1.7%, 1,687G)
BartTradingCompany: 100G (1.3%, 10,630G)
maakur_: 100G (1.3%, 3,667G)
BaronHaynes: 100G (1.3%, 37,145G)
CosmicTactician: 100G (1.3%, 27,267G)

purple bets:
Musashi45: 2,000G (20.2%, 2,000G)
PoroTact: 1,070G (10.8%, 1,822G)
nhammen: 1,000G (10.1%, 365,212G)
VolgraTheMoose: 934G (9.4%, 934G)
Nizaha: 840G (8.5%, 77,021G)
dogsandcatsand: 636G (6.4%, 36,206G)
lowlf: 536G (5.4%, 17,578G)
helpimabug: 533G (5.4%, 533G)
krombobreaker: 500G (5.0%, 8,207G)
SephDarkheart: 344G (3.5%, 28,085G)
LitArmada: 300G (3.0%, 2,314G)
getthemoneyz: 272G (2.7%, 1,957,724G)
datadrivenbot: 200G (2.0%, 66,070G)
khelor_: 200G (2.0%, 2,831G)
ericzubat: 148G (1.5%, 148G)
SnarkMage: 104G (1.0%, 133G)
AllInBot: 100G (1.0%, 100G)
grishhammer: 100G (1.0%, 1,668G)
Thyrandaal: 100G (1.0%, 74,405G)
