Final Bets: red - 16 bets for 9,537G (46.4%, x1.16); blue - 17 bets for 11,022G (53.6%, x0.87)

red bets:
nhammen: 2,000G (21.0%, 90,930G)
evontno: 1,200G (12.6%, 3,485G)
BirbBrainsBot: 1,000G (10.5%, 51,547G)
Thyrandaal: 1,000G (10.5%, 477,943G)
Galeronis: 879G (9.2%, 1,758G)
helpimabug: 874G (9.2%, 874G)
killth3kid: 752G (7.9%, 23,763G)
getthemoneyz: 400G (4.2%, 1,664,712G)
frezerg: 300G (3.1%, 837G)
ThreeMileIsland: 300G (3.1%, 3,044G)
Docrad_: 200G (2.1%, 949G)
powergems: 200G (2.1%, 2,602G)
rNdOrchestra: 132G (1.4%, 1,093G)
Aldrammech: 100G (1.0%, 31,983G)
loveyouallfriends: 100G (1.0%, 44,373G)
Sans_from_Snowdin: 100G (1.0%, 6,842G)

blue bets:
MagicBottle: 2,501G (22.7%, 2,501G)
Qaz12301: 1,544G (14.0%, 1,544G)
SkylerBunny: 1,207G (11.0%, 1,207G)
dogsandcatsand: 1,135G (10.3%, 2,227G)
E_Ballard: 1,033G (9.4%, 1,033G)
NIghtdew14: 1,000G (9.1%, 4,015G)
Forkmore: 560G (5.1%, 560G)
Chuckolator: 325G (2.9%, 3,416G)
gorgewall: 301G (2.7%, 3,524G)
Tarheels218: 296G (2.7%, 3,954G)
TheUnforgivenRage: 220G (2.0%, 220G)
CapitalistPigSA: 200G (1.8%, 600G)
datadrivenbot: 200G (1.8%, 67,101G)
Mao420: 200G (1.8%, 979G)
AllInBot: 100G (0.9%, 100G)
MinBetBot: 100G (0.9%, 6,778G)
3ngag3: 100G (0.9%, 375G)
