Final Bets: purple - 19 bets for 19,846G (78.6%, x0.27); brown - 12 bets for 5,403G (21.4%, x3.67)

purple bets:
gorgewall: 3,582G (18.0%, 3,582G)
SkylerBunny: 3,573G (18.0%, 3,573G)
Mesmaster: 3,000G (15.1%, 31,069G)
Sans_from_Snowdin: 1,805G (9.1%, 1,805G)
Forkmore: 1,659G (8.4%, 1,659G)
Smashy: 1,000G (5.0%, 7,302G)
CapitalistPigSA: 951G (4.8%, 951G)
TheUnforgivenRage: 766G (3.9%, 766G)
ff7g00ru: 694G (3.5%, 694G)
MagicBottle: 600G (3.0%, 600G)
douchetron: 600G (3.0%, 600G)
Tarheels218: 500G (2.5%, 3,504G)
lowlf: 336G (1.7%, 336G)
datadrivenbot: 200G (1.0%, 66,874G)
Mao420: 180G (0.9%, 1,619G)
Aldrammech: 100G (0.5%, 31,683G)
Qaz12301: 100G (0.5%, 3,028G)
Docrad_: 100G (0.5%, 275G)
Thyrandaal: 100G (0.5%, 476,902G)

brown bets:
dogsandcatsand: 1,636G (30.3%, 3,209G)
Galeronis: 1,137G (21.0%, 1,137G)
BirbBrainsBot: 1,000G (18.5%, 50,118G)
getthemoneyz: 456G (8.4%, 1,664,640G)
resjudicata3: 344G (6.4%, 344G)
Shalloween: 300G (5.6%, 12,552G)
MinBetBot: 100G (1.9%, 6,665G)
AllInBot: 100G (1.9%, 100G)
nifboy: 100G (1.9%, 8,846G)
loveyouallfriends: 100G (1.9%, 44,860G)
3ngag3: 100G (1.9%, 362G)
frezerg: 30G (0.6%, 785G)
