Final Bets: blue - 18 bets for 9,454G (50.6%, x0.98); yellow - 10 bets for 9,226G (49.4%, x1.02)

blue bets:
Qaz12301: 2,928G (31.0%, 2,928G)
resjudicata3: 1,608G (17.0%, 1,608G)
gorgewall: 800G (8.5%, 800G)
MagicBottle: 600G (6.3%, 600G)
douchetron: 600G (6.3%, 600G)
Forkmore: 560G (5.9%, 560G)
Smashy: 500G (5.3%, 6,302G)
AllInBot: 467G (4.9%, 467G)
Sans_from_Snowdin: 256G (2.7%, 256G)
Mao420: 200G (2.1%, 1,439G)
datadrivenbot: 200G (2.1%, 66,674G)
rNdOrchestra: 200G (2.1%, 961G)
ff7g00ru: 152G (1.6%, 152G)
MinBetBot: 100G (1.1%, 7,032G)
Thyrandaal: 100G (1.1%, 476,802G)
Docrad_: 87G (0.9%, 175G)
frezerg: 60G (0.6%, 895G)
getthemoneyz: 36G (0.4%, 1,666,315G)

yellow bets:
Galeronis: 2,656G (28.8%, 5,313G)
Mesmaster: 2,000G (21.7%, 27,069G)
BirbBrainsBot: 1,000G (10.8%, 53,791G)
sinnyil2: 952G (10.3%, 952G)
Tarheels218: 700G (7.6%, 3,004G)
Shalloween: 500G (5.4%, 13,654G)
nhammen: 500G (5.4%, 87,989G)
silverChangeling: 382G (4.1%, 19,149G)
lowlf: 336G (3.6%, 336G)
loveyouallfriends: 200G (2.2%, 45,227G)
