Final Bets: white - 9 bets for 3,053G (28.0%, x2.58); brown - 11 bets for 7,870G (72.0%, x0.39)

white bets:
BirbBrainsBot: 1,000G (32.8%, 14,047G)
krombobreaker: 700G (22.9%, 19,823G)
ColetteMSLP: 350G (11.5%, 4,514G)
J_52: 300G (9.8%, 3,880G)
getthemoneyz: 202G (6.6%, 2,033,205G)
khelor_: 200G (6.6%, 6,709G)
gorgewall: 101G (3.3%, 4,307G)
MemoriesofFinal: 100G (3.3%, 41,400G)
CosmicTactician: 100G (3.3%, 29,929G)

brown bets:
latebit: 1,567G (19.9%, 3,073G)
upvla: 1,379G (17.5%, 1,379G)
OneHundredFists: 1,223G (15.5%, 1,223G)
resjudicata3: 843G (10.7%, 843G)
Firesheath: 613G (7.8%, 613G)
kilrazin: 530G (6.7%, 530G)
AllInBot: 444G (5.6%, 444G)
Rune339: 411G (5.2%, 4,116G)
Wonser: 392G (5.0%, 392G)
ValensEXP_: 368G (4.7%, 3,574G)
galkife: 100G (1.3%, 76,815G)
