Final Bets: white - 71 bets for 102,829G (31.6%, x2.17); black - 118 bets for 222,696G (68.4%, x0.46)

white bets:
phrossi_v: 18,465G (18.0%, 36,931G)
RongRongArts: 7,357G (7.2%, 14,714G)
maakur_: 5,467G (5.3%, 5,467G)
Baron_von_Scrub: 5,000G (4.9%, 17,680G)
Zeroroute: 4,395G (4.3%, 11,834G)
ThePineappleSalesman: 4,154G (4.0%, 4,154G)
TheChainNerd: 4,136G (4.0%, 8,273G)
Draconis345: 3,785G (3.7%, 3,785G)
SacrificialToast: 3,072G (3.0%, 3,072G)
volgrathemoose: 3,001G (2.9%, 15,500G)
Panushenko: 2,764G (2.7%, 2,764G)
athros13: 2,494G (2.4%, 2,494G)
leakimiko: 2,022G (2.0%, 2,022G)
IcePattern: 2,000G (1.9%, 16,973G)
edgehead62888: 2,000G (1.9%, 8,081G)
DejaPoo21: 2,000G (1.9%, 10,582G)
skysa250: 2,000G (1.9%, 27,389G)
SkylerBunny: 1,777G (1.7%, 7,110G)
ll_aja_ll: 1,768G (1.7%, 1,768G)
DustBirdEX: 1,500G (1.5%, 6,745G)
KasugaiRoastedPeas: 1,244G (1.2%, 1,244G)
roofiepops: 1,225G (1.2%, 4,773G)
fenaen: 1,094G (1.1%, 1,094G)
Hamborn: 1,000G (1.0%, 29,158G)
Adam1949: 1,000G (1.0%, 1,997G)
mirapoix: 1,000G (1.0%, 5,210G)
alrightbye: 1,000G (1.0%, 13,037G)
Spartan_Paladin: 990G (1.0%, 24,998G)
Aldrammech: 920G (0.9%, 9,204G)
Lordminsc: 909G (0.9%, 3,636G)
DudeMonkey77: 838G (0.8%, 838G)
powergems: 555G (0.5%, 4,646G)
MyFakeLife: 500G (0.5%, 25,260G)
SomeCallMeGON: 500G (0.5%, 2,328G)
Estan_AD: 500G (0.5%, 5,930G)
godkone: 500G (0.5%, 1,949G)
Deathmaker06: 500G (0.5%, 35,484G)
Zachara: 500G (0.5%, 38,000G)
Lyner87: 500G (0.5%, 26,418G)
ZephyrTempest: 500G (0.5%, 86,909G)
catfashions: 460G (0.4%, 460G)
OmnibotGamma: 420G (0.4%, 420G)
SeriousFaceFace: 400G (0.4%, 3,044G)
Meta_Five: 348G (0.3%, 348G)
Maldoree: 332G (0.3%, 332G)
helpimabug: 328G (0.3%, 328G)
AdmiralPikachu: 328G (0.3%, 328G)
Jeeboheebo: 316G (0.3%, 316G)
coledot_: 303G (0.3%, 3,030G)
ALY327: 300G (0.3%, 8,356G)
old_overholt_: 300G (0.3%, 1,584G)
Aka_Gilly: 300G (0.3%, 16,005G)
EnemyController: 300G (0.3%, 40,877G)
Aurilliux: 292G (0.3%, 292G)
Chuckolator: 290G (0.3%, 1,748G)
Dexef: 276G (0.3%, 276G)
onetrickwolf: 268G (0.3%, 268G)
MrDiggs49: 264G (0.3%, 264G)
MeleeWizard: 256G (0.2%, 256G)
ThePuss: 244G (0.2%, 244G)
talyhawk: 204G (0.2%, 204G)
ExecutedGiraffe: 203G (0.2%, 204G)
Pie108: 200G (0.2%, 17,725G)
flowinprose: 200G (0.2%, 14,650G)
getthemoneyz: 128G (0.1%, 507,442G)
Practice_Pad: 128G (0.1%, 128G)
Scotty297: 108G (0.1%, 108G)
IndecisiveNinja: 101G (0.1%, 18,480G)
lastly: 100G (0.1%, 663G)
lawnboxer: 100G (0.1%, 16,946G)
HoopyFreud: 100G (0.1%, 3,080G)

black bets:
ko2q: 15,415G (6.9%, 30,830G)
bryan792: 15,000G (6.7%, 305,000G)
Lydian_C: 12,000G (5.4%, 89,597G)
sinnyil2: 12,000G (5.4%, 36,514G)
Zagorsek: 10,000G (4.5%, 378,444G)
Lodrak: 7,434G (3.3%, 7,434G)
omegasuspekt: 7,189G (3.2%, 14,379G)
kai_shee: 5,000G (2.2%, 143,622G)
JackOnFire1: 4,969G (2.2%, 9,939G)
BoneMiser: 4,885G (2.2%, 9,771G)
Lord_Burrah: 4,705G (2.1%, 94,108G)
itzover9001: 4,551G (2.0%, 4,551G)
ShintaroNayaka: 4,000G (1.8%, 10,370G)
Mtueni: 4,000G (1.8%, 168,747G)
HaateXIII: 3,774G (1.7%, 5,032G)
LDSkinny: 3,666G (1.6%, 3,666G)
Zbgs: 3,500G (1.6%, 54,926G)
tikotikotiko: 3,488G (1.6%, 3,488G)
Phi_Sig: 3,333G (1.5%, 47,149G)
HaychDub: 3,208G (1.4%, 6,417G)
joewcarson: 3,024G (1.4%, 3,024G)
SpookyCookieMonster: 2,665G (1.2%, 2,665G)
Treapvort: 2,620G (1.2%, 5,241G)
JumbocactuarX27: 2,557G (1.1%, 2,557G)
YaBoy125: 2,428G (1.1%, 2,428G)
TheGuesty: 2,344G (1.1%, 2,344G)
DeathTaxesAndAnime: 2,291G (1.0%, 2,291G)
Gelwain: 2,145G (1.0%, 2,145G)
Zetchryn: 2,000G (0.9%, 26,611G)
Tougou: 2,000G (0.9%, 17,226G)
WireLord: 2,000G (0.9%, 10,770G)
CapnChaos12: 2,000G (0.9%, 7,792G)
CorpusCav: 2,000G (0.9%, 10,862G)
MoonSlayerRS: 1,988G (0.9%, 1,988G)
slatios: 1,859G (0.8%, 3,719G)
Bryon_W: 1,837G (0.8%, 1,837G)
RubenFlonne: 1,809G (0.8%, 3,619G)
MrFlabyo: 1,803G (0.8%, 9,019G)
Nizaha: 1,759G (0.8%, 3,518G)
Ranmilia: 1,646G (0.7%, 1,646G)
itsonlyspencer: 1,604G (0.7%, 1,604G)
Lanshaft: 1,501G (0.7%, 1,501G)
nifboy: 1,429G (0.6%, 9,529G)
gooseyourself: 1,303G (0.6%, 1,303G)
Shalloween: 1,300G (0.6%, 18,699G)
superdevon1: 1,244G (0.6%, 1,244G)
Fenrislfr: 1,216G (0.5%, 1,216G)
GargantuaCat: 1,082G (0.5%, 2,165G)
Wonser: 1,010G (0.5%, 1,010G)
Rhuarc_Redhammer: 1,000G (0.4%, 15,289G)
FoeSquirrel: 1,000G (0.4%, 2,053G)
dictatorhowells: 1,000G (0.4%, 6,132G)
BirbBrainsBot: 1,000G (0.4%, 225,654G)
MalakoFox: 1,000G (0.4%, 20,268G)
Lionhermit: 1,000G (0.4%, 7,709G)
hales_bopp_it: 1,000G (0.4%, 3,412G)
ForagerCats: 1,000G (0.4%, 12,431G)
Laserman1000: 1,000G (0.4%, 15,337G)
ColetteMSLP: 1,000G (0.4%, 42,055G)
AlenaZarek: 1,000G (0.4%, 5,536G)
DrAntiSocial: 1,000G (0.4%, 4,297G)
elkydeluxe: 1,000G (0.4%, 7,370G)
FriendSquirrel: 1,000G (0.4%, 3,646G)
Lavatis: 1,000G (0.4%, 3,340G)
Realitydown: 916G (0.4%, 916G)
LAGBOT30000: 884G (0.4%, 8,841G)
Kellios11: 800G (0.4%, 5,693G)
RunicMagus: 750G (0.3%, 2,781G)
Primeval_33: 700G (0.3%, 700G)
ericzubat: 680G (0.3%, 684G)
pandasforsale: 666G (0.3%, 7,871G)
Carledo: 654G (0.3%, 654G)
sirbranedamuj: 634G (0.3%, 2,538G)
roqqqpsi: 565G (0.3%, 565G)
rico_flex: 555G (0.2%, 5,738G)
VySaika: 525G (0.2%, 1,050G)
LordMaxoss: 500G (0.2%, 1,990G)
Vampire_Killer: 500G (0.2%, 3,492G)
courtjesteroriginal: 500G (0.2%, 1,014G)
Breakdown777: 500G (0.2%, 9,476G)
evdoggity: 500G (0.2%, 4,974G)
RageImmortaI: 500G (0.2%, 1,164G)
liquidsmoke9: 500G (0.2%, 700G)
TrueRhyme: 500G (0.2%, 2,136G)
astrozin11: 500G (0.2%, 6,000G)
KonzeraLive: 500G (0.2%, 7,570G)
TinhShu: 491G (0.2%, 491G)
arch8000: 456G (0.2%, 15,231G)
jhazor: 444G (0.2%, 4,446G)
tinyjeans: 422G (0.2%, 422G)
Courtesy_F1ush_: 350G (0.2%, 350G)
MagicBottle: 328G (0.1%, 328G)
ThePanda1016: 324G (0.1%, 324G)
corwinambrose: 300G (0.1%, 802G)
cheezybuda: 300G (0.1%, 10,939G)
TheMM42: 300G (0.1%, 2,986G)
NovaKnight21: 300G (0.1%, 3,022G)
fluffywormhole: 300G (0.1%, 16,177G)
b0shii: 296G (0.1%, 296G)
MirtaiAtana: 268G (0.1%, 268G)
Tugboat1: 252G (0.1%, 252G)
Sairentozon7: 250G (0.1%, 3,876G)
mexskacin: 244G (0.1%, 244G)
Pochitchi: 226G (0.1%, 226G)
daveb_: 200G (0.1%, 2,200G)
kaydinv: 200G (0.1%, 1,084G)
Billybones5150: 200G (0.1%, 3,646G)
Cidolfas: 200G (0.1%, 1,100G)
LazarusAjin: 200G (0.1%, 8,628G)
argentbast: 136G (0.1%, 136G)
Lali_Lulelo: 100G (0.0%, 10,454G)
jjones032109: 100G (0.0%, 802G)
Bongomon7: 100G (0.0%, 2,106G)
hutna: 100G (0.0%, 5,083G)
llamacatbutt: 100G (0.0%, 1,941G)
Aremath: 100G (0.0%, 1,708G)
rjA0zcOQ96: 100G (0.0%, 9,793G)
datadrivenbot: 99G (0.0%, 100G)
