Final Bets: red - 70 bets for 136,746G (32.6%, x2.07); green - 124 bets for 283,159G (67.4%, x0.48)

red bets:
phrossi_v: 29,229G (21.4%, 58,458G)
volgrathemoose: 14,398G (10.5%, 57,592G)
ko2q: 7,708G (5.6%, 7,708G)
Maldoree: 6,288G (4.6%, 6,288G)
SkylerBunny: 5,984G (4.4%, 24,920G)
MrDiggs49: 5,002G (3.7%, 5,002G)
SacrificialToast: 4,000G (2.9%, 22,758G)
Meta_Five: 3,304G (2.4%, 6,608G)
LazarusAjin: 3,160G (2.3%, 6,321G)
IcePattern: 3,000G (2.2%, 28,187G)
reinoe: 3,000G (2.2%, 12,179G)
fenaen: 2,956G (2.2%, 2,956G)
Rinhander: 2,527G (1.8%, 2,527G)
BoneMiser: 2,443G (1.8%, 2,443G)
TheOneRanger: 2,000G (1.5%, 4,499G)
athros13: 2,000G (1.5%, 11,296G)
edgehead62888: 2,000G (1.5%, 26,953G)
Draconis345: 2,000G (1.5%, 22,731G)
Zachara: 2,000G (1.5%, 40,154G)
Mtueni: 2,000G (1.5%, 164,747G)
skysa250: 2,000G (1.5%, 33,055G)
omegasuspekt: 1,797G (1.3%, 3,595G)
LDSkinny: 1,308G (1.0%, 1,308G)
JumbocactuarX27: 1,294G (0.9%, 1,294G)
Shalloween: 1,200G (0.9%, 15,290G)
MyFakeLife: 1,000G (0.7%, 26,926G)
IndecisiveNinja: 1,000G (0.7%, 21,470G)
Treapvort: 1,000G (0.7%, 9,311G)
godkone: 1,000G (0.7%, 3,615G)
Breakdown777: 1,000G (0.7%, 10,252G)
WireLord: 1,000G (0.7%, 11,322G)
onetrickwolf: 1,000G (0.7%, 5,072G)
ForagerCats: 1,000G (0.7%, 13,983G)
Zetchryn: 1,000G (0.7%, 37,373G)
Tougou: 1,000G (0.7%, 13,226G)
ZephyrTempest: 1,000G (0.7%, 90,351G)
Practice_Pad: 922G (0.7%, 922G)
exaltedhamster: 874G (0.6%, 874G)
mexskacin: 866G (0.6%, 866G)
EnemyController: 782G (0.6%, 41,782G)
nifboy: 729G (0.5%, 7,290G)
Cidolfas: 700G (0.5%, 700G)
Aldrammech: 600G (0.4%, 600G)
leakimiko: 600G (0.4%, 600G)
RageImmortaI: 500G (0.4%, 1,684G)
Aka_Gilly: 500G (0.4%, 17,305G)
ThePineappleSalesman: 480G (0.4%, 480G)
Chuckolator: 435G (0.3%, 3,908G)
OmnibotGamma: 420G (0.3%, 420G)
Nizaha: 412G (0.3%, 412G)
TheGuesty: 392G (0.3%, 1,392G)
argentbast: 314G (0.2%, 314G)
YaBoy125: 304G (0.2%, 304G)
ALY327: 300G (0.2%, 9,156G)
flowinprose: 300G (0.2%, 15,416G)
rico_flex: 300G (0.2%, 5,693G)
b0shii: 296G (0.2%, 296G)
Wonser: 280G (0.2%, 280G)
Arunic: 236G (0.2%, 236G)
itzover9001: 232G (0.2%, 232G)
FoeSquirrel: 224G (0.2%, 224G)
dictatorhowells: 200G (0.1%, 7,684G)
HoopyFreud: 200G (0.1%, 3,314G)
astrozin11: 150G (0.1%, 6,010G)
Lali_Lulelo: 100G (0.1%, 10,610G)
liquidsmoke9: 100G (0.1%, 100G)
llamacatbutt: 100G (0.1%, 2,097G)
hutna: 100G (0.1%, 497G)
Bongomon7: 100G (0.1%, 2,262G)
SpookyCookieMonster: 100G (0.1%, 742G)

green bets:
Lydian_C: 27,844G (9.8%, 54,597G)
bryan792: 15,000G (5.3%, 280,000G)
sinnyil2: 12,257G (4.3%, 12,257G)
TheChainNerd: 10,000G (3.5%, 59,607G)
Baron_von_Scrub: 10,000G (3.5%, 52,098G)
Zbgs: 10,000G (3.5%, 56,020G)
Zagorsek: 10,000G (3.5%, 393,966G)
toka222: 10,000G (3.5%, 486,222G)
Phi_Sig: 10,000G (3.5%, 40,483G)
maakur_: 10,000G (3.5%, 85,777G)
DudeMonkey77: 7,936G (2.8%, 15,872G)
Zeroroute: 6,791G (2.4%, 13,583G)
mirapoix: 6,134G (2.2%, 6,134G)
MrFlabyo: 5,451G (1.9%, 10,902G)
Dothan89: 5,000G (1.8%, 32,841G)
kai_shee: 5,000G (1.8%, 151,384G)
CapnChaos12: 5,000G (1.8%, 15,574G)
jhazor: 4,512G (1.6%, 4,512G)
HaateXIII: 4,468G (1.6%, 4,468G)
evdoggity: 4,074G (1.4%, 4,074G)
Lord_Burrah: 4,000G (1.4%, 84,933G)
ExecutedGiraffe: 3,850G (1.4%, 3,850G)
HaychDub: 3,651G (1.3%, 7,303G)
RunicMagus: 3,307G (1.2%, 3,307G)
Deathmaker06: 3,000G (1.1%, 37,650G)
Aurilliux: 2,819G (1.0%, 5,528G)
CorpusCav: 2,400G (0.8%, 11,414G)
ThePuss: 2,309G (0.8%, 4,618G)
Lodrak: 2,102G (0.7%, 2,102G)
Kellios11: 2,046G (0.7%, 4,093G)
Sairentozon7: 2,000G (0.7%, 3,626G)
ll_aja_ll: 2,000G (0.7%, 8,426G)
rocl: 2,000G (0.7%, 34,355G)
Adam1949: 2,000G (0.7%, 7,605G)
RongRongArts: 2,000G (0.7%, 94,646G)
Pie108: 2,000G (0.7%, 21,143G)
elkydeluxe: 2,000G (0.7%, 8,922G)
Lyner87: 2,000G (0.7%, 26,501G)
Gelwain: 1,832G (0.6%, 1,832G)
Lordminsc: 1,705G (0.6%, 5,684G)
DrAntiSocial: 1,683G (0.6%, 1,683G)
DeathTaxesAndAnime: 1,676G (0.6%, 1,676G)
MoonSlayerRS: 1,634G (0.6%, 1,634G)
coledot_: 1,502G (0.5%, 6,008G)
Scotobot: 1,400G (0.5%, 3,145G)
FriendSquirrel: 1,346G (0.5%, 1,346G)
Davarian: 1,265G (0.4%, 1,265G)
DustBirdEX: 1,200G (0.4%, 16,305G)
MagicBottle: 1,166G (0.4%, 1,166G)
ThePanda1016: 1,150G (0.4%, 1,150G)
Lanshaft: 1,122G (0.4%, 1,122G)
Lavatis: 1,060G (0.4%, 3,534G)
joewcarson: 1,038G (0.4%, 1,038G)
MeleeWizard: 1,000G (0.4%, 4,846G)
Anomandaris__: 1,000G (0.4%, 14,351G)
benticore: 1,000G (0.4%, 3,451G)
Spartan_Paladin: 1,000G (0.4%, 31,072G)
Rhuarc_Redhammer: 1,000G (0.4%, 13,289G)
Laserman1000: 1,000G (0.4%, 13,337G)
Hamborn: 1,000G (0.4%, 36,042G)
powergems: 1,000G (0.4%, 7,564G)
Vampire_Killer: 1,000G (0.4%, 4,902G)
Estan_AD: 1,000G (0.4%, 6,100G)
AlenaZarek: 1,000G (0.4%, 3,540G)
SomeCallMeGON: 1,000G (0.4%, 5,514G)
LavyWays: 1,000G (0.4%, 25,683G)
Jeeboheebo: 982G (0.3%, 982G)
VySaika: 939G (0.3%, 1,879G)
talyhawk: 888G (0.3%, 888G)
sneakyness: 838G (0.3%, 838G)
Courtesy_F1ush_: 838G (0.3%, 838G)
roqqqpsi: 768G (0.3%, 1,506G)
hales_bopp_it: 750G (0.3%, 4,330G)
itsonlyspencer: 728G (0.3%, 728G)
LAGBOT30000: 716G (0.3%, 7,162G)
old_overholt_: 700G (0.2%, 4,670G)
ericzubat: 700G (0.2%, 714G)
KasugaiRoastedPeas: 600G (0.2%, 600G)
superdevon1: 600G (0.2%, 600G)
Lionhermit: 556G (0.2%, 556G)
ShintaroNayaka: 524G (0.2%, 524G)
LordMaxoss: 500G (0.2%, 2,128G)
NovaKnight21: 500G (0.2%, 6,196G)
EizanTayama: 500G (0.2%, 2,774G)
catfashions: 500G (0.2%, 8,710G)
TrueRhyme: 500G (0.2%, 2,912G)
corwinambrose: 500G (0.2%, 1,784G)
Roelath: 500G (0.2%, 1,130G)
Billybones5150: 500G (0.2%, 3,446G)
Ranmilia: 488G (0.2%, 488G)
mayormcfunbags: 476G (0.2%, 476G)
roofiepops: 450G (0.2%, 9,529G)
arch8000: 429G (0.2%, 14,332G)
RubenFlonne: 420G (0.1%, 420G)
TheMM42: 400G (0.1%, 2,286G)
sirbranedamuj: 376G (0.1%, 376G)
waterwatereverywhere: 368G (0.1%, 368G)
helpimabug: 332G (0.1%, 332G)
Carledo: 316G (0.1%, 316G)
TinhShu: 300G (0.1%, 754G)
tikotikotiko: 288G (0.1%, 288G)
JackOnFire1: 280G (0.1%, 280G)
Realitydown: 276G (0.1%, 276G)
Dexef: 276G (0.1%, 276G)
MirtaiAtana: 268G (0.1%, 268G)
Tugboat1: 252G (0.1%, 252G)
Fenrislfr: 237G (0.1%, 237G)
newbie404: 228G (0.1%, 228G)
daveb_: 222G (0.1%, 2,000G)
datadrivenbot: 220G (0.1%, 221G)
tinyjeans: 208G (0.1%, 208G)
Primeval_33: 208G (0.1%, 208G)
GargantuaCat: 204G (0.1%, 204G)
ANFz: 200G (0.1%, 7,937G)
urieltheflameofgod: 200G (0.1%, 9,650G)
Aremath: 200G (0.1%, 1,508G)
jjones032109: 200G (0.1%, 1,212G)
courtjesteroriginal: 200G (0.1%, 770G)
BirbBrainsBot: 200G (0.1%, 227,206G)
getthemoneyz: 168G (0.1%, 508,190G)
Pochitchi: 112G (0.0%, 112G)
lawnboxer: 100G (0.0%, 17,280G)
Squasian: 100G (0.0%, 100G)
rjA0zcOQ96: 100G (0.0%, 10,959G)
