Final Bets: red - 13 bets for 6,224G (17.8%, x4.62); purple - 22 bets for 28,765G (82.2%, x0.22)

red bets:
skipsandwiches: 2,020G (32.5%, 109,465G)
reinoe: 748G (12.0%, 748G)
2b_yorha_b: 500G (8.0%, 34,172G)
khelor_: 500G (8.0%, 4,957G)
Thyrandaal: 446G (7.2%, 876G)
fistfulofbees13: 345G (5.5%, 345G)
seppu777: 333G (5.4%, 1,562G)
YowaneHaku: 300G (4.8%, 2,636G)
ExplanationMarkWow: 296G (4.8%, 296G)
JethroThrul: 276G (4.4%, 276G)
BirbBrainsBot: 200G (3.2%, 200G)
SRG_Chugganomics: 200G (3.2%, 529G)
getthemoneyz: 60G (1.0%, 2,201,642G)

purple bets:
Leonidusx: 10,000G (34.8%, 549,326G)
Forkmore: 4,787G (16.6%, 9,575G)
CorpusCav: 2,000G (7.0%, 99,507G)
gorgewall: 1,788G (6.2%, 1,788G)
MelTorefas: 1,604G (5.6%, 1,604G)
VolgraTheMoose: 1,272G (4.4%, 2,545G)
kilrazin: 1,000G (3.5%, 8,958G)
E_Ballard: 972G (3.4%, 972G)
ColetteMSLP: 528G (1.8%, 15,089G)
Evewho: 500G (1.7%, 52,913G)
krombobreaker: 500G (1.7%, 33,105G)
smallboops: 500G (1.7%, 3,566G)
GenZealot: 500G (1.7%, 23,292G)
ForagerCats: 500G (1.7%, 4,632G)
Lord_Gwarth: 500G (1.7%, 3,878G)
rkane398: 418G (1.5%, 418G)
dfunk3d: 345G (1.2%, 345G)
AllInBot: 299G (1.0%, 299G)
Demon_Lord_Josh: 236G (0.8%, 236G)
NicoSavoy: 200G (0.7%, 111,072G)
datadrivenbot: 200G (0.7%, 82,926G)
DirkC_Fenrir84: 116G (0.4%, 116G)
