Final Bets: red - 14 bets for 8,868G (23.7%, x3.21); black - 9 bets for 28,473G (76.3%, x0.31)

red bets:
Mesmaster: 3,000G (33.8%, 25,222G)
NovaKnight21: 1,636G (18.4%, 1,636G)
xsifthewolf: 604G (6.8%, 604G)
Raixelol: 600G (6.8%, 2,708G)
lowlf: 548G (6.2%, 26,244G)
Lythe_Caraker: 500G (5.6%, 154,210G)
Mushufasa_: 500G (5.6%, 48,957G)
hotpocketsofficial: 308G (3.5%, 308G)
ser_pyrro: 272G (3.1%, 272G)
AllInBot: 200G (2.3%, 200G)
resjudicata3: 200G (2.3%, 2,914G)
datadrivenbot: 200G (2.3%, 64,006G)
iBardic: 200G (2.3%, 18,376G)
DeathTaxesAndAnime: 100G (1.1%, 6,440G)

black bets:
upvla: 20,000G (70.2%, 23,176G)
Arcblazer23: 3,901G (13.7%, 3,901G)
NicoSavoy: 3,000G (10.5%, 137,189G)
BirbBrainsBot: 1,000G (3.5%, 53,430G)
getthemoneyz: 172G (0.6%, 1,974,045G)
MemoriesofFinal: 100G (0.4%, 33,398G)
J_52: 100G (0.4%, 4,312G)
Bluebirdzontwitch: 100G (0.4%, 2,194G)
king_smashington: 100G (0.4%, 526G)
