Final Bets: white - 17 bets for 7,127G (65.2%, x0.53); black - 10 bets for 3,796G (34.8%, x1.88)

white bets:
RunicMagus: 1,020G (14.3%, 28,301G)
BirbBrainsBot: 1,000G (14.0%, 58,687G)
nhammen: 1,000G (14.0%, 66,463G)
AllInBot: 724G (10.2%, 724G)
Zbgs: 560G (7.9%, 560G)
resjudicata3: 492G (6.9%, 492G)
DeathTaxesAndAnime: 400G (5.6%, 5,293G)
Lord_Gwarth: 364G (5.1%, 364G)
ColetteMSLP: 300G (4.2%, 959G)
argentbast: 244G (3.4%, 244G)
CorpusCav: 222G (3.1%, 30,005G)
datadrivenbot: 200G (2.8%, 78,893G)
Demon_Lord_Josh: 200G (2.8%, 3,816G)
gorgewall: 101G (1.4%, 5,062G)
LDSkinny: 100G (1.4%, 2,521G)
OneHundredFists: 100G (1.4%, 26,904G)
TheBrett: 100G (1.4%, 1,844G)

black bets:
dogsandcatsand: 764G (20.1%, 764G)
fenaen: 636G (16.8%, 15,862G)
LivingHitokiri: 500G (13.2%, 119,557G)
lotharek: 400G (10.5%, 9,642G)
MemoriesofFinal: 340G (9.0%, 340G)
getthemoneyz: 328G (8.6%, 2,098,941G)
J_MacC1991: 248G (6.5%, 248G)
DuPlatypus: 245G (6.5%, 245G)
2b_yorha_b: 235G (6.2%, 235G)
bufuman: 100G (2.6%, 7,153G)
