Final Bets: white - 18 bets for 10,278G (66.0%, x0.52); black - 11 bets for 5,300G (34.0%, x1.94)

white bets:
Thyrandaal: 2,000G (19.5%, 111,015G)
Nizaha: 1,469G (14.3%, 1,469G)
pplvee1: 1,328G (12.9%, 1,328G)
coralreeferz: 1,000G (9.7%, 4,085G)
douchetron: 797G (7.8%, 1,564G)
mpghappiness: 600G (5.8%, 600G)
Lanshaft: 532G (5.2%, 30,481G)
gorgewall: 520G (5.1%, 520G)
dogsandcatsand: 416G (4.0%, 416G)
neocarbuncle: 314G (3.1%, 314G)
kahjeethaswares: 252G (2.5%, 252G)
Chambs12: 252G (2.5%, 2,128G)
AllInBot: 200G (1.9%, 200G)
datadrivenbot: 200G (1.9%, 44,128G)
ArlanKels: 150G (1.5%, 1,525G)
TheGrizz113: 100G (1.0%, 132G)
ANFz: 100G (1.0%, 60,091G)
dtrain332: 48G (0.5%, 4,876G)

black bets:
BaronHaynes: 1,389G (26.2%, 6,389G)
E_Ballard: 1,366G (25.8%, 1,366G)
maakur_: 608G (11.5%, 608G)
Lemonjohns: 420G (7.9%, 4,478G)
BirbBrainsBot: 334G (6.3%, 77,714G)
Smashy: 300G (5.7%, 4,875G)
Forkmore: 256G (4.8%, 940G)
Radiance89: 231G (4.4%, 231G)
TheseJeans: 212G (4.0%, 212G)
Firesheath: 100G (1.9%, 7,056G)
getthemoneyz: 84G (1.6%, 1,459,263G)
