Final Bets: red - 16 bets for 6,970G (43.0%, x1.33); blue - 13 bets for 9,248G (57.0%, x0.75)

red bets:
douchetron: 2,152G (30.9%, 2,152G)
Aldrammech: 1,328G (19.1%, 13,287G)
BirbBrainsBot: 1,000G (14.3%, 87,610G)
Lydian_C: 392G (5.6%, 392G)
latebit: 332G (4.8%, 33,263G)
Krinku: 256G (3.7%, 256G)
MonchoStrife: 229G (3.3%, 229G)
AllInBot: 200G (2.9%, 200G)
datadrivenbot: 200G (2.9%, 66,451G)
porkbacon: 200G (2.9%, 3,594G)
Gunz232323: 150G (2.2%, 1,914G)
maddrave09: 144G (2.1%, 1,889G)
PantherIscariot: 111G (1.6%, 7,589G)
getthemoneyz: 106G (1.5%, 1,620,952G)
koeeh: 100G (1.4%, 1,538G)
TheDali23: 70G (1.0%, 385G)

blue bets:
thaetreis: 2,400G (26.0%, 54,562G)
NIghtdew14: 1,500G (16.2%, 13,495G)
DeathTaxesAndAnime: 1,096G (11.9%, 1,096G)
dogsandcatsand: 1,000G (10.8%, 6,663G)
Laserman1000: 867G (9.4%, 4,867G)
skillomono: 844G (9.1%, 844G)
KasugaiRoastedPeas: 696G (7.5%, 696G)
TrogdorTheMemeinator: 244G (2.6%, 244G)
ribbiks: 200G (2.2%, 4,431G)
gorgewall: 101G (1.1%, 4,196G)
MinBetBot: 100G (1.1%, 6,561G)
CosmicTactician: 100G (1.1%, 23,320G)
Thyrandaal: 100G (1.1%, 274,038G)
