Final Bets: white - 12 bets for 7,094G (55.7%, x0.79); black - 4 bets for 5,634G (44.3%, x1.26)

white bets:
VolgraTheMoose: 2,474G (34.9%, 4,948G)
getthemoneyz: 1,000G (14.1%, 1,014,891G)
Hasterious: 702G (9.9%, 70,228G)
Boultson1337: 578G (8.1%, 578G)
BirbBrainsBot: 504G (7.1%, 126,948G)
thaetreis: 500G (7.0%, 13,635G)
Phytik: 348G (4.9%, 348G)
gorgewall: 301G (4.2%, 3,543G)
porkchop5158: 256G (3.6%, 256G)
zah69: 231G (3.3%, 231G)
JumbocactuarX27: 100G (1.4%, 3,938G)
datadrivenbot: 100G (1.4%, 48,542G)

black bets:
Hyperhal: 3,154G (56.0%, 3,154G)
lowlf: 1,201G (21.3%, 84,185G)
solomongrundy85: 679G (12.1%, 679G)
prince_rogers_nelson_: 600G (10.6%, 600G)
