Final Bets: black - 16 bets for 6,998G (40.5%, x1.47); purple - 16 bets for 10,260G (59.5%, x0.68)

black bets:
TheChainNerd: 1,000G (14.3%, 8,989G)
getthemoneyz: 982G (14.0%, 687,970G)
DavenIII: 650G (9.3%, 847G)
AUrato: 615G (8.8%, 15,383G)
killth3kid: 600G (8.6%, 2,431G)
Nizaha: 501G (7.2%, 15,906G)
bruubarg: 500G (7.1%, 1,500G)
CorpusCav: 476G (6.8%, 3,776G)
JumbocactuarX27: 304G (4.3%, 304G)
skillomono: 300G (4.3%, 2,413G)
FriendSquirrel: 268G (3.8%, 268G)
HaateXIII: 250G (3.6%, 4,661G)
Drusic: 244G (3.5%, 244G)
asherban: 108G (1.5%, 108G)
datadrivenbot: 100G (1.4%, 24,640G)
Kyune: 100G (1.4%, 16,177G)

purple bets:
Zeroroute: 1,887G (18.4%, 1,887G)
Tsuike: 1,347G (13.1%, 2,694G)
DLJuggernaut: 1,155G (11.3%, 2,311G)
goodnightrobo: 1,030G (10.0%, 1,030G)
StealthModeLocke: 975G (9.5%, 975G)
ColetteMSLP: 800G (7.8%, 65,415G)
E_Ballard: 600G (5.8%, 600G)
EnemyController: 500G (4.9%, 285,988G)
DustBirdEX: 456G (4.4%, 31,490G)
nifboy: 428G (4.2%, 428G)
holyonline: 392G (3.8%, 392G)
BirbBrainsBot: 250G (2.4%, 51,642G)
Arcblazer23: 140G (1.4%, 140G)
Kronikle: 100G (1.0%, 13,311G)
l0rdspug: 100G (1.0%, 812G)
kintaru_oe: 100G (1.0%, 371G)
