Final Bets: red - 15 bets for 10,230G (56.1%, x0.78); blue - 11 bets for 8,000G (43.9%, x1.28)

red bets:
Mesmaster: 2,000G (19.6%, 11,448G)
Shalloween: 1,200G (11.7%, 16,652G)
BirbBrainsBot: 1,000G (9.8%, 12,168G)
latebit: 933G (9.1%, 1,831G)
silentkaster: 900G (8.8%, 2,616G)
killth3kid: 744G (7.3%, 21,464G)
helpimabug: 683G (6.7%, 1,367G)
NovaKnight21: 620G (6.1%, 620G)
AllInBot: 570G (5.6%, 570G)
Smashy: 420G (4.1%, 1,662G)
holdenmagronik: 340G (3.3%, 340G)
lowlf: 320G (3.1%, 8,514G)
Blaze0772: 200G (2.0%, 2,278G)
resjudicata3: 200G (2.0%, 3,896G)
MinBetBot: 100G (1.0%, 5,468G)

blue bets:
silverChangeling: 2,224G (27.8%, 22,242G)
ko2q: 927G (11.6%, 927G)
Laserman1000: 800G (10.0%, 4,300G)
SkylerBunny: 752G (9.4%, 752G)
getthemoneyz: 718G (9.0%, 1,652,894G)
DLJuggernaut: 635G (7.9%, 635G)
DustBirdEX: 612G (7.6%, 612G)
letdowncity: 532G (6.7%, 20,230G)
CosmicTactician: 500G (6.2%, 25,609G)
datadrivenbot: 200G (2.5%, 69,512G)
nifboy: 100G (1.2%, 7,418G)
