Player: !Red
Team: Red Team
Palettes: Red/Brown



Evdoggity
Monster
Leo
65
76
Swine










Virilikus
Monster
Pisces
81
41
Tiamat










Powergems
Monster
Gemini
79
67
Vampire










Rogueain
Female
Pisces
44
53
Summoner
Jump
Counter Flood
Short Charge
Ignore Terrain

Thunder Rod

Red Hood
Adaman Vest
108 Gems

Shiva, Ramuh, Titan, Carbunkle, Bahamut, Leviathan, Lich
Level Jump2, Vertical Jump7
