Final Bets: green - 22 bets for 14,690G (68.1%, x0.47); yellow - 15 bets for 6,876G (31.9%, x2.14)

green bets:
Mesmaster: 2,000G (13.6%, 63,927G)
Lordminsc: 1,813G (12.3%, 1,813G)
volgrathemoose: 1,275G (8.7%, 2,551G)
RunicMagus: 1,200G (8.2%, 45,658G)
mpghappiness: 1,001G (6.8%, 6,570G)
eudes89: 1,000G (6.8%, 2,504G)
Estan_AD: 984G (6.7%, 1,969G)
HaateXIII: 911G (6.2%, 911G)
Yamagata1990: 700G (4.8%, 940G)
ThePineappleSalesman: 500G (3.4%, 26,092G)
thethorndog1: 500G (3.4%, 1,461G)
Baron_von_Scrub: 474G (3.2%, 12,734G)
ApplesauceBoss: 461G (3.1%, 461G)
CorpusCav: 400G (2.7%, 12,924G)
gorgewall: 301G (2.0%, 7,926G)
otakutaylor: 300G (2.0%, 1,405G)
twelfthrootoftwo: 300G (2.0%, 9,107G)
BlackfyreRoy: 200G (1.4%, 2,539G)
aeonicvector: 120G (0.8%, 1,564G)
datadrivenbot: 100G (0.7%, 15,802G)
Strifu: 100G (0.7%, 1,018G)
moonliquor: 50G (0.3%, 5,216G)

yellow bets:
ungabunga_bot: 1,000G (14.5%, 483,806G)
BirbBrainsBot: 1,000G (14.5%, 22,734G)
red__lancer: 1,000G (14.5%, 31,236G)
nifboy: 780G (11.3%, 780G)
killth3kid: 536G (7.8%, 536G)
Theseawolf1: 500G (7.3%, 38,043G)
getthemoneyz: 418G (6.1%, 672,922G)
Sairentozon7: 408G (5.9%, 408G)
Kyune: 328G (4.8%, 328G)
metagameface: 256G (3.7%, 256G)
Mtueni: 200G (2.9%, 200G)
Lolprinze: 200G (2.9%, 500G)
vampyreinabox: 100G (1.5%, 1,339G)
Dymntd: 100G (1.5%, 1,958G)
DrAntiSocial: 50G (0.7%, 13,935G)
