Final Bets: red - 18 bets for 15,395G (46.7%, x1.14); blue - 16 bets for 17,588G (53.3%, x0.88)

red bets:
Geffro1908: 6,000G (39.0%, 10,714G)
Xoomwaffle: 3,099G (20.1%, 3,099G)
Error72: 905G (5.9%, 905G)
DeathTaxesAndAnime: 715G (4.6%, 715G)
dogsandcatsand: 677G (4.4%, 1,328G)
roqqqpsi: 585G (3.8%, 5,326G)
ACSpree: 500G (3.2%, 2,451G)
roofiepops: 444G (2.9%, 4,853G)
killth3kid: 404G (2.6%, 1,377G)
KyleWonToLiveForever: 384G (2.5%, 384G)
gorgewall: 301G (2.0%, 2,751G)
BoneMiser: 300G (1.9%, 300G)
ValtonZenola: 273G (1.8%, 5,464G)
Skincrawler: 208G (1.4%, 208G)
AllInBot: 200G (1.3%, 200G)
DustBirdEX: 200G (1.3%, 3,888G)
Miku_Shikhu: 100G (0.6%, 10,113G)
SephDarkheart: 100G (0.6%, 29,894G)

blue bets:
Nickyfive: 4,500G (25.6%, 14,442G)
Shalloween: 3,000G (17.1%, 51,865G)
reinoe: 2,000G (11.4%, 41,250G)
HaateXIII: 1,901G (10.8%, 1,901G)
serperemagus: 1,108G (6.3%, 1,108G)
BirbBrainsBot: 1,000G (5.7%, 173,957G)
WitchHunterIX: 1,000G (5.7%, 38,304G)
NicoSavoy: 1,000G (5.7%, 177,673G)
getthemoneyz: 730G (4.2%, 1,298,904G)
BlueAbs: 509G (2.9%, 5,094G)
letdowncity: 200G (1.1%, 1,998G)
RyanTheRebs: 200G (1.1%, 2,248G)
datadrivenbot: 140G (0.8%, 36,658G)
Firesheath: 100G (0.6%, 3,017G)
fluffskull: 100G (0.6%, 1,925G)
DouglasDragonThePoet: 100G (0.6%, 404G)
