Final Bets: black - 9 bets for 4,387G (23.0%, x3.35); brown - 22 bets for 14,682G (77.0%, x0.30)

black bets:
BirbBrainsBot: 1,000G (22.8%, 174,000G)
Nickyfive: 1,000G (22.8%, 18,899G)
dogsandcatsand: 824G (18.8%, 1,616G)
Rinhander: 648G (14.8%, 648G)
datadrivenbot: 267G (6.1%, 38,121G)
fluffskull: 200G (4.6%, 2,032G)
drkarma503: 200G (4.6%, 487G)
getthemoneyz: 148G (3.4%, 1,299,203G)
peeronid: 100G (2.3%, 9,225G)

brown bets:
Zeroroute: 2,110G (14.4%, 2,110G)
reinoe: 2,000G (13.6%, 45,912G)
Shalloween: 2,000G (13.6%, 51,506G)
ACSpree: 1,631G (11.1%, 1,631G)
WitchHunterIX: 1,000G (6.8%, 38,433G)
Creggers: 1,000G (6.8%, 42,590G)
Laserman1000: 747G (5.1%, 28,247G)
TheMurkGnome: 622G (4.2%, 622G)
Phi_Sig: 555G (3.8%, 24,400G)
RyanTheRebs: 500G (3.4%, 2,605G)
letdowncity: 416G (2.8%, 1,902G)
roqqqpsi: 335G (2.3%, 3,047G)
CapnChaos12: 300G (2.0%, 7,343G)
BoneMiser: 300G (2.0%, 300G)
Geffro1908: 236G (1.6%, 236G)
AllInBot: 200G (1.4%, 200G)
boosted420: 200G (1.4%, 1,138G)
DustBirdEX: 200G (1.4%, 4,188G)
Firesheath: 100G (0.7%, 3,099G)
Error72: 100G (0.7%, 1,424G)
Miku_Shikhu: 100G (0.7%, 10,288G)
DouglasDragonThePoet: 30G (0.2%, 142G)
