Final Bets: green - 22 bets for 7,919G (27.7%, x2.61); white - 19 bets for 20,696G (72.3%, x0.38)

green bets:
TheMM42: 2,000G (25.3%, 16,697G)
Shalloween: 688G (8.7%, 688G)
helpimabug: 494G (6.2%, 494G)
DustBirdEX: 456G (5.8%, 4,300G)
YaBoy125: 436G (5.5%, 436G)
otakutaylor: 400G (5.1%, 1,369G)
Xcessive30: 400G (5.1%, 1,685G)
gorgewall: 301G (3.8%, 10,965G)
Breakdown777: 300G (3.8%, 4,979G)
bummer91: 300G (3.8%, 2,630G)
GafgarionHS: 300G (3.8%, 3,940G)
Digitalsocrates: 300G (3.8%, 2,893G)
EnemyController: 300G (3.8%, 340,000G)
CorpusCav: 250G (3.2%, 6,888G)
itsZaes: 222G (2.8%, 448G)
Arcblazer23: 144G (1.8%, 144G)
kaelsun: 128G (1.6%, 128G)
DeathTaxesAndAnime: 100G (1.3%, 5,034G)
Estan_AD: 100G (1.3%, 1,895G)
datadrivenbot: 100G (1.3%, 19,475G)
Evewho: 100G (1.3%, 5,729G)
Zhies1337: 100G (1.3%, 1,397G)

white bets:
NicoSavoy: 5,000G (24.2%, 73,281G)
skillomono: 3,000G (14.5%, 16,460G)
LASERJESUS1337: 3,000G (14.5%, 64,119G)
roofiepops: 1,651G (8.0%, 1,651G)
Stealthtoucan: 1,521G (7.3%, 1,521G)
Klednar21: 1,000G (4.8%, 3,833G)
BirbBrainsBot: 1,000G (4.8%, 177,751G)
argentbast: 1,000G (4.8%, 8,231G)
AllInBot: 796G (3.8%, 796G)
Sairentozon7: 500G (2.4%, 4,047G)
Kyune: 416G (2.0%, 416G)
Laserman1000: 410G (2.0%, 2,910G)
kaidykat: 355G (1.7%, 7,108G)
MibudemoneyeKyo: 300G (1.4%, 8,806G)
soren_of_tyto: 205G (1.0%, 205G)
LivingHitokiri: 200G (1.0%, 11,962G)
mardokttv: 200G (1.0%, 5,694G)
CT_5_Holy: 100G (0.5%, 1,225G)
getthemoneyz: 42G (0.2%, 724,574G)
