High Risers:
1. Dogsandcatsand: +7,882G
2. Cassiephoenix: +2,607G
3. Chihuahua_charity: +2,578G
4. Run_with_stone_guns: +2,144G
5. Dinin991: +2,100G
6. Mushufasa_: +1,412G
7. Highelectricaltemperature: +1,378G
8. Lwtest: +902G
9. Milkachoko: +685G
10. Genkidou: +594G
11. Belkra: +504G
12. Zachara: +500G
13. Actual_jp: +500G
14. E_ballard: +500G
15. Grininda: +500G
16. Forgettosmile: +500G
17. Withpaint: +500G
18. Pplvee1: +413G
19. Alyssariel: +394G
20. Nok____: +300G
21. Daveb_: +300G
22. Reddwind_: +200G
23. Peeronid: +199G
24. Error72: +195G
25. Finewax: +185G
26. Leonidusx: +100G
27. Thyrandaal: +49G
28. Daveniii: +49G
29. Llight__: +49G
30. Setsaku: +4G
31. Memoriesoffinal: -10G
32. Jumbocactuarx27: -56G
33. Ivfioivii: -200G
34. Khelor_: -226G
35. Volgrathemoose: -300G
36. Latebit: -414G
37. Foragercats: -440G
38. Just_here2: -500G
39. Ogema_thedream: -500G
40. Nifboy: -524G
41. Randgridr: -580G
42. Gorgewall: -589G
43. Ar_tactic: -756G
44. Laserman1000: -756G
45. Skipsandwiches: -797G
46. Jeeboheebo: -800G
47. Sephdarkheart: -876G
48. Gooseyourself: -1,000G
49. Powergems: -1,234G
50. Lord_gwarth: -1,624G
51. Upvla: -1,900G
52. Krombobreaker: -2,068G
