Final Bets: green - 28 bets for 13,401G (48.7%, x1.06); yellow - 10 bets for 14,139G (51.3%, x0.95)

green bets:
HaateXIII: 1,258G (9.4%, 1,258G)
Grimmace45: 1,224G (9.1%, 24,485G)
Baron_von_Scrub: 1,111G (8.3%, 2,618G)
Evewho: 1,000G (7.5%, 20,427G)
ungabunga_bot: 1,000G (7.5%, 498,243G)
BirbBrainsBot: 1,000G (7.5%, 66,325G)
Lionhermit: 1,000G (7.5%, 59,508G)
Mesmaster: 1,000G (7.5%, 32,260G)
Zeroroute: 850G (6.3%, 850G)
EnemyController: 500G (3.7%, 237,390G)
thethorndog1: 447G (3.3%, 447G)
Rislyeu: 328G (2.4%, 328G)
FriendSquirrel: 316G (2.4%, 316G)
genericco: 288G (2.1%, 288G)
nifboy: 250G (1.9%, 4,618G)
getthemoneyz: 228G (1.7%, 676,952G)
Nizaha: 201G (1.5%, 11,864G)
SuicideKing_XIX: 200G (1.5%, 4,363G)
jicchi: 200G (1.5%, 3,003G)
Kronikle: 200G (1.5%, 3,057G)
maakur_: 100G (0.7%, 3,255G)
Jampck: 100G (0.7%, 1,259G)
Dymntd: 100G (0.7%, 933G)
Antipathics: 100G (0.7%, 6,974G)
datadrivenbot: 100G (0.7%, 17,376G)
FoeSquirrel: 100G (0.7%, 5,025G)
BlackfyreRoy: 100G (0.7%, 1,254G)
CosmicTactician: 100G (0.7%, 9,940G)

yellow bets:
volgrathemoose: 7,676G (54.3%, 15,352G)
Lord_Burrah: 1,571G (11.1%, 95,571G)
E_Ballard: 1,534G (10.8%, 1,534G)
Estan_AD: 1,242G (8.8%, 2,485G)
UmaiJam: 1,000G (7.1%, 29,125G)
Theseawolf1: 500G (3.5%, 45,974G)
moonliquor: 316G (2.2%, 316G)
RunicMagus: 100G (0.7%, 40,049G)
Kyune: 100G (0.7%, 768G)
otakutaylor: 100G (0.7%, 1,185G)
