Final Bets: blue - 20 bets for 9,480G (37.3%, x1.68); green - 20 bets for 15,917G (62.7%, x0.60)

blue bets:
vorap: 1,500G (15.8%, 47,425G)
Shakarak: 1,200G (12.7%, 33,759G)
E_Ballard: 866G (9.1%, 866G)
Estan_AD: 759G (8.0%, 1,519G)
BoneMiser: 596G (6.3%, 596G)
killth3kid: 540G (5.7%, 2,664G)
DLJuggernaut: 500G (5.3%, 6,585G)
jicchi: 458G (4.8%, 2,458G)
RunicMagus: 400G (4.2%, 39,993G)
KasugaiRoastedPeas: 340G (3.6%, 340G)
Kyune: 336G (3.5%, 336G)
moonliquor: 316G (3.3%, 316G)
sSwing: 311G (3.3%, 8,311G)
CapnChaos12: 300G (3.2%, 4,605G)
genericco: 288G (3.0%, 288G)
LAGBOT30000: 270G (2.8%, 27,087G)
MercurialForge: 200G (2.1%, 662G)
maakur_: 100G (1.1%, 3,305G)
Lythe_Caraker: 100G (1.1%, 124,880G)
Phillippus: 100G (1.1%, 991G)

green bets:
Mesmaster: 3,000G (18.8%, 34,799G)
Grimmace45: 2,830G (17.8%, 28,302G)
volgrathemoose: 2,345G (14.7%, 4,690G)
Baron_von_Scrub: 1,111G (7.0%, 3,437G)
ungabunga_bot: 1,000G (6.3%, 499,135G)
BirbBrainsBot: 1,000G (6.3%, 66,874G)
Lionhermit: 1,000G (6.3%, 60,007G)
getthemoneyz: 886G (5.6%, 677,788G)
Laserman1000: 704G (4.4%, 29,404G)
Zeroroute: 600G (3.8%, 600G)
EnemyController: 500G (3.1%, 238,754G)
Kronikle: 200G (1.3%, 3,268G)
Jampck: 100G (0.6%, 1,557G)
UFOCATCHERDAILY: 100G (0.6%, 3,567G)
Antipathics: 100G (0.6%, 6,880G)
otakutaylor: 100G (0.6%, 885G)
datadrivenbot: 100G (0.6%, 17,282G)
BlackfyreRoy: 100G (0.6%, 1,675G)
Dymntd: 100G (0.6%, 939G)
MalakiGenesys: 41G (0.3%, 349G)
