Final Bets: blue - 11 bets for 5,088G (53.5%, x0.87); yellow - 10 bets for 4,417G (46.5%, x1.15)

blue bets:
ungabunga_bot: 1,000G (19.7%, 417,134G)
DeathTaxesAndAnime: 788G (15.5%, 788G)
superdevon1: 732G (14.4%, 10,467G)
HaplessOne: 666G (13.1%, 26,928G)
Dexsana: 392G (7.7%, 392G)
CorpusCav: 377G (7.4%, 5,377G)
Practice_Pad: 336G (6.6%, 688G)
Eyepoor_: 300G (5.9%, 3,550G)
Miyokari: 200G (3.9%, 1,118G)
Jaritras: 197G (3.9%, 597G)
lastly: 100G (2.0%, 2,663G)

yellow bets:
Who_lio42: 1,000G (22.6%, 6,644G)
BirbBrainsBot: 969G (21.9%, 110,147G)
waterwatereverywhere: 750G (17.0%, 750G)
midori_ribbon: 505G (11.4%, 1,726G)
NovaKnight21: 464G (10.5%, 464G)
crimson_hellkite: 257G (5.8%, 3,257G)
itsadud: 248G (5.6%, 248G)
victoriolue: 100G (2.3%, 2,190G)
datadrivenbot: 100G (2.3%, 12,650G)
getthemoneyz: 24G (0.5%, 647,528G)
