Final Bets: green - 13 bets for 4,539G (21.4%, x3.67); yellow - 15 bets for 16,669G (78.6%, x0.27)

green bets:
WireLord: 1,000G (22.0%, 6,907G)
BirbBrainsBot: 806G (17.8%, 161,360G)
bad1dea: 800G (17.6%, 371,895G)
jethrothrul: 339G (7.5%, 3,398G)
Carledo: 333G (7.3%, 3,104G)
getthemoneyz: 286G (6.3%, 415,595G)
Treapvort: 200G (4.4%, 1,371G)
Cataphract116: 200G (4.4%, 1,297G)
AllInBot: 159G (3.5%, 159G)
Slowbrofist: 116G (2.6%, 116G)
ungabunga_bot: 100G (2.2%, 12,426G)
Chompie: 100G (2.2%, 9,609G)
SeedSC: 100G (2.2%, 138,809G)

yellow bets:
Shakarak: 5,000G (30.0%, 38,833G)
ShintaroNayaka: 4,377G (26.3%, 4,377G)
DeathTaxesAndAnime: 2,058G (12.3%, 4,036G)
Basmal: 1,000G (6.0%, 57,620G)
z32o: 912G (5.5%, 912G)
dynasti: 796G (4.8%, 796G)
kingchadking: 599G (3.6%, 599G)
Phytik: 478G (2.9%, 4,630G)
NovaKnight21: 400G (2.4%, 4,418G)
maakur_: 380G (2.3%, 380G)
R_Raynos: 264G (1.6%, 264G)
ugoplatamia: 200G (1.2%, 8,625G)
twelfthrootoftwo: 100G (0.6%, 5,703G)
datadrivenbot: 100G (0.6%, 15,896G)
ko2q: 5G (0.0%, 1,504G)
