High Risers:
1. Novaknight21: +5,712G
2. Nickyfive: +4,824G
3. Mushufasa_: +4,328G
4. Ser_pyrro: +4,174G
5. Ericzubat: +3,252G
6. Old_overholt_: +2,283G
7. Dogsandcatsand: +2,246G
8. Latebit: +1,973G
9. Ldskinny: +1,772G
10. Reddwind_: +1,474G
11. Lord_gwarth: +1,349G
12. Kronikle: +1,006G
13. Fenaen: +978G
14. Daveniii: +767G
15. Corpuscav: +396G
16. Milkachoko: +371G
17. Nekojin: +345G
18. Holdenmagronik: +323G
19. Error72: +232G
20. Zephxroth: +210G
21. Volgrathemoose: +63G
22. Actual_jp: -100G
23. Giganticdwarves: -100G
24. Daveb_: -200G
25. Lythe_caraker: -300G
26. 0v3rr8d: -300G
27. Jeeboheebo: -300G
28. Armorgames1: -300G
29. Sincerename: -300G
30. Galkife: -341G
31. Brokenknight201: -400G
32. Mirapoix: -600G
33. Dasutin23: -675G
34. J2dabibbles: -800G
35. Thyrandaal: -841G
36. Laserman1000: -900G
37. Zagorsek: -974G
38. Just_here2: -1,000G
39. Jumbocactuarx27: -1,000G
40. Deathtaxesandanime: -1,000G
41. Nifboy: -1,028G
42. Lowlf: -1,055G
43. Pplvee1: -1,245G
44. Khelor_: -1,300G
45. Wonser: -1,749G
46. Evdoggity: -2,000G
47. Upvla: -2,122G
48. Firesheath: -2,757G
49. Sairentozon7: -3,065G
50. Shalloween: -5,021G
51. Moonliquor: -5,800G
