Final Bets: purple - 25 bets for 13,934G (36.5%, x1.74); brown - 22 bets for 24,282G (63.5%, x0.57)

purple bets:
oogthecaveman: 3,186G (22.9%, 3,186G)
TheChainNerd: 1,000G (7.2%, 14,297G)
kai_shee: 1,000G (7.2%, 48,061G)
BirbBrainsBot: 1,000G (7.2%, 101,158G)
J2DaBibbles: 1,000G (7.2%, 5,026G)
bad1dea: 1,000G (7.2%, 312,687G)
xDeadlytoxinsx: 1,000G (7.2%, 6,431G)
Shalloween: 800G (5.7%, 46,723G)
Lanshaft: 600G (4.3%, 14,020G)
HaplessOne: 500G (3.6%, 24,932G)
AllInBot: 467G (3.4%, 467G)
rechaun: 296G (2.1%, 296G)
JumbocactuarX27: 268G (1.9%, 268G)
fenixcrest: 264G (1.9%, 5,287G)
ZephyrTempest: 226G (1.6%, 17,810G)
ugoplatamia: 200G (1.4%, 21,542G)
NUMBER1DB: 200G (1.4%, 745G)
Treapvort: 200G (1.4%, 31,864G)
DejaPoo21: 200G (1.4%, 27,644G)
getthemoneyz: 114G (0.8%, 399,629G)
PasDeSeul: 112G (0.8%, 112G)
maakur_: 100G (0.7%, 2,195G)
AlysSariel: 100G (0.7%, 1,493G)
Nizaha: 100G (0.7%, 6,358G)
daveb_: 1G (0.0%, 1,136G)

brown bets:
sinnyil2: 7,346G (30.3%, 14,693G)
Zeroroute: 6,562G (27.0%, 11,171G)
volgrathemoose: 2,000G (8.2%, 7,622G)
Lord_Burrah: 1,543G (6.4%, 98,543G)
mexskacin: 1,180G (4.9%, 1,180G)
Vampire_Killer: 1,000G (4.1%, 16,158G)
Beastmages: 565G (2.3%, 565G)
TheOneRanger: 500G (2.1%, 4,335G)
DustBirdEX: 400G (1.6%, 3,596G)
HaychDub: 400G (1.6%, 6,427G)
luminarii: 346G (1.4%, 9,230G)
Baron_von_Scrub: 327G (1.3%, 327G)
LDSkinny: 316G (1.3%, 316G)
Aeolus_000: 300G (1.2%, 2,452G)
Athropos1: 300G (1.2%, 2,800G)
ForagerCats: 268G (1.1%, 268G)
Lazerkick: 264G (1.1%, 264G)
lifeguard_dan: 260G (1.1%, 260G)
urieltheflameofgod: 200G (0.8%, 707G)
datadrivenbot: 100G (0.4%, 15,839G)
BadBlanket: 100G (0.4%, 2,708G)
ko2q: 5G (0.0%, 1,607G)
