Final Bets: blue - 17 bets for 7,291G (41.1%, x1.44); white - 9 bets for 10,467G (58.9%, x0.70)

blue bets:
KupoKel: 1,500G (20.6%, 28,969G)
BirbBrainsBot: 1,000G (13.7%, 12,768G)
bad1dea: 1,000G (13.7%, 254,232G)
inzo_bettingbot: 775G (10.6%, 19,377G)
kingchadking: 634G (8.7%, 634G)
roqqqpsi: 513G (7.0%, 513G)
z32o: 372G (5.1%, 1,431G)
Dexef: 276G (3.8%, 276G)
byrdturbo: 222G (3.0%, 3,305G)
Maeveen: 200G (2.7%, 9,932G)
Treapvort: 200G (2.7%, 16,537G)
getthemoneyz: 196G (2.7%, 400,059G)
datadrivenbot: 100G (1.4%, 15,884G)
redrhinofever: 100G (1.4%, 8,686G)
RonaldoTheGypsy: 100G (1.4%, 2,533G)
rubenflonne: 100G (1.4%, 9,004G)
ko2q: 3G (0.0%, 1,303G)

white bets:
SeedSC: 6,666G (63.7%, 166,669G)
NovaKnight21: 1,497G (14.3%, 1,497G)
DeathTaxesAndAnime: 1,000G (9.6%, 6,540G)
BoneMiser: 548G (5.2%, 548G)
HysteriaDays: 356G (3.4%, 356G)
ApplesauceBoss: 100G (1.0%, 2,153G)
twelfthrootoftwo: 100G (1.0%, 3,562G)
Alc_Trinity: 100G (1.0%, 27,043G)
WinnerBit: 100G (1.0%, 950G)
