Final Bets: white - 16 bets for 5,021G (47.9%, x1.09); black - 10 bets for 5,460G (52.1%, x0.92)

white bets:
DuraiPapers: 1,000G (19.9%, 6,206G)
OneHundredFists: 512G (10.2%, 512G)
DLJuggernaut: 500G (10.0%, 16,460G)
KittymanAdvance: 500G (10.0%, 4,727G)
Nizaha: 401G (8.0%, 16,911G)
CorpusCav: 400G (8.0%, 4,112G)
twelfthrootoftwo: 400G (8.0%, 1,763G)
Pyrotyk: 300G (6.0%, 822G)
Grandlanzer: 200G (4.0%, 6,115G)
docmitchphd: 200G (4.0%, 2,107G)
getthemoneyz: 108G (2.2%, 972,259G)
AllInBot: 100G (2.0%, 100G)
E_Ballard: 100G (2.0%, 7,890G)
Wolvaroo: 100G (2.0%, 1,834G)
datadrivenbot: 100G (2.0%, 43,512G)
BStarTV: 100G (2.0%, 804G)

black bets:
TheGuesty: 1,215G (22.3%, 61,215G)
BirbBrainsBot: 1,000G (18.3%, 74,640G)
Thyrandaal: 1,000G (18.3%, 59,891G)
Oobs56: 500G (9.2%, 4,439G)
alterworlds: 466G (8.5%, 466G)
ANFz: 456G (8.4%, 456G)
LAGBOT30000: 300G (5.5%, 1,593G)
butterbelljedi: 259G (4.7%, 3,242G)
Azelgrim: 224G (4.1%, 224G)
IphoneDarkness: 40G (0.7%, 2,858G)
