Final Bets: black - 13 bets for 7,005G (60.4%, x0.65); brown - 14 bets for 4,584G (39.6%, x1.53)

black bets:
KittymanAdvance: 2,000G (28.6%, 4,437G)
Digitalsocrates: 1,000G (14.3%, 61,856G)
roofiepops: 782G (11.2%, 782G)
DuraiPapers: 700G (10.0%, 3,706G)
Laserman1000: 627G (9.0%, 3,627G)
OneHundredFists: 516G (7.4%, 516G)
getthemoneyz: 360G (5.1%, 971,836G)
LAGBOT30000: 300G (4.3%, 1,636G)
Arcblazer23: 284G (4.1%, 284G)
alterworlds: 136G (1.9%, 136G)
mpghappiness: 100G (1.4%, 11,775G)
datadrivenbot: 100G (1.4%, 43,334G)
maakur_: 100G (1.4%, 23,377G)

brown bets:
BirbBrainsBot: 1,000G (21.8%, 75,577G)
TheGuesty: 944G (20.6%, 65,944G)
Cryptopsy70: 560G (12.2%, 15,898G)
Evewho: 452G (9.9%, 452G)
Grandlanzer: 300G (6.5%, 5,927G)
butterbelljedi: 233G (5.1%, 3,333G)
twelfthrootoftwo: 200G (4.4%, 1,577G)
Meta_Five: 200G (4.4%, 34,001G)
Pyrotyk: 200G (4.4%, 498G)
AllInBot: 100G (2.2%, 100G)
DeathTaxesAndAnime: 100G (2.2%, 1,852G)
BStarTV: 100G (2.2%, 704G)
CorpusCav: 99G (2.2%, 3,815G)
Powermhero: 96G (2.1%, 25,846G)
