Final Bets: purple - 25 bets for 12,440G (51.7%, x0.93); brown - 14 bets for 11,620G (48.3%, x1.07)

purple bets:
acedude1981: 2,000G (16.1%, 11,276G)
ohhinm: 1,189G (9.6%, 1,189G)
dogsandcatsand: 1,000G (8.0%, 5,124G)
RaIshtar: 881G (7.1%, 881G)
fluffskull: 795G (6.4%, 795G)
DeathTaxesAndAnime: 764G (6.1%, 764G)
twelfthrootoftwo: 628G (5.0%, 628G)
Error72: 612G (4.9%, 612G)
ColetteMSLP: 500G (4.0%, 11,337G)
Meta_Five: 500G (4.0%, 17,618G)
randgridr: 468G (3.8%, 468G)
Digitalsocrates: 428G (3.4%, 428G)
Monopool: 379G (3.0%, 379G)
Miku_Shikhu: 312G (2.5%, 312G)
OtherBrand: 300G (2.4%, 2,534G)
Treafa: 292G (2.3%, 502G)
Vacillents: 276G (2.2%, 276G)
Seaweed_B: 252G (2.0%, 252G)
DaKoopa49: 236G (1.9%, 236G)
gorgewall: 201G (1.6%, 11,856G)
datadrivenbot: 200G (1.6%, 34,289G)
ANFz: 100G (0.8%, 34,639G)
Thyrandaal: 100G (0.8%, 38,911G)
getthemoneyz: 22G (0.2%, 1,340,139G)
moonliquor: 5G (0.0%, 35,440G)

brown bets:
NIghtdew14: 4,000G (34.4%, 39,075G)
SkylerBunny: 2,000G (17.2%, 35,937G)
Firesheath: 1,660G (14.3%, 1,660G)
DamnThatShark: 616G (5.3%, 616G)
Laserman1000: 600G (5.2%, 3,000G)
Evewho: 564G (4.9%, 564G)
i2inchtomahawk: 554G (4.8%, 554G)
benticore: 500G (4.3%, 22,119G)
AllInBot: 344G (3.0%, 344G)
richardserious: 304G (2.6%, 304G)
douchetron: 170G (1.5%, 170G)
ribbiks: 104G (0.9%, 104G)
holandrix: 104G (0.9%, 104G)
Twisted_Nutsatchel: 100G (0.9%, 13,200G)
