Final Bets: white - 16 bets for 7,243G (42.5%, x1.35); purple - 17 bets for 9,807G (57.5%, x0.74)

white bets:
Vacillents: 1,315G (18.2%, 1,315G)
Digitalsocrates: 828G (11.4%, 828G)
E_Ballard: 596G (8.2%, 596G)
Firesheath: 536G (7.4%, 536G)
Monopool: 533G (7.4%, 533G)
JumbocactuarX27: 520G (7.2%, 520G)
moonliquor: 500G (6.9%, 36,176G)
randgridr: 468G (6.5%, 468G)
getthemoneyz: 378G (5.2%, 1,341,482G)
DaKoopa49: 336G (4.6%, 336G)
acedude1981: 300G (4.1%, 13,436G)
Treafa: 292G (4.0%, 1,202G)
gorgewall: 201G (2.8%, 11,843G)
Thyrandaal: 200G (2.8%, 39,150G)
douchetron: 140G (1.9%, 140G)
ANFz: 100G (1.4%, 34,632G)

purple bets:
SkylerBunny: 2,500G (25.5%, 31,437G)
ohhinm: 1,300G (13.3%, 1,300G)
dogsandcatsand: 1,000G (10.2%, 5,058G)
i2inchtomahawk: 758G (7.7%, 758G)
solomongrundy85: 600G (6.1%, 1,390G)
Meta_Five: 500G (5.1%, 18,085G)
ColetteMSLP: 500G (5.1%, 11,304G)
SUGRboi: 400G (4.1%, 1,745G)
Laserman1000: 400G (4.1%, 2,000G)
Error72: 356G (3.6%, 356G)
Miku_Shikhu: 312G (3.2%, 312G)
OtherBrand: 300G (3.1%, 3,253G)
AllInBot: 200G (2.0%, 200G)
fluffskull: 200G (2.0%, 1,038G)
datadrivenbot: 200G (2.0%, 34,276G)
Modoh: 177G (1.8%, 355G)
ribbiks: 104G (1.1%, 104G)
