Final Bets: green - 13 bets for 11,759G (47.6%, x1.10); yellow - 20 bets for 12,925G (52.4%, x0.91)

green bets:
Aldrammech: 5,000G (42.5%, 52,451G)
benticore: 1,133G (9.6%, 1,133G)
sSwing: 1,096G (9.3%, 1,096G)
CosmicTactician: 1,000G (8.5%, 2,016G)
Theseawolf1: 1,000G (8.5%, 43,205G)
lowlf: 592G (5.0%, 592G)
Jeeboheebo: 488G (4.2%, 488G)
ShintaroNayaka: 400G (3.4%, 3,356G)
CapnChaos12: 300G (2.6%, 18,780G)
letdowncity: 250G (2.1%, 10,755G)
Flameatron: 200G (1.7%, 340G)
WunUP: 184G (1.6%, 184G)
ravingsockmonkey: 116G (1.0%, 116G)

yellow bets:
toka222: 5,000G (38.7%, 89,697G)
FriendSquirrel: 1,024G (7.9%, 1,024G)
BirbBrainsBot: 1,000G (7.7%, 53,265G)
MrDiggs49: 1,000G (7.7%, 7,640G)
gogofromtogo: 688G (5.3%, 688G)
Lionhermit: 550G (4.3%, 550G)
LivingHitokiri: 500G (3.9%, 16,148G)
Jinxzers: 500G (3.9%, 3,670G)
getthemoneyz: 462G (3.6%, 760,287G)
StealthModeLocke: 384G (3.0%, 384G)
RagequitSA: 332G (2.6%, 332G)
Nizaha: 201G (1.6%, 5,740G)
TeaTime29: 200G (1.5%, 1,740G)
old_overholt_: 200G (1.5%, 12,617G)
run_with_stone_GUNs: 200G (1.5%, 7,411G)
EnemyController: 200G (1.5%, 441,136G)
rednecknazgul: 184G (1.4%, 184G)
AllInBot: 100G (0.8%, 100G)
demidusk: 100G (0.8%, 100G)
datadrivenbot: 100G (0.8%, 28,614G)
