Final Bets: purple - 14 bets for 10,483G (41.5%, x1.41); brown - 18 bets for 14,801G (58.5%, x0.71)

purple bets:
Aldrammech: 5,000G (47.7%, 42,455G)
Theseawolf1: 1,000G (9.5%, 41,205G)
CorpusCav: 815G (7.8%, 10,315G)
CosmicTactician: 516G (4.9%, 516G)
LivingHitokiri: 500G (4.8%, 17,482G)
killth3kid: 500G (4.8%, 31,898G)
Rislyeu: 432G (4.1%, 432G)
juggalettefurbaby420: 420G (4.0%, 21,973G)
UFOCATCHERDAILY: 400G (3.8%, 3,003G)
DLJuggernaut: 350G (3.3%, 6,782G)
letdowncity: 250G (2.4%, 10,255G)
AllInBot: 100G (1.0%, 100G)
datadrivenbot: 100G (1.0%, 28,881G)
lastly: 100G (1.0%, 13,570G)

brown bets:
gogofromtogo: 3,625G (24.5%, 3,625G)
toka222: 3,500G (23.6%, 92,246G)
BirbBrainsBot: 1,000G (6.8%, 55,933G)
E_Ballard: 1,000G (6.8%, 1,655G)
roofiepops: 888G (6.0%, 23,080G)
benticore: 872G (5.9%, 872G)
lowlf: 592G (4.0%, 592G)
WunUP: 508G (3.4%, 508G)
Jinxzers: 500G (3.4%, 5,004G)
Jeeboheebo: 488G (3.3%, 488G)
getthemoneyz: 428G (2.9%, 761,291G)
ShintaroNayaka: 400G (2.7%, 2,656G)
CapnChaos12: 300G (2.0%, 19,008G)
nifboy: 250G (1.7%, 18,236G)
TeaTime29: 200G (1.4%, 2,274G)
FriendSquirrel: 100G (0.7%, 956G)
rednecknazgul: 100G (0.7%, 527G)
DrAntiSocial: 50G (0.3%, 2,320G)
