High Risers:
1. E_Ballard: +6,830G
2. krombobreaker: +2,168G
3. khelor_: +1,470G
4. DavenIII: +990G
5. TheSabretoothe: +922G
6. DocZombiee: +768G
7. skinny666: +742G
8. Musashi45: +710G
9. AltimaMantoid: +430G
10. pplvee1: +112G
11. superdevon1: +100G
12. ar_tactic: -200G
13. xXTysongXx: -200G
14. Belkra: -200G
15. Lord_Gwarth: -267G
16. just_here2: -300G
17. Error72: -300G
18. dogsandcatsand: -300G
19. WireLord: -301G
20. 3ngag3: -400G
21. JonnyCue: -496G
22. SephDarkheart: -584G
23. Smugzug: -614G
24. YowaneHaku: -1,284G
25. ValensEXP_: -1,666G
26. FatTunaKing: -3,021G
27. nifboy: -3,031G
28. OneHundredFists: -7,987G
