Final Bets: black - 4 bets for 7,333G (47.7%, x1.10); brown - 12 bets for 8,037G (52.3%, x0.91)

black bets:
FatTunaKing: 5,000G (68.2%, 8,266G)
YowaneHaku: 1,000G (13.6%, 12,302G)
superdevon1: 973G (13.3%, 973G)
Smugzug: 360G (4.9%, 13,446G)

brown bets:
E_Ballard: 2,257G (28.1%, 2,257G)
OneHundredFists: 1,269G (15.8%, 24,600G)
skinny666: 1,075G (13.4%, 1,075G)
BirbBrainsBot: 827G (10.3%, 118,256G)
krombobreaker: 500G (6.2%, 43,862G)
khelor_: 500G (6.2%, 10,763G)
AltimaMantoid: 471G (5.9%, 12,171G)
getthemoneyz: 438G (5.4%, 2,227,144G)
AllInBot: 200G (2.5%, 200G)
ValensEXP_: 200G (2.5%, 25,051G)
datadrivenbot: 200G (2.5%, 87,317G)
DocZombiee: 100G (1.2%, 810G)
