Final Bets: blue - 26 bets for 13,540G (59.5%, x0.68); white - 9 bets for 9,221G (40.5%, x1.47)

blue bets:
HaplessOne: 2,500G (18.5%, 227,279G)
Phytik: 1,000G (7.4%, 16,272G)
EnemyController: 1,000G (7.4%, 142,134G)
benticore: 1,000G (7.4%, 1,837G)
ungabunga_bot: 1,000G (7.4%, 260,612G)
Mandoragan: 945G (7.0%, 945G)
Shalloween: 700G (5.2%, 74,417G)
Laserman1000: 600G (4.4%, 48,700G)
TheMurkGnome: 591G (4.4%, 11,987G)
Breakdown777: 500G (3.7%, 25,539G)
worldly_unbrain: 500G (3.7%, 2,322G)
BirbBrainsBot: 436G (3.2%, 436G)
getthemoneyz: 414G (3.1%, 587,894G)
Conome: 406G (3.0%, 406G)
duskps: 350G (2.6%, 17,832G)
coneydog: 250G (1.8%, 1,000G)
gorgewall: 200G (1.5%, 4,995G)
SA_Zone: 200G (1.5%, 333G)
vorap: 200G (1.5%, 24,982G)
xxnamexx: 148G (1.1%, 148G)
maakur_: 100G (0.7%, 112,937G)
Squatting_Bear: 100G (0.7%, 519G)
twelfthrootoftwo: 100G (0.7%, 2,785G)
datadrivenbot: 100G (0.7%, 2,706G)
Oobs56: 100G (0.7%, 5,944G)
ko2q: 100G (0.7%, 1,116G)

white bets:
animefan112233: 6,262G (67.9%, 6,262G)
KasugaiRoastedPeas: 1,200G (13.0%, 9,740G)
FoeSquirrel: 545G (5.9%, 1,090G)
ZephyrTempest: 400G (4.3%, 400G)
nifboy: 314G (3.4%, 7,869G)
Evewho: 200G (2.2%, 22,456G)
FriendSquirrel: 100G (1.1%, 30,481G)
DarrenDinosaurs: 100G (1.1%, 11,567G)
Jahshine: 100G (1.1%, 4,652G)
