Final Bets: blue - 15 bets for 11,359G (63.7%, x0.57); green - 11 bets for 6,464G (36.3%, x1.76)

blue bets:
acid_flashback: 5,000G (44.0%, 36,654G)
AllInBot: 918G (8.1%, 918G)
Spartan_Paladin: 790G (7.0%, 6,297G)
Thyrandaal: 768G (6.8%, 768G)
resjudicata3: 727G (6.4%, 727G)
CorpusCav: 700G (6.2%, 55,544G)
Nizaha: 660G (5.8%, 7,341G)
moonliquor: 500G (4.4%, 68,153G)
getthemoneyz: 462G (4.1%, 2,173,721G)
datadrivenbot: 200G (1.8%, 84,967G)
AbandonedHall: 172G (1.5%, 172G)
GeNoFPaniC: 150G (1.3%, 4,200G)
yagyuudarkness: 112G (1.0%, 112G)
Firesheath: 100G (0.9%, 2,323G)
heropong: 100G (0.9%, 499G)

green bets:
RunicMagus: 1,020G (15.8%, 64,361G)
BirbBrainsBot: 1,000G (15.5%, 99,532G)
Sairentozon7: 1,000G (15.5%, 81,152G)
lowlf: 656G (10.1%, 9,455G)
JonnyCue: 500G (7.7%, 16,551G)
old_overholt_: 500G (7.7%, 61,851G)
ExplanationMarkWow: 500G (7.7%, 44,118G)
Shalloween: 500G (7.7%, 25,785G)
2b_yorha_b: 400G (6.2%, 17,935G)
Musashi45: 288G (4.5%, 288G)
maakur_: 100G (1.5%, 5,560G)
