Final Bets: black - 9 bets for 2,624G (11.2%, x7.97); brown - 19 bets for 20,903G (88.8%, x0.13)

black bets:
Sairentozon7: 1,000G (38.1%, 82,909G)
roofiepops: 474G (18.1%, 5,260G)
Spartan_Paladin: 300G (11.4%, 5,507G)
getthemoneyz: 194G (7.4%, 2,173,259G)
AbandonedHall: 172G (6.6%, 172G)
GatsbysGhost: 140G (5.3%, 140G)
CamelCash007: 132G (5.0%, 132G)
yagyuudarkness: 112G (4.3%, 112G)
maakur_: 100G (3.8%, 5,736G)

brown bets:
acid_flashback: 10,000G (47.8%, 31,654G)
Nizaha: 1,670G (8.0%, 6,681G)
CorpusCav: 1,400G (6.7%, 54,844G)
RunicMagus: 1,020G (4.9%, 66,153G)
ioksee: 1,000G (4.8%, 1,116G)
BirbBrainsBot: 1,000G (4.8%, 101,289G)
killth3kid: 820G (3.9%, 38,039G)
Musashi45: 794G (3.8%, 794G)
fenaen: 668G (3.2%, 22,939G)
resjudicata3: 572G (2.7%, 572G)
ExplanationMarkWow: 500G (2.4%, 44,997G)
2b_yorha_b: 400G (1.9%, 18,638G)
heropong: 399G (1.9%, 399G)
AllInBot: 200G (1.0%, 200G)
datadrivenbot: 200G (1.0%, 84,767G)
Sharosa: 100G (0.5%, 2,927G)
Firesheath: 100G (0.5%, 2,223G)
moonliquor: 50G (0.2%, 67,653G)
nhammen: 10G (0.0%, 68,679G)
