Final Bets: green - 16 bets for 9,565G (48.6%, x1.06); yellow - 11 bets for 10,113G (51.4%, x0.95)

green bets:
sinnyil2: 4,343G (45.4%, 4,343G)
Thyrandaal: 1,000G (10.5%, 61,496G)
Laserman1000: 796G (8.3%, 74,896G)
reddwind_: 500G (5.2%, 2,740G)
genericco: 500G (5.2%, 2,388G)
Shalloween: 472G (4.9%, 472G)
nifboy: 420G (4.4%, 420G)
butterbelljedi: 333G (3.5%, 4,196G)
gorgewall: 301G (3.1%, 20,604G)
letdowncity: 300G (3.1%, 21,044G)
ANFz: 100G (1.0%, 2,204G)
DuraiPapers: 100G (1.0%, 100G)
datadrivenbot: 100G (1.0%, 43,391G)
oliversizzletwist: 100G (1.0%, 100G)
ko2q: 100G (1.0%, 14,311G)
Firesheath: 100G (1.0%, 13,902G)

yellow bets:
prince_rogers_nelson_: 5,000G (49.4%, 11,177G)
toka222: 2,000G (19.8%, 60,929G)
HaateXIII: 792G (7.8%, 792G)
BirbBrainsBot: 692G (6.8%, 44,575G)
Nizaha: 501G (5.0%, 28,331G)
Evewho: 428G (4.2%, 428G)
ColetteMSLP: 300G (3.0%, 1,358G)
AllInBot: 100G (1.0%, 100G)
Miku_Shikhu: 100G (1.0%, 15,452G)
Umbrellaexile: 100G (1.0%, 3,643G)
AltimaMantoid: 100G (1.0%, 1,800G)
