Final Bets: white - 6 bets for 6,759G (51.7%, x0.93); black - 15 bets for 6,318G (48.3%, x1.07)

white bets:
GreatRedDragon: 5,000G (74.0%, 50,292G)
ForagerCats: 500G (7.4%, 35,336G)
DavenIII: 500G (7.4%, 26,722G)
Aneyus: 309G (4.6%, 30,954G)
perce90: 300G (4.4%, 1,631G)
jtbirdACC: 150G (2.2%, 1,033G)

black bets:
ungabunga_bot: 1,000G (15.8%, 220,424G)
aStatue: 919G (14.5%, 919G)
TheChainNerd: 735G (11.6%, 1,470G)
leakimiko: 670G (10.6%, 4,473G)
upvla: 567G (9.0%, 4,389G)
XalSmellsBad: 500G (7.9%, 18,345G)
BirbBrainsBot: 413G (6.5%, 144,528G)
Dexef: 333G (5.3%, 16,827G)
nedryerson01: 300G (4.7%, 3,807G)
DeathTaxesAndAnime: 200G (3.2%, 5,850G)
Zachara: 200G (3.2%, 59,700G)
getthemoneyz: 180G (2.8%, 567,319G)
ZephyrTempest: 101G (1.6%, 185,492G)
lastly: 100G (1.6%, 3,199G)
datadrivenbot: 100G (1.6%, 2,210G)
