Final Bets: purple - 12 bets for 33,485G (62.4%, x0.60); champion - 29 bets for 20,194G (37.6%, x1.66)

purple bets:
mpghappiness: 28,135G (84.0%, 28,135G)
eudes89: 1,500G (4.5%, 4,353G)
reinoe: 1,000G (3.0%, 10,024G)
ColetteMSLP: 800G (2.4%, 38,510G)
Baron_von_Scrub: 535G (1.6%, 23,809G)
roofiepops: 444G (1.3%, 5,728G)
twelfthrootoftwo: 300G (0.9%, 4,993G)
grayeternity: 300G (0.9%, 604G)
vorap: 200G (0.6%, 40,595G)
ANFz: 121G (0.4%, 51,137G)
rjA0zcOQ96: 100G (0.3%, 12,854G)
poppalockadockin: 50G (0.1%, 1,023G)

champion bets:
edgehead62888: 2,392G (11.8%, 2,392G)
itsdigitalbro: 2,000G (9.9%, 8,434G)
killth3kid: 2,000G (9.9%, 54,061G)
Mesmaster: 2,000G (9.9%, 131,560G)
Anethum: 1,534G (7.6%, 1,534G)
gooseyourself: 1,178G (5.8%, 3,572G)
HaplessOne: 1,111G (5.5%, 5,520G)
Dymntd: 1,000G (5.0%, 10,900G)
ungabunga_bot: 1,000G (5.0%, 467,573G)
EnemyController: 1,000G (5.0%, 226,776G)
Digitalsocrates: 647G (3.2%, 647G)
Evewho: 588G (2.9%, 588G)
InOzWeTrust: 500G (2.5%, 5,243G)
nifboy: 441G (2.2%, 441G)
KasugaiRoastedPeas: 400G (2.0%, 4,895G)
DustBirdEX: 356G (1.8%, 10,660G)
ApplesauceBoss: 308G (1.5%, 308G)
gorgewall: 201G (1.0%, 4,816G)
evdoggity: 200G (1.0%, 4,352G)
BirbBrainsBot: 200G (1.0%, 200G)
NicoSavoy: 200G (1.0%, 8,139G)
rico_flex: 200G (1.0%, 29,572G)
getthemoneyz: 194G (1.0%, 671,532G)
E_Ballard: 100G (0.5%, 4,074G)
DHaveWord: 100G (0.5%, 2,857G)
datadrivenbot: 100G (0.5%, 12,960G)
JIDkomu: 100G (0.5%, 7,865G)
MercurialForge: 100G (0.5%, 100G)
daveb_: 44G (0.2%, 1,909G)
