Final Bets: white - 27 bets for 17,441G (82.4%, x0.21); black - 13 bets for 3,717G (17.6%, x4.69)

white bets:
Shalloween: 3,000G (17.2%, 47,864G)
EnemyController: 1,880G (10.8%, 1,880G)
SkylerBunny: 1,484G (8.5%, 1,484G)
Lanshaft: 1,000G (5.7%, 8,324G)
BirbBrainsBot: 1,000G (5.7%, 106,112G)
bad1dea: 1,000G (5.7%, 317,542G)
ionceateanentirehorse: 1,000G (5.7%, 1,000G)
NovaKnight21: 803G (4.6%, 803G)
fenaen: 618G (3.5%, 618G)
ApplesauceBoss: 611G (3.5%, 611G)
Nizaha: 501G (2.9%, 5,200G)
MrFlabyo: 500G (2.9%, 14,969G)
getthemoneyz: 484G (2.8%, 402,798G)
IndecisiveNinja: 473G (2.7%, 473G)
fenixcrest: 468G (2.7%, 468G)
CorpusCav: 400G (2.3%, 2,898G)
ZephyrTempest: 341G (2.0%, 18,582G)
0utlier: 333G (1.9%, 5,935G)
urieltheflameofgod: 296G (1.7%, 296G)
JumbocactuarX27: 272G (1.6%, 272G)
SlightlyTalonted: 205G (1.2%, 205G)
ugoplatamia: 200G (1.1%, 20,842G)
AllInBot: 172G (1.0%, 172G)
Sairentozon7: 100G (0.6%, 1,416G)
BadBlanket: 100G (0.6%, 3,448G)
Heroebal: 100G (0.6%, 2,217G)
datadrivenbot: 100G (0.6%, 15,491G)

black bets:
inzo_bettingbot: 1,000G (26.9%, 45,533G)
DeathTaxesAndAnime: 496G (13.3%, 496G)
ensiron: 384G (10.3%, 384G)
megaman2202: 372G (10.0%, 372G)
hales_bopp_it: 268G (7.2%, 268G)
mpghappiness: 264G (7.1%, 264G)
Cataphract116: 228G (6.1%, 228G)
KasugaiRoastedPeas: 200G (5.4%, 31,446G)
Valdemarr_: 172G (4.6%, 172G)
MrDiggs49: 128G (3.4%, 128G)
FattyBearsteak: 100G (2.7%, 2,093G)
LordSDB: 100G (2.7%, 6,010G)
ko2q: 5G (0.1%, 1,370G)
