Final Bets: green - 9 bets for 5,156G (31.3%, x2.20); yellow - 12 bets for 11,331G (68.7%, x0.46)

green bets:
IaibOaob: 1,234G (23.9%, 20,825G)
DeathTaxesAndAnime: 1,111G (21.5%, 11,378G)
ZPawZ: 713G (13.8%, 713G)
shs_: 600G (11.6%, 17,715G)
TheMurkGnome: 592G (11.5%, 592G)
JonnyCue: 492G (9.5%, 9,721G)
AllInBot: 200G (3.9%, 200G)
datadrivenbot: 200G (3.9%, 84,644G)
getthemoneyz: 14G (0.3%, 2,217,181G)

yellow bets:
Mushufasa_: 3,000G (26.5%, 36,931G)
Leonidusx: 2,000G (17.7%, 532,882G)
helpimabug: 1,194G (10.5%, 1,194G)
BirbBrainsBot: 1,000G (8.8%, 75,131G)
TheBrett: 1,000G (8.8%, 30,062G)
MemoriesofFinal: 1,000G (8.8%, 4,487G)
DHaveWord: 645G (5.7%, 1,290G)
YowaneHaku: 500G (4.4%, 3,864G)
superdevon1: 388G (3.4%, 1,052G)
xXTysongXx: 204G (1.8%, 204G)
rottings0ul: 200G (1.8%, 1,238G)
NicoSavoy: 200G (1.8%, 168,453G)
