Final Bets: green - 9 bets for 7,112G (17.6%, x4.69); white - 11 bets for 33,328G (82.4%, x0.21)

green bets:
ZPawZ: 2,000G (28.1%, 4,250G)
OneHundredFists: 1,569G (22.1%, 47,412G)
DeathTaxesAndAnime: 1,111G (15.6%, 15,065G)
IaibOaob: 1,111G (15.6%, 24,486G)
TheMurkGnome: 665G (9.4%, 2,261G)
shs_: 200G (2.8%, 17,538G)
datadrivenbot: 200G (2.8%, 85,128G)
getthemoneyz: 156G (2.2%, 2,215,258G)
TheBrett: 100G (1.4%, 30,369G)

white bets:
HaplessOne: 12,565G (37.7%, 12,565G)
Leonidusx: 10,000G (30.0%, 532,037G)
NicoSavoy: 5,000G (15.0%, 171,843G)
YowaneHaku: 1,500G (4.5%, 3,103G)
Mushufasa_: 1,234G (3.7%, 33,089G)
BirbBrainsBot: 1,000G (3.0%, 72,545G)
WireLord: 912G (2.7%, 912G)
gorgewall: 401G (1.2%, 8,375G)
Zachara: 316G (0.9%, 316G)
AllInBot: 200G (0.6%, 200G)
DouglasDragonThePoet: 200G (0.6%, 1,244G)
