Final Bets: blue - 32 bets for 20,123G (78.8%, x0.27); yellow - 13 bets for 5,406G (21.2%, x3.72)

blue bets:
Rislyeu: 2,496G (12.4%, 2,496G)
killth3kid: 2,000G (9.9%, 56,986G)
HaplessOne: 1,234G (6.1%, 13,434G)
Fenrislfr: 1,212G (6.0%, 1,212G)
astrozin11: 1,078G (5.4%, 1,078G)
TrueRhyme: 1,064G (5.3%, 1,064G)
volgrathemoose: 1,001G (5.0%, 16,581G)
Nizaha: 1,001G (5.0%, 13,889G)
Baron_von_Scrub: 1,000G (5.0%, 1,000G)
BirbBrainsBot: 1,000G (5.0%, 168,711G)
alecttox: 1,000G (5.0%, 8,818G)
Odin007_88: 970G (4.8%, 970G)
Dymntd: 500G (2.5%, 7,751G)
ZephyrTempest: 456G (2.3%, 3,909G)
vorap: 408G (2.0%, 34,408G)
rico_flex: 400G (2.0%, 24,863G)
SarrgeQc: 386G (1.9%, 386G)
Cryptopsy70: 384G (1.9%, 39,827G)
ungabunga_bot: 309G (1.5%, 293,787G)
vampyreinabox: 300G (1.5%, 536G)
awokenshard: 300G (1.5%, 710G)
cgMcWhiskers: 244G (1.2%, 244G)
ewan_e: 240G (1.2%, 240G)
dorman_777: 219G (1.1%, 219G)
CoderCalamity: 213G (1.1%, 713G)
eudes89: 108G (0.5%, 108G)
nifboy: 100G (0.5%, 9,060G)
Bioticism: 100G (0.5%, 3,503G)
Triskiut: 100G (0.5%, 550G)
Lythe_Caraker: 100G (0.5%, 119,687G)
Evewho: 100G (0.5%, 5,445G)
datadrivenbot: 100G (0.5%, 11,354G)

yellow bets:
SQUiDSQUARKLIN: 1,238G (22.9%, 1,238G)
jakeduhhsnake: 1,000G (18.5%, 74,271G)
ColetteMSLP: 800G (14.8%, 32,488G)
DeathTaxesAndAnime: 632G (11.7%, 632G)
RestIessNight: 500G (9.2%, 8,271G)
joewcarson: 380G (7.0%, 380G)
twelfthrootoftwo: 300G (5.5%, 6,851G)
maakur_: 100G (1.8%, 113,311G)
ko2q: 100G (1.8%, 3,428G)
CosmicTactician: 100G (1.8%, 12,170G)
docmitchphd: 100G (1.8%, 100G)
DrAntiSocial: 100G (1.8%, 9,979G)
getthemoneyz: 56G (1.0%, 611,787G)
