Final Bets: white - 17 bets for 12,171G (70.9%, x0.41); black - 15 bets for 5,004G (29.1%, x2.43)

white bets:
reinoe: 2,992G (24.6%, 2,992G)
latebit: 1,346G (11.1%, 1,346G)
DeathTaxesAndAnime: 1,108G (9.1%, 1,108G)
BirbBrainsBot: 1,000G (8.2%, 101,170G)
NicoSavoy: 1,000G (8.2%, 49,416G)
mindblownnnn: 1,000G (8.2%, 6,472G)
ser_pyrro: 1,000G (8.2%, 3,906G)
upvla: 777G (6.4%, 10,888G)
Raixelol: 600G (4.9%, 15,876G)
Zagorsek: 420G (3.5%, 420G)
tripaplex: 230G (1.9%, 230G)
mirapoix: 200G (1.6%, 2,417G)
AllInBot: 100G (0.8%, 100G)
BartTradingCompany: 100G (0.8%, 8,355G)
maakur_: 100G (0.8%, 3,464G)
CrazyLou64: 100G (0.8%, 100G)
grishhammer: 98G (0.8%, 989G)

black bets:
resjudicata3: 963G (19.2%, 1,890G)
SkylerBunny: 684G (13.7%, 684G)
technominari: 500G (10.0%, 83,326G)
krombobreaker: 500G (10.0%, 4,296G)
Runeseeker22: 369G (7.4%, 7,397G)
superdevon1: 324G (6.5%, 324G)
LivingHitokiri: 296G (5.9%, 296G)
Smugzug: 272G (5.4%, 435G)
acid_flashback: 254G (5.1%, 5,088G)
datadrivenbot: 200G (4.0%, 61,956G)
getthemoneyz: 176G (3.5%, 1,926,688G)
king_smashington: 166G (3.3%, 166G)
RunicMagus: 100G (2.0%, 12,059G)
VolgraTheMoose: 100G (2.0%, 4,487G)
thebluesman: 100G (2.0%, 339G)
