Final Bets: red - 17 bets for 12,290G (61.1%, x0.64); blue - 16 bets for 7,815G (38.9%, x1.57)

red bets:
mannequ1n: 2,163G (17.6%, 2,163G)
killth3kid: 2,000G (16.3%, 53,867G)
Lionhermit: 1,500G (12.2%, 42,648G)
nifboy: 1,451G (11.8%, 1,451G)
toka222: 1,100G (9.0%, 6,497G)
FNCardascia_: 637G (5.2%, 1,275G)
bahamutlagooon: 500G (4.1%, 1,704G)
EnemyController: 500G (4.1%, 210,782G)
DonCardenio: 500G (4.1%, 23,246G)
ZephyrTempest: 456G (3.7%, 2,226G)
roofiepops: 444G (3.6%, 4,603G)
Cryptopsy70: 404G (3.3%, 6,064G)
ThePineappleSalesman: 200G (1.6%, 27,798G)
Hoffrandexpress: 200G (1.6%, 1,645G)
CandyTamer: 120G (1.0%, 596G)
Sungazes: 100G (0.8%, 495G)
daveb_: 15G (0.1%, 962G)

blue bets:
fenaen: 1,200G (15.4%, 7,052G)
catfashions: 1,000G (12.8%, 40,324G)
leakimiko: 977G (12.5%, 6,516G)
Rislyeu: 737G (9.4%, 1,474G)
Kronikle: 700G (9.0%, 2,352G)
HaateXIII: 608G (7.8%, 608G)
NovaKnight21: 400G (5.1%, 1,900G)
perkisle: 399G (5.1%, 399G)
Grimmace45: 364G (4.7%, 364G)
proper__noun__: 312G (4.0%, 312G)
Bryon_W: 300G (3.8%, 4,931G)
Eyepoor_: 268G (3.4%, 268G)
Zoomopie: 250G (3.2%, 4,213G)
NicoSavoy: 100G (1.3%, 1,441G)
benticore: 100G (1.3%, 5,196G)
datadrivenbot: 100G (1.3%, 14,000G)
