Final Bets: blue - 16 bets for 15,369G (31.7%, x2.15); champion - 34 bets for 33,088G (68.3%, x0.46)

blue bets:
HASTERIOUS: 3,423G (22.3%, 3,423G)
waterwatereverywhere: 3,146G (20.5%, 6,169G)
lijarkh: 1,827G (11.9%, 1,827G)
oogthecaveman: 1,206G (7.8%, 2,412G)
DeathTaxesAndAnime: 1,057G (6.9%, 2,073G)
kai_shee: 1,001G (6.5%, 112,220G)
reinoe: 1,000G (6.5%, 11,087G)
Mrasin: 1,000G (6.5%, 29,100G)
Baron_von_Scrub: 527G (3.4%, 527G)
DarrenDinosaurs: 400G (2.6%, 400G)
DudeMonkey77: 332G (2.2%, 332G)
AllInBot: 100G (0.7%, 100G)
RughSontos: 100G (0.7%, 590G)
KingofTricksters: 100G (0.7%, 100G)
friendsquirrel: 100G (0.7%, 7,971G)
BlinkFS: 50G (0.3%, 2,070G)

champion bets:
sinnyil2: 5,681G (17.2%, 11,363G)
Nizaha: 4,871G (14.7%, 9,742G)
LDSkinny: 2,000G (6.0%, 3,772G)
urieltheflameofgod: 1,618G (4.9%, 1,618G)
JumbocactuarX27: 1,568G (4.7%, 1,568G)
old_overholt_: 1,551G (4.7%, 1,551G)
Shalloween: 1,500G (4.5%, 11,950G)
Wonser: 1,164G (3.5%, 1,164G)
Lanshaft: 1,100G (3.3%, 1,100G)
YaBoy125: 1,100G (3.3%, 1,100G)
Evewho: 1,047G (3.2%, 2,094G)
MantisFinch: 1,000G (3.0%, 7,821G)
JustSuperish: 1,000G (3.0%, 3,852G)
SeedSC: 1,000G (3.0%, 178,679G)
kingchadking: 960G (2.9%, 960G)
Slowbrofist: 784G (2.4%, 784G)
Laserman1000: 751G (2.3%, 15,051G)
BenYuPoker: 657G (2.0%, 1,314G)
roqqqpsi: 522G (1.6%, 2,119G)
Pie108: 500G (1.5%, 10,751G)
Firesheath: 500G (1.5%, 1,024G)
luminarii: 458G (1.4%, 13,138G)
xeurian: 364G (1.1%, 364G)
BirbBrainsBot: 353G (1.1%, 280,400G)
ZephyrTempest: 324G (1.0%, 36,400G)
IndecisiveNinja: 100G (0.3%, 3,894G)
Jerboj: 100G (0.3%, 100G)
Kronikle: 100G (0.3%, 6,605G)
ApplesauceBoss: 100G (0.3%, 5,990G)
datadrivenbot: 100G (0.3%, 26,048G)
maakur_: 100G (0.3%, 2,746G)
godkone: 100G (0.3%, 100G)
daveb_: 10G (0.0%, 1,990G)
ko2q: 5G (0.0%, 1,948G)
