Final Bets: green - 28 bets for 19,744G (67.5%, x0.48); yellow - 19 bets for 9,502G (32.5%, x2.08)

green bets:
Virilikus: 2,000G (10.1%, 234,763G)
TheChainNerd: 1,918G (9.7%, 1,918G)
Digitalsocrates: 1,819G (9.2%, 3,308G)
RaIshtar: 1,805G (9.1%, 1,805G)
sinnyil2: 1,196G (6.1%, 2,392G)
twelfthrootoftwo: 1,187G (6.0%, 2,329G)
lowlf: 1,111G (5.6%, 101,681G)
dogsandcatsand: 1,000G (5.1%, 5,432G)
NIghtdew14: 1,000G (5.1%, 10,655G)
Thyrandaal: 1,000G (5.1%, 43,153G)
VolgraTheMoose: 770G (3.9%, 1,541G)
Aldrammech: 500G (2.5%, 500G)
DarrenDinosaurs: 500G (2.5%, 9,717G)
ColetteMSLP: 500G (2.5%, 11,142G)
fluffskull: 460G (2.3%, 460G)
Laserman1000: 400G (2.0%, 4,400G)
Seaweed_B: 358G (1.8%, 358G)
SephDarkheart: 356G (1.8%, 60,550G)
AllInBot: 289G (1.5%, 289G)
Modoh: 237G (1.2%, 474G)
ZicaX: 236G (1.2%, 2,611G)
thehotrefrigerator: 214G (1.1%, 214G)
gorgewall: 201G (1.0%, 13,685G)
randgridr: 200G (1.0%, 4,632G)
ohhinm: 145G (0.7%, 2,107G)
DaKoopa49: 142G (0.7%, 974G)
ANFz: 100G (0.5%, 37,636G)
Hirameki85: 100G (0.5%, 100G)

yellow bets:
SkylerBunny: 2,000G (21.0%, 41,824G)
reinoe: 1,000G (10.5%, 80,967G)
BirbBrainsBot: 1,000G (10.5%, 197,567G)
Zbgs: 1,000G (10.5%, 6,248G)
E_Ballard: 596G (6.3%, 596G)
Nizaha: 572G (6.0%, 10,140G)
benticore: 500G (5.3%, 27,711G)
SUGRboi: 400G (4.2%, 1,651G)
Miku_Shikhu: 308G (3.2%, 308G)
Xoomwaffle: 304G (3.2%, 304G)
OtherBrand: 300G (3.2%, 1,904G)
RedRiderAyame: 300G (3.2%, 7,465G)
getthemoneyz: 242G (2.5%, 1,338,554G)
Lord_Gwarth: 216G (2.3%, 216G)
arkivegoof: 200G (2.1%, 1,414G)
datadrivenbot: 200G (2.1%, 34,157G)
douchetron: 140G (1.5%, 140G)
Whiskybrave: 124G (1.3%, 124G)
GatsbysGhost: 100G (1.1%, 698G)
