Final Bets: white - 22 bets for 23,576G (59.8%, x0.67); black - 21 bets for 15,871G (40.2%, x1.49)

white bets:
Thyrandaal: 5,000G (21.2%, 42,153G)
NIghtdew14: 4,827G (20.5%, 9,655G)
dogsandcatsand: 2,216G (9.4%, 4,432G)
reinoe: 2,000G (8.5%, 83,045G)
E_Ballard: 1,834G (7.8%, 1,834G)
Digitalsocrates: 1,489G (6.3%, 1,489G)
sinnyil2: 1,196G (5.1%, 1,196G)
BirbBrainsBot: 1,000G (4.2%, 199,645G)
RaIshtar: 512G (2.2%, 512G)
Aldrammech: 500G (2.1%, 500G)
ColetteMSLP: 500G (2.1%, 10,642G)
richardserious: 400G (1.7%, 2,673G)
SephDarkheart: 356G (1.5%, 60,194G)
Cryptopsy70: 324G (1.4%, 324G)
SUGRboi: 300G (1.3%, 2,482G)
athros13: 272G (1.2%, 2,694G)
AllInBot: 200G (0.8%, 200G)
datadrivenbot: 200G (0.8%, 34,573G)
arkivegoof: 150G (0.6%, 1,830G)
ANFz: 100G (0.4%, 37,536G)
OtherBrand: 100G (0.4%, 2,527G)
Miku_Shikhu: 100G (0.4%, 948G)

black bets:
Virilikus: 5,000G (31.5%, 232,763G)
SkylerBunny: 3,000G (18.9%, 45,980G)
twelfthrootoftwo: 1,142G (7.2%, 1,142G)
Xoomwaffle: 936G (5.9%, 936G)
TheChainNerd: 748G (4.7%, 748G)
Lord_Gwarth: 665G (4.2%, 665G)
roofiepops: 555G (3.5%, 2,701G)
DarrenDinosaurs: 500G (3.2%, 9,217G)
fluffskull: 460G (2.9%, 460G)
douchetron: 431G (2.7%, 431G)
Lanshaft: 396G (2.5%, 23,541G)
getthemoneyz: 322G (2.0%, 1,339,057G)
CanniCake: 300G (1.9%, 1,602G)
Treafa: 288G (1.8%, 1,546G)
Seaweed_B: 248G (1.6%, 248G)
ZicaX: 236G (1.5%, 2,375G)
thehotrefrigerator: 204G (1.3%, 204G)
ohhinm: 122G (0.8%, 1,962G)
Modoh: 118G (0.7%, 237G)
GatsbysGhost: 100G (0.6%, 906G)
Hirameki85: 100G (0.6%, 100G)
