Final Bets: red - 16 bets for 12,333G (49.8%, x1.01); blue - 20 bets for 12,414G (50.2%, x0.99)

red bets:
TheChainNerd: 2,994G (24.3%, 5,989G)
NIghtdew14: 2,199G (17.8%, 8,799G)
Tsuike: 1,706G (13.8%, 3,413G)
Theseawolf1: 1,000G (8.1%, 66,837G)
ColetteMSLP: 800G (6.5%, 65,580G)
DavenIII: 600G (4.9%, 600G)
killth3kid: 600G (4.9%, 1,231G)
HaateXIII: 500G (4.1%, 4,411G)
Arcblazer23: 469G (3.8%, 469G)
holyonline: 396G (3.2%, 396G)
WunUP: 369G (3.0%, 369G)
DeathTaxesAndAnime: 300G (2.4%, 1,199G)
Nizaha: 100G (0.8%, 16,101G)
Jeeboheebo: 100G (0.8%, 2,695G)
datadrivenbot: 100G (0.8%, 24,639G)
SerumD: 100G (0.8%, 3,941G)

blue bets:
E_Ballard: 1,789G (14.4%, 1,789G)
DudeMonkey77: 1,726G (13.9%, 1,726G)
nifboy: 1,376G (11.1%, 1,376G)
gooseyourself: 1,139G (9.2%, 2,279G)
BirbBrainsBot: 1,000G (8.1%, 50,813G)
UmaiJam: 1,000G (8.1%, 7,176G)
maakur_: 866G (7.0%, 866G)
Firesheath: 729G (5.9%, 729G)
FriendSquirrel: 535G (4.3%, 535G)
mistblade: 527G (4.2%, 527G)
CorpusCav: 400G (3.2%, 2,900G)
rico_flex: 300G (2.4%, 27,309G)
bruubarg: 250G (2.0%, 1,000G)
AUrato: 200G (1.6%, 14,742G)
benticore: 177G (1.4%, 1,774G)
bluuuuuuuh: 100G (0.8%, 5,227G)
l0rdspug: 100G (0.8%, 861G)
skillomono: 100G (0.8%, 1,613G)
DrAntiSocial: 50G (0.4%, 18,473G)
Seawalker777: 50G (0.4%, 799G)
