Final Bets: green - 19 bets for 15,248G (73.2%, x0.37); yellow - 11 bets for 5,588G (26.8%, x2.73)

green bets:
nifboy: 2,743G (18.0%, 2,743G)
NIghtdew14: 2,000G (13.1%, 6,600G)
rico_flex: 1,500G (9.8%, 27,607G)
Powermhero: 1,300G (8.5%, 8,800G)
JumbocactuarX27: 1,075G (7.1%, 1,075G)
TheChainNerd: 1,000G (6.6%, 2,995G)
Tsuike: 853G (5.6%, 1,707G)
ColetteMSLP: 800G (5.2%, 64,780G)
killth3kid: 600G (3.9%, 631G)
vorap: 500G (3.3%, 77,537G)
HaateXIII: 500G (3.3%, 3,911G)
luminarii: 450G (3.0%, 23,518G)
CorpusCav: 400G (2.6%, 3,297G)
holyonline: 396G (2.6%, 396G)
asherban: 383G (2.5%, 383G)
old_overholt_: 300G (2.0%, 11,794G)
OrganicArtist: 248G (1.6%, 360G)
Firesheath: 100G (0.7%, 453G)
datadrivenbot: 100G (0.7%, 24,539G)

yellow bets:
maakur_: 1,726G (30.9%, 1,726G)
gooseyourself: 1,705G (30.5%, 3,411G)
Baron_von_Scrub: 474G (8.5%, 8,066G)
getthemoneyz: 340G (6.1%, 687,456G)
Drusic: 287G (5.1%, 287G)
BirbBrainsBot: 264G (4.7%, 51,806G)
bruubarg: 248G (4.4%, 248G)
d4rr1n: 218G (3.9%, 2,180G)
WunUP: 176G (3.1%, 176G)
benticore: 100G (1.8%, 1,950G)
Seawalker777: 50G (0.9%, 849G)
