Final Bets: green - 17 bets for 12,550G (53.3%, x0.88); yellow - 13 bets for 10,998G (46.7%, x1.14)

green bets:
AllInBot: 2,571G (20.5%, 2,571G)
mirapoix: 1,192G (9.5%, 1,192G)
Zachara: 1,000G (8.0%, 71,000G)
getthemoneyz: 1,000G (8.0%, 526,975G)
SeedSC: 1,000G (8.0%, 225,756G)
ColetteMSLP: 1,000G (8.0%, 39,088G)
BirbBrainsBot: 909G (7.2%, 58,374G)
alrightbye: 612G (4.9%, 30,623G)
reinoe: 600G (4.8%, 600G)
Laserman1000: 547G (4.4%, 22,847G)
aStatue: 500G (4.0%, 500G)
HaateXIII: 500G (4.0%, 7,636G)
NovaKnight21: 340G (2.7%, 340G)
mastershango: 300G (2.4%, 11,704G)
Estan_AD: 232G (1.8%, 232G)
4shcrows: 147G (1.2%, 147G)
Powermhero: 100G (0.8%, 10,000G)

yellow bets:
Shakarak: 3,000G (27.3%, 6,980G)
R_Raynos: 2,431G (22.1%, 4,767G)
Pochitchi: 1,000G (9.1%, 9,042G)
ungabunga_bot: 1,000G (9.1%, 207,983G)
pandasforsale: 520G (4.7%, 520G)
superdevon1: 500G (4.5%, 3,984G)
EnemyController: 500G (4.5%, 55,531G)
OneHundredFists: 500G (4.5%, 6,533G)
NoNotBees: 454G (4.1%, 454G)
madman66666: 393G (3.6%, 393G)
SacrificialToast: 300G (2.7%, 13,030G)
PotionDweller: 200G (1.8%, 15,591G)
Sogeki_Dan: 200G (1.8%, 1,788G)
