Final Bets: black - 15 bets for 4,827G (17.6%, x4.67); brown - 7 bets for 22,523G (82.4%, x0.21)

black bets:
BirbBrainsBot: 1,000G (20.7%, 78,935G)
UmaiJam: 1,000G (20.7%, 21,368G)
ungabunga_bot: 557G (11.5%, 509,693G)
Evewho: 340G (7.0%, 340G)
thethorndog1: 300G (6.2%, 7,423G)
getthemoneyz: 294G (6.1%, 680,101G)
MalakiGenesys: 250G (5.2%, 766G)
byrdturbo: 222G (4.6%, 11,649G)
AsceticGamer: 200G (4.1%, 1,439G)
otakutaylor: 164G (3.4%, 164G)
ko2q: 100G (2.1%, 4,365G)
Jeeboheebo: 100G (2.1%, 9,600G)
Arbitae: 100G (2.1%, 1,146G)
datadrivenbot: 100G (2.1%, 18,112G)
E_Ballard: 100G (2.1%, 4,696G)

brown bets:
R_Raynos: 19,476G (86.5%, 19,476G)
Digitalsocrates: 816G (3.6%, 2,721G)
BoneMiser: 777G (3.4%, 13,277G)
superdevon1: 650G (2.9%, 16,267G)
Palladigm: 500G (2.2%, 5,062G)
volgrathemoose: 200G (0.9%, 1,410G)
wooyuji: 104G (0.5%, 104G)
