Final Bets: green - 13 bets for 9,257G (24.9%, x3.02); yellow - 12 bets for 27,958G (75.1%, x0.33)

green bets:
nhammen: 3,000G (32.4%, 227,675G)
TheMurkGnome: 1,039G (11.2%, 30,595G)
BirbBrainsBot: 1,000G (10.8%, 136,756G)
Zbgs: 1,000G (10.8%, 9,525G)
gorgewall: 676G (7.3%, 676G)
Aestheta: 592G (6.4%, 592G)
Skjodo: 500G (5.4%, 2,694G)
Rikrizen: 454G (4.9%, 9,085G)
twelfthrootoftwo: 300G (3.2%, 2,067G)
getthemoneyz: 296G (3.2%, 1,565,073G)
AllInBot: 200G (2.2%, 200G)
MinBetBot: 100G (1.1%, 19,870G)
Gyrolin: 100G (1.1%, 516G)

yellow bets:
SkylerBunny: 20,000G (71.5%, 235,681G)
ko2q: 2,500G (8.9%, 5,000G)
DeathTaxesAndAnime: 1,277G (4.6%, 2,504G)
Lydian_C: 1,200G (4.3%, 23,844G)
itskage: 1,003G (3.6%, 10,031G)
rockmem21: 834G (3.0%, 8,348G)
xBizzy: 381G (1.4%, 381G)
vorap: 355G (1.3%, 355G)
puls3evo: 108G (0.4%, 108G)
Rook512: 100G (0.4%, 790G)
BevBear: 100G (0.4%, 100G)
Mechapope1: 100G (0.4%, 4,957G)
