Final Bets: red - 10 bets for 13,122G (84.8%, x0.18); yellow - 6 bets for 2,346G (15.2%, x5.59)

red bets:
skillomono: 4,530G (34.5%, 4,530G)
Adam1949: 3,000G (22.9%, 65,000G)
latebit: 2,542G (19.4%, 4,985G)
SkylerBunny: 1,600G (12.2%, 29,166G)
killth3kid: 520G (4.0%, 520G)
MemoriesofFinal: 329G (2.5%, 329G)
AbandonedHall: 200G (1.5%, 789G)
datadrivenbot: 200G (1.5%, 62,487G)
gorgewall: 101G (0.8%, 18,140G)
AllInBot: 100G (0.8%, 100G)

yellow bets:
Mesmaster: 1,000G (42.6%, 17,814G)
BirbBrainsBot: 646G (27.5%, 47,850G)
chronicdeath: 250G (10.7%, 3,203G)
NicoSavoy: 200G (8.5%, 56,213G)
getthemoneyz: 184G (7.8%, 1,749,188G)
thunderducker: 66G (2.8%, 2,606G)
