Final Bets: green - 16 bets for 15,430G (61.7%, x0.62); yellow - 24 bets for 9,579G (38.3%, x1.61)

green bets:
TheChainNerd: 3,307G (21.4%, 3,307G)
Anasetsuken: 2,946G (19.1%, 2,946G)
CorpusCav: 1,494G (9.7%, 1,494G)
Evewho: 1,000G (6.5%, 17,527G)
OneHundredFists: 1,000G (6.5%, 24,579G)
FriendSquirrel: 983G (6.4%, 983G)
DeathTaxesAndAnime: 956G (6.2%, 956G)
Kalabain: 900G (5.8%, 49,378G)
Sairentozon7: 630G (4.1%, 630G)
CosmicTactician: 500G (3.2%, 28,004G)
HASTERIOUS: 488G (3.2%, 488G)
aeonicvector: 356G (2.3%, 356G)
ColetteMSLP: 355G (2.3%, 355G)
beowulfrulez: 304G (2.0%, 304G)
Baron_von_Scrub: 111G (0.7%, 46,389G)
Firesheath: 100G (0.6%, 4,842G)

yellow bets:
toka222: 1,680G (17.5%, 76,507G)
pandasforsale: 939G (9.8%, 939G)
Kronikle: 700G (7.3%, 18,117G)
Laserman1000: 700G (7.3%, 29,500G)
Cryptopsy70: 520G (5.4%, 10,592G)
VolgraTheMoose: 512G (5.3%, 39,050G)
BlackFireUK: 500G (5.2%, 18,388G)
mpghappiness: 476G (5.0%, 476G)
DLJuggernaut: 472G (4.9%, 472G)
getthemoneyz: 408G (4.3%, 898,701G)
BirbBrainsBot: 388G (4.1%, 99,350G)
Nohurty: 378G (3.9%, 756G)
Bilabrin: 340G (3.5%, 340G)
cam_ATS: 284G (3.0%, 284G)
benticore: 250G (2.6%, 1,265G)
CaptainGarlock: 232G (2.4%, 232G)
AllInBot: 100G (1.0%, 100G)
J_MacC1991: 100G (1.0%, 100G)
E_Ballard: 100G (1.0%, 4,934G)
RunicMagus: 100G (1.0%, 49,428G)
Miku_Shikhu: 100G (1.0%, 17,143G)
Digitalsocrates: 100G (1.0%, 5,509G)
datadrivenbot: 100G (1.0%, 35,782G)
Kellios11: 100G (1.0%, 12,413G)
