Final Bets: black - 40 bets for 15,473G (53.3%, x0.88); champion - 24 bets for 13,560G (46.7%, x1.14)

black bets:
LASERJESUS1337: 2,000G (12.9%, 44,331G)
Laserman1000: 1,354G (8.8%, 1,354G)
Shakarak: 1,030G (6.7%, 1,030G)
EnemyController: 1,000G (6.5%, 22,370G)
DeathTaxesAndAnime: 857G (5.5%, 857G)
Maldoree: 828G (5.4%, 828G)
FuManXou: 797G (5.2%, 797G)
volgrathemoose: 500G (3.2%, 3,043G)
MrDiggs49: 500G (3.2%, 7,406G)
Panushenko: 449G (2.9%, 449G)
BirbBrainsBot: 435G (2.8%, 68,123G)
cheesetacular: 433G (2.8%, 433G)
evdoggity: 400G (2.6%, 2,223G)
bad1dea: 400G (2.6%, 293,841G)
fenaen: 352G (2.3%, 352G)
ApplesauceBoss: 336G (2.2%, 336G)
TheGuesty: 311G (2.0%, 5,511G)
mirapoix: 300G (1.9%, 5,627G)
KasugaiRoastedPeas: 299G (1.9%, 28,707G)
Rastanar: 244G (1.6%, 244G)
fenixcrest: 242G (1.6%, 4,851G)
ZephyrTempest: 211G (1.4%, 14,966G)
RunicMagus: 200G (1.3%, 21,038G)
lijarkh: 200G (1.3%, 1,088G)
ELzukkor: 200G (1.3%, 3,125G)
ig_ats: 184G (1.2%, 184G)
TheRobbieRobster: 144G (0.9%, 144G)
Nanovolt: 142G (0.9%, 142G)
Conome: 116G (0.7%, 116G)
Vyroxe: 108G (0.7%, 108G)
Lythe_Caraker: 100G (0.6%, 46,510G)
Sairentozon7: 100G (0.6%, 775G)
evolvingdev: 100G (0.6%, 2,605G)
astrozin11: 100G (0.6%, 7,786G)
powergems: 100G (0.6%, 7,110G)
datadrivenbot: 100G (0.6%, 17,732G)
GrayGhostGaming: 100G (0.6%, 792G)
ANFz: 100G (0.6%, 22,875G)
KaLam1ty: 100G (0.6%, 5,031G)
RughSontos: 1G (0.0%, 4,767G)

champion bets:
TheMurkGnome: 2,000G (14.7%, 7,368G)
sinnyil2: 1,925G (14.2%, 3,850G)
maakur_: 1,262G (9.3%, 1,262G)
Lodrak: 1,001G (7.4%, 11,723G)
SkylerBunny: 1,000G (7.4%, 8,884G)
SeraphPDH: 1,000G (7.4%, 8,850G)
NovaKnight21: 634G (4.7%, 634G)
Lanshaft: 600G (4.4%, 1,874G)
HaateXIII: 548G (4.0%, 548G)
SleepyBenzo: 500G (3.7%, 1,365G)
nomoment: 500G (3.7%, 23,784G)
Axelrod: 422G (3.1%, 42,213G)
luminarii: 350G (2.6%, 7,550G)
ZicaX: 300G (2.2%, 2,149G)
Baron_von_Scrub: 276G (2.0%, 276G)
Chuckolator: 235G (1.7%, 6,537G)
Yasmosis: 200G (1.5%, 4,340G)
ugoplatamia: 183G (1.3%, 917G)
NytFantom: 120G (0.9%, 120G)
Generalunderdog: 104G (0.8%, 147G)
Basmal: 100G (0.7%, 38,879G)
Alc_Trinity: 100G (0.7%, 27,837G)
chronoxtrigger: 100G (0.7%, 3,973G)
Mechapope1: 100G (0.7%, 3,237G)
