Final Bets: red - 19 bets for 11,144G (72.8%, x0.37); blue - 12 bets for 4,161G (27.2%, x2.68)

red bets:
Mesmaster: 2,000G (17.9%, 12,826G)
DeathTaxesAndAnime: 1,032G (9.3%, 1,032G)
BirbBrainsBot: 1,000G (9.0%, 76,667G)
Lord_Gwarth: 1,000G (9.0%, 19,847G)
Sairentozon7: 1,000G (9.0%, 81,420G)
Sharosa: 689G (6.2%, 689G)
CosmicTactician: 595G (5.3%, 595G)
NicoSavoy: 548G (4.9%, 548G)
roofiepops: 536G (4.8%, 536G)
Evewho: 500G (4.5%, 6,120G)
Deeps_one: 500G (4.5%, 2,712G)
FE34923: 300G (2.7%, 2,481G)
QuestMoreLand: 269G (2.4%, 269G)
2b_yorha_b: 250G (2.2%, 8,979G)
Aaron2Nerdy: 224G (2.0%, 224G)
gorgewall: 201G (1.8%, 5,556G)
ValensEXP_: 200G (1.8%, 6,927G)
datadrivenbot: 200G (1.8%, 83,045G)
scsuperstar: 100G (0.9%, 5,193G)

blue bets:
reinoe: 728G (17.5%, 728G)
Firesheath: 640G (15.4%, 640G)
AllInBot: 593G (14.3%, 593G)
Zeroroute: 555G (13.3%, 3,965G)
bigbongsmoker: 316G (7.6%, 5,611G)
Meta_Five: 300G (7.2%, 759G)
Rune339: 268G (6.4%, 268G)
MoonSugarFiend: 248G (6.0%, 32,183G)
getthemoneyz: 190G (4.6%, 2,164,534G)
Lydian_C: 123G (3.0%, 11,539G)
ANFz: 100G (2.4%, 7,924G)
AbandonedHall: 100G (2.4%, 1,043G)
