Final Bets: red - 17 bets for 10,461G (77.8%, x0.28); blue - 6 bets for 2,978G (22.2%, x3.51)

red bets:
Shalloween: 2,000G (19.1%, 13,237G)
VolgraTheMoose: 1,338G (12.8%, 1,338G)
Thyrandaal: 1,000G (9.6%, 235,757G)
nhammen: 1,000G (9.6%, 27,587G)
dogsandcatsand: 784G (7.5%, 784G)
SkylerBunny: 704G (6.7%, 704G)
Mesmaster: 596G (5.7%, 596G)
Lanshaft: 588G (5.6%, 7,008G)
bruubarg: 520G (5.0%, 520G)
Laserman1000: 500G (4.8%, 10,200G)
Lumberinjack: 300G (2.9%, 5,423G)
itskage: 296G (2.8%, 2,967G)
roqqqpsi: 260G (2.5%, 5,214G)
datadrivenbot: 200G (1.9%, 65,231G)
mattcorn7: 175G (1.7%, 175G)
CosmicTactician: 100G (1.0%, 20,083G)
Valgram: 100G (1.0%, 1,249G)

blue bets:
getthemoneyz: 1,000G (33.6%, 1,642,437G)
Forkmore: 512G (17.2%, 512G)
brokenknight201: 500G (16.8%, 12,743G)
BirbBrainsBot: 486G (16.3%, 159,923G)
Chuckolator: 380G (12.8%, 380G)
AllInBot: 100G (3.4%, 100G)
