Final Bets: red - 14 bets for 7,823G (53.5%, x0.87); black - 11 bets for 6,788G (46.5%, x1.15)

red bets:
Shalloween: 2,000G (25.6%, 14,779G)
SkylerBunny: 1,536G (19.6%, 3,013G)
ArrenJevleth: 1,000G (12.8%, 5,443G)
dogsandcatsand: 596G (7.6%, 596G)
Lanshaft: 588G (7.5%, 8,672G)
SephDarkheart: 576G (7.4%, 113,237G)
Lumberinjack: 500G (6.4%, 5,728G)
itskage: 304G (3.9%, 3,049G)
datadrivenbot: 200G (2.6%, 64,881G)
roofiepops: 123G (1.6%, 4,208G)
nifboy: 100G (1.3%, 6,303G)
ANFz: 100G (1.3%, 2,650G)
CosmicTactician: 100G (1.3%, 20,111G)
douchetron: 100G (1.3%, 4,171G)

black bets:
reinoe: 2,000G (29.5%, 205,363G)
BirbBrainsBot: 1,000G (14.7%, 158,758G)
nhammen: 1,000G (14.7%, 28,980G)
Tarheels218: 500G (7.4%, 1,998G)
nekojin: 488G (7.2%, 11,449G)
Zbgs: 488G (7.2%, 488G)
Mesmaster: 436G (6.4%, 436G)
Chuckolator: 380G (5.6%, 380G)
Kellios11: 200G (2.9%, 27,858G)
getthemoneyz: 196G (2.9%, 1,640,759G)
AllInBot: 100G (1.5%, 100G)
