Final Bets: white - 20 bets for 18,909G (53.0%, x0.89); black - 10 bets for 16,752G (47.0%, x1.13)

white bets:
ko2q: 3,977G (21.0%, 7,955G)
latebit: 3,118G (16.5%, 51,982G)
bigbongsmoker: 2,275G (12.0%, 22,753G)
Nizaha: 2,000G (10.6%, 10,425G)
HaateXIII: 1,222G (6.5%, 1,222G)
BirbBrainsBot: 1,000G (5.3%, 46,277G)
resjudicata3: 915G (4.8%, 915G)
kononeko: 869G (4.6%, 869G)
Smashy: 676G (3.6%, 676G)
krombobreaker: 500G (2.6%, 16,602G)
JonnyCue: 500G (2.6%, 6,904G)
SephDarkheart: 428G (2.3%, 6,027G)
AllInBot: 335G (1.8%, 335G)
getthemoneyz: 316G (1.7%, 2,091,686G)
datadrivenbot: 200G (1.1%, 80,027G)
TheBrett: 174G (0.9%, 174G)
baumgrattler: 104G (0.6%, 104G)
maakur_: 100G (0.5%, 8,791G)
Girfred: 100G (0.5%, 100G)
bringmoreknives: 100G (0.5%, 3,684G)

black bets:
Rytor: 12,741G (76.1%, 25,482G)
Lythe_Caraker: 748G (4.5%, 748G)
DLJuggernaut: 600G (3.6%, 600G)
Snowfats: 583G (3.5%, 583G)
joewcarson: 500G (3.0%, 5,209G)
holdenmagronik: 468G (2.8%, 620G)
mizzmoonshine: 342G (2.0%, 342G)
Smugzug: 320G (1.9%, 320G)
CapnChaos12: 300G (1.8%, 6,474G)
Lord_Gwarth: 150G (0.9%, 2,030G)
