Final Bets: red - 14 bets for 11,285G (29.9%, x2.34); blue - 26 bets for 26,451G (70.1%, x0.43)

red bets:
alrightbye: 3,000G (26.6%, 54,030G)
WireLord: 2,000G (17.7%, 54,650G)
Shakarak: 1,877G (16.6%, 1,877G)
BirbBrainsBot: 1,000G (8.9%, 1,933G)
gooseyourself: 1,000G (8.9%, 11,577G)
getthemoneyz: 578G (5.1%, 516,947G)
TrogdorTheMemeinator: 524G (4.6%, 524G)
ZephyrTempest: 302G (2.7%, 159,125G)
TheMurkGnome: 300G (2.7%, 2,326G)
CT_5_Holy: 200G (1.8%, 7,651G)
Realitydown: 200G (1.8%, 1,902G)
gloomdog: 104G (0.9%, 104G)
Firesheath: 100G (0.9%, 11,090G)
timthehoodie: 100G (0.9%, 6,027G)

blue bets:
Tougou: 9,066G (34.3%, 9,066G)
leakimiko: 3,239G (12.2%, 32,397G)
Lydian_C: 2,400G (9.1%, 112,897G)
sinnyil2: 1,500G (5.7%, 59,695G)
HaplessOne: 1,500G (5.7%, 87,369G)
SkylerBunny: 1,200G (4.5%, 75,690G)
ThePuss: 1,172G (4.4%, 2,345G)
ungabunga_bot: 1,000G (3.8%, 179,139G)
Meanderandreturn: 800G (3.0%, 3,345G)
Laserman1000: 559G (2.1%, 23,959G)
Nizaha: 501G (1.9%, 8,581G)
potgodtopdog: 500G (1.9%, 1,744G)
Evewho: 500G (1.9%, 6,184G)
sage_the_kitsune: 346G (1.3%, 346G)
Tetsuwan_Melty: 346G (1.3%, 346G)
ndubya: 346G (1.3%, 346G)
Irondynamics: 300G (1.1%, 2,265G)
ericzubat: 208G (0.8%, 208G)
Lavatis: 200G (0.8%, 2,025G)
TheUnforgivenRage: 168G (0.6%, 168G)
AllInBot: 100G (0.4%, 100G)
datadrivenbot: 100G (0.4%, 569G)
twelfthrootoftwo: 100G (0.4%, 3,208G)
gorgewall: 100G (0.4%, 1,788G)
HokTuey: 100G (0.4%, 2,611G)
CapnChaos12: 100G (0.4%, 36,407G)
