Final Bets: red - 22 bets for 12,457G (70.9%, x0.41); blue - 14 bets for 5,119G (29.1%, x2.43)

red bets:
Bryon_W: 3,780G (30.3%, 3,780G)
TheChainNerd: 1,432G (11.5%, 14,329G)
WinnerBit: 1,105G (8.9%, 1,105G)
RongRongArts: 1,000G (8.0%, 3,320G)
z32o: 920G (7.4%, 1,804G)
HaplessOne: 790G (6.3%, 27,370G)
commandlistfgc: 500G (4.0%, 5,652G)
truestrike: 500G (4.0%, 789G)
PatSouI: 487G (3.9%, 487G)
MoonSlayerRS: 388G (3.1%, 388G)
DHaveWord: 288G (2.3%, 288G)
thaetreis: 256G (2.1%, 256G)
amadmet: 200G (1.6%, 5,905G)
MajikNinja44: 104G (0.8%, 104G)
wackyzachyy: 104G (0.8%, 104G)
PlatinumPlume: 100G (0.8%, 3,342G)
maakur_: 100G (0.8%, 55,702G)
Aneyus: 100G (0.8%, 12,392G)
Maeveen: 100G (0.8%, 7,503G)
datadrivenbot: 100G (0.8%, 13,128G)
Ophiala: 100G (0.8%, 108G)
daveb_: 3G (0.0%, 1,355G)

blue bets:
BirbBrainsBot: 1,000G (19.5%, 200,731G)
bad1dea: 1,000G (19.5%, 189,774G)
kai_shee: 1,000G (19.5%, 42,731G)
snkey: 500G (9.8%, 32,211G)
ColetteMSLP: 300G (5.9%, 9,519G)
readdesert: 289G (5.6%, 289G)
getthemoneyz: 280G (5.5%, 352,206G)
puls3evo: 200G (3.9%, 200G)
CassiePhoenix: 128G (2.5%, 128G)
ungabunga_bot: 100G (2.0%, 179G)
Jordache7K: 100G (2.0%, 14,277G)
Treapvort: 100G (2.0%, 3,265G)
DejaPoo21: 100G (2.0%, 22,198G)
roqqqpsi: 22G (0.4%, 1,154G)
