Final Bets: purple - 16 bets for 8,082G (49.1%, x1.04); brown - 19 bets for 8,385G (50.9%, x0.96)

purple bets:
TheChainNerd: 1,381G (17.1%, 13,814G)
getthemoneyz: 1,000G (12.4%, 352,316G)
Lord_Burrah: 1,000G (12.4%, 76,856G)
DavenIII: 830G (10.3%, 1,086G)
leakimiko: 820G (10.1%, 16,405G)
z32o: 613G (7.6%, 2,360G)
DejaPoo21: 500G (6.2%, 22,098G)
genoguy: 500G (6.2%, 2,687G)
ThePineappleSalesman: 388G (4.8%, 388G)
wackyzachyy: 361G (4.5%, 361G)
roqqqpsi: 222G (2.7%, 888G)
satystar: 136G (1.7%, 136G)
ko2q: 129G (1.6%, 129G)
ungabunga_bot: 100G (1.2%, 129G)
inzo24: 100G (1.2%, 100G)
daveb_: 2G (0.0%, 1,359G)

brown bets:
PatSouI: 1,686G (20.1%, 1,686G)
BirbBrainsBot: 1,000G (11.9%, 200,925G)
bad1dea: 1,000G (11.9%, 189,968G)
kai_shee: 1,000G (11.9%, 41,020G)
megaman2202: 693G (8.3%, 34,685G)
Bryon_W: 500G (6.0%, 5,477G)
MoonSlayerRS: 343G (4.1%, 343G)
Humble_Fabio: 333G (4.0%, 690G)
rechaun: 264G (3.1%, 264G)
thaetreis: 256G (3.1%, 256G)
readdesert: 252G (3.0%, 252G)
ZephyrTempest: 223G (2.7%, 12,088G)
commandlistfgc: 200G (2.4%, 5,155G)
CassiePhoenix: 165G (2.0%, 165G)
maakur_: 100G (1.2%, 55,862G)
wodthehunter: 100G (1.2%, 784G)
datadrivenbot: 100G (1.2%, 13,288G)
RongRongArts: 100G (1.2%, 2,136G)
WinnerBit: 70G (0.8%, 1,554G)
