Final Bets: red - 13 bets for 11,699G (43.5%, x1.30); blue - 27 bets for 15,177G (56.5%, x0.77)

red bets:
DLJuggernaut: 3,995G (34.1%, 7,835G)
nifboy: 1,148G (9.8%, 1,148G)
Musashi45: 1,000G (8.5%, 2,836G)
pepperbuster: 1,000G (8.5%, 19,700G)
Leonidusx: 1,000G (8.5%, 292,781G)
killth3kid: 796G (6.8%, 39,531G)
CosmicTactician: 500G (4.3%, 3,719G)
JonnyCue: 500G (4.3%, 14,654G)
lotharek: 500G (4.3%, 4,005G)
bigbongsmoker: 404G (3.5%, 7,091G)
Runeseeker22: 400G (3.4%, 8,017G)
Lolthsmeat: 300G (2.6%, 300G)
AbandonedHall: 156G (1.3%, 156G)

blue bets:
Forkmore: 2,430G (16.0%, 2,430G)
dogsandcatsand: 1,693G (11.2%, 1,693G)
Nizaha: 1,654G (10.9%, 6,616G)
latebit: 1,084G (7.1%, 108,442G)
BirbBrainsBot: 1,000G (6.6%, 148,822G)
Lord_Burrah: 1,000G (6.6%, 177,000G)
getthemoneyz: 892G (5.9%, 2,129,273G)
Willjin: 600G (4.0%, 24,233G)
KingofTricksters: 590G (3.9%, 590G)
Lord_Gwarth: 388G (2.6%, 388G)
HorusTaurus: 360G (2.4%, 360G)
tinytittyfiend: 332G (2.2%, 332G)
Lythe_Caraker: 312G (2.1%, 312G)
CapnChaos12: 300G (2.0%, 4,168G)
lyonslegacy: 300G (2.0%, 14,528G)
xGlaive: 250G (1.6%, 1,407G)
scsuperstar: 248G (1.6%, 248G)
TheBrett: 244G (1.6%, 9,348G)
AllInBot: 200G (1.3%, 200G)
DuPlatypus: 200G (1.3%, 781G)
datadrivenbot: 200G (1.3%, 80,283G)
khelor_: 200G (1.3%, 3,971G)
Legionx13: 200G (1.3%, 10,549G)
russell2x: 200G (1.3%, 12,114G)
Sharosa: 100G (0.7%, 1,148G)
maakur_: 100G (0.7%, 5,699G)
GeNoFPaniC: 100G (0.7%, 100G)
