Final Bets: white - 17 bets for 6,787G (29.2%, x2.43); black - 19 bets for 16,477G (70.8%, x0.41)

white bets:
Aldrammech: 1,000G (14.7%, 23,088G)
ungabunga_bot: 1,000G (14.7%, 327,956G)
HaateXIII: 874G (12.9%, 1,749G)
SarrgeQc: 680G (10.0%, 680G)
TheUnforgivenRage: 517G (7.6%, 517G)
ZephyrTempest: 456G (6.7%, 5,315G)
BirbBrainsBot: 398G (5.9%, 398G)
Rislyeu: 384G (5.7%, 384G)
corpus11: 330G (4.9%, 330G)
TheMM42: 200G (2.9%, 7,389G)
CT_5_Holy: 200G (2.9%, 528G)
getthemoneyz: 178G (2.6%, 609,867G)
VarkilTV: 150G (2.2%, 319G)
RestIessNight: 116G (1.7%, 116G)
Bloody_Nips: 104G (1.5%, 104G)
nifboy: 100G (1.5%, 4,599G)
LorianFaust: 100G (1.5%, 2,493G)

black bets:
DeathTaxesAndAnime: 5,242G (31.8%, 5,242G)
evontno: 2,500G (15.2%, 10,597G)
Shalloween: 2,230G (13.5%, 2,230G)
Pie108: 2,000G (12.1%, 162,290G)
Lionhermit: 1,000G (6.1%, 37,242G)
Laserman1000: 800G (4.9%, 91,092G)
luminarii: 600G (3.6%, 13,714G)
roofiepops: 444G (2.7%, 24,196G)
KasugaiRoastedPeas: 400G (2.4%, 5,103G)
RunicMagus: 200G (1.2%, 52,427G)
Rastanar: 200G (1.2%, 13,100G)
Setdevildog: 150G (0.9%, 1,042G)
byrdturbo: 111G (0.7%, 10,015G)
maakur_: 100G (0.6%, 119,067G)
kaidykat: 100G (0.6%, 1,378G)
Lali_Lulelo: 100G (0.6%, 33,154G)
frozentomato: 100G (0.6%, 1,286G)
datadrivenbot: 100G (0.6%, 12,559G)
Majatok: 100G (0.6%, 100G)
