Final Bets: green - 12 bets for 13,345G (60.6%, x0.65); yellow - 12 bets for 8,662G (39.4%, x1.54)

green bets:
reinoe: 5,000G (37.5%, 43,122G)
gorgewall: 2,139G (16.0%, 2,139G)
tripaplex: 1,000G (7.5%, 3,454G)
Smashy: 844G (6.3%, 844G)
seppu777: 777G (5.8%, 10,659G)
krombobreaker: 700G (5.2%, 8,319G)
ericzubat: 700G (5.2%, 32,961G)
ValensEXP_: 653G (4.9%, 653G)
killth3kid: 628G (4.7%, 2,012G)
silentkaster: 416G (3.1%, 416G)
akash7: 288G (2.2%, 12,688G)
datadrivenbot: 200G (1.5%, 72,772G)

yellow bets:
thunderducker: 2,000G (23.1%, 13,287G)
OneHundredFists: 1,570G (18.1%, 3,079G)
DeathTaxesAndAnime: 1,332G (15.4%, 1,332G)
BirbBrainsBot: 1,000G (11.5%, 47,194G)
roofiepops: 968G (11.2%, 968G)
nhammen: 500G (5.8%, 261,887G)
3ngag3: 372G (4.3%, 10,872G)
ColetteMSLP: 300G (3.5%, 3,593G)
AllInBot: 200G (2.3%, 200G)
Genkidou: 192G (2.2%, 2,408G)
getthemoneyz: 120G (1.4%, 2,038,692G)
kilrazin: 108G (1.2%, 108G)
