Final Bets: white - 12 bets for 9,907G (40.3%, x1.48); champion - 16 bets for 14,647G (59.7%, x0.68)

white bets:
douchetron: 3,662G (37.0%, 3,662G)
formalhault_: 2,012G (20.3%, 2,012G)
Chihuahua_Charity: 1,300G (13.1%, 9,458G)
nhammen: 1,000G (10.1%, 270,358G)
roofiepops: 468G (4.7%, 468G)
ValensEXP_: 372G (3.8%, 1,901G)
silentkaster: 304G (3.1%, 1,504G)
DanielRKnealeArt: 300G (3.0%, 1,589G)
killabandaid: 252G (2.5%, 252G)
galkife: 100G (1.0%, 79,032G)
Firesheath: 100G (1.0%, 1,812G)
Lord_Gwarth: 37G (0.4%, 2,733G)

champion bets:
thunderducker: 4,000G (27.3%, 16,561G)
seppu777: 3,333G (22.8%, 12,119G)
Shalloween: 1,000G (6.8%, 17,865G)
iBardic: 1,000G (6.8%, 18,417G)
BirbBrainsBot: 1,000G (6.8%, 46,903G)
akash7: 870G (5.9%, 12,870G)
khelor_: 740G (5.1%, 740G)
krombobreaker: 700G (4.8%, 8,197G)
Laserman1000: 600G (4.1%, 24,700G)
technominari: 500G (3.4%, 81,733G)
ColetteMSLP: 300G (2.0%, 4,257G)
AllInBot: 200G (1.4%, 200G)
datadrivenbot: 200G (1.4%, 72,820G)
chrisk103: 100G (0.7%, 100G)
DAC169: 100G (0.7%, 3,526G)
getthemoneyz: 4G (0.0%, 2,038,401G)
