Final Bets: blue - 14 bets for 7,847G (36.1%, x1.77); green - 19 bets for 13,894G (63.9%, x0.56)

blue bets:
AllInBot: 2,193G (27.9%, 2,193G)
RaIshtar: 1,500G (19.1%, 8,229G)
jakeduhhsnake: 1,000G (12.7%, 4,618G)
HungryHungryHippoman: 1,000G (12.7%, 1,000G)
EnemyController: 500G (6.4%, 428,879G)
Grandlanzer: 300G (3.8%, 9,238G)
Polygamic: 300G (3.8%, 2,702G)
nifboy: 250G (3.2%, 15,772G)
docmitchphd: 204G (2.6%, 204G)
bokurakira: 200G (2.5%, 200G)
gr8keeper: 100G (1.3%, 1,667G)
regios91: 100G (1.3%, 856G)
Kyune: 100G (1.3%, 30,600G)
AlenaZarek: 100G (1.3%, 38,870G)

green bets:
ExecutedGiraffe: 2,928G (21.1%, 2,928G)
Mesmaster: 2,000G (14.4%, 99,490G)
roofiepops: 1,400G (10.1%, 17,374G)
Meta_Five: 1,000G (7.2%, 21,375G)
argentbast: 1,000G (7.2%, 2,368G)
BirbBrainsBot: 1,000G (7.2%, 21,358G)
E_Ballard: 866G (6.2%, 866G)
Oobs56: 500G (3.6%, 6,364G)
volgrathemoose: 500G (3.6%, 1,470G)
aznwanderor: 426G (3.1%, 426G)
Rislyeu: 420G (3.0%, 420G)
getthemoneyz: 408G (2.9%, 745,805G)
serperemagus: 300G (2.2%, 300G)
bruubarg: 272G (2.0%, 272G)
DAC169: 250G (1.8%, 730G)
CandyTamer: 248G (1.8%, 248G)
rednecknazgul: 176G (1.3%, 176G)
Firesheath: 100G (0.7%, 2,516G)
datadrivenbot: 100G (0.7%, 26,901G)
