Final Bets: white - 7 bets for 2,076G (23.2%, x3.31); brown - 14 bets for 6,864G (76.8%, x0.30)

white bets:
superdevon1: 747G (36.0%, 2,991G)
Neech: 324G (15.6%, 1,583G)
CorpusCav: 300G (14.5%, 6,217G)
adellraynes: 233G (11.2%, 233G)
PuzzleSecretary: 212G (10.2%, 1,044G)
AllInBot: 200G (9.6%, 200G)
getthemoneyz: 60G (2.9%, 2,023,767G)

brown bets:
DeathTaxesAndAnime: 1,141G (16.6%, 1,141G)
BirbBrainsBot: 1,000G (14.6%, 190,173G)
otakutaylor: 678G (9.9%, 678G)
gilgamensche: 636G (9.3%, 636G)
Raixelol: 600G (8.7%, 12,668G)
upvla: 600G (8.7%, 600G)
OneHundredFists: 520G (7.6%, 520G)
gingerfoo69: 500G (7.3%, 7,923G)
thunderducker: 500G (7.3%, 1,496G)
khelor_: 200G (2.9%, 6,336G)
datadrivenbot: 200G (2.9%, 71,498G)
Lydian_C: 123G (1.8%, 6,305G)
Aeriyah: 116G (1.7%, 116G)
kilrazin: 50G (0.7%, 234G)
