Final Bets: red - 7 bets for 3,269G (45.0%, x1.22); blue - 6 bets for 4,002G (55.0%, x0.82)

red bets:
klefelix: 1,318G (40.3%, 1,318G)
Laserman1000: 611G (18.7%, 24,911G)
lowlf: 392G (12.0%, 11,680G)
Cryptopsy70: 328G (10.0%, 328G)
Mushufasa_: 300G (9.2%, 3,164G)
datadrivenbot: 200G (6.1%, 66,252G)
bokurakira: 120G (3.7%, 120G)

blue bets:
DeathTaxesAndAnime: 1,470G (36.7%, 1,470G)
BirbBrainsBot: 1,000G (25.0%, 21,896G)
DustBirdEX: 972G (24.3%, 972G)
thunderducker: 312G (7.8%, 312G)
AllInBot: 148G (3.7%, 148G)
RonaldoTheGypsy: 100G (2.5%, 1,262G)
