Final Bets: blue - 14 bets for 7,690G (59.8%, x0.67); yellow - 7 bets for 5,160G (40.2%, x1.49)

blue bets:
dogsandcatsand: 2,431G (31.6%, 4,768G)
killth3kid: 1,000G (13.0%, 95,365G)
BirbBrainsBot: 1,000G (13.0%, 150,877G)
RaIshtar: 800G (10.4%, 10,177G)
ShintaroNayaka: 500G (6.5%, 9,754G)
gorgewall: 301G (3.9%, 14,678G)
ArashiKurobara: 300G (3.9%, 6,455G)
Grandlanzer: 300G (3.9%, 62,582G)
serperemagus: 250G (3.3%, 11,358G)
winteriscorning: 208G (2.7%, 208G)
ar_tactic: 200G (2.6%, 67,181G)
datadrivenbot: 200G (2.6%, 60,476G)
nsm013: 100G (1.3%, 8,484G)
TasisSai: 100G (1.3%, 518G)

yellow bets:
DeathTaxesAndAnime: 1,208G (23.4%, 1,208G)
randgridr: 1,032G (20.0%, 1,032G)
TheChainNerd: 1,000G (19.4%, 32,216G)
SkylerBunny: 820G (15.9%, 820G)
Gelwain: 680G (13.2%, 6,809G)
Mysteriousdewd: 400G (7.8%, 3,986G)
getthemoneyz: 20G (0.4%, 1,225,835G)
