Final Bets: white - 10 bets for 10,952G (52.8%, x0.89); brown - 20 bets for 9,779G (47.2%, x1.12)

white bets:
NicoSavoy: 5,000G (45.7%, 33,375G)
metagameface: 3,000G (27.4%, 24,167G)
Mesmaster: 1,000G (9.1%, 52,692G)
E_Ballard: 600G (5.5%, 600G)
turquoise_mage: 400G (3.7%, 5,258G)
electric_glass: 300G (2.7%, 12,355G)
timthehoodie: 250G (2.3%, 2,581G)
KasugaiRoastedPeas: 200G (1.8%, 5,079G)
ungabunga_bot: 102G (0.9%, 484,106G)
ANFz: 100G (0.9%, 3,366G)

brown bets:
roofiepops: 1,444G (14.8%, 16,042G)
BirbBrainsBot: 1,000G (10.2%, 35,471G)
CorpusCav: 1,000G (10.2%, 6,000G)
Lionhermit: 1,000G (10.2%, 45,036G)
CapnChaos12: 950G (9.7%, 950G)
WireLord: 885G (9.1%, 885G)
EnemyController: 500G (5.1%, 237,160G)
twelfthrootoftwo: 500G (5.1%, 10,096G)
Dymntd: 500G (5.1%, 8,303G)
rico_flex: 500G (5.1%, 21,588G)
Arcblazer23: 378G (3.9%, 378G)
Drusic: 212G (2.2%, 212G)
otakutaylor: 200G (2.0%, 720G)
getthemoneyz: 160G (1.6%, 673,593G)
victoriolue: 100G (1.0%, 4,874G)
datadrivenbot: 100G (1.0%, 15,718G)
Setdevildog: 100G (1.0%, 3,759G)
cougboi: 100G (1.0%, 12,098G)
CosmicTactician: 100G (1.0%, 13,122G)
b0shii: 50G (0.5%, 10,337G)
