High Risers:
1. mirapoix: +10,104G
2. escobro: +4,381G
3. DuPlatypus: +2,424G
4. khelor_: +2,084G
5. SWATb1gdog: +1,947G
6. The_Gambler_: +1,859G
7. nhammen: +1,480G
8. DeathTaxesAndAnime: +1,124G
9. SRG_Chugganomics: +1,000G
10. Galeronis: +957G
11. theQueenfuta: +812G
12. Kronikle: +733G
13. Twisted_Nutsatchel: +722G
14. 2b_yorha_b: +551G
15. FatTunaKing: +550G
16. just_here2: +343G
17. Firesheath: +319G
18. rkane398: +311G
19. Reddash9: +123G
20. Aaron2Nerdy: +107G
21. Alwaysvile: +100G
22. krombobreaker: +95G
23. MemoriesofFinal: +67G
24. Foamsoldier: +4G
25. Rune339: -26G
26. sireaulou: -98G
27. Sharosa: -100G
28. DHaveWord: -111G
29. LeoNightFury: -127G
30. SnarkMage: -161G
31. ValensEXP_: -182G
32. KasugaiRoastedPeas: -200G
33. Thyrandaal: -228G
34. ruleof5: -300G
35. dogsandcatsand: -300G
36. gorgewall: -327G
37. resjudicata3: -415G
38. CosmicTactician: -435G
39. DarrenDinosaurs: -461G
40. Snowfats: -500G
41. Arcblazer23: -556G
42. randgridr: -586G
43. OrganicArtist: -603G
44. seppu777: -803G
45. DLJuggernaut: -913G
46. ExplanationMarkWow: -1,000G
47. Laserman1000: -1,000G
48. CorpusCav: -1,093G
49. ANFz: -1,259G
50. Lord_Gwarth: -1,400G
51. TheBrett: -1,439G
52. latebit: -2,100G
53. Deathmaker06: -2,371G
54. Mushufasa_: -2,396G
55. Shalloween: -2,625G
56. sinnyil2: -2,904G
57. RunicMagus: -3,001G
