Final Bets: green - 22 bets for 39,361G (60.9%, x0.64); black - 9 bets for 25,272G (39.1%, x1.56)

green bets:
NicoSavoy: 14,000G (35.6%, 158,722G)
Deeps_one: 5,761G (14.6%, 5,761G)
OneHundredFists: 4,069G (10.3%, 17,509G)
YowaneHaku: 3,127G (7.9%, 3,127G)
CorpusCav: 2,000G (5.1%, 96,587G)
ko2q: 1,813G (4.6%, 1,813G)
BirbBrainsBot: 1,000G (2.5%, 149,388G)
MemoriesofFinal: 1,000G (2.5%, 11,281G)
Evewho: 1,000G (2.5%, 17,836G)
TheBrett: 1,000G (2.5%, 15,275G)
Gilghana: 864G (2.2%, 4,322G)
skinny666: 500G (1.3%, 2,369G)
squideater_: 500G (1.3%, 20,442G)
heropong: 480G (1.2%, 480G)
WireLord: 424G (1.1%, 424G)
superdevon1: 408G (1.0%, 2,608G)
king_smashington: 328G (0.8%, 328G)
ruleof5: 308G (0.8%, 308G)
getthemoneyz: 278G (0.7%, 2,238,338G)
gorgewall: 201G (0.5%, 5,799G)
datadrivenbot: 200G (0.5%, 84,327G)
JethroThrul: 100G (0.3%, 1,916G)

black bets:
Mushufasa_: 14,805G (58.6%, 29,611G)
Leonidusx: 5,000G (19.8%, 541,097G)
Willjin: 2,000G (7.9%, 34,035G)
Lolthsmeat: 1,500G (5.9%, 74,054G)
reinoe: 1,000G (4.0%, 117,779G)
ColetteMSLP: 544G (2.2%, 9,055G)
AllInBot: 200G (0.8%, 200G)
LuckyLuckLuc2: 123G (0.5%, 1,483G)
Genkidou: 100G (0.4%, 1,563G)
