Final Bets: white - 29 bets for 13,135G (35.0%, x1.86); champion - 30 bets for 24,441G (65.0%, x0.54)

white bets:
technominari: 2,000G (15.2%, 79,731G)
ll_aja_ll: 1,879G (14.3%, 1,879G)
Axelrod: 1,478G (11.3%, 29,576G)
Oshimi12: 951G (7.2%, 1,902G)
TheRobbieRobster: 700G (5.3%, 2,729G)
Lanshaft: 580G (4.4%, 7,345G)
SerumD: 500G (3.8%, 2,296G)
inzo24: 500G (3.8%, 8,680G)
MrFlabyo: 492G (3.7%, 21,492G)
lunaticruin: 448G (3.4%, 448G)
roofiepops: 437G (3.3%, 437G)
greghatch: 400G (3.0%, 1,249G)
SpaZmodeus: 333G (2.5%, 4,790G)
HaateXIII: 300G (2.3%, 11,724G)
sect_cor: 300G (2.3%, 22,603G)
Dexef: 276G (2.1%, 276G)
mpghappiness: 200G (1.5%, 5,975G)
rrazzoug: 200G (1.5%, 7,714G)
Snowfats: 150G (1.1%, 5,503G)
byrdturbo: 111G (0.8%, 3,774G)
denamda: 100G (0.8%, 18,243G)
Maeveen: 100G (0.8%, 9,826G)
PlatinumPlume: 100G (0.8%, 8,777G)
victoriolue: 100G (0.8%, 3,892G)
Lythe_Caraker: 100G (0.8%, 50,045G)
Sotehr: 100G (0.8%, 1,930G)
lijarkh: 100G (0.8%, 5,871G)
hkbadboy: 100G (0.8%, 100G)
Yasmosis: 100G (0.8%, 4,947G)

champion bets:
rockmem21: 4,452G (18.2%, 14,843G)
YaBoy125: 2,000G (8.2%, 12,548G)
Zeroroute: 1,463G (6.0%, 1,463G)
reinoe: 1,405G (5.7%, 1,405G)
sinnyil2: 1,366G (5.6%, 2,733G)
Lodrak: 1,321G (5.4%, 1,321G)
DudeMonkey77: 1,000G (4.1%, 26,799G)
OmnibotGamma: 1,000G (4.1%, 9,774G)
BirbBrainsBot: 1,000G (4.1%, 13,285G)
kai_shee: 1,000G (4.1%, 33,320G)
MrDiggs49: 1,000G (4.1%, 6,852G)
HaplessOne: 1,000G (4.1%, 38,605G)
fenixcrest: 969G (4.0%, 9,695G)
LASERJESUS1337: 600G (2.5%, 7,908G)
Shalloween: 600G (2.5%, 57,081G)
OneHundredFists: 500G (2.0%, 8,433G)
ShintaroNayaka: 500G (2.0%, 9,926G)
EnemyController: 500G (2.0%, 20,422G)
buddychrist10: 498G (2.0%, 498G)
omegasuspekt: 483G (2.0%, 483G)
volgrathemoose: 440G (1.8%, 440G)
luminarii: 372G (1.5%, 8,896G)
Baron_von_Scrub: 260G (1.1%, 260G)
fenaen: 200G (0.8%, 1,654G)
marresil: 111G (0.5%, 111G)
ko2q: 100G (0.4%, 1,073G)
BadBlanket: 100G (0.4%, 4,235G)
domeil: 100G (0.4%, 3,682G)
maakur_: 100G (0.4%, 5,185G)
daveb_: 1G (0.0%, 1,750G)
