Final Bets: red - 29 bets for 15,178G (63.1%, x0.59); blue - 16 bets for 8,889G (36.9%, x1.71)

red bets:
DeathTaxesAndAnime: 2,873G (18.9%, 5,635G)
killth3kid: 2,000G (13.2%, 47,725G)
hydroshade: 1,363G (9.0%, 9,090G)
Arunic: 1,000G (6.6%, 2,834G)
Zeroroute: 824G (5.4%, 824G)
ColetteMSLP: 800G (5.3%, 31,692G)
HaychDub: 700G (4.6%, 7,526G)
Aldrammech: 600G (4.0%, 600G)
tmo50x: 500G (3.3%, 8,086G)
Jerboj: 500G (3.3%, 41,514G)
joewcarson: 500G (3.3%, 4,729G)
luminarii: 500G (3.3%, 11,038G)
Baron_von_Scrub: 365G (2.4%, 365G)
DustBirdEX: 356G (2.3%, 1,432G)
EnemyController: 300G (2.0%, 176,197G)
SQUiDSQUARKLIN: 268G (1.8%, 268G)
InOzWeTrust: 260G (1.7%, 260G)
dorman_777: 232G (1.5%, 232G)
bradsmr: 200G (1.3%, 254G)
ThePineappleSalesman: 200G (1.3%, 24,890G)
a_mo22: 125G (0.8%, 3,736G)
maakur_: 100G (0.7%, 119,555G)
Firesheath: 100G (0.7%, 13,158G)
jwchapm: 100G (0.7%, 100G)
nifboy: 100G (0.7%, 5,364G)
datadrivenbot: 100G (0.7%, 14,648G)
volgrathemoose: 100G (0.7%, 2,373G)
Tougou: 100G (0.7%, 9,102G)
daveb_: 12G (0.1%, 1,105G)

blue bets:
sinnyil2: 2,500G (28.1%, 24,438G)
Pie108: 2,000G (22.5%, 131,152G)
ungabunga_bot: 1,000G (11.2%, 333,055G)
BirbBrainsBot: 1,000G (11.2%, 2,017G)
superdevon1: 430G (4.8%, 4,301G)
FoeSquirrel: 345G (3.9%, 691G)
proper__noun__: 300G (3.4%, 5,363G)
tsdZero: 212G (2.4%, 212G)
80S1X: 204G (2.3%, 204G)
GrandmasterFrankerZ: 200G (2.2%, 860G)
RestIessNight: 158G (1.8%, 158G)
Kyune: 132G (1.5%, 132G)
getthemoneyz: 108G (1.2%, 613,581G)
ApplesauceBoss: 100G (1.1%, 8,534G)
RunicMagus: 100G (1.1%, 49,548G)
XelonYara: 100G (1.1%, 100G)
