Final Bets: white - 5 bets for 3,003G (15.8%, x5.33); black - 16 bets for 15,994G (84.2%, x0.19)

white bets:
killth3kid: 1,187G (39.5%, 118,763G)
DeathTaxesAndAnime: 800G (26.6%, 800G)
rockmem21: 400G (13.3%, 12,835G)
ColetteMSLP: 400G (13.3%, 4,447G)
loveyouallfriends: 216G (7.2%, 216G)

black bets:
prince_rogers_nelson_: 4,635G (29.0%, 4,635G)
Zbgs: 4,000G (25.0%, 17,128G)
DarrenDinosaurs: 2,074G (13.0%, 2,074G)
EnemyController: 1,111G (6.9%, 1,360,497G)
ANFz: 520G (3.3%, 520G)
RampagingRobot: 500G (3.1%, 4,000G)
CosmicTactician: 500G (3.1%, 48,583G)
twelfthrootoftwo: 500G (3.1%, 11,198G)
BirbBrainsBot: 458G (2.9%, 156,203G)
getthemoneyz: 416G (2.6%, 1,164,403G)
Shalloween: 400G (2.5%, 69,526G)
ArashiKurobara: 260G (1.6%, 11,400G)
Mathlexis: 220G (1.4%, 220G)
datadrivenbot: 200G (1.3%, 50,569G)
Kronikle: 100G (0.6%, 6,591G)
enkikavlar: 100G (0.6%, 2,604G)
