Final Bets: red - 19 bets for 15,898G (77.2%, x0.29); blue - 6 bets for 4,689G (22.8%, x3.39)

red bets:
gorgewall: 2,142G (13.5%, 2,142G)
AllInBot: 2,006G (12.6%, 2,006G)
PoroTact: 1,420G (8.9%, 1,420G)
dogsandcatsand: 1,289G (8.1%, 1,289G)
skipsandwiches: 1,001G (6.3%, 82,565G)
Mazairasama: 1,000G (6.3%, 17,736G)
BirbBrainsBot: 1,000G (6.3%, 77,190G)
JumbocactuarX27: 1,000G (6.3%, 2,999G)
Nizaha: 884G (5.6%, 63,192G)
Orrfieldmedic: 843G (5.3%, 843G)
getthemoneyz: 766G (4.8%, 2,048,084G)
VolgraTheMoose: 501G (3.2%, 13,736G)
JonnyCue: 500G (3.1%, 6,938G)
killabandaid: 404G (2.5%, 404G)
SephDarkheart: 388G (2.4%, 24,007G)
Lord_Gwarth: 304G (1.9%, 304G)
MilkaChoko: 200G (1.3%, 3,442G)
datadrivenbot: 200G (1.3%, 77,805G)
SirNotEdu: 50G (0.3%, 323G)

blue bets:
latebit: 2,759G (58.8%, 5,410G)
LDSkinny: 676G (14.4%, 2,255G)
resjudicata3: 554G (11.8%, 554G)
Arcblazer23: 500G (10.7%, 6,076G)
Firesheath: 100G (2.1%, 1,733G)
bufuman: 100G (2.1%, 1,520G)
