Final Bets: red - 17 bets for 8,458G (66.1%, x0.51); yellow - 11 bets for 4,344G (33.9%, x1.95)

red bets:
BenYuPoker: 1,991G (23.5%, 1,991G)
kai_shee: 1,001G (11.8%, 113,738G)
z32o: 1,000G (11.8%, 3,947G)
waterwatereverywhere: 880G (10.4%, 1,727G)
Maeveen: 756G (8.9%, 1,513G)
Treapvort: 596G (7.0%, 596G)
JumbocactuarX27: 513G (6.1%, 513G)
maakur_: 416G (4.9%, 416G)
Baron_von_Scrub: 344G (4.1%, 344G)
GingerDynomite: 250G (3.0%, 5,732G)
Cataphract116: 200G (2.4%, 2,514G)
ungabunga_bot: 106G (1.3%, 82,658G)
AllInBot: 100G (1.2%, 100G)
datadrivenbot: 100G (1.2%, 25,683G)
ScarletSpiderBen: 100G (1.2%, 1,802G)
lifeguard_dan: 100G (1.2%, 980G)
ko2q: 5G (0.1%, 2,258G)

yellow bets:
Laserman1000: 878G (20.2%, 8,178G)
BirbBrainsBot: 849G (19.5%, 271,838G)
Bryon_W: 500G (11.5%, 28,714G)
godkone: 472G (10.9%, 1,972G)
MattMan119: 400G (9.2%, 16,288G)
Draconis345: 332G (7.6%, 332G)
ShintaroNayaka: 300G (6.9%, 4,894G)
ZephyrTempest: 201G (4.6%, 34,305G)
gikokiko: 200G (4.6%, 4,252G)
getthemoneyz: 112G (2.6%, 446,447G)
BaronHaynes: 100G (2.3%, 1,178G)
