Final Bets: purple - 16 bets for 11,592G (39.2%, x1.55); brown - 21 bets for 17,973G (60.8%, x0.64)

purple bets:
killth3kid: 2,000G (17.3%, 49,937G)
catfashions: 1,912G (16.5%, 1,912G)
E_Ballard: 1,800G (15.5%, 1,800G)
leakimiko: 1,500G (12.9%, 30,571G)
Aldrammech: 1,000G (8.6%, 25,099G)
ColetteMSLP: 750G (6.5%, 29,060G)
nifboy: 556G (4.8%, 556G)
volgrathemoose: 501G (4.3%, 28,647G)
Eyepoor_: 300G (2.6%, 1,739G)
bahamutlagooon: 300G (2.6%, 3,127G)
mazecrossant: 263G (2.3%, 263G)
dogsandcatsand: 232G (2.0%, 232G)
ungabunga_bot: 127G (1.1%, 421,155G)
Practice_Pad: 127G (1.1%, 2,219G)
NicoSavoy: 124G (1.1%, 124G)
datadrivenbot: 100G (0.9%, 14,149G)

brown bets:
Zbgs: 3,000G (16.7%, 78,237G)
Mesmaster: 3,000G (16.7%, 46,888G)
Lordminsc: 1,129G (6.3%, 1,129G)
fenaen: 1,001G (5.6%, 3,968G)
ShintaroNayaka: 1,000G (5.6%, 16,595G)
BirbBrainsBot: 1,000G (5.6%, 137,134G)
Velixtra: 1,000G (5.6%, 3,455G)
ACSpree: 1,000G (5.6%, 21,572G)
Lionhermit: 1,000G (5.6%, 46,915G)
HaateXIII: 856G (4.8%, 1,679G)
toka222: 777G (4.3%, 4,019G)
GnielKnows: 730G (4.1%, 974G)
Breakdown777: 500G (2.8%, 16,903G)
getthemoneyz: 438G (2.4%, 646,911G)
DustBirdEX: 342G (1.9%, 1,142G)
reshiramdude16: 300G (1.7%, 553G)
CosmicTactician: 200G (1.1%, 13,073G)
LivingHitokiri: 200G (1.1%, 1,410G)
SirCherish: 200G (1.1%, 3,735G)
TrueRhyme: 200G (1.1%, 5,012G)
mannequ1n: 100G (0.6%, 5,451G)
