High Risers:
1. ExplanationMarkWow: +12,059G
2. GenZealot: +4,137G
3. HaplessOne: +3,729G
4. MoonSugarFiend: +1,649G
5. king_smashington: +1,102G
6. FuzzyTigers: +616G
7. TheSabretoothe: +572G
8. Mudrockk: +449G
9. Cryptopsy70: +412G
10. Zachara: +397G
11. nhammen: +319G
12. mrfripps: +123G
13. DrAntiSocial: +122G
14. ChiChiRodriguez: +25G
15. resjudicata3: -57G
16. HeroponThrawn: -96G
17. 2b_yorha_b: -136G
18. CaptainAdmiralSPATULA: -200G
19. Rytor: -200G
20. skipsandwiches: -230G
21. Galeronis: -280G
22. dogsandcatsand: -295G
23. MemoriesofFinal: -300G
24. Smashy: -300G
25. LDSkinny: -300G
26. Sharosa: -301G
27. CosmicTactician: -374G
28. highelectricaltemperature: -456G
29. Forkmore: -489G
30. DavenIII: -700G
31. LuckyLuckLuc2: -703G
32. Error72: -715G
33. VolgraTheMoose: -991G
34. JumbocactuarX27: -1,000G
35. Mushufasa_: -1,159G
36. Bongomon7: -1,200G
37. latebit: -1,300G
38. scsuperstar: -1,374G
39. Leonidusx: -1,585G
40. nifboy: -4,452G
41. SephDarkheart: -10,849G
