Final Bets: brown - 7 bets for 9,498G (71.1%, x0.41); champion - 8 bets for 3,870G (28.9%, x2.45)

brown bets:
nifboy: 6,308G (66.4%, 12,616G)
BirbBrainsBot: 1,000G (10.5%, 101,977G)
Leonidusx: 1,000G (10.5%, 77,119G)
CT_5_Holy: 500G (5.3%, 500G)
getthemoneyz: 390G (4.1%, 1,986,308G)
upvla: 200G (2.1%, 1,443G)
dinin991: 100G (1.1%, 1,597G)

champion bets:
Shalloween: 2,052G (53.0%, 4,105G)
ColetteMSLP: 508G (13.1%, 508G)
SephDarkheart: 360G (9.3%, 33,999G)
ar_tactic: 350G (9.0%, 99,419G)
AllInBot: 200G (5.2%, 200G)
datadrivenbot: 200G (5.2%, 71,153G)
genkidou: 100G (2.6%, 100G)
MemoriesofFinal: 100G (2.6%, 31,073G)
