Final Bets: purple - 9 bets for 5,079G (30.6%, x2.27); brown - 14 bets for 11,510G (69.4%, x0.44)

purple bets:
getthemoneyz: 1,000G (19.7%, 1,306,412G)
AllInBot: 963G (19.0%, 963G)
DeathTaxesAndAnime: 766G (15.1%, 766G)
twelfthrootoftwo: 743G (14.6%, 1,458G)
Vacillents: 500G (9.8%, 3,117G)
dtrain332: 457G (9.0%, 898G)
cougboi: 300G (5.9%, 3,748G)
AND4H: 250G (4.9%, 7,268G)
CT_5_Holy: 100G (2.0%, 6,096G)

brown bets:
WitchHunterIX: 2,000G (17.4%, 42,503G)
DamnThatShark: 1,777G (15.4%, 1,777G)
upvla: 1,200G (10.4%, 21,527G)
Creggers: 1,000G (8.7%, 61,431G)
porkchop5158: 1,000G (8.7%, 46,621G)
reinoe: 1,000G (8.7%, 57,700G)
TheMurkGnome: 945G (8.2%, 945G)
Grimmace45: 927G (8.1%, 13,257G)
superdevon1: 508G (4.4%, 10,176G)
roofiepops: 468G (4.1%, 468G)
BirbBrainsBot: 264G (2.3%, 186,477G)
datadrivenbot: 200G (1.7%, 29,970G)
Lydian_C: 121G (1.1%, 73,339G)
nifboy: 100G (0.9%, 3,725G)
