Final Bets: white - 25 bets for 22,779G (56.7%, x0.76); black - 23 bets for 17,398G (43.3%, x1.31)

white bets:
Mesmaster: 5,000G (22.0%, 224,955G)
reinoe: 5,000G (22.0%, 38,242G)
DLJuggernaut: 2,000G (8.8%, 20,391G)
VolgraTheMoose: 1,033G (4.5%, 1,033G)
BirbBrainsBot: 1,000G (4.4%, 34,870G)
3ngag3: 1,000G (4.4%, 26,000G)
latebit: 967G (4.2%, 967G)
Thyrandaal: 932G (4.1%, 932G)
dogsandcatsand: 793G (3.5%, 1,556G)
upvla: 678G (3.0%, 2,242G)
Phi_Sig: 555G (2.4%, 29,931G)
silentkaster: 500G (2.2%, 2,795G)
lowlf: 500G (2.2%, 7,182G)
Laserman1000: 479G (2.1%, 2,079G)
J2DaBibbles: 471G (2.1%, 471G)
snkey: 448G (2.0%, 18,804G)
rNdOrchestra: 264G (1.2%, 1,399G)
khelor_: 200G (0.9%, 941G)
resjudicata3: 200G (0.9%, 7,907G)
Sietaha: 200G (0.9%, 17,882G)
heyBtw: 124G (0.5%, 124G)
AllInBot: 123G (0.5%, 123G)
tacobouteverything: 108G (0.5%, 1,082G)
getthemoneyz: 104G (0.5%, 1,917,158G)
BartTradingCompany: 100G (0.4%, 2,950G)

black bets:
Virilikus: 5,000G (28.7%, 251,077G)
SkylerBunny: 2,159G (12.4%, 2,159G)
DeathTaxesAndAnime: 1,553G (8.9%, 1,553G)
Snowfats: 1,470G (8.4%, 1,470G)
NobodySomeone: 1,384G (8.0%, 1,384G)
AniZero: 1,000G (5.7%, 27,277G)
thunderducker: 675G (3.9%, 6,712G)
krombobreaker: 500G (2.9%, 4,631G)
CorpusCav: 500G (2.9%, 3,948G)
Dasutin23: 476G (2.7%, 4,146G)
OneHundredFists: 424G (2.4%, 424G)
hotpocketsofficial: 400G (2.3%, 8,394G)
BappleTrees: 275G (1.6%, 275G)
ValensEXP_: 256G (1.5%, 2,564G)
DAC169: 200G (1.1%, 7,234G)
MemoriesofFinal: 200G (1.1%, 7,961G)
datadrivenbot: 200G (1.1%, 58,473G)
Twisted_Nutsatchel: 160G (0.9%, 160G)
J_MacC1991: 137G (0.8%, 137G)
acid_flashback: 129G (0.7%, 4,332G)
nhammen: 100G (0.6%, 405,997G)
ANFz: 100G (0.6%, 5,322G)
CosmicTactician: 100G (0.6%, 35,001G)
