Final Bets: purple - 18 bets for 20,247G (71.4%, x0.40); brown - 16 bets for 8,095G (28.6%, x2.50)

purple bets:
Mesmaster: 5,000G (24.7%, 229,274G)
thunderducker: 3,078G (15.2%, 6,037G)
DLJuggernaut: 2,000G (9.9%, 22,419G)
AniZero: 2,000G (9.9%, 26,777G)
Thyrandaal: 1,644G (8.1%, 1,644G)
latebit: 1,125G (5.6%, 2,206G)
BirbBrainsBot: 1,000G (4.9%, 35,634G)
Snowfats: 832G (4.1%, 832G)
3ngag3: 764G (3.8%, 27,764G)
krombobreaker: 500G (2.5%, 4,631G)
mindblownnnn: 500G (2.5%, 2,295G)
Dasutin23: 476G (2.4%, 4,170G)
J2DaBibbles: 335G (1.7%, 335G)
silentkaster: 250G (1.2%, 3,677G)
BappleTrees: 224G (1.1%, 224G)
heyBtw: 219G (1.1%, 219G)
datadrivenbot: 200G (1.0%, 58,273G)
BartTradingCompany: 100G (0.5%, 3,026G)

brown bets:
resjudicata3: 2,000G (24.7%, 8,560G)
reinoe: 1,000G (12.4%, 43,061G)
OneHundredFists: 924G (11.4%, 924G)
run_with_stone_GUNs: 668G (8.3%, 27,530G)
SkylerBunny: 668G (8.3%, 668G)
J_MacC1991: 612G (7.6%, 612G)
Laserman1000: 449G (5.5%, 2,949G)
snkey: 448G (5.5%, 19,646G)
hotpocketsofficial: 300G (3.7%, 8,494G)
AllInBot: 217G (2.7%, 217G)
ribbiks: 200G (2.5%, 2,339G)
khelor_: 200G (2.5%, 1,594G)
acid_flashback: 141G (1.7%, 4,703G)
tacobouteverything: 116G (1.4%, 1,164G)
NobodySomeone: 100G (1.2%, 100G)
getthemoneyz: 52G (0.6%, 1,917,237G)
