Final Bets: yellow - 22 bets for 35,636G (86.0%, x0.16); purple - 16 bets for 5,814G (14.0%, x6.13)

yellow bets:
Virilikus: 10,000G (28.1%, 251,608G)
Mesmaster: 6,000G (16.8%, 229,449G)
loveyouallfriends: 4,000G (11.2%, 18,017G)
reinoe: 3,000G (8.4%, 43,067G)
Thyrandaal: 2,335G (6.6%, 4,579G)
resjudicata3: 2,000G (5.6%, 4,360G)
latebit: 1,354G (3.8%, 2,656G)
upvla: 1,219G (3.4%, 3,588G)
skillomono: 1,089G (3.1%, 1,089G)
krombobreaker: 1,000G (2.8%, 5,401G)
seppu777: 777G (2.2%, 1,542G)
run_with_stone_GUNs: 668G (1.9%, 27,622G)
Tarheels218: 500G (1.4%, 4,430G)
Laserman1000: 400G (1.1%, 2,500G)
CorpusCav: 333G (0.9%, 3,615G)
ValensEXP_: 256G (0.7%, 2,471G)
datadrivenbot: 200G (0.6%, 58,581G)
J_MacC1991: 168G (0.5%, 168G)
heyBtw: 124G (0.3%, 124G)
Riley331: 112G (0.3%, 112G)
tacobouteverything: 100G (0.3%, 1,012G)
Chuckolator: 1G (0.0%, 24,754G)

purple bets:
BirbBrainsBot: 1,000G (17.2%, 34,034G)
J2DaBibbles: 767G (13.2%, 767G)
SkylerBunny: 668G (11.5%, 668G)
roofiepops: 555G (9.5%, 2,697G)
thunderducker: 500G (8.6%, 9,930G)
Dasutin23: 476G (8.2%, 4,901G)
hotpocketsofficial: 300G (5.2%, 8,395G)
mindblownnnn: 300G (5.2%, 2,851G)
MemoriesofFinal: 286G (4.9%, 8,362G)
rNdOrchestra: 264G (4.5%, 1,901G)
NobodySomeone: 200G (3.4%, 245G)
AllInBot: 100G (1.7%, 100G)
BartTradingCompany: 100G (1.7%, 2,866G)
ANFz: 100G (1.7%, 5,286G)
Sietaha: 100G (1.7%, 19,594G)
getthemoneyz: 98G (1.7%, 1,917,334G)
