Final Bets: red - 18 bets for 9,194G (74.8%, x0.34); blue - 9 bets for 3,094G (25.2%, x2.97)

red bets:
solomongrundy85: 1,901G (20.7%, 1,901G)
volgrathemoose: 1,001G (10.9%, 5,512G)
Moshyhero: 937G (10.2%, 937G)
ANFz: 742G (8.1%, 742G)
Digitalsocrates: 615G (6.7%, 615G)
Nizaha: 601G (6.5%, 11,699G)
otakutaylor: 592G (6.4%, 592G)
AUrato: 591G (6.4%, 14,789G)
EnemyController: 500G (5.4%, 291,650G)
ApplesauceBoss: 428G (4.7%, 428G)
StealthModeLocke: 332G (3.6%, 332G)
CandyTamer: 236G (2.6%, 755G)
Breakdown777: 200G (2.2%, 5,819G)
kintaru_oe: 118G (1.3%, 118G)
MADTheta: 100G (1.1%, 310G)
Vex_Novisk: 100G (1.1%, 1,578G)
datadrivenbot: 100G (1.1%, 24,059G)
CosmicTactician: 100G (1.1%, 23,272G)

blue bets:
BirbBrainsBot: 1,000G (32.3%, 58,785G)
HaplessOne: 666G (21.5%, 185,917G)
killth3kid: 600G (19.4%, 2,664G)
vorap: 300G (9.7%, 79,345G)
getthemoneyz: 178G (5.8%, 683,931G)
RunicMagus: 100G (3.2%, 33,399G)
FoeSquirrel: 100G (3.2%, 1,352G)
Dymntd: 100G (3.2%, 608G)
letdowncity: 50G (1.6%, 1,857G)
