Final Bets: white - 11 bets for 3,623G (29.3%, x2.41); black - 15 bets for 8,722G (70.7%, x0.42)

white bets:
TheChainNerd: 1,000G (27.6%, 6,836G)
LeoNightFury: 1,000G (27.6%, 2,931G)
rjA0zcOQ96: 500G (13.8%, 10,023G)
FriendSquirrel: 308G (8.5%, 308G)
AUrato: 250G (6.9%, 1,673G)
BirbBrainsBot: 143G (3.9%, 51,774G)
Evewho: 100G (2.8%, 14,394G)
BlackfyreRoy: 100G (2.8%, 1,282G)
MalakiGenesys: 100G (2.8%, 100G)
CosmicTactician: 100G (2.8%, 12,675G)
getthemoneyz: 22G (0.6%, 675,642G)

black bets:
Mesmaster: 2,000G (22.9%, 44,751G)
volgrathemoose: 1,382G (15.8%, 2,764G)
DavenIII: 1,300G (14.9%, 31,860G)
Hamborn: 1,000G (11.5%, 52,169G)
Rislyeu: 847G (9.7%, 1,694G)
run_with_stone_GUNs: 500G (5.7%, 9,324G)
Anomandaris__: 500G (5.7%, 5,098G)
Miyokari: 350G (4.0%, 16,175G)
sukotsuto: 300G (3.4%, 14,166G)
ko2q: 100G (1.1%, 1,989G)
datadrivenbot: 100G (1.1%, 16,536G)
Swetik_: 100G (1.1%, 987G)
Arkreaver: 100G (1.1%, 12,972G)
foofermoofer: 100G (1.1%, 1,143G)
roqqqpsi: 43G (0.5%, 4,320G)
