Final Bets: red - 14 bets for 8,087G (65.2%, x0.53); yellow - 8 bets for 4,322G (34.8%, x1.87)

red bets:
Phytik: 1,589G (19.6%, 1,589G)
DavenIII: 1,400G (17.3%, 31,900G)
ThePineappleSalesman: 1,000G (12.4%, 26,426G)
TheChainNerd: 1,000G (12.4%, 6,579G)
roqqqpsi: 961G (11.9%, 4,370G)
FriendSquirrel: 537G (6.6%, 537G)
Anomandaris__: 500G (6.2%, 5,306G)
volgrathemoose: 500G (6.2%, 1,669G)
ko2q: 100G (1.2%, 2,774G)
MalakiGenesys: 100G (1.2%, 100G)
datadrivenbot: 100G (1.2%, 16,652G)
Swetik_: 100G (1.2%, 729G)
CosmicTactician: 100G (1.2%, 12,475G)
BlackfyreRoy: 100G (1.2%, 2,060G)

yellow bets:
BirbBrainsBot: 1,000G (23.1%, 50,631G)
Evewho: 1,000G (23.1%, 14,368G)
Lionhermit: 1,000G (23.1%, 44,899G)
TheKillerNacho: 384G (8.9%, 384G)
sukotsuto: 300G (6.9%, 13,291G)
Dexsana: 300G (6.9%, 2,524G)
getthemoneyz: 238G (5.5%, 675,522G)
AUrato: 100G (2.3%, 1,423G)
