Final Bets: black - 15 bets for 8,499G (67.2%, x0.49); purple - 10 bets for 4,148G (32.8%, x2.05)

black bets:
AUrato: 1,610G (18.9%, 1,610G)
DavenIII: 1,100G (12.9%, 30,500G)
Shakarak: 1,000G (11.8%, 32,155G)
TheChainNerd: 1,000G (11.8%, 5,579G)
BirbBrainsBot: 1,000G (11.8%, 52,502G)
Lionhermit: 1,000G (11.8%, 46,770G)
run_with_stone_GUNs: 555G (6.5%, 9,532G)
Rislyeu: 400G (4.7%, 2,811G)
sukotsuto: 300G (3.5%, 13,852G)
ko2q: 100G (1.2%, 2,674G)
Arkreaver: 100G (1.2%, 13,014G)
CosmicTactician: 100G (1.2%, 12,375G)
Swetik_: 100G (1.2%, 629G)
datadrivenbot: 100G (1.2%, 16,552G)
roqqqpsi: 34G (0.4%, 3,409G)

purple bets:
volgrathemoose: 1,169G (28.2%, 1,169G)
Evewho: 1,000G (24.1%, 16,239G)
imafella: 601G (14.5%, 601G)
getthemoneyz: 470G (11.3%, 675,967G)
FriendSquirrel: 308G (7.4%, 308G)
LeoNightFury: 200G (4.8%, 3,365G)
BlackfyreRoy: 100G (2.4%, 1,960G)
lastly: 100G (2.4%, 12,069G)
MalakiGenesys: 100G (2.4%, 100G)
foofermoofer: 100G (2.4%, 1,185G)
