Final Bets: red - 7 bets for 4,008G (35.6%, x1.81); blue - 11 bets for 7,260G (64.4%, x0.55)

red bets:
cho_pin: 1,743G (43.5%, 1,743G)
amiture: 1,000G (25.0%, 10,626G)
Seaweed_B: 500G (12.5%, 52,496G)
getthemoneyz: 344G (8.6%, 1,695,257G)
AllInBot: 185G (4.6%, 185G)
BirbBrainsBot: 136G (3.4%, 95,367G)
ko2q: 100G (2.5%, 1,929G)

blue bets:
Mesmaster: 2,000G (27.5%, 26,521G)
SkylerBunny: 1,400G (19.3%, 3,370G)
superdevon1: 1,219G (16.8%, 121,968G)
escobro: 1,000G (13.8%, 6,059G)
dem0nj0ns: 500G (6.9%, 717G)
Lemonjohns: 420G (5.8%, 8,562G)
Starfire6789: 220G (3.0%, 220G)
datadrivenbot: 200G (2.8%, 64,842G)
gorgewall: 101G (1.4%, 4,304G)
3ngag3: 100G (1.4%, 11,300G)
skipsandwiches: 100G (1.4%, 3,164G)
