Final Bets: blue - 9 bets for 4,836G (71.1%, x0.41); yellow - 3 bets for 1,963G (28.9%, x2.46)

blue bets:
Mesmaster: 2,000G (41.4%, 32,911G)
BirbBrainsBot: 1,000G (20.7%, 95,257G)
NovaKnight21: 1,000G (20.7%, 4,484G)
Starfire6789: 220G (4.5%, 220G)
datadrivenbot: 200G (4.1%, 64,681G)
AllInBot: 165G (3.4%, 165G)
gorgewall: 101G (2.1%, 4,223G)
ko2q: 100G (2.1%, 1,694G)
getthemoneyz: 50G (1.0%, 1,693,949G)

yellow bets:
superdevon1: 1,208G (61.5%, 120,876G)
dem0nj0ns: 655G (33.4%, 655G)
victoriolue: 100G (5.1%, 52,875G)
