Final Bets: white - 12 bets for 6,531G (32.2%, x2.10); champion - 16 bets for 13,747G (67.8%, x0.48)

white bets:
sinnyil2: 2,245G (34.4%, 4,490G)
BirbBrainsBot: 1,000G (15.3%, 87,289G)
dogsandcatsand: 1,000G (15.3%, 6,151G)
Brojimbo: 572G (8.8%, 572G)
Error72: 500G (7.7%, 8,329G)
ThePineappleSalesman: 384G (5.9%, 384G)
JarlBrolaf: 212G (3.2%, 212G)
TeaTime29: 200G (3.1%, 3,051G)
holyonline: 200G (3.1%, 32,152G)
CosmicTactician: 100G (1.5%, 15,415G)
Miku_Shikhu: 100G (1.5%, 1,774G)
getthemoneyz: 18G (0.3%, 826,642G)

champion bets:
conradharlock: 3,000G (21.8%, 11,417G)
RaIshtar: 1,941G (14.1%, 1,941G)
superdevon1: 1,789G (13.0%, 8,949G)
Lydian_C: 1,200G (8.7%, 12,189G)
OneHundredFists: 1,182G (8.6%, 1,182G)
gogofromtogo: 1,000G (7.3%, 4,661G)
DustBirdEX: 779G (5.7%, 1,558G)
MaimTrain: 675G (4.9%, 675G)
TheChainNerd: 666G (4.8%, 3,332G)
Flameatron: 400G (2.9%, 5,479G)
Angelomortis: 366G (2.7%, 366G)
Grandlanzer: 288G (2.1%, 288G)
ar_tactic: 150G (1.1%, 59,472G)
potgodtopdog: 111G (0.8%, 40,018G)
GrayGhostGaming: 100G (0.7%, 8,271G)
datadrivenbot: 100G (0.7%, 32,771G)
