Final Bets: white - 12 bets for 15,608G (77.5%, x0.29); brown - 12 bets for 4,537G (22.5%, x3.44)

white bets:
Digitalsocrates: 5,576G (35.7%, 11,153G)
WalkerNash: 2,125G (13.6%, 42,519G)
baconbacon1207: 2,000G (12.8%, 8,016G)
evontno: 1,508G (9.7%, 1,508G)
Nizaha: 1,378G (8.8%, 1,378G)
EnemyController: 1,234G (7.9%, 1,266,889G)
SkylerBunny: 1,000G (6.4%, 548,686G)
Nohurty: 288G (1.8%, 288G)
TheChainNerd: 200G (1.3%, 1,716G)
CosmicTactician: 100G (0.6%, 21,283G)
datadrivenbot: 100G (0.6%, 48,921G)
windowsneverreleaseds: 99G (0.6%, 100G)

brown bets:
sukotsuto: 1,000G (22.0%, 34,045G)
BirbBrainsBot: 1,000G (22.0%, 174,867G)
Zagorsek: 523G (11.5%, 523G)
helpimabug: 500G (11.0%, 8,271G)
Zetchryn: 392G (8.6%, 392G)
Rislyeu: 328G (7.2%, 328G)
Evewho: 200G (4.4%, 5,664G)
getthemoneyz: 150G (3.3%, 1,037,354G)
ericzubat: 140G (3.1%, 140G)
TheBigSalarius: 104G (2.3%, 104G)
nifboy: 100G (2.2%, 2,279G)
run_with_stone_GUNs: 100G (2.2%, 30,529G)
