Final Bets: green - 6 bets for 10,399G (44.3%, x1.26); white - 15 bets for 13,051G (55.7%, x0.80)

green bets:
Digitalsocrates: 6,387G (61.4%, 12,774G)
sukotsuto: 3,000G (28.8%, 33,045G)
killth3kid: 500G (4.8%, 4,609G)
Zagorsek: 312G (3.0%, 312G)
nifboy: 100G (1.0%, 2,179G)
CosmicTactician: 100G (1.0%, 21,312G)

white bets:
baconbacon1207: 2,500G (19.2%, 8,597G)
WalkerNash: 2,156G (16.5%, 43,137G)
Mesmaster: 2,000G (15.3%, 34,285G)
Nizaha: 1,779G (13.6%, 1,779G)
EnemyController: 1,234G (9.5%, 1,267,248G)
BirbBrainsBot: 1,000G (7.7%, 173,867G)
getthemoneyz: 612G (4.7%, 1,037,204G)
evontno: 450G (3.4%, 1,946G)
Zetchryn: 392G (3.0%, 392G)
Rislyeu: 328G (2.5%, 328G)
Evewho: 200G (1.5%, 5,464G)
Firesheath: 100G (0.8%, 6,155G)
Smokegiant: 100G (0.8%, 100G)
nhammen: 100G (0.8%, 1,067G)
datadrivenbot: 100G (0.8%, 48,950G)
