Final Bets: green - 20 bets for 12,535G (50.7%, x0.97); yellow - 22 bets for 12,197G (49.3%, x1.03)

green bets:
Shalloween: 2,000G (16.0%, 103,858G)
RongRongArts: 1,819G (14.5%, 1,819G)
urieltheflameofgod: 1,000G (8.0%, 3,478G)
BirbBrainsBot: 1,000G (8.0%, 212,511G)
bad1dea: 1,000G (8.0%, 29,928G)
decentperversion: 602G (4.8%, 602G)
ungabunga_bot: 600G (4.8%, 22,987G)
Aldrammech: 600G (4.8%, 600G)
Lanshaft: 600G (4.8%, 1,813G)
jethrothrul: 556G (4.4%, 556G)
Lodrak: 501G (4.0%, 32,975G)
Laserman1000: 456G (3.6%, 456G)
catfashions: 417G (3.3%, 417G)
ZephyrTempest: 288G (2.3%, 20,139G)
galkife: 250G (2.0%, 75,391G)
SeniorBunk: 250G (2.0%, 4,590G)
KasugaiRoastedPeas: 200G (1.6%, 15,774G)
Cataphract116: 200G (1.6%, 1,830G)
datadrivenbot: 100G (0.8%, 16,336G)
getthemoneyz: 96G (0.8%, 434,002G)

yellow bets:
SkylerBunny: 2,622G (21.5%, 2,622G)
TheChainNerd: 1,000G (8.2%, 7,550G)
kai_shee: 1,000G (8.2%, 107,390G)
Shakarak: 1,000G (8.2%, 26,701G)
Zeroroute: 920G (7.5%, 920G)
theatheologist: 888G (7.3%, 65,992G)
fenixcrest: 761G (6.2%, 761G)
Treapvort: 515G (4.2%, 515G)
HaychDub: 500G (4.1%, 3,564G)
soapydragonfly: 500G (4.1%, 10,086G)
DrAntiSocial: 420G (3.4%, 1,355G)
ANFz: 412G (3.4%, 412G)
Baron_von_Scrub: 314G (2.6%, 10,100G)
Slowbrofist: 236G (1.9%, 236G)
ugoplatamia: 200G (1.6%, 14,463G)
joewcarson: 200G (1.6%, 2,207G)
b0shii: 200G (1.6%, 334G)
Aka_Gilly: 200G (1.6%, 5,646G)
Jam643d: 104G (0.9%, 104G)
AllInBot: 100G (0.8%, 100G)
SeedSC: 100G (0.8%, 138,171G)
ko2q: 5G (0.0%, 1,443G)
