Final Bets: white - 11 bets for 13,298G (72.1%, x0.39); black - 12 bets for 5,142G (27.9%, x2.59)

white bets:
RaIshtar: 4,076G (30.7%, 4,076G)
Lord_Burrah: 2,000G (15.0%, 79,000G)
Zeroroute: 1,873G (14.1%, 1,873G)
NIghtdew14: 1,500G (11.3%, 17,954G)
BirbBrainsBot: 1,000G (7.5%, 154,635G)
Xoomwaffle: 665G (5.0%, 665G)
DavenIII: 636G (4.8%, 636G)
ShintaroNayaka: 600G (4.5%, 600G)
Error72: 436G (3.3%, 436G)
fenaen: 428G (3.2%, 428G)
getthemoneyz: 84G (0.6%, 1,333,498G)

black bets:
AllInBot: 2,477G (48.2%, 2,477G)
Choco_Joe: 512G (10.0%, 512G)
pplvee1: 384G (7.5%, 15,646G)
Thyrandaal: 340G (6.6%, 340G)
SephDarkheart: 340G (6.6%, 47,077G)
ohhinm: 234G (4.6%, 7,735G)
SUGRboi: 220G (4.3%, 220G)
datadrivenbot: 200G (3.9%, 31,877G)
ruleof5: 164G (3.2%, 164G)
Lydian_C: 121G (2.4%, 98,965G)
Bongomon7: 100G (1.9%, 6,128G)
DouglasDragonThePoet: 50G (1.0%, 1,709G)
