Final Bets: red - 16 bets for 12,221G (73.2%, x0.37); green - 5 bets for 4,466G (26.8%, x2.74)

red bets:
ko2q: 2,252G (18.4%, 4,504G)
NicoSavoy: 2,123G (17.4%, 106,163G)
InOzWeTrust: 1,654G (13.5%, 1,654G)
DeathTaxesAndAnime: 1,047G (8.6%, 1,047G)
BirbBrainsBot: 1,000G (8.2%, 15,832G)
iBardic: 697G (5.7%, 697G)
Mesmaster: 660G (5.4%, 660G)
douchetron: 600G (4.9%, 600G)
Zeroroute: 600G (4.9%, 600G)
getthemoneyz: 476G (3.9%, 1,544,085G)
CorpusCav: 400G (3.3%, 3,811G)
AllInBot: 200G (1.6%, 200G)
datadrivenbot: 200G (1.6%, 49,651G)
PantherIscariot: 111G (0.9%, 1,980G)
gorgewall: 101G (0.8%, 2,621G)
Drusiform: 100G (0.8%, 3,190G)

green bets:
SkylerBunny: 3,500G (78.4%, 319,465G)
TheMurkGnome: 500G (11.2%, 2,544G)
resjudicata3: 200G (4.5%, 5,504G)
CT_5_Holy: 166G (3.7%, 966G)
twelfthrootoftwo: 100G (2.2%, 4,871G)
