Final Bets: red - 8 bets for 7,847G (31.1%, x2.22); blue - 20 bets for 17,398G (68.9%, x0.45)

red bets:
SkylerBunny: 5,000G (63.7%, 221,484G)
HaateXIII: 1,299G (16.6%, 1,299G)
killth3kid: 827G (10.5%, 827G)
pidgelol: 200G (2.5%, 1,100G)
datadrivenbot: 200G (2.5%, 47,875G)
Gunz232323: 120G (1.5%, 120G)
gorgewall: 101G (1.3%, 3,759G)
Powermhero: 100G (1.3%, 31,000G)

blue bets:
Mesmaster: 5,747G (33.0%, 5,747G)
NicoSavoy: 2,115G (12.2%, 51,892G)
latebit: 1,462G (8.4%, 2,867G)
DeathTaxesAndAnime: 1,425G (8.2%, 2,796G)
BirbBrainsBot: 1,000G (5.7%, 135,281G)
getthemoneyz: 1,000G (5.7%, 1,559,032G)
superdevon1: 958G (5.5%, 47,909G)
sinnyil2: 856G (4.9%, 856G)
douchetron: 837G (4.8%, 1,642G)
nekojin: 500G (2.9%, 34,958G)
itskage: 400G (2.3%, 4,000G)
Ayntlerz: 228G (1.3%, 228G)
AllInBot: 200G (1.1%, 200G)
Lydian_C: 123G (0.7%, 18,066G)
ANFz: 101G (0.6%, 45,255G)
MinBetBot: 100G (0.6%, 16,300G)
Firesheath: 100G (0.6%, 21,727G)
northkoreancleetus: 100G (0.6%, 504G)
Twisted_Nutsatchel: 100G (0.6%, 15,457G)
Rook512: 46G (0.3%, 469G)
