Final Bets: white - 4 bets for 7,523G (49.9%, x1.00); purple - 17 bets for 7,549G (50.1%, x1.00)

white bets:
killth3kid: 5,771G (76.7%, 5,771G)
DeathTaxesAndAnime: 1,352G (18.0%, 2,652G)
CorpusCav: 300G (4.0%, 4,746G)
nifboy: 100G (1.3%, 3,476G)

purple bets:
randgridr: 1,500G (19.9%, 8,107G)
Lydian_C: 1,200G (15.9%, 19,186G)
BirbBrainsBot: 1,000G (13.2%, 133,372G)
Mesmaster: 1,000G (13.2%, 5,618G)
superdevon1: 927G (12.3%, 46,387G)
itskage: 451G (6.0%, 4,510G)
douchetron: 387G (5.1%, 760G)
AllInBot: 200G (2.6%, 200G)
datadrivenbot: 200G (2.6%, 47,952G)
holdenmagronik: 150G (2.0%, 3,123G)
xBizzy: 131G (1.7%, 2,636G)
MinBetBot: 100G (1.3%, 16,450G)
Gyrolin: 100G (1.3%, 1,385G)
cho_pin: 100G (1.3%, 525G)
northkoreancleetus: 50G (0.7%, 463G)
getthemoneyz: 40G (0.5%, 1,558,919G)
Rook512: 13G (0.2%, 266G)
