Final Bets: blue - 14 bets for 6,614G (53.0%, x0.89); champion - 11 bets for 5,870G (47.0%, x1.13)

blue bets:
nekojin: 2,000G (30.2%, 41,414G)
BirbBrainsBot: 1,000G (15.1%, 132,590G)
superdevon1: 913G (13.8%, 45,658G)
killth3kid: 656G (9.9%, 11,705G)
WhiteTigress: 350G (5.3%, 8,731G)
Chuckolator: 308G (4.7%, 308G)
Rook512: 308G (4.7%, 308G)
CorpusCav: 252G (3.8%, 5,047G)
AllInBot: 200G (3.0%, 200G)
getthemoneyz: 154G (2.3%, 1,558,903G)
sinnyil2: 150G (2.3%, 1,835G)
Lydian_C: 123G (1.9%, 18,013G)
MinBetBot: 100G (1.5%, 16,372G)
Firesheath: 100G (1.5%, 22,771G)

champion bets:
douchetron: 1,731G (29.5%, 1,731G)
DeathTaxesAndAnime: 1,165G (19.8%, 2,465G)
Gunz232323: 620G (10.6%, 620G)
randgridr: 500G (8.5%, 7,238G)
cho_pin: 425G (7.2%, 425G)
itskage: 414G (7.1%, 4,147G)
PantherIscariot: 333G (5.7%, 4,259G)
JonnyCue: 232G (4.0%, 232G)
datadrivenbot: 200G (3.4%, 47,796G)
holdenmagronik: 150G (2.6%, 2,823G)
Twisted_Nutsatchel: 100G (1.7%, 15,506G)
