Final Bets: purple - 11 bets for 4,205G (32.7%, x2.06); brown - 9 bets for 8,642G (67.3%, x0.49)

purple bets:
Thyrandaal: 1,000G (23.8%, 22,673G)
edgehead62888: 1,000G (23.8%, 28,045G)
DeathTaxesAndAnime: 616G (14.6%, 616G)
serperemagus: 388G (9.2%, 388G)
BlackFireUK: 364G (8.7%, 364G)
Chronolynx42: 300G (7.1%, 1,832G)
d4rr1n: 300G (7.1%, 4,795G)
datadrivenbot: 100G (2.4%, 38,883G)
mrfripps: 100G (2.4%, 3,912G)
roqqqpsi: 23G (0.5%, 2,324G)
getthemoneyz: 14G (0.3%, 955,494G)

brown bets:
TheGuesty: 3,214G (37.2%, 73,214G)
woohoo_brokeback: 1,234G (14.3%, 4,230G)
Etce: 1,057G (12.2%, 1,057G)
reddwind_: 1,000G (11.6%, 1,652G)
prince_rogers_nelson_: 913G (10.6%, 913G)
BirbBrainsBot: 824G (9.5%, 20,486G)
Evewho: 200G (2.3%, 13,362G)
AllInBot: 100G (1.2%, 100G)
E_Ballard: 100G (1.2%, 6,556G)
