Final Bets: white - 5 bets for 4,694G (40.7%, x1.46); purple - 12 bets for 6,845G (59.3%, x0.69)

white bets:
Thyrandaal: 2,000G (42.6%, 21,828G)
Chronolynx42: 1,224G (26.1%, 2,449G)
BirbBrainsBot: 1,000G (21.3%, 18,662G)
AkiriXx: 280G (6.0%, 280G)
getthemoneyz: 190G (4.0%, 955,349G)

purple bets:
woohoo_brokeback: 2,996G (43.8%, 2,996G)
BlackFireUK: 1,685G (24.6%, 3,371G)
ShintaroNayaka: 400G (5.8%, 8,008G)
bruubarg: 380G (5.6%, 380G)
reddwind_: 324G (4.7%, 324G)
TeaTime29: 300G (4.4%, 13,388G)
Etce: 260G (3.8%, 260G)
AllInBot: 100G (1.5%, 100G)
lastly: 100G (1.5%, 24,045G)
datadrivenbot: 100G (1.5%, 39,292G)
mrfripps: 100G (1.5%, 4,018G)
d4rr1n: 100G (1.5%, 6,022G)
