Final Bets: purple - 14 bets for 3,960G (20.3%, x3.93); brown - 17 bets for 15,556G (79.7%, x0.25)

purple bets:
Wargles: 1,000G (25.3%, 2,205G)
HaplessOne: 666G (16.8%, 8,146G)
sinnyil2: 500G (12.6%, 6,658G)
CapnChaos12: 500G (12.6%, 50,790G)
Estan_AD: 464G (11.7%, 464G)
alecttox: 150G (3.8%, 9,168G)
ko2q: 100G (2.5%, 2,766G)
Evewho: 100G (2.5%, 9,806G)
Bioticism: 100G (2.5%, 1,807G)
RestIessNight: 100G (2.5%, 100G)
nok____: 100G (2.5%, 100G)
Mesmaster: 100G (2.5%, 56,757G)
Rislyeu: 50G (1.3%, 391G)
Lonfyre: 30G (0.8%, 2,494G)

brown bets:
reinoe: 6,328G (40.7%, 12,657G)
Mirrorclaw: 2,000G (12.9%, 3,973G)
ungabunga_bot: 1,000G (6.4%, 290,983G)
BirbBrainsBot: 1,000G (6.4%, 151,532G)
Odin007_88: 750G (4.8%, 3,239G)
LAGBOT30000: 659G (4.2%, 32,999G)
gorgewall: 600G (3.9%, 18,541G)
Phytik: 502G (3.2%, 502G)
Laserman1000: 500G (3.2%, 73,100G)
Dymntd: 500G (3.2%, 6,021G)
twelfthrootoftwo: 400G (2.6%, 3,763G)
getthemoneyz: 388G (2.5%, 611,235G)
Reductions: 329G (2.1%, 329G)
red_celt: 300G (1.9%, 9,492G)
kuterian: 100G (0.6%, 1,030G)
datadrivenbot: 100G (0.6%, 11,232G)
Firesheath: 100G (0.6%, 13,195G)
