Final Bets: blue - 15 bets for 9,023G (22.3%, x3.49); green - 32 bets for 31,518G (77.7%, x0.29)

blue bets:
BirbBrainsBot: 1,000G (11.1%, 254,527G)
bad1dea: 1,000G (11.1%, 43,718G)
soapydragonfly: 972G (10.8%, 1,945G)
DeathTaxesAndAnime: 886G (9.8%, 886G)
DudeMonkey77: 816G (9.0%, 816G)
DrAntiSocial: 752G (8.3%, 752G)
Shalloween: 693G (7.7%, 3,465G)
jethrothrul: 584G (6.5%, 584G)
DarrenDinosaurs: 500G (5.5%, 5,406G)
OneHundredFists: 500G (5.5%, 1,247G)
getthemoneyz: 430G (4.8%, 440,705G)
nifboy: 340G (3.8%, 340G)
Meta_Five: 300G (3.3%, 5,728G)
Ausuri: 150G (1.7%, 2,406G)
Firesheath: 100G (1.1%, 1,880G)

green bets:
toka222: 10,000G (31.7%, 524,578G)
RRazza: 5,245G (16.6%, 5,245G)
lijarkh: 2,585G (8.2%, 5,069G)
MoonSlayerRS: 1,675G (5.3%, 1,675G)
Ant_ihistamine: 1,342G (4.3%, 1,342G)
Lord_Burrah: 1,200G (3.8%, 90,810G)
mpghappiness: 1,134G (3.6%, 1,134G)
lunatickzero: 1,000G (3.2%, 11,669G)
Laserman1000: 715G (2.3%, 7,615G)
ANFz: 694G (2.2%, 1,389G)
Wonser: 500G (1.6%, 3,750G)
LavyWays: 500G (1.6%, 25,676G)
Evewho: 500G (1.6%, 3,913G)
Alenivan: 500G (1.6%, 1,385G)
luminarii: 494G (1.6%, 10,398G)
ApplesauceBoss: 460G (1.5%, 460G)
friendsquirrel: 372G (1.2%, 372G)
roofiepops: 348G (1.1%, 348G)
rNdOrchestra: 342G (1.1%, 342G)
EnemyController: 239G (0.8%, 28,739G)
YaBoy125: 218G (0.7%, 21,817G)
ugoplatamia: 200G (0.6%, 8,100G)
KasugaiRoastedPeas: 200G (0.6%, 16,912G)
V3rdeni: 200G (0.6%, 1,463G)
NoNotBees: 200G (0.6%, 918G)
Meanderandreturn: 150G (0.5%, 1,452G)
AllInBot: 100G (0.3%, 100G)
moonliquor: 100G (0.3%, 640G)
datadrivenbot: 100G (0.3%, 22,564G)
AlenaZarek: 100G (0.3%, 4,175G)
maakur_: 100G (0.3%, 1,876G)
ko2q: 5G (0.0%, 2,338G)
