Final Bets: red - 16 bets for 6,454G (35.9%, x1.79); blue - 23 bets for 11,542G (64.1%, x0.56)

red bets:
Aldrammech: 1,000G (15.5%, 22,213G)
jakeduhhsnake: 1,000G (15.5%, 73,243G)
Lionhermit: 1,000G (15.5%, 35,321G)
NovaKnight21: 570G (8.8%, 570G)
TheMurkGnome: 500G (7.7%, 4,920G)
mirapoix: 468G (7.3%, 468G)
roofiepops: 444G (6.9%, 23,213G)
itsadud: 322G (5.0%, 322G)
Kyune: 250G (3.9%, 4,831G)
ACSpree: 200G (3.1%, 51,648G)
BirbBrainsBot: 200G (3.1%, 200G)
Firesheath: 100G (1.5%, 11,908G)
rjA0zcOQ96: 100G (1.5%, 23,941G)
Lyner87: 100G (1.5%, 65,361G)
maakur_: 100G (1.5%, 119,541G)
InOzWeTrust: 100G (1.5%, 260G)

blue bets:
killth3kid: 2,000G (17.3%, 57,882G)
DeathTaxesAndAnime: 1,280G (11.1%, 2,511G)
KasugaiRoastedPeas: 1,234G (10.7%, 4,758G)
Baron_von_Scrub: 754G (6.5%, 754G)
catfashions: 750G (6.5%, 14,340G)
volgrathemoose: 727G (6.3%, 1,454G)
Zetchryn: 671G (5.8%, 671G)
getthemoneyz: 658G (5.7%, 609,568G)
ungabunga_bot: 508G (4.4%, 328,609G)
Breakdown777: 500G (4.3%, 17,026G)
evdoggity: 300G (2.6%, 4,570G)
twelfthrootoftwo: 300G (2.6%, 1,825G)
ShintaroNayaka: 300G (2.6%, 2,078G)
hydroshade: 250G (2.2%, 2,270G)
SarrgeQc: 236G (2.0%, 236G)
Boultson1337: 220G (1.9%, 220G)
mpghappiness: 200G (1.7%, 1,558G)
Bloody_Nips: 150G (1.3%, 879G)
witchlight: 104G (0.9%, 104G)
Tougou: 100G (0.9%, 7,672G)
Evewho: 100G (0.9%, 8,733G)
nifboy: 100G (0.9%, 4,968G)
datadrivenbot: 100G (0.9%, 12,326G)
