Final Bets: white - 25 bets for 20,559G (74.9%, x0.33); black - 14 bets for 6,872G (25.1%, x2.99)

white bets:
Mesmaster: 5,000G (24.3%, 109,641G)
dem0nj0ns: 4,578G (22.3%, 4,578G)
Baron_von_Scrub: 1,111G (5.4%, 15,544G)
Sans_from_Snowdin: 1,000G (4.9%, 15,095G)
helpimabug: 882G (4.3%, 882G)
Breakdown777: 861G (4.2%, 861G)
superdevon1: 820G (4.0%, 820G)
sandball: 788G (3.8%, 788G)
n2ash: 511G (2.5%, 2,215G)
BoneMiser: 500G (2.4%, 500G)
Arcblazer23: 500G (2.4%, 9,003G)
Magicandy: 500G (2.4%, 14,253G)
cactus_tony_: 500G (2.4%, 2,358G)
MagicBottle: 452G (2.2%, 452G)
killth3kid: 444G (2.2%, 444G)
Shalloween: 400G (1.9%, 74,810G)
Lemonjohns: 366G (1.8%, 366G)
ArashiKurobara: 264G (1.3%, 264G)
benticore: 250G (1.2%, 3,367G)
Forkmore: 220G (1.1%, 220G)
casteia: 200G (1.0%, 1,410G)
turbn: 112G (0.5%, 112G)
Ring_Wyrm: 100G (0.5%, 1,704G)
thewondertrickster: 100G (0.5%, 973G)
datadrivenbot: 100G (0.5%, 48,024G)

black bets:
UmaiJam: 1,200G (17.5%, 24,415G)
DuraiPapers: 1,176G (17.1%, 2,353G)
sukotsuto: 1,000G (14.6%, 32,453G)
E_Ballard: 817G (11.9%, 817G)
serperemagus: 568G (8.3%, 568G)
BirbBrainsBot: 510G (7.4%, 107,483G)
GladiatorLupe: 500G (7.3%, 7,798G)
neerrm: 333G (4.8%, 32,176G)
silentkaster: 200G (2.9%, 9,546G)
twelfthrootoftwo: 200G (2.9%, 9,416G)
ZombiFrancis: 100G (1.5%, 6,637G)
livvexx: 100G (1.5%, 1,420G)
Thyrandaal: 100G (1.5%, 9,868G)
getthemoneyz: 68G (1.0%, 1,102,999G)
