Final Bets: green - 13 bets for 5,986G (31.8%, x2.15); yellow - 11 bets for 12,857G (68.2%, x0.47)

green bets:
TheChainNerd: 1,500G (25.1%, 22,345G)
twelfthrootoftwo: 1,000G (16.7%, 13,179G)
BirbBrainsBot: 1,000G (16.7%, 178,759G)
letdowncity: 500G (8.4%, 18,589G)
alterworlds: 462G (7.7%, 462G)
ShintaroNayaka: 400G (6.7%, 8,021G)
cam_ATS: 228G (3.8%, 228G)
Belkra: 228G (3.8%, 228G)
serperemagus: 208G (3.5%, 208G)
GladiatorLupe: 200G (3.3%, 8,029G)
outer_monologue: 120G (2.0%, 120G)
smegma_sorcerer: 100G (1.7%, 2,154G)
getthemoneyz: 40G (0.7%, 797,741G)

yellow bets:
sinnyil2: 7,752G (60.3%, 15,505G)
Lord_Burrah: 2,000G (15.6%, 95,000G)
Nickyfive: 1,239G (9.6%, 2,478G)
Who_lio42: 500G (3.9%, 15,468G)
Lydian_C: 420G (3.3%, 4,432G)
gogofromtogo: 316G (2.5%, 316G)
JLinkletter: 200G (1.6%, 3,432G)
soren_of_tyto: 140G (1.1%, 140G)
GrayGhostGaming: 100G (0.8%, 13,443G)
datadrivenbot: 100G (0.8%, 31,226G)
zepharoth89: 90G (0.7%, 1,807G)
