Final Bets: purple - 13 bets for 8,506G (55.5%, x0.80); brown - 14 bets for 6,810G (44.5%, x1.25)

purple bets:
NovaKnight21: 3,000G (35.3%, 18,490G)
TheChainNerd: 1,500G (17.6%, 24,745G)
Lord_Burrah: 1,004G (11.8%, 93,004G)
DavenIII: 1,000G (11.8%, 4,384G)
Lydian_C: 500G (5.9%, 4,278G)
ShintaroNayaka: 400G (4.7%, 6,621G)
run_with_stone_GUNs: 250G (2.9%, 10,850G)
coralreeferz: 250G (2.9%, 1,470G)
brokenknight201: 248G (2.9%, 248G)
Angelomortis: 200G (2.4%, 200G)
Belkra: 120G (1.4%, 120G)
daveb_: 22G (0.3%, 1,253G)
getthemoneyz: 12G (0.1%, 797,659G)

brown bets:
thenextlantern: 1,000G (14.7%, 4,153G)
BirbBrainsBot: 1,000G (14.7%, 180,359G)
pplvee1: 850G (12.5%, 850G)
soren_of_tyto: 738G (10.8%, 738G)
Shinzutalos: 720G (10.6%, 720G)
Sairentozon7: 524G (7.7%, 524G)
Who_lio42: 500G (7.3%, 17,301G)
Bryon_W: 460G (6.8%, 460G)
cam_ATS: 228G (3.3%, 228G)
serperemagus: 208G (3.1%, 208G)
JLinkletter: 200G (2.9%, 3,225G)
zepharoth89: 166G (2.4%, 1,665G)
alterworlds: 116G (1.7%, 116G)
datadrivenbot: 100G (1.5%, 31,173G)
