Final Bets: red - 13 bets for 10,795G (64.4%, x0.55); green - 7 bets for 5,978G (35.6%, x1.81)

red bets:
resjudicata3: 3,829G (35.5%, 3,829G)
OneHundredFists: 3,000G (27.8%, 15,375G)
NovaKnight21: 896G (8.3%, 896G)
HorusTaurus: 841G (7.8%, 841G)
getthemoneyz: 538G (5.0%, 2,081,936G)
DHaveWord: 526G (4.9%, 1,052G)
Zachara: 252G (2.3%, 151,652G)
AllInBot: 200G (1.9%, 200G)
DouglasDragonThePoet: 200G (1.9%, 3,360G)
datadrivenbot: 200G (1.9%, 76,332G)
Lolthsmeat: 112G (1.0%, 112G)
gorgewall: 101G (0.9%, 2,539G)
JermZzZzZz: 100G (0.9%, 100G)

green bets:
bigbongsmoker: 3,523G (58.9%, 7,047G)
BirbBrainsBot: 1,000G (16.7%, 168,870G)
fattunaking: 630G (10.5%, 630G)
ColetteMSLP: 300G (5.0%, 4,103G)
russell2x: 300G (5.0%, 1,388G)
MemoriesofFinal: 125G (2.1%, 1,533G)
Evewho: 100G (1.7%, 2,055G)
