Final Bets: red - 9 bets for 9,315G (57.0%, x0.75); blue - 12 bets for 7,028G (43.0%, x1.33)

red bets:
randgridr: 3,850G (41.3%, 3,850G)
prince_rogers_nelson_: 1,776G (19.1%, 1,776G)
Laserman1000: 1,082G (11.6%, 1,082G)
Lythe_Caraker: 1,000G (10.7%, 159,058G)
thehotrefrigerator: 705G (7.6%, 705G)
readdesert: 272G (2.9%, 272G)
douchetron: 230G (2.5%, 230G)
AllInBot: 200G (2.1%, 200G)
datadrivenbot: 200G (2.1%, 37,854G)

blue bets:
toka222: 1,500G (21.3%, 88,399G)
BirbBrainsBot: 1,000G (14.2%, 20,298G)
Sairentozon7: 1,000G (14.2%, 68,557G)
getthemoneyz: 920G (13.1%, 1,362,742G)
amiture: 500G (7.1%, 6,229G)
ribbiks: 500G (7.1%, 1,089G)
fluffskull: 468G (6.7%, 468G)
superdevon1: 339G (4.8%, 3,391G)
ruleof5: 300G (4.3%, 9,288G)
gorgewall: 201G (2.9%, 15,510G)
DeathTaxesAndAnime: 200G (2.8%, 2,308G)
Klednar21: 100G (1.4%, 586G)
