Final Bets: red - 14 bets for 14,698G (40.5%, x1.47); blue - 17 bets for 21,626G (59.5%, x0.68)

red bets:
biske13: 10,000G (68.0%, 208,206G)
PoroTact: 1,160G (7.9%, 1,160G)
BirbBrainsBot: 1,000G (6.8%, 25,825G)
Raixelol: 600G (4.1%, 600G)
JonnyCue: 388G (2.6%, 388G)
otakutaylor: 306G (2.1%, 306G)
killth3kid: 250G (1.7%, 8,616G)
AllInBot: 225G (1.5%, 225G)
Kellios11: 200G (1.4%, 2,576G)
Riley331: 135G (0.9%, 135G)
getthemoneyz: 134G (0.9%, 1,963,571G)
BartTradingCompany: 100G (0.7%, 10,214G)
CosmicTactician: 100G (0.7%, 27,291G)
hdyehy: 100G (0.7%, 709G)

blue bets:
akash7: 6,500G (30.1%, 6,500G)
HaateXIII: 4,588G (21.2%, 4,588G)
LDSkinny: 2,140G (9.9%, 2,140G)
DeathTaxesAndAnime: 2,002G (9.3%, 21,343G)
CapnChaos12: 1,515G (7.0%, 1,515G)
CorpusCav: 1,400G (6.5%, 52,308G)
VolgraTheMoose: 792G (3.7%, 792G)
krombobreaker: 523G (2.4%, 523G)
Musashi45: 500G (2.3%, 1,176G)
Smugzug: 409G (1.9%, 819G)
SephDarkheart: 356G (1.6%, 32,821G)
SnarkMage: 200G (0.9%, 1,636G)
datadrivenbot: 200G (0.9%, 60,172G)
old_overholt_: 200G (0.9%, 11,902G)
gorgewall: 101G (0.5%, 4,839G)
maakur_: 100G (0.5%, 3,285G)
Nythimus: 100G (0.5%, 1,145G)
