Final Bets: blue - 14 bets for 8,677G (22.2%, x3.51); green - 22 bets for 30,463G (77.8%, x0.28)

blue bets:
Musashi45: 1,971G (22.7%, 3,943G)
douchetron: 1,386G (16.0%, 1,386G)
Raixelol: 1,292G (14.9%, 1,292G)
lowlf: 1,111G (12.8%, 27,698G)
PoroTact: 597G (6.9%, 1,757G)
powergems: 444G (5.1%, 5,255G)
run_with_stone_GUNs: 416G (4.8%, 11,306G)
Cryptopsy70: 376G (4.3%, 391G)
killth3kid: 250G (2.9%, 9,422G)
getthemoneyz: 234G (2.7%, 1,966,048G)
AllInBot: 200G (2.3%, 200G)
tripaplex: 200G (2.3%, 2,458G)
wiznaibusthis: 100G (1.2%, 1,086G)
Nythimus: 100G (1.2%, 1,213G)

green bets:
nhammen: 10,000G (32.8%, 305,104G)
DeathTaxesAndAnime: 6,791G (22.3%, 13,316G)
akash7: 1,819G (6.0%, 12,819G)
CorpusCav: 1,740G (5.7%, 50,360G)
ser_pyrro: 1,446G (4.7%, 2,892G)
dogsandcatsand: 1,000G (3.3%, 33,008G)
BirbBrainsBot: 1,000G (3.3%, 27,117G)
LDSkinny: 1,000G (3.3%, 2,594G)
HaateXIII: 980G (3.2%, 980G)
Smugzug: 883G (2.9%, 883G)
DavenIII: 790G (2.6%, 790G)
Lord_Gwarth: 500G (1.6%, 5,438G)
latebit: 480G (1.6%, 10,141G)
Rune339: 443G (1.5%, 4,436G)
resjudicata3: 316G (1.0%, 316G)
MilkaChoko: 300G (1.0%, 3,232G)
SnarkMage: 250G (0.8%, 1,100G)
Craymel_Mage: 224G (0.7%, 224G)
datadrivenbot: 200G (0.7%, 60,390G)
gorgewall: 101G (0.3%, 4,855G)
BartTradingCompany: 100G (0.3%, 10,154G)
Thyrandaal: 100G (0.3%, 57,365G)
