Final Bets: green - 21 bets for 17,396G (68.2%, x0.47); yellow - 16 bets for 8,096G (31.8%, x2.15)

green bets:
ko2q: 5,091G (29.3%, 10,182G)
sinnyil2: 2,500G (14.4%, 121,745G)
Lord_Burrah: 1,508G (8.7%, 85,008G)
fenaen: 1,500G (8.6%, 67,266G)
catfashions: 1,003G (5.8%, 6,557G)
feDoran: 1,000G (5.7%, 20,975G)
mirapoix: 690G (4.0%, 690G)
kai_shee: 609G (3.5%, 609G)
ungabunga_bot: 521G (3.0%, 234,601G)
powergems: 500G (2.9%, 23,280G)
whiteonrice: 400G (2.3%, 3,553G)
nedryerson01: 400G (2.3%, 3,481G)
killth3kid: 316G (1.8%, 26,274G)
dorman_777: 308G (1.8%, 308G)
ANFz: 250G (1.4%, 20,621G)
ProdigyAzn: 200G (1.1%, 200G)
ewan_e: 200G (1.1%, 1,547G)
Tougou: 100G (0.6%, 16,606G)
Evewho: 100G (0.6%, 3,432G)
datadrivenbot: 100G (0.6%, 1,890G)
smurphy000000: 100G (0.6%, 776G)

yellow bets:
Pie108: 2,000G (24.7%, 89,711G)
Baron_von_Scrub: 1,111G (13.7%, 88,350G)
Meta_Five: 1,000G (12.4%, 10,928G)
BirbBrainsBot: 1,000G (12.4%, 146,411G)
MoonSlayerRS: 472G (5.8%, 472G)
Eldente: 396G (4.9%, 396G)
TheRylander: 300G (3.7%, 2,618G)
EvilLego6: 300G (3.7%, 2,636G)
EnemyController: 300G (3.7%, 104,985G)
arch8000: 286G (3.5%, 9,544G)
getthemoneyz: 272G (3.4%, 573,020G)
LivingHitokiri: 200G (2.5%, 1,899G)
carsenhk: 150G (1.9%, 16,175G)
aznwanderor: 108G (1.3%, 108G)
ZephyrTempest: 101G (1.2%, 185,521G)
Firesheath: 100G (1.2%, 9,206G)
