Final Bets: blue - 11 bets for 7,403G (62.7%, x0.60); white - 10 bets for 4,411G (37.3%, x1.68)

blue bets:
HASTERIOUS: 3,137G (42.4%, 3,137G)
killth3kid: 1,000G (13.5%, 24,000G)
BirbBrainsBot: 1,000G (13.5%, 165,142G)
Evewho: 668G (9.0%, 668G)
prince_rogers_nelson_: 500G (6.8%, 14,703G)
ScarletSpiderBen: 300G (4.1%, 5,095G)
ColetteMSLP: 300G (4.1%, 348G)
Lydian_C: 230G (3.1%, 2,544G)
AllInBot: 100G (1.4%, 100G)
d4rr1n: 100G (1.4%, 5,162G)
getthemoneyz: 68G (0.9%, 932,263G)

white bets:
gorgewall: 1,001G (22.7%, 16,330G)
Yiroep2: 1,000G (22.7%, 1,416G)
electric_algus: 800G (18.1%, 8,772G)
CT_5_Holy: 300G (6.8%, 300G)
kaelsun: 292G (6.6%, 292G)
DAC169: 286G (6.5%, 286G)
fluffskull: 232G (5.3%, 232G)
Ring_Wyrm: 200G (4.5%, 1,178G)
itszaane: 200G (4.5%, 3,203G)
datadrivenbot: 100G (2.3%, 35,866G)
