Final Bets: blue - 8 bets for 8,270G (29.4%, x2.41); yellow - 15 bets for 19,899G (70.6%, x0.42)

blue bets:
TheKillerNacho: 5,411G (65.4%, 5,411G)
DavenIII: 1,000G (12.1%, 19,487G)
megaman2202: 859G (10.4%, 1,719G)
bahamutlagooon: 310G (3.7%, 310G)
Aestheta: 204G (2.5%, 204G)
otakutaylor: 200G (2.4%, 4,216G)
getthemoneyz: 186G (2.2%, 674,960G)
E_Ballard: 100G (1.2%, 2,177G)

yellow bets:
run_with_stone_GUNs: 8,136G (40.9%, 8,136G)
Anomandaris__: 2,044G (10.3%, 2,044G)
maakur_: 1,380G (6.9%, 1,380G)
metagameface: 1,251G (6.3%, 1,251G)
BirbBrainsBot: 1,000G (5.0%, 7,254G)
Lionhermit: 1,000G (5.0%, 49,250G)
Bryon_W: 1,000G (5.0%, 4,746G)
Anethum: 967G (4.9%, 1,935G)
sinnyil2: 800G (4.0%, 51,588G)
Zeroroute: 600G (3.0%, 600G)
ko2q: 470G (2.4%, 470G)
Dexef: 416G (2.1%, 416G)
nifboy: 400G (2.0%, 400G)
ungabunga_bot: 335G (1.7%, 472,778G)
datadrivenbot: 100G (0.5%, 13,714G)
