Final Bets: black - 11 bets for 4,179G (17.2%, x4.81); champion - 11 bets for 20,112G (82.8%, x0.21)

black bets:
roqqqpsi: 1,493G (35.7%, 13,575G)
Estan_AD: 686G (16.4%, 1,373G)
Candina: 500G (12.0%, 12,741G)
bruubarg: 500G (12.0%, 2,933G)
LeoNightFury: 300G (7.2%, 2,609G)
Digitalsocrates: 200G (4.8%, 1,034G)
AllInBot: 100G (2.4%, 100G)
maakur_: 100G (2.4%, 3,455G)
CosmicTactician: 100G (2.4%, 18,791G)
E_Ballard: 100G (2.4%, 7,026G)
letdowncity: 100G (2.4%, 2,762G)

champion bets:
AUrato: 9,954G (49.5%, 9,954G)
josephiroth_143: 3,033G (15.1%, 3,033G)
Kyune: 2,000G (9.9%, 18,543G)
Baron_von_Scrub: 1,111G (5.5%, 12,934G)
cloud92684: 1,000G (5.0%, 8,932G)
BirbBrainsBot: 1,000G (5.0%, 119,741G)
ForagerCats: 1,000G (5.0%, 10,451G)
getthemoneyz: 564G (2.8%, 697,971G)
Lydian_C: 300G (1.5%, 2,116G)
datadrivenbot: 100G (0.5%, 22,530G)
DrAntiSocial: 50G (0.2%, 19,169G)
