Final Bets: black - 11 bets for 11,171G (42.6%, x1.35); brown - 15 bets for 15,069G (57.4%, x0.74)

black bets:
randgridr: 2,235G (20.0%, 22,355G)
Thyrandaal: 2,222G (19.9%, 37,012G)
NicoSavoy: 2,000G (17.9%, 350,206G)
Chuckolator: 1,167G (10.4%, 3,897G)
BirbBrainsBot: 1,000G (9.0%, 29,744G)
Aldrammech: 1,000G (9.0%, 67,882G)
mirapoix: 620G (5.6%, 620G)
poGpopE: 500G (4.5%, 33,500G)
nhammen: 200G (1.8%, 23,323G)
getthemoneyz: 126G (1.1%, 1,441,708G)
mrpickins: 101G (0.9%, 4,916G)

brown bets:
prince_rogers_nelson_: 3,272G (21.7%, 3,272G)
Zeroroute: 2,975G (19.7%, 2,975G)
douchetron: 1,692G (11.2%, 1,692G)
Shalloween: 1,200G (8.0%, 41,504G)
sinnyil2: 1,068G (7.1%, 1,068G)
escobro: 1,000G (6.6%, 14,091G)
AllInBot: 992G (6.6%, 992G)
resjudicata3: 692G (4.6%, 692G)
Laserman1000: 560G (3.7%, 10,360G)
DustBirdEX: 536G (3.6%, 536G)
ArlanKels: 309G (2.1%, 3,868G)
Vaxaldan: 248G (1.6%, 248G)
amhamor: 225G (1.5%, 225G)
datadrivenbot: 200G (1.3%, 48,177G)
DeathTaxesAndAnime: 100G (0.7%, 1,915G)
