Final Bets: green - 14 bets for 9,539G (59.0%, x0.69); yellow - 5 bets for 6,625G (41.0%, x1.44)

green bets:
randgridr: 3,726G (39.1%, 3,726G)
DeathTaxesAndAnime: 1,151G (12.1%, 2,257G)
BirbBrainsBot: 1,000G (10.5%, 92,464G)
sinnyil2: 1,000G (10.5%, 1,000G)
NovaKnight21: 775G (8.1%, 775G)
Chambs12: 500G (5.2%, 8,560G)
theyoungkroh: 300G (3.1%, 969G)
rednecknazgul: 236G (2.5%, 236G)
gorgewall: 201G (2.1%, 15,173G)
AllInBot: 200G (2.1%, 200G)
datadrivenbot: 200G (2.1%, 44,084G)
maximumcrit: 100G (1.0%, 11,021G)
CT_5_Holy: 100G (1.0%, 1,198G)
Drusiform: 50G (0.5%, 1,226G)

yellow bets:
josephiroth_143: 4,000G (60.4%, 7,010G)
Zachara: 1,000G (15.1%, 131,200G)
douchetron: 987G (14.9%, 987G)
getthemoneyz: 520G (7.8%, 1,457,547G)
EmmaEnema: 118G (1.8%, 778G)
