Final Bets: green - 18 bets for 11,297G (64.3%, x0.56); purple - 10 bets for 6,283G (35.7%, x1.80)

green bets:
DeathTaxesAndAnime: 3,521G (31.2%, 6,904G)
ShintaroNayaka: 1,712G (15.2%, 1,712G)
jethrothrul: 1,117G (9.9%, 1,117G)
TycerNova: 1,000G (8.9%, 4,232G)
Treapvort: 539G (4.8%, 1,079G)
Maeveen: 500G (4.4%, 4,676G)
herrshaun: 442G (3.9%, 442G)
maakur_: 380G (3.4%, 380G)
kingchadking: 376G (3.3%, 376G)
R_Raynos: 372G (3.3%, 372G)
robespyah: 316G (2.8%, 316G)
red_celt: 200G (1.8%, 9,354G)
Cataphract116: 200G (1.8%, 2,249G)
AlysSariel: 200G (1.8%, 1,319G)
HorusTaurus: 176G (1.6%, 308G)
AllInBot: 141G (1.2%, 141G)
datadrivenbot: 100G (0.9%, 15,881G)
ko2q: 5G (0.0%, 1,496G)

purple bets:
theatheologist: 1,111G (17.7%, 72,063G)
BirbBrainsBot: 1,000G (15.9%, 162,767G)
bad1dea: 1,000G (15.9%, 372,302G)
Shakarak: 1,000G (15.9%, 39,911G)
WireLord: 1,000G (15.9%, 6,392G)
ungabunga_bot: 500G (8.0%, 13,576G)
ugoplatamia: 200G (3.2%, 11,231G)
getthemoneyz: 192G (3.1%, 415,203G)
7Cerulean7: 180G (2.9%, 2,373G)
ApplesauceBoss: 100G (1.6%, 6,598G)
