Final Bets: red - 11 bets for 5,199G (53.9%, x0.86); blue - 12 bets for 4,447G (46.1%, x1.17)

red bets:
BirbBrainsBot: 1,000G (19.2%, 139,852G)
Zeroroute: 943G (18.1%, 943G)
DeathTaxesAndAnime: 884G (17.0%, 884G)
EnemyController: 555G (10.7%, 1,385,618G)
MagicBottle: 512G (9.8%, 17,293G)
Forkmore: 500G (9.6%, 6,417G)
RageImmortaI: 284G (5.5%, 2,259G)
dolzytwitch: 200G (3.8%, 2,776G)
Lydian_C: 121G (2.3%, 130,039G)
nhammen: 100G (1.9%, 10,169G)
getthemoneyz: 100G (1.9%, 1,225,592G)

blue bets:
Evewho: 1,000G (22.5%, 4,051G)
Virilikus: 1,000G (22.5%, 193,546G)
moonliquor: 500G (11.2%, 2,410G)
ValtonZenola: 456G (10.3%, 456G)
Blastinus: 378G (8.5%, 378G)
twelfthrootoftwo: 300G (6.7%, 4,498G)
datadrivenbot: 200G (4.5%, 55,829G)
byrdturbo: 169G (3.8%, 18,743G)
SephDarkheart: 144G (3.2%, 144G)
Blakelmenakle: 100G (2.2%, 3,023G)
Quadh0nk: 100G (2.2%, 4,915G)
CosmicTactician: 100G (2.2%, 42,734G)
