Final Bets: white - 17 bets for 9,936G (58.7%, x0.70); black - 10 bets for 6,993G (41.3%, x1.42)

white bets:
NovaKnight21: 2,000G (20.1%, 15,401G)
reinoe: 1,098G (11.1%, 1,098G)
BirbBrainsBot: 1,000G (10.1%, 12,463G)
getthemoneyz: 1,000G (10.1%, 806,221G)
BlackFireUK: 979G (9.9%, 979G)
bruubarg: 600G (6.0%, 3,100G)
gorgewall: 587G (5.9%, 587G)
RaIshtar: 500G (5.0%, 2,315G)
TheAbandonedShoji: 436G (4.4%, 436G)
Kalabain: 400G (4.0%, 1,082G)
twelfthrootoftwo: 300G (3.0%, 970G)
CapnChaos12: 300G (3.0%, 28,801G)
outer_monologue: 200G (2.0%, 1,324G)
TeaTime29: 200G (2.0%, 6,681G)
KyleWonToLiveForever: 132G (1.3%, 132G)
CT_Remix: 104G (1.0%, 104G)
kaidykat: 100G (1.0%, 2,010G)

black bets:
YaBoy125: 2,284G (32.7%, 2,284G)
DeathTaxesAndAnime: 1,497G (21.4%, 1,497G)
CorpusCav: 1,200G (17.2%, 13,670G)
Sairentozon7: 976G (14.0%, 976G)
gogofromtogo: 200G (2.9%, 5,231G)
ooog1: 200G (2.9%, 2,010G)
Ring_Wyrm: 200G (2.9%, 1,040G)
HASTERIOUS: 184G (2.6%, 3,689G)
DAC169: 152G (2.2%, 152G)
datadrivenbot: 100G (1.4%, 32,882G)
