Final Bets: white - 13 bets for 5,659G (50.5%, x0.98); purple - 9 bets for 5,551G (49.5%, x1.02)

white bets:
BirbBrainsBot: 1,000G (17.7%, 14,684G)
KyleWonToLiveForever: 695G (12.3%, 695G)
YaBoy125: 644G (11.4%, 644G)
getthemoneyz: 598G (10.6%, 806,979G)
Evewho: 548G (9.7%, 548G)
Sairentozon7: 532G (9.4%, 532G)
Kalabain: 400G (7.1%, 1,837G)
RaIshtar: 378G (6.7%, 378G)
TheAbandonedShoji: 234G (4.1%, 234G)
BlackFireUK: 200G (3.5%, 1,368G)
Tyrlan: 172G (3.0%, 172G)
HASTERIOUS: 158G (2.8%, 3,164G)
datadrivenbot: 100G (1.8%, 33,019G)

purple bets:
NovaKnight21: 3,000G (54.0%, 14,644G)
CorpusCav: 1,200G (21.6%, 11,704G)
Ring_Wyrm: 300G (5.4%, 1,077G)
twelfthrootoftwo: 300G (5.4%, 1,607G)
gorgewall: 201G (3.6%, 3,119G)
gogofromtogo: 200G (3.6%, 4,887G)
outer_monologue: 200G (3.6%, 1,521G)
DeathTaxesAndAnime: 100G (1.8%, 2,312G)
TheApprentice251: 50G (0.9%, 1,158G)
