Final Bets: red - 18 bets for 9,301G (39.7%, x1.52); blue - 17 bets for 14,150G (60.3%, x0.66)

red bets:
twelfthrootoftwo: 1,329G (14.3%, 2,606G)
Creggers: 1,000G (10.8%, 44,830G)
HaateXIII: 752G (8.1%, 752G)
TheMurkGnome: 702G (7.5%, 1,377G)
Smokegiant: 694G (7.5%, 694G)
fluffskull: 632G (6.8%, 632G)
Laserman1000: 600G (6.5%, 27,700G)
AllInBot: 588G (6.3%, 588G)
Zeroroute: 500G (5.4%, 500G)
Rislyeu: 500G (5.4%, 2,498G)
VolgraTheMoose: 401G (4.3%, 6,308G)
datadrivenbot: 330G (3.5%, 38,895G)
CapnChaos12: 300G (3.2%, 6,833G)
DustBirdEX: 262G (2.8%, 4,750G)
roqqqpsi: 229G (2.5%, 2,085G)
acedude1981: 200G (2.2%, 5,823G)
Miku_Shikhu: 150G (1.6%, 10,218G)
Xoomwaffle: 132G (1.4%, 132G)

blue bets:
Shalloween: 3,000G (21.2%, 59,869G)
NicoSavoy: 3,000G (21.2%, 174,045G)
Nickyfive: 1,500G (10.6%, 21,177G)
RaIshtar: 1,500G (10.6%, 28,751G)
ACSpree: 1,000G (7.1%, 2,910G)
BirbBrainsBot: 1,000G (7.1%, 175,760G)
dogsandcatsand: 556G (3.9%, 556G)
Nizaha: 548G (3.9%, 8,193G)
Lemonjohns: 500G (3.5%, 2,219G)
letdowncity: 416G (2.9%, 416G)
Geffro1908: 236G (1.7%, 236G)
Skincrawler: 208G (1.5%, 208G)
RyanTheRebs: 200G (1.4%, 1,918G)
getthemoneyz: 166G (1.2%, 1,299,844G)
skipsandwiches: 120G (0.8%, 120G)
CosmicTactician: 100G (0.7%, 42,311G)
drkarma503: 100G (0.7%, 100G)
