Final Bets: green - 17 bets for 11,385G (30.7%, x2.25); yellow - 30 bets for 25,655G (69.3%, x0.44)

green bets:
Bilabrin: 2,421G (21.3%, 2,421G)
HaateXIII: 1,811G (15.9%, 1,811G)
TheChainNerd: 1,668G (14.7%, 3,368G)
FriendSquirrel: 769G (6.8%, 2,221G)
nifboy: 652G (5.7%, 652G)
BirbBrainsBot: 580G (5.1%, 51,159G)
Cryptopsy70: 512G (4.5%, 7,426G)
Meta_Five: 504G (4.4%, 504G)
killth3kid: 500G (4.4%, 13,521G)
OneHundredFists: 500G (4.4%, 10,016G)
HASTERIOUS: 476G (4.2%, 476G)
ValtonZenola: 412G (3.6%, 412G)
benticore: 156G (1.4%, 3,121G)
theshinyakuma: 124G (1.1%, 124G)
Alanaire: 100G (0.9%, 6,688G)
CosmicTactician: 100G (0.9%, 22,774G)
Aldrammech: 100G (0.9%, 3,853G)

yellow bets:
gorgewall: 6,284G (24.5%, 6,284G)
Thyrandaal: 6,000G (23.4%, 73,928G)
DeathTaxesAndAnime: 1,841G (7.2%, 3,611G)
rockmem21: 1,600G (6.2%, 12,232G)
Evewho: 1,595G (6.2%, 3,128G)
gooseyourself: 1,189G (4.6%, 1,189G)
prince_rogers_nelson_: 832G (3.2%, 832G)
HaychDub: 750G (2.9%, 16,007G)
Nizaha: 501G (2.0%, 17,785G)
Laserman1000: 500G (1.9%, 23,100G)
solomongrundy85: 500G (1.9%, 3,484G)
galkife: 500G (1.9%, 62,748G)
Mesmaster: 328G (1.3%, 328G)
gamesage53: 325G (1.3%, 325G)
Oobs56: 312G (1.2%, 312G)
CaptainGarlock: 250G (1.0%, 3,288G)
nok____: 250G (1.0%, 12,742G)
DustBirdEX: 234G (0.9%, 1,526G)
getthemoneyz: 204G (0.8%, 880,144G)
DAC169: 200G (0.8%, 200G)
fluffskull: 200G (0.8%, 407G)
Miku_Shikhu: 200G (0.8%, 17,141G)
IphoneDarkness: 200G (0.8%, 1,579G)
AllInBot: 198G (0.8%, 198G)
acid_flashback: 150G (0.6%, 3,575G)
J_MacC1991: 112G (0.4%, 630G)
datadrivenbot: 100G (0.4%, 38,523G)
cogniv0r3: 100G (0.4%, 2,413G)
JumbocactuarX27: 100G (0.4%, 573G)
Grandlanzer: 100G (0.4%, 7,729G)
