Final Bets: red - 28 bets for 17,714G (10.2%, x8.81); blue - 10 bets for 156,076G (89.8%, x0.11)

red bets:
DeathTaxesAndAnime: 2,879G (16.3%, 5,647G)
coralreeferz: 2,500G (14.1%, 24,066G)
KyleWonToLiveForever: 1,173G (6.6%, 1,173G)
douchetron: 1,147G (6.5%, 1,147G)
LDSkinny: 1,000G (5.6%, 3,172G)
BirbBrainsBot: 1,000G (5.6%, 43,550G)
Kaidesa: 1,000G (5.6%, 2,159G)
Thyrandaal: 1,000G (5.6%, 256,611G)
dogsandcatsand: 940G (5.3%, 940G)
AllInBot: 777G (4.4%, 777G)
killth3kid: 680G (3.8%, 25,622G)
Seaweed_B: 500G (2.8%, 61,131G)
Virilikus: 500G (2.8%, 232,721G)
Forkmore: 456G (2.6%, 456G)
getthemoneyz: 244G (1.4%, 1,609,215G)
Lillifen: 224G (1.3%, 224G)
datadrivenbot: 200G (1.1%, 56,046G)
twelfthrootoftwo: 200G (1.1%, 1,225G)
nekojin: 200G (1.1%, 18,800G)
Amorial: 200G (1.1%, 1,046G)
Aldrammech: 193G (1.1%, 1,936G)
ANFz: 101G (0.6%, 9,995G)
MinBetBot: 100G (0.6%, 23,489G)
Gyrolin: 100G (0.6%, 108G)
CosmicTactician: 100G (0.6%, 6,697G)
Kellios11: 100G (0.6%, 23,387G)
Tarheels218: 100G (0.6%, 1,886G)
GGDeeOfficial: 100G (0.6%, 1,633G)

blue bets:
Mesmaster: 152,212G (97.5%, 152,212G)
Zeroroute: 600G (0.4%, 600G)
nhammen: 588G (0.4%, 5,887G)
Lanshaft: 576G (0.4%, 11,241G)
SephDarkheart: 544G (0.3%, 108,984G)
Smashy: 428G (0.3%, 428G)
ko2q: 416G (0.3%, 416G)
Skjodo: 312G (0.2%, 312G)
resjudicata3: 292G (0.2%, 292G)
MonchoStrife: 108G (0.1%, 108G)
