Final Bets: white - 22 bets for 29,500G (59.1%, x0.69); black - 16 bets for 20,438G (40.9%, x1.44)

white bets:
DeathTaxesAndAnime: 5,217G (17.7%, 10,231G)
loveyouallfriends: 5,000G (16.9%, 39,910G)
Smashy: 3,000G (10.2%, 3,000G)
ko2q: 2,912G (9.9%, 2,912G)
coralreeferz: 2,500G (8.5%, 21,566G)
silentkaster: 2,205G (7.5%, 2,205G)
Skjodo: 2,182G (7.4%, 2,182G)
BirbBrainsBot: 1,000G (3.4%, 47,839G)
Forkmore: 934G (3.2%, 1,868G)
killth3kid: 680G (2.3%, 28,539G)
Gyrolin: 679G (2.3%, 679G)
Lanshaft: 576G (2.0%, 14,353G)
nekojin: 500G (1.7%, 21,245G)
Rilgon: 500G (1.7%, 5,628G)
Amorial: 500G (1.7%, 5,321G)
Aldrammech: 266G (0.9%, 2,663G)
AllInBot: 200G (0.7%, 200G)
datadrivenbot: 200G (0.7%, 56,904G)
getthemoneyz: 148G (0.5%, 1,611,330G)
ANFz: 101G (0.3%, 9,894G)
CosmicTactician: 100G (0.3%, 7,126G)
Wooplestein: 100G (0.3%, 1,284G)

black bets:
NicoSavoy: 5,875G (28.7%, 58,756G)
reinoe: 5,000G (24.5%, 116,072G)
Nickyfive: 2,000G (9.8%, 19,604G)
dogsandcatsand: 1,731G (8.5%, 3,396G)
nhammen: 1,440G (7.0%, 14,401G)
resjudicata3: 1,044G (5.1%, 1,044G)
Mesmaster: 688G (3.4%, 688G)
douchetron: 600G (2.9%, 600G)
SephDarkheart: 544G (2.7%, 109,051G)
astrozin11: 412G (2.0%, 412G)
neocarbuncle: 272G (1.3%, 272G)
Lillifen: 224G (1.1%, 224G)
butterbelljedi: 200G (1.0%, 1,298G)
twelfthrootoftwo: 200G (1.0%, 2,083G)
MonchoStrife: 108G (0.5%, 108G)
MinBetBot: 100G (0.5%, 23,289G)
