High Risers:
1. Baronhaynes: +6,419G
2. Reinoe: +1,806G
3. Themurkgnome: +1,781G
4. Novaknight21: +1,626G
5. Madsupervillain: +1,549G
6. Baconbacon1207: +1,124G
7. Nicosavoy: +587G
8. Altimamantoid: +445G
9. Lyonslegacy: +287G
10. Memoriesoffinal: +278G
11. Lijarkh: +35G
12. Takkerna: -100G
13. Khelor_: -104G
14. Gorgewall: -106G
15. 3ngag3: -163G
16. 0v3rr8d: -200G
17. Zachara: -300G
18. Aly327: -300G
19. Cassiephoenix: -300G
20. Superdevon1: -340G
21. Hasterious: -400G
22. Colettemslp: -514G
23. Bruubarg: -758G
24. Panushenko: -917G
25. Stumptronic: -984G
26. Puzzlesecretary: -1,000G
27. Mushufasa_: -1,062G
28. Raixelol: -1,219G
29. Seaweed_b: -1,300G
30. Bigbongsmoker: -1,852G
31. Friendlyskeleton: -2,560G
32. Willjin: -3,306G
