Final Bets: red - 41 bets for 20,938G (43.0%, x1.32); green - 32 bets for 27,730G (57.0%, x0.76)

red bets:
Yasmosis: 2,133G (10.2%, 2,133G)
SolarisFall: 1,288G (6.2%, 1,288G)
RyuTsuno: 1,120G (5.3%, 1,120G)
Riot_Jayway: 1,111G (5.3%, 189,561G)
Tyerenex: 1,027G (4.9%, 1,027G)
Lodrak: 1,001G (4.8%, 8,971G)
OneHundredFists: 1,000G (4.8%, 19,159G)
Virilikus: 1,000G (4.8%, 36,170G)
OmnibotGamma: 1,000G (4.8%, 6,829G)
DeathTaxesAndAnime: 949G (4.5%, 949G)
broomstar: 924G (4.4%, 924G)
Lali_Lulelo: 852G (4.1%, 852G)
MoonSlayerRS: 785G (3.7%, 785G)
ko2q: 608G (2.9%, 608G)
Bahamut64: 568G (2.7%, 5,681G)
Winnosh: 533G (2.5%, 533G)
anthrax85: 500G (2.4%, 603G)
Lazerkick: 400G (1.9%, 10,721G)
helpimabug: 396G (1.9%, 792G)
YesThisIsToshi: 350G (1.7%, 1,255G)
Humble_Fabio: 333G (1.6%, 1,448G)
ColetteMSLP: 300G (1.4%, 9,115G)
LOKITHUS: 300G (1.4%, 7,038G)
Oshimi12: 300G (1.4%, 6,323G)
Spartan_Paladin: 210G (1.0%, 12,413G)
AllInBot: 200G (1.0%, 200G)
Kellios11: 200G (1.0%, 7,570G)
CorpusCav: 200G (1.0%, 2,540G)
EvilLego6: 200G (1.0%, 4,865G)
ungabunga_bot: 100G (0.5%, 1,295G)
moonliquor: 100G (0.5%, 322G)
Tougou: 100G (0.5%, 3,808G)
chronoxtrigger: 100G (0.5%, 1,542G)
rubenflonne: 100G (0.5%, 3,063G)
Viola03773: 100G (0.5%, 1,506G)
BadBlanket: 100G (0.5%, 2,516G)
loveyouallfriends: 100G (0.5%, 10,208G)
datadrivenbot: 100G (0.5%, 13,755G)
alithesillybird: 100G (0.5%, 282G)
Jeardra: 100G (0.5%, 1,082G)
catfeath3r: 50G (0.2%, 1,101G)

green bets:
Evewho: 2,946G (10.6%, 5,892G)
SeedSC: 2,000G (7.2%, 79,580G)
BenYuPoker: 1,798G (6.5%, 1,798G)
RurouniGeo: 1,500G (5.4%, 11,822G)
SkylerBunny: 1,500G (5.4%, 73,692G)
Ranmilia: 1,440G (5.2%, 1,440G)
mirapoix: 1,396G (5.0%, 1,396G)
sinnyil2: 1,374G (5.0%, 2,749G)
kingchadking: 1,345G (4.9%, 1,345G)
AniZero: 1,275G (4.6%, 22,240G)
Shalloween: 1,200G (4.3%, 35,316G)
DejaPoo21: 1,000G (3.6%, 22,507G)
BirbBrainsBot: 1,000G (3.6%, 194,918G)
bad1dea: 1,000G (3.6%, 184,065G)
kai_shee: 1,000G (3.6%, 33,141G)
gooseyourself: 1,000G (3.6%, 6,925G)
rockmem21: 788G (2.8%, 788G)
MrDiggs49: 768G (2.8%, 768G)
ra1kia: 624G (2.3%, 624G)
typicalfanboy: 500G (1.8%, 500G)
SpaZmodeus: 333G (1.2%, 2,705G)
TheOneRanger: 268G (1.0%, 268G)
Baron_von_Scrub: 252G (0.9%, 736G)
TheGuesty: 250G (0.9%, 5,472G)
ZephyrTempest: 247G (0.9%, 4,834G)
ZZ_Yoshi: 204G (0.7%, 204G)
ugoplatamia: 200G (0.7%, 6,339G)
KasugaiRoastedPeas: 200G (0.7%, 30,221G)
Conome: 112G (0.4%, 112G)
Zagorsek: 100G (0.4%, 281,780G)
gameman733: 100G (0.4%, 2,175G)
getthemoneyz: 10G (0.0%, 356,092G)
