Final Bets: blue - 11 bets for 4,413G (27.1%, x2.69); yellow - 14 bets for 11,866G (72.9%, x0.37)

blue bets:
BirbBrainsBot: 1,000G (22.7%, 153,722G)
WitchHunterIX: 1,000G (22.7%, 42,317G)
datadrivenbot: 514G (11.6%, 39,467G)
Evewho: 512G (11.6%, 512G)
superdevon1: 436G (9.9%, 8,738G)
getthemoneyz: 256G (5.8%, 1,280,409G)
EnemyController: 222G (5.0%, 1,434,361G)
KasugaiRoastedPeas: 200G (4.5%, 15,774G)
Lydian_C: 123G (2.8%, 75,037G)
furrytomahawkk: 100G (2.3%, 2,323G)
nebukin: 50G (1.1%, 791G)

yellow bets:
DamnThatShark: 4,000G (33.7%, 6,314G)
ThreeMileIsland: 2,317G (19.5%, 2,317G)
dantayystv: 1,051G (8.9%, 1,051G)
escobro: 1,000G (8.4%, 6,462G)
AllInBot: 772G (6.5%, 772G)
dem0nj0ns: 500G (4.2%, 3,203G)
randgridr: 466G (3.9%, 466G)
prince_rogers_nelson_: 412G (3.5%, 412G)
Lemonjohns: 400G (3.4%, 1,490G)
Geffro1908: 324G (2.7%, 324G)
amiture: 300G (2.5%, 300G)
7Cerulean7: 120G (1.0%, 9,946G)
Anamalous_Accountant: 104G (0.9%, 104G)
DAC169: 100G (0.8%, 3,181G)
