Final Bets: blue - 13 bets for 6,060G (60.5%, x0.65); black - 10 bets for 3,954G (39.5%, x1.53)

blue bets:
Lydian_C: 1,200G (19.8%, 24,258G)
DLJuggernaut: 1,000G (16.5%, 14,631G)
Cryptopsy70: 576G (9.5%, 23,401G)
moonliquor: 500G (8.3%, 5,356G)
Oobs56: 500G (8.3%, 10,025G)
DuraiPapers: 488G (8.1%, 2,488G)
killth3kid: 472G (7.8%, 1,672G)
GatsbysGhost: 400G (6.6%, 3,077G)
TheNiDDleR180: 362G (6.0%, 362G)
KyleWonToLiveForever: 331G (5.5%, 331G)
ANFz: 100G (1.7%, 2,779G)
CosmicTactician: 100G (1.7%, 10,035G)
tanarusasamiya: 31G (0.5%, 2,731G)

black bets:
BirbBrainsBot: 1,000G (25.3%, 109,213G)
DudeMonkey77: 640G (16.2%, 640G)
DejaPoo21: 500G (12.6%, 8,704G)
Spartan_Paladin: 500G (12.6%, 56,051G)
Evewho: 500G (12.6%, 12,536G)
roofiepops: 348G (8.8%, 348G)
getthemoneyz: 166G (4.2%, 988,478G)
Firesheath: 100G (2.5%, 12,061G)
Lythe_Caraker: 100G (2.5%, 107,911G)
serperemagus: 100G (2.5%, 16,923G)
