Final Bets: green - 8 bets for 2,553G (24.9%, x3.02); yellow - 12 bets for 7,715G (75.1%, x0.33)

green bets:
Digitalsocrates: 634G (24.8%, 634G)
randgridr: 396G (15.5%, 2,935G)
CT_5_Holy: 300G (11.8%, 6,696G)
furrytomahawkk: 300G (11.8%, 7,507G)
AllInBot: 299G (11.7%, 299G)
Lythe_Caraker: 250G (9.8%, 164,373G)
datadrivenbot: 200G (7.8%, 32,126G)
getthemoneyz: 174G (6.8%, 1,315,395G)

yellow bets:
Evewho: 2,000G (25.9%, 4,227G)
prince_rogers_nelson_: 1,062G (13.8%, 1,062G)
BirbBrainsBot: 1,000G (13.0%, 55,140G)
NicoSavoy: 1,000G (13.0%, 219,733G)
dantayystv: 1,000G (13.0%, 17,777G)
TheMurkGnome: 540G (7.0%, 14,044G)
BoneMiser: 308G (4.0%, 308G)
darnitkevin: 204G (2.6%, 204G)
gorgewall: 201G (2.6%, 8,914G)
Avin_Chaos: 200G (2.6%, 9,783G)
nifboy: 100G (1.3%, 9,923G)
Firesheath: 100G (1.3%, 9,322G)
