Final Bets: purple - 13 bets for 14,569G (72.9%, x0.37); brown - 15 bets for 5,413G (27.1%, x2.69)

purple bets:
HaplessOne: 6,394G (43.9%, 135,728G)
holyonline: 1,657G (11.4%, 8,288G)
proper__noun__: 1,500G (10.3%, 5,933G)
mpghappiness: 1,001G (6.9%, 23,351G)
BirbBrainsBot: 1,000G (6.9%, 11,028G)
ApplesauceBoss: 936G (6.4%, 936G)
E_Ballard: 600G (4.1%, 600G)
Wonser: 500G (3.4%, 2,000G)
ShintaroNayaka: 340G (2.3%, 340G)
marin1987: 300G (2.1%, 3,293G)
nekross92: 141G (1.0%, 282G)
maakur_: 100G (0.7%, 2,590G)
Tougou: 100G (0.7%, 5,550G)

brown bets:
DeathTaxesAndAnime: 1,291G (23.8%, 1,291G)
getthemoneyz: 1,000G (18.5%, 684,835G)
goodnightrobo: 500G (9.2%, 6,305G)
Bahamut64: 500G (9.2%, 14,581G)
EnemyController: 500G (9.2%, 281,513G)
benticore: 312G (5.8%, 6,255G)
skillomono: 300G (5.5%, 2,931G)
eudes89: 276G (5.1%, 276G)
rico_flex: 200G (3.7%, 20,602G)
WunUP: 124G (2.3%, 1,496G)
Firesheath: 100G (1.8%, 1,081G)
datadrivenbot: 100G (1.8%, 22,103G)
Alanaire: 100G (1.8%, 3,173G)
zzaanexx: 100G (1.8%, 5,830G)
moonliquor: 10G (0.2%, 1,196G)
