Final Bets: green - 17 bets for 16,014G (56.1%, x0.78); yellow - 13 bets for 12,510G (43.9%, x1.28)

green bets:
Zbgs: 3,500G (21.9%, 15,929G)
Ring_Wyrm: 2,662G (16.6%, 2,662G)
reinoe: 2,000G (12.5%, 16,918G)
DeathTaxesAndAnime: 1,339G (8.4%, 2,626G)
Smokegiant: 1,000G (6.2%, 60,540G)
NicoSavoy: 1,000G (6.2%, 188,968G)
killth3kid: 747G (4.7%, 74,711G)
HaateXIII: 712G (4.4%, 712G)
superdevon1: 563G (3.5%, 2,255G)
Nohurty: 524G (3.3%, 1,049G)
AND4H: 500G (3.1%, 3,803G)
randgridr: 413G (2.6%, 413G)
getthemoneyz: 266G (1.7%, 1,269,137G)
Seaweed_B: 232G (1.4%, 1,291G)
gorgewall: 201G (1.3%, 2,778G)
datadrivenbot: 200G (1.2%, 59,574G)
maddrave09: 155G (1.0%, 155G)

yellow bets:
helpimabug: 3,723G (29.8%, 7,446G)
DamnThatShark: 1,165G (9.3%, 1,165G)
omegasuspekt: 1,111G (8.9%, 18,783G)
Draconis345: 1,000G (8.0%, 63,930G)
SkylerBunny: 1,000G (8.0%, 2,833G)
BirbBrainsBot: 1,000G (8.0%, 77,108G)
dantayystv: 1,000G (8.0%, 5,216G)
electric_algus: 800G (6.4%, 49,335G)
Humma_kavula24: 500G (4.0%, 4,965G)
TasisSai: 432G (3.5%, 848G)
fluffskull: 408G (3.3%, 408G)
benticore: 250G (2.0%, 14,220G)
Lydian_C: 121G (1.0%, 96,344G)
