Final Bets: blue - 11 bets for 10,303G (37.1%, x1.69); yellow - 12 bets for 17,456G (62.9%, x0.59)

blue bets:
Smokegiant: 5,000G (48.5%, 53,540G)
DeathTaxesAndAnime: 1,878G (18.2%, 3,683G)
SkylerBunny: 1,200G (11.6%, 4,104G)
Powermhero: 555G (5.4%, 25,555G)
getthemoneyz: 480G (4.7%, 1,268,595G)
superdevon1: 432G (4.2%, 432G)
furrytomahawkk: 208G (2.0%, 208G)
Humma_kavula24: 200G (1.9%, 4,734G)
TasisSai: 150G (1.5%, 296G)
Wonser: 100G (1.0%, 1,840G)
cougboi: 100G (1.0%, 2,874G)

yellow bets:
helpimabug: 6,106G (35.0%, 12,212G)
DamnThatShark: 2,656G (15.2%, 2,656G)
Ring_Wyrm: 2,072G (11.9%, 2,072G)
NicoSavoy: 2,000G (11.5%, 184,968G)
electric_algus: 1,000G (5.7%, 52,209G)
Draconis345: 1,000G (5.7%, 65,069G)
BirbBrainsBot: 1,000G (5.7%, 78,379G)
dantayystv: 1,000G (5.7%, 6,487G)
gorgewall: 201G (1.2%, 2,549G)
datadrivenbot: 200G (1.1%, 59,744G)
Lydian_C: 121G (0.7%, 92,403G)
nifboy: 100G (0.6%, 10,666G)
