Final Bets: purple - 10 bets for 3,333G (34.9%, x1.87); brown - 14 bets for 6,220G (65.1%, x0.54)

purple bets:
BirbBrainsBot: 1,000G (30.0%, 74,597G)
Aldrammech: 856G (25.7%, 856G)
benticore: 352G (10.6%, 7,045G)
butterbelljedi: 250G (7.5%, 6,871G)
KasugaiRoastedPeas: 200G (6.0%, 10,802G)
letdowncity: 200G (6.0%, 3,856G)
sososteve: 183G (5.5%, 183G)
CosmicTactician: 100G (3.0%, 12,542G)
Kronikle: 100G (3.0%, 10,500G)
getthemoneyz: 92G (2.8%, 1,014,920G)

brown bets:
SkylerBunny: 1,500G (24.1%, 583,665G)
helpimabug: 1,001G (16.1%, 3,655G)
prince_rogers_nelson_: 1,000G (16.1%, 7,090G)
Strifu: 500G (8.0%, 9,593G)
twelfthrootoftwo: 500G (8.0%, 3,356G)
Yiroep2: 376G (6.0%, 376G)
muffin_money: 250G (4.0%, 8,383G)
extinctrational: 250G (4.0%, 3,508G)
placidphoenix: 232G (3.7%, 232G)
Magicandy: 200G (3.2%, 8,352G)
Evewho: 200G (3.2%, 5,599G)
datadrivenbot: 100G (1.6%, 47,806G)
elnobueno: 100G (1.6%, 1,022G)
roofiepops: 11G (0.2%, 985G)
