Final Bets: blue - 18 bets for 20,405G (81.8%, x0.22); white - 12 bets for 4,527G (18.2%, x4.51)

blue bets:
reinoe: 3,000G (14.7%, 24,303G)
prince_rogers_nelson_: 2,795G (13.7%, 2,795G)
BlackfyreRoy: 2,497G (12.2%, 2,497G)
Meta_Five: 2,000G (9.8%, 80,009G)
SkylerBunny: 2,000G (9.8%, 578,165G)
VolgraTheMoose: 1,836G (9.0%, 3,673G)
E_Ballard: 1,653G (8.1%, 1,653G)
HaateXIII: 1,500G (7.4%, 7,972G)
helpimabug: 1,017G (5.0%, 2,076G)
twelfthrootoftwo: 500G (2.5%, 3,449G)
ColetteMSLP: 420G (2.1%, 420G)
soren_of_tyto: 387G (1.9%, 387G)
sososteve: 200G (1.0%, 803G)
letdowncity: 200G (1.0%, 4,401G)
Aldrammech: 100G (0.5%, 3,304G)
CosmicTactician: 100G (0.5%, 12,662G)
biffcake01: 100G (0.5%, 2,891G)
datadrivenbot: 100G (0.5%, 47,793G)

white bets:
BirbBrainsBot: 1,000G (22.1%, 77,324G)
RaIshtar: 1,000G (22.1%, 3,410G)
Magicandy: 500G (11.0%, 8,220G)
butterbelljedi: 390G (8.6%, 7,506G)
dogsandcatsand: 333G (7.4%, 9,753G)
getthemoneyz: 308G (6.8%, 1,015,659G)
O_Heyno: 296G (6.5%, 296G)
muffin_money: 250G (5.5%, 7,533G)
daveb_: 200G (4.4%, 2,552G)
extinctrational: 100G (2.2%, 3,058G)
Yiroep2: 100G (2.2%, 363G)
elnobueno: 50G (1.1%, 772G)
