Final Bets: blue - 16 bets for 11,403G (44.3%, x1.26); champion - 16 bets for 14,339G (55.7%, x0.80)

blue bets:
SkylerBunny: 2,000G (17.5%, 578,609G)
Meta_Five: 2,000G (17.5%, 80,453G)
prince_rogers_nelson_: 1,707G (15.0%, 3,415G)
helpimabug: 1,127G (9.9%, 2,302G)
BirbBrainsBot: 1,000G (8.8%, 76,324G)
edgehead62888: 1,000G (8.8%, 20,771G)
twelfthrootoftwo: 500G (4.4%, 3,560G)
killth3kid: 480G (4.2%, 9,478G)
muffin_money: 350G (3.1%, 7,283G)
O_Heyno: 296G (2.6%, 296G)
Yiroep2: 263G (2.3%, 263G)
placidphoenix: 232G (2.0%, 232G)
Evewho: 200G (1.8%, 5,399G)
CosmicTactician: 100G (0.9%, 12,684G)
BlackfyreRoy: 100G (0.9%, 3,055G)
getthemoneyz: 48G (0.4%, 1,015,351G)

champion bets:
Mesmaster: 3,000G (20.9%, 237,640G)
RaIshtar: 2,410G (16.8%, 2,410G)
VolgraTheMoose: 2,040G (14.2%, 4,080G)
E_Ballard: 2,024G (14.1%, 2,024G)
Magicandy: 1,000G (7.0%, 7,720G)
elnobueno: 722G (5.0%, 722G)
Zagorsek: 707G (4.9%, 707G)
ColetteMSLP: 513G (3.6%, 513G)
HaateXIII: 500G (3.5%, 8,305G)
butterbelljedi: 400G (2.8%, 7,116G)
Nizaha: 201G (1.4%, 10,235G)
sososteve: 200G (1.4%, 847G)
letdowncity: 200G (1.4%, 4,445G)
Kronikle: 200G (1.4%, 9,691G)
daveb_: 122G (0.9%, 2,352G)
datadrivenbot: 100G (0.7%, 47,815G)
