High Risers:
1. Thyrandaal: +14,345G
2. Ruleof5: +4,715G
3. Dogsandcatsand: +4,647G
4. Resjudicata3: +4,369G
5. Greggernaut: +2,815G
6. Sietaha: +2,320G
7. Snkey: +2,184G
8. Memoriesoffinal: +1,607G
9. Miku_shikhu: +1,228G
10. Corpuscav: +1,198G
11. Shalloween: +1,014G
12. Lifebregin: +712G
13. Sairentozon7: +522G
14. Puzzlesecretary: +261G
15. Holandrix: +245G
16. Upvla: +236G
17. Run_with_stone_guns: +234G
18. Phi_sig: +233G
19. Smashy: +229G
20. Reinoe: +181G
21. Krombobreaker: +133G
22. Nhammen: +114G
23. Acrusade: +114G
24. Giganticdwarves: +114G
25. Cosmictactician: +78G
26. Diyahressem: +42G
27. Formerlydrdong: +14G
28. Chuckolator: +4G
29. Muffin_money: -15G
30. Lyner87: -100G
31. Zpawz: -129G
32. Nifboy: -193G
33. Laserman1000: -244G
34. Dljuggernaut: -285G
35. Velvet_muffins: -287G
36. Novaknight21: -300G
37. Killth3kid: -320G
38. Daveb_: -322G
39. Volgrathemoose: -400G
40. Hasterious: -400G
41. Deathtaxesandanime: -400G
42. Robotocelot: -500G
43. Lydian_c: -691G
44. Technominari: -700G
45. Whitetigress: -700G
46. Lijarkh: -765G
47. Yangusburger: -786G
48. Zeroroute: -1,209G
49. Zagorsek: -1,285G
50. Dracoknightzero: -1,336G
51. Kronikle: -1,449G
52. Nicosavoy: -1,610G
53. Ko2q: -1,653G
54. Daveniii: -2,700G
55. Skylerbunny: -2,733G
56. Tasissai: -4,983G
57. Baronhaynes: -5,129G
58. Mesmaster: -8,474G
