Final Bets: blue - 4 bets for 119,253G (67.2%, x0.49); yellow - 23 bets for 58,310G (32.8%, x2.05)

blue bets:
actual_JP: 115,901G (97.2%, 115,901G)
ShintaroNayaka: 1,842G (1.5%, 1,842G)
ColetteMSLP: 1,000G (0.8%, 29,393G)
SephDarkheart: 510G (0.4%, 510G)

yellow bets:
Thyrandaal: 30,000G (51.4%, 133,970G)
dogsandcatsand: 10,510G (18.0%, 120,966G)
latebit: 3,500G (6.0%, 20,393G)
VolgraTheMoose: 2,055G (3.5%, 2,055G)
DesertWooder: 2,000G (3.4%, 4,876G)
MonchoStrife: 1,231G (2.1%, 1,231G)
RaIshtar: 1,001G (1.7%, 5,721G)
JumbocactuarX27: 1,000G (1.7%, 46,018G)
coralreeferz: 1,000G (1.7%, 5,596G)
Lyner87: 1,000G (1.7%, 69,989G)
BirbBrainsBot: 1,000G (1.7%, 43,152G)
douchetron: 813G (1.4%, 813G)
E_Ballard: 512G (0.9%, 512G)
LDSkinny: 512G (0.9%, 512G)
RunicMagus: 500G (0.9%, 3,154G)
powergems: 412G (0.7%, 412G)
CosmicTactician: 300G (0.5%, 3,204G)
ohhinm: 234G (0.4%, 1,596G)
AllInBot: 222G (0.4%, 222G)
getthemoneyz: 208G (0.4%, 1,513,578G)
Bongomon7: 100G (0.2%, 4,816G)
Error72: 100G (0.2%, 3,989G)
CassiePhoenix: 100G (0.2%, 3,016G)
