Final Bets: green - 5 bets for 4,734G (40.3%, x1.48); black - 16 bets for 7,010G (59.7%, x0.68)

green bets:
roqqqpsi: 2,609G (55.1%, 11,860G)
ungabunga_bot: 873G (18.4%, 513,085G)
superdevon1: 694G (14.7%, 13,882G)
imafella: 358G (7.6%, 3,584G)
otakutaylor: 200G (4.2%, 1,014G)

black bets:
sinnyil2: 2,500G (35.7%, 30,956G)
BirbBrainsBot: 1,000G (14.3%, 85,899G)
Dexsana: 1,000G (14.3%, 2,071G)
volgrathemoose: 576G (8.2%, 576G)
ThePineappleSalesman: 500G (7.1%, 21,289G)
Digitalsocrates: 220G (3.1%, 220G)
lijarkh: 200G (2.9%, 9,987G)
getthemoneyz: 186G (2.7%, 681,901G)
Lawndough: 120G (1.7%, 120G)
wooyuji: 108G (1.5%, 108G)
ko2q: 100G (1.4%, 4,957G)
RollingWithNat20: 100G (1.4%, 100G)
Phillippus: 100G (1.4%, 1,410G)
Arbitae: 100G (1.4%, 100G)
datadrivenbot: 100G (1.4%, 18,765G)
E_Ballard: 100G (1.4%, 6,303G)
