Final Bets: red - 16 bets for 14,644G (71.4%, x0.40); blue - 9 bets for 5,862G (28.6%, x2.50)

red bets:
Breakdown777: 5,836G (39.9%, 11,672G)
Aldrammech: 1,364G (9.3%, 1,364G)
NovaKnight21: 1,000G (6.8%, 11,160G)
SuzakuReii: 1,000G (6.8%, 4,406G)
Laserman1000: 900G (6.1%, 19,800G)
Forkmore: 771G (5.3%, 771G)
Shalloween: 700G (4.8%, 72,451G)
MagicBottle: 614G (4.2%, 614G)
VolgraTheMoose: 556G (3.8%, 556G)
mpghappiness: 524G (3.6%, 524G)
NightwolfXVI: 479G (3.3%, 479G)
E_Ballard: 400G (2.7%, 400G)
silentkaster: 200G (1.4%, 9,075G)
ANFz: 100G (0.7%, 6,996G)
datadrivenbot: 100G (0.7%, 46,696G)
Grandlanzer: 100G (0.7%, 35,953G)

blue bets:
DudeMonkey77: 2,485G (42.4%, 2,485G)
BirbBrainsBot: 1,000G (17.1%, 105,876G)
Mudrockk: 700G (11.9%, 1,377G)
thenextlantern: 500G (8.5%, 2,972G)
RageImmortaI: 400G (6.8%, 1,164G)
getthemoneyz: 276G (4.7%, 1,102,335G)
Meta_Five: 200G (3.4%, 17,798G)
KasugaiRoastedPeas: 200G (3.4%, 15,935G)
Baron_von_Scrub: 101G (1.7%, 24,832G)
