Final Bets: red - 18 bets for 9,617G (57.5%, x0.74); yellow - 10 bets for 7,099G (42.5%, x1.35)

red bets:
sinnyil2: 1,382G (14.4%, 2,765G)
ruleof5: 1,000G (10.4%, 14,920G)
BirbBrainsBot: 1,000G (10.4%, 101,360G)
MemoriesofFinal: 731G (7.6%, 731G)
Aldrammech: 700G (7.3%, 700G)
getthemoneyz: 564G (5.9%, 1,768,677G)
lowlf: 563G (5.9%, 563G)
DaveStrider55: 523G (5.4%, 523G)
Smashy: 500G (5.2%, 12,039G)
Tarheels218: 475G (4.9%, 951G)
roofiepops: 474G (4.9%, 2,016G)
SoLiDsmoke: 304G (3.2%, 1,218G)
Runeseeker22: 300G (3.1%, 1,554G)
krombobreaker: 300G (3.1%, 3,250G)
Mushufasa_: 250G (2.6%, 3,890G)
RonaldoTheGypsy: 250G (2.6%, 2,367G)
datadrivenbot: 200G (2.1%, 59,724G)
gorgewall: 101G (1.1%, 1,855G)

yellow bets:
poorest_hobo: 2,890G (40.7%, 92,723G)
WesSideVandal: 1,382G (19.5%, 2,765G)
technominari: 1,000G (14.1%, 74,033G)
fattunaking: 432G (6.1%, 432G)
HentaiWriter: 349G (4.9%, 349G)
Lord_Gwarth: 337G (4.7%, 1,590G)
AllInBot: 290G (4.1%, 290G)
Leonidusx: 216G (3.0%, 216G)
JamesBradbury: 103G (1.5%, 1,033G)
arumz: 100G (1.4%, 2,313G)
