Final Bets: green - 16 bets for 9,414G (65.9%, x0.52); yellow - 10 bets for 4,874G (34.1%, x1.93)

green bets:
Nizaha: 2,318G (24.6%, 2,318G)
NicoSavoy: 2,000G (21.2%, 345,777G)
Aldrammech: 1,000G (10.6%, 61,290G)
poGpopE: 1,000G (10.6%, 34,730G)
NIghtdew14: 600G (6.4%, 600G)
killth3kid: 564G (6.0%, 12,864G)
Lord_Gwarth: 350G (3.7%, 2,377G)
Chambs12: 240G (2.5%, 2,889G)
hiros13gts: 236G (2.5%, 236G)
TasisSai: 200G (2.1%, 12,091G)
ArlanKels: 200G (2.1%, 1,227G)
datadrivenbot: 200G (2.1%, 46,299G)
DouglasDragonThePoet: 183G (1.9%, 679G)
roofiepops: 123G (1.3%, 17,030G)
nifboy: 100G (1.1%, 3,129G)
Miku_Shikhu: 100G (1.1%, 1,357G)

yellow bets:
BirbBrainsBot: 1,000G (20.5%, 36,597G)
Thyrandaal: 1,000G (20.5%, 48,419G)
amiture: 1,000G (20.5%, 40,572G)
gorgewall: 800G (16.4%, 800G)
getthemoneyz: 338G (6.9%, 1,447,490G)
Forkmore: 252G (5.2%, 3,344G)
AllInBot: 200G (4.1%, 200G)
daveb_: 122G (2.5%, 3,802G)
roqqqpsi: 112G (2.3%, 2,259G)
moonliquor: 50G (1.0%, 38,695G)
