Final Bets: blue - 5 bets for 1,154G (27.2%, x2.68); brown - 9 bets for 3,091G (72.8%, x0.37)

blue bets:
Evewho: 500G (43.3%, 5,759G)
Digitalsocrates: 300G (26.0%, 3,072G)
letdowncity: 200G (17.3%, 3,402G)
Jeeboheebo: 100G (8.7%, 2,305G)
BirbBrainsBot: 54G (4.7%, 174,006G)

brown bets:
otakutaylor: 500G (16.2%, 3,427G)
LivingHitokiri: 500G (16.2%, 17,311G)
reinoe: 500G (16.2%, 24,083G)
thenextlantern: 500G (16.2%, 1,043G)
HASTERIOUS: 467G (15.1%, 9,344G)
DAC169: 250G (8.1%, 1,139G)
getthemoneyz: 174G (5.6%, 730,658G)
AllInBot: 100G (3.2%, 100G)
datadrivenbot: 100G (3.2%, 20,706G)
