Player: !Green
Team: Green Team
Palettes: Green/White



Ser Pyrro
Monster
Aquarius
72
60
Porky










Laserman1000
Monster
Cancer
58
48
Ultima Demon










Helpimabug
Monster
Sagittarius
40
77
Cockatrice










HuffFlex
Monster
Cancer
61
43
Tiamat







