Final Bets: red - 13 bets for 7,398G (60.7%, x0.65); yellow - 10 bets for 4,782G (39.3%, x1.55)

red bets:
thunderducker: 2,500G (33.8%, 16,504G)
Chihuahua_Charity: 1,244G (16.8%, 1,244G)
CorpusCav: 1,200G (16.2%, 11,082G)
SkylerBunny: 680G (9.2%, 680G)
killth3kid: 500G (6.8%, 33,686G)
ArrenJevleth: 300G (4.1%, 10,805G)
ImmortalMage: 300G (4.1%, 1,864G)
datadrivenbot: 200G (2.7%, 61,357G)
BartTradingCompany: 100G (1.4%, 7,947G)
ninjaboy3234: 100G (1.4%, 100G)
Firesheath: 100G (1.4%, 1,035G)
J_52: 100G (1.4%, 100G)
ftleosuxs: 74G (1.0%, 174G)

yellow bets:
Mesmaster: 2,000G (41.8%, 260,281G)
BirbBrainsBot: 1,000G (20.9%, 92,301G)
Batshine: 400G (8.4%, 6,472G)
Neech: 304G (6.4%, 570G)
SpraycanHitman: 250G (5.2%, 1,258G)
getthemoneyz: 238G (5.0%, 1,925,311G)
ser_pyrro: 224G (4.7%, 224G)
AllInBot: 166G (3.5%, 166G)
latebit: 100G (2.1%, 8,147G)
Lazarus_DS: 100G (2.1%, 251G)
