Final Bets: white - 19 bets for 11,648G (45.8%, x1.18); champion - 11 bets for 13,771G (54.2%, x0.85)

white bets:
Mesmaster: 2,000G (17.2%, 262,131G)
CorpusCav: 1,200G (10.3%, 11,074G)
Sairentozon7: 1,000G (8.6%, 19,406G)
BirbBrainsBot: 1,000G (8.6%, 92,515G)
mindblownnnn: 999G (8.6%, 5,565G)
CT_5_Holy: 880G (7.6%, 1,760G)
getthemoneyz: 728G (6.2%, 1,925,549G)
ser_pyrro: 636G (5.5%, 636G)
Raixelol: 600G (5.2%, 13,207G)
killth3kid: 500G (4.3%, 32,961G)
Chihuahua_Charity: 330G (2.8%, 330G)
Neech: 304G (2.6%, 706G)
ValensEXP_: 284G (2.4%, 2,371G)
Lazarus_DS: 278G (2.4%, 278G)
ninjaboy3234: 209G (1.8%, 209G)
datadrivenbot: 200G (1.7%, 61,337G)
mirapoix: 200G (1.7%, 5,352G)
ArrenJevleth: 200G (1.7%, 10,580G)
Morsigil: 100G (0.9%, 546G)

champion bets:
Batshine: 6,491G (47.1%, 6,491G)
thunderducker: 4,000G (29.0%, 15,232G)
SkylerBunny: 919G (6.7%, 919G)
AllInBot: 886G (6.4%, 886G)
ImmortalMage: 700G (5.1%, 1,429G)
Zerguzen: 232G (1.7%, 232G)
J_52: 213G (1.5%, 213G)
BartTradingCompany: 100G (0.7%, 7,937G)
latebit: 100G (0.7%, 8,257G)
victoriolue: 100G (0.7%, 92,939G)
seppu777: 30G (0.2%, 6,696G)
