Final Bets: green - 21 bets for 11,963G (52.1%, x0.92); champion - 15 bets for 10,987G (47.9%, x1.09)

green bets:
JarlBrolaf: 1,668G (13.9%, 1,668G)
catfashions: 1,500G (12.5%, 38,946G)
toka222: 1,400G (11.7%, 5,211G)
EnemyController: 1,000G (8.4%, 209,864G)
Lionhermit: 1,000G (8.4%, 41,730G)
JumbocactuarX27: 1,000G (8.4%, 19,493G)
DeathTaxesAndAnime: 788G (6.6%, 788G)
NicoSavoy: 751G (6.3%, 751G)
joewcarson: 500G (4.2%, 10,036G)
fenaen: 500G (4.2%, 6,593G)
FNCardascia_: 437G (3.7%, 874G)
BirbBrainsBot: 341G (2.9%, 122,992G)
perkisle: 208G (1.7%, 208G)
Sungazes: 200G (1.7%, 311G)
CandyTamer: 120G (1.0%, 486G)
nifboy: 100G (0.8%, 1,359G)
maakur_: 100G (0.8%, 112,104G)
run_with_STONE_GUNS: 100G (0.8%, 3,265G)
wizblizz: 100G (0.8%, 2,051G)
datadrivenbot: 100G (0.8%, 13,908G)
bahamutlagooon: 50G (0.4%, 1,658G)

champion bets:
LivingHitokiri: 3,187G (29.0%, 3,187G)
HaplessOne: 1,234G (11.2%, 29,348G)
DonCardenio: 1,000G (9.1%, 24,246G)
ungabunga_bot: 1,000G (9.1%, 430,860G)
Mesmaster: 1,000G (9.1%, 31,133G)
Grimmace45: 924G (8.4%, 924G)
coralreeferz: 750G (6.8%, 8,433G)
getthemoneyz: 516G (4.7%, 648,596G)
ZephyrTempest: 456G (4.2%, 2,682G)
Eyepoor_: 268G (2.4%, 268G)
Hoffrandexpress: 200G (1.8%, 1,945G)
Hattoriisan: 152G (1.4%, 152G)
volgrathemoose: 150G (1.4%, 3,105G)
Zoomopie: 100G (0.9%, 4,313G)
DrAntiSocial: 50G (0.5%, 10,161G)
