Final Bets: white - 28 bets for 23,494G (53.6%, x0.87); black - 29 bets for 20,374G (46.4%, x1.15)

white bets:
gorgewall: 3,000G (12.8%, 8,021G)
Mesmaster: 3,000G (12.8%, 62,983G)
Wonser: 3,000G (12.8%, 9,944G)
elelor: 1,297G (5.5%, 1,297G)
superdevon1: 1,294G (5.5%, 2,538G)
marrrrrrrrrrrrrrrrrrrr: 1,044G (4.4%, 1,044G)
lijarkh: 1,000G (4.3%, 22,573G)
jakeduhhsnake: 1,000G (4.3%, 73,895G)
BirbBrainsBot: 1,000G (4.3%, 11,734G)
getthemoneyz: 1,000G (4.3%, 612,164G)
ACSpree: 1,000G (4.3%, 53,809G)
itsdigitalbro: 800G (3.4%, 1,758G)
Aldrammech: 600G (2.6%, 600G)
Dexsana: 510G (2.2%, 510G)
Zeroroute: 500G (2.1%, 500G)
JoeykinsGaming: 500G (2.1%, 10,706G)
DejaPoo21: 500G (2.1%, 8,182G)
OmnibotGamma: 460G (2.0%, 460G)
WrathfulRemy: 400G (1.7%, 1,550G)
Fenrislfr: 380G (1.6%, 380G)
joewcarson: 300G (1.3%, 17,425G)
hydroshade: 236G (1.0%, 236G)
duckfist: 150G (0.6%, 1,641G)
b0shii: 123G (0.5%, 10,889G)
TheOwlSaysORLY: 100G (0.4%, 1,267G)
Alanaire: 100G (0.4%, 2,485G)
maakur_: 100G (0.4%, 121,847G)
Realitydown: 100G (0.4%, 6,330G)

black bets:
Evewho: 7,987G (39.2%, 15,974G)
SkylerBunny: 1,200G (5.9%, 44,854G)
Nizaha: 1,001G (4.9%, 7,738G)
KasugaiRoastedPeas: 1,000G (4.9%, 1,365G)
ungabunga_bot: 1,000G (4.9%, 339,306G)
Hamborn: 1,000G (4.9%, 56,766G)
moonliquor: 792G (3.9%, 792G)
DeathTaxesAndAnime: 720G (3.5%, 720G)
Eyepoor_: 598G (2.9%, 598G)
TheGuesty: 500G (2.5%, 35,658G)
Theseawolf1: 500G (2.5%, 9,697G)
amiture: 500G (2.5%, 4,719G)
twelfthrootoftwo: 480G (2.4%, 480G)
Eoika: 347G (1.7%, 347G)
Bioticism: 347G (1.7%, 347G)
LordSDB: 304G (1.5%, 304G)
rico_flex: 300G (1.5%, 31,482G)
clesseses: 300G (1.5%, 1,509G)
CoderCalamity: 298G (1.5%, 298G)
TheChainNerd: 250G (1.2%, 8,896G)
old_overholt_: 200G (1.0%, 4,232G)
nifboy: 100G (0.5%, 5,714G)
Tougou: 100G (0.5%, 9,072G)
Majatok: 100G (0.5%, 258G)
Heroebal: 100G (0.5%, 6,599G)
datadrivenbot: 100G (0.5%, 14,528G)
DHaveWord: 100G (0.5%, 3,320G)
Firesheath: 100G (0.5%, 12,641G)
reshiramdude16: 50G (0.2%, 105G)
