Player: !White
Team: White Team
Palettes: White/Blue



Baron Von Scrub
Monster
Virgo
44
61
Holy Dragon










Lijarkh
Monster
Virgo
44
61
Holy Dragon










Zeroroute
Monster
Virgo
44
61
Holy Dragon










Elelor
Monster
Virgo
44
61
Holy Dragon







