Final Bets: green - 16 bets for 6,411G (55.0%, x0.82); yellow - 11 bets for 5,253G (45.0%, x1.22)

green bets:
DeathTaxesAndAnime: 1,001G (15.6%, 23,932G)
Nizaha: 836G (13.0%, 68,689G)
rNdOrchestra: 768G (12.0%, 768G)
AllInBot: 650G (10.1%, 650G)
lijarkh: 643G (10.0%, 643G)
holdenmagronik: 440G (6.9%, 3,062G)
Wonser: 380G (5.9%, 1,365G)
DaveStrider55: 376G (5.9%, 376G)
killth3kid: 250G (3.9%, 13,624G)
king_smashington: 238G (3.7%, 238G)
Musashi45: 212G (3.3%, 212G)
datadrivenbot: 200G (3.1%, 64,625G)
J_52: 116G (1.8%, 116G)
gorgewall: 101G (1.6%, 6,242G)
DAC169: 100G (1.6%, 3,579G)
VolgraTheMoose: 100G (1.6%, 1,886G)

yellow bets:
Thyrandaal: 2,000G (38.1%, 67,539G)
BirbBrainsBot: 1,000G (19.0%, 170,046G)
JonnyCue: 536G (10.2%, 536G)
krombobreaker: 500G (9.5%, 6,288G)
SephDarkheart: 340G (6.5%, 26,970G)
BappleTrees: 271G (5.2%, 271G)
getthemoneyz: 206G (3.9%, 1,942,339G)
BartTradingCompany: 100G (1.9%, 9,535G)
maakur_: 100G (1.9%, 4,281G)
nhammen: 100G (1.9%, 364,721G)
RunicMagus: 100G (1.9%, 14,432G)
