Final Bets: purple - 19 bets for 20,250G (81.3%, x0.23); brown - 12 bets for 4,657G (18.7%, x4.35)

purple bets:
Smashy: 8,356G (41.3%, 16,713G)
Thyrandaal: 5,000G (24.7%, 69,980G)
lowlf: 1,024G (5.1%, 1,024G)
BirbBrainsBot: 1,000G (4.9%, 171,833G)
BappleTrees: 944G (4.7%, 944G)
seppu777: 555G (2.7%, 13,491G)
krombobreaker: 500G (2.5%, 7,182G)
CorpusCav: 400G (2.0%, 26,957G)
ColetteMSLP: 400G (2.0%, 7,760G)
Panushenko: 364G (1.8%, 364G)
getthemoneyz: 356G (1.8%, 1,942,560G)
old_overholt_: 300G (1.5%, 30,641G)
killth3kid: 250G (1.2%, 13,374G)
Lyner87: 200G (1.0%, 102,366G)
ChiChiRodriguez: 200G (1.0%, 753G)
gorgewall: 101G (0.5%, 6,141G)
AllInBot: 100G (0.5%, 100G)
nhammen: 100G (0.5%, 364,743G)
DAC169: 100G (0.5%, 4,485G)

brown bets:
DeathTaxesAndAnime: 1,001G (21.5%, 21,930G)
SkylerBunny: 815G (17.5%, 815G)
resjudicata3: 584G (12.5%, 584G)
Dasutin23: 520G (11.2%, 10,026G)
poorest_hobo: 401G (8.6%, 401G)
DaveStrider55: 376G (8.1%, 376G)
SephDarkheart: 340G (7.3%, 26,385G)
datadrivenbot: 200G (4.3%, 64,225G)
J_52: 116G (2.5%, 116G)
king_smashington: 104G (2.2%, 104G)
BartTradingCompany: 100G (2.1%, 9,714G)
RunicMagus: 100G (2.1%, 14,454G)
