Final Bets: black - 14 bets for 6,158G (40.7%, x1.45); champion - 21 bets for 8,958G (59.3%, x0.69)

black bets:
gooseyourself: 1,928G (31.3%, 1,928G)
Aldrammech: 1,000G (16.2%, 48,408G)
SQUiDSQUARKLIN: 796G (12.9%, 796G)
LivingHitokiri: 500G (8.1%, 4,894G)
DudeMonkey77: 500G (8.1%, 5,996G)
TheMM42: 364G (5.9%, 364G)
nifboy: 250G (4.1%, 17,453G)
Flameatron: 200G (3.2%, 361G)
a_mo22: 120G (1.9%, 4,364G)
AllInBot: 100G (1.6%, 100G)
CosmicTactician: 100G (1.6%, 3,472G)
maakur_: 100G (1.6%, 10,210G)
Kyune: 100G (1.6%, 33,833G)
Error72: 100G (1.6%, 6,944G)

champion bets:
EnemyController: 1,000G (11.2%, 439,485G)
BirbBrainsBot: 1,000G (11.2%, 53,265G)
E_Ballard: 1,000G (11.2%, 2,545G)
Lydian_C: 560G (6.3%, 1,961G)
coralreeferz: 550G (6.1%, 11,260G)
CorpusCav: 508G (5.7%, 10,108G)
Nizaha: 501G (5.6%, 3,682G)
fenaen: 501G (5.6%, 2,006G)
getthemoneyz: 484G (5.4%, 759,743G)
EvilLego6: 400G (4.5%, 4,742G)
Deathmaker06: 392G (4.4%, 392G)
joewcarson: 300G (3.3%, 6,215G)
CapnChaos12: 300G (3.3%, 19,057G)
TeaTime29: 291G (3.2%, 291G)
serperemagus: 247G (2.8%, 247G)
gogofromtogo: 224G (2.5%, 224G)
Mokura3rd: 200G (2.2%, 870G)
eudes89: 200G (2.2%, 9,946G)
rednecknazgul: 100G (1.1%, 2,072G)
maleblackfiora: 100G (1.1%, 1,676G)
datadrivenbot: 100G (1.1%, 28,388G)
