Final Bets: purple - 15 bets for 16,752G (76.8%, x0.30); brown - 9 bets for 5,066G (23.2%, x3.31)

purple bets:
HaplessOne: 5,555G (33.2%, 50,072G)
sinnyil2: 4,153G (24.8%, 8,307G)
Estan_AD: 1,374G (8.2%, 1,374G)
superdevon1: 1,358G (8.1%, 13,580G)
ungabunga_bot: 1,000G (6.0%, 328,657G)
BirbBrainsBot: 1,000G (6.0%, 8,709G)
Zachara: 500G (3.0%, 60,500G)
Dexsana: 372G (2.2%, 372G)
getthemoneyz: 324G (1.9%, 610,537G)
twelfthrootoftwo: 300G (1.8%, 2,613G)
itsadud: 212G (1.3%, 212G)
CT_5_Holy: 200G (1.2%, 1,241G)
crimson_hellkite: 200G (1.2%, 11,000G)
uwuslayer15: 104G (0.6%, 104G)
Kyune: 100G (0.6%, 2,111G)

brown bets:
xxnamexx: 1,771G (35.0%, 1,771G)
genericco: 1,180G (23.3%, 1,180G)
Bioticism: 599G (11.8%, 599G)
gorgewall: 500G (9.9%, 13,812G)
vorap: 400G (7.9%, 29,885G)
Eyepoor_: 216G (4.3%, 216G)
bradsmr: 200G (3.9%, 238G)
datadrivenbot: 100G (2.0%, 13,297G)
witchlight: 100G (2.0%, 1,105G)
