Final Bets: black - 10 bets for 4,595G (42.0%, x1.38); purple - 9 bets for 6,343G (58.0%, x0.72)

black bets:
vorap: 1,500G (32.6%, 29,664G)
sinnyil2: 1,200G (26.1%, 10,280G)
HysteriaDays: 500G (10.9%, 8,921G)
crimson_hellkite: 415G (9.0%, 11,215G)
Dexsana: 372G (8.1%, 372G)
witchlight: 200G (4.4%, 1,005G)
madman66666: 108G (2.4%, 108G)
datadrivenbot: 100G (2.2%, 13,097G)
twelfthrootoftwo: 100G (2.2%, 2,883G)
Kyune: 100G (2.2%, 2,041G)

purple bets:
HaplessOne: 1,500G (23.6%, 51,090G)
superdevon1: 1,329G (21.0%, 13,292G)
ungabunga_bot: 1,000G (15.8%, 329,556G)
BirbBrainsBot: 1,000G (15.8%, 9,608G)
Bioticism: 402G (6.3%, 402G)
getthemoneyz: 346G (5.5%, 610,932G)
CT_5_Holy: 300G (4.7%, 1,301G)
Estan_AD: 250G (3.9%, 1,540G)
Eyepoor_: 216G (3.4%, 216G)
