Final Bets: green - 20 bets for 17,857G (76.1%, x0.31); yellow - 11 bets for 5,596G (23.9%, x3.19)

green bets:
snkey: 5,100G (28.6%, 55,082G)
reinoe: 2,000G (11.2%, 20,583G)
NicoSavoy: 1,785G (10.0%, 1,785G)
DeathTaxesAndAnime: 1,401G (7.8%, 1,401G)
resjudicata3: 1,260G (7.1%, 1,260G)
baconbacon1207: 1,000G (5.6%, 100,963G)
Dasutin23: 1,000G (5.6%, 27,526G)
Runeseeker22: 1,000G (5.6%, 7,996G)
Shalloween: 784G (4.4%, 784G)
helpimabug: 548G (3.1%, 1,097G)
krombobreaker: 373G (2.1%, 373G)
SephDarkheart: 356G (2.0%, 3,175G)
killth3kid: 250G (1.4%, 13,157G)
Sietaha: 200G (1.1%, 200G)
datadrivenbot: 200G (1.1%, 54,544G)
thunderducker: 200G (1.1%, 3,271G)
nhammen: 100G (0.6%, 428,824G)
moocaotao: 100G (0.6%, 1,802G)
CorpusCav: 100G (0.6%, 5,253G)
Thyrandaal: 100G (0.6%, 94,018G)

yellow bets:
SkylerBunny: 1,500G (26.8%, 25,909G)
nifboy: 1,000G (17.9%, 4,924G)
Forkmore: 1,000G (17.9%, 82,959G)
BirbBrainsBot: 1,000G (17.9%, 178,534G)
getthemoneyz: 338G (6.0%, 1,834,434G)
PuzzleSecretary: 192G (3.4%, 405G)
BartTradingCompany: 176G (3.1%, 1,766G)
loveyouallfriends: 150G (2.7%, 36,882G)
maakur_: 100G (1.8%, 6,840G)
diyahressem: 100G (1.8%, 4,424G)
formerlydrdong: 40G (0.7%, 2,656G)
