Final Bets: purple - 12 bets for 6,153G (31.8%, x2.14); brown - 17 bets for 13,191G (68.2%, x0.47)

purple bets:
VolgraTheMoose: 2,500G (40.6%, 50,035G)
Nickyfive: 750G (12.2%, 4,113G)
Laserman1000: 600G (9.8%, 70,900G)
DLJuggernaut: 500G (8.1%, 22,966G)
EnemyController: 500G (8.1%, 595,956G)
ColetteMSLP: 433G (7.0%, 433G)
dogsandcatsand: 356G (5.8%, 356G)
DeathTaxesAndAnime: 110G (1.8%, 1,745G)
username123132: 104G (1.7%, 104G)
lastly: 100G (1.6%, 25,755G)
RuneS_77: 100G (1.6%, 7,512G)
CosmicTactician: 100G (1.6%, 5,384G)

brown bets:
toka222: 5,700G (43.2%, 51,322G)
Lordminsc: 1,200G (9.1%, 2,401G)
Zachara: 1,100G (8.3%, 106,600G)
argentbast: 1,000G (7.6%, 3,374G)
roqqqpsi: 822G (6.2%, 831G)
TheChainNerd: 570G (4.3%, 4,070G)
Cryptopsy70: 540G (4.1%, 14,749G)
killth3kid: 500G (3.8%, 7,502G)
Evewho: 420G (3.2%, 420G)
roofiepops: 324G (2.5%, 324G)
CapnChaos12: 300G (2.3%, 11,002G)
Grandlanzer: 200G (1.5%, 3,570G)
AllInBot: 115G (0.9%, 115G)
fluffskull: 100G (0.8%, 2,245G)
datadrivenbot: 100G (0.8%, 42,775G)
Firesheath: 100G (0.8%, 12,056G)
Thyrandaal: 100G (0.8%, 37,988G)
