Final Bets: black - 23 bets for 33,973G (64.6%, x0.55); brown - 14 bets for 18,636G (35.4%, x1.82)

black bets:
HaateXIII: 8,646G (25.4%, 17,293G)
acid_flashback: 6,355G (18.7%, 6,355G)
CaptainGarlock: 5,000G (14.7%, 25,880G)
Nickyfive: 2,650G (7.8%, 10,603G)
VolgraTheMoose: 2,234G (6.6%, 62,234G)
Evewho: 2,000G (5.9%, 23,136G)
Mesmaster: 2,000G (5.9%, 107,354G)
rednecknazgul: 1,281G (3.8%, 1,281G)
DAC169: 513G (1.5%, 513G)
TheGuesty: 500G (1.5%, 58,500G)
HuffFlex: 500G (1.5%, 2,126G)
Dymntd: 500G (1.5%, 36,107G)
mr_kindaro: 400G (1.2%, 4,476G)
Alaquane: 233G (0.7%, 233G)
gorgewall: 201G (0.6%, 22,909G)
Flameatron: 200G (0.6%, 3,023G)
KyleWonToLiveForever: 160G (0.5%, 160G)
AllInBot: 100G (0.3%, 100G)
UnholyCorsair: 100G (0.3%, 6,007G)
datadrivenbot: 100G (0.3%, 38,277G)
Milkman153: 100G (0.3%, 4,594G)
Kellios11: 100G (0.3%, 11,479G)
E_Ballard: 100G (0.3%, 10,578G)

brown bets:
Virilikus: 5,000G (26.8%, 172,037G)
OneHundredFists: 5,000G (26.8%, 18,325G)
TheChainNerd: 1,700G (9.1%, 1,700G)
DLJuggernaut: 1,470G (7.9%, 9,806G)
Baron_von_Scrub: 1,111G (6.0%, 54,084G)
ExecutedGiraffe: 1,000G (5.4%, 10,044G)
BirbBrainsBot: 859G (4.6%, 160,936G)
evdoggity: 500G (2.7%, 26,212G)
prince_rogers_nelson_: 500G (2.7%, 31,143G)
getthemoneyz: 472G (2.5%, 930,263G)
Thyrandaal: 336G (1.8%, 336G)
ColetteMSLP: 300G (1.6%, 2,603G)
Monopool: 296G (1.6%, 296G)
silentkaster: 92G (0.5%, 492G)
