Final Bets: red - 13 bets for 5,272G (48.3%, x1.07); blue - 12 bets for 5,646G (51.7%, x0.93)

red bets:
E_Ballard: 1,158G (22.0%, 1,158G)
reinoe: 1,000G (19.0%, 31,735G)
OverlordCuddles: 500G (9.5%, 15,413G)
ForagerCats: 500G (9.5%, 15,285G)
Eyepoor_: 483G (9.2%, 967G)
LivingHitokiri: 332G (6.3%, 332G)
Miyokari: 300G (5.7%, 5,132G)
Levi_System: 300G (5.7%, 1,197G)
Jaritras: 292G (5.5%, 292G)
foofermoofer: 107G (2.0%, 107G)
Arkreaver: 100G (1.9%, 10,559G)
ungabunga_bot: 100G (1.9%, 429,090G)
datadrivenbot: 100G (1.9%, 11,943G)

blue bets:
DeathTaxesAndAnime: 1,218G (21.6%, 1,218G)
BirbBrainsBot: 1,000G (17.7%, 156,532G)
ko2q: 565G (10.0%, 565G)
theNGUYENNER: 500G (8.9%, 17,127G)
zmoses: 500G (8.9%, 4,926G)
SkyridgeZero: 500G (8.9%, 14,632G)
Lali_Lulelo: 344G (6.1%, 344G)
Tsenn: 309G (5.5%, 309G)
twelfthrootoftwo: 200G (3.5%, 2,034G)
cupholderr: 200G (3.5%, 13,023G)
Practice_Pad: 160G (2.8%, 160G)
Scotty297: 150G (2.7%, 2,873G)
