Final Bets: red - 5 bets for 2,356G (12.2%, x7.19); yellow - 16 bets for 16,930G (87.8%, x0.14)

red bets:
Evewho: 1,000G (42.4%, 8,525G)
Cryptopsy70: 600G (25.5%, 23,887G)
Firesheath: 432G (18.3%, 432G)
randgridr: 224G (9.5%, 2,079G)
Aquios_: 100G (4.2%, 4,389G)

yellow bets:
reinoe: 8,000G (47.3%, 51,598G)
furrytomahawkk: 1,848G (10.9%, 1,848G)
midnight_blues3: 1,193G (7.0%, 1,193G)
ANFz: 1,000G (5.9%, 45,573G)
Kronikle: 1,000G (5.9%, 4,380G)
SkylerBunny: 903G (5.3%, 903G)
getthemoneyz: 686G (4.1%, 1,229,990G)
OtherBrand: 565G (3.3%, 565G)
gorgewall: 501G (3.0%, 13,712G)
Arcblazer23: 360G (2.1%, 360G)
redrhinofever: 280G (1.7%, 280G)
datadrivenbot: 200G (1.2%, 62,021G)
snowmuttplays: 100G (0.6%, 1,049G)
Ring_Wyrm: 100G (0.6%, 11,095G)
nhammen: 100G (0.6%, 9,821G)
BirbBrainsBot: 94G (0.6%, 164,752G)
