Final Bets: white - 20 bets for 10,986G (60.9%, x0.64); black - 7 bets for 7,057G (39.1%, x1.56)

white bets:
latebit: 2,020G (18.4%, 2,020G)
AllInBot: 1,568G (14.3%, 1,568G)
mindblownnnn: 1,291G (11.8%, 1,291G)
CorpusCav: 1,020G (9.3%, 20,451G)
BirbBrainsBot: 1,000G (9.1%, 15,221G)
Laserman1000: 898G (8.2%, 8,998G)
evontno: 550G (5.0%, 13,330G)
ValensEXP_: 400G (3.6%, 2,235G)
ASkyNightly: 300G (2.7%, 860G)
getthemoneyz: 276G (2.5%, 2,104,404G)
killabandaid: 240G (2.2%, 240G)
Rikrizen: 211G (1.9%, 4,234G)
DocSTN: 200G (1.8%, 5,608G)
datadrivenbot: 200G (1.8%, 77,291G)
bufuman: 200G (1.8%, 1,032G)
ShadowNinja25: 200G (1.8%, 1,010G)
ghazzzzzz: 112G (1.0%, 112G)
Reddash9: 100G (0.9%, 100G)
Einswolf: 100G (0.9%, 100G)
ShreddySpaghetti: 100G (0.9%, 100G)

black bets:
Rytor: 5,032G (71.3%, 10,064G)
iBluntDouble: 889G (12.6%, 889G)
krombobreaker: 500G (7.1%, 31,944G)
J_MacC1991: 335G (4.7%, 335G)
gorgewall: 101G (1.4%, 6,186G)
RikiNom: 100G (1.4%, 100G)
Lord_Gwarth: 100G (1.4%, 5,456G)
