Final Bets: red - 10 bets for 7,384G (67.3%, x0.49); blue - 7 bets for 3,587G (32.7%, x2.06)

red bets:
UmaiJam: 1,800G (24.4%, 84,015G)
RaIshtar: 1,234G (16.7%, 7,214G)
BirbBrainsBot: 1,000G (13.5%, 123,866G)
getthemoneyz: 1,000G (13.5%, 1,402,125G)
dtrain332: 554G (7.5%, 554G)
Smashy: 500G (6.8%, 7,150G)
randgridr: 500G (6.8%, 6,738G)
SephDarkheart: 396G (5.4%, 12,112G)
AllInBot: 200G (2.7%, 200G)
datadrivenbot: 200G (2.7%, 46,741G)

blue bets:
Thyrandaal: 1,111G (31.0%, 11,551G)
NIghtdew14: 1,000G (27.9%, 24,681G)
prince_rogers_nelson_: 604G (16.8%, 604G)
douchetron: 436G (12.2%, 436G)
RyanTheRebs: 236G (6.6%, 236G)
DouglasDragonThePoet: 100G (2.8%, 772G)
Error72: 100G (2.8%, 1,433G)
