Final Bets: red - 7 bets for 4,886G (33.1%, x2.02); champion - 13 bets for 9,880G (66.9%, x0.49)

red bets:
KyleWonToLiveForever: 2,787G (57.0%, 2,787G)
ColetteMSLP: 1,000G (20.5%, 29,751G)
ohhinm: 331G (6.8%, 331G)
Smashy: 300G (6.1%, 5,964G)
getthemoneyz: 260G (5.3%, 1,403,008G)
AllInBot: 200G (4.1%, 200G)
dtrain332: 8G (0.2%, 813G)

champion bets:
RaIshtar: 2,000G (20.2%, 6,714G)
UmaiJam: 1,800G (18.2%, 85,343G)
BirbBrainsBot: 1,000G (10.1%, 126,575G)
Netmonmatt: 1,000G (10.1%, 1,906G)
neerrm: 1,000G (10.1%, 23,792G)
Thyrandaal: 1,000G (10.1%, 8,966G)
NIghtdew14: 500G (5.1%, 25,763G)
ShintaroNayaka: 500G (5.1%, 6,835G)
douchetron: 344G (3.5%, 344G)
RyanTheRebs: 236G (2.4%, 236G)
datadrivenbot: 200G (2.0%, 46,156G)
Chambs12: 200G (2.0%, 1,209G)
DouglasDragonThePoet: 100G (1.0%, 1,992G)
