Final Bets: black - 13 bets for 12,314G (56.0%, x0.79); brown - 16 bets for 9,689G (44.0%, x1.27)

black bets:
YaBoy125: 7,634G (62.0%, 23,136G)
Mesmaster: 2,000G (16.2%, 94,831G)
CelestialLancer: 1,000G (8.1%, 7,600G)
Sairentozon7: 344G (2.8%, 344G)
d4rr1n: 284G (2.3%, 284G)
benticore: 250G (2.0%, 1,160G)
AllInBot: 244G (2.0%, 244G)
RuneS_77: 100G (0.8%, 8,003G)
ibrakadabra_legend: 100G (0.8%, 1,743G)
Firesheath: 100G (0.8%, 4,404G)
IphoneDarkness: 100G (0.8%, 3,400G)
E_Ballard: 100G (0.8%, 10,455G)
getthemoneyz: 58G (0.5%, 937,283G)

brown bets:
nifboy: 2,635G (27.2%, 5,270G)
mangowarfare: 1,687G (17.4%, 8,439G)
CaptainGarlock: 1,000G (10.3%, 26,830G)
dogsandcatsand: 1,000G (10.3%, 8,421G)
Laserman1000: 603G (6.2%, 27,503G)
JumbocactuarX27: 500G (5.2%, 1,563G)
serperemagus: 368G (3.8%, 368G)
Thyrandaal: 332G (3.4%, 332G)
LDSkinny: 320G (3.3%, 320G)
alterworlds: 302G (3.1%, 302G)
Monopool: 300G (3.1%, 1,104G)
Lythe_Caraker: 250G (2.6%, 115,326G)
BirbBrainsBot: 141G (1.5%, 164,728G)
datadrivenbot: 100G (1.0%, 37,013G)
foofermoofer: 100G (1.0%, 1,459G)
roqqqpsi: 51G (0.5%, 5,150G)
