Final Bets: yellow - 17 bets for 13,265G (64.8%, x0.54); brown - 15 bets for 7,214G (35.2%, x1.84)

yellow bets:
maakur_: 3,616G (27.3%, 3,616G)
Mesmaster: 2,000G (15.1%, 92,831G)
YaBoy125: 1,240G (9.3%, 15,502G)
BirbBrainsBot: 1,000G (7.5%, 164,907G)
Oobs56: 1,000G (7.5%, 4,430G)
benticore: 910G (6.9%, 910G)
serperemagus: 836G (6.3%, 836G)
DavenIII: 600G (4.5%, 600G)
getthemoneyz: 578G (4.4%, 937,225G)
dogsandcatsand: 500G (3.8%, 9,692G)
autnagrag: 333G (2.5%, 4,941G)
ibrakadabra_legend: 200G (1.5%, 1,643G)
AllInBot: 100G (0.8%, 100G)
E_Ballard: 100G (0.8%, 10,355G)
Firesheath: 100G (0.8%, 4,304G)
foofermoofer: 100G (0.8%, 1,586G)
roqqqpsi: 52G (0.4%, 5,215G)

brown bets:
mangowarfare: 1,587G (22.0%, 10,583G)
CaptainGarlock: 1,000G (13.9%, 28,101G)
Laserman1000: 769G (10.7%, 28,269G)
Thyrandaal: 754G (10.5%, 754G)
alterworlds: 686G (9.5%, 686G)
Phi_Sig: 555G (7.7%, 13,650G)
Monopool: 485G (6.7%, 485G)
Sairentozon7: 344G (4.8%, 344G)
d4rr1n: 284G (3.9%, 284G)
Lythe_Caraker: 250G (3.5%, 115,644G)
Evewho: 100G (1.4%, 13,162G)
JumbocactuarX27: 100G (1.4%, 2,198G)
datadrivenbot: 100G (1.4%, 37,140G)
IphoneDarkness: 100G (1.4%, 3,300G)
RuneS_77: 100G (1.4%, 7,903G)
