Final Bets: green - 10 bets for 4,954G (39.5%, x1.53); brown - 18 bets for 7,582G (60.5%, x0.65)

green bets:
Akrae: 1,552G (31.3%, 3,045G)
MadnessR: 1,000G (20.2%, 5,746G)
HaateXIII: 806G (16.3%, 806G)
TheChainNerd: 428G (8.6%, 428G)
CapnChaos12: 300G (6.1%, 9,242G)
Angelomortis: 256G (5.2%, 256G)
DuraiPapers: 212G (4.3%, 212G)
ZCKaiser: 200G (4.0%, 722G)
Nohurty: 100G (2.0%, 1,085G)
Firesheath: 100G (2.0%, 13,342G)

brown bets:
red__lancer: 2,000G (26.4%, 90,485G)
EnemyController: 1,000G (13.2%, 592,343G)
BirbBrainsBot: 1,000G (13.2%, 53,286G)
killth3kid: 500G (6.6%, 1,592G)
Anasetsuken: 500G (6.6%, 15,177G)
brokenknight201: 500G (6.6%, 1,851G)
Kronikle: 400G (5.3%, 17,739G)
butterbelljedi: 208G (2.7%, 208G)
Meta_Five: 200G (2.6%, 26,782G)
CosmicTactician: 200G (2.6%, 8,637G)
TeaTime29: 200G (2.6%, 12,083G)
RunicMagus: 200G (2.6%, 49,732G)
getthemoneyz: 174G (2.3%, 962,454G)
AllInBot: 100G (1.3%, 100G)
Alanaire: 100G (1.3%, 14,479G)
actual_JP: 100G (1.3%, 7,231G)
BStarTV: 100G (1.3%, 100G)
Grandlanzer: 100G (1.3%, 4,956G)
