Final Bets: brown - 12 bets for 5,144G (46.8%, x1.14); champion - 17 bets for 5,859G (53.2%, x0.88)

brown bets:
EnemyController: 1,000G (19.4%, 592,996G)
BirbBrainsBot: 1,000G (19.4%, 53,939G)
killth3kid: 750G (14.6%, 1,919G)
Cryptopsy70: 544G (10.6%, 20,811G)
TheChainNerd: 428G (8.3%, 428G)
getthemoneyz: 310G (6.0%, 962,568G)
DuraiPapers: 212G (4.1%, 212G)
KasugaiRoastedPeas: 200G (3.9%, 6,487G)
Meta_Five: 200G (3.9%, 26,913G)
Kronikle: 200G (3.9%, 18,000G)
brokenknight201: 200G (3.9%, 2,178G)
TeaTime29: 100G (1.9%, 12,214G)

champion bets:
Flameatron: 1,100G (18.8%, 8,221G)
HaateXIII: 800G (13.7%, 800G)
MadnessR: 500G (8.5%, 4,746G)
CapnChaos12: 500G (8.5%, 8,942G)
Alaquane: 424G (7.2%, 424G)
JumbocactuarX27: 380G (6.5%, 380G)
butterbelljedi: 310G (5.3%, 310G)
mountaindrew184: 300G (5.1%, 1,164G)
Angelomortis: 256G (4.4%, 256G)
Error72: 250G (4.3%, 9,531G)
CosmicTactician: 200G (3.4%, 8,768G)
RaIshtar: 200G (3.4%, 2,406G)
Akrae: 200G (3.4%, 1,493G)
AllInBot: 165G (2.8%, 165G)
serperemagus: 100G (1.7%, 1,986G)
marin1987: 100G (1.7%, 1,592G)
username123132: 74G (1.3%, 297G)
