High Risers:
1. TheSabretoothe: +3,475G
2. mindblownnnn: +2,539G
3. E_Ballard: +1,246G
4. VynxYukida: +1,199G
5. latebit: +1,022G
6. DeathTaxesAndAnime: +712G
7. ghazzzzzz: +486G
8. ColetteMSLP: +473G
9. SephDarkheart: +460G
10. MemoriesofFinal: +233G
11. ValensEXP_: +163G
12. Lyner87: +83G
13. RunicMagus: +62G
14. reddwind_: +59G
15. touchingthefuzzy: +29G
16. upvla: +19G
17. ALY327: +4G
18. Lolthsmeat: +4G
19. actual_JP: -100G
20. silentkaster: -128G
21. daveb_: -200G
22. just_here2: -300G
23. ruebyy: -300G
24. CassiePhoenix: -300G
25. nifboy: -323G
26. ar_tactic: -389G
27. king_smashington: -483G
28. Genkidou: -599G
29. krombobreaker: -762G
30. Rytor: -800G
31. Jeeboheebo: -800G
32. Rune339: -978G
33. Lydian_C: -1,043G
34. bigbongsmoker: -1,438G
35. chaosdesigned: -1,633G
