Final Bets: green - 18 bets for 10,897G (49.2%, x1.03); yellow - 12 bets for 11,229G (50.8%, x0.97)

green bets:
HentaiWriter: 1,594G (14.6%, 1,594G)
resjudicata3: 1,100G (10.1%, 2,067G)
sinnyil2: 1,017G (9.3%, 2,034G)
BaronHaynes: 1,000G (9.2%, 48,551G)
truestrike: 1,000G (9.2%, 6,395G)
HaateXIII: 900G (8.3%, 900G)
Laserman1000: 740G (6.8%, 740G)
Kronikle: 616G (5.7%, 36,603G)
Firesheath: 516G (4.7%, 516G)
JonnyCue: 500G (4.6%, 7,213G)
Raixelol: 368G (3.4%, 5,834G)
krombobreaker: 276G (2.5%, 8,632G)
killth3kid: 250G (2.3%, 17,365G)
CorpusCav: 220G (2.0%, 4,462G)
iBardic: 200G (1.8%, 38,675G)
datadrivenbot: 200G (1.8%, 66,170G)
RobotOcelot: 200G (1.8%, 11,787G)
Rune339: 200G (1.8%, 1,176G)

yellow bets:
Mesmaster: 5,000G (44.5%, 192,973G)
DLJuggernaut: 1,000G (8.9%, 7,586G)
BirbBrainsBot: 1,000G (8.9%, 66,067G)
Lythe_Caraker: 1,000G (8.9%, 168,534G)
blorpy_: 666G (5.9%, 3,330G)
CT_5_Holy: 597G (5.3%, 11,957G)
lijarkh: 592G (5.3%, 10,596G)
NicoSavoy: 336G (3.0%, 336G)
thunderducker: 333G (3.0%, 3,257G)
FriendlySkeleton: 253G (2.3%, 506G)
omnighast: 250G (2.2%, 2,248G)
getthemoneyz: 202G (1.8%, 1,809,874G)
