Final Bets: green - 11 bets for 9,925G (68.3%, x0.46); yellow - 10 bets for 4,606G (31.7%, x2.15)

green bets:
Aldrammech: 5,000G (50.4%, 48,898G)
douchetron: 1,031G (10.4%, 1,031G)
benticore: 1,000G (10.1%, 44,353G)
Thyrandaal: 1,000G (10.1%, 129,486G)
killth3kid: 584G (5.9%, 9,373G)
Zagorsek: 339G (3.4%, 679G)
RaIshtar: 304G (3.1%, 2,995G)
AllInBot: 200G (2.0%, 200G)
datadrivenbot: 200G (2.0%, 43,903G)
roqqqpsi: 163G (1.6%, 252G)
popotinha1889: 104G (1.0%, 104G)

yellow bets:
VolgraTheMoose: 1,001G (21.7%, 13,582G)
BirbBrainsBot: 1,000G (21.7%, 114,597G)
NIghtdew14: 821G (17.8%, 821G)
getthemoneyz: 338G (7.3%, 1,457,918G)
Artea_: 332G (7.2%, 332G)
maximumcrit: 300G (6.5%, 9,124G)
Chambs12: 264G (5.7%, 2,309G)
Zathra: 250G (5.4%, 1,000G)
RageImmortaI: 200G (4.3%, 1,466G)
Miku_Shikhu: 100G (2.2%, 699G)
