Final Bets: white - 13 bets for 6,803G (49.3%, x1.03); purple - 9 bets for 6,991G (50.7%, x0.97)

white bets:
toka222: 1,750G (25.7%, 392,370G)
SeniorBunk: 1,000G (14.7%, 7,633G)
Thyrandaal: 849G (12.5%, 849G)
resjudicata3: 540G (7.9%, 540G)
ArrenJevleth: 500G (7.3%, 9,790G)
krombobreaker: 500G (7.3%, 14,249G)
SkylerBunny: 500G (7.3%, 1,857G)
Dasutin23: 496G (7.3%, 6,274G)
datadrivenbot: 200G (2.9%, 60,225G)
getthemoneyz: 168G (2.5%, 1,921,251G)
RunicMagus: 100G (1.5%, 12,471G)
gingerfoo69: 100G (1.5%, 100G)
latebit: 100G (1.5%, 6,699G)

purple bets:
Willjin: 2,000G (28.6%, 30,340G)
Blastinus: 1,305G (18.7%, 1,305G)
Sairentozon7: 1,000G (14.3%, 21,227G)
dogsandcatsand: 608G (8.7%, 38,433G)
BirbBrainsBot: 608G (8.7%, 94,609G)
Raixelol: 600G (8.6%, 600G)
thunderducker: 600G (8.6%, 3,935G)
AllInBot: 170G (2.4%, 170G)
BartTradingCompany: 100G (1.4%, 5,930G)
