Final Bets: white - 13 bets for 30,275G (81.0%, x0.23); champion - 14 bets for 7,106G (19.0%, x4.26)

white bets:
Willjin: 15,000G (49.5%, 29,359G)
latebit: 3,418G (11.3%, 6,702G)
Shalloween: 2,168G (7.2%, 4,336G)
SeniorBunk: 2,000G (6.6%, 8,869G)
Thyrandaal: 1,721G (5.7%, 1,721G)
resjudicata3: 1,207G (4.0%, 1,207G)
CorpusCav: 1,200G (4.0%, 7,940G)
Dasutin23: 1,000G (3.3%, 6,835G)
Sairentozon7: 1,000G (3.3%, 20,329G)
Raixelol: 661G (2.2%, 661G)
Lythe_Caraker: 500G (1.7%, 161,796G)
CosmicTactician: 200G (0.7%, 32,434G)
datadrivenbot: 200G (0.7%, 60,231G)

champion bets:
toka222: 1,750G (24.6%, 394,840G)
DeathTaxesAndAnime: 1,322G (18.6%, 1,322G)
BirbBrainsBot: 1,000G (14.1%, 94,103G)
DavenIII: 616G (8.7%, 616G)
krombobreaker: 500G (7.0%, 14,814G)
SkylerBunny: 500G (7.0%, 2,612G)
thunderducker: 400G (5.6%, 3,437G)
Kellios11: 300G (4.2%, 4,343G)
ArrenJevleth: 300G (4.2%, 10,335G)
AllInBot: 110G (1.5%, 110G)
gorgewall: 101G (1.4%, 8,869G)
BartTradingCompany: 100G (1.4%, 5,730G)
getthemoneyz: 58G (0.8%, 1,921,484G)
silentkaster: 49G (0.7%, 1,433G)
