High Risers:
1. Mushufasa_: +5,176G
2. old_overholt_: +2,733G
3. Rune339: +2,133G
4. resjudicata3: +1,940G
5. J2Reed: +1,349G
6. FuzzyTigers: +1,109G
7. goth_Applebees_hostess: +843G
8. Aaron2Nerdy: +302G
9. smallboops: +219G
10. roofiepops: +204G
11. OrbitalHeel: +189G
12. scsuperstar: +102G
13. Rhyser76: +95G
14. KGenjy: +83G
15. DeathTaxesAndAnime: +18G
16. gorgewall: -34G
17. LuckyLuckLuc2: -123G
18. NovaKnight21: -200G
19. Go2sleepTV: -200G
20. Chuckolator: -204G
21. QuestMoreLand: -240G
22. Sairentozon7: -300G
23. MemoriesofFinal: -528G
24. CorpusCav: -800G
25. Mesmaster: -824G
26. DarrenDinosaurs: -1,000G
27. bruubarg: -1,004G
28. Zachara: -1,250G
29. lijarkh: -1,262G
30. seppu777: -1,306G
31. upvla: -1,446G
32. ValensEXP_: -1,454G
33. Evewho: -1,485G
34. Chihuahua_Charity: -1,500G
35. khelor_: -1,500G
36. ColetteMSLP: -1,512G
37. Lolthsmeat: -2,002G
38. NicoSavoy: -2,373G
