Final Bets: red - 22 bets for 15,648G (70.6%, x0.42); yellow - 12 bets for 6,528G (29.4%, x2.40)

red bets:
Mesmaster: 3,000G (19.2%, 29,014G)
Estan_AD: 1,513G (9.7%, 3,027G)
leakimiko: 1,500G (9.6%, 49,652G)
sinnyil2: 1,200G (7.7%, 36,634G)
BirbBrainsBot: 1,000G (6.4%, 65,807G)
EnemyController: 1,000G (6.4%, 242,050G)
metagameface: 1,000G (6.4%, 16,950G)
Lionhermit: 1,000G (6.4%, 49,672G)
ungabunga_bot: 922G (5.9%, 496,761G)
CorpusCav: 499G (3.2%, 2,694G)
ko2q: 432G (2.8%, 432G)
CrownOfHorns: 428G (2.7%, 428G)
Kyune: 400G (2.6%, 400G)
uwuslayer15: 398G (2.5%, 398G)
twelfthrootoftwo: 300G (1.9%, 8,272G)
jakeduhhsnake: 256G (1.6%, 256G)
thethorndog1: 200G (1.3%, 3,254G)
otakutaylor: 200G (1.3%, 1,267G)
victoriolue: 100G (0.6%, 5,061G)
Firesheath: 100G (0.6%, 23,203G)
datadrivenbot: 100G (0.6%, 18,587G)
lastly: 100G (0.6%, 13,859G)

yellow bets:
genericco: 1,886G (28.9%, 1,886G)
LivingHitokiri: 1,116G (17.1%, 1,116G)
Evewho: 1,000G (15.3%, 18,134G)
Orerries: 900G (13.8%, 2,844G)
Realitydown: 608G (9.3%, 608G)
Miyokari: 250G (3.8%, 16,711G)
Digitalsocrates: 200G (3.1%, 1,841G)
KasugaiRoastedPeas: 200G (3.1%, 1,689G)
martymcfly2021: 136G (2.1%, 136G)
CosmicTactician: 100G (1.5%, 9,494G)
zzaanexx: 100G (1.5%, 2,108G)
getthemoneyz: 32G (0.5%, 671,261G)
