Final Bets: white - 13 bets for 12,585G (72.5%, x0.38); purple - 9 bets for 4,774G (27.5%, x2.64)

white bets:
nifboy: 3,158G (25.1%, 3,158G)
JumbocactuarX27: 3,000G (23.8%, 10,985G)
reinoe: 1,000G (7.9%, 36,405G)
BirbBrainsBot: 1,000G (7.9%, 33,098G)
Sairentozon7: 1,000G (7.9%, 40,032G)
Nizaha: 876G (7.0%, 63,879G)
gorgewall: 724G (5.8%, 724G)
krombobreaker: 700G (5.6%, 13,825G)
Stiqqery: 316G (2.5%, 632G)
old_overholt_: 300G (2.4%, 29,030G)
Girfred: 254G (2.0%, 254G)
SnarkMage: 157G (1.2%, 315G)
Orrfieldmedic: 100G (0.8%, 232G)

purple bets:
skipsandwiches: 1,001G (21.0%, 26,410G)
nhammen: 1,000G (20.9%, 265,702G)
lowlf: 580G (12.1%, 11,406G)
Laserman1000: 568G (11.9%, 21,768G)
AllInBot: 509G (10.7%, 509G)
VolgraTheMoose: 400G (8.4%, 9,300G)
Wonser: 396G (8.3%, 396G)
Morsigil: 200G (4.2%, 1,579G)
getthemoneyz: 120G (2.5%, 2,033,126G)
