Final Bets: red - 13 bets for 5,265G (29.2%, x2.43); blue - 14 bets for 12,793G (70.8%, x0.41)

red bets:
TheChainNerd: 1,500G (28.5%, 29,624G)
Lali_Lulelo: 821G (15.6%, 821G)
Lydian_C: 730G (13.9%, 4,836G)
E_Ballard: 694G (13.2%, 694G)
OneHundredFists: 320G (6.1%, 320G)
EnemyController: 300G (5.7%, 477,890G)
Angelomortis: 200G (3.8%, 200G)
benticore: 200G (3.8%, 4,420G)
nifboy: 100G (1.9%, 4,359G)
Grandlanzer: 100G (1.9%, 9,097G)
datadrivenbot: 100G (1.9%, 31,027G)
theshinyakuma: 100G (1.9%, 634G)
DerangedShadow: 100G (1.9%, 1,106G)

blue bets:
sinnyil2: 4,977G (38.9%, 9,955G)
J2DaBibbles: 3,000G (23.5%, 15,404G)
Sairentozon7: 1,713G (13.4%, 1,713G)
ShintaroNayaka: 800G (6.3%, 6,408G)
holyonline: 500G (3.9%, 20,680G)
StealthModeLocke: 444G (3.5%, 444G)
gogofromtogo: 316G (2.5%, 316G)
getthemoneyz: 228G (1.8%, 800,250G)
reddwind_: 200G (1.6%, 3,783G)
BirbBrainsBot: 198G (1.5%, 188,591G)
zepharoth89: 117G (0.9%, 2,351G)
nhammen: 100G (0.8%, 1,176G)
mrfripps: 100G (0.8%, 683G)
CosmicTactician: 100G (0.8%, 7,233G)
