Final Bets: red - 15 bets for 25,831G (85.5%, x0.17); black - 13 bets for 4,390G (14.5%, x5.88)

red bets:
ExecutedGiraffe: 10,117G (39.2%, 10,117G)
RaIshtar: 6,000G (23.2%, 9,240G)
Angelomortis: 3,227G (12.5%, 3,227G)
OneHundredFists: 1,818G (7.0%, 1,818G)
ShintaroNayaka: 1,000G (3.9%, 8,014G)
EnemyController: 1,000G (3.9%, 479,139G)
Lydian_C: 720G (2.8%, 7,540G)
demidusk: 500G (1.9%, 5,969G)
Cryptopsy70: 484G (1.9%, 484G)
killth3kid: 312G (1.2%, 1,907G)
CapnChaos12: 300G (1.2%, 12,253G)
Firesheath: 101G (0.4%, 2,837G)
nifboy: 100G (0.4%, 4,602G)
datadrivenbot: 100G (0.4%, 31,433G)
zepharoth89: 52G (0.2%, 1,056G)

black bets:
dogsandcatsand: 1,000G (22.8%, 11,949G)
BirbBrainsBot: 1,000G (22.8%, 188,298G)
fenaen: 500G (11.4%, 2,126G)
gogofromtogo: 316G (7.2%, 316G)
JarlBrolaf: 296G (6.7%, 1,296G)
pplvee1: 236G (5.4%, 236G)
reddwind_: 200G (4.6%, 4,240G)
smegma_sorcerer: 200G (4.6%, 1,953G)
Rytor: 200G (4.6%, 5,612G)
getthemoneyz: 142G (3.2%, 798,725G)
CosmicTactician: 100G (2.3%, 7,918G)
Grandlanzer: 100G (2.3%, 7,940G)
Flameatron: 100G (2.3%, 2,396G)
