Final Bets: green - 10 bets for 19,901G (37.1%, x1.70); yellow - 18 bets for 33,734G (62.9%, x0.59)

green bets:
AllInBot: 14,213G (71.4%, 14,213G)
lowlf: 1,271G (6.4%, 1,271G)
superdevon1: 1,093G (5.5%, 1,093G)
BirbBrainsBot: 1,000G (5.0%, 185,727G)
Firesheath: 664G (3.3%, 664G)
2b_yorha_b: 500G (2.5%, 32,564G)
Mushufasa_: 500G (2.5%, 24,144G)
KasugaiRoastedPeas: 400G (2.0%, 1,095G)
getthemoneyz: 160G (0.8%, 2,201,372G)
gingerfoo69: 100G (0.5%, 9,884G)

yellow bets:
HaplessOne: 12,380G (36.7%, 12,380G)
Willjin: 10,000G (29.6%, 29,060G)
DLJuggernaut: 5,000G (14.8%, 49,633G)
Zachara: 1,000G (3.0%, 112,000G)
JethroThrul: 838G (2.5%, 838G)
CorpusCav: 555G (1.6%, 61,773G)
ColetteMSLP: 520G (1.5%, 1,147G)
J_52: 500G (1.5%, 1,198G)
NightwolfXVI: 500G (1.5%, 1,370G)
Evewho: 500G (1.5%, 20,271G)
3ngag3: 456G (1.4%, 18,272G)
Sharosa: 400G (1.2%, 2,982G)
Arcblazer23: 380G (1.1%, 380G)
gorgewall: 201G (0.6%, 5,268G)
datadrivenbot: 200G (0.6%, 83,564G)
verythinice: 104G (0.3%, 418G)
MemoriesofFinal: 100G (0.3%, 25,097G)
smallboops: 100G (0.3%, 3,297G)
