Final Bets: purple - 11 bets for 6,944G (25.3%, x2.95); brown - 21 bets for 20,488G (74.7%, x0.34)

purple bets:
FatTunaKing: 1,361G (19.6%, 1,361G)
Evewho: 1,000G (14.4%, 19,566G)
BirbBrainsBot: 1,000G (14.4%, 183,727G)
Firesheath: 891G (12.8%, 891G)
Sairentozon7: 660G (9.5%, 660G)
KasugaiRoastedPeas: 556G (8.0%, 556G)
2b_yorha_b: 500G (7.2%, 31,564G)
gary_corson: 300G (4.3%, 18,065G)
getthemoneyz: 276G (4.0%, 2,200,580G)
Sharosa: 200G (2.9%, 3,118G)
NightwolfXVI: 200G (2.9%, 1,733G)

brown bets:
DLJuggernaut: 5,000G (24.4%, 52,583G)
seppu777: 3,352G (16.4%, 3,352G)
Lythe_Caraker: 1,931G (9.4%, 1,931G)
Mushufasa_: 1,234G (6.0%, 23,815G)
HaplessOne: 1,234G (6.0%, 20,063G)
CorpusCav: 1,200G (5.9%, 62,632G)
Snowfats: 1,000G (4.9%, 60,274G)
old_overholt_: 1,000G (4.9%, 41,162G)
lowlf: 841G (4.1%, 841G)
Arcblazer23: 811G (4.0%, 811G)
Willjin: 600G (2.9%, 34,359G)
superdevon1: 505G (2.5%, 505G)
3ngag3: 456G (2.2%, 18,697G)
J_52: 300G (1.5%, 1,217G)
AllInBot: 268G (1.3%, 268G)
gorgewall: 201G (1.0%, 5,186G)
datadrivenbot: 200G (1.0%, 83,750G)
PantherIscariot: 111G (0.5%, 3,360G)
gingerfoo69: 100G (0.5%, 9,818G)
smallboops: 100G (0.5%, 3,356G)
JethroThrul: 44G (0.2%, 446G)
