Final Bets: white - 4 bets for 3,362G (29.2%, x2.42); black - 17 bets for 8,140G (70.8%, x0.41)

white bets:
E_Ballard: 1,542G (45.9%, 1,542G)
DeathTaxesAndAnime: 720G (21.4%, 720G)
rockmem21: 600G (17.8%, 23,744G)
killth3kid: 500G (14.9%, 12,958G)

black bets:
dogsandcatsand: 1,000G (12.3%, 15,392G)
BirbBrainsBot: 1,000G (12.3%, 41,975G)
argentbast: 1,000G (12.3%, 5,036G)
UmaiJam: 1,000G (12.3%, 24,734G)
VolgraTheMoose: 752G (9.2%, 752G)
getthemoneyz: 636G (7.8%, 1,068,203G)
Cryptopsy70: 600G (7.4%, 13,229G)
evontno: 512G (6.3%, 512G)
Shalloween: 500G (6.1%, 75,166G)
Arcblazer23: 316G (3.9%, 316G)
Rilgon: 220G (2.7%, 220G)
RampagingRobot: 104G (1.3%, 104G)
maakur_: 100G (1.2%, 77,847G)
SuzakuReii: 100G (1.2%, 1,029G)
datadrivenbot: 100G (1.2%, 46,693G)
rmelzer1986: 100G (1.2%, 792G)
CosmicTactician: 100G (1.2%, 21,987G)
