Final Bets: red - 11 bets for 9,422G (36.7%, x1.73); champion - 15 bets for 16,284G (63.3%, x0.58)

red bets:
Mesmaster: 5,000G (53.1%, 70,448G)
SkylerBunny: 1,700G (18.0%, 110,204G)
BirbBrainsBot: 1,000G (10.6%, 91,012G)
butterbelljedi: 500G (5.3%, 11,322G)
HASTERIOUS: 422G (4.5%, 42,277G)
soren_of_tyto: 272G (2.9%, 272G)
placidphoenix: 224G (2.4%, 224G)
Firesheath: 100G (1.1%, 16,238G)
CT_5_Holy: 100G (1.1%, 3,797G)
Gatsbysghost: 100G (1.1%, 100G)
getthemoneyz: 4G (0.0%, 984,084G)

champion bets:
BoneMiser: 5,174G (31.8%, 17,249G)
Digitalsocrates: 2,000G (12.3%, 63,129G)
YaBoy125: 1,570G (9.6%, 52,356G)
holoatomos: 1,473G (9.0%, 1,473G)
DLJuggernaut: 1,000G (6.1%, 13,148G)
reinoe: 1,000G (6.1%, 20,776G)
Laserman1000: 990G (6.1%, 990G)
prince_rogers_nelson_: 576G (3.5%, 576G)
KyleWonToLiveForever: 530G (3.3%, 530G)
MadnessR: 500G (3.1%, 12,194G)
Kronikle: 500G (3.1%, 14,168G)
Grandlanzer: 400G (2.5%, 5,750G)
CapnChaos12: 300G (1.8%, 16,675G)
ThisGuyLovesMath: 147G (0.9%, 147G)
ericzubat: 124G (0.8%, 124G)
