Final Bets: green - 13 bets for 15,478G (51.3%, x0.95); champion - 14 bets for 14,722G (48.7%, x1.05)

green bets:
DLJuggernaut: 5,498G (35.5%, 10,781G)
powergems: 2,500G (16.2%, 11,546G)
Yangusburger: 2,311G (14.9%, 2,311G)
ColetteMSLP: 1,677G (10.8%, 1,677G)
Greggernaut: 1,000G (6.5%, 49,751G)
RobotOcelot: 500G (3.2%, 2,173G)
Shalloween: 500G (3.2%, 3,156G)
loveyouallfriends: 400G (2.6%, 400G)
Blaster_Bomb: 350G (2.3%, 3,558G)
Neech: 298G (1.9%, 298G)
iBardic: 200G (1.3%, 9,728G)
getthemoneyz: 144G (0.9%, 1,903,425G)
AllInBot: 100G (0.6%, 100G)

champion bets:
BappleTrees: 10,216G (69.4%, 10,216G)
BirbBrainsBot: 1,000G (6.8%, 174,453G)
HaateXIII: 936G (6.4%, 936G)
Laserman1000: 538G (3.7%, 5,738G)
hotpocketsofficial: 467G (3.2%, 467G)
Snowfats: 324G (2.2%, 324G)
RonaldoTheGypsy: 250G (1.7%, 3,989G)
ValensEXP_: 244G (1.7%, 2,707G)
datadrivenbot: 200G (1.4%, 57,032G)
TheSabretoothe: 191G (1.3%, 191G)
Ogema_theDream: 112G (0.8%, 112G)
heyBtw: 100G (0.7%, 1,453G)
DeathTaxesAndAnime: 100G (0.7%, 1,634G)
BartTradingCompany: 44G (0.3%, 442G)
