Final Bets: red - 7 bets for 3,508G (59.2%, x0.69); blue - 8 bets for 2,414G (40.8%, x1.45)

red bets:
Zeroroute: 1,350G (38.5%, 1,350G)
BirbBrainsBot: 1,000G (28.5%, 8,900G)
getthemoneyz: 458G (13.1%, 1,961,666G)
AllInBot: 200G (5.7%, 200G)
CanniCake: 200G (5.7%, 2,064G)
farside00831: 200G (5.7%, 3,782G)
LLight__: 100G (2.9%, 1,079G)

blue bets:
pepperbuster: 502G (20.8%, 26,002G)
SeniorBunk: 500G (20.7%, 10,940G)
pplvee1: 376G (15.6%, 3,295G)
ValensEXP_: 328G (13.6%, 1,409G)
Smashy: 308G (12.8%, 2,280G)
datadrivenbot: 200G (8.3%, 62,340G)
BartTradingCompany: 100G (4.1%, 9,945G)
CosmicTactician: 100G (4.1%, 28,744G)
