Final Bets: purple - 11 bets for 4,729G (43.6%, x1.29); brown - 14 bets for 6,122G (56.4%, x0.77)

purple bets:
pepperbuster: 1,000G (21.1%, 28,000G)
Mazairasama: 1,000G (21.1%, 4,264G)
BirbBrainsBot: 840G (17.8%, 11,521G)
SeniorBunk: 500G (10.6%, 14,060G)
skipsandwiches: 416G (8.8%, 16,017G)
getthemoneyz: 372G (7.9%, 1,962,471G)
Swish604: 200G (4.2%, 1,399G)
gongonono: 200G (4.2%, 2,341G)
BartTradingCompany: 100G (2.1%, 10,281G)
MemoriesofFinal: 100G (2.1%, 27,775G)
latebit: 1G (0.0%, 9,617G)

brown bets:
BaronHaynes: 1,500G (24.5%, 31,037G)
DavenIII: 1,094G (17.9%, 1,094G)
Lord_Gwarth: 500G (8.2%, 4,717G)
Zeroroute: 416G (6.8%, 416G)
run_with_stone_GUNs: 412G (6.7%, 10,047G)
SephDarkheart: 352G (5.7%, 32,677G)
ValensEXP_: 328G (5.4%, 2,841G)
Zacen299: 300G (4.9%, 700G)
CosmicTactician: 300G (4.9%, 28,789G)
LeoNightFury: 220G (3.6%, 220G)
AllInBot: 200G (3.3%, 200G)
CanniCake: 200G (3.3%, 1,864G)
datadrivenbot: 200G (3.3%, 62,231G)
Bongomon7: 100G (1.6%, 1,633G)
