Final Bets: red - 11 bets for 4,588G (26.0%, x2.85); blue - 13 bets for 13,076G (74.0%, x0.35)

red bets:
BirbBrainsBot: 1,000G (21.8%, 91,797G)
josephiroth_143: 707G (15.4%, 707G)
wyonearth: 583G (12.7%, 583G)
killth3kid: 500G (10.9%, 20,244G)
TheGuesty: 500G (10.9%, 49,625G)
superdevon1: 422G (9.2%, 2,112G)
LeoNightFury: 264G (5.8%, 264G)
getthemoneyz: 212G (4.6%, 763,497G)
AmaninAmide: 200G (4.4%, 2,560G)
lastly: 100G (2.2%, 11,335G)
Qaz12301: 100G (2.2%, 12,979G)

blue bets:
twelfthrootoftwo: 3,000G (22.9%, 40,105G)
metagameface: 2,656G (20.3%, 2,656G)
Zeroroute: 2,444G (18.7%, 6,024G)
RaIshtar: 2,000G (15.3%, 3,783G)
cloud92684: 1,000G (7.6%, 12,336G)
NIghtdew14: 750G (5.7%, 2,348G)
Digitalsocrates: 392G (3.0%, 3,920G)
gogofromtogo: 252G (1.9%, 252G)
volgrathemoose: 200G (1.5%, 976G)
serperemagus: 180G (1.4%, 180G)
CosmicTactician: 100G (0.8%, 3,007G)
datadrivenbot: 100G (0.8%, 30,300G)
daveb_: 2G (0.0%, 1,478G)
