Final Bets: green - 11 bets for 7,859G (49.8%, x1.01); yellow - 15 bets for 7,931G (50.2%, x0.99)

green bets:
TheChainNerd: 2,000G (25.4%, 51,144G)
twelfthrootoftwo: 2,000G (25.4%, 37,105G)
TheGuesty: 1,050G (13.4%, 51,050G)
Jeeboheebo: 1,000G (12.7%, 4,717G)
Lawndough: 513G (6.5%, 513G)
killth3kid: 500G (6.4%, 21,669G)
metagameface: 316G (4.0%, 316G)
serperemagus: 180G (2.3%, 180G)
Qaz12301: 100G (1.3%, 13,264G)
AmaninAmide: 100G (1.3%, 3,130G)
datadrivenbot: 100G (1.3%, 30,200G)

yellow bets:
Zeroroute: 1,398G (17.6%, 3,580G)
bruubarg: 1,210G (15.3%, 3,210G)
josephiroth_143: 1,000G (12.6%, 1,722G)
volgrathemoose: 776G (9.8%, 776G)
superdevon1: 663G (8.4%, 3,315G)
BirbBrainsBot: 567G (7.1%, 94,647G)
NIghtdew14: 500G (6.3%, 1,598G)
pplvee1: 463G (5.8%, 463G)
cloud92684: 400G (5.0%, 11,336G)
gogofromtogo: 252G (3.2%, 252G)
wyonearth: 200G (2.5%, 2,245G)
Saldarin: 200G (2.5%, 7,182G)
getthemoneyz: 102G (1.3%, 764,101G)
ApplesauceBoss: 100G (1.3%, 4,941G)
d4rr1n: 100G (1.3%, 5,517G)
