Final Bets: purple - 8 bets for 6,227G (79.6%, x0.26); brown - 5 bets for 1,598G (20.4%, x3.90)

purple bets:
Mesmaster: 2,000G (32.1%, 32,731G)
superdevon1: 1,186G (19.0%, 118,657G)
skipsandwiches: 1,001G (16.1%, 2,699G)
CT_5_Holy: 658G (10.6%, 658G)
Starfire6789: 577G (9.3%, 577G)
getthemoneyz: 504G (8.1%, 1,695,372G)
datadrivenbot: 200G (3.2%, 64,450G)
gorgewall: 101G (1.6%, 4,670G)

brown bets:
NovaKnight21: 1,000G (62.6%, 5,683G)
BirbBrainsBot: 298G (18.6%, 97,212G)
AllInBot: 100G (6.3%, 100G)
Lawndough: 100G (6.3%, 2,404G)
ko2q: 100G (6.3%, 1,735G)
