Final Bets: white - 15 bets for 6,997G (66.2%, x0.51); black - 10 bets for 3,577G (33.8%, x1.96)

white bets:
snkey: 1,000G (14.3%, 9,998G)
robespyah: 1,000G (14.3%, 4,966G)
Nizaha: 848G (12.1%, 73,790G)
resjudicata3: 735G (10.5%, 735G)
upvla: 678G (9.7%, 12,867G)
dogsandcatsand: 636G (9.1%, 24,345G)
VolgraTheMoose: 500G (7.1%, 4,500G)
Zagorsek: 436G (6.2%, 436G)
ColetteMSLP: 400G (5.7%, 10,049G)
AllInBot: 200G (2.9%, 200G)
TrogdorTheMemeinator: 164G (2.3%, 164G)
BartTradingCompany: 100G (1.4%, 10,926G)
yagyuudarkness: 100G (1.4%, 100G)
Chilltron: 100G (1.4%, 100G)
nickolaytheninja: 100G (1.4%, 900G)

black bets:
BirbBrainsBot: 1,000G (28.0%, 7,997G)
CorpusCav: 993G (27.8%, 42,993G)
ValensEXP_: 320G (8.9%, 4,010G)
getthemoneyz: 292G (8.2%, 1,962,288G)
rNdOrchestra: 272G (7.6%, 272G)
tripaplex: 200G (5.6%, 4,982G)
escobro: 200G (5.6%, 1,265G)
DAC169: 100G (2.8%, 2,102G)
Firesheath: 100G (2.8%, 5,430G)
king_smashington: 100G (2.8%, 428G)
