Final Bets: green - 27 bets for 10,125G (65.1%, x0.54); yellow - 13 bets for 5,434G (34.9%, x1.86)

green bets:
sinnyil2: 1,326G (13.1%, 1,326G)
ColetteMSLP: 1,000G (9.9%, 69,371G)
gooseyourself: 616G (6.1%, 616G)
killth3kid: 600G (5.9%, 13,194G)
TheTemperedChocobo: 500G (4.9%, 1,947G)
HaateXIII: 500G (4.9%, 3,137G)
Lionhermit: 500G (4.9%, 6,831G)
Reltz_: 500G (4.9%, 7,968G)
HASTERIOUS: 485G (4.8%, 9,703G)
DustBirdEX: 456G (4.5%, 16,600G)
skillomono: 384G (3.8%, 384G)
uwuslayer15: 369G (3.6%, 369G)
Estan_AD: 359G (3.5%, 718G)
gorgewall: 301G (3.0%, 8,297G)
x_NiGhtMaRE_x: 300G (3.0%, 3,523G)
JLinkletter: 300G (3.0%, 1,867G)
CapnChaos12: 300G (3.0%, 3,364G)
benticore: 250G (2.5%, 5,763G)
otakutaylor: 200G (2.0%, 3,549G)
Killing_Moon: 179G (1.8%, 179G)
TheMM42: 100G (1.0%, 1,840G)
Dymntd: 100G (1.0%, 7,923G)
moocaotao: 100G (1.0%, 2,119G)
mannequ1n: 100G (1.0%, 1,054G)
datadrivenbot: 100G (1.0%, 21,455G)
ANFz: 100G (1.0%, 1,433G)
GnielKnows: 100G (1.0%, 2,777G)

yellow bets:
StealthModeLocke: 1,000G (18.4%, 1,000G)
BirbBrainsBot: 1,000G (18.4%, 173,875G)
Mesmaster: 1,000G (18.4%, 77,713G)
HaplessOne: 666G (12.3%, 12,646G)
E_Ballard: 600G (11.0%, 600G)
TheJonTerp: 200G (3.7%, 9,716G)
kaidykat: 200G (3.7%, 740G)
eudes89: 200G (3.7%, 6,363G)
nekojin: 150G (2.8%, 5,064G)
getthemoneyz: 118G (2.2%, 678,175G)
jakeduhhsnake: 100G (1.8%, 3,032G)
GladiatorLupe: 100G (1.8%, 7,585G)
Evewho: 100G (1.8%, 7,631G)
