Final Bets: white - 17 bets for 15,085G (65.1%, x0.54); black - 13 bets for 8,081G (34.9%, x1.87)

white bets:
oodlesonoodles11: 2,895G (19.2%, 2,895G)
UmaiJam: 1,950G (12.9%, 6,500G)
NoNotBees: 1,786G (11.8%, 1,786G)
Shalloween: 1,300G (8.6%, 20,307G)
DeathTaxesAndAnime: 1,156G (7.7%, 1,156G)
sagafrontier2: 1,090G (7.2%, 1,090G)
WireLord: 1,000G (6.6%, 24,685G)
BlinkFS: 1,000G (6.6%, 6,356G)
Faplo: 724G (4.8%, 724G)
CT_5_Holy: 716G (4.7%, 716G)
gamesage53: 500G (3.3%, 3,995G)
ungabunga_bot: 394G (2.6%, 88,782G)
Snowfats: 212G (1.4%, 212G)
AllInBot: 161G (1.1%, 161G)
SeedSC: 100G (0.7%, 184,549G)
datadrivenbot: 100G (0.7%, 24,935G)
daveb_: 1G (0.0%, 1,291G)

black bets:
PatSouI: 1,556G (19.3%, 1,556G)
sinnyil2: 1,200G (14.8%, 11,811G)
KingofTricksters: 1,000G (12.4%, 1,914G)
DarrenDinosaurs: 1,000G (12.4%, 6,190G)
BirbBrainsBot: 1,000G (12.4%, 280,035G)
thevilmen: 608G (7.5%, 608G)
CapnChaos12: 500G (6.2%, 6,181G)
electric_glass: 333G (4.1%, 2,211G)
Chuckolator: 265G (3.3%, 4,761G)
getthemoneyz: 250G (3.1%, 445,162G)
byrdturbo: 169G (2.1%, 6,503G)
Evewho: 100G (1.2%, 3,908G)
Treapvort: 100G (1.2%, 1,451G)
