Final Bets: purple - 15 bets for 13,607G (78.5%, x0.27); brown - 8 bets for 3,737G (21.5%, x3.64)

purple bets:
UmaiJam: 2,575G (18.9%, 5,050G)
thevilmen: 2,243G (16.5%, 2,243G)
Shalloween: 1,600G (11.8%, 19,507G)
sinnyil2: 1,200G (8.8%, 14,551G)
DarrenDinosaurs: 1,000G (7.3%, 8,557G)
BirbBrainsBot: 1,000G (7.3%, 281,902G)
WireLord: 1,000G (7.3%, 23,685G)
reinoe: 1,000G (7.3%, 12,118G)
R_Raynos: 776G (5.7%, 776G)
gamesage53: 500G (3.7%, 4,495G)
getthemoneyz: 360G (2.6%, 445,629G)
electric_glass: 150G (1.1%, 3,833G)
ungabunga_bot: 100G (0.7%, 88,388G)
datadrivenbot: 100G (0.7%, 24,835G)
daveb_: 3G (0.0%, 1,790G)

brown bets:
KingofTricksters: 1,500G (40.1%, 4,281G)
NoNotBees: 712G (19.1%, 712G)
Snowfats: 632G (16.9%, 632G)
CapnChaos12: 300G (8.0%, 8,114G)
Faplo: 224G (6.0%, 224G)
byrdturbo: 169G (4.5%, 7,322G)
AllInBot: 100G (2.7%, 100G)
Evewho: 100G (2.7%, 4,595G)
