Final Bets: black - 12 bets for 8,541G (55.9%, x0.79); brown - 13 bets for 6,730G (44.1%, x1.27)

black bets:
KingofTricksters: 3,000G (35.1%, 6,743G)
Shalloween: 1,400G (16.4%, 19,164G)
sinnyil2: 1,200G (14.0%, 16,582G)
DeathTaxesAndAnime: 844G (9.9%, 1,656G)
CapnChaos12: 500G (5.9%, 8,906G)
UmaiJam: 438G (5.1%, 4,386G)
electric_glass: 420G (4.9%, 3,350G)
BirbBrainsBot: 337G (3.9%, 281,872G)
KasugaiRoastedPeas: 200G (2.3%, 15,792G)
AllInBot: 100G (1.2%, 100G)
cougboi: 100G (1.2%, 5,922G)
daveb_: 2G (0.0%, 1,791G)

brown bets:
sagafrontier2: 1,182G (17.6%, 1,182G)
DarrenDinosaurs: 1,000G (14.9%, 14,884G)
ungabunga_bot: 1,000G (14.9%, 87,850G)
reinoe: 1,000G (14.9%, 10,118G)
Faplo: 790G (11.7%, 790G)
PotionDweller: 500G (7.4%, 7,679G)
byrdturbo: 420G (6.2%, 7,937G)
NoNotBees: 212G (3.2%, 212G)
getthemoneyz: 186G (2.8%, 445,131G)
Snowfats: 132G (2.0%, 132G)
thevilmen: 108G (1.6%, 108G)
BlinkFS: 100G (1.5%, 4,356G)
datadrivenbot: 100G (1.5%, 24,635G)
