Final Bets: blue - 13 bets for 10,286G (35.8%, x1.80); yellow - 13 bets for 18,477G (64.2%, x0.56)

blue bets:
b0lt: 2,243G (21.8%, 2,243G)
Thyrandaal: 1,571G (15.3%, 1,571G)
CorpusCav: 1,500G (14.6%, 56,875G)
Runeseeker22: 1,017G (9.9%, 1,017G)
BirbBrainsBot: 1,000G (9.7%, 186,377G)
Lionhermit: 916G (8.9%, 1,798G)
Evewho: 500G (4.9%, 23,701G)
2b_yorha_b: 500G (4.9%, 33,337G)
superdevon1: 372G (3.6%, 372G)
chrisk103: 200G (1.9%, 8,285G)
getthemoneyz: 186G (1.8%, 2,202,306G)
AbandonedHall: 180G (1.7%, 180G)
gorgewall: 101G (1.0%, 5,716G)

yellow bets:
OneHundredFists: 10,069G (54.5%, 75,131G)
HaplessOne: 3,333G (18.0%, 12,592G)
AllInBot: 1,254G (6.8%, 1,254G)
roofiepops: 1,117G (6.0%, 3,673G)
FatTunaKing: 548G (3.0%, 548G)
ColetteMSLP: 520G (2.8%, 1,896G)
Lolthsmeat: 360G (1.9%, 360G)
YowaneHaku: 300G (1.6%, 6,165G)
JethroThrul: 276G (1.5%, 276G)
verythinice: 200G (1.1%, 200G)
datadrivenbot: 200G (1.1%, 83,251G)
MelTorefas: 200G (1.1%, 2,294G)
TheBrett: 100G (0.5%, 20,311G)
