Final Bets: red - 9 bets for 9,307G (53.8%, x0.86); blue - 11 bets for 7,981G (46.2%, x1.17)

red bets:
YaBoy125: 2,993G (32.2%, 5,986G)
BoneMiser: 1,860G (20.0%, 1,860G)
shineeyo: 1,775G (19.1%, 1,775G)
amiture: 1,065G (11.4%, 1,065G)
randgridr: 865G (9.3%, 865G)
twelfthrootoftwo: 255G (2.7%, 500G)
hiros13gts: 228G (2.4%, 228G)
datadrivenbot: 200G (2.1%, 57,002G)
getthemoneyz: 66G (0.7%, 1,274,063G)

blue bets:
Mesmaster: 2,000G (25.1%, 92,243G)
Lythe_Caraker: 1,000G (12.5%, 148,391G)
BirbBrainsBot: 1,000G (12.5%, 111,064G)
NicoSavoy: 1,000G (12.5%, 183,004G)
dantayystv: 1,000G (12.5%, 34,221G)
Smokegiant: 849G (10.6%, 849G)
RaIshtar: 500G (6.3%, 27,523G)
dem0nj0ns: 228G (2.9%, 228G)
Mysteriousdewd: 200G (2.5%, 592G)
dtrain332: 108G (1.4%, 108G)
CT_5_Holy: 96G (1.2%, 1,925G)
