High Risers:
1. Frozenfelid: +3,144G
2. Davestrider55: +1,934G
3. Brookeiynn: +1,424G
4. Memoriesoffinal: +1,071G
5. Gorgewall: +766G
6. Deathtaxesandanime: +466G
7. Raixelol: +439G
8. Skipsandwiches: +257G
9. Genkidou: +123G
10. Colettemslp: +91G
11. Sephdarkheart: +81G
12. Skcocorb: +37G
13. Lwtest: +22G
14. Zerguzen: -181G
15. Actual_jp: -196G
16. Upvla: -196G
17. Daveniii: -220G
18. Jeeboheebo: -300G
19. Bigbongsmoker: -300G
20. Hasterious: -400G
21. Afro_gundam: -431G
22. Foragercats: -500G
23. Nifboy: -792G
24. Just_here2: -1,000G
25. Volgrathemoose: -1,168G
26. Pplvee1: -2,001G
27. Onehundredfists: -2,053G
28. Xsifthewolf: -5,046G
