Final Bets: green - 19 bets for 16,811G (37.2%, x1.69); yellow - 32 bets for 28,356G (62.8%, x0.59)

green bets:
itzover9001: 10,000G (59.5%, 43,877G)
Baron_von_Scrub: 1,111G (6.6%, 121,485G)
flowinprose: 1,000G (5.9%, 21,793G)
RyuTsuno: 750G (4.5%, 12,400G)
Zeroroute: 600G (3.6%, 600G)
ungabunga_bot: 559G (3.3%, 172,722G)
fenaen: 500G (3.0%, 26,715G)
NoNotBees: 450G (2.7%, 10,684G)
TheGuesty: 350G (2.1%, 10,769G)
Lanshaft: 324G (1.9%, 5,549G)
nifboy: 271G (1.6%, 2,712G)
nedryerson01: 200G (1.2%, 11,653G)
gorgewall: 116G (0.7%, 116G)
gloomdog: 104G (0.6%, 104G)
MeleeWizard: 100G (0.6%, 5,371G)
FriendSquirrel: 100G (0.6%, 13,567G)
LazarusAjin: 100G (0.6%, 25,940G)
RunicMagus: 100G (0.6%, 44,798G)
roqqqpsi: 76G (0.5%, 3,838G)

yellow bets:
volgrathemoose: 12,890G (45.5%, 162,890G)
HaplessOne: 1,500G (5.3%, 68,388G)
Shalloween: 1,200G (4.2%, 45,716G)
joewcarson: 1,031G (3.6%, 1,031G)
MantisFinch: 1,000G (3.5%, 42,029G)
run_with_stone_guns: 1,000G (3.5%, 1,000G)
SkylerBunny: 1,000G (3.5%, 53,923G)
Conome: 957G (3.4%, 957G)
DeathTaxesAndAnime: 700G (2.5%, 18,318G)
EnemyController: 700G (2.5%, 48,317G)
mirapoix: 664G (2.3%, 664G)
ThePuss: 500G (1.8%, 1,279G)
Tougou: 500G (1.8%, 38,499G)
NovaKnight21: 500G (1.8%, 23,392G)
elkydeluxe: 500G (1.8%, 14,353G)
Breakdown777: 500G (1.8%, 27,008G)
HaateXIII: 500G (1.8%, 19,628G)
ericzubat: 500G (1.8%, 2,196G)
SwaffleWaffles: 433G (1.5%, 14,450G)
ANFz: 300G (1.1%, 9,732G)
jicchi: 200G (0.7%, 200G)
BirbBrainsBot: 200G (0.7%, 200G)
rico_flex: 200G (0.7%, 23,187G)
carsenhk: 150G (0.5%, 1,852G)
b0shii: 123G (0.4%, 8,436G)
FoeSquirrel: 100G (0.4%, 4,612G)
Jeeboheebo: 100G (0.4%, 17,845G)
ZephyrTempest: 100G (0.4%, 148,370G)
Irondynamics: 100G (0.4%, 100G)
getthemoneyz: 82G (0.3%, 513,179G)
datadrivenbot: 76G (0.3%, 100G)
DrAntiSocial: 50G (0.2%, 6,169G)
