Final Bets: red - 13 bets for 4,663G (44.8%, x1.23); blue - 7 bets for 5,740G (55.2%, x0.81)

red bets:
BirbBrainsBot: 1,000G (21.4%, 47,961G)
sinnyil2: 700G (15.0%, 9,234G)
DeathTaxesAndAnime: 680G (14.6%, 680G)
RubenFlonne: 514G (11.0%, 514G)
Carledo: 333G (7.1%, 2,061G)
Slowbrofist: 300G (6.4%, 300G)
BlinkFS: 236G (5.1%, 236G)
datadrivenbot: 236G (5.1%, 25,864G)
JustSuperish: 200G (4.3%, 3,870G)
getthemoneyz: 166G (3.6%, 463,867G)
AllInBot: 160G (3.4%, 160G)
mayormcfunbags: 136G (2.9%, 136G)
daveb_: 2G (0.0%, 1,758G)

blue bets:
HASTERIOUS: 2,741G (47.8%, 2,741G)
upvla: 1,219G (21.2%, 24,127G)
PotionDweller: 1,000G (17.4%, 9,150G)
LAGBOT30000: 541G (9.4%, 10,821G)
SeniorBunk: 100G (1.7%, 1,136G)
TimeJannies: 100G (1.7%, 2,017G)
roqqqpsi: 39G (0.7%, 2,966G)
