Final Bets: red - 8 bets for 6,560G (67.8%, x0.48); blue - 7 bets for 3,122G (32.2%, x2.10)

red bets:
ShintaroNayaka: 2,360G (36.0%, 2,360G)
TheChainNerd: 1,500G (22.9%, 25,663G)
Jeeboheebo: 1,000G (15.2%, 15,713G)
twelfthrootoftwo: 1,000G (15.2%, 14,070G)
JLinkletter: 300G (4.6%, 3,289G)
Rytor: 200G (3.0%, 6,517G)
datadrivenbot: 100G (1.5%, 31,425G)
lastly: 100G (1.5%, 16,576G)

blue bets:
dinin991: 1,116G (35.7%, 1,116G)
BirbBrainsBot: 1,000G (32.0%, 179,815G)
gogofromtogo: 414G (13.3%, 414G)
cam_ATS: 228G (7.3%, 228G)
Shinzutalos: 200G (6.4%, 200G)
Belkra: 120G (3.8%, 120G)
getthemoneyz: 44G (1.4%, 798,322G)
