Final Bets: white - 14 bets for 5,750G (33.9%, x1.95); black - 13 bets for 11,203G (66.1%, x0.51)

white bets:
BirbBrainsBot: 1,000G (17.4%, 158,829G)
twelfthrootoftwo: 1,000G (17.4%, 23,022G)
getthemoneyz: 962G (16.7%, 1,113,190G)
BoneMiser: 500G (8.7%, 500G)
killth3kid: 444G (7.7%, 6,226G)
Magicandy: 300G (5.2%, 25,496G)
CosmicTactician: 300G (5.2%, 26,669G)
Mesmaster: 300G (5.2%, 2,493G)
Rilgon: 244G (4.2%, 244G)
Evewho: 200G (3.5%, 11,898G)
safira125: 200G (3.5%, 4,722G)
Ring_Wyrm: 100G (1.7%, 2,943G)
Sans_from_Snowdin: 100G (1.7%, 30,038G)
Grandlanzer: 100G (1.7%, 39,113G)

black bets:
Chuckolator: 3,797G (33.9%, 98,735G)
SkylerBunny: 1,700G (15.2%, 509,777G)
DLJuggernaut: 1,288G (11.5%, 2,526G)
Zeroroute: 1,105G (9.9%, 1,105G)
OneHundredFists: 620G (5.5%, 620G)
KyleWonToLiveForever: 554G (4.9%, 554G)
ANFz: 500G (4.5%, 12,394G)
Zagorsek: 495G (4.4%, 495G)
ArashiKurobara: 324G (2.9%, 649G)
redrhinofever: 268G (2.4%, 268G)
Bilabrin: 252G (2.2%, 252G)
ThreeMileIsland: 200G (1.8%, 200G)
datadrivenbot: 100G (0.9%, 46,598G)
