Final Bets: red - 16 bets for 6,989G (23.2%, x3.31); champion - 21 bets for 23,114G (76.8%, x0.30)

red bets:
BoneMiser: 1,498G (21.4%, 1,498G)
OneHundredFists: 1,227G (17.6%, 1,227G)
BirbBrainsBot: 1,000G (14.3%, 158,806G)
electric_algus: 500G (7.2%, 25,975G)
ArashiKurobara: 451G (6.5%, 451G)
killth3kid: 444G (6.4%, 7,145G)
DuraiPapers: 376G (5.4%, 376G)
Bilabrin: 252G (3.6%, 252G)
getthemoneyz: 242G (3.5%, 1,112,864G)
Arashii85: 200G (2.9%, 5,252G)
Evewho: 200G (2.9%, 11,417G)
LionelParks: 200G (2.9%, 8,571G)
benticore: 100G (1.4%, 4,843G)
solomongrundy85: 100G (1.4%, 1,714G)
safira125: 100G (1.4%, 4,924G)
WhiteDog420: 99G (1.4%, 693G)

champion bets:
Chuckolator: 5,717G (24.7%, 97,454G)
Zbgs: 4,500G (19.5%, 14,106G)
prince_rogers_nelson_: 4,136G (17.9%, 4,136G)
SkylerBunny: 2,400G (10.4%, 509,240G)
Mesmaster: 1,077G (4.7%, 1,077G)
twelfthrootoftwo: 1,000G (4.3%, 23,429G)
Laserman1000: 797G (3.4%, 14,197G)
KyleWonToLiveForever: 670G (2.9%, 670G)
superdevon1: 665G (2.9%, 665G)
ANFz: 500G (2.2%, 12,651G)
GladiatorLupe: 300G (1.3%, 5,765G)
Lythe_Caraker: 250G (1.1%, 142,501G)
ChaoreLance: 202G (0.9%, 202G)
DeathTaxesAndAnime: 200G (0.9%, 1,862G)
maakur_: 100G (0.4%, 75,600G)
thewondertrickster: 100G (0.4%, 2,917G)
Rikrizen: 100G (0.4%, 4,510G)
silenzioexcl: 100G (0.4%, 1,000G)
CosmicTactician: 100G (0.4%, 26,422G)
letdowncity: 100G (0.4%, 10,653G)
datadrivenbot: 100G (0.4%, 46,447G)
