Final Bets: blue - 9 bets for 3,738G (45.0%, x1.22); green - 11 bets for 4,560G (55.0%, x0.82)

blue bets:
TheChainNerd: 1,033G (27.6%, 1,033G)
LDSkinny: 971G (26.0%, 971G)
killth3kid: 702G (18.8%, 7,025G)
Akrae: 324G (8.7%, 324G)
DuraiPapers: 208G (5.6%, 208G)
actual_JP: 200G (5.4%, 5,977G)
CosmicTactician: 100G (2.7%, 7,683G)
Miku_Shikhu: 100G (2.7%, 14,056G)
Lordminsc: 100G (2.7%, 4,296G)

green bets:
BirbBrainsBot: 1,000G (21.9%, 53,066G)
Rislyeu: 500G (11.0%, 58,773G)
joewcarson: 500G (11.0%, 36,856G)
baconbacon1207: 500G (11.0%, 1,804G)
dogsandcatsand: 500G (11.0%, 8,421G)
DudeMonkey77: 500G (11.0%, 27,463G)
nifboy: 424G (9.3%, 424G)
ZCKaiser: 236G (5.2%, 236G)
d4rr1n: 200G (4.4%, 5,084G)
AllInBot: 100G (2.2%, 100G)
RuneS_77: 100G (2.2%, 8,324G)
