Final Bets: black - 7 bets for 6,591G (52.4%, x0.91); brown - 15 bets for 5,989G (47.6%, x1.10)

black bets:
gooseyourself: 2,035G (30.9%, 4,070G)
HaateXIII: 1,628G (24.7%, 1,628G)
Thyrandaal: 1,054G (16.0%, 2,067G)
Pyre_Pyre: 696G (10.6%, 696G)
Phi_Sig: 555G (8.4%, 10,212G)
Anasetsuken: 323G (4.9%, 323G)
letdowncity: 300G (4.6%, 17,895G)

brown bets:
Alaquane: 1,337G (22.3%, 1,808G)
BirbBrainsBot: 1,000G (16.7%, 186,315G)
Rislyeu: 1,000G (16.7%, 52,245G)
Laserman1000: 509G (8.5%, 23,709G)
DLJuggernaut: 500G (8.3%, 16,785G)
KasugaiRoastedPeas: 499G (8.3%, 499G)
dogsandcatsand: 348G (5.8%, 348G)
fluffskull: 120G (2.0%, 1,560G)
AllInBot: 100G (1.7%, 100G)
Grandlanzer: 100G (1.7%, 6,835G)
CosmicTactician: 100G (1.7%, 2,282G)
datadrivenbot: 100G (1.7%, 37,375G)
E_Ballard: 100G (1.7%, 6,613G)
Meta_Five: 100G (1.7%, 13,446G)
getthemoneyz: 76G (1.3%, 937,863G)
