Final Bets: white - 8 bets for 4,566G (36.4%, x1.75); brown - 12 bets for 7,987G (63.6%, x0.57)

white bets:
Zachara: 1,500G (32.9%, 99,500G)
prince_rogers_nelson_: 1,000G (21.9%, 29,327G)
shannahan45: 1,000G (21.9%, 25,488G)
NovaKnight21: 505G (11.1%, 505G)
fluffskull: 304G (6.7%, 304G)
lastly: 100G (2.2%, 23,986G)
CosmicTactician: 100G (2.2%, 942G)
roqqqpsi: 57G (1.2%, 5,743G)

brown bets:
VolgraTheMoose: 2,001G (25.1%, 56,651G)
BirbBrainsBot: 1,000G (12.5%, 186,523G)
BlackFireUK: 1,000G (12.5%, 14,302G)
serperemagus: 1,000G (12.5%, 5,729G)
NIghtdew14: 973G (12.2%, 973G)
DeathTaxesAndAnime: 612G (7.7%, 612G)
getthemoneyz: 568G (7.1%, 942,764G)
gorgewall: 301G (3.8%, 18,337G)
AllInBot: 166G (2.1%, 166G)
DusterW: 166G (2.1%, 166G)
E_Ballard: 100G (1.3%, 6,811G)
datadrivenbot: 100G (1.3%, 37,081G)
