Final Bets: red - 16 bets for 7,326G (48.3%, x1.07); blue - 16 bets for 7,845G (51.7%, x0.93)

red bets:
Forkmore: 1,000G (13.7%, 25,413G)
powergems: 898G (12.3%, 898G)
Cryptopsy70: 620G (8.5%, 15,260G)
ShintaroNayaka: 600G (8.2%, 600G)
DavenIII: 600G (8.2%, 600G)
run_with_stone_GUNs: 504G (6.9%, 1,652G)
BoneMiser: 500G (6.8%, 500G)
EnemyController: 500G (6.8%, 1,308,272G)
MagicBottle: 480G (6.6%, 22,343G)
TheChainNerd: 454G (6.2%, 4,549G)
killth3kid: 444G (6.1%, 131,386G)
gooseyourself: 312G (4.3%, 312G)
getthemoneyz: 114G (1.6%, 1,157,769G)
nhammen: 100G (1.4%, 7,242G)
actual_JP: 100G (1.4%, 6,954G)
CosmicTactician: 100G (1.4%, 53,384G)

blue bets:
DeathTaxesAndAnime: 2,206G (28.1%, 4,327G)
RampagingRobot: 1,000G (12.7%, 15,800G)
Nizaha: 956G (12.2%, 956G)
SkylerBunny: 600G (7.6%, 7,863G)
Thyrandaal: 504G (6.4%, 504G)
Kronikle: 500G (6.4%, 15,283G)
ArashiKurobara: 500G (6.4%, 25,266G)
DLJuggernaut: 336G (4.3%, 336G)
joewcarson: 300G (3.8%, 17,387G)
DaKoopa49: 272G (3.5%, 992G)
Grandlanzer: 200G (2.5%, 41,589G)
Lydian_C: 121G (1.5%, 153,329G)
Error72: 100G (1.3%, 2,296G)
datadrivenbot: 100G (1.3%, 51,602G)
phoenix6107: 85G (1.1%, 170G)
BirbBrainsBot: 65G (0.8%, 113,850G)
