Final Bets: green - 13 bets for 12,316G (38.7%, x1.59); yellow - 15 bets for 19,543G (61.3%, x0.63)

green bets:
bruubarg: 4,000G (32.5%, 13,800G)
Firesheath: 1,756G (14.3%, 1,756G)
Evewho: 1,497G (12.2%, 1,497G)
pandasforsale: 841G (6.8%, 841G)
getthemoneyz: 818G (6.6%, 889,958G)
CaptainGarlock: 600G (4.9%, 18,921G)
Rislyeu: 576G (4.7%, 576G)
killth3kid: 500G (4.1%, 14,303G)
electric_algus: 500G (4.1%, 16,360G)
BirbBrainsBot: 500G (4.1%, 71,632G)
kaidykat: 300G (2.4%, 29,473G)
Spuzzmocker: 224G (1.8%, 224G)
mr_kindaro: 204G (1.7%, 204G)

yellow bets:
DeathTaxesAndAnime: 6,520G (33.4%, 12,785G)
reddwind_: 3,620G (18.5%, 7,240G)
HaateXIII: 2,523G (12.9%, 5,046G)
Shakarak: 2,000G (10.2%, 161,769G)
reinoe: 1,000G (5.1%, 16,373G)
Mesmaster: 1,000G (5.1%, 5,390G)
OneHundredFists: 603G (3.1%, 603G)
Kalabain: 600G (3.1%, 29,095G)
superdevon1: 500G (2.6%, 500G)
prince_rogers_nelson_: 428G (2.2%, 428G)
SincereName: 300G (1.5%, 786G)
AllInBot: 149G (0.8%, 149G)
Ring_Wyrm: 100G (0.5%, 1,013G)
fluffskull: 100G (0.5%, 583G)
datadrivenbot: 100G (0.5%, 37,292G)
