Final Bets: blue - 16 bets for 13,345G (65.1%, x0.54); yellow - 11 bets for 7,166G (34.9%, x1.86)

blue bets:
DeathTaxesAndAnime: 5,683G (42.6%, 11,145G)
bruubarg: 2,385G (17.9%, 2,385G)
reinoe: 1,000G (7.5%, 18,037G)
Evewho: 628G (4.7%, 628G)
killth3kid: 500G (3.7%, 12,803G)
Rislyeu: 500G (3.7%, 3,465G)
cougboi: 500G (3.7%, 17,643G)
prince_rogers_nelson_: 428G (3.2%, 428G)
Spuzzmocker: 376G (2.8%, 376G)
kaidykat: 300G (2.2%, 30,151G)
ColetteMSLP: 300G (2.2%, 1,592G)
ChronoG: 244G (1.8%, 244G)
fluffskull: 201G (1.5%, 201G)
AllInBot: 100G (0.7%, 100G)
datadrivenbot: 100G (0.7%, 37,155G)
SincereName: 100G (0.7%, 975G)

yellow bets:
Mesmaster: 2,000G (27.9%, 6,198G)
BirbBrainsBot: 1,000G (14.0%, 74,395G)
NicoSavoy: 1,000G (14.0%, 4,082G)
OneHundredFists: 650G (9.1%, 650G)
electric_algus: 600G (8.4%, 17,471G)
Kalabain: 500G (7.0%, 31,541G)
Digitalsocrates: 500G (7.0%, 5,078G)
getthemoneyz: 308G (4.3%, 889,401G)
mr_kindaro: 227G (3.2%, 1,227G)
Arcblazer23: 200G (2.8%, 868G)
almontys: 181G (2.5%, 181G)
