Final Bets: blue - 15 bets for 12,870G (48.9%, x1.05); champion - 7 bets for 13,467G (51.1%, x0.96)

blue bets:
Digitalsocrates: 2,500G (19.4%, 4,803G)
Mesmaster: 2,147G (16.7%, 4,295G)
Evewho: 1,990G (15.5%, 1,990G)
reinoe: 1,000G (7.8%, 19,180G)
BirbBrainsBot: 1,000G (7.8%, 71,395G)
cougboi: 1,000G (7.8%, 17,845G)
electric_algus: 800G (6.2%, 16,499G)
ChronoG: 774G (6.0%, 774G)
kaidykat: 400G (3.1%, 30,556G)
astrozin11: 330G (2.6%, 3,734G)
ColetteMSLP: 291G (2.3%, 1,527G)
mr_kindaro: 204G (1.6%, 204G)
prince_rogers_nelson_: 200G (1.6%, 1,357G)
AllInBot: 134G (1.0%, 134G)
datadrivenbot: 100G (0.8%, 37,297G)

champion bets:
DeathTaxesAndAnime: 9,234G (68.6%, 18,106G)
Kalabain: 1,850G (13.7%, 31,850G)
bruubarg: 1,000G (7.4%, 3,586G)
getthemoneyz: 718G (5.3%, 888,759G)
CrownOfHorns: 284G (2.1%, 284G)
serperemagus: 236G (1.8%, 236G)
almontys: 145G (1.1%, 145G)
