Final Bets: purple - 19 bets for 10,020G (45.5%, x1.20); brown - 11 bets for 11,989G (54.5%, x0.84)

purple bets:
Ahegaliant: 1,697G (16.9%, 1,697G)
ColetteMSLP: 1,000G (10.0%, 37,295G)
BirbBrainsBot: 1,000G (10.0%, 179,675G)
TheseJeans: 817G (8.2%, 817G)
coralreeferz: 750G (7.5%, 9,178G)
Aldrammech: 684G (6.8%, 684G)
Phi_Sig: 555G (5.5%, 109,173G)
killth3kid: 548G (5.5%, 12,439G)
sinnyil2: 526G (5.2%, 1,052G)
Strifu: 519G (5.2%, 1,018G)
Miku_Shikhu: 472G (4.7%, 472G)
SephDarkheart: 416G (4.2%, 15,119G)
roqqqpsi: 224G (2.2%, 236G)
gorgewall: 201G (2.0%, 4,223G)
datadrivenbot: 200G (2.0%, 46,231G)
acid_flashback: 153G (1.5%, 1,020G)
jeffersonsa: 100G (1.0%, 134G)
BlackfyreRoy: 100G (1.0%, 9,033G)
getthemoneyz: 58G (0.6%, 1,424,160G)

brown bets:
E_Ballard: 5,775G (48.2%, 5,775G)
NIghtdew14: 2,000G (16.7%, 58,252G)
red__lancer: 1,000G (8.3%, 113,940G)
VolgraTheMoose: 828G (6.9%, 828G)
dogsandcatsand: 777G (6.5%, 5,203G)
Nizaha: 604G (5.0%, 7,286G)
AllInBot: 370G (3.1%, 370G)
pLifer: 260G (2.2%, 260G)
ArlanKels: 250G (2.1%, 5,443G)
ScottyDeluxe: 120G (1.0%, 1,019G)
moonliquor: 5G (0.0%, 23,418G)
