Final Bets: red - 21 bets for 13,060G (52.8%, x0.89); yellow - 13 bets for 11,661G (47.2%, x1.12)

red bets:
sinnyil2: 2,500G (19.1%, 48,605G)
killth3kid: 2,000G (15.3%, 68,077G)
Aldrammech: 1,117G (8.6%, 1,117G)
Nizaha: 1,001G (7.7%, 8,875G)
Dymntd: 1,000G (7.7%, 28,284G)
I_nod_my_head_when_I_lose: 750G (5.7%, 48,491G)
hydroshade: 738G (5.7%, 738G)
Shalloween: 652G (5.0%, 1,279G)
aStatue: 604G (4.6%, 604G)
reinoe: 600G (4.6%, 600G)
roofiepops: 444G (3.4%, 13,556G)
dorman_777: 435G (3.3%, 435G)
HaateXIII: 250G (1.9%, 5,273G)
ferroniss: 200G (1.5%, 1,079G)
Meta_Five: 200G (1.5%, 3,932G)
ungabunga_bot: 165G (1.3%, 292,977G)
Lythe_Caraker: 100G (0.8%, 118,353G)
ANFz: 100G (0.8%, 25,540G)
datadrivenbot: 100G (0.8%, 11,387G)
nifboy: 100G (0.8%, 6,011G)
tanarusasamiya: 4G (0.0%, 1,397G)

yellow bets:
DeathTaxesAndAnime: 6,677G (57.3%, 13,093G)
Fenrislfr: 1,000G (8.6%, 16,331G)
jakeduhhsnake: 1,000G (8.6%, 72,929G)
argentbast: 1,000G (8.6%, 15,018G)
ZephyrTempest: 456G (3.9%, 488G)
Odin007_88: 417G (3.6%, 2,417G)
Cryptopsy70: 388G (3.3%, 37,169G)
CorpusCav: 240G (2.1%, 11,593G)
itsonlyspencer: 200G (1.7%, 3,328G)
BirbBrainsBot: 107G (0.9%, 168,585G)
Realitydown: 100G (0.9%, 5,231G)
DrAntiSocial: 50G (0.4%, 7,161G)
getthemoneyz: 26G (0.2%, 613,517G)
