Final Bets: black - 24 bets for 15,887G (66.0%, x0.51); champion - 14 bets for 8,175G (34.0%, x1.94)

black bets:
omegasuspekt: 2,222G (14.0%, 16,208G)
helpimabug: 1,931G (12.2%, 3,863G)
Boultson1337: 1,468G (9.2%, 1,468G)
Zeroroute: 1,336G (8.4%, 3,976G)
SkylerBunny: 1,067G (6.7%, 2,094G)
killth3kid: 1,000G (6.3%, 107,855G)
ANFz: 1,000G (6.3%, 31,734G)
BirbBrainsBot: 1,000G (6.3%, 111,148G)
evdoggity: 1,000G (6.3%, 92,867G)
Cryptopsy70: 600G (3.8%, 20,508G)
MagicBottle: 504G (3.2%, 15,638G)
Aldrammech: 408G (2.6%, 408G)
ThreeMileIsland: 387G (2.4%, 387G)
Digitalsocrates: 368G (2.3%, 3,766G)
ColetteMSLP: 300G (1.9%, 5,463G)
alterworlds: 260G (1.6%, 260G)
HaateXIII: 250G (1.6%, 3,168G)
gorgewall: 201G (1.3%, 26,272G)
datadrivenbot: 200G (1.3%, 56,778G)
VolgraTheMoose: 105G (0.7%, 1,902G)
CosmicTactician: 100G (0.6%, 42,696G)
enkikavlar: 100G (0.6%, 6,307G)
SephDarkheart: 50G (0.3%, 25,075G)
ChubbyBroCast: 30G (0.2%, 304G)

champion bets:
kliffw: 2,000G (24.5%, 12,933G)
DudeMonkey77: 1,351G (16.5%, 1,351G)
Evewho: 798G (9.8%, 798G)
Laserman1000: 600G (7.3%, 25,100G)
Nizaha: 528G (6.5%, 1,865G)
nekojin: 500G (6.1%, 5,358G)
IDruggedShamu: 500G (6.1%, 3,864G)
ZCKaiser: 320G (3.9%, 4,921G)
Shalloween: 300G (3.7%, 63,850G)
Jumza: 300G (3.7%, 1,200G)
GRRR12: 300G (3.7%, 1,489G)
Gelwain: 300G (3.7%, 6,739G)
getthemoneyz: 278G (3.4%, 1,208,727G)
DeathTaxesAndAnime: 100G (1.2%, 1,877G)
