Final Bets: purple - 17 bets for 15,960G (42.4%, x1.36); brown - 12 bets for 21,674G (57.6%, x0.74)

purple bets:
Forkmore: 5,899G (37.0%, 11,568G)
Aldrammech: 3,386G (21.2%, 3,386G)
FriendSquirrel: 1,527G (9.6%, 1,527G)
wildetrys: 1,127G (7.1%, 1,127G)
AllInBot: 679G (4.3%, 679G)
SephDarkheart: 584G (3.7%, 116,826G)
arctodus13: 434G (2.7%, 434G)
getthemoneyz: 398G (2.5%, 1,648,838G)
neocarbuncle: 342G (2.1%, 342G)
holdenmagronik: 336G (2.1%, 1,781G)
itskage: 295G (1.8%, 2,952G)
Rikrizen: 229G (1.4%, 7,637G)
J_MacC1991: 208G (1.3%, 208G)
datadrivenbot: 200G (1.3%, 64,015G)
uncharreted: 116G (0.7%, 116G)
nifboy: 100G (0.6%, 5,290G)
Sans_from_Snowdin: 100G (0.6%, 24,917G)

brown bets:
skipsandwiches: 4,967G (22.9%, 4,967G)
Smashy: 4,424G (20.4%, 4,424G)
nhammen: 3,000G (13.8%, 30,837G)
reinoe: 3,000G (13.8%, 215,752G)
Drusiform: 2,000G (9.2%, 13,712G)
Lord_Burrah: 1,000G (4.6%, 76,000G)
BirbBrainsBot: 1,000G (4.6%, 162,801G)
RunicMagus: 766G (3.5%, 766G)
SkylerBunny: 720G (3.3%, 720G)
Lanshaft: 596G (2.7%, 9,106G)
gorgewall: 101G (0.5%, 4,459G)
Valgram: 100G (0.5%, 1,460G)
