Final Bets: red - 22 bets for 25,499G (52.0%, x0.92); blue - 18 bets for 23,544G (48.0%, x1.08)

red bets:
reinoe: 5,000G (19.6%, 93,934G)
holandrix: 3,252G (12.8%, 3,252G)
dingdingboom: 2,078G (8.1%, 2,078G)
Mesmaster: 2,000G (7.8%, 61,062G)
thunderducker: 1,894G (7.4%, 3,158G)
sinnyil2: 1,582G (6.2%, 1,582G)
resjudicata3: 1,332G (5.2%, 1,332G)
CorpusCav: 1,174G (4.6%, 1,174G)
Shalloween: 1,000G (3.9%, 25,066G)
Forkmore: 777G (3.0%, 4,226G)
Aldrammech: 700G (2.7%, 700G)
SkylerBunny: 560G (2.2%, 560G)
Phi_Sig: 555G (2.2%, 103,153G)
Laserman1000: 539G (2.1%, 23,639G)
killth3kid: 516G (2.0%, 516G)
roofiepops: 474G (1.9%, 3,970G)
Smashy: 464G (1.8%, 464G)
BoneMiser: 424G (1.7%, 424G)
WesSideVandal: 346G (1.4%, 346G)
Cryptopsy70: 332G (1.3%, 719G)
chronicdeath: 300G (1.2%, 1,487G)
datadrivenbot: 200G (0.8%, 62,016G)

blue bets:
HaateXIII: 7,156G (30.4%, 7,156G)
Virilikus: 5,000G (21.2%, 308,386G)
latebit: 2,707G (11.5%, 2,707G)
DeathTaxesAndAnime: 1,323G (5.6%, 1,323G)
Thyrandaal: 1,234G (5.2%, 58,656G)
BirbBrainsBot: 1,000G (4.2%, 40,594G)
Drusiform: 1,000G (4.2%, 15,225G)
coralreeferz: 897G (3.8%, 897G)
Spartan_Paladin: 800G (3.4%, 45,403G)
dogsandcatsand: 560G (2.4%, 560G)
readdesert: 364G (1.5%, 364G)
ribbiks: 340G (1.4%, 340G)
MemoriesofFinal: 259G (1.1%, 259G)
Omally_: 250G (1.1%, 254G)
corysteam: 220G (0.9%, 220G)
getthemoneyz: 210G (0.9%, 1,745,206G)
AllInBot: 124G (0.5%, 124G)
RunicMagus: 100G (0.4%, 4,015G)
