Final Bets: white - 14 bets for 7,162G (31.9%, x2.13); brown - 23 bets for 15,271G (68.1%, x0.47)

white bets:
skillomono: 1,097G (15.3%, 1,097G)
mistblade: 1,000G (14.0%, 14,310G)
Deathmaker06: 1,000G (14.0%, 11,709G)
reinoe: 1,000G (14.0%, 13,010G)
x_NiGhtMaRE_x: 900G (12.6%, 4,386G)
genericco: 804G (11.2%, 804G)
electric_glass: 420G (5.9%, 11,716G)
madman66666: 216G (3.0%, 216G)
moocaotao: 200G (2.8%, 1,412G)
DragonLord_Carter: 125G (1.7%, 383G)
TheMM42: 100G (1.4%, 2,347G)
cougboi: 100G (1.4%, 12,993G)
mannequ1n: 100G (1.4%, 1,108G)
T8T3R: 100G (1.4%, 2,124G)

brown bets:
NicoSavoy: 3,000G (19.6%, 40,424G)
Mesmaster: 2,000G (13.1%, 74,364G)
OneHundredFists: 1,648G (10.8%, 1,648G)
HaplessOne: 1,111G (7.3%, 36,544G)
evontno: 1,002G (6.6%, 10,209G)
helpimabug: 1,001G (6.6%, 12,207G)
BirbBrainsBot: 1,000G (6.5%, 170,187G)
Laserman1000: 667G (4.4%, 3,867G)
Shalloween: 640G (4.2%, 640G)
Candina: 485G (3.2%, 485G)
CorpusCav: 442G (2.9%, 6,242G)
Estan_AD: 308G (2.0%, 308G)
gorgewall: 301G (2.0%, 8,635G)
twelfthrootoftwo: 300G (2.0%, 17,402G)
CapnChaos12: 300G (2.0%, 3,629G)
MalakiGenesys: 232G (1.5%, 232G)
TheJonTerp: 200G (1.3%, 9,768G)
JLinkletter: 200G (1.3%, 3,210G)
Heroebal: 100G (0.7%, 7,827G)
DeathTaxesAndAnime: 100G (0.7%, 1,666G)
datadrivenbot: 100G (0.7%, 21,537G)
7Cerulean7: 90G (0.6%, 11,446G)
getthemoneyz: 44G (0.3%, 677,704G)
