Final Bets: blue - 22 bets for 28,657G (59.6%, x0.68); purple - 18 bets for 19,414G (40.4%, x1.48)

blue bets:
shannahan45: 11,128G (38.8%, 11,128G)
acid_flashback: 7,020G (24.5%, 7,020G)
Mesmaster: 2,000G (7.0%, 103,963G)
d4rr1n: 1,927G (6.7%, 1,927G)
BirbBrainsBot: 1,000G (3.5%, 165,086G)
alterworlds: 955G (3.3%, 955G)
MagicBottle: 665G (2.3%, 665G)
Lydian_C: 560G (2.0%, 1,482G)
Meta_Five: 500G (1.7%, 10,546G)
rednecknazgul: 424G (1.5%, 424G)
gorgewall: 401G (1.4%, 17,618G)
Milkman153: 333G (1.2%, 4,458G)
theshinyakuma: 320G (1.1%, 320G)
letdowncity: 300G (1.0%, 18,384G)
BigGlorious: 300G (1.0%, 2,001G)
IphoneDarkness: 200G (0.7%, 2,749G)
Korremar: 124G (0.4%, 124G)
Firesheath: 100G (0.3%, 2,867G)
Grandlanzer: 100G (0.3%, 7,688G)
Miku_Shikhu: 100G (0.3%, 12,853G)
datadrivenbot: 100G (0.3%, 37,672G)
ANFz: 100G (0.3%, 3,836G)

purple bets:
VolgraTheMoose: 5,001G (25.8%, 61,804G)
OneHundredFists: 4,000G (20.6%, 39,219G)
maakur_: 2,761G (14.2%, 2,761G)
kaelsun: 1,895G (9.8%, 1,895G)
Baron_von_Scrub: 1,111G (5.7%, 60,536G)
HASTERIOUS: 744G (3.8%, 14,888G)
roqqqpsi: 675G (3.5%, 6,137G)
Alaquane: 508G (2.6%, 508G)
CosmicTactician: 500G (2.6%, 2,035G)
benticore: 408G (2.1%, 408G)
KonzeraLive: 400G (2.1%, 3,571G)
ColetteMSLP: 300G (1.5%, 856G)
old_overholt_: 300G (1.5%, 24,437G)
Lythe_Caraker: 250G (1.3%, 116,444G)
Yiroep2: 200G (1.0%, 1,232G)
Evewho: 200G (1.0%, 24,687G)
AllInBot: 141G (0.7%, 141G)
getthemoneyz: 20G (0.1%, 931,610G)
