Final Bets: red - 35 bets for 14,613G (33.7%, x1.97); blue - 34 bets for 28,759G (66.3%, x0.51)

red bets:
Winterharte: 2,141G (14.7%, 2,141G)
Lodrak: 1,001G (6.9%, 11,193G)
BirbBrainsBot: 1,000G (6.8%, 212,292G)
bad1dea: 1,000G (6.8%, 207,624G)
WalkerNash: 1,000G (6.8%, 12,668G)
JonnyCue: 1,000G (6.8%, 40,486G)
Lanshaft: 572G (3.9%, 8,242G)
Ququroon: 500G (3.4%, 97,840G)
nomoment: 500G (3.4%, 13,027G)
gum44: 500G (3.4%, 5,236G)
SolarisFall: 500G (3.4%, 19,038G)
lowlf: 472G (3.2%, 472G)
jigglefluffenstuff: 372G (2.5%, 372G)
DustBirdEX: 300G (2.1%, 5,363G)
DLJuggernaut: 300G (2.1%, 10,682G)
coralreeferz: 300G (2.1%, 7,003G)
getthemoneyz: 300G (2.1%, 353,950G)
ColetteMSLP: 300G (2.1%, 8,583G)
Baron_von_Scrub: 252G (1.7%, 4,309G)
CamelCash007: 212G (1.5%, 212G)
ShanksMcShiv: 200G (1.4%, 275G)
ricky_ortease: 200G (1.4%, 3,095G)
SealPoulpe: 200G (1.4%, 8,273G)
KasugaiRoastedPeas: 200G (1.4%, 33,204G)
ZephyrTempest: 193G (1.3%, 2,719G)
Arunic: 150G (1.0%, 856G)
Adam1949: 136G (0.9%, 136G)
GeekDadMan: 108G (0.7%, 1,671G)
ll_aja_ll: 104G (0.7%, 104G)
RyuTsuno: 100G (0.7%, 6,755G)
Kellios11: 100G (0.7%, 8,264G)
TheOneRanger: 100G (0.7%, 1,325G)
EnemyController: 100G (0.7%, 22,063G)
b_bot: 100G (0.7%, 1,000G)
sweetbeetpete: 100G (0.7%, 14,574G)

blue bets:
sinnyil2: 8,279G (28.8%, 16,559G)
DeathTaxesAndAnime: 6,800G (23.6%, 13,823G)
Shalloween: 3,000G (10.4%, 34,939G)
RongRongArts: 1,100G (3.8%, 30,616G)
AllInBot: 1,088G (3.8%, 1,088G)
OmnibotGamma: 1,000G (3.5%, 15,042G)
typicalfanboy: 636G (2.2%, 636G)
Oshimi12: 612G (2.1%, 612G)
reinoe: 609G (2.1%, 609G)
Dexef: 564G (2.0%, 564G)
JumbocactuarX27: 514G (1.8%, 514G)
genoguy: 500G (1.7%, 3,775G)
TheChainNerd: 460G (1.6%, 460G)
fenaen: 400G (1.4%, 7,335G)
MoonSlayerRS: 336G (1.2%, 336G)
KetabrakBemos: 300G (1.0%, 3,168G)
Cataphract116: 300G (1.0%, 1,181G)
Lazerkick: 250G (0.9%, 14,139G)
ELzukkor: 200G (0.7%, 2,262G)
Aeolus_000: 200G (0.7%, 2,746G)
theallmightyensiron: 200G (0.7%, 1,347G)
SeraphPDH: 200G (0.7%, 10,916G)
Jordache7K: 111G (0.4%, 12,677G)
ungabunga_bot: 100G (0.3%, 5,539G)
Tougou: 100G (0.3%, 5,463G)
maakur_: 100G (0.3%, 57,508G)
SpaZmodeus: 100G (0.3%, 1,950G)
TheRobbieRobster: 100G (0.3%, 100G)
Ficklebeast: 100G (0.3%, 2,139G)
Melbraega: 100G (0.3%, 100G)
ApplesauceBoss: 100G (0.3%, 10,184G)
chronoxtrigger: 100G (0.3%, 4,757G)
Chao_Garden: 100G (0.3%, 2,889G)
silentperogy: 100G (0.3%, 8,489G)
