Final Bets: green - 34 bets for 22,325G (46.2%, x1.17); yellow - 27 bets for 26,016G (53.8%, x0.86)

green bets:
MantisFinch: 3,025G (13.5%, 20,168G)
sinnyil2: 2,222G (10.0%, 20,766G)
RongRongArts: 2,000G (9.0%, 31,175G)
GeekDadMan: 1,563G (7.0%, 1,563G)
ricky_ortease: 1,200G (5.4%, 2,895G)
fenaen: 1,001G (4.5%, 7,538G)
JonnyCue: 1,000G (4.5%, 39,486G)
coralreeferz: 1,000G (4.5%, 6,703G)
BirbBrainsBot: 1,000G (4.5%, 211,292G)
bad1dea: 1,000G (4.5%, 206,624G)
WalkerNash: 1,000G (4.5%, 11,668G)
typicalfanboy: 959G (4.3%, 959G)
Shalloween: 800G (3.6%, 36,463G)
SolarisFall: 750G (3.4%, 18,538G)
ryokubaka: 431G (1.9%, 431G)
luminarii: 368G (1.6%, 7,000G)
SpaZmodeus: 333G (1.5%, 2,001G)
DustBirdEX: 300G (1.3%, 5,063G)
ColetteMSLP: 300G (1.3%, 8,283G)
ZephyrTempest: 266G (1.2%, 2,526G)
Baron_von_Scrub: 252G (1.1%, 4,057G)
Cataphract116: 200G (0.9%, 1,333G)
theallmightyensiron: 200G (0.9%, 1,449G)
TheRobbieRobster: 151G (0.7%, 151G)
ll_aja_ll: 104G (0.5%, 104G)
Nizaha: 100G (0.4%, 21,024G)
b_bot: 100G (0.4%, 900G)
ApplesauceBoss: 100G (0.4%, 10,235G)
ShanksMcShiv: 100G (0.4%, 100G)
EnemyController: 100G (0.4%, 21,963G)
Melbraega: 100G (0.4%, 151G)
Lazerkick: 100G (0.4%, 13,270G)
LDSkinny: 100G (0.4%, 1,767G)
RyuTsuno: 100G (0.4%, 6,655G)

yellow bets:
DeathTaxesAndAnime: 8,650G (33.2%, 17,278G)
Ququroon: 4,867G (18.7%, 97,340G)
roofiepops: 1,662G (6.4%, 1,662G)
AllInBot: 1,641G (6.3%, 1,641G)
Lodrak: 1,001G (3.8%, 10,192G)
IcePattern: 1,000G (3.8%, 21,893G)
getthemoneyz: 1,000G (3.8%, 353,650G)
TheChainNerd: 694G (2.7%, 694G)
Lanshaft: 572G (2.2%, 7,670G)
MoonSlayerRS: 507G (1.9%, 507G)
maakur_: 500G (1.9%, 57,559G)
genoguy: 500G (1.9%, 4,029G)
SealPoulpe: 500G (1.9%, 8,073G)
Oshimi12: 463G (1.8%, 927G)
KetabrakBemos: 400G (1.5%, 3,320G)
silentperogy: 400G (1.5%, 8,540G)
DLJuggernaut: 300G (1.2%, 10,382G)
CamelCash007: 212G (0.8%, 212G)
Aeolus_000: 200G (0.8%, 2,848G)
gum44: 200G (0.8%, 4,736G)
Adam1949: 136G (0.5%, 136G)
Jordache7K: 111G (0.4%, 12,733G)
Kellios11: 100G (0.4%, 8,164G)
Ficklebeast: 100G (0.4%, 2,190G)
Chao_Garden: 100G (0.4%, 2,940G)
ZestyArsenic: 100G (0.4%, 904G)
TheOneRanger: 100G (0.4%, 1,225G)
