Final Bets: blue - 28 bets for 15,440G (47.3%, x1.11); white - 30 bets for 17,195G (52.7%, x0.90)

blue bets:
wackyzachyy: 2,385G (15.4%, 2,385G)
sinnyil2: 2,030G (13.1%, 20,577G)
MoonSlayerRS: 1,133G (7.3%, 1,133G)
RongRongArts: 1,100G (7.1%, 34,829G)
powergems: 1,000G (6.5%, 3,126G)
BirbBrainsBot: 1,000G (6.5%, 210,132G)
bad1dea: 1,000G (6.5%, 205,486G)
TheChainNerd: 763G (4.9%, 763G)
getthemoneyz: 638G (4.1%, 352,969G)
coralreeferz: 500G (3.2%, 7,200G)
Zagorsek: 500G (3.2%, 283,030G)
fenaen: 400G (2.6%, 9,271G)
SpaZmodeus: 333G (2.2%, 2,798G)
Oshimi12: 300G (1.9%, 1,873G)
SeraphPDH: 300G (1.9%, 11,451G)
DustBirdEX: 300G (1.9%, 4,213G)
Lazerkick: 300G (1.9%, 14,136G)
ZephyrTempest: 256G (1.7%, 2,355G)
Cataphract116: 200G (1.3%, 2,807G)
Chuckolator: 167G (1.1%, 8,497G)
ShanksMcShiv: 131G (0.8%, 161G)
granbruhmomento: 104G (0.7%, 104G)
Tougou: 100G (0.6%, 5,476G)
Nizaha: 100G (0.6%, 27,693G)
lijarkh: 100G (0.6%, 264G)
Phi_Sig: 100G (0.6%, 40,899G)
RockTB: 100G (0.6%, 100G)
RyuTsuno: 100G (0.6%, 6,881G)

white bets:
Baron_von_Scrub: 2,847G (16.6%, 2,847G)
DeathTaxesAndAnime: 1,649G (9.6%, 1,649G)
Shalloween: 1,500G (8.7%, 39,706G)
Lodrak: 1,001G (5.8%, 9,950G)
Ficklebeast: 1,000G (5.8%, 2,600G)
TheRobbieRobster: 997G (5.8%, 997G)
superdevon1: 835G (4.9%, 835G)
Drakel: 700G (4.1%, 2,776G)
KetabrakBemos: 700G (4.1%, 2,694G)
CamelCash007: 692G (4.0%, 692G)
Aeolus_000: 500G (2.9%, 2,555G)
gum44: 500G (2.9%, 4,802G)
typicalfanboy: 500G (2.9%, 500G)
UmaiJam: 464G (2.7%, 4,648G)
SerumD: 418G (2.4%, 418G)
JumbocactuarX27: 411G (2.4%, 411G)
ELzukkor: 400G (2.3%, 2,818G)
ricky_ortease: 216G (1.3%, 216G)
theallmightyensiron: 200G (1.2%, 2,264G)
roofiepops: 200G (1.2%, 941G)
GeekDadMan: 200G (1.2%, 3,352G)
Chao_Garden: 200G (1.2%, 3,531G)
TheOneRanger: 200G (1.2%, 2,204G)
ll_aja_ll: 172G (1.0%, 172G)
AllInBot: 166G (1.0%, 166G)
SeriousFaceFace: 116G (0.7%, 116G)
Jordache7K: 111G (0.6%, 12,684G)
ungabunga_bot: 100G (0.6%, 5,784G)
ApplesauceBoss: 100G (0.6%, 10,580G)
SealPoulpe: 100G (0.6%, 7,950G)
