Final Bets: green - 17 bets for 5,251G (40.3%, x1.48); yellow - 17 bets for 7,792G (59.7%, x0.67)

green bets:
Lanshaft: 767G (14.6%, 767G)
Pie108: 700G (13.3%, 22,977G)
Shalloween: 700G (13.3%, 47,826G)
old_overholt_: 500G (9.5%, 7,963G)
ThePuss: 500G (9.5%, 1,485G)
UmbraKnights: 300G (5.7%, 1,356G)
CapnChaos12: 300G (5.7%, 2,165G)
The8thZodiac: 268G (5.1%, 268G)
killth3kid: 256G (4.9%, 461G)
cougboi: 200G (3.8%, 12,961G)
GrandmasterFrankerZ: 152G (2.9%, 152G)
getthemoneyz: 108G (2.1%, 498,984G)
Firesheath: 100G (1.9%, 685G)
LazarusAjin: 100G (1.9%, 1,424G)
electric_glass: 100G (1.9%, 3,238G)
dictatorhowells: 100G (1.9%, 1,000G)
Avin_Chaos: 100G (1.9%, 14,025G)

yellow bets:
datadrivenbot: 1,000G (12.8%, 2,456G)
BirbBrainsBot: 1,000G (12.8%, 206,373G)
RunicMagus: 820G (10.5%, 820G)
moonliquor: 555G (7.1%, 1,111G)
FoeSquirrel: 550G (7.1%, 550G)
itzover9001: 471G (6.0%, 471G)
Lordminsc: 424G (5.4%, 424G)
lijarkh: 421G (5.4%, 421G)
nifboy: 414G (5.3%, 414G)
MagicBottle: 414G (5.3%, 414G)
ZephyrTempest: 382G (4.9%, 75,292G)
Baron_von_Scrub: 353G (4.5%, 6,364G)
astrozin11: 336G (4.3%, 336G)
Evewho: 200G (2.6%, 2,529G)
dogsandcatsand: 195G (2.5%, 195G)
ungabunga_bot: 137G (1.8%, 140,866G)
7Cerulean7: 120G (1.5%, 2,554G)
