Final Bets: purple - 19 bets for 7,392G (43.0%, x1.32); brown - 14 bets for 9,789G (57.0%, x0.76)

purple bets:
Lordminsc: 710G (9.6%, 710G)
Pie108: 700G (9.5%, 21,577G)
Slowbrofist: 699G (9.5%, 6,056G)
BirbBrainsBot: 689G (9.3%, 207,231G)
getthemoneyz: 594G (8.0%, 498,608G)
RunicMagus: 522G (7.1%, 522G)
z32o: 500G (6.8%, 4,534G)
ThePuss: 500G (6.8%, 1,379G)
V3rdeni: 400G (5.4%, 4,283G)
HASTERIOUS: 356G (4.8%, 356G)
alrightbye: 350G (4.7%, 7,715G)
DudeMonkey77: 333G (4.5%, 2,685G)
roofiepops: 250G (3.4%, 1,882G)
ZephyrTempest: 219G (3.0%, 75,692G)
nifboy: 180G (2.4%, 180G)
GrandmasterFrankerZ: 140G (1.9%, 140G)
electric_glass: 100G (1.4%, 3,138G)
ApplesauceBoss: 100G (1.4%, 4,558G)
DrAntiSocial: 50G (0.7%, 2,069G)

brown bets:
DejaPoo21: 3,934G (40.2%, 3,934G)
datadrivenbot: 1,000G (10.2%, 3,530G)
lijarkh: 987G (10.1%, 987G)
Laserman1000: 897G (9.2%, 1,795G)
Lanshaft: 840G (8.6%, 840G)
MagicBottle: 485G (5.0%, 970G)
luminarii: 382G (3.9%, 18,226G)
Bulleta: 375G (3.8%, 375G)
dogsandcatsand: 326G (3.3%, 326G)
ko2q: 199G (2.0%, 18,449G)
ungabunga_bot: 114G (1.2%, 141,077G)
moonliquor: 100G (1.0%, 1,529G)
7Cerulean7: 100G (1.0%, 2,535G)
GingerDynomite: 50G (0.5%, 2,170G)
