Final Bets: white - 20 bets for 8,880G (37.8%, x1.64); black - 27 bets for 14,587G (62.2%, x0.61)

white bets:
maakur_: 1,313G (14.8%, 1,313G)
ColetteMSLP: 1,000G (11.3%, 45,853G)
BirbBrainsBot: 1,000G (11.3%, 64,952G)
kai_shee: 1,000G (11.3%, 1,929G)
DustBirdEX: 520G (5.9%, 520G)
electric_glass: 509G (5.7%, 17,655G)
LeoNightFury: 500G (5.6%, 2,263G)
NIghtdew14: 426G (4.8%, 426G)
Rislyeu: 417G (4.7%, 417G)
FoeSquirrel: 388G (4.4%, 388G)
Baron_von_Scrub: 353G (4.0%, 3,219G)
ANFz: 312G (3.5%, 312G)
Jaritras: 308G (3.5%, 308G)
Eyepoor_: 250G (2.8%, 3,314G)
FriendSquirrel: 162G (1.8%, 1,486G)
CorpusCav: 120G (1.4%, 4,393G)
getthemoneyz: 102G (1.1%, 677,080G)
ACSpree: 100G (1.1%, 1,649G)
oops25: 50G (0.6%, 412G)
flametail24: 50G (0.6%, 380G)

black bets:
HaplessOne: 2,222G (15.2%, 75,691G)
Mesmaster: 2,000G (13.7%, 35,718G)
sSwing: 1,604G (11.0%, 3,604G)
ungabunga_bot: 1,000G (6.9%, 494,484G)
Lionhermit: 1,000G (6.9%, 46,839G)
reinoe: 1,000G (6.9%, 7,565G)
roofiepops: 555G (3.8%, 28,791G)
mpghappiness: 527G (3.6%, 527G)
theNGUYENNER: 500G (3.4%, 11,172G)
HaateXIII: 500G (3.4%, 2,112G)
EnemyController: 500G (3.4%, 241,471G)
luminarii: 400G (2.7%, 11,456G)
twelfthrootoftwo: 300G (2.1%, 8,196G)
Kronikle: 300G (2.1%, 4,435G)
TheUnforgivenRage: 296G (2.0%, 296G)
nifboy: 250G (1.7%, 8,013G)
SerumD: 250G (1.7%, 3,796G)
SamaelMerihem: 216G (1.5%, 216G)
aeonicvector: 209G (1.4%, 1,312G)
Nizaha: 201G (1.4%, 10,535G)
Kyrious: 129G (0.9%, 129G)
GnielKnows: 128G (0.9%, 513G)
otakutaylor: 100G (0.7%, 2,190G)
brokenknight201: 100G (0.7%, 1,078G)
victoriolue: 100G (0.7%, 2,039G)
datadrivenbot: 100G (0.7%, 18,428G)
zzaanexx: 100G (0.7%, 153G)
