Final Bets: red - 23 bets for 22,912G (76.7%, x0.30); green - 12 bets for 6,943G (23.3%, x3.30)

red bets:
OneHundredFists: 9,777G (42.7%, 19,171G)
soren_of_tyto: 3,730G (16.3%, 3,730G)
Evewho: 1,720G (7.5%, 1,720G)
HASTERIOUS: 1,401G (6.1%, 1,401G)
R_Raynos: 1,128G (4.9%, 1,128G)
EnemyController: 1,000G (4.4%, 575,397G)
Cryptopsy70: 512G (2.2%, 11,049G)
killth3kid: 500G (2.2%, 14,271G)
DAC169: 415G (1.8%, 415G)
k1ngofthechill: 300G (1.3%, 7,724G)
CrownOfHorns: 284G (1.2%, 284G)
silentkaster: 251G (1.1%, 251G)
ChronoG: 240G (1.0%, 240G)
Arcblazer23: 223G (1.0%, 223G)
Shinzutalos: 212G (0.9%, 212G)
Firesheath: 201G (0.9%, 1,649G)
GladiatorLupe: 200G (0.9%, 2,567G)
JumbocactuarX27: 200G (0.9%, 3,465G)
JLinkletter: 200G (0.9%, 1,513G)
getthemoneyz: 118G (0.5%, 886,695G)
datadrivenbot: 100G (0.4%, 37,952G)
Grandlanzer: 100G (0.4%, 7,697G)
kintaru_oe: 100G (0.4%, 713G)

green bets:
SkylerBunny: 1,300G (18.7%, 107,463G)
BirbBrainsBot: 1,000G (14.4%, 65,588G)
superdevon1: 958G (13.8%, 958G)
DeathTaxesAndAnime: 872G (12.6%, 872G)
Mesmaster: 801G (11.5%, 801G)
electric_algus: 600G (8.6%, 11,310G)
E_Ballard: 436G (6.3%, 436G)
prince_rogers_nelson_: 424G (6.1%, 424G)
cougboi: 300G (4.3%, 17,011G)
benticore: 102G (1.5%, 2,050G)
AllInBot: 100G (1.4%, 100G)
fluffskull: 50G (0.7%, 1,550G)
