Final Bets: white - 19 bets for 11,429G (52.5%, x0.90); brown - 15 bets for 10,343G (47.5%, x1.10)

white bets:
SkylerBunny: 2,000G (17.5%, 111,753G)
Firesheath: 1,448G (12.7%, 1,448G)
EnemyController: 1,000G (8.7%, 574,397G)
NovaKnight21: 1,000G (8.7%, 4,471G)
k1ngofthechill: 1,000G (8.7%, 7,424G)
Laserman1000: 800G (7.0%, 32,400G)
superdevon1: 617G (5.4%, 4,119G)
killth3kid: 500G (4.4%, 13,771G)
Digitalsocrates: 500G (4.4%, 5,789G)
GladiatorLupe: 500G (4.4%, 2,367G)
JLinkletter: 500G (4.4%, 1,313G)
HASTERIOUS: 480G (4.2%, 480G)
Shinzutalos: 212G (1.9%, 212G)
JumbocactuarX27: 200G (1.7%, 3,265G)
DAC169: 200G (1.7%, 200G)
Arcblazer23: 168G (1.5%, 168G)
silentkaster: 104G (0.9%, 104G)
datadrivenbot: 100G (0.9%, 37,852G)
Grandlanzer: 100G (0.9%, 7,597G)

brown bets:
sinnyil2: 2,622G (25.4%, 2,622G)
E_Ballard: 1,875G (18.1%, 1,875G)
BirbBrainsBot: 1,000G (9.7%, 68,888G)
electric_algus: 800G (7.7%, 13,290G)
ZZ_Yoshi: 793G (7.7%, 793G)
Evewho: 628G (6.1%, 628G)
Cryptopsy70: 512G (5.0%, 10,537G)
Mesmaster: 500G (4.8%, 3,444G)
R_Raynos: 468G (4.5%, 468G)
AllInBot: 430G (4.2%, 430G)
abaven_alistair: 204G (2.0%, 204G)
getthemoneyz: 192G (1.9%, 886,577G)
benticore: 119G (1.2%, 2,387G)
fluffskull: 100G (1.0%, 1,715G)
cougboi: 100G (1.0%, 18,001G)
