Final Bets: red - 8 bets for 11,713G (72.1%, x0.39); blue - 9 bets for 4,530G (27.9%, x2.59)

red bets:
Evewho: 6,750G (57.6%, 13,236G)
mr_kindaro: 2,886G (24.6%, 2,886G)
gorgewall: 501G (4.3%, 21,345G)
BlackFireUK: 500G (4.3%, 10,867G)
NovaKnight21: 452G (3.9%, 452G)
serperemagus: 400G (3.4%, 5,148G)
jaik1231: 124G (1.1%, 124G)
datadrivenbot: 100G (0.9%, 38,020G)

blue bets:
Rislyeu: 1,500G (33.1%, 45,217G)
BirbBrainsBot: 1,000G (22.1%, 178,762G)
superdevon1: 500G (11.0%, 500G)
getthemoneyz: 486G (10.7%, 939,054G)
LAGBOT30000: 376G (8.3%, 376G)
Sairentozon7: 348G (7.7%, 348G)
Lydian_C: 120G (2.6%, 9,685G)
AllInBot: 100G (2.2%, 100G)
Quadh0nk: 100G (2.2%, 894G)
