Final Bets: green - 11 bets for 5,868G (45.4%, x1.20); purple - 10 bets for 7,043G (54.6%, x0.83)

green bets:
Evewho: 1,665G (28.4%, 3,266G)
NovaKnight21: 1,192G (20.3%, 1,192G)
HASTERIOUS: 885G (15.1%, 17,701G)
superdevon1: 878G (15.0%, 878G)
fluffskull: 428G (7.3%, 428G)
CT_5_Holy: 300G (5.1%, 300G)
Lydian_C: 120G (2.0%, 11,053G)
AllInBot: 100G (1.7%, 100G)
Quadh0nk: 100G (1.7%, 2,367G)
Powermhero: 100G (1.7%, 21,903G)
ataso: 100G (1.7%, 521G)

purple bets:
Mesmaster: 2,000G (28.4%, 118,296G)
RaIshtar: 1,500G (21.3%, 4,275G)
BirbBrainsBot: 1,000G (14.2%, 183,737G)
shannahan45: 1,000G (14.2%, 18,056G)
BlackFireUK: 500G (7.1%, 14,736G)
jaik1231: 414G (5.9%, 414G)
getthemoneyz: 228G (3.2%, 940,696G)
gorgewall: 201G (2.9%, 20,695G)
datadrivenbot: 100G (1.4%, 37,888G)
Firesheath: 100G (1.4%, 2,480G)
