Final Bets: red - 14 bets for 17,590G (60.9%, x0.64); blue - 12 bets for 11,305G (39.1%, x1.56)

red bets:
DavenIII: 8,868G (50.4%, 88,682G)
Error72: 1,239G (7.0%, 2,478G)
latebit: 1,128G (6.4%, 1,128G)
SkylerBunny: 1,052G (6.0%, 1,052G)
BirbBrainsBot: 1,000G (5.7%, 58,388G)
DeathTaxesAndAnime: 935G (5.3%, 935G)
getthemoneyz: 884G (5.0%, 1,670,163G)
SephDarkheart: 600G (3.4%, 110,369G)
Forkmore: 568G (3.2%, 568G)
DLJuggernaut: 424G (2.4%, 424G)
Tarheels218: 304G (1.7%, 1,639G)
JonnyCue: 284G (1.6%, 2,881G)
JCBoorgo: 204G (1.2%, 204G)
MinBetBot: 100G (0.6%, 6,849G)

blue bets:
CapnChaos12: 7,775G (68.8%, 15,551G)
E_Ballard: 1,812G (16.0%, 3,625G)
theBinklive: 278G (2.5%, 1,114G)
kononeko: 260G (2.3%, 260G)
oldmanbody: 224G (2.0%, 224G)
datadrivenbot: 200G (1.8%, 64,377G)
Starfire6789: 200G (1.8%, 3,543G)
rNdOrchestra: 136G (1.2%, 3,447G)
PuzzleSecretary: 120G (1.1%, 120G)
AllInBot: 100G (0.9%, 100G)
RuneS_77: 100G (0.9%, 17,496G)
Mao420: 100G (0.9%, 1,723G)
