Final Bets: green - 19 bets for 32,693G (54.6%, x0.83); yellow - 15 bets for 27,237G (45.4%, x1.20)

green bets:
dogsandcatsand: 21,209G (64.9%, 41,587G)
toka222: 2,750G (8.4%, 167,415G)
SkylerBunny: 1,728G (5.3%, 1,728G)
VolgraTheMoose: 1,011G (3.1%, 1,011G)
BirbBrainsBot: 983G (3.0%, 59,031G)
latebit: 857G (2.6%, 857G)
killth3kid: 756G (2.3%, 18,982G)
DLJuggernaut: 697G (2.1%, 697G)
evontno: 500G (1.5%, 500G)
JCBoorgo: 335G (1.0%, 335G)
getthemoneyz: 334G (1.0%, 1,670,731G)
kononeko: 260G (0.8%, 260G)
itsonlyspencer: 240G (0.7%, 4,094G)
oldmanbody: 224G (0.7%, 224G)
theBinklive: 209G (0.6%, 836G)
datadrivenbot: 200G (0.6%, 64,177G)
rNdOrchestra: 200G (0.6%, 3,311G)
MinBetBot: 100G (0.3%, 6,913G)
RuneS_77: 100G (0.3%, 17,396G)

yellow bets:
SephDarkheart: 10,000G (36.7%, 110,755G)
DavenIII: 5,000G (18.4%, 94,381G)
CapnChaos12: 3,888G (14.3%, 7,776G)
nhammen: 3,000G (11.0%, 86,709G)
DeathTaxesAndAnime: 1,536G (5.6%, 1,536G)
Forkmore: 933G (3.4%, 933G)
E_Ballard: 906G (3.3%, 1,813G)
MagicBottle: 600G (2.2%, 600G)
JonnyCue: 500G (1.8%, 3,064G)
peanutvendor: 204G (0.7%, 204G)
NewbGaming: 200G (0.7%, 2,037G)
Mao420: 150G (0.6%, 1,623G)
PuzzleSecretary: 120G (0.4%, 120G)
AllInBot: 100G (0.4%, 100G)
Raixelol: 100G (0.4%, 6,494G)
