Final Bets: black - 11 bets for 6,998G (16.9%, x4.93); brown - 19 bets for 34,469G (83.1%, x0.20)

black bets:
Aldrammech: 2,000G (28.6%, 32,818G)
SkylerBunny: 1,898G (27.1%, 3,722G)
killth3kid: 756G (10.8%, 18,856G)
kononeko: 538G (7.7%, 538G)
DLJuggernaut: 500G (7.1%, 3,097G)
KasugaiRoastedPeas: 424G (6.1%, 424G)
JonnyCue: 288G (4.1%, 4,262G)
datadrivenbot: 200G (2.9%, 64,821G)
Mao420: 150G (2.1%, 1,875G)
rNdOrchestra: 136G (1.9%, 5,702G)
getthemoneyz: 108G (1.5%, 1,672,804G)

brown bets:
DavenIII: 12,500G (36.3%, 84,291G)
dogsandcatsand: 5,000G (14.5%, 29,036G)
nhammen: 4,000G (11.6%, 83,844G)
CapnChaos12: 3,537G (10.3%, 7,074G)
evontno: 1,898G (5.5%, 1,898G)
cho_pin: 1,454G (4.2%, 1,454G)
Tarheels218: 1,226G (3.6%, 1,226G)
BirbBrainsBot: 1,000G (2.9%, 62,238G)
Chuckolator: 669G (1.9%, 10,237G)
MagicBottle: 600G (1.7%, 600G)
SephDarkheart: 600G (1.7%, 101,200G)
NewbGaming: 600G (1.7%, 2,406G)
itsonlyspencer: 420G (1.2%, 4,466G)
latebit: 384G (1.1%, 384G)
AllInBot: 207G (0.6%, 207G)
PuzzleSecretary: 120G (0.3%, 120G)
MinBetBot: 100G (0.3%, 7,442G)
Raixelol: 100G (0.3%, 6,633G)
popotinha1889: 54G (0.2%, 354G)
