Final Bets: red - 7 bets for 7,290G (40.0%, x1.50); yellow - 21 bets for 10,917G (60.0%, x0.67)

red bets:
TheChainNerd: 3,752G (51.5%, 3,752G)
megaman2202: 1,000G (13.7%, 5,631G)
DLJuggernaut: 864G (11.9%, 864G)
Laserman1000: 800G (11.0%, 17,300G)
Baron_von_Scrub: 474G (6.5%, 58,139G)
CosmicTactician: 300G (4.1%, 300G)
RuneS_77: 100G (1.4%, 9,606G)

yellow bets:
DavenIII: 1,526G (14.0%, 3,053G)
BirbBrainsBot: 1,000G (9.2%, 164,154G)
JumbocactuarX27: 1,000G (9.2%, 1,865G)
Rislyeu: 1,000G (9.2%, 34,975G)
Mesmaster: 1,000G (9.2%, 88,459G)
red__lancer: 1,000G (9.2%, 90,295G)
sinnyil2: 760G (7.0%, 760G)
Error72: 500G (4.6%, 9,245G)
Anasetsuken: 400G (3.7%, 4,689G)
ShintaroNayaka: 400G (3.7%, 10,885G)
DustBirdEX: 345G (3.2%, 3,778G)
reddwind_: 308G (2.8%, 308G)
Monopool: 292G (2.7%, 292G)
d4rr1n: 280G (2.6%, 280G)
Tuckerism: 268G (2.5%, 1,344G)
O_Heyno: 256G (2.3%, 256G)
prince_rogers_nelson_: 200G (1.8%, 26,610G)
AllInBot: 100G (0.9%, 100G)
datadrivenbot: 100G (0.9%, 36,091G)
lastly: 100G (0.9%, 22,297G)
getthemoneyz: 82G (0.8%, 934,569G)
