Final Bets: red - 7 bets for 3,888G (24.3%, x3.11); brown - 17 bets for 12,084G (75.7%, x0.32)

red bets:
resjudicata3: 1,262G (32.5%, 2,475G)
Zachara: 1,243G (32.0%, 137,243G)
lowlf: 612G (15.7%, 10,883G)
AltimaMantoid: 300G (7.7%, 21,900G)
mirapoix: 200G (5.1%, 8,829G)
creedplaysgames: 170G (4.4%, 170G)
gorgewall: 101G (2.6%, 15,320G)

brown bets:
LivingHitokiri: 2,000G (16.6%, 160,865G)
Leonidusx: 2,000G (16.6%, 298,289G)
Willjin: 1,200G (9.9%, 42,042G)
Slider1012: 1,000G (8.3%, 4,119G)
BirbBrainsBot: 1,000G (8.3%, 66,260G)
ApplesNP: 1,000G (8.3%, 50,041G)
Chuckolator: 714G (5.9%, 49,789G)
LadyCyan: 600G (5.0%, 4,153G)
HaplessOne: 584G (4.8%, 584G)
TheBrett: 500G (4.1%, 1,463G)
scsuperstar: 372G (3.1%, 372G)
KyleWonToLiveForever: 360G (3.0%, 360G)
AllInBot: 200G (1.7%, 200G)
CorpusCav: 200G (1.7%, 28,668G)
datadrivenbot: 200G (1.7%, 80,195G)
russell2x: 100G (0.8%, 116G)
getthemoneyz: 54G (0.4%, 2,101,438G)
