Final Bets: red - 7 bets for 3,757G (32.4%, x2.09); blue - 9 bets for 7,848G (67.6%, x0.48)

red bets:
NovaKnight21: 2,000G (53.2%, 45,565G)
MagicBottle: 516G (13.7%, 16,582G)
SkylerBunny: 412G (11.0%, 412G)
ThreeMileIsland: 228G (6.1%, 228G)
gorgewall: 201G (5.4%, 16,333G)
Mysteriousdewd: 200G (5.3%, 3,022G)
datadrivenbot: 200G (5.3%, 57,146G)

blue bets:
reinoe: 3,000G (38.2%, 33,952G)
Evewho: 1,406G (17.9%, 1,406G)
BirbBrainsBot: 1,000G (12.7%, 149,190G)
getthemoneyz: 912G (11.6%, 1,229,124G)
twelfthrootoftwo: 528G (6.7%, 528G)
Laserman1000: 526G (6.7%, 22,826G)
Aquios_: 200G (2.5%, 1,347G)
superdevon1: 153G (1.9%, 1,533G)
Lydian_C: 123G (1.6%, 123,056G)
