Final Bets: white - 8 bets for 4,521G (24.7%, x3.05); brown - 13 bets for 13,782G (75.3%, x0.33)

white bets:
ThreeMileIsland: 1,554G (34.4%, 1,554G)
shineeyo: 1,000G (22.1%, 1,000G)
Spuzzmocker: 615G (13.6%, 615G)
LAGBOT30000: 540G (11.9%, 10,811G)
klefelix: 300G (6.6%, 1,008G)
Lythe_Caraker: 250G (5.5%, 151,138G)
getthemoneyz: 162G (3.6%, 1,229,176G)
Ring_Wyrm: 100G (2.2%, 3,120G)

brown bets:
Thyrandaal: 4,000G (29.0%, 9,258G)
Firesheath: 3,329G (24.2%, 3,329G)
Zachara: 1,709G (12.4%, 132,209G)
Evewho: 1,409G (10.2%, 1,409G)
BirbBrainsBot: 1,000G (7.3%, 149,011G)
hiros13gts: 500G (3.6%, 2,727G)
SkylerBunny: 412G (3.0%, 412G)
letdowncity: 376G (2.7%, 8,885G)
superdevon1: 316G (2.3%, 2,111G)
Geffro1908: 246G (1.8%, 246G)
datadrivenbot: 200G (1.5%, 58,682G)
randgridr: 162G (1.2%, 1,062G)
Lydian_C: 123G (0.9%, 123,781G)
