Final Bets: green - 18 bets for 12,386G (30.7%, x2.25); yellow - 19 bets for 27,928G (69.3%, x0.44)

green bets:
NicoSavoy: 3,530G (28.5%, 353,034G)
Thyrandaal: 2,222G (17.9%, 5,064G)
BirbBrainsBot: 1,000G (8.1%, 142,577G)
Lord_Gwarth: 1,000G (8.1%, 5,071G)
twelfthrootoftwo: 962G (7.8%, 962G)
Nizaha: 600G (4.8%, 15,265G)
SephDarkheart: 578G (4.7%, 578G)
Error72: 565G (4.6%, 565G)
dogsandcatsand: 368G (3.0%, 368G)
BoneMiser: 356G (2.9%, 356G)
InkyLink: 300G (2.4%, 18,940G)
Rytor: 200G (1.6%, 18,131G)
datadrivenbot: 200G (1.6%, 45,994G)
NewbGaming: 104G (0.8%, 104G)
gorgewall: 101G (0.8%, 6,815G)
Miku_Shikhu: 100G (0.8%, 4,798G)
Blastinus: 100G (0.8%, 1,047G)
Hirameki85: 100G (0.8%, 5,196G)

yellow bets:
pplvee1: 14,951G (53.5%, 29,316G)
douchetron: 3,456G (12.4%, 6,777G)
NIghtdew14: 1,500G (5.4%, 35,511G)
rednecknazgul: 1,199G (4.3%, 1,199G)
Rislyeu: 1,000G (3.6%, 19,094G)
LDSkinny: 1,000G (3.6%, 35,366G)
Shalloween: 796G (2.9%, 796G)
prince_rogers_nelson_: 612G (2.2%, 612G)
DarrenDinosaurs: 552G (2.0%, 552G)
Lanshaft: 524G (1.9%, 28,703G)
randgridr: 500G (1.8%, 5,923G)
MaskGibson: 500G (1.8%, 989G)
DLJuggernaut: 388G (1.4%, 388G)
Treafa: 250G (0.9%, 616G)
AllInBot: 200G (0.7%, 200G)
shineeyo: 200G (0.7%, 13,900G)
holdenmagronik: 100G (0.4%, 745G)
E_Ballard: 100G (0.4%, 29,115G)
onehitslay: 100G (0.4%, 590G)
