Final Bets: white - 9 bets for 4,925G (33.6%, x1.98); black - 14 bets for 9,743G (66.4%, x0.51)

white bets:
bigbongsmoker: 1,338G (27.2%, 2,676G)
KGenjy: 857G (17.4%, 857G)
killth3kid: 776G (15.8%, 35,820G)
TheBrett: 715G (14.5%, 715G)
skipsandwiches: 496G (10.1%, 173,020G)
AbandonedHall: 263G (5.3%, 263G)
getthemoneyz: 204G (4.1%, 2,116,487G)
Twisted_Nutsatchel: 176G (3.6%, 176G)
baumgrattler: 100G (2.0%, 1,104G)

black bets:
AllInBot: 1,716G (17.6%, 1,716G)
Lolthsmeat: 1,257G (12.9%, 6,089G)
BirbBrainsBot: 1,000G (10.3%, 100,328G)
CT_5_Holy: 912G (9.4%, 1,825G)
VolgraTheMoose: 904G (9.3%, 27,824G)
argentbast: 778G (8.0%, 778G)
ExplanationMarkWow: 500G (5.1%, 19,369G)
Smashy: 500G (5.1%, 3,091G)
krombobreaker: 500G (5.1%, 14,164G)
ValensEXP_: 484G (5.0%, 484G)
3ngag3: 416G (4.3%, 8,360G)
Lord_Gwarth: 376G (3.9%, 376G)
datadrivenbot: 200G (2.1%, 79,854G)
resjudicata3: 200G (2.1%, 4,211G)
