Final Bets: blue - 16 bets for 10,489G (36.4%, x1.75); champion - 18 bets for 18,320G (63.6%, x0.57)

blue bets:
OrbitalHeel: 1,855G (17.7%, 1,855G)
E_Ballard: 1,815G (17.3%, 1,815G)
dogsandcatsand: 1,500G (14.3%, 34,560G)
bigbongsmoker: 1,175G (11.2%, 2,351G)
BirbBrainsBot: 1,000G (9.5%, 102,046G)
Mesmaster: 708G (6.7%, 708G)
skipsandwiches: 496G (4.7%, 173,807G)
pplvee1: 448G (4.3%, 448G)
Cryptopsy70: 396G (3.8%, 917G)
Spartan_Paladin: 230G (2.2%, 5,539G)
ValensEXP_: 200G (1.9%, 1,810G)
chaosdesigned: 200G (1.9%, 760G)
getthemoneyz: 162G (1.5%, 2,116,975G)
Girfred: 104G (1.0%, 104G)
KGenjy: 100G (1.0%, 100G)
ANFz: 100G (1.0%, 2,492G)

champion bets:
Virilikus: 5,000G (27.3%, 172,580G)
Smashy: 2,246G (12.3%, 2,246G)
resjudicata3: 2,199G (12.0%, 4,312G)
VolgraTheMoose: 2,001G (10.9%, 30,682G)
CT_5_Holy: 1,143G (6.2%, 2,286G)
Laserman1000: 985G (5.4%, 9,585G)
AllInBot: 867G (4.7%, 867G)
killth3kid: 776G (4.2%, 34,487G)
NicoSavoy: 512G (2.8%, 512G)
ExplanationMarkWow: 500G (2.7%, 18,745G)
krombobreaker: 500G (2.7%, 15,023G)
SephDarkheart: 444G (2.4%, 4,226G)
Lolthsmeat: 272G (1.5%, 7,739G)
baumgrattler: 250G (1.4%, 1,271G)
datadrivenbot: 200G (1.1%, 79,900G)
Twisted_Nutsatchel: 176G (1.0%, 176G)
AbandonedHall: 148G (0.8%, 148G)
gorgewall: 101G (0.6%, 13,388G)
