Final Bets: white - 25 bets for 14,921G (64.7%, x0.55); black - 13 bets for 8,151G (35.3%, x1.83)

white bets:
skuldar: 4,009G (26.9%, 4,009G)
Zbgs: 3,000G (20.1%, 57,657G)
Lionhermit: 1,000G (6.7%, 32,271G)
BirbBrainsBot: 1,000G (6.7%, 179,457G)
phrossi_v: 1,000G (6.7%, 78,266G)
Master_Metroid: 537G (3.6%, 537G)
proper__noun__: 500G (3.4%, 5,864G)
CorwinAmbrose: 500G (3.4%, 2,987G)
tsdZero: 421G (2.8%, 421G)
ungabunga_bot: 342G (2.3%, 306,544G)
ko2q: 340G (2.3%, 340G)
CorpusCav: 300G (2.0%, 14,118G)
twelfthrootoftwo: 300G (2.0%, 2,869G)
Estan_AD: 250G (1.7%, 4,462G)
fd3sihk: 229G (1.5%, 229G)
OverlordCuddles: 216G (1.4%, 216G)
midori_ribbon: 204G (1.4%, 5,556G)
getthemoneyz: 112G (0.8%, 615,982G)
byrdturbo: 111G (0.7%, 11,212G)
Firesheath: 100G (0.7%, 8,308G)
powergems: 100G (0.7%, 12,168G)
Fakebadstone: 100G (0.7%, 703G)
ANFz: 100G (0.7%, 26,768G)
datadrivenbot: 100G (0.7%, 11,173G)
cougboi: 50G (0.3%, 22,575G)

black bets:
catfashions: 2,500G (30.7%, 6,016G)
Ant_ihistamine: 1,687G (20.7%, 1,687G)
WireLord: 1,217G (14.9%, 1,217G)
Laserman1000: 700G (8.6%, 88,600G)
ZephyrTempest: 456G (5.6%, 1,232G)
Billybones5150: 400G (4.9%, 23,231G)
KasugaiRoastedPeas: 300G (3.7%, 3,484G)
80S1X: 204G (2.5%, 204G)
EnemyController: 200G (2.5%, 166,487G)
RestIessNight: 187G (2.3%, 187G)
Rislyeu: 100G (1.2%, 2,587G)
DontBackseatGame: 100G (1.2%, 996G)
Bioticism: 100G (1.2%, 12,699G)
