Final Bets: red - 14 bets for 8,616G (31.6%, x2.17); champion - 21 bets for 18,692G (68.4%, x0.46)

red bets:
crimson_hellkite: 2,670G (31.0%, 19,670G)
superdevon1: 2,571G (29.8%, 2,571G)
Lionhermit: 1,000G (11.6%, 38,291G)
cgMcWhiskers: 500G (5.8%, 1,619G)
brokenknight201: 300G (3.5%, 1,369G)
KasugaiRoastedPeas: 300G (3.5%, 2,584G)
OverlordCuddles: 216G (2.5%, 216G)
sixstop: 212G (2.5%, 212G)
80S1X: 204G (2.4%, 204G)
DontBackseatGame: 200G (2.3%, 2,134G)
ZephyrTempest: 143G (1.7%, 2,879G)
Willuminatti: 100G (1.2%, 100G)
Evewho: 100G (1.2%, 8,389G)
astrozin11: 100G (1.2%, 4,500G)

champion bets:
Dymntd: 6,500G (34.8%, 34,840G)
fd3sihk: 1,991G (10.7%, 1,991G)
Bioticism: 1,649G (8.8%, 12,881G)
HaplessOne: 1,500G (8.0%, 22,813G)
leakimiko: 1,152G (6.2%, 7,686G)
ungabunga_bot: 1,000G (5.3%, 303,902G)
EnemyController: 1,000G (5.3%, 168,260G)
BirbBrainsBot: 911G (4.9%, 176,003G)
twelfthrootoftwo: 500G (2.7%, 2,978G)
Rislyeu: 500G (2.7%, 2,369G)
ko2q: 340G (1.8%, 340G)
mistblade: 264G (1.4%, 264G)
Luna_XIV: 250G (1.3%, 1,814G)
thaetreis: 234G (1.3%, 469G)
getthemoneyz: 224G (1.2%, 615,999G)
tsdZero: 198G (1.1%, 198G)
ANFz: 100G (0.5%, 26,903G)
Sairentozon7: 100G (0.5%, 1,281G)
datadrivenbot: 100G (0.5%, 11,308G)
Firesheath: 100G (0.5%, 7,461G)
lifeguard_dan: 79G (0.4%, 563G)
