Final Bets: red - 18 bets for 15,925G (60.2%, x0.66); blue - 16 bets for 10,516G (39.8%, x1.51)

red bets:
OneHundredFists: 4,498G (28.2%, 8,821G)
Virilikus: 3,000G (18.8%, 165,954G)
RikiNom: 1,605G (10.1%, 1,605G)
Smashy: 1,227G (7.7%, 1,227G)
lowlf: 632G (4.0%, 16,244G)
latebit: 615G (3.9%, 615G)
Arcblazer23: 541G (3.4%, 541G)
ribbiks: 500G (3.1%, 2,711G)
krombobreaker: 500G (3.1%, 23,619G)
rnark: 500G (3.1%, 5,148G)
2b_yorha_b: 500G (3.1%, 1,554G)
Spartan_Paladin: 500G (3.1%, 8,062G)
Craymel_Mage: 356G (2.2%, 356G)
CorpusCav: 250G (1.6%, 29,246G)
Evewho: 200G (1.3%, 6,744G)
datadrivenbot: 200G (1.3%, 80,890G)
CosmicTactician: 200G (1.3%, 2,661G)
gorgewall: 101G (0.6%, 10,549G)

blue bets:
dogsandcatsand: 1,329G (12.6%, 1,329G)
BirbBrainsBot: 1,000G (9.5%, 164,722G)
getthemoneyz: 1,000G (9.5%, 2,132,824G)
Sairentozon7: 1,000G (9.5%, 51,994G)
E_Ballard: 836G (7.9%, 836G)
Mesmaster: 817G (7.8%, 817G)
Lyner87: 668G (6.4%, 668G)
Nizaha: 644G (6.1%, 10,212G)
Lord_Gwarth: 608G (5.8%, 608G)
resjudicata3: 540G (5.1%, 540G)
otakutaylor: 500G (4.8%, 20,632G)
AllInBot: 473G (4.5%, 473G)
TheBrett: 376G (3.6%, 376G)
Reddash9: 365G (3.5%, 365G)
acid_flashback: 200G (1.9%, 2,074G)
giantdeathlaser: 160G (1.5%, 7,956G)
