Final Bets: green - 15 bets for 13,280G (59.7%, x0.68); yellow - 19 bets for 8,972G (40.3%, x1.48)

green bets:
Virilikus: 5,000G (37.7%, 167,935G)
otakutaylor: 3,000G (22.6%, 20,132G)
latebit: 1,021G (7.7%, 1,021G)
Nizaha: 644G (4.8%, 9,568G)
Craymel_Mage: 591G (4.5%, 591G)
ExplanationMarkWow: 500G (3.8%, 20,743G)
krombobreaker: 500G (3.8%, 23,949G)
Smashy: 404G (3.0%, 2,037G)
Lord_Gwarth: 396G (3.0%, 396G)
Runeseeker22: 364G (2.7%, 364G)
AllInBot: 200G (1.5%, 200G)
Evewho: 200G (1.5%, 6,876G)
datadrivenbot: 200G (1.5%, 81,022G)
giantdeathlaser: 160G (1.2%, 7,796G)
Aaron2Nerdy: 100G (0.8%, 100G)

yellow bets:
BirbBrainsBot: 1,000G (11.1%, 163,722G)
Sairentozon7: 1,000G (11.1%, 50,994G)
Arcblazer23: 898G (10.0%, 898G)
Shalloween: 732G (8.2%, 732G)
SephDarkheart: 589G (6.6%, 589G)
resjudicata3: 544G (6.1%, 544G)
Mesmaster: 532G (5.9%, 532G)
dogsandcatsand: 508G (5.7%, 508G)
RikiNom: 500G (5.6%, 2,665G)
CosmicTactician: 500G (5.6%, 2,793G)
MemoriesofFinal: 412G (4.6%, 412G)
CorpusCav: 400G (4.5%, 29,411G)
TheBrett: 252G (2.8%, 252G)
Reddash9: 220G (2.5%, 220G)
getthemoneyz: 208G (2.3%, 2,131,824G)
ribbiks: 200G (2.2%, 3,041G)
acid_flashback: 200G (2.2%, 1,874G)
Twisted_Nutsatchel: 176G (2.0%, 176G)
gorgewall: 101G (1.1%, 10,616G)
