Final Bets: yellow - 12 bets for 6,731G (40.0%, x1.50); black - 15 bets for 10,107G (60.0%, x0.67)

yellow bets:
HaateXIII: 1,291G (19.2%, 2,582G)
LDSkinny: 1,000G (14.9%, 3,020G)
labarge_and_in_charge: 1,000G (14.9%, 5,436G)
maximumcrit: 900G (13.4%, 1,929G)
E_Ballard: 708G (10.5%, 708G)
Nizaha: 612G (9.1%, 9,028G)
getthemoneyz: 370G (5.5%, 1,445,370G)
Lord_Gwarth: 350G (5.2%, 2,195G)
datadrivenbot: 200G (3.0%, 48,211G)
holdenmagronik: 100G (1.5%, 716G)
Endiverge: 100G (1.5%, 1,861G)
DouglasDragonThePoet: 100G (1.5%, 2,976G)

black bets:
kahjeethaswares: 1,939G (19.2%, 1,939G)
Shalloween: 1,200G (11.9%, 18,251G)
BirbBrainsBot: 1,000G (9.9%, 32,064G)
VolgraTheMoose: 840G (8.3%, 840G)
slotheye17: 800G (7.9%, 4,426G)
DavenIII: 792G (7.8%, 792G)
gorgewall: 780G (7.7%, 780G)
AllInBot: 622G (6.2%, 622G)
muffin_money: 500G (4.9%, 2,862G)
Artea_: 500G (4.9%, 4,462G)
BoneMiser: 364G (3.6%, 364G)
Wooplestein: 300G (3.0%, 2,783G)
MLWebz0r: 228G (2.3%, 9,152G)
ChubbyBroCast: 142G (1.4%, 1,420G)
gooblz: 100G (1.0%, 994G)
