Final Bets: red - 20 bets for 19,809G (67.5%, x0.48); blue - 20 bets for 9,549G (32.5%, x2.07)

red bets:
HaateXIII: 8,742G (44.1%, 8,742G)
nifboy: 3,088G (15.6%, 3,088G)
DLJuggernaut: 1,039G (5.2%, 2,038G)
TrickyHunter: 1,000G (5.0%, 4,544G)
BaronHaynes: 1,000G (5.0%, 15,738G)
Nizaha: 824G (4.2%, 71,793G)
Smugzug: 650G (3.3%, 5,913G)
khelor_: 531G (2.7%, 531G)
Dasutin23: 508G (2.6%, 8,205G)
holdenmagronik: 432G (2.2%, 13,254G)
Wonser: 372G (1.9%, 372G)
Zetchryn: 368G (1.9%, 368G)
Runeseeker22: 304G (1.5%, 6,937G)
datadrivenbot: 200G (1.0%, 61,440G)
Musashi45: 200G (1.0%, 461G)
AllInBot: 146G (0.7%, 146G)
CrazyLou64: 104G (0.5%, 104G)
gorgewall: 101G (0.5%, 14,097G)
BartTradingCompany: 100G (0.5%, 8,267G)
Thyrandaal: 100G (0.5%, 69,408G)

blue bets:
Zeroroute: 1,993G (20.9%, 1,993G)
snkey: 1,352G (14.2%, 13,121G)
Error72: 1,001G (10.5%, 53,673G)
BirbBrainsBot: 1,000G (10.5%, 148,489G)
bruubarg: 699G (7.3%, 699G)
PoroTact: 623G (6.5%, 623G)
Raixelol: 600G (6.3%, 21,180G)
CorpusCav: 400G (4.2%, 18,497G)
TheDeeyo: 400G (4.2%, 3,565G)
Yangusburger: 303G (3.2%, 303G)
AltimaMantoid: 279G (2.9%, 6,679G)
tripaplex: 242G (2.5%, 242G)
daveb_: 133G (1.4%, 4,812G)
grishhammer: 122G (1.3%, 1,222G)
RuneS_77: 100G (1.0%, 18,878G)
RunicMagus: 100G (1.0%, 14,306G)
douchetron: 100G (1.0%, 15,104G)
mirapoix: 100G (1.0%, 4,233G)
moonliquor: 1G (0.0%, 69,449G)
latebit: 1G (0.0%, 2,449G)
