Final Bets: green - 9 bets for 3,709G (61.9%, x0.61); yellow - 5 bets for 2,280G (38.1%, x1.63)

green bets:
NovaKnight21: 1,203G (32.4%, 1,203G)
WireLord: 954G (25.7%, 1,908G)
3ngag3: 353G (9.5%, 16,853G)
Raixelol: 316G (8.5%, 25,566G)
TakKerna: 250G (6.7%, 1,145G)
MemoriesofFinal: 232G (6.3%, 232G)
datadrivenbot: 200G (5.4%, 64,656G)
gorgewall: 101G (2.7%, 12,479G)
AllInBot: 100G (2.7%, 100G)

yellow bets:
BirbBrainsBot: 1,000G (43.9%, 64,914G)
Draconis345: 552G (24.2%, 18,655G)
Sairentozon7: 436G (19.1%, 436G)
getthemoneyz: 172G (7.5%, 1,762,464G)
Absalom_20: 120G (5.3%, 7,685G)
