Final Bets: green - 15 bets for 6,015G (51.9%, x0.93); purple - 11 bets for 5,565G (48.1%, x1.08)

green bets:
nifboy: 1,000G (16.6%, 2,586G)
EnemyController: 1,000G (16.6%, 609,624G)
Laserman1000: 600G (10.0%, 3,200G)
BStarTV: 500G (8.3%, 6,947G)
NovaKnight21: 496G (8.2%, 496G)
AllInBot: 492G (8.2%, 492G)
superdevon1: 467G (7.8%, 4,676G)
Kronikle: 300G (5.0%, 20,973G)
Angelomortis: 260G (4.3%, 260G)
Kellios11: 200G (3.3%, 9,430G)
Rytor: 200G (3.3%, 2,635G)
serperemagus: 200G (3.3%, 8,037G)
Firesheath: 100G (1.7%, 13,594G)
CosmicTactician: 100G (1.7%, 6,288G)
Thyrandaal: 100G (1.7%, 57,163G)

purple bets:
benticore: 1,434G (25.8%, 1,434G)
BirbBrainsBot: 1,000G (18.0%, 76,902G)
fenaen: 800G (14.4%, 33,576G)
Anasetsuken: 500G (9.0%, 16,044G)
Nizaha: 401G (7.2%, 15,742G)
Magicandy: 362G (6.5%, 362G)
CaptainGarlock: 300G (5.4%, 10,687G)
ColetteMSLP: 300G (5.4%, 1,968G)
ZCKaiser: 200G (3.6%, 607G)
getthemoneyz: 168G (3.0%, 974,261G)
E_Ballard: 100G (1.8%, 8,789G)
