Final Bets: green - 6 bets for 3,829G (13.1%, x6.63); champion - 21 bets for 25,402G (86.9%, x0.15)

green bets:
toka222: 1,550G (40.5%, 46,747G)
superdevon1: 1,277G (33.4%, 5,108G)
nifboy: 500G (13.1%, 3,511G)
Kellios11: 200G (5.2%, 9,615G)
CaptainGarlock: 200G (5.2%, 10,387G)
getthemoneyz: 102G (2.7%, 974,093G)

champion bets:
EnemyController: 8,500G (33.5%, 610,549G)
JumbocactuarX27: 3,001G (11.8%, 6,003G)
powergems: 2,226G (8.8%, 2,226G)
marin1987: 1,837G (7.2%, 1,837G)
Nizaha: 1,001G (3.9%, 15,341G)
serperemagus: 1,000G (3.9%, 8,222G)
BirbBrainsBot: 1,000G (3.9%, 75,902G)
HaateXIII: 1,000G (3.9%, 4,387G)
NovaKnight21: 955G (3.8%, 955G)
AllInBot: 947G (3.7%, 947G)
fenaen: 800G (3.1%, 32,776G)
TheChainNerd: 732G (2.9%, 4,200G)
Laserman1000: 655G (2.6%, 3,755G)
ZCKaiser: 407G (1.6%, 407G)
Kronikle: 300G (1.2%, 21,251G)
CosmicTactician: 300G (1.2%, 6,381G)
CapnChaos12: 300G (1.2%, 14,292G)
brewerspackers98: 200G (0.8%, 1,763G)
E_Ballard: 100G (0.4%, 8,689G)
Firesheath: 100G (0.4%, 13,687G)
Angelomortis: 41G (0.2%, 501G)
