Final Bets: white - 23 bets for 13,124G (44.0%, x1.27); black - 12 bets for 16,677G (56.0%, x0.79)

white bets:
Thyrandaal: 2,000G (15.2%, 22,598G)
metagameface: 1,887G (14.4%, 1,887G)
Grandlanzer: 1,576G (12.0%, 1,576G)
SkylerBunny: 1,200G (9.1%, 114,850G)
BirbBrainsBot: 1,000G (7.6%, 67,561G)
Mesmaster: 1,000G (7.6%, 135,875G)
twelfthrootoftwo: 527G (4.0%, 527G)
skillomono: 500G (3.8%, 3,382G)
NicoSavoy: 380G (2.9%, 380G)
getthemoneyz: 346G (2.6%, 821,271G)
OneHundredFists: 340G (2.6%, 340G)
byrdturbo: 333G (2.5%, 20,607G)
kaidykat: 316G (2.4%, 316G)
Rytor: 300G (2.3%, 21,388G)
kaelsun: 268G (2.0%, 268G)
mistermastergreg: 250G (1.9%, 2,138G)
TheMM42: 200G (1.5%, 3,356G)
GladiatorLupe: 200G (1.5%, 4,529G)
gorgewall: 101G (0.8%, 1,216G)
CosmicTactician: 100G (0.8%, 13,409G)
cogniv0r3: 100G (0.8%, 2,625G)
s_o_b_e_q: 100G (0.8%, 1,272G)
DAC169: 100G (0.8%, 760G)

black bets:
Bilabrin: 3,581G (21.5%, 3,581G)
Rislyeu: 3,202G (19.2%, 6,405G)
DeathTaxesAndAnime: 1,716G (10.3%, 3,365G)
HaateXIII: 1,652G (9.9%, 1,652G)
Einhanderz: 1,545G (9.3%, 1,545G)
Shalloween: 1,538G (9.2%, 3,077G)
solomongrundy85: 1,273G (7.6%, 1,273G)
gooseyourself: 970G (5.8%, 1,941G)
waterwatereverywhere: 500G (3.0%, 9,453G)
EnemyController: 500G (3.0%, 558,287G)
moocaotao: 100G (0.6%, 683G)
Spuzzmocker: 100G (0.6%, 1,772G)
