Final Bets: purple - 20 bets for 26,964G (64.0%, x0.56); champion - 23 bets for 15,161G (36.0%, x1.78)

purple bets:
DeathTaxesAndAnime: 11,852G (44.0%, 23,241G)
Rislyeu: 4,420G (16.4%, 8,841G)
NicoSavoy: 2,007G (7.4%, 2,007G)
kaidykat: 1,619G (6.0%, 1,619G)
mpghappiness: 1,001G (3.7%, 8,230G)
Zbgs: 1,000G (3.7%, 56,391G)
ll_aja_ll: 1,000G (3.7%, 2,872G)
CosmicTactician: 500G (1.9%, 13,238G)
joewcarson: 500G (1.9%, 15,683G)
mestreviola: 500G (1.9%, 1,000G)
mistermastergreg: 500G (1.9%, 1,599G)
Grandlanzer: 401G (1.5%, 401G)
metagameface: 340G (1.3%, 340G)
killth3kid: 324G (1.2%, 1,953G)
DAC169: 300G (1.1%, 778G)
skillomono: 300G (1.1%, 3,589G)
Evewho: 100G (0.4%, 2,801G)
nifboy: 100G (0.4%, 3,569G)
VagabondAzulien: 100G (0.4%, 659G)
datadrivenbot: 100G (0.4%, 32,744G)

champion bets:
NovaKnight21: 2,000G (13.2%, 7,548G)
EnemyController: 1,500G (9.9%, 558,046G)
Meta_Five: 1,451G (9.6%, 1,451G)
TinchoT: 1,311G (8.6%, 1,311G)
BirbBrainsBot: 1,000G (6.6%, 66,334G)
Rytor: 1,000G (6.6%, 21,570G)
OneHundredFists: 945G (6.2%, 945G)
LeoNightFury: 737G (4.9%, 737G)
sinnyil2: 710G (4.7%, 1,420G)
getthemoneyz: 626G (4.1%, 820,285G)
TheMM42: 500G (3.3%, 3,354G)
Anak761: 500G (3.3%, 4,730G)
Dymntd: 500G (3.3%, 40,167G)
tehjam: 500G (3.3%, 3,805G)
Turious: 500G (3.3%, 1,750G)
Kronikle: 300G (2.0%, 20,070G)
moocaotao: 276G (1.8%, 552G)
gogofromtogo: 200G (1.3%, 5,974G)
rednecknazgul: 184G (1.2%, 184G)
brewerspackers98: 120G (0.8%, 224G)
gorgewall: 101G (0.7%, 3,229G)
Spuzzmocker: 100G (0.7%, 1,751G)
ko2q: 100G (0.7%, 6,844G)
