Final Bets: yellow - 26 bets for 25,576G (76.6%, x0.31); brown - 18 bets for 7,809G (23.4%, x3.28)

yellow bets:
catfashions: 12,321G (48.2%, 24,643G)
ACSpree: 3,130G (12.2%, 3,130G)
Pie108: 2,000G (7.8%, 306,542G)
Aldrammech: 1,000G (3.9%, 84,308G)
run_with_STONE_GUNS: 1,000G (3.9%, 5,546G)
reinoe: 1,000G (3.9%, 10,840G)
HorusTaurus: 600G (2.3%, 8,987G)
ungabunga_bot: 556G (2.2%, 278,295G)
cgMcWhiskers: 500G (2.0%, 2,477G)
luminarii: 466G (1.8%, 19,758G)
PetitFoulard: 428G (1.7%, 428G)
ZephyrTempest: 400G (1.6%, 2,673G)
Cryptopsy70: 380G (1.5%, 32,921G)
haigy: 350G (1.4%, 930G)
midori_ribbon: 224G (0.9%, 224G)
CosmicTactician: 200G (0.8%, 4,364G)
BadErosion: 200G (0.8%, 6,989G)
Yontipon: 116G (0.5%, 116G)
Evewho: 100G (0.4%, 5,196G)
nifboy: 100G (0.4%, 1,986G)
Kellios11: 100G (0.4%, 10,531G)
datadrivenbot: 100G (0.4%, 8,731G)
LDSkinny: 100G (0.4%, 1,228G)
Kronikle: 100G (0.4%, 2,285G)
Sairentozon7: 80G (0.3%, 3,120G)
GingerDynomite: 25G (0.1%, 6,880G)

brown bets:
DavenIII: 1,000G (12.8%, 3,427G)
JonnyCue: 1,000G (12.8%, 31,900G)
Laserman1000: 884G (11.3%, 61,184G)
sinnyil2: 852G (10.9%, 852G)
Mesmaster: 700G (9.0%, 27,627G)
AllInBot: 595G (7.6%, 595G)
richardserious: 526G (6.7%, 526G)
killth3kid: 500G (6.4%, 40,980G)
vorap: 500G (6.4%, 16,264G)
museofdoom: 300G (3.8%, 5,633G)
StormclawGaming: 200G (2.6%, 16,469G)
getthemoneyz: 166G (2.1%, 603,391G)
lastly: 100G (1.3%, 762G)
Firesheath: 100G (1.3%, 7,916G)
Jahshine: 100G (1.3%, 1,201G)
JumbocactuarX27: 100G (1.3%, 13,795G)
funkyjelloman: 100G (1.3%, 279G)
BirbBrainsBot: 86G (1.1%, 79,099G)
