Final Bets: white - 10 bets for 7,462G (44.9%, x1.23); black - 12 bets for 9,150G (55.1%, x0.82)

white bets:
skillomono: 4,568G (61.2%, 9,136G)
Sir_Jim_0f_Slim: 595G (8.0%, 595G)
roofiepops: 474G (6.4%, 8,952G)
EmperorBeef: 470G (6.3%, 181,470G)
xendriick: 400G (5.4%, 400G)
Lord_Gwarth: 337G (4.5%, 5,539G)
datadrivenbot: 200G (2.7%, 60,846G)
MagikarpPKMN: 195G (2.6%, 195G)
Lydian_C: 123G (1.6%, 19,274G)
HS39: 100G (1.3%, 892G)

black bets:
reinoe: 2,000G (21.9%, 61,283G)
Thyrandaal: 1,221G (13.3%, 1,221G)
Tarheels218: 1,042G (11.4%, 1,042G)
BirbBrainsBot: 1,000G (10.9%, 160,167G)
douchetron: 882G (9.6%, 882G)
gorgewall: 676G (7.4%, 676G)
getthemoneyz: 674G (7.4%, 1,781,127G)
powergems: 555G (6.1%, 10,682G)
TasisSai: 500G (5.5%, 16,508G)
AbandonedHall: 300G (3.3%, 3,863G)
ar_tactic: 200G (2.2%, 97,530G)
Leonidusx: 100G (1.1%, 14,907G)
