Final Bets: purple - 11 bets for 5,244G (20.6%, x3.85); brown - 13 bets for 20,210G (79.4%, x0.26)

purple bets:
Sairentozon7: 1,200G (22.9%, 1,200G)
BirbBrainsBot: 1,000G (19.1%, 159,167G)
getthemoneyz: 1,000G (19.1%, 1,780,453G)
Thyrandaal: 544G (10.4%, 544G)
Raixelol: 332G (6.3%, 1,865G)
xendriick: 300G (5.7%, 890G)
douchetron: 248G (4.7%, 248G)
HentaiWriter: 220G (4.2%, 220G)
datadrivenbot: 200G (3.8%, 61,091G)
BartTradingCompany: 100G (1.9%, 374G)
HS39: 100G (1.9%, 1,015G)

brown bets:
skillomono: 7,368G (36.5%, 14,737G)
Willjin: 5,000G (24.7%, 155,296G)
sinnyil2: 3,393G (16.8%, 6,786G)
reinoe: 1,000G (4.9%, 59,283G)
Forkmore: 777G (3.8%, 117,418G)
Lord_Gwarth: 555G (2.7%, 5,952G)
EmperorBeef: 546G (2.7%, 182,046G)
Sir_Jim_0f_Slim: 500G (2.5%, 1,325G)
Tarheels218: 348G (1.7%, 348G)
Leonidusx: 300G (1.5%, 14,807G)
ar_tactic: 200G (1.0%, 97,330G)
Lydian_C: 123G (0.6%, 19,425G)
Zerguzen: 100G (0.5%, 2,700G)
