Final Bets: red - 11 bets for 9,017G (29.5%, x2.38); yellow - 13 bets for 21,498G (70.5%, x0.42)

red bets:
sinnyil2: 1,696G (18.8%, 3,393G)
douchetron: 1,204G (13.4%, 1,204G)
Lydian_C: 1,200G (13.3%, 18,302G)
HentaiWriter: 1,068G (11.8%, 1,068G)
BirbBrainsBot: 1,000G (11.1%, 163,021G)
Sir_Jim_0f_Slim: 825G (9.1%, 825G)
gorgewall: 676G (7.5%, 676G)
Zerguzen: 500G (5.5%, 2,600G)
HS39: 400G (4.4%, 400G)
Tarheels218: 348G (3.9%, 348G)
BartTradingCompany: 100G (1.1%, 759G)

yellow bets:
Willjin: 7,000G (32.6%, 150,296G)
reinoe: 5,000G (23.3%, 58,283G)
skillomono: 3,684G (17.1%, 7,369G)
EmperorBeef: 1,500G (7.0%, 181,500G)
Forkmore: 1,111G (5.2%, 116,641G)
Leonidusx: 1,000G (4.7%, 14,507G)
Phi_Sig: 555G (2.6%, 100,634G)
VolgraTheMoose: 501G (2.3%, 106,259G)
getthemoneyz: 324G (1.5%, 1,784,307G)
xendriick: 300G (1.4%, 2,046G)
AbandonedHall: 200G (0.9%, 3,563G)
datadrivenbot: 200G (0.9%, 61,862G)
Thyrandaal: 123G (0.6%, 1,641G)
