Final Bets: purple - 15 bets for 12,558G (40.1%, x1.49); brown - 18 bets for 18,736G (59.9%, x0.67)

purple bets:
bruubarg: 5,145G (41.0%, 5,145G)
CaptainGarlock: 1,312G (10.4%, 13,121G)
prince_rogers_nelson_: 1,023G (8.1%, 1,023G)
BirbBrainsBot: 1,000G (8.0%, 92,710G)
Lordminsc: 846G (6.7%, 846G)
Rislyeu: 580G (4.6%, 580G)
Cryptopsy70: 516G (4.1%, 9,884G)
killth3kid: 500G (4.0%, 8,832G)
cam_ATS: 420G (3.3%, 420G)
autnagrag: 367G (2.9%, 5,112G)
dogsandcatsand: 332G (2.6%, 332G)
gorgewall: 201G (1.6%, 8,079G)
AllInBot: 172G (1.4%, 172G)
Quadh0nk: 100G (0.8%, 1,153G)
getthemoneyz: 44G (0.4%, 893,821G)

brown bets:
toka222: 7,500G (40.0%, 30,529G)
Grandlanzer: 2,000G (10.7%, 7,125G)
DLJuggernaut: 1,890G (10.1%, 9,452G)
CosmicTactician: 1,500G (8.0%, 23,729G)
coralreeferz: 1,331G (7.1%, 1,331G)
NovaKnight21: 1,000G (5.3%, 5,159G)
ShintaroNayaka: 1,000G (5.3%, 14,510G)
TheChainNerd: 700G (3.7%, 700G)
BigGlorious: 300G (1.6%, 4,403G)
Anak761: 250G (1.3%, 9,647G)
DustBirdEX: 234G (1.2%, 2,240G)
nok____: 227G (1.2%, 8,527G)
Anasetsuken: 204G (1.1%, 204G)
brokenknight201: 200G (1.1%, 1,332G)
E_Ballard: 100G (0.5%, 6,549G)
RuneS_77: 100G (0.5%, 7,590G)
datadrivenbot: 100G (0.5%, 36,236G)
nifboy: 100G (0.5%, 1,981G)
