Final Bets: green - 37 bets for 46,405G (80.6%, x0.24); yellow - 7 bets for 11,205G (19.4%, x4.14)

green bets:
Zeroroute: 9,973G (21.5%, 18,555G)
toka222: 7,500G (16.2%, 417,421G)
gooseyourself: 5,000G (10.8%, 12,813G)
HaplessOne: 4,585G (9.9%, 18,340G)
roofiepops: 2,377G (5.1%, 2,377G)
Treapvort: 2,000G (4.3%, 21,109G)
ricky_ortease: 1,481G (3.2%, 13,213G)
kai_shee: 1,000G (2.2%, 53,448G)
exaltedhamster: 1,000G (2.2%, 3,426G)
Lord_Burrah: 1,000G (2.2%, 96,426G)
BirbBrainsBot: 1,000G (2.2%, 28,478G)
bad1dea: 1,000G (2.2%, 257,979G)
getthemoneyz: 940G (2.0%, 396,083G)
powergems: 650G (1.4%, 6,988G)
volgrathemoose: 572G (1.2%, 572G)
fenixcrest: 567G (1.2%, 567G)
Hamborn: 500G (1.1%, 14,820G)
fenaen: 500G (1.1%, 3,412G)
ShanksMcShiv: 500G (1.1%, 946G)
UmbraKnights: 500G (1.1%, 1,499G)
reinoe: 500G (1.1%, 11,134G)
silentperogy: 400G (0.9%, 7,776G)
ko2q: 363G (0.8%, 363G)
ZephyrTempest: 340G (0.7%, 7,269G)
Lazerkick: 321G (0.7%, 321G)
CidDurai: 300G (0.6%, 1,868G)
noztril: 300G (0.6%, 1,362G)
Baron_von_Scrub: 272G (0.6%, 272G)
renothegreyhound: 158G (0.3%, 158G)
AnthraX85: 151G (0.3%, 151G)
WoooBlaaa: 146G (0.3%, 146G)
robespyah: 108G (0.2%, 108G)
Tithonus: 100G (0.2%, 4,933G)
Lordminsc: 100G (0.2%, 17,251G)
datadrivenbot: 100G (0.2%, 17,806G)
g00gly: 100G (0.2%, 623G)
daveb_: 1G (0.0%, 1,204G)

yellow bets:
Aldrammech: 9,805G (87.5%, 9,805G)
thaetreis: 400G (3.6%, 2,171G)
SeniorBunk: 300G (2.7%, 8,120G)
Aeolus_000: 200G (1.8%, 1,812G)
alrightbye: 200G (1.8%, 4,663G)
Cataphract116: 200G (1.8%, 1,197G)
ApplesauceBoss: 100G (0.9%, 2,087G)
