Final Bets: green - 18 bets for 15,810G (70.9%, x0.41); yellow - 13 bets for 6,496G (29.1%, x2.43)

green bets:
LDSkinny: 2,771G (17.5%, 2,771G)
metagameface: 2,000G (12.7%, 4,759G)
CosmicTactician: 1,931G (12.2%, 3,863G)
Thyrandaal: 1,903G (12.0%, 3,733G)
TheChainNerd: 1,389G (8.8%, 1,389G)
d4rr1n: 1,235G (7.8%, 1,235G)
NovaKnight21: 1,000G (6.3%, 2,000G)
Draconis345: 1,000G (6.3%, 57,490G)
gooseyourself: 600G (3.8%, 600G)
JumbocactuarX27: 500G (3.2%, 1,133G)
letdowncity: 300G (1.9%, 16,038G)
CapnChaos12: 300G (1.9%, 10,355G)
Tuckerism: 243G (1.5%, 243G)
alterworlds: 238G (1.5%, 238G)
RuneS_77: 100G (0.6%, 8,831G)
Miku_Shikhu: 100G (0.6%, 13,950G)
datadrivenbot: 100G (0.6%, 36,110G)
E_Ballard: 100G (0.6%, 9,452G)

yellow bets:
toka222: 1,500G (23.1%, 33,398G)
DavenIII: 1,022G (15.7%, 2,044G)
BirbBrainsBot: 1,000G (15.4%, 161,059G)
DeathTaxesAndAnime: 760G (11.7%, 760G)
Cryptopsy70: 532G (8.2%, 11,034G)
DLJuggernaut: 500G (7.7%, 7,678G)
killth3kid: 500G (7.7%, 27,173G)
AllInBot: 198G (3.0%, 198G)
mattcorn7: 116G (1.8%, 116G)
mpghappiness: 100G (1.5%, 1,012G)
hilcray: 100G (1.5%, 998G)
benticore: 100G (1.5%, 4,458G)
getthemoneyz: 68G (1.0%, 936,032G)
