Final Bets: white - 12 bets for 9,456G (65.3%, x0.53); black - 12 bets for 5,033G (34.7%, x1.88)

white bets:
resjudicata3: 3,597G (38.0%, 3,597G)
randgridr: 1,548G (16.4%, 3,097G)
upvla: 1,219G (12.9%, 14,402G)
Rytor: 1,000G (10.6%, 16,794G)
Artea_: 500G (5.3%, 6,924G)
killth3kid: 492G (5.2%, 7,640G)
ribbiks: 300G (3.2%, 837G)
AllInBot: 200G (2.1%, 200G)
datadrivenbot: 200G (2.1%, 36,471G)
mrpickins: 200G (2.1%, 1,702G)
ANFz: 100G (1.1%, 59,990G)
Heroebal: 100G (1.1%, 6,224G)

black bets:
Meta_Five: 1,000G (19.9%, 28,058G)
BirbBrainsBot: 1,000G (19.9%, 14,899G)
douchetron: 947G (18.8%, 1,858G)
Laserman1000: 800G (15.9%, 4,500G)
Digitalsocrates: 432G (8.6%, 432G)
Hirameki85: 220G (4.4%, 4,220G)
muffin_money: 150G (3.0%, 11,157G)
darth_spartan: 116G (2.3%, 116G)
Firesheath: 100G (2.0%, 14,348G)
madman_clinton: 100G (2.0%, 1,343G)
MiseryKoss: 100G (2.0%, 712G)
getthemoneyz: 68G (1.4%, 1,361,695G)
