Final Bets: red - 16 bets for 4,367G (28.1%, x2.56); white - 10 bets for 11,189G (71.9%, x0.39)

red bets:
Laserman1000: 600G (13.7%, 3,700G)
Thyrandaal: 500G (11.4%, 73,711G)
killth3kid: 492G (11.3%, 7,902G)
douchetron: 468G (10.7%, 918G)
Kronikle: 444G (10.2%, 7,960G)
TasisSai: 300G (6.9%, 4,431G)
Hirameki85: 262G (6.0%, 4,062G)
DeathTaxesAndAnime: 250G (5.7%, 2,532G)
gorgewall: 201G (4.6%, 15,846G)
AllInBot: 200G (4.6%, 200G)
datadrivenbot: 200G (4.6%, 36,686G)
mrpickins: 100G (2.3%, 1,208G)
madman_clinton: 100G (2.3%, 1,298G)
Heroebal: 100G (2.3%, 5,277G)
ribbiks: 100G (2.3%, 1,095G)
MiseryKoss: 50G (1.1%, 578G)

white bets:
prince_rogers_nelson_: 5,000G (44.7%, 7,376G)
NicoSavoy: 2,000G (17.9%, 284,125G)
nocmon411: 1,300G (11.6%, 2,325G)
BirbBrainsBot: 1,000G (8.9%, 14,790G)
resjudicata3: 500G (4.5%, 7,027G)
Artea_: 500G (4.5%, 7,300G)
ruleof5: 300G (2.7%, 9,027G)
getthemoneyz: 298G (2.7%, 1,361,473G)
flacococo: 191G (1.7%, 191G)
nhammen: 100G (0.9%, 4,278G)
