Final Bets: red - 8 bets for 16,491G (56.0%, x0.79); blue - 18 bets for 12,974G (44.0%, x1.27)

red bets:
DeathTaxesAndAnime: 12,177G (73.8%, 23,877G)
Laserman1000: 1,211G (7.3%, 1,211G)
CosmicTactician: 1,000G (6.1%, 21,139G)
coralreeferz: 706G (4.3%, 706G)
RaIshtar: 631G (3.8%, 631G)
maximumcrit: 300G (1.8%, 11,325G)
Zagorsek: 266G (1.6%, 532G)
datadrivenbot: 200G (1.2%, 44,932G)

blue bets:
TheMurkGnome: 5,000G (38.5%, 54,949G)
BirbBrainsBot: 1,000G (7.7%, 126,158G)
ForagerCats: 1,000G (7.7%, 5,233G)
lowlf: 1,000G (7.7%, 67,988G)
KasugaiRoastedPeas: 652G (5.0%, 652G)
getthemoneyz: 542G (4.2%, 1,461,920G)
Lanshaft: 540G (4.2%, 24,151G)
sinnyil2: 500G (3.9%, 3,008G)
RunicMagus: 456G (3.5%, 456G)
pplvee1: 444G (3.4%, 2,400G)
SephDarkheart: 436G (3.4%, 9,579G)
neocarbuncle: 433G (3.3%, 433G)
SamaelMerihem: 359G (2.8%, 359G)
AllInBot: 229G (1.8%, 229G)
Lydian_C: 123G (0.9%, 4,188G)
ArlanKels: 100G (0.8%, 680G)
WillFitzgerald: 100G (0.8%, 9,404G)
7Cerulean7: 60G (0.5%, 6,722G)
