Final Bets: red - 17 bets for 13,083G (64.9%, x0.54); blue - 10 bets for 7,067G (35.1%, x1.85)

red bets:
reddwind_: 5,000G (38.2%, 25,334G)
KyleWonToLiveForever: 1,515G (11.6%, 1,515G)
Aldrammech: 1,000G (7.6%, 63,174G)
boxyID: 1,000G (7.6%, 50,893G)
douchetron: 578G (4.4%, 578G)
nifboy: 500G (3.8%, 500G)
benticore: 500G (3.8%, 44,507G)
HaateXIII: 500G (3.8%, 1,673G)
brenogarwin: 481G (3.7%, 481G)
coralreeferz: 450G (3.4%, 4,043G)
ArlanKels: 355G (2.7%, 355G)
Chambs12: 333G (2.5%, 333G)
BirbBrainsBot: 271G (2.1%, 47,104G)
DHaveWord: 200G (1.5%, 3,552G)
datadrivenbot: 200G (1.5%, 47,074G)
ANFz: 100G (0.8%, 59,749G)
kahjeethaswares: 100G (0.8%, 2,668G)

blue bets:
AllInBot: 1,963G (27.8%, 1,963G)
sinnyil2: 1,343G (19.0%, 2,686G)
VolgraTheMoose: 1,321G (18.7%, 1,321G)
gorgewall: 582G (8.2%, 582G)
poGpopE: 500G (7.1%, 44,697G)
Rytor: 500G (7.1%, 20,520G)
fenaen: 476G (6.7%, 476G)
TasisSai: 200G (2.8%, 11,837G)
CosmicTactician: 100G (1.4%, 24,773G)
getthemoneyz: 82G (1.2%, 1,445,022G)
