Final Bets: green - 10 bets for 4,576G (37.6%, x1.66); yellow - 19 bets for 7,581G (62.4%, x0.60)

green bets:
neerrm: 1,000G (21.9%, 30,009G)
Laserman1000: 830G (18.1%, 16,530G)
powergems: 550G (12.0%, 11,844G)
killth3kid: 536G (11.7%, 3,416G)
Duke_1776: 500G (10.9%, 1,362G)
Raixelol: 320G (7.0%, 22,405G)
JonnyCue: 320G (7.0%, 320G)
CapnChaos12: 300G (6.6%, 1,352G)
resjudicata3: 200G (4.4%, 3,898G)
BartTradingCompany: 20G (0.4%, 413G)

yellow bets:
Lord_Burrah: 1,500G (19.8%, 76,500G)
BirbBrainsBot: 1,000G (13.2%, 67,635G)
dogsandcatsand: 802G (10.6%, 802G)
E_Ballard: 772G (10.2%, 55,519G)
Sairentozon7: 611G (8.1%, 611G)
Phi_Sig: 555G (7.3%, 85,117G)
skipsandwiches: 372G (4.9%, 7,967G)
DLJuggernaut: 368G (4.9%, 368G)
douchetron: 228G (3.0%, 228G)
imXT: 200G (2.6%, 5,169G)
datadrivenbot: 200G (2.6%, 64,593G)
getthemoneyz: 174G (2.3%, 1,762,921G)
AllInBot: 140G (1.8%, 140G)
Lydian_C: 123G (1.6%, 16,036G)
Absalom_20: 120G (1.6%, 6,708G)
WesSideVandal: 116G (1.5%, 116G)
captainmilestw: 100G (1.3%, 1,919G)
Runeseeker22: 100G (1.3%, 1,186G)
ko2q: 100G (1.3%, 8,405G)
