Player: !Blue
Team: Blue Team
Palettes: Blue/Purple



Imafella
Female
Taurus
48
56
Wizard
Draw Out
PA Save
Equip Axe
Lava Walking

Gold Staff

Twist Headband
Leather Outfit
108 Gems

Fire, Fire 2, Bolt 3, Bolt 4, Ice, Ice 2, Empower
Muramasa



Nickyfive
Monster
Scorpio
49
61
Grenade










Snaccubus
Monster
Virgo
54
63
Sekhret










Epicureial
Monster
Leo
80
43
Vampire







