Final Bets: blue - 20 bets for 9,962G (22.4%, x3.47); purple - 28 bets for 34,547G (77.6%, x0.29)

blue bets:
Nickyfive: 1,676G (16.8%, 3,353G)
TheChainNerd: 1,339G (13.4%, 1,339G)
Baron_von_Scrub: 1,194G (12.0%, 1,194G)
Epicureial: 1,000G (10.0%, 41,438G)
BirbBrainsBot: 1,000G (10.0%, 57,195G)
toka222: 500G (5.0%, 46,845G)
imafella: 470G (4.7%, 2,350G)
holyonline: 360G (3.6%, 360G)
DustBirdEX: 321G (3.2%, 8,236G)
SQUiDSQUARKLIN: 300G (3.0%, 1,950G)
joewcarson: 300G (3.0%, 6,532G)
nifboy: 250G (2.5%, 4,414G)
Drusic: 216G (2.2%, 216G)
eudes89: 200G (2.0%, 3,427G)
CorpusCav: 200G (2.0%, 14,200G)
getthemoneyz: 182G (1.8%, 677,988G)
Nickaboom11: 150G (1.5%, 1,175G)
tsukiyo2830: 104G (1.0%, 104G)
Evewho: 100G (1.0%, 15,124G)
QaizerArt: 100G (1.0%, 300G)

purple bets:
hydroshade: 7,500G (21.7%, 27,253G)
DavenIII: 5,000G (14.5%, 18,476G)
HaplessOne: 4,444G (12.9%, 59,546G)
roofiepops: 2,222G (6.4%, 27,221G)
ACSpree: 2,203G (6.4%, 2,203G)
Zeroroute: 1,676G (4.9%, 4,365G)
volgrathemoose: 1,533G (4.4%, 3,066G)
E_Ballard: 1,031G (3.0%, 1,031G)
LDSkinny: 1,000G (2.9%, 56,626G)
dogsandcatsand: 1,000G (2.9%, 10,972G)
Anomandaris__: 1,000G (2.9%, 5,882G)
Lionhermit: 1,000G (2.9%, 48,929G)
JumbocactuarX27: 668G (1.9%, 668G)
FriendSquirrel: 569G (1.6%, 977G)
fenaen: 553G (1.6%, 553G)
ShintaroNayaka: 543G (1.6%, 543G)
Corky_McCorkscrew: 500G (1.4%, 500G)
HaateXIII: 404G (1.2%, 404G)
Rislyeu: 324G (0.9%, 324G)
AUrato: 244G (0.7%, 244G)
richardserious: 232G (0.7%, 232G)
Nizaha: 201G (0.6%, 4,708G)
Oobs56: 200G (0.6%, 6,678G)
CosmicTactician: 100G (0.3%, 11,907G)
ko2q: 100G (0.3%, 3,259G)
datadrivenbot: 100G (0.3%, 16,417G)
ungabunga_bot: 100G (0.3%, 495,311G)
foofermoofer: 100G (0.3%, 701G)
