Final Bets: purple - 20 bets for 27,610G (70.4%, x0.42); champion - 23 bets for 11,592G (29.6%, x2.38)

purple bets:
toka222: 7,600G (27.5%, 46,345G)
DustBirdEX: 3,957G (14.3%, 7,915G)
ACSpree: 2,838G (10.3%, 2,838G)
HaplessOne: 2,222G (8.0%, 60,827G)
Zeroroute: 1,756G (6.4%, 4,848G)
volgrathemoose: 1,754G (6.4%, 3,508G)
DavenIII: 1,500G (5.4%, 19,918G)
E_Ballard: 1,328G (4.8%, 1,328G)
Epicureial: 1,000G (3.6%, 40,438G)
LDSkinny: 1,000G (3.6%, 56,918G)
roofiepops: 565G (2.0%, 27,862G)
HaychDub: 450G (1.6%, 3,442G)
AUrato: 314G (1.1%, 314G)
joewcarson: 300G (1.1%, 6,232G)
beowulfrulez: 276G (1.0%, 276G)
nifboy: 250G (0.9%, 4,164G)
Nickaboom11: 200G (0.7%, 1,025G)
CosmicTactician: 100G (0.4%, 11,936G)
Firesheath: 100G (0.4%, 27,300G)
datadrivenbot: 100G (0.4%, 16,446G)

champion bets:
Evewho: 2,000G (17.3%, 15,024G)
hydroshade: 1,500G (12.9%, 29,416G)
ungabunga_bot: 1,000G (8.6%, 495,340G)
BirbBrainsBot: 1,000G (8.6%, 56,195G)
HaateXIII: 520G (4.5%, 520G)
eudes89: 500G (4.3%, 3,227G)
baconbacon1207: 500G (4.3%, 12,438G)
dogsandcatsand: 500G (4.3%, 11,260G)
DLJuggernaut: 500G (4.3%, 8,641G)
TheChainNerd: 496G (4.3%, 496G)
Rislyeu: 417G (3.6%, 417G)
holyonline: 360G (3.1%, 360G)
Oobs56: 350G (3.0%, 6,736G)
SQUiDSQUARKLIN: 300G (2.6%, 1,650G)
benticore: 250G (2.2%, 2,710G)
jwchapm: 240G (2.1%, 240G)
getthemoneyz: 234G (2.0%, 677,806G)
aeonicvector: 224G (1.9%, 1,124G)
Nizaha: 201G (1.7%, 4,766G)
Mtueni: 200G (1.7%, 3,521G)
ko2q: 100G (0.9%, 3,292G)
RunicMagus: 100G (0.9%, 39,574G)
QaizerArt: 100G (0.9%, 200G)
