Final Bets: white - 12 bets for 4,764G (19.6%, x4.10); black - 26 bets for 19,540G (80.4%, x0.24)

white bets:
killth3kid: 1,318G (27.7%, 1,318G)
BirbBrainsBot: 1,000G (21.0%, 56,639G)
BigGlorious: 500G (10.5%, 5,358G)
skillomono: 500G (10.5%, 4,996G)
DamnThatShark: 500G (10.5%, 2,099G)
getthemoneyz: 246G (5.2%, 963,037G)
Grandlanzer: 200G (4.2%, 7,616G)
Tyrlan: 100G (2.1%, 100G)
solomongrundy85: 100G (2.1%, 6,360G)
prince_rogers_nelson_: 100G (2.1%, 3,322G)
MXsora: 100G (2.1%, 3,382G)
opHendoslice: 100G (2.1%, 12,055G)

black bets:
Powermhero: 4,020G (20.6%, 24,020G)
DuraiPapers: 3,566G (18.2%, 3,566G)
CosmicTactician: 2,000G (10.2%, 6,505G)
Rytor: 1,088G (5.6%, 1,088G)
electric_algus: 1,000G (5.1%, 16,779G)
just_here2: 1,000G (5.1%, 5,989G)
Laserman1000: 881G (4.5%, 4,781G)
CorpusCav: 769G (3.9%, 769G)
sSwing: 712G (3.6%, 21,088G)
HaateXIII: 504G (2.6%, 504G)
moonliquor: 500G (2.6%, 9,406G)
RunicMagus: 500G (2.6%, 66,603G)
AltimaMantoid: 500G (2.6%, 3,500G)
pandasforsale: 352G (1.8%, 352G)
gorgewall: 301G (1.5%, 23,568G)
letdowncity: 300G (1.5%, 21,930G)
AllInBot: 297G (1.5%, 297G)
Arcblazer23: 284G (1.5%, 284G)
butterbelljedi: 216G (1.1%, 216G)
muffin_money: 150G (0.8%, 8,594G)
nifboy: 100G (0.5%, 5,227G)
ko2q: 100G (0.5%, 6,610G)
Miku_Shikhu: 100G (0.5%, 15,385G)
Firesheath: 100G (0.5%, 13,429G)
victoriolue: 100G (0.5%, 4,918G)
datadrivenbot: 100G (0.5%, 42,411G)
