Final Bets: purple - 14 bets for 8,780G (52.1%, x0.92); brown - 23 bets for 8,074G (47.9%, x1.09)

purple bets:
Zeroroute: 1,500G (17.1%, 1,500G)
superdevon1: 1,389G (15.8%, 1,389G)
farside00831: 1,000G (11.4%, 4,290G)
Thyrandaal: 1,000G (11.4%, 153,102G)
AniZero: 1,000G (11.4%, 20,872G)
nifboy: 841G (9.6%, 841G)
thunderducker: 667G (7.6%, 13,632G)
seppu777: 333G (3.8%, 1,712G)
Sietaha: 300G (3.4%, 10,718G)
killth3kid: 250G (2.8%, 20,604G)
brodeity: 200G (2.3%, 7,090G)
nhammen: 100G (1.1%, 414,954G)
Miku_Shikhu: 100G (1.1%, 6,639G)
DeathTaxesAndAnime: 100G (1.1%, 7,335G)

brown bets:
Dasutin23: 1,000G (12.4%, 17,194G)
BirbBrainsBot: 1,000G (12.4%, 70,689G)
KyleWonToLiveForever: 1,000G (12.4%, 8,001G)
upvla: 789G (9.8%, 20,407G)
BartTradingCompany: 554G (6.9%, 5,548G)
resjudicata3: 484G (6.0%, 484G)
akash7: 430G (5.3%, 430G)
reddwind_: 384G (4.8%, 1,969G)
krombobreaker: 332G (4.1%, 332G)
CosmicTactician: 300G (3.7%, 31,327G)
CorpusCav: 250G (3.1%, 27,372G)
helpimabug: 240G (3.0%, 240G)
ValensEXP_: 204G (2.5%, 204G)
datadrivenbot: 200G (2.5%, 55,595G)
ArrenJevleth: 200G (2.5%, 4,719G)
velvet_muffins: 120G (1.5%, 120G)
khelor_: 116G (1.4%, 116G)
Chuckolator: 112G (1.4%, 9,541G)
AllInBot: 100G (1.2%, 100G)
zelaxi: 100G (1.2%, 100G)
acid_flashback: 73G (0.9%, 2,434G)
getthemoneyz: 56G (0.7%, 1,866,013G)
minorfffanatic1: 30G (0.4%, 442G)
