Final Bets: yellow - 25 bets for 18,879G (73.1%, x0.37); white - 17 bets for 6,942G (26.9%, x2.72)

yellow bets:
Thyrandaal: 3,869G (20.5%, 3,869G)
evontno: 2,500G (13.2%, 37,074G)
sinnyil2: 1,991G (10.5%, 3,983G)
dogsandcatsand: 1,500G (7.9%, 22,122G)
BirbBrainsBot: 1,000G (5.3%, 46,267G)
fluffskull: 1,000G (5.3%, 4,980G)
Rislyeu: 1,000G (5.3%, 8,742G)
Laserman1000: 1,000G (5.3%, 43,400G)
Mesmaster: 616G (3.3%, 616G)
Aldrammech: 579G (3.1%, 11,594G)
Oreo_Pizza: 500G (2.6%, 21,300G)
Zetchryn: 432G (2.3%, 432G)
killth3kid: 432G (2.3%, 11,956G)
ZicaX: 416G (2.2%, 2,084G)
randgridr: 388G (2.1%, 388G)
superdevon1: 378G (2.0%, 7,576G)
dtrain332: 248G (1.3%, 248G)
datadrivenbot: 200G (1.1%, 30,768G)
furrytomahawkk: 200G (1.1%, 6,626G)
lyonslegacy: 150G (0.8%, 2,546G)
Royal_Ruckus: 120G (0.6%, 120G)
ANFz: 100G (0.5%, 46,828G)
Miku_Shikhu: 100G (0.5%, 18,376G)
nhammen: 100G (0.5%, 4,348G)
Hasterious: 60G (0.3%, 6,011G)

white bets:
reinoe: 1,000G (14.4%, 76,064G)
HaateXIII: 776G (11.2%, 776G)
AllInBot: 588G (8.5%, 588G)
NIghtdew14: 508G (7.3%, 508G)
VolgraTheMoose: 501G (7.2%, 16,907G)
Zeroroute: 500G (7.2%, 500G)
Lanshaft: 492G (7.1%, 25,797G)
Seaweed_B: 470G (6.8%, 470G)
prince_rogers_nelson_: 448G (6.5%, 448G)
Vacillents: 300G (4.3%, 1,965G)
ColetteMSLP: 300G (4.3%, 5,099G)
Treafa: 248G (3.6%, 3,469G)
Othatmattkid: 212G (3.1%, 212G)
gorgewall: 201G (2.9%, 8,526G)
getthemoneyz: 198G (2.9%, 1,309,754G)
TasisSai: 100G (1.4%, 1,551G)
Legionx13: 100G (1.4%, 4,337G)
