Final Bets: red - 21 bets for 22,394G (76.0%, x0.32); green - 15 bets for 7,071G (24.0%, x3.17)

red bets:
cam_ATS: 5,678G (25.4%, 22,012G)
actual_JP: 4,407G (19.7%, 4,407G)
Virilikus: 3,000G (13.4%, 155,103G)
SkylerBunny: 2,500G (11.2%, 123,771G)
Digitalsocrates: 1,000G (4.5%, 62,964G)
fenaen: 900G (4.0%, 34,188G)
killth3kid: 747G (3.3%, 747G)
Oobs56: 694G (3.1%, 1,361G)
muffin_money: 550G (2.5%, 11,178G)
Aldrammech: 522G (2.3%, 5,229G)
KonzeraLive: 300G (1.3%, 1,514G)
letdowncity: 300G (1.3%, 23,588G)
ColetteMSLP: 300G (1.3%, 3,267G)
twelfthrootoftwo: 300G (1.3%, 1,785G)
HaateXIII: 250G (1.1%, 1,635G)
Lythe_Caraker: 250G (1.1%, 110,412G)
Vultuous: 200G (0.9%, 3,026G)
ZCKaiser: 200G (0.9%, 1,725G)
animefan112233: 116G (0.5%, 116G)
ANFz: 100G (0.4%, 1,990G)
ericzubat: 80G (0.4%, 388G)

green bets:
BirbBrainsBot: 1,000G (14.1%, 82,666G)
Meta_Five: 1,000G (14.1%, 35,538G)
KyleWonToLiveForever: 784G (11.1%, 784G)
Evewho: 759G (10.7%, 759G)
VagabondAzulien: 553G (7.8%, 553G)
Laserman1000: 540G (7.6%, 540G)
opHendoslice: 500G (7.1%, 3,103G)
Baron_von_Scrub: 436G (6.2%, 436G)
holyonline: 400G (5.7%, 37,105G)
kilrazin: 400G (5.7%, 1,885G)
DuraiPapers: 264G (3.7%, 264G)
getthemoneyz: 230G (3.3%, 981,517G)
E_Ballard: 100G (1.4%, 9,985G)
ThisGuyLovesMath: 100G (1.4%, 541G)
moonliquor: 5G (0.1%, 1,557G)
