High Risers:
1. Pplvee1: +18,508G
2. Volgrathemoose: +7,520G
3. Zbgs: +4,579G
4. Reinoe: +3,790G
5. Gorgewall: +3,278G
6. Leonidusx: +3,029G
7. Latebit: +2,948G
8. Laserman1000: +1,829G
9. Saldarin: +1,574G
10. Valensexp_: +1,358G
11. Sinnyil2: +1,071G
12. Seppu777: +916G
13. Nizaha: +816G
14. Corpuscav: +474G
15. Roofiepops: +256G
16. Maakur_: +174G
17. Silentkaster: +45G
18. Lifebregin: -75G
19. Nhammen: -96G
20. Omegasuspekt: -100G
21. Memoriesoffinal: -163G
22. Run_with_stone_guns: -196G
23. Hasterious: -200G
24. Gelwain: -200G
25. Reddwind_: -200G
26. Krombobreaker: -254G
27. Ruleof5: -300G
28. Haatexiii: -361G
29. Phi_sig: -400G
30. Swish604: -400G
31. Nifboy: -435G
32. Mirapoix: -500G
33. Lord_gwarth: -525G
34. Sephdarkheart: -607G
35. Raixelol: -890G
36. Thyrandaal: -900G
37. Rune339: -1,127G
38. Deathtaxesandanime: -1,300G
39. Technominari: -1,396G
40. Skylerbunny: -1,885G
41. Forkmore: -6,400G
42. Shalloween: -8,001G
43. Biske13: -23,000G
