Final Bets: white - 23 bets for 13,549G (46.2%, x1.17); purple - 16 bets for 15,802G (53.8%, x0.86)

white bets:
Firesheath: 1,991G (14.7%, 1,991G)
red__lancer: 1,500G (11.1%, 74,553G)
rocl: 1,129G (8.3%, 2,259G)
ungabunga_bot: 1,000G (7.4%, 502,893G)
BirbBrainsBot: 1,000G (7.4%, 172,916G)
Mesmaster: 1,000G (7.4%, 80,937G)
Error72: 1,000G (7.4%, 8,156G)
Jeeboheebo: 848G (6.3%, 848G)
DLJuggernaut: 500G (3.7%, 2,857G)
EnemyController: 500G (3.7%, 255,421G)
skillomono: 500G (3.7%, 3,489G)
Lanshaft: 388G (2.9%, 2,052G)
moonliquor: 320G (2.4%, 320G)
joewcarson: 300G (2.2%, 4,579G)
bruubarg: 300G (2.2%, 2,318G)
Kyune: 250G (1.8%, 4,575G)
getthemoneyz: 214G (1.6%, 684,346G)
MMagnetMan: 208G (1.5%, 208G)
gorgewall: 201G (1.5%, 13,159G)
StealthModeLocke: 100G (0.7%, 41,689G)
soren_of_tyto: 100G (0.7%, 100G)
AmaninAmide: 100G (0.7%, 3,036G)
Lolprinze: 100G (0.7%, 2,323G)

purple bets:
LDSkinny: 6,214G (39.3%, 12,429G)
volgrathemoose: 3,491G (22.1%, 6,983G)
Baron_von_Scrub: 2,583G (16.3%, 5,167G)
Evewho: 860G (5.4%, 860G)
roqqqpsi: 658G (4.2%, 658G)
vorap: 400G (2.5%, 60,041G)
gabbagooluigi: 320G (2.0%, 320G)
twelfthrootoftwo: 300G (1.9%, 17,150G)
tronfonne: 226G (1.4%, 1,510G)
Kezia444: 150G (0.9%, 285G)
E_Ballard: 100G (0.6%, 15,477G)
Arbitae: 100G (0.6%, 1,761G)
Strifu: 100G (0.6%, 2,191G)
Jampck: 100G (0.6%, 2,158G)
rjA0zcOQ96: 100G (0.6%, 1,967G)
nifboy: 100G (0.6%, 4,601G)
