Final Bets: green - 18 bets for 12,458G (82.5%, x0.21); yellow - 5 bets for 2,638G (17.5%, x4.72)

green bets:
reinoe: 2,000G (16.1%, 30,795G)
Error72: 1,768G (14.2%, 1,768G)
HaplessOne: 1,254G (10.1%, 1,254G)
Mushufasa_: 1,234G (9.9%, 28,965G)
BirbBrainsBot: 1,000G (8.0%, 77,868G)
MemoriesofFinal: 1,000G (8.0%, 6,732G)
E_Ballard: 996G (8.0%, 996G)
VolgraTheMoose: 814G (6.5%, 1,628G)
TheMurkGnome: 500G (4.0%, 2,600G)
JonnyCue: 492G (3.9%, 10,537G)
chaosdesigned: 300G (2.4%, 3,882G)
Twisted_Nutsatchel: 300G (2.4%, 16,373G)
datadrivenbot: 200G (1.6%, 83,440G)
ar_tactic: 200G (1.6%, 65,573G)
DouglasDragonThePoet: 100G (0.8%, 1,641G)
xav8904: 100G (0.8%, 1,418G)
TheBrett: 100G (0.8%, 30,783G)
FuzzyTigers: 100G (0.8%, 543G)

yellow bets:
bruubarg: 1,000G (37.9%, 5,838G)
getthemoneyz: 688G (26.1%, 2,216,646G)
SephDarkheart: 600G (22.7%, 600G)
AllInBot: 200G (7.6%, 200G)
YowaneHaku: 150G (5.7%, 6,654G)
