Final Bets: white - 19 bets for 21,676G (78.5%, x0.27); purple - 22 bets for 5,921G (21.5%, x3.66)

white bets:
Mesmaster: 4,000G (18.5%, 70,883G)
Fenrislfr: 3,357G (15.5%, 3,357G)
Rislyeu: 2,440G (11.3%, 4,880G)
DeathTaxesAndAnime: 1,907G (8.8%, 3,741G)
WireLord: 1,497G (6.9%, 1,497G)
Shalloween: 1,288G (5.9%, 1,288G)
R_Raynos: 1,070G (4.9%, 1,070G)
Aldrammech: 1,000G (4.6%, 10,408G)
BirbBrainsBot: 1,000G (4.6%, 16,836G)
Lionhermit: 1,000G (4.6%, 25,302G)
Baron_von_Scrub: 751G (3.5%, 751G)
concles: 700G (3.2%, 19,107G)
Breakdown777: 500G (2.3%, 15,162G)
Grimmace45: 340G (1.6%, 340G)
twelfthrootoftwo: 300G (1.4%, 2,755G)
kaidykat: 200G (0.9%, 727G)
TheMM42: 200G (0.9%, 10,159G)
ApplesauceBoss: 100G (0.5%, 9,729G)
getthemoneyz: 26G (0.1%, 612,400G)

purple bets:
superdevon1: 1,242G (21.0%, 12,427G)
ColetteMSLP: 800G (13.5%, 26,710G)
ApplesNP: 500G (8.4%, 2,700G)
OmnibotGamma: 500G (8.4%, 3,946G)
evdoggity: 300G (5.1%, 4,242G)
RunicMagus: 300G (5.1%, 48,035G)
mpghappiness: 296G (5.0%, 296G)
HorusTaurus: 260G (4.4%, 260G)
witchlight: 249G (4.2%, 2,492G)
RestIessNight: 200G (3.4%, 2,482G)
byrdturbo: 169G (2.9%, 8,938G)
ungabunga_bot: 105G (1.8%, 338,715G)
xyKOX: 100G (1.7%, 100G)
PorkitoSh0w: 100G (1.7%, 100G)
OneHundredFists: 100G (1.7%, 2,143G)
Evewho: 100G (1.7%, 3,746G)
Firesheath: 100G (1.7%, 13,953G)
CosmicTactician: 100G (1.7%, 20,779G)
datadrivenbot: 100G (1.7%, 14,768G)
ReeYAwN: 100G (1.7%, 104G)
reshiramdude16: 100G (1.7%, 100G)
Yasmosis: 100G (1.7%, 1,255G)
