Final Bets: green - 11 bets for 6,338G (57.9%, x0.73); yellow - 10 bets for 4,610G (42.1%, x1.37)

green bets:
resjudicata3: 2,000G (31.6%, 5,930G)
BirbBrainsBot: 1,000G (15.8%, 154,584G)
AllInBot: 571G (9.0%, 571G)
CorpusCav: 500G (7.9%, 3,791G)
WhiteTigress: 472G (7.4%, 472G)
KasugaiRoastedPeas: 472G (7.4%, 472G)
BoneMiser: 436G (6.9%, 436G)
getthemoneyz: 344G (5.4%, 1,778,111G)
NicoSavoy: 304G (4.8%, 304G)
Xenomorith: 128G (2.0%, 128G)
PantherIscariot: 111G (1.8%, 7,121G)

yellow bets:
Dodecadeath: 1,239G (26.9%, 1,239G)
amiture: 1,000G (21.7%, 38,820G)
Laserman1000: 712G (15.4%, 712G)
Greggernaut: 500G (10.8%, 2,329G)
krombobreaker: 500G (10.8%, 2,821G)
minorfffanatic1: 204G (4.4%, 204G)
datadrivenbot: 200G (4.3%, 59,669G)
zarath79: 104G (2.3%, 104G)
RobotOcelot: 100G (2.2%, 571G)
MemoriesofFinal: 51G (1.1%, 2,231G)
