Final Bets: white - 15 bets for 17,163G (82.1%, x0.22); black - 8 bets for 3,748G (17.9%, x4.58)

white bets:
Zbgs: 7,500G (43.7%, 22,197G)
Greggernaut: 1,833G (10.7%, 1,833G)
Lumberinjack: 1,393G (8.1%, 1,393G)
sinnyil2: 1,064G (6.2%, 1,064G)
BirbBrainsBot: 1,000G (5.8%, 155,311G)
HaateXIII: 856G (5.0%, 856G)
BoneMiser: 753G (4.4%, 753G)
Laserman1000: 712G (4.1%, 712G)
CorpusCav: 500G (2.9%, 4,155G)
krombobreaker: 500G (2.9%, 2,321G)
RobotOcelot: 471G (2.7%, 471G)
MemoriesofFinal: 200G (1.2%, 2,180G)
datadrivenbot: 200G (1.2%, 59,469G)
PantherIscariot: 111G (0.6%, 7,206G)
getthemoneyz: 70G (0.4%, 1,778,361G)

black bets:
AllInBot: 986G (26.3%, 986G)
WhiteTigress: 815G (21.7%, 815G)
ColetteMSLP: 500G (13.3%, 3,441G)
amiture: 500G (13.3%, 37,820G)
lowlf: 436G (11.6%, 757G)
LuciferAurion: 203G (5.4%, 203G)
KasugaiRoastedPeas: 200G (5.3%, 815G)
Dodecadeath: 108G (2.9%, 108G)
