Final Bets: white - 22 bets for 6,972G (22.9%, x3.36); black - 35 bets for 23,435G (77.1%, x0.30)

white bets:
DudeMonkey77: 1,000G (14.3%, 30,888G)
TheMurkGnome: 943G (13.5%, 11,135G)
Etce: 751G (10.8%, 751G)
Oshimi12: 460G (6.6%, 460G)
getthemoneyz: 426G (6.1%, 357,231G)
DeathTaxesAndAnime: 412G (5.9%, 412G)
byrdturbo: 409G (5.9%, 409G)
greghatch: 400G (5.7%, 2,295G)
kingchadking: 296G (4.2%, 296G)
evdoggity: 240G (3.4%, 240G)
Chuckolator: 223G (3.2%, 6,292G)
Fallenmagi: 212G (3.0%, 212G)
tone_t: 200G (2.9%, 8,029G)
Aeolus_000: 200G (2.9%, 1,634G)
Tougou: 100G (1.4%, 5,947G)
rjA0zcOQ96: 100G (1.4%, 1,583G)
electric_glass: 100G (1.4%, 1,685G)
jethrothrul: 100G (1.4%, 4,116G)
BadBlanket: 100G (1.4%, 739G)
SeedSC: 100G (1.4%, 102,600G)
Melbraega: 100G (1.4%, 568G)
Mechapope1: 100G (1.4%, 4,056G)

black bets:
MantisFinch: 5,313G (22.7%, 21,252G)
OmnibotGamma: 2,238G (9.5%, 2,238G)
Purpleyoshii: 1,566G (6.7%, 1,566G)
RongRongArts: 1,100G (4.7%, 33,406G)
Lodrak: 1,001G (4.3%, 16,328G)
BirbBrainsBot: 1,000G (4.3%, 224,042G)
bad1dea: 1,000G (4.3%, 216,523G)
gooseyourself: 1,000G (4.3%, 7,231G)
Virilikus: 1,000G (4.3%, 10,842G)
Tyerenex: 940G (4.0%, 1,176G)
leakimiko: 848G (3.6%, 16,977G)
CorpusCav: 832G (3.6%, 8,329G)
TheGuesty: 594G (2.5%, 5,948G)
TrogdorTheMemeinator: 500G (2.1%, 3,991G)
wackyzachyy: 447G (1.9%, 447G)
inzo_bettingbot: 400G (1.7%, 15,322G)
theallmightyensiron: 396G (1.7%, 396G)
ZephyrTempest: 319G (1.4%, 2,828G)
Meridian75W: 304G (1.3%, 304G)
KasugaiRoastedPeas: 300G (1.3%, 31,475G)
Lazerkick: 300G (1.3%, 10,264G)
cougboi: 300G (1.3%, 1,850G)
loveyouallfriends: 248G (1.1%, 248G)
DeliciousSub: 200G (0.9%, 11,012G)
ThePineappleSalesman: 200G (0.9%, 3,492G)
ungabunga_bot: 161G (0.7%, 4,379G)
ko2q: 124G (0.5%, 124G)
TheRobbieRobster: 104G (0.4%, 104G)
mirapoix: 100G (0.4%, 2,958G)
RughSontos: 100G (0.4%, 4,157G)
ShanksMcShiv: 100G (0.4%, 1,197G)
Basmal: 100G (0.4%, 3,196G)
victoriolue: 100G (0.4%, 4,594G)
twelfthrootoftwo: 100G (0.4%, 4,704G)
denamda: 100G (0.4%, 17,941G)
