Final Bets: green - 29 bets for 13,944G (28.1%, x2.56); champion - 37 bets for 35,744G (71.9%, x0.39)

green bets:
SkylerBunny: 1,500G (10.8%, 87,439G)
electric_glass: 1,341G (9.6%, 1,341G)
OmnibotGamma: 1,000G (7.2%, 9,376G)
bad1dea: 1,000G (7.2%, 217,226G)
gooseyourself: 1,000G (7.2%, 8,530G)
manc0_: 1,000G (7.2%, 3,937G)
BirbBrainsBot: 954G (6.8%, 224,798G)
TheMurkGnome: 578G (4.1%, 12,578G)
broomstar: 500G (3.6%, 2,248G)
AdmiralPikachu: 500G (3.6%, 26,051G)
gum44: 500G (3.6%, 8,358G)
reinoe: 472G (3.4%, 472G)
wackyzachyy: 450G (3.2%, 1,485G)
rnark: 420G (3.0%, 3,468G)
DeathTaxesAndAnime: 412G (3.0%, 412G)
Wargles: 300G (2.2%, 1,973G)
kingchadking: 296G (2.1%, 296G)
greghatch: 295G (2.1%, 295G)
sect_cor: 200G (1.4%, 22,289G)
Gyarz: 200G (1.4%, 8,054G)
Lazerkick: 200G (1.4%, 10,740G)
ZephyrTempest: 168G (1.2%, 3,104G)
TheRobbieRobster: 108G (0.8%, 108G)
Basmal: 100G (0.7%, 3,373G)
chronoxtrigger: 100G (0.7%, 4,400G)
victoriolue: 100G (0.7%, 4,553G)
Chompie: 100G (0.7%, 6,118G)
dreadnxught: 100G (0.7%, 5,146G)
thejoden: 50G (0.4%, 2,563G)

champion bets:
nerdynel17: 5,434G (15.2%, 5,434G)
Virilikus: 4,570G (12.8%, 9,140G)
Zeroroute: 3,009G (8.4%, 9,117G)
Shakarak: 3,000G (8.4%, 16,846G)
DejaPoo21: 2,000G (5.6%, 25,310G)
TrogdorTheMemeinator: 1,610G (4.5%, 3,220G)
urieltheflameofgod: 1,466G (4.1%, 1,466G)
RongRongArts: 1,100G (3.1%, 32,457G)
Lodrak: 1,001G (2.8%, 14,161G)
tone_t: 1,000G (2.8%, 7,829G)
Mechapope1: 1,000G (2.8%, 3,517G)
DudeMonkey77: 1,000G (2.8%, 29,888G)
silentperogy: 1,000G (2.8%, 7,851G)
Laserman1000: 900G (2.5%, 17,900G)
inzo_bettingbot: 800G (2.2%, 14,967G)
leakimiko: 795G (2.2%, 15,907G)
thaetreis: 784G (2.2%, 784G)
SpaZmodeus: 666G (1.9%, 3,375G)
HaplessOne: 646G (1.8%, 25,746G)
theallmightyensiron: 500G (1.4%, 2,367G)
Rastanar: 463G (1.3%, 463G)
TheGuesty: 350G (1.0%, 5,473G)
SerumD: 312G (0.9%, 312G)
omegasuspekt: 304G (0.9%, 304G)
loveyouallfriends: 248G (0.7%, 248G)
Oshimi12: 248G (0.7%, 248G)
ko2q: 239G (0.7%, 239G)
ungabunga_bot: 225G (0.6%, 4,290G)
inzo24: 224G (0.6%, 224G)
CidDurai: 200G (0.6%, 1,708G)
RughSontos: 100G (0.3%, 4,086G)
twelfthrootoftwo: 100G (0.3%, 4,917G)
Meridian75W: 100G (0.3%, 100G)
BadBlanket: 100G (0.3%, 829G)
SeedSC: 100G (0.3%, 102,400G)
ShanksMcShiv: 100G (0.3%, 1,127G)
denamda: 50G (0.1%, 17,821G)
