Final Bets: green - 20 bets for 8,464G (47.9%, x1.09); yellow - 16 bets for 9,202G (52.1%, x0.92)

green bets:
sinnyil2: 1,018G (12.0%, 2,037G)
DLJuggernaut: 827G (9.8%, 1,655G)
ColetteMSLP: 800G (9.5%, 59,786G)
Estan_AD: 760G (9.0%, 760G)
Communis: 712G (8.4%, 712G)
nekojin: 537G (6.3%, 537G)
reinoe: 500G (5.9%, 9,176G)
HaateXIII: 452G (5.3%, 452G)
nifboy: 400G (4.7%, 400G)
ApplesauceBoss: 392G (4.6%, 392G)
dowdlron: 300G (3.5%, 447G)
CapnChaos12: 300G (3.5%, 1,945G)
twelfthrootoftwo: 300G (3.5%, 12,308G)
CandyTamer: 228G (2.7%, 228G)
CorpusCav: 222G (2.6%, 2,784G)
beneeto: 204G (2.4%, 204G)
MalakiGenesys: 200G (2.4%, 648G)
neocarbuncle: 112G (1.3%, 112G)
datadrivenbot: 100G (1.2%, 18,484G)
mannequ1n: 100G (1.2%, 1,717G)

yellow bets:
Shakarak: 3,000G (32.6%, 56,538G)
Evewho: 1,423G (15.5%, 2,792G)
ungabunga_bot: 1,000G (10.9%, 506,729G)
superdevon1: 875G (9.5%, 8,757G)
skillomono: 500G (5.4%, 4,051G)
BirbBrainsBot: 417G (4.5%, 174,465G)
helpimabug: 364G (4.0%, 364G)
DustBirdEX: 345G (3.7%, 16,217G)
getthemoneyz: 336G (3.7%, 685,836G)
gorgewall: 201G (2.2%, 12,826G)
AUrato: 200G (2.2%, 5,996G)
Arcblazer23: 191G (2.1%, 191G)
go_pack: 100G (1.1%, 3,167G)
Lawndough: 100G (1.1%, 1,178G)
BreakfastBrew: 100G (1.1%, 100G)
letdowncity: 50G (0.5%, 1,399G)
