Final Bets: yellow - 12 bets for 5,994G (55.5%, x0.80); brown - 8 bets for 4,812G (44.5%, x1.25)

yellow bets:
ko2q: 1,287G (21.5%, 1,287G)
SkylerBunny: 1,000G (16.7%, 24,196G)
Drusiform: 1,000G (16.7%, 19,582G)
resjudicata3: 1,000G (16.7%, 2,228G)
Aldrammech: 652G (10.9%, 652G)
Snowfats: 250G (4.2%, 13,047G)
latebit: 204G (3.4%, 12,556G)
datadrivenbot: 200G (3.3%, 58,715G)
gorgewall: 101G (1.7%, 4,600G)
MinBetBot: 100G (1.7%, 22,929G)
ANFz: 100G (1.7%, 42,926G)
RunicMagus: 100G (1.7%, 6,394G)

brown bets:
DeathTaxesAndAnime: 1,687G (35.1%, 3,308G)
BirbBrainsBot: 1,000G (20.8%, 191,519G)
brokenknight201: 800G (16.6%, 13,882G)
argentbast: 500G (10.4%, 2,162G)
AllInBot: 486G (10.1%, 486G)
BoneMiser: 292G (6.1%, 292G)
getthemoneyz: 46G (1.0%, 1,592,153G)
Chuckolator: 1G (0.0%, 14,475G)
