Final Bets: green - 15 bets for 8,146G (71.2%, x0.41); yellow - 15 bets for 3,300G (28.8%, x2.47)

green bets:
DeathTaxesAndAnime: 1,962G (24.1%, 3,849G)
ExecutedGiraffe: 1,799G (22.1%, 1,799G)
BirbBrainsBot: 1,000G (12.3%, 36,352G)
Digitalsocrates: 1,000G (12.3%, 10,730G)
Oreo_Pizza: 500G (6.1%, 15,807G)
OneHundredFists: 384G (4.7%, 384G)
wyonearth: 300G (3.7%, 2,776G)
gorgewall: 201G (2.5%, 3,445G)
IphoneDarkness: 200G (2.5%, 3,013G)
prince_rogers_nelson_: 200G (2.5%, 9,191G)
wollip: 200G (2.5%, 1,510G)
Tyrlan: 100G (1.2%, 100G)
datadrivenbot: 100G (1.2%, 35,495G)
cogniv0r3: 100G (1.2%, 1,507G)
waterwatereverywhere: 100G (1.2%, 6,881G)

yellow bets:
Nohurty: 500G (15.2%, 3,411G)
Riot_Jayway: 500G (15.2%, 227,727G)
Baron_von_Scrub: 474G (14.4%, 46,244G)
metagameface: 356G (10.8%, 356G)
ColetteMSLP: 300G (9.1%, 1,867G)
Ungaiii: 264G (8.0%, 264G)
CaptainGarlock: 200G (6.1%, 1,007G)
LAGBOT30000: 111G (3.4%, 1,112G)
AllInBot: 100G (3.0%, 100G)
Spuzzmocker: 100G (3.0%, 638G)
BreederLancet: 100G (3.0%, 1,480G)
Ring_Wyrm: 100G (3.0%, 1,783G)
fluffskull: 100G (3.0%, 869G)
HASTERIOUS: 93G (2.8%, 4,687G)
getthemoneyz: 2G (0.1%, 867,651G)
