Final Bets: red - 12 bets for 14,869G (78.6%, x0.27); blue - 11 bets for 4,046G (21.4%, x3.67)

red bets:
Zbgs: 5,962G (40.1%, 11,924G)
old_overholt_: 3,000G (20.2%, 35,381G)
VolgraTheMoose: 1,001G (6.7%, 11,614G)
BirbBrainsBot: 1,000G (6.7%, 170,350G)
MemoriesofFinal: 855G (5.8%, 855G)
Laserman1000: 546G (3.7%, 10,146G)
Smugzug: 500G (3.4%, 1,815G)
resjudicata3: 480G (3.2%, 480G)
SephDarkheart: 449G (3.0%, 449G)
CorpusCav: 400G (2.7%, 15,175G)
bigbongsmoker: 348G (2.3%, 12,339G)
Lyner87: 328G (2.2%, 328G)

blue bets:
dogsandcatsand: 1,031G (25.5%, 1,031G)
LivingHitokiri: 1,000G (24.7%, 172,039G)
latebit: 624G (15.4%, 624G)
AllInBot: 424G (10.5%, 424G)
Evewho: 200G (4.9%, 2,505G)
datadrivenbot: 200G (4.9%, 75,800G)
FoeSquirrel: 152G (3.8%, 304G)
MoonSugarFiend: 118G (2.9%, 118G)
gorgewall: 101G (2.5%, 2,727G)
maakur_: 100G (2.5%, 5,455G)
getthemoneyz: 96G (2.4%, 2,087,532G)
