High Risers:
1. Nicosavoy: +3,278G
2. Solomongrundy85: +2,000G
3. Rune339: +1,893G
4. Laserman1000: +1,576G
5. Reinoe: +1,305G
6. Dire_drenz: +1,212G
7. Squidsquarklin: +1,114G
8. Buffalocrunch: +1,000G
9. Douchetron: +1,000G
10. Brokenknight201: +818G
11. Mrfripps: +759G
12. Anfz: +565G
13. Silentkaster: +562G
14. Ericzubat: +514G
15. Khelor_: +511G
16. Gobizku: +504G
17. Mindblownnnn: +504G
18. Lyner87: +500G
19. Forkmore: +500G
20. Thyrandaal: +500G
21. Galkife: +500G
22. Joewcarson: +500G
23. Legionx13: +500G
24. Skillomono: +500G
25. Vorap: +500G
26. Lord_gwarth: +500G
27. Darrendinosaurs: +500G
28. Puzzlesecretary: +434G
29. Deathtaxesandanime: +396G
30. Sinnyil2: +357G
31. Ar_tactic: +350G
32. Superdevon1: +339G
33. Technominari: +300G
34. Seppu777: +299G
35. Genkidou: +234G
36. Ruleof5: +200G
37. Lowlf: +128G
38. Cosmictactician: +104G
39. Chuckolator: +100G
40. Valensexp_: +72G
41. Helpimabug: +65G
42. Formerlydrdong: +48G
43. Latebit: +31G
44. Jabuamba: -42G
45. Memoriesoffinal: -146G
46. Emperorbeef: -200G
47. Tripaplex: -200G
48. Adellraynes: -200G
49. Resjudicata3: -235G
50. Gooseyourself: -300G
51. Evontno: -406G
52. Krombobreaker: -473G
53. Evdoggity: -500G
54. Killth3kid: -561G
55. Shalloween: -769G
56. Nifboy: -796G
57. Gorgewall: -994G
58. Corpuscav: -1,000G
59. Mesmaster: -1,000G
60. Onehundredfists: -1,000G
61. Snarkmage: -1,026G
62. Error72: -1,101G
63. Danielrknealeart: -1,425G
64. Pepperbuster: -2,000G
65. Willjin: -2,771G
