Final Bets: purple - 15 bets for 8,479G (62.7%, x0.59); brown - 16 bets for 5,044G (37.3%, x1.68)

purple bets:
DavenIII: 1,500G (17.7%, 8,270G)
EnemyController: 1,111G (13.1%, 1,383,893G)
BirbBrainsBot: 1,000G (11.8%, 127,436G)
Laserman1000: 900G (10.6%, 18,400G)
Zagorsek: 832G (9.8%, 832G)
getthemoneyz: 682G (8.0%, 1,220,544G)
Nizaha: 532G (6.3%, 7,278G)
ArashiKurobara: 500G (5.9%, 1,278G)
DLJuggernaut: 500G (5.9%, 1,371G)
randgridr: 365G (4.3%, 365G)
gorgewall: 201G (2.4%, 19,819G)
dodgeroll: 200G (2.4%, 7,797G)
nsm013: 100G (1.2%, 8,352G)
ChubbyBroCast: 31G (0.4%, 159G)
raenrond: 25G (0.3%, 511G)

brown bets:
fenaen: 1,200G (23.8%, 22,334G)
JumbocactuarX27: 1,000G (19.8%, 9,069G)
evontno: 536G (10.6%, 536G)
FriendSquirrel: 524G (10.4%, 524G)
chaos_sux_unless_its_ds: 300G (5.9%, 2,290G)
DustBirdEX: 234G (4.6%, 1,620G)
run_with_stone_GUNs: 200G (4.0%, 14,216G)
datadrivenbot: 200G (4.0%, 55,396G)
maleblackfiora: 200G (4.0%, 206G)
CosmicTactician: 100G (2.0%, 44,759G)
DeathTaxesAndAnime: 100G (2.0%, 2,602G)
Jumza: 100G (2.0%, 354G)
TasisSai: 100G (2.0%, 104G)
captainmilestw: 100G (2.0%, 1,079G)
actual_JP: 100G (2.0%, 9,523G)
SephDarkheart: 50G (1.0%, 21,912G)
