Final Bets: white - 10 bets for 6,136G (31.5%, x2.17); purple - 14 bets for 13,317G (68.5%, x0.46)

white bets:
DudeMonkey77: 1,538G (25.1%, 1,538G)
porkchop5158: 1,123G (18.3%, 1,123G)
killth3kid: 1,000G (16.3%, 111,353G)
dogsandcatsand: 800G (13.0%, 800G)
Cryptopsy70: 600G (9.8%, 21,366G)
Zagorsek: 380G (6.2%, 380G)
chaos_sux_unless_its_ds: 300G (4.9%, 3,984G)
blastty: 240G (3.9%, 240G)
Jumza: 150G (2.4%, 254G)
SephDarkheart: 5G (0.1%, 21,882G)

purple bets:
TheChainNerd: 7,471G (56.1%, 29,887G)
fenaen: 1,200G (9.0%, 19,934G)
DustBirdEX: 1,041G (7.8%, 1,041G)
BirbBrainsBot: 1,000G (7.5%, 130,169G)
getthemoneyz: 510G (3.8%, 1,223,854G)
ArashiKurobara: 487G (3.7%, 1,575G)
Firesheath: 424G (3.2%, 424G)
randgridr: 382G (2.9%, 382G)
gorgewall: 201G (1.5%, 19,738G)
datadrivenbot: 200G (1.5%, 54,996G)
VolgraTheMoose: 101G (0.8%, 2,339G)
soliares: 100G (0.8%, 100G)
TasisSai: 100G (0.8%, 503G)
dodgeroll: 100G (0.8%, 8,315G)
