Final Bets: black - 15 bets for 22,659G (59.1%, x0.69); brown - 32 bets for 15,704G (40.9%, x1.44)

black bets:
Zagorsek: 9,999G (44.1%, 356,154G)
eltejongrande: 2,000G (8.8%, 11,280G)
Zeroroute: 1,677G (7.4%, 1,677G)
Aldrammech: 1,595G (7.0%, 1,595G)
HaateXIII: 1,328G (5.9%, 1,328G)
DeathTaxesAndAnime: 1,152G (5.1%, 1,152G)
OmnibotGamma: 860G (3.8%, 860G)
Tyerenex: 756G (3.3%, 756G)
JIDkomu: 688G (3.0%, 688G)
KingofTricksters: 604G (2.7%, 604G)
action_otter: 600G (2.6%, 699G)
Lanshaft: 600G (2.6%, 6,071G)
Sungazes: 500G (2.2%, 2,259G)
silentperogy: 200G (0.9%, 13,562G)
NoNotBees: 100G (0.4%, 633G)

brown bets:
sinnyil2: 1,200G (7.6%, 12,607G)
Shalloween: 1,200G (7.6%, 16,653G)
Faplo: 1,000G (6.4%, 2,455G)
TheMurkGnome: 1,000G (6.4%, 7,424G)
ungabunga_bot: 1,000G (6.4%, 86,539G)
BirbBrainsBot: 1,000G (6.4%, 294,857G)
Nocturnal_Perspective: 1,000G (6.4%, 10,574G)
HaplessOne: 1,000G (6.4%, 151,125G)
moonliquor: 922G (5.9%, 1,844G)
b0shii: 748G (4.8%, 748G)
tornadobisque: 600G (3.8%, 600G)
MagicBottle: 562G (3.6%, 562G)
Firesheath: 528G (3.4%, 1,056G)
Laserman1000: 500G (3.2%, 10,600G)
SkylerBunny: 352G (2.2%, 352G)
upvla: 322G (2.1%, 1,800G)
I_nod_my_head_when_I_lose: 300G (1.9%, 12,516G)
CapnChaos12: 300G (1.9%, 5,157G)
waterwatereverywhere: 300G (1.9%, 2,582G)
ZephyrTempest: 294G (1.9%, 39,701G)
alrightbye: 200G (1.3%, 5,347G)
urieltheflameofgod: 200G (1.3%, 3,217G)
rico_flex: 200G (1.3%, 2,009G)
getthemoneyz: 178G (1.1%, 448,945G)
thevilmen: 104G (0.7%, 104G)
AllInBot: 100G (0.6%, 100G)
ApplesauceBoss: 100G (0.6%, 4,187G)
twelfthrootoftwo: 100G (0.6%, 7,744G)
Heroebal: 100G (0.6%, 1,381G)
BlinkFS: 100G (0.6%, 1,632G)
datadrivenbot: 100G (0.6%, 24,742G)
JackOnFire1: 94G (0.6%, 6,844G)
