Final Bets: red - 26 bets for 22,529G (57.8%, x0.73); champion - 30 bets for 16,416G (42.2%, x1.37)

red bets:
omegasuspekt: 3,307G (14.7%, 6,615G)
Zagorsek: 2,500G (11.1%, 346,863G)
MagicBottle: 2,346G (10.4%, 2,346G)
samtimemc: 2,272G (10.1%, 2,272G)
HaplessOne: 1,500G (6.7%, 151,568G)
Faplo: 1,449G (6.4%, 2,898G)
moonliquor: 1,174G (5.2%, 1,174G)
Zeroroute: 1,025G (4.5%, 1,025G)
Aldrammech: 1,025G (4.5%, 1,025G)
TheManInPlaid: 1,015G (4.5%, 1,015G)
Laserman1000: 699G (3.1%, 12,399G)
godkone: 500G (2.2%, 2,080G)
luminarii: 442G (2.0%, 14,958G)
V3rdeni: 400G (1.8%, 3,612G)
Oobs56: 400G (1.8%, 3,583G)
silentperogy: 400G (1.8%, 13,362G)
0utlier: 350G (1.6%, 5,381G)
alrightbye: 325G (1.4%, 5,707G)
JackOnFire1: 320G (1.4%, 7,320G)
waterwatereverywhere: 300G (1.3%, 3,228G)
OttoRaynar: 240G (1.1%, 240G)
DrAntiSocial: 140G (0.6%, 2,555G)
RughSontos: 100G (0.4%, 1,435G)
twelfthrootoftwo: 100G (0.4%, 7,959G)
Kronikle: 100G (0.4%, 8,537G)
rico_flex: 100G (0.4%, 2,048G)

champion bets:
SkylerBunny: 1,469G (8.9%, 1,469G)
tornadobisque: 1,466G (8.9%, 1,466G)
sinnyil2: 1,300G (7.9%, 15,188G)
DeathTaxesAndAnime: 1,114G (6.8%, 1,114G)
The_Pengwin: 1,000G (6.1%, 21,146G)
BirbBrainsBot: 1,000G (6.1%, 295,300G)
Nocturnal_Perspective: 1,000G (6.1%, 10,517G)
TheMurkGnome: 1,000G (6.1%, 8,224G)
ELzukkor: 897G (5.5%, 4,488G)
Shalloween: 700G (4.3%, 17,184G)
Lanshaft: 600G (3.7%, 5,471G)
BlinkFS: 500G (3.0%, 1,676G)
Sungazes: 500G (3.0%, 1,830G)
Meta_Five: 500G (3.0%, 5,610G)
I_nod_my_head_when_I_lose: 500G (3.0%, 12,449G)
b0shii: 333G (2.0%, 644G)
JIDkomu: 321G (2.0%, 321G)
CapnChaos12: 300G (1.8%, 5,290G)
action_otter: 300G (1.8%, 349G)
ZephyrTempest: 262G (1.6%, 39,861G)
Tyerenex: 256G (1.6%, 256G)
mexskacin: 216G (1.3%, 216G)
KingofTricksters: 178G (1.1%, 178G)
thevilmen: 104G (0.6%, 104G)
AllInBot: 100G (0.6%, 100G)
oogthecaveman: 100G (0.6%, 3,672G)
urieltheflameofgod: 100G (0.6%, 3,506G)
Tougou: 100G (0.6%, 5,069G)
Lythe_Caraker: 100G (0.6%, 48,603G)
datadrivenbot: 100G (0.6%, 24,957G)
