Final Bets: blue - 18 bets for 10,864G (58.8%, x0.70); yellow - 9 bets for 7,608G (41.2%, x1.43)

blue bets:
EnemyController: 2,000G (18.4%, 281,953G)
JumbocactuarX27: 1,878G (17.3%, 1,878G)
StealthModeLocke: 1,198G (11.0%, 1,198G)
BirbBrainsBot: 1,000G (9.2%, 10,745G)
red__lancer: 1,000G (9.2%, 71,576G)
reinoe: 600G (5.5%, 600G)
fenaen: 600G (5.5%, 7,492G)
moonliquor: 500G (4.6%, 2,268G)
CorpusCav: 400G (3.7%, 5,400G)
vorap: 400G (3.7%, 74,676G)
CandyTamer: 232G (2.1%, 1,263G)
aznwanderor: 224G (2.1%, 224G)
evdoggity: 200G (1.8%, 5,533G)
skillomono: 200G (1.8%, 2,640G)
getthemoneyz: 132G (1.2%, 685,069G)
AlenaZarek: 100G (0.9%, 45,990G)
datadrivenbot: 100G (0.9%, 22,274G)
E_Ballard: 100G (0.9%, 2,275G)

yellow bets:
TheChainNerd: 5,322G (70.0%, 26,612G)
Creggers: 567G (7.5%, 7,767G)
roofiepops: 555G (7.3%, 26,726G)
lifeguard_dan: 304G (4.0%, 304G)
Wonser: 212G (2.8%, 212G)
brokenknight201: 200G (2.6%, 4,156G)
shaddoll: 200G (2.6%, 10,515G)
ApplesauceBoss: 148G (1.9%, 1,560G)
Vultuous: 100G (1.3%, 2,640G)
