Final Bets: red - 20 bets for 18,003G (62.0%, x0.61); yellow - 20 bets for 11,045G (38.0%, x1.63)

red bets:
toka222: 5,000G (27.8%, 116,285G)
rico_flex: 5,000G (27.8%, 16,625G)
roofiepops: 1,400G (7.8%, 10,988G)
Aldrammech: 1,131G (6.3%, 1,131G)
BirbBrainsBot: 1,000G (5.6%, 72,236G)
ThePineappleSalesman: 749G (4.2%, 749G)
Phi_Sig: 555G (3.1%, 145,605G)
Sairentozon7: 492G (2.7%, 492G)
soren_of_tyto: 386G (2.1%, 386G)
Setdevildog: 376G (2.1%, 376G)
serperemagus: 332G (1.8%, 332G)
letdowncity: 300G (1.7%, 10,118G)
CapnChaos12: 300G (1.7%, 15,136G)
skillomono: 300G (1.7%, 3,407G)
getthemoneyz: 182G (1.0%, 763,500G)
AllInBot: 100G (0.6%, 100G)
CosmicTactician: 100G (0.6%, 5,478G)
Flameatron: 100G (0.6%, 552G)
GladiatorLupe: 100G (0.6%, 3,565G)
Bongomon7: 100G (0.6%, 5,911G)

yellow bets:
Kyune: 2,500G (22.6%, 17,418G)
PrudishDuckling: 1,897G (17.2%, 1,897G)
JLinkletter: 897G (8.1%, 897G)
Lionhermit: 698G (6.3%, 698G)
zepharoth89: 503G (4.6%, 5,037G)
DLJuggernaut: 500G (4.5%, 5,956G)
joewcarson: 500G (4.5%, 7,347G)
nifboy: 500G (4.5%, 10,833G)
Meta_Five: 500G (4.5%, 17,512G)
CrownOfHorns: 477G (4.3%, 477G)
bruubarg: 400G (3.6%, 2,000G)
E_Ballard: 308G (2.8%, 308G)
Digitalsocrates: 300G (2.7%, 897G)
CorpusCav: 300G (2.7%, 10,066G)
pplvee1: 208G (1.9%, 208G)
Stealthtoucan: 203G (1.8%, 4,066G)
Cuchulame: 104G (0.9%, 104G)
kaidykat: 100G (0.9%, 7,670G)
datadrivenbot: 100G (0.9%, 29,432G)
Sharosa: 50G (0.5%, 515G)
