Final Bets: green - 12 bets for 10,529G (57.4%, x0.74); brown - 11 bets for 7,804G (42.6%, x1.35)

green bets:
nhammen: 2,778G (26.4%, 5,556G)
Thyrandaal: 2,760G (26.2%, 2,760G)
lowlf: 1,222G (11.6%, 112,637G)
BirbBrainsBot: 1,000G (9.5%, 92,818G)
KyleWonToLiveForever: 785G (7.5%, 785G)
getthemoneyz: 628G (6.0%, 1,327,433G)
Xoomwaffle: 500G (4.7%, 1,387G)
upvla: 456G (4.3%, 2,501G)
OtherBrand: 100G (0.9%, 3,447G)
Firesheath: 100G (0.9%, 3,459G)
Legionx13: 100G (0.9%, 4,233G)
Miku_Shikhu: 100G (0.9%, 11,707G)

brown bets:
Snoopiku: 3,000G (38.4%, 19,800G)
Zeroroute: 1,588G (20.3%, 1,588G)
prince_rogers_nelson_: 607G (7.8%, 607G)
randgridr: 521G (6.7%, 1,929G)
ohhinm: 405G (5.2%, 1,505G)
superdevon1: 401G (5.1%, 4,010G)
JDogg2K4: 368G (4.7%, 368G)
Treafa: 260G (3.3%, 264G)
AllInBot: 253G (3.2%, 253G)
gorgewall: 201G (2.6%, 6,589G)
datadrivenbot: 200G (2.6%, 33,875G)
