Final Bets: white - 13 bets for 12,508G (42.4%, x1.36); black - 17 bets for 17,012G (57.6%, x0.74)

white bets:
Thyrandaal: 6,666G (53.3%, 23,471G)
Rislyeu: 1,500G (12.0%, 11,587G)
BirbBrainsBot: 1,000G (8.0%, 120,523G)
getthemoneyz: 604G (4.8%, 1,704,489G)
Forkmore: 588G (4.7%, 5,056G)
corysteam: 512G (4.1%, 512G)
ruleof5: 500G (4.0%, 11,423G)
Tarheels218: 312G (2.5%, 1,356G)
idioSyncr4zy: 246G (2.0%, 4,936G)
gongonono: 200G (1.6%, 4,119G)
Sobrenien: 164G (1.3%, 164G)
jaykaye: 116G (0.9%, 116G)
loveyouallfriends: 100G (0.8%, 54,557G)

black bets:
resjudicata3: 4,000G (23.5%, 13,619G)
Narcius: 3,400G (20.0%, 327,724G)
sinnyil2: 2,006G (11.8%, 2,006G)
reinoe: 2,000G (11.8%, 79,825G)
roofiepops: 1,440G (8.5%, 7,586G)
ANFz: 639G (3.8%, 639G)
Lanshaft: 612G (3.6%, 15,176G)
maximumcrit: 555G (3.3%, 555G)
SkylerBunny: 524G (3.1%, 524G)
HaateXIII: 500G (2.9%, 7,298G)
PuzzleSecretary: 350G (2.1%, 602G)
jjhull3: 293G (1.7%, 293G)
datadrivenbot: 200G (1.2%, 63,772G)
Wrath189: 152G (0.9%, 152G)
Andrain: 140G (0.8%, 140G)
gorgewall: 101G (0.6%, 3,464G)
AllInBot: 100G (0.6%, 100G)
