Final Bets: blue - 12 bets for 10,988G (43.8%, x1.28); green - 10 bets for 14,118G (56.2%, x0.78)

blue bets:
Narcius: 4,600G (41.9%, 320,824G)
Thyrandaal: 2,000G (18.2%, 34,080G)
BirbBrainsBot: 1,000G (9.1%, 123,134G)
ANFz: 981G (8.9%, 981G)
Lanshaft: 612G (5.6%, 14,564G)
SkylerBunny: 524G (4.8%, 524G)
Tarheels218: 312G (2.8%, 1,780G)
idioSyncr4zy: 280G (2.5%, 5,600G)
PuzzleSecretary: 252G (2.3%, 252G)
getthemoneyz: 226G (2.1%, 1,705,738G)
gorgewall: 101G (0.9%, 3,262G)
AllInBot: 100G (0.9%, 100G)

green bets:
reinoe: 5,000G (35.4%, 75,825G)
DavenIII: 5,000G (35.4%, 96,693G)
CT_5_Holy: 1,296G (9.2%, 1,296G)
Rislyeu: 1,000G (7.1%, 14,878G)
corysteam: 400G (2.8%, 1,088G)
maximumcrit: 380G (2.7%, 380G)
Wrath189: 342G (2.4%, 342G)
resjudicata3: 300G (2.1%, 15,873G)
jjhull3: 200G (1.4%, 200G)
datadrivenbot: 200G (1.4%, 63,372G)
