Final Bets: green - 18 bets for 17,276G (56.5%, x0.77); brown - 13 bets for 13,321G (43.5%, x1.30)

green bets:
DavenIII: 5,000G (28.9%, 100,584G)
Forkmore: 2,731G (15.8%, 5,356G)
reinoe: 2,000G (11.6%, 83,344G)
JCBooBot: 1,000G (5.8%, 15,013G)
DLJuggernaut: 1,000G (5.8%, 19,194G)
Thyrandaal: 1,000G (5.8%, 31,080G)
Rislyeu: 1,000G (5.8%, 15,686G)
maximumcrit: 676G (3.9%, 676G)
letdowncity: 540G (3.1%, 22,425G)
SkylerBunny: 524G (3.0%, 524G)
Lord_Gwarth: 337G (2.0%, 2,510G)
omegasuspekt: 332G (1.9%, 664G)
Tarheels218: 312G (1.8%, 1,468G)
datadrivenbot: 200G (1.2%, 63,588G)
JCBoorgo: 200G (1.2%, 1,713G)
CT_5_Holy: 154G (0.9%, 1,130G)
Andrain: 140G (0.8%, 140G)
AllInBot: 130G (0.8%, 130G)

brown bets:
loveyouallfriends: 5,000G (37.5%, 50,593G)
Narcius: 3,500G (26.3%, 317,585G)
NicoSavoy: 1,810G (13.6%, 36,201G)
BirbBrainsBot: 1,000G (7.5%, 121,134G)
HaateXIII: 500G (3.8%, 4,949G)
ruleof5: 500G (3.8%, 12,103G)
byrdturbo: 222G (1.7%, 25,214G)
getthemoneyz: 216G (1.6%, 1,705,306G)
PuzzleSecretary: 172G (1.3%, 172G)
gorgewall: 101G (0.8%, 3,192G)
jjhull3: 100G (0.8%, 386G)
Twisted_Nutsatchel: 100G (0.8%, 22,203G)
onehitslay: 100G (0.8%, 108G)
