Final Bets: black - 8 bets for 4,429G (28.2%, x2.55); brown - 14 bets for 11,296G (71.8%, x0.39)

black bets:
AshesSmashes: 1,914G (43.2%, 1,914G)
NovaKnight21: 1,500G (33.9%, 5,250G)
CassiePhoenix: 513G (11.6%, 513G)
blastty: 143G (3.2%, 143G)
Evewho: 100G (2.3%, 7,282G)
MilesDong: 100G (2.3%, 100G)
Ring_Wyrm: 100G (2.3%, 549G)
HASTERIOUS: 59G (1.3%, 1,184G)

brown bets:
outer_monologue: 2,902G (25.7%, 5,805G)
gogofromtogo: 1,459G (12.9%, 1,459G)
CorpusCav: 1,010G (8.9%, 23,251G)
twelfthrootoftwo: 1,000G (8.9%, 13,999G)
Zachara: 1,000G (8.9%, 98,500G)
BirbBrainsBot: 1,000G (8.9%, 183,786G)
UmaiJam: 1,000G (8.9%, 19,691G)
getthemoneyz: 624G (5.5%, 798,109G)
Kyune: 500G (4.4%, 29,031G)
gorgewall: 201G (1.8%, 8,739G)
helpimabug: 200G (1.8%, 2,079G)
DAC169: 197G (1.7%, 197G)
DISTROlD: 103G (0.9%, 103G)
datadrivenbot: 100G (0.9%, 31,686G)
