Final Bets: purple - 20 bets for 23,227G (83.1%, x0.20); brown - 16 bets for 4,735G (16.9%, x4.91)

purple bets:
DeathTaxesAndAnime: 7,756G (33.4%, 15,209G)
reinoe: 5,000G (21.5%, 21,883G)
VolgraTheMoose: 2,001G (8.6%, 64,318G)
Mesmaster: 2,000G (8.6%, 15,628G)
Baron_von_Scrub: 1,111G (4.8%, 44,946G)
BirbBrainsBot: 1,000G (4.3%, 95,382G)
HaychDub: 775G (3.3%, 20,751G)
mpghappiness: 760G (3.3%, 760G)
TheChainNerd: 700G (3.0%, 700G)
Oobs56: 320G (1.4%, 320G)
letdowncity: 300G (1.3%, 10,973G)
NightwolfXVI: 300G (1.3%, 686G)
Wonser: 300G (1.3%, 634G)
Aldrammech: 253G (1.1%, 2,532G)
gorgewall: 201G (0.9%, 7,804G)
lastly: 100G (0.4%, 20,999G)
nifboy: 100G (0.4%, 3,027G)
datadrivenbot: 100G (0.4%, 35,502G)
IphoneDarkness: 100G (0.4%, 1,939G)
J_MacC1991: 50G (0.2%, 715G)

brown bets:
DLJuggernaut: 1,125G (23.8%, 4,503G)
E_Ballard: 448G (9.5%, 448G)
dogsandcatsand: 336G (7.1%, 336G)
ExecutedGiraffe: 336G (7.1%, 336G)
getthemoneyz: 320G (6.8%, 903,477G)
twelfthrootoftwo: 300G (6.3%, 1,556G)
HuffFlex: 300G (6.3%, 1,795G)
CandyTamer: 264G (5.6%, 268G)
CaptainGarlock: 250G (5.3%, 4,958G)
DustBirdEX: 234G (4.9%, 718G)
DAC169: 204G (4.3%, 204G)
jpTawok: 168G (3.5%, 3,367G)
adrammallech: 150G (3.2%, 506G)
AllInBot: 100G (2.1%, 100G)
Miku_Shikhu: 100G (2.1%, 16,096G)
Evewho: 100G (2.1%, 26,074G)
