Final Bets: black - 21 bets for 17,577G (40.4%, x1.47); champion - 15 bets for 25,925G (59.6%, x0.68)

black bets:
dogsandcatsand: 5,000G (28.4%, 135,902G)
amiture: 3,000G (17.1%, 40,277G)
nhammen: 2,000G (11.4%, 57,678G)
ColetteMSLP: 1,000G (5.7%, 29,193G)
maximumcrit: 1,000G (5.7%, 20,515G)
BirbBrainsBot: 1,000G (5.7%, 50,175G)
Nizaha: 672G (3.8%, 19,175G)
killth3kid: 624G (3.6%, 6,440G)
Aldrammech: 592G (3.4%, 592G)
CT_5_Holy: 577G (3.3%, 577G)
Error72: 500G (2.8%, 3,478G)
amsans1247: 300G (1.7%, 588G)
getthemoneyz: 250G (1.4%, 1,514,698G)
Lord_Gwarth: 250G (1.4%, 2,028G)
AllInBot: 200G (1.1%, 200G)
Drusiform: 112G (0.6%, 112G)
Firesheath: 100G (0.6%, 30,631G)
ko2q: 100G (0.6%, 2,129G)
douchetron: 100G (0.6%, 21,915G)
mrfripps: 100G (0.6%, 3,107G)
rednecknazgul: 100G (0.6%, 9,477G)

champion bets:
SephDarkheart: 8,876G (34.2%, 17,752G)
JonnyCue: 4,000G (15.4%, 4,000G)
thaetreis: 4,000G (15.4%, 40,430G)
loveyouallfriends: 2,500G (9.6%, 40,007G)
gorgewall: 1,594G (6.1%, 3,198G)
Draconis345: 1,534G (5.9%, 1,534G)
DeathTaxesAndAnime: 1,413G (5.5%, 1,413G)
Lanshaft: 556G (2.1%, 15,559G)
coralreeferz: 556G (2.1%, 5,139G)
datadrivenbot: 200G (0.8%, 51,293G)
twelfthrootoftwo: 200G (0.8%, 5,638G)
LordTomS: 196G (0.8%, 196G)
nifboy: 100G (0.4%, 8,020G)
Miku_Shikhu: 100G (0.4%, 1,998G)
rjA0zcOQ96: 100G (0.4%, 9,326G)
