Final Bets: red - 24 bets for 16,362G (68.1%, x0.47); blue - 17 bets for 7,669G (31.9%, x2.13)

red bets:
DavenIII: 2,500G (15.3%, 26,816G)
Lydian_C: 2,400G (14.7%, 85,984G)
LordSDB: 1,550G (9.5%, 4,751G)
leakimiko: 1,507G (9.2%, 10,051G)
upvla: 1,234G (7.5%, 7,109G)
Lord_Burrah: 1,000G (6.1%, 83,763G)
braumbles: 1,000G (6.1%, 104,968G)
TheChainNerd: 938G (5.7%, 938G)
aStatue: 600G (3.7%, 600G)
z32o: 500G (3.1%, 3,267G)
SwaffleWaffles: 500G (3.1%, 67,393G)
DHaveWord: 468G (2.9%, 468G)
lifeguard_dan: 346G (2.1%, 346G)
Dexef: 333G (2.0%, 14,850G)
kai_shee: 300G (1.8%, 300G)
fallendj77: 256G (1.6%, 256G)
TheRylander: 200G (1.2%, 200G)
nifboy: 129G (0.8%, 3,242G)
ZephyrTempest: 101G (0.6%, 185,745G)
lastly: 100G (0.6%, 3,469G)
PlatinumPlume: 100G (0.6%, 21,036G)
Jeeboheebo: 100G (0.6%, 1,320G)
datadrivenbot: 100G (0.6%, 2,912G)
FriendSquirrel: 100G (0.6%, 33,392G)

blue bets:
Baron_von_Scrub: 1,111G (14.5%, 85,828G)
ungabunga_bot: 1,000G (13.0%, 220,578G)
JumbocactuarX27: 1,000G (13.0%, 2,343G)
Willjin: 1,000G (13.0%, 11,805G)
BirbBrainsBot: 867G (11.3%, 146,247G)
catfashions: 500G (6.5%, 2,736G)
rocl: 500G (6.5%, 50,092G)
elelor: 333G (4.3%, 666G)
waterwatereverywhere: 300G (3.9%, 3,998G)
Estan_AD: 250G (3.3%, 1,340G)
nedryerson01: 200G (2.6%, 11,828G)
getthemoneyz: 158G (2.1%, 568,779G)
SquidgyXom: 100G (1.3%, 1,235G)
LDSkinny: 100G (1.3%, 25,761G)
rjA0zcOQ96: 100G (1.3%, 34,811G)
Lali_Lulelo: 100G (1.3%, 15,093G)
tmo50x: 50G (0.7%, 5,356G)
