Final Bets: blue - 15 bets for 6,351G (41.1%, x1.44); green - 14 bets for 9,114G (58.9%, x0.70)

blue bets:
ungabunga_bot: 1,000G (15.7%, 225,708G)
BirbBrainsBot: 1,000G (15.7%, 149,118G)
elelor: 688G (10.8%, 1,376G)
DavenIII: 650G (10.2%, 23,455G)
getthemoneyz: 556G (8.8%, 568,236G)
catfashions: 450G (7.1%, 3,678G)
FoeSquirrel: 398G (6.3%, 797G)
waterwatereverywhere: 300G (4.7%, 5,391G)
Tinglenator: 276G (4.3%, 276G)
perce90: 233G (3.7%, 233G)
TheRylander: 200G (3.1%, 1,619G)
SquidgyXom: 200G (3.1%, 1,480G)
Anethum: 200G (3.1%, 11,999G)
FriendSquirrel: 100G (1.6%, 33,459G)
datadrivenbot: 100G (1.6%, 2,728G)

green bets:
aStatue: 3,270G (35.9%, 3,270G)
Mtueni: 2,000G (21.9%, 270,008G)
Lydian_C: 1,200G (13.2%, 85,978G)
leakimiko: 534G (5.9%, 6,682G)
rechaun: 444G (4.9%, 444G)
TheChainNerd: 340G (3.7%, 340G)
Bryon_W: 300G (3.3%, 2,403G)
kai_shee: 300G (3.3%, 300G)
fallendj77: 256G (2.8%, 256G)
nifboy: 119G (1.3%, 2,989G)
ZephyrTempest: 101G (1.1%, 185,563G)
lastly: 100G (1.1%, 3,634G)
Jeeboheebo: 100G (1.1%, 772G)
DrAntiSocial: 50G (0.5%, 26,074G)
