Final Bets: purple - 19 bets for 9,625G (29.1%, x2.43); champion - 22 bets for 23,423G (70.9%, x0.41)

purple bets:
DohItAgain: 2,500G (26.0%, 4,417G)
rocl: 1,000G (10.4%, 68,077G)
Aldrammech: 1,000G (10.4%, 2,359G)
Laserman1000: 681G (7.1%, 13,181G)
ungabunga_bot: 607G (6.3%, 116,048G)
ColetteMSLP: 500G (5.2%, 28,216G)
Jerboj: 500G (5.2%, 42,257G)
IndecisiveNinja: 412G (4.3%, 412G)
DustBirdEX: 400G (4.2%, 7,300G)
moonliquor: 348G (3.6%, 348G)
DudeMonkey77: 333G (3.5%, 3,618G)
CorpusCav: 250G (2.6%, 6,511G)
killth3kid: 244G (2.5%, 5,385G)
BanquoViaquo: 200G (2.1%, 1,000G)
rico_flex: 200G (2.1%, 1,487G)
DrAntiSocial: 150G (1.6%, 913G)
AllInBot: 100G (1.0%, 100G)
ApplesauceBoss: 100G (1.0%, 4,564G)
ko2q: 100G (1.0%, 3,591G)

champion bets:
Willjin: 5,968G (25.5%, 5,968G)
CCRUNNER149UWP: 2,577G (11.0%, 2,577G)
roofiepops: 2,476G (10.6%, 2,476G)
Baron_von_Scrub: 1,795G (7.7%, 1,795G)
HaplessOne: 1,500G (6.4%, 50,769G)
kai_shee: 1,001G (4.3%, 138,706G)
haplo064: 1,000G (4.3%, 2,986G)
BirbBrainsBot: 1,000G (4.3%, 91,590G)
EnemyController: 940G (4.0%, 39,940G)
mirapoix: 915G (3.9%, 1,831G)
thevilmen: 789G (3.4%, 789G)
Shalloween: 700G (3.0%, 32,722G)
datadrivenbot: 583G (2.5%, 16,150G)
RunicMagus: 500G (2.1%, 2,495G)
TheGuesty: 380G (1.6%, 380G)
fenaen: 372G (1.6%, 372G)
arch8000: 366G (1.6%, 12,205G)
urieltheflameofgod: 200G (0.9%, 12,202G)
byrdturbo: 111G (0.5%, 5,248G)
twelfthrootoftwo: 100G (0.4%, 3,471G)
SeniorBunk: 100G (0.4%, 5,935G)
b0shii: 50G (0.2%, 403G)
