Final Bets: black - 6 bets for 2,883G (30.3%, x2.30); brown - 9 bets for 6,639G (69.7%, x0.43)

black bets:
BirbBrainsBot: 1,000G (34.7%, 182,173G)
getthemoneyz: 598G (20.7%, 1,905,225G)
Raixelol: 580G (20.1%, 25,136G)
ValensEXP_: 248G (8.6%, 1,305G)
AllInBot: 245G (8.5%, 245G)
Ogema_theDream: 212G (7.4%, 212G)

brown bets:
bigbongsmoker: 3,428G (51.6%, 3,428G)
Neech: 1,488G (22.4%, 1,488G)
Zachara: 700G (10.5%, 133,200G)
ColetteMSLP: 400G (6.0%, 1,179G)
TheSabretoothe: 200G (3.0%, 200G)
datadrivenbot: 200G (3.0%, 58,034G)
Rune339: 108G (1.6%, 108G)
victoriolue: 100G (1.5%, 95,456G)
BartTradingCompany: 15G (0.2%, 155G)
