Final Bets: white - 13 bets for 59,863G (91.4%, x0.09); brown - 7 bets for 5,658G (8.6%, x10.58)

white bets:
pplvee1: 48,950G (81.8%, 48,950G)
Narcius: 5,500G (9.2%, 334,158G)
flacococo: 1,057G (1.8%, 1,057G)
latebit: 1,000G (1.7%, 5,055G)
Meta_Five: 1,000G (1.7%, 25,359G)
E_Ballard: 748G (1.2%, 56,208G)
killth3kid: 508G (0.8%, 2,517G)
Smashy: 500G (0.8%, 1,746G)
datadrivenbot: 200G (0.3%, 62,593G)
AllInBot: 100G (0.2%, 100G)
Aldrammech: 100G (0.2%, 56,484G)
Tougou: 100G (0.2%, 6,741G)
ravingsockmonkey: 100G (0.2%, 5,217G)

brown bets:
toka222: 1,850G (32.7%, 255,694G)
SkylerBunny: 1,188G (21.0%, 1,188G)
Dasutin23: 1,000G (17.7%, 37,814G)
BirbBrainsBot: 1,000G (17.7%, 37,073G)
getthemoneyz: 270G (4.8%, 1,738,694G)
Raixelol: 250G (4.4%, 13,516G)
TasisSai: 100G (1.8%, 6,789G)
