Final Bets: red - 17 bets for 8,822G (73.2%, x0.37); blue - 13 bets for 3,232G (26.8%, x2.73)

red bets:
leakimiko: 1,677G (19.0%, 1,677G)
Nizaha: 1,001G (11.3%, 7,169G)
vorap: 1,000G (11.3%, 19,322G)
Mesmaster: 1,000G (11.3%, 7,970G)
HaplessOne: 750G (8.5%, 11,809G)
Billybones5150: 501G (5.7%, 12,491G)
ewan_e: 500G (5.7%, 10,469G)
evontno: 500G (5.7%, 4,137G)
HaateXIII: 500G (5.7%, 74,664G)
ZZ_Yoshi: 400G (4.5%, 69,887G)
ungabunga_bot: 292G (3.3%, 262,132G)
nifboy: 189G (2.1%, 4,748G)
jakeduhhsnake: 112G (1.3%, 112G)
powergems: 100G (1.1%, 18,603G)
datadrivenbot: 100G (1.1%, 3,497G)
Evewho: 100G (1.1%, 14,443G)
Firesheath: 100G (1.1%, 11,004G)

blue bets:
Estan_AD: 650G (20.1%, 650G)
YaBoy125: 420G (13.0%, 5,236G)
Pink_LuigiX: 419G (13.0%, 419G)
twelfthrootoftwo: 200G (6.2%, 1,258G)
squiregonnacary: 200G (6.2%, 943G)
LivingHitokiri: 200G (6.2%, 5,350G)
Ashintar: 200G (6.2%, 4,602G)
Jaritras: 200G (6.2%, 916G)
midori_ribbon: 200G (6.2%, 5,441G)
BirbBrainsBot: 193G (6.0%, 39,815G)
mirapoix: 150G (4.6%, 13,868G)
pLifer: 100G (3.1%, 313G)
Heroebal: 100G (3.1%, 4,348G)
