Final Bets: green - 10 bets for 32,465G (70.7%, x0.42); champion - 23 bets for 13,477G (29.3%, x2.41)

green bets:
Pink_LuigiX: 25,724G (79.2%, 25,724G)
sinnyil2: 2,500G (7.7%, 117,452G)
Lydian_C: 2,400G (7.4%, 51,689G)
Chuckolator: 541G (1.7%, 27,828G)
RubenFlonne: 500G (1.5%, 19,819G)
evdoggity: 300G (0.9%, 4,640G)
LivingHitokiri: 200G (0.6%, 5,651G)
pLifer: 100G (0.3%, 1,647G)
Firesheath: 100G (0.3%, 9,900G)
Jaritras: 100G (0.3%, 1,316G)

champion bets:
midori_ribbon: 2,500G (18.6%, 6,275G)
Billybones5150: 2,002G (14.9%, 11,503G)
HaplessOne: 1,111G (8.2%, 9,432G)
ungabunga_bot: 1,000G (7.4%, 259,501G)
BirbBrainsBot: 1,000G (7.4%, 40,019G)
ewan_e: 1,000G (7.4%, 9,686G)
Mesmaster: 1,000G (7.4%, 11,261G)
getthemoneyz: 784G (5.8%, 586,648G)
potgodtopdog: 444G (3.3%, 11,415G)
leakimiko: 408G (3.0%, 408G)
PotionDweller: 312G (2.3%, 312G)
mirapoix: 300G (2.2%, 13,407G)
Scotty297: 250G (1.9%, 3,417G)
Estan_AD: 250G (1.9%, 1,820G)
twelfthrootoftwo: 200G (1.5%, 2,168G)
HawkSick: 172G (1.3%, 172G)
Dymntd: 124G (0.9%, 124G)
jakeduhhsnake: 112G (0.8%, 112G)
Reductions: 108G (0.8%, 108G)
DeathTaxesAndAnime: 100G (0.7%, 7,336G)
datadrivenbot: 100G (0.7%, 3,287G)
HoopyFreud: 100G (0.7%, 9,847G)
Heroebal: 100G (0.7%, 4,613G)
