Final Bets: green - 9 bets for 3,964G (26.7%, x2.74); yellow - 15 bets for 10,857G (73.3%, x0.37)

green bets:
Mushufasa_: 1,000G (25.2%, 122,105G)
BirbBrainsBot: 890G (22.5%, 25,203G)
killth3kid: 760G (19.2%, 29,051G)
AllInBot: 484G (12.2%, 484G)
Arcblazer23: 448G (11.3%, 448G)
mirapoix: 100G (2.5%, 9,499G)
OneHundredFists: 100G (2.5%, 16,816G)
lotharek: 100G (2.5%, 200G)
getthemoneyz: 82G (2.1%, 2,103,587G)

yellow bets:
iBluntDouble: 3,000G (27.6%, 6,837G)
lijarkh: 1,884G (17.4%, 1,884G)
Thyrandaal: 1,000G (9.2%, 228,622G)
MemoriesofFinal: 774G (7.1%, 774G)
JonnyCue: 663G (6.1%, 663G)
RikiNom: 612G (5.6%, 612G)
DeathTaxesAndAnime: 550G (5.1%, 2,821G)
CorpusCav: 500G (4.6%, 15,648G)
krombobreaker: 500G (4.6%, 33,260G)
bufuman: 336G (3.1%, 336G)
ExplanationMarkWow: 250G (2.3%, 13,034G)
Genkidou: 248G (2.3%, 248G)
ShadowNinja25: 236G (2.2%, 236G)
datadrivenbot: 200G (1.8%, 76,908G)
ayeCoop: 104G (1.0%, 104G)
