Final Bets: green - 18 bets for 10,525G (61.6%, x0.62); yellow - 16 bets for 6,556G (38.4%, x1.61)

green bets:
Rethera_: 2,351G (22.3%, 2,351G)
leakimiko: 1,317G (12.5%, 26,351G)
BirbBrainsBot: 1,000G (9.5%, 123,968G)
inzo_bettingbot: 1,000G (9.5%, 66,775G)
bad1dea: 1,000G (9.5%, 333,736G)
alecttox: 1,000G (9.5%, 24,540G)
getthemoneyz: 878G (8.3%, 405,357G)
evdoggity: 493G (4.7%, 493G)
I_nod_my_head_when_I_lose: 300G (2.9%, 11,656G)
Staldus: 226G (2.1%, 226G)
KasugaiRoastedPeas: 200G (1.9%, 31,430G)
JIDkomu: 136G (1.3%, 136G)
InOzWeTrust: 120G (1.1%, 120G)
Meowyster_: 104G (1.0%, 104G)
demi_fiend_: 100G (1.0%, 265G)
Lythe_Caraker: 100G (1.0%, 47,770G)
datadrivenbot: 100G (1.0%, 15,896G)
Sairentozon7: 100G (1.0%, 1,372G)

yellow bets:
NovaKnight21: 1,406G (21.4%, 2,812G)
sinnyil2: 1,200G (18.3%, 18,439G)
OmnibotGamma: 1,000G (15.3%, 7,911G)
Shalloween: 600G (9.2%, 38,941G)
WireLord: 356G (5.4%, 356G)
CaptainAdmiralSPATULA: 320G (4.9%, 320G)
ColetteMSLP: 300G (4.6%, 8,464G)
SeedSC: 250G (3.8%, 61,163G)
SleepyBenzo: 224G (3.4%, 224G)
ugoplatamia: 200G (3.1%, 13,732G)
Treapvort: 200G (3.1%, 20,888G)
BadBlanket: 100G (1.5%, 2,999G)
Tithonus: 100G (1.5%, 8,395G)
Basmal: 100G (1.5%, 49,864G)
kingchadking: 100G (1.5%, 46,799G)
RongRongArts: 100G (1.5%, 10,021G)
