Final Bets: white - 14 bets for 7,327G (51.4%, x0.94); brown - 14 bets for 6,916G (48.6%, x1.06)

white bets:
GeeGXP: 1,400G (19.1%, 1,400G)
josephiroth_143: 1,240G (16.9%, 1,240G)
BirbBrainsBot: 1,000G (13.6%, 49,350G)
JumbocactuarX27: 977G (13.3%, 977G)
SQUiDSQUARKLIN: 950G (13.0%, 950G)
skillomono: 400G (5.5%, 3,261G)
joewcarson: 300G (4.1%, 2,003G)
ShintaroNayaka: 300G (4.1%, 5,341G)
NeoKevlar: 200G (2.7%, 4,696G)
AllInBot: 178G (2.4%, 178G)
maakur_: 100G (1.4%, 10,268G)
d4rr1n: 100G (1.4%, 6,936G)
colodruro: 100G (1.4%, 885G)
getthemoneyz: 82G (1.1%, 756,280G)

brown bets:
sinnyil2: 1,285G (18.6%, 1,285G)
EnemyController: 1,000G (14.5%, 433,513G)
Candina: 999G (14.4%, 74,480G)
LivingHitokiri: 868G (12.6%, 868G)
serperemagus: 706G (10.2%, 706G)
TeaTime29: 620G (9.0%, 620G)
eudes89: 500G (7.2%, 7,968G)
Flameatron: 300G (4.3%, 1,312G)
GladiatorLupe: 200G (2.9%, 3,864G)
gogofromtogo: 200G (2.9%, 1,702G)
TheMM42: 100G (1.4%, 1,318G)
datadrivenbot: 100G (1.4%, 27,950G)
zepharoth89: 25G (0.4%, 3,832G)
daveb_: 13G (0.2%, 2,684G)
