Final Bets: green - 10 bets for 6,332G (57.0%, x0.76); yellow - 20 bets for 4,783G (43.0%, x1.32)

green bets:
metagameface: 2,000G (31.6%, 9,197G)
BirbBrainsBot: 1,000G (15.8%, 65,640G)
flowinprose: 1,000G (15.8%, 123,239G)
E_Ballard: 1,000G (15.8%, 1,844G)
LivingHitokiri: 500G (7.9%, 25,835G)
KasugaiRoastedPeas: 200G (3.2%, 1,540G)
Klednar21: 200G (3.2%, 2,267G)
getthemoneyz: 168G (2.7%, 759,667G)
neerrm: 164G (2.6%, 164G)
waterwatereverywhere: 100G (1.6%, 7,893G)

yellow bets:
DLJuggernaut: 600G (12.5%, 5,353G)
ColetteMSLP: 600G (12.5%, 47,140G)
Laserman1000: 523G (10.9%, 23,423G)
lowlf: 500G (10.5%, 7,771G)
Saldarin: 300G (6.3%, 1,810G)
AllInBot: 265G (5.5%, 265G)
kaelsun: 244G (5.1%, 244G)
HASTERIOUS: 240G (5.0%, 4,814G)
josephiroth_143: 240G (5.0%, 240G)
gorgewall: 201G (4.2%, 18,811G)
CrownOfHorns: 148G (3.1%, 148G)
TeaTime29: 124G (2.6%, 124G)
soren_of_tyto: 120G (2.5%, 120G)
Sharosa: 108G (2.3%, 108G)
DeathTaxesAndAnime: 100G (2.1%, 5,731G)
CorpusCav: 100G (2.1%, 6,303G)
datadrivenbot: 100G (2.1%, 28,131G)
Dymntd: 100G (2.1%, 37,980G)
Kyune: 100G (2.1%, 32,059G)
maleblackfiora: 70G (1.5%, 1,066G)
