Final Bets: white - 6 bets for 5,060G (55.2%, x0.81); purple - 8 bets for 4,099G (44.8%, x1.23)

white bets:
NovaKnight21: 1,000G (19.8%, 4,721G)
BirbBrainsBot: 1,000G (19.8%, 178,249G)
Capitanufa: 1,000G (19.8%, 4,845G)
UmaiJam: 1,000G (19.8%, 58,093G)
superdevon1: 860G (17.0%, 3,442G)
AllInBot: 200G (4.0%, 200G)

purple bets:
Arcblazer23: 1,318G (32.2%, 1,318G)
twelfthrootoftwo: 1,098G (26.8%, 1,098G)
douchetron: 799G (19.5%, 1,598G)
amiture: 308G (7.5%, 308G)
gorgewall: 201G (4.9%, 14,933G)
datadrivenbot: 200G (4.9%, 30,649G)
Lydian_C: 121G (3.0%, 76,175G)
getthemoneyz: 54G (1.3%, 1,338,480G)
