Final Bets: white - 14 bets for 7,868G (52.2%, x0.92); black - 12 bets for 7,214G (47.8%, x1.09)

white bets:
toka222: 1,500G (19.1%, 80,130G)
Shalloween: 1,200G (15.3%, 24,234G)
BirbBrainsBot: 1,000G (12.7%, 67,311G)
josephiroth_143: 1,000G (12.7%, 11,574G)
nifboy: 573G (7.3%, 573G)
killth3kid: 568G (7.2%, 7,041G)
Miku_Shikhu: 468G (5.9%, 468G)
pplvee1: 440G (5.6%, 440G)
getthemoneyz: 316G (4.0%, 1,453,772G)
holdenmagronik: 256G (3.3%, 717G)
AllInBot: 200G (2.5%, 200G)
EmmaEnema: 147G (1.9%, 342G)
ArashiKurobara: 100G (1.3%, 4,850G)
milk_tea9919: 100G (1.3%, 1,355G)

black bets:
boxyID: 2,000G (27.7%, 43,348G)
Rytor: 1,000G (13.9%, 15,363G)
evdoggity: 1,000G (13.9%, 252,310G)
E_Ballard: 736G (10.2%, 736G)
maakur_: 604G (8.4%, 604G)
brenogarwin: 514G (7.1%, 514G)
CosmicTactician: 500G (6.9%, 25,344G)
RageImmortaI: 316G (4.4%, 2,127G)
datadrivenbot: 200G (2.8%, 44,863G)
maximumcrit: 124G (1.7%, 124G)
rNdOrchestra: 120G (1.7%, 120G)
PoroTact: 100G (1.4%, 6,049G)
