Final Bets: purple - 14 bets for 15,317G (71.3%, x0.40); brown - 8 bets for 6,176G (28.7%, x2.48)

purple bets:
Rytor: 8,391G (54.8%, 16,454G)
milk_tea9919: 1,255G (8.2%, 1,255G)
BirbBrainsBot: 1,000G (6.5%, 66,311G)
josephiroth_143: 1,000G (6.5%, 10,574G)
killth3kid: 568G (3.7%, 6,473G)
DavenIII: 518G (3.4%, 518G)
ArashiKurobara: 500G (3.3%, 4,750G)
pplvee1: 440G (2.9%, 440G)
Chambs12: 439G (2.9%, 439G)
nok____: 296G (1.9%, 296G)
maximumcrit: 259G (1.7%, 259G)
rNdOrchestra: 251G (1.6%, 251G)
datadrivenbot: 200G (1.3%, 45,081G)
RageImmortaI: 200G (1.3%, 2,472G)

brown bets:
Hasterious: 2,636G (42.7%, 2,636G)
E_Ballard: 1,539G (24.9%, 1,539G)
getthemoneyz: 1,000G (16.2%, 1,453,456G)
holdenmagronik: 256G (4.1%, 461G)
Lord_Gwarth: 250G (4.0%, 2,752G)
AllInBot: 200G (3.2%, 200G)
EmmaEnema: 195G (3.2%, 195G)
PoroTact: 100G (1.6%, 6,162G)
