Final Bets: blue - 18 bets for 5,373G (25.4%, x2.93); yellow - 19 bets for 15,767G (74.6%, x0.34)

blue bets:
SephDarkheart: 637G (11.9%, 637G)
Nizaha: 616G (11.5%, 11,358G)
DuPlatypus: 500G (9.3%, 658G)
DarrenDinosaurs: 500G (9.3%, 14,515G)
3ngag3: 408G (7.6%, 4,295G)
Lord_Gwarth: 364G (6.8%, 364G)
Forkmore: 324G (6.0%, 4,633G)
brokenknight201: 308G (5.7%, 308G)
KasugaiRoastedPeas: 300G (5.6%, 5,033G)
TheBrett: 208G (3.9%, 208G)
AllInBot: 200G (3.7%, 200G)
Reddash9: 200G (3.7%, 1,239G)
lotharek: 200G (3.7%, 9,901G)
datadrivenbot: 200G (3.7%, 78,297G)
getthemoneyz: 108G (2.0%, 2,098,645G)
Sharosa: 100G (1.9%, 1,083G)
Lifevirus: 100G (1.9%, 1,000G)
sireaulou: 100G (1.9%, 15,390G)

yellow bets:
Thyrandaal: 5,555G (35.2%, 211,641G)
Leonidusx: 2,000G (12.7%, 309,891G)
DrAntiSocial: 1,130G (7.2%, 1,130G)
BirbBrainsBot: 1,000G (6.3%, 59,377G)
nhammen: 1,000G (6.3%, 61,343G)
nifboy: 860G (5.5%, 860G)
resjudicata3: 719G (4.6%, 719G)
Chihuahua_Charity: 507G (3.2%, 507G)
CorpusCav: 500G (3.2%, 30,756G)
krombobreaker: 500G (3.2%, 12,069G)
roofiepops: 496G (3.1%, 496G)
king_smashington: 383G (2.4%, 383G)
ColetteMSLP: 300G (1.9%, 1,945G)
Demon_Lord_Josh: 204G (1.3%, 204G)
VynxYukida: 177G (1.1%, 177G)
MemoriesofFinal: 123G (0.8%, 1,463G)
ayeCoop: 112G (0.7%, 112G)
gorgewall: 101G (0.6%, 5,589G)
maakur_: 100G (0.6%, 9,038G)
