Final Bets: red - 18 bets for 15,382G (36.8%, x1.72); blue - 30 bets for 26,381G (63.2%, x0.58)

red bets:
mirapoix: 5,727G (37.2%, 5,727G)
HaplessOne: 2,000G (13.0%, 70,083G)
SkylerBunny: 1,100G (7.2%, 53,637G)
Aldrammech: 1,000G (6.5%, 48,013G)
ungabunga_bot: 1,000G (6.5%, 175,527G)
Laserman1000: 800G (5.2%, 33,500G)
braumbles: 613G (4.0%, 12,278G)
elkydeluxe: 600G (3.9%, 20,267G)
Shakarak: 600G (3.9%, 600G)
sinnyil2: 600G (3.9%, 55,486G)
Chuckolator: 342G (2.2%, 27,058G)
Billybones5150: 300G (2.0%, 13,740G)
flowinprose: 200G (1.3%, 59,498G)
FriendSquirrel: 100G (0.7%, 19,743G)
RunicMagus: 100G (0.7%, 44,226G)
ko2q: 100G (0.7%, 29,579G)
Lordminsc: 100G (0.7%, 28,653G)
TheMM42: 100G (0.7%, 15,718G)

blue bets:
volgrathemoose: 5,000G (19.0%, 146,179G)
HASTERIOUS: 3,489G (13.2%, 10,574G)
Zbgs: 3,000G (11.4%, 63,204G)
Fenrislfr: 2,241G (8.5%, 2,241G)
Lord_Burrah: 2,000G (7.6%, 91,000G)
Zeroroute: 1,677G (6.4%, 6,053G)
HaateXIII: 1,500G (5.7%, 21,109G)
BirbBrainsBot: 1,000G (3.8%, 6,421G)
Shalloween: 900G (3.4%, 60,541G)
roofiepops: 600G (2.3%, 19,174G)
Breakdown777: 500G (1.9%, 28,149G)
EnemyController: 500G (1.9%, 50,085G)
NoNotBees: 500G (1.9%, 11,992G)
JIDkomu: 500G (1.9%, 1,691G)
rico_flex: 500G (1.9%, 21,112G)
TheChainNerd: 300G (1.1%, 300G)
joewcarson: 300G (1.1%, 300G)
Evewho: 300G (1.1%, 3,385G)
nifboy: 299G (1.1%, 5,992G)
KasugaiRoastedPeas: 200G (0.8%, 30,756G)
SquidgyXom: 200G (0.8%, 13,604G)
DrAntiSocial: 150G (0.6%, 8,353G)
b0shii: 123G (0.5%, 12,054G)
Tougou: 100G (0.4%, 38,463G)
FoeSquirrel: 100G (0.4%, 4,150G)
ApplesauceBoss: 100G (0.4%, 5,807G)
ANFz: 100G (0.4%, 9,841G)
SQUiDSQUARKLIN: 100G (0.4%, 100G)
IamInfamous: 100G (0.4%, 1,291G)
WireLord: 2G (0.0%, 51,940G)
