Final Bets: green - 19 bets for 14,627G (50.2%, x0.99); yellow - 11 bets for 14,488G (49.8%, x1.01)

green bets:
seppu777: 3,333G (22.8%, 6,825G)
MemoriesofFinal: 1,438G (9.8%, 1,438G)
maakur_: 1,410G (9.6%, 1,410G)
mirapoix: 1,298G (8.9%, 1,298G)
randgridr: 1,288G (8.8%, 1,288G)
VolgraTheMoose: 924G (6.3%, 30,483G)
Error72: 744G (5.1%, 744G)
Belkra: 629G (4.3%, 629G)
dogsandcatsand: 516G (3.5%, 22,395G)
krombobreaker: 500G (3.4%, 24,605G)
ColetteMSLP: 488G (3.3%, 10,838G)
Panushenko: 372G (2.5%, 372G)
Lyner87: 328G (2.2%, 328G)
LadyCyan: 312G (2.1%, 312G)
CorpusCav: 300G (2.1%, 33,224G)
AllInBot: 200G (1.4%, 200G)
datadrivenbot: 200G (1.4%, 80,563G)
CosmicTactician: 200G (1.4%, 806G)
DirkC_Fenrir84: 147G (1.0%, 147G)

yellow bets:
2b_yorha_b: 7,180G (49.6%, 7,180G)
RunicMagus: 1,020G (7.0%, 23,317G)
BirbBrainsBot: 1,000G (6.9%, 191,946G)
getthemoneyz: 1,000G (6.9%, 2,133,324G)
Sairentozon7: 1,000G (6.9%, 55,523G)
AnthroMetal: 1,000G (6.9%, 5,598G)
killth3kid: 808G (5.6%, 38,269G)
Nizaha: 652G (4.5%, 7,562G)
FatTunaKing: 528G (3.6%, 528G)
DuPlatypus: 200G (1.4%, 1,539G)
Evewho: 100G (0.7%, 2,328G)
