Final Bets: red - 25 bets for 10,234G (26.6%, x2.76); blue - 36 bets for 28,262G (73.4%, x0.36)

mirapoix: -1,410G (1,410G > 380G)
MoonSlayerRS: -1,238G (1,238G > 308G)
Lodrak: -1,001G (18,812G > 17,811G)
TheChainNerd: -1,000G (9,092G > 8,092G)
Ranmilia: -1,000G (4,811G > 3,811G)
technominari: -500G (72,194G > 71,694G)
bad1dea: -400G (168,063G > 167,663G)
HaplessOne: -380G (5,948G > 5,568G)
BadBlanket: -352G (352G > 352G)
Baron_von_Scrub: -252G (2,757G > 2,505G)
Aurilliux: -250G (9,535G > 9,285G)
Pie108: -240G (891G > 651G)
thunderducker: -225G (1,882G > 1,657G)
Chuckolator: -222G (7,445G > 7,223G)
BirbBrainsBot: -221G (174,495G > 174,274G)
jethrothrul: -200G (2,153G > 1,953G)
AlenaZarek: -200G (6,528G > 6,328G)
Davarian: -200G (1,372G > 1,172G)
proper__noun__: -200G (4,785G > 4,585G)
ZephyrTempest: -187G (9,957G > 9,770G)
kingchadking: -156G (156G > 156G)
Zagorsek: -100G (279,772G > 279,672G)
Kittiesoink: -100G (1,089G > 989G)
Axelrod: -100G (2,958G > 2,858G)
SeedSC: -100G (68,900G > 68,800G)


Ant_ihistamine: +2,812G (15,533G > 17,345G)
VirulenceXT: +1,811G (118,665G > 120,476G)
Phi_Sig: +724G (36,358G > 37,882G)
NovaKnight21: +641G (3,538G > 4,179G)
CorpusCav: +551G (1,522G > 2,073G)
Verxl: +416G (2,301G > 2,717G)
maakur_: +362G (62,972G > 63,334G)
snkey: +362G (38,977G > 39,339G)
Grasnikk: +307G (847G > 1,154G)
HyC81: +291G (804G > 1,095G)
Shalloween: +217G (35,736G > 35,953G)
Lanshaft: +197G (16,139G > 16,336G)
getthemoneyz: +196G (339,676G > 339,872G)
Zeroroute: +183G (504G > 687G)
SeraphPDH: +181G (7,167G > 7,348G)
waterwatereverywhere: +145G (27,186G > 27,331G)
SolarisFall: +111G (307G > 418G)
arch8000: +72G (9,949G > 10,021G)
gamesage53: +54G (148G > 202G)
tevoul: +43G (2,413G > 2,456G)
rawb2: +39G (109G > 148G)
GeekDadMan: +39G (1,492G > 1,531G)
Firesheath: +36G (3,145G > 2,181G)
RunicMagus: +36G (19,419G > 19,455G)
Treapvort: +36G (3,921G > 3,957G)
Bongomon7: +36G (4,317G > 4,353G)
Nizaha: +36G (18,959G > 18,995G)
RughSontos: +36G (2,505G > 1,541G)
Lyner87: +36G (5,772G > 5,808G)
Oshimi12: +36G (100G > 136G)
LDSkinny: +36G (3,455G > 3,491G)
datadrivenbot: +36G (12,222G > 12,258G)
rubenflonne: +36G (2,857G > 2,893G)
fenaen: +36G (4,249G > 4,285G)
rico_flex: +36G (1,119G > 1,155G)
roqqqpsi: +8G (814G > 822G)
