Final Bets: purple - 36 bets for 23,910G (69.5%, x0.44); brown - 24 bets for 10,512G (30.5%, x2.27)

Ant_ihistamine: +3,813G (8,673G > 12,486G)
Grasnikk: +1,125G (2,558G > 3,683G)
Zbgs: +659G (31,136G > 31,795G)
Kittiesoink: +650G (1,479G > 2,129G)
RongRongArts: +487G (2,216G > 2,703G)
Nizaha: +440G (9,059G > 9,499G)
UmaiJam: +330G (7,514G > 7,844G)
Lanshaft: +239G (17,794G > 18,033G)
domeil: +220G (3,909G > 4,129G)
Zeroroute: +220G (500G > 720G)
thurack2017: +220G (2,165G > 2,385G)
gamesage53: +197G (448G > 645G)
waterwatereverywhere: +176G (27,331G > 27,511G)
MoonSlayerRS: +135G (308G > 443G)
fenaen: +132G (3,985G > 4,117G)
SolarisFall: +123G (280G > 403G)
CorpusCav: +120G (2,745G > 2,865G)
urieltheflameofgod: +118G (268G > 386G)
Avin_Chaos: +103G (468G > 571G)
rawb2: +100G (228G > 328G)
UFOCATCHERDAILY: +88G (3,640G > 3,728G)
arch8000: +88G (10,386G > 10,474G)
amadmet: +88G (7,869G > 7,957G)
oogthecaveman: +88G (3,495G > 3,583G)
tevoul: +65G (2,972G > 3,037G)
GeekDadMan: +47G (1,820G > 1,867G)
Zagorsek: +44G (279,040G > 279,084G)
AlenaZarek: +44G (6,228G > 6,272G)
Maeveen: +44G (8,524G > 8,568G)
RughSontos: +44G (1,667G > 1,711G)
Verxl: +44G (3,328G > 3,372G)
Firesheath: +44G (2,303G > 2,347G)
datadrivenbot: +44G (12,748G > 12,792G)
Treapvort: +44G (3,757G > 3,801G)
nofreewill: +44G (100G > 144G)
rico_flex: +44G (1,706G > 1,750G)


BirbBrainsBot: -1,000G (176,954G > 175,954G)
bad1dea: -1,000G (170,343G > 169,343G)
MantisFinch: -1,000G (13,671G > 12,671G)
snkey: -1,000G (31,339G > 30,339G)
Winterharte: -1,000G (10,290G > 8,290G)
kai_shee: -1,000G (44,916G > 43,916G)
nerdynel17: -805G (805G > 172G)
Baron_von_Scrub: -525G (2,505G > 1,980G)
TheChainNerd: -500G (10,772G > 11,172G)
mirapoix: -380G (380G > 380G)
getthemoneyz: -340G (340,787G > 340,447G)
Skarthe: -300G (2,274G > 1,974G)
HRak050: -300G (1,869G > 1,569G)
Pie108: -240G (703G > 463G)
ZephyrTempest: -200G (10,118G > 9,918G)
ra1kia: -200G (1,189G > 989G)
Snowfats: -100G (2,578G > 2,478G)
Oshimi12: -100G (100G > 100G)
maakur_: -100G (63,602G > 63,502G)
g00gly: -100G (2,230G > 2,130G)
welkrys: -100G (1,366G > 1,266G)
LeonStrong: -100G (1,000G > 900G)
Axelrod: -100G (3,126G > 3,026G)
roqqqpsi: -22G (1,173G > 1,151G)
