Final Bets: blue - 24 bets for 16,996G (50.1%, x1.00); purple - 30 bets for 16,912G (49.9%, x1.00)

Athropos1: -7,872G (9,840G > 1,968G)
OneHundredFists: -2,532G (4,965G > 2,433G)
HyC81: -1,040G (1,040G > 232G)
UmaiJam: -706G (7,060G > 6,354G)
Phi_Sig: -555G (38,985G > 38,430G)
TheChainNerd: -500G (10,572G > 10,976G)
rawb2: -455G (455G > 100G)
mirapoix: -380G (380G > 380G)
jigglefluffenstuff: -368G (368G > 368G)
Cryptopsy70: -348G (5,556G > 5,208G)
thurack2017: -300G (2,676G > 2,376G)
nerdynel17: -287G (287G > 172G)
Verxl: -200G (3,458G > 3,258G)
oogthecaveman: -200G (3,802G > 3,602G)
amadmet: -200G (7,813G > 7,613G)
Oshimi12: -166G (166G > 100G)
tevoul: -151G (3,033G > 2,882G)
HolyKau: -136G (136G > 136G)
CSquared2013: -100G (100G > 100G)
Zagorsek: -100G (279,142G > 279,042G)
rubenflonne: -100G (2,593G > 2,497G)
Treapvort: -100G (3,731G > 3,631G)
SeraphPDH: -100G (7,449G > 7,349G)
datadrivenbot: -100G (12,850G > 12,750G)


sinnyil2: +3,517G (26,756G > 30,273G)
Winterharte: +2,010G (9,456G > 11,466G)
RongRongArts: +1,548G (3,081G > 4,629G)
Zeroroute: +1,206G (1,200G > 2,406G)
BirbBrainsBot: +1,005G (176,537G > 177,542G)
bad1dea: +1,005G (169,926G > 170,931G)
Grasnikk: +1,005G (3,386G > 4,391G)
SolarisFall: +675G (672G > 1,347G)
Lanshaft: +547G (16,945G > 17,492G)
Nizaha: +503G (10,862G > 11,365G)
waterwatereverywhere: +402G (27,111G > 27,513G)
MoonSlayerRS: +396G (394G > 790G)
fenaen: +301G (4,101G > 4,402G)
gamesage53: +301G (825G > 1,126G)
Skarthe: +301G (1,974G > 2,275G)
Avin_Chaos: +295G (841G > 1,136G)
urieltheflameofgod: +269G (268G > 537G)
ZephyrTempest: +256G (10,080G > 10,336G)
roqqqpsi: +223G (1,196G > 1,419G)
UFOCATCHERDAILY: +201G (3,728G > 3,929G)
GeekDadMan: +201G (1,956G > 2,157G)
halnco: +151G (777G > 928G)
Maeveen: +100G (8,626G > 8,726G)
Lythe_Caraker: +100G (43,253G > 43,353G)
AlenaZarek: +100G (6,345G > 6,445G)
maakur_: +100G (63,530G > 63,630G)
Firesheath: +100G (2,147G > 2,247G)
Kittiesoink: +100G (2,059G > 2,159G)
getthemoneyz: +69G (340,455G > 340,524G)
daveb_: +3G (1,950G > 953G)
