Final Bets: red - 6 bets for 3,437G (27.3%, x2.66); blue - 10 bets for 9,156G (72.7%, x0.38)

red bets:
BirbBrainsBot: 1,000G (29.1%, 57,478G)
getthemoneyz: 794G (23.1%, 1,073,027G)
superdevon1: 768G (22.3%, 768G)
helpimabug: 428G (12.5%, 428G)
CT_5_Holy: 336G (9.8%, 336G)
lowlf: 111G (3.2%, 100,865G)

blue bets:
sinnyil2: 3,106G (33.9%, 6,212G)
prince_rogers_nelson_: 2,858G (31.2%, 2,858G)
opHendoslice: 1,000G (10.9%, 6,459G)
Tithonus: 548G (6.0%, 548G)
twelfthrootoftwo: 500G (5.5%, 6,641G)
Digitalsocrates: 300G (3.3%, 300G)
reinoe: 300G (3.3%, 300G)
placidphoenix: 244G (2.7%, 244G)
Evewho: 200G (2.2%, 5,322G)
datadrivenbot: 100G (1.1%, 47,146G)
