Final Bets: black - 23 bets for 19,326G (78.2%, x0.28); brown - 11 bets for 5,376G (21.8%, x3.59)

black bets:
HaateXIII: 8,986G (46.5%, 8,986G)
Zeroroute: 1,470G (7.6%, 3,587G)
BirbBrainsBot: 1,000G (5.2%, 46,143G)
NicoSavoy: 1,000G (5.2%, 217,015G)
DamnThatShark: 804G (4.2%, 804G)
NIghtdew14: 750G (3.9%, 4,200G)
Thyrandaal: 600G (3.1%, 600G)
Othatmattkid: 518G (2.7%, 518G)
Xoomwaffle: 450G (2.3%, 4,076G)
killth3kid: 432G (2.2%, 10,097G)
timthehoodie: 421G (2.2%, 421G)
ZicaX: 412G (2.1%, 824G)
furrytomahawkk: 400G (2.1%, 6,530G)
randgridr: 388G (2.0%, 388G)
dogsandcatsand: 333G (1.7%, 25,234G)
Vacillents: 300G (1.6%, 2,607G)
dtrain332: 248G (1.3%, 248G)
Legionx13: 200G (1.0%, 4,117G)
datadrivenbot: 200G (1.0%, 30,605G)
lyonslegacy: 200G (1.0%, 1,524G)
TasisSai: 100G (0.5%, 1,265G)
alekzanndrr: 100G (0.5%, 341G)
getthemoneyz: 14G (0.1%, 1,309,306G)

brown bets:
Rislyeu: 1,000G (18.6%, 8,476G)
OperatorTheory: 943G (17.5%, 18,872G)
AllInBot: 790G (14.7%, 790G)
fluffskull: 500G (9.3%, 3,798G)
Lanshaft: 492G (9.2%, 26,163G)
prince_rogers_nelson_: 452G (8.4%, 452G)
run_with_stone_GUNs: 356G (6.6%, 9,663G)
ZCKaiser: 270G (5.0%, 14,700G)
Treafa: 252G (4.7%, 4,714G)
gorgewall: 201G (3.7%, 8,791G)
Royal_Ruckus: 120G (2.2%, 120G)
