Final Bets: blue - 12 bets for 6,675G (58.5%, x0.71); white - 9 bets for 4,738G (41.5%, x1.41)

blue bets:
douchetron: 1,324G (19.8%, 2,598G)
CT_5_Holy: 1,000G (15.0%, 5,516G)
BirbBrainsBot: 1,000G (15.0%, 166,494G)
ko2q: 692G (10.4%, 692G)
randgridr: 600G (9.0%, 600G)
Nine07: 535G (8.0%, 535G)
Klednar21: 500G (7.5%, 9,934G)
Zetchryn: 356G (5.3%, 356G)
Armorgames1: 326G (4.9%, 3,263G)
datadrivenbot: 200G (3.0%, 54,247G)
MinBetBot: 100G (1.5%, 20,910G)
getthemoneyz: 42G (0.6%, 1,581,679G)

white bets:
blorpy_: 2,674G (56.4%, 2,674G)
Lanshaft: 572G (12.1%, 11,789G)
CassiePhoenix: 504G (10.6%, 504G)
VolgraTheMoose: 255G (5.4%, 4,255G)
foxfaeez: 220G (4.6%, 220G)
AllInBot: 200G (4.2%, 200G)
DouglasDragonThePoet: 111G (2.3%, 1,851G)
gorgewall: 101G (2.1%, 6,327G)
Chuckolator: 101G (2.1%, 1,584G)
