Final Bets: black - 12 bets for 13,088G (52.9%, x0.89); purple - 14 bets for 11,650G (47.1%, x1.12)

black bets:
Mesmaster: 3,000G (22.9%, 47,121G)
corysteam: 2,173G (16.6%, 2,173G)
WesSideVandal: 1,977G (15.1%, 2,637G)
DeathTaxesAndAnime: 1,368G (10.5%, 1,368G)
Shalloween: 1,200G (9.2%, 19,807G)
BirbBrainsBot: 1,000G (7.6%, 37,717G)
Mushufasa_: 728G (5.6%, 728G)
Lanshaft: 628G (4.8%, 19,480G)
fenaen: 548G (4.2%, 548G)
getthemoneyz: 316G (2.4%, 1,739,691G)
douchetron: 100G (0.8%, 2,099G)
MemoriesofFinal: 50G (0.4%, 1,194G)

purple bets:
dogsandcatsand: 2,546G (21.9%, 4,993G)
SkylerBunny: 1,599G (13.7%, 1,599G)
CT_5_Holy: 1,521G (13.1%, 1,521G)
Zeroroute: 1,334G (11.5%, 1,334G)
BoneMiser: 924G (7.9%, 924G)
old_overholt_: 916G (7.9%, 916G)
MDMAyylmao: 841G (7.2%, 841G)
Nizaha: 768G (6.6%, 26,460G)
resjudicata3: 500G (4.3%, 6,041G)
gorgewall: 201G (1.7%, 10,679G)
datadrivenbot: 200G (1.7%, 63,195G)
AllInBot: 100G (0.9%, 100G)
Runeseeker22: 100G (0.9%, 1,060G)
Error72: 100G (0.9%, 1,988G)
