Final Bets: red - 30 bets for 22,056G (79.8%, x0.25); blue - 15 bets for 5,585G (20.2%, x3.95)

red bets:
OneHundredFists: 4,000G (18.1%, 28,667G)
Mesmaster: 3,000G (13.6%, 118,574G)
Rislyeu: 3,000G (13.6%, 36,140G)
reddwind_: 1,234G (5.6%, 2,468G)
gooseyourself: 1,100G (5.0%, 1,100G)
DLJuggernaut: 1,026G (4.7%, 10,261G)
TheGuesty: 1,000G (4.5%, 65,259G)
BirbBrainsBot: 1,000G (4.5%, 170,206G)
HASTERIOUS: 840G (3.8%, 16,811G)
HaateXIII: 748G (3.4%, 748G)
Laserman1000: 613G (2.8%, 26,113G)
Monopool: 600G (2.7%, 2,054G)
CosmicTactician: 500G (2.3%, 2,691G)
Shalloween: 460G (2.1%, 460G)
roofiepops: 414G (1.9%, 414G)
ColetteMSLP: 250G (1.1%, 674G)
Lythe_Caraker: 250G (1.1%, 116,332G)
DAC169: 220G (1.0%, 220G)
gorgewall: 201G (0.9%, 23,412G)
RunicMagus: 200G (0.9%, 56,147G)
Flameatron: 200G (0.9%, 3,531G)
Ring_Wyrm: 200G (0.9%, 1,364G)
cougboi: 200G (0.9%, 18,815G)
IphoneDarkness: 200G (0.9%, 2,245G)
UnholyCorsair: 100G (0.5%, 7,031G)
rednecknazgul: 100G (0.5%, 667G)
cogniv0r3: 100G (0.5%, 3,067G)
lastly: 100G (0.5%, 23,891G)
Miku_Shikhu: 100G (0.5%, 10,761G)
datadrivenbot: 100G (0.5%, 38,011G)

blue bets:
ANFz: 1,000G (17.9%, 3,290G)
Virilikus: 1,000G (17.9%, 162,539G)
Alaquane: 783G (14.0%, 783G)
LAGBOT30000: 562G (10.1%, 1,125G)
killth3kid: 500G (9.0%, 27,584G)
getthemoneyz: 420G (7.5%, 932,058G)
AllInBot: 252G (4.5%, 252G)
Meta_Five: 200G (3.6%, 9,920G)
prince_rogers_nelson_: 200G (3.6%, 33,092G)
benticore: 141G (2.5%, 2,823G)
adrammallech: 123G (2.2%, 123G)
NightwolfXVI: 104G (1.9%, 104G)
victoriolue: 100G (1.8%, 7,158G)
deepsynch: 100G (1.8%, 100G)
dinin991: 100G (1.8%, 1,095G)
