Final Bets: purple - 24 bets for 9,320G (46.1%, x1.17); brown - 16 bets for 10,905G (53.9%, x0.85)

purple bets:
Mesmaster: 2,000G (21.5%, 118,521G)
TheGuesty: 1,500G (16.1%, 61,500G)
BirbBrainsBot: 1,000G (10.7%, 172,756G)
HaateXIII: 752G (8.1%, 752G)
killth3kid: 500G (5.4%, 27,639G)
electric_algus: 500G (5.4%, 12,483G)
getthemoneyz: 318G (3.4%, 932,486G)
ColetteMSLP: 300G (3.2%, 1,255G)
Monopool: 296G (3.2%, 296G)
acid_flashback: 236G (2.5%, 236G)
gorgewall: 201G (2.2%, 23,061G)
Evewho: 200G (2.1%, 16,543G)
Flameatron: 200G (2.1%, 3,604G)
KasugaiRoastedPeas: 200G (2.1%, 2,094G)
Belted_Kingfisher: 184G (2.0%, 184G)
autnagrag: 125G (1.3%, 5,505G)
adrammallech: 104G (1.1%, 104G)
NightwolfXVI: 104G (1.1%, 104G)
AllInBot: 100G (1.1%, 100G)
ANFz: 100G (1.1%, 2,409G)
UnholyCorsair: 100G (1.1%, 6,856G)
ZCKaiser: 100G (1.1%, 800G)
datadrivenbot: 100G (1.1%, 37,836G)
Miku_Shikhu: 100G (1.1%, 9,927G)

brown bets:
Thyrandaal: 2,207G (20.2%, 4,329G)
Virilikus: 2,000G (18.3%, 156,539G)
OneHundredFists: 2,000G (18.3%, 36,647G)
Rislyeu: 1,000G (9.2%, 38,010G)
LAGBOT30000: 822G (7.5%, 822G)
DAC169: 481G (4.4%, 481G)
Shalloween: 460G (4.2%, 460G)
silentkaster: 400G (3.7%, 400G)
neocarbuncle: 376G (3.4%, 376G)
kaelsun: 300G (2.8%, 300G)
Alaquane: 227G (2.1%, 227G)
fluffskull: 200G (1.8%, 652G)
dinin991: 132G (1.2%, 132G)
deepsynch: 100G (0.9%, 100G)
computerghoul: 100G (0.9%, 2,981G)
CosmicTactician: 100G (0.9%, 3,048G)
