Final Bets: white - 13 bets for 7,718G (58.5%, x0.71); black - 11 bets for 5,468G (41.5%, x1.41)

white bets:
resjudicata3: 2,070G (26.8%, 4,059G)
OneHundredFists: 1,844G (23.9%, 1,844G)
HorusTaurus: 1,000G (13.0%, 7,592G)
BirbBrainsBot: 934G (12.1%, 170,072G)
Miku_Shikhu: 500G (6.5%, 15,589G)
nekojin: 500G (6.5%, 4,295G)
datadrivenbot: 200G (2.6%, 75,710G)
RunicMagus: 150G (1.9%, 24,057G)
kilrazin: 112G (1.5%, 112G)
MoonSugarFiend: 108G (1.4%, 877G)
J_52: 100G (1.3%, 3,417G)
Lord_Gwarth: 100G (1.3%, 3,902G)
iBluntDouble: 100G (1.3%, 100G)

black bets:
VolgraTheMoose: 868G (15.9%, 18,076G)
silentkaster: 826G (15.1%, 826G)
ANFz: 731G (13.4%, 1,435G)
mindblownnnn: 711G (13.0%, 711G)
AllInBot: 650G (11.9%, 650G)
krombobreaker: 500G (9.1%, 16,530G)
getthemoneyz: 390G (7.1%, 2,085,206G)
3ngag3: 388G (7.1%, 4,952G)
MemoriesofFinal: 200G (3.7%, 2,325G)
DocSTN: 104G (1.9%, 104G)
maakur_: 100G (1.8%, 5,423G)
