Final Bets: black - 10 bets for 2,897G (23.0%, x3.34); brown - 17 bets for 9,685G (77.0%, x0.30)

black bets:
Sairentozon7: 1,000G (34.5%, 28,355G)
OneHundredFists: 572G (19.7%, 572G)
silentkaster: 300G (10.4%, 1,326G)
Mathlexis: 244G (8.4%, 244G)
AllInBot: 200G (6.9%, 200G)
kilrazin: 159G (5.5%, 159G)
getthemoneyz: 122G (4.2%, 2,087,213G)
ANFz: 100G (3.5%, 2,760G)
Lord_Gwarth: 100G (3.5%, 3,206G)
Evewho: 100G (3.5%, 1,656G)

brown bets:
VolgraTheMoose: 2,001G (20.7%, 19,301G)
mindblownnnn: 1,436G (14.8%, 2,873G)
resjudicata3: 1,014G (10.5%, 1,989G)
BirbBrainsBot: 1,000G (10.3%, 172,168G)
seppu777: 777G (8.0%, 2,605G)
Runeseeker22: 653G (6.7%, 13,072G)
krombobreaker: 500G (5.2%, 16,947G)
SephDarkheart: 412G (4.3%, 4,399G)
MoonSugarFiend: 407G (4.2%, 815G)
DocSTN: 290G (3.0%, 290G)
iBluntDouble: 284G (2.9%, 284G)
MemoriesofFinal: 211G (2.2%, 2,515G)
datadrivenbot: 200G (2.1%, 75,394G)
Leonidusx: 200G (2.1%, 211,087G)
RunicMagus: 100G (1.0%, 23,657G)
J_52: 100G (1.0%, 3,737G)
scsuperstar: 100G (1.0%, 1,752G)
