Final Bets: white - 12 bets for 4,006G (17.3%, x4.78); purple - 26 bets for 19,138G (82.7%, x0.21)

white bets:
ANFz: 1,034G (25.8%, 1,034G)
OneHundredFists: 676G (16.9%, 676G)
LeoNightFury: 500G (12.5%, 3,250G)
TheUnforgivenRage: 431G (10.8%, 431G)
Digitalsocrates: 297G (7.4%, 297G)
Estan_AD: 260G (6.5%, 520G)
TheJonTerp: 200G (5.0%, 1,657G)
Setdevildog: 200G (5.0%, 3,468G)
Arcblazer23: 112G (2.8%, 112G)
Antipathics: 100G (2.5%, 7,295G)
victoriolue: 100G (2.5%, 3,429G)
getthemoneyz: 96G (2.4%, 671,320G)

purple bets:
Mesmaster: 3,000G (15.7%, 38,457G)
Shakarak: 2,000G (10.5%, 30,442G)
NicoSavoy: 2,000G (10.5%, 23,466G)
NovaKnight21: 1,743G (9.1%, 3,487G)
sinnyil2: 1,200G (6.3%, 39,922G)
BirbBrainsBot: 1,000G (5.2%, 53,823G)
jakeduhhsnake: 1,000G (5.2%, 40,800G)
Laserman1000: 656G (3.4%, 27,856G)
ColetteMSLP: 600G (3.1%, 45,083G)
Zeroroute: 600G (3.1%, 600G)
SkylerBunny: 600G (3.1%, 57,516G)
ungabunga_bot: 534G (2.8%, 498,610G)
electric_glass: 500G (2.6%, 10,047G)
twelfthrootoftwo: 500G (2.6%, 9,270G)
vampyreinabox: 500G (2.6%, 1,954G)
Drusic: 457G (2.4%, 457G)
Conome: 423G (2.2%, 423G)
otakutaylor: 400G (2.1%, 1,688G)
mpghappiness: 352G (1.8%, 352G)
ZZ_Yoshi: 300G (1.6%, 30,062G)
alecttox: 240G (1.3%, 240G)
KasugaiRoastedPeas: 200G (1.0%, 2,000G)
rjA0zcOQ96: 100G (0.5%, 7,664G)
datadrivenbot: 100G (0.5%, 18,113G)
cougboi: 100G (0.5%, 14,150G)
MalakiGenesys: 33G (0.2%, 165G)
