Final Bets: green - 20 bets for 9,491G (61.1%, x0.64); yellow - 12 bets for 6,040G (38.9%, x1.57)

green bets:
kai_shee: 1,001G (10.5%, 147,419G)
ko2q: 1,000G (10.5%, 7,111G)
BirbBrainsBot: 1,000G (10.5%, 187,299G)
getthemoneyz: 828G (8.7%, 503,744G)
roofiepops: 738G (7.8%, 738G)
waterwatereverywhere: 645G (6.8%, 645G)
mirapoix: 624G (6.6%, 624G)
roqqqpsi: 593G (6.2%, 593G)
luminarii: 523G (5.5%, 23,389G)
fenaen: 500G (5.3%, 10,445G)
OmnibotGamma: 500G (5.3%, 5,359G)
Dasutin23: 364G (3.8%, 364G)
LazarusAjin: 202G (2.1%, 202G)
lohakilo: 200G (2.1%, 200G)
smiggenator: 200G (2.1%, 1,536G)
ungabunga_bot: 149G (1.6%, 155,569G)
datadrivenbot: 124G (1.3%, 217G)
FoeSquirrel: 100G (1.1%, 3,182G)
ApplesauceBoss: 100G (1.1%, 4,141G)
CandyTamer: 100G (1.1%, 1,406G)

yellow bets:
TheChainNerd: 1,000G (16.6%, 3,174G)
Firesheath: 923G (15.3%, 923G)
Lanshaft: 600G (9.9%, 600G)
Laserman1000: 533G (8.8%, 5,533G)
LDSkinny: 500G (8.3%, 1,352G)
reinoe: 500G (8.3%, 10,615G)
nifboy: 463G (7.7%, 4,630G)
Spartan_Paladin: 400G (6.6%, 25,806G)
GrandmasterFrankerZ: 373G (6.2%, 373G)
Slowbrofist: 348G (5.8%, 348G)
CapnChaos12: 300G (5.0%, 2,404G)
Lordminsc: 100G (1.7%, 1,539G)
