Final Bets: blue - 12 bets for 5,111G (37.6%, x1.66); yellow - 15 bets for 8,486G (62.4%, x0.60)

blue bets:
sinnyil2: 1,200G (23.5%, 46,718G)
Pie108: 700G (13.7%, 23,565G)
Baron_von_Scrub: 531G (10.4%, 13,479G)
fenaen: 500G (9.8%, 9,592G)
nifboy: 499G (9.8%, 4,993G)
luminarii: 424G (8.3%, 22,988G)
OmnibotGamma: 404G (7.9%, 404G)
datadrivenbot: 286G (5.6%, 291G)
Aurilliux: 250G (4.9%, 11,695G)
ungabunga_bot: 117G (2.3%, 157,649G)
Lodrak: 100G (2.0%, 2,690G)
Avin_Chaos: 100G (2.0%, 15,360G)

yellow bets:
joewcarson: 3,320G (39.1%, 3,320G)
Lanshaft: 1,046G (12.3%, 1,046G)
BirbBrainsBot: 1,000G (11.8%, 187,493G)
Laserman1000: 608G (7.2%, 6,608G)
LDSkinny: 500G (5.9%, 2,138G)
Spartan_Paladin: 440G (5.2%, 26,940G)
roofiepops: 412G (4.9%, 412G)
rico_flex: 350G (4.1%, 1,751G)
lohakilo: 200G (2.4%, 200G)
getthemoneyz: 110G (1.3%, 502,674G)
FoeSquirrel: 100G (1.2%, 2,882G)
ApplesauceBoss: 100G (1.2%, 4,260G)
CandyTamer: 100G (1.2%, 1,425G)
ANFz: 100G (1.2%, 7,627G)
Jerboj: 100G (1.2%, 32,230G)
