Final Bets: white - 23 bets for 10,163G (62.9%, x0.59); brown - 12 bets for 6,003G (37.1%, x1.69)

white bets:
mirapoix: 1,993G (19.6%, 1,993G)
Slowbrofist: 1,211G (11.9%, 1,211G)
kai_shee: 1,001G (9.8%, 148,968G)
Laserman1000: 674G (6.6%, 6,974G)
roofiepops: 660G (6.5%, 660G)
GargantuaCat: 567G (5.6%, 1,000G)
Wonser: 549G (5.4%, 549G)
Aldrammech: 500G (4.9%, 17,064G)
nifboy: 449G (4.4%, 4,494G)
luminarii: 448G (4.4%, 22,564G)
roqqqpsi: 408G (4.0%, 408G)
lohakilo: 320G (3.1%, 320G)
HaateXIII: 250G (2.5%, 1,638G)
rico_flex: 200G (2.0%, 1,962G)
GrandmasterFrankerZ: 180G (1.8%, 859G)
LazarusAjin: 112G (1.1%, 112G)
FoeSquirrel: 100G (1.0%, 2,942G)
CandyTamer: 100G (1.0%, 1,485G)
ANFz: 100G (1.0%, 7,687G)
ApplesauceBoss: 100G (1.0%, 4,320G)
Lordminsc: 100G (1.0%, 1,731G)
datadrivenbot: 91G (0.9%, 100G)
JumbocactuarX27: 50G (0.5%, 1,656G)

brown bets:
ungabunga_bot: 1,000G (16.7%, 157,532G)
Lanshaft: 838G (14.0%, 1,676G)
BirbBrainsBot: 785G (13.1%, 188,095G)
Pie108: 700G (11.7%, 22,869G)
Nickyfive: 500G (8.3%, 11,091G)
joewcarson: 500G (8.3%, 4,320G)
OmnibotGamma: 404G (6.7%, 404G)
Spartan_Paladin: 400G (6.7%, 27,205G)
fenaen: 400G (6.7%, 9,092G)
powergems: 200G (3.3%, 5,988G)
getthemoneyz: 176G (2.9%, 502,740G)
Lodrak: 100G (1.7%, 2,590G)
