Final Bets: purple - 18 bets for 7,913G (53.3%, x0.88); brown - 14 bets for 6,947G (46.7%, x1.14)

purple bets:
latebit: 1,109G (14.0%, 110,909G)
AltimaMantoid: 1,000G (12.6%, 3,500G)
Nizaha: 636G (8.0%, 7,170G)
lowlf: 628G (7.9%, 18,859G)
Laserman1000: 580G (7.3%, 11,980G)
JonnyCue: 500G (6.3%, 16,474G)
krombobreaker: 500G (6.3%, 23,665G)
DavenIII: 424G (5.4%, 4,243G)
Sharosa: 400G (5.1%, 2,435G)
Smugzug: 369G (4.7%, 369G)
king_smashington: 346G (4.4%, 346G)
Lolthsmeat: 300G (3.8%, 2,526G)
ribbiks: 288G (3.6%, 288G)
TheBrett: 248G (3.1%, 10,578G)
datadrivenbot: 200G (2.5%, 80,040G)
DouglasDragonThePoet: 150G (1.9%, 2,556G)
GeNoFPaniC: 135G (1.7%, 1,191G)
Thyrandaal: 100G (1.3%, 168,731G)

brown bets:
BirbBrainsBot: 1,000G (14.4%, 155,640G)
Grasnikk: 963G (13.9%, 963G)
Lord_Gwarth: 954G (13.7%, 954G)
Snowfats: 866G (12.5%, 866G)
killth3kid: 800G (11.5%, 37,215G)
Reddash9: 497G (7.2%, 497G)
tripaplex: 489G (7.0%, 489G)
Musashi45: 486G (7.0%, 486G)
getthemoneyz: 220G (3.2%, 2,131,761G)
AllInBot: 200G (2.9%, 200G)
IanTheWoodchuck: 200G (2.9%, 1,079G)
AbandonedHall: 100G (1.4%, 320G)
steve__dave: 100G (1.4%, 1,000G)
goth_Applebees_hostess: 72G (1.0%, 1,072G)
