Final Bets: green - 10 bets for 8,591G (22.9%, x3.37); champion - 24 bets for 28,970G (77.1%, x0.30)

green bets:
Musashi45: 2,648G (30.8%, 2,648G)
2b_yorha_b: 2,065G (24.0%, 2,065G)
mirapoix: 1,474G (17.2%, 1,474G)
AltimaMantoid: 917G (10.7%, 917G)
tinytittyfiend: 336G (3.9%, 336G)
AllInBot: 319G (3.7%, 319G)
tripaplex: 300G (3.5%, 3,175G)
king_smashington: 272G (3.2%, 272G)
getthemoneyz: 152G (1.8%, 2,131,104G)
IanTheWoodchuck: 108G (1.3%, 108G)

champion bets:
Snowfats: 8,965G (30.9%, 8,965G)
latebit: 4,304G (14.9%, 107,604G)
HorusTaurus: 4,180G (14.4%, 4,180G)
thunderducker: 1,700G (5.9%, 2,998G)
DavenIII: 1,544G (5.3%, 4,414G)
BirbBrainsBot: 1,000G (3.5%, 155,131G)
killth3kid: 800G (2.8%, 38,604G)
Forkmore: 773G (2.7%, 1,516G)
Smugzug: 766G (2.6%, 766G)
Lord_Gwarth: 660G (2.3%, 660G)
fenaen: 652G (2.3%, 12,053G)
krombobreaker: 500G (1.7%, 24,478G)
lotharek: 500G (1.7%, 3,404G)
run_with_stone_GUNs: 488G (1.7%, 11,524G)
seppu777: 484G (1.7%, 484G)
helpimabug: 447G (1.5%, 447G)
datadrivenbot: 200G (0.7%, 80,165G)
CosmicTactician: 200G (0.7%, 4,271G)
Legionx13: 200G (0.7%, 11,905G)
daveb_: 155G (0.5%, 5,328G)
GeNoFPaniC: 152G (0.5%, 1,292G)
Sharosa: 100G (0.3%, 1,629G)
DouglasDragonThePoet: 100G (0.3%, 3,020G)
dogsandcatsand: 100G (0.3%, 7,852G)
