Final Bets: black - 9 bets for 5,820G (23.7%, x3.23); champion - 13 bets for 18,780G (76.3%, x0.31)

black bets:
Leonidusx: 2,000G (34.4%, 9,145G)
bruubarg: 1,000G (17.2%, 10,868G)
BirbBrainsBot: 1,000G (17.2%, 152,698G)
lowlf: 468G (8.0%, 3,794G)
thunderducker: 380G (6.5%, 1,322G)
Blaster_Bomb: 300G (5.2%, 739G)
bigbongsmoker: 244G (4.2%, 5,359G)
getthemoneyz: 236G (4.1%, 1,822,199G)
PuzzleSecretary: 192G (3.3%, 192G)

champion bets:
SkylerBunny: 8,000G (42.6%, 48,539G)
DeathTaxesAndAnime: 3,667G (19.5%, 7,191G)
resjudicata3: 2,000G (10.6%, 2,000G)
escobro: 1,798G (9.6%, 1,798G)
NicoSavoy: 866G (4.6%, 866G)
BartTradingCompany: 651G (3.5%, 6,519G)
dem0nj0ns: 438G (2.3%, 438G)
ZantetsukenX: 352G (1.9%, 352G)
Snowfats: 316G (1.7%, 316G)
AltimaMantoid: 284G (1.5%, 284G)
datadrivenbot: 200G (1.1%, 58,178G)
Rune339: 108G (0.6%, 108G)
Firesheath: 100G (0.5%, 528G)
