Final Bets: blue - 14 bets for 6,449G (47.8%, x1.09); green - 14 bets for 7,037G (52.2%, x0.92)

blue bets:
BirbBrainsBot: 1,000G (15.5%, 17,392G)
resjudicata3: 966G (15.0%, 1,895G)
Mesmaster: 748G (11.6%, 748G)
Zeroroute: 653G (10.1%, 653G)
killth3kid: 620G (9.6%, 620G)
nekojin: 588G (9.1%, 588G)
CorpusCav: 500G (7.8%, 7,367G)
roofiepops: 474G (7.3%, 2,003G)
AllInBot: 200G (3.1%, 200G)
otakutaylor: 200G (3.1%, 2,663G)
datadrivenbot: 200G (3.1%, 71,687G)
galkife: 100G (1.6%, 75,926G)
latebit: 100G (1.6%, 1,540G)
maakur_: 100G (1.6%, 6,717G)

green bets:
VolgraTheMoose: 1,001G (14.2%, 7,952G)
SephDarkheart: 1,000G (14.2%, 45,004G)
Lord_Gwarth: 910G (12.9%, 910G)
Nizaha: 868G (12.3%, 70,981G)
gorgewall: 708G (10.1%, 708G)
JonnyCue: 617G (8.8%, 617G)
Cryptopsy70: 380G (5.4%, 1,031G)
ValensEXP_: 360G (5.1%, 9,087G)
yagyuudarkness: 353G (5.0%, 353G)
ribbiks: 200G (2.8%, 5,836G)
tripaplex: 200G (2.8%, 3,915G)
ZephXrotH: 200G (2.8%, 980G)
ericzubat: 200G (2.8%, 22,862G)
getthemoneyz: 40G (0.6%, 2,029,344G)
