Final Bets: blue - 9 bets for 7,271G (57.2%, x0.75); yellow - 11 bets for 5,435G (42.8%, x1.34)

blue bets:
AllInBot: 2,857G (39.3%, 2,857G)
latebit: 1,038G (14.3%, 1,038G)
maakur_: 648G (8.9%, 648G)
lowlf: 644G (8.9%, 644G)
ExplanationMarkWow: 500G (6.9%, 24,139G)
khelor_: 500G (6.9%, 7,029G)
krombobreaker: 500G (6.9%, 34,332G)
Mushufasa_: 384G (5.3%, 384G)
Shalloween: 200G (2.8%, 13,229G)

yellow bets:
Sairentozon7: 1,000G (18.4%, 76,510G)
BirbBrainsBot: 879G (16.2%, 43,361G)
CorpusCav: 700G (12.9%, 35,139G)
fenaen: 660G (12.1%, 20,300G)
ANFz: 544G (10.0%, 544G)
getthemoneyz: 542G (10.0%, 2,159,360G)
run_with_stone_GUNs: 500G (9.2%, 11,382G)
datadrivenbot: 200G (3.7%, 81,099G)
2b_yorha_b: 200G (3.7%, 2,952G)
CosmicTactician: 200G (3.7%, 4,894G)
h00z0r: 10G (0.2%, 606G)
