Final Bets: white - 16 bets for 22,242G (78.6%, x0.27); brown - 9 bets for 6,069G (21.4%, x3.66)

white bets:
Mesmaster: 6,505G (29.2%, 6,505G)
AllInBot: 4,993G (22.4%, 4,993G)
fenaen: 2,000G (9.0%, 19,640G)
latebit: 1,814G (8.2%, 1,814G)
maakur_: 1,132G (5.1%, 1,132G)
BirbBrainsBot: 1,000G (4.5%, 42,482G)
VolgraTheMoose: 932G (4.2%, 43,047G)
AbandonedHall: 741G (3.3%, 741G)
Mushufasa_: 671G (3.0%, 671G)
krombobreaker: 500G (2.2%, 34,706G)
ExplanationMarkWow: 500G (2.2%, 24,513G)
khelor_: 500G (2.2%, 7,403G)
getthemoneyz: 454G (2.0%, 2,158,818G)
2b_yorha_b: 200G (0.9%, 2,752G)
CosmicTactician: 200G (0.9%, 4,694G)
Tithonus: 100G (0.4%, 4,110G)

brown bets:
PopsLIVE: 1,448G (23.9%, 1,448G)
lowlf: 1,125G (18.5%, 1,125G)
E_Ballard: 872G (14.4%, 872G)
CorpusCav: 770G (12.7%, 34,439G)
Shalloween: 600G (9.9%, 13,378G)
ANFz: 544G (9.0%, 544G)
run_with_stone_GUNs: 500G (8.2%, 10,882G)
datadrivenbot: 200G (3.3%, 80,899G)
h00z0r: 10G (0.2%, 596G)
