Final Bets: blue - 9 bets for 7,619G (70.4%, x0.42); green - 4 bets for 3,209G (29.6%, x2.37)

blue bets:
NicoSavoy: 2,000G (26.3%, 58,676G)
sinnyil2: 1,484G (19.5%, 2,969G)
CT_5_Holy: 1,069G (14.0%, 10,699G)
BirbBrainsBot: 1,000G (13.1%, 93,299G)
E_Ballard: 784G (10.3%, 73,027G)
gorgewall: 636G (8.3%, 636G)
MemoriesofFinal: 318G (4.2%, 318G)
datadrivenbot: 200G (2.6%, 62,462G)
AllInBot: 128G (1.7%, 128G)

green bets:
Jeeboheebo: 1,005G (31.3%, 25,384G)
JCBooBot: 1,000G (31.2%, 44,912G)
Mesmaster: 1,000G (31.2%, 81,806G)
getthemoneyz: 204G (6.4%, 1,762,257G)
