Final Bets: white - 8 bets for 2,691G (17.6%, x4.69); black - 18 bets for 12,617G (82.4%, x0.21)

white bets:
killth3kid: 1,000G (37.2%, 102,512G)
Lanshaft: 464G (17.2%, 6,171G)
getthemoneyz: 326G (12.1%, 1,205,062G)
ThreeMileIsland: 250G (9.3%, 2,457G)
Lythe_Caraker: 250G (9.3%, 148,263G)
gorgewall: 201G (7.5%, 27,878G)
TasisSai: 100G (3.7%, 100G)
IDruggedShamu: 100G (3.7%, 100G)

black bets:
serperemagus: 3,976G (31.5%, 3,976G)
ShintaroNayaka: 1,419G (11.2%, 1,419G)
Zeroroute: 1,356G (10.7%, 1,356G)
pplvee1: 1,250G (9.9%, 29,571G)
Error72: 1,000G (7.9%, 21,141G)
Laserman1000: 575G (4.6%, 23,775G)
DavenIII: 506G (4.0%, 506G)
BirbBrainsBot: 450G (3.6%, 86,991G)
Shalloween: 400G (3.2%, 64,197G)
superdevon1: 383G (3.0%, 3,835G)
ZCKaiser: 316G (2.5%, 1,319G)
datadrivenbot: 200G (1.6%, 57,055G)
Nymissa: 200G (1.6%, 1,490G)
Kronikle: 200G (1.6%, 4,154G)
SephDarkheart: 136G (1.1%, 17,633G)
enkikavlar: 100G (0.8%, 6,675G)
Quadh0nk: 100G (0.8%, 5,465G)
raenrond: 50G (0.4%, 1,568G)
