Final Bets: purple - 15 bets for 7,596G (64.0%, x0.56); brown - 8 bets for 4,268G (36.0%, x1.78)

purple bets:
ShintaroNayaka: 1,726G (22.7%, 1,726G)
killth3kid: 1,000G (13.2%, 101,512G)
BirbBrainsBot: 1,000G (13.2%, 87,087G)
Error72: 1,000G (13.2%, 21,354G)
DudeMonkey77: 700G (9.2%, 700G)
Nizaha: 528G (7.0%, 8,033G)
superdevon1: 391G (5.1%, 3,917G)
DavenIII: 307G (4.0%, 614G)
gorgewall: 201G (2.6%, 27,677G)
datadrivenbot: 200G (2.6%, 57,098G)
Nymissa: 200G (2.6%, 1,533G)
SephDarkheart: 136G (1.8%, 17,662G)
TasisSai: 100G (1.3%, 100G)
Rytor: 100G (1.3%, 20,511G)
ThreeMileIsland: 7G (0.1%, 2,207G)

brown bets:
Zeroroute: 1,645G (38.5%, 1,645G)
fenaen: 1,200G (28.1%, 25,130G)
Lanshaft: 464G (10.9%, 5,707G)
ZCKaiser: 316G (7.4%, 1,386G)
almontys: 287G (6.7%, 287G)
Lythe_Caraker: 250G (5.9%, 148,013G)
IDruggedShamu: 100G (2.3%, 100G)
getthemoneyz: 6G (0.1%, 1,204,736G)
