Final Bets: white - 15 bets for 9,776G (25.2%, x2.97); purple - 15 bets for 29,054G (74.8%, x0.34)

white bets:
Thyrandaal: 2,000G (20.5%, 32,798G)
Runeseeker22: 1,750G (17.9%, 3,500G)
BirbBrainsBot: 1,000G (10.2%, 5,731G)
Leonidusx: 1,000G (10.2%, 2,529G)
E_Ballard: 824G (8.4%, 94,593G)
Aldrammech: 700G (7.2%, 700G)
OneHundredFists: 684G (7.0%, 684G)
HASTERIOUS: 648G (6.6%, 648G)
NicoSavoy: 308G (3.2%, 308G)
thunderducker: 250G (2.6%, 1,078G)
killth3kid: 200G (2.0%, 7,717G)
MagikarpPKMN: 200G (2.0%, 1,137G)
getthemoneyz: 102G (1.0%, 1,792,963G)
Yangusburger: 100G (1.0%, 2,620G)
alcibiadeez: 10G (0.1%, 800G)

purple bets:
HaateXIII: 16,206G (55.8%, 32,412G)
JumbocactuarX27: 3,625G (12.5%, 3,625G)
RobotOcelot: 2,416G (8.3%, 2,416G)
Rytor: 1,703G (5.9%, 1,703G)
DeathTaxesAndAnime: 1,527G (5.3%, 2,995G)
CT_5_Holy: 925G (3.2%, 9,253G)
Mushufasa_: 500G (1.7%, 15,318G)
WhiteTigress: 500G (1.7%, 10,566G)
SephDarkheart: 412G (1.4%, 412G)
Tarheels218: 356G (1.2%, 2,539G)
JonnyCue: 344G (1.2%, 344G)
datadrivenbot: 200G (0.7%, 64,667G)
DavenIII: 190G (0.7%, 3,812G)
arumz: 100G (0.3%, 4,047G)
macradarkstar: 50G (0.2%, 478G)
