Final Bets: purple - 20 bets for 16,432G (46.5%, x1.15); champion - 26 bets for 18,903G (53.5%, x0.87)

purple bets:
LeoNightFury: 4,904G (29.8%, 4,904G)
NicoSavoy: 2,000G (12.2%, 27,537G)
volgrathemoose: 1,131G (6.9%, 2,263G)
booyah131: 1,000G (6.1%, 6,142G)
EnemyController: 1,000G (6.1%, 245,138G)
gooseyourself: 867G (5.3%, 1,735G)
CCRUNNER149UWP: 735G (4.5%, 735G)
jakeduhhsnake: 733G (4.5%, 733G)
SamaelMerihem: 666G (4.1%, 867G)
killth3kid: 556G (3.4%, 7,420G)
Strifu: 440G (2.7%, 440G)
TheUnforgivenRage: 436G (2.7%, 436G)
thethorndog1: 400G (2.4%, 4,548G)
FaytKion: 378G (2.3%, 378G)
Kyrious: 340G (2.1%, 340G)
Drusic: 330G (2.0%, 330G)
brokenknight201: 200G (1.2%, 2,771G)
Lawndough: 112G (0.7%, 112G)
JLinkletter: 104G (0.6%, 104G)
datadrivenbot: 100G (0.6%, 18,118G)

champion bets:
roofiepops: 4,444G (23.5%, 41,199G)
toka222: 3,200G (16.9%, 32,810G)
HaplessOne: 2,222G (11.8%, 79,579G)
ungabunga_bot: 1,000G (5.3%, 492,066G)
BirbBrainsBot: 1,000G (5.3%, 64,952G)
Lionhermit: 1,000G (5.3%, 45,822G)
maakur_: 713G (3.8%, 713G)
Rislyeu: 700G (3.7%, 1,401G)
mpghappiness: 530G (2.8%, 530G)
SkyridgeZero: 500G (2.6%, 14,807G)
concles: 500G (2.6%, 15,610G)
benticore: 400G (2.1%, 4,265G)
electric_glass: 400G (2.1%, 20,547G)
nifboy: 364G (1.9%, 364G)
Maldoree: 360G (1.9%, 360G)
Tsuike: 312G (1.7%, 312G)
aeonicvector: 216G (1.1%, 216G)
oops25: 200G (1.1%, 600G)
getthemoneyz: 138G (0.7%, 676,940G)
flametail24: 104G (0.6%, 104G)
bluuuuuuuh: 100G (0.5%, 3,677G)
victoriolue: 100G (0.5%, 2,906G)
Chompie: 100G (0.5%, 8,598G)
CorpusCav: 100G (0.5%, 5,657G)
CosmicTactician: 100G (0.5%, 10,374G)
GnielKnows: 100G (0.5%, 2,187G)
