Final Bets: green - 14 bets for 7,022G (59.3%, x0.69); yellow - 9 bets for 4,820G (40.7%, x1.46)

green bets:
Digitalsocrates: 1,736G (24.7%, 1,736G)
killth3kid: 1,000G (14.2%, 74,351G)
Seef2208: 678G (9.7%, 3,770G)
moonliquor: 623G (8.9%, 623G)
daveb_: 544G (7.7%, 544G)
Lythe_Caraker: 500G (7.1%, 147,777G)
roqqqpsi: 473G (6.7%, 47,347G)
Aldrammech: 424G (6.0%, 424G)
CosmicTactician: 300G (4.3%, 45,127G)
randgridr: 244G (3.5%, 244G)
datadrivenbot: 200G (2.8%, 62,195G)
SephDarkheart: 100G (1.4%, 8,570G)
nhammen: 100G (1.4%, 5,525G)
maddrave09: 100G (1.4%, 100G)

yellow bets:
TheChainNerd: 1,000G (20.7%, 24,035G)
Evewho: 1,000G (20.7%, 13,681G)
BirbBrainsBot: 1,000G (20.7%, 2,084G)
TasisSai: 780G (16.2%, 1,530G)
dantayystv: 500G (10.4%, 785G)
getthemoneyz: 240G (5.0%, 1,242,590G)
nifboy: 100G (2.1%, 16,162G)
Aquios_: 100G (2.1%, 353G)
Lemonjohns: 100G (2.1%, 1,076G)
