Final Bets: green - 9 bets for 3,349G (28.9%, x2.46); champion - 14 bets for 8,248G (71.1%, x0.41)

green bets:
killth3kid: 1,000G (29.9%, 77,145G)
roqqqpsi: 967G (28.9%, 48,386G)
Cryptopsy70: 600G (17.9%, 25,451G)
benticore: 250G (7.5%, 10,367G)
maddrave09: 200G (6.0%, 808G)
Ring_Wyrm: 100G (3.0%, 6,014G)
fluffskull: 100G (3.0%, 2,263G)
CosmicTactician: 100G (3.0%, 45,641G)
getthemoneyz: 32G (1.0%, 1,241,544G)

champion bets:
DeathTaxesAndAnime: 1,710G (20.7%, 3,354G)
roofiepops: 1,400G (17.0%, 7,326G)
Lemonjohns: 1,184G (14.4%, 1,184G)
TheChainNerd: 1,000G (12.1%, 24,874G)
Laserman1000: 718G (8.7%, 31,118G)
TasisSai: 601G (7.3%, 601G)
Zagorsek: 292G (3.5%, 292G)
RageImmortaI: 284G (3.4%, 1,645G)
randgridr: 244G (3.0%, 244G)
dantayystv: 204G (2.5%, 204G)
gorgewall: 201G (2.4%, 10,072G)
BirbBrainsBot: 200G (2.4%, 200G)
datadrivenbot: 200G (2.4%, 62,944G)
nhammen: 10G (0.1%, 5,473G)
