Final Bets: green - 13 bets for 9,479G (47.6%, x1.10); yellow - 15 bets for 10,434G (52.4%, x0.91)

green bets:
tripaplex: 2,600G (27.4%, 2,600G)
RunicMagus: 1,020G (10.8%, 25,651G)
JonnyCue: 1,000G (10.5%, 10,372G)
killth3kid: 804G (8.5%, 41,578G)
fenaen: 656G (6.9%, 17,680G)
Nizaha: 648G (6.8%, 6,752G)
maakur_: 636G (6.7%, 636G)
dogsandcatsand: 512G (5.4%, 6,738G)
holdenmagronik: 488G (5.1%, 9,242G)
upvla: 450G (4.7%, 2,458G)
AllInBot: 265G (2.8%, 265G)
old_overholt_: 200G (2.1%, 64,526G)
datadrivenbot: 200G (2.1%, 81,121G)

yellow bets:
tinytittyfiend: 2,000G (19.2%, 3,294G)
Lydian_C: 1,200G (11.5%, 3,510G)
BirbBrainsBot: 1,000G (9.6%, 182,722G)
getthemoneyz: 974G (9.3%, 2,131,553G)
VolgraTheMoose: 920G (8.8%, 32,815G)
nifboy: 880G (8.4%, 4,695G)
Lord_Gwarth: 813G (7.8%, 813G)
mirapoix: 576G (5.5%, 576G)
krombobreaker: 500G (4.8%, 26,082G)
CosmicTactician: 500G (4.8%, 2,700G)
Runeseeker22: 368G (3.5%, 368G)
Meta_Five: 302G (2.9%, 302G)
acid_flashback: 200G (1.9%, 3,154G)
arumz: 200G (1.9%, 30,035G)
latebit: 1G (0.0%, 3,401G)
