Final Bets: yellow - 15 bets for 11,407G (45.1%, x1.22); brown - 20 bets for 13,862G (54.9%, x0.82)

yellow bets:
old_overholt_: 2,000G (17.5%, 65,333G)
Nizaha: 1,756G (15.4%, 1,756G)
Lydian_C: 1,200G (10.5%, 5,620G)
maakur_: 1,083G (9.5%, 1,083G)
latebit: 1,000G (8.8%, 3,826G)
killth3kid: 804G (7.0%, 38,362G)
lowlf: 632G (5.5%, 11,985G)
krombobreaker: 500G (4.4%, 28,147G)
khelor_: 500G (4.4%, 3,412G)
xGlaive: 444G (3.9%, 444G)
Cryptopsy70: 404G (3.5%, 1,219G)
Runeseeker22: 368G (3.2%, 368G)
TheBrett: 260G (2.3%, 260G)
Meta_Five: 256G (2.2%, 256G)
AllInBot: 200G (1.8%, 200G)

brown bets:
powergems: 2,222G (16.0%, 19,925G)
AltimaMantoid: 1,535G (11.1%, 1,535G)
Lord_Gwarth: 1,365G (9.8%, 1,365G)
RunicMagus: 1,020G (7.4%, 26,181G)
tinytittyfiend: 1,000G (7.2%, 6,205G)
BirbBrainsBot: 1,000G (7.2%, 181,511G)
Aaron2Nerdy: 1,000G (7.2%, 9,323G)
E_Ballard: 975G (7.0%, 975G)
fenaen: 656G (4.7%, 17,100G)
JonnyCue: 500G (3.6%, 9,430G)
Carledo: 333G (2.4%, 117,044G)
Lyner87: 324G (2.3%, 324G)
CapnChaos12: 300G (2.2%, 2,566G)
Shalloween: 300G (2.2%, 8,512G)
pteraranger: 284G (2.0%, 10,884G)
2b_yorha_b: 270G (1.9%, 270G)
lotharek: 240G (1.7%, 240G)
datadrivenbot: 200G (1.4%, 81,284G)
acid_flashback: 200G (1.4%, 2,819G)
getthemoneyz: 138G (1.0%, 2,132,325G)
