Final Bets: red - 12 bets for 5,091G (60.8%, x0.64); green - 10 bets for 3,276G (39.2%, x1.55)

red bets:
TheChainNerd: 1,007G (19.8%, 34,007G)
holyonline: 1,000G (19.6%, 20,794G)
outer_monologue: 500G (9.8%, 871G)
Dymntd: 500G (9.8%, 42,427G)
HaychDub: 496G (9.7%, 496G)
serperemagus: 364G (7.1%, 364G)
getthemoneyz: 354G (7.0%, 783,496G)
coralreeferz: 350G (6.9%, 1,453G)
Lydian_C: 220G (4.3%, 220G)
RunicMagus: 100G (2.0%, 30,974G)
RuneS_77: 100G (2.0%, 7,295G)
datadrivenbot: 100G (2.0%, 29,463G)

green bets:
gogofromtogo: 719G (21.9%, 719G)
CosmicTactician: 508G (15.5%, 508G)
LeoNightFury: 500G (15.3%, 11,453G)
ColetteMSLP: 400G (12.2%, 1,447G)
powergems: 372G (11.4%, 372G)
nifboy: 250G (7.6%, 5,594G)
AkiriXx: 200G (6.1%, 200G)
zepharoth89: 142G (4.3%, 7,136G)
lastly: 100G (3.1%, 15,766G)
BirbBrainsBot: 85G (2.6%, 125,118G)
