Final Bets: white - 14 bets for 29,570G (83.0%, x0.20); purple - 14 bets for 6,047G (17.0%, x4.89)

white bets:
Aldrammech: 11,371G (38.5%, 11,371G)
toka222: 10,000G (33.8%, 48,626G)
Creggers: 2,500G (8.5%, 22,828G)
Evewho: 1,000G (3.4%, 19,092G)
datadrivenbot: 948G (3.2%, 56,416G)
HaateXIII: 740G (2.5%, 740G)
AllInBot: 662G (2.2%, 662G)
Blakelmenakle: 500G (1.7%, 9,807G)
porkchop5158: 500G (1.7%, 6,544G)
Firesheath: 476G (1.6%, 476G)
roqqqpsi: 323G (1.1%, 1,472G)
benticore: 250G (0.8%, 18,622G)
Rytor: 200G (0.7%, 5,350G)
furrytomahawkk: 100G (0.3%, 2,229G)

purple bets:
DustBirdEX: 1,048G (17.3%, 1,048G)
TheChainNerd: 1,000G (16.5%, 38,521G)
BirbBrainsBot: 1,000G (16.5%, 152,384G)
Nizaha: 544G (9.0%, 6,470G)
dantayystv: 500G (8.3%, 638G)
TasisSai: 348G (5.8%, 684G)
run_with_stone_GUNs: 336G (5.6%, 5,028G)
OtherBrand: 284G (4.7%, 6,461G)
BlueAbs: 212G (3.5%, 212G)
gorgewall: 201G (3.3%, 3,291G)
Mysteriousdewd: 200G (3.3%, 6,832G)
getthemoneyz: 174G (2.9%, 1,271,980G)
nhammen: 100G (1.7%, 8,904G)
DaKoopa49: 100G (1.7%, 828G)
