Final Bets: white - 17 bets for 23,181G (83.5%, x0.20); champion - 14 bets for 4,584G (16.5%, x5.06)

white bets:
toka222: 10,000G (43.1%, 62,833G)
WitchHunterIX: 3,000G (12.9%, 10,590G)
Creggers: 2,500G (10.8%, 26,379G)
porkchop5158: 1,500G (6.5%, 7,254G)
Shalloween: 1,200G (5.2%, 52,391G)
Rytor: 1,000G (4.3%, 5,391G)
roqqqpsi: 959G (4.1%, 1,744G)
Illudia: 687G (3.0%, 687G)
Phi_Sig: 555G (2.4%, 21,314G)
Blakelmenakle: 500G (2.2%, 10,213G)
Aldrammech: 456G (2.0%, 456G)
DaKoopa49: 243G (1.0%, 1,171G)
gorgewall: 201G (0.9%, 3,212G)
datadrivenbot: 104G (0.4%, 56,005G)
nhammen: 100G (0.4%, 11,481G)
Vultuous: 100G (0.4%, 6,062G)
Hasterious: 76G (0.3%, 7,651G)

champion bets:
BirbBrainsBot: 1,000G (21.8%, 151,992G)
bruubarg: 1,000G (21.8%, 19,547G)
DustBirdEX: 484G (10.6%, 484G)
pplvee1: 352G (7.7%, 1,669G)
TasisSai: 316G (6.9%, 316G)
dantayystv: 268G (5.8%, 268G)
benticore: 250G (5.5%, 18,423G)
Mysteriousdewd: 200G (4.4%, 6,754G)
AllInBot: 200G (4.4%, 200G)
Evewho: 200G (4.4%, 20,512G)
getthemoneyz: 112G (2.4%, 1,271,724G)
furrytomahawkk: 100G (2.2%, 2,249G)
oldchris: 100G (2.2%, 1,095G)
daveb_: 2G (0.0%, 1,216G)
