Final Bets: red - 13 bets for 7,719G (54.5%, x0.84); white - 11 bets for 6,454G (45.5%, x1.20)

red bets:
Sietaha: 2,720G (35.2%, 2,720G)
bruubarg: 1,000G (13.0%, 23,093G)
farside00831: 1,000G (13.0%, 1,852G)
poorest_hobo: 507G (6.6%, 507G)
Craymel_Mage: 500G (6.5%, 5,305G)
SephDarkheart: 372G (4.8%, 6,794G)
amant8: 300G (3.9%, 1,000G)
bigbongsmoker: 272G (3.5%, 1,428G)
killth3kid: 250G (3.2%, 22,263G)
brodeity: 244G (3.2%, 244G)
CosmicTactician: 200G (2.6%, 32,972G)
datadrivenbot: 200G (2.6%, 58,364G)
getthemoneyz: 154G (2.0%, 1,869,582G)

white bets:
gorgewall: 1,325G (20.5%, 1,325G)
AllInBot: 1,187G (18.4%, 1,187G)
VolgraTheMoose: 1,001G (15.5%, 124,735G)
ValensEXP_: 612G (9.5%, 612G)
silentkaster: 578G (9.0%, 2,242G)
BirbBrainsBot: 574G (8.9%, 88,691G)
Rytor: 500G (7.7%, 13,858G)
BartTradingCompany: 294G (4.6%, 2,941G)
khelor_: 200G (3.1%, 2,175G)
nhammen: 100G (1.5%, 411,902G)
heyBtw: 83G (1.3%, 834G)
