Final Bets: purple - 12 bets for 10,072G (59.7%, x0.67); brown - 8 bets for 6,785G (40.3%, x1.48)

purple bets:
OneHundredFists: 2,069G (20.5%, 27,812G)
Skyridge0: 1,500G (14.9%, 54,966G)
NovaKnight21: 1,400G (13.9%, 1,400G)
E_Ballard: 1,368G (13.6%, 1,368G)
randgridr: 1,203G (11.9%, 2,559G)
mindblownnnn: 1,000G (9.9%, 11,120G)
FatTunaKing: 532G (5.3%, 532G)
getthemoneyz: 350G (3.5%, 2,145,398G)
AllInBot: 200G (2.0%, 200G)
datadrivenbot: 200G (2.0%, 82,803G)
xGlaive: 150G (1.5%, 2,144G)
Sharosa: 100G (1.0%, 6,908G)

brown bets:
bigbongsmoker: 3,437G (50.7%, 3,437G)
mirapoix: 1,395G (20.6%, 1,395G)
BirbBrainsBot: 1,000G (14.7%, 10,341G)
Deeps_one: 300G (4.4%, 2,720G)
seppu777: 222G (3.3%, 3,785G)
bdb_goldenleo: 181G (2.7%, 3,081G)
Genkidou: 150G (2.2%, 1,548G)
DragonLord_Carter: 100G (1.5%, 847G)
