Final Bets: white - 10 bets for 9,455G (49.0%, x1.04); black - 11 bets for 9,825G (51.0%, x0.96)

white bets:
Wesablo: 5,000G (52.9%, 14,225G)
Lydian_C: 2,400G (25.4%, 51,479G)
JackOnFire1: 621G (6.6%, 12,439G)
gorgewall: 300G (3.2%, 4,186G)
Chuckolator: 256G (2.7%, 24,472G)
CT_5_Holy: 228G (2.4%, 228G)
vorap: 200G (2.1%, 5,407G)
Evewho: 200G (2.1%, 12,437G)
XalSmellsBad: 200G (2.1%, 14,112G)
evontno: 50G (0.5%, 7,982G)

black bets:
sinnyil2: 4,500G (45.8%, 73,501G)
Dexsana: 1,000G (10.2%, 7,882G)
BirbBrainsBot: 1,000G (10.2%, 195,772G)
getthemoneyz: 978G (10.0%, 584,996G)
TheMurkGnome: 741G (7.5%, 19,129G)
Anethum: 400G (4.1%, 3,451G)
ungabunga_bot: 386G (3.9%, 261,873G)
stukerk: 366G (3.7%, 1,566G)
Jahshine: 254G (2.6%, 254G)
twelfthrootoftwo: 100G (1.0%, 6,077G)
datadrivenbot: 100G (1.0%, 1,440G)
