Final Bets: white - 9 bets for 7,386G (40.9%, x1.45); purple - 12 bets for 10,679G (59.1%, x0.69)

white bets:
Lydian_C: 2,400G (32.5%, 46,373G)
leakimiko: 1,307G (17.7%, 16,343G)
JackOnFire1: 1,014G (13.7%, 12,681G)
Tommy_Havoc: 1,000G (13.5%, 2,824G)
Nocturnal_Perspective: 500G (6.8%, 8,337G)
CT_5_Holy: 465G (6.3%, 465G)
gorgewall: 300G (4.1%, 4,692G)
ravenkatana: 300G (4.1%, 550G)
datadrivenbot: 100G (1.4%, 1,437G)

purple bets:
sinnyil2: 3,500G (32.8%, 71,429G)
HaplessOne: 1,111G (10.4%, 199,287G)
lijarkh: 1,000G (9.4%, 3,727G)
BirbBrainsBot: 1,000G (9.4%, 195,743G)
ungabunga_bot: 1,000G (9.4%, 261,890G)
getthemoneyz: 618G (5.8%, 584,657G)
stukerk: 500G (4.7%, 1,370G)
EnemyController: 500G (4.7%, 127,901G)
evontno: 500G (4.7%, 11,280G)
Wesablo: 500G (4.7%, 18,705G)
ewan_e: 300G (2.8%, 7,703G)
Dexsana: 150G (1.4%, 8,402G)
