Final Bets: yellow - 16 bets for 16,647G (54.0%, x0.85); purple - 13 bets for 14,198G (46.0%, x1.17)

yellow bets:
Freezerman47: 5,135G (30.8%, 5,135G)
thunderducker: 3,000G (18.0%, 7,349G)
resjudicata3: 2,358G (14.2%, 4,624G)
latebit: 1,531G (9.2%, 1,531G)
sinnyil2: 1,200G (7.2%, 193,311G)
krombobreaker: 700G (4.2%, 6,925G)
CorpusCav: 500G (3.0%, 9,159G)
DanielRKnealeArt: 500G (3.0%, 15,835G)
Wonser: 400G (2.4%, 1,128G)
getthemoneyz: 356G (2.1%, 2,047,707G)
Genkidou: 250G (1.5%, 2,817G)
killabandaid: 212G (1.3%, 212G)
datadrivenbot: 200G (1.2%, 76,065G)
hojimitsu: 104G (0.6%, 104G)
gorgewall: 101G (0.6%, 5,953G)
Jabuamba: 100G (0.6%, 112G)

purple bets:
nhammen: 6,000G (42.3%, 280,251G)
Mesmaster: 2,345G (16.5%, 2,345G)
Shalloween: 1,500G (10.6%, 9,687G)
LuckyLuckLuc2: 1,111G (7.8%, 5,863G)
BirbBrainsBot: 1,000G (7.0%, 95,285G)
loveyouallfriends: 1,000G (7.0%, 40,692G)
AllInBot: 342G (2.4%, 342G)
DeathTaxesAndAnime: 300G (2.1%, 3,961G)
iBardic: 200G (1.4%, 18,553G)
MemoriesofFinal: 100G (0.7%, 40,844G)
maakur_: 100G (0.7%, 5,885G)
RunicMagus: 100G (0.7%, 5,853G)
mrfripps: 100G (0.7%, 10,860G)
