Final Bets: purple - 23 bets for 19,145G (71.2%, x0.40); brown - 7 bets for 7,751G (28.8%, x2.47)

purple bets:
Zbgs: 3,000G (15.7%, 13,790G)
midnight_blues3: 2,000G (10.4%, 9,269G)
reinoe: 2,000G (10.4%, 33,136G)
cam_ATS: 1,928G (10.1%, 45,214G)
roqqqpsi: 1,544G (8.1%, 38,611G)
Shalloween: 1,200G (6.3%, 57,003G)
gorgewall: 1,106G (5.8%, 1,106G)
BirbBrainsBot: 1,000G (5.2%, 85,922G)
E_Ballard: 1,000G (5.2%, 7,651G)
getthemoneyz: 808G (4.2%, 1,271,193G)
killth3kid: 796G (4.2%, 79,600G)
Oreo_Pizza: 500G (2.6%, 3,900G)
b4k4m4n: 497G (2.6%, 497G)
TasisSai: 422G (2.2%, 422G)
An8BitLemon: 208G (1.1%, 208G)
Mysteriousdewd: 200G (1.0%, 1,573G)
nsm013: 200G (1.0%, 11,883G)
datadrivenbot: 200G (1.0%, 64,905G)
Killmos: 136G (0.7%, 136G)
Heroebal: 100G (0.5%, 4,162G)
nhammen: 100G (0.5%, 6,835G)
soliares: 100G (0.5%, 936G)
ANFz: 100G (0.5%, 41,474G)

brown bets:
HaateXIII: 5,420G (69.9%, 5,420G)
JethroThrul: 1,033G (13.3%, 1,033G)
dogsandcatsand: 516G (6.7%, 516G)
ACSpree: 384G (5.0%, 384G)
randgridr: 288G (3.7%, 4,672G)
Grandlanzer: 100G (1.3%, 72,591G)
popotinha1889: 10G (0.1%, 200G)
