Final Bets: black - 9 bets for 6,272G (28.9%, x2.46); purple - 15 bets for 15,402G (71.1%, x0.41)

black bets:
gorgewall: 1,554G (24.8%, 1,554G)
BirbBrainsBot: 1,000G (15.9%, 86,658G)
Sairentozon7: 1,000G (15.9%, 3,867G)
b4k4m4n: 933G (14.9%, 933G)
killth3kid: 801G (12.8%, 80,186G)
Oreo_Pizza: 500G (8.0%, 3,602G)
benticore: 250G (4.0%, 14,540G)
Mysteriousdewd: 200G (3.2%, 1,720G)
getthemoneyz: 34G (0.5%, 1,271,366G)

purple bets:
midnight_blues3: 5,000G (32.5%, 10,741G)
Zbgs: 2,500G (16.2%, 14,005G)
roqqqpsi: 1,553G (10.1%, 38,844G)
Shalloween: 1,500G (9.7%, 56,489G)
HaateXIII: 953G (6.2%, 953G)
randgridr: 896G (5.8%, 4,483G)
TasisSai: 789G (5.1%, 789G)
dogsandcatsand: 516G (3.4%, 516G)
roofiepops: 437G (2.8%, 3,519G)
ACSpree: 384G (2.5%, 384G)
JethroThrul: 364G (2.4%, 364G)
nsm013: 200G (1.3%, 12,030G)
datadrivenbot: 200G (1.3%, 65,052G)
nhammen: 100G (0.6%, 6,875G)
popotinha1889: 10G (0.1%, 193G)
