Final Bets: white - 14 bets for 19,283G (65.8%, x0.52); black - 12 bets for 10,008G (34.2%, x1.93)

white bets:
toka222: 6,500G (33.7%, 116,073G)
roofiepops: 3,426G (17.8%, 3,426G)
Zeroroute: 2,885G (15.0%, 2,885G)
Aldrammech: 2,000G (10.4%, 67,124G)
Jeeboheebo: 1,002G (5.2%, 30,001G)
Tarheels218: 784G (4.1%, 784G)
killth3kid: 740G (3.8%, 17,567G)
SephDarkheart: 600G (3.1%, 98,099G)
butterbelljedi: 490G (2.5%, 1,067G)
byrdturbo: 255G (1.3%, 24,099G)
datadrivenbot: 200G (1.0%, 67,345G)
ryjelsum: 200G (1.0%, 2,516G)
gorgewall: 101G (0.5%, 6,503G)
MinBetBot: 100G (0.5%, 6,176G)

black bets:
NIghtdew14: 2,000G (20.0%, 13,506G)
dogsandcatsand: 1,671G (16.7%, 3,277G)
BirbBrainsBot: 1,000G (10.0%, 12,705G)
getthemoneyz: 1,000G (10.0%, 1,656,773G)
Thyrandaal: 1,000G (10.0%, 317,735G)
ANFz: 924G (9.2%, 924G)
Chuckolator: 900G (9.0%, 900G)
Kronikle: 540G (5.4%, 19,493G)
Shalloween: 500G (5.0%, 18,668G)
KasugaiRoastedPeas: 200G (2.0%, 8,972G)
AllInBot: 173G (1.7%, 173G)
nhammen: 100G (1.0%, 58,925G)
