Final Bets: red - 6 bets for 2,815G (31.3%, x2.20); blue - 9 bets for 6,189G (68.7%, x0.45)

red bets:
nifboy: 1,320G (46.9%, 1,320G)
LeoNightFury: 500G (17.8%, 3,176G)
mardokttv: 444G (15.8%, 444G)
LAGBOT30000: 264G (9.4%, 26,485G)
KasugaiRoastedPeas: 200G (7.1%, 919G)
roqqqpsi: 87G (3.1%, 8,795G)

blue bets:
Shakarak: 3,000G (48.5%, 53,550G)
ThePineappleSalesman: 816G (13.2%, 816G)
ColetteMSLP: 800G (12.9%, 61,731G)
DeathTaxesAndAnime: 623G (10.1%, 623G)
E_Ballard: 600G (9.7%, 600G)
CosmicTactician: 100G (1.6%, 22,723G)
Jeeboheebo: 100G (1.6%, 2,513G)
datadrivenbot: 100G (1.6%, 21,627G)
letdowncity: 50G (0.8%, 1,689G)
