Final Bets: green - 13 bets for 4,313G (50.3%, x0.99); yellow - 11 bets for 4,255G (49.7%, x1.01)

green bets:
faustified: 1,000G (23.2%, 1,000G)
aStatue: 912G (21.1%, 912G)
jhazor: 646G (15.0%, 12,934G)
leakimiko: 547G (12.7%, 547G)
Meanderandreturn: 300G (7.0%, 7,415G)
DaMadPanda182: 200G (4.6%, 4,870G)
potgodtopdog: 108G (2.5%, 108G)
R_Raynos: 100G (2.3%, 7,946G)
twelfthrootoftwo: 100G (2.3%, 3,215G)
ungabunga_bot: 100G (2.3%, 181,469G)
PotionDweller: 100G (2.3%, 4,106G)
datadrivenbot: 100G (2.3%, 296G)
Mikumari12: 100G (2.3%, 685G)

yellow bets:
sinnyil2: 1,200G (28.2%, 65,666G)
Lydian_C: 1,200G (28.2%, 119,197G)
BirbBrainsBot: 931G (21.9%, 4,939G)
Realitydown: 200G (4.7%, 1,173G)
getthemoneyz: 124G (2.9%, 517,900G)
AllInBot: 100G (2.4%, 100G)
Jeeboheebo: 100G (2.4%, 16,770G)
elijahrockers: 100G (2.4%, 100G)
Jerboj: 100G (2.4%, 52,550G)
JIDkomu: 100G (2.4%, 2,753G)
Dexsana: 100G (2.4%, 10,677G)
