Final Bets: white - 13 bets for 6,495G (41.4%, x1.42); brown - 9 bets for 9,204G (58.6%, x0.71)

white bets:
ColetteMSLP: 2,000G (30.8%, 53,617G)
JIDkomu: 1,200G (18.5%, 2,754G)
Gelwain: 1,060G (16.3%, 5,304G)
aStatue: 500G (7.7%, 500G)
Jerboj: 500G (7.7%, 53,543G)
Dexsana: 400G (6.2%, 10,778G)
BirbBrainsBot: 219G (3.4%, 4,179G)
getthemoneyz: 116G (1.8%, 516,905G)
AllInBot: 100G (1.5%, 100G)
Jeeboheebo: 100G (1.5%, 16,738G)
twelfthrootoftwo: 100G (1.5%, 3,082G)
datadrivenbot: 100G (1.5%, 100G)
Mikumari12: 100G (1.5%, 542G)

brown bets:
Lydian_C: 4,200G (45.6%, 127,552G)
HASTERIOUS: 1,760G (19.1%, 17,608G)
DaveStrider55: 1,336G (14.5%, 1,336G)
jhazor: 603G (6.6%, 12,066G)
ungabunga_bot: 507G (5.5%, 179,940G)
Meanderandreturn: 500G (5.4%, 6,643G)
roqqqpsi: 117G (1.3%, 5,884G)
CassiePhoenix: 100G (1.1%, 3,337G)
elijahrockers: 81G (0.9%, 405G)
