Final Bets: yellow - 11 bets for 4,251G (19.3%, x4.19); brown - 17 bets for 17,793G (80.7%, x0.24)

yellow bets:
BirbBrainsBot: 1,000G (23.5%, 3,960G)
aStatue: 500G (11.8%, 500G)
mr_schwifty: 500G (11.8%, 2,277G)
superdevon1: 500G (11.8%, 6,675G)
JIDkomu: 500G (11.8%, 1,554G)
Chuckolator: 306G (7.2%, 25,136G)
Zachara: 254G (6.0%, 66,504G)
Dexsana: 250G (5.9%, 10,378G)
elijahrockers: 231G (5.4%, 462G)
getthemoneyz: 110G (2.6%, 516,789G)
twelfthrootoftwo: 100G (2.4%, 2,982G)

brown bets:
Gelwain: 4,244G (23.9%, 4,244G)
Lydian_C: 4,200G (23.6%, 129,516G)
HaplessOne: 2,500G (14.1%, 91,216G)
Willjin: 1,500G (8.4%, 21,451G)
roqqqpsi: 1,312G (7.4%, 5,967G)
jhazor: 1,249G (7.0%, 12,492G)
carsenhk: 1,000G (5.6%, 6,944G)
Meanderandreturn: 500G (2.8%, 6,996G)
leakimiko: 300G (1.7%, 300G)
Realitydown: 280G (1.6%, 280G)
ungabunga_bot: 108G (0.6%, 180,298G)
AllInBot: 100G (0.6%, 100G)
R_Raynos: 100G (0.6%, 7,967G)
CassiePhoenix: 100G (0.6%, 3,408G)
Jerboj: 100G (0.6%, 53,043G)
ALY327: 100G (0.6%, 7,360G)
datadrivenbot: 100G (0.6%, 100G)
