Final Bets: red - 12 bets for 4,025G (29.1%, x2.43); yellow - 17 bets for 9,795G (70.9%, x0.41)

red bets:
reinoe: 1,000G (24.8%, 18,500G)
mayormcfunbags: 755G (18.8%, 755G)
MalakoFox: 500G (12.4%, 17,144G)
PatSouI: 340G (8.4%, 340G)
upvla: 322G (8.0%, 6,363G)
Bulleta: 300G (7.5%, 8,280G)
Evewho: 244G (6.1%, 244G)
Cervani: 150G (3.7%, 2,331G)
getthemoneyz: 114G (2.8%, 436,172G)
Djorama: 100G (2.5%, 7,528G)
hannapiana: 100G (2.5%, 705G)
JackOnFire1: 100G (2.5%, 3,100G)

yellow bets:
Shakarak: 1,500G (15.3%, 35,408G)
Rethera_: 1,044G (10.7%, 1,044G)
BirbBrainsBot: 1,000G (10.2%, 208,875G)
bad1dea: 1,000G (10.2%, 25,845G)
BenYuPoker: 995G (10.2%, 995G)
ungabunga_bot: 850G (8.7%, 14,828G)
sinnyil2: 712G (7.3%, 712G)
yure1x: 582G (5.9%, 582G)
rubenflonne: 500G (5.1%, 5,814G)
WireLord: 388G (4.0%, 388G)
R_Raynos: 276G (2.8%, 276G)
herrshaun: 220G (2.2%, 220G)
ugoplatamia: 200G (2.0%, 17,088G)
TheOneRanger: 200G (2.0%, 1,727G)
Slowbrofist: 128G (1.3%, 128G)
AllInBot: 100G (1.0%, 100G)
datadrivenbot: 100G (1.0%, 18,306G)
