Final Bets: purple - 11 bets for 4,576G (33.0%, x2.03); brown - 14 bets for 9,311G (67.0%, x0.49)

purple bets:
BirbBrainsBot: 1,000G (21.9%, 137,477G)
Thyrandaal: 1,000G (21.9%, 39,311G)
skillomono: 1,000G (21.9%, 30,707G)
getthemoneyz: 372G (8.1%, 1,817,804G)
krombobreaker: 300G (6.6%, 6,730G)
LeoNightFury: 216G (4.7%, 216G)
The_Post_War_Dream: 200G (4.4%, 2,801G)
PuzzleSecretary: 188G (4.1%, 188G)
nifboy: 100G (2.2%, 8,036G)
Twisted_Nutsatchel: 100G (2.2%, 18,737G)
arumz: 100G (2.2%, 26,329G)

brown bets:
DaveStrider55: 1,668G (17.9%, 1,668G)
DeathTaxesAndAnime: 1,476G (15.9%, 1,476G)
SephDarkheart: 1,384G (14.9%, 1,384G)
dogsandcatsand: 1,044G (11.2%, 1,044G)
reinoe: 1,000G (10.7%, 12,845G)
resjudicata3: 964G (10.4%, 964G)
thebluesman: 500G (5.4%, 19,500G)
CorpusCav: 300G (3.2%, 11,284G)
bigbongsmoker: 236G (2.5%, 4,532G)
Lemonjohns: 210G (2.3%, 3,809G)
datadrivenbot: 200G (2.1%, 57,831G)
FriendlySkeleton: 128G (1.4%, 128G)
gorgewall: 101G (1.1%, 4,682G)
douchetron: 100G (1.1%, 4,878G)
