Final Bets: blue - 8 bets for 8,364G (35.3%, x1.83); green - 15 bets for 15,347G (64.7%, x0.54)

blue bets:
snkey: 3,432G (41.0%, 34,321G)
FriendSquirrel: 1,740G (20.8%, 3,412G)
DeathTaxesAndAnime: 1,472G (17.6%, 1,472G)
FriendlySkeleton: 628G (7.5%, 628G)
nifboy: 500G (6.0%, 8,739G)
Leonidusx: 256G (3.1%, 256G)
bigbongsmoker: 236G (2.8%, 4,796G)
CosmicTactician: 100G (1.2%, 44,639G)

green bets:
Shalloween: 4,202G (27.4%, 8,404G)
latebit: 3,906G (25.5%, 3,906G)
sinnyil2: 2,846G (18.5%, 2,846G)
arumz: 1,000G (6.5%, 27,032G)
BirbBrainsBot: 1,000G (6.5%, 139,512G)
CorpusCav: 484G (3.2%, 11,484G)
AltimaMantoid: 362G (2.4%, 2,662G)
krombobreaker: 300G (2.0%, 7,840G)
PuzzleSecretary: 300G (2.0%, 571G)
thunderducker: 222G (1.4%, 1,616G)
Chuckolator: 206G (1.3%, 2,965G)
datadrivenbot: 200G (1.3%, 57,631G)
Twisted_Nutsatchel: 200G (1.3%, 18,940G)
gorgewall: 101G (0.7%, 5,081G)
getthemoneyz: 18G (0.1%, 1,818,561G)
