Final Bets: white - 17 bets for 13,522G (57.7%, x0.73); black - 10 bets for 9,902G (42.3%, x1.37)

white bets:
nekojin: 4,560G (33.7%, 18,243G)
thunderducker: 1,200G (8.9%, 7,747G)
Mesmaster: 1,008G (7.5%, 1,008G)
Sairentozon7: 1,000G (7.4%, 17,952G)
NovaKnight21: 868G (6.4%, 868G)
upvla: 775G (5.7%, 775G)
gorgewall: 752G (5.6%, 752G)
AllInBot: 715G (5.3%, 715G)
krombobreaker: 700G (5.2%, 3,876G)
CorpusCav: 500G (3.7%, 11,258G)
LuckyLuckLuc2: 333G (2.5%, 8,824G)
bufuman: 300G (2.2%, 1,263G)
datadrivenbot: 200G (1.5%, 75,580G)
killabandaid: 200G (1.5%, 757G)
ShadowNinja25: 200G (1.5%, 2,965G)
NicoSavoy: 111G (0.8%, 141,285G)
galkife: 100G (0.7%, 80,243G)

black bets:
mindblownnnn: 2,785G (28.1%, 5,571G)
Mushufasa_: 1,500G (15.1%, 93,282G)
getthemoneyz: 1,000G (10.1%, 2,049,778G)
BirbBrainsBot: 1,000G (10.1%, 99,138G)
JonnyCue: 1,000G (10.1%, 11,581G)
latebit: 770G (7.8%, 770G)
Grasnikk: 759G (7.7%, 759G)
lowlf: 588G (5.9%, 14,742G)
ghazzzzzz: 250G (2.5%, 1,000G)
sirbatata3: 250G (2.5%, 1,000G)
