Final Bets: red - 18 bets for 11,629G (39.7%, x1.52); yellow - 17 bets for 17,684G (60.3%, x0.66)

red bets:
Nizaha: 4,634G (39.8%, 9,268G)
sinnyil2: 1,200G (10.3%, 5,745G)
MantisFinch: 1,000G (8.6%, 17,593G)
datadrivenbot: 533G (4.6%, 21,075G)
fenaen: 500G (4.3%, 12,315G)
Theseawolf1: 500G (4.3%, 7,442G)
catfashions: 500G (4.3%, 2,408G)
Aldrammech: 500G (4.3%, 19,114G)
roqqqpsi: 369G (3.2%, 1,680G)
HaateXIII: 340G (2.9%, 340G)
b0shii: 333G (2.9%, 1,597G)
waterwatereverywhere: 300G (2.6%, 3,969G)
Meta_Five: 300G (2.6%, 10,824G)
wollise89: 220G (1.9%, 1,128G)
RezzaDV: 100G (0.9%, 1,546G)
Lordminsc: 100G (0.9%, 9,957G)
methodless_man: 100G (0.9%, 1,319G)
DrAntiSocial: 100G (0.9%, 3,484G)

yellow bets:
YaBoy125: 8,616G (48.7%, 8,616G)
Shakarak: 1,799G (10.2%, 1,799G)
ungabunga_bot: 1,000G (5.7%, 104,514G)
BirbBrainsBot: 1,000G (5.7%, 69,857G)
gooseyourself: 1,000G (5.7%, 5,114G)
Slowbrofist: 809G (4.6%, 809G)
Lanshaft: 600G (3.4%, 600G)
SWATb1gdog: 500G (2.8%, 2,047G)
maakur_: 460G (2.6%, 460G)
KasugaiRoastedPeas: 400G (2.3%, 8,284G)
LavyWays: 400G (2.3%, 26,021G)
TheGuesty: 372G (2.1%, 372G)
AllInBot: 322G (1.8%, 322G)
getthemoneyz: 106G (0.6%, 478,447G)
ko2q: 100G (0.6%, 2,994G)
rjA0zcOQ96: 100G (0.6%, 7,228G)
Pochitchi: 100G (0.6%, 872G)
