Final Bets: yellow - 14 bets for 10,892G (56.9%, x0.76); purple - 19 bets for 8,267G (43.1%, x1.32)

yellow bets:
AllInBot: 2,115G (19.4%, 2,115G)
Aldrammech: 1,675G (15.4%, 16,753G)
KasugaiRoastedPeas: 1,000G (9.2%, 9,139G)
MantisFinch: 1,000G (9.2%, 15,593G)
Pochitchi: 938G (8.6%, 938G)
datadrivenbot: 737G (6.8%, 19,794G)
SWATb1gdog: 700G (6.4%, 2,076G)
Lanshaft: 600G (5.5%, 600G)
catfashions: 600G (5.5%, 1,358G)
LavyWays: 500G (4.6%, 25,884G)
TheGuesty: 372G (3.4%, 372G)
waterwatereverywhere: 300G (2.8%, 3,373G)
rico_flex: 250G (2.3%, 3,550G)
DrAntiSocial: 105G (1.0%, 3,215G)

purple bets:
UmaiJam: 1,000G (12.1%, 34,856G)
ungabunga_bot: 1,000G (12.1%, 108,133G)
BirbBrainsBot: 1,000G (12.1%, 73,476G)
sinnyil2: 700G (8.5%, 5,321G)
YaBoy125: 600G (7.3%, 600G)
Ragnarok784: 594G (7.2%, 594G)
Meta_Five: 500G (6.0%, 10,024G)
fenaen: 500G (6.0%, 11,315G)
maakur_: 460G (5.6%, 460G)
HaateXIII: 340G (4.1%, 340G)
roqqqpsi: 305G (3.7%, 1,388G)
mpghappiness: 300G (3.6%, 1,525G)
b0shii: 222G (2.7%, 2,250G)
Breakdown777: 200G (2.4%, 5,103G)
getthemoneyz: 126G (1.5%, 478,991G)
wollise89: 120G (1.5%, 788G)
RezzaDV: 100G (1.2%, 1,742G)
ko2q: 100G (1.2%, 3,356G)
Lordminsc: 100G (1.2%, 9,757G)
