Final Bets: white - 10 bets for 4,599G (78.3%, x0.28); purple - 3 bets for 1,276G (21.7%, x3.60)

white bets:
CT_5_Holy: 1,401G (30.5%, 2,803G)
BirbBrainsBot: 876G (19.0%, 18,407G)
blorpy_: 796G (17.3%, 19,904G)
NovaKnight21: 624G (13.6%, 624G)
iBardic: 280G (6.1%, 280G)
datadrivenbot: 200G (4.3%, 71,044G)
wildetrys: 112G (2.4%, 2,448G)
gorgewall: 110G (2.4%, 5,305G)
AllInBot: 100G (2.2%, 100G)
MinBetBot: 100G (2.2%, 6,036G)

purple bets:
getthemoneyz: 676G (53.0%, 1,655,397G)
Draconis345: 500G (39.2%, 13,372G)
Dragon_RW: 100G (7.8%, 1,206G)
