Final Bets: white - 10 bets for 7,684G (55.1%, x0.81); black - 11 bets for 6,259G (44.9%, x1.23)

white bets:
KasugaiRoastedPeas: 4,368G (56.8%, 4,368G)
Greggernaut: 1,000G (13.0%, 36,966G)
AltimaMantoid: 550G (7.2%, 550G)
Sietaha: 500G (6.5%, 4,108G)
Runeseeker22: 400G (5.2%, 4,006G)
killth3kid: 250G (3.3%, 13,431G)
datadrivenbot: 200G (2.6%, 55,916G)
ZPawZ: 200G (2.6%, 2,723G)
velvet_muffins: 116G (1.5%, 116G)
DeathTaxesAndAnime: 100G (1.3%, 9,728G)

black bets:
NicoSavoy: 2,000G (32.0%, 6,229G)
upvla: 1,234G (19.7%, 9,396G)
getthemoneyz: 1,000G (16.0%, 1,840,062G)
Raixelol: 524G (8.4%, 3,129G)
CorpusCav: 500G (8.0%, 17,378G)
krombobreaker: 316G (5.0%, 316G)
BirbBrainsBot: 200G (3.2%, 200G)
PuzzleSecretary: 196G (3.1%, 979G)
Sobid: 100G (1.6%, 100G)
ImmortalMage: 100G (1.6%, 547G)
BartTradingCompany: 89G (1.4%, 897G)
