Final Bets: white - 15 bets for 7,985G (20.1%, x3.96); black - 24 bets for 31,647G (79.9%, x0.25)

white bets:
Nickyfive: 2,329G (29.2%, 9,318G)
Baron_von_Scrub: 1,111G (13.9%, 89,345G)
Aldrammech: 1,000G (12.5%, 54,300G)
gooseyourself: 1,000G (12.5%, 22,821G)
fenaen: 500G (6.3%, 25,894G)
LeepingJJ: 387G (4.8%, 387G)
waterwatereverywhere: 376G (4.7%, 376G)
Lanshaft: 332G (4.2%, 1,872G)
Zachara: 250G (3.1%, 64,750G)
IamInfamous: 200G (2.5%, 2,573G)
FoeSquirrel: 100G (1.3%, 2,711G)
mexskacin: 100G (1.3%, 7,086G)
FriendSquirrel: 100G (1.3%, 23,190G)
SeniorBunk: 100G (1.3%, 4,907G)
Dexef: 100G (1.3%, 5,615G)

black bets:
UmaiJam: 8,005G (25.3%, 8,005G)
flowinprose: 5,000G (15.8%, 64,260G)
catfashions: 2,500G (7.9%, 10,558G)
ColetteMSLP: 2,000G (6.3%, 50,898G)
Lyner87: 2,000G (6.3%, 61,609G)
sinnyil2: 1,200G (3.8%, 86,325G)
MirtaiAtana: 1,161G (3.7%, 1,161G)
Lordminsc: 1,001G (3.2%, 28,761G)
volgrathemoose: 1,001G (3.2%, 154,801G)
MantisFinch: 1,000G (3.2%, 29,910G)
ungabunga_bot: 1,000G (3.2%, 176,697G)
comradecry: 1,000G (3.2%, 2,058G)
alecttox: 1,000G (3.2%, 61,348G)
getthemoneyz: 958G (3.0%, 513,175G)
killth3kid: 675G (2.1%, 675G)
Breakdown777: 500G (1.6%, 36,381G)
TheGuesty: 350G (1.1%, 17,590G)
Tougou: 300G (0.9%, 300G)
Webb_MD: 228G (0.7%, 228G)
Lavatis: 228G (0.7%, 228G)
BirbBrainsBot: 200G (0.6%, 200G)
AllInBot: 140G (0.4%, 140G)
datadrivenbot: 100G (0.3%, 1,298G)
Kamira69: 100G (0.3%, 3,951G)
