Final Bets: green - 12 bets for 8,330G (35.0%, x1.86); yellow - 20 bets for 15,461G (65.0%, x0.54)

green bets:
cam_ATS: 1,928G (23.1%, 46,241G)
DLJuggernaut: 1,060G (12.7%, 1,060G)
Aldrammech: 1,000G (12.0%, 10,176G)
Evewho: 1,000G (12.0%, 9,512G)
killth3kid: 1,000G (12.0%, 97,232G)
Zetchryn: 504G (6.1%, 504G)
letdowncity: 380G (4.6%, 2,739G)
getthemoneyz: 374G (4.5%, 1,228,622G)
dolzytwitch: 300G (3.6%, 3,391G)
Rytor: 300G (3.6%, 21,539G)
ThreeMileIsland: 284G (3.4%, 284G)
RageImmortaI: 200G (2.4%, 2,458G)

yellow bets:
solomongrundy85: 3,429G (22.2%, 6,858G)
Mesmaster: 3,000G (19.4%, 33,826G)
twelfthrootoftwo: 1,189G (7.7%, 2,332G)
dogsandcatsand: 1,092G (7.1%, 1,092G)
reinoe: 1,000G (6.5%, 50,854G)
BirbBrainsBot: 1,000G (6.5%, 164,382G)
DeathTaxesAndAnime: 908G (5.9%, 908G)
SkylerBunny: 514G (3.3%, 514G)
Seaweed_B: 500G (3.2%, 9,471G)
superdevon1: 408G (2.6%, 408G)
loveyouallfriends: 400G (2.6%, 400G)
Shalloween: 400G (2.6%, 52,992G)
phrossi_v: 364G (2.4%, 5,006G)
Arcblazer23: 356G (2.3%, 356G)
gorgewall: 201G (1.3%, 13,616G)
Mysteriousdewd: 200G (1.3%, 8,017G)
datadrivenbot: 200G (1.3%, 60,128G)
Blakelmenakle: 100G (0.6%, 2,239G)
TasisSai: 100G (0.6%, 969G)
Grandlanzer: 100G (0.6%, 64,632G)
