Final Bets: black - 18 bets for 14,762G (66.4%, x0.51); purple - 12 bets for 7,478G (33.6%, x1.97)

black bets:
Zbgs: 2,500G (16.9%, 28,077G)
Mesmaster: 2,000G (13.5%, 37,445G)
KyleWonToLiveForever: 1,818G (12.3%, 1,818G)
SkylerBunny: 1,179G (8.0%, 1,179G)
killth3kid: 1,000G (6.8%, 96,413G)
Aldrammech: 1,000G (6.8%, 10,357G)
Sairentozon7: 1,000G (6.8%, 1,860G)
DLJuggernaut: 992G (6.7%, 992G)
RaIshtar: 800G (5.4%, 20,810G)
reinoe: 500G (3.4%, 51,393G)
Aquios_: 435G (2.9%, 435G)
superdevon1: 412G (2.8%, 412G)
letdowncity: 380G (2.6%, 2,451G)
Shalloween: 200G (1.4%, 53,435G)
datadrivenbot: 200G (1.4%, 60,511G)
getthemoneyz: 146G (1.0%, 1,227,870G)
nsm013: 100G (0.7%, 9,413G)
TasisSai: 100G (0.7%, 1,147G)

purple bets:
cam_ATS: 1,001G (13.4%, 44,555G)
Evewho: 1,000G (13.4%, 7,700G)
TheChainNerd: 1,000G (13.4%, 33,307G)
dogsandcatsand: 961G (12.9%, 961G)
twelfthrootoftwo: 869G (11.6%, 1,704G)
BirbBrainsBot: 698G (9.3%, 164,237G)
Cryptopsy70: 600G (8.0%, 22,127G)
loveyouallfriends: 500G (6.7%, 1,696G)
prince_rogers_nelson_: 348G (4.7%, 348G)
gorgewall: 201G (2.7%, 14,000G)
Blakelmenakle: 200G (2.7%, 2,119G)
Skincrawler: 100G (1.3%, 100G)
