Final Bets: red - 22 bets for 14,230G (50.1%, x1.00); purple - 13 bets for 14,193G (49.9%, x1.00)

red bets:
loveyouallfriends: 2,683G (18.9%, 2,683G)
prince_rogers_nelson_: 1,039G (7.3%, 1,039G)
killth3kid: 1,000G (7.0%, 95,413G)
RaIshtar: 1,000G (7.0%, 20,010G)
nsm013: 1,000G (7.0%, 9,313G)
BirbBrainsBot: 1,000G (7.0%, 165,615G)
Mesmaster: 1,000G (7.0%, 35,445G)
Aldrammech: 1,000G (7.0%, 9,357G)
Cryptopsy70: 600G (4.2%, 23,311G)
Shalloween: 600G (4.2%, 53,235G)
Evewho: 500G (3.5%, 9,678G)
HaateXIII: 500G (3.5%, 3,633G)
ThreeMileIsland: 476G (3.3%, 476G)
SkylerBunny: 420G (3.0%, 420G)
KyleWonToLiveForever: 356G (2.5%, 356G)
Arcblazer23: 356G (2.5%, 356G)
Aquios_: 212G (1.5%, 212G)
datadrivenbot: 200G (1.4%, 60,311G)
TasisSai: 100G (0.7%, 1,047G)
Grandlanzer: 100G (0.7%, 64,586G)
getthemoneyz: 78G (0.5%, 1,227,724G)
nhammen: 10G (0.1%, 8,530G)

purple bets:
Zbgs: 5,000G (35.2%, 25,577G)
cam_ATS: 2,500G (17.6%, 46,531G)
NicoSavoy: 2,000G (14.1%, 160,498G)
twelfthrootoftwo: 1,743G (12.3%, 3,419G)
superdevon1: 412G (2.9%, 412G)
joewcarson: 400G (2.8%, 21,261G)
Zagorsek: 388G (2.7%, 388G)
letdowncity: 380G (2.7%, 2,071G)
DLJuggernaut: 360G (2.5%, 360G)
dogsandcatsand: 333G (2.3%, 2,858G)
OtherBrand: 276G (1.9%, 276G)
gorgewall: 201G (1.4%, 14,397G)
Blakelmenakle: 200G (1.4%, 2,514G)
