Final Bets: green - 18 bets for 13,416G (43.0%, x1.33); yellow - 21 bets for 17,785G (57.0%, x0.75)

green bets:
Mesmaster: 3,145G (23.4%, 6,291G)
HaateXIII: 2,029G (15.1%, 4,058G)
nifboy: 1,175G (8.8%, 2,351G)
Zbgs: 1,003G (7.5%, 39,988G)
Breakdown777: 1,002G (7.5%, 21,855G)
BirbBrainsBot: 1,000G (7.5%, 172,116G)
Thyrandaal: 1,000G (7.5%, 3,765G)
getthemoneyz: 924G (6.9%, 845,842G)
OneHundredFists: 547G (4.1%, 547G)
Spuzzmocker: 284G (2.1%, 284G)
benticore: 250G (1.9%, 1,341G)
maleblackfiora: 224G (1.7%, 5,284G)
CosmicTactician: 200G (1.5%, 13,161G)
HASTERIOUS: 185G (1.4%, 3,710G)
KyleWonToLiveForever: 144G (1.1%, 144G)
mattcorn7: 104G (0.8%, 104G)
Miku_Shikhu: 100G (0.7%, 5,738G)
Sans_from_Snowdin: 100G (0.7%, 4,888G)

yellow bets:
Deathmaker06: 10,000G (56.2%, 10,136G)
SkylerBunny: 2,000G (11.2%, 113,088G)
Rislyeu: 1,000G (5.6%, 14,805G)
DeathTaxesAndAnime: 820G (4.6%, 820G)
Dymntd: 500G (2.8%, 36,401G)
EnemyController: 500G (2.8%, 559,005G)
DLJuggernaut: 484G (2.7%, 2,421G)
DustBirdEX: 483G (2.7%, 483G)
waterwatereverywhere: 400G (2.2%, 10,075G)
LeoNightFury: 292G (1.6%, 292G)
Anak761: 250G (1.4%, 11,147G)
CaptainGarlock: 200G (1.1%, 208G)
ar_tactic: 150G (0.8%, 61,774G)
gorgewall: 101G (0.6%, 5,243G)
Celdia: 100G (0.6%, 1,659G)
cogniv0r3: 100G (0.6%, 1,070G)
silentkaster: 100G (0.6%, 400G)
Grandlanzer: 100G (0.6%, 6,167G)
a_mo22: 100G (0.6%, 4,519G)
datadrivenbot: 100G (0.6%, 35,465G)
moonliquor: 5G (0.0%, 884G)
