Final Bets: blue - 23 bets for 16,970G (63.3%, x0.58); green - 19 bets for 9,854G (36.7%, x1.72)

blue bets:
Zbgs: 4,000G (23.6%, 36,318G)
nifboy: 3,187G (18.8%, 3,187G)
SkylerBunny: 2,000G (11.8%, 113,593G)
CrownOfHorns: 1,102G (6.5%, 1,102G)
NovaKnight21: 1,021G (6.0%, 1,021G)
Breakdown777: 1,002G (5.9%, 22,181G)
Mesmaster: 1,000G (5.9%, 14,322G)
DustBirdEX: 741G (4.4%, 741G)
Dymntd: 500G (2.9%, 35,701G)
EnemyController: 500G (2.9%, 558,259G)
moonliquor: 376G (2.2%, 376G)
CandyTamer: 264G (1.6%, 597G)
ar_tactic: 200G (1.2%, 61,449G)
KyleWonToLiveForever: 144G (0.8%, 144G)
nhammen: 120G (0.7%, 120G)
Spuzzmocker: 112G (0.7%, 112G)
gorgewall: 101G (0.6%, 5,192G)
Flameatron: 100G (0.6%, 1,110G)
CosmicTactician: 100G (0.6%, 13,426G)
silentkaster: 100G (0.6%, 300G)
Kellios11: 100G (0.6%, 8,840G)
Grandlanzer: 100G (0.6%, 6,193G)
datadrivenbot: 100G (0.6%, 35,315G)

green bets:
HaateXIII: 4,213G (42.8%, 8,426G)
BirbBrainsBot: 1,000G (10.1%, 175,200G)
Thyrandaal: 1,000G (10.1%, 6,849G)
getthemoneyz: 982G (10.0%, 846,593G)
CaptainGarlock: 452G (4.6%, 452G)
LeoNightFury: 292G (3.0%, 292G)
Angelomortis: 244G (2.5%, 244G)
prince_rogers_nelson_: 201G (2.0%, 5,315G)
KasugaiRoastedPeas: 200G (2.0%, 4,472G)
maleblackfiora: 200G (2.0%, 5,592G)
OneHundredFists: 200G (2.0%, 1,178G)
ivellioz: 150G (1.5%, 4,536G)
Lydian_C: 120G (1.2%, 9,661G)
Evewho: 100G (1.0%, 7,345G)
Celdia: 100G (1.0%, 1,585G)
moocaotao: 100G (1.0%, 1,538G)
Quadh0nk: 100G (1.0%, 1,000G)
Sans_from_Snowdin: 100G (1.0%, 5,021G)
cogniv0r3: 100G (1.0%, 920G)
