Final Bets: blue - 16 bets for 44,587G (73.6%, x0.36); brown - 23 bets for 15,996G (26.4%, x2.79)

blue bets:
Zbgs: 33,141G (74.3%, 33,141G)
HaateXIII: 2,106G (4.7%, 4,213G)
sinnyil2: 1,952G (4.4%, 1,952G)
nifboy: 1,509G (3.4%, 3,019G)
Breakdown777: 1,002G (2.2%, 24,488G)
Anak761: 1,000G (2.2%, 11,397G)
moonliquor: 876G (2.0%, 876G)
Spuzzmocker: 677G (1.5%, 677G)
ivellioz: 500G (1.1%, 4,386G)
ar_tactic: 500G (1.1%, 61,765G)
LeoNightFury: 292G (0.7%, 292G)
CandyTamer: 264G (0.6%, 986G)
Angelomortis: 244G (0.5%, 244G)
maleblackfiora: 224G (0.5%, 4,892G)
CaptainGarlock: 200G (0.4%, 200G)
silentkaster: 100G (0.2%, 300G)

brown bets:
flowinprose: 5,000G (31.3%, 87,341G)
SkylerBunny: 3,000G (18.8%, 109,754G)
KyleWonToLiveForever: 1,159G (7.2%, 1,159G)
metagameface: 1,000G (6.3%, 4,970G)
BirbBrainsBot: 1,000G (6.3%, 178,285G)
Thyrandaal: 1,000G (6.3%, 9,934G)
OneHundredFists: 923G (5.8%, 2,295G)
Sans_from_Snowdin: 772G (4.8%, 772G)
DustBirdEX: 328G (2.1%, 328G)
BigGlorious: 300G (1.9%, 2,748G)
mattcorn7: 235G (1.5%, 235G)
prince_rogers_nelson_: 200G (1.3%, 5,414G)
richardserious: 125G (0.8%, 2,511G)
Lydian_C: 120G (0.8%, 10,031G)
Kellios11: 100G (0.6%, 9,806G)
Celdia: 100G (0.6%, 2,397G)
CosmicTactician: 100G (0.6%, 14,484G)
cogniv0r3: 100G (0.6%, 1,524G)
DeathTaxesAndAnime: 100G (0.6%, 1,754G)
datadrivenbot: 100G (0.6%, 35,273G)
Quadh0nk: 100G (0.6%, 1,308G)
reinoe: 100G (0.6%, 7,735G)
getthemoneyz: 34G (0.2%, 846,019G)
