Final Bets: purple - 13 bets for 10,136G (55.3%, x0.81); brown - 13 bets for 8,183G (44.7%, x1.24)

purple bets:
Error72: 3,003G (29.6%, 25,541G)
resjudicata3: 1,093G (10.8%, 2,145G)
otakutaylor: 1,000G (9.9%, 2,576G)
Shalloween: 1,000G (9.9%, 9,014G)
CorpusCav: 836G (8.2%, 5,326G)
nifboy: 816G (8.1%, 12,361G)
krombobreaker: 500G (4.9%, 15,614G)
JonnyCue: 452G (4.5%, 452G)
SephDarkheart: 372G (3.7%, 44,506G)
ValensEXP_: 364G (3.6%, 9,775G)
ColetteMSLP: 300G (3.0%, 4,196G)
datadrivenbot: 200G (2.0%, 71,806G)
CosmicTactician: 200G (2.0%, 29,548G)

brown bets:
Mesmaster: 2,000G (24.4%, 13,610G)
BirbBrainsBot: 1,000G (12.2%, 17,214G)
Leonidusx: 1,000G (12.2%, 201,519G)
reinoe: 1,000G (12.2%, 22,814G)
DeathTaxesAndAnime: 824G (10.1%, 824G)
nekojin: 588G (7.2%, 588G)
getthemoneyz: 482G (5.9%, 2,029,099G)
Zagorsek: 464G (5.7%, 464G)
AllInBot: 301G (3.7%, 301G)
ribbiks: 200G (2.4%, 5,612G)
SnarkMage: 124G (1.5%, 262G)
ChiChiRodriguez: 100G (1.2%, 1,452G)
Firesheath: 100G (1.2%, 3,451G)
