Final Bets: white - 19 bets for 16,185G (42.6%, x1.35); champion - 31 bets for 21,811G (57.4%, x0.74)

white bets:
sinnyil2: 4,500G (27.8%, 79,414G)
Lydian_C: 4,200G (25.9%, 136,704G)
volgrathemoose: 1,001G (6.2%, 148,178G)
HaplessOne: 1,000G (6.2%, 95,620G)
Nizaha: 932G (5.8%, 932G)
Laserman1000: 868G (5.4%, 32,368G)
joewcarson: 501G (3.1%, 3,029G)
RunicMagus: 500G (3.1%, 38,091G)
alrightbye: 500G (3.1%, 41,619G)
Anox_Skell: 400G (2.5%, 3,158G)
DudeMonkey77: 333G (2.1%, 7,441G)
TheMurkGnome: 300G (1.9%, 3,690G)
VySaika: 250G (1.5%, 17,263G)
HaateXIII: 250G (1.5%, 5,262G)
rico_flex: 250G (1.5%, 11,847G)
Langrisser: 100G (0.6%, 7,919G)
FriendSquirrel: 100G (0.6%, 28,600G)
Tougou: 100G (0.6%, 924G)
moonliquor: 100G (0.6%, 971G)

champion bets:
FoeSquirrel: 2,319G (10.6%, 2,319G)
Pochitchi: 2,000G (9.2%, 14,448G)
Lordminsc: 1,205G (5.5%, 34,357G)
AllInBot: 1,156G (5.3%, 1,156G)
HASTERIOUS: 1,033G (4.7%, 20,670G)
R_Raynos: 1,000G (4.6%, 18,399G)
itsonlyspencer: 1,000G (4.6%, 10,495G)
DustBirdEX: 1,000G (4.6%, 21,500G)
SkylerBunny: 1,000G (4.6%, 64,459G)
Dexsana: 1,000G (4.6%, 16,037G)
pandasforsale: 999G (4.6%, 9,589G)
StormSquad: 842G (3.9%, 842G)
MagicBottle: 737G (3.4%, 73,706G)
nedryerson01: 724G (3.3%, 724G)
roofiepops: 700G (3.2%, 13,638G)
mirapoix: 672G (3.1%, 672G)
stgyoshi: 600G (2.8%, 600G)
TheGuesty: 500G (2.3%, 18,371G)
Breakdown777: 500G (2.3%, 41,918G)
TheMM42: 500G (2.3%, 24,483G)
fenaen: 500G (2.3%, 30,907G)
ShintaroNayaka: 400G (1.8%, 20,663G)
Willjin: 400G (1.8%, 15,890G)
ericzubat: 328G (1.5%, 328G)
SwaffleWaffles: 196G (0.9%, 19,603G)
mexskacin: 100G (0.5%, 6,321G)
DHaveWord: 100G (0.5%, 1,879G)
kaidykat: 100G (0.5%, 938G)
OneHundredFists: 100G (0.5%, 5,809G)
GingerDynomite: 50G (0.2%, 830G)
richardserious: 50G (0.2%, 568G)
