Final Bets: red - 25 bets for 20,111G (65.9%, x0.52); blue - 18 bets for 10,397G (34.1%, x1.93)

red bets:
TheMurkGnome: 3,000G (14.9%, 15,364G)
Aldrammech: 2,000G (9.9%, 10,373G)
ko2q: 1,765G (8.8%, 1,765G)
alrightbye: 1,367G (6.8%, 45,596G)
0utlier: 1,337G (6.6%, 2,752G)
Lordminsc: 1,205G (6.0%, 49,096G)
Bryon_W: 1,000G (5.0%, 1,868G)
skysa250: 1,000G (5.0%, 86,182G)
marin1987: 1,000G (5.0%, 4,742G)
roofiepops: 1,000G (5.0%, 15,629G)
gooseyourself: 1,000G (5.0%, 21,670G)
getthemoneyz: 840G (4.2%, 555,458G)
Laserman1000: 800G (4.0%, 34,000G)
MagicBottle: 731G (3.6%, 73,110G)
OmnibotGamma: 500G (2.5%, 1,424G)
gorgewall: 300G (1.5%, 7,227G)
ungabunga_bot: 272G (1.4%, 215,449G)
Lavatis: 200G (1.0%, 2,006G)
Mikumari12: 200G (1.0%, 779G)
trigger15: 150G (0.7%, 921G)
twelfthrootoftwo: 100G (0.5%, 7,869G)
FriendSquirrel: 100G (0.5%, 35,102G)
7Cerulean7: 100G (0.5%, 2,858G)
readdesert: 100G (0.5%, 4,299G)
daveb_: 44G (0.2%, 1,559G)

blue bets:
AllInBot: 4,476G (43.1%, 4,476G)
HaplessOne: 1,500G (14.4%, 131,572G)
BirbBrainsBot: 1,000G (9.6%, 129,554G)
Dymntd: 1,000G (9.6%, 5,895G)
HaateXIII: 500G (4.8%, 24,512G)
braumbles: 500G (4.8%, 68,131G)
Nizaha: 201G (1.9%, 3,032G)
killth3kid: 200G (1.9%, 9,839G)
HaychDub: 200G (1.9%, 11,919G)
Ungaiii: 112G (1.1%, 112G)
Scotty297: 108G (1.0%, 108G)
Lythe_Caraker: 100G (1.0%, 108,461G)
Evewho: 100G (1.0%, 2,441G)
rjA0zcOQ96: 100G (1.0%, 32,879G)
Tougou: 100G (1.0%, 9,042G)
EnemyController: 100G (1.0%, 76,448G)
DrAntiSocial: 50G (0.5%, 21,230G)
b0shii: 50G (0.5%, 4,955G)
