Final Bets: red - 18 bets for 14,278G (49.8%, x1.01); yellow - 26 bets for 14,396G (50.2%, x0.99)

red bets:
DarrenDinosaurs: 3,540G (24.8%, 3,540G)
theatheologist: 3,333G (23.3%, 88,465G)
AllInBot: 1,139G (8.0%, 1,139G)
b_bot: 1,130G (7.9%, 1,130G)
Virilikus: 1,000G (7.0%, 27,645G)
Lodrak: 926G (6.5%, 926G)
ungabunga_bot: 455G (3.2%, 4,064G)
waterwatereverywhere: 400G (2.8%, 5,647G)
Tyerenex: 400G (2.8%, 3,689G)
ApplesauceBoss: 392G (2.7%, 392G)
JIDkomu: 389G (2.7%, 389G)
HaateXIII: 250G (1.8%, 10,490G)
ugoplatamia: 200G (1.4%, 19,519G)
KasugaiRoastedPeas: 200G (1.4%, 22,264G)
b0shii: 200G (1.4%, 200G)
DonCardenio: 124G (0.9%, 124G)
Conome: 100G (0.7%, 10,549G)
RongRongArts: 100G (0.7%, 3,798G)

yellow bets:
Shakarak: 3,000G (20.8%, 12,364G)
Zeroroute: 1,291G (9.0%, 1,291G)
sinnyil2: 1,200G (8.3%, 63,673G)
BirbBrainsBot: 1,000G (6.9%, 150,007G)
bad1dea: 1,000G (6.9%, 367,234G)
WireLord: 861G (6.0%, 861G)
ANFz: 840G (5.8%, 840G)
pandasforsale: 666G (4.6%, 18,692G)
Lanshaft: 600G (4.2%, 600G)
samtimemc: 600G (4.2%, 3,170G)
Shalloween: 500G (3.5%, 75,287G)
Ranmilia: 484G (3.4%, 484G)
NagginNaggers: 400G (2.8%, 1,416G)
evdoggity: 300G (2.1%, 4,993G)
ZephyrTempest: 217G (1.5%, 20,469G)
loveyouallfriends: 200G (1.4%, 15,897G)
electric_glass: 200G (1.4%, 4,814G)
rubenflonne: 200G (1.4%, 8,905G)
V3rdeni: 200G (1.4%, 204G)
DrAntiSocial: 115G (0.8%, 777G)
BadBlanket: 100G (0.7%, 5,056G)
Chompie: 100G (0.7%, 7,837G)
datadrivenbot: 100G (0.7%, 15,943G)
dolzytwitch: 100G (0.7%, 2,377G)
getthemoneyz: 72G (0.5%, 415,742G)
silentperogy: 50G (0.3%, 7,059G)
