Final Bets: red - 19 bets for 9,070G (72.2%, x0.38); blue - 12 bets for 3,487G (27.8%, x2.60)

red bets:
RongRongArts: 1,319G (14.5%, 2,639G)
sinnyil2: 1,300G (14.3%, 45,428G)
Lord_Burrah: 1,000G (11.0%, 93,352G)
HaateXIII: 884G (9.7%, 884G)
R_Raynos: 784G (8.6%, 784G)
mirapoix: 722G (8.0%, 722G)
Laserman1000: 695G (7.7%, 3,295G)
HASTERIOUS: 464G (5.1%, 4,645G)
itzover9001: 395G (4.4%, 4,107G)
SacrificialToast: 300G (3.3%, 8,324G)
killth3kid: 256G (2.8%, 3,529G)
ThePuss: 250G (2.8%, 6,204G)
ungabunga_bot: 102G (1.1%, 150,431G)
ApplesauceBoss: 100G (1.1%, 6,253G)
Lythe_Caraker: 100G (1.1%, 100,945G)
Jerboj: 100G (1.1%, 49,205G)
Evewho: 100G (1.1%, 3,761G)
rjA0zcOQ96: 100G (1.1%, 8,850G)
datadrivenbot: 99G (1.1%, 116G)

blue bets:
BirbBrainsBot: 1,000G (28.7%, 203,124G)
getthemoneyz: 614G (17.6%, 498,295G)
NoNotBees: 500G (14.3%, 15,802G)
Vampire_Killer: 500G (14.3%, 2,493G)
ZephyrTempest: 226G (6.5%, 75,634G)
thevilmen: 120G (3.4%, 120G)
RunicMagus: 100G (2.9%, 1,715G)
electric_glass: 100G (2.9%, 3,075G)
ko2q: 100G (2.9%, 20,603G)
dictatorhowells: 100G (2.9%, 970G)
Ross_from_Cali: 77G (2.2%, 112G)
potgodtopdog: 50G (1.4%, 2,650G)
