Final Bets: red - 16 bets for 6,706G (20.4%, x3.90); champion - 23 bets for 26,127G (79.6%, x0.26)

red bets:
HASTERIOUS: 1,120G (16.7%, 1,120G)
thevilmen: 1,000G (14.9%, 2,006G)
itzover9001: 736G (11.0%, 12,948G)
DudeMonkey77: 555G (8.3%, 5,702G)
Aldrammech: 500G (7.5%, 12,918G)
timthehoodie: 500G (7.5%, 2,582G)
exaltedhamster: 500G (7.5%, 4,233G)
Laserman1000: 468G (7.0%, 2,368G)
luminarii: 287G (4.3%, 21,525G)
killth3kid: 260G (3.9%, 5,179G)
PotionDweller: 250G (3.7%, 1,443G)
omegasuspekt: 222G (3.3%, 2,637G)
Dymntd: 108G (1.6%, 108G)
Tougou: 100G (1.5%, 5,781G)
GingerDynomite: 50G (0.7%, 2,781G)
DrAntiSocial: 50G (0.7%, 433G)

champion bets:
HaplessOne: 4,784G (18.3%, 90,384G)
sinnyil2: 3,500G (13.4%, 40,975G)
ThePuss: 3,050G (11.7%, 3,050G)
ko2q: 2,000G (7.7%, 20,368G)
NoNotBees: 2,000G (7.7%, 14,695G)
alrightbye: 2,000G (7.7%, 12,989G)
Evewho: 1,918G (7.3%, 3,836G)
BirbBrainsBot: 1,000G (3.8%, 198,208G)
Reiniku: 800G (3.1%, 2,958G)
electric_glass: 800G (3.1%, 3,310G)
Maeveen: 632G (2.4%, 632G)
HashtagRob_: 500G (1.9%, 2,391G)
datadrivenbot: 463G (1.8%, 494G)
roofiepops: 408G (1.6%, 408G)
ungabunga_bot: 404G (1.5%, 148,443G)
alecttox: 400G (1.5%, 74,000G)
ZephyrTempest: 354G (1.4%, 74,202G)
GrandmasterFrankerZ: 300G (1.1%, 2,850G)
MirtaiAtana: 264G (1.0%, 264G)
Lythe_Caraker: 250G (1.0%, 101,084G)
twelfthrootoftwo: 100G (0.4%, 3,682G)
ANFz: 100G (0.4%, 6,689G)
Jerboj: 100G (0.4%, 49,247G)
