Final Bets: blue - 9 bets for 11,994G (41.5%, x1.41); green - 23 bets for 16,876G (58.5%, x0.71)

blue bets:
LDSkinny: 4,636G (38.7%, 9,272G)
Yangusburger: 4,000G (33.4%, 17,861G)
dogsandcatsand: 1,000G (8.3%, 9,054G)
Laserman1000: 874G (7.3%, 17,474G)
old_overholt_: 500G (4.2%, 31,602G)
PoroTact: 484G (4.0%, 484G)
AllInBot: 200G (1.7%, 200G)
resjudicata3: 200G (1.7%, 4,067G)
maakur_: 100G (0.8%, 6,970G)

green bets:
ericzubat: 5,000G (29.6%, 21,254G)
killth3kid: 3,538G (21.0%, 6,938G)
gorgewall: 1,325G (7.9%, 1,325G)
BirbBrainsBot: 1,000G (5.9%, 13,013G)
JumbocactuarX27: 1,000G (5.9%, 5,727G)
nifboy: 812G (4.8%, 6,887G)
tripaplex: 667G (4.0%, 667G)
lowlf: 568G (3.4%, 13,925G)
Lyner87: 500G (3.0%, 111,609G)
Shalloween: 500G (3.0%, 18,929G)
Lord_Gwarth: 296G (1.8%, 592G)
grishhammer: 252G (1.5%, 1,013G)
getthemoneyz: 208G (1.2%, 2,025,532G)
datadrivenbot: 200G (1.2%, 71,677G)
MilkaChoko: 200G (1.2%, 601G)
gilgamensche: 166G (1.0%, 166G)
roofiepops: 123G (0.7%, 2,614G)
Riley331: 120G (0.7%, 718G)
nhammen: 100G (0.6%, 264,968G)
Firesheath: 100G (0.6%, 3,259G)
bringmoreknives: 100G (0.6%, 15,404G)
RunicMagus: 100G (0.6%, 4,580G)
latebit: 1G (0.0%, 653G)
