Final Bets: green - 16 bets for 7,959G (51.2%, x0.95); yellow - 13 bets for 7,598G (48.8%, x1.05)

green bets:
Evewho: 1,672G (21.0%, 3,280G)
KasugaiRoastedPeas: 1,200G (15.1%, 13,442G)
DamnThatShark: 1,000G (12.6%, 2,790G)
PrancesWithWolves: 859G (10.8%, 859G)
killth3kid: 700G (8.8%, 101,096G)
twelfthrootoftwo: 516G (6.5%, 516G)
Rislyeu: 511G (6.4%, 511G)
fluffskull: 400G (5.0%, 1,105G)
DustBirdEX: 215G (2.7%, 2,095G)
BlueAbs: 208G (2.6%, 208G)
datadrivenbot: 200G (2.5%, 55,975G)
Xoomwaffle: 112G (1.4%, 112G)
dtrain332: 112G (1.4%, 112G)
Skincrawler: 104G (1.3%, 104G)
furrytomahawkk: 100G (1.3%, 3,586G)
Othatmattkid: 50G (0.6%, 1,493G)

yellow bets:
Cryptopsy70: 1,538G (20.2%, 51,268G)
BirbBrainsBot: 1,000G (13.2%, 138,399G)
AND4H: 1,000G (13.2%, 2,926G)
Arcblazer23: 999G (13.1%, 999G)
getthemoneyz: 798G (10.5%, 1,282,545G)
randgridr: 422G (5.6%, 422G)
Rurk: 422G (5.6%, 422G)
Digitalsocrates: 420G (5.5%, 1,901G)
letdowncity: 412G (5.4%, 9,884G)
run_with_stone_GUNs: 332G (4.4%, 10,225G)
silentkaster: 150G (2.0%, 16,616G)
RedRiderAyame: 100G (1.3%, 216G)
moonliquor: 5G (0.1%, 14,828G)
