Final Bets: green - 17 bets for 6,958G (38.5%, x1.60); black - 16 bets for 11,125G (61.5%, x0.63)

green bets:
DamnThatShark: 2,000G (28.7%, 5,135G)
RunicMagus: 814G (11.7%, 814G)
killth3kid: 700G (10.1%, 102,380G)
hemeroidcream: 655G (9.4%, 1,910G)
Rislyeu: 368G (5.3%, 368G)
superdevon1: 300G (4.3%, 6,015G)
Lemonjohns: 300G (4.3%, 3,145G)
PrancesWithWolves: 300G (4.3%, 2,096G)
getthemoneyz: 216G (3.1%, 1,280,329G)
gorgewall: 201G (2.9%, 4,925G)
fluffskull: 200G (2.9%, 2,572G)
Humma_kavula24: 200G (2.9%, 5,279G)
furrytomahawkk: 200G (2.9%, 3,459G)
shineeyo: 200G (2.9%, 11,547G)
Skincrawler: 104G (1.5%, 104G)
Evewho: 100G (1.4%, 1,500G)
DustBirdEX: 100G (1.4%, 2,180G)

black bets:
Shalloween: 2,000G (18.0%, 43,025G)
Rurk: 1,841G (16.5%, 1,841G)
Cryptopsy70: 1,490G (13.4%, 49,680G)
twelfthrootoftwo: 1,207G (10.8%, 1,207G)
BirbBrainsBot: 1,000G (9.0%, 138,612G)
NicoSavoy: 1,000G (9.0%, 182,605G)
moonliquor: 500G (4.5%, 13,909G)
ThreeMileIsland: 467G (4.2%, 467G)
joewcarson: 400G (3.6%, 30,067G)
randgridr: 308G (2.8%, 308G)
bokurakira: 200G (1.8%, 761G)
datadrivenbot: 200G (1.8%, 55,765G)
lijerrr: 200G (1.8%, 1,011G)
dtrain332: 112G (1.0%, 112G)
RedRiderAyame: 100G (0.9%, 266G)
ANFz: 100G (0.9%, 45,852G)
