Final Bets: red - 21 bets for 13,516G (68.7%, x0.46); blue - 13 bets for 6,166G (31.3%, x2.19)

red bets:
Devolant: 2,405G (17.8%, 2,405G)
UmaiJam: 1,500G (11.1%, 50,565G)
Laserman1000: 1,400G (10.4%, 1,400G)
pplvee1: 1,388G (10.3%, 1,388G)
Thyrandaal: 1,000G (7.4%, 44,922G)
Nizaha: 572G (4.2%, 9,047G)
roqqqpsi: 514G (3.8%, 2,059G)
BirbBrainsBot: 514G (3.8%, 186,347G)
AllInBot: 502G (3.7%, 502G)
DLJuggernaut: 500G (3.7%, 1,369G)
fenaen: 500G (3.7%, 3,988G)
roofiepops: 492G (3.6%, 492G)
killth3kid: 480G (3.6%, 1,205G)
douchetron: 377G (2.8%, 740G)
SephDarkheart: 352G (2.6%, 63,198G)
Lord_Gwarth: 212G (1.6%, 212G)
holdenmagronik: 208G (1.5%, 3,251G)
datadrivenbot: 200G (1.5%, 34,844G)
MLWebz0r: 200G (1.5%, 3,470G)
Vultuous: 100G (0.7%, 979G)
Firesheath: 100G (0.7%, 8,922G)

blue bets:
E_Ballard: 1,850G (30.0%, 1,850G)
DeathTaxesAndAnime: 1,179G (19.1%, 1,179G)
HaateXIII: 853G (13.8%, 853G)
Shalloween: 500G (8.1%, 167,255G)
YaBoy125: 476G (7.7%, 476G)
ribbiks: 300G (4.9%, 2,346G)
getthemoneyz: 208G (3.4%, 1,337,947G)
Finewax: 208G (3.4%, 208G)
Awakeninfinity: 200G (3.2%, 260G)
Lemonjohns: 200G (3.2%, 1,071G)
ohhinm: 100G (1.6%, 5,412G)
Rilgon: 62G (1.0%, 621G)
DouglasDragonThePoet: 30G (0.5%, 3,850G)
