Final Bets: red - 19 bets for 27,685G (78.0%, x0.28); blue - 20 bets for 7,801G (22.0%, x3.55)

red bets:
seppu777: 14,060G (50.8%, 14,060G)
resjudicata3: 3,011G (10.9%, 3,011G)
Shalloween: 2,000G (7.2%, 49,797G)
MemoriesofFinal: 2,000G (7.2%, 18,861G)
superdevon1: 1,293G (4.7%, 1,293G)
Arcblazer23: 1,000G (3.6%, 6,848G)
DeathTaxesAndAnime: 952G (3.4%, 952G)
fenaen: 676G (2.4%, 28,097G)
ForagerCats: 500G (1.8%, 4,774G)
khelor_: 500G (1.8%, 10,548G)
silentkaster: 350G (1.3%, 29,223G)
Aaron2Nerdy: 224G (0.8%, 224G)
DHaveWord: 208G (0.8%, 208G)
AllInBot: 200G (0.7%, 200G)
datadrivenbot: 200G (0.7%, 87,127G)
Demon_Lord_Josh: 200G (0.7%, 5,259G)
macal0ser: 200G (0.7%, 200G)
gorgewall: 101G (0.4%, 7,683G)
nhammen: 10G (0.0%, 65,204G)

blue bets:
acid_flashback: 2,000G (25.6%, 49,352G)
BirbBrainsBot: 1,000G (12.8%, 102,951G)
Chuckolator: 901G (11.5%, 901G)
NicoSavoy: 560G (7.2%, 560G)
krombobreaker: 500G (6.4%, 35,770G)
2b_yorha_b: 400G (5.1%, 19,299G)
ApplesNP: 372G (4.8%, 372G)
getthemoneyz: 310G (4.0%, 2,173,958G)
Musashi45: 292G (3.7%, 20,217G)
TheBrett: 292G (3.7%, 24,014G)
ValensEXP_: 200G (2.6%, 5,040G)
coralreeferz: 150G (1.9%, 2,531G)
Reddash9: 120G (1.5%, 2,211G)
rkane398: 104G (1.3%, 104G)
maakur_: 100G (1.3%, 4,389G)
DAC169: 100G (1.3%, 4,904G)
Evewho: 100G (1.3%, 11,613G)
Firesheath: 100G (1.3%, 2,914G)
SRG_Chugganomics: 100G (1.3%, 100G)
lijarkh: 100G (1.3%, 9,763G)
