Final Bets: green - 50 bets for 92,937G (46.4%, x1.16); yellow - 61 bets for 107,434G (53.6%, x0.87)

green bets:
Oreo_Pizza: 20,000G (21.5%, 48,561G)
toka222: 15,000G (16.1%, 260,930G)
Willjin: 10,000G (10.8%, 103,926G)
Lydian_C: 5,278G (5.7%, 10,350G)
MrFlabyo: 5,000G (5.4%, 217,692G)
Who_lio42: 5,000G (5.4%, 31,897G)
VolgraTheMoose: 4,010G (4.3%, 24,010G)
Realitydown: 3,690G (4.0%, 3,690G)
SkylerBunny: 3,066G (3.3%, 3,066G)
Sairentozon7: 2,619G (2.8%, 5,239G)
Firesheath: 2,163G (2.3%, 2,163G)
Scurg: 1,347G (1.4%, 1,347G)
Kellios11: 1,250G (1.3%, 2,501G)
Breakdown777: 1,179G (1.3%, 1,179G)
ko2q: 1,000G (1.1%, 15,146G)
KasugaiRoastedPeas: 1,000G (1.1%, 10,849G)
Aldrammech: 1,000G (1.1%, 15,502G)
DeathTaxesAndAnime: 888G (1.0%, 888G)
Laserman1000: 700G (0.8%, 700G)
nifboy: 684G (0.7%, 684G)
JumbocactuarX27: 672G (0.7%, 672G)
DLJuggernaut: 667G (0.7%, 1,308G)
nekojin: 520G (0.6%, 1,619G)
TasisSai: 500G (0.5%, 14,681G)
AllInBot: 474G (0.5%, 474G)
dogsandcatsand: 464G (0.5%, 464G)
TheDeeyo: 400G (0.4%, 2,398G)
skipsandwiches: 384G (0.4%, 384G)
Tarheels218: 344G (0.4%, 344G)
RunicMagus: 300G (0.3%, 3,820G)
roqqqpsi: 289G (0.3%, 420G)
soren_of_tyto: 288G (0.3%, 288G)
athros13: 280G (0.3%, 1,845G)
cho_pin: 252G (0.3%, 252G)
Mushufasa_: 250G (0.3%, 6,986G)
xendriick: 212G (0.2%, 212G)
TheMM42: 200G (0.2%, 9,853G)
datadrivenbot: 200G (0.2%, 58,837G)
Leonidusx: 200G (0.2%, 10,061G)
ALY327: 200G (0.2%, 17,632G)
Verathis: 104G (0.1%, 104G)
AbandonedHall: 104G (0.1%, 104G)
FoeSquirrel: 100G (0.1%, 7,147G)
Miku_Shikhu: 100G (0.1%, 6,802G)
Powermhero: 100G (0.1%, 25,400G)
Tougou: 100G (0.1%, 5,162G)
moocaotao: 100G (0.1%, 6,415G)
Bongomon7: 100G (0.1%, 1,880G)
Error72: 100G (0.1%, 10,689G)
Soy_Soda_Pop: 59G (0.1%, 2,985G)

yellow bets:
Thyrandaal: 20,000G (18.6%, 182,299G)
Lord_Burrah: 15,234G (14.2%, 55,234G)
Virilikus: 10,000G (9.3%, 219,806G)
fattunaking: 5,000G (4.7%, 9,939G)
maakur_: 4,472G (4.2%, 8,944G)
evdoggity: 4,000G (3.7%, 227,546G)
Phi_Sig: 3,333G (3.1%, 82,796G)
Lord_Gwarth: 3,325G (3.1%, 3,325G)
Mesmaster: 3,000G (2.8%, 69,123G)
bruubarg: 2,000G (1.9%, 36,910G)
NicoSavoy: 2,000G (1.9%, 82,419G)
LDSkinny: 2,000G (1.9%, 14,749G)
nhammen: 2,000G (1.9%, 133,738G)
AlenaZarek: 2,000G (1.9%, 50,018G)
reinoe: 2,000G (1.9%, 71,815G)
DustBirdEX: 1,792G (1.7%, 3,585G)
sinnyil2: 1,788G (1.7%, 1,788G)
kaidykat: 1,753G (1.6%, 175,376G)
NIghtdew14: 1,538G (1.4%, 6,152G)
Xoomwaffle: 1,500G (1.4%, 12,454G)
ShintaroNayaka: 1,238G (1.2%, 1,238G)
lowlf: 1,074G (1.0%, 1,074G)
BirbBrainsBot: 1,000G (0.9%, 131,880G)
Shalloween: 1,000G (0.9%, 42,543G)
NovaKnight21: 858G (0.8%, 858G)
E_Ballard: 796G (0.7%, 55,462G)
Nizaha: 776G (0.7%, 28,100G)
Zeroroute: 743G (0.7%, 2,972G)
HASTERIOUS: 636G (0.6%, 636G)
maximumcrit: 610G (0.6%, 610G)
Chuckolator: 596G (0.6%, 12,557G)
killth3kid: 552G (0.5%, 1,727G)
letdowncity: 544G (0.5%, 22,258G)
DavenIII: 532G (0.5%, 532G)
CosmicTactician: 500G (0.5%, 47,182G)
run_with_stone_GUNs: 500G (0.5%, 2,776G)
BaronHaynes: 500G (0.5%, 79,363G)
Smashy: 500G (0.5%, 12,980G)
WhiteTigress: 464G (0.4%, 464G)
CorpusCav: 400G (0.4%, 10,498G)
ArashiKurobara: 388G (0.4%, 3,068G)
butterbelljedi: 352G (0.3%, 352G)
reddwind_: 348G (0.3%, 5,093G)
ChaoreLance: 300G (0.3%, 1,949G)
ar_tactic: 300G (0.3%, 79,828G)
getthemoneyz: 296G (0.3%, 1,775,214G)
Rilgon: 288G (0.3%, 2,072G)
MemoriesofFinal: 272G (0.3%, 272G)
muffin_money: 250G (0.2%, 7,257G)
Runeseeker22: 228G (0.2%, 2,714G)
HentaiWriter: 216G (0.2%, 216G)
rocl: 212G (0.2%, 212G)
resjudicata3: 200G (0.2%, 4,082G)
mirapoix: 200G (0.2%, 11,643G)
Meta_Five: 200G (0.2%, 4,688G)
Twisted_Nutsatchel: 200G (0.2%, 23,578G)
krombobreaker: 198G (0.2%, 198G)
WesSideVandal: 132G (0.1%, 132G)
ZCKaiser: 100G (0.1%, 15,451G)
FriendSquirrel: 100G (0.1%, 5,402G)
arumz: 100G (0.1%, 2,148G)
