Final Bets: black - 31 bets for 27,809G (66.7%, x0.50); champion - 18 bets for 13,911G (33.3%, x2.00)

black bets:
icy_blue20: 14,246G (51.2%, 14,246G)
toka222: 2,000G (7.2%, 537,181G)
Shakarak: 1,185G (4.3%, 1,185G)
kai_shee: 1,001G (3.6%, 115,583G)
BirbBrainsBot: 1,000G (3.6%, 269,923G)
Laserman1000: 700G (2.5%, 15,400G)
mexskacin: 612G (2.2%, 612G)
DustBirdEX: 600G (2.2%, 2,905G)
superdevon1: 500G (1.8%, 500G)
JustSuperish: 500G (1.8%, 1,868G)
MattMan119: 500G (1.8%, 17,566G)
Ausuri: 500G (1.8%, 6,600G)
Pie108: 500G (1.8%, 11,133G)
ColetteMSLP: 400G (1.4%, 12,723G)
catfashions: 392G (1.4%, 392G)
Eldente: 380G (1.4%, 380G)
DudeMonkey77: 328G (1.2%, 328G)
ZephyrTempest: 319G (1.1%, 33,838G)
CapnChaos12: 300G (1.1%, 3,268G)
EnemyController: 300G (1.1%, 32,300G)
Mistborn12: 244G (0.9%, 244G)
ko2q: 200G (0.7%, 2,338G)
Cataphract116: 200G (0.7%, 3,106G)
ShintaroNayaka: 200G (0.7%, 6,350G)
negativedivide: 200G (0.7%, 863G)
IndecisiveNinja: 100G (0.4%, 5,901G)
rNdOrchestra: 100G (0.4%, 747G)
datadrivenbot: 100G (0.4%, 25,231G)
Slowbrofist: 100G (0.4%, 5,954G)
yure1x: 100G (0.4%, 1,247G)
daveb_: 2G (0.0%, 1,874G)

champion bets:
YaBoy125: 2,670G (19.2%, 5,236G)
mayfu: 2,000G (14.4%, 46,154G)
maakur_: 1,207G (8.7%, 1,207G)
proper__noun__: 1,031G (7.4%, 1,031G)
EmperorBeef: 1,000G (7.2%, 21,629G)
Bryon_W: 1,000G (7.2%, 25,292G)
Lord_Burrah: 1,000G (7.2%, 99,491G)
Firesheath: 918G (6.6%, 918G)
BenYuPoker: 696G (5.0%, 696G)
waterwatereverywhere: 671G (4.8%, 671G)
Nizaha: 604G (4.3%, 604G)
JumbocactuarX27: 300G (2.2%, 300G)
joewcarson: 269G (1.9%, 269G)
DrAntiSocial: 220G (1.6%, 1,209G)
ungabunga_bot: 124G (0.9%, 87,844G)
AllInBot: 100G (0.7%, 100G)
HeroponThrawn: 100G (0.7%, 1,839G)
urieltheflameofgod: 1G (0.0%, 2,222G)
