Final Bets: white - 8 bets for 8,510G (32.9%, x2.04); champion - 25 bets for 17,349G (67.1%, x0.49)

white bets:
OneHundredFists: 4,126G (48.5%, 8,091G)
EnemyController: 1,456G (17.1%, 1,239,878G)
Seaweed_B: 1,000G (11.8%, 3,649G)
soren_of_tyto: 597G (7.0%, 597G)
killth3kid: 480G (5.6%, 6,951G)
gorgewall: 401G (4.7%, 12,778G)
Grandlanzer: 300G (3.5%, 9,508G)
DuraiPapers: 150G (1.8%, 7,859G)

champion bets:
Lydian_C: 4,200G (24.2%, 167,055G)
SkylerBunny: 2,000G (11.5%, 584,888G)
Zbgs: 1,744G (10.1%, 1,744G)
sinnyil2: 1,299G (7.5%, 23,927G)
LDSkinny: 1,000G (5.8%, 14,831G)
Shalloween: 1,000G (5.8%, 71,030G)
BirbBrainsBot: 1,000G (5.8%, 90,603G)
Mesmaster: 1,000G (5.8%, 270,391G)
Breakdown777: 520G (3.0%, 520G)
Laserman1000: 500G (2.9%, 10,700G)
prince_rogers_nelson_: 500G (2.9%, 13,411G)
Oobs56: 500G (2.9%, 22,753G)
ar_tactic: 300G (1.7%, 55,366G)
silentkaster: 240G (1.4%, 9,340G)
Yiroep2: 232G (1.3%, 232G)
Nizaha: 201G (1.2%, 13,069G)
CosmicTactician: 200G (1.2%, 10,603G)
josephiroth_143: 184G (1.1%, 184G)
Powermhero: 157G (0.9%, 21,557G)
nhammen: 100G (0.6%, 4,044G)
Jaaaaaaaames_Sunderland: 100G (0.6%, 100G)
skillomono: 100G (0.6%, 4,252G)
Heroebal: 100G (0.6%, 4,563G)
datadrivenbot: 100G (0.6%, 45,474G)
getthemoneyz: 72G (0.4%, 1,021,652G)
