Final Bets: white - 22 bets for 14,896G (64.2%, x0.56); purple - 17 bets for 8,306G (35.8%, x1.79)

white bets:
DavenIII: 3,000G (20.1%, 20,745G)
DustBirdEX: 1,395G (9.4%, 1,395G)
toka222: 1,209G (8.1%, 32,935G)
AUrato: 1,058G (7.1%, 1,058G)
volgrathemoose: 1,045G (7.0%, 2,090G)
BirbBrainsBot: 1,000G (6.7%, 56,527G)
Epicureial: 1,000G (6.7%, 41,389G)
killth3kid: 789G (5.3%, 789G)
maakur_: 672G (4.5%, 672G)
fenaen: 567G (3.8%, 567G)
getthemoneyz: 550G (3.7%, 676,677G)
TheChainNerd: 500G (3.4%, 3,281G)
DLJuggernaut: 500G (3.4%, 8,062G)
ACSpree: 320G (2.1%, 320G)
FriendSquirrel: 308G (2.1%, 308G)
CapnChaos12: 300G (2.0%, 6,920G)
Lawndough: 158G (1.1%, 158G)
ungabunga_bot: 132G (0.9%, 496,414G)
benticore: 100G (0.7%, 3,305G)
rjA0zcOQ96: 100G (0.7%, 8,962G)
datadrivenbot: 100G (0.7%, 16,698G)
imafella: 93G (0.6%, 2,201G)

purple bets:
JumbocactuarX27: 1,016G (12.2%, 1,016G)
Lionhermit: 1,000G (12.0%, 50,323G)
Laserman1000: 875G (10.5%, 33,575G)
sinnyil2: 700G (8.4%, 10,675G)
Zeroroute: 644G (7.8%, 644G)
HaateXIII: 590G (7.1%, 590G)
joewcarson: 501G (6.0%, 6,396G)
SQUiDSQUARKLIN: 500G (6.0%, 1,959G)
Firesheath: 500G (6.0%, 28,198G)
ThePineappleSalesman: 500G (6.0%, 27,421G)
YaBoy125: 420G (5.1%, 2,372G)
Nova_riety: 368G (4.4%, 368G)
nifboy: 250G (3.0%, 5,000G)
nok____: 142G (1.7%, 15,045G)
aeonicvector: 100G (1.2%, 1,347G)
QaizerArt: 100G (1.2%, 469G)
RunicMagus: 100G (1.2%, 39,650G)
