Final Bets: red - 13 bets for 6,465G (44.6%, x1.24); blue - 14 bets for 8,038G (55.4%, x0.80)

red bets:
NovaKnight21: 1,000G (15.5%, 19,617G)
dogsandcatsand: 1,000G (15.5%, 11,960G)
getthemoneyz: 718G (11.1%, 1,264,959G)
Error72: 537G (8.3%, 1,053G)
MagicBottle: 524G (8.1%, 524G)
LAGBOT30000: 473G (7.3%, 9,479G)
Shalloween: 400G (6.2%, 58,568G)
brokenknight201: 377G (5.8%, 377G)
ACSpree: 376G (5.8%, 376G)
DustBirdEX: 300G (4.6%, 1,972G)
OrgasmicToast: 288G (4.5%, 288G)
randgridr: 272G (4.2%, 272G)
datadrivenbot: 200G (3.1%, 62,607G)

blue bets:
midnight_blues3: 1,500G (18.7%, 21,194G)
BirbBrainsBot: 1,000G (12.4%, 65,474G)
E_Ballard: 1,000G (12.4%, 10,500G)
prince_rogers_nelson_: 809G (10.1%, 809G)
Evewho: 752G (9.4%, 752G)
Laserman1000: 700G (8.7%, 31,400G)
SweetHat: 525G (6.5%, 5,254G)
bruubarg: 497G (6.2%, 497G)
Mudrockk: 400G (5.0%, 5,774G)
Forkmore: 296G (3.7%, 3,399G)
adisgustinglynormalhuman: 209G (2.6%, 419G)
CosmicTactician: 200G (2.5%, 42,932G)
SeniorBunk: 100G (1.2%, 6,236G)
raenrond: 50G (0.6%, 3,014G)
