Final Bets: black - 15 bets for 8,698G (53.3%, x0.88); brown - 5 bets for 7,615G (46.7%, x1.14)

black bets:
Thyrandaal: 3,000G (34.5%, 73,188G)
BirbBrainsBot: 1,000G (11.5%, 16,778G)
superdevon1: 779G (9.0%, 7,790G)
mrpickins: 500G (5.7%, 1,361G)
resjudicata3: 500G (5.7%, 5,302G)
amiture: 500G (5.7%, 2,401G)
killth3kid: 492G (5.7%, 5,934G)
nekojin: 368G (4.2%, 7,424G)
ruleof5: 300G (3.4%, 9,144G)
douchetron: 277G (3.2%, 544G)
GatsbysGhost: 236G (2.7%, 236G)
TasisSai: 200G (2.3%, 3,560G)
randgridr: 200G (2.3%, 4,808G)
datadrivenbot: 200G (2.3%, 36,344G)
getthemoneyz: 146G (1.7%, 1,362,305G)

brown bets:
AllInBot: 4,415G (58.0%, 4,415G)
NovaKnight21: 2,000G (26.3%, 15,194G)
ANFz: 1,000G (13.1%, 59,722G)
Firesheath: 100G (1.3%, 14,014G)
MiseryKoss: 100G (1.3%, 796G)
