Final Bets: green - 13 bets for 7,721G (26.3%, x2.80); yellow - 17 bets for 21,596G (73.7%, x0.36)

green bets:
ko2q: 3,243G (42.0%, 6,486G)
HorusTaurus: 1,000G (13.0%, 9,908G)
ApplesNP: 553G (7.2%, 553G)
Shalloween: 500G (6.5%, 8,181G)
krombobreaker: 500G (6.5%, 29,817G)
LadyCyan: 457G (5.9%, 457G)
Lolthsmeat: 328G (4.2%, 720G)
getthemoneyz: 264G (3.4%, 2,165,860G)
ExplanationMarkWow: 250G (3.2%, 34,437G)
datadrivenbot: 200G (2.6%, 82,633G)
AbandonedHall: 200G (2.6%, 564G)
murderclan: 125G (1.6%, 125G)
gorgewall: 101G (1.3%, 6,994G)

yellow bets:
acid_flashback: 5,000G (23.2%, 40,346G)
nhammen: 3,000G (13.9%, 71,021G)
DeathTaxesAndAnime: 2,561G (11.9%, 5,023G)
DavenIII: 2,500G (11.6%, 22,493G)
TheBrett: 2,000G (9.3%, 11,546G)
RunicMagus: 1,020G (4.7%, 46,739G)
reinoe: 1,000G (4.6%, 60,770G)
BirbBrainsBot: 1,000G (4.6%, 74,974G)
Deathmaker06: 1,000G (4.6%, 34,517G)
HASTERIOUS: 776G (3.6%, 776G)
Sharosa: 563G (2.6%, 563G)
AllInBot: 503G (2.3%, 503G)
2b_yorha_b: 250G (1.2%, 7,302G)
seppu777: 222G (1.0%, 7,491G)
maakur_: 100G (0.5%, 2,537G)
FuzzyTigers: 100G (0.5%, 820G)
MoonSugarFiend: 1G (0.0%, 26,146G)
