Final Bets: black - 16 bets for 25,083G (69.9%, x0.43); purple - 8 bets for 10,813G (30.1%, x2.32)

black bets:
acid_flashback: 6,000G (23.9%, 41,363G)
reinoe: 5,000G (19.9%, 59,857G)
upvla: 3,000G (12.0%, 4,935G)
Thyrandaal: 2,353G (9.4%, 4,614G)
nhammen: 2,000G (8.0%, 73,586G)
theQueenfuta: 1,328G (5.3%, 2,657G)
BirbBrainsBot: 1,000G (4.0%, 75,928G)
getthemoneyz: 1,000G (4.0%, 2,166,346G)
TheBrett: 1,000G (4.0%, 13,744G)
ammobox69: 800G (3.2%, 3,098G)
ExplanationMarkWow: 500G (2.0%, 35,066G)
murderclan: 250G (1.0%, 1,251G)
2b_yorha_b: 250G (1.0%, 8,540G)
HASTERIOUS: 202G (0.8%, 4,046G)
Shalloween: 200G (0.8%, 8,937G)
datadrivenbot: 200G (0.8%, 82,585G)

purple bets:
AllInBot: 5,026G (46.5%, 5,026G)
ko2q: 3,373G (31.2%, 6,746G)
CorpusCav: 1,100G (10.2%, 41,647G)
krombobreaker: 500G (4.6%, 30,196G)
roofiepops: 414G (3.8%, 4,822G)
ValensEXP_: 200G (1.8%, 8,558G)
maakur_: 100G (0.9%, 4,133G)
heropong: 100G (0.9%, 3,741G)
