Final Bets: red - 6 bets for 4,642G (28.8%, x2.47); green - 4 bets for 11,481G (71.2%, x0.40)

red bets:
ColetteMSLP: 1,571G (33.8%, 1,571G)
Musclestache: 1,391G (30.0%, 1,391G)
Modoh: 832G (17.9%, 1,665G)
DaveStrider55: 500G (10.8%, 9,608G)
datadrivenbot: 200G (4.3%, 33,587G)
getthemoneyz: 148G (3.2%, 1,329,029G)

green bets:
upvla: 10,000G (87.1%, 13,505G)
BirbBrainsBot: 1,000G (8.7%, 138,309G)
superdevon1: 281G (2.4%, 5,628G)
AllInBot: 200G (1.7%, 200G)
