Final Bets: white - 16 bets for 21,061G (75.8%, x0.32); black - 15 bets for 6,718G (24.2%, x3.14)

white bets:
NicoSavoy: 10,000G (47.5%, 126,134G)
Zbgs: 2,000G (9.5%, 25,525G)
Zeroroute: 1,944G (9.2%, 1,944G)
Error72: 1,052G (5.0%, 2,105G)
BirbBrainsBot: 1,000G (4.7%, 139,961G)
RunicMagus: 1,000G (4.7%, 41,965G)
Virilikus: 1,000G (4.7%, 203,680G)
helpimabug: 596G (2.8%, 1,193G)
MagicBottle: 516G (2.5%, 16,956G)
getthemoneyz: 494G (2.3%, 1,226,659G)
SephDarkheart: 467G (2.2%, 467G)
ArashiKurobara: 296G (1.4%, 6,796G)
OtherBrand: 276G (1.3%, 276G)
Seaweed_B: 220G (1.0%, 6,125G)
nifboy: 100G (0.5%, 14,400G)
nhammen: 100G (0.5%, 10,055G)

black bets:
Evewho: 1,386G (20.6%, 1,386G)
reinoe: 1,000G (14.9%, 36,919G)
Blastinus: 678G (10.1%, 678G)
BoneMiser: 600G (8.9%, 600G)
run_with_stone_GUNs: 588G (8.8%, 10,869G)
ValtonZenola: 500G (7.4%, 3,056G)
Lanshaft: 468G (7.0%, 9,410G)
RageImmortaI: 284G (4.2%, 4,059G)
HaateXIII: 250G (3.7%, 2,736G)
loveyouallfriends: 224G (3.3%, 224G)
datadrivenbot: 200G (3.0%, 55,815G)
sososteve: 200G (3.0%, 3,969G)
Skincrawler: 200G (3.0%, 1,234G)
Blakelmenakle: 100G (1.5%, 2,629G)
hiros13gts: 40G (0.6%, 1,759G)
