Final Bets: purple - 12 bets for 11,786G (25.5%, x2.92); champion - 21 bets for 34,374G (74.5%, x0.34)

purple bets:
RunicMagus: 8,000G (67.9%, 29,284G)
amiture: 1,000G (8.5%, 3,996G)
maakur_: 524G (4.4%, 524G)
MagicBottle: 516G (4.4%, 17,895G)
rico_flex: 500G (4.2%, 24,611G)
ArashiKurobara: 296G (2.5%, 6,769G)
OtherBrand: 276G (2.3%, 276G)
loveyouallfriends: 224G (1.9%, 224G)
dolzytwitch: 200G (1.7%, 3,591G)
Blakelmenakle: 100G (0.8%, 2,478G)
upidstupid: 100G (0.8%, 2,822G)
raenrond: 50G (0.4%, 206G)

champion bets:
NicoSavoy: 10,000G (29.1%, 129,139G)
run_with_stone_GUNs: 5,554G (16.2%, 11,108G)
nifboy: 5,000G (14.5%, 15,402G)
Error72: 4,852G (14.1%, 9,704G)
Virilikus: 3,000G (8.7%, 205,929G)
Evewho: 1,301G (3.8%, 1,301G)
Nohurty: 1,295G (3.8%, 1,295G)
BoneMiser: 600G (1.7%, 600G)
Zeroroute: 600G (1.7%, 600G)
Lanshaft: 468G (1.4%, 10,492G)
BirbBrainsBot: 344G (1.0%, 143,595G)
CosmicTactician: 300G (0.9%, 42,634G)
hiros13gts: 200G (0.6%, 1,869G)
datadrivenbot: 200G (0.6%, 55,712G)
Lydian_C: 121G (0.4%, 130,142G)
getthemoneyz: 120G (0.3%, 1,227,245G)
Ring_Wyrm: 100G (0.3%, 3,364G)
Quadh0nk: 100G (0.3%, 4,515G)
DeathTaxesAndAnime: 100G (0.3%, 1,298G)
nhammen: 100G (0.3%, 10,027G)
Hasterious: 19G (0.1%, 968G)
