Final Bets: white - 15 bets for 16,625G (69.9%, x0.43); brown - 14 bets for 7,148G (30.1%, x2.33)

white bets:
Mesmaster: 5,000G (30.1%, 206,643G)
latebit: 1,862G (11.2%, 1,862G)
skillomono: 1,642G (9.9%, 1,642G)
Wonser: 1,540G (9.3%, 1,540G)
EnemyController: 1,500G (9.0%, 1,724,403G)
sinnyil2: 1,100G (6.6%, 57,728G)
BirbBrainsBot: 1,000G (6.0%, 172,156G)
AllInBot: 926G (5.6%, 926G)
Lord_Gwarth: 512G (3.1%, 512G)
mindblownnnn: 500G (3.0%, 2,218G)
Smugzug: 339G (2.0%, 339G)
killth3kid: 300G (1.8%, 42,151G)
datadrivenbot: 200G (1.2%, 59,500G)
Riley331: 104G (0.6%, 104G)
readdesert: 100G (0.6%, 2,632G)

brown bets:
bruubarg: 2,133G (29.8%, 2,133G)
DarrenDinosaurs: 1,000G (14.0%, 20,031G)
Shalloween: 965G (13.5%, 965G)
nifboy: 728G (10.2%, 4,151G)
OneHundredFists: 550G (7.7%, 550G)
Snowfats: 548G (7.7%, 548G)
holdenmagronik: 408G (5.7%, 7,014G)
macradarkstar: 390G (5.5%, 390G)
Chuckolator: 105G (1.5%, 25,162G)
gorgewall: 101G (1.4%, 7,428G)
maakur_: 100G (1.4%, 6,524G)
Yangusburger: 100G (1.4%, 7,200G)
BartTradingCompany: 14G (0.2%, 146G)
getthemoneyz: 6G (0.1%, 1,898,856G)
