Final Bets: white - 17 bets for 9,476G (38.9%, x1.57); black - 20 bets for 14,915G (61.1%, x0.64)

white bets:
toka222: 1,400G (14.8%, 122,163G)
BirbBrainsBot: 1,000G (10.6%, 168,471G)
Aldrammech: 1,000G (10.6%, 14,213G)
argentbast: 1,000G (10.6%, 23,363G)
ANFz: 771G (8.1%, 771G)
pplvee1: 690G (7.3%, 690G)
reinoe: 600G (6.3%, 600G)
letdowncity: 500G (5.3%, 16,514G)
nifboy: 500G (5.3%, 5,151G)
YaBoy125: 496G (5.2%, 496G)
OneHundredFists: 320G (3.4%, 320G)
killth3kid: 304G (3.2%, 804G)
Lythe_Caraker: 250G (2.6%, 123,049G)
Nohurty: 208G (2.2%, 208G)
Flameatron: 200G (2.1%, 2,176G)
getthemoneyz: 136G (1.4%, 801,947G)
Firesheath: 101G (1.1%, 2,471G)

black bets:
Nickyfive: 3,507G (23.5%, 7,014G)
Evewho: 3,237G (21.7%, 6,349G)
volgrathemoose: 1,317G (8.8%, 2,634G)
twelfthrootoftwo: 1,000G (6.7%, 17,481G)
CosmicTactician: 1,000G (6.7%, 7,266G)
Digitalsocrates: 1,000G (6.7%, 5,045G)
Laserman1000: 700G (4.7%, 29,600G)
Riot_Jayway: 500G (3.4%, 204,309G)
Cryptopsy70: 484G (3.2%, 4,864G)
KonzeraLive: 400G (2.7%, 12,754G)
beowulfrulez: 296G (2.0%, 296G)
HaychDub: 266G (1.8%, 533G)
ColetteMSLP: 256G (1.7%, 256G)
CandyTamer: 252G (1.7%, 723G)
Nizaha: 201G (1.3%, 15,687G)
lastly: 100G (0.7%, 16,351G)
datadrivenbot: 100G (0.7%, 32,472G)
Lionhermit: 100G (0.7%, 11,289G)
ChronoG: 100G (0.7%, 1,003G)
HASTERIOUS: 99G (0.7%, 1,984G)
