Final Bets: white - 15 bets for 7,856G (36.5%, x1.74); black - 17 bets for 13,695G (63.5%, x0.57)

white bets:
sinnyil2: 2,162G (27.5%, 4,325G)
ColetteMSLP: 1,000G (12.7%, 26,797G)
randgridr: 1,000G (12.7%, 5,657G)
AllInBot: 620G (7.9%, 620G)
killth3kid: 528G (6.7%, 3,436G)
DustBirdEX: 524G (6.7%, 524G)
reinoe: 500G (6.4%, 124,839G)
douchetron: 328G (4.2%, 328G)
getthemoneyz: 322G (4.1%, 1,408,058G)
gorgewall: 201G (2.6%, 5,602G)
mizukouken: 200G (2.5%, 5,410G)
datadrivenbot: 200G (2.5%, 42,658G)
HolyDragoonXIV: 100G (1.3%, 502G)
DAC169: 100G (1.3%, 1,942G)
ArlanKels: 71G (0.9%, 1,427G)

black bets:
Rytor: 4,000G (29.2%, 20,327G)
Thyrandaal: 2,000G (14.6%, 12,398G)
BoneMiser: 1,142G (8.3%, 1,142G)
BirbBrainsBot: 1,000G (7.3%, 127,080G)
nifboy: 752G (5.5%, 752G)
Zagorsek: 738G (5.4%, 1,477G)
prince_rogers_nelson_: 592G (4.3%, 592G)
Laserman1000: 592G (4.3%, 592G)
coralreeferz: 550G (4.0%, 5,544G)
DarrenDinosaurs: 544G (4.0%, 544G)
Lanshaft: 516G (3.8%, 17,872G)
Kronikle: 452G (3.3%, 5,829G)
ohhinm: 234G (1.7%, 3,385G)
Grandlanzer: 200G (1.5%, 115,825G)
Hirameki85: 160G (1.2%, 4,860G)
Lydian_C: 123G (0.9%, 11,036G)
BlackAceBB: 100G (0.7%, 831G)
