Final Bets: black - 7 bets for 5,137G (34.4%, x1.91); champion - 21 bets for 9,816G (65.6%, x0.52)

black bets:
gooseyourself: 3,073G (59.8%, 12,292G)
Draconis345: 1,000G (19.5%, 81,760G)
itzover9001: 441G (8.6%, 441G)
SerumD: 300G (5.8%, 5,153G)
ThePineappleSalesman: 200G (3.9%, 20,297G)
RagequitSA: 100G (1.9%, 2,520G)
ZephyrTempest: 23G (0.4%, 464G)

champion bets:
ShintaroNayaka: 1,920G (19.6%, 3,504G)
ungabunga_bot: 1,000G (10.2%, 290,215G)
BirbBrainsBot: 1,000G (10.2%, 154,870G)
JumbocactuarX27: 1,000G (10.2%, 21,475G)
LDSkinny: 700G (7.1%, 1,478G)
DavenIII: 650G (6.6%, 2,491G)
Odin007_88: 525G (5.3%, 525G)
Estan_AD: 500G (5.1%, 2,445G)
FoxtrotNovemberCharlie: 382G (3.9%, 382G)
TheChainNerd: 330G (3.4%, 1,206G)
getthemoneyz: 262G (2.7%, 606,887G)
tmo50x: 250G (2.5%, 9,182G)
coralreeferz: 250G (2.5%, 5,920G)
datkins728: 231G (2.4%, 231G)
lifeguard_dan: 200G (2.0%, 582G)
Banzem: 112G (1.1%, 112G)
uwuslayer15: 104G (1.1%, 104G)
nifboy: 100G (1.0%, 8,707G)
Bongomon7: 100G (1.0%, 5,702G)
CosmicTactician: 100G (1.0%, 11,024G)
datadrivenbot: 100G (1.0%, 11,044G)
