High Risers:
1. DavenIII: +18,985G
2. DHaveWord: +4,082G
3. Zachara: +1,936G
4. MemoriesofFinal: +1,916G
5. heropong: +1,358G
6. ColetteMSLP: +1,061G
7. killth3kid: +954G
8. mindblownnnn: +842G
9. upvla: +724G
10. JayceXIV: +348G
11. E_Ballard: +317G
12. Verumex: +131G
13. DrAntiSocial: +120G
14. Sharosa: +11G
15. sireaulou: +4G
16. dogsandcatsand: -40G
17. Aaron2Nerdy: -65G
18. actual_JP: -100G
19. TheSabretoothe: -100G
20. readdesert: -183G
21. SephDarkheart: -204G
22. just_here2: -300G
23. reddwind_: -300G
24. Mushufasa_: -317G
25. DouglasDragonThePoet: -361G
26. Smashy: -396G
27. skipsandwiches: -400G
28. HorusTaurus: -408G
29. LeoNightFury: -713G
30. Qaz12301: -748G
31. ayeayex3: -800G
32. maakur_: -872G
33. Lord_Gwarth: -883G
34. fr3akaz01d19: -892G
35. DustBirdEX: -1,000G
36. nhammen: -1,400G
37. baconbacon1207: -1,500G
38. Tithonus: -1,592G
39. bruubarg: -1,635G
40. almost__sane: -4,890G
41. Ruvelia_BibeI: -13,839G
