Final Bets: red - 13 bets for 9,416G (43.9%, x1.28); blue - 16 bets for 12,056G (56.1%, x0.78)

red bets:
KasugaiRoastedPeas: 2,222G (23.6%, 14,858G)
electric_algus: 1,000G (10.6%, 41,225G)
Rislyeu: 1,000G (10.6%, 9,001G)
BirbBrainsBot: 1,000G (10.6%, 188,194G)
WitchHunterIX: 1,000G (10.6%, 39,319G)
DeathTaxesAndAnime: 765G (8.1%, 765G)
TheMurkGnome: 574G (6.1%, 574G)
getthemoneyz: 510G (5.4%, 1,305,563G)
datadrivenbot: 437G (4.6%, 33,384G)
killth3kid: 408G (4.3%, 1,653G)
ColetteMSLP: 300G (3.2%, 3,265G)
fluffskull: 100G (1.1%, 3,582G)
RunicMagus: 100G (1.1%, 1,343G)

blue bets:
gorgewall: 3,509G (29.1%, 3,509G)
cougboi: 1,466G (12.2%, 1,466G)
NIghtdew14: 1,334G (11.1%, 2,669G)
Shalloween: 1,300G (10.8%, 96,283G)
Laserman1000: 700G (5.8%, 31,200G)
twelfthrootoftwo: 553G (4.6%, 553G)
randgridr: 493G (4.1%, 493G)
superdevon1: 466G (3.9%, 9,339G)
Zbgs: 452G (3.7%, 452G)
LAGBOT30000: 423G (3.5%, 8,471G)
pallidsable: 400G (3.3%, 708G)
Cryptopsy70: 300G (2.5%, 425G)
DustBirdEX: 224G (1.9%, 5,212G)
AllInBot: 200G (1.7%, 200G)
dtrain332: 136G (1.1%, 136G)
OhEnou: 100G (0.8%, 1,647G)
