Final Bets: black - 14 bets for 8,467G (18.3%, x4.46); champion - 16 bets for 37,796G (81.7%, x0.22)

black bets:
killth3kid: 1,532G (18.1%, 1,532G)
upvla: 1,500G (17.7%, 22,919G)
superdevon1: 1,134G (13.4%, 11,341G)
TheMurkGnome: 953G (11.3%, 1,869G)
DeathTaxesAndAnime: 704G (8.3%, 704G)
twelfthrootoftwo: 540G (6.4%, 540G)
LAGBOT30000: 494G (5.8%, 9,884G)
RunicMagus: 440G (5.2%, 440G)
ThreeMileIsland: 300G (3.5%, 6,382G)
benticore: 250G (3.0%, 19,752G)
silentkaster: 200G (2.4%, 15,816G)
datadrivenbot: 200G (2.4%, 30,269G)
getthemoneyz: 120G (1.4%, 1,307,078G)
Firesheath: 100G (1.2%, 1,301G)

champion bets:
WitchHunterIX: 18,659G (49.4%, 37,319G)
Creggers: 5,000G (13.2%, 60,307G)
reinoe: 5,000G (13.2%, 54,306G)
Shalloween: 3,000G (7.9%, 102,551G)
Vahn_Blade: 1,321G (3.5%, 1,321G)
BirbBrainsBot: 1,000G (2.6%, 186,749G)
maleblackfiora: 999G (2.6%, 999G)
Laserman1000: 800G (2.1%, 33,200G)
roofiepops: 468G (1.2%, 468G)
cougboi: 400G (1.1%, 2,666G)
ColetteMSLP: 300G (0.8%, 2,441G)
dtrain332: 249G (0.7%, 249G)
AllInBot: 200G (0.5%, 200G)
loveyouallfriends: 200G (0.5%, 8,278G)
peeronid: 100G (0.3%, 8,580G)
Grandlanzer: 100G (0.3%, 85,479G)
