Final Bets: white - 13 bets for 18,311G (77.8%, x0.28); black - 10 bets for 5,216G (22.2%, x3.51)

white bets:
NicoSavoy: 12,000G (65.5%, 142,102G)
fattunaking: 1,329G (7.3%, 1,329G)
Smashy: 1,130G (6.2%, 2,261G)
BirbBrainsBot: 1,000G (5.5%, 79,571G)
getthemoneyz: 1,000G (5.5%, 1,983,454G)
upvla: 600G (3.3%, 3,336G)
AllInBot: 200G (1.1%, 200G)
DeathTaxesAndAnime: 200G (1.1%, 3,252G)
khelor_: 200G (1.1%, 3,816G)
datadrivenbot: 200G (1.1%, 69,756G)
Chilltron: 200G (1.1%, 1,061G)
ayeayex3: 152G (0.8%, 152G)
latebit: 100G (0.5%, 18,212G)

black bets:
resjudicata3: 1,156G (22.2%, 2,268G)
ShadowNinja25: 1,155G (22.1%, 1,155G)
HaateXIII: 988G (18.9%, 988G)
J_MacC1991: 443G (8.5%, 443G)
douchetron: 372G (7.1%, 372G)
FoeSquirrel: 294G (5.6%, 588G)
Finewax: 247G (4.7%, 247G)
silentkaster: 201G (3.9%, 2,342G)
Dodecadeath: 200G (3.8%, 1,147G)
ericzubat: 160G (3.1%, 160G)
