Final Bets: blue - 11 bets for 4,252G (37.6%, x1.66); brown - 10 bets for 7,067G (62.4%, x0.60)

blue bets:
Grasnikk: 627G (14.7%, 627G)
Evewho: 608G (14.3%, 608G)
Lolthsmeat: 607G (14.3%, 607G)
Raixelol: 600G (14.1%, 600G)
AllInBot: 577G (13.6%, 577G)
Laserman1000: 500G (11.8%, 11,600G)
PopsLIVE: 224G (5.3%, 224G)
datadrivenbot: 200G (4.7%, 76,994G)
ghazzzzzz: 108G (2.5%, 108G)
gorgewall: 101G (2.4%, 3,478G)
Bluebirdzontwitch: 100G (2.4%, 1,760G)

brown bets:
resjudicata3: 2,000G (28.3%, 10,804G)
NovaKnight21: 1,110G (15.7%, 1,110G)
BirbBrainsBot: 1,000G (14.2%, 162,962G)
DustBirdEX: 553G (7.8%, 4,977G)
JermZzZzZz: 542G (7.7%, 542G)
iBluntDouble: 500G (7.1%, 4,649G)
Arcblazer23: 444G (6.3%, 444G)
getthemoneyz: 426G (6.0%, 2,083,046G)
lijarkh: 392G (5.5%, 4,244G)
OneHundredFists: 100G (1.4%, 15,118G)
