Final Bets: white - 6 bets for 2,630G (29.2%, x2.43); black - 15 bets for 6,385G (70.8%, x0.41)

white bets:
rocl: 1,000G (38.0%, 42,167G)
pandasforsale: 777G (29.5%, 8,548G)
ThePuss: 350G (13.3%, 1,633G)
Chuckolator: 260G (9.9%, 5,232G)
datadrivenbot: 139G (5.3%, 146G)
Estan_AD: 104G (4.0%, 104G)

black bets:
sinnyil2: 1,200G (18.8%, 32,629G)
BirbBrainsBot: 1,000G (15.7%, 198,698G)
Sairentozon7: 900G (14.1%, 5,200G)
Conome: 564G (8.8%, 564G)
mirapoix: 513G (8.0%, 1,026G)
getthemoneyz: 412G (6.5%, 499,914G)
NovaKnight21: 373G (5.8%, 373G)
ZephyrTempest: 305G (4.8%, 86,010G)
NoNotBees: 250G (3.9%, 10,407G)
fuukatron: 222G (3.5%, 222G)
pitpoot: 200G (3.1%, 600G)
ungabunga_bot: 146G (2.3%, 165,980G)
Guidoanchovies: 100G (1.6%, 100G)
Evewho: 100G (1.6%, 1,898G)
Malcshake: 100G (1.6%, 1,092G)
