Final Bets: purple - 12 bets for 6,178G (53.5%, x0.87); brown - 12 bets for 5,374G (46.5%, x1.15)

purple bets:
Humble_Fabio: 2,674G (43.3%, 3,474G)
sinnyil2: 670G (10.8%, 33,123G)
BirbBrainsBot: 639G (10.3%, 199,110G)
mirapoix: 618G (10.0%, 1,237G)
JackOnFire1: 492G (8.0%, 9,850G)
madman66666: 337G (5.5%, 337G)
ZephyrTempest: 241G (3.9%, 86,136G)
Estan_AD: 104G (1.7%, 104G)
mastershango: 104G (1.7%, 104G)
L2_Sentinel: 100G (1.6%, 22,693G)
Evewho: 100G (1.6%, 1,939G)
datadrivenbot: 99G (1.6%, 100G)

brown bets:
Anomandaris__: 1,000G (18.6%, 11,113G)
pandasforsale: 666G (12.4%, 7,771G)
getthemoneyz: 652G (12.1%, 500,084G)
ThePuss: 641G (11.9%, 1,283G)
NoNotBees: 600G (11.2%, 10,510G)
NovaKnight21: 527G (9.8%, 527G)
Chuckolator: 379G (7.1%, 4,972G)
ungabunga_bot: 308G (5.7%, 166,040G)
GrandmasterFrankerZ: 300G (5.6%, 2,985G)
DaMadPanda182: 200G (3.7%, 6,294G)
fuukatron: 100G (1.9%, 313G)
Guidoanchovies: 1G (0.0%, 141G)
