Final Bets: green - 23 bets for 16,137G (83.7%, x0.19); yellow - 9 bets for 3,146G (16.3%, x5.13)

green bets:
Mesmaster: 4,000G (24.8%, 50,484G)
metagameface: 3,000G (18.6%, 19,491G)
reinoe: 2,000G (12.4%, 26,859G)
NicoSavoy: 1,000G (6.2%, 35,243G)
otakutaylor: 949G (5.9%, 949G)
Estan_AD: 696G (4.3%, 696G)
BirbBrainsBot: 671G (4.2%, 35,487G)
getthemoneyz: 622G (3.9%, 673,503G)
E_Ballard: 600G (3.7%, 600G)
ungabunga_bot: 349G (2.2%, 483,622G)
CapnChaos12: 300G (1.9%, 1,883G)
twelfthrootoftwo: 300G (1.9%, 9,725G)
Miyokari: 250G (1.5%, 13,337G)
Ross_from_Cali: 222G (1.4%, 953G)
Drusic: 212G (1.3%, 212G)
KasugaiRoastedPeas: 200G (1.2%, 4,479G)
cougboi: 150G (0.9%, 12,001G)
Strifu: 116G (0.7%, 116G)
Lawndough: 100G (0.6%, 100G)
ANFz: 100G (0.6%, 2,330G)
Antipathics: 100G (0.6%, 4,595G)
datadrivenbot: 100G (0.6%, 15,850G)
DHaveWord: 100G (0.6%, 1,549G)

yellow bets:
Evewho: 1,000G (31.8%, 20,958G)
Phi_Sig: 555G (17.6%, 146,658G)
CorpusCav: 469G (14.9%, 6,769G)
electric_glass: 300G (9.5%, 10,960G)
BlackfyreRoy: 266G (8.5%, 266G)
Ungaiii: 236G (7.5%, 236G)
aeonicvector: 120G (3.8%, 866G)
Firesheath: 100G (3.2%, 27,952G)
Oobs56: 100G (3.2%, 6,362G)
