Final Bets: white - 18 bets for 8,348G (43.0%, x1.33); black - 15 bets for 11,073G (57.0%, x0.75)

white bets:
leakimiko: 1,500G (18.0%, 54,344G)
BirbBrainsBot: 1,000G (12.0%, 35,618G)
Mesmaster: 1,000G (12.0%, 51,264G)
NicoSavoy: 1,000G (12.0%, 35,438G)
Estan_AD: 832G (10.0%, 832G)
Dymntd: 500G (6.0%, 8,875G)
getthemoneyz: 312G (3.7%, 673,624G)
electric_glass: 300G (3.6%, 10,660G)
utopia_games: 300G (3.6%, 1,000G)
Drusic: 253G (3.0%, 253G)
Billybones5150: 250G (3.0%, 24,709G)
ungabunga_bot: 247G (3.0%, 483,690G)
Ungaiii: 236G (2.8%, 236G)
BlackfyreRoy: 204G (2.4%, 204G)
thethorndog1: 145G (1.7%, 145G)
Lawndough: 119G (1.4%, 119G)
ANFz: 100G (1.2%, 2,349G)
cougboi: 50G (0.6%, 12,030G)

black bets:
metagameface: 3,000G (27.1%, 20,076G)
reinoe: 2,000G (18.1%, 27,249G)
sinnyil2: 1,200G (10.8%, 22,077G)
ko2q: 1,196G (10.8%, 1,196G)
Laserman1000: 783G (7.1%, 29,283G)
aeonicvector: 746G (6.7%, 746G)
E_Ballard: 717G (6.5%, 717G)
YaBoy125: 392G (3.5%, 392G)
otakutaylor: 200G (1.8%, 1,138G)
twelfthrootoftwo: 200G (1.8%, 9,783G)
KasugaiRoastedPeas: 200G (1.8%, 4,518G)
Strifu: 139G (1.3%, 139G)
Realitydown: 100G (0.9%, 3,266G)
Antipathics: 100G (0.9%, 4,614G)
datadrivenbot: 100G (0.9%, 15,869G)
