Final Bets: white - 21 bets for 16,466G (61.0%, x0.64); black - 18 bets for 10,526G (39.0%, x1.56)

white bets:
HaplessOne: 2,222G (13.5%, 23,777G)
SQUiDSQUARKLIN: 2,056G (12.5%, 2,056G)
nifboy: 2,043G (12.4%, 2,043G)
Laserman1000: 1,699G (10.3%, 1,699G)
volgrathemoose: 1,014G (6.2%, 1,014G)
Aldrammech: 1,000G (6.1%, 25,947G)
catfashions: 1,000G (6.1%, 24,818G)
getthemoneyz: 758G (4.6%, 630,085G)
Linkn: 500G (3.0%, 4,345G)
bahamutlagooon: 500G (3.0%, 1,680G)
luminarii: 478G (2.9%, 13,058G)
eudes89: 477G (2.9%, 477G)
dogsandcatsand: 465G (2.8%, 465G)
reshiramdude16: 465G (2.8%, 465G)
Cryptopsy70: 400G (2.4%, 13,784G)
ungabunga_bot: 389G (2.4%, 381,262G)
vorap: 300G (1.8%, 23,390G)
arch8000: 300G (1.8%, 6,235G)
Heroebal: 200G (1.2%, 7,238G)
imafella: 100G (0.6%, 100G)
datadrivenbot: 100G (0.6%, 12,022G)

black bets:
killth3kid: 2,000G (19.0%, 74,997G)
HaateXIII: 1,951G (18.5%, 3,827G)
BirbBrainsBot: 1,000G (9.5%, 62,288G)
red__lancer: 1,000G (9.5%, 31,987G)
Lionhermit: 1,000G (9.5%, 19,165G)
80S1X: 930G (8.8%, 930G)
Zeroroute: 600G (5.7%, 600G)
TheChainNerd: 428G (4.1%, 428G)
electric_glass: 333G (3.2%, 3,381G)
Estan_AD: 250G (2.4%, 2,802G)
lijarkh: 200G (1.9%, 22,647G)
twelfthrootoftwo: 200G (1.9%, 2,217G)
Kyune: 152G (1.4%, 152G)
RestIessNight: 132G (1.3%, 132G)
ANFz: 100G (1.0%, 31,001G)
jwchapm: 100G (1.0%, 930G)
KonzeraLive: 100G (1.0%, 1,613G)
cougboi: 50G (0.5%, 8,765G)
