Final Bets: white - 11 bets for 10,906G (36.0%, x1.77); champion - 19 bets for 19,356G (64.0%, x0.56)

white bets:
SacrificialToast: 4,876G (44.7%, 4,876G)
mirapoix: 1,903G (17.4%, 3,807G)
ColetteMSLP: 1,000G (9.2%, 38,313G)
GSaucer: 1,000G (9.2%, 3,994G)
AllInBot: 547G (5.0%, 547G)
pandasforsale: 520G (4.8%, 520G)
powergems: 420G (3.9%, 18,180G)
NovaKnight21: 340G (3.1%, 340G)
Evewho: 100G (0.9%, 2,028G)
Firesheath: 100G (0.9%, 10,844G)
DeathTaxesAndAnime: 100G (0.9%, 9,790G)

champion bets:
EnemyController: 5,000G (25.8%, 60,038G)
R_Raynos: 2,928G (15.1%, 5,743G)
Shakarak: 2,000G (10.3%, 6,900G)
Willjin: 2,000G (10.3%, 19,352G)
sinnyil2: 1,500G (7.7%, 103,557G)
BirbBrainsBot: 1,000G (5.2%, 58,681G)
alrightbye: 953G (4.9%, 31,776G)
ungabunga_bot: 628G (3.2%, 208,149G)
aStatue: 500G (2.6%, 500G)
superdevon1: 500G (2.6%, 5,184G)
Laserman1000: 500G (2.6%, 23,300G)
KasugaiRoastedPeas: 420G (2.2%, 12,297G)
4shcrows: 300G (1.5%, 547G)
NoNotBees: 268G (1.4%, 268G)
Estan_AD: 232G (1.2%, 232G)
carsenhk: 216G (1.1%, 216G)
electric_glass: 200G (1.0%, 3,269G)
byrdturbo: 111G (0.6%, 5,063G)
Lali_Lulelo: 100G (0.5%, 20,023G)
