Final Bets: green - 13 bets for 6,194G (36.2%, x1.76); black - 21 bets for 10,910G (63.8%, x0.57)

green bets:
OneHundredFists: 2,069G (33.4%, 15,249G)
Aaron2Nerdy: 1,000G (16.1%, 1,000G)
nifboy: 876G (14.1%, 6,141G)
roofiepops: 512G (8.3%, 512G)
Cryptopsy70: 400G (6.5%, 1,547G)
Lolthsmeat: 300G (4.8%, 2,398G)
tripaplex: 268G (4.3%, 268G)
wiznaibusthis: 200G (3.2%, 2,731G)
CosmicTactician: 200G (3.2%, 4,567G)
getthemoneyz: 126G (2.0%, 2,130,817G)
maakur_: 100G (1.6%, 6,682G)
heropong: 100G (1.6%, 809G)
BirbBrainsBot: 43G (0.7%, 151,781G)

black bets:
thunderducker: 1,052G (9.6%, 4,052G)
LDSkinny: 1,000G (9.2%, 3,379G)
Lord_Gwarth: 1,000G (9.2%, 2,031G)
VolgraTheMoose: 912G (8.4%, 24,471G)
DavenIII: 904G (8.3%, 904G)
Nizaha: 636G (5.8%, 5,568G)
lowlf: 628G (5.8%, 13,983G)
dogsandcatsand: 500G (4.6%, 4,708G)
krombobreaker: 500G (4.6%, 22,366G)
CorpusCav: 500G (4.6%, 34,497G)
JonnyCue: 500G (4.6%, 16,397G)
AllInBot: 446G (4.1%, 446G)
Sharosa: 400G (3.7%, 2,583G)
Smugzug: 332G (3.0%, 332G)
DuPlatypus: 300G (2.7%, 1,300G)
CapnChaos12: 300G (2.7%, 6,870G)
Musashi45: 276G (2.5%, 276G)
TheBrett: 244G (2.2%, 12,700G)
datadrivenbot: 200G (1.8%, 79,583G)
rNdOrchestra: 180G (1.6%, 3,175G)
GeNoFPaniC: 100G (0.9%, 633G)
