Final Bets: green - 9 bets for 4,560G (19.0%, x4.28); champion - 29 bets for 19,498G (81.0%, x0.23)

green bets:
kai_shee: 1,001G (22.0%, 130,062G)
kekkerscrew: 1,000G (21.9%, 17,753G)
Lanshaft: 600G (13.2%, 5,211G)
Jeeboheebo: 553G (12.1%, 553G)
MattMan119: 500G (11.0%, 8,848G)
moonliquor: 294G (6.4%, 294G)
SeniorBunk: 272G (6.0%, 272G)
killth3kid: 240G (5.3%, 2,352G)
Pie108: 100G (2.2%, 17,240G)

champion bets:
sinnyil2: 3,500G (18.0%, 15,982G)
astrozin11: 3,000G (15.4%, 6,557G)
hales_bopp_it: 1,676G (8.6%, 6,706G)
catfashions: 1,001G (5.1%, 1,001G)
BirbBrainsBot: 1,000G (5.1%, 85,520G)
Lord_Burrah: 1,000G (5.1%, 96,472G)
datadrivenbot: 890G (4.6%, 21,220G)
Laserman1000: 800G (4.1%, 4,700G)
JumbocactuarX27: 603G (3.1%, 603G)
UmaiJam: 596G (3.1%, 596G)
luminarii: 570G (2.9%, 14,838G)
mpghappiness: 500G (2.6%, 1,247G)
DaveStrider55: 500G (2.6%, 1,676G)
LazarusAjin: 483G (2.5%, 483G)
DudeMonkey77: 444G (2.3%, 6,268G)
ungabunga_bot: 443G (2.3%, 117,315G)
ZephyrTempest: 376G (1.9%, 52,079G)
CapnChaos12: 300G (1.5%, 5,657G)
Anomandaris__: 300G (1.5%, 2,359G)
AlenaZarek: 252G (1.3%, 252G)
Jennero: 250G (1.3%, 1,892G)
BrookeIynn: 239G (1.2%, 239G)
athros13: 232G (1.2%, 232G)
HeroponThrawn: 124G (0.6%, 124G)
SaintOmerville: 104G (0.5%, 104G)
AllInBot: 100G (0.5%, 100G)
ko2q: 100G (0.5%, 2,522G)
Kellios11: 100G (0.5%, 11,018G)
daveb_: 15G (0.1%, 1,827G)
