Final Bets: red - 3 bets for 27,317G (86.7%, x0.15); purple - 8 bets for 4,195G (13.3%, x6.51)

red bets:
fattunaking: 19,907G (72.9%, 19,907G)
hotpocketsofficial: 7,103G (26.0%, 7,103G)
AllInBot: 307G (1.1%, 307G)

purple bets:
ruleof5: 1,000G (23.8%, 28,708G)
BirbBrainsBot: 1,000G (23.8%, 96,247G)
getthemoneyz: 626G (14.9%, 1,987,697G)
Raixelol: 600G (14.3%, 8,069G)
BappleTrees: 369G (8.8%, 369G)
MemoriesofFinal: 200G (4.8%, 31,748G)
datadrivenbot: 200G (4.8%, 71,794G)
arumz: 200G (4.8%, 37,772G)
