Final Bets: black - 10 bets for 6,964G (61.2%, x0.63); purple - 7 bets for 4,407G (38.8%, x1.58)

black bets:
heyitsHrodric: 1,500G (21.5%, 4,883G)
Zachara: 1,000G (14.4%, 137,000G)
Raixelol: 1,000G (14.4%, 16,656G)
BirbBrainsBot: 1,000G (14.4%, 55,119G)
NovaKnight21: 655G (9.4%, 655G)
Hasterious: 575G (8.3%, 575G)
Arcblazer23: 564G (8.1%, 564G)
getthemoneyz: 370G (5.3%, 1,513,877G)
datadrivenbot: 200G (2.9%, 51,251G)
douchetron: 100G (1.4%, 21,884G)

purple bets:
amiture: 2,000G (45.4%, 22,750G)
ko2q: 1,000G (22.7%, 11,731G)
Klednar21: 600G (13.6%, 9,365G)
AllInBot: 462G (10.5%, 462G)
Lydian_C: 124G (2.8%, 5,098G)
PantherIscariot: 121G (2.7%, 3,521G)
Hanedtom: 100G (2.3%, 100G)
