Final Bets: black - 20 bets for 14,448G (70.8%, x0.41); brown - 11 bets for 5,973G (29.2%, x2.42)

black bets:
nifboy: 4,330G (30.0%, 4,330G)
killth3kid: 2,000G (13.8%, 49,963G)
sinnyil2: 1,200G (8.3%, 14,852G)
JumbocactuarX27: 1,000G (6.9%, 21,314G)
Rislyeu: 917G (6.3%, 1,835G)
LivingHitokiri: 903G (6.2%, 903G)
DustBirdEX: 567G (3.9%, 3,181G)
Nickyfive: 532G (3.7%, 532G)
CorpusCav: 476G (3.3%, 6,076G)
roofiepops: 444G (3.1%, 4,843G)
Cryptopsy70: 404G (2.8%, 6,432G)
Grimmace45: 364G (2.5%, 364G)
NicoSavoy: 326G (2.3%, 326G)
sukotsuto: 200G (1.4%, 3,188G)
ungabunga_bot: 185G (1.3%, 431,736G)
Miyokari: 150G (1.0%, 1,642G)
Jampck: 150G (1.0%, 1,746G)
datadrivenbot: 100G (0.7%, 13,988G)
ApplesauceBoss: 100G (0.7%, 8,750G)
itzatuhl: 100G (0.7%, 100G)

brown bets:
TheChainNerd: 1,197G (20.0%, 1,197G)
amiture: 1,000G (16.7%, 6,381G)
BirbBrainsBot: 1,000G (16.7%, 129,766G)
Mtueni: 1,000G (16.7%, 241,687G)
toka222: 650G (10.9%, 11,378G)
ZephyrTempest: 456G (7.6%, 2,465G)
getthemoneyz: 194G (3.2%, 650,948G)
carsenhk: 150G (2.5%, 21,572G)
FNCardascia_: 126G (2.1%, 252G)
mannequ1n: 100G (1.7%, 3,187G)
rjA0zcOQ96: 100G (1.7%, 19,100G)
