Final Bets: black - 13 bets for 6,473G (48.1%, x1.08); purple - 14 bets for 6,986G (51.9%, x0.93)

black bets:
BirbBrainsBot: 1,000G (15.4%, 97,610G)
getthemoneyz: 914G (14.1%, 1,764,073G)
poorest_hobo: 872G (13.5%, 78,555G)
Aldrammech: 700G (10.8%, 700G)
HentaiWriter: 698G (10.8%, 698G)
Zeroroute: 585G (9.0%, 585G)
technominari: 500G (7.7%, 75,034G)
CorpusCav: 400G (6.2%, 6,881G)
resjudicata3: 300G (4.6%, 4,933G)
datadrivenbot: 200G (3.1%, 59,119G)
HS39: 104G (1.6%, 104G)
arumz: 100G (1.5%, 2,110G)
Leonidusx: 100G (1.5%, 3,138G)

purple bets:
sinnyil2: 1,600G (22.9%, 1,600G)
MemoriesofFinal: 984G (14.1%, 984G)
roofiepops: 735G (10.5%, 735G)
SephDarkheart: 600G (8.6%, 168,727G)
WhiteTigress: 539G (7.7%, 539G)
WesSideVandal: 500G (7.2%, 3,975G)
BaronHaynes: 500G (7.2%, 72,779G)
dogsandcatsand: 460G (6.6%, 460G)
ColetteMSLP: 400G (5.7%, 6,613G)
Mushufasa_: 250G (3.6%, 4,729G)
AllInBot: 117G (1.7%, 117G)
gorgewall: 101G (1.4%, 3,579G)
Foamsoldier: 100G (1.4%, 3,509G)
krombobreaker: 100G (1.4%, 2,110G)
