Final Bets: red - 18 bets for 19,105G (64.6%, x0.55); black - 14 bets for 10,491G (35.4%, x1.82)

red bets:
poorest_hobo: 4,321G (22.6%, 79,500G)
Thyrandaal: 4,000G (20.9%, 150,236G)
Lord_Burrah: 2,855G (14.9%, 57,855G)
Aldrammech: 1,455G (7.6%, 1,455G)
ruleof5: 1,000G (5.2%, 18,827G)
Leonidusx: 1,000G (5.2%, 3,246G)
resjudicata3: 1,000G (5.2%, 5,257G)
roofiepops: 628G (3.3%, 628G)
SephDarkheart: 600G (3.1%, 168,127G)
lowlf: 420G (2.2%, 1,139G)
thunderducker: 400G (2.1%, 5,039G)
MemoriesofFinal: 260G (1.4%, 260G)
Mushufasa_: 250G (1.3%, 4,479G)
HS39: 216G (1.1%, 216G)
CosmicTactician: 200G (1.0%, 43,718G)
gondolacard: 200G (1.0%, 2,479G)
datadrivenbot: 200G (1.0%, 59,335G)
AllInBot: 100G (0.5%, 100G)

black bets:
reinoe: 2,000G (19.1%, 63,689G)
Zeroroute: 1,216G (11.6%, 1,216G)
sinnyil2: 1,052G (10.0%, 1,052G)
SoLiDsmoke: 1,000G (9.5%, 1,000G)
BirbBrainsBot: 1,000G (9.5%, 98,689G)
CATDADMEOW: 1,000G (9.5%, 1,000G)
WesSideVandal: 1,000G (9.5%, 3,475G)
WhiteTigress: 460G (4.4%, 460G)
ColetteMSLP: 400G (3.8%, 6,213G)
Cryptopsy70: 344G (3.3%, 734G)
CorpusCav: 313G (3.0%, 7,313G)
getthemoneyz: 306G (2.9%, 1,765,059G)
Finewax: 300G (2.9%, 1,351G)
krombobreaker: 100G (1.0%, 2,010G)
