Final Bets: green - 14 bets for 7,997G (41.4%, x1.42); brown - 17 bets for 11,342G (58.6%, x0.71)

green bets:
TheMM42: 2,000G (25.0%, 3,719G)
Laserman1000: 1,016G (12.7%, 114,716G)
UmaiJam: 1,000G (12.5%, 23,712G)
Mesmaster: 1,000G (12.5%, 14,898G)
ko2q: 801G (10.0%, 801G)
superdevon1: 635G (7.9%, 6,358G)
Practice_Pad: 321G (4.0%, 321G)
Bulleta: 280G (3.5%, 280G)
Eyepoor_: 250G (3.1%, 6,243G)
Yasmosis: 244G (3.1%, 244G)
electric_glass: 200G (2.5%, 2,975G)
mannequ1n: 100G (1.3%, 100G)
Evewho: 100G (1.3%, 3,167G)
cougboi: 50G (0.6%, 15,950G)

brown bets:
R_Raynos: 2,000G (17.6%, 18,472G)
DeathTaxesAndAnime: 1,614G (14.2%, 1,614G)
ungabunga_bot: 1,000G (8.8%, 357,695G)
BirbBrainsBot: 1,000G (8.8%, 62,401G)
Lionhermit: 1,000G (8.8%, 12,468G)
itsdigitalbro: 950G (8.4%, 4,928G)
astrozin11: 789G (7.0%, 789G)
Slider1012: 481G (4.2%, 481G)
mirapoix: 480G (4.2%, 480G)
ccordc: 472G (4.2%, 472G)
ZephyrTempest: 456G (4.0%, 1,155G)
getthemoneyz: 250G (2.2%, 629,301G)
Lythe_Caraker: 250G (2.2%, 116,346G)
caprinovoa: 200G (1.8%, 865G)
twelfthrootoftwo: 200G (1.8%, 2,337G)
RestIessNight: 100G (0.9%, 1,129G)
datadrivenbot: 100G (0.9%, 12,367G)
