Final Bets: brown - 18 bets for 6,127G (15.7%, x5.37); champion - 20 bets for 32,925G (84.3%, x0.19)

brown bets:
BirbBrainsBot: 1,000G (16.3%, 63,106G)
Lionhermit: 1,000G (16.3%, 13,173G)
mirapoix: 818G (13.4%, 818G)
sinnyil2: 660G (10.8%, 660G)
caprinovoa: 400G (6.5%, 1,006G)
pandasforsale: 333G (5.4%, 26,617G)
genericco: 300G (4.9%, 1,180G)
Eyepoor_: 250G (4.1%, 5,993G)
Lythe_Caraker: 250G (4.1%, 116,522G)
KasugaiRoastedPeas: 230G (3.8%, 4,164G)
lobsterlobster: 200G (3.3%, 25,861G)
getthemoneyz: 156G (2.5%, 629,477G)
Evewho: 100G (1.6%, 3,067G)
Realitydown: 100G (1.6%, 6,753G)
RestIessNight: 100G (1.6%, 1,200G)
mannequ1n: 100G (1.6%, 100G)
Estan_AD: 81G (1.3%, 1,445G)
astrozin11: 49G (0.8%, 1,345G)

champion bets:
R_Raynos: 10,000G (30.4%, 19,882G)
Laserman1000: 6,000G (18.2%, 113,700G)
reinoe: 3,352G (10.2%, 6,704G)
evontno: 3,000G (9.1%, 10,688G)
TheMM42: 1,719G (5.2%, 1,719G)
DeathTaxesAndAnime: 1,403G (4.3%, 2,752G)
WireLord: 1,282G (3.9%, 1,282G)
ungabunga_bot: 916G (2.8%, 358,400G)
ccordc: 805G (2.4%, 805G)
electric_glass: 666G (2.0%, 2,775G)
twelfthrootoftwo: 666G (2.0%, 2,478G)
cougboi: 666G (2.0%, 15,900G)
superdevon1: 572G (1.7%, 5,723G)
kaidykat: 466G (1.4%, 466G)
ZephyrTempest: 456G (1.4%, 1,477G)
ko2q: 340G (1.0%, 340G)
Bulleta: 280G (0.9%, 280G)
Practice_Pad: 136G (0.4%, 136G)
Slider1012: 100G (0.3%, 820G)
datadrivenbot: 100G (0.3%, 12,438G)
