Final Bets: red - 9 bets for 4,546G (19.6%, x4.10); white - 22 bets for 18,646G (80.4%, x0.24)

red bets:
reinoe: 1,000G (22.0%, 66,732G)
BirbBrainsBot: 977G (21.5%, 82,808G)
killth3kid: 783G (17.2%, 783G)
poorest_hobo: 579G (12.7%, 94,425G)
ruleof5: 500G (11.0%, 40,416G)
Leonidusx: 247G (5.4%, 247G)
getthemoneyz: 230G (5.1%, 1,761,391G)
AllInBot: 130G (2.9%, 130G)
HS39: 100G (2.2%, 145G)

white bets:
HaateXIII: 5,707G (30.6%, 5,707G)
Greggernaut: 2,000G (10.7%, 3,667G)
Shalloween: 2,000G (10.7%, 38,086G)
Thyrandaal: 1,234G (6.6%, 79,210G)
Lifebregin: 1,018G (5.5%, 1,018G)
JCBooBot: 1,000G (5.4%, 54,672G)
Dasutin23: 1,000G (5.4%, 37,244G)
Laserman1000: 722G (3.9%, 15,122G)
SephDarkheart: 600G (3.2%, 166,657G)
thunderducker: 593G (3.2%, 593G)
DustBirdEX: 530G (2.8%, 530G)
CorpusCav: 500G (2.7%, 5,254G)
Lord_Gwarth: 350G (1.9%, 3,181G)
arumz: 300G (1.6%, 2,965G)
MemoriesofFinal: 256G (1.4%, 256G)
datadrivenbot: 200G (1.1%, 59,224G)
Absalom_20: 120G (0.6%, 7,562G)
DracoknightZero: 108G (0.6%, 108G)
krombobreaker: 108G (0.6%, 108G)
Tougou: 100G (0.5%, 5,510G)
ko2q: 100G (0.5%, 4,117G)
Runeseeker22: 100G (0.5%, 1,170G)
