Final Bets: blue - 12 bets for 5,243G (62.6%, x0.60); champion - 9 bets for 3,136G (37.4%, x1.67)

blue bets:
BirbBrainsBot: 1,000G (19.1%, 170,403G)
Drusiform: 1,000G (19.1%, 7,887G)
Willjin: 1,000G (19.1%, 21,452G)
3ngag3: 584G (11.1%, 584G)
Creggers: 500G (9.5%, 21,649G)
X0ras: 300G (5.7%, 696G)
HASTERIOUS: 280G (5.3%, 5,619G)
datadrivenbot: 200G (3.8%, 64,706G)
TheMurkGnome: 106G (2.0%, 5,570G)
gorgewall: 101G (1.9%, 8,909G)
ko2q: 100G (1.9%, 4,674G)
getthemoneyz: 72G (1.4%, 1,657,375G)

champion bets:
Sans_from_Snowdin: 1,000G (31.9%, 31,083G)
blorpy_: 673G (21.5%, 16,825G)
lowlf: 500G (15.9%, 3,874G)
Aestheta: 300G (9.6%, 2,347G)
ZephyrBurst83: 200G (6.4%, 9,964G)
Mister_Quof: 140G (4.5%, 140G)
Lydian_C: 123G (3.9%, 2,085G)
AllInBot: 100G (3.2%, 100G)
McGooferson: 100G (3.2%, 875G)
