Final Bets: yellow - 3 bets for 4,270G (52.6%, x0.90); champion - 8 bets for 3,848G (47.4%, x1.11)

yellow bets:
helpimabug: 2,641G (61.9%, 5,282G)
martymcfly2021: 1,129G (26.4%, 1,129G)
Smokegiant: 500G (11.7%, 86,820G)

champion bets:
UmaiJam: 1,800G (46.8%, 81,101G)
Evewho: 701G (18.2%, 701G)
BirbBrainsBot: 669G (17.4%, 80,706G)
InOzWeTrust: 272G (7.1%, 272G)
datadrivenbot: 200G (5.2%, 55,375G)
DeathTaxesAndAnime: 100G (2.6%, 1,698G)
fluffskull: 100G (2.6%, 3,112G)
getthemoneyz: 6G (0.2%, 1,207,630G)
