Final Bets: black - 23 bets for 18,183G (80.3%, x0.25); purple - 14 bets for 4,460G (19.7%, x4.08)

black bets:
HaplessOne: 5,000G (27.5%, 79,061G)
leakimiko: 2,877G (15.8%, 57,558G)
sinnyil2: 2,500G (13.7%, 62,868G)
Maverickkanissa: 1,072G (5.9%, 1,072G)
EnemyController: 1,000G (5.5%, 58,000G)
WireLord: 1,000G (5.5%, 52,705G)
Shakarak: 886G (4.9%, 886G)
Laserman1000: 586G (3.2%, 22,686G)
Estan_AD: 500G (2.7%, 13,919G)
reinoe: 500G (2.7%, 9,213G)
DaveStrider55: 480G (2.6%, 480G)
CapnChaos12: 300G (1.6%, 36,924G)
ThePuss: 278G (1.5%, 278G)
Realitydown: 200G (1.1%, 1,526G)
0utlier: 200G (1.1%, 5,382G)
BroHamma: 104G (0.6%, 104G)
AllInBot: 100G (0.5%, 100G)
twelfthrootoftwo: 100G (0.5%, 2,862G)
ApplesauceBoss: 100G (0.5%, 12,259G)
Chompie: 100G (0.5%, 8,236G)
Lythe_Caraker: 100G (0.5%, 105,233G)
Arkreaver: 100G (0.5%, 7,895G)
datadrivenbot: 100G (0.5%, 224G)

purple bets:
BirbBrainsBot: 1,000G (22.4%, 2,262G)
ungabunga_bot: 1,000G (22.4%, 180,900G)
R_Raynos: 442G (9.9%, 442G)
YaBoy125: 300G (6.7%, 10,823G)
ZephyrTempest: 267G (6.0%, 160,393G)
b_bot: 250G (5.6%, 2,285G)
SpookyCookieMonster: 200G (4.5%, 3,118G)
alecttox: 200G (4.5%, 66,500G)
sage_the_kitsune: 163G (3.7%, 163G)
ndubya: 163G (3.7%, 163G)
getthemoneyz: 138G (3.1%, 514,765G)
Tetsuwan_Melty: 129G (2.9%, 129G)
potgodtopdog: 108G (2.4%, 108G)
ANFz: 100G (2.2%, 13,402G)
