Final Bets: yellow - 9 bets for 10,233G (59.3%, x0.69); purple - 13 bets for 7,019G (40.7%, x1.46)

yellow bets:
RaIshtar: 3,000G (29.3%, 41,951G)
toka222: 2,500G (24.4%, 52,447G)
maakur_: 1,361G (13.3%, 1,361G)
nifboy: 1,000G (9.8%, 5,818G)
DustBirdEX: 734G (7.2%, 2,218G)
Nizaha: 544G (5.3%, 7,694G)
Aldrammech: 456G (4.5%, 456G)
getthemoneyz: 426G (4.2%, 1,271,982G)
BlueAbs: 212G (2.1%, 212G)

purple bets:
OtherBrand: 1,011G (14.4%, 1,011G)
TheChainNerd: 1,000G (14.2%, 31,655G)
BirbBrainsBot: 1,000G (14.2%, 150,998G)
WitchHunterIX: 1,000G (14.2%, 6,269G)
AllInBot: 866G (12.3%, 866G)
gorgewall: 584G (8.3%, 584G)
Creggers: 500G (7.1%, 21,282G)
TasisSai: 316G (4.5%, 316G)
Mysteriousdewd: 200G (2.8%, 7,740G)
furrytomahawkk: 200G (2.8%, 1,856G)
datadrivenbot: 126G (1.8%, 55,848G)
Xoomwaffle: 116G (1.7%, 116G)
Miku_Shikhu: 100G (1.4%, 10,081G)
