Final Bets: white - 18 bets for 4,228G (16.0%, x5.23); black - 15 bets for 22,121G (84.0%, x0.19)

white bets:
namamu: 420G (9.9%, 25,587G)
Lali_Lulelo: 392G (9.3%, 392G)
HASTERIOUS: 389G (9.2%, 7,790G)
Estan_AD: 380G (9.0%, 380G)
luminarii: 350G (8.3%, 17,827G)
Tsenn: 310G (7.3%, 310G)
Stealthtoucan: 263G (6.2%, 5,264G)
danteangel7psn: 249G (5.9%, 249G)
getthemoneyz: 248G (5.9%, 732,459G)
LeoNightFury: 248G (5.9%, 248G)
cloud92684: 200G (4.7%, 9,593G)
rednecknazgul: 168G (4.0%, 168G)
daveb_: 111G (2.6%, 5,515G)
EmperorBeef: 100G (2.4%, 257,911G)
cougboi: 100G (2.4%, 12,979G)
gr8keeper: 100G (2.4%, 1,725G)
datadrivenbot: 100G (2.4%, 22,250G)
Grandlanzer: 100G (2.4%, 1,669G)

black bets:
roofiepops: 5,155G (23.3%, 13,758G)
LASERJESUS1337: 5,000G (22.6%, 64,626G)
Shalloween: 2,628G (11.9%, 5,256G)
NicoSavoy: 2,000G (9.0%, 42,981G)
gogofromtogo: 1,744G (7.9%, 1,744G)
ravingsockmonkey: 1,579G (7.1%, 1,579G)
BirbBrainsBot: 1,000G (4.5%, 189,191G)
skillomono: 1,000G (4.5%, 9,950G)
CorpusCav: 500G (2.3%, 10,571G)
Sairentozon7: 480G (2.2%, 480G)
YaBoy125: 420G (1.9%, 1,494G)
CapnChaos12: 300G (1.4%, 3,104G)
AllInBot: 115G (0.5%, 115G)
E_Ballard: 100G (0.5%, 10,484G)
CosmicTactician: 100G (0.5%, 12,154G)
