Final Bets: white - 20 bets for 42,156G (85.8%, x0.17); brown - 13 bets for 6,989G (14.2%, x6.03)

white bets:
NicoSavoy: 19,963G (47.4%, 39,927G)
E_Ballard: 13,158G (31.2%, 13,158G)
Grandlanzer: 2,369G (5.6%, 2,369G)
danteangel7psn: 1,251G (3.0%, 1,251G)
Mesmaster: 1,000G (2.4%, 74,973G)
TheMM42: 500G (1.2%, 23,156G)
gr8keeper: 500G (1.2%, 1,748G)
BirbBrainsBot: 495G (1.2%, 187,380G)
HASTERIOUS: 495G (1.2%, 9,918G)
getthemoneyz: 488G (1.2%, 732,775G)
Tsenn: 300G (0.7%, 1,532G)
poulol: 300G (0.7%, 8,889G)
CapnChaos12: 300G (0.7%, 2,561G)
benticore: 250G (0.6%, 1,319G)
gogofromtogo: 243G (0.6%, 243G)
ravingsockmonkey: 133G (0.3%, 133G)
daveb_: 111G (0.3%, 5,985G)
Estan_AD: 100G (0.2%, 1,918G)
dowdlron: 100G (0.2%, 997G)
datadrivenbot: 100G (0.2%, 22,692G)

brown bets:
Shalloween: 1,567G (22.4%, 1,567G)
EnemyController: 1,500G (21.5%, 353,756G)
LeoNightFury: 1,354G (19.4%, 1,354G)
CorpusCav: 612G (8.8%, 9,112G)
GnielKnows: 300G (4.3%, 1,123G)
cloud92684: 300G (4.3%, 9,209G)
skillomono: 300G (4.3%, 5,950G)
alecttox: 256G (3.7%, 256G)
DAC169: 250G (3.6%, 1,199G)
kaidykat: 200G (2.9%, 8,840G)
OperatorTheory: 150G (2.1%, 8,181G)
AllInBot: 100G (1.4%, 100G)
rednecknazgul: 100G (1.4%, 1,126G)
