Final Bets: white - 17 bets for 10,896G (57.1%, x0.75); brown - 14 bets for 8,203G (42.9%, x1.33)

white bets:
Nizaha: 1,530G (14.0%, 3,060G)
DustBirdEX: 1,278G (11.7%, 2,556G)
Forkmore: 1,111G (10.2%, 33,160G)
BoneMiser: 1,004G (9.2%, 1,004G)
Firesheath: 1,000G (9.2%, 73,475G)
reinoe: 1,000G (9.2%, 10,703G)
RampagingRobot: 870G (8.0%, 21,870G)
Laserman1000: 843G (7.7%, 17,743G)
HyC81: 732G (6.7%, 732G)
Mathlexis: 500G (4.6%, 3,900G)
KyleWonToLiveForever: 328G (3.0%, 328G)
vanquishedfool: 200G (1.8%, 1,636G)
letdowncity: 100G (0.9%, 11,834G)
CosmicTactician: 100G (0.9%, 54,721G)
datadrivenbot: 100G (0.9%, 51,600G)
E_Ballard: 100G (0.9%, 2,346G)
DaKoopa49: 100G (0.9%, 2,050G)

brown bets:
UmaiJam: 1,700G (20.7%, 80,169G)
DeathTaxesAndAnime: 1,440G (17.6%, 1,440G)
BirbBrainsBot: 1,000G (12.2%, 118,912G)
DavenIII: 1,000G (12.2%, 2,060G)
gorgewall: 804G (9.8%, 804G)
TheChainNerd: 505G (6.2%, 5,056G)
ArashiKurobara: 500G (6.1%, 25,885G)
Shalloween: 500G (6.1%, 71,274G)
ChaoreLance: 200G (2.4%, 3,522G)
roqqqpsi: 131G (1.6%, 13,180G)
Lydian_C: 121G (1.5%, 159,586G)
getthemoneyz: 102G (1.2%, 1,156,857G)
BaronHaynes: 100G (1.2%, 18,000G)
Thyrandaal: 100G (1.2%, 3,034G)
