Final Bets: green - 16 bets for 24,184G (69.2%, x0.45); yellow - 16 bets for 10,782G (30.8%, x2.24)

green bets:
joewcarson: 7,776G (32.2%, 7,776G)
EnemyController: 5,000G (20.7%, 266,586G)
Dymntd: 2,877G (11.9%, 2,877G)
maakur_: 2,363G (9.8%, 2,363G)
CorpusCav: 868G (3.6%, 868G)
Candina: 666G (2.8%, 19,307G)
StealthModeLocke: 605G (2.5%, 605G)
E_Ballard: 600G (2.5%, 600G)
killth3kid: 600G (2.5%, 3,156G)
Nizaha: 501G (2.1%, 16,184G)
Bahamut64: 500G (2.1%, 15,158G)
Aerochris121: 500G (2.1%, 1,969G)
twelfthrootoftwo: 500G (2.1%, 26,392G)
Firesheath: 316G (1.3%, 316G)
JackOnFire1: 312G (1.3%, 312G)
serperemagus: 200G (0.8%, 203G)

yellow bets:
Virilikus: 2,000G (18.5%, 174,627G)
Evewho: 1,921G (17.8%, 3,768G)
gooseyourself: 1,305G (12.1%, 1,305G)
BirbBrainsBot: 775G (7.2%, 16,224G)
Shalloween: 640G (5.9%, 640G)
Estan_AD: 621G (5.8%, 621G)
Meta_Five: 500G (4.6%, 16,628G)
argentbast: 500G (4.6%, 1,361G)
Lionhermit: 500G (4.6%, 13,667G)
Baron_von_Scrub: 474G (4.4%, 10,139G)
getthemoneyz: 452G (4.2%, 683,155G)
ANFz: 344G (3.2%, 344G)
jakeduhhsnake: 250G (2.3%, 1,092G)
skillomono: 200G (1.9%, 2,610G)
KasugaiRoastedPeas: 200G (1.9%, 384G)
RunicMagus: 100G (0.9%, 34,212G)
