Final Bets: green - 6 bets for 2,946G (17.0%, x4.87); yellow - 14 bets for 14,353G (83.0%, x0.21)

green bets:
BirbBrainsBot: 1,000G (33.9%, 51,841G)
bruubarg: 600G (20.4%, 600G)
lowlf: 552G (18.7%, 26,821G)
3ngag3: 344G (11.7%, 14,356G)
getthemoneyz: 234G (7.9%, 1,973,808G)
king_smashington: 216G (7.3%, 267G)

yellow bets:
DeathTaxesAndAnime: 3,450G (24.0%, 6,765G)
Mesmaster: 3,000G (20.9%, 36,510G)
NicoSavoy: 2,000G (13.9%, 138,931G)
upvla: 1,300G (9.1%, 2,710G)
Mushufasa_: 1,000G (7.0%, 50,468G)
resjudicata3: 750G (5.2%, 1,472G)
Rune339: 686G (4.8%, 6,861G)
Arcblazer23: 432G (3.0%, 432G)
Chuckolator: 423G (2.9%, 20,875G)
ColetteMSLP: 400G (2.8%, 5,144G)
hotpocketsofficial: 312G (2.2%, 312G)
AllInBot: 200G (1.4%, 200G)
iBardic: 200G (1.4%, 20,098G)
datadrivenbot: 200G (1.4%, 64,469G)
