Final Bets: purple - 13 bets for 17,919G (73.9%, x0.35); brown - 9 bets for 6,343G (26.1%, x2.83)

purple bets:
snkey: 5,470G (30.5%, 54,702G)
Shalloween: 3,509G (19.6%, 7,019G)
DeathTaxesAndAnime: 2,254G (12.6%, 4,421G)
VolgraTheMoose: 1,991G (11.1%, 119,095G)
reinoe: 1,634G (9.1%, 1,634G)
BirbBrainsBot: 1,000G (5.6%, 100,357G)
getthemoneyz: 578G (3.2%, 1,877,584G)
resjudicata3: 492G (2.7%, 492G)
ArrenJevleth: 300G (1.7%, 5,203G)
Leonidusx: 280G (1.6%, 280G)
datadrivenbot: 200G (1.1%, 56,940G)
BartTradingCompany: 111G (0.6%, 1,113G)
Thyrandaal: 100G (0.6%, 187,709G)

brown bets:
KasugaiRoastedPeas: 3,116G (49.1%, 3,116G)
AllInBot: 1,194G (18.8%, 1,194G)
akash7: 500G (7.9%, 1,008G)
farside00831: 400G (6.3%, 497G)
rocl: 376G (5.9%, 2,360G)
Lord_Gwarth: 337G (5.3%, 3,651G)
ValensEXP_: 220G (3.5%, 2,042G)
Yangusburger: 100G (1.6%, 6,642G)
mrfripps: 100G (1.6%, 11,778G)
