Final Bets: green - 12 bets for 9,834G (51.2%, x0.95); yellow - 17 bets for 9,374G (48.8%, x1.05)

green bets:
maximumcrit: 5,000G (50.8%, 7,097G)
killth3kid: 796G (8.1%, 51,747G)
daveb_: 655G (6.7%, 9,761G)
Lanshaft: 620G (6.3%, 22,947G)
blorpy_: 599G (6.1%, 7,490G)
Shalloween: 500G (5.1%, 23,063G)
AllInBot: 457G (4.6%, 457G)
roqqqpsi: 407G (4.1%, 412G)
dogsandcatsand: 400G (4.1%, 400G)
datadrivenbot: 200G (2.0%, 68,423G)
Aldrammech: 100G (1.0%, 32,199G)
cloudycube: 100G (1.0%, 1,023G)

yellow bets:
Willjin: 1,200G (12.8%, 20,071G)
ruleof5: 1,000G (10.7%, 13,523G)
BirbBrainsBot: 1,000G (10.7%, 163,574G)
DeathTaxesAndAnime: 852G (9.1%, 852G)
Tarheels218: 735G (7.8%, 735G)
E_Ballard: 728G (7.8%, 55,852G)
ribbiks: 641G (6.8%, 641G)
DustBirdEX: 640G (6.8%, 640G)
DouglasDragonThePoet: 551G (5.9%, 1,103G)
technominari: 500G (5.3%, 82,309G)
Lord_Gwarth: 398G (4.2%, 797G)
douchetron: 312G (3.3%, 312G)
WhiteTigress: 300G (3.2%, 14,175G)
Forkmore: 167G (1.8%, 1,167G)
getthemoneyz: 150G (1.6%, 1,731,794G)
RunicMagus: 100G (1.1%, 6,497G)
nifboy: 100G (1.1%, 10,327G)
