Final Bets: red - 24 bets for 29,337G (83.7%, x0.19); blue - 10 bets for 5,706G (16.3%, x5.14)

red bets:
upvla: 9,870G (33.6%, 9,870G)
Zbgs: 2,742G (9.3%, 2,742G)
dogsandcatsand: 2,000G (6.8%, 25,971G)
rockmem21: 2,000G (6.8%, 21,003G)
Sairentozon7: 2,000G (6.8%, 25,143G)
JiroDoge: 1,590G (5.4%, 3,181G)
AllInBot: 1,554G (5.3%, 1,554G)
roqqqpsi: 1,384G (4.7%, 6,292G)
SephDarkheart: 1,000G (3.4%, 62,156G)
baconbacon1207: 1,000G (3.4%, 13,639G)
DeathTaxesAndAnime: 963G (3.3%, 963G)
killth3kid: 681G (2.3%, 681G)
Aldrammech: 500G (1.7%, 13,443G)
Royal_Ruckus: 423G (1.4%, 423G)
TasisSai: 372G (1.3%, 372G)
RageImmortaI: 296G (1.0%, 296G)
datadrivenbot: 200G (0.7%, 32,108G)
douchetron: 161G (0.5%, 161G)
gorgewall: 101G (0.3%, 7,202G)
nhammen: 100G (0.3%, 4,115G)
Miku_Shikhu: 100G (0.3%, 16,326G)
DHaveWord: 100G (0.3%, 7,122G)
Legionx13: 100G (0.3%, 2,915G)
jrudrow: 100G (0.3%, 100G)

blue bets:
SkylerBunny: 1,400G (24.5%, 53,299G)
prince_rogers_nelson_: 1,350G (23.7%, 1,350G)
BirbBrainsBot: 1,000G (17.5%, 72,718G)
reinoe: 500G (8.8%, 67,853G)
coralreeferz: 450G (7.9%, 5,580G)
getthemoneyz: 446G (7.8%, 1,320,850G)
benticore: 250G (4.4%, 22,869G)
Evewho: 200G (3.5%, 3,593G)
LordMaxoss: 100G (1.8%, 3,482G)
DouglasDragonThePoet: 10G (0.2%, 561G)
