Final Bets: blue - 10 bets for 6,177G (32.2%, x2.11); yellow - 18 bets for 13,020G (67.8%, x0.47)

blue bets:
Aldrammech: 2,000G (32.4%, 11,419G)
rockmem21: 2,000G (32.4%, 21,611G)
reinoe: 1,000G (16.2%, 72,761G)
killth3kid: 649G (10.5%, 649G)
Evewho: 200G (3.2%, 4,798G)
gorgewall: 101G (1.6%, 6,799G)
nhammen: 100G (1.6%, 4,765G)
DouglasDragonThePoet: 50G (0.8%, 630G)
roqqqpsi: 47G (0.8%, 4,729G)
getthemoneyz: 30G (0.5%, 1,322,139G)

yellow bets:
dogsandcatsand: 3,000G (23.0%, 25,245G)
Thyrandaal: 1,901G (14.6%, 1,901G)
SkylerBunny: 1,800G (13.8%, 63,734G)
Lythe_Caraker: 1,000G (7.7%, 166,049G)
BirbBrainsBot: 1,000G (7.7%, 77,617G)
OtherBrand: 872G (6.7%, 872G)
KyleWonToLiveForever: 762G (5.9%, 762G)
brokenknight201: 507G (3.9%, 507G)
nekojin: 500G (3.8%, 6,081G)
Royal_Ruckus: 456G (3.5%, 456G)
TasisSai: 372G (2.9%, 372G)
AllInBot: 200G (1.5%, 200G)
Legionx13: 150G (1.2%, 2,515G)
DHaveWord: 100G (0.8%, 6,498G)
LordMaxoss: 100G (0.8%, 4,133G)
Miku_Shikhu: 100G (0.8%, 16,126G)
Wonser: 100G (0.8%, 800G)
roofiepops: 100G (0.8%, 1,433G)
