Final Bets: white - 11 bets for 8,042G (64.5%, x0.55); brown - 9 bets for 4,435G (35.5%, x1.81)

white bets:
DLJuggernaut: 5,000G (62.2%, 27,029G)
farside00831: 932G (11.6%, 932G)
ValensEXP_: 484G (6.0%, 484G)
cloudycube: 444G (5.5%, 444G)
Lolthsmeat: 356G (4.4%, 356G)
AllInBot: 200G (2.5%, 200G)
resjudicata3: 200G (2.5%, 4,015G)
datadrivenbot: 200G (2.5%, 80,566G)
Deeps_one: 124G (1.5%, 124G)
gorgewall: 101G (1.3%, 3,795G)
MoonSugarFiend: 1G (0.0%, 54,759G)

brown bets:
DeathTaxesAndAnime: 1,616G (36.4%, 3,170G)
BirbBrainsBot: 1,000G (22.5%, 173,825G)
Firesheath: 660G (14.9%, 660G)
DustBirdEX: 436G (9.8%, 436G)
Zerguzen: 292G (6.6%, 292G)
Lydian_C: 123G (2.8%, 3,055G)
getthemoneyz: 108G (2.4%, 2,210,176G)
jewhoe: 100G (2.3%, 100G)
MrJamDango: 100G (2.3%, 3,788G)
