Final Bets: green - 8 bets for 6,966G (24.9%, x3.02); brown - 19 bets for 21,052G (75.1%, x0.33)

green bets:
DLJuggernaut: 5,000G (71.8%, 22,029G)
Zerguzen: 821G (11.8%, 821G)
b0lt: 300G (4.3%, 608G)
cloudycube: 212G (3.0%, 212G)
superdevon1: 209G (3.0%, 2,099G)
Evewho: 200G (2.9%, 18,506G)
Deeps_one: 124G (1.8%, 124G)
victoriolue: 100G (1.4%, 95,817G)

brown bets:
resjudicata3: 3,815G (18.1%, 3,815G)
HorusTaurus: 3,324G (15.8%, 6,649G)
DeathTaxesAndAnime: 3,111G (14.8%, 6,100G)
MoonSugarFiend: 2,000G (9.5%, 54,758G)
Firesheath: 1,857G (8.8%, 1,857G)
DustBirdEX: 1,227G (5.8%, 1,227G)
BirbBrainsBot: 1,000G (4.8%, 175,638G)
YowaneHaku: 908G (4.3%, 908G)
Laserman1000: 900G (4.3%, 9,700G)
getthemoneyz: 544G (2.6%, 2,210,372G)
ValensEXP_: 484G (2.3%, 484G)
3ngag3: 456G (2.2%, 19,513G)
jewhoe: 281G (1.3%, 281G)
QuestMoreLand: 244G (1.2%, 244G)
AllInBot: 200G (1.0%, 200G)
Meanderandreturn: 200G (1.0%, 14,304G)
datadrivenbot: 200G (1.0%, 80,366G)
MrJamDango: 200G (1.0%, 3,969G)
gorgewall: 101G (0.5%, 3,698G)
