Final Bets: green - 18 bets for 6,589G (17.7%, x4.66); yellow - 20 bets for 30,674G (82.3%, x0.21)

green bets:
Mathlexis: 1,345G (20.4%, 1,345G)
Dasutin23: 1,000G (15.2%, 34,641G)
DeathTaxesAndAnime: 724G (11.0%, 724G)
Xoomwaffle: 500G (7.6%, 1,246G)
BlueAbs: 500G (7.6%, 1,316G)
DustBirdEX: 445G (6.8%, 5,437G)
killth3kid: 436G (6.6%, 436G)
Chuckolator: 205G (3.1%, 30,804G)
gorgewall: 201G (3.1%, 8,204G)
TasisSai: 200G (3.0%, 967G)
datadrivenbot: 200G (3.0%, 32,560G)
nok____: 180G (2.7%, 4,880G)
getthemoneyz: 146G (2.2%, 1,322,016G)
megamax667: 107G (1.6%, 9,307G)
Firesheath: 100G (1.5%, 6,553G)
ANFz: 100G (1.5%, 46,159G)
Vultuous: 100G (1.5%, 4,399G)
Jeras01: 100G (1.5%, 3,028G)

yellow bets:
Lythe_Caraker: 5,000G (16.3%, 165,051G)
Mesmaster: 4,552G (14.8%, 4,552G)
HaateXIII: 3,579G (11.7%, 3,579G)
nhammen: 3,423G (11.2%, 3,423G)
rockmem21: 3,000G (9.8%, 18,077G)
SkylerBunny: 2,000G (6.5%, 54,990G)
sinnyil2: 1,398G (4.6%, 2,796G)
KyleWonToLiveForever: 1,297G (4.2%, 1,297G)
roqqqpsi: 1,281G (4.2%, 5,827G)
LDSkinny: 1,000G (3.3%, 30,001G)
BirbBrainsBot: 1,000G (3.3%, 70,742G)
IDruggedShamu: 931G (3.0%, 931G)
Phi_Sig: 555G (1.8%, 54,767G)
flacococo: 426G (1.4%, 426G)
randgridr: 408G (1.3%, 408G)
RageImmortaI: 296G (1.0%, 296G)
AllInBot: 200G (0.7%, 200G)
Royal_Ruckus: 128G (0.4%, 128G)
Miku_Shikhu: 100G (0.3%, 16,242G)
DouglasDragonThePoet: 100G (0.3%, 466G)
