Final Bets: white - 8 bets for 8,620G (20.9%, x3.79); black - 26 bets for 32,679G (79.1%, x0.26)

white bets:
HaateXIII: 4,348G (50.4%, 4,348G)
SkylerBunny: 2,000G (23.2%, 55,420G)
DeathTaxesAndAnime: 724G (8.4%, 724G)
reinoe: 500G (5.8%, 80,501G)
killth3kid: 440G (5.1%, 440G)
randgridr: 408G (4.7%, 496G)
Legitimized: 100G (1.2%, 4,445G)
Vultuous: 100G (1.2%, 4,299G)

black bets:
upvla: 10,000G (30.6%, 12,695G)
Mesmaster: 5,530G (16.9%, 5,530G)
rockmem21: 3,000G (9.2%, 18,721G)
nhammen: 2,120G (6.5%, 4,158G)
KyleWonToLiveForever: 1,576G (4.8%, 1,576G)
JiroDoge: 1,350G (4.1%, 1,350G)
Thyrandaal: 1,224G (3.7%, 1,224G)
IDruggedShamu: 1,131G (3.5%, 1,131G)
BirbBrainsBot: 1,000G (3.1%, 70,957G)
getthemoneyz: 1,000G (3.1%, 1,321,870G)
Xoomwaffle: 746G (2.3%, 746G)
Lythe_Caraker: 500G (1.5%, 166,125G)
Treafa: 500G (1.5%, 1,240G)
DustBirdEX: 500G (1.5%, 4,992G)
TasisSai: 391G (1.2%, 767G)
RageImmortaI: 360G (1.1%, 360G)
skipsandwiches: 352G (1.1%, 352G)
AllInBot: 243G (0.7%, 243G)
gorgewall: 201G (0.6%, 8,003G)
megamax667: 200G (0.6%, 9,200G)
datadrivenbot: 200G (0.6%, 32,360G)
Royal_Ruckus: 155G (0.5%, 155G)
letdowncity: 100G (0.3%, 8,968G)
DouglasDragonThePoet: 100G (0.3%, 487G)
Firesheath: 100G (0.3%, 6,453G)
Miku_Shikhu: 100G (0.3%, 16,263G)
