Final Bets: yellow - 18 bets for 17,794G (43.5%, x1.30); black - 25 bets for 23,115G (56.5%, x0.77)

yellow bets:
SkylerBunny: 3,000G (16.9%, 52,254G)
Mesmaster: 3,000G (16.9%, 10,209G)
KyleWonToLiveForever: 2,661G (15.0%, 2,661G)
Thyrandaal: 2,264G (12.7%, 2,264G)
LDSkinny: 1,000G (5.6%, 30,707G)
BirbBrainsBot: 1,000G (5.6%, 70,555G)
rockmem21: 1,000G (5.6%, 19,938G)
dantayystv: 1,000G (5.6%, 16,872G)
HaateXIII: 784G (4.4%, 784G)
roqqqpsi: 562G (3.2%, 5,116G)
killth3kid: 519G (2.9%, 519G)
RageImmortaI: 296G (1.7%, 296G)
CanniCake: 200G (1.1%, 1,591G)
nok____: 200G (1.1%, 4,700G)
Miku_Shikhu: 100G (0.6%, 16,235G)
letdowncity: 100G (0.6%, 8,812G)
getthemoneyz: 58G (0.3%, 1,320,928G)
DouglasDragonThePoet: 50G (0.3%, 603G)

black bets:
reinoe: 10,000G (43.3%, 80,931G)
upvla: 3,000G (13.0%, 16,233G)
coralreeferz: 1,500G (6.5%, 3,724G)
solomongrundy85: 1,202G (5.2%, 1,202G)
Oreo_Pizza: 1,000G (4.3%, 36,745G)
Laserman1000: 900G (3.9%, 38,300G)
DeathTaxesAndAnime: 728G (3.1%, 728G)
JiroDoge: 584G (2.5%, 1,670G)
Lythe_Caraker: 500G (2.2%, 166,003G)
randgridr: 481G (2.1%, 481G)
pplvee1: 368G (1.6%, 23,383G)
DustBirdEX: 354G (1.5%, 4,846G)
megamax667: 295G (1.3%, 9,045G)
OtherBrand: 288G (1.2%, 1,821G)
Xoomwaffle: 264G (1.1%, 1,061G)
Treafa: 260G (1.1%, 435G)
AllInBot: 236G (1.0%, 236G)
IDruggedShamu: 204G (0.9%, 204G)
gorgewall: 201G (0.9%, 7,990G)
datadrivenbot: 200G (0.9%, 32,049G)
roofiepops: 200G (0.9%, 1,846G)
nhammen: 100G (0.4%, 5,237G)
LordMaxoss: 100G (0.4%, 3,339G)
Jeras01: 100G (0.4%, 2,728G)
Vultuous: 50G (0.2%, 4,045G)
