High Risers:
1. resjudicata3: +7,829G
2. VolgraTheMoose: +5,732G
3. RunicMagus: +4,989G
4. Widewalk: +3,145G
5. HorusTaurus: +2,506G
6. ribbiks: +2,338G
7. Deathmaker06: +2,133G
8. Runeseeker22: +1,677G
9. Wonser: +1,475G
10. ExplanationMarkWow: +1,368G
11. MemoriesofFinal: +1,215G
12. ColetteMSLP: +1,120G
13. Snowfats: +1,096G
14. glidesu: +1,000G
15. Lord_Gwarth: +959G
16. rNdOrchestra: +899G
17. reinoe: +868G
18. DLJuggernaut: +783G
19. lotharek: +588G
20. 2b_yorha_b: +511G
21. king_smashington: +508G
22. Craymel_Mage: +498G
23. acid_flashback: +495G
24. Mesmaster: +479G
25. FatTunaKing: +328G
26. SephDarkheart: +78G
27. nhammen: +52G
28. heropong: +44G
29. Kellios11: +35G
30. Phi_Sig: +4G
31. GeNoFPaniC: -20G
32. MaouDono: -64G
33. FUong: -96G
34. Gelwain: -100G
35. actual_JP: -100G
36. gorgewall: -101G
37. technominari: -103G
38. CorpusCav: -152G
39. ShadowNinja25: -163G
40. Evewho: -257G
41. DAC169: -300G
42. Aaron2Nerdy: -301G
43. seppu777: -333G
44. thunderducker: -373G
45. reddwind_: -400G
46. skipsandwiches: -504G
47. Thyrandaal: -638G
48. Smashy: -673G
49. Laserman1000: -813G
50. Willjin: -900G
51. EmperorBeef: -920G
52. run_with_stone_GUNs: -1,000G
53. Panushenko: -1,000G
54. manontheganon: -1,000G
55. old_overholt_: -1,200G
56. Nizaha: -1,503G
57. E_Ballard: -1,608G
58. maakur_: -1,651G
59. krombobreaker: -1,747G
60. evontno: -2,356G
61. lowlf: -2,768G
62. dogsandcatsand: -4,291G
63. tinytittyfiend: -6,040G
64. Forkmore: -6,471G
