Final Bets: black - 21 bets for 13,591G (60.9%, x0.64); brown - 14 bets for 8,739G (39.1%, x1.56)

black bets:
tinytittyfiend: 3,000G (22.1%, 4,812G)
Forkmore: 2,128G (15.7%, 4,174G)
FatTunaKing: 1,222G (9.0%, 1,222G)
HorusTaurus: 1,000G (7.4%, 7,939G)
E_Ballard: 836G (6.2%, 836G)
thunderducker: 600G (4.4%, 600G)
TheBrett: 545G (4.0%, 545G)
ExplanationMarkWow: 500G (3.7%, 20,000G)
Snowfats: 500G (3.7%, 29,182G)
krombobreaker: 500G (3.7%, 26,699G)
SephDarkheart: 452G (3.3%, 452G)
Smashy: 404G (3.0%, 404G)
CorpusCav: 400G (2.9%, 28,678G)
ColetteMSLP: 300G (2.2%, 2,010G)
EmperorBeef: 256G (1.9%, 181,256G)
AllInBot: 200G (1.5%, 200G)
resjudicata3: 200G (1.5%, 7,900G)
datadrivenbot: 200G (1.5%, 81,719G)
GeNoFPaniC: 148G (1.1%, 2,948G)
maakur_: 100G (0.7%, 2,250G)
Thyrandaal: 100G (0.7%, 168,569G)

brown bets:
VolgraTheMoose: 1,501G (17.2%, 26,239G)
Deathmaker06: 1,500G (17.2%, 35,112G)
RunicMagus: 1,020G (11.7%, 35,317G)
BirbBrainsBot: 1,000G (11.4%, 157,712G)
lotharek: 519G (5.9%, 519G)
dogsandcatsand: 504G (5.8%, 504G)
Evewho: 500G (5.7%, 7,766G)
evontno: 500G (5.7%, 2,856G)
Lord_Gwarth: 500G (5.7%, 1,023G)
MemoriesofFinal: 376G (4.3%, 376G)
acid_flashback: 361G (4.1%, 361G)
ribbiks: 200G (2.3%, 2,813G)
rNdOrchestra: 180G (2.1%, 3,716G)
getthemoneyz: 78G (0.9%, 2,133,582G)
