Final Bets: red - 9 bets for 40,725G (57.2%, x0.75); green - 27 bets for 30,518G (42.8%, x1.33)

red bets:
AllInBot: 19,363G (47.5%, 19,363G)
reinoe: 17,923G (44.0%, 17,923G)
Lydian_C: 1,200G (2.9%, 10,630G)
QuestMoreLand: 749G (1.8%, 749G)
khelor_: 500G (1.2%, 8,816G)
LadyCyan: 320G (0.8%, 320G)
bigbongsmoker: 316G (0.8%, 6,101G)
FE34923: 250G (0.6%, 2,170G)
clancrushbone: 104G (0.3%, 104G)

green bets:
MoonSugarFiend: 5,000G (16.4%, 25,089G)
OneHundredFists: 4,069G (13.3%, 39,886G)
CorpusCav: 3,600G (11.8%, 44,600G)
Lord_Gwarth: 3,000G (9.8%, 17,010G)
Sairentozon7: 2,000G (6.6%, 79,701G)
EvilLego6: 2,000G (6.6%, 26,664G)
AniZero: 2,000G (6.6%, 42,120G)
BirbBrainsBot: 1,000G (3.3%, 75,262G)
TheBrett: 1,000G (3.3%, 12,930G)
CosmicTactician: 708G (2.3%, 708G)
Zeroroute: 623G (2.0%, 623G)
DarrenDinosaurs: 600G (2.0%, 600G)
dogsandcatsand: 586G (1.9%, 586G)
getthemoneyz: 580G (1.9%, 2,164,091G)
Deathmaker06: 500G (1.6%, 37,345G)
AbandonedHall: 494G (1.6%, 494G)
gorgewall: 401G (1.3%, 5,178G)
Thyrandaal: 387G (1.3%, 760G)
randgridr: 364G (1.2%, 364G)
Genkidou: 276G (0.9%, 1,796G)
Meta_Five: 256G (0.8%, 256G)
2b_yorha_b: 250G (0.8%, 8,627G)
Demon_Lord_Josh: 224G (0.7%, 224G)
ValensEXP_: 200G (0.7%, 7,570G)
datadrivenbot: 200G (0.7%, 83,088G)
Firesheath: 100G (0.3%, 2,568G)
FuzzyTigers: 100G (0.3%, 2,552G)
