Final Bets: green - 21 bets for 7,583G (68.9%, x0.45); purple - 8 bets for 3,416G (31.1%, x2.22)

green bets:
BirbBrainsBot: 1,000G (13.2%, 77,217G)
Lord_Gwarth: 1,000G (13.2%, 21,634G)
Sairentozon7: 1,000G (13.2%, 82,370G)
FE34923: 600G (7.9%, 1,720G)
getthemoneyz: 588G (7.8%, 2,164,725G)
roofiepops: 536G (7.1%, 536G)
khelor_: 500G (6.6%, 8,316G)
bigbongsmoker: 316G (4.2%, 5,469G)
Genkidou: 276G (3.6%, 2,164G)
2b_yorha_b: 250G (3.3%, 9,116G)
Demon_Lord_Josh: 224G (3.0%, 224G)
AbandonedHall: 200G (2.6%, 1,053G)
ValensEXP_: 200G (2.6%, 7,637G)
datadrivenbot: 200G (2.6%, 83,155G)
QuestMoreLand: 191G (2.5%, 383G)
gorgewall: 101G (1.3%, 5,612G)
OneHundredFists: 100G (1.3%, 45,316G)
Firesheath: 100G (1.3%, 2,763G)
CosmicTactician: 100G (1.3%, 1,553G)
FuzzyTigers: 100G (1.3%, 2,685G)
MoonSugarFiend: 1G (0.0%, 32,382G)

purple bets:
Deathmaker06: 777G (22.7%, 38,495G)
Zeroroute: 683G (20.0%, 2,357G)
Lydian_C: 560G (16.4%, 9,307G)
Chuckolator: 420G (12.3%, 420G)
AllInBot: 324G (9.5%, 324G)
TheBrett: 280G (8.2%, 13,984G)
Rune339: 268G (7.8%, 268G)
clancrushbone: 104G (3.0%, 104G)
