Final Bets: purple - 23 bets for 23,317G (70.4%, x0.42); brown - 12 bets for 9,811G (29.6%, x2.38)

purple bets:
farside00831: 4,000G (17.2%, 6,287G)
Thyrandaal: 4,000G (17.2%, 153,976G)
Zbgs: 3,500G (15.0%, 13,792G)
AniZero: 2,500G (10.7%, 15,543G)
latebit: 1,657G (7.1%, 1,657G)
dogsandcatsand: 1,360G (5.8%, 2,668G)
brodeity: 1,000G (4.3%, 9,631G)
BirbBrainsBot: 1,000G (4.3%, 70,376G)
Lythe_Caraker: 500G (2.1%, 164,019G)
resjudicata3: 488G (2.1%, 488G)
DaveStrider55: 424G (1.8%, 424G)
superdevon1: 412G (1.8%, 412G)
AllInBot: 409G (1.8%, 409G)
OneHundredFists: 404G (1.7%, 404G)
BartTradingCompany: 393G (1.7%, 3,939G)
ValensEXP_: 300G (1.3%, 2,296G)
killth3kid: 250G (1.1%, 19,744G)
seppu777: 222G (1.0%, 2,351G)
datadrivenbot: 200G (0.9%, 55,708G)
AbandonedHall: 100G (0.4%, 3,601G)
velvet_muffins: 100G (0.4%, 1,441G)
acid_flashback: 52G (0.2%, 2,605G)
getthemoneyz: 46G (0.2%, 1,866,197G)

brown bets:
whelming_wave: 3,196G (32.6%, 6,393G)
Raixelol: 2,698G (27.5%, 2,698G)
Zeroroute: 1,705G (17.4%, 6,559G)
Smashy: 500G (5.1%, 10,549G)
akash7: 300G (3.1%, 2,630G)
bigbongsmoker: 260G (2.7%, 2,068G)
poorest_hobo: 252G (2.6%, 252G)
CorpusCav: 250G (2.5%, 27,546G)
Laserman1000: 200G (2.0%, 1,500G)
ArrenJevleth: 200G (2.0%, 3,607G)
Sietaha: 150G (1.5%, 9,647G)
DeathTaxesAndAnime: 100G (1.0%, 7,401G)
