Final Bets: blue - 18 bets for 10,043G (38.7%, x1.59); green - 22 bets for 15,936G (61.3%, x0.63)

blue bets:
GreatRedDragon: 1,760G (17.5%, 1,760G)
CapnChaos12: 1,307G (13.0%, 1,307G)
ungabunga_bot: 1,000G (10.0%, 112,196G)
BirbBrainsBot: 1,000G (10.0%, 78,343G)
roqqqpsi: 686G (6.8%, 3,121G)
Aldrammech: 600G (6.0%, 600G)
fenaen: 540G (5.4%, 8,651G)
Langrisser: 500G (5.0%, 3,467G)
AllInBot: 493G (4.9%, 493G)
maakur_: 464G (4.6%, 464G)
DeathTaxesAndAnime: 400G (4.0%, 400G)
HASTERIOUS: 300G (3.0%, 300G)
ZephyrTempest: 257G (2.6%, 52,399G)
Chuckolator: 232G (2.3%, 8,709G)
getthemoneyz: 204G (2.0%, 479,527G)
hutna: 100G (1.0%, 3,643G)
ko2q: 100G (1.0%, 4,335G)
llamacatbutt: 100G (1.0%, 1,099G)

green bets:
HaateXIII: 3,577G (22.4%, 3,577G)
Zbgs: 2,590G (16.3%, 38,175G)
SolarisFall: 2,101G (13.2%, 21,010G)
Eldente: 1,361G (8.5%, 1,361G)
Lord_Burrah: 1,000G (6.3%, 92,154G)
Lanshaft: 600G (3.8%, 600G)
roofiepops: 555G (3.5%, 13,944G)
waterwatereverywhere: 500G (3.1%, 3,380G)
luminarii: 460G (2.9%, 12,444G)
datadrivenbot: 435G (2.7%, 23,239G)
MoonSlayerRS: 432G (2.7%, 432G)
0v3rr8d: 410G (2.6%, 410G)
DejaPoo21: 368G (2.3%, 368G)
RunicMagus: 324G (2.0%, 324G)
CorpusCav: 300G (1.9%, 13,802G)
JustSuperish: 200G (1.3%, 1,314G)
KasugaiRoastedPeas: 200G (1.3%, 6,087G)
b0shii: 123G (0.8%, 755G)
RughSontos: 100G (0.6%, 1,987G)
ApplesauceBoss: 100G (0.6%, 4,046G)
dodgeroll: 100G (0.6%, 947G)
Weretigress: 100G (0.6%, 1,552G)
