Final Bets: purple - 17 bets for 7,509G (54.9%, x0.82); brown - 9 bets for 6,179G (45.1%, x1.22)

purple bets:
dogsandcatsand: 1,569G (20.9%, 1,569G)
Firesheath: 1,387G (18.5%, 1,387G)
Aldrammech: 940G (12.5%, 940G)
killth3kid: 700G (9.3%, 93,683G)
amiture: 500G (6.7%, 20,770G)
getthemoneyz: 384G (5.1%, 1,272,645G)
ColetteMSLP: 300G (4.0%, 9,843G)
Lythe_Caraker: 250G (3.3%, 150,027G)
extinctrational: 250G (3.3%, 4,957G)
furrytomahawkk: 216G (2.9%, 216G)
Treafa: 212G (2.8%, 212G)
Mysteriousdewd: 200G (2.7%, 6,362G)
datadrivenbot: 200G (2.7%, 62,517G)
Skincrawler: 200G (2.7%, 3,508G)
fluffskull: 100G (1.3%, 1,691G)
CT_5_Holy: 100G (1.3%, 1,141G)
SephDarkheart: 1G (0.0%, 23,294G)

brown bets:
DeathTaxesAndAnime: 1,284G (20.8%, 2,519G)
EnemyController: 1,111G (18.0%, 1,401,641G)
Rislyeu: 1,083G (17.5%, 1,083G)
mpghappiness: 1,001G (16.2%, 10,951G)
DustBirdEX: 976G (15.8%, 976G)
TasisSai: 300G (4.9%, 6,534G)
superdevon1: 210G (3.4%, 4,206G)
BirbBrainsBot: 204G (3.3%, 84,595G)
nhammen: 10G (0.2%, 4,983G)
