Final Bets: purple - 20 bets for 12,255G (49.0%, x1.04); brown - 15 bets for 12,771G (51.0%, x0.96)

purple bets:
Lord_Burrah: 1,945G (15.9%, 77,945G)
twelfthrootoftwo: 1,928G (15.7%, 3,782G)
VolgraTheMoose: 1,001G (8.2%, 9,733G)
TheChainNerd: 1,000G (8.2%, 19,789G)
BirbBrainsBot: 1,000G (8.2%, 87,468G)
DeathTaxesAndAnime: 976G (8.0%, 976G)
killth3kid: 700G (5.7%, 92,012G)
Breakdown777: 539G (4.4%, 539G)
Aldrammech: 500G (4.1%, 2,789G)
TasisSai: 500G (4.1%, 13,800G)
RunicMagus: 424G (3.5%, 424G)
ColetteMSLP: 300G (2.4%, 9,430G)
Treafa: 250G (2.0%, 1,059G)
extinctrational: 250G (2.0%, 2,015G)
flacococo: 216G (1.8%, 216G)
Mysteriousdewd: 200G (1.6%, 6,321G)
DustBirdEX: 200G (1.6%, 2,576G)
datadrivenbot: 200G (1.6%, 62,279G)
Lydian_C: 121G (1.0%, 92,955G)
SephDarkheart: 5G (0.0%, 23,171G)

brown bets:
Evewho: 4,353G (34.1%, 8,536G)
Rislyeu: 1,588G (12.4%, 1,588G)
prince_rogers_nelson_: 1,158G (9.1%, 1,158G)
skipsandwiches: 1,000G (7.8%, 9,832G)
reinoe: 1,000G (7.8%, 45,545G)
benticore: 738G (5.8%, 14,775G)
evontno: 548G (4.3%, 548G)
NIghtdew14: 500G (3.9%, 5,131G)
Shalloween: 500G (3.9%, 45,931G)
upvla: 500G (3.9%, 1,239G)
Mushufasa_: 400G (3.1%, 3,284G)
KasugaiRoastedPeas: 200G (1.6%, 18,971G)
Ring_Wyrm: 100G (0.8%, 18,943G)
Firesheath: 100G (0.8%, 2,965G)
getthemoneyz: 86G (0.7%, 1,270,808G)
