Final Bets: blue - 15 bets for 8,552G (39.8%, x1.51); yellow - 17 bets for 12,917G (60.2%, x0.66)

blue bets:
dogsandcatsand: 3,285G (38.4%, 6,442G)
TheChainNerd: 1,000G (11.7%, 18,789G)
skipsandwiches: 1,000G (11.7%, 10,792G)
twelfthrootoftwo: 945G (11.1%, 1,854G)
TasisSai: 500G (5.8%, 13,300G)
Aldrammech: 500G (5.8%, 2,289G)
Shalloween: 300G (3.5%, 46,411G)
Mysteriousdewd: 200G (2.3%, 6,121G)
datadrivenbot: 200G (2.3%, 62,079G)
brokenknight201: 200G (2.3%, 970G)
Lydian_C: 121G (1.4%, 92,834G)
Firesheath: 100G (1.2%, 3,061G)
Evewho: 100G (1.2%, 12,713G)
DustBirdEX: 100G (1.2%, 2,376G)
SephDarkheart: 1G (0.0%, 23,166G)

yellow bets:
extinctrational: 1,765G (13.7%, 1,765G)
Error72: 1,719G (13.3%, 3,371G)
Lord_Burrah: 1,500G (11.6%, 76,000G)
EnemyController: 1,111G (8.6%, 1,406,184G)
VolgraTheMoose: 1,001G (7.7%, 8,732G)
BirbBrainsBot: 1,000G (7.7%, 86,468G)
dantayystv: 1,000G (7.7%, 7,669G)
DeathTaxesAndAnime: 976G (7.6%, 976G)
benticore: 774G (6.0%, 15,483G)
NIghtdew14: 500G (3.9%, 5,611G)
rednecknazgul: 425G (3.3%, 425G)
ACSpree: 392G (3.0%, 392G)
Treafa: 250G (1.9%, 809G)
upvla: 200G (1.5%, 1,719G)
getthemoneyz: 104G (0.8%, 1,270,891G)
Ring_Wyrm: 100G (0.8%, 19,039G)
Miku_Shikhu: 100G (0.8%, 3,334G)
