Final Bets: green - 12 bets for 14,272G (40.3%, x1.48); yellow - 28 bets for 21,155G (59.7%, x0.67)

green bets:
itzover9001: 5,000G (35.0%, 67,954G)
ko2q: 4,101G (28.7%, 8,202G)
Evewho: 1,469G (10.3%, 1,469G)
upvla: 1,234G (8.6%, 25,468G)
Realitydown: 718G (5.0%, 718G)
Anox_Skell: 500G (3.5%, 7,084G)
Aka_Gilly: 400G (2.8%, 34,767G)
killth3kid: 300G (2.1%, 14,330G)
DaMadPanda182: 200G (1.4%, 6,836G)
8bitnit: 200G (1.4%, 412G)
twelfthrootoftwo: 100G (0.7%, 7,101G)
DrAntiSocial: 50G (0.4%, 20,721G)

yellow bets:
HaplessOne: 5,000G (23.6%, 114,752G)
Virilikus: 2,000G (9.5%, 154,362G)
mirapoix: 1,121G (5.3%, 1,121G)
Pie108: 1,000G (4.7%, 69,591G)
BirbBrainsBot: 1,000G (4.7%, 138,458G)
TheMurkGnome: 1,000G (4.7%, 20,649G)
OmnibotGamma: 948G (4.5%, 948G)
SQUiDSQUARKLIN: 940G (4.4%, 940G)
R_Raynos: 934G (4.4%, 934G)
ThePuss: 760G (3.6%, 760G)
getthemoneyz: 746G (3.5%, 556,982G)
SquidgyXom: 728G (3.4%, 728G)
Estan_AD: 658G (3.1%, 1,317G)
Shalloween: 600G (2.8%, 44,520G)
joewcarson: 501G (2.4%, 7,105G)
RubenFlonne: 500G (2.4%, 25,291G)
kingchadking: 488G (2.3%, 488G)
roofiepops: 455G (2.2%, 16,002G)
ungabunga_bot: 387G (1.8%, 216,315G)
Mikumari12: 212G (1.0%, 212G)
DontBackseatGame: 204G (1.0%, 204G)
Rivonus: 200G (0.9%, 1,055G)
ManaSphere: 200G (0.9%, 1,250G)
carsenhk: 150G (0.7%, 10,288G)
b0shii: 123G (0.6%, 4,527G)
AllInBot: 100G (0.5%, 100G)
datadrivenbot: 100G (0.5%, 100G)
readdesert: 100G (0.5%, 3,734G)
