High Risers:
1. E_Ballard: +14,943G
2. Thyrandaal: +7,242G
3. Willjin: +2,409G
4. Lord_Gwarth: +2,282G
5. latebit: +1,545G
6. ExplanationMarkWow: +1,041G
7. DanielRKnealeArt: +767G
8. AltimaMantoid: +654G
9. blorpy_: +640G
10. technominari: +135G
11. daveb_: +33G
12. gorgewall: -17G
13. superdevon1: -78G
14. Shalloween: -165G
15. krombobreaker: -176G
16. HaateXIII: -200G
17. ghazzzzzz: -200G
18. Kellios11: -200G
19. ValensEXP_: -211G
20. maakur_: -248G
21. ayeCoop: -264G
22. HASTERIOUS: -266G
23. galkife: -300G
24. just_here2: -300G
25. actual_JP: -300G
26. ser_pyrro: -500G
27. Laserman1000: -557G
28. 2b_yorha_b: -679G
29. lube_squid: -700G
30. resjudicata3: -755G
31. AbandonedHall: -809G
32. DHaveWord: -845G
33. run_with_stone_GUNs: -868G
34. ANFz: -873G
35. king_smashington: -1,000G
36. roofiepops: -1,000G
37. Aldrammech: -1,000G
38. silentkaster: -1,198G
39. Leonidusx: -1,650G
40. SephDarkheart: -1,793G
41. sireaulou: -1,978G
42. VolgraTheMoose: -2,327G
43. CorpusCav: -3,693G
44. Twisted_Nutsatchel: -5,028G
45. nhammen: -5,399G
46. dogsandcatsand: -6,194G
