Final Bets: white - 28 bets for 16,201G (49.1%, x1.04); black - 26 bets for 16,811G (50.9%, x0.96)

white bets:
Mandoragan: 1,814G (11.2%, 1,814G)
Grimmace45: 1,551G (9.6%, 7,759G)
DavenIII: 1,000G (6.2%, 16,219G)
duskps: 1,000G (6.2%, 5,412G)
ungabunga_bot: 1,000G (6.2%, 273,652G)
BirbBrainsBot: 1,000G (6.2%, 71,966G)
Chuckolator: 840G (5.2%, 25,147G)
Jeeboheebo: 780G (4.8%, 780G)
getthemoneyz: 720G (4.4%, 602,676G)
Laserman1000: 700G (4.3%, 55,900G)
PasDeSeul: 607G (3.7%, 607G)
Shalloween: 600G (3.7%, 61,095G)
superdevon1: 500G (3.1%, 2,967G)
catfashions: 500G (3.1%, 2,533G)
IndecisiveNinja: 468G (2.9%, 468G)
SerumD: 400G (2.5%, 1,662G)
TheRylander: 400G (2.5%, 3,859G)
nedryerson01: 395G (2.4%, 395G)
SquidgyXom: 328G (2.0%, 3,280G)
Jahshine: 300G (1.9%, 1,197G)
Kennymillennium: 269G (1.7%, 269G)
Nizaha: 201G (1.2%, 6,384G)
Anethum: 200G (1.2%, 1,112G)
rjA0zcOQ96: 200G (1.2%, 36,314G)
FreefallSirius: 128G (0.8%, 128G)
genericco: 100G (0.6%, 100G)
gggamezzz: 100G (0.6%, 100G)
museofdoom: 100G (0.6%, 1,010G)

black bets:
Zeroroute: 2,677G (15.9%, 4,760G)
Pie108: 2,000G (11.9%, 289,611G)
ShintaroNayaka: 2,000G (11.9%, 8,010G)
JumbocactuarX27: 1,500G (8.9%, 6,078G)
sinnyil2: 1,200G (7.1%, 4,592G)
volgrathemoose: 1,001G (6.0%, 15,686G)
roofiepops: 1,000G (5.9%, 6,084G)
deenglow: 1,000G (5.9%, 51,531G)
MrFlabyo: 500G (3.0%, 82,433G)
joewcarson: 500G (3.0%, 9,290G)
DustBirdEX: 432G (2.6%, 432G)
ZephyrTempest: 400G (2.4%, 3,930G)
AmewTheFox: 400G (2.4%, 1,152G)
Cryptopsy70: 380G (2.3%, 29,891G)
tanarusasamiya: 300G (1.8%, 832G)
ProdigyAzn: 216G (1.3%, 216G)
Mirrorclaw: 208G (1.2%, 208G)
trigger15: 200G (1.2%, 560G)
fuccela: 200G (1.2%, 932G)
Pink_LuigiX: 152G (0.9%, 152G)
FriendSquirrel: 100G (0.6%, 26,442G)
Firesheath: 100G (0.6%, 10,802G)
pLifer: 100G (0.6%, 3,611G)
datadrivenbot: 100G (0.6%, 5,268G)
roqqqpsi: 95G (0.6%, 4,768G)
DrAntiSocial: 50G (0.3%, 22,100G)
