Final Bets: black - 27 bets for 17,916G (57.9%, x0.73); purple - 21 bets for 13,007G (42.1%, x1.38)

black bets:
Mirrorclaw: 2,898G (16.2%, 2,898G)
YaBoy125: 2,149G (12.0%, 2,149G)
Grimmace45: 1,241G (6.9%, 6,208G)
cgMcWhiskers: 1,148G (6.4%, 1,148G)
roofiepops: 1,000G (5.6%, 6,793G)
proper__noun__: 1,000G (5.6%, 7,450G)
JumbocactuarX27: 1,000G (5.6%, 6,524G)
sinnyil2: 828G (4.6%, 828G)
Jahshine: 802G (4.5%, 802G)
museofdoom: 710G (4.0%, 710G)
ZephyrTempest: 702G (3.9%, 4,681G)
reinoe: 600G (3.3%, 600G)
MrFlabyo: 500G (2.8%, 85,577G)
killth3kid: 500G (2.8%, 29,316G)
IndecisiveNinja: 468G (2.6%, 468G)
Anethum: 432G (2.4%, 432G)
Jeeboheebo: 376G (2.1%, 376G)
joewcarson: 300G (1.7%, 8,982G)
catfashions: 250G (1.4%, 3,846G)
rjA0zcOQ96: 200G (1.1%, 36,114G)
AmewTheFox: 200G (1.1%, 2,602G)
Pink_LuigiX: 152G (0.8%, 152G)
nifboy: 100G (0.6%, 1,570G)
Wonser: 100G (0.6%, 4,926G)
datadrivenbot: 100G (0.6%, 5,334G)
tanarusasamiya: 84G (0.5%, 1,484G)
roqqqpsi: 76G (0.4%, 3,844G)

purple bets:
Zeroroute: 3,459G (26.6%, 5,772G)
volgrathemoose: 1,001G (7.7%, 21,980G)
TheChainNerd: 1,000G (7.7%, 9,479G)
superdevon1: 1,000G (7.7%, 6,504G)
ungabunga_bot: 1,000G (7.7%, 272,645G)
BirbBrainsBot: 1,000G (7.7%, 71,344G)
kai_shee: 1,000G (7.7%, 7,487G)
deenglow: 500G (3.8%, 51,344G)
Kennymillennium: 500G (3.8%, 1,108G)
Chuckolator: 453G (3.5%, 25,524G)
getthemoneyz: 396G (3.0%, 602,803G)
DustBirdEX: 300G (2.3%, 2,430G)
duskps: 300G (2.3%, 4,192G)
PetitFoulard: 236G (1.8%, 236G)
xYungAnarchyx: 212G (1.6%, 212G)
ProdigyAzn: 200G (1.5%, 2,385G)
Firesheath: 100G (0.8%, 11,361G)
pLifer: 100G (0.8%, 4,244G)
FriendSquirrel: 100G (0.8%, 26,608G)
DontBackseatGame: 100G (0.8%, 1,150G)
DrAntiSocial: 50G (0.4%, 21,048G)
