Final Bets: red - 7 bets for 475,472G (83.6%, x0.20); blue - 50 bets for 93,005G (16.4%, x5.11)

red bets:
BirbBrainsBot: 466,415G (98.1%, 466,415G)
reddwind_: 5,000G (1.1%, 41,223G)
E_Ballard: 2,372G (0.5%, 2,372G)
sinnyil2: 1,285G (0.3%, 1,285G)
GrauKhan: 200G (0.0%, 4,047G)
Hirameki85: 100G (0.0%, 100G)
arkivegoof: 100G (0.0%, 602G)

blue bets:
Shalloween: 15,000G (16.1%, 164,213G)
OtherBrand: 6,388G (6.9%, 6,388G)
ANFz: 5,000G (5.4%, 34,077G)
Thyrandaal: 5,000G (5.4%, 38,746G)
Sairentozon7: 5,000G (5.4%, 28,114G)
DamnThatShark: 4,878G (5.2%, 4,878G)
dogsandcatsand: 4,797G (5.2%, 4,797G)
acedude1981: 3,000G (3.2%, 12,336G)
NicoSavoy: 3,000G (3.2%, 272,867G)
JumbocactuarX27: 2,996G (3.2%, 2,996G)
randgridr: 2,694G (2.9%, 2,694G)
SkylerBunny: 2,500G (2.7%, 26,283G)
twelfthrootoftwo: 2,499G (2.7%, 2,499G)
brokenknight201: 2,330G (2.5%, 4,661G)
benticore: 2,294G (2.5%, 22,940G)
iBardic: 2,000G (2.2%, 6,170G)
Seaweed_B: 1,564G (1.7%, 1,564G)
ColetteMSLP: 1,500G (1.6%, 11,673G)
Vacillents: 1,388G (1.5%, 1,388G)
DeathTaxesAndAnime: 1,270G (1.4%, 3,339G)
Miku_Shikhu: 1,120G (1.2%, 1,120G)
Meta_Five: 1,000G (1.1%, 17,954G)
powergems: 1,000G (1.1%, 14,084G)
ZZ_Yoshi: 1,000G (1.1%, 3,937G)
just_here2: 1,000G (1.1%, 5,282G)
ohhinm: 1,000G (1.1%, 5,098G)
prince_rogers_nelson_: 1,000G (1.1%, 5,780G)
Grandlanzer: 1,000G (1.1%, 102,489G)
Modoh: 967G (1.0%, 967G)
Error72: 896G (1.0%, 896G)
turbn: 893G (1.0%, 893G)
HaateXIII: 844G (0.9%, 844G)
Evewho: 816G (0.9%, 816G)
ThreeMileIsland: 800G (0.9%, 7,926G)
Firesheath: 536G (0.6%, 536G)
RaIshtar: 512G (0.6%, 512G)
gorgewall: 501G (0.5%, 11,642G)
Digitalsocrates: 428G (0.5%, 428G)
run_with_stone_GUNs: 380G (0.4%, 6,318G)
getthemoneyz: 368G (0.4%, 1,341,193G)
i2inchtomahawk: 308G (0.3%, 308G)
Treafa: 292G (0.3%, 518G)
DaKoopa49: 236G (0.3%, 236G)
Monopool: 220G (0.2%, 220G)
AllInBot: 200G (0.2%, 200G)
winteriscorning: 200G (0.2%, 891G)
datadrivenbot: 200G (0.2%, 34,313G)
galkife: 100G (0.1%, 3,200G)
moonliquor: 50G (0.1%, 37,862G)
nhammen: 40G (0.0%, 4,120G)
