Final Bets: blue - 13 bets for 11,390G (65.1%, x0.54); yellow - 12 bets for 6,100G (34.9%, x1.87)

blue bets:
BoneMiser: 4,371G (38.4%, 4,371G)
gorgewall: 2,143G (18.8%, 2,143G)
BirbBrainsBot: 1,000G (8.8%, 174,057G)
Laserman1000: 700G (6.1%, 15,000G)
SeniorBunk: 536G (4.7%, 536G)
Smashy: 500G (4.4%, 4,632G)
Shalloween: 500G (4.4%, 11,316G)
skipsandwiches: 436G (3.8%, 9,663G)
pplvee1: 404G (3.5%, 26,445G)
killth3kid: 250G (2.2%, 8,535G)
CorpusCav: 250G (2.2%, 11,927G)
chavalyco: 200G (1.8%, 1,119G)
gingerfoo69: 100G (0.9%, 8,922G)

yellow bets:
ericzubat: 3,000G (49.2%, 4,456G)
krombobreaker: 500G (8.2%, 8,760G)
AllInBot: 495G (8.1%, 495G)
Zerguzen: 491G (8.0%, 491G)
DeathTaxesAndAnime: 400G (6.6%, 2,373G)
ammobox69: 400G (6.6%, 3,146G)
DanielRKnealeArt: 200G (3.3%, 200G)
datadrivenbot: 200G (3.3%, 70,663G)
tripaplex: 200G (3.3%, 244G)
maakur_: 100G (1.6%, 4,498G)
DarrenDinosaurs: 100G (1.6%, 2,017G)
getthemoneyz: 14G (0.2%, 2,017,183G)
