Final Bets: white - 18 bets for 10,823G (42.2%, x1.37); black - 23 bets for 14,824G (57.8%, x0.73)

white bets:
killth3kid: 2,000G (18.5%, 88,332G)
MrDiggs49: 1,512G (14.0%, 1,512G)
E_Ballard: 1,147G (10.6%, 1,147G)
HaateXIII: 1,005G (9.3%, 1,972G)
VeryVert: 1,000G (9.2%, 2,299G)
Mesmaster: 1,000G (9.2%, 130,815G)
Laserman1000: 885G (8.2%, 8,885G)
cupholderr: 500G (4.6%, 49,275G)
CapnChaos12: 320G (3.0%, 320G)
TheFALLofLindsay: 304G (2.8%, 304G)
NicoSavoy: 256G (2.4%, 256G)
getthemoneyz: 224G (2.1%, 671,198G)
Communis: 191G (1.8%, 191G)
sSwing: 116G (1.1%, 116G)
Firesheath: 100G (0.9%, 20,199G)
pstud: 100G (0.9%, 3,485G)
Heroebal: 100G (0.9%, 5,464G)
Lokenwow: 63G (0.6%, 125G)

black bets:
toka222: 2,650G (17.9%, 21,395G)
Grimmace45: 1,234G (8.3%, 53,861G)
ungabunga_bot: 1,000G (6.7%, 461,997G)
BirbBrainsBot: 1,000G (6.7%, 197,678G)
Draconis345: 1,000G (6.7%, 75,248G)
Estan_AD: 864G (5.8%, 864G)
maakur_: 834G (5.6%, 834G)
DLJuggernaut: 742G (5.0%, 742G)
ko2q: 734G (5.0%, 734G)
Shalloween: 628G (4.2%, 628G)
nifboy: 592G (4.0%, 592G)
Dexef: 555G (3.7%, 2,592G)
RoboticNomad: 500G (3.4%, 3,491G)
Vultuous: 440G (3.0%, 440G)
Rislyeu: 400G (2.7%, 1,739G)
joewcarson: 300G (2.0%, 2,884G)
VySaika: 264G (1.8%, 264G)
Beamoflaser: 250G (1.7%, 7,665G)
CorpusCav: 233G (1.6%, 4,278G)
SuicideKing_XIX: 200G (1.3%, 920G)
Baboolian: 200G (1.3%, 1,000G)
ethias91: 104G (0.7%, 104G)
datadrivenbot: 100G (0.7%, 11,846G)
