Final Bets: purple - 10 bets for 9,015G (40.2%, x1.49); brown - 20 bets for 13,402G (59.8%, x0.67)

purple bets:
alecttox: 3,180G (35.3%, 63,600G)
ColetteMSLP: 1,500G (16.6%, 59,460G)
AllInBot: 1,393G (15.5%, 1,393G)
Schilling381: 1,000G (11.1%, 1,000G)
Laserman1000: 500G (5.5%, 23,100G)
GrandmasterFrankerZ: 420G (4.7%, 21,336G)
potgodtopdog: 349G (3.9%, 349G)
Tetsuwan_Melty: 323G (3.6%, 323G)
Estan_AD: 250G (2.8%, 13,515G)
ApplesauceBoss: 100G (1.1%, 11,919G)

brown bets:
HASTERIOUS: 3,603G (26.9%, 14,412G)
sinnyil2: 3,500G (26.1%, 57,710G)
ungabunga_bot: 1,000G (7.5%, 178,522G)
reinoe: 1,000G (7.5%, 12,681G)
Shakarak: 600G (4.5%, 600G)
EnemyController: 500G (3.7%, 58,696G)
b_bot: 500G (3.7%, 3,666G)
Treapvort: 500G (3.7%, 14,704G)
ZephyrTempest: 485G (3.6%, 159,182G)
BroHamma: 300G (2.2%, 1,451G)
CapnChaos12: 300G (2.2%, 35,779G)
getthemoneyz: 214G (1.6%, 515,651G)
BirbBrainsBot: 200G (1.5%, 200G)
Lordminsc: 100G (0.7%, 31,691G)
twelfthrootoftwo: 100G (0.7%, 2,547G)
Chompie: 100G (0.7%, 8,279G)
Arkreaver: 100G (0.7%, 8,038G)
datadrivenbot: 100G (0.7%, 450G)
sage_the_kitsune: 100G (0.7%, 100G)
R_Raynos: 100G (0.7%, 7,542G)
