Final Bets: red - 17 bets for 8,736G (64.2%, x0.56); blue - 11 bets for 4,875G (35.8%, x1.79)

red bets:
SkylerBunny: 1,200G (13.7%, 592,413G)
Breakdown777: 1,104G (12.6%, 2,208G)
ColetteMSLP: 1,071G (12.3%, 1,071G)
Rislyeu: 1,000G (11.4%, 19,987G)
Grandlanzer: 927G (10.6%, 927G)
Nizaha: 501G (5.7%, 16,098G)
HaateXIII: 500G (5.7%, 21,842G)
gorgewall: 401G (4.6%, 13,607G)
Umbrellaexile: 387G (4.4%, 387G)
Aldrammech: 356G (4.1%, 356G)
placidphoenix: 349G (4.0%, 349G)
joewcarson: 304G (3.5%, 304G)
Oobs56: 235G (2.7%, 18,235G)
Baron_von_Scrub: 101G (1.2%, 14,480G)
Quadh0nk: 100G (1.1%, 1,697G)
Lordminsc: 100G (1.1%, 24,559G)
datadrivenbot: 100G (1.1%, 45,538G)

blue bets:
BirbBrainsBot: 1,000G (20.5%, 84,196G)
DeathTaxesAndAnime: 789G (16.2%, 789G)
DuraiPapers: 668G (13.7%, 668G)
Laserman1000: 500G (10.3%, 11,400G)
Meta_Five: 500G (10.3%, 75,173G)
DavenIII: 500G (10.3%, 1,815G)
extinctrational: 250G (5.1%, 8,826G)
Evewho: 200G (4.1%, 2,416G)
Mermydon: 200G (4.1%, 1,285G)
twelfthrootoftwo: 200G (4.1%, 6,880G)
getthemoneyz: 68G (1.4%, 1,019,260G)
