Final Bets: yellow - 16 bets for 16,067G (67.2%, x0.49); brown - 17 bets for 7,849G (32.8%, x2.05)

yellow bets:
acid_flashback: 3,234G (20.1%, 3,234G)
NicoSavoy: 2,692G (16.8%, 5,384G)
Lydian_C: 2,622G (16.3%, 5,143G)
BlackFireUK: 2,000G (12.4%, 21,220G)
WitchHunterIX: 1,126G (7.0%, 1,126G)
IphoneDarkness: 944G (5.9%, 944G)
TheChainNerd: 700G (4.4%, 700G)
Anasetsuken: 573G (3.6%, 573G)
EnemyController: 500G (3.1%, 574,367G)
Creggers: 500G (3.1%, 4,429G)
Baron_von_Scrub: 474G (3.0%, 45,984G)
Aldrammech: 202G (1.3%, 2,027G)
CosmicTactician: 200G (1.2%, 29,364G)
nifboy: 100G (0.6%, 3,092G)
ko2q: 100G (0.6%, 2,462G)
datadrivenbot: 100G (0.6%, 35,369G)

brown bets:
BirbBrainsBot: 1,000G (12.7%, 96,003G)
Mesmaster: 1,000G (12.7%, 6,109G)
Digitalsocrates: 1,000G (12.7%, 4,164G)
Evewho: 1,000G (12.7%, 14,257G)
DLJuggernaut: 892G (11.4%, 892G)
Cryptopsy70: 520G (6.6%, 9,312G)
AllInBot: 400G (5.1%, 400G)
dogsandcatsand: 332G (4.2%, 332G)
twelfthrootoftwo: 320G (4.1%, 320G)
letdowncity: 301G (3.8%, 12,480G)
CorpusCav: 300G (3.8%, 1,174G)
potgodtopdog: 222G (2.8%, 42,198G)
CaptainGarlock: 200G (2.5%, 3,201G)
E_Ballard: 100G (1.3%, 3,685G)
DeathTaxesAndAnime: 100G (1.3%, 19,995G)
Miku_Shikhu: 100G (1.3%, 17,213G)
getthemoneyz: 62G (0.8%, 900,426G)
