Final Bets: green - 18 bets for 15,133G (46.1%, x1.17); champion - 19 bets for 17,712G (53.9%, x0.85)

green bets:
latebit: 4,000G (26.4%, 19,371G)
Lydian_C: 2,051G (13.6%, 4,022G)
MemoriesofFinal: 2,000G (13.2%, 18,794G)
ANFz: 1,000G (6.6%, 4,788G)
BirbBrainsBot: 1,000G (6.6%, 77,768G)
Sairentozon7: 1,000G (6.6%, 79,531G)
superdevon1: 541G (3.6%, 1,083G)
HASTERIOUS: 512G (3.4%, 10,244G)
randgridr: 500G (3.3%, 3,819G)
ValensEXP_: 456G (3.0%, 6,792G)
Zeroroute: 340G (2.2%, 340G)
evdoggity: 320G (2.1%, 320G)
DHaveWord: 310G (2.0%, 310G)
QuestMoreLand: 305G (2.0%, 305G)
2b_yorha_b: 250G (1.7%, 9,334G)
MoonSugarFiend: 248G (1.6%, 25,546G)
AllInBot: 200G (1.3%, 200G)
Firesheath: 100G (0.7%, 2,606G)

champion bets:
HorusTaurus: 8,681G (49.0%, 8,681G)
CorpusCav: 1,099G (6.2%, 45,199G)
Lord_Gwarth: 1,000G (5.6%, 21,410G)
reinoe: 1,000G (5.6%, 30,223G)
Laserman1000: 900G (5.1%, 18,000G)
resjudicata3: 726G (4.1%, 1,453G)
roofiepops: 659G (3.7%, 659G)
Thyrandaal: 658G (3.7%, 1,291G)
vorap: 500G (2.8%, 2,478G)
krombobreaker: 500G (2.8%, 36,583G)
EvilLego6: 500G (2.8%, 27,164G)
otakutaylor: 428G (2.4%, 428G)
FE34923: 250G (1.4%, 918G)
Demon_Lord_Josh: 220G (1.2%, 220G)
datadrivenbot: 200G (1.1%, 83,797G)
gorgewall: 101G (0.6%, 5,435G)
readdesert: 100G (0.6%, 1,292G)
catfeath3r: 100G (0.6%, 187G)
getthemoneyz: 90G (0.5%, 2,164,682G)
