Final Bets: red - 19 bets for 9,218G (28.4%, x2.52); blue - 19 bets for 23,191G (71.6%, x0.40)

red bets:
TheChainNerd: 2,069G (22.4%, 2,069G)
DeathTaxesAndAnime: 1,915G (20.8%, 3,756G)
Evewho: 1,005G (10.9%, 1,972G)
woohoo_brokeback: 666G (7.2%, 7,871G)
Cryptopsy70: 512G (5.6%, 8,414G)
killth3kid: 500G (5.4%, 15,106G)
pplvee1: 500G (5.4%, 3,422G)
CaptainGarlock: 450G (4.9%, 7,233G)
Sairentozon7: 316G (3.4%, 316G)
docmitchphd: 204G (2.2%, 204G)
Firesheath: 201G (2.2%, 4,894G)
AllInBot: 170G (1.8%, 170G)
nhammen: 165G (1.8%, 330G)
gorgewall: 101G (1.1%, 13,464G)
Aldrammech: 100G (1.1%, 3,668G)
ANFz: 100G (1.1%, 4,913G)
acid_flashback: 100G (1.1%, 5,145G)
getthemoneyz: 94G (1.0%, 879,970G)
IphoneDarkness: 50G (0.5%, 4,109G)

blue bets:
OneHundredFists: 7,684G (33.1%, 15,068G)
prince_rogers_nelson_: 4,916G (21.2%, 4,916G)
Thyrandaal: 2,000G (8.6%, 91,627G)
nifboy: 1,452G (6.3%, 1,452G)
rockmem21: 1,400G (6.0%, 14,577G)
CosmicTactician: 1,000G (4.3%, 24,231G)
BirbBrainsBot: 1,000G (4.3%, 50,646G)
Mesmaster: 828G (3.6%, 828G)
TheGuesty: 511G (2.2%, 63,214G)
Who_lio42: 500G (2.2%, 16,138G)
HASTERIOUS: 476G (2.1%, 476G)
PezPezzington: 300G (1.3%, 6,440G)
cam_ATS: 276G (1.2%, 276G)
Belkra: 260G (1.1%, 260G)
DustBirdEX: 234G (1.0%, 3,179G)
RunicMagus: 100G (0.4%, 43,993G)
Miku_Shikhu: 100G (0.4%, 19,304G)
datadrivenbot: 100G (0.4%, 38,506G)
J_MacC1991: 54G (0.2%, 137G)
