Final Bets: purple - 11 bets for 10,229G (70.3%, x0.42); brown - 11 bets for 4,330G (29.7%, x2.36)

purple bets:
sinnyil2: 3,500G (34.2%, 74,117G)
leakimiko: 2,562G (25.0%, 17,085G)
upvla: 1,234G (12.1%, 4,991G)
Anethum: 1,061G (10.4%, 1,061G)
Estan_AD: 923G (9.0%, 1,846G)
Jahshine: 449G (4.4%, 449G)
JohnDuggins: 100G (1.0%, 1,072G)
lastly: 100G (1.0%, 5,677G)
ApplesauceBoss: 100G (1.0%, 10,973G)
datadrivenbot: 100G (1.0%, 1,247G)
nemuineru: 100G (1.0%, 1,104G)

brown bets:
ungabunga_bot: 1,000G (23.1%, 266,087G)
CassiePhoenix: 734G (17.0%, 734G)
LordSDB: 644G (14.9%, 644G)
ewan_e: 500G (11.5%, 11,149G)
getthemoneyz: 310G (7.2%, 587,831G)
TheMurkGnome: 300G (6.9%, 10,392G)
BirbBrainsBot: 245G (5.7%, 194,356G)
773bird: 209G (4.8%, 209G)
Dexsana: 200G (4.6%, 6,855G)
Bojanges: 100G (2.3%, 3,777G)
roqqqpsi: 88G (2.0%, 4,443G)
