Final Bets: red - 13 bets for 5,185G (38.4%, x1.61); black - 19 bets for 8,334G (61.6%, x0.62)

red bets:
Aldrammech: 1,019G (19.7%, 1,019G)
BirbBrainsBot: 1,000G (19.3%, 65,431G)
killth3kid: 711G (13.7%, 71,186G)
TheMurkGnome: 498G (9.6%, 498G)
Shalloween: 400G (7.7%, 58,985G)
Forkmore: 300G (5.8%, 1,000G)
holyonline: 300G (5.8%, 5,966G)
benticore: 250G (4.8%, 12,498G)
brokenknight201: 220G (4.2%, 220G)
getthemoneyz: 166G (3.2%, 1,267,189G)
VolgraTheMoose: 121G (2.3%, 2,400G)
CT_5_Holy: 100G (1.9%, 1,497G)
Powermhero: 100G (1.9%, 26,126G)

black bets:
reinoe: 1,441G (17.3%, 16,018G)
dogsandcatsand: 1,000G (12.0%, 20,187G)
BoneMiser: 849G (10.2%, 849G)
randgridr: 730G (8.8%, 730G)
Phi_Sig: 555G (6.7%, 19,788G)
Yiroep2: 526G (6.3%, 526G)
Vacillents: 500G (6.0%, 5,004G)
Breakdown777: 500G (6.0%, 5,284G)
Digitalsocrates: 412G (4.9%, 4,896G)
ColetteMSLP: 300G (3.6%, 9,188G)
sososteve: 300G (3.6%, 2,981G)
dantayystv: 300G (3.6%, 4,685G)
datadrivenbot: 200G (2.4%, 60,882G)
CosmicTactician: 200G (2.4%, 44,758G)
Lydian_C: 121G (1.5%, 97,079G)
DeathTaxesAndAnime: 100G (1.2%, 2,790G)
SephDarkheart: 100G (1.2%, 20,031G)
nhammen: 100G (1.2%, 10,429G)
Ring_Wyrm: 100G (1.2%, 15,120G)
