Final Bets: black - 12 bets for 20,180G (59.7%, x0.67); champion - 17 bets for 13,599G (40.3%, x1.48)

black bets:
Willjin: 15,000G (74.3%, 39,449G)
Runeseeker22: 1,091G (5.4%, 10,918G)
BirbBrainsBot: 1,000G (5.0%, 63,426G)
HaateXIII: 948G (4.7%, 948G)
escobro: 500G (2.5%, 2,625G)
ArrenJevleth: 500G (2.5%, 4,975G)
Zeroroute: 376G (1.9%, 376G)
bigbongsmoker: 320G (1.6%, 8,515G)
dark_god_Uthuru: 200G (1.0%, 1,487G)
gorgewall: 101G (0.5%, 8,505G)
RunicMagus: 100G (0.5%, 13,042G)
getthemoneyz: 44G (0.2%, 1,921,403G)

champion bets:
SephDarkheart: 4,731G (34.8%, 4,731G)
ser_pyrro: 3,000G (22.1%, 8,018G)
Segomod: 1,000G (7.4%, 17,751G)
Thyrandaal: 969G (7.1%, 969G)
coralreeferz: 550G (4.0%, 2,764G)
old_overholt_: 500G (3.7%, 32,314G)
DeathTaxesAndAnime: 499G (3.7%, 2,487G)
DracoknightZero: 471G (3.5%, 471G)
CorpusCav: 400G (2.9%, 1,457G)
krombobreaker: 400G (2.9%, 400G)
seppu777: 333G (2.4%, 2,720G)
datadrivenbot: 200G (1.5%, 60,096G)
acid_flashback: 130G (1.0%, 4,347G)
Riley331: 116G (0.9%, 116G)
AllInBot: 100G (0.7%, 100G)
BartTradingCompany: 100G (0.7%, 5,305G)
let_them_eat_the_rich: 100G (0.7%, 100G)
