Final Bets: white - 8 bets for 2,926G (19.3%, x4.18); black - 16 bets for 12,232G (80.7%, x0.24)

white bets:
HaateXIII: 1,000G (34.2%, 1,000G)
mirapoix: 500G (17.1%, 2,248G)
ShadowNinja25: 478G (16.3%, 478G)
ColetteMSLP: 300G (10.3%, 2,813G)
resjudicata3: 300G (10.3%, 2,176G)
ribbiks: 200G (6.8%, 2,817G)
galkife: 100G (3.4%, 79,516G)
getthemoneyz: 48G (1.6%, 2,048,694G)

black bets:
dogsandcatsand: 2,515G (20.6%, 2,515G)
Mesmaster: 1,272G (10.4%, 1,272G)
gorgewall: 1,244G (10.2%, 1,244G)
Firesheath: 1,018G (8.3%, 1,018G)
BirbBrainsBot: 1,000G (8.2%, 79,707G)
killabandaid: 932G (7.6%, 932G)
Nizaha: 884G (7.2%, 63,887G)
krombobreaker: 700G (5.7%, 9,142G)
Laserman1000: 600G (4.9%, 24,600G)
SnarkMage: 564G (4.6%, 1,128G)
AllInBot: 423G (3.5%, 423G)
lijarkh: 380G (3.1%, 4,717G)
CapnChaos12: 300G (2.5%, 4,048G)
datadrivenbot: 200G (1.6%, 78,730G)
nhammen: 100G (0.8%, 287,378G)
MemoriesofFinal: 100G (0.8%, 41,377G)
