Final Bets: yellow - 26 bets for 14,354G (52.4%, x0.91); brown - 22 bets for 13,029G (47.6%, x1.10)

yellow bets:
RunicMagus: 2,000G (13.9%, 45,195G)
fenaen: 1,484G (10.3%, 1,484G)
soapydragonfly: 1,000G (7.0%, 9,768G)
Lord_Burrah: 1,000G (7.0%, 94,935G)
Shalloween: 1,000G (7.0%, 105,138G)
lunaticruin: 960G (6.7%, 960G)
CCRUNNER149UWP: 888G (6.2%, 4,761G)
Aldrammech: 850G (5.9%, 8,508G)
BenYuPoker: 812G (5.7%, 1,625G)
Lanshaft: 600G (4.2%, 13,326G)
Lodrak: 501G (3.5%, 34,216G)
NUMBER1DB: 500G (3.5%, 5,556G)
ko2q: 352G (2.5%, 352G)
TheGuesty: 350G (2.4%, 6,018G)
urieltheflameofgod: 324G (2.3%, 324G)
ShintaroNayaka: 300G (2.1%, 3,019G)
catfashions: 284G (2.0%, 284G)
Maowiwowi: 233G (1.6%, 233G)
Laserman1000: 216G (1.5%, 216G)
AllInBot: 100G (0.7%, 100G)
Kellios11: 100G (0.7%, 6,932G)
ANFz: 100G (0.7%, 1,264G)
ApplesauceBoss: 100G (0.7%, 2,922G)
Lordminsc: 100G (0.7%, 13,610G)
SeedSC: 100G (0.7%, 140,555G)
datadrivenbot: 100G (0.7%, 19,708G)

brown bets:
kingchadking: 4,189G (32.2%, 4,189G)
jethrothrul: 2,122G (16.3%, 2,122G)
Lydian_C: 1,200G (9.2%, 71,419G)
ungabunga_bot: 1,000G (7.7%, 36,754G)
BirbBrainsBot: 1,000G (7.7%, 232,126G)
robespyah: 500G (3.8%, 9,923G)
Ant_ihistamine: 344G (2.6%, 344G)
Baron_von_Scrub: 314G (2.4%, 10,061G)
Pie108: 256G (2.0%, 5,146G)
evdoggity: 252G (1.9%, 252G)
JustSuperish: 240G (1.8%, 240G)
DrAntiSocial: 232G (1.8%, 232G)
b0shii: 224G (1.7%, 224G)
Aka_Gilly: 200G (1.5%, 7,880G)
maichenambrai: 200G (1.5%, 2,712G)
getthemoneyz: 156G (1.2%, 441,899G)
zepi_zza: 100G (0.8%, 871G)
rNdOrchestra: 100G (0.8%, 1,594G)
DejaPoo21: 100G (0.8%, 11,899G)
SeniorBunk: 100G (0.8%, 3,429G)
ZephyrTempest: 100G (0.8%, 22,068G)
UltiScrub: 100G (0.8%, 3,626G)
