Final Bets: red - 10 bets for 3,196G (25.7%, x2.90); blue - 17 bets for 9,261G (74.3%, x0.35)

red bets:
Lionhermit: 1,000G (31.3%, 8,840G)
nomoment: 500G (15.6%, 5,408G)
Baron_von_Scrub: 353G (11.0%, 16,175G)
fenaen: 300G (9.4%, 3,428G)
waterwatereverywhere: 300G (9.4%, 400G)
ungabunga_bot: 243G (7.6%, 110,916G)
getthemoneyz: 200G (6.3%, 474,211G)
RezzaDV: 100G (3.1%, 1,667G)
Langrisser: 100G (3.1%, 7,469G)
DrAntiSocial: 100G (3.1%, 1,893G)

blue bets:
fenixcrest: 1,138G (12.3%, 11,385G)
volgrathemoose: 1,001G (10.8%, 2,867G)
UmaiJam: 1,000G (10.8%, 30,770G)
BirbBrainsBot: 1,000G (10.8%, 68,522G)
Kojigawatz: 900G (9.7%, 900G)
datadrivenbot: 731G (7.9%, 21,982G)
Lanshaft: 600G (6.5%, 8,997G)
Rastanar: 500G (5.4%, 9,925G)
MoonSlayerRS: 436G (4.7%, 436G)
TheGuesty: 400G (4.3%, 2,600G)
RunicMagus: 324G (3.5%, 324G)
arch8000: 324G (3.5%, 324G)
gooseyourself: 304G (3.3%, 304G)
Breakdown777: 300G (3.2%, 9,249G)
Carledo: 103G (1.1%, 6,539G)
AllInBot: 100G (1.1%, 100G)
Slowbrofist: 100G (1.1%, 1,716G)
