Final Bets: white - 10 bets for 4,066G (23.3%, x3.30); black - 20 bets for 13,409G (76.7%, x0.30)

white bets:
ungabunga_bot: 1,000G (24.6%, 109,673G)
Lanshaft: 600G (14.8%, 11,093G)
Baron_von_Scrub: 577G (14.2%, 14,601G)
nomoment: 500G (12.3%, 5,850G)
fenaen: 400G (9.8%, 2,828G)
AllInBot: 389G (9.6%, 389G)
Aka_Gilly: 300G (7.4%, 11,104G)
RezzaDV: 100G (2.5%, 3,043G)
Lordminsc: 100G (2.5%, 6,941G)
Kojigawatz: 100G (2.5%, 1,211G)

black bets:
TheGuesty: 2,338G (17.4%, 2,338G)
MoonSlayerRS: 1,691G (12.6%, 1,691G)
leakimiko: 1,340G (10.0%, 26,805G)
volgrathemoose: 1,201G (9.0%, 2,211G)
UmaiJam: 1,000G (7.5%, 30,115G)
BirbBrainsBot: 1,000G (7.5%, 67,867G)
getthemoneyz: 854G (6.4%, 473,663G)
datadrivenbot: 715G (5.3%, 23,276G)
Breakdown777: 500G (3.7%, 9,918G)
SkyridgeZero: 500G (3.7%, 11,886G)
gooseyourself: 409G (3.1%, 409G)
waterwatereverywhere: 336G (2.5%, 336G)
RunicMagus: 328G (2.4%, 328G)
arch8000: 324G (2.4%, 324G)
baconbacon1207: 300G (2.2%, 16,941G)
markese: 173G (1.3%, 3,463G)
maakur_: 100G (0.7%, 9,247G)
Slowbrofist: 100G (0.7%, 1,651G)
Igbutton: 100G (0.7%, 1,065G)
ALY327: 100G (0.7%, 6,802G)
