Final Bets: blue - 7 bets for 3,974G (21.9%, x3.56); yellow - 12 bets for 14,162G (78.1%, x0.28)

blue bets:
Thyrandaal: 1,000G (25.2%, 77,905G)
HaateXIII: 916G (23.0%, 916G)
getthemoneyz: 526G (13.2%, 1,822,844G)
Raixelol: 504G (12.7%, 12,759G)
lowlf: 468G (11.8%, 3,409G)
Snowfats: 316G (8.0%, 316G)
bigbongsmoker: 244G (6.1%, 6,069G)

yellow bets:
SkylerBunny: 2,700G (19.1%, 43,358G)
EnemyController: 2,222G (15.7%, 1,691,868G)
sinnyil2: 2,153G (15.2%, 4,306G)
Blaster_Bomb: 1,216G (8.6%, 1,216G)
DLJuggernaut: 1,011G (7.1%, 1,983G)
BartTradingCompany: 1,000G (7.1%, 10,512G)
BirbBrainsBot: 1,000G (7.1%, 152,724G)
Treafa: 1,000G (7.1%, 1,000G)
Laserman1000: 660G (4.7%, 6,860G)
CorpusCav: 500G (3.5%, 9,366G)
technominari: 500G (3.5%, 82,860G)
datadrivenbot: 200G (1.4%, 57,665G)
