Final Bets: white - 63 bets for 92,539G (68.6%, x0.46); black - 55 bets for 42,279G (31.4%, x2.19)

white bets:
E_Ballard: 9,483G (10.2%, 18,966G)
eudes89: 6,933G (7.5%, 6,933G)
SkylerBunny: 6,000G (6.5%, 107,000G)
TheGuesty: 5,000G (5.4%, 60,000G)
BlackFireUK: 5,000G (5.4%, 40,745G)
JoeykinsX: 5,000G (5.4%, 11,467G)
Jeeboheebo: 3,749G (4.1%, 3,749G)
RongRongArts: 3,000G (3.2%, 331,123G)
marin1987: 3,000G (3.2%, 7,905G)
Baron_von_Scrub: 2,939G (3.2%, 2,939G)
alterworlds: 2,579G (2.8%, 2,579G)
O_Heyno: 2,570G (2.8%, 2,570G)
DavenIII: 2,500G (2.7%, 15,433G)
dogsandcatsand: 2,222G (2.4%, 13,821G)
Digitalsocrates: 2,000G (2.2%, 38,006G)
Phi_Sig: 2,000G (2.2%, 8,345G)
Rytor: 1,524G (1.6%, 1,524G)
CelestialLancer: 1,500G (1.6%, 19,031G)
LazarusAjin: 1,500G (1.6%, 13,456G)
Lydian_C: 1,200G (1.3%, 24,781G)
gooseyourself: 1,116G (1.2%, 2,233G)
fenixcrest: 1,004G (1.1%, 10,041G)
MrFlabyo: 1,000G (1.1%, 27,243G)
dictatorhowells: 1,000G (1.1%, 19,863G)
TheMM42: 1,000G (1.1%, 14,323G)
pplvee1: 1,000G (1.1%, 5,299G)
Draconis345: 1,000G (1.1%, 63,222G)
Lanshaft: 1,000G (1.1%, 8,202G)
Zachara: 1,000G (1.1%, 108,000G)
Zbgs: 1,000G (1.1%, 2,138G)
MagicBottle: 953G (1.0%, 953G)
solomongrundy85: 927G (1.0%, 927G)
Laserman1000: 800G (0.9%, 5,304G)
roofiepops: 606G (0.7%, 606G)
UmaiJam: 600G (0.6%, 600G)
joewcarson: 519G (0.6%, 519G)
Nizaha: 501G (0.5%, 6,888G)
ar_tactic: 500G (0.5%, 71,688G)
athros13: 500G (0.5%, 8,520G)
windsah: 500G (0.5%, 5,115G)
TheChainNerd: 500G (0.5%, 1,850G)
killth3kid: 476G (0.5%, 476G)
roqqqpsi: 467G (0.5%, 850G)
ShintaroNayaka: 412G (0.4%, 412G)
DamnThatShark: 374G (0.4%, 374G)
LAGBOT30000: 300G (0.3%, 3,472G)
Kellios11: 300G (0.3%, 7,888G)
JumbocactuarX27: 300G (0.3%, 9,141G)
GladiatorLupe: 300G (0.3%, 10,723G)
IphoneDarkness: 300G (0.3%, 2,359G)
letdowncity: 300G (0.3%, 24,481G)
josephiroth_143: 298G (0.3%, 298G)
fluffskull: 288G (0.3%, 288G)
TeaTime29: 250G (0.3%, 10,571G)
ericzubat: 228G (0.2%, 228G)
JethroThrul: 216G (0.2%, 216G)
MMagnetMan: 208G (0.2%, 208G)
biffcake01: 200G (0.2%, 2,349G)
RampantMind: 197G (0.2%, 197G)
maakur_: 100G (0.1%, 26,049G)
GrayGhostGaming: 100G (0.1%, 4,484G)
wafflereaper212: 100G (0.1%, 1,255G)
ThrillhouseMAX: 100G (0.1%, 964G)

black bets:
Mesmaster: 5,000G (11.8%, 86,731G)
Breakdown777: 3,500G (8.3%, 60,208G)
Zeroroute: 2,662G (6.3%, 7,015G)
HASTERIOUS: 1,851G (4.4%, 37,023G)
DLJuggernaut: 1,679G (4.0%, 3,359G)
baconbacon1207: 1,614G (3.8%, 1,614G)
RunicMagus: 1,500G (3.5%, 56,183G)
DeathTaxesAndAnime: 1,320G (3.1%, 1,320G)
EnemyController: 1,234G (2.9%, 641,210G)
HaplessOne: 1,234G (2.9%, 24,178G)
lowlf: 1,202G (2.8%, 15,760G)
NovaKnight21: 1,000G (2.4%, 5,974G)
sukotsuto: 1,000G (2.4%, 16,409G)
BirbBrainsBot: 1,000G (2.4%, 144,569G)
Carledo: 888G (2.1%, 32,607G)
benticore: 823G (1.9%, 823G)
DustBirdEX: 789G (1.9%, 2,599G)
sinnyil2: 750G (1.8%, 23,104G)
rednecknazgul: 723G (1.7%, 723G)
Kronikle: 702G (1.7%, 702G)
Tougou: 627G (1.5%, 627G)
Shalloween: 553G (1.3%, 553G)
serperemagus: 500G (1.2%, 7,977G)
Meta_Five: 500G (1.2%, 36,010G)
GatsbysGhost: 500G (1.2%, 2,787G)
prince_rogers_nelson_: 500G (1.2%, 9,306G)
JLinkletter: 500G (1.2%, 8,092G)
HaateXIII: 500G (1.2%, 934G)
evdoggity: 500G (1.2%, 11,826G)
Rislyeu: 498G (1.2%, 498G)
nekojin: 457G (1.1%, 457G)
CorpusCav: 452G (1.1%, 452G)
ZZ_Yoshi: 440G (1.0%, 440G)
helpimabug: 408G (1.0%, 408G)
gorgewall: 401G (0.9%, 16,865G)
electric_algus: 400G (0.9%, 10,708G)
Flameatron: 300G (0.7%, 12,524G)
CosmicTactician: 300G (0.7%, 9,975G)
Lordminsc: 300G (0.7%, 5,876G)
kaidykat: 300G (0.7%, 21,644G)
Miku_Shikhu: 300G (0.7%, 15,965G)
CapnChaos12: 300G (0.7%, 22,796G)
LionelParks: 232G (0.5%, 232G)
getthemoneyz: 232G (0.5%, 998,025G)
sir_uther115: 220G (0.5%, 220G)
Magicandy: 216G (0.5%, 216G)
DuraiPapers: 200G (0.5%, 3,186G)
Bioticism: 200G (0.5%, 4,587G)
Evewho: 200G (0.5%, 16,086G)
reddwind_: 200G (0.5%, 1,153G)
aeonicvector: 172G (0.4%, 172G)
FoeSquirrel: 100G (0.2%, 2,676G)
Sykper: 100G (0.2%, 112G)
jojo2k: 100G (0.2%, 273G)
nhammen: 100G (0.2%, 997G)
