Final Bets: white - 55 bets for 47,414G (25.4%, x2.93); purple - 71 bets for 139,101G (74.6%, x0.34)

white bets:
SkylerBunny: 6,000G (12.7%, 96,741G)
Baron_von_Scrub: 2,141G (4.5%, 2,141G)
MrFlabyo: 2,000G (4.2%, 29,452G)
KasugaiRoastedPeas: 2,000G (4.2%, 23,186G)
CelestialLancer: 2,000G (4.2%, 19,028G)
LazarusAjin: 2,000G (4.2%, 22,783G)
evdoggity: 2,000G (4.2%, 8,826G)
DavenIII: 1,500G (3.2%, 18,765G)
TheGuesty: 1,383G (2.9%, 64,383G)
solomongrundy85: 1,351G (2.8%, 1,351G)
Jeeboheebo: 1,103G (2.3%, 1,103G)
MMagnetMan: 1,066G (2.2%, 1,066G)
HaychDub: 1,001G (2.1%, 35,747G)
E_Ballard: 1,000G (2.1%, 25,051G)
Bioticism: 1,000G (2.1%, 5,455G)
Digitalsocrates: 1,000G (2.1%, 35,797G)
Lanshaft: 1,000G (2.1%, 10,411G)
Zachara: 1,000G (2.1%, 108,000G)
Evewho: 1,000G (2.1%, 18,513G)
lowlf: 1,000G (2.1%, 15,444G)
TheMM42: 1,000G (2.1%, 14,468G)
L2_Sentinel: 1,000G (2.1%, 36,673G)
josephiroth_143: 814G (1.7%, 814G)
powergems: 777G (1.6%, 9,686G)
JohhnyDamage: 750G (1.6%, 1,656G)
DeathTaxesAndAnime: 676G (1.4%, 676G)
Laserman1000: 669G (1.4%, 6,169G)
athros13: 500G (1.1%, 8,423G)
CosmicTactician: 500G (1.1%, 9,437G)
serperemagus: 500G (1.1%, 8,352G)
CapnChaos12: 500G (1.1%, 23,635G)
Flameatron: 500G (1.1%, 12,174G)
windsah: 500G (1.1%, 5,720G)
prince_rogers_nelson_: 500G (1.1%, 8,744G)
sukotsuto: 500G (1.1%, 16,722G)
nekojin: 495G (1.0%, 495G)
killth3kid: 480G (1.0%, 480G)
ericzubat: 422G (0.9%, 422G)
MagicBottle: 420G (0.9%, 420G)
electric_algus: 400G (0.8%, 10,259G)
Rislyeu: 308G (0.6%, 308G)
gorgewall: 301G (0.6%, 16,427G)
LAGBOT30000: 300G (0.6%, 3,009G)
Strifu: 300G (0.6%, 1,821G)
kaidykat: 300G (0.6%, 21,431G)
fluffskull: 288G (0.6%, 288G)
FrostWalrusMan: 255G (0.5%, 255G)
Kellios11: 200G (0.4%, 7,987G)
RampantMind: 124G (0.3%, 124G)
GrayGhostGaming: 100G (0.2%, 4,705G)
FoeSquirrel: 100G (0.2%, 2,476G)
Sykper: 100G (0.2%, 210G)
maakur_: 100G (0.2%, 26,082G)
nifboy: 100G (0.2%, 9,214G)
getthemoneyz: 90G (0.2%, 997,821G)

purple bets:
EnemyController: 10,001G (7.2%, 636,851G)
marin1987: 10,000G (7.2%, 16,457G)
Mesmaster: 10,000G (7.2%, 56,114G)
sinnyil2: 9,927G (7.1%, 19,854G)
eudes89: 7,101G (5.1%, 7,101G)
Mushufasa_: 6,980G (5.0%, 6,980G)
toka222: 6,500G (4.7%, 68,356G)
cam_ATS: 6,000G (4.3%, 32,547G)
JoeykinsX: 5,000G (3.6%, 13,134G)
BlackFireUK: 5,000G (3.6%, 33,029G)
Zbgs: 4,065G (2.9%, 4,065G)
alterworlds: 3,632G (2.6%, 3,632G)
HaplessOne: 3,500G (2.5%, 21,804G)
Carledo: 3,333G (2.4%, 28,375G)
HASTERIOUS: 3,133G (2.3%, 31,339G)
Breakdown777: 2,500G (1.8%, 51,212G)
Oobs56: 2,500G (1.8%, 7,445G)
gooseyourself: 2,403G (1.7%, 4,807G)
Rytor: 2,183G (1.6%, 2,183G)
VolgraTheMoose: 2,001G (1.4%, 18,842G)
RunicMagus: 2,000G (1.4%, 59,939G)
DamnThatShark: 1,918G (1.4%, 1,918G)
Zeroroute: 1,887G (1.4%, 4,930G)
Oreo_Pizza: 1,500G (1.1%, 8,478G)
Kronikle: 1,070G (0.8%, 1,070G)
O_Heyno: 1,014G (0.7%, 4,356G)
HaateXIII: 1,013G (0.7%, 1,013G)
JLinkletter: 1,000G (0.7%, 8,730G)
GladiatorLupe: 1,000G (0.7%, 11,910G)
NovaKnight21: 1,000G (0.7%, 4,849G)
run_with_stone_GUNs: 1,000G (0.7%, 23,839G)
BirbBrainsBot: 1,000G (0.7%, 143,446G)
Lyner87: 1,000G (0.7%, 46,591G)
reinoe: 1,000G (0.7%, 2,456G)
Shalloween: 893G (0.6%, 893G)
Sairentozon7: 889G (0.6%, 2,269G)
metagameface: 751G (0.5%, 751G)
roofiepops: 661G (0.5%, 661G)
baconbacon1207: 660G (0.5%, 660G)
rjA0zcOQ96: 620G (0.4%, 620G)
Chuckolator: 615G (0.4%, 20,680G)
UmaiJam: 600G (0.4%, 600G)
roqqqpsi: 600G (0.4%, 600G)
ShintaroNayaka: 600G (0.4%, 600G)
Nizaha: 501G (0.4%, 6,554G)
Dymntd: 500G (0.4%, 34,269G)
CassiePhoenix: 500G (0.4%, 7,738G)
ar_tactic: 500G (0.4%, 72,791G)
CorpusCav: 500G (0.4%, 1,589G)
GatsbysGhost: 500G (0.4%, 2,138G)
RageImmortaI: 500G (0.4%, 4,063G)
Drusic: 465G (0.3%, 465G)
brenogarwin: 420G (0.3%, 420G)
JethroThrul: 413G (0.3%, 413G)
sir_uther115: 413G (0.3%, 413G)
helpimabug: 408G (0.3%, 408G)
Chronolynx42: 400G (0.3%, 2,290G)
DustBirdEX: 345G (0.2%, 2,414G)
aeonicvector: 322G (0.2%, 322G)
letdowncity: 300G (0.2%, 24,580G)
reddwind_: 300G (0.2%, 1,962G)
biffcake01: 300G (0.2%, 1,703G)
LionelParks: 232G (0.2%, 232G)
Magicandy: 216G (0.2%, 216G)
Polygamic: 216G (0.2%, 216G)
ThrillhouseMAX: 200G (0.1%, 1,273G)
Lordminsc: 200G (0.1%, 6,014G)
Miku_Shikhu: 100G (0.1%, 16,103G)
Tougou: 100G (0.1%, 1,280G)
MrMarkPolo: 100G (0.1%, 2,797G)
IphoneDarkness: 100G (0.1%, 1,608G)
