Final Bets: green - 20 bets for 12,537G (63.3%, x0.58); yellow - 13 bets for 7,271G (36.7%, x1.72)

green bets:
Nizaha: 2,986G (23.8%, 5,972G)
SkylerBunny: 1,400G (11.2%, 502,655G)
VolgraTheMoose: 1,001G (8.0%, 3,218G)
MagicBottle: 1,000G (8.0%, 9,142G)
dogsandcatsand: 1,000G (8.0%, 12,538G)
FriendSquirrel: 655G (5.2%, 1,285G)
Shalloween: 600G (4.8%, 71,583G)
DLJuggernaut: 588G (4.7%, 588G)
moonliquor: 500G (4.0%, 3,308G)
Chronolynx42: 500G (4.0%, 34,416G)
BlackFireUK: 488G (3.9%, 488G)
BavarianBerserker: 368G (2.9%, 368G)
RunicMagus: 350G (2.8%, 54,411G)
username123132: 300G (2.4%, 3,143G)
gorgewall: 201G (1.6%, 26,157G)
RampagingRobot: 200G (1.6%, 406G)
nhammen: 100G (0.8%, 6,007G)
Finewax: 100G (0.8%, 100G)
Neo_Exodus: 100G (0.8%, 6,676G)
datadrivenbot: 100G (0.8%, 46,222G)

yellow bets:
UmaiJam: 1,500G (20.6%, 51,257G)
DudeMonkey77: 1,000G (13.8%, 13,088G)
MrFlabyo: 1,000G (13.8%, 400,996G)
DeathTaxesAndAnime: 756G (10.4%, 756G)
TheChainNerd: 716G (9.8%, 7,167G)
BirbBrainsBot: 688G (9.5%, 142,723G)
Cryptopsy70: 608G (8.4%, 17,218G)
DustBirdEX: 345G (4.7%, 7,128G)
getthemoneyz: 258G (3.5%, 1,112,660G)
ArashiKurobara: 100G (1.4%, 399G)
CosmicTactician: 100G (1.4%, 20,001G)
placidphoenix: 100G (1.4%, 999G)
Firesheath: 100G (1.4%, 17,610G)
