Final Bets: white - 7 bets for 5,535G (49.2%, x1.03); black - 9 bets for 5,706G (50.8%, x0.97)

white bets:
Error72: 2,485G (44.9%, 2,485G)
BirbBrainsBot: 1,000G (18.1%, 172,637G)
Smashy: 799G (14.4%, 799G)
VolgraTheMoose: 501G (9.1%, 26,462G)
getthemoneyz: 450G (8.1%, 2,084,354G)
AbandonedHall: 200G (3.6%, 4,490G)
nhammen: 100G (1.8%, 207,552G)

black bets:
AniZero: 2,000G (35.1%, 38,411G)
bigbongsmoker: 1,127G (19.8%, 1,127G)
DavenIII: 890G (15.6%, 890G)
skipsandwiches: 476G (8.3%, 120,026G)
AllInBot: 346G (6.1%, 346G)
Smugzug: 320G (5.6%, 320G)
Lolthsmeat: 247G (4.3%, 247G)
datadrivenbot: 200G (3.5%, 76,203G)
Lord_Gwarth: 100G (1.8%, 4,434G)
