Final Bets: white - 10 bets for 5,240G (33.8%, x1.96); purple - 15 bets for 10,253G (66.2%, x0.51)

white bets:
scadooshlol: 2,000G (38.2%, 45,466G)
R_Raynos: 1,000G (19.1%, 15,121G)
ungabunga_bot: 1,000G (19.1%, 328,751G)
ANFz: 500G (9.5%, 32,005G)
nilbusmaximus: 250G (4.8%, 12,068G)
Carledo: 103G (2.0%, 14,408G)
SimplyRed: 100G (1.9%, 964G)
Eyepoor_: 100G (1.9%, 100G)
Realitydown: 100G (1.9%, 3,170G)
BirbBrainsBot: 87G (1.7%, 189,342G)

purple bets:
HaplessOne: 3,733G (36.4%, 3,733G)
superdevon1: 1,118G (10.9%, 5,592G)
Dexsana: 1,000G (9.8%, 19,994G)
josephiroth_143: 887G (8.7%, 887G)
ColetteMSLP: 800G (7.8%, 28,713G)
lijarkh: 500G (4.9%, 26,398G)
twelfthrootoftwo: 500G (4.9%, 1,029G)
getthemoneyz: 338G (3.3%, 604,031G)
LAGBOT30000: 301G (2.9%, 30,163G)
Mudrockk: 300G (2.9%, 3,218G)
Dymntd: 276G (2.7%, 276G)
Reverie3: 200G (2.0%, 4,884G)
Evewho: 100G (1.0%, 9,913G)
witchlight: 100G (1.0%, 100G)
datadrivenbot: 100G (1.0%, 12,382G)
