Final Bets: purple - 15 bets for 12,925G (48.7%, x1.05); champion - 11 bets for 13,616G (51.3%, x0.95)

purple bets:
scadooshlol: 3,000G (23.2%, 40,466G)
HaplessOne: 2,222G (17.2%, 6,709G)
superdevon1: 1,469G (11.4%, 7,348G)
ungabunga_bot: 1,000G (7.7%, 326,751G)
BirbBrainsBot: 1,000G (7.7%, 190,217G)
Dymntd: 818G (6.3%, 818G)
Mudrockk: 800G (6.2%, 3,852G)
josephiroth_143: 600G (4.6%, 2,628G)
Estan_AD: 500G (3.9%, 6,759G)
CorpusCav: 500G (3.9%, 21,895G)
twelfthrootoftwo: 300G (2.3%, 1,573G)
getthemoneyz: 266G (2.1%, 604,088G)
nilbusmaximus: 250G (1.9%, 11,568G)
OneHundredFists: 100G (0.8%, 2,461G)
Eyepoor_: 100G (0.8%, 100G)

champion bets:
R_Raynos: 11,125G (81.7%, 11,125G)
pandasforsale: 666G (4.9%, 36,074G)
InOzWeTrust: 502G (3.7%, 502G)
leakimiko: 373G (2.7%, 2,493G)
ar_tactic: 250G (1.8%, 32,793G)
lijarkh: 200G (1.5%, 27,135G)
witchlight: 100G (0.7%, 100G)
ANFz: 100G (0.7%, 31,394G)
datadrivenbot: 100G (0.7%, 12,529G)
Kyune: 100G (0.7%, 1,915G)
madman66666: 100G (0.7%, 1,132G)
