Final Bets: blue - 13 bets for 17,773G (69.1%, x0.45); champion - 19 bets for 7,941G (30.9%, x2.24)

blue bets:
reinoe: 10,000G (56.3%, 34,537G)
RunicMagus: 2,500G (14.1%, 29,957G)
nifboy: 880G (5.0%, 5,622G)
killth3kid: 804G (4.5%, 37,571G)
Laserman1000: 700G (3.9%, 16,566G)
HorusTaurus: 637G (3.6%, 637G)
Chihuahua_Charity: 500G (2.8%, 41,329G)
holdenmagronik: 492G (2.8%, 7,333G)
Lolthsmeat: 312G (1.8%, 3,579G)
Blaster_Bomb: 300G (1.7%, 1,761G)
helpimabug: 288G (1.6%, 7,031G)
TheBrett: 260G (1.5%, 260G)
heropong: 100G (0.6%, 1,998G)

champion bets:
JonnyCue: 1,100G (13.9%, 9,100G)
Sairentozon7: 1,000G (12.6%, 45,800G)
fenaen: 656G (8.3%, 16,828G)
Bryon_W: 500G (6.3%, 4,341G)
Shalloween: 500G (6.3%, 6,159G)
Grasnikk: 500G (6.3%, 3,238G)
krombobreaker: 500G (6.3%, 26,641G)
Lythe_Caraker: 500G (6.3%, 3,385G)
Spartan_Paladin: 400G (5.0%, 9,038G)
Lyner87: 324G (4.1%, 324G)
CapnChaos12: 300G (3.8%, 2,546G)
old_overholt_: 300G (3.8%, 62,418G)
brokenknight201: 300G (3.8%, 5,222G)
thunderducker: 250G (3.1%, 8,090G)
pteraranger: 248G (3.1%, 11,948G)
AllInBot: 200G (2.5%, 200G)
yagyuudarkness: 163G (2.1%, 163G)
Bongomon7: 100G (1.3%, 2,875G)
wizzo66: 100G (1.3%, 199G)
