Final Bets: white - 19 bets for 39,275G (63.2%, x0.58); black - 16 bets for 22,887G (36.8%, x1.72)

white bets:
bigbongsmoker: 23,754G (60.5%, 23,754G)
Thyrandaal: 5,555G (14.1%, 242,625G)
JonnyCue: 2,300G (5.9%, 2,300G)
VolgraTheMoose: 2,001G (5.1%, 25,547G)
skillomono: 1,017G (2.6%, 2,034G)
Kronikle: 692G (1.8%, 22,658G)
ko2q: 655G (1.7%, 655G)
Mesmaster: 512G (1.3%, 512G)
seppu777: 472G (1.2%, 472G)
SephDarkheart: 432G (1.1%, 432G)
CapnChaos12: 300G (0.8%, 6,605G)
king_smashington: 260G (0.7%, 260G)
Riley331: 225G (0.6%, 225G)
AllInBot: 200G (0.5%, 200G)
CorpusCav: 200G (0.5%, 28,310G)
wiznaibusthis: 200G (0.5%, 782G)
datadrivenbot: 200G (0.5%, 79,042G)
ValensEXP_: 200G (0.5%, 4,018G)
Lord_Gwarth: 100G (0.3%, 1,322G)

black bets:
nhammen: 5,000G (21.8%, 37,024G)
E_Ballard: 4,536G (19.8%, 4,536G)
dogsandcatsand: 2,275G (9.9%, 4,462G)
latebit: 2,132G (9.3%, 71,075G)
Shalloween: 2,000G (8.7%, 4,896G)
getthemoneyz: 1,000G (4.4%, 2,093,134G)
BirbBrainsBot: 1,000G (4.4%, 48,393G)
MoonSugarFiend: 1,000G (4.4%, 4,059G)
DeathTaxesAndAnime: 876G (3.8%, 876G)
gorgewall: 816G (3.6%, 816G)
Nizaha: 616G (2.7%, 12,373G)
lotharek: 600G (2.6%, 13,307G)
scsuperstar: 500G (2.2%, 4,221G)
MemoriesofFinal: 336G (1.5%, 336G)
maakur_: 100G (0.4%, 9,679G)
TheBrett: 100G (0.4%, 1,863G)
