Final Bets: blue - 19 bets for 9,817G (40.4%, x1.47); green - 20 bets for 14,459G (59.6%, x0.68)

blue bets:
gorgewall: 2,457G (25.0%, 2,457G)
BirbBrainsBot: 1,000G (10.2%, 49,109G)
seppu777: 954G (9.7%, 954G)
dogsandcatsand: 756G (7.7%, 756G)
Nizaha: 616G (6.3%, 12,814G)
Willjin: 600G (6.1%, 44,358G)
skillomono: 532G (5.4%, 532G)
Mesmaster: 512G (5.2%, 512G)
MoonSugarFiend: 500G (5.1%, 5,075G)
JonnyCue: 444G (4.5%, 444G)
CapnChaos12: 300G (3.1%, 6,005G)
AllInBot: 200G (2.0%, 200G)
MemoriesofFinal: 200G (2.0%, 713G)
Shalloween: 200G (2.0%, 8,328G)
getthemoneyz: 146G (1.5%, 2,093,850G)
ko2q: 100G (1.0%, 1,115G)
wiznaibusthis: 100G (1.0%, 582G)
Reddash9: 100G (1.0%, 708G)
nhammen: 100G (1.0%, 42,604G)

green bets:
thunderducker: 2,500G (17.3%, 4,123G)
latebit: 2,333G (16.1%, 77,784G)
holdenmagronik: 1,699G (11.8%, 1,699G)
VolgraTheMoose: 892G (6.2%, 24,456G)
nifboy: 860G (5.9%, 860G)
DHaveWord: 794G (5.5%, 1,589G)
killth3kid: 772G (5.3%, 43,264G)
HaateXIII: 720G (5.0%, 720G)
king_smashington: 525G (3.6%, 525G)
ExplanationMarkWow: 500G (3.5%, 18,761G)
scsuperstar: 500G (3.5%, 5,079G)
roofiepops: 492G (3.4%, 492G)
SQUiDSQUARKLIN: 472G (3.3%, 472G)
SephDarkheart: 432G (3.0%, 432G)
lotharek: 300G (2.1%, 13,737G)
Widewalk: 210G (1.5%, 210G)
datadrivenbot: 200G (1.4%, 79,046G)
ayeCoop: 108G (0.7%, 108G)
maakur_: 100G (0.7%, 9,751G)
TheBrett: 50G (0.3%, 2,086G)
