Final Bets: purple - 14 bets for 35,988G (82.0%, x0.22); brown - 7 bets for 7,898G (18.0%, x4.56)

purple bets:
biske13: 20,000G (55.6%, 161,666G)
Zbgs: 4,912G (13.6%, 4,912G)
Smashy: 3,063G (8.5%, 6,126G)
gorgewall: 1,570G (4.4%, 1,570G)
latebit: 1,441G (4.0%, 2,826G)
DeathTaxesAndAnime: 1,305G (3.6%, 1,305G)
OneHundredFists: 1,195G (3.3%, 1,195G)
BirbBrainsBot: 1,000G (2.8%, 146,717G)
krombobreaker: 500G (1.4%, 4,419G)
getthemoneyz: 462G (1.3%, 1,989,230G)
datadrivenbot: 200G (0.6%, 71,799G)
Jonomytho: 128G (0.4%, 128G)
johannjfs: 112G (0.3%, 112G)
MemoriesofFinal: 100G (0.3%, 30,202G)

brown bets:
Zerguzen: 5,802G (73.5%, 5,802G)
Leonidusx: 1,000G (12.7%, 90,466G)
pplvee1: 396G (5.0%, 17,867G)
AllInBot: 200G (2.5%, 200G)
nickolaytheninja: 200G (2.5%, 200G)
loveyouallfriends: 200G (2.5%, 43,741G)
RunicMagus: 100G (1.3%, 12,998G)
