Final Bets: green - 9 bets for 4,153G (48.1%, x1.08); purple - 5 bets for 4,485G (51.9%, x0.93)

green bets:
byrdturbo: 1,111G (26.8%, 21,563G)
BirbBrainsBot: 1,000G (24.1%, 123,961G)
Mots45: 628G (15.1%, 628G)
VolgraTheMoose: 612G (14.7%, 612G)
enkikavlar: 316G (7.6%, 316G)
datadrivenbot: 200G (4.8%, 55,842G)
DeathTaxesAndAnime: 100G (2.4%, 1,635G)
hiros13gts: 100G (2.4%, 2,814G)
getthemoneyz: 86G (2.1%, 1,220,122G)

purple bets:
KasugaiRoastedPeas: 2,000G (44.6%, 8,861G)
reinoe: 1,000G (22.3%, 39,645G)
YaBoy125: 717G (16.0%, 7,176G)
Evewho: 668G (14.9%, 668G)
Chompie: 100G (2.2%, 10,816G)
