Final Bets: yellow - 15 bets for 8,417G (45.1%, x1.22); champion - 19 bets for 10,257G (54.9%, x0.82)

yellow bets:
TheChainNerd: 1,373G (16.3%, 1,373G)
InOzWeTrust: 1,139G (13.5%, 1,139G)
HaateXIII: 1,054G (12.5%, 1,054G)
nifboy: 935G (11.1%, 1,870G)
Thyrandaal: 792G (9.4%, 1,553G)
Lydian_C: 560G (6.7%, 7,745G)
YaBoy125: 534G (6.3%, 6,678G)
actual_JP: 428G (5.1%, 428G)
Sairentozon7: 404G (4.8%, 404G)
CT_5_Holy: 400G (4.8%, 1,168G)
gorgewall: 301G (3.6%, 16,057G)
ar_tactic: 200G (2.4%, 64,518G)
E_Ballard: 100G (1.2%, 6,520G)
livvexx: 100G (1.2%, 100G)
Aldrammech: 97G (1.2%, 979G)

champion bets:
Anasetsuken: 2,848G (27.8%, 5,696G)
BirbBrainsBot: 1,000G (9.7%, 184,673G)
EnemyController: 1,000G (9.7%, 581,985G)
Laserman1000: 633G (6.2%, 27,233G)
getthemoneyz: 596G (5.8%, 935,895G)
Yiroep2: 587G (5.7%, 587G)
Grandlanzer: 500G (4.9%, 5,156G)
OneHundredFists: 500G (4.9%, 16,004G)
Nohurty: 402G (3.9%, 805G)
dogsandcatsand: 348G (3.4%, 348G)
Spuzzmocker: 327G (3.2%, 327G)
Jadusable2: 316G (3.1%, 316G)
letdowncity: 300G (2.9%, 16,056G)
twelfthrootoftwo: 300G (2.9%, 1,880G)
CosmicTactician: 200G (1.9%, 1,478G)
AllInBot: 100G (1.0%, 100G)
Ring_Wyrm: 100G (1.0%, 2,290G)
datadrivenbot: 100G (1.0%, 38,355G)
fluffskull: 100G (1.0%, 942G)
