Final Bets: white - 14 bets for 13,815G (68.5%, x0.46); black - 14 bets for 6,340G (31.5%, x2.18)

white bets:
evontno: 4,000G (29.0%, 15,813G)
Mudrockk: 2,000G (14.5%, 4,797G)
fluffskull: 1,683G (12.2%, 1,683G)
cam_ATS: 1,234G (8.9%, 47,111G)
winteriscorning: 1,028G (7.4%, 1,028G)
NicoSavoy: 1,000G (7.2%, 195,776G)
GlacialStorm: 636G (4.6%, 636G)
maddrave09: 500G (3.6%, 20,577G)
letdowncity: 384G (2.8%, 2,004G)
dem0nj0ns: 300G (2.2%, 1,078G)
Lemonjohns: 300G (2.2%, 2,407G)
GRRR12: 300G (2.2%, 7,654G)
Treafa: 250G (1.8%, 946G)
datadrivenbot: 200G (1.4%, 63,068G)

black bets:
Evewho: 1,240G (19.6%, 1,240G)
SkylerBunny: 1,000G (15.8%, 5,782G)
BirbBrainsBot: 1,000G (15.8%, 45,722G)
Forkmore: 1,000G (15.8%, 4,019G)
Geffro1908: 624G (9.8%, 624G)
EnemyController: 555G (8.8%, 1,402,475G)
superdevon1: 166G (2.6%, 1,667G)
getthemoneyz: 142G (2.2%, 1,261,681G)
DustBirdEX: 113G (1.8%, 4,085G)
ANFz: 100G (1.6%, 42,064G)
DeathTaxesAndAnime: 100G (1.6%, 16,261G)
Ring_Wyrm: 100G (1.6%, 9,757G)
dantayystv: 100G (1.6%, 2,601G)
lijerrr: 100G (1.6%, 213G)
