Final Bets: white - 5 bets for 6,842G (79.3%, x0.26); brown - 5 bets for 1,787G (20.7%, x3.83)

white bets:
YaBoy125: 3,242G (47.4%, 46,324G)
Digitalsocrates: 2,000G (29.2%, 60,299G)
Who_lio42: 1,000G (14.6%, 13,585G)
RaIshtar: 500G (7.3%, 3,256G)
AltimaMantoid: 100G (1.5%, 700G)

brown bets:
BlackFireUK: 1,000G (56.0%, 34,322G)
BirbBrainsBot: 319G (17.9%, 89,604G)
soren_of_tyto: 276G (15.4%, 276G)
josephiroth_143: 168G (9.4%, 168G)
getthemoneyz: 24G (1.3%, 984,782G)
