Final Bets: purple - 10 bets for 8,874G (51.0%, x0.96); champion - 12 bets for 8,513G (49.0%, x1.04)

purple bets:
DavenIII: 3,000G (33.8%, 25,056G)
Nickyfive: 3,000G (33.8%, 27,675G)
Laserman1000: 686G (7.7%, 3,686G)
Cryptopsy70: 588G (6.6%, 28,340G)
killth3kid: 500G (5.6%, 6,722G)
Sairentozon7: 400G (4.5%, 400G)
thewondertrickster: 250G (2.8%, 982G)
muffin_money: 250G (2.8%, 8,330G)
nhammen: 100G (1.1%, 3,943G)
datadrivenbot: 100G (1.1%, 48,006G)

champion bets:
marin1987: 2,000G (23.5%, 8,802G)
Zeroroute: 1,213G (14.2%, 3,337G)
BirbBrainsBot: 1,000G (11.7%, 144,488G)
DLJuggernaut: 919G (10.8%, 1,803G)
Rilgon: 802G (9.4%, 8,023G)
RunicMagus: 800G (9.4%, 42,625G)
TheChainNerd: 798G (9.4%, 798G)
Shalloween: 400G (4.7%, 44,758G)
TheBigSalarius: 300G (3.5%, 1,207G)
getthemoneyz: 164G (1.9%, 1,022,026G)
CosmicTactician: 100G (1.2%, 15,029G)
roofiepops: 17G (0.2%, 840G)
