High Risers:
1. Livinghitokiri: +34,412G
2. Resjudicata3: +6,423G
3. Memoriesoffinal: +6,196G
4. 3ngag3: +4,898G
5. Wyonearth: +1,637G
6. Novaknight21: +1,623G
7. Ayeayex3: +1,472G
8. Genkidou: +693G
9. Seppu777: +535G
10. Lydian_c: +448G
11. Colettemslp: +445G
12. Bruubarg: +361G
13. Peeronid: +325G
14. Formerlydrdong: +175G
15. Upvla: +95G
16. Zachara: +50G
17. Dem0nj0ns: -62G
18. Chihuahua_charity: -96G
19. Reddwind_: -200G
20. Lord_gwarth: -200G
21. Sephdarkheart: -212G
22. Ruleof5: -300G
23. Aly327: -300G
24. Musashi45: -301G
25. Hasterious: -400G
26. Whitetigress: -400G
27. Cassiephoenix: -400G
28. Gorgewall: -567G
29. Nifboy: -617G
30. Ar_tactic: -800G
31. Mushufasa_: -1,000G
32. Smashy: -1,000G
33. Dogsandcatsand: -1,016G
34. Ct_5_holy: -1,098G
35. Volgrathemoose: -1,400G
36. Lolthsmeat: -3,307G
37. Raixelol: -11,140G
38. Nicosavoy: -66,278G
