Final Bets: blue - 14 bets for 5,342G (41.7%, x1.40); green - 14 bets for 7,463G (58.3%, x0.72)

blue bets:
DamnThatShark: 1,991G (37.3%, 1,991G)
Baron_von_Scrub: 1,128G (21.1%, 2,256G)
0v3rr8d: 300G (5.6%, 12,660G)
pplvee1: 292G (5.5%, 292G)
Snoopiku: 250G (4.7%, 27,591G)
thewondertrickster: 238G (4.5%, 477G)
gorgewall: 201G (3.8%, 2,694G)
NotBalrog: 200G (3.7%, 4,878G)
elnobueno: 200G (3.7%, 1,035G)
ericzubat: 200G (3.7%, 1,232G)
lewdylew: 132G (2.5%, 132G)
datadrivenbot: 100G (1.9%, 47,985G)
JumbocactuarX27: 100G (1.9%, 3,189G)
nhammen: 10G (0.2%, 2,754G)

green bets:
Zeroroute: 2,566G (34.4%, 2,566G)
BirbBrainsBot: 1,000G (13.4%, 148,074G)
getthemoneyz: 878G (11.8%, 1,023,845G)
Smokegiant: 715G (9.6%, 715G)
joewcarson: 500G (6.7%, 1,530G)
DudeMonkey77: 500G (6.7%, 14,679G)
ruleof5: 300G (4.0%, 31,571G)
roqqqpsi: 279G (3.7%, 27,943G)
serperemagus: 200G (2.7%, 13,622G)
Magicandy: 200G (2.7%, 4,086G)
nifboy: 100G (1.3%, 2,244G)
Nohurty: 100G (1.3%, 1,095G)
maakur_: 100G (1.3%, 75,398G)
TheManInPlaid: 25G (0.3%, 252G)
