Final Bets: white - 22 bets for 13,541G (58.0%, x0.73); black - 11 bets for 9,818G (42.0%, x1.38)

white bets:
toka222: 5,000G (36.9%, 506,320G)
sinnyil2: 1,296G (9.6%, 1,296G)
leakimiko: 1,018G (7.5%, 1,018G)
BirbBrainsBot: 1,000G (7.4%, 187,139G)
NovaKnight21: 607G (4.5%, 607G)
ShintaroNayaka: 500G (3.7%, 24,792G)
catfashions: 500G (3.7%, 3,935G)
Dexsana: 500G (3.7%, 879G)
joewcarson: 500G (3.7%, 9,129G)
getthemoneyz: 330G (2.4%, 496,683G)
ZephyrTempest: 314G (2.3%, 76,278G)
ericzubat: 300G (2.2%, 3,312G)
SomeCallMeGON: 260G (1.9%, 260G)
GargantuaCat: 239G (1.8%, 239G)
nifboy: 234G (1.7%, 234G)
Webb_MD: 224G (1.7%, 224G)
lifeguard_dan: 200G (1.5%, 1,117G)
datadrivenbot: 111G (0.8%, 162G)
Mandoragan: 108G (0.8%, 108G)
LazarusAjin: 100G (0.7%, 2,312G)
Lavatis: 100G (0.7%, 100G)
SquidgyXom: 100G (0.7%, 1,368G)

black bets:
Mtueni: 4,000G (40.7%, 195,427G)
YaBoy125: 2,000G (20.4%, 15,118G)
Boojob: 1,000G (10.2%, 5,647G)
ungabunga_bot: 1,000G (10.2%, 164,026G)
proper__noun__: 500G (5.1%, 1,665G)
mexskacin: 354G (3.6%, 354G)
Lanshaft: 308G (3.1%, 2,120G)
Cervani: 200G (2.0%, 4,602G)
nedryerson01: 200G (2.0%, 1,534G)
MeleeWizard: 156G (1.6%, 156G)
lohakilo: 100G (1.0%, 2,382G)
