Final Bets: purple - 25 bets for 27,807G (82.2%, x0.22); brown - 15 bets for 6,024G (17.8%, x4.62)

purple bets:
toka222: 10,000G (36.0%, 509,945G)
Mtueni: 4,000G (14.4%, 191,427G)
leakimiko: 1,756G (6.3%, 1,756G)
Dexsana: 1,242G (4.5%, 1,242G)
NovaKnight21: 1,047G (3.8%, 1,047G)
ShintaroNayaka: 1,000G (3.6%, 25,155G)
J2DaBibbles: 1,000G (3.6%, 5,585G)
BirbBrainsBot: 1,000G (3.6%, 187,864G)
ericzubat: 1,000G (3.6%, 3,530G)
rechaun: 998G (3.6%, 998G)
HeroponThrawn: 747G (2.7%, 747G)
TheChainNerd: 600G (2.2%, 600G)
sinnyil2: 500G (1.8%, 2,236G)
SomeCallMeGON: 449G (1.6%, 449G)
GargantuaCat: 412G (1.5%, 412G)
ZephyrTempest: 389G (1.4%, 76,506G)
Lanshaft: 308G (1.1%, 1,812G)
Tacobowl8: 300G (1.1%, 2,431G)
datadrivenbot: 240G (0.9%, 242G)
Mandoragan: 186G (0.7%, 186G)
Lavatis: 173G (0.6%, 173G)
MeleeWizard: 156G (0.6%, 156G)
SpookyCookieMonster: 104G (0.4%, 104G)
Cervani: 100G (0.4%, 4,402G)
lifeguard_dan: 100G (0.4%, 1,262G)

brown bets:
ungabunga_bot: 1,000G (16.6%, 163,026G)
YaBoy125: 1,000G (16.6%, 13,118G)
NewbGaming: 890G (14.8%, 890G)
Pie108: 700G (11.6%, 24,552G)
JumbocactuarX27: 430G (7.1%, 430G)
nifboy: 404G (6.7%, 404G)
getthemoneyz: 300G (5.0%, 496,922G)
proper__noun__: 300G (5.0%, 1,165G)
joewcarson: 200G (3.3%, 9,492G)
RubenFlonne: 200G (3.3%, 1,117G)
elkydeluxe: 200G (3.3%, 200G)
nedryerson01: 150G (2.5%, 1,334G)
lohakilo: 100G (1.7%, 2,282G)
SquidgyXom: 100G (1.7%, 1,441G)
GingerDynomite: 50G (0.8%, 4,409G)
