Final Bets: red - 9 bets for 4,325G (16.2%, x5.16); green - 29 bets for 22,306G (83.8%, x0.19)

red bets:
catfashions: 1,000G (23.1%, 4,298G)
HeroponThrawn: 909G (21.0%, 909G)
TheChainNerd: 730G (16.9%, 730G)
ungabunga_bot: 564G (13.0%, 162,026G)
SomeCallMeGON: 546G (12.6%, 546G)
Mandoragan: 226G (5.2%, 226G)
Dexsana: 150G (3.5%, 1,511G)
SquidgyXom: 100G (2.3%, 1,341G)
lohakilo: 100G (2.3%, 2,182G)

green bets:
toka222: 10,000G (44.8%, 512,111G)
rechaun: 1,214G (5.4%, 1,214G)
sinnyil2: 1,020G (4.6%, 2,344G)
BirbBrainsBot: 1,000G (4.5%, 188,081G)
proper__noun__: 865G (3.9%, 865G)
Bryon_W: 800G (3.6%, 6,744G)
Pie108: 700G (3.1%, 23,852G)
ColetteMSLP: 700G (3.1%, 41,191G)
ShintaroNayaka: 600G (2.7%, 25,372G)
Laserman1000: 537G (2.4%, 20,237G)
GargantuaCat: 501G (2.2%, 501G)
joewcarson: 500G (2.2%, 9,292G)
LDSkinny: 500G (2.2%, 3,618G)
JumbocactuarX27: 360G (1.6%, 360G)
ZephyrTempest: 333G (1.5%, 76,590G)
Lanshaft: 308G (1.4%, 1,879G)
NovaKnight21: 300G (1.3%, 1,274G)
ericzubat: 300G (1.3%, 3,747G)
Lavatis: 210G (0.9%, 210G)
LazarusAjin: 200G (0.9%, 2,385G)
elkydeluxe: 200G (0.9%, 200G)
nifboy: 196G (0.9%, 196G)
datadrivenbot: 193G (0.9%, 294G)
MeleeWizard: 190G (0.9%, 190G)
getthemoneyz: 152G (0.7%, 496,622G)
SpookyCookieMonster: 127G (0.6%, 127G)
wollise89: 120G (0.5%, 876G)
Tacobowl8: 100G (0.4%, 2,496G)
SwaffleWaffles: 80G (0.4%, 1,613G)
