Final Bets: white - 15 bets for 5,801G (27.7%, x2.62); purple - 17 bets for 15,179G (72.3%, x0.38)

white bets:
BirbBrainsBot: 1,000G (17.2%, 188,275G)
catfashions: 1,000G (17.2%, 3,298G)
toka222: 1,000G (17.2%, 514,050G)
Pie108: 700G (12.1%, 23,988G)
DudeMonkey77: 333G (5.7%, 4,658G)
Lanshaft: 308G (5.3%, 1,939G)
ZephyrTempest: 274G (4.7%, 76,655G)
SomeCallMeGON: 260G (4.5%, 260G)
nifboy: 234G (4.0%, 234G)
MeleeWizard: 227G (3.9%, 227G)
Lavatis: 125G (2.2%, 251G)
Mandoragan: 108G (1.9%, 108G)
LazarusAjin: 100G (1.7%, 2,424G)
Phelpsy4: 100G (1.7%, 1,197G)
getthemoneyz: 32G (0.6%, 496,651G)

purple bets:
RongRongArts: 2,269G (14.9%, 4,538G)
leakimiko: 2,136G (14.1%, 2,136G)
lohakilo: 2,082G (13.7%, 2,082G)
ericzubat: 2,000G (13.2%, 3,805G)
SquidgyXom: 1,241G (8.2%, 1,241G)
proper__noun__: 1,033G (6.8%, 1,033G)
YaBoy125: 1,000G (6.6%, 12,118G)
J2DaBibbles: 666G (4.4%, 5,802G)
TheChainNerd: 600G (4.0%, 600G)
GargantuaCat: 598G (3.9%, 598G)
NovaKnight21: 332G (2.2%, 332G)
datadrivenbot: 293G (1.9%, 331G)
lifeguard_dan: 284G (1.9%, 284G)
HeroponThrawn: 244G (1.6%, 244G)
elkydeluxe: 239G (1.6%, 239G)
ungabunga_bot: 112G (0.7%, 161,462G)
DrAntiSocial: 50G (0.3%, 3,095G)
