Final Bets: purple - 31 bets for 43,536G (70.4%, x0.42); champion - 13 bets for 18,292G (29.6%, x2.38)

purple bets:
toka222: 15,000G (34.5%, 511,550G)
leakimiko: 4,150G (9.5%, 4,150G)
RongRongArts: 3,250G (7.5%, 6,501G)
sinnyil2: 3,058G (7.0%, 3,058G)
ericzubat: 2,500G (5.7%, 5,380G)
catfashions: 2,098G (4.8%, 2,098G)
MattMan119: 2,000G (4.6%, 7,182G)
J2DaBibbles: 1,500G (3.4%, 6,331G)
lohakilo: 1,339G (3.1%, 2,678G)
TheChainNerd: 1,165G (2.7%, 1,165G)
ungabunga_bot: 1,000G (2.3%, 160,505G)
BirbBrainsBot: 1,000G (2.3%, 186,275G)
wurstwaesserchen: 750G (1.7%, 28,143G)
lifeguard_dan: 558G (1.3%, 558G)
GargantuaCat: 497G (1.1%, 995G)
CapnChaos12: 464G (1.1%, 464G)
ZephyrTempest: 405G (0.9%, 76,198G)
Lanshaft: 308G (0.7%, 1,323G)
LazarusAjin: 300G (0.7%, 2,324G)
NovaKnight21: 300G (0.7%, 300G)
SomeCallMeGON: 260G (0.6%, 260G)
LordMaxoss: 250G (0.6%, 671G)
elkydeluxe: 232G (0.5%, 464G)
RubenFlonne: 200G (0.5%, 917G)
proper__noun__: 200G (0.5%, 1,328G)
SquidgyXom: 200G (0.5%, 1,918G)
Mandoragan: 152G (0.3%, 152G)
Tacobowl8: 100G (0.2%, 2,556G)
ANFz: 100G (0.2%, 6,049G)
Phelpsy4: 100G (0.2%, 997G)
TimeJannies: 100G (0.2%, 912G)

champion bets:
YaBoy125: 12,500G (68.3%, 12,500G)
ColetteMSLP: 1,500G (8.2%, 41,327G)
joewcarson: 1,001G (5.5%, 9,592G)
Pie108: 700G (3.8%, 23,288G)
JumbocactuarX27: 604G (3.3%, 604G)
datadrivenbot: 534G (2.9%, 608G)
ShintaroNayaka: 400G (2.2%, 25,488G)
HeroponThrawn: 337G (1.8%, 337G)
nifboy: 276G (1.5%, 276G)
MeleeWizard: 219G (1.2%, 219G)
Lavatis: 88G (0.5%, 177G)
SwaffleWaffles: 83G (0.5%, 1,662G)
DrAntiSocial: 50G (0.3%, 3,134G)
