Final Bets: purple - 27 bets for 23,919G (57.3%, x0.75); brown - 15 bets for 17,826G (42.7%, x1.34)

purple bets:
Shalloween: 5,469G (22.9%, 10,725G)
EnemyController: 5,000G (20.9%, 268,437G)
Mesmaster: 2,000G (8.4%, 85,675G)
Kyune: 2,000G (8.4%, 12,429G)
roofiepops: 1,244G (5.2%, 33,283G)
BirbBrainsBot: 1,000G (4.2%, 16,061G)
NicoSavoy: 1,000G (4.2%, 42,747G)
Lionhermit: 1,000G (4.2%, 18,625G)
sSwing: 804G (3.4%, 1,804G)
NovaKnight21: 544G (2.3%, 544G)
ZZ_Yoshi: 500G (2.1%, 20,501G)
Reltz_: 500G (2.1%, 11,483G)
getthemoneyz: 304G (1.3%, 681,241G)
vorap: 300G (1.3%, 75,136G)
twelfthrootoftwo: 300G (1.3%, 29,350G)
HaateXIII: 300G (1.3%, 6,729G)
marin1987: 256G (1.1%, 256G)
Digitalsocrates: 244G (1.0%, 244G)
KasugaiRoastedPeas: 200G (0.8%, 1,809G)
Estan_AD: 200G (0.8%, 1,520G)
brogan316: 200G (0.8%, 941G)
benticore: 151G (0.6%, 3,039G)
Evewho: 100G (0.4%, 10,711G)
nifboy: 100G (0.4%, 2,365G)
Dymntd: 100G (0.4%, 2,147G)
datadrivenbot: 100G (0.4%, 21,988G)
daveb_: 3G (0.0%, 1,984G)

brown bets:
E_Ballard: 6,777G (38.0%, 6,777G)
KitchTowel: 3,303G (18.5%, 6,607G)
porkchop5158: 1,157G (6.5%, 1,157G)
OneHundredFists: 1,028G (5.8%, 1,028G)
TheMurkGnome: 1,021G (5.7%, 1,021G)
Deathmaker06: 1,000G (5.6%, 10,305G)
Creggers: 1,000G (5.6%, 8,656G)
WitchHunterIX: 847G (4.8%, 847G)
gooseyourself: 516G (2.9%, 516G)
kintaru_oe: 300G (1.7%, 5,376G)
Wonser: 250G (1.4%, 3,024G)
Chompie: 200G (1.1%, 8,689G)
Rintastic: 177G (1.0%, 177G)
DeathTaxesAndAnime: 150G (0.8%, 1,734G)
Firesheath: 100G (0.6%, 1,450G)
