Final Bets: white - 12 bets for 9,585G (79.8%, x0.25); black - 8 bets for 2,426G (20.2%, x3.95)

white bets:
iBardic: 1,610G (16.8%, 1,610G)
latebit: 1,600G (16.7%, 16,830G)
BirbBrainsBot: 1,000G (10.4%, 50,176G)
resjudicata3: 1,000G (10.4%, 2,123G)
Drusiform: 990G (10.3%, 1,980G)
Laserman1000: 900G (9.4%, 900G)
blorpy_: 623G (6.5%, 15,575G)
nekojin: 504G (5.3%, 504G)
Homurus: 500G (5.2%, 900G)
reinoe: 408G (4.3%, 408G)
HaateXIII: 250G (2.6%, 4,321G)
Lazarus_DS: 200G (2.1%, 1,197G)

black bets:
SkylerBunny: 1,000G (41.2%, 3,500G)
silverChangeling: 467G (19.2%, 15,581G)
JCBoorgo: 204G (8.4%, 204G)
datadrivenbot: 200G (8.2%, 64,274G)
getthemoneyz: 194G (8.0%, 1,677,951G)
Mao420: 160G (6.6%, 2,379G)
gorgewall: 101G (4.2%, 5,525G)
AllInBot: 100G (4.1%, 100G)
