Final Bets: green - 8 bets for 4,214G (51.5%, x0.94); yellow - 12 bets for 3,961G (48.5%, x1.06)

green bets:
Dexsana: 1,500G (35.6%, 5,151G)
getthemoneyz: 778G (18.5%, 668,907G)
imafella: 622G (14.8%, 2,488G)
JumbocactuarX27: 548G (13.0%, 548G)
BirbBrainsBot: 426G (10.1%, 68,394G)
otakutaylor: 200G (4.7%, 3,234G)
Conome: 100G (2.4%, 8,340G)
roqqqpsi: 40G (0.9%, 4,080G)

yellow bets:
rocl: 1,000G (25.2%, 53,803G)
ungabunga_bot: 1,000G (25.2%, 488,695G)
Lokenwow: 620G (15.7%, 620G)
foofermoofer: 263G (6.6%, 263G)
SuicideKing_XIX: 200G (5.0%, 4,474G)
LeoNightFury: 200G (5.0%, 2,750G)
Zachara: 178G (4.5%, 85,078G)
Aestheta: 100G (2.5%, 1,221G)
ko2q: 100G (2.5%, 1,627G)
datadrivenbot: 100G (2.5%, 19,089G)
rjA0zcOQ96: 100G (2.5%, 7,350G)
Arkreaver: 100G (2.5%, 14,351G)
