Final Bets: white - 15 bets for 3,822G (23.3%, x3.30); black - 19 bets for 12,605G (76.7%, x0.30)

white bets:
Lodrak: 528G (13.8%, 528G)
SeedSC: 420G (11.0%, 246,269G)
MoonSlayerRS: 416G (10.9%, 416G)
BirbBrainsBot: 340G (8.9%, 13,959G)
NovaKnight21: 300G (7.8%, 9,029G)
CapnChaos12: 300G (7.8%, 8,332G)
getthemoneyz: 278G (7.3%, 454,233G)
proper__noun__: 252G (6.6%, 252G)
alrightbye: 200G (5.2%, 6,952G)
Devon_Riley: 200G (5.2%, 981G)
ZephyrTempest: 188G (4.9%, 42,041G)
lastly: 100G (2.6%, 7,247G)
SeniorBunk: 100G (2.6%, 1,841G)
wollise89: 100G (2.6%, 1,251G)
CorpusCav: 100G (2.6%, 9,168G)

black bets:
Lanshaft: 2,530G (20.1%, 2,530G)
Lord_Burrah: 1,604G (12.7%, 83,604G)
Shakarak: 1,323G (10.5%, 1,323G)
JIDkomu: 1,234G (9.8%, 1,234G)
upvla: 1,219G (9.7%, 7,753G)
kai_shee: 1,001G (7.9%, 121,344G)
Laserman1000: 517G (4.1%, 10,817G)
Pie108: 500G (4.0%, 12,257G)
Draconis345: 500G (4.0%, 2,552G)
kingchadking: 472G (3.7%, 472G)
TheGuesty: 350G (2.8%, 2,408G)
Bulleta: 300G (2.4%, 6,838G)
LavyWays: 300G (2.4%, 25,642G)
Jennero: 300G (2.4%, 1,676G)
SeriousFaceFace: 200G (1.6%, 2,418G)
AllInBot: 100G (0.8%, 100G)
friendsquirrel: 100G (0.8%, 8,444G)
tmo50x: 50G (0.4%, 2,186G)
ko2q: 5G (0.0%, 7,784G)
