Final Bets: purple - 9 bets for 7,625G (37.8%, x1.65); brown - 24 bets for 12,564G (62.2%, x0.61)

purple bets:
Lanshaft: 3,297G (43.2%, 3,297G)
TheChainNerd: 1,000G (13.1%, 7,574G)
upvla: 876G (11.5%, 8,123G)
Lodrak: 528G (6.9%, 528G)
ColetteMSLP: 500G (6.6%, 13,399G)
friendsquirrel: 474G (6.2%, 8,464G)
Jeeboheebo: 464G (6.1%, 464G)
Cryptopsy70: 356G (4.7%, 11,183G)
AllInBot: 130G (1.7%, 130G)

brown bets:
sinnyil2: 1,632G (13.0%, 3,265G)
JumbocactuarX27: 1,157G (9.2%, 2,315G)
getthemoneyz: 1,000G (8.0%, 453,955G)
Lord_Burrah: 1,000G (8.0%, 84,094G)
BirbBrainsBot: 1,000G (8.0%, 13,619G)
LDSkinny: 1,000G (8.0%, 8,633G)
Aurilliux: 784G (6.2%, 784G)
Laserman1000: 574G (4.6%, 10,974G)
Pie108: 500G (4.0%, 12,409G)
Draconis345: 500G (4.0%, 2,704G)
TheManInPlaid: 473G (3.8%, 947G)
TheGuesty: 414G (3.3%, 2,514G)
kekkerscrew: 400G (3.2%, 3,695G)
ZephyrTempest: 328G (2.6%, 41,853G)
Devon_Riley: 300G (2.4%, 781G)
SeriousFaceFace: 300G (2.4%, 2,479G)
proper__noun__: 252G (2.0%, 252G)
ko2q: 200G (1.6%, 7,786G)
urieltheflameofgod: 200G (1.6%, 2,943G)
Bulleta: 150G (1.2%, 6,929G)
maakur_: 100G (0.8%, 4,278G)
UFOCATCHERDAILY: 100G (0.8%, 1,090G)
wollise89: 100G (0.8%, 1,151G)
Slowbrofist: 100G (0.8%, 4,734G)
