Final Bets: purple - 5 bets for 2,300G (32.7%, x2.06); brown - 15 bets for 4,739G (67.3%, x0.49)

purple bets:
NIghtdew14: 734G (31.9%, 734G)
randgridr: 600G (26.1%, 600G)
dogsandcatsand: 500G (21.7%, 99,664G)
DesertWooder: 250G (10.9%, 1,810G)
Dragon_RW: 216G (9.4%, 216G)

brown bets:
BirbBrainsBot: 1,000G (21.1%, 12,749G)
VolgraTheMoose: 612G (12.9%, 612G)
E_Ballard: 504G (10.6%, 504G)
SephDarkheart: 448G (9.5%, 5,365G)
ShintaroNayaka: 316G (6.7%, 316G)
nok____: 300G (6.3%, 300G)
twelfthrootoftwo: 300G (6.3%, 3,428G)
Galeronis: 265G (5.6%, 377G)
xBizzy: 248G (5.2%, 1,655G)
AllInBot: 200G (4.2%, 200G)
datadrivenbot: 200G (4.2%, 47,546G)
roqqqpsi: 128G (2.7%, 856G)
dinin991: 100G (2.1%, 1,347G)
Error72: 100G (2.1%, 3,504G)
getthemoneyz: 18G (0.4%, 1,515,418G)
