Final Bets: white - 5 bets for 2,144G (21.0%, x3.75); brown - 17 bets for 8,050G (79.0%, x0.27)

white bets:
JumbocactuarX27: 1,000G (46.6%, 34,772G)
RaIshtar: 328G (15.3%, 328G)
Galeronis: 300G (14.0%, 300G)
DesertWooder: 300G (14.0%, 2,487G)
Dragon_RW: 216G (10.1%, 216G)

brown bets:
BoneMiser: 1,015G (12.6%, 1,015G)
maximumcrit: 1,000G (12.4%, 4,555G)
BirbBrainsBot: 1,000G (12.4%, 12,234G)
AllInBot: 848G (10.5%, 848G)
VolgraTheMoose: 616G (7.7%, 616G)
randgridr: 600G (7.5%, 600G)
getthemoneyz: 498G (6.2%, 1,514,475G)
SephDarkheart: 448G (5.6%, 5,582G)
roqqqpsi: 412G (5.1%, 1,178G)
ShintaroNayaka: 339G (4.2%, 339G)
NIghtdew14: 300G (3.7%, 300G)
twelfthrootoftwo: 300G (3.7%, 3,274G)
datadrivenbot: 200G (2.5%, 47,443G)
holdenmagronik: 150G (1.9%, 1,641G)
latebit: 124G (1.5%, 124G)
Error72: 100G (1.2%, 1,777G)
Bongomon7: 100G (1.2%, 4,381G)
