Final Bets: white - 31 bets for 58,188G (15.5%, x5.47); black - 8 bets for 318,417G (84.5%, x0.18)

white bets:
DuraiPapers: 10,000G (17.2%, 50,820G)
YaBoy125: 5,991G (10.3%, 39,941G)
Digitalsocrates: 5,823G (10.0%, 10,588G)
Lythe_Caraker: 5,000G (8.6%, 99,769G)
evdoggity: 4,000G (6.9%, 64,770G)
GladiatorLupe: 3,478G (6.0%, 3,478G)
sinnyil2: 3,226G (5.5%, 6,453G)
CosmicTactician: 3,000G (5.2%, 24,150G)
alecttox: 2,000G (3.4%, 34,058G)
Hamborn: 2,000G (3.4%, 90,912G)
reinoe: 2,000G (3.4%, 7,979G)
KonzeraLive: 1,543G (2.7%, 1,543G)
EnemyController: 1,234G (2.1%, 1,267,248G)
Arcblazer23: 1,209G (2.1%, 1,209G)
gorgewall: 1,001G (1.7%, 9,165G)
Tithonus: 1,000G (1.7%, 1,802G)
Evewho: 1,000G (1.7%, 5,394G)
prince_rogers_nelson_: 600G (1.0%, 600G)
DLJuggernaut: 519G (0.9%, 519G)
loveyouallfriends: 500G (0.9%, 5,094G)
Moshyhero: 500G (0.9%, 5,296G)
ColetteMSLP: 440G (0.8%, 440G)
MagicBottle: 436G (0.7%, 436G)
getthemoneyz: 404G (0.7%, 1,044,404G)
superdevon1: 304G (0.5%, 304G)
twelfthrootoftwo: 300G (0.5%, 1,535G)
Spuzzmocker: 280G (0.5%, 1,259G)
Arashii85: 100G (0.2%, 100G)
datadrivenbot: 100G (0.2%, 48,764G)
SuzakuReii: 100G (0.2%, 1,746G)
placidphoenix: 100G (0.2%, 3,306G)

black bets:
BirbBrainsBot: 202,743G (63.7%, 202,743G)
SkylerBunny: 100,000G (31.4%, 538,186G)
Mesmaster: 10,000G (3.1%, 50,493G)
Laserman1000: 2,000G (0.6%, 4,000G)
HaateXIII: 1,625G (0.5%, 3,250G)
OneHundredFists: 1,249G (0.4%, 1,249G)
DudeMonkey77: 500G (0.2%, 21,796G)
Grandlanzer: 300G (0.1%, 18,940G)
