Final Bets: blue - 8 bets for 385,842G (74.7%, x0.34); yellow - 41 bets for 130,743G (25.3%, x2.95)

blue bets:
BirbBrainsBot: 373,702G (96.9%, 373,702G)
SkylerBunny: 5,000G (1.3%, 556,460G)
reinoe: 2,989G (0.8%, 5,979G)
Laserman1000: 2,139G (0.6%, 2,139G)
Zetchryn: 1,000G (0.3%, 7,020G)
Oreo_Pizza: 500G (0.1%, 6,828G)
Arcblazer23: 312G (0.1%, 312G)
KasugaiRoastedPeas: 200G (0.1%, 15,002G)

yellow bets:
EnemyController: 30,000G (22.9%, 1,254,903G)
Hasterious: 27,410G (21.0%, 27,410G)
DuraiPapers: 10,000G (7.6%, 30,820G)
Mesmaster: 10,000G (7.6%, 42,320G)
YaBoy125: 6,790G (5.2%, 27,160G)
Thyrandaal: 6,489G (5.0%, 6,489G)
alecttox: 6,000G (4.6%, 27,658G)
Lythe_Caraker: 5,000G (3.8%, 94,769G)
Moshyhero: 4,296G (3.3%, 4,296G)
CosmicTactician: 3,000G (2.3%, 16,150G)
Hamborn: 2,000G (1.5%, 86,912G)
HaateXIII: 1,774G (1.4%, 1,774G)
moocaotao: 1,512G (1.2%, 3,025G)
OneHundredFists: 1,477G (1.1%, 1,477G)
Shalloween: 1,400G (1.1%, 38,869G)
gorgewall: 1,001G (0.8%, 7,663G)
ruleof5: 1,000G (0.8%, 28,312G)
Evewho: 1,000G (0.8%, 3,394G)
NovaKnight21: 1,000G (0.8%, 4,051G)
Grandlanzer: 1,000G (0.8%, 17,995G)
loveyouallfriends: 1,000G (0.8%, 3,094G)
Oobs56: 1,000G (0.8%, 14,393G)
sinnyil2: 872G (0.7%, 872G)
DudeMonkey77: 672G (0.5%, 672G)
prince_rogers_nelson_: 600G (0.5%, 600G)
Digitalsocrates: 588G (0.4%, 588G)
ANFz: 484G (0.4%, 484G)
MagicBottle: 436G (0.3%, 436G)
twelfthrootoftwo: 380G (0.3%, 380G)
Tithonus: 320G (0.2%, 320G)
KonzeraLive: 320G (0.2%, 320G)
DLJuggernaut: 308G (0.2%, 308G)
superdevon1: 304G (0.2%, 304G)
GladiatorLupe: 288G (0.2%, 288G)
Spuzzmocker: 280G (0.2%, 280G)
Shoosler: 270G (0.2%, 270G)
getthemoneyz: 122G (0.1%, 1,043,722G)
placidphoenix: 100G (0.1%, 3,106G)
Arashii85: 100G (0.1%, 100G)
datadrivenbot: 100G (0.1%, 48,564G)
slickdang: 50G (0.0%, 310G)
