Final Bets: white - 24 bets for 19,554G (56.9%, x0.76); black - 10 bets for 14,810G (43.1%, x1.32)

white bets:
Mesmaster: 3,000G (15.3%, 47,950G)
killth3kid: 2,000G (10.2%, 63,918G)
Mtueni: 2,000G (10.2%, 246,645G)
DustBirdEX: 1,735G (8.9%, 1,735G)
Laserman1000: 1,634G (8.4%, 77,734G)
BirbBrainsBot: 1,000G (5.1%, 176,582G)
Lionhermit: 1,000G (5.1%, 31,600G)
JumbocactuarX27: 1,000G (5.1%, 22,130G)
edgehead62888: 1,000G (5.1%, 5,309G)
Anomandaris__: 1,000G (5.1%, 9,807G)
catfashions: 868G (4.4%, 868G)
getthemoneyz: 694G (3.5%, 613,114G)
elelor: 521G (2.7%, 521G)
Lydian_C: 420G (2.1%, 8,619G)
TheChainNerd: 392G (2.0%, 392G)
Estan_AD: 324G (1.7%, 324G)
PetitFoulard: 248G (1.3%, 248G)
roofiepops: 122G (0.6%, 7,301G)
maakur_: 100G (0.5%, 114,837G)
vampyreinabox: 100G (0.5%, 1,567G)
Tougou: 100G (0.5%, 7,191G)
Bioticism: 100G (0.5%, 8,260G)
datadrivenbot: 100G (0.5%, 11,090G)
ZephyrTempest: 96G (0.5%, 1,920G)

black bets:
HaateXIII: 3,473G (23.5%, 6,810G)
GreatRedDragon: 2,985G (20.2%, 32,985G)
mayfu: 2,599G (17.5%, 45,638G)
Pie108: 2,000G (13.5%, 201,339G)
sinnyil2: 1,300G (8.8%, 33,167G)
ungabunga_bot: 1,000G (6.8%, 296,600G)
DeathTaxesAndAnime: 644G (4.3%, 644G)
CoderCalamity: 453G (3.1%, 1,510G)
ACSpree: 256G (1.7%, 256G)
nifboy: 100G (0.7%, 7,221G)
