Final Bets: white - 4 bets for 2,146G (27.7%, x2.61); purple - 8 bets for 5,604G (72.3%, x0.38)

white bets:
killth3kid: 1,226G (57.1%, 122,634G)
YaBoy125: 420G (19.6%, 2,798G)
Magicandy: 300G (14.0%, 28,737G)
datadrivenbot: 200G (9.3%, 53,617G)

purple bets:
DustBirdEX: 2,695G (48.1%, 2,695G)
BirbBrainsBot: 1,000G (17.8%, 167,287G)
serperemagus: 500G (8.9%, 30,559G)
Dexsana: 464G (8.3%, 464G)
ColetteMSLP: 300G (5.4%, 2,958G)
getthemoneyz: 294G (5.2%, 1,170,858G)
Lythe_Caraker: 250G (4.5%, 144,768G)
gorgewall: 101G (1.8%, 5,146G)
