Final Bets: green - 16 bets for 11,281G (76.3%, x0.31); yellow - 12 bets for 3,504G (23.7%, x3.22)

green bets:
leakimiko: 4,565G (40.5%, 4,565G)
HaplessOne: 1,500G (13.3%, 74,277G)
reinoe: 1,000G (8.9%, 25,333G)
datadrivenbot: 857G (7.6%, 9,774G)
mirapoix: 592G (5.2%, 592G)
rocl: 500G (4.4%, 69,529G)
lijarkh: 500G (4.4%, 6,200G)
HASTERIOUS: 336G (3.0%, 336G)
AllInBot: 304G (2.7%, 304G)
Primeval_33: 300G (2.7%, 600G)
Zxpr0jk: 200G (1.8%, 200G)
Reiniku: 200G (1.8%, 2,616G)
ungabunga_bot: 127G (1.1%, 123,009G)
jame3200: 100G (0.9%, 1,000G)
AerodyneX: 100G (0.9%, 1,000G)
Lythe_Caraker: 100G (0.9%, 99,833G)

yellow bets:
superdevon1: 558G (15.9%, 5,583G)
Wesablo: 500G (14.3%, 4,137G)
Nocturnal_Perspective: 500G (14.3%, 9,657G)
Arunic: 500G (14.3%, 13,576G)
BirbBrainsBot: 405G (11.6%, 113,872G)
Chuckolator: 231G (6.6%, 7,877G)
Evewho: 200G (5.7%, 6,239G)
skysa250: 200G (5.7%, 12,238G)
getthemoneyz: 164G (4.7%, 484,022G)
Rethera_: 120G (3.4%, 120G)
thevilmen: 116G (3.3%, 116G)
potgodtopdog: 10G (0.3%, 1,768G)
