Final Bets: red - 15 bets for 8,532G (44.6%, x1.24); blue - 16 bets for 10,606G (55.4%, x0.80)

red bets:
DeathTaxesAndAnime: 3,212G (37.6%, 6,299G)
AllInBot: 1,327G (15.6%, 1,327G)
BirbBrainsBot: 1,000G (11.7%, 32,137G)
CassiePhoenix: 612G (7.2%, 612G)
seppu777: 333G (3.9%, 1,981G)
Humble_Fabio: 256G (3.0%, 256G)
YowaneHaku: 232G (2.7%, 232G)
Rhyser76: 228G (2.7%, 228G)
resjudicata3: 200G (2.3%, 4,509G)
Evewho: 200G (2.3%, 63,725G)
xXTysongXx: 200G (2.3%, 200G)
NicoSavoy: 200G (2.3%, 142,480G)
datadrivenbot: 200G (2.3%, 83,463G)
ValensEXP_: 200G (2.3%, 26,003G)
Deeps_one: 132G (1.5%, 132G)

blue bets:
verythinice: 4,555G (42.9%, 8,932G)
Mushufasa_: 1,234G (11.6%, 61,939G)
Zachara: 1,000G (9.4%, 1,000G)
Chihuahua_Charity: 750G (7.1%, 51,797G)
HaplessOne: 666G (6.3%, 10,560G)
ColetteMSLP: 532G (5.0%, 13,347G)
Treafa: 400G (3.8%, 4,569G)
Lolthsmeat: 376G (3.5%, 376G)
Musashi45: 304G (2.9%, 1,341G)
b0lt: 224G (2.1%, 7,259G)
gorgewall: 101G (1.0%, 7,357G)
JethroThrul: 100G (0.9%, 2,025G)
heropong: 100G (0.9%, 2,567G)
TheBrett: 100G (0.9%, 27,782G)
WireLord: 100G (0.9%, 1,205G)
getthemoneyz: 64G (0.6%, 2,208,896G)
