Final Bets: green - 10 bets for 8,160G (56.5%, x0.77); black - 14 bets for 6,292G (43.5%, x1.30)

green bets:
Forkmore: 2,000G (24.5%, 31,396G)
Nizaha: 1,953G (23.9%, 3,907G)
dogsandcatsand: 1,801G (22.1%, 7,207G)
KyleWonToLiveForever: 707G (8.7%, 707G)
benticore: 464G (5.7%, 464G)
killth3kid: 444G (5.4%, 7,592G)
Miku_Shikhu: 300G (3.7%, 10,716G)
Finewax: 291G (3.6%, 291G)
maakur_: 100G (1.2%, 74,610G)
E_Ballard: 100G (1.2%, 15,259G)

black bets:
UmaiJam: 1,400G (22.3%, 48,760G)
BirbBrainsBot: 1,000G (15.9%, 163,169G)
reinoe: 1,000G (15.9%, 10,643G)
DudeMonkey77: 1,000G (15.9%, 9,488G)
TheChainNerd: 707G (11.2%, 7,073G)
CapnChaos12: 300G (4.8%, 5,348G)
gorgewall: 201G (3.2%, 29,042G)
DaKoopa49: 156G (2.5%, 1,372G)
ChaoreLance: 104G (1.7%, 104G)
CosmicTactician: 100G (1.6%, 24,240G)
DeathTaxesAndAnime: 100G (1.6%, 1,566G)
datadrivenbot: 100G (1.6%, 47,716G)
getthemoneyz: 74G (1.2%, 1,113,752G)
Aquios_: 50G (0.8%, 915G)
