Final Bets: green - 17 bets for 13,933G (56.2%, x0.78); champion - 25 bets for 10,837G (43.8%, x1.29)

green bets:
volgrathemoose: 3,493G (25.1%, 6,987G)
ShintaroNayaka: 2,170G (15.6%, 4,526G)
fluffywormhole: 1,276G (9.2%, 1,276G)
mpghappiness: 1,001G (7.2%, 26,977G)
EnemyController: 1,000G (7.2%, 320,107G)
BirbBrainsBot: 1,000G (7.2%, 120,617G)
Error72: 1,000G (7.2%, 3,566G)
killth3kid: 500G (3.6%, 13,468G)
AkiriXx: 443G (3.2%, 443G)
AllInBot: 420G (3.0%, 420G)
fenaen: 400G (2.9%, 2,665G)
twelfthrootoftwo: 300G (2.2%, 35,603G)
Breakdown777: 300G (2.2%, 5,143G)
nifboy: 250G (1.8%, 8,156G)
Estan_AD: 180G (1.3%, 1,522G)
FoeSquirrel: 100G (0.7%, 1,642G)
Evewho: 100G (0.7%, 8,921G)

champion bets:
Maldoree: 1,116G (10.3%, 1,116G)
Baron_von_Scrub: 1,111G (10.3%, 15,139G)
HaplessOne: 1,111G (10.3%, 234,489G)
moocaotao: 905G (8.4%, 1,811G)
ThePineappleSalesman: 828G (7.6%, 828G)
OneHundredFists: 657G (6.1%, 657G)
serperemagus: 628G (5.8%, 628G)
UmaiJam: 623G (5.7%, 623G)
benticore: 581G (5.4%, 581G)
TheGuesty: 500G (4.6%, 41,123G)
Lanshaft: 404G (3.7%, 1,802G)
HASTERIOUS: 379G (3.5%, 7,596G)
SQUiDSQUARKLIN: 300G (2.8%, 2,604G)
aeonicvector: 300G (2.8%, 633G)
Andrain: 300G (2.8%, 1,305G)
skillomono: 300G (2.8%, 8,517G)
gorgewall: 201G (1.9%, 14,102G)
Milkman153: 125G (1.2%, 125G)
cloud92684: 116G (1.1%, 116G)
CorpusCav: 100G (0.9%, 21,306G)
datadrivenbot: 100G (0.9%, 22,614G)
d4rr1n: 100G (0.9%, 1,843G)
getthemoneyz: 30G (0.3%, 701,197G)
daveb_: 12G (0.1%, 2,574G)
ZZ_Yoshi: 10G (0.1%, 22,842G)
