Final Bets: purple - 14 bets for 13,019G (72.4%, x0.38); brown - 11 bets for 4,955G (27.6%, x2.63)

purple bets:
toka222: 10,000G (76.8%, 119,952G)
EnemyController: 500G (3.8%, 475,113G)
Oobs56: 500G (3.8%, 4,384G)
getthemoneyz: 454G (3.5%, 800,805G)
Saldarin: 312G (2.4%, 312G)
brokenknight201: 244G (1.9%, 244G)
pplvee1: 232G (1.8%, 232G)
KasugaiRoastedPeas: 200G (1.5%, 741G)
conradharlock: 136G (1.0%, 136G)
CosmicTactician: 100G (0.8%, 5,223G)
TheMM42: 100G (0.8%, 11,388G)
Flameatron: 100G (0.8%, 6,236G)
red_celt: 100G (0.8%, 1,683G)
BirbBrainsBot: 41G (0.3%, 155,646G)

brown bets:
E_Ballard: 2,237G (45.1%, 2,237G)
rechaun: 1,102G (22.2%, 1,102G)
eudes89: 500G (10.1%, 5,911G)
RaIshtar: 288G (5.8%, 288G)
gogofromtogo: 200G (4.0%, 3,017G)
Lydian_C: 120G (2.4%, 3,526G)
Belkra: 108G (2.2%, 108G)
valentimari: 100G (2.0%, 1,361G)
TinchoT: 100G (2.0%, 7,759G)
Grandlanzer: 100G (2.0%, 9,797G)
datadrivenbot: 100G (2.0%, 31,790G)
