Final Bets: green - 7 bets for 9,318G (44.2%, x1.26); black - 23 bets for 11,742G (55.8%, x0.79)

green bets:
nifboy: 6,520G (70.0%, 13,040G)
Evewho: 1,365G (14.6%, 1,365G)
Belkra: 531G (5.7%, 531G)
OneHundredFists: 308G (3.3%, 308G)
joewcarson: 300G (3.2%, 4,487G)
nok____: 194G (2.1%, 15,494G)
red_celt: 100G (1.1%, 1,744G)

black bets:
skillomono: 1,897G (16.2%, 1,897G)
LDSkinny: 1,269G (10.8%, 2,538G)
Sinasta: 1,173G (10.0%, 1,273G)
BirbBrainsBot: 1,000G (8.5%, 153,605G)
proper__noun__: 985G (8.4%, 6,570G)
NovaKnight21: 883G (7.5%, 883G)
getthemoneyz: 628G (5.3%, 799,682G)
Mokura3rd: 544G (4.6%, 544G)
brokenknight201: 538G (4.6%, 538G)
NIghtdew14: 500G (4.3%, 4,486G)
Oobs56: 400G (3.4%, 4,452G)
Saldarin: 312G (2.7%, 312G)
CapnChaos12: 300G (2.6%, 17,479G)
conradharlock: 300G (2.6%, 300G)
gogofromtogo: 200G (1.7%, 3,413G)
zepharoth89: 148G (1.3%, 2,966G)
Lydian_C: 120G (1.0%, 3,601G)
Tougou: 100G (0.9%, 3,520G)
CosmicTactician: 100G (0.9%, 5,086G)
Grandlanzer: 100G (0.9%, 10,149G)
datadrivenbot: 100G (0.9%, 32,151G)
FoeSquirrel: 100G (0.9%, 5,480G)
8PercentErik: 45G (0.4%, 246G)
