Final Bets: green - 9 bets for 8,123G (43.3%, x1.31); yellow - 16 bets for 10,655G (56.7%, x0.76)

green bets:
Lydian_C: 2,400G (29.5%, 143,900G)
Shakarak: 1,823G (22.4%, 1,823G)
HaplessOne: 1,500G (18.5%, 126,629G)
SWATb1gdog: 1,250G (15.4%, 21,150G)
ungabunga_bot: 696G (8.6%, 191,778G)
DontBackseatGame: 204G (2.5%, 204G)
AllInBot: 100G (1.2%, 100G)
Kothn: 100G (1.2%, 2,509G)
ParadiseNinja: 50G (0.6%, 824G)

yellow bets:
DarrenDinosaurs: 2,000G (18.8%, 5,157G)
sinnyil2: 1,500G (14.1%, 149,351G)
gorgewall: 1,000G (9.4%, 9,711G)
BirbBrainsBot: 1,000G (9.4%, 107,309G)
leakimiko: 682G (6.4%, 6,201G)
upvla: 678G (6.4%, 7,867G)
getthemoneyz: 640G (6.0%, 542,010G)
NovaKnight21: 628G (5.9%, 1,257G)
R_Raynos: 625G (5.9%, 625G)
ColetteMSLP: 500G (4.7%, 28,446G)
reinoe: 500G (4.7%, 7,384G)
Mikumari12: 362G (3.4%, 362G)
Estan_AD: 240G (2.3%, 240G)
placeholdercats: 100G (0.9%, 1,066G)
datadrivenbot: 100G (0.9%, 209G)
Evewho: 100G (0.9%, 926G)
