Final Bets: white - 15 bets for 24,445G (76.6%, x0.31); black - 12 bets for 7,474G (23.4%, x3.27)

white bets:
HaplessOne: 5,751G (23.5%, 5,751G)
Mesmaster: 5,455G (22.3%, 10,910G)
Phytik: 5,000G (20.5%, 15,276G)
sinnyil2: 2,084G (8.5%, 4,169G)
Chrysaors: 1,329G (5.4%, 33,243G)
leakimiko: 1,231G (5.0%, 1,231G)
ColetteMSLP: 700G (2.9%, 39,238G)
cgMcWhiskers: 655G (2.7%, 655G)
Lydian_C: 596G (2.4%, 596G)
RyuTsuno: 503G (2.1%, 503G)
Scotty297: 500G (2.0%, 3,316G)
Anethum: 300G (1.2%, 1,256G)
ungabunga_bot: 141G (0.6%, 286,350G)
AllInBot: 100G (0.4%, 100G)
datadrivenbot: 100G (0.4%, 10,340G)

black bets:
DeathTaxesAndAnime: 3,778G (50.5%, 7,409G)
BirbBrainsBot: 1,000G (13.4%, 105,398G)
solomongrundy85: 500G (6.7%, 16,069G)
superdevon1: 500G (6.7%, 20,078G)
KasugaiRoastedPeas: 500G (6.7%, 27,769G)
PotionDweller: 316G (4.2%, 316G)
midori_ribbon: 232G (3.1%, 232G)
vorap: 200G (2.7%, 22,911G)
getthemoneyz: 148G (2.0%, 604,706G)
crimsonhellkite666: 100G (1.3%, 9,006G)
Evewho: 100G (1.3%, 12,788G)
Dymntd: 100G (1.3%, 17,290G)
