Final Bets: red - 16 bets for 13,715G (54.8%, x0.82); blue - 14 bets for 11,293G (45.2%, x1.21)

red bets:
AllInBot: 5,356G (39.1%, 5,356G)
coralreeferz: 2,408G (17.6%, 2,408G)
Brainstew29: 1,000G (7.3%, 10,499G)
Aldrammech: 1,000G (7.3%, 60,164G)
E_Ballard: 752G (5.5%, 752G)
superdevon1: 608G (4.4%, 30,435G)
killth3kid: 580G (4.2%, 12,412G)
kahjeethaswares: 443G (3.2%, 443G)
Treafa: 336G (2.4%, 1,969G)
neocarbuncle: 282G (2.1%, 282G)
Wooplestein: 224G (1.6%, 224G)
datadrivenbot: 200G (1.5%, 43,997G)
Lemonjohns: 200G (1.5%, 3,596G)
Radiance89: 176G (1.3%, 176G)
ArlanKels: 100G (0.7%, 1,213G)
TheGrizz113: 50G (0.4%, 183G)

blue bets:
UmaiJam: 2,000G (17.7%, 48,646G)
VolgraTheMoose: 1,820G (16.1%, 3,640G)
Thyrandaal: 1,444G (12.8%, 115,586G)
BirbBrainsBot: 1,000G (8.9%, 79,851G)
reinoe: 1,000G (8.9%, 86,386G)
douchetron: 763G (6.8%, 1,498G)
Forkmore: 684G (6.1%, 684G)
mpghappiness: 600G (5.3%, 600G)
Lanshaft: 532G (4.7%, 29,550G)
getthemoneyz: 486G (4.3%, 1,459,188G)
dem0nj0ns: 300G (2.7%, 3,745G)
Chambs12: 252G (2.2%, 2,368G)
TheseJeans: 212G (1.9%, 212G)
Rytor: 200G (1.8%, 5,238G)
