Final Bets: green - 14 bets for 9,039G (63.9%, x0.56); brown - 11 bets for 5,107G (36.1%, x1.77)

green bets:
gorgewall: 2,121G (23.5%, 2,121G)
reinoe: 2,000G (22.1%, 84,435G)
douchetron: 1,043G (11.5%, 1,043G)
kahjeethaswares: 1,038G (11.5%, 1,038G)
pplvee1: 949G (10.5%, 949G)
superdevon1: 678G (7.5%, 33,943G)
AllInBot: 200G (2.2%, 200G)
datadrivenbot: 200G (2.2%, 44,414G)
hiros13gts: 200G (2.2%, 979G)
neocarbuncle: 160G (1.8%, 160G)
ArlanKels: 150G (1.7%, 1,646G)
Firesheath: 100G (1.1%, 6,947G)
TheGrizz113: 100G (1.1%, 455G)
ANFz: 100G (1.1%, 58,327G)

brown bets:
Shalloween: 1,200G (23.5%, 17,973G)
BirbBrainsBot: 1,000G (19.6%, 80,563G)
E_Ballard: 752G (14.7%, 752G)
VolgraTheMoose: 630G (12.3%, 1,261G)
dem0nj0ns: 500G (9.8%, 4,205G)
getthemoneyz: 322G (6.3%, 1,456,404G)
rednecknazgul: 232G (4.5%, 232G)
Radiance89: 200G (3.9%, 782G)
roofiepops: 123G (2.4%, 17,140G)
Thyrandaal: 100G (2.0%, 118,243G)
dtrain332: 48G (0.9%, 4,884G)
