High Risers:
1. Runeseeker22: +6,513G
2. Volgrathemoose: +5,523G
3. Latebit: +2,096G
4. Douchetron: +1,844G
5. Dogsandcatsand: +1,667G
6. Krombobreaker: +1,564G
7. Mirapoix: +1,478G
8. Zerguzen: +1,378G
9. Corpuscav: +1,173G
10. Lazlodamus: +912G
11. Laserman1000: +911G
12. Runicmagus: +672G
13. Memoriesoffinal: +640G
14. Tripaplex: +525G
15. Error72: +502G
16. Upvla: +451G
17. Capnchaos12: +446G
18. Zeroroute: +330G
19. Resjudicata3: +326G
20. Lythe_caraker: +251G
21. Misterhp: +200G
22. Gorgewall: +198G
23. Valensexp_: +159G
24. Silentkaster: +125G
25. Gilgamensche: +122G
26. Sephdarkheart: +60G
27. Chuckolator: +52G
28. Peeronid: +50G
29. Musashi45: +4G
30. Seppu777: -2G
31. Ayeayex3: -28G
32. Killth3kid: -68G
33. Actual_jp: -100G
34. Gelwain: -100G
35. Ericzubat: -175G
36. Reddwind_: -200G
37. Nhammen: -215G
38. Thyrandaal: -219G
39. Reinoe: -229G
40. Jonnycue: -298G
41. Swish604: -305G
42. Kasugairoastedpeas: -385G
43. Friendsquirrel: -400G
44. Dinin991: -400G
45. Dasutin23: -728G
46. Darrendinosaurs: -825G
47. Onehundredfists: -895G
48. Forkmore: -900G
49. Nicosavoy: -1,000G
50. Gooseyourself: -1,000G
51. Panushenko: -1,000G
52. Lijarkh: -1,000G
53. Zagorsek: -1,059G
54. Colettemslp: -1,167G
55. Farseli_: -1,400G
56. Deathtaxesandanime: -2,556G
57. Evontno: -2,760G
58. Skipsandwiches: -2,908G
59. Biske13: -3,076G
60. Notsashasia: -5,305G
