Final Bets: black - 16 bets for 7,084G (37.9%, x1.64); brown - 10 bets for 11,601G (62.1%, x0.61)

black bets:
VolgraTheMoose: 1,001G (14.1%, 7,120G)
dogsandcatsand: 1,000G (14.1%, 26,409G)
Runeseeker22: 857G (12.1%, 17,156G)
seppu777: 666G (9.4%, 18,655G)
reinoe: 660G (9.3%, 660G)
CapnChaos12: 536G (7.6%, 536G)
krombobreaker: 468G (6.6%, 468G)
Zagorsek: 444G (6.3%, 444G)
upvla: 322G (4.5%, 1,694G)
killth3kid: 250G (3.5%, 10,375G)
AllInBot: 200G (2.8%, 200G)
datadrivenbot: 200G (2.8%, 61,250G)
getthemoneyz: 180G (2.5%, 1,969,228G)
MemoriesofFinal: 100G (1.4%, 26,323G)
DeathTaxesAndAnime: 100G (1.4%, 3,754G)
gilgamensche: 100G (1.4%, 204G)

brown bets:
evontno: 3,360G (29.0%, 3,360G)
KasugaiRoastedPeas: 1,875G (16.2%, 1,875G)
Musashi45: 1,456G (12.6%, 1,456G)
skipsandwiches: 1,001G (8.6%, 16,731G)
BirbBrainsBot: 1,000G (8.6%, 38,494G)
notsashasia: 1,000G (8.6%, 29,534G)
HaateXIII: 980G (8.4%, 980G)
resjudicata3: 479G (4.1%, 479G)
Zerguzen: 350G (3.0%, 25,467G)
nhammen: 100G (0.9%, 305,187G)
