Final Bets: red - 20 bets for 10,210G (53.2%, x0.88); blue - 17 bets for 8,993G (46.8%, x1.14)

red bets:
HaplessOne: 1,500G (14.7%, 28,747G)
lobsterlobster: 1,000G (9.8%, 4,676G)
metagameface: 1,000G (9.8%, 2,521G)
Lionhermit: 1,000G (9.8%, 52,307G)
coralreeferz: 797G (7.8%, 797G)
maakur_: 724G (7.1%, 724G)
thunderducker: 667G (6.5%, 2,353G)
Nickyfive: 556G (5.4%, 556G)
CorpusCav: 529G (5.2%, 16,877G)
killth3kid: 500G (4.9%, 7,195G)
Estan_AD: 484G (4.7%, 484G)
Kyune: 328G (3.2%, 328G)
SQUiDSQUARKLIN: 300G (2.9%, 4,140G)
ThePineappleSalesman: 200G (2.0%, 31,556G)
ANFz: 121G (1.2%, 50,172G)
monsturmilk: 104G (1.0%, 104G)
Firesheath: 100G (1.0%, 26,320G)
Legothas: 100G (1.0%, 796G)
Sykper: 100G (1.0%, 173G)
datadrivenbot: 100G (1.0%, 15,156G)

blue bets:
BirbBrainsBot: 1,000G (11.1%, 24,204G)
ungabunga_bot: 1,000G (11.1%, 483,190G)
E_Ballard: 1,000G (11.1%, 6,037G)
NicoSavoy: 1,000G (11.1%, 23,403G)
joewcarson: 569G (6.3%, 569G)
nifboy: 532G (5.9%, 532G)
OmnibotGamma: 500G (5.6%, 22,841G)
Laserman1000: 500G (5.6%, 21,600G)
Rislyeu: 500G (5.6%, 3,026G)
EnemyController: 500G (5.6%, 228,878G)
getthemoneyz: 442G (4.9%, 671,872G)
fenaen: 415G (4.6%, 415G)
TheKillerNacho: 384G (4.3%, 384G)
Nizaha: 201G (2.2%, 4,658G)
KasugaiRoastedPeas: 200G (2.2%, 2,213G)
carsenhk: 150G (1.7%, 33,527G)
Dymntd: 100G (1.1%, 1,750G)
