Final Bets: purple - 19 bets for 11,698G (68.2%, x0.47); brown - 12 bets for 5,443G (31.8%, x2.15)

purple bets:
Grimmace45: 1,571G (13.4%, 31,430G)
thunderducker: 1,372G (11.7%, 1,372G)
DavenIII: 1,100G (9.4%, 32,795G)
E_Ballard: 1,000G (8.5%, 7,277G)
Lionhermit: 1,000G (8.5%, 51,881G)
Estan_AD: 918G (7.8%, 918G)
Laserman1000: 568G (4.9%, 22,168G)
JumbocactuarX27: 532G (4.5%, 532G)
killth3kid: 500G (4.3%, 6,297G)
OmnibotGamma: 500G (4.3%, 22,413G)
ColetteMSLP: 500G (4.3%, 45,046G)
joewcarson: 400G (3.4%, 1,464G)
CorpusCav: 400G (3.4%, 16,348G)
Kyune: 328G (2.8%, 328G)
vorap: 300G (2.6%, 49,450G)
CapnChaos12: 300G (2.6%, 2,636G)
Sykper: 205G (1.8%, 205G)
ungabunga_bot: 104G (0.9%, 484,579G)
datadrivenbot: 100G (0.9%, 15,133G)

brown bets:
metagameface: 1,230G (22.6%, 1,230G)
BirbBrainsBot: 1,000G (18.4%, 24,544G)
Legothas: 716G (13.2%, 716G)
getthemoneyz: 602G (11.1%, 672,054G)
maakur_: 545G (10.0%, 545G)
EnemyController: 300G (5.5%, 229,938G)
SQUiDSQUARKLIN: 300G (5.5%, 4,073G)
Lythe_Caraker: 250G (4.6%, 122,240G)
Miyokari: 250G (4.6%, 13,552G)
nifboy: 100G (1.8%, 1,689G)
benticore: 100G (1.8%, 2,101G)
DrAntiSocial: 50G (0.9%, 13,830G)
