Final Bets: yellow - 10 bets for 4,588G (48.8%, x1.05); white - 3 bets for 4,815G (51.2%, x0.95)

yellow bets:
CorpusCav: 1,001G (21.8%, 41,774G)
BirbBrainsBot: 1,000G (21.8%, 128,004G)
getthemoneyz: 1,000G (21.8%, 785,582G)
SkyridgeZero: 500G (10.9%, 20,122G)
gary_corson: 331G (7.2%, 6,636G)
Evewho: 200G (4.4%, 3,049G)
thaetreis: 192G (4.2%, 192G)
foofermoofer: 164G (3.6%, 164G)
AlysSariel: 100G (2.2%, 2,857G)
datadrivenbot: 100G (2.2%, 30,222G)

white bets:
YaBoy125: 4,127G (85.7%, 4,127G)
Vaxaldan: 500G (10.4%, 3,817G)
serperemagus: 188G (3.9%, 188G)
