Final Bets: purple - 7 bets for 14,038G (37.1%, x1.69); brown - 21 bets for 23,772G (62.9%, x0.59)

purple bets:
AllInBot: 5,410G (38.5%, 5,410G)
TheChainNerd: 4,921G (35.1%, 4,921G)
ohhinm: 1,007G (7.2%, 1,007G)
BirbBrainsBot: 1,000G (7.1%, 181,882G)
getthemoneyz: 986G (7.0%, 1,333,481G)
SQUiDSQUARKLIN: 500G (3.6%, 20,402G)
BakuretsuLa: 214G (1.5%, 214G)

brown bets:
ShintaroNayaka: 6,378G (26.8%, 6,378G)
toka222: 5,000G (21.0%, 87,883G)
NovaKnight21: 2,000G (8.4%, 5,228G)
coralreeferz: 1,500G (6.3%, 33,776G)
Lydian_C: 1,200G (5.0%, 81,737G)
dogsandcatsand: 1,000G (4.2%, 3,679G)
LDSkinny: 1,000G (4.2%, 33,820G)
iBardic: 806G (3.4%, 806G)
fenaen: 698G (2.9%, 1,396G)
Miku_Shikhu: 504G (2.1%, 504G)
RaIshtar: 500G (2.1%, 500G)
Bongomon7: 500G (2.1%, 6,347G)
ruleof5: 500G (2.1%, 999G)
skipsandwiches: 443G (1.9%, 443G)
holdenmagronik: 423G (1.8%, 423G)
ArashiKurobara: 340G (1.4%, 3,479G)
Treafa: 280G (1.2%, 280G)
datadrivenbot: 200G (0.8%, 32,755G)
cavss: 200G (0.8%, 290G)
MattMan119: 200G (0.8%, 9,508G)
MLWebz0r: 100G (0.4%, 100G)
