High Risers:
1. Mesmaster: +7,324G
2. Nhammen: +7,047G
3. Thebluesman: +3,471G
4. Dasutin23: +3,091G
5. Galkife: +2,904G
6. Aldrammech: +2,707G
7. Forkmore: +1,860G
8. Zeroroute: +1,809G
9. Panushenko: +1,721G
10. Nicosavoy: +1,716G
11. Bigbongsmoker: +1,212G
12. Phi_sig: +1,004G
13. Deathmaker06: +1,004G
14. Lansedm: +1,000G
15. Ultimate_jed: +1,000G
16. Erivannunes55667: +1,000G
17. 3ngag3: +879G
18. Reddwind_: +700G
19. Deathtaxesandanime: +640G
20. Runicmagus: +639G
21. Pepperbuster: +595G
22. Stealthmodelocke: +500G
23. Just_here2: +500G
24. Whitetigress: +500G
25. Lijarkh: +500G
26. Chuckolator: +500G
27. Butterbelljedi: +500G
28. Captainadmiralspatula: +500G
29. Dac169: +500G
30. Highelectricaltemperature: +500G
31. Theseawolf1: +500G
32. Haatexiii: +500G
33. Lord_gwarth: +468G
34. Resjudicata3: +452G
35. Ar_tactic: +400G
36. Muffin_money: +350G
37. Altima_ys: +337G
38. Hs39: +314G
39. Colettemslp: +302G
40. Actual_jp: +300G
41. Smashy: +260G
42. Maakur_: +200G
43. Kronikle: +104G
44. Brokenknight201: +100G
45. Renanfonse: +68G
46. Holandrix: -195G
47. E_ballard: -227G
48. Dogsandcatsand: -370G
49. Brenogarwin: -425G
50. Roofiepops: -474G
51. Zadckiel: -500G
52. Killth3kid: -620G
53. Kasugairoastedpeas: -746G
54. Arumz: -865G
55. Greggernaut: -900G
56. Reinoe: -902G
57. Krombobreaker: -959G
58. Skylerbunny: -1,000G
59. Mmagnetman: -1,000G
60. Jonnycue: -1,000G
61. Leonidusx: -1,000G
62. Capnchaos12: -1,000G
63. Sairentozon7: -1,000G
64. Memoriesoffinal: -1,000G
65. Anfz: -1,100G
66. Lowlf: -1,103G
67. Corpuscav: -1,178G
68. Lydian_c: -1,458G
69. Blaster_bomb: -1,500G
70. Shalloween: -1,655G
71. Volgrathemoose: -1,720G
72. Error72: -1,900G
73. J2dabibbles: -2,134G
74. Gorgewall: -2,363G
75. Daveniii: -2,417G
76. Nizaha: -2,741G
77. Thyrandaal: -3,199G
78. Snowfats: -3,200G
