Final Bets: blue - 10 bets for 5,978G (34.7%, x1.89); green - 16 bets for 11,273G (65.3%, x0.53)

blue bets:
Aldrammech: 1,000G (16.7%, 17,443G)
BirbBrainsBot: 1,000G (16.7%, 64,350G)
Thyrandaal: 1,000G (16.7%, 52,779G)
Zeroroute: 700G (11.7%, 2,803G)
NicoSavoy: 642G (10.7%, 642G)
Shalloween: 600G (10.0%, 23,565G)
lowlf: 448G (7.5%, 448G)
poorest_hobo: 236G (3.9%, 236G)
bigbongsmoker: 200G (3.3%, 613G)
holandrix: 152G (2.5%, 152G)

green bets:
Mesmaster: 2,000G (17.7%, 108,772G)
nhammen: 1,700G (15.1%, 437,491G)
VolgraTheMoose: 1,500G (13.3%, 157,370G)
thebluesman: 1,199G (10.6%, 1,199G)
Dasutin23: 1,000G (8.9%, 29,604G)
Nizaha: 800G (7.1%, 84,522G)
dogsandcatsand: 512G (4.5%, 512G)
ColetteMSLP: 500G (4.4%, 1,699G)
Panushenko: 476G (4.2%, 476G)
pepperbuster: 355G (3.1%, 855G)
MemoriesofFinal: 318G (2.8%, 926G)
krombobreaker: 260G (2.3%, 8,243G)
resjudicata3: 200G (1.8%, 12,481G)
datadrivenbot: 200G (1.8%, 65,276G)
getthemoneyz: 130G (1.2%, 1,816,125G)
Lydian_C: 123G (1.1%, 33,587G)
