Final Bets: yellow - 15 bets for 17,735G (73.4%, x0.36); white - 13 bets for 6,429G (26.6%, x2.76)

yellow bets:
SeniorBunk: 6,495G (36.6%, 6,495G)
ko2q: 3,281G (18.5%, 6,562G)
DavenIII: 1,816G (10.2%, 3,632G)
NIghtdew14: 1,000G (5.6%, 21,622G)
Draconis345: 1,000G (5.6%, 13,518G)
BirbBrainsBot: 1,000G (5.6%, 183,201G)
oldmanbody: 771G (4.3%, 771G)
JumbocactuarX27: 596G (3.4%, 596G)
SephDarkheart: 520G (2.9%, 52,048G)
xBizzy: 434G (2.4%, 852G)
ohhinm: 234G (1.3%, 3,507G)
AllInBot: 200G (1.1%, 200G)
latebit: 188G (1.1%, 21,170G)
MinBetBot: 100G (0.6%, 22,598G)
Lillifen: 100G (0.6%, 100G)

white bets:
neerrm: 2,201G (34.2%, 2,201G)
Forkmore: 777G (12.1%, 4,699G)
Rilgon: 723G (11.2%, 7,232G)
randgridr: 700G (10.9%, 700G)
Galeronis: 545G (8.5%, 545G)
Chuckolator: 315G (4.9%, 18,861G)
foxfaeez: 220G (3.4%, 220G)
datadrivenbot: 200G (3.1%, 56,673G)
Blastinus: 200G (3.1%, 862G)
getthemoneyz: 198G (3.1%, 1,587,173G)
holdenmagronik: 150G (2.3%, 2,993G)
WillFitzgerald: 100G (1.6%, 5,248G)
RunicMagus: 100G (1.6%, 7,308G)
