Final Bets: red - 12 bets for 6,783G (40.2%, x1.49); green - 20 bets for 10,078G (59.8%, x0.67)

red bets:
TheKillerNacho: 1,904G (28.1%, 1,904G)
Virilikus: 1,000G (14.7%, 223,187G)
nhammen: 800G (11.8%, 269,537G)
lowlf: 580G (8.6%, 13,208G)
KasugaiRoastedPeas: 540G (8.0%, 540G)
roofiepops: 468G (6.9%, 468G)
AllInBot: 411G (6.1%, 411G)
resjudicata3: 388G (5.7%, 388G)
SephDarkheart: 384G (5.7%, 14,588G)
DeathTaxesAndAnime: 200G (2.9%, 2,043G)
maakur_: 100G (1.5%, 5,914G)
getthemoneyz: 8G (0.1%, 2,041,956G)

green bets:
Shalloween: 1,400G (13.9%, 20,913G)
BirbBrainsBot: 1,000G (9.9%, 46,989G)
killabandaid: 1,000G (9.9%, 1,000G)
Nizaha: 876G (8.7%, 65,266G)
douchetron: 760G (7.5%, 760G)
Error72: 738G (7.3%, 738G)
ANFz: 712G (7.1%, 712G)
krombobreaker: 700G (6.9%, 7,578G)
VolgraTheMoose: 501G (5.0%, 13,547G)
silentkaster: 400G (4.0%, 3,502G)
randgridr: 340G (3.4%, 340G)
0v3rr8d: 300G (3.0%, 14,313G)
ShadowNinja25: 300G (3.0%, 5,951G)
datadrivenbot: 200G (2.0%, 71,806G)
DanielRKnealeArt: 200G (2.0%, 1,072G)
ZephXrotH: 200G (2.0%, 411G)
dolzytwitch: 150G (1.5%, 2,544G)
gorgewall: 101G (1.0%, 6,015G)
RunicMagus: 100G (1.0%, 5,221G)
king_smashington: 100G (1.0%, 1,453G)
