High Risers:
1. Lythe_Caraker: +4,867G
2. lijarkh: +3,949G
3. 3ngag3: +3,821G
4. TheBrett: +3,556G
5. killth3kid: +3,025G
6. HorusTaurus: +2,656G
7. Shalloween: +1,992G
8. technominari: +1,681G
9. Zerguzen: +1,538G
10. Zetchryn: +1,345G
11. Laserman1000: +1,263G
12. ExplanationMarkWow: +945G
13. ColetteMSLP: +735G
14. murderclan: +640G
15. Jehudy7: +586G
16. NicoSavoy: +546G
17. FuzzyTigers: +409G
18. maakur_: +395G
19. MrJamDango: +266G
20. Snowfats: +244G
21. Phi_Sig: +205G
22. ruleof5: +175G
23. Twisted_Nutsatchel: +65G
24. OneHundredFists: +4G
25. just_here2: +4G
26. SephDarkheart: +4G
27. AbandonedHall: -34G
28. Thyrandaal: -155G
29. thunderducker: -200G
30. roofiepops: -200G
31. Grayv87: -269G
32. sect_cor: -300G
33. J2DaBibbles: -300G
34. BlackAceBB: -347G
35. mizzmoonshine: -359G
36. ValensEXP_: -363G
37. CorpusCav: -400G
38. DrAntiSocial: -428G
39. gorgewall: -466G
40. khelor_: -500G
41. J_52: -500G
42. dogsandcatsand: -529G
43. E_Ballard: -551G
44. kilrazin: -615G
45. run_with_stone_GUNs: -800G
46. krombobreaker: -871G
47. SeniorBunk: -900G
48. Runeseeker22: -1,000G
49. resjudicata3: -1,000G
50. king_smashington: -1,000G
51. DarrenDinosaurs: -1,000G
52. DHaveWord: -1,000G
53. Aldrammech: -1,000G
54. RunicMagus: -1,100G
55. DeathTaxesAndAnime: -1,111G
56. Nizaha: -1,407G
57. lowlf: -1,844G
58. coralreeferz: -1,950G
59. Evewho: -2,500G
60. old_overholt_: -2,500G
61. Smashy: -2,831G
62. VolgraTheMoose: -2,936G
63. Lolthsmeat: -3,276G
64. MemoriesofFinal: -3,300G
65. Leonidusx: -5,800G
66. YowaneHaku: -7,645G
