Final Bets: green - 15 bets for 13,677G (68.0%, x0.47); yellow - 13 bets for 6,436G (32.0%, x2.13)

green bets:
Mesmaster: 5,000G (36.6%, 48,500G)
ANFz: 2,302G (16.8%, 2,302G)
killth3kid: 1,152G (8.4%, 115,237G)
BirbBrainsBot: 1,000G (7.3%, 160,163G)
NicoSavoy: 1,000G (7.3%, 111,304G)
DeathTaxesAndAnime: 800G (5.8%, 800G)
NovaKnight21: 500G (3.7%, 33,597G)
Evewho: 500G (3.7%, 10,482G)
biffcake01: 300G (2.2%, 3,131G)
twelfthrootoftwo: 300G (2.2%, 10,936G)
Lythe_Caraker: 250G (1.8%, 143,444G)
getthemoneyz: 202G (1.5%, 1,166,614G)
CosmicTactician: 150G (1.1%, 49,777G)
Lydian_C: 121G (0.9%, 156,598G)
ChaoreLance: 100G (0.7%, 2,178G)

yellow bets:
kaidykat: 1,692G (26.3%, 169,257G)
nekojin: 1,160G (18.0%, 1,160G)
DamnThatShark: 500G (7.8%, 1,420G)
Linkn: 500G (7.8%, 7,806G)
RampagingRobot: 446G (6.9%, 3,446G)
DustBirdEX: 436G (6.8%, 436G)
superdevon1: 352G (5.5%, 352G)
RageImmortaI: 300G (4.7%, 581G)
ColetteMSLP: 300G (4.7%, 3,347G)
JethroThrul: 250G (3.9%, 836G)
KasugaiRoastedPeas: 200G (3.1%, 17,136G)
datadrivenbot: 200G (3.1%, 50,094G)
Ring_Wyrm: 100G (1.6%, 3,359G)
