Final Bets: purple - 26 bets for 14,248G (60.0%, x0.67); brown - 15 bets for 9,498G (40.0%, x1.50)

purple bets:
ACSpree: 1,421G (10.0%, 1,421G)
aStatue: 1,302G (9.1%, 1,302G)
ShintaroNayaka: 1,250G (8.8%, 1,250G)
Shakarak: 1,200G (8.4%, 10,555G)
Lionhermit: 1,000G (7.0%, 41,099G)
ColetteMSLP: 1,000G (7.0%, 42,272G)
Grimmace45: 998G (7.0%, 4,994G)
PetitFoulard: 755G (5.3%, 755G)
reinoe: 600G (4.2%, 600G)
DavenIII: 580G (4.1%, 580G)
Nickyfive: 516G (3.6%, 516G)
catfashions: 512G (3.6%, 512G)
Shalloween: 500G (3.5%, 24,860G)
ungabunga_bot: 435G (3.1%, 286,523G)
KasugaiRoastedPeas: 400G (2.8%, 26,953G)
Cryptopsy70: 380G (2.7%, 35,914G)
fenaen: 300G (2.1%, 300G)
trigger15: 200G (1.4%, 4,511G)
troublesometree: 164G (1.2%, 1,304G)
getthemoneyz: 120G (0.8%, 612,502G)
daveb_: 111G (0.8%, 3,091G)
Clydethecamel: 104G (0.7%, 104G)
Firesheath: 100G (0.7%, 11,117G)
ANFz: 100G (0.7%, 22,166G)
datadrivenbot: 100G (0.7%, 10,688G)
floopinthepig: 100G (0.7%, 1,703G)

brown bets:
sinnyil2: 1,883G (19.8%, 1,883G)
Zeroroute: 1,677G (17.7%, 1,677G)
BirbBrainsBot: 1,000G (10.5%, 136,072G)
JumbocactuarX27: 1,000G (10.5%, 18,390G)
Mesmaster: 1,000G (10.5%, 45,985G)
DeathTaxesAndAnime: 860G (9.1%, 1,688G)
DLJuggernaut: 750G (7.9%, 12,644G)
DustBirdEX: 440G (4.6%, 440G)
Nizaha: 201G (2.1%, 15,127G)
AmewTheFox: 200G (2.1%, 12,875G)
TheRylander: 200G (2.1%, 1,465G)
Sykper: 100G (1.1%, 4,017G)
CosmicTactician: 100G (1.1%, 7,550G)
ZephyrTempest: 67G (0.7%, 452G)
Bioticism: 20G (0.2%, 3,033G)
