Final Bets: red - 18 bets for 10,574G (33.8%, x1.96); blue - 21 bets for 20,684G (66.2%, x0.51)

red bets:
SkylerBunny: 1,500G (14.2%, 13,378G)
BirbBrainsBot: 1,000G (9.5%, 48,625G)
E_Ballard: 1,000G (9.5%, 5,390G)
evdoggity: 1,000G (9.5%, 86,211G)
dantayystv: 1,000G (9.5%, 3,123G)
dogsandcatsand: 873G (8.3%, 11,373G)
getthemoneyz: 754G (7.1%, 1,259,380G)
amiture: 500G (4.7%, 9,391G)
DLJuggernaut: 500G (4.7%, 3,707G)
Lanshaft: 476G (4.5%, 12,142G)
Mathlexis: 450G (4.3%, 4,710G)
prince_rogers_nelson_: 426G (4.0%, 426G)
Forkmore: 292G (2.8%, 4,208G)
TasisSai: 248G (2.3%, 248G)
Seaweed_B: 232G (2.2%, 912G)
Lydian_C: 123G (1.2%, 114,023G)
Ring_Wyrm: 100G (0.9%, 9,397G)
run_with_stone_GUNs: 100G (0.9%, 11,313G)

blue bets:
maddrave09: 5,000G (24.2%, 18,912G)
Evewho: 4,612G (22.3%, 9,044G)
SephDarkheart: 2,337G (11.3%, 2,337G)
reinoe: 1,405G (6.8%, 1,405G)
roofiepops: 1,400G (6.8%, 6,678G)
ACSpree: 1,105G (5.3%, 1,105G)
books_books: 1,000G (4.8%, 28,952G)
Laserman1000: 748G (3.6%, 28,648G)
HaateXIII: 704G (3.4%, 704G)
twelfthrootoftwo: 472G (2.3%, 472G)
Digitalsocrates: 400G (1.9%, 3,009G)
ColetteMSLP: 300G (1.5%, 4,995G)
gorgewall: 201G (1.0%, 8,107G)
datadrivenbot: 200G (1.0%, 62,466G)
lijerrr: 200G (1.0%, 499G)
nhammen: 100G (0.5%, 3,484G)
Miku_Shikhu: 100G (0.5%, 3,648G)
Andrain: 100G (0.5%, 2,690G)
fluffskull: 100G (0.5%, 1,751G)
DeathTaxesAndAnime: 100G (0.5%, 16,206G)
Aquios_: 100G (0.5%, 1,471G)
