Final Bets: red - 17 bets for 7,320G (43.3%, x1.31); blue - 17 bets for 9,601G (56.7%, x0.76)

red bets:
Aldrammech: 1,000G (13.7%, 31,712G)
BlackFireUK: 1,000G (13.7%, 11,089G)
DeathTaxesAndAnime: 910G (12.4%, 910G)
maakur_: 648G (8.9%, 648G)
killth3kid: 500G (6.8%, 15,662G)
Digitalsocrates: 500G (6.8%, 13,560G)
IndecisiveNinja: 492G (6.7%, 492G)
Baron_von_Scrub: 474G (6.5%, 34,489G)
mpghappiness: 456G (6.2%, 456G)
Grandlanzer: 304G (4.2%, 304G)
ShintaroNayaka: 300G (4.1%, 2,176G)
ivellioz: 150G (2.0%, 921G)
ar_tactic: 150G (2.0%, 60,299G)
Lydian_C: 120G (1.6%, 8,874G)
Geffro1908: 116G (1.6%, 116G)
ANFz: 100G (1.4%, 4,407G)
victoriolue: 100G (1.4%, 7,775G)

blue bets:
dogsandcatsand: 1,670G (17.4%, 1,670G)
VolgraTheMoose: 1,001G (10.4%, 6,219G)
Jeeboheebo: 1,000G (10.4%, 10,512G)
BirbBrainsBot: 1,000G (10.4%, 111,747G)
getthemoneyz: 880G (9.2%, 828,147G)
Sairentozon7: 853G (8.9%, 853G)
E_Ballard: 659G (6.9%, 659G)
Laserman1000: 532G (5.5%, 22,732G)
Rislyeu: 400G (4.2%, 8,409G)
OneHundredFists: 360G (3.7%, 360G)
IphoneDarkness: 300G (3.1%, 2,783G)
BigGlorious: 300G (3.1%, 3,090G)
HASTERIOUS: 178G (1.9%, 3,575G)
Celdia: 168G (1.7%, 168G)
Evewho: 100G (1.0%, 12,665G)
Miku_Shikhu: 100G (1.0%, 1,430G)
Milkman153: 100G (1.0%, 1,625G)
