Final Bets: black - 9 bets for 12,610G (73.5%, x0.36); purple - 13 bets for 4,556G (26.5%, x2.77)

black bets:
toka222: 3,700G (29.3%, 176,784G)
Narcius: 3,600G (28.5%, 300,235G)
dogsandcatsand: 1,441G (11.4%, 1,441G)
latebit: 1,200G (9.5%, 15,667G)
nhammen: 1,000G (7.9%, 84,843G)
Nizaha: 748G (5.9%, 9,028G)
CapnChaos12: 721G (5.7%, 721G)
AllInBot: 100G (0.8%, 100G)
Raixelol: 100G (0.8%, 5,378G)

purple bets:
douchetron: 1,184G (26.0%, 1,184G)
Zeroroute: 986G (21.6%, 986G)
joewcarson: 500G (11.0%, 12,097G)
resjudicata3: 360G (7.9%, 360G)
holdenmagronik: 356G (7.8%, 1,140G)
getthemoneyz: 346G (7.6%, 1,682,266G)
peanutvendor: 200G (4.4%, 1,464G)
datadrivenbot: 200G (4.4%, 62,172G)
gongonono: 120G (2.6%, 120G)
Bongomon7: 100G (2.2%, 2,273G)
foxfaeez: 100G (2.2%, 1,028G)
theBinklive: 53G (1.2%, 212G)
BirbBrainsBot: 51G (1.1%, 50,202G)
