Final Bets: blue - 13 bets for 12,291G (13.5%, x6.39); champion - 15 bets for 78,536G (86.5%, x0.16)

blue bets:
Thyrandaal: 3,000G (24.4%, 149,670G)
Omally_: 2,000G (16.3%, 3,164G)
Zeroroute: 1,197G (9.7%, 4,788G)
Aldrammech: 1,101G (9.0%, 1,101G)
BirbBrainsBot: 1,000G (8.1%, 106,997G)
NicoSavoy: 1,000G (8.1%, 75,523G)
DavenIII: 1,000G (8.1%, 2,077G)
fattunaking: 600G (4.9%, 1,428G)
CorpusCav: 500G (4.1%, 7,577G)
AllInBot: 359G (2.9%, 359G)
resjudicata3: 200G (1.6%, 3,801G)
Mushufasa_: 200G (1.6%, 4,225G)
getthemoneyz: 134G (1.1%, 1,769,337G)

champion bets:
poorest_hobo: 70,766G (90.1%, 70,766G)
CATDADMEOW: 1,645G (2.1%, 1,645G)
daveb_: 1,200G (1.5%, 12,613G)
BaronHaynes: 1,000G (1.3%, 80,759G)
MemoriesofFinal: 659G (0.8%, 659G)
SoLiDsmoke: 646G (0.8%, 646G)
technominari: 500G (0.6%, 75,074G)
krombobreaker: 500G (0.6%, 2,391G)
muffin_money: 450G (0.6%, 8,179G)
Lord_Gwarth: 337G (0.4%, 2,610G)
Runeseeker22: 220G (0.3%, 2,007G)
Leonidusx: 212G (0.3%, 212G)
datadrivenbot: 200G (0.3%, 59,080G)
gorgewall: 101G (0.1%, 2,327G)
Finewax: 100G (0.1%, 2,027G)
