Final Bets: green - 15 bets for 7,212G (28.2%, x2.55); purple - 25 bets for 18,379G (71.8%, x0.39)

green bets:
CCRUNNER149UWP: 1,108G (15.4%, 1,108G)
ungabunga_bot: 1,000G (13.9%, 154,510G)
BirbBrainsBot: 1,000G (13.9%, 185,498G)
FriendSquirrel: 940G (13.0%, 940G)
GrandmasterFrankerZ: 712G (9.9%, 712G)
Aldrammech: 600G (8.3%, 600G)
reinoe: 500G (6.9%, 9,576G)
omegasuspekt: 333G (4.6%, 7,101G)
roqqqpsi: 260G (3.6%, 1,183G)
uncharreted: 200G (2.8%, 1,538G)
ThePuss: 128G (1.8%, 128G)
getthemoneyz: 128G (1.8%, 503,166G)
SwaffleWaffles: 103G (1.4%, 2,066G)
gorgewall: 100G (1.4%, 1,030G)
LazarusAjin: 100G (1.4%, 1,044G)

purple bets:
DejaPoo21: 5,000G (27.2%, 12,869G)
SpookyCookieMonster: 1,702G (9.3%, 1,702G)
HaateXIII: 1,370G (7.5%, 1,370G)
roofiepops: 1,364G (7.4%, 1,364G)
volgrathemoose: 1,001G (5.4%, 14,978G)
MantisFinch: 1,000G (5.4%, 24,195G)
braumbles: 879G (4.8%, 1,172G)
joewcarson: 780G (4.2%, 780G)
itzover9001: 689G (3.7%, 6,905G)
OmnibotGamma: 500G (2.7%, 7,148G)
old_overholt_: 500G (2.7%, 9,482G)
Madcow457: 500G (2.7%, 5,548G)
killth3kid: 500G (2.7%, 15,643G)
moonliquor: 418G (2.3%, 837G)
catfashions: 400G (2.2%, 6,768G)
Lanshaft: 300G (1.6%, 618G)
CapnChaos12: 300G (1.6%, 3,610G)
thevilmen: 300G (1.6%, 4,378G)
nifboy: 240G (1.3%, 2,403G)
RunicMagus: 150G (0.8%, 2,101G)
ApplesauceBoss: 100G (0.5%, 4,669G)
ko2q: 100G (0.5%, 7,656G)
Lodrak: 100G (0.5%, 4,061G)
ANFz: 100G (0.5%, 7,361G)
datadrivenbot: 86G (0.5%, 100G)
