Final Bets: blue - 12 bets for 10,051G (36.5%, x1.74); yellow - 17 bets for 17,499G (63.5%, x0.57)

blue bets:
AllInBot: 2,174G (21.6%, 2,174G)
SkylerBunny: 2,000G (19.9%, 57,270G)
Thyrandaal: 2,000G (19.9%, 7,246G)
BirbBrainsBot: 1,000G (9.9%, 130,721G)
RaIshtar: 1,000G (9.9%, 78,487G)
TasisSai: 630G (6.3%, 630G)
Laserman1000: 554G (5.5%, 5,554G)
braveboyblue: 300G (3.0%, 1,576G)
Yarby: 147G (1.5%, 147G)
Royal_Ruckus: 136G (1.4%, 136G)
ANFz: 100G (1.0%, 41,656G)
tanarusasamiya: 10G (0.1%, 580G)

yellow bets:
Oreo_Pizza: 5,000G (28.6%, 22,474G)
Virilikus: 3,000G (17.1%, 212,087G)
YaBoy125: 1,519G (8.7%, 3,038G)
rockmem21: 1,500G (8.6%, 15,472G)
evontno: 1,500G (8.6%, 65,207G)
pplvee1: 1,372G (7.8%, 1,372G)
NeonTarget: 800G (4.6%, 3,565G)
iBardic: 502G (2.9%, 502G)
Zbgs: 460G (2.6%, 460G)
Xoomwaffle: 450G (2.6%, 3,276G)
furrytomahawkk: 400G (2.3%, 3,112G)
SephDarkheart: 332G (1.9%, 61,290G)
datadrivenbot: 200G (1.1%, 33,259G)
getthemoneyz: 152G (0.9%, 1,334,305G)
SUGRboi: 112G (0.6%, 112G)
Twisted_Nutsatchel: 100G (0.6%, 12,502G)
nifboy: 100G (0.6%, 12,969G)
