Final Bets: blue - 15 bets for 22,728G (27.3%, x2.66); champion - 14 bets for 60,390G (72.7%, x0.38)

blue bets:
Aldrammech: 15,719G (69.2%, 15,719G)
BoneMiser: 1,431G (6.3%, 1,431G)
BirbBrainsBot: 1,000G (4.4%, 51,213G)
skillomono: 1,000G (4.4%, 6,358G)
Firesheath: 756G (3.3%, 756G)
killth3kid: 528G (2.3%, 1,547G)
AmewTheFox: 500G (2.2%, 12,762G)
WhiteTigress: 500G (2.2%, 9,523G)
AllInBot: 266G (1.2%, 266G)
getthemoneyz: 228G (1.0%, 1,754,005G)
twelfthrootoftwo: 200G (0.9%, 4,888G)
CosmicTactician: 200G (0.9%, 39,943G)
RunicMagus: 200G (0.9%, 2,324G)
onewouldfall: 100G (0.4%, 100G)
AbandonedHall: 100G (0.4%, 3,092G)

champion bets:
reinoe: 32,208G (53.3%, 63,153G)
poorest_hobo: 20,017G (33.1%, 20,017G)
soren_of_tyto: 1,501G (2.5%, 1,501G)
sinnyil2: 1,365G (2.3%, 1,365G)
thunderducker: 1,200G (2.0%, 3,028G)
idioSyncr4zy: 979G (1.6%, 6,529G)
DustBirdEX: 696G (1.2%, 696G)
Kronikle: 584G (1.0%, 584G)
CapnChaos12: 500G (0.8%, 6,350G)
Smashy: 500G (0.8%, 8,003G)
chronicdeath: 248G (0.4%, 248G)
douchetron: 228G (0.4%, 228G)
datadrivenbot: 200G (0.3%, 66,013G)
dingdingboom: 164G (0.3%, 164G)
