Final Bets: red - 16 bets for 24,826G (82.2%, x0.22); blue - 9 bets for 5,388G (17.8%, x4.61)

red bets:
DavenIII: 7,500G (30.2%, 67,600G)
JumbocactuarX27: 4,848G (19.5%, 4,848G)
dogsandcatsand: 2,887G (11.6%, 5,662G)
Aldrammech: 2,782G (11.2%, 2,782G)
powergems: 2,500G (10.1%, 12,529G)
E_Ballard: 732G (2.9%, 53,232G)
Bongomon7: 633G (2.5%, 633G)
Zagorsek: 596G (2.4%, 596G)
Phi_Sig: 555G (2.2%, 125,013G)
ShintaroNayaka: 440G (1.8%, 440G)
ArashiKurobara: 380G (1.5%, 380G)
RunicMagus: 300G (1.2%, 5,355G)
datadrivenbot: 200G (0.8%, 68,269G)
CosmicTactician: 200G (0.8%, 39,956G)
ravingsockmonkey: 173G (0.7%, 173G)
AllInBot: 100G (0.4%, 100G)

blue bets:
toka222: 1,500G (27.8%, 219,304G)
BirbBrainsBot: 1,000G (18.6%, 6,071G)
LDSkinny: 1,000G (18.6%, 3,150G)
teemopicker: 863G (16.0%, 863G)
Tarheels218: 328G (6.1%, 328G)
getthemoneyz: 318G (5.9%, 1,731,890G)
Wrath189: 156G (2.9%, 156G)
Lydian_C: 123G (2.3%, 15,032G)
Thyrandaal: 100G (1.9%, 32,738G)
