Final Bets: blue - 17 bets for 12,803G (73.9%, x0.35); green - 12 bets for 4,521G (26.1%, x2.83)

blue bets:
Oreo_Pizza: 6,462G (50.5%, 6,462G)
SkylerBunny: 1,000G (7.8%, 526,575G)
BirbBrainsBot: 1,000G (7.8%, 66,477G)
roofiepops: 637G (5.0%, 637G)
VolgraTheMoose: 512G (4.0%, 512G)
killth3kid: 500G (3.9%, 4,864G)
twelfthrootoftwo: 500G (3.9%, 12,122G)
DLJuggernaut: 453G (3.5%, 453G)
thewondertrickster: 383G (3.0%, 383G)
electric_algus: 300G (2.3%, 24,558G)
VulcanPanderp: 232G (1.8%, 232G)
Forkmore: 200G (1.6%, 208G)
cougboi: 200G (1.6%, 8,577G)
NightwolfXVI: 124G (1.0%, 124G)
maakur_: 100G (0.8%, 73,023G)
GrayGhostGaming: 100G (0.8%, 1,094G)
datadrivenbot: 100G (0.8%, 45,023G)

green bets:
OneHundredFists: 1,462G (32.3%, 2,867G)
prince_rogers_nelson_: 1,000G (22.1%, 16,735G)
DeathTaxesAndAnime: 728G (16.1%, 728G)
DustBirdEX: 345G (7.6%, 2,036G)
n2ash: 200G (4.4%, 200G)
RunicMagus: 200G (4.4%, 50,798G)
getthemoneyz: 140G (3.1%, 1,081,199G)
Ring_Wyrm: 100G (2.2%, 4,851G)
Firesheath: 100G (2.2%, 14,378G)
Meta_Five: 100G (2.2%, 39,474G)
jenenebatmann: 100G (2.2%, 976G)
Aquios_: 46G (1.0%, 346G)
