Final Bets: black - 12 bets for 6,072G (50.6%, x0.98); brown - 10 bets for 5,932G (49.4%, x1.02)

black bets:
VolgraTheMoose: 1,001G (16.5%, 3,475G)
SkylerBunny: 1,000G (16.5%, 582,808G)
perkisle: 1,000G (16.5%, 3,587G)
BirbBrainsBot: 1,000G (16.5%, 74,638G)
superdevon1: 600G (9.9%, 6,090G)
benticore: 546G (9.0%, 10,924G)
Shalloween: 300G (4.9%, 64,395G)
Grandlanzer: 200G (3.3%, 5,780G)
a_mo22: 125G (2.1%, 4,412G)
rjA0zcOQ96: 100G (1.6%, 10,529G)
E_Ballard: 100G (1.6%, 18,225G)
extinctrational: 100G (1.6%, 1,168G)

brown bets:
ShintaroNayaka: 2,322G (39.1%, 2,322G)
nifboy: 1,601G (27.0%, 3,203G)
Chuckolator: 707G (11.9%, 54,426G)
UmaiJam: 536G (9.0%, 536G)
astrozin11: 200G (3.4%, 4,000G)
the_jester87: 200G (3.4%, 424G)
ar_tactic: 150G (2.5%, 55,147G)
nhammen: 100G (1.7%, 3,816G)
datadrivenbot: 100G (1.7%, 45,727G)
getthemoneyz: 16G (0.3%, 1,021,595G)
