Final Bets: red - 9 bets for 4,040G (47.7%, x1.10); blue - 11 bets for 4,437G (52.3%, x0.91)

red bets:
BirbBrainsBot: 1,000G (24.8%, 95,485G)
lijarkh: 573G (14.2%, 573G)
CassiePhoenix: 500G (12.4%, 3,897G)
ser_pyrro: 500G (12.4%, 2,087G)
ninjaboy3234: 447G (11.1%, 447G)
getthemoneyz: 336G (8.3%, 1,929,191G)
ColetteMSLP: 300G (7.4%, 2,136G)
ValensEXP_: 284G (7.0%, 284G)
Neinhartx: 100G (2.5%, 126G)

blue bets:
SkylerBunny: 1,713G (38.6%, 5,192G)
bruubarg: 1,000G (22.5%, 9,277G)
Raixelol: 600G (13.5%, 17,601G)
AllInBot: 224G (5.0%, 224G)
datadrivenbot: 200G (4.5%, 62,273G)
Mushufasa_: 200G (4.5%, 2,820G)
BartTradingCompany: 100G (2.3%, 8,392G)
gilgamensche: 100G (2.3%, 100G)
J_52: 100G (2.3%, 8,720G)
AtmaDragoon: 100G (2.3%, 100G)
Tanookium: 100G (2.3%, 16,906G)
