Final Bets: red - 6 bets for 5,677G (40.1%, x1.49); purple - 12 bets for 8,464G (59.9%, x0.67)

red bets:
Geffro1908: 3,459G (60.9%, 3,459G)
Arcblazer23: 683G (12.0%, 683G)
EnemyController: 555G (9.8%, 1,558,833G)
silentperogy: 500G (8.8%, 40,875G)
lowlf: 380G (6.7%, 7,064G)
JunmaiRabbit: 100G (1.8%, 100G)

purple bets:
SkylerBunny: 1,471G (17.4%, 1,471G)
Chihuahua_Charity: 1,321G (15.6%, 1,321G)
latebit: 1,169G (13.8%, 1,169G)
BirbBrainsBot: 1,000G (11.8%, 191,781G)
DLJuggernaut: 750G (8.9%, 11,427G)
getthemoneyz: 672G (7.9%, 1,733,127G)
sinnyil2: 508G (6.0%, 1,016G)
AllInBot: 449G (5.3%, 449G)
Lifebregin: 424G (5.0%, 14,524G)
iBardic: 400G (4.7%, 4,819G)
datadrivenbot: 200G (2.4%, 68,087G)
CT_Remix: 100G (1.2%, 631G)
