Final Bets: white - 13 bets for 13,391G (65.3%, x0.53); black - 13 bets for 7,106G (34.7%, x1.88)

white bets:
YaBoy125: 8,453G (63.1%, 8,453G)
Jeeboheebo: 1,002G (7.5%, 9,882G)
BirbBrainsBot: 926G (6.9%, 130,835G)
bad1dea: 900G (6.7%, 344,410G)
electric_glass: 755G (5.6%, 755G)
upvla: 460G (3.4%, 9,082G)
ColetteMSLP: 300G (2.2%, 10,439G)
RezzaDV: 144G (1.1%, 144G)
madman_clinton: 136G (1.0%, 136G)
byrdturbo: 111G (0.8%, 3,198G)
AllInBot: 100G (0.7%, 100G)
datadrivenbot: 100G (0.7%, 14,130G)
getthemoneyz: 4G (0.0%, 401,674G)

black bets:
LuckyLuckLuc2: 1,111G (15.6%, 46,700G)
HASTERIOUS: 1,000G (14.1%, 61,888G)
BenYuPoker: 802G (11.3%, 802G)
jethrothrul: 718G (10.1%, 718G)
UmaiJam: 696G (9.8%, 696G)
sinnyil2: 656G (9.2%, 656G)
superdevon1: 500G (7.0%, 500G)
nomoment: 500G (7.0%, 5,838G)
ko2q: 423G (6.0%, 423G)
icy_blue20: 300G (4.2%, 2,043G)
ugoplatamia: 200G (2.8%, 14,691G)
Lali_Lulelo: 100G (1.4%, 2,740G)
Basmal: 100G (1.4%, 53,858G)
