Final Bets: yellow - 9 bets for 16,028G (60.0%, x0.67); champion - 17 bets for 10,682G (40.0%, x1.50)

yellow bets:
YaBoy125: 10,639G (66.4%, 20,862G)
Jeeboheebo: 2,020G (12.6%, 13,992G)
electric_glass: 1,415G (8.8%, 1,415G)
superdevon1: 741G (4.6%, 741G)
Phytik: 444G (2.8%, 3,092G)
UmaiJam: 394G (2.5%, 3,947G)
mayormcfunbags: 164G (1.0%, 164G)
byrdturbo: 111G (0.7%, 3,175G)
Lali_Lulelo: 100G (0.6%, 3,029G)

champion bets:
ugoplatamia: 3,067G (28.7%, 15,336G)
Treapvort: 1,000G (9.4%, 33,250G)
BirbBrainsBot: 1,000G (9.4%, 131,181G)
bad1dea: 1,000G (9.4%, 346,118G)
sinnyil2: 920G (8.6%, 920G)
leakimiko: 826G (7.7%, 27,536G)
UmbraKnights: 769G (7.2%, 769G)
NovaKnight21: 500G (4.7%, 6,945G)
PatSouI: 328G (3.1%, 328G)
Cataphract116: 300G (2.8%, 807G)
SleepyBenzo: 228G (2.1%, 228G)
SeniorBunk: 200G (1.9%, 7,151G)
RezzaDV: 144G (1.3%, 144G)
AllInBot: 100G (0.9%, 100G)
datadrivenbot: 100G (0.9%, 14,205G)
SeedSC: 100G (0.9%, 121,485G)
TheBodaciousLlama: 100G (0.9%, 100G)
