Final Bets: white - 13 bets for 8,462G (58.9%, x0.70); brown - 13 bets for 5,900G (41.1%, x1.43)

white bets:
flowinprose: 2,000G (23.6%, 108,233G)
sinnyil2: 1,708G (20.2%, 1,708G)
Aldrammech: 1,000G (11.8%, 31,435G)
Sairentozon7: 970G (11.5%, 970G)
VolgraTheMoose: 500G (5.9%, 8,115G)
getthemoneyz: 472G (5.6%, 831,094G)
DustBirdEX: 456G (5.4%, 2,106G)
NovaKnight21: 400G (4.7%, 400G)
killth3kid: 336G (4.0%, 16,929G)
Breakdown777: 300G (3.5%, 8,924G)
Lydian_C: 120G (1.4%, 8,005G)
datadrivenbot: 100G (1.2%, 34,116G)
kaidykat: 100G (1.2%, 21,130G)

brown bets:
Geffro1908: 1,000G (16.9%, 3,910G)
BirbBrainsBot: 1,000G (16.9%, 118,996G)
DeathTaxesAndAnime: 788G (13.4%, 788G)
Grandlanzer: 671G (11.4%, 671G)
BlackFireUK: 500G (8.5%, 8,555G)
cam_ATS: 400G (6.8%, 1,512G)
Monopool: 300G (5.1%, 1,673G)
pplvee1: 256G (4.3%, 256G)
wyonearth: 252G (4.3%, 252G)
Thyrandaal: 233G (3.9%, 233G)
Ring_Wyrm: 200G (3.4%, 732G)
CosmicTactician: 200G (3.4%, 15,163G)
ThePineappleSalesman: 100G (1.7%, 2,543G)
