Final Bets: red - 15 bets for 11,898G (49.8%, x1.01); white - 13 bets for 11,980G (50.2%, x0.99)

red bets:
Geffro1908: 2,910G (24.5%, 2,910G)
maakur_: 1,856G (15.6%, 1,856G)
DustBirdEX: 1,212G (10.2%, 2,424G)
YaBoy125: 1,200G (10.1%, 1,200G)
cam_ATS: 1,112G (9.3%, 1,112G)
Aldrammech: 1,000G (8.4%, 32,132G)
NovaKnight21: 679G (5.7%, 679G)
Ring_Wyrm: 532G (4.5%, 532G)
BirbBrainsBot: 381G (3.2%, 117,996G)
Breakdown777: 300G (2.5%, 9,133G)
wyonearth: 252G (2.1%, 252G)
Thyrandaal: 144G (1.2%, 144G)
Lydian_C: 120G (1.0%, 8,089G)
datadrivenbot: 100G (0.8%, 34,186G)
kaidykat: 100G (0.8%, 21,200G)

white bets:
flowinprose: 5,000G (41.7%, 109,627G)
Sairentozon7: 1,646G (13.7%, 1,646G)
Monopool: 1,373G (11.5%, 1,373G)
VolgraTheMoose: 1,001G (8.4%, 8,464G)
DeathTaxesAndAnime: 788G (6.6%, 788G)
getthemoneyz: 566G (4.7%, 831,423G)
tehjam: 500G (4.2%, 1,548G)
pplvee1: 256G (2.1%, 256G)
CosmicTactician: 200G (1.7%, 14,963G)
JoeykinsGaming: 200G (1.7%, 17,320G)
gogofromtogo: 200G (1.7%, 3,944G)
roqqqpsi: 150G (1.3%, 15,003G)
E_Ballard: 100G (0.8%, 2,091G)
