Final Bets: white - 9 bets for 16,296G (62.2%, x0.61); black - 13 bets for 9,910G (37.8%, x1.64)

white bets:
OneHundredFists: 10,671G (65.5%, 20,924G)
NicoSavoy: 2,850G (17.5%, 2,850G)
Firesheath: 620G (3.8%, 620G)
IaibOaob: 555G (3.4%, 2,647G)
TheBrett: 500G (3.1%, 6,569G)
escobro: 500G (3.1%, 9,507G)
AllInBot: 200G (1.2%, 200G)
RikiNom: 200G (1.2%, 708G)
datadrivenbot: 200G (1.2%, 81,456G)

black bets:
LivingHitokiri: 3,000G (30.3%, 138,831G)
Mesmaster: 1,609G (16.2%, 1,609G)
thunderducker: 1,300G (13.1%, 9,978G)
BirbBrainsBot: 1,000G (10.1%, 19,930G)
lotharek: 700G (7.1%, 12,820G)
LuckyLuckLuc2: 699G (7.1%, 23,827G)
Willjin: 600G (6.1%, 40,473G)
getthemoneyz: 202G (2.0%, 2,088,560G)
CorpusCav: 200G (2.0%, 33,419G)
Genkidou: 200G (2.0%, 3,495G)
killabandaid: 200G (2.0%, 1,188G)
ValensEXP_: 100G (1.0%, 2,641G)
bufuman: 100G (1.0%, 922G)
