Final Bets: white - 19 bets for 7,936G (32.0%, x2.13); black - 29 bets for 16,891G (68.0%, x0.47)

white bets:
toka222: 1,100G (13.9%, 419,060G)
BirbBrainsBot: 1,000G (12.6%, 2,898G)
inzo_bettingbot: 1,000G (12.6%, 28,245G)
bad1dea: 1,000G (12.6%, 231,732G)
sinnyil2: 700G (8.8%, 12,810G)
TheChainNerd: 476G (6.0%, 476G)
SeedSC: 420G (5.3%, 174,604G)
Dothan89: 348G (4.4%, 348G)
kingchadking: 324G (4.1%, 324G)
SerumD: 316G (4.0%, 316G)
Baron_von_Scrub: 252G (3.2%, 4,000G)
noztril: 200G (2.5%, 1,236G)
yes_this_is_bear: 200G (2.5%, 1,664G)
Aneyus: 100G (1.3%, 13,227G)
twelfthrootoftwo: 100G (1.3%, 3,079G)
Kellios11: 100G (1.3%, 7,405G)
SpaZmodeus: 100G (1.3%, 2,336G)
OneHundredFists: 100G (1.3%, 6,820G)
rico_flex: 100G (1.3%, 4,993G)

black bets:
Zeroroute: 2,682G (15.9%, 4,929G)
TheRobbieRobster: 1,767G (10.5%, 1,767G)
roofiepops: 1,200G (7.1%, 3,027G)
DudeMonkey77: 1,000G (5.9%, 31,566G)
kai_shee: 1,000G (5.9%, 39,766G)
hkbadboy: 1,000G (5.9%, 2,232G)
HaplessOne: 1,000G (5.9%, 39,059G)
DeathTaxesAndAnime: 915G (5.4%, 1,823G)
ApplesauceBoss: 773G (4.6%, 773G)
TheManInPlaid: 635G (3.8%, 635G)
baconbacon1207: 600G (3.6%, 21,900G)
rubenflonne: 500G (3.0%, 6,143G)
CorpusCav: 500G (3.0%, 9,077G)
I_nod_my_head_when_I_lose: 500G (3.0%, 10,856G)
fenaen: 447G (2.6%, 447G)
Aeolus_000: 300G (1.8%, 2,578G)
DeliciousSub: 300G (1.8%, 19,032G)
cheesetacular: 232G (1.4%, 232G)
inzo24: 216G (1.3%, 216G)
iiLockdownV2: 204G (1.2%, 204G)
InOzWeTrust: 200G (1.2%, 471G)
getthemoneyz: 162G (1.0%, 401,773G)
edgehead62888: 158G (0.9%, 158G)
Oshimi12: 100G (0.6%, 2,153G)
BadBlanket: 100G (0.6%, 1,930G)
chronoxtrigger: 100G (0.6%, 4,712G)
datadrivenbot: 100G (0.6%, 17,210G)
ZephyrTempest: 100G (0.6%, 4,587G)
Mechapope1: 100G (0.6%, 584G)
