Final Bets: blue - 17 bets for 12,060G (63.8%, x0.57); white - 10 bets for 6,853G (36.2%, x1.76)

blue bets:
Thyrandaal: 2,222G (18.4%, 89,424G)
Shalloween: 2,000G (16.6%, 28,128G)
silverChangeling: 1,185G (9.8%, 2,325G)
maximumcrit: 1,000G (8.3%, 13,367G)
BirbBrainsBot: 1,000G (8.3%, 149,043G)
Aldrammech: 997G (8.3%, 997G)
helpimabug: 803G (6.7%, 1,606G)
fenaen: 800G (6.6%, 7,611G)
getthemoneyz: 562G (4.7%, 1,482,771G)
Mushufasa_: 300G (2.5%, 5,804G)
ArlanKels: 280G (2.3%, 280G)
Lumberinjack: 211G (1.7%, 211G)
TasisSai: 200G (1.7%, 15,875G)
datadrivenbot: 200G (1.7%, 48,994G)
Bongomon7: 100G (0.8%, 5,561G)
sphurnt: 100G (0.8%, 900G)
nifboy: 100G (0.8%, 3,165G)

white bets:
E_Ballard: 3,446G (50.3%, 6,892G)
Deathmaker06: 1,000G (14.6%, 21,263G)
Zeroroute: 600G (8.8%, 600G)
douchetron: 504G (7.4%, 504G)
Forkmore: 376G (5.5%, 376G)
roqqqpsi: 277G (4.0%, 1,850G)
AllInBot: 200G (2.9%, 200G)
WillFitzgerald: 200G (2.9%, 6,005G)
EmmaEnema: 150G (2.2%, 1,515G)
Tristar49: 100G (1.5%, 406G)
