Final Bets: red - 22 bets for 10,023G (57.5%, x0.74); blue - 11 bets for 7,397G (42.5%, x1.36)

red bets:
Error72: 1,115G (11.1%, 1,115G)
BirbBrainsBot: 1,000G (10.0%, 46,019G)
fenaen: 900G (9.0%, 4,845G)
neerrm: 777G (7.8%, 45,667G)
NIghtdew14: 750G (7.5%, 21,478G)
getthemoneyz: 538G (5.4%, 1,373,851G)
RaIshtar: 532G (5.3%, 532G)
Miku_Shikhu: 523G (5.2%, 523G)
DustBirdEX: 520G (5.2%, 520G)
latebit: 519G (5.2%, 519G)
ohhinm: 500G (5.0%, 6,770G)
amiture: 500G (5.0%, 2,767G)
nekojin: 368G (3.7%, 8,049G)
Laserman1000: 351G (3.5%, 1,651G)
Jumza: 300G (3.0%, 4,882G)
TasisSai: 200G (2.0%, 4,504G)
datadrivenbot: 200G (2.0%, 40,337G)
Zakanakai: 100G (1.0%, 100G)
nhammen: 100G (1.0%, 3,042G)
TheeBennison: 100G (1.0%, 100G)
ANFz: 100G (1.0%, 57,919G)
DouglasDragonThePoet: 30G (0.3%, 4,112G)

blue bets:
HaateXIII: 1,919G (25.9%, 1,919G)
DeathTaxesAndAnime: 1,273G (17.2%, 1,273G)
Lord_Burrah: 1,000G (13.5%, 84,000G)
mpghappiness: 968G (13.1%, 968G)
Oreo_Pizza: 500G (6.8%, 33,270G)
DarrenDinosaurs: 500G (6.8%, 7,582G)
SephDarkheart: 368G (5.0%, 8,054G)
CapnChaos12: 300G (4.1%, 18,721G)
Mathlexis: 240G (3.2%, 240G)
AllInBot: 200G (2.7%, 200G)
nok____: 129G (1.7%, 5,829G)
