Final Bets: purple - 14 bets for 53,775G (80.1%, x0.25); brown - 19 bets for 13,371G (19.9%, x4.02)

purple bets:
neerrm: 45,640G (84.9%, 45,640G)
RaIshtar: 2,899G (5.4%, 2,899G)
nhammen: 1,596G (3.0%, 3,131G)
Kronikle: 1,000G (1.9%, 6,654G)
Laserman1000: 664G (1.2%, 664G)
DarrenDinosaurs: 500G (0.9%, 7,894G)
Zagorsek: 340G (0.6%, 680G)
JarlBrolaf: 220G (0.4%, 220G)
latebit: 216G (0.4%, 216G)
AllInBot: 200G (0.4%, 200G)
datadrivenbot: 200G (0.4%, 40,369G)
TimeJannies: 100G (0.2%, 3,396G)
Zakanakai: 100G (0.2%, 116G)
ANFz: 100G (0.2%, 58,315G)

brown bets:
SkylerBunny: 3,000G (22.4%, 46,198G)
E_Ballard: 1,916G (14.3%, 1,916G)
DeathTaxesAndAnime: 1,709G (12.8%, 1,709G)
BirbBrainsBot: 1,000G (7.5%, 48,130G)
Lord_Burrah: 1,000G (7.5%, 81,000G)
getthemoneyz: 822G (6.1%, 1,373,938G)
mpghappiness: 600G (4.5%, 600G)
DustBirdEX: 508G (3.8%, 508G)
amiture: 500G (3.7%, 2,847G)
Thyrandaal: 500G (3.7%, 68,300G)
brokenknight201: 500G (3.7%, 9,999G)
Lord_Gwarth: 300G (2.2%, 2,642G)
thehotrefrigerator: 212G (1.6%, 212G)
TasisSai: 200G (1.5%, 4,693G)
ribbiks: 200G (1.5%, 3,813G)
TheeBennison: 116G (0.9%, 116G)
mrpickins: 100G (0.7%, 315G)
Heroebal: 100G (0.7%, 4,306G)
DavenIII: 88G (0.7%, 550G)
