Final Bets: purple - 16 bets for 13,631G (69.1%, x0.45); champion - 10 bets for 6,082G (30.9%, x2.24)

purple bets:
WalkerNash: 5,000G (36.7%, 39,362G)
Forkmore: 1,999G (14.7%, 1,999G)
Rurk: 1,500G (11.0%, 8,023G)
DustBirdEX: 1,257G (9.2%, 1,257G)
E_Ballard: 844G (6.2%, 844G)
dogsandcatsand: 666G (4.9%, 21,503G)
serperemagus: 552G (4.0%, 552G)
killth3kid: 500G (3.7%, 9,281G)
run_with_stone_GUNs: 293G (2.1%, 29,392G)
CosmicTactician: 200G (1.5%, 21,082G)
joewcarson: 200G (1.5%, 6,872G)
RoyZet: 180G (1.3%, 180G)
RampagingRobot: 140G (1.0%, 140G)
nifboy: 100G (0.7%, 2,216G)
datadrivenbot: 100G (0.7%, 46,367G)
Grandlanzer: 100G (0.7%, 31,919G)

champion bets:
VolgraTheMoose: 1,554G (25.6%, 10,104G)
fenaen: 1,200G (19.7%, 33,930G)
Dasutin23: 1,000G (16.4%, 33,583G)
BirbBrainsBot: 1,000G (16.4%, 64,705G)
sparker9: 500G (8.2%, 8,629G)
getthemoneyz: 228G (3.7%, 1,078,056G)
odym82: 200G (3.3%, 2,350G)
Jeras01: 200G (3.3%, 2,151G)
lawnboxer: 100G (1.6%, 19,139G)
argonak: 100G (1.6%, 100G)
