Final Bets: red - 22 bets for 13,011G (68.6%, x0.46); blue - 10 bets for 5,951G (31.4%, x2.19)

red bets:
roofiepops: 1,400G (10.8%, 3,416G)
Zeroroute: 1,356G (10.4%, 1,356G)
fenaen: 1,300G (10.0%, 28,172G)
evontno: 1,036G (8.0%, 1,036G)
BirbBrainsBot: 1,000G (7.7%, 158,944G)
killth3kid: 1,000G (7.7%, 98,799G)
Sairentozon7: 1,000G (7.7%, 2,360G)
DeathTaxesAndAnime: 920G (7.1%, 920G)
SephDarkheart: 684G (5.3%, 684G)
roqqqpsi: 469G (3.6%, 46,920G)
Zetchryn: 412G (3.2%, 412G)
Shalloween: 400G (3.1%, 62,113G)
letdowncity: 376G (2.9%, 5,846G)
DLJuggernaut: 352G (2.7%, 352G)
Forkmore: 272G (2.1%, 4,129G)
benticore: 250G (1.9%, 5,193G)
Kellios11: 200G (1.5%, 39,449G)
datadrivenbot: 200G (1.5%, 59,567G)
Miku_Shikhu: 100G (0.8%, 3,188G)
TasisSai: 100G (0.8%, 2,209G)
nsm013: 100G (0.8%, 9,177G)
getthemoneyz: 84G (0.6%, 1,229,163G)

blue bets:
Evewho: 2,000G (33.6%, 22,393G)
Theseawolf1: 1,000G (16.8%, 21,175G)
Laserman1000: 741G (12.5%, 28,241G)
VolgraTheMoose: 501G (8.4%, 7,420G)
CosmicTactician: 500G (8.4%, 46,171G)
winteriscorning: 435G (7.3%, 435G)
Snoopiku: 250G (4.2%, 28,762G)
randgridr: 224G (3.8%, 2,485G)
Neuros91: 200G (3.4%, 892G)
neerrm: 100G (1.7%, 18,668G)
