Final Bets: green - 12 bets for 7,754G (39.0%, x1.56); champion - 23 bets for 12,121G (61.0%, x0.64)

green bets:
HaateXIII: 1,390G (17.9%, 1,390G)
killth3kid: 1,014G (13.1%, 10,142G)
LDSkinny: 1,000G (12.9%, 3,647G)
Lordminsc: 863G (11.1%, 1,726G)
Spartan_Paladin: 700G (9.0%, 59,740G)
Phi_Sig: 580G (7.5%, 580G)
AllInBot: 549G (7.1%, 549G)
Cryptopsy70: 540G (7.0%, 14,993G)
ShintaroNayaka: 500G (6.4%, 8,573G)
ZCKaiser: 368G (4.7%, 736G)
DeathTaxesAndAnime: 194G (2.5%, 1,126G)
silentkaster: 56G (0.7%, 3,356G)

champion bets:
Anasetsuken: 4,634G (38.2%, 9,269G)
Nizaha: 1,001G (8.3%, 22,674G)
DavenIII: 1,000G (8.3%, 13,024G)
Laserman1000: 691G (5.7%, 66,091G)
getthemoneyz: 516G (4.3%, 962,140G)
DudeMonkey77: 500G (4.1%, 25,843G)
Error72: 500G (4.1%, 6,643G)
joewcarson: 500G (4.1%, 48,404G)
sinnyil2: 500G (4.1%, 18,723G)
nifboy: 416G (3.4%, 416G)
dogsandcatsand: 356G (2.9%, 356G)
RuneS_77: 300G (2.5%, 7,837G)
O_Heyno: 268G (2.2%, 268G)
Kellios11: 100G (0.8%, 10,515G)
ko2q: 100G (0.8%, 8,972G)
serperemagus: 100G (0.8%, 2,390G)
datadrivenbot: 100G (0.8%, 42,275G)
Alanaire: 100G (0.8%, 14,297G)
ZombiFrancis: 100G (0.8%, 5,499G)
hilcray: 100G (0.8%, 993G)
Tougou: 100G (0.8%, 3,338G)
username123132: 89G (0.7%, 178G)
IphoneDarkness: 50G (0.4%, 2,411G)
