Final Bets: green - 25 bets for 11,947G (33.2%, x2.01); yellow - 26 bets for 24,042G (66.8%, x0.50)

green bets:
rockmem21: 2,387G (20.0%, 47,757G)
DeathTaxesAndAnime: 1,020G (8.5%, 1,020G)
EnemyController: 1,000G (8.4%, 7,096G)
TheChainNerd: 953G (8.0%, 1,906G)
Kalpho: 914G (7.7%, 914G)
Shalloween: 800G (6.7%, 45,686G)
HaplessOne: 750G (6.3%, 17,298G)
BadBlanket: 500G (4.2%, 1,156G)
SleepyBenzo: 500G (4.2%, 1,001G)
luminarii: 397G (3.3%, 7,079G)
old_overholt_: 352G (2.9%, 352G)
fenaen: 300G (2.5%, 1,866G)
gum44: 300G (2.5%, 1,706G)
JumbocactuarX27: 264G (2.2%, 264G)
Baron_von_Scrub: 252G (2.1%, 2,821G)
V3rdeni: 200G (1.7%, 200G)
holyonline: 200G (1.7%, 7,430G)
HEROScioN: 183G (1.5%, 183G)
Tithonus: 100G (0.8%, 8,160G)
Tougou: 100G (0.8%, 2,874G)
PlatinumPlume: 100G (0.8%, 10,299G)
ko2q: 100G (0.8%, 1,764G)
Anomandaris__: 100G (0.8%, 600G)
getthemoneyz: 88G (0.7%, 406,316G)
NytFantom: 87G (0.7%, 439G)

yellow bets:
toka222: 7,500G (31.2%, 498,334G)
Axelrod: 3,736G (15.5%, 37,360G)
Zeroroute: 2,457G (10.2%, 2,457G)
MeleeWizard: 1,222G (5.1%, 1,222G)
ensiron: 1,105G (4.6%, 1,105G)
kai_shee: 1,000G (4.2%, 40,905G)
MattMan119: 1,000G (4.2%, 7,812G)
BirbBrainsBot: 1,000G (4.2%, 90,158G)
hkbadboy: 1,000G (4.2%, 11,676G)
Reiia: 600G (2.5%, 1,627G)
Ungaiii: 500G (2.1%, 3,942G)
Break3r: 429G (1.8%, 4,298G)
CorpusCav: 400G (1.7%, 3,756G)
ApplesauceBoss: 344G (1.4%, 344G)
RiffRoff: 300G (1.2%, 1,448G)
sect_cor: 300G (1.2%, 20,180G)
Orerries: 216G (0.9%, 216G)
ugoplatamia: 200G (0.8%, 9,401G)
Jordache7K: 111G (0.5%, 15,812G)
urieltheflameofgod: 100G (0.4%, 1,268G)
Nizaha: 100G (0.4%, 10,952G)
rrazzoug: 100G (0.4%, 3,296G)
VRNocturne: 100G (0.4%, 1,162G)
greghatch: 100G (0.4%, 2,318G)
datadrivenbot: 100G (0.4%, 17,051G)
roqqqpsi: 22G (0.1%, 1,093G)
