Final Bets: black - 16 bets for 9,027G (21.4%, x3.67); brown - 26 bets for 33,139G (78.6%, x0.27)

black bets:
rockmem21: 2,224G (24.6%, 44,495G)
Ungaiii: 1,635G (18.1%, 3,635G)
SkylerBunny: 1,050G (11.6%, 2,059G)
BirbBrainsBot: 1,000G (11.1%, 89,539G)
reinoe: 1,000G (11.1%, 21,332G)
Zeroroute: 504G (5.6%, 504G)
V3rdeni: 400G (4.4%, 901G)
ZephyrTempest: 259G (2.9%, 15,130G)
rrazzoug: 200G (2.2%, 3,685G)
KasugaiRoastedPeas: 200G (2.2%, 27,095G)
MattMan119: 150G (1.7%, 9,191G)
ApplesauceBoss: 100G (1.1%, 2,084G)
skoziss: 100G (1.1%, 224G)
SeedSC: 100G (1.1%, 72,215G)
kingchadking: 100G (1.1%, 24,305G)
ko2q: 5G (0.1%, 1,647G)

brown bets:
SolarisFall: 8,911G (26.9%, 17,823G)
toka222: 5,000G (15.1%, 501,267G)
Axelrod: 3,821G (11.5%, 38,217G)
DeathTaxesAndAnime: 2,000G (6.0%, 3,929G)
EnemyController: 2,000G (6.0%, 8,292G)
maakur_: 1,649G (5.0%, 1,649G)
HaplessOne: 1,500G (4.5%, 16,932G)
DudeMonkey77: 1,300G (3.9%, 48,972G)
BadBlanket: 1,227G (3.7%, 1,227G)
sinnyil2: 1,200G (3.6%, 20,196G)
kai_shee: 1,000G (3.0%, 38,402G)
SleepyBenzo: 783G (2.4%, 783G)
Laserman1000: 600G (1.8%, 6,900G)
luminarii: 364G (1.1%, 7,212G)
AzuriteReaction: 348G (1.1%, 348G)
Anomandaris__: 300G (0.9%, 1,460G)
ugoplatamia: 200G (0.6%, 9,625G)
gum44: 200G (0.6%, 4,353G)
loveyouallfriends: 150G (0.5%, 10,456G)
Nizaha: 100G (0.3%, 5,495G)
Tithonus: 100G (0.3%, 8,498G)
Aisuhiko: 100G (0.3%, 4,854G)
datadrivenbot: 100G (0.3%, 17,163G)
Phi_Sig: 100G (0.3%, 45,041G)
getthemoneyz: 64G (0.2%, 404,525G)
roqqqpsi: 22G (0.1%, 1,277G)
