Final Bets: yellow - 18 bets for 143,035G (68.0%, x0.47); champion - 34 bets for 67,356G (32.0%, x2.12)

yellow bets:
poorest_hobo: 128,908G (90.1%, 182,231G)
evdoggity: 5,839G (4.1%, 5,839G)
Wrath189: 2,005G (1.4%, 2,005G)
fattunaking: 1,000G (0.7%, 8,338G)
BirbBrainsBot: 1,000G (0.7%, 164,055G)
killth3kid: 564G (0.4%, 10,591G)
pplvee1: 560G (0.4%, 560G)
Blaster_Bomb: 500G (0.3%, 3,906G)
RunicMagus: 500G (0.3%, 2,637G)
Smashy: 496G (0.3%, 496G)
Runeseeker22: 244G (0.2%, 244G)
krombobreaker: 240G (0.2%, 240G)
holandrix: 235G (0.2%, 235G)
arumz: 228G (0.2%, 228G)
Omally_: 216G (0.2%, 216G)
iBardic: 200G (0.1%, 8,188G)
datadrivenbot: 200G (0.1%, 65,511G)
ANFz: 100G (0.1%, 4,044G)

champion bets:
VolgraTheMoose: 20,000G (29.7%, 170,873G)
run_with_stone_GUNs: 10,000G (14.8%, 10,000G)
SephDarkheart: 10,000G (14.8%, 167,627G)
Error72: 5,000G (7.4%, 74,040G)
dogsandcatsand: 3,757G (5.6%, 7,368G)
BaronHaynes: 3,000G (4.5%, 63,433G)
CorpusCav: 2,012G (3.0%, 2,012G)
ruleof5: 2,000G (3.0%, 32,799G)
Lydian_C: 1,200G (1.8%, 41,185G)
reinoe: 1,000G (1.5%, 32,150G)
Seaweed_B: 1,000G (1.5%, 49,782G)
getthemoneyz: 816G (1.2%, 1,781,451G)
PantherIscariot: 666G (1.0%, 7,062G)
Kronikle: 600G (0.9%, 42,383G)
Thyrandaal: 552G (0.8%, 552G)
Shalloween: 500G (0.7%, 11,691G)
Lifebregin: 500G (0.7%, 15,000G)
ar_tactic: 500G (0.7%, 96,287G)
Vahn_Blade: 500G (0.7%, 18,790G)
thunderducker: 444G (0.7%, 3,659G)
highelectricaltemperature: 400G (0.6%, 3,155G)
soren_of_tyto: 396G (0.6%, 396G)
BartTradingCompany: 378G (0.6%, 3,780G)
Lemonjohns: 364G (0.5%, 364G)
Lord_Gwarth: 300G (0.4%, 4,548G)
Chuckolator: 268G (0.4%, 4,024G)
douchetron: 252G (0.4%, 252G)
Greggernaut: 212G (0.3%, 212G)
Laserman1000: 200G (0.3%, 1,700G)
roofiepops: 123G (0.2%, 1,191G)
escobro: 116G (0.2%, 116G)
ko2q: 100G (0.1%, 3,077G)
DracoknightZero: 100G (0.1%, 3,762G)
Genericllama: 100G (0.1%, 2,380G)
