Final Bets: yellow - 6 bets for 9,626G (56.3%, x0.78); purple - 14 bets for 7,479G (43.7%, x1.29)

yellow bets:
Aldrammech: 4,323G (44.9%, 59,321G)
sinnyil2: 3,224G (33.5%, 6,448G)
Mudrockk: 912G (9.5%, 3,042G)
Luna_XIV: 685G (7.1%, 1,370G)
cloudycube: 382G (4.0%, 382G)
AllInBot: 100G (1.0%, 100G)

purple bets:
Thyrandaal: 2,000G (26.7%, 9,079G)
BirbBrainsBot: 1,000G (13.4%, 168,343G)
Chuckolator: 706G (9.4%, 706G)
SkylerBunny: 544G (7.3%, 544G)
DejaPoo21: 500G (6.7%, 14,925G)
artysayres: 496G (6.6%, 496G)
resjudicata3: 388G (5.2%, 388G)
lowlf: 380G (5.1%, 8,000G)
Humble_Fabio: 333G (4.5%, 1,026G)
getthemoneyz: 324G (4.3%, 1,730,670G)
NewbGaming: 300G (4.0%, 2,568G)
datadrivenbot: 200G (2.7%, 69,229G)
corysteam: 200G (2.7%, 5,438G)
onehitslay: 108G (1.4%, 108G)
