Final Bets: green - 20 bets for 9,112G (45.2%, x1.21); yellow - 14 bets for 11,064G (54.8%, x0.82)

green bets:
killth3kid: 2,039G (22.4%, 20,397G)
ZCKaiser: 1,178G (12.9%, 2,357G)
BirbBrainsBot: 1,000G (11.0%, 34,039G)
HaateXIII: 772G (8.5%, 772G)
prince_rogers_nelson_: 500G (5.5%, 7,218G)
Laserman1000: 500G (5.5%, 62,300G)
NovaKnight21: 472G (5.2%, 472G)
gorgewall: 401G (4.4%, 21,803G)
getthemoneyz: 374G (4.1%, 959,833G)
roofiepops: 320G (3.5%, 320G)
CaptainGarlock: 300G (3.3%, 9,600G)
Saouri: 262G (2.9%, 262G)
Flameatron: 200G (2.2%, 4,866G)
cheesy_e: 200G (2.2%, 921G)
s_o_b_e_q: 128G (1.4%, 128G)
Azelgrim: 108G (1.2%, 108G)
KittymanAdvance: 108G (1.2%, 108G)
AllInBot: 100G (1.1%, 100G)
datadrivenbot: 100G (1.1%, 39,640G)
AltimaMantoid: 50G (0.5%, 250G)

yellow bets:
soren_of_tyto: 2,664G (24.1%, 2,664G)
SkylerBunny: 2,500G (22.6%, 119,993G)
YaBoy125: 2,021G (18.3%, 67,370G)
OneHundredFists: 729G (6.6%, 729G)
sukotsuto: 500G (4.5%, 17,010G)
CosmicTactician: 500G (4.5%, 3,438G)
Oreo_Pizza: 500G (4.5%, 20,794G)
nifboy: 408G (3.7%, 408G)
OppressivelyMinty: 300G (2.7%, 9,117G)
Spuzzmocker: 248G (2.2%, 248G)
Nerf_Vergil: 200G (1.8%, 1,823G)
Grandlanzer: 200G (1.8%, 3,283G)
NightwolfXVI: 194G (1.8%, 194G)
OtherBrand: 100G (0.9%, 2,504G)
