Final Bets: white - 16 bets for 17,946G (70.5%, x0.42); purple - 16 bets for 7,518G (29.5%, x2.39)

white bets:
SkylerBunny: 5,000G (27.9%, 124,857G)
killth3kid: 2,276G (12.7%, 22,766G)
YaBoy125: 2,159G (12.0%, 71,995G)
s_o_b_e_q: 1,618G (9.0%, 1,618G)
ZCKaiser: 1,008G (5.6%, 2,017G)
HaychDub: 1,001G (5.6%, 38,664G)
Thyrandaal: 1,000G (5.6%, 35,667G)
MagicBottle: 1,000G (5.6%, 11,665G)
OneHundredFists: 855G (4.8%, 855G)
CosmicTactician: 500G (2.8%, 4,991G)
prince_rogers_nelson_: 500G (2.8%, 6,819G)
cheesy_e: 400G (2.2%, 1,510G)
gorgewall: 301G (1.7%, 21,604G)
Nelrith: 128G (0.7%, 128G)
Grandlanzer: 100G (0.6%, 4,252G)
datadrivenbot: 100G (0.6%, 39,560G)

purple bets:
sukotsuto: 1,500G (20.0%, 20,041G)
BirbBrainsBot: 1,000G (13.3%, 31,819G)
kaidykat: 1,000G (13.3%, 24,029G)
nifboy: 908G (12.1%, 908G)
HaateXIII: 772G (10.3%, 772G)
AltimaMantoid: 538G (7.2%, 538G)
OppressivelyMinty: 500G (6.7%, 9,709G)
CaptainGarlock: 300G (4.0%, 10,403G)
reddwind_: 200G (2.7%, 2,034G)
AllInBot: 178G (2.4%, 178G)
getthemoneyz: 152G (2.0%, 958,797G)
Lydian_C: 120G (1.6%, 18,821G)
SeniorBunk: 100G (1.3%, 7,926G)
OtherBrand: 100G (1.3%, 2,586G)
NightwolfXVI: 100G (1.3%, 1,430G)
Nohurty: 50G (0.7%, 1,841G)
