Final Bets: green - 15 bets for 24,672G (86.9%, x0.15); yellow - 9 bets for 3,709G (13.1%, x6.65)

green bets:
dogsandcatsand: 10,667G (43.2%, 50,667G)
Rytor: 7,161G (29.0%, 14,042G)
BirbBrainsBot: 1,000G (4.1%, 149,642G)
Willjin: 1,000G (4.1%, 38,298G)
loveyouallfriends: 1,000G (4.1%, 39,061G)
gorgewall: 976G (4.0%, 976G)
Raixelol: 600G (2.4%, 9,328G)
krombobreaker: 500G (2.0%, 7,386G)
Tithonus: 352G (1.4%, 352G)
ValensEXP_: 352G (1.4%, 5,117G)
robespyah: 292G (1.2%, 292G)
Chihuahua_Charity: 268G (1.1%, 268G)
AllInBot: 200G (0.8%, 200G)
ribbiks: 200G (0.8%, 4,139G)
LitArmada: 104G (0.4%, 104G)

yellow bets:
latebit: 767G (20.7%, 1,504G)
getthemoneyz: 722G (19.5%, 1,994,535G)
khelor_: 700G (18.9%, 2,495G)
CorpusCav: 520G (14.0%, 520G)
J2Reed: 288G (7.8%, 288G)
ShadowNinja25: 212G (5.7%, 212G)
DeathTaxesAndAnime: 200G (5.4%, 1,846G)
datadrivenbot: 200G (5.4%, 72,284G)
RunicMagus: 100G (2.7%, 11,964G)
