Final Bets: red - 21 bets for 11,011G (21.0%, x3.76); blue - 36 bets for 41,413G (79.0%, x0.27)

red bets:
Zeroroute: 2,253G (20.5%, 2,253G)
fenixcrest: 1,001G (9.1%, 10,016G)
mpghappiness: 1,000G (9.1%, 5,775G)
BirbBrainsBot: 1,000G (9.1%, 13,822G)
inzo_bettingbot: 1,000G (9.1%, 21,067G)
Mtueni: 1,000G (9.1%, 112,145G)
ricky_ortease: 641G (5.8%, 5,864G)
Jeeboheebo: 500G (4.5%, 22,518G)
technominari: 500G (4.5%, 78,731G)
sinnyil2: 500G (4.5%, 3,467G)
Buttersheep_: 366G (3.3%, 366G)
MrFlabyo: 200G (1.8%, 21,000G)
rockmem21: 200G (1.8%, 17,036G)
SerumD: 200G (1.8%, 1,796G)
EnemyController: 200G (1.8%, 20,291G)
SpaZmodeus: 100G (0.9%, 4,457G)
Tougou: 100G (0.9%, 4,295G)
Yasmosis: 100G (0.9%, 4,847G)
rico_flex: 75G (0.7%, 1,849G)
alrightbye: 50G (0.5%, 6,564G)
Axelrod: 25G (0.2%, 28,098G)

blue bets:
toka222: 11,000G (26.6%, 380,616G)
domeil: 3,736G (9.0%, 3,736G)
AM3P_Batman: 3,000G (7.2%, 21,197G)
OmnibotGamma: 2,577G (6.2%, 10,311G)
OneHundredFists: 2,500G (6.0%, 8,702G)
LanseDM: 2,000G (4.8%, 17,678G)
LASERJESUS1337: 2,000G (4.8%, 8,230G)
ThePineappleSalesman: 1,663G (4.0%, 1,663G)
AnthraX85: 1,112G (2.7%, 1,112G)
Lodrak: 1,031G (2.5%, 1,031G)
kai_shee: 1,000G (2.4%, 33,857G)
ShintaroNayaka: 1,000G (2.4%, 9,995G)
HaplessOne: 1,000G (2.4%, 39,142G)
getthemoneyz: 700G (1.7%, 393,775G)
Lanshaft: 580G (1.4%, 5,465G)
luminarii: 572G (1.4%, 9,096G)
Laserman1000: 549G (1.3%, 21,449G)
Shakarak: 536G (1.3%, 536G)
TheRobbieRobster: 500G (1.2%, 2,029G)
red__lancer: 500G (1.2%, 14,700G)
silentperogy: 500G (1.2%, 8,648G)
Lazerkick: 500G (1.2%, 15,668G)
fenaen: 461G (1.1%, 461G)
SeraphPDH: 400G (1.0%, 10,606G)
Oshimi12: 300G (0.7%, 2,455G)
lijarkh: 300G (0.7%, 6,771G)
mirapoix: 250G (0.6%, 7,215G)
lunaticruin: 240G (0.6%, 240G)
0utlier: 200G (0.5%, 842G)
byrdturbo: 169G (0.4%, 3,663G)
FoxtrotNovemberCharlie: 136G (0.3%, 136G)
ApplesauceBoss: 100G (0.2%, 5,207G)
BadBlanket: 100G (0.2%, 3,289G)
ko2q: 100G (0.2%, 1,127G)
victoriolue: 100G (0.2%, 3,792G)
daveb_: 1G (0.0%, 1,751G)
