Final Bets: green - 28 bets for 11,303G (32.5%, x2.07); yellow - 27 bets for 23,444G (67.5%, x0.48)

green bets:
roofiepops: 1,300G (11.5%, 1,300G)
Jeeboheebo: 1,002G (8.9%, 22,018G)
kai_shee: 1,000G (8.8%, 34,123G)
LanseDM: 1,000G (8.8%, 18,210G)
inzo24: 1,000G (8.8%, 8,180G)
OmnibotGamma: 1,000G (8.8%, 10,996G)
Laserman1000: 595G (5.3%, 21,595G)
LASERJESUS1337: 500G (4.4%, 8,762G)
fenixcrest: 450G (4.0%, 9,019G)
Baron_von_Scrub: 400G (3.5%, 400G)
getthemoneyz: 320G (2.8%, 393,961G)
luminarii: 320G (2.8%, 9,248G)
alrightbye: 300G (2.7%, 6,514G)
Lazerkick: 300G (2.7%, 15,801G)
Dexef: 276G (2.4%, 276G)
urieltheflameofgod: 226G (2.0%, 226G)
0utlier: 200G (1.8%, 895G)
FoxtrotNovemberCharlie: 172G (1.5%, 172G)
TheRobbieRobster: 162G (1.4%, 2,162G)
ApplesauceBoss: 100G (0.9%, 5,234G)
SpaZmodeus: 100G (0.9%, 3,357G)
SeraphPDH: 100G (0.9%, 10,712G)
mpghappiness: 100G (0.9%, 4,775G)
silentperogy: 100G (0.9%, 8,781G)
maakur_: 100G (0.9%, 4,239G)
domeil: 100G (0.9%, 4,729G)
denamda: 50G (0.4%, 18,143G)
baconbacon1207: 30G (0.3%, 19,270G)

yellow bets:
Eoika: 4,060G (17.3%, 4,060G)
Mtueni: 4,000G (17.1%, 111,145G)
rockmem21: 3,367G (14.4%, 16,836G)
Lodrak: 1,305G (5.6%, 1,305G)
WalkerNash: 1,009G (4.3%, 22,283G)
DudeMonkey77: 1,000G (4.3%, 27,336G)
nomoment: 1,000G (4.3%, 19,477G)
BirbBrainsBot: 1,000G (4.3%, 12,822G)
ricky_ortease: 741G (3.2%, 5,223G)
Shakarak: 679G (2.9%, 679G)
fenaen: 584G (2.5%, 584G)
Lanshaft: 580G (2.5%, 5,619G)
volgrathemoose: 500G (2.1%, 1,276G)
red__lancer: 500G (2.1%, 14,833G)
HaplessOne: 500G (2.1%, 39,408G)
AnthraX85: 408G (1.7%, 408G)
SerumD: 350G (1.5%, 1,596G)
ShintaroNayaka: 300G (1.3%, 10,261G)
dohm69: 250G (1.1%, 1,000G)
Oshimi12: 200G (0.9%, 2,535G)
tone_t: 200G (0.9%, 9,109G)
EnemyController: 200G (0.9%, 20,091G)
ensiron: 200G (0.9%, 200G)
reinoe: 200G (0.9%, 2,360G)
Jordache7K: 111G (0.5%, 13,144G)
chloromaster: 100G (0.4%, 432G)
ko2q: 100G (0.4%, 1,154G)
