Final Bets: purple - 15 bets for 6,290G (45.5%, x1.20); brown - 7 bets for 7,532G (54.5%, x0.84)

purple bets:
WitchHunterIX: 1,000G (15.9%, 32,359G)
BirbBrainsBot: 1,000G (15.9%, 25,573G)
dantayystv: 1,000G (15.9%, 19,012G)
porkchop5158: 1,000G (15.9%, 53,577G)
CassiePhoenix: 464G (7.4%, 464G)
prince_rogers_nelson_: 440G (7.0%, 440G)
getthemoneyz: 242G (3.8%, 1,301,619G)
peeronid: 200G (3.2%, 13,775G)
UnderOneLight: 200G (3.2%, 1,225G)
datadrivenbot: 200G (3.2%, 30,397G)
dtrain332: 144G (2.3%, 144G)
DouglasDragonThePoet: 100G (1.6%, 474G)
JohnDuggins: 100G (1.6%, 7,318G)
nerigera: 100G (1.6%, 1,199G)
randgridr: 100G (1.6%, 1,868G)

brown bets:
Lydian_C: 4,200G (55.8%, 67,965G)
AllInBot: 1,125G (14.9%, 1,125G)
TheMurkGnome: 618G (8.2%, 6,106G)
ShintaroNayaka: 500G (6.6%, 7,906G)
red_celt: 497G (6.6%, 497G)
Lanshaft: 492G (6.5%, 20,713G)
blorpy_: 100G (1.3%, 571G)
