Final Bets: blue - 3 bets for 4,141G (26.9%, x2.72); champion - 18 bets for 11,265G (73.1%, x0.37)

blue bets:
argentbast: 3,000G (72.4%, 39,715G)
Shalloween: 646G (15.6%, 646G)
HASTERIOUS: 495G (12.0%, 9,916G)

champion bets:
Mesmaster: 2,000G (17.8%, 141,935G)
StreamRocket: 2,000G (17.8%, 10,812G)
CorpusCav: 2,000G (17.8%, 41,598G)
Vaxaldan: 1,021G (9.1%, 1,021G)
BirbBrainsBot: 1,000G (8.9%, 124,068G)
gorgewall: 564G (5.0%, 564G)
vorap: 400G (3.6%, 117,189G)
DustBirdEX: 345G (3.1%, 22,101G)
getthemoneyz: 316G (2.8%, 783,058G)
redrhinofever: 300G (2.7%, 4,809G)
gogofromtogo: 280G (2.5%, 280G)
nofreewill: 216G (1.9%, 216G)
Avin_Chaos: 200G (1.8%, 14,285G)
foofermoofer: 164G (1.5%, 164G)
nok____: 143G (1.3%, 18,401G)
itsadud: 116G (1.0%, 116G)
moocaotao: 100G (0.9%, 1,726G)
datadrivenbot: 100G (0.9%, 30,378G)
