Final Bets: brown - 12 bets for 10,051G (48.7%, x1.05); champion - 13 bets for 10,602G (51.3%, x0.95)

brown bets:
VolgraTheMoose: 4,742G (47.2%, 44,742G)
toka222: 2,650G (26.4%, 57,704G)
Evewho: 1,041G (10.4%, 1,041G)
ColetteMSLP: 300G (3.0%, 1,385G)
Lythe_Caraker: 250G (2.5%, 111,172G)
Alaquane: 249G (2.5%, 249G)
AllInBot: 215G (2.1%, 215G)
placidphoenix: 204G (2.0%, 204G)
CosmicTactician: 100G (1.0%, 5,731G)
Kyune: 100G (1.0%, 10,839G)
IphoneDarkness: 100G (1.0%, 2,909G)
datadrivenbot: 100G (1.0%, 42,709G)

champion bets:
OneHundredFists: 5,570G (52.5%, 10,923G)
killth3kid: 1,000G (9.4%, 6,563G)
Zachara: 718G (6.8%, 106,718G)
Cryptopsy70: 544G (5.1%, 14,418G)
mpghappiness: 500G (4.7%, 5,641G)
old_overholt_: 500G (4.7%, 22,578G)
EnemyController: 500G (4.7%, 593,683G)
HASTERIOUS: 442G (4.2%, 44,290G)
d4rr1n: 300G (2.8%, 5,940G)
MadnessR: 200G (1.9%, 1,365G)
silentkaster: 150G (1.4%, 3,350G)
biffcake01: 100G (0.9%, 560G)
username123132: 78G (0.7%, 156G)
