Final Bets: green - 23 bets for 10,374G (49.6%, x1.02); yellow - 19 bets for 10,553G (50.4%, x0.98)

green bets:
CorpusCav: 1,002G (9.7%, 6,876G)
EnemyController: 1,000G (9.6%, 440,168G)
metagameface: 966G (9.3%, 966G)
Rislyeu: 736G (7.1%, 1,473G)
Shalloween: 707G (6.8%, 1,415G)
ColetteMSLP: 700G (6.7%, 43,396G)
Laserman1000: 600G (5.8%, 25,100G)
Jinxzers: 500G (4.8%, 8,563G)
killth3kid: 500G (4.8%, 28,892G)
Baron_von_Scrub: 474G (4.6%, 22,138G)
Cryptopsy70: 468G (4.5%, 1,330G)
luminarii: 450G (4.3%, 19,177G)
Mokura3rd: 400G (3.9%, 1,027G)
Firesheath: 388G (3.7%, 388G)
dogsandcatsand: 296G (2.9%, 296G)
nifboy: 250G (2.4%, 15,153G)
kaelsun: 236G (2.3%, 236G)
gorgewall: 201G (1.9%, 18,904G)
AllInBot: 100G (1.0%, 100G)
CosmicTactician: 100G (1.0%, 585G)
Flameatron: 100G (1.0%, 444G)
datadrivenbot: 100G (1.0%, 28,591G)
lastly: 100G (1.0%, 11,870G)

yellow bets:
toka222: 5,000G (47.4%, 102,172G)
BirbBrainsBot: 1,000G (9.5%, 66,454G)
coralreeferz: 550G (5.2%, 3,577G)
letdowncity: 500G (4.7%, 8,993G)
volgrathemoose: 456G (4.3%, 456G)
HASTERIOUS: 433G (4.1%, 8,670G)
getthemoneyz: 382G (3.6%, 759,690G)
DustBirdEX: 345G (3.3%, 6,289G)
TinchoT: 337G (3.2%, 337G)
bruubarg: 280G (2.7%, 280G)
benticore: 250G (2.4%, 1,079G)
Monopool: 200G (1.9%, 636G)
Wonser: 200G (1.9%, 2,000G)
WunUP: 184G (1.7%, 184G)
Powerpinch: 100G (0.9%, 100G)
ravingsockmonkey: 100G (0.9%, 2,017G)
mrfripps: 100G (0.9%, 327G)
Evewho: 100G (0.9%, 9,868G)
Cuchulame: 36G (0.3%, 1,189G)
