Final Bets: white - 14 bets for 6,603G (32.6%, x2.06); brown - 21 bets for 13,630G (67.4%, x0.48)

white bets:
Aldrammech: 1,000G (15.1%, 11,635G)
EnemyController: 1,000G (15.1%, 232,671G)
fenaen: 973G (14.7%, 973G)
maakur_: 745G (11.3%, 745G)
BoneMiser: 592G (9.0%, 592G)
metagameface: 500G (7.6%, 1,989G)
OmnibotGamma: 500G (7.6%, 20,582G)
CapnChaos12: 300G (4.5%, 2,801G)
Ross_from_Cali: 244G (3.7%, 244G)
ungabunga_bot: 215G (3.3%, 484,556G)
thethorndog1: 200G (3.0%, 264G)
Sykper: 178G (2.7%, 178G)
nifboy: 100G (1.5%, 1,949G)
getthemoneyz: 56G (0.8%, 674,119G)

brown bets:
JumbocactuarX27: 2,192G (16.1%, 2,192G)
Grimmace45: 1,526G (11.2%, 30,532G)
Nizaha: 1,001G (7.3%, 5,857G)
BirbBrainsBot: 1,000G (7.3%, 25,530G)
NicoSavoy: 1,000G (7.3%, 24,129G)
Estan_AD: 967G (7.1%, 967G)
vorap: 800G (5.9%, 48,001G)
joewcarson: 712G (5.2%, 712G)
ApplesauceBoss: 637G (4.7%, 637G)
Nickyfive: 556G (4.1%, 556G)
killth3kid: 500G (3.7%, 3,342G)
ThePineappleSalesman: 500G (3.7%, 30,952G)
Powermhero: 500G (3.7%, 7,991G)
Miyokari: 450G (3.3%, 15,831G)
SQUiDSQUARKLIN: 300G (2.2%, 2,605G)
Lythe_Caraker: 250G (1.8%, 121,727G)
AUrato: 236G (1.7%, 236G)
guering: 178G (1.3%, 178G)
a_mo22: 125G (0.9%, 1,870G)
Vultuous: 100G (0.7%, 3,940G)
datadrivenbot: 100G (0.7%, 15,573G)
