Final Bets: yellow - 14 bets for 23,379G (48.3%, x1.07); white - 15 bets for 25,063G (51.7%, x0.93)

yellow bets:
R_Raynos: 19,747G (84.5%, 19,747G)
Lionhermit: 1,000G (4.3%, 11,249G)
leakimiko: 504G (2.2%, 504G)
superdevon1: 500G (2.1%, 4,974G)
YaBoy125: 364G (1.6%, 2,224G)
readdesert: 335G (1.4%, 335G)
TheMM42: 300G (1.3%, 322G)
Firesheath: 100G (0.4%, 11,841G)
dragoduval: 100G (0.4%, 2,974G)
Evewho: 100G (0.4%, 6,503G)
nifboy: 100G (0.4%, 6,850G)
datadrivenbot: 100G (0.4%, 12,128G)
ZephyrTempest: 79G (0.3%, 532G)
cougboi: 50G (0.2%, 16,620G)

white bets:
DeathTaxesAndAnime: 11,089G (44.2%, 21,744G)
Mesmaster: 5,000G (19.9%, 18,715G)
sinnyil2: 2,649G (10.6%, 2,649G)
ungabunga_bot: 1,000G (4.0%, 358,171G)
BirbBrainsBot: 1,000G (4.0%, 61,311G)
reinoe: 1,000G (4.0%, 7,348G)
evontno: 1,000G (4.0%, 10,278G)
twelfthrootoftwo: 492G (2.0%, 492G)
getthemoneyz: 386G (1.5%, 630,280G)
Estan_AD: 364G (1.5%, 364G)
electric_glass: 333G (1.3%, 2,836G)
astrozin11: 300G (1.2%, 4,000G)
Eyepoor_: 250G (1.0%, 5,168G)
caprinovoa: 100G (0.4%, 100G)
Kyune: 100G (0.4%, 5,779G)
