Final Bets: yellow - 18 bets for 25,773G (40.1%, x1.49); champion - 20 bets for 38,492G (59.9%, x0.67)

yellow bets:
R_Raynos: 20,000G (77.6%, 40,516G)
reinoe: 1,000G (3.9%, 6,348G)
BirbBrainsBot: 882G (3.4%, 60,311G)
sinnyil2: 656G (2.5%, 656G)
superdevon1: 551G (2.1%, 5,510G)
mirapoix: 480G (1.9%, 480G)
ZephyrTempest: 456G (1.8%, 617G)
Estan_AD: 364G (1.4%, 364G)
itsdigitalbro: 294G (1.1%, 294G)
Eyepoor_: 250G (1.0%, 4,918G)
amiture: 200G (0.8%, 7,340G)
mannequ1n: 100G (0.4%, 100G)
Evewho: 100G (0.4%, 6,610G)
Lythe_Caraker: 100G (0.4%, 115,981G)
astrozin11: 100G (0.4%, 2,700G)
RestIessNight: 100G (0.4%, 1,387G)
Legitimized: 100G (0.4%, 2,035G)
getthemoneyz: 40G (0.2%, 629,894G)

champion bets:
Mesmaster: 13,715G (35.6%, 13,715G)
lobsterlobster: 6,666G (17.3%, 18,423G)
DeathTaxesAndAnime: 5,434G (14.1%, 10,655G)
evontno: 3,000G (7.8%, 9,278G)
Laserman1000: 1,088G (2.8%, 113,988G)
leakimiko: 1,044G (2.7%, 1,044G)
DonCardenio: 1,000G (2.6%, 32,770G)
Lionhermit: 1,000G (2.6%, 12,321G)
nifboy: 666G (1.7%, 6,957G)
electric_glass: 666G (1.7%, 2,503G)
Firesheath: 666G (1.7%, 11,948G)
cougboi: 666G (1.7%, 16,674G)
Kyune: 666G (1.7%, 5,679G)
TheMM42: 644G (1.7%, 644G)
Oreo_Pizza: 500G (1.3%, 13,032G)
twelfthrootoftwo: 492G (1.3%, 492G)
kaidykat: 279G (0.7%, 279G)
datadrivenbot: 100G (0.3%, 12,235G)
ungabunga_bot: 100G (0.3%, 357,171G)
Realitydown: 100G (0.3%, 6,580G)
