Final Bets: white - 13 bets for 5,750G (44.0%, x1.27); black - 19 bets for 7,314G (56.0%, x0.79)

white bets:
slatios: 859G (14.9%, 1,718G)
leakimiko: 829G (14.4%, 27,659G)
megaman2202: 780G (13.6%, 1,560G)
reinoe: 644G (11.2%, 644G)
z32o: 500G (8.7%, 1,674G)
volgrathemoose: 460G (8.0%, 460G)
SeedSC: 420G (7.3%, 73,261G)
JustSuperish: 300G (5.2%, 4,597G)
lijarkh: 288G (5.0%, 288G)
getthemoneyz: 220G (3.8%, 411,099G)
ugoplatamia: 200G (3.5%, 3,318G)
WinnerBit: 150G (2.6%, 1,564G)
Treapvort: 100G (1.7%, 11,883G)

black bets:
BirbBrainsBot: 940G (12.9%, 85,022G)
bad1dea: 900G (12.3%, 309,256G)
PatSouI: 676G (9.2%, 676G)
BoneMiser: 552G (7.5%, 552G)
InOzWeTrust: 520G (7.1%, 520G)
Goust18: 500G (6.8%, 14,835G)
mayormcfunbags: 500G (6.8%, 1,967G)
KingGoldenPanda: 500G (6.8%, 9,368G)
rechaun: 500G (6.8%, 2,471G)
DeathTaxesAndAnime: 472G (6.5%, 472G)
SpaZmodeus: 333G (4.6%, 3,224G)
jhazor: 216G (3.0%, 216G)
amadmet: 200G (2.7%, 6,633G)
Aneyus: 100G (1.4%, 10,623G)
McGooferson: 100G (1.4%, 1,002G)
Oshimi12: 100G (1.4%, 2,278G)
powergems: 100G (1.4%, 9,194G)
herrshaun: 100G (1.4%, 886G)
ko2q: 5G (0.1%, 1,522G)
