Final Bets: red - 11 bets for 4,838G (50.5%, x0.98); blue - 9 bets for 4,736G (49.5%, x1.02)

red bets:
SkylerBunny: 1,700G (35.1%, 517,754G)
Tithonus: 707G (14.6%, 707G)
YaBoy125: 697G (14.4%, 697G)
reinoe: 500G (10.3%, 14,474G)
twelfthrootoftwo: 300G (6.2%, 17,815G)
Evewho: 200G (4.1%, 10,325G)
gamesage53: 180G (3.7%, 180G)
Klednar21: 170G (3.5%, 170G)
ar_tactic: 150G (3.1%, 61,481G)
superdevon1: 134G (2.8%, 1,348G)
Neo_Exodus: 100G (2.1%, 6,700G)

blue bets:
UmaiJam: 1,300G (27.4%, 33,116G)
getthemoneyz: 1,000G (21.1%, 1,106,079G)
Chuckolator: 709G (15.0%, 124,589G)
prince_rogers_nelson_: 672G (14.2%, 672G)
BirbBrainsBot: 555G (11.7%, 114,172G)
SuzakuReii: 200G (4.2%, 4,436G)
Ring_Wyrm: 100G (2.1%, 3,175G)
Sans_from_Snowdin: 100G (2.1%, 25,832G)
datadrivenbot: 100G (2.1%, 48,223G)
