Final Bets: black - 26 bets for 21,654G (55.0%, x0.82); purple - 17 bets for 17,688G (45.0%, x1.22)

black bets:
DeathTaxesAndAnime: 4,707G (21.7%, 9,231G)
HASTERIOUS: 2,765G (12.8%, 2,765G)
Evewho: 2,706G (12.5%, 13,532G)
JackOnFire1: 2,000G (9.2%, 2,000G)
Aldrammech: 1,400G (6.5%, 14,003G)
volgrathemoose: 1,001G (4.6%, 5,845G)
Mtueni: 1,000G (4.6%, 115,960G)
jethrothrul: 872G (4.0%, 872G)
HaateXIII: 838G (3.9%, 838G)
OneHundredFists: 677G (3.1%, 677G)
reinoe: 600G (2.8%, 600G)
BoneMiser: 556G (2.6%, 556G)
JIDkomu: 313G (1.4%, 313G)
Meanderandreturn: 300G (1.4%, 6,453G)
KingJurgs: 300G (1.4%, 1,793G)
Slowbrofist: 272G (1.3%, 272G)
regios91: 256G (1.2%, 256G)
GingerDynomite: 250G (1.2%, 5,761G)
ungabunga_bot: 141G (0.7%, 66,353G)
ApplesauceBoss: 100G (0.5%, 5,657G)
Aneyus: 100G (0.5%, 8,918G)
maakur_: 100G (0.5%, 1,252G)
BlinkFS: 100G (0.5%, 100G)
DHaveWord: 100G (0.5%, 2,049G)
ko2q: 100G (0.5%, 1,949G)
datadrivenbot: 100G (0.5%, 24,953G)

purple bets:
SkylerBunny: 3,464G (19.6%, 3,464G)
BenYuPoker: 2,269G (12.8%, 2,269G)
friendsquirrel: 2,097G (11.9%, 2,097G)
Nizaha: 1,755G (9.9%, 3,511G)
RunicMagus: 1,500G (8.5%, 31,397G)
HaplessOne: 1,500G (8.5%, 114,286G)
lowlf: 1,000G (5.7%, 28,014G)
BirbBrainsBot: 1,000G (5.7%, 268,268G)
Shalloween: 631G (3.6%, 631G)
Lanshaft: 600G (3.4%, 4,033G)
I_nod_my_head_when_I_lose: 500G (2.8%, 18,516G)
DudeMonkey77: 474G (2.7%, 474G)
Baron_von_Scrub: 353G (2.0%, 4,185G)
ZephyrTempest: 335G (1.9%, 23,375G)
AllInBot: 100G (0.6%, 100G)
Spirit_NB: 100G (0.6%, 563G)
getthemoneyz: 10G (0.1%, 442,714G)
