Final Bets: purple - 18 bets for 9,822G (52.3%, x0.91); brown - 14 bets for 8,957G (47.7%, x1.10)

purple bets:
dogsandcatsand: 2,000G (20.4%, 3,214G)
killth3kid: 1,318G (13.4%, 131,863G)
Baron_von_Scrub: 1,111G (11.3%, 27,287G)
thaetreis: 1,000G (10.2%, 27,634G)
Firesheath: 696G (7.1%, 696G)
Nizaha: 512G (5.2%, 5,268G)
Rurk: 500G (5.1%, 6,187G)
gorgewall: 401G (4.1%, 6,669G)
Blastinus: 384G (3.9%, 384G)
Zagorsek: 356G (3.6%, 356G)
OtherBrand: 272G (2.8%, 272G)
safira125: 232G (2.4%, 232G)
Alaquane: 228G (2.3%, 228G)
Mathlexis: 212G (2.2%, 212G)
datadrivenbot: 200G (2.0%, 51,676G)
Evewho: 200G (2.0%, 14,818G)
GBZero: 100G (1.0%, 100G)
NightwolfXVI: 100G (1.0%, 1,182G)

brown bets:
KyleWonToLiveForever: 1,706G (19.0%, 1,706G)
DeathTaxesAndAnime: 1,492G (16.7%, 1,492G)
BirbBrainsBot: 1,000G (11.2%, 143,075G)
getthemoneyz: 1,000G (11.2%, 1,160,022G)
chippendale891: 1,000G (11.2%, 1,000G)
E_Ballard: 835G (9.3%, 835G)
ShintaroNayaka: 608G (6.8%, 608G)
RampagingRobot: 400G (4.5%, 3,137G)
alekzanndrr: 381G (4.3%, 381G)
roqqqpsi: 131G (1.5%, 13,194G)
SephDarkheart: 104G (1.2%, 104G)
actual_JP: 100G (1.1%, 2,630G)
Linkn: 100G (1.1%, 5,321G)
fluffskull: 100G (1.1%, 1,644G)
