High Risers:
1. Lythe_caraker: +35,790G
2. Thyrandaal: +18,287G
3. Xsifthewolf: +5,652G
4. Lydian_c: +5,647G
5. Technominari: +4,794G
6. Zenlion: +4,112G
7. Nifboy: +3,830G
8. Nicosavoy: +3,818G
9. Upvla: +1,916G
10. Latebit: +1,462G
11. Chuckolator: +1,303G
12. Chihuahua_charity: +1,119G
13. Roofiepops: +950G
14. Mirapoix: +767G
15. Dracoknightzero: +436G
16. Tithonus: +434G
17. Scsuperstar: +411G
18. Memoriesoffinal: +307G
19. Twisted_nutsatchel: +115G
20. Onehundredfists: +57G
21. Rune339: +22G
22. Go2sleeptv: +4G
23. Alyssariel: -11G
24. Markese: -136G
25. Pantheriscariot: -200G
26. Ayeayex3: -243G
27. Genkidou: -257G
28. Laserman1000: -300G
29. Omegasuspekt: -300G
30. Gantetsu: -333G
31. Ar_tactic: -450G
32. Ruleof5: -496G
33. Whitetigress: -496G
34. Lowlf: -901G
35. Dustbirdex: -1,145G
36. Arcfox4: -1,287G
37. Loveyouallfriends: -1,423G
38. Mushufasa_: -1,527G
39. Douchetron: -1,649G
40. Corpuscav: -1,656G
41. Wonser: -2,302G
42. 3ngag3: -4,043G
43. Zbgs: -5,519G
44. Willjin: -7,520G
45. Reinoe: -19,706G
