Final Bets: black - 15 bets for 8,320G (35.5%, x1.82); brown - 11 bets for 15,122G (64.5%, x0.55)

black bets:
Lydian_C: 1,200G (14.4%, 5,677G)
Wonser: 1,136G (13.7%, 2,229G)
Mushufasa_: 1,000G (12.0%, 53,017G)
loveyouallfriends: 1,000G (12.0%, 32,016G)
Willjin: 1,000G (12.0%, 34,738G)
CorpusCav: 520G (6.2%, 520G)
Laserman1000: 514G (6.2%, 10,414G)
technominari: 500G (6.0%, 80,671G)
upvla: 500G (6.0%, 500G)
AllInBot: 200G (2.4%, 200G)
AlysSariel: 200G (2.4%, 2,940G)
datadrivenbot: 200G (2.4%, 72,742G)
ar_tactic: 150G (1.8%, 97,113G)
MemoriesofFinal: 100G (1.2%, 34,118G)
scsuperstar: 100G (1.2%, 100G)

brown bets:
NicoSavoy: 10,000G (66.1%, 80,468G)
latebit: 1,589G (10.5%, 1,589G)
nifboy: 784G (5.2%, 9,071G)
lowlf: 564G (3.7%, 18,058G)
Zbgs: 544G (3.6%, 544G)
Lythe_Caraker: 500G (3.3%, 184,655G)
3ngag3: 352G (2.3%, 352G)
BirbBrainsBot: 305G (2.0%, 149,892G)
getthemoneyz: 284G (1.9%, 2,007,162G)
ArcFox4: 100G (0.7%, 100G)
genkidou: 100G (0.7%, 104G)
