Final Bets: white - 19 bets for 10,187G (50.0%, x1.00); black - 20 bets for 10,183G (50.0%, x1.00)

white bets:
aStatue: 1,295G (12.7%, 1,295G)
Baron_von_Scrub: 1,111G (10.9%, 79,529G)
HaplessOne: 1,111G (10.9%, 12,981G)
J2DaBibbles: 1,000G (9.8%, 14,651G)
Mesmaster: 1,000G (9.8%, 28,738G)
Lydian_C: 887G (8.7%, 887G)
ColetteMSLP: 800G (7.9%, 40,345G)
nuka1120: 500G (4.9%, 2,673G)
megaman2202: 487G (4.8%, 974G)
toka222: 456G (4.5%, 456G)
FireisWet: 452G (4.4%, 452G)
Jeeboheebo: 388G (3.8%, 388G)
AllInBot: 100G (1.0%, 100G)
GrayGhostGaming: 100G (1.0%, 19,635G)
RagequitSA: 100G (1.0%, 5,300G)
Kidikorus: 100G (1.0%, 3,627G)
Kingduck303: 100G (1.0%, 100G)
maakur_: 100G (1.0%, 114,117G)
Jahshine: 100G (1.0%, 3,875G)

black bets:
FoxtrotNovemberCharlie: 1,138G (11.2%, 1,138G)
BirbBrainsBot: 1,000G (9.8%, 118,701G)
JumbocactuarX27: 1,000G (9.8%, 13,803G)
Lionhermit: 1,000G (9.8%, 42,109G)
coralreeferz: 820G (8.1%, 820G)
PetitFoulard: 704G (6.9%, 704G)
FriendSquirrel: 698G (6.9%, 27,738G)
superdevon1: 563G (5.5%, 30,190G)
DavenIII: 500G (4.9%, 1,767G)
IndecisiveNinja: 472G (4.6%, 472G)
fenaen: 444G (4.4%, 444G)
Pink_LuigiX: 402G (3.9%, 402G)
ungabunga_bot: 317G (3.1%, 285,689G)
getthemoneyz: 242G (2.4%, 611,251G)
floopinthepig: 216G (2.1%, 216G)
ZephyrTempest: 209G (2.1%, 1,396G)
Clydethecamel: 150G (1.5%, 533G)
itsdigitalbro: 108G (1.1%, 108G)
troublesometree: 100G (1.0%, 1,351G)
Bongomon7: 100G (1.0%, 4,540G)
