Final Bets: purple - 18 bets for 9,870G (41.6%, x1.41); brown - 24 bets for 13,875G (58.4%, x0.71)

purple bets:
FoxtrotNovemberCharlie: 2,276G (23.1%, 2,276G)
Baron_von_Scrub: 1,111G (11.3%, 78,418G)
ColetteMSLP: 1,000G (10.1%, 39,545G)
ungabunga_bot: 1,000G (10.1%, 286,006G)
JumbocactuarX27: 1,000G (10.1%, 14,803G)
BirbBrainsBot: 940G (9.5%, 119,701G)
superdevon1: 563G (5.7%, 30,753G)
ZephyrTempest: 400G (4.1%, 1,605G)
Jeeboheebo: 388G (3.9%, 388G)
coralreeferz: 350G (3.5%, 1,640G)
Jahshine: 200G (2.0%, 3,775G)
FireisWet: 132G (1.3%, 132G)
AllInBot: 100G (1.0%, 100G)
GrayGhostGaming: 100G (1.0%, 19,535G)
nifboy: 100G (1.0%, 5,498G)
CosmicTactician: 100G (1.0%, 6,619G)
troublesometree: 100G (1.0%, 1,451G)
getthemoneyz: 10G (0.1%, 611,493G)

brown bets:
sinnyil2: 1,200G (8.6%, 2,366G)
Lionhermit: 1,000G (7.2%, 43,109G)
Lord_Burrah: 1,000G (7.2%, 111,786G)
kai_shee: 1,000G (7.2%, 10,941G)
HaplessOne: 1,000G (7.2%, 11,870G)
Mesmaster: 1,000G (7.2%, 27,738G)
IndecisiveNinja: 944G (6.8%, 944G)
fenaen: 888G (6.4%, 888G)
Pink_LuigiX: 804G (5.8%, 804G)
Lydian_C: 600G (4.3%, 600G)
aStatue: 600G (4.3%, 600G)
nuka1120: 500G (3.6%, 2,173G)
megaman2202: 487G (3.5%, 487G)
floopinthepig: 432G (3.1%, 432G)
PetitFoulard: 408G (2.9%, 408G)
joewcarson: 400G (2.9%, 5,749G)
toka222: 312G (2.2%, 312G)
Clydethecamel: 300G (2.2%, 683G)
SQUiDSQUARKLIN: 300G (2.2%, 3,440G)
itsdigitalbro: 200G (1.4%, 216G)
BadErosion: 200G (1.4%, 9,606G)
FriendSquirrel: 100G (0.7%, 28,436G)
maakur_: 100G (0.7%, 114,017G)
Bongomon7: 100G (0.7%, 4,640G)
