Final Bets: purple - 14 bets for 7,010G (63.2%, x0.58); brown - 11 bets for 4,084G (36.8%, x1.72)

purple bets:
dantayystv: 1,000G (14.3%, 9,246G)
BirbBrainsBot: 1,000G (14.3%, 1,331G)
killth3kid: 1,000G (14.3%, 82,935G)
solomongrundy85: 1,000G (14.3%, 8,105G)
Error72: 1,000G (14.3%, 5,896G)
upvla: 456G (6.5%, 11,430G)
roofiepops: 444G (6.3%, 7,431G)
ArashiKurobara: 350G (5.0%, 350G)
Blastinus: 345G (4.9%, 345G)
datadrivenbot: 200G (2.9%, 62,348G)
TasisSai: 100G (1.4%, 2,240G)
soliares: 50G (0.7%, 1,119G)
getthemoneyz: 40G (0.6%, 1,242,638G)
SephDarkheart: 25G (0.4%, 7,723G)

brown bets:
fenaen: 1,200G (29.4%, 33,190G)
TheChainNerd: 1,000G (24.5%, 21,322G)
joewcarson: 500G (12.2%, 44,312G)
KyleWonToLiveForever: 360G (8.8%, 360G)
Forkmore: 280G (6.9%, 280G)
randgridr: 240G (5.9%, 2,124G)
Finewax: 104G (2.5%, 104G)
Quadh0nk: 100G (2.4%, 2,886G)
CosmicTactician: 100G (2.4%, 45,835G)
upidstupid: 100G (2.4%, 3,110G)
nifboy: 100G (2.4%, 17,543G)
