Final Bets: red - 13 bets for 8,671G (63.5%, x0.58); blue - 8 bets for 4,991G (36.5%, x1.74)

red bets:
Mushufasa_: 2,000G (23.1%, 119,869G)
CorpusCav: 1,400G (16.1%, 27,171G)
BirbBrainsBot: 1,000G (11.5%, 2,736G)
Deathmaker06: 1,000G (11.5%, 34,422G)
Mesmaster: 548G (6.3%, 548G)
NicoSavoy: 536G (6.2%, 536G)
minorfffanatic1: 470G (5.4%, 470G)
3ngag3: 432G (5.0%, 3,388G)
bigbongsmoker: 404G (4.7%, 5,959G)
seppu777: 333G (3.8%, 14,727G)
scsuperstar: 248G (2.9%, 248G)
datadrivenbot: 200G (2.3%, 81,584G)
regularguy428: 100G (1.2%, 100G)

blue bets:
YaBoy125: 1,764G (35.3%, 7,056G)
ApplesNP: 1,000G (20.0%, 85,895G)
maddieliu: 1,000G (20.0%, 1,000G)
getthemoneyz: 472G (9.5%, 2,141,027G)
Zachara: 250G (5.0%, 121,500G)
b0lt: 204G (4.1%, 204G)
AllInBot: 200G (4.0%, 200G)
gorgewall: 101G (2.0%, 7,238G)
