Final Bets: blue - 25 bets for 34,614G (71.7%, x0.39); green - 22 bets for 13,666G (28.3%, x2.53)

blue bets:
HaateXIII: 12,540G (36.2%, 25,080G)
Shalloween: 4,853G (14.0%, 9,516G)
catfashions: 3,916G (11.3%, 7,832G)
YaBoy125: 2,291G (6.6%, 2,291G)
Nizaha: 2,001G (5.8%, 11,226G)
Pie108: 2,000G (5.8%, 158,466G)
Webb_MD: 1,196G (3.5%, 1,196G)
itzover9001: 1,023G (3.0%, 2,047G)
BirbBrainsBot: 1,000G (2.9%, 156,994G)
fenaen: 500G (1.4%, 4,328G)
0v3rr8d: 500G (1.4%, 8,558G)
ZephyrTempest: 456G (1.3%, 2,488G)
Lydian_C: 420G (1.2%, 1,802G)
TheChainNerd: 380G (1.1%, 380G)
FoxtrotNovemberCharlie: 288G (0.8%, 288G)
SquidgyXom: 256G (0.7%, 6,420G)
Odin007_88: 224G (0.6%, 224G)
ungabunga_bot: 139G (0.4%, 288,044G)
datkins728: 112G (0.3%, 112G)
GrayGhostGaming: 100G (0.3%, 20,882G)
ANFz: 100G (0.3%, 24,481G)
Firesheath: 100G (0.3%, 12,851G)
datadrivenbot: 100G (0.3%, 10,821G)
RuneS_77: 100G (0.3%, 7,279G)
daveb_: 19G (0.1%, 772G)

green bets:
joewcarson: 3,659G (26.8%, 3,659G)
skysa250: 2,000G (14.6%, 49,547G)
killth3kid: 1,000G (7.3%, 59,892G)
JonnyCue: 1,000G (7.3%, 31,152G)
JumbocactuarX27: 1,000G (7.3%, 24,864G)
Dexef: 632G (4.6%, 632G)
DeathTaxesAndAnime: 624G (4.6%, 624G)
DavenIII: 588G (4.3%, 588G)
superdevon1: 563G (4.1%, 24,129G)
aStatue: 500G (3.7%, 4,896G)
IndecisiveNinja: 480G (3.5%, 480G)
Wonser: 292G (2.1%, 292G)
getthemoneyz: 256G (1.9%, 607,797G)
ThePineappleSalesman: 200G (1.5%, 22,018G)
Mesmaster: 200G (1.5%, 53,786G)
hydroshade: 108G (0.8%, 108G)
Alanaire: 100G (0.7%, 1,048G)
Bioticism: 100G (0.7%, 1,144G)
StormclawGaming: 100G (0.7%, 16,495G)
FriendSquirrel: 100G (0.7%, 20,148G)
cgMcWhiskers: 100G (0.7%, 1,394G)
belife42: 64G (0.5%, 1,764G)
