High Risers:
1. Dasutin23: +3,833G
2. Resjudicata3: +2,339G
3. Deathtaxesandanime: +1,912G
4. Blackpapalink: +1,893G
5. Roqqqpsi: +1,879G
6. Tasissai: +1,796G
7. Whelming_wave: +1,423G
8. Run_with_stone_guns: +1,406G
9. Arumz: +1,382G
10. Joewcarson: +1,076G
11. Capnchaos12: +778G
12. Volgrathemoose: +700G
13. Friendsquirrel: +548G
14. Corpuscav: +538G
15. Firesheath: +399G
16. Reinoe: +279G
17. Old_overholt_: +219G
18. Oreo_pizza: +210G
19. Smugzug: +164G
20. E_ballard: +152G
21. Jumbocactuarx27: +61G
22. Krombobreaker: +60G
23. Raixelol: +43G
24. Puzzlesecretary: +15G
25. Dracoknightzero: +4G
26. Rocl: -43G
27. Thesabretoothe: -45G
28. Latebit: -76G
29. Nifboy: -78G
30. Formerlydrdong: -100G
31. Giganticdwarves: -158G
32. Killth3kid: -188G
33. Porotact: -196G
34. Jaritras: -200G
35. Lowlf: -250G
36. Nhammen: -300G
37. Zeroroute: -303G
38. Sephdarkheart: -332G
39. Laserman1000: -353G
40. Lord_gwarth: -365G
41. Brokenknight201: -400G
42. Radishchef: -500G
43. Daveniii: -591G
44. Lemonjohns: -720G
45. Fattunaking: -897G
46. Mesmaster: -900G
47. Gooseyourself: -1,000G
48. Mmagnetman: -1,000G
49. Redmage4evah: -1,000G
50. Fenaen: -1,136G
51. Superdevon1: -1,176G
52. Bigbongsmoker: -1,228G
53. Dogsandcatsand: -1,283G
54. Nizaha: -2,460G
55. Error72: -3,002G
56. Toka222: -4,500G
57. Thyrandaal: -4,810G
