Final Bets: red - 15 bets for 12,880G (77.2%, x0.29); blue - 11 bets for 3,795G (22.8%, x3.39)

red bets:
toka222: 3,000G (23.3%, 412,544G)
DavenIII: 2,355G (18.3%, 8,413G)
dogsandcatsand: 1,129G (8.8%, 2,215G)
whelming_wave: 1,078G (8.4%, 10,786G)
BirbBrainsBot: 1,000G (7.8%, 82,901G)
superdevon1: 851G (6.6%, 85,163G)
Nizaha: 812G (6.3%, 92,539G)
latebit: 652G (5.1%, 652G)
lowlf: 460G (3.6%, 2,964G)
Lemonjohns: 420G (3.3%, 4,489G)
rocl: 399G (3.1%, 399G)
Lord_Gwarth: 300G (2.3%, 5,932G)
datadrivenbot: 200G (1.6%, 65,191G)
bigbongsmoker: 124G (1.0%, 7,184G)
Giganticdwarves: 100G (0.8%, 1,042G)

blue bets:
DeathTaxesAndAnime: 1,000G (26.4%, 13,624G)
E_Ballard: 864G (22.8%, 123,694G)
run_with_stone_GUNs: 532G (14.0%, 28,549G)
CorpusCav: 350G (9.2%, 7,078G)
getthemoneyz: 216G (5.7%, 1,818,306G)
resjudicata3: 200G (5.3%, 878G)
Blackpapalink: 200G (5.3%, 563G)
PuzzleSecretary: 180G (4.7%, 204G)
Raixelol: 100G (2.6%, 2,525G)
arumz: 100G (2.6%, 8,147G)
Laserman1000: 53G (1.4%, 1,253G)
