Final Bets: purple - 11 bets for 28,303G (86.8%, x0.15); champion - 9 bets for 4,300G (13.2%, x6.58)

purple bets:
Sairentozon7: 24,752G (87.5%, 49,505G)
ColetteMSLP: 1,000G (3.5%, 29,973G)
randgridr: 600G (2.1%, 6,913G)
WhiteTigress: 500G (1.8%, 8,789G)
LAGBOT30000: 451G (1.6%, 4,514G)
ZephyrBurst83: 250G (0.9%, 7,208G)
AllInBot: 200G (0.7%, 200G)
datadrivenbot: 200G (0.7%, 47,722G)
holdenmagronik: 150G (0.5%, 3,029G)
MinBetBot: 100G (0.4%, 16,397G)
eightflyingcars: 100G (0.4%, 1,154G)

champion bets:
Kysune: 1,000G (23.3%, 1,000G)
BirbBrainsBot: 1,000G (23.3%, 139,327G)
PantherIscariot: 777G (18.1%, 5,305G)
getthemoneyz: 628G (14.6%, 1,559,653G)
douchetron: 300G (7.0%, 1,730G)
Mister_Quof: 244G (5.7%, 244G)
DeathTaxesAndAnime: 200G (4.7%, 2,102G)
gorgewall: 101G (2.3%, 3,606G)
northkoreancleetus: 50G (1.2%, 862G)
