Final Bets: white - 21 bets for 32,618G (85.7%, x0.17); purple - 14 bets for 5,437G (14.3%, x6.00)

white bets:
lobsterlobster: 10,537G (32.3%, 10,537G)
sinnyil2: 5,236G (16.1%, 5,236G)
Mesmaster: 5,000G (15.3%, 68,283G)
argentbast: 3,000G (9.2%, 10,192G)
Shalthen: 2,058G (6.3%, 2,058G)
leakimiko: 1,606G (4.9%, 16,065G)
Rislyeu: 1,095G (3.4%, 1,095G)
BirbBrainsBot: 1,000G (3.1%, 180,661G)
TheMM42: 500G (1.5%, 1,309G)
Willuminatti: 408G (1.3%, 408G)
ungabunga_bot: 393G (1.2%, 306,485G)
CorwinAmbrose: 387G (1.2%, 3,871G)
midori_ribbon: 340G (1.0%, 6,255G)
twelfthrootoftwo: 300G (0.9%, 460G)
RubenFlonne: 200G (0.6%, 14,278G)
Firesheath: 100G (0.3%, 6,855G)
ANFz: 100G (0.3%, 27,270G)
ko2q: 100G (0.3%, 1,783G)
Bioticism: 100G (0.3%, 11,914G)
datadrivenbot: 100G (0.3%, 11,209G)
getthemoneyz: 58G (0.2%, 616,300G)

purple bets:
superdevon1: 1,566G (28.8%, 3,071G)
CapnChaos12: 500G (9.2%, 56,394G)
HawkSick: 500G (9.2%, 2,109G)
crimson_hellkite: 500G (9.2%, 16,500G)
ZephyrTempest: 456G (8.4%, 3,022G)
80S1X: 398G (7.3%, 398G)
Realitydown: 344G (6.3%, 344G)
Estan_AD: 250G (4.6%, 4,460G)
OverlordCuddles: 220G (4.0%, 220G)
fd3sihk: 200G (3.7%, 1,732G)
belife42: 199G (3.7%, 199G)
tsdZero: 104G (1.9%, 104G)
iam_jkl: 100G (1.8%, 100G)
kaidykat: 100G (1.8%, 878G)
