Final Bets: green - 18 bets for 8,129G (52.7%, x0.90); yellow - 16 bets for 7,301G (47.3%, x1.11)

green bets:
nifboy: 1,052G (12.9%, 1,052G)
ungabunga_bot: 1,000G (12.3%, 509,968G)
BirbBrainsBot: 1,000G (12.3%, 105,003G)
Rislyeu: 713G (8.8%, 713G)
wooyuji: 541G (6.7%, 541G)
CorpusCav: 500G (6.2%, 5,500G)
Breakdown777: 500G (6.2%, 7,692G)
concles: 500G (6.2%, 8,088G)
megamax667: 388G (4.8%, 6,888G)
luminarii: 350G (4.3%, 11,025G)
Aneyus: 322G (4.0%, 32,241G)
Lythe_Caraker: 250G (3.1%, 122,933G)
getthemoneyz: 220G (2.7%, 681,614G)
EnemyController: 200G (2.5%, 241,623G)
guering: 200G (2.5%, 5,613G)
Arbitae: 193G (2.4%, 1,293G)
otakutaylor: 100G (1.2%, 1,939G)
flowinprose: 100G (1.2%, 108,285G)

yellow bets:
volgrathemoose: 1,010G (13.8%, 2,020G)
mannequ1n: 1,000G (13.7%, 7,793G)
imafella: 979G (13.4%, 1,958G)
HaplessOne: 888G (12.2%, 86,900G)
Zeroroute: 600G (8.2%, 600G)
CrownOfHorns: 504G (6.9%, 504G)
reinoe: 500G (6.8%, 500G)
aeonicvector: 397G (5.4%, 794G)
ACSpree: 336G (4.6%, 336G)
happyfundude: 224G (3.1%, 224G)
Dellusionsx: 211G (2.9%, 211G)
zunath: 200G (2.7%, 13,628G)
eudes89: 152G (2.1%, 152G)
tabletz21: 100G (1.4%, 2,925G)
datadrivenbot: 100G (1.4%, 18,261G)
ko2q: 100G (1.4%, 5,235G)
