Final Bets: white - 10 bets for 12,370G (62.4%, x0.60); black - 13 bets for 7,449G (37.6%, x1.66)

white bets:
DHaveWord: 6,905G (55.8%, 13,810G)
Rhyser76: 1,839G (14.9%, 1,839G)
nifboy: 832G (6.7%, 832G)
hojimitsu: 806G (6.5%, 806G)
iBardic: 500G (4.0%, 19,253G)
shinji202: 500G (4.0%, 129,023G)
seppu777: 333G (2.7%, 5,979G)
otakutaylor: 300G (2.4%, 7,137G)
khelor_: 244G (2.0%, 244G)
NicoSavoy: 111G (0.9%, 140,221G)

black bets:
Mushufasa_: 2,000G (26.8%, 102,429G)
BirbBrainsBot: 1,000G (13.4%, 62,270G)
NovaKnight21: 864G (11.6%, 864G)
Zachara: 831G (11.2%, 139,331G)
getthemoneyz: 516G (6.9%, 2,049,642G)
lijarkh: 500G (6.7%, 3,955G)
Setsaku: 488G (6.6%, 488G)
ar_tactic: 350G (4.7%, 91,167G)
AllInBot: 200G (2.7%, 200G)
MemoriesofFinal: 200G (2.7%, 42,926G)
AltimaMantoid: 200G (2.7%, 21,400G)
datadrivenbot: 200G (2.7%, 75,632G)
skipsandwiches: 100G (1.3%, 29,586G)
