Final Bets: blue - 25 bets for 12,918G (67.6%, x0.48); yellow - 15 bets for 6,188G (32.4%, x2.09)

blue bets:
Baron_von_Scrub: 1,205G (9.3%, 1,205G)
sinnyil2: 1,200G (9.3%, 9,073G)
Grimmace45: 1,188G (9.2%, 5,944G)
ungabunga_bot: 1,000G (7.7%, 379,291G)
BirbBrainsBot: 1,000G (7.7%, 76,044G)
Lionhermit: 1,000G (7.7%, 24,729G)
HorusTaurus: 1,000G (7.7%, 6,697G)
JumbocactuarX27: 1,000G (7.7%, 9,967G)
Lordminsc: 706G (5.5%, 706G)
moonliquor: 500G (3.9%, 5,635G)
getthemoneyz: 424G (3.3%, 632,606G)
Kronikle: 400G (3.1%, 3,797G)
KasugaiRoastedPeas: 400G (3.1%, 4,408G)
PetitFoulard: 252G (2.0%, 252G)
Estan_AD: 250G (1.9%, 3,624G)
Lythe_Caraker: 250G (1.9%, 117,059G)
RestIessNight: 235G (1.8%, 235G)
holyonline: 200G (1.5%, 7,686G)
VarkilTV: 108G (0.8%, 108G)
hirohoro88: 100G (0.8%, 900G)
brokenknight201: 100G (0.8%, 640G)
CosmicTactician: 100G (0.8%, 25,326G)
datadrivenbot: 100G (0.8%, 11,912G)
maakur_: 100G (0.8%, 123,947G)
mpghappiness: 100G (0.8%, 16,572G)

yellow bets:
Spartan_Paladin: 1,300G (21.0%, 55,373G)
HaateXIII: 992G (16.0%, 1,947G)
Nickyfive: 841G (13.6%, 1,683G)
TheChainNerd: 787G (12.7%, 787G)
ZephyrTempest: 456G (7.4%, 1,223G)
TheKillerNacho: 380G (6.1%, 380G)
DavenIII: 300G (4.8%, 1,103G)
Zachara: 250G (4.0%, 67,500G)
FNCardascia_: 228G (3.7%, 228G)
mannequ1n: 200G (3.2%, 327G)
caprinovoa: 104G (1.7%, 104G)
FriendSquirrel: 100G (1.6%, 30,376G)
rjA0zcOQ96: 100G (1.6%, 28,758G)
Bioticism: 100G (1.6%, 2,140G)
DrAntiSocial: 50G (0.8%, 7,696G)
