Final Bets: red - 11 bets for 11,715G (54.1%, x0.85); blue - 11 bets for 9,933G (45.9%, x1.18)

red bets:
Thyrandaal: 3,322G (28.4%, 24,871G)
NIghtdew14: 3,000G (25.6%, 51,582G)
UmaiJam: 2,000G (17.1%, 51,531G)
BirbBrainsBot: 1,000G (8.5%, 175,716G)
killth3kid: 548G (4.7%, 12,196G)
Lanshaft: 528G (4.5%, 26,425G)
Shalloween: 500G (4.3%, 42,407G)
AllInBot: 297G (2.5%, 297G)
Blastinus: 240G (2.0%, 240G)
getthemoneyz: 226G (1.9%, 1,424,316G)
ArlanKels: 54G (0.5%, 2,746G)

blue bets:
TasisSai: 4,320G (43.5%, 4,320G)
dogsandcatsand: 1,473G (14.8%, 1,473G)
ColetteMSLP: 1,000G (10.1%, 40,496G)
VolgraTheMoose: 761G (7.7%, 1,523G)
Nizaha: 604G (6.1%, 7,663G)
ANFz: 500G (5.0%, 56,709G)
SephDarkheart: 416G (4.2%, 13,528G)
ruleof5: 300G (3.0%, 12,977G)
Forkmore: 236G (2.4%, 1,437G)
datadrivenbot: 200G (2.0%, 46,295G)
roofiepops: 123G (1.2%, 9,493G)
