Final Bets: blue - 14 bets for 10,015G (42.9%, x1.33); yellow - 14 bets for 13,331G (57.1%, x0.75)

blue bets:
NIghtdew14: 2,500G (25.0%, 47,504G)
dogsandcatsand: 1,894G (18.9%, 3,714G)
AllInBot: 1,355G (13.5%, 1,355G)
ColetteMSLP: 1,000G (10.0%, 41,811G)
reinoe: 1,000G (10.0%, 143,173G)
Nizaha: 608G (6.1%, 9,263G)
HaateXIII: 604G (6.0%, 604G)
brokenknight201: 300G (3.0%, 1,372G)
datadrivenbot: 200G (2.0%, 45,931G)
acid_flashback: 150G (1.5%, 3,050G)
jeffersonsa: 104G (1.0%, 104G)
KSops: 100G (1.0%, 617G)
ANFz: 100G (1.0%, 58,024G)
DAC169: 100G (1.0%, 3,118G)

yellow bets:
Shalloween: 4,000G (30.0%, 42,514G)
Thyrandaal: 3,333G (25.0%, 23,714G)
UmaiJam: 2,000G (15.0%, 52,095G)
BirbBrainsBot: 1,000G (7.5%, 175,748G)
prince_rogers_nelson_: 632G (4.7%, 632G)
ArlanKels: 563G (4.2%, 2,816G)
coralreeferz: 550G (4.1%, 9,442G)
Lanshaft: 528G (4.0%, 27,063G)
gorgewall: 201G (1.5%, 6,188G)
getthemoneyz: 192G (1.4%, 1,423,922G)
roofiepops: 123G (0.9%, 9,769G)
amhamor: 108G (0.8%, 108G)
DVAneedsFeeding: 100G (0.8%, 100G)
DarrenDinosaurs: 1G (0.0%, 4,566G)
