Final Bets: green - 11 bets for 4,385G (22.3%, x3.48); yellow - 21 bets for 15,272G (77.7%, x0.29)

green bets:
DeathTaxesAndAnime: 1,041G (23.7%, 1,041G)
UmaiJam: 848G (19.3%, 8,485G)
Zetchryn: 759G (17.3%, 6,884G)
waterwatereverywhere: 500G (11.4%, 2,246G)
Carledo: 331G (7.5%, 3,524G)
Jayelldee: 306G (7.0%, 306G)
Zachara: 200G (4.6%, 47,000G)
ALY327: 100G (2.3%, 1,087G)
SeedSC: 100G (2.3%, 140,179G)
herrshaun: 100G (2.3%, 758G)
Chompie: 100G (2.3%, 4,911G)

yellow bets:
HASTERIOUS: 3,999G (26.2%, 143,165G)
leakimiko: 1,663G (10.9%, 33,278G)
sinnyil2: 1,200G (7.9%, 46,953G)
ungabunga_bot: 1,000G (6.5%, 25,330G)
BirbBrainsBot: 1,000G (6.5%, 216,751G)
getthemoneyz: 1,000G (6.5%, 438,459G)
bad1dea: 1,000G (6.5%, 34,908G)
DustBirdEX: 800G (5.2%, 6,645G)
kingchadking: 610G (4.0%, 610G)
Goust18: 600G (3.9%, 12,043G)
DaveStrider55: 444G (2.9%, 444G)
rubenflonne: 352G (2.3%, 352G)
Cataphract116: 350G (2.3%, 2,271G)
ColetteMSLP: 300G (2.0%, 11,555G)
Imakuni: 220G (1.4%, 220G)
lavian94: 202G (1.3%, 202G)
InOzWeTrust: 132G (0.9%, 132G)
AllInBot: 100G (0.7%, 100G)
touchtachi: 100G (0.7%, 469G)
SeniorBunk: 100G (0.7%, 3,333G)
datadrivenbot: 100G (0.7%, 18,512G)
