Final Bets: blue - 18 bets for 9,315G (47.2%, x1.12); yellow - 13 bets for 10,432G (52.8%, x0.89)

blue bets:
PotionDweller: 1,100G (11.8%, 9,706G)
The_Pengwin: 1,000G (10.7%, 17,464G)
BirbBrainsBot: 1,000G (10.7%, 217,572G)
bad1dea: 1,000G (10.7%, 36,712G)
WireLord: 904G (9.7%, 904G)
kingchadking: 904G (9.7%, 904G)
UmaiJam: 899G (9.7%, 8,992G)
Jayelldee: 700G (7.5%, 700G)
lavian94: 636G (6.8%, 636G)
Cataphract116: 300G (3.2%, 2,974G)
SeniorBunk: 180G (1.9%, 4,933G)
AllInBot: 100G (1.1%, 100G)
Chompie: 100G (1.1%, 7,450G)
ALY327: 100G (1.1%, 1,287G)
DeathTaxesAndAnime: 100G (1.1%, 5,312G)
datadrivenbot: 100G (1.1%, 18,341G)
herrshaun: 100G (1.1%, 224G)
ungabunga_bot: 92G (1.0%, 25,395G)

yellow bets:
Shakarak: 3,000G (28.8%, 21,936G)
BenYuPoker: 1,604G (15.4%, 1,604G)
leakimiko: 1,042G (10.0%, 34,755G)
jethrothrul: 1,032G (9.9%, 2,064G)
bpc2163: 1,000G (9.6%, 12,559G)
Goust18: 600G (5.8%, 15,613G)
rubenflonne: 500G (4.8%, 3,596G)
waterwatereverywhere: 500G (4.8%, 1,250G)
DustBirdEX: 400G (3.8%, 7,330G)
getthemoneyz: 354G (3.4%, 438,796G)
touchtachi: 200G (1.9%, 1,298G)
SeedSC: 100G (1.0%, 140,479G)
Treapvort: 100G (1.0%, 2,334G)
