Final Bets: green - 26 bets for 20,950G (66.8%, x0.50); yellow - 19 bets for 10,393G (33.2%, x2.02)

green bets:
Lodrak: 3,485G (16.6%, 6,970G)
eltejongrande: 2,000G (9.5%, 13,680G)
hales_bopp_it: 1,973G (9.4%, 1,973G)
tinytittyfiend: 1,963G (9.4%, 1,963G)
ApplesauceBoss: 1,384G (6.6%, 1,384G)
MantisFinch: 1,268G (6.1%, 2,536G)
reinoe: 1,000G (4.8%, 19,056G)
fenaen: 868G (4.1%, 1,737G)
Goust18: 828G (4.0%, 828G)
Laserman1000: 821G (3.9%, 8,321G)
IndecisiveNinja: 625G (3.0%, 625G)
Snowfats: 624G (3.0%, 624G)
MynenARS: 500G (2.4%, 1,960G)
soapydragonfly: 500G (2.4%, 999G)
0utlier: 500G (2.4%, 8,595G)
roofiepops: 444G (2.1%, 4,699G)
silentperogy: 400G (1.9%, 6,067G)
luminarii: 343G (1.6%, 11,041G)
ko2q: 324G (1.5%, 324G)
holyonline: 300G (1.4%, 12,983G)
KasugaiRoastedPeas: 200G (1.0%, 27,682G)
yure1x: 200G (1.0%, 1,424G)
AllInBot: 100G (0.5%, 100G)
maakur_: 100G (0.5%, 5,274G)
datadrivenbot: 100G (0.5%, 15,476G)
itsj3llyfish: 100G (0.5%, 100G)

yellow bets:
Shakarak: 1,076G (10.4%, 1,076G)
BirbBrainsBot: 1,000G (9.6%, 137,283G)
getthemoneyz: 1,000G (9.6%, 410,126G)
bad1dea: 1,000G (9.6%, 353,660G)
LASERJESUS1337: 1,000G (9.6%, 67,188G)
ANFz: 892G (8.6%, 892G)
misterprmiller: 847G (8.1%, 4,236G)
Numbersborne: 716G (6.9%, 716G)
Lanshaft: 600G (5.8%, 5,229G)
volgrathemoose: 591G (5.7%, 13,766G)
EnemyController: 500G (4.8%, 9,210G)
Pie108: 256G (2.5%, 2,464G)
ZephyrTempest: 211G (2.0%, 18,324G)
ugoplatamia: 200G (1.9%, 20,784G)
NUMBER1DB: 104G (1.0%, 104G)
BadBlanket: 100G (1.0%, 4,553G)
chronoxtrigger: 100G (1.0%, 4,622G)
Slowbrofist: 100G (1.0%, 973G)
sixstop: 100G (1.0%, 1,603G)
