Final Bets: purple - 14 bets for 8,688G (82.8%, x0.21); brown - 4 bets for 1,802G (17.2%, x4.82)

purple bets:
Mysteriousdewd: 2,785G (32.1%, 2,785G)
BirbBrainsBot: 1,000G (11.5%, 79,327G)
E_Ballard: 1,000G (11.5%, 1,914G)
roqqqpsi: 857G (9.9%, 42,888G)
randgridr: 500G (5.8%, 4,104G)
RedRiderAyame: 500G (5.8%, 1,116G)
ShintaroNayaka: 500G (5.8%, 4,137G)
marblescrew: 462G (5.3%, 462G)
prince_rogers_nelson_: 384G (4.4%, 384G)
datadrivenbot: 200G (2.3%, 62,716G)
just_here2: 200G (2.3%, 3,466G)
Kellios11: 100G (1.2%, 31,180G)
DeathTaxesAndAnime: 100G (1.2%, 3,261G)
nifboy: 100G (1.2%, 7,316G)

brown bets:
TheMurkGnome: 799G (44.3%, 799G)
run_with_stone_GUNs: 395G (21.9%, 7,902G)
Breakdown777: 328G (18.2%, 328G)
getthemoneyz: 280G (15.5%, 1,270,491G)
