Final Bets: white - 13 bets for 6,980G (52.7%, x0.90); brown - 13 bets for 6,277G (47.3%, x1.11)

white bets:
reinoe: 2,000G (28.7%, 36,366G)
Evewho: 1,499G (21.5%, 1,499G)
kaidykat: 1,000G (14.3%, 27,643G)
nekojin: 764G (10.9%, 764G)
Ring_Wyrm: 600G (8.6%, 2,330G)
DeathTaxesAndAnime: 340G (4.9%, 2,404G)
Magicandy: 200G (2.9%, 880G)
victoriolue: 100G (1.4%, 5,060G)
datadrivenbot: 100G (1.4%, 44,387G)
Imakuni: 100G (1.4%, 4,917G)
Paperthinhere: 100G (1.4%, 1,288G)
placidphoenix: 100G (1.4%, 1,948G)
Ross_from_Cali: 77G (1.1%, 1,265G)

brown bets:
YaBoy125: 1,880G (30.0%, 62,667G)
BirbBrainsBot: 1,000G (15.9%, 70,371G)
sinnyil2: 808G (12.9%, 808G)
genericco: 500G (8.0%, 3,237G)
TeaTime29: 500G (8.0%, 8,741G)
gorgewall: 401G (6.4%, 20,115G)
AllInBot: 326G (5.2%, 326G)
DuraiPapers: 248G (4.0%, 248G)
alithesillybird: 200G (3.2%, 5,075G)
DaveStrider55: 200G (3.2%, 6,066G)
serperemagus: 100G (1.6%, 6,879G)
Darkages009: 100G (1.6%, 100G)
getthemoneyz: 14G (0.2%, 974,725G)
