Final Bets: red - 10 bets for 5,354G (50.1%, x1.00); brown - 11 bets for 5,340G (49.9%, x1.00)

red bets:
AltimaMantoid: 2,145G (40.1%, 2,145G)
Paperthinhere: 1,188G (22.2%, 1,188G)
CrownOfHorns: 761G (14.2%, 761G)
Evewho: 460G (8.6%, 460G)
alithesillybird: 200G (3.7%, 5,297G)
HaychDub: 200G (3.7%, 36,490G)
placidphoenix: 100G (1.9%, 1,848G)
Darkages009: 100G (1.9%, 211G)
datadrivenbot: 100G (1.9%, 44,287G)
serperemagus: 100G (1.9%, 6,990G)

brown bets:
BirbBrainsBot: 1,000G (18.7%, 71,483G)
kaidykat: 1,000G (18.7%, 25,643G)
AllInBot: 689G (12.9%, 689G)
Magicandy: 680G (12.7%, 680G)
DuraiPapers: 524G (9.8%, 524G)
gorgewall: 401G (7.5%, 20,565G)
ColetteMSLP: 300G (5.6%, 1,064G)
Imakuni: 300G (5.6%, 4,817G)
TeaTime29: 200G (3.7%, 9,297G)
Ring_Wyrm: 200G (3.7%, 2,730G)
getthemoneyz: 46G (0.9%, 974,741G)
