Final Bets: red - 5 bets for 3,004G (13.2%, x6.57); blue - 23 bets for 19,729G (86.8%, x0.15)

red bets:
EmperorBeef: 1,489G (49.6%, 196,489G)
CorpusCav: 500G (16.6%, 26,855G)
holdenmagronik: 476G (15.8%, 476G)
LDSkinny: 439G (14.6%, 439G)
tinytittyfiend: 100G (3.3%, 2,856G)

blue bets:
nhammen: 3,000G (15.2%, 79,800G)
Nizaha: 2,417G (12.3%, 2,417G)
latebit: 2,049G (10.4%, 68,307G)
Leonidusx: 2,000G (10.1%, 275,058G)
DHaveWord: 1,170G (5.9%, 1,170G)
old_overholt_: 1,000G (5.1%, 46,018G)
Shalloween: 1,000G (5.1%, 11,428G)
BirbBrainsBot: 1,000G (5.1%, 86,482G)
Sairentozon7: 1,000G (5.1%, 25,930G)
bruubarg: 1,000G (5.1%, 11,438G)
getthemoneyz: 768G (3.9%, 2,109,428G)
fenaen: 640G (3.2%, 14,980G)
JonnyCue: 500G (2.5%, 3,941G)
khelor_: 500G (2.5%, 1,736G)
Lord_Gwarth: 372G (1.9%, 372G)
CapnChaos12: 300G (1.5%, 5,415G)
brokenknight201: 212G (1.1%, 212G)
AllInBot: 200G (1.0%, 200G)
datadrivenbot: 200G (1.0%, 79,901G)
TheBrett: 200G (1.0%, 6,914G)
maakur_: 100G (0.5%, 3,774G)
lotharek: 100G (0.5%, 7,707G)
MoonSugarFiend: 1G (0.0%, 5,813G)
