Final Bets: blue - 15 bets for 12,282G (35.6%, x1.81); champion - 18 bets for 22,204G (64.4%, x0.55)

blue bets:
DavenIII: 1,696G (13.8%, 1,696G)
2b_yorha_b: 1,641G (13.4%, 1,641G)
pplvee1: 1,499G (12.2%, 1,499G)
akash7: 1,250G (10.2%, 7,000G)
EmperorBeef: 1,110G (9.0%, 196,110G)
BirbBrainsBot: 1,000G (8.1%, 85,404G)
nifboy: 864G (7.0%, 3,807G)
lowlf: 616G (5.0%, 13,443G)
Willjin: 600G (4.9%, 30,986G)
old_overholt_: 500G (4.1%, 47,559G)
MoonSugarFiend: 500G (4.1%, 5,953G)
tinytittyfiend: 500G (4.1%, 4,007G)
getthemoneyz: 206G (1.7%, 2,109,902G)
TheBrett: 200G (1.6%, 8,280G)
ko2q: 100G (0.8%, 2,131G)

champion bets:
reinoe: 10,000G (45.0%, 55,217G)
CorpusCav: 2,001G (9.0%, 21,054G)
Lolthsmeat: 2,000G (9.0%, 8,536G)
Firesheath: 1,314G (5.9%, 1,314G)
Shalloween: 1,000G (4.5%, 11,180G)
roofiepops: 807G (3.6%, 2,307G)
Laserman1000: 800G (3.6%, 8,100G)
xav8904: 733G (3.3%, 733G)
fenaen: 640G (2.9%, 14,093G)
Nizaha: 620G (2.8%, 1,949G)
lotharek: 500G (2.3%, 7,157G)
Lord_Gwarth: 500G (2.3%, 2,671G)
Smashy: 388G (1.7%, 1,279G)
AllInBot: 200G (0.9%, 200G)
ValensEXP_: 200G (0.9%, 1,652G)
DHaveWord: 200G (0.9%, 1,491G)
datadrivenbot: 200G (0.9%, 79,745G)
gorgewall: 101G (0.5%, 14,524G)
