Final Bets: red - 5 bets for 2,567G (37.4%, x1.67); blue - 11 bets for 4,292G (62.6%, x0.60)

red bets:
sinnyil2: 1,016G (39.6%, 1,016G)
Seaweed_B: 1,000G (39.0%, 49,691G)
AllInBot: 251G (9.8%, 251G)
DaveStrider55: 200G (7.8%, 895G)
silverChangeling: 100G (3.9%, 10,732G)

blue bets:
superdevon1: 1,077G (25.1%, 107,729G)
ribbiks: 592G (13.8%, 592G)
SkylerBunny: 548G (12.8%, 548G)
Theseawolf1: 500G (11.6%, 10,785G)
Sairentozon7: 408G (9.5%, 408G)
CT_5_Holy: 328G (7.6%, 6,574G)
gongonono: 300G (7.0%, 2,448G)
datadrivenbot: 200G (4.7%, 67,638G)
BirbBrainsBot: 138G (3.2%, 195,673G)
gorgewall: 101G (2.4%, 20,497G)
RonaldoTheGypsy: 100G (2.3%, 571G)
