Final Bets: white - 7 bets for 14,903G (38.5%, x1.60); black - 19 bets for 23,805G (61.5%, x0.63)

white bets:
CosmicTactician: 12,763G (85.6%, 12,763G)
Aldrammech: 560G (3.8%, 560G)
coralreeferz: 528G (3.5%, 3,262G)
maximumcrit: 500G (3.4%, 11,486G)
AllInBot: 252G (1.7%, 252G)
WillFitzgerald: 200G (1.3%, 9,060G)
Firesheath: 100G (0.7%, 3,198G)

black bets:
E_Ballard: 5,063G (21.3%, 5,063G)
reinoe: 5,000G (21.0%, 65,413G)
Thyrandaal: 4,444G (18.7%, 144,814G)
SkylerBunny: 2,300G (9.7%, 94,542G)
Shalloween: 1,500G (6.3%, 23,606G)
BirbBrainsBot: 1,000G (4.2%, 118,691G)
getthemoneyz: 1,000G (4.2%, 1,462,248G)
douchetron: 795G (3.3%, 795G)
Laserman1000: 640G (2.7%, 640G)
randgridr: 592G (2.5%, 592G)
Smashy: 300G (1.3%, 10,668G)
Chambs12: 284G (1.2%, 284G)
gorgewall: 201G (0.8%, 8,866G)
datadrivenbot: 200G (0.8%, 45,824G)
cho_pin: 139G (0.6%, 139G)
Bongomon7: 100G (0.4%, 4,879G)
Twisted_Nutsatchel: 100G (0.4%, 13,283G)
DeathTaxesAndAnime: 100G (0.4%, 43,682G)
ArlanKels: 47G (0.2%, 1,594G)
