Final Bets: black - 22 bets for 11,740G (64.0%, x0.56); brown - 14 bets for 6,593G (36.0%, x1.78)

black bets:
fenaen: 1,500G (12.8%, 68,516G)
whiteonrice: 1,038G (8.8%, 1,038G)
Anethum: 1,017G (8.7%, 1,017G)
volgrathemoose: 1,001G (8.5%, 2,891G)
itzover9001: 1,000G (8.5%, 57,212G)
skuldar: 876G (7.5%, 876G)
Squatting_Bear: 700G (6.0%, 1,722G)
DustBirdEX: 666G (5.7%, 6,002G)
leakimiko: 642G (5.5%, 8,033G)
DejaPoo21: 500G (4.3%, 21,944G)
VySaika: 500G (4.3%, 7,782G)
Breakdown777: 500G (4.3%, 24,953G)
museofdoom: 300G (2.6%, 1,410G)
ProdigyAzn: 300G (2.6%, 1,916G)
Estan_AD: 276G (2.4%, 276G)
TheRylander: 220G (1.9%, 220G)
Squasian: 200G (1.7%, 6,275G)
Odin007_88: 104G (0.9%, 104G)
lastly: 100G (0.9%, 5,717G)
Bojanges: 100G (0.9%, 2,844G)
datadrivenbot: 100G (0.9%, 2,204G)
duskps: 100G (0.9%, 9,744G)

brown bets:
sinnyil2: 2,500G (37.9%, 108,482G)
ungabunga_bot: 1,000G (15.2%, 267,373G)
BirbBrainsBot: 1,000G (15.2%, 190,495G)
reinoe: 600G (9.1%, 600G)
catfashions: 250G (3.8%, 6,256G)
KasugaiRoastedPeas: 200G (3.0%, 10,447G)
silentperogy: 200G (3.0%, 23,386G)
Lavatis: 200G (3.0%, 3,678G)
getthemoneyz: 192G (2.9%, 580,593G)
ZephyrTempest: 101G (1.5%, 188,245G)
Realitydown: 100G (1.5%, 1,591G)
GarbagePhoenix: 100G (1.5%, 2,205G)
CosmicTactician: 100G (1.5%, 2,402G)
DrAntiSocial: 50G (0.8%, 20,275G)
