Final Bets: green - 6 bets for 5,066G (25.7%, x2.89); yellow - 10 bets for 14,626G (74.3%, x0.35)

green bets:
ko2q: 2,569G (50.7%, 5,138G)
superdevon1: 709G (14.0%, 35,467G)
BirbBrainsBot: 676G (13.3%, 24,593G)
douchetron: 600G (11.8%, 600G)
iBardic: 260G (5.1%, 260G)
getthemoneyz: 252G (5.0%, 1,545,254G)

yellow bets:
DeathTaxesAndAnime: 9,411G (64.3%, 18,454G)
NicoSavoy: 2,051G (14.0%, 102,575G)
Mesmaster: 2,000G (13.7%, 6,950G)
Zeera98: 250G (1.7%, 305G)
gorgewall: 201G (1.4%, 2,346G)
AllInBot: 200G (1.4%, 200G)
datadrivenbot: 200G (1.4%, 50,390G)
PantherIscariot: 111G (0.8%, 2,927G)
Powermhero: 102G (0.7%, 30,587G)
srdonko2098: 100G (0.7%, 1,000G)
