Final Bets: red - 9 bets for 3,572G (11.6%, x7.61); blue - 16 bets for 27,189G (88.4%, x0.13)

red bets:
reinoe: 1,000G (28.0%, 124,126G)
Aldrammech: 616G (17.2%, 616G)
brokenknight201: 600G (16.8%, 4,058G)
killth3kid: 552G (15.5%, 5,849G)
getthemoneyz: 296G (8.3%, 1,560,884G)
EizanTayama: 200G (5.6%, 4,377G)
Zeera98: 108G (3.0%, 108G)
MinBetBot: 100G (2.8%, 17,674G)
loveyouallfriends: 100G (2.8%, 42,969G)

blue bets:
dogsandcatsand: 6,548G (24.1%, 6,548G)
actual_JP: 5,571G (20.5%, 5,571G)
douchetron: 4,174G (15.4%, 8,186G)
nhammen: 2,000G (7.4%, 207,339G)
VolgraTheMoose: 1,734G (6.4%, 3,469G)
ko2q: 1,683G (6.2%, 1,683G)
Forkmore: 1,463G (5.4%, 1,463G)
BirbBrainsBot: 1,000G (3.7%, 90,767G)
DesertWooder: 627G (2.3%, 627G)
E_Ballard: 548G (2.0%, 548G)
sinnyil2: 500G (1.8%, 2,785G)
roofiepops: 474G (1.7%, 21,472G)
Smugzug: 467G (1.7%, 467G)
AllInBot: 200G (0.7%, 200G)
Grandlanzer: 100G (0.4%, 133,460G)
CosmicTactician: 100G (0.4%, 5,437G)
