Final Bets: white - 9 bets for 3,786G (27.4%, x2.66); champion - 9 bets for 10,056G (72.6%, x0.38)

white bets:
BirbBrainsBot: 1,000G (26.4%, 91,959G)
Seaweed_B: 1,000G (26.4%, 61,267G)
Aldrammech: 620G (16.4%, 620G)
killth3kid: 552G (14.6%, 5,151G)
getthemoneyz: 194G (5.1%, 1,561,187G)
Gunz232323: 120G (3.2%, 120G)
MinBetBot: 100G (2.6%, 17,233G)
nifboy: 100G (2.6%, 2,246G)
CosmicTactician: 100G (2.6%, 5,514G)

champion bets:
BoneMiser: 3,792G (37.7%, 3,792G)
J2DaBibbles: 1,500G (14.9%, 18,392G)
AllInBot: 1,271G (12.6%, 1,271G)
ko2q: 983G (9.8%, 1,967G)
douchetron: 947G (9.4%, 1,858G)
E_Ballard: 548G (5.4%, 548G)
TasisSai: 500G (5.0%, 8,139G)
DeathTaxesAndAnime: 415G (4.1%, 1,695G)
lastly: 100G (1.0%, 51,464G)
