Final Bets: black - 16 bets for 214,493G (93.4%, x0.07); purple - 10 bets for 15,114G (6.6%, x14.19)

black bets:
Mesmaster: 194,447G (90.7%, 194,447G)
reinoe: 5,000G (2.3%, 12,017G)
douchetron: 4,346G (2.0%, 4,346G)
upvla: 3,000G (1.4%, 4,401G)
AllInBot: 2,686G (1.3%, 2,686G)
biske13: 2,000G (0.9%, 59,236G)
CT_5_Holy: 804G (0.4%, 804G)
lowlf: 540G (0.3%, 15,383G)
DaveStrider55: 380G (0.2%, 380G)
BirbBrainsBot: 334G (0.2%, 2,494G)
Chihuahua_Charity: 256G (0.1%, 256G)
Mushufasa_: 200G (0.1%, 14,577G)
datadrivenbot: 200G (0.1%, 63,741G)
BartTradingCompany: 100G (0.0%, 10,452G)
Firesheath: 100G (0.0%, 3,615G)
Bluebirdzontwitch: 100G (0.0%, 987G)

purple bets:
Musashi45: 7,222G (47.8%, 14,444G)
CorpusCav: 2,500G (16.5%, 52,117G)
Zerguzen: 1,599G (10.6%, 7,557G)
getthemoneyz: 1,000G (6.6%, 1,960,279G)
Shalloween: 864G (5.7%, 864G)
NovaKnight21: 820G (5.4%, 820G)
OneHundredFists: 480G (3.2%, 480G)
prince_rogers_nelson_: 428G (2.8%, 428G)
gorgewall: 101G (0.7%, 5,482G)
MemoriesofFinal: 100G (0.7%, 21,807G)
