Final Bets: white - 8 bets for 7,530G (33.1%, x2.02); black - 18 bets for 15,218G (66.9%, x0.49)

white bets:
evontno: 3,404G (45.2%, 3,404G)
roqqqpsi: 2,074G (27.5%, 18,862G)
lyonslegacy: 500G (6.6%, 1,022G)
getthemoneyz: 450G (6.0%, 1,303,355G)
killth3kid: 428G (5.7%, 1,161G)
Forkmore: 324G (4.3%, 324G)
jrudrow: 300G (4.0%, 700G)
DouglasDragonThePoet: 50G (0.7%, 777G)

black bets:
RaIshtar: 3,000G (19.7%, 55,878G)
Zeroroute: 1,654G (10.9%, 3,067G)
RunicMagus: 1,597G (10.5%, 1,597G)
roofiepops: 1,400G (9.2%, 3,234G)
Thyrandaal: 1,100G (7.2%, 1,100G)
Laserman1000: 1,055G (6.9%, 41,455G)
solomongrundy85: 952G (6.3%, 952G)
Othatmattkid: 684G (4.5%, 684G)
TasisSai: 603G (4.0%, 1,183G)
dogsandcatsand: 576G (3.8%, 576G)
VolgraTheMoose: 501G (3.3%, 10,640G)
BirbBrainsBot: 483G (3.2%, 23,191G)
Legionx13: 400G (2.6%, 810G)
Cryptopsy70: 312G (2.1%, 1,372G)
AND4H: 300G (2.0%, 9,001G)
gorgewall: 201G (1.3%, 10,577G)
AllInBot: 200G (1.3%, 200G)
datadrivenbot: 200G (1.3%, 33,468G)
