Final Bets: brown - 8 bets for 5,438G (17.4%, x4.74); champion - 16 bets for 25,783G (82.6%, x0.21)

brown bets:
Oreo_Pizza: 2,500G (46.0%, 33,376G)
BirbBrainsBot: 1,000G (18.4%, 24,983G)
Thyrandaal: 600G (11.0%, 600G)
killth3kid: 428G (7.9%, 428G)
getthemoneyz: 340G (6.3%, 1,304,315G)
ericzubat: 240G (4.4%, 240G)
RedRiderAyame: 230G (4.2%, 6,340G)
Chompie: 100G (1.8%, 9,780G)

champion bets:
thaetreis: 13,078G (50.7%, 26,156G)
RaIshtar: 5,000G (19.4%, 57,083G)
Evewho: 1,739G (6.7%, 3,410G)
AllInBot: 1,218G (4.7%, 1,218G)
Laserman1000: 1,077G (4.2%, 41,977G)
Othatmattkid: 1,022G (4.0%, 1,022G)
VolgraTheMoose: 501G (1.9%, 7,876G)
AND4H: 500G (1.9%, 11,932G)
Legionx13: 500G (1.9%, 571G)
Cryptopsy70: 312G (1.2%, 825G)
gorgewall: 201G (0.8%, 9,872G)
datadrivenbot: 200G (0.8%, 33,121G)
lyonslegacy: 135G (0.5%, 135G)
nhammen: 100G (0.4%, 9,634G)
TasisSai: 100G (0.4%, 689G)
Firesheath: 100G (0.4%, 12,570G)
