Final Bets: white - 14 bets for 9,633G (49.5%, x1.02); brown - 20 bets for 9,812G (50.5%, x0.98)

white bets:
Webb_MD: 2,535G (26.3%, 2,535G)
LanseDM: 1,500G (15.6%, 13,635G)
Aldrammech: 1,000G (10.4%, 9,000G)
Fenrislfr: 1,000G (10.4%, 11,233G)
ko2q: 789G (8.2%, 789G)
Tithonus: 777G (8.1%, 777G)
Shalloween: 548G (5.7%, 548G)
Meta_Five: 500G (5.2%, 4,456G)
Triskiut: 250G (2.6%, 2,414G)
Master_Metroid: 204G (2.1%, 204G)
ungabunga_bot: 202G (2.1%, 302,555G)
skuldar: 128G (1.3%, 128G)
Heroebal: 100G (1.0%, 4,375G)
ANFz: 100G (1.0%, 26,865G)

brown bets:
leakimiko: 1,936G (19.7%, 12,913G)
ccordc: 1,043G (10.6%, 2,087G)
BirbBrainsBot: 1,000G (10.2%, 178,119G)
DeathTaxesAndAnime: 997G (10.2%, 997G)
Rislyeu: 628G (6.4%, 628G)
sinnyil2: 600G (6.1%, 600G)
SarrgeQc: 501G (5.1%, 2,223G)
catfashions: 500G (5.1%, 6,008G)
Estan_AD: 500G (5.1%, 3,084G)
DustBirdEX: 325G (3.3%, 3,172G)
Conome: 304G (3.1%, 304G)
twelfthrootoftwo: 300G (3.1%, 1,353G)
astrozin11: 300G (3.1%, 3,971G)
tsdZero: 300G (3.1%, 1,000G)
80S1X: 200G (2.0%, 200G)
genericco: 116G (1.2%, 116G)
Firesheath: 100G (1.0%, 8,949G)
datadrivenbot: 100G (1.0%, 11,083G)
ZephyrTempest: 48G (0.5%, 974G)
getthemoneyz: 14G (0.1%, 615,838G)
