Final Bets: red - 11 bets for 6,133G (22.5%, x3.44); brown - 11 bets for 21,081G (77.5%, x0.29)

red bets:
ApplesNP: 1,088G (17.7%, 1,088G)
ungabunga_bot: 1,000G (16.3%, 424,460G)
BirbBrainsBot: 1,000G (16.3%, 141,601G)
cupholderr: 1,000G (16.3%, 32,912G)
sinnyil2: 509G (8.3%, 17,496G)
LivingHitokiri: 324G (5.3%, 324G)
getthemoneyz: 314G (5.1%, 652,245G)
Who_lio42: 300G (4.9%, 16,298G)
edgehead62888: 276G (4.5%, 276G)
roqqqpsi: 222G (3.6%, 1,010G)
ko2q: 100G (1.6%, 1,960G)

brown bets:
PotionDweller: 10,000G (47.4%, 17,791G)
HorusTaurus: 3,764G (17.9%, 3,764G)
E_Ballard: 2,036G (9.7%, 4,072G)
volgrathemoose: 1,501G (7.1%, 10,992G)
foofermoofer: 1,134G (5.4%, 1,134G)
theNGUYENNER: 1,000G (4.7%, 9,252G)
DustBirdEX: 642G (3.0%, 4,265G)
Miyokari: 450G (2.1%, 2,570G)
LAGBOT30000: 254G (1.2%, 25,464G)
Eyepoor_: 200G (0.9%, 1,762G)
datadrivenbot: 100G (0.5%, 13,655G)
