Final Bets: brown - 12 bets for 18,855G (31.7%, x2.16); champion - 16 bets for 40,645G (68.3%, x0.46)

brown bets:
PotionDweller: 5,000G (26.5%, 20,700G)
HorusTaurus: 4,859G (25.8%, 4,859G)
HaateXIII: 2,833G (15.0%, 5,555G)
theNGUYENNER: 2,000G (10.6%, 9,547G)
foofermoofer: 1,464G (7.8%, 1,464G)
sinnyil2: 1,200G (6.4%, 16,987G)
DustBirdEX: 357G (1.9%, 4,452G)
Miyokari: 350G (1.9%, 2,701G)
InOzWeTrust: 264G (1.4%, 264G)
LAGBOT30000: 255G (1.4%, 25,538G)
roqqqpsi: 173G (0.9%, 788G)
FriendSquirrel: 100G (0.5%, 24,396G)

champion bets:
cupholderr: 31,912G (78.5%, 31,912G)
rocl: 1,659G (4.1%, 33,192G)
volgrathemoose: 1,500G (3.7%, 11,429G)
Who_lio42: 1,000G (2.5%, 15,998G)
ungabunga_bot: 1,000G (2.5%, 423,460G)
BirbBrainsBot: 1,000G (2.5%, 140,601G)
E_Ballard: 500G (1.2%, 4,664G)
Cataphract116: 490G (1.2%, 17,076G)
getthemoneyz: 374G (0.9%, 651,931G)
Eyepoor_: 300G (0.7%, 1,820G)
Arkreaver: 284G (0.7%, 284G)
edgehead62888: 276G (0.7%, 276G)
ko2q: 100G (0.2%, 1,860G)
CosmicTactician: 100G (0.2%, 16,137G)
datadrivenbot: 100G (0.2%, 13,684G)
DrAntiSocial: 50G (0.1%, 12,291G)
