Final Bets: red - 17 bets for 22,160G (57.9%, x0.73); blue - 19 bets for 16,124G (42.1%, x1.37)

red bets:
NicoSavoy: 5,000G (22.6%, 142,393G)
nhammen: 5,000G (22.6%, 248,801G)
J_MacC1991: 2,561G (11.6%, 2,561G)
Nickyfive: 1,500G (6.8%, 5,950G)
AllInBot: 1,420G (6.4%, 1,420G)
roofiepops: 1,217G (5.5%, 1,217G)
biske13: 1,000G (4.5%, 223,052G)
DLJuggernaut: 971G (4.4%, 1,905G)
getthemoneyz: 622G (2.8%, 1,985,343G)
Runeseeker22: 571G (2.6%, 11,436G)
fattunaking: 476G (2.1%, 476G)
Finewax: 452G (2.0%, 452G)
resjudicata3: 348G (1.6%, 348G)
Dodecadeath: 300G (1.4%, 3,068G)
FoeSquirrel: 294G (1.3%, 588G)
AbandonedHall: 228G (1.0%, 228G)
Kellios11: 200G (0.9%, 1,204G)

blue bets:
Chihuahua_Charity: 2,000G (12.4%, 15,114G)
thunderducker: 1,771G (11.0%, 1,771G)
Zeroroute: 1,501G (9.3%, 8,343G)
Lord_Gwarth: 1,500G (9.3%, 10,132G)
lowlf: 1,111G (6.9%, 21,184G)
ericzubat: 1,009G (6.3%, 1,009G)
latebit: 1,000G (6.2%, 18,766G)
BirbBrainsBot: 1,000G (6.2%, 85,917G)
gorgewall: 952G (5.9%, 952G)
prince_rogers_nelson_: 885G (5.5%, 885G)
Rune339: 839G (5.2%, 8,399G)
silentkaster: 700G (4.3%, 700G)
khelor_: 500G (3.1%, 3,177G)
ValensEXP_: 336G (2.1%, 4,848G)
hotpocketsofficial: 316G (2.0%, 4,295G)
ShadowNinja25: 204G (1.3%, 204G)
DeathTaxesAndAnime: 200G (1.2%, 2,105G)
datadrivenbot: 200G (1.2%, 69,567G)
dire_drenz: 100G (0.6%, 100G)
