Final Bets: green - 11 bets for 4,509G (37.8%, x1.65); yellow - 13 bets for 7,422G (62.2%, x0.61)

green bets:
baconbacon1207: 1,000G (22.2%, 11,378G)
killth3kid: 688G (15.3%, 45,720G)
dogsandcatsand: 625G (13.9%, 625G)
JonnyCue: 500G (11.1%, 7,500G)
Chuckolator: 461G (10.2%, 461G)
peeronid: 300G (6.7%, 6,688G)
Aldrammech: 285G (6.3%, 2,851G)
AllInBot: 200G (4.4%, 200G)
datadrivenbot: 200G (4.4%, 62,143G)
Gunz232323: 150G (3.3%, 2,513G)
MinBetBot: 100G (2.2%, 1,898G)

yellow bets:
nhammen: 1,667G (22.5%, 5,557G)
BirbBrainsBot: 1,000G (13.5%, 66,703G)
latebit: 1,000G (13.5%, 12,666G)
SephDarkheart: 552G (7.4%, 108,195G)
northkoreancleetus: 539G (7.3%, 539G)
Mesmaster: 530G (7.1%, 530G)
amiture: 500G (6.7%, 1,163G)
Tarheels218: 500G (6.7%, 14,009G)
getthemoneyz: 484G (6.5%, 1,620,941G)
ArrenJevleth: 250G (3.4%, 2,353G)
amsans1247: 200G (2.7%, 3,151G)
windsah: 100G (1.3%, 2,267G)
CosmicTactician: 100G (1.3%, 11,465G)
