High Risers:
1. Thyrandaal: +31,438G
2. Sinnyil2: +21,379G
3. Raixelol: +5,764G
4. Deathtaxesandanime: +4,776G
5. Nizaha: +4,484G
6. Brokenknight201: +3,956G
7. Corpuscav: +3,430G
8. Capnchaos12: +2,925G
9. Jonnycue: +2,372G
10. Phi_sig: +2,343G
11. Kasugairoastedpeas: +1,555G
12. Thunderducker: +1,434G
13. Powergems: +1,311G
14. Oreo_pizza: +1,123G
15. Cosmictactician: +1,028G
16. Indecisiveninja: +1,000G
17. Ruleof5: +982G
18. Bigbongsmoker: +979G
19. Krombobreaker: +953G
20. Sirnotedu: +900G
21. Altimamantoid: +872G
22. Holdenmagronik: +855G
23. Nhammen: +826G
24. Killth3kid: +796G
25. Smashy: +742G
26. Giganticdwarves: +692G
27. Ar_tactic: +662G
28. Stealthmodelocke: +500G
29. Redmage4evah: +500G
30. Sephdarkheart: +500G
31. Gelwain: +500G
32. Joewcarson: +500G
33. Reddwind_: +500G
34. E_ballard: +500G
35. Daveb_: +500G
36. Zagorsek: +500G
37. Squidsquarklin: +500G
38. Ayeayex3: +500G
39. Llight__: +500G
40. Porotact: +500G
41. Rytor: +500G
42. Lord_gwarth: +425G
43. 0v3rr8d: +420G
44. Zachara: +196G
45. Runicmagus: +115G
46. Ll_aja_ll: +100G
47. Roofiepops: +77G
48. Resjudicata3: +71G
49. Nok____: +47G
50. Gobizku: -19G
51. Volgrathemoose: -55G
52. Maakur_: -84G
53. Gingerfoo69: -100G
54. Drscarecroww: -200G
55. Daveniii: -206G
56. Mirapoix: -207G
57. Just_here2: -210G
58. Thesabretoothe: -221G
59. Scsuperstar: -233G
60. Sandball: -260G
61. Galkife: -266G
62. Bongomon7: -282G
63. Ser_pyrro: -299G
64. Djdragonflame: -317G
65. Error72: -398G
66. King_smashington: -403G
67. Polkagrandma: -496G
68. Actual_jp: -500G
69. Tripaplex: -500G
70. Shadowninja25: -548G
71. Lowlf: -584G
72. Shalloween: -600G
73. Haatexiii: -635G
74. Valensexp_: -677G
75. Armorgames1: -745G
76. Dasutin23: -794G
77. Khelor_: -882G
78. J_52: -902G
79. Smugzug: -915G
80. Genkidou: -921G
81. Evewho: -1,000G
82. Pplvee1: -1,000G
83. Firesheath: -1,013G
84. Itsonlyspencer: -1,100G
85. Gorgewall: -1,205G
86. Upvla: -1,392G
87. Lyner87: -1,602G
88. Chuckolator: -1,832G
89. Fenaen: -2,496G
90. Skipsandwiches: -2,501G
91. Nifboy: -2,615G
92. Willjin: -4,053G
93. Jumbocactuarx27: -4,195G
94. Blinkmachine: -5,000G
95. Dogsandcatsand: -6,438G
96. Old_overholt_: -10,105G
97. Ldskinny: -17,883G
98. Latebit: -23,124G
99. Ericzubat: -32,366G
100. Sairentozon7: -48,370G
