Final Bets: red - 18 bets for 15,098G (35.1%, x1.85); blue - 24 bets for 27,958G (64.9%, x0.54)

red bets:
Sairentozon7: 5,000G (33.1%, 48,950G)
Lyner87: 1,301G (8.6%, 107,869G)
skipsandwiches: 1,001G (6.6%, 30,836G)
BirbBrainsBot: 1,000G (6.6%, 67,227G)
DavenIII: 984G (6.5%, 984G)
nifboy: 836G (5.5%, 3,451G)
bigbongsmoker: 756G (5.0%, 756G)
killth3kid: 636G (4.2%, 19,365G)
Chuckolator: 565G (3.7%, 17,571G)
JumbocactuarX27: 500G (3.3%, 3,655G)
roofiepops: 472G (3.1%, 472G)
getthemoneyz: 466G (3.1%, 2,048,272G)
holdenmagronik: 460G (3.0%, 2,070G)
Smashy: 421G (2.8%, 421G)
ruleof5: 300G (2.0%, 26,555G)
khelor_: 200G (1.3%, 1,134G)
J_52: 100G (0.7%, 1,150G)
Gobizku: 100G (0.7%, 11,314G)

blue bets:
sinnyil2: 12,000G (42.9%, 171,567G)
HaateXIII: 2,001G (7.2%, 2,001G)
gorgewall: 1,945G (7.0%, 1,945G)
Error72: 1,230G (4.4%, 1,230G)
Smugzug: 1,180G (4.2%, 1,269G)
latebit: 1,111G (4.0%, 23,704G)
old_overholt_: 1,000G (3.6%, 32,498G)
CosmicTactician: 1,000G (3.6%, 28,521G)
Nizaha: 880G (3.1%, 63,747G)
Lord_Gwarth: 603G (2.2%, 603G)
ser_pyrro: 603G (2.2%, 603G)
Phi_Sig: 555G (2.0%, 27,120G)
Dasutin23: 544G (1.9%, 12,438G)
CorpusCav: 500G (1.8%, 5,790G)
JonnyCue: 500G (1.8%, 6,000G)
Oreo_Pizza: 500G (1.8%, 258,167G)
AllInBot: 402G (1.4%, 402G)
Zachara: 304G (1.1%, 141,104G)
0v3rr8d: 300G (1.1%, 9,266G)
ar_tactic: 300G (1.1%, 89,343G)
datadrivenbot: 200G (0.7%, 79,527G)
nhammen: 100G (0.4%, 286,904G)
ShadowNinja25: 100G (0.4%, 3,624G)
king_smashington: 100G (0.4%, 699G)
