Final Bets: green - 28 bets for 14,977G (54.9%, x0.82); yellow - 16 bets for 12,310G (45.1%, x1.22)

green bets:
sinnyil2: 3,500G (23.4%, 109,775G)
Nizaha: 1,001G (6.7%, 6,640G)
BirbBrainsBot: 1,000G (6.7%, 38,676G)
Mesmaster: 1,000G (6.7%, 9,098G)
reinoe: 1,000G (6.7%, 17,173G)
TheMurkGnome: 904G (6.0%, 9,308G)
HaplessOne: 750G (5.0%, 11,483G)
vorap: 500G (3.3%, 19,454G)
XalSmellsBad: 500G (3.3%, 28,151G)
Estan_AD: 464G (3.1%, 929G)
evontno: 460G (3.1%, 460G)
nuka1120: 444G (3.0%, 444G)
CT_5_Holy: 435G (2.9%, 435G)
leakimiko: 408G (2.7%, 408G)
waterwatereverywhere: 404G (2.7%, 404G)
midori_ribbon: 350G (2.3%, 2,713G)
Powermhero: 307G (2.0%, 7,807G)
ewan_e: 300G (2.0%, 8,536G)
KasugaiRoastedPeas: 200G (1.3%, 3,103G)
twelfthrootoftwo: 200G (1.3%, 673G)
getthemoneyz: 130G (0.9%, 586,403G)
lobsterlobster: 120G (0.8%, 120G)
naenaelord17: 100G (0.7%, 100G)
MajikNinja44: 100G (0.7%, 286G)
gussyfart: 100G (0.7%, 900G)
datadrivenbot: 100G (0.7%, 3,594G)
Evewho: 100G (0.7%, 15,088G)
millson10: 100G (0.7%, 100G)

yellow bets:
WireLord: 6,849G (55.6%, 13,699G)
holyonline: 2,016G (16.4%, 6,723G)
Laserman1000: 800G (6.5%, 58,800G)
Firesheath: 500G (4.1%, 9,001G)
Billybones5150: 500G (4.1%, 14,192G)
banana_bonzala: 444G (3.6%, 444G)
LivingHitokiri: 200G (1.6%, 6,853G)
ungabunga_bot: 153G (1.2%, 258,938G)
rawb2: 136G (1.1%, 136G)
jakeduhhsnake: 112G (0.9%, 112G)
Realitydown: 100G (0.8%, 8,614G)
genericco: 100G (0.8%, 100G)
Heroebal: 100G (0.8%, 4,719G)
Ashintar: 100G (0.8%, 4,802G)
duskps: 100G (0.8%, 13,431G)
squiregonnacary: 100G (0.8%, 1,043G)
