Final Bets: red - 21 bets for 17,607G (52.2%, x0.92); blue - 9 bets for 16,141G (47.8%, x1.09)

red bets:
Evewho: 7,400G (42.0%, 14,510G)
NicoSavoy: 2,000G (11.4%, 174,033G)
DeathTaxesAndAnime: 1,027G (5.8%, 2,015G)
BirbBrainsBot: 1,000G (5.7%, 103,635G)
dantayystv: 1,000G (5.7%, 23,654G)
UmaiJam: 1,000G (5.7%, 56,057G)
killth3kid: 700G (4.0%, 90,273G)
TheMurkGnome: 500G (2.8%, 2,068G)
getthemoneyz: 412G (2.3%, 1,277,214G)
Zagorsek: 400G (2.3%, 400G)
Treafa: 377G (2.1%, 755G)
cougboi: 300G (1.7%, 1,135G)
ThreeMileIsland: 244G (1.4%, 244G)
furrytomahawkk: 224G (1.3%, 224G)
flacococo: 216G (1.2%, 216G)
gorgewall: 201G (1.1%, 4,425G)
Mysteriousdewd: 200G (1.1%, 9,127G)
datadrivenbot: 200G (1.1%, 60,187G)
dtrain332: 104G (0.6%, 104G)
fluffskull: 100G (0.6%, 3,313G)
tanarusasamiya: 2G (0.0%, 517G)

blue bets:
twelfthrootoftwo: 10,042G (62.2%, 19,691G)
prince_rogers_nelson_: 1,882G (11.7%, 1,882G)
roofiepops: 1,321G (8.2%, 1,321G)
evdoggity: 1,000G (6.2%, 82,149G)
electric_algus: 800G (5.0%, 43,952G)
superdevon1: 496G (3.1%, 2,484G)
amiture: 296G (1.8%, 296G)
BlueAbs: 204G (1.3%, 204G)
Grandlanzer: 100G (0.6%, 74,357G)
