Final Bets: white - 14 bets for 12,557G (30.1%, x2.32); champion - 12 bets for 29,158G (69.9%, x0.43)

white bets:
Evewho: 4,500G (35.8%, 5,978G)
NicoSavoy: 2,000G (15.9%, 166,606G)
lowlf: 1,111G (8.8%, 122,728G)
EnemyController: 1,111G (8.8%, 1,416,392G)
BirbBrainsBot: 1,000G (8.0%, 101,286G)
dantayystv: 1,000G (8.0%, 26,212G)
ThreeMileIsland: 718G (5.7%, 718G)
getthemoneyz: 266G (2.1%, 1,275,051G)
furrytomahawkk: 224G (1.8%, 224G)
Mysteriousdewd: 200G (1.6%, 252G)
superdevon1: 123G (1.0%, 2,473G)
dtrain332: 104G (0.8%, 104G)
fluffskull: 100G (0.8%, 3,267G)
Firesheath: 100G (0.8%, 7,225G)

champion bets:
twelfthrootoftwo: 23,695G (81.3%, 46,462G)
DeathTaxesAndAnime: 1,967G (6.7%, 3,858G)
electric_algus: 1,200G (4.1%, 43,625G)
Laserman1000: 624G (2.1%, 27,224G)
Arcblazer23: 500G (1.7%, 2,542G)
dem0nj0ns: 330G (1.1%, 330G)
gorgewall: 201G (0.7%, 3,971G)
datadrivenbot: 200G (0.7%, 59,979G)
Lydian_C: 121G (0.4%, 95,055G)
midnight_blues3: 120G (0.4%, 120G)
Ring_Wyrm: 100G (0.3%, 18,645G)
CT_5_Holy: 100G (0.3%, 1,603G)
