Final Bets: red - 13 bets for 10,335G (57.8%, x0.73); blue - 13 bets for 7,549G (42.2%, x1.37)

red bets:
Digitalsocrates: 4,000G (38.7%, 40,430G)
BirbBrainsBot: 1,000G (9.7%, 38,833G)
reinoe: 1,000G (9.7%, 9,695G)
reddwind_: 1,000G (9.7%, 30,736G)
gorgewall: 801G (7.8%, 12,244G)
getthemoneyz: 526G (5.1%, 1,010,561G)
Dymntd: 500G (4.8%, 27,922G)
serperemagus: 500G (4.8%, 4,480G)
ar_tactic: 300G (2.9%, 54,169G)
biske13: 208G (2.0%, 208G)
TheMM42: 200G (1.9%, 8,376G)
twelfthrootoftwo: 200G (1.9%, 4,074G)
CT_5_Holy: 100G (1.0%, 1,088G)

blue bets:
tanarusasamiya: 1,023G (13.6%, 3,023G)
ruebyy: 1,000G (13.2%, 4,724G)
itsadud: 1,000G (13.2%, 4,190G)
HaateXIII: 750G (9.9%, 23,311G)
Laserman1000: 722G (9.6%, 14,322G)
O_Heyno: 558G (7.4%, 558G)
kaidykat: 500G (6.6%, 148,367G)
Ring_Wyrm: 500G (6.6%, 1,420G)
prince_rogers_nelson_: 500G (6.6%, 9,329G)
Zetchryn: 454G (6.0%, 454G)
josephiroth_143: 342G (4.5%, 342G)
datadrivenbot: 100G (1.3%, 44,908G)
Grandlanzer: 100G (1.3%, 2,775G)
