Final Bets: blue - 28 bets for 18,570G (19.6%, x4.10); green - 10 bets for 76,166G (80.4%, x0.24)

blue bets:
just_here2: 2,624G (14.1%, 2,624G)
CassiePhoenix: 1,859G (10.0%, 1,859G)
coralreeferz: 1,500G (8.1%, 9,477G)
brokenknight201: 1,093G (5.9%, 1,093G)
TheChainNerd: 1,000G (5.4%, 17,639G)
actual_JP: 1,000G (5.4%, 14,615G)
pyrelli: 1,000G (5.4%, 1,745G)
nifboy: 1,000G (5.4%, 4,039G)
ShintaroNayaka: 1,000G (5.4%, 5,936G)
NIghtdew14: 615G (3.3%, 615G)
dogsandcatsand: 564G (3.0%, 564G)
powergems: 550G (3.0%, 4,904G)
prince_rogers_nelson_: 549G (3.0%, 549G)
MagicBottle: 544G (2.9%, 15,766G)
Sairentozon7: 484G (2.6%, 484G)
getthemoneyz: 460G (2.5%, 1,305,496G)
furrytomahawkk: 372G (2.0%, 372G)
randgridr: 360G (1.9%, 360G)
SephDarkheart: 312G (1.7%, 29,248G)
Error72: 304G (1.6%, 304G)
lastly: 250G (1.3%, 38,357G)
benticore: 250G (1.3%, 20,921G)
Xoomwaffle: 240G (1.3%, 240G)
datadrivenbot: 200G (1.1%, 26,886G)
skipsandwiches: 124G (0.7%, 124G)
JarlBrolaf: 116G (0.6%, 116G)
infinite21: 100G (0.5%, 100G)
WorkKnight: 100G (0.5%, 100G)

green bets:
AllInBot: 66,969G (87.9%, 66,969G)
Shalloween: 2,000G (2.6%, 104,255G)
RaIshtar: 2,000G (2.6%, 24,602G)
Zeroroute: 1,565G (2.1%, 3,466G)
JumbocactuarX27: 1,000G (1.3%, 40,854G)
NicoSavoy: 1,000G (1.3%, 196,506G)
BirbBrainsBot: 902G (1.2%, 194,652G)
Blaster_Bomb: 457G (0.6%, 3,812G)
TasisSai: 173G (0.2%, 340G)
CosmicTactician: 100G (0.1%, 42,915G)
