Final Bets: purple - 12 bets for 6,069G (26.1%, x2.84); brown - 16 bets for 17,211G (73.9%, x0.35)

purple bets:
Zeroroute: 1,333G (22.0%, 6,351G)
BirbBrainsBot: 1,000G (16.5%, 51,136G)
Thyrandaal: 1,000G (16.5%, 94,728G)
killth3kid: 528G (8.7%, 1,265G)
technominari: 500G (8.2%, 74,777G)
getthemoneyz: 388G (6.4%, 1,748,783G)
MDMAyylmao: 306G (5.0%, 306G)
chronicdeath: 248G (4.1%, 248G)
douchetron: 243G (4.0%, 243G)
Chuckolator: 223G (3.7%, 17,510G)
poorest_hobo: 200G (3.3%, 12,452G)
AmewTheFox: 100G (1.6%, 10,645G)

brown bets:
Kronikle: 5,011G (29.1%, 5,011G)
pandasforsale: 4,830G (28.1%, 4,830G)
Mudrockk: 2,516G (14.6%, 8,389G)
thunderducker: 1,079G (6.3%, 1,079G)
SkylerBunny: 722G (4.2%, 722G)
Galeronis: 574G (3.3%, 574G)
twelfthrootoftwo: 500G (2.9%, 3,847G)
WhiteTigress: 500G (2.9%, 14,813G)
BoneMiser: 428G (2.5%, 428G)
silentkaster: 300G (1.7%, 3,058G)
datadrivenbot: 200G (1.2%, 65,898G)
Meta_Five: 150G (0.9%, 1,424G)
gorgewall: 101G (0.6%, 11,126G)
AllInBot: 100G (0.6%, 100G)
Tougou: 100G (0.6%, 6,048G)
RunicMagus: 100G (0.6%, 1,387G)
