Final Bets: green - 18 bets for 14,601G (37.3%, x1.68); yellow - 24 bets for 24,518G (62.7%, x0.60)

green bets:
itzover9001: 5,000G (34.2%, 60,623G)
HaplessOne: 1,500G (10.3%, 114,135G)
ungabunga_bot: 1,000G (6.8%, 216,158G)
BirbBrainsBot: 1,000G (6.8%, 132,808G)
feDoran: 1,000G (6.8%, 7,088G)
Laserman1000: 958G (6.6%, 38,458G)
reinoe: 600G (4.1%, 600G)
superdevon1: 600G (4.1%, 2,169G)
Larkspir: 500G (3.4%, 7,909G)
evontno: 452G (3.1%, 452G)
SteeleIT: 410G (2.8%, 410G)
DonCardenio: 300G (2.1%, 4,657G)
joewcarson: 300G (2.1%, 4,957G)
benticore: 300G (2.1%, 3,074G)
getthemoneyz: 238G (1.6%, 555,509G)
Chuckolator: 211G (1.4%, 22,143G)
nifboy: 132G (0.9%, 3,317G)
ZZ_Yoshi: 100G (0.7%, 69,180G)

yellow bets:
WoooBlaaa: 6,202G (25.3%, 6,202G)
LDHaten: 3,164G (12.9%, 3,164G)
holyonline: 2,410G (9.8%, 2,410G)
upvla: 2,345G (9.6%, 30,264G)
Kothn: 2,000G (8.2%, 12,077G)
Pie108: 2,000G (8.2%, 77,658G)
Shalloween: 1,000G (4.1%, 40,609G)
DontBackseatGame: 835G (3.4%, 835G)
gorgewall: 500G (2.0%, 6,184G)
smurphy000000: 500G (2.0%, 1,049G)
EnemyController: 500G (2.0%, 76,062G)
Estan_AD: 385G (1.6%, 771G)
SQUiDSQUARKLIN: 362G (1.5%, 362G)
AllInBot: 306G (1.2%, 306G)
DeathTaxesAndAnime: 300G (1.2%, 13,161G)
Conome: 276G (1.1%, 276G)
trigger15: 250G (1.0%, 2,498G)
Error72: 250G (1.0%, 1,660G)
marin1987: 224G (0.9%, 224G)
4shcrows: 204G (0.8%, 204G)
Nizaha: 201G (0.8%, 1,984G)
itsdigitalbro: 104G (0.4%, 104G)
Bojanges: 100G (0.4%, 100G)
datadrivenbot: 100G (0.4%, 597G)
