Final Bets: black - 20 bets for 14,420G (73.4%, x0.36); brown - 11 bets for 5,214G (26.6%, x2.77)

black bets:
Willjin: 4,000G (27.7%, 70,957G)
NicoSavoy: 2,000G (13.9%, 27,003G)
EnemyController: 1,500G (10.4%, 1,744,926G)
CorpusCav: 1,200G (8.3%, 1,899G)
Wonser: 1,000G (6.9%, 4,517G)
BirbBrainsBot: 1,000G (6.9%, 19,840G)
Zeroroute: 838G (5.8%, 2,396G)
Lord_Gwarth: 500G (3.5%, 12,083G)
escobro: 430G (3.0%, 430G)
AllInBot: 338G (2.3%, 338G)
killth3kid: 300G (2.1%, 32,065G)
serperemagus: 212G (1.5%, 212G)
datadrivenbot: 200G (1.4%, 58,238G)
old_overholt_: 200G (1.4%, 28,301G)
getthemoneyz: 196G (1.4%, 1,920,495G)
Smugzug: 132G (0.9%, 782G)
roofiepops: 123G (0.9%, 5,198G)
gorgewall: 101G (0.7%, 5,846G)
BartTradingCompany: 100G (0.7%, 2,617G)
moonliquor: 50G (0.3%, 75,619G)

brown bets:
snkey: 2,539G (48.7%, 25,385G)
latebit: 1,011G (19.4%, 1,984G)
mindblownnnn: 300G (5.8%, 2,760G)
brodeity: 268G (5.1%, 906G)
ValensEXP_: 256G (4.9%, 4,131G)
farside00831: 228G (4.4%, 228G)
Leonidusx: 200G (3.8%, 11,343G)
Riley331: 112G (2.1%, 112G)
maakur_: 100G (1.9%, 7,789G)
BaronHaynes: 100G (1.9%, 30,696G)
RuneS_77: 100G (1.9%, 17,451G)
