Final Bets: brown - 17 bets for 18,954G (40.5%, x1.47); champion - 40 bets for 27,813G (59.5%, x0.68)

brown bets:
linear04: 11,192G (59.0%, 11,192G)
Deathmaker06: 3,000G (15.8%, 29,789G)
Lodrak: 1,001G (5.3%, 4,504G)
Phi_Sig: 555G (2.9%, 46,098G)
technominari: 500G (2.6%, 76,658G)
HaplessOne: 500G (2.6%, 23,233G)
Toksu: 380G (2.0%, 380G)
SerumD: 312G (1.6%, 312G)
Meridian75W: 300G (1.6%, 1,516G)
Baron_von_Scrub: 252G (1.3%, 4,585G)
Fallenmagi: 208G (1.1%, 208G)
ThePineappleSalesman: 200G (1.1%, 4,692G)
Melbraega: 150G (0.8%, 501G)
TheRobbieRobster: 104G (0.5%, 104G)
ApplesauceBoss: 100G (0.5%, 10,848G)
maakur_: 100G (0.5%, 58,215G)
SeedSC: 100G (0.5%, 98,976G)

champion bets:
Rastanar: 5,081G (18.3%, 5,081G)
Grasnikk: 3,000G (10.8%, 15,571G)
kingchadking: 2,125G (7.6%, 2,125G)
DeliciousSub: 2,000G (7.2%, 5,904G)
inzo24: 1,744G (6.3%, 1,744G)
LuckyLuckLuc2: 1,111G (4.0%, 16,168G)
powergems: 1,063G (3.8%, 2,126G)
BirbBrainsBot: 1,000G (3.6%, 220,669G)
bad1dea: 1,000G (3.6%, 212,912G)
MantisFinch: 1,000G (3.6%, 28,384G)
friendsquirrel: 617G (2.2%, 617G)
OmnibotGamma: 600G (2.2%, 600G)
Oshimi12: 584G (2.1%, 584G)
sinnyil2: 548G (2.0%, 548G)
RyuTsuno: 500G (1.8%, 5,781G)
gameman733: 500G (1.8%, 3,796G)
Lazerkick: 500G (1.8%, 11,444G)
Wizard_01: 500G (1.8%, 25,316G)
AllInBot: 470G (1.7%, 470G)
ELzukkor: 400G (1.4%, 2,968G)
SpaZmodeus: 333G (1.2%, 2,446G)
Zetchryn: 296G (1.1%, 296G)
roofiepops: 296G (1.1%, 296G)
Humble_Fabio: 272G (1.0%, 272G)
lijarkh: 268G (1.0%, 268G)
TheOneRanger: 200G (0.7%, 2,663G)
Bahamut64: 200G (0.7%, 4,704G)
theallmightyensiron: 200G (0.7%, 200G)
ZestyArsenic: 200G (0.7%, 1,270G)
rjA0zcOQ96: 170G (0.6%, 3,258G)
HRak050: 156G (0.6%, 156G)
Snowfats: 150G (0.5%, 5,401G)
brenogarwin: 116G (0.4%, 116G)
spit8866: 108G (0.4%, 108G)
TheSyffy: 104G (0.4%, 104G)
BadBlanket: 100G (0.4%, 2,890G)
ShanksMcShiv: 100G (0.4%, 100G)
thejoden: 100G (0.4%, 2,345G)
Heroebal: 100G (0.4%, 4,196G)
daveb_: 1G (0.0%, 2,337G)
