Final Bets: black - 16 bets for 6,619G (20.0%, x3.99); brown - 22 bets for 26,402G (80.0%, x0.25)

black bets:
athros13: 1,000G (15.1%, 3,713G)
BirbBrainsBot: 1,000G (15.1%, 85,609G)
Aldrammech: 917G (13.9%, 917G)
DeathTaxesAndAnime: 648G (9.8%, 648G)
HaateXIII: 500G (7.6%, 1,588G)
thevilmen: 498G (7.5%, 498G)
fenaen: 372G (5.6%, 372G)
arch8000: 308G (4.7%, 10,280G)
joewcarson: 300G (4.5%, 6,251G)
Pah_J: 252G (3.8%, 252G)
RunicMagus: 250G (3.8%, 718G)
KasugaiRoastedPeas: 200G (3.0%, 3,856G)
madming25: 108G (1.6%, 108G)
ko2q: 100G (1.5%, 2,121G)
astrozin11: 100G (1.5%, 3,772G)
getthemoneyz: 66G (1.0%, 477,524G)

brown bets:
toka222: 6,500G (24.6%, 548,205G)
Dothan89: 3,000G (11.4%, 21,935G)
Nizaha: 2,233G (8.5%, 4,466G)
Willjin: 2,000G (7.6%, 7,491G)
rico_flex: 1,572G (6.0%, 1,572G)
HASTERIOUS: 1,273G (4.8%, 1,286G)
Shalloween: 1,200G (4.5%, 35,722G)
CapnChaos12: 1,006G (3.8%, 1,006G)
kai_shee: 1,001G (3.8%, 138,779G)
reinoe: 1,000G (3.8%, 22,526G)
IndecisiveNinja: 842G (3.2%, 842G)
Pie108: 700G (2.7%, 21,713G)
datadrivenbot: 687G (2.6%, 16,980G)
Lanshaft: 600G (2.3%, 11,796G)
VySaika: 532G (2.0%, 1,064G)
Laserman1000: 500G (1.9%, 10,200G)
Theseawolf1: 500G (1.9%, 3,419G)
MattMan119: 500G (1.9%, 10,986G)
regios91: 283G (1.1%, 283G)
ungabunga_bot: 197G (0.7%, 111,801G)
AllInBot: 168G (0.6%, 168G)
OverlordSS4: 108G (0.4%, 108G)
