Final Bets: purple - 18 bets for 9,822G (35.8%, x1.80); brown - 23 bets for 17,649G (64.2%, x0.56)

purple bets:
Psychomidget: 2,714G (27.6%, 5,428G)
inzo_bettingbot: 1,000G (10.2%, 42,498G)
BirbBrainsBot: 1,000G (10.2%, 48,409G)
bad1dea: 1,000G (10.2%, 275,796G)
DudeMonkey77: 1,000G (10.2%, 28,820G)
TheRobbieRobster: 500G (5.1%, 3,269G)
getthemoneyz: 376G (3.8%, 399,604G)
TheGuesty: 331G (3.4%, 9,231G)
ensiron: 300G (3.1%, 2,622G)
HaychDub: 250G (2.5%, 12,368G)
UmaiJam: 240G (2.4%, 2,400G)
jhazor: 212G (2.2%, 212G)
0utlier: 200G (2.0%, 4,720G)
ZephyrTempest: 189G (1.9%, 11,124G)
robespyah: 174G (1.8%, 1,748G)
Adam1949: 136G (1.4%, 136G)
DeathTaxesAndAnime: 100G (1.0%, 1,323G)
Mechapope1: 100G (1.0%, 3,586G)

brown bets:
SkylerBunny: 3,000G (17.0%, 38,049G)
LASERJESUS1337: 3,000G (17.0%, 27,462G)
gooseyourself: 2,000G (11.3%, 24,135G)
Laserman1000: 1,650G (9.3%, 3,300G)
fenaen: 1,348G (7.6%, 1,348G)
kai_shee: 1,000G (5.7%, 47,884G)
bajeger: 616G (3.5%, 616G)
Lanshaft: 600G (3.4%, 5,304G)
sinnyil2: 600G (3.4%, 600G)
ko2q: 561G (3.2%, 561G)
Lordminsc: 500G (2.8%, 21,717G)
NovaKnight21: 444G (2.5%, 444G)
Orerries: 431G (2.4%, 431G)
CorpusCav: 400G (2.3%, 7,045G)
MoonSlayerRS: 360G (2.0%, 360G)
maakur_: 328G (1.9%, 328G)
SleepyBenzo: 211G (1.2%, 211G)
BadBlanket: 100G (0.6%, 1,414G)
RughSontos: 100G (0.6%, 5,852G)
datadrivenbot: 100G (0.6%, 17,634G)
Morolen: 100G (0.6%, 318G)
Sairentozon7: 100G (0.6%, 669G)
rico_flex: 100G (0.6%, 4,336G)
