Final Bets: purple - 7 bets for 4,203G (63.9%, x0.57); brown - 5 bets for 2,376G (36.1%, x1.77)

purple bets:
ShintaroNayaka: 1,929G (45.9%, 1,929G)
BirbBrainsBot: 1,000G (23.8%, 150,770G)
twelfthrootoftwo: 402G (9.6%, 790G)
JethroThrul: 344G (8.2%, 689G)
cbergs: 236G (5.6%, 236G)
datadrivenbot: 200G (4.8%, 59,956G)
getthemoneyz: 92G (2.2%, 1,226,980G)

brown bets:
Evewho: 1,000G (42.1%, 10,851G)
Mesmaster: 584G (24.6%, 584G)
Digitalsocrates: 380G (16.0%, 2,466G)
randgridr: 212G (8.9%, 1,021G)
RaIshtar: 200G (8.4%, 9,453G)
