High Risers:
1. Thyrandaal: +9,399G
2. Nhammen: +7,041G
3. Corpuscav: +5,489G
4. Blorpy_: +3,279G
5. Daveniii: +2,469G
6. Kronikle: +2,219G
7. Sinnyil2: +1,754G
8. Snkey: +1,414G
9. Kellios11: +1,280G
10. Powermhero: +1,272G
11. Sietaha: +1,050G
12. Farside00831: +1,002G
13. Foragercats: +1,000G
14. Shalloween: +928G
15. Latebit: +900G
16. Altimamantoid: +899G
17. Technominari: +824G
18. Smashy: +751G
19. Reinoe: +705G
20. Vahn_blade: +687G
21. Firesheath: +618G
22. Arrenjevleth: +612G
23. Notazzie: +596G
24. Stealthmodelocke: +500G
25. J2dabibbles: +500G
26. Seaweed_b: +500G
27. Galkife: +500G
28. Phi_sig: +500G
29. Brokenknight201: +500G
30. Segomod: +500G
31. Leonidusx: +500G
32. Aly327: +500G
33. Fattunaking: +500G
34. Omegasuspekt: +500G
35. Dinin991: +500G
36. Dac169: +500G
37. Lord_gwarth: +500G
38. Silentkaster: +500G
39. Reddwind_: +500G
40. Bigbongsmoker: +500G
41. Snowfats: +500G
42. Aldrammech: +500G
43. Douchetron: +500G
44. Redmage4evah: +300G
45. Seppu777: +253G
46. Helpimabug: +245G
47. Sephdarkheart: +240G
48. Resjudicata3: +204G
49. Brenogarwin: +200G
50. Chuckolator: +176G
51. Maakur_: +100G
52. Brodeity: +78G
53. Roofiepops: +52G
54. The_pengwin: +4G
55. Krombobreaker: +4G
56. Valensexp_: -85G
57. Deathtaxesandanime: -100G
58. Abandonedhall: -100G
59. Killth3kid: -129G
60. Finewax: -217G
61. Formerlydrdong: -220G
62. Laserman1000: -239G
63. Spartan_paladin: -247G
64. Upvla: -300G
65. Evontno: -300G
66. Blaster_bomb: -300G
67. Onixiion: -383G
68. Victoriolue: -400G
69. Cosmictactician: -461G
70. Omally_: -492G
71. Vorap: -496G
72. Just_here2: -500G
73. Kasugairoastedpeas: -500G
74. Khelor_: -500G
75. Zeroroute: -611G
76. Rikrizen: -633G
77. Onehundredfists: -682G
78. Trogdorthememeinator: -805G
79. Gorgewall: -878G
80. Mesmaster: -900G
81. Sairentozon7: -1,000G
82. Neerrm: -1,000G
83. Dejapoo21: -1,277G
84. Wackyzachyy: -1,442G
85. Dogsandcatsand: -2,060G
86. Akash7: -4,310G
