Final Bets: green - 12 bets for 5,998G (35.2%, x1.84); yellow - 19 bets for 11,036G (64.8%, x0.54)

green bets:
resjudicata3: 1,601G (26.7%, 1,601G)
krombobreaker: 542G (9.0%, 542G)
Firesheath: 536G (8.9%, 536G)
TrogdorTheMemeinator: 500G (8.3%, 9,914G)
wackyzachyy: 500G (8.3%, 1,590G)
evontno: 500G (8.3%, 5,023G)
OniXiion: 500G (8.3%, 3,789G)
DejaPoo21: 452G (7.5%, 452G)
Rikrizen: 416G (6.9%, 8,335G)
killth3kid: 250G (4.2%, 21,169G)
gorgewall: 101G (1.7%, 3,288G)
OneHundredFists: 100G (1.7%, 1,788G)

yellow bets:
Thyrandaal: 3,999G (36.2%, 128,610G)
AllInBot: 1,137G (10.3%, 1,137G)
BirbBrainsBot: 1,000G (9.1%, 64,840G)
latebit: 1,000G (9.1%, 4,010G)
Spartan_Paladin: 570G (5.2%, 14,574G)
reinoe: 568G (5.1%, 568G)
CosmicTactician: 500G (4.5%, 32,748G)
BartTradingCompany: 339G (3.1%, 3,398G)
Omally_: 300G (2.7%, 408G)
CorpusCav: 200G (1.8%, 21,547G)
ArrenJevleth: 200G (1.8%, 4,463G)
ValensEXP_: 200G (1.8%, 666G)
datadrivenbot: 200G (1.8%, 54,830G)
Vahn_Blade: 200G (1.8%, 21,813G)
Chuckolator: 173G (1.6%, 10,749G)
acid_flashback: 144G (1.3%, 144G)
Finewax: 116G (1.1%, 116G)
akash7: 100G (0.9%, 4,310G)
getthemoneyz: 90G (0.8%, 1,859,826G)
