Final Bets: purple - 18 bets for 8,321G (42.4%, x1.36); brown - 14 bets for 11,309G (57.6%, x0.74)

purple bets:
AllInBot: 2,441G (29.3%, 2,441G)
upvla: 891G (10.7%, 22,525G)
Firesheath: 751G (9.0%, 751G)
DejaPoo21: 629G (7.6%, 629G)
AltimaMantoid: 501G (6.0%, 4,301G)
Sietaha: 500G (6.0%, 9,074G)
krombobreaker: 456G (5.5%, 456G)
BartTradingCompany: 322G (3.9%, 3,224G)
acid_flashback: 309G (3.7%, 309G)
CosmicTactician: 300G (3.6%, 33,059G)
ValensEXP_: 204G (2.5%, 204G)
brodeity: 200G (2.4%, 4,067G)
datadrivenbot: 200G (2.4%, 55,017G)
ArrenJevleth: 200G (2.4%, 4,689G)
velvet_muffins: 116G (1.4%, 116G)
gorgewall: 101G (1.2%, 3,187G)
OneHundredFists: 100G (1.2%, 1,727G)
AbandonedHall: 100G (1.2%, 3,701G)

brown bets:
Thyrandaal: 5,000G (44.2%, 130,783G)
latebit: 1,300G (11.5%, 4,553G)
reinoe: 1,098G (9.7%, 1,098G)
BirbBrainsBot: 1,000G (8.8%, 64,579G)
Kronikle: 632G (5.6%, 33,889G)
Smashy: 500G (4.4%, 8,698G)
Spartan_Paladin: 400G (3.5%, 14,804G)
getthemoneyz: 292G (2.6%, 1,859,431G)
Finewax: 249G (2.2%, 249G)
seppu777: 222G (2.0%, 793G)
Omally_: 216G (1.9%, 271G)
akash7: 200G (1.8%, 4,364G)
CorpusCav: 100G (0.9%, 21,556G)
Kellios11: 100G (0.9%, 348G)
