Final Bets: purple - 8 bets for 18,121G (39.6%, x1.53); brown - 18 bets for 27,693G (60.4%, x0.65)

purple bets:
AllInBot: 10,117G (55.8%, 10,117G)
OneHundredFists: 4,069G (22.5%, 67,430G)
b0lt: 2,272G (12.5%, 4,545G)
bigbongsmoker: 771G (4.3%, 1,543G)
superdevon1: 384G (2.1%, 3,717G)
ValensEXP_: 200G (1.1%, 27,469G)
resjudicata3: 200G (1.1%, 6,833G)
verythinice: 108G (0.6%, 6,386G)

brown bets:
NicoSavoy: 10,000G (36.1%, 132,636G)
Mushufasa_: 5,000G (18.1%, 62,159G)
CorpusCav: 3,000G (10.8%, 109,728G)
gorgewall: 2,511G (9.1%, 2,511G)
DeathTaxesAndAnime: 1,020G (3.7%, 1,020G)
BirbBrainsBot: 1,000G (3.6%, 27,701G)
3ngag3: 1,000G (3.6%, 17,277G)
MemoriesofFinal: 1,000G (3.6%, 4,039G)
Evewho: 500G (1.8%, 65,444G)
krombobreaker: 500G (1.8%, 27,754G)
ExplanationMarkWow: 500G (1.8%, 6,634G)
Treafa: 400G (1.4%, 4,974G)
Zachara: 304G (1.1%, 304G)
scsuperstar: 280G (1.0%, 280G)
getthemoneyz: 230G (0.8%, 2,210,296G)
datadrivenbot: 200G (0.7%, 83,437G)
Deeps_one: 128G (0.5%, 128G)
Jabuamba: 120G (0.4%, 120G)
