Final Bets: black - 18 bets for 13,190G (61.3%, x0.63); brown - 9 bets for 8,318G (38.7%, x1.59)

black bets:
gorgewall: 4,240G (32.1%, 4,240G)
Mushufasa_: 1,234G (9.4%, 64,197G)
BirbBrainsBot: 1,000G (7.6%, 27,355G)
3ngag3: 1,000G (7.6%, 16,931G)
MemoriesofFinal: 1,000G (7.6%, 4,693G)
TheBrett: 1,000G (7.6%, 24,179G)
YowaneHaku: 580G (4.4%, 580G)
krombobreaker: 500G (3.8%, 27,581G)
ExplanationMarkWow: 500G (3.8%, 6,461G)
bigbongsmoker: 432G (3.3%, 432G)
superdevon1: 384G (2.9%, 2,949G)
Zachara: 304G (2.3%, 304G)
b0lt: 224G (1.7%, 224G)
ValensEXP_: 200G (1.5%, 27,440G)
NicoSavoy: 200G (1.5%, 139,180G)
getthemoneyz: 156G (1.2%, 2,210,089G)
Deeps_one: 128G (1.0%, 128G)
verythinice: 108G (0.8%, 9,016G)

brown bets:
CorpusCav: 2,000G (24.0%, 109,691G)
LASERJESUS1337: 1,809G (21.7%, 1,809G)
DeathTaxesAndAnime: 1,596G (19.2%, 3,130G)
Lolthsmeat: 1,074G (12.9%, 1,074G)
scsuperstar: 859G (10.3%, 859G)
randgridr: 380G (4.6%, 380G)
AllInBot: 200G (2.4%, 200G)
resjudicata3: 200G (2.4%, 6,804G)
datadrivenbot: 200G (2.4%, 83,739G)
