Final Bets: green - 7 bets for 13,563G (51.1%, x0.96); black - 14 bets for 13,001G (48.9%, x1.04)

green bets:
OneHundredFists: 10,069G (74.2%, 66,842G)
DeathTaxesAndAnime: 1,534G (11.3%, 1,534G)
krombobreaker: 500G (3.7%, 27,896G)
Zachara: 500G (3.7%, 500G)
superdevon1: 384G (2.8%, 3,191G)
Lolthsmeat: 376G (2.8%, 376G)
resjudicata3: 200G (1.5%, 6,604G)

black bets:
NicoSavoy: 5,000G (38.5%, 139,306G)
CorpusCav: 2,000G (15.4%, 107,691G)
Mushufasa_: 1,234G (9.5%, 64,975G)
BirbBrainsBot: 1,000G (7.7%, 27,986G)
3ngag3: 1,000G (7.7%, 17,562G)
YowaneHaku: 946G (7.3%, 946G)
ExplanationMarkWow: 500G (3.8%, 6,776G)
scsuperstar: 280G (2.2%, 280G)
AllInBot: 200G (1.5%, 200G)
Evewho: 200G (1.5%, 65,771G)
datadrivenbot: 200G (1.5%, 83,539G)
ValensEXP_: 200G (1.5%, 27,566G)
getthemoneyz: 140G (1.1%, 2,210,187G)
gorgewall: 101G (0.8%, 6,914G)
