Final Bets: red - 13 bets for 5,425G (46.7%, x1.14); blue - 12 bets for 6,192G (53.3%, x0.88)

red bets:
Laserman1000: 1,329G (24.5%, 1,329G)
Raixelol: 845G (15.6%, 845G)
getthemoneyz: 582G (10.7%, 1,863,486G)
ValensEXP_: 556G (10.2%, 556G)
krombobreaker: 526G (9.7%, 526G)
Neech: 350G (6.5%, 4,199G)
khelor_: 200G (3.7%, 3,885G)
datadrivenbot: 200G (3.7%, 56,689G)
ArrenJevleth: 200G (3.7%, 6,087G)
Sietaha: 200G (3.7%, 4,037G)
blorpy_: 200G (3.7%, 7,901G)
Chuckolator: 137G (2.5%, 8,515G)
Miku_Shikhu: 100G (1.8%, 6,366G)

blue bets:
MrUbiq: 1,000G (16.1%, 6,998G)
BirbBrainsBot: 1,000G (16.1%, 73,424G)
NicoSavoy: 1,000G (16.1%, 9,962G)
brodeity: 1,000G (16.1%, 31,808G)
BartTradingCompany: 373G (6.0%, 3,735G)
CT_5_Holy: 356G (5.7%, 7,131G)
thunderducker: 333G (5.4%, 8,979G)
latebit: 324G (5.2%, 8,176G)
RonaldoTheGypsy: 250G (4.0%, 3,471G)
CorpusCav: 200G (3.2%, 27,766G)
Leonidusx: 200G (3.2%, 25,127G)
AllInBot: 156G (2.5%, 156G)
