Final Bets: purple - 15 bets for 8,848G (29.5%, x2.39); brown - 24 bets for 21,114G (70.5%, x0.42)

purple bets:
Mrasin: 2,869G (32.4%, 2,869G)
Orerries: 2,500G (28.3%, 4,000G)
superdevon1: 512G (5.8%, 2,564G)
Dothan89: 467G (5.3%, 467G)
CorpusCav: 436G (4.9%, 436G)
Cryptopsy70: 348G (3.9%, 5,170G)
WireLord: 316G (3.6%, 316G)
Skarthe: 300G (3.4%, 5,147G)
Kyton786: 200G (2.3%, 810G)
alithesillybird: 200G (2.3%, 567G)
lijarkh: 200G (2.3%, 2,915G)
YesThisIsToshi: 200G (2.3%, 446G)
Basmal: 100G (1.1%, 5,696G)
7Cerulean7: 100G (1.1%, 2,474G)
oodlesonoodles11: 100G (1.1%, 6,244G)

brown bets:
nosablake: 5,000G (23.7%, 323,902G)
AzuriteReaction: 3,119G (14.8%, 3,119G)
thaetreis: 2,000G (9.5%, 6,916G)
PatSouI: 1,902G (9.0%, 1,902G)
sinnyil2: 1,200G (5.7%, 28,162G)
Riot_Jayway: 1,111G (5.3%, 172,159G)
BirbBrainsBot: 1,000G (4.7%, 191,694G)
bad1dea: 1,000G (4.7%, 180,632G)
proper__noun__: 1,000G (4.7%, 3,587G)
Ant_ihistamine: 642G (3.0%, 642G)
OmnibotGamma: 600G (2.8%, 600G)
HaplessOne: 500G (2.4%, 24,576G)
waterwatereverywhere: 488G (2.3%, 488G)
rubenflonne: 272G (1.3%, 272G)
Bulleta: 244G (1.2%, 244G)
ELzukkor: 200G (0.9%, 4,885G)
humble_fabio: 156G (0.7%, 156G)
hrpufnsting: 108G (0.5%, 108G)
inzo24: 100G (0.5%, 100G)
victoriolue: 100G (0.5%, 2,602G)
Treapvort: 100G (0.5%, 3,899G)
datadrivenbot: 100G (0.5%, 12,009G)
deesignal: 100G (0.5%, 1,191G)
getthemoneyz: 72G (0.3%, 350,417G)
