High Risers:
1. Nifboy: +2,382G
2. Gorgewall: +2,342G
3. Ibardic: +2,042G
4. Leonidusx: +1,624G
5. Ninjaboy3234: +634G
6. Upvla: +572G
7. Skipsandwiches: +547G
8. E_ballard: +487G
9. Lifebregin: +390G
10. Error72: +386G
11. Silentkaster: +297G
12. Colettemslp: +270G
13. Gongonono: +246G
14. Goatshow2: +157G
15. Memoriesoffinal: +43G
16. Raixelol: -17G
17. Snkey: -94G
18. Valensexp_: -148G
19. Nicosavoy: -200G
20. Dac169: -200G
21. Dracoknightzero: -268G
22. Aly327: -300G
23. Byrdturbo: -400G
24. Run_with_stone_guns: -400G
25. Volgrathemoose: -400G
26. Zachara: -500G
27. Jeeboheebo: -800G
28. Baronhaynes: -871G
29. Reddwind_: -921G
30. Hotpocketsofficial: -1,000G
31. Prince_rogers_nelson_: -1,000G
32. Just_here2: -1,200G
33. Sephdarkheart: -1,666G
34. Zpawz: -2,940G
35. Ser_pyrro: -3,980G
