Final Bets: red - 10 bets for 5,879G (49.0%, x1.04); blue - 13 bets for 6,126G (51.0%, x0.96)

red bets:
skipsandwiches: 2,001G (34.0%, 162,856G)
AltimaMantoid: 1,062G (18.1%, 1,062G)
2b_yorha_b: 712G (12.1%, 712G)
Bryon_W: 520G (8.8%, 520G)
CosmicTactician: 500G (8.5%, 4,136G)
ColetteMSLP: 484G (8.2%, 12,225G)
AllInBot: 200G (3.4%, 200G)
datadrivenbot: 200G (3.4%, 82,080G)
king_smashington: 100G (1.7%, 1,192G)
Error72: 100G (1.7%, 2,252G)

blue bets:
MemoriesofFinal: 1,184G (19.3%, 1,184G)
dogsandcatsand: 1,121G (18.3%, 1,121G)
BirbBrainsBot: 1,000G (16.3%, 173,826G)
LivingHitokiri: 500G (8.2%, 160,486G)
nok____: 500G (8.2%, 19,940G)
HorusTaurus: 368G (6.0%, 368G)
silentkaster: 300G (4.9%, 26,256G)
VynxYukida: 285G (4.7%, 285G)
ShadowNinja25: 240G (3.9%, 240G)
bokurakira: 200G (3.3%, 649G)
getthemoneyz: 168G (2.7%, 2,129,746G)
Sharosa: 160G (2.6%, 160G)
Lyner87: 100G (1.6%, 2,093G)
