Final Bets: green - 18 bets for 11,584G (79.6%, x0.26); yellow - 9 bets for 2,971G (20.4%, x3.90)

green bets:
CosmicTactician: 2,636G (22.8%, 2,636G)
dogsandcatsand: 1,197G (10.3%, 1,197G)
BirbBrainsBot: 1,000G (8.6%, 174,786G)
MemoriesofFinal: 936G (8.1%, 2,320G)
E_Ballard: 844G (7.3%, 844G)
HorusTaurus: 721G (6.2%, 721G)
Laserman1000: 700G (6.0%, 14,300G)
maakur_: 632G (5.5%, 632G)
Bryon_W: 520G (4.5%, 520G)
LivingHitokiri: 500G (4.3%, 160,966G)
ShadowNinja25: 470G (4.1%, 470G)
Lolthsmeat: 304G (2.6%, 5,943G)
2b_yorha_b: 248G (2.1%, 248G)
PuzzleSecretary: 216G (1.9%, 1,215G)
AllInBot: 200G (1.7%, 200G)
datadrivenbot: 200G (1.7%, 81,880G)
getthemoneyz: 160G (1.4%, 2,129,907G)
LordMaxoss: 100G (0.9%, 5,480G)

yellow bets:
run_with_stone_GUNs: 492G (16.6%, 11,085G)
powergems: 444G (14.9%, 18,713G)
TheKillerNacho: 408G (13.7%, 408G)
silentkaster: 399G (13.4%, 26,544G)
AltimaMantoid: 364G (12.3%, 364G)
Sharosa: 314G (10.6%, 314G)
VynxYukida: 200G (6.7%, 559G)
Zachara: 200G (6.7%, 127,700G)
bokurakira: 150G (5.0%, 826G)
