Final Bets: green - 6 bets for 6,849G (48.7%, x1.05); yellow - 11 bets for 7,207G (51.3%, x0.95)

green bets:
HentaiWriter: 2,789G (40.7%, 2,789G)
randgridr: 2,520G (36.8%, 5,040G)
Seaweed_B: 1,000G (14.6%, 50,393G)
DaveStrider55: 316G (4.6%, 316G)
Absalom_20: 120G (1.8%, 9,595G)
zarath79: 104G (1.5%, 104G)

yellow bets:
bruubarg: 2,000G (27.8%, 27,642G)
gorgewall: 1,069G (14.8%, 1,069G)
BirbBrainsBot: 1,000G (13.9%, 158,075G)
getthemoneyz: 1,000G (13.9%, 1,778,587G)
TheMurkGnome: 472G (6.5%, 472G)
ColetteMSLP: 441G (6.1%, 441G)
BoneMiser: 440G (6.1%, 440G)
MemoriesofFinal: 385G (5.3%, 385G)
datadrivenbot: 200G (2.8%, 58,229G)
AllInBot: 100G (1.4%, 100G)
Vultuous: 100G (1.4%, 988G)
