Final Bets: white - 17 bets for 8,447G (50.0%, x1.00); black - 8 bets for 8,437G (50.0%, x1.00)

white bets:
evontno: 1,500G (17.8%, 22,237G)
midnight_blues3: 1,000G (11.8%, 19,878G)
getthemoneyz: 1,000G (11.8%, 1,261,918G)
evdoggity: 1,000G (11.8%, 85,395G)
Laserman1000: 775G (9.2%, 31,075G)
BirbBrainsBot: 447G (5.3%, 44,414G)
superdevon1: 428G (5.1%, 428G)
Digitalsocrates: 404G (4.8%, 1,543G)
winteriscorning: 393G (4.7%, 393G)
dantayystv: 300G (3.6%, 4,573G)
Treafa: 250G (3.0%, 290G)
maddrave09: 200G (2.4%, 19,933G)
datadrivenbot: 200G (2.4%, 63,877G)
Grandlanzer: 200G (2.4%, 73,119G)
ThreeMileIsland: 150G (1.8%, 2,491G)
fluffskull: 100G (1.2%, 2,165G)
lijerrr: 100G (1.2%, 743G)

black bets:
DamnThatShark: 2,615G (31.0%, 2,615G)
Evewho: 2,478G (29.4%, 4,860G)
Geffro1908: 1,007G (11.9%, 1,007G)
SkylerBunny: 1,000G (11.9%, 7,566G)
Ring_Wyrm: 548G (6.5%, 548G)
letdowncity: 388G (4.6%, 388G)
gorgewall: 201G (2.4%, 8,518G)
DustBirdEX: 200G (2.4%, 2,072G)
