Final Bets: green - 14 bets for 15,035G (33.1%, x2.02); yellow - 25 bets for 30,423G (66.9%, x0.49)

green bets:
MagicBottle: 5,851G (38.9%, 5,851G)
BoneMiser: 4,966G (33.0%, 4,966G)
killth3kid: 760G (5.1%, 15,745G)
E_Ballard: 672G (4.5%, 672G)
Lanshaft: 608G (4.0%, 7,749G)
Chuckolator: 404G (2.7%, 10,838G)
KasugaiRoastedPeas: 400G (2.7%, 1,736G)
resjudicata3: 352G (2.3%, 352G)
getthemoneyz: 310G (2.1%, 1,678,779G)
Tarheels218: 304G (2.0%, 304G)
Chihuahua_Charity: 108G (0.7%, 108G)
AllInBot: 100G (0.7%, 100G)
Aldrammech: 100G (0.7%, 48,640G)
3ngag3: 100G (0.7%, 1,900G)

yellow bets:
friskycc: 7,259G (23.9%, 7,259G)
Thyrandaal: 4,000G (13.1%, 473,566G)
Drusiform: 2,764G (9.1%, 2,764G)
Smashy: 2,000G (6.6%, 11,659G)
SkylerBunny: 2,000G (6.6%, 21,519G)
evontno: 1,600G (5.3%, 7,232G)
FFMaster: 1,302G (4.3%, 1,302G)
sinnyil2: 1,160G (3.8%, 1,160G)
rockmem21: 1,000G (3.3%, 16,482G)
Sairentozon7: 1,000G (3.3%, 25,500G)
BirbBrainsBot: 1,000G (3.3%, 49,844G)
nhammen: 1,000G (3.3%, 76,035G)
douchetron: 600G (2.0%, 600G)
pplvee1: 587G (1.9%, 587G)
VolgraTheMoose: 501G (1.6%, 8,895G)
Mesmaster: 484G (1.6%, 484G)
Error72: 480G (1.6%, 480G)
CapnChaos12: 404G (1.3%, 404G)
silverChangeling: 302G (1.0%, 15,123G)
Galeronis: 264G (0.9%, 264G)
Starfire6789: 216G (0.7%, 216G)
datadrivenbot: 200G (0.7%, 64,452G)
balmung002: 100G (0.3%, 100G)
DarrenDinosaurs: 100G (0.3%, 5,281G)
BevBear: 100G (0.3%, 4,689G)
