Final Bets: white - 21 bets for 9,665G (40.5%, x1.47); brown - 12 bets for 14,209G (59.5%, x0.68)

white bets:
LanseDM: 2,000G (20.7%, 13,934G)
JustSuperish: 1,304G (13.5%, 1,304G)
BirbBrainsBot: 1,000G (10.3%, 202,141G)
bad1dea: 1,000G (10.3%, 191,165G)
spit8866: 600G (6.2%, 600G)
z32o: 528G (5.5%, 528G)
ForestMagi: 500G (5.2%, 1,215G)
theregularirregular: 500G (5.2%, 2,905G)
RongRongArts: 357G (3.7%, 715G)
PatSouI: 296G (3.1%, 296G)
thaetreis: 256G (2.6%, 256G)
M0nk3yNutz: 240G (2.5%, 240G)
roqqqpsi: 222G (2.3%, 1,571G)
getthemoneyz: 162G (1.7%, 351,064G)
ungabunga_bot: 100G (1.0%, 128G)
mega_goopta: 100G (1.0%, 700G)
maakur_: 100G (1.0%, 53,904G)
Maeveen: 100G (1.0%, 7,656G)
datadrivenbot: 100G (1.0%, 12,486G)
Rexamajinx: 100G (1.0%, 1,098G)
MajikNinja44: 100G (1.0%, 249G)

brown bets:
Lydian_C: 3,200G (22.5%, 34,622G)
Humble_Fabio: 2,639G (18.6%, 2,639G)
UmaiJam: 2,259G (15.9%, 2,259G)
PotionDweller: 2,000G (14.1%, 20,285G)
Anethum: 1,353G (9.5%, 1,353G)
leakimiko: 889G (6.3%, 17,791G)
darnitkevin: 863G (6.1%, 863G)
Zetchryn: 406G (2.9%, 406G)
rubenflonne: 200G (1.4%, 3,694G)
puls3evo: 200G (1.4%, 1,290G)
powergems: 100G (0.7%, 1,791G)
Basmal: 100G (0.7%, 6,662G)
