Final Bets: blue - 16 bets for 6,523G (53.0%, x0.89); champion - 13 bets for 5,794G (47.0%, x1.13)

blue bets:
z32o: 1,304G (20.0%, 1,304G)
maakur_: 1,000G (15.3%, 53,951G)
theregularirregular: 600G (9.2%, 3,640G)
rechaun: 578G (8.9%, 578G)
Anethum: 564G (8.6%, 564G)
ForestMagi: 500G (7.7%, 2,237G)
Zetchryn: 460G (7.1%, 460G)
robustgarfield: 334G (5.1%, 334G)
rubenflonne: 233G (3.6%, 3,609G)
roqqqpsi: 222G (3.4%, 1,675G)
RongRongArts: 200G (3.1%, 1,642G)
puls3evo: 142G (2.2%, 1,142G)
satystar: 136G (2.1%, 136G)
Rexamajinx: 100G (1.5%, 1,960G)
datadrivenbot: 100G (1.5%, 12,690G)
WinnerBit: 50G (0.8%, 2,596G)

champion bets:
PotionDweller: 1,500G (25.9%, 18,285G)
Lydian_C: 1,200G (20.7%, 33,836G)
leakimiko: 869G (15.0%, 17,387G)
JustSuperish: 443G (7.6%, 3,747G)
darnitkevin: 315G (5.4%, 315G)
PatSouI: 296G (5.1%, 296G)
MajikNinja44: 296G (5.1%, 296G)
thaetreis: 256G (4.4%, 256G)
Humble_Fabio: 246G (4.2%, 246G)
wodthehunter: 116G (2.0%, 116G)
BirbBrainsBot: 110G (1.9%, 203,832G)
bad1dea: 100G (1.7%, 192,865G)
mega_goopta: 47G (0.8%, 747G)
