Final Bets: green - 8 bets for 3,979G (37.8%, x1.65); yellow - 12 bets for 6,548G (62.2%, x0.61)

green bets:
VolgraTheMoose: 1,001G (25.2%, 34,864G)
BirbBrainsBot: 1,000G (25.1%, 142,315G)
ANFz: 626G (15.7%, 626G)
SephDarkheart: 600G (15.1%, 134,375G)
Thyrandaal: 500G (12.6%, 29,831G)
AllInBot: 100G (2.5%, 100G)
CosmicTactician: 100G (2.5%, 36,997G)
getthemoneyz: 52G (1.3%, 1,712,578G)

yellow bets:
Zbgs: 1,500G (22.9%, 14,449G)
sinnyil2: 1,452G (22.2%, 1,452G)
Forkmore: 596G (9.1%, 10,381G)
latebit: 565G (8.6%, 565G)
BoneMiser: 525G (8.0%, 525G)
dcmoragn315: 500G (7.6%, 1,995G)
Smashy: 500G (7.6%, 6,905G)
theBinklive: 399G (6.1%, 1,597G)
datadrivenbot: 200G (3.1%, 60,802G)
neocarbuncle: 110G (1.7%, 965G)
gorgewall: 101G (1.5%, 4,471G)
nifboy: 100G (1.5%, 2,963G)
