Final Bets: black - 10 bets for 8,720G (45.6%, x1.19); purple - 15 bets for 10,409G (54.4%, x0.84)

black bets:
Zbgs: 2,500G (28.7%, 15,360G)
Thyrandaal: 2,000G (22.9%, 33,623G)
BirbBrainsBot: 1,000G (11.5%, 144,064G)
resjudicata3: 1,000G (11.5%, 8,327G)
SephDarkheart: 600G (6.9%, 138,393G)
Forkmore: 596G (6.8%, 8,440G)
Smashy: 500G (5.7%, 7,257G)
MagicBottle: 324G (3.7%, 3,285G)
CosmicTactician: 100G (1.1%, 37,223G)
nifboy: 100G (1.1%, 2,985G)

purple bets:
Narcius: 3,600G (34.6%, 316,070G)
Meta_Five: 1,000G (9.6%, 27,964G)
J2DaBibbles: 1,000G (9.6%, 21,817G)
maximumcrit: 1,000G (9.6%, 6,976G)
dcmoragn315: 900G (8.6%, 1,299G)
blorpy_: 748G (7.2%, 9,355G)
latebit: 448G (4.3%, 448G)
theBinklive: 345G (3.3%, 1,380G)
AllInBot: 329G (3.2%, 329G)
getthemoneyz: 328G (3.2%, 1,713,345G)
neocarbuncle: 210G (2.0%, 741G)
datadrivenbot: 200G (1.9%, 60,647G)
gorgewall: 101G (1.0%, 4,431G)
fasc_: 100G (1.0%, 1,333G)
17RJ: 100G (1.0%, 604G)
