Final Bets: black - 10 bets for 4,846G (36.0%, x1.78); brown - 12 bets for 8,628G (64.0%, x0.56)

black bets:
VolgraTheMoose: 1,001G (20.7%, 26,886G)
bruubarg: 1,000G (20.6%, 26,045G)
ruleof5: 1,000G (20.6%, 21,153G)
Aldrammech: 700G (14.4%, 700G)
CorpusCav: 350G (7.2%, 5,234G)
AbandonedHall: 283G (5.8%, 283G)
datadrivenbot: 200G (4.1%, 59,882G)
krombobreaker: 112G (2.3%, 112G)
felthier: 100G (2.1%, 600G)
CosmicTactician: 100G (2.1%, 44,578G)

brown bets:
NovaKnight21: 2,261G (26.2%, 2,261G)
Thyrandaal: 2,000G (23.2%, 116,717G)
Dasutin23: 1,000G (11.6%, 40,173G)
BirbBrainsBot: 1,000G (11.6%, 86,586G)
E_Ballard: 788G (9.1%, 68,131G)
Lord_Gwarth: 416G (4.8%, 416G)
arumz: 400G (4.6%, 1,310G)
CapnChaos12: 300G (3.5%, 4,188G)
Leonidusx: 208G (2.4%, 208G)
AllInBot: 100G (1.2%, 100G)
HS39: 79G (0.9%, 156G)
getthemoneyz: 76G (0.9%, 1,760,700G)
