Final Bets: white - 7 bets for 2,715G (9.6%, x9.37); purple - 21 bets for 25,447G (90.4%, x0.11)

white bets:
BirbBrainsBot: 1,000G (36.8%, 171,829G)
superdevon1: 727G (26.8%, 2,911G)
YaBoy125: 420G (15.5%, 1,958G)
HuffFlex: 300G (11.0%, 2,413G)
alithesillybird: 100G (3.7%, 3,760G)
twelfthrootoftwo: 100G (3.7%, 2,217G)
getthemoneyz: 68G (2.5%, 936,051G)

purple bets:
Rislyeu: 6,000G (23.6%, 42,384G)
Mesmaster: 4,000G (15.7%, 123,316G)
kaelsun: 3,155G (12.4%, 3,155G)
reinoe: 2,000G (7.9%, 13,506G)
HaateXIII: 1,940G (7.6%, 1,940G)
WitchHunterIX: 1,500G (5.9%, 14,931G)
Lydian_C: 1,200G (4.7%, 5,112G)
AllInBot: 1,039G (4.1%, 1,039G)
CrownOfHorns: 1,038G (4.1%, 1,038G)
HaychDub: 649G (2.6%, 24,659G)
Dymntd: 500G (2.0%, 35,592G)
ACSpree: 500G (2.0%, 1,936G)
DustBirdEX: 345G (1.4%, 1,816G)
gorgewall: 301G (1.2%, 20,613G)
ColetteMSLP: 300G (1.2%, 1,920G)
DAC169: 200G (0.8%, 1,451G)
KasugaiRoastedPeas: 200G (0.8%, 1,728G)
JRHiga: 200G (0.8%, 1,386G)
Arcblazer23: 180G (0.7%, 180G)
datadrivenbot: 100G (0.4%, 37,625G)
foofermoofer: 100G (0.4%, 1,083G)
