Final Bets: red - 10 bets for 10,351G (43.6%, x1.29); blue - 15 bets for 13,366G (56.4%, x0.77)

red bets:
HaateXIII: 3,286G (31.7%, 6,445G)
Mudrockk: 3,156G (30.5%, 6,313G)
MrFlabyo: 2,000G (19.3%, 237,847G)
omegasuspekt: 668G (6.5%, 742G)
nghia2daizzo: 299G (2.9%, 299G)
triniculo: 296G (2.9%, 296G)
foxfaeez: 236G (2.3%, 236G)
WhiteTigress: 200G (1.9%, 4,001G)
neocarbuncle: 110G (1.1%, 642G)
Twisted_Nutsatchel: 100G (1.0%, 22,666G)

blue bets:
dogsandcatsand: 4,000G (29.9%, 21,453G)
DavenIII: 2,500G (18.7%, 126,764G)
shinji202: 2,000G (15.0%, 119,459G)
BirbBrainsBot: 1,000G (7.5%, 123,310G)
SkylerBunny: 922G (6.9%, 922G)
getthemoneyz: 622G (4.7%, 1,700,429G)
Panushenko: 438G (3.3%, 438G)
fattunaking: 420G (3.1%, 420G)
Willjin: 400G (3.0%, 2,849G)
reddwind_: 320G (2.4%, 7,802G)
CosmicTactician: 200G (1.5%, 33,892G)
datadrivenbot: 200G (1.5%, 62,193G)
AllInBot: 144G (1.1%, 144G)
ko2q: 100G (0.7%, 2,462G)
StrawbreeRed: 100G (0.7%, 104G)
