Final Bets: black - 15 bets for 14,057G (49.0%, x1.04); brown - 13 bets for 14,655G (51.0%, x0.96)

black bets:
Chuckolator: 7,588G (54.0%, 7,588G)
Dasutin23: 1,000G (7.1%, 38,420G)
Thyrandaal: 1,000G (7.1%, 21,024G)
dogsandcatsand: 1,000G (7.1%, 35,503G)
HaateXIII: 856G (6.1%, 856G)
Lydian_C: 650G (4.6%, 13,938G)
TasisSai: 500G (3.6%, 14,550G)
Omally_: 500G (3.6%, 1,300G)
krombobreaker: 200G (1.4%, 1,470G)
datadrivenbot: 200G (1.4%, 61,995G)
Legionx13: 150G (1.1%, 7,154G)
BartTradingCompany: 113G (0.8%, 1,136G)
timthehoodie: 100G (0.7%, 4,145G)
RobotOcelot: 100G (0.7%, 2,135G)
killth5: 100G (0.7%, 222G)

brown bets:
Willjin: 7,000G (47.8%, 103,416G)
WhiteTigress: 2,969G (20.3%, 2,969G)
latebit: 1,100G (7.5%, 58,194G)
BirbBrainsBot: 1,000G (6.8%, 160,869G)
bruubarg: 1,000G (6.8%, 17,000G)
CorpusCav: 500G (3.4%, 6,089G)
douchetron: 248G (1.7%, 248G)
getthemoneyz: 238G (1.6%, 1,784,210G)
SeniorBunk: 200G (1.4%, 25,505G)
Tougou: 100G (0.7%, 8,096G)
Leonidusx: 100G (0.7%, 3,069G)
GenZealot: 100G (0.7%, 3,868G)
arumz: 100G (0.7%, 1,298G)
