High Risers:
1. Sairentozon7: +2,334G
2. VolgraTheMoose: +1,917G
3. pplvee1: +951G
4. upvla: +899G
5. 2b_yorha_b: +612G
6. maakur_: +400G
7. nifboy: +396G
8. gongonono: +306G
9. Lord_Gwarth: +252G
10. Musashi45: -56G
11. SephDarkheart: -100G
12. actual_JP: -100G
13. ColetteMSLP: -144G
14. dinin991: -200G
15. SeniorBunk: -200G
16. dogsandcatsand: -200G
17. FuzzyTigers: -200G
18. DeathTaxesAndAnime: -296G
19. latebit: -300G
20. powergems: -300G
21. Gelwain: -300G
22. just_here2: -300G
23. Mesmaster: -300G
24. Evewho: -300G
25. skipsandwiches: -342G
26. Bryon_W: -400G
27. reddwind_: -400G
28. MemoriesofFinal: -433G
29. heropong: -433G
30. king_smashington: -500G
31. Zachara: -603G
32. Sharosa: -686G
33. khelor_: -861G
34. lwtest: -996G
35. RunicMagus: -1,020G
36. krombobreaker: -1,036G
37. E_Ballard: -2,588G
38. mindblownnnn: -2,800G
