Final Bets: red - 7 bets for 4,419G (63.2%, x0.58); green - 6 bets for 2,572G (36.8%, x1.72)

red bets:
BirbBrainsBot: 1,000G (22.6%, 92,509G)
Sairentozon7: 1,000G (22.6%, 80,606G)
VolgraTheMoose: 948G (21.5%, 15,426G)
maakur_: 687G (15.5%, 687G)
pplvee1: 468G (10.6%, 468G)
2b_yorha_b: 250G (5.7%, 13,186G)
getthemoneyz: 66G (1.5%, 2,170,622G)

green bets:
Zachara: 1,195G (46.5%, 116,195G)
AllInBot: 693G (26.9%, 693G)
Musashi45: 284G (11.0%, 284G)
datadrivenbot: 200G (7.8%, 84,004G)
Sharosa: 100G (3.9%, 640G)
Lord_Gwarth: 100G (3.9%, 16,920G)
