Final Bets: purple - 20 bets for 14,366G (78.6%, x0.27); brown - 13 bets for 3,908G (21.4%, x3.68)

purple bets:
Willjin: 3,000G (20.9%, 36,361G)
sireaulou: 2,000G (13.9%, 18,830G)
LuckyLuckLuc2: 1,111G (7.7%, 14,017G)
MemoriesofFinal: 938G (6.5%, 938G)
dem0nj0ns: 840G (5.8%, 6,398G)
dogsandcatsand: 764G (5.3%, 764G)
Mushufasa_: 700G (4.9%, 117,386G)
krombobreaker: 600G (4.2%, 11,786G)
Dasutin23: 564G (3.9%, 13,590G)
DuPlatypus: 555G (3.9%, 555G)
J_MacC1991: 509G (3.5%, 509G)
JermZzZzZz: 500G (3.5%, 3,431G)
resjudicata3: 492G (3.4%, 492G)
lotharek: 400G (2.8%, 8,941G)
seppu777: 333G (2.3%, 2,968G)
Lythe_Caraker: 304G (2.1%, 304G)
ayeCoop: 256G (1.8%, 256G)
Einswolf: 200G (1.4%, 3,490G)
datadrivenbot: 200G (1.4%, 78,780G)
nhammen: 100G (0.7%, 65,798G)

brown bets:
BirbBrainsBot: 1,000G (25.6%, 57,061G)
LivingHitokiri: 500G (12.8%, 119,093G)
CorpusCav: 400G (10.2%, 29,986G)
khelor_: 384G (9.8%, 384G)
getthemoneyz: 376G (9.6%, 2,099,520G)
2b_yorha_b: 212G (5.4%, 212G)
TheBrett: 212G (5.4%, 212G)
AllInBot: 200G (5.1%, 200G)
Shalloween: 200G (5.1%, 11,266G)
Lord_Gwarth: 200G (5.1%, 2,286G)
roofiepops: 123G (3.1%, 4,617G)
RunicMagus: 100G (2.6%, 34,901G)
MoonSugarFiend: 1G (0.0%, 5,500G)
