Final Bets: white - 18 bets for 10,811G (69.1%, x0.45); black - 15 bets for 4,839G (30.9%, x2.23)

white bets:
killth3kid: 1,000G (9.2%, 81,265G)
UmaiJam: 1,000G (9.2%, 57,650G)
ANFz: 1,000G (9.2%, 43,050G)
BirbBrainsBot: 1,000G (9.2%, 42,455G)
SkylerBunny: 1,000G (9.2%, 16,664G)
dantayystv: 911G (8.4%, 911G)
Valucca99: 700G (6.5%, 3,087G)
lijerrr: 665G (6.2%, 665G)
Aldrammech: 500G (4.6%, 4,716G)
Lanshaft: 476G (4.4%, 10,238G)
prince_rogers_nelson_: 474G (4.4%, 474G)
superdevon1: 424G (3.9%, 424G)
Digitalsocrates: 400G (3.7%, 2,614G)
SephDarkheart: 360G (3.3%, 360G)
Shalloween: 300G (2.8%, 58,392G)
gorgewall: 201G (1.9%, 8,021G)
upidstupid: 200G (1.8%, 6,936G)
maddrave09: 200G (1.8%, 20,406G)

black bets:
Evewho: 1,000G (20.7%, 5,380G)
pandasforsale: 777G (16.1%, 33,380G)
Rislyeu: 500G (10.3%, 8,165G)
run_with_stone_GUNs: 316G (6.5%, 10,293G)
rednecknazgul: 316G (6.5%, 316G)
ColetteMSLP: 300G (6.2%, 6,200G)
TasisSai: 248G (5.1%, 248G)
ThreeMileIsland: 236G (4.9%, 236G)
dem0nj0ns: 212G (4.4%, 212G)
nsm013: 200G (4.1%, 11,091G)
datadrivenbot: 200G (4.1%, 61,952G)
Aquios_: 200G (4.1%, 1,222G)
getthemoneyz: 130G (2.7%, 1,259,669G)
shineeyo: 104G (2.1%, 104G)
Kellios11: 100G (2.1%, 36,631G)
