Final Bets: black - 23 bets for 13,359G (52.7%, x0.90); brown - 13 bets for 11,967G (47.3%, x1.12)

black bets:
UmaiJam: 3,000G (22.5%, 57,532G)
SkylerBunny: 1,500G (11.2%, 15,458G)
Cryptopsy70: 1,018G (7.6%, 33,952G)
killth3kid: 1,000G (7.5%, 78,265G)
BirbBrainsBot: 1,000G (7.5%, 42,743G)
prince_rogers_nelson_: 973G (7.3%, 973G)
shineeyo: 889G (6.7%, 889G)
dantayystv: 588G (4.4%, 588G)
Lanshaft: 476G (3.6%, 9,762G)
Aldrammech: 428G (3.2%, 428G)
rednecknazgul: 316G (2.4%, 316G)
ThreeMileIsland: 300G (2.2%, 1,436G)
SephDarkheart: 280G (2.1%, 280G)
BoneMiser: 200G (1.5%, 14,443G)
upidstupid: 200G (1.5%, 6,336G)
nsm013: 200G (1.5%, 11,795G)
Valucca99: 200G (1.5%, 387G)
dem0nj0ns: 200G (1.5%, 684G)
datadrivenbot: 200G (1.5%, 62,656G)
DustBirdEX: 141G (1.1%, 4,009G)
ANFz: 100G (0.7%, 41,850G)
DeathTaxesAndAnime: 100G (0.7%, 16,520G)
raenrond: 50G (0.4%, 2,919G)

brown bets:
twelfthrootoftwo: 3,773G (31.5%, 7,399G)
FriendSquirrel: 2,853G (23.8%, 2,853G)
Evewho: 1,000G (8.4%, 8,500G)
artahc: 1,000G (8.4%, 3,338G)
dogsandcatsand: 977G (8.2%, 12,977G)
Rislyeu: 750G (6.3%, 9,469G)
TheMurkGnome: 568G (4.7%, 568G)
Forkmore: 296G (2.5%, 3,624G)
getthemoneyz: 244G (2.0%, 1,260,037G)
gorgewall: 201G (1.7%, 7,904G)
Aquios_: 200G (1.7%, 1,834G)
Kellios11: 100G (0.8%, 36,842G)
Nohurty: 5G (0.0%, 1,319G)
