Final Bets: black - 8 bets for 2,734G (53.6%, x0.86); brown - 6 bets for 2,364G (46.4%, x1.16)

black bets:
BirbBrainsBot: 1,000G (36.6%, 15,058G)
DuneMeta: 500G (18.3%, 4,422G)
letdowncity: 364G (13.3%, 13,029G)
ArashiKurobara: 260G (9.5%, 12,078G)
neocarbuncle: 210G (7.7%, 9,397G)
Rytor: 200G (7.3%, 10,959G)
Twisted_Nutsatchel: 100G (3.7%, 7,116G)
nifboy: 100G (3.7%, 14,910G)

brown bets:
Zeroroute: 600G (25.4%, 600G)
getthemoneyz: 508G (21.5%, 1,184,795G)
gggamezzz: 500G (21.2%, 3,955G)
Lanshaft: 456G (19.3%, 456G)
ar_tactic: 200G (8.5%, 64,879G)
willdabeast213: 100G (4.2%, 1,129G)
