Final Bets: black - 11 bets for 7,374G (26.9%, x2.72); champion - 10 bets for 20,058G (73.1%, x0.37)

black bets:
Rytor: 1,686G (22.9%, 11,685G)
fenaen: 1,200G (16.3%, 42,101G)
TheOwlSaysORLY: 1,000G (13.6%, 2,843G)
killth3kid: 998G (13.5%, 99,879G)
DuneMeta: 900G (12.2%, 4,952G)
BlackFireUK: 520G (7.1%, 520G)
neocarbuncle: 310G (4.2%, 9,682G)
ZCKaiser: 300G (4.1%, 2,288G)
ArashiKurobara: 260G (3.5%, 12,430G)
nhammen: 100G (1.4%, 11,880G)
FoeSquirrel: 100G (1.4%, 10,339G)

champion bets:
roqqqpsi: 16,261G (81.1%, 147,834G)
BirbBrainsBot: 1,000G (5.0%, 16,411G)
getthemoneyz: 734G (3.7%, 1,184,177G)
Lanshaft: 679G (3.4%, 679G)
Zeroroute: 600G (3.0%, 600G)
letdowncity: 364G (1.8%, 12,980G)
SephDarkheart: 120G (0.6%, 120G)
CosmicTactician: 100G (0.5%, 50,411G)
Jeras01: 100G (0.5%, 2,466G)
nifboy: 100G (0.5%, 14,996G)
