Final Bets: red - 18 bets for 11,869G (74.3%, x0.35); green - 10 bets for 4,102G (25.7%, x2.89)

red bets:
toka222: 2,760G (23.3%, 165,764G)
nhammen: 2,000G (16.9%, 83,570G)
BirbBrainsBot: 1,000G (8.4%, 54,849G)
powergems: 954G (8.0%, 954G)
killth3kid: 756G (6.4%, 22,466G)
Laserman1000: 655G (5.5%, 3,555G)
MagicBottle: 600G (5.1%, 600G)
SephDarkheart: 600G (5.1%, 101,051G)
Tarheels218: 577G (4.9%, 577G)
JCBoorgo: 459G (3.9%, 4,591G)
latebit: 380G (3.2%, 380G)
CapnChaos12: 300G (2.5%, 16,068G)
peanutvendor: 200G (1.7%, 200G)
datadrivenbot: 200G (1.7%, 65,128G)
Skjodo: 132G (1.1%, 132G)
MinBetBot: 100G (0.8%, 6,955G)
chorisaurius: 100G (0.8%, 1,487G)
getthemoneyz: 96G (0.8%, 1,670,236G)

green bets:
SkylerBunny: 1,623G (39.6%, 1,623G)
DustBirdEX: 616G (15.0%, 616G)
Strifu: 573G (14.0%, 573G)
Bryon_W: 500G (12.2%, 1,667G)
regios91: 200G (4.9%, 12,055G)
holdenmagronik: 150G (3.7%, 3,105G)
rNdOrchestra: 136G (3.3%, 2,717G)
CapitalistPigSA: 104G (2.5%, 104G)
AllInBot: 100G (2.4%, 100G)
Thyrandaal: 100G (2.4%, 483,231G)
