Final Bets: green - 6 bets for 8,851G (44.6%, x1.24); yellow - 18 bets for 10,993G (55.4%, x0.81)

green bets:
Lydian_C: 4,200G (47.5%, 173,898G)
Laserman1000: 1,281G (14.5%, 1,281G)
DuraiPapers: 1,000G (11.3%, 40,758G)
RunicMagus: 1,000G (11.3%, 43,417G)
dogsandcatsand: 1,000G (11.3%, 3,997G)
ZCKaiser: 370G (4.2%, 370G)

yellow bets:
ShintaroNayaka: 1,735G (15.8%, 17,355G)
Nizaha: 1,432G (13.0%, 1,432G)
BirbBrainsBot: 1,000G (9.1%, 105,983G)
holyonline: 861G (7.8%, 861G)
getthemoneyz: 820G (7.5%, 1,009,321G)
DLJuggernaut: 799G (7.3%, 1,598G)
fenaen: 700G (6.4%, 19,017G)
Cryptopsy70: 584G (5.3%, 29,473G)
Grandlanzer: 500G (4.5%, 11,504G)
Zalerah: 500G (4.5%, 5,346G)
gorgewall: 401G (3.6%, 6,946G)
joewcarson: 400G (3.6%, 2,681G)
DustBirdEX: 400G (3.6%, 400G)
CapnChaos12: 300G (2.7%, 3,063G)
benticore: 261G (2.4%, 5,226G)
maakur_: 100G (0.9%, 77,001G)
CosmicTactician: 100G (0.9%, 15,629G)
datadrivenbot: 100G (0.9%, 48,646G)
