Final Bets: yellow - 23 bets for 19,045G (81.9%, x0.22); white - 8 bets for 4,208G (18.1%, x4.53)

yellow bets:
JarlBrolaf: 3,573G (18.8%, 3,573G)
toka222: 2,000G (10.5%, 4,580G)
fenaen: 1,500G (7.9%, 65,414G)
aStatue: 1,398G (7.3%, 1,398G)
leakimiko: 1,105G (5.8%, 2,167G)
reinoe: 1,000G (5.3%, 19,284G)
Lionhermit: 1,000G (5.3%, 23,379G)
BirbBrainsBot: 1,000G (5.3%, 28,476G)
coralreeferz: 1,000G (5.3%, 21,189G)
rico_flex: 1,000G (5.3%, 23,903G)
volgrathemoose: 820G (4.3%, 820G)
Dexef: 777G (4.1%, 14,263G)
SerumD: 500G (2.6%, 2,196G)
MrFlabyo: 500G (2.6%, 80,195G)
ungabunga_bot: 312G (1.6%, 270,853G)
itzover9001: 308G (1.6%, 308G)
FoxtrotNovemberCharlie: 252G (1.3%, 252G)
mesmaster: 208G (1.1%, 208G)
Jeeboheebo: 200G (1.1%, 1,271G)
Squatting_Bear: 200G (1.1%, 1,843G)
Hthero715: 192G (1.0%, 192G)
Sykper: 100G (0.5%, 618G)
datadrivenbot: 100G (0.5%, 3,405G)

white bets:
commandlistfgc: 2,167G (51.5%, 2,167G)
MirtaiAtana: 671G (15.9%, 671G)
ColetteMSLP: 500G (11.9%, 25,947G)
Breakdown777: 500G (11.9%, 31,313G)
roqqqpsi: 164G (3.9%, 749G)
HeroponThrawn: 100G (2.4%, 5,421G)
getthemoneyz: 56G (1.3%, 584,747G)
DrAntiSocial: 50G (1.2%, 21,303G)
