Final Bets: white - 24 bets for 11,583G (56.5%, x0.77); black - 10 bets for 8,900G (43.5%, x1.30)

white bets:
sinnyil2: 1,582G (13.7%, 1,582G)
EnemyController: 1,000G (8.6%, 285,612G)
BirbBrainsBot: 1,000G (8.6%, 172,388G)
Mesmaster: 1,000G (8.6%, 73,084G)
Laserman1000: 704G (6.1%, 704G)
abss9788: 600G (5.2%, 600G)
getthemoneyz: 544G (4.7%, 677,671G)
evontno: 500G (4.3%, 12,174G)
TheTemperedChocobo: 500G (4.3%, 736G)
Reltz_: 500G (4.3%, 5,286G)
HaateXIII: 500G (4.3%, 2,479G)
eudes89: 500G (4.3%, 6,021G)
Lali_Lulelo: 368G (3.2%, 368G)
skillomono: 334G (2.9%, 334G)
JLinkletter: 300G (2.6%, 2,647G)
GladiatorLupe: 300G (2.6%, 6,440G)
MalakiGenesys: 250G (2.2%, 853G)
gorgewall: 201G (1.7%, 8,299G)
otakutaylor: 200G (1.7%, 2,717G)
x_NiGhtMaRE_x: 200G (1.7%, 4,716G)
VulcanPanderp: 182G (1.6%, 182G)
Powermhero: 118G (1.0%, 11,229G)
Dymntd: 100G (0.9%, 7,337G)
datadrivenbot: 100G (0.9%, 21,340G)

black bets:
pandasforsale: 6,666G (74.9%, 17,318G)
Shalloween: 636G (7.1%, 636G)
Estan_AD: 308G (3.5%, 308G)
CapnChaos12: 300G (3.4%, 4,420G)
Kyune: 250G (2.8%, 10,723G)
Digitalsocrates: 236G (2.7%, 236G)
TheJonTerp: 200G (2.2%, 9,003G)
Killing_Moon: 104G (1.2%, 104G)
moocaotao: 100G (1.1%, 2,146G)
jakeduhhsnake: 100G (1.1%, 2,436G)
