Final Bets: blue - 8 bets for 1,533G (14.0%, x6.15); green - 8 bets for 9,430G (86.0%, x0.16)

blue bets:
BirbBrainsBot: 433G (28.2%, 160,048G)
mrfripps: 200G (13.0%, 5,983G)
datadrivenbot: 200G (13.0%, 64,757G)
getthemoneyz: 200G (13.0%, 1,729,966G)
Evewho: 200G (13.0%, 4,277G)
AllInBot: 100G (6.5%, 100G)
ko2q: 100G (6.5%, 3,011G)
Aldrammech: 100G (6.5%, 3,175G)

green bets:
DavenIII: 5,000G (53.0%, 129,692G)
Thyrandaal: 2,000G (21.2%, 17,920G)
JunmaiRabbit: 1,100G (11.7%, 1,100G)
VolgraTheMoose: 501G (5.3%, 50,597G)
skipsandwiches: 364G (3.9%, 1,111G)
roqqqpsi: 249G (2.6%, 1,312G)
Lazarus_DS: 116G (1.2%, 116G)
mirapoix: 100G (1.1%, 6,388G)
