Final Bets: white - 18 bets for 11,772G (55.6%, x0.80); black - 10 bets for 9,411G (44.4%, x1.25)

white bets:
Aldrammech: 2,000G (17.0%, 22,314G)
nhammen: 2,000G (17.0%, 442,010G)
latebit: 1,500G (12.7%, 44,103G)
BirbBrainsBot: 1,000G (8.5%, 69,788G)
E_Ballard: 840G (7.1%, 111,788G)
getthemoneyz: 790G (6.7%, 1,814,906G)
Zagorsek: 616G (5.2%, 616G)
BaronHaynes: 500G (4.2%, 57,389G)
Snowfats: 446G (3.8%, 446G)
skillomono: 400G (3.4%, 3,257G)
MemoriesofFinal: 312G (2.7%, 312G)
krombobreaker: 264G (2.2%, 8,386G)
arumz: 200G (1.7%, 5,882G)
datadrivenbot: 200G (1.7%, 64,929G)
resjudicata3: 200G (1.7%, 11,124G)
CosmicTactician: 200G (1.7%, 48,510G)
Blackpapalink: 200G (1.7%, 200G)
bigbongsmoker: 104G (0.9%, 104G)

black bets:
KasugaiRoastedPeas: 4,035G (42.9%, 4,035G)
Greggernaut: 2,500G (26.6%, 4,642G)
Firesheath: 1,536G (16.3%, 1,536G)
Leonidusx: 369G (3.9%, 369G)
Wonser: 300G (3.2%, 2,028G)
jpTawok: 195G (2.1%, 3,904G)
Yangusburger: 156G (1.7%, 156G)
RobotOcelot: 120G (1.3%, 120G)
RunicMagus: 100G (1.1%, 3,198G)
Lemonjohns: 100G (1.1%, 4,638G)
