Final Bets: green - 13 bets for 13,842G (56.5%, x0.77); white - 20 bets for 10,650G (43.5%, x1.30)

green bets:
SkylerBunny: 2,300G (16.6%, 106,596G)
latebit: 2,000G (14.4%, 44,280G)
NicoSavoy: 2,000G (14.4%, 11,157G)
Mesmaster: 2,000G (14.4%, 109,571G)
Aldrammech: 1,000G (7.2%, 25,637G)
BirbBrainsBot: 1,000G (7.2%, 69,361G)
nhammen: 1,000G (7.2%, 446,537G)
E_Ballard: 840G (6.1%, 110,780G)
Firesheath: 508G (3.7%, 508G)
CorpusCav: 500G (3.6%, 4,334G)
MemoriesofFinal: 312G (2.3%, 312G)
getthemoneyz: 266G (1.9%, 1,817,345G)
Zerguzen: 116G (0.8%, 116G)

white bets:
BaronHaynes: 4,500G (42.3%, 53,345G)
arumz: 1,000G (9.4%, 6,884G)
roofiepops: 656G (6.2%, 656G)
windsah: 523G (4.9%, 523G)
Snowfats: 500G (4.7%, 8,362G)
Lemonjohns: 420G (3.9%, 5,742G)
macradarkstar: 350G (3.3%, 350G)
Wonser: 340G (3.2%, 340G)
CosmicTactician: 300G (2.8%, 48,657G)
krombobreaker: 264G (2.5%, 8,681G)
Leonidusx: 256G (2.4%, 256G)
PukingGoombas: 250G (2.3%, 1,253G)
Greggernaut: 228G (2.1%, 228G)
iBardic: 200G (1.9%, 48,583G)
datadrivenbot: 200G (1.9%, 64,800G)
Blackpapalink: 200G (1.9%, 200G)
Lydian_C: 123G (1.2%, 24,851G)
RobotOcelot: 120G (1.1%, 120G)
Yangusburger: 112G (1.1%, 112G)
bigbongsmoker: 108G (1.0%, 108G)
