Player: !Blue
Team: Blue Team
Palettes: Blue/Purple



Just Here2
Monster
Aquarius
43
70
Gobbledeguck










Silentkaster
Monster
Pisces
45
75
Gobbledeguck










Killth3kid
Monster
Aries
53
70
Goblin










Bryon W
Monster
Scorpio
80
66
Black Goblin







