Final Bets: white - 17 bets for 6,062G (46.4%, x1.16); brown - 14 bets for 7,014G (53.6%, x0.86)

white bets:
rechaun: 1,000G (16.5%, 12,333G)
BlackFireUK: 1,000G (16.5%, 15,882G)
DeadGirlzREasy: 737G (12.2%, 737G)
JumbocactuarX27: 586G (9.7%, 586G)
killth3kid: 500G (8.2%, 12,640G)
megaman2202: 500G (8.2%, 2,272G)
serperemagus: 404G (6.7%, 404G)
Azelgrim: 320G (5.3%, 320G)
DustBirdEX: 234G (3.9%, 1,373G)
InOzWeTrust: 168G (2.8%, 168G)
TheChainNerd: 150G (2.5%, 5,807G)
Alaquane: 112G (1.8%, 112G)
AllInBot: 100G (1.6%, 100G)
Grandlanzer: 100G (1.6%, 4,175G)
Firesheath: 100G (1.6%, 12,255G)
IphoneDarkness: 50G (0.8%, 1,916G)
cam_ATS: 1G (0.0%, 19,664G)

brown bets:
Lord_Burrah: 2,000G (28.5%, 85,000G)
Thyrandaal: 1,000G (14.3%, 42,185G)
BirbBrainsBot: 1,000G (14.3%, 45,183G)
HaateXIII: 776G (11.1%, 776G)
RaIshtar: 549G (7.8%, 549G)
RunicMagus: 400G (5.7%, 56,253G)
AltimaMantoid: 204G (2.9%, 204G)
KasugaiRoastedPeas: 200G (2.9%, 1,123G)
BoneMiser: 200G (2.9%, 2,902G)
wafflereaper212: 186G (2.7%, 186G)
PasDeSeul: 181G (2.6%, 181G)
KittymanAdvance: 112G (1.6%, 112G)
getthemoneyz: 106G (1.5%, 959,502G)
datadrivenbot: 100G (1.4%, 41,039G)
