Final Bets: purple - 13 bets for 5,359G (17.8%, x4.63); brown - 14 bets for 24,787G (82.2%, x0.22)

purple bets:
NovaKnight21: 1,000G (18.7%, 8,903G)
killth3kid: 768G (14.3%, 36,120G)
SephDarkheart: 600G (11.2%, 123,699G)
TasisSai: 548G (10.2%, 548G)
DouglasDragonThePoet: 535G (10.0%, 1,071G)
CapnChaos12: 420G (7.8%, 420G)
BoneMiser: 416G (7.8%, 416G)
maximumcrit: 368G (6.9%, 368G)
WhiteTigress: 300G (5.6%, 1,950G)
datadrivenbot: 200G (3.7%, 63,105G)
RuneS_77: 100G (1.9%, 17,815G)
FriendSquirrel: 100G (1.9%, 8,958G)
getthemoneyz: 4G (0.1%, 1,704,472G)

brown bets:
Thyrandaal: 6,880G (27.8%, 6,880G)
reinoe: 5,000G (20.2%, 101,094G)
douchetron: 3,000G (12.1%, 11,809G)
toka222: 2,400G (9.7%, 234,322G)
latebit: 1,530G (6.2%, 3,000G)
Nizaha: 1,500G (6.1%, 14,355G)
SkylerBunny: 1,300G (5.2%, 6,773G)
BirbBrainsBot: 1,000G (4.0%, 109,381G)
DustBirdEX: 872G (3.5%, 872G)
MagicBottle: 575G (2.3%, 575G)
JonnyCue: 480G (1.9%, 2,480G)
AllInBot: 100G (0.4%, 100G)
nifboy: 100G (0.4%, 3,265G)
captainmilestw: 50G (0.2%, 1,311G)
