Final Bets: purple - 13 bets for 6,754G (31.6%, x2.16); brown - 16 bets for 14,589G (68.4%, x0.46)

purple bets:
Chaide: 1,431G (21.2%, 1,431G)
CorpusCav: 1,200G (17.8%, 15,344G)
Laserman1000: 693G (10.3%, 3,493G)
SkylerBunny: 676G (10.0%, 676G)
superdevon1: 607G (9.0%, 607G)
lowlf: 508G (7.5%, 7,189G)
killth3kid: 500G (7.4%, 34,816G)
let_them_eat_the_rich: 283G (4.2%, 283G)
helpimabug: 256G (3.8%, 256G)
datadrivenbot: 200G (3.0%, 62,545G)
ArrenJevleth: 200G (3.0%, 8,900G)
BartTradingCompany: 100G (1.5%, 7,846G)
latebit: 100G (1.5%, 5,583G)

brown bets:
thunderducker: 2,800G (19.2%, 15,020G)
Thyrandaal: 2,000G (13.7%, 8,173G)
HASTERIOUS: 1,362G (9.3%, 1,362G)
Vleramus: 1,250G (8.6%, 46,166G)
Raixelol: 1,194G (8.2%, 1,194G)
sinnyil2: 1,100G (7.5%, 107,891G)
BirbBrainsBot: 1,000G (6.9%, 91,541G)
Sairentozon7: 1,000G (6.9%, 20,665G)
getthemoneyz: 990G (6.8%, 1,926,828G)
krombobreaker: 500G (3.4%, 9,676G)
Regular_Obbi: 494G (3.4%, 494G)
ValensEXP_: 284G (1.9%, 5,633G)
Zeusjuicy: 215G (1.5%, 215G)
J_52: 200G (1.4%, 666G)
AllInBot: 100G (0.7%, 100G)
heyBtw: 100G (0.7%, 2,128G)
