Final Bets: blue - 12 bets for 6,926G (33.1%, x2.02); white - 17 bets for 13,979G (66.9%, x0.50)

blue bets:
resjudicata3: 2,658G (38.4%, 2,658G)
CorpusCav: 1,200G (17.3%, 15,236G)
SkylerBunny: 676G (9.8%, 676G)
lowlf: 508G (7.3%, 8,933G)
killth3kid: 500G (7.2%, 36,341G)
BirbBrainsBot: 468G (6.8%, 92,706G)
ValensEXP_: 284G (4.1%, 5,427G)
datadrivenbot: 200G (2.9%, 62,577G)
getthemoneyz: 124G (1.8%, 1,925,149G)
Zeusjuicy: 108G (1.6%, 108G)
heyBtw: 100G (1.4%, 2,117G)
WildVol: 100G (1.4%, 100G)

white bets:
Mesmaster: 3,000G (21.5%, 270,464G)
Thyrandaal: 2,000G (14.3%, 9,821G)
thunderducker: 1,400G (10.0%, 14,793G)
Regular_Obbi: 1,067G (7.6%, 1,067G)
humbertogeovane: 1,000G (7.2%, 2,763G)
Chaide: 1,000G (7.2%, 2,967G)
superdevon1: 998G (7.1%, 998G)
Chuckolator: 886G (6.3%, 18,127G)
reinoe: 620G (4.4%, 620G)
Raixelol: 600G (4.3%, 600G)
lijarkh: 348G (2.5%, 348G)
seppu777: 333G (2.4%, 9,597G)
AllInBot: 227G (1.6%, 227G)
ArrenJevleth: 200G (1.4%, 9,310G)
BartTradingCompany: 100G (0.7%, 7,862G)
J_52: 100G (0.7%, 100G)
latebit: 100G (0.7%, 5,788G)
