Final Bets: brown - 24 bets for 13,909G (50.1%, x1.00); champion - 14 bets for 13,866G (49.9%, x1.00)

brown bets:
resjudicata3: 2,000G (14.4%, 8,048G)
Thyrandaal: 2,000G (14.4%, 16,535G)
powergems: 1,000G (7.2%, 11,381G)
getthemoneyz: 1,000G (7.2%, 1,782,522G)
RobotOcelot: 1,000G (7.2%, 7,082G)
Lord_Gwarth: 1,000G (7.2%, 3,852G)
roqqqpsi: 958G (6.9%, 3,835G)
Aldrammech: 700G (5.0%, 700G)
Tsuike: 500G (3.6%, 1,976G)
DracoknightZero: 500G (3.6%, 2,910G)
bruubarg: 500G (3.6%, 16,507G)
Leonidusx: 500G (3.6%, 7,128G)
thunderducker: 444G (3.2%, 8,144G)
Lumberinjack: 429G (3.1%, 429G)
douchetron: 291G (2.1%, 291G)
datadrivenbot: 200G (1.4%, 63,796G)
PuzzleSecretary: 194G (1.4%, 194G)
Zerguzen: 108G (0.8%, 108G)
gorgewall: 101G (0.7%, 3,093G)
ANFz: 100G (0.7%, 4,553G)
guiltygriever87: 100G (0.7%, 100G)
dinin991: 100G (0.7%, 4,063G)
ko2q: 100G (0.7%, 3,627G)
Laserman1000: 84G (0.6%, 1,800G)

champion bets:
poorest_hobo: 3,487G (25.1%, 227,164G)
dogsandcatsand: 3,000G (21.6%, 42,863G)
VolgraTheMoose: 2,001G (14.4%, 158,055G)
Zeroroute: 1,166G (8.4%, 3,762G)
Shalloween: 1,000G (7.2%, 35,926G)
BirbBrainsBot: 1,000G (7.2%, 154,763G)
E_Ballard: 816G (5.9%, 94,688G)
WhiteTigress: 500G (3.6%, 4,536G)
Tarheels218: 348G (2.5%, 1,381G)
krombobreaker: 200G (1.4%, 3,160G)
BartTradingCompany: 134G (1.0%, 1,344G)
Kellios11: 100G (0.7%, 7,136G)
PersonaTaken: 100G (0.7%, 100G)
Runeseeker22: 14G (0.1%, 550G)
