Final Bets: green - 9 bets for 12,786G (59.4%, x0.68); yellow - 17 bets for 8,735G (40.6%, x1.46)

green bets:
aStatue: 9,038G (70.7%, 9,038G)
rocl: 1,000G (7.8%, 35,511G)
Lydian_C: 960G (7.5%, 960G)
Jaritras: 508G (4.0%, 508G)
Goust18: 500G (3.9%, 10,576G)
LAGBOT30000: 320G (2.5%, 32,009G)
mayormcfunbags: 260G (2.0%, 260G)
datadrivenbot: 100G (0.8%, 10,353G)
pLifer: 100G (0.8%, 461G)

yellow bets:
FoxtrotNovemberCharlie: 1,676G (19.2%, 1,676G)
WireLord: 1,119G (12.8%, 1,119G)
ungabunga_bot: 1,000G (11.4%, 294,641G)
BirbBrainsBot: 1,000G (11.4%, 172,777G)
Mesmaster: 1,000G (11.4%, 52,308G)
NovaKnight21: 521G (6.0%, 521G)
getthemoneyz: 510G (5.8%, 616,143G)
deenglow: 500G (5.7%, 58,930G)
Odin007_88: 327G (3.7%, 327G)
Rislyeu: 228G (2.6%, 228G)
Cataphract116: 200G (2.3%, 17,504G)
twelfthrootoftwo: 200G (2.3%, 850G)
santoramon: 186G (2.1%, 186G)
L_M_D: 108G (1.2%, 108G)
Selppa: 100G (1.1%, 516G)
emperor_knight: 50G (0.6%, 558G)
alberto08bernard: 10G (0.1%, 210G)
