Final Bets: green - 19 bets for 8,496G (37.7%, x1.65); yellow - 13 bets for 14,042G (62.3%, x0.61)

green bets:
HaplessOne: 2,500G (29.4%, 71,326G)
reinoe: 1,050G (12.4%, 1,050G)
DeathTaxesAndAnime: 807G (9.5%, 807G)
CassiePhoenix: 753G (8.9%, 753G)
Draconis345: 736G (8.7%, 736G)
athros13: 677G (8.0%, 677G)
LDSkinny: 356G (4.2%, 356G)
Jeeboheebo: 350G (4.1%, 350G)
datadrivenbot: 175G (2.1%, 175G)
Zachara: 155G (1.8%, 40,155G)
wollise89: 120G (1.4%, 1,617G)
ungabunga_bot: 113G (1.3%, 143,703G)
DemonRHK: 104G (1.2%, 104G)
maakur_: 100G (1.2%, 2,749G)
SaintOmerville: 100G (1.2%, 2,387G)
JumbocactuarX27: 100G (1.2%, 3,807G)
DrAntiSocial: 100G (1.2%, 2,933G)
Jordache7K: 100G (1.2%, 23,743G)
Maeveen: 100G (1.2%, 2,336G)

yellow bets:
coralreeferz: 8,007G (57.0%, 8,007G)
Lanshaft: 1,291G (9.2%, 2,582G)
BirbBrainsBot: 1,000G (7.1%, 174,457G)
Nickyfive: 1,000G (7.1%, 7,209G)
leakimiko: 600G (4.3%, 600G)
getthemoneyz: 436G (3.1%, 502,835G)
YaBoy125: 420G (3.0%, 7,024G)
PatSouI: 420G (3.0%, 22,034G)
ShintaroNayaka: 300G (2.1%, 15,875G)
KasugaiRoastedPeas: 200G (1.4%, 6,889G)
MirtaiAtana: 160G (1.1%, 160G)
Ross_from_Cali: 108G (0.8%, 108G)
AllInBot: 100G (0.7%, 100G)
