Final Bets: black - 13 bets for 22,250G (74.5%, x0.34); brown - 17 bets for 7,621G (25.5%, x2.92)

black bets:
BoneMiser: 16,672G (74.9%, 16,672G)
asherban: 2,043G (9.2%, 2,043G)
Draconis345: 1,000G (4.5%, 68,825G)
d4rr1n: 731G (3.3%, 731G)
LeoNightFury: 500G (2.2%, 3,553G)
aurosaerondo: 400G (1.8%, 1,586G)
Breakdown777: 300G (1.3%, 6,630G)
richardserious: 244G (1.1%, 244G)
maakur_: 100G (0.4%, 2,663G)
mannequ1n: 100G (0.4%, 1,283G)
otakutaylor: 100G (0.4%, 2,149G)
zepharoth89: 50G (0.2%, 600G)
Seawalker777: 10G (0.0%, 997G)

brown bets:
BirbBrainsBot: 1,000G (13.1%, 114,882G)
Lordminsc: 1,000G (13.1%, 3,635G)
AllInBot: 790G (10.4%, 790G)
HaplessOne: 666G (8.7%, 234,061G)
getthemoneyz: 656G (8.6%, 697,801G)
DeathTaxesAndAnime: 588G (7.7%, 588G)
LordSDB: 400G (5.2%, 3,435G)
sukotsuto: 400G (5.2%, 13,813G)
krasny1944: 397G (5.2%, 2,147G)
ThePineappleSalesman: 324G (4.3%, 324G)
solomongrundy85: 300G (3.9%, 2,366G)
Digitalsocrates: 300G (3.9%, 7,129G)
cgMcWhiskers: 200G (2.6%, 2,261G)
GladiatorLupe: 200G (2.6%, 1,974G)
Kyune: 200G (2.6%, 19,839G)
datadrivenbot: 100G (1.3%, 22,483G)
letdowncity: 100G (1.3%, 3,667G)
