Final Bets: white - 26 bets for 26,806G (65.7%, x0.52); champion - 25 bets for 13,972G (34.3%, x1.92)

white bets:
aznwanderor: 8,461G (31.6%, 8,461G)
moonliquor: 2,657G (9.9%, 2,657G)
EnemyController: 2,000G (7.5%, 532,785G)
cam_ATS: 1,553G (5.8%, 1,553G)
TheChainNerd: 1,500G (5.6%, 25,050G)
Grandlanzer: 1,000G (3.7%, 13,741G)
Jeeboheebo: 1,000G (3.7%, 14,521G)
bluuuuuuuh: 1,000G (3.7%, 5,922G)
ivellioz: 908G (3.4%, 908G)
Sairentozon7: 819G (3.1%, 819G)
Laserman1000: 700G (2.6%, 31,400G)
KasugaiRoastedPeas: 684G (2.6%, 684G)
HaateXIII: 612G (2.3%, 612G)
Aldrammech: 600G (2.2%, 600G)
Jordache7K: 555G (2.1%, 4,600G)
letdowncity: 500G (1.9%, 23,211G)
volgrathemoose: 500G (1.9%, 7,943G)
DLJuggernaut: 500G (1.9%, 5,297G)
gr8keeper: 275G (1.0%, 275G)
Warbie13: 200G (0.7%, 900G)
maleblackfiora: 200G (0.7%, 637G)
HASTERIOUS: 178G (0.7%, 3,565G)
nhammen: 104G (0.4%, 104G)
Ring_Wyrm: 100G (0.4%, 863G)
Twisted_Nutsatchel: 100G (0.4%, 3,248G)
datadrivenbot: 100G (0.4%, 33,738G)

champion bets:
Thyrandaal: 2,000G (14.3%, 12,972G)
Virilikus: 2,000G (14.3%, 168,097G)
CorpusCav: 1,200G (8.6%, 16,190G)
metagameface: 1,000G (7.2%, 2,590G)
BirbBrainsBot: 1,000G (7.2%, 9,724G)
Theseawolf1: 1,000G (7.2%, 30,650G)
Bilabrin: 925G (6.6%, 925G)
vorap: 500G (3.6%, 118,262G)
Evewho: 500G (3.6%, 2,465G)
sSwing: 411G (2.9%, 4,731G)
twelfthrootoftwo: 400G (2.9%, 761G)
ValtonZenola: 400G (2.9%, 400G)
Digitalsocrates: 372G (2.7%, 372G)
Shinzutalos: 357G (2.6%, 1,728G)
OneHundredFists: 324G (2.3%, 324G)
CandyTamer: 260G (1.9%, 521G)
Angelomortis: 212G (1.5%, 212G)
Miku_Shikhu: 200G (1.4%, 3,268G)
gogofromtogo: 200G (1.4%, 4,008G)
s_o_b_e_q: 200G (1.4%, 7,000G)
getthemoneyz: 130G (0.9%, 808,103G)
Firesheath: 101G (0.7%, 3,390G)
FoeSquirrel: 100G (0.7%, 6,302G)
E_Ballard: 100G (0.7%, 3,014G)
Bioticism: 80G (0.6%, 2,370G)
