Final Bets: purple - 14 bets for 5,808G (34.6%, x1.89); brown - 12 bets for 10,980G (65.4%, x0.53)

purple bets:
Zagorsek: 1,179G (20.3%, 1,179G)
BaronHaynes: 1,003G (17.3%, 36,726G)
BirbBrainsBot: 831G (14.3%, 4,562G)
upvla: 444G (7.6%, 3,984G)
roofiepops: 428G (7.4%, 428G)
CT_5_Holy: 413G (7.1%, 4,133G)
getthemoneyz: 320G (5.5%, 1,956,180G)
killth3kid: 250G (4.3%, 10,913G)
grishhammer: 240G (4.1%, 1,780G)
mykelwolfscar: 200G (3.4%, 896G)
datadrivenbot: 200G (3.4%, 65,391G)
AllInBot: 100G (1.7%, 100G)
BartTradingCompany: 100G (1.7%, 10,949G)
nhammen: 100G (1.7%, 363,187G)

brown bets:
CorpusCav: 2,000G (18.2%, 38,777G)
Willjin: 1,500G (13.7%, 5,465G)
JonnyCue: 1,103G (10.0%, 1,103G)
skipsandwiches: 1,001G (9.1%, 18,698G)
SephDarkheart: 1,000G (9.1%, 26,125G)
Thyrandaal: 1,000G (9.1%, 79,589G)
HaateXIII: 976G (8.9%, 976G)
Nizaha: 844G (7.7%, 75,557G)
lowlf: 536G (4.9%, 12,752G)
krombobreaker: 500G (4.6%, 6,870G)
ValensEXP_: 320G (2.9%, 6,235G)
resjudicata3: 200G (1.8%, 2,909G)
