Final Bets: purple - 22 bets for 19,163G (53.0%, x0.89); brown - 21 bets for 16,988G (47.0%, x1.13)

purple bets:
nifboy: 6,322G (33.0%, 12,397G)
Lydian_C: 2,400G (12.5%, 4,852G)
killth3kid: 2,000G (10.4%, 54,199G)
NicoSavoy: 1,000G (5.2%, 7,430G)
ungabunga_bot: 1,000G (5.2%, 429,405G)
LASERJESUS1337: 1,000G (5.2%, 82,197G)
DeathTaxesAndAnime: 796G (4.2%, 796G)
SQUiDSQUARKLIN: 547G (2.9%, 547G)
joewcarson: 500G (2.6%, 2,535G)
LivingHitokiri: 500G (2.6%, 4,350G)
EvilLego6: 500G (2.6%, 5,742G)
roofiepops: 444G (2.3%, 5,958G)
maakur_: 404G (2.1%, 404G)
jicchi: 393G (2.1%, 393G)
DustBirdEX: 321G (1.7%, 4,703G)
KasugaiRoastedPeas: 304G (1.6%, 304G)
Miyokari: 250G (1.3%, 3,200G)
mannequ1n: 100G (0.5%, 3,175G)
brokenknight201: 100G (0.5%, 1,042G)
carsenhk: 100G (0.5%, 20,803G)
datadrivenbot: 100G (0.5%, 14,274G)
ZephyrTempest: 82G (0.4%, 1,648G)

brown bets:
Mesmaster: 3,000G (17.7%, 32,783G)
volgrathemoose: 2,001G (11.8%, 3,380G)
proper__noun__: 1,862G (11.0%, 3,724G)
TheGuesty: 1,541G (9.1%, 29,541G)
Evewho: 1,018G (6.0%, 1,018G)
MrFlabyo: 1,000G (5.9%, 68,815G)
BirbBrainsBot: 1,000G (5.9%, 127,571G)
Grimmace45: 890G (5.2%, 8,909G)
Lali_Lulelo: 580G (3.4%, 580G)
genericco: 501G (2.9%, 501G)
EnemyController: 500G (2.9%, 207,524G)
cam_ATS: 444G (2.6%, 1,400G)
thunderducker: 444G (2.6%, 11,777G)
ShintaroNayaka: 400G (2.4%, 18,552G)
MirtaiAtana: 304G (1.8%, 304G)
nedryerson01: 300G (1.8%, 8,917G)
dogsandcatsand: 300G (1.8%, 1,774G)
Lythe_Caraker: 250G (1.5%, 117,251G)
roqqqpsi: 245G (1.4%, 1,117G)
cupholderr: 208G (1.2%, 208G)
BoneMiser: 200G (1.2%, 15,376G)
