Final Bets: green - 24 bets for 30,551G (79.6%, x0.26); white - 20 bets for 7,809G (20.4%, x3.91)

green bets:
nifboy: 5,509G (18.0%, 10,802G)
Mesmaster: 5,000G (16.4%, 39,012G)
thunderducker: 2,300G (7.5%, 13,637G)
EnemyController: 2,000G (6.5%, 208,070G)
vorap: 2,000G (6.5%, 28,483G)
LASERJESUS1337: 2,000G (6.5%, 81,126G)
Grimmace45: 1,851G (6.1%, 9,258G)
Evewho: 1,461G (4.8%, 1,461G)
volgrathemoose: 1,001G (3.3%, 5,637G)
BirbBrainsBot: 1,000G (3.3%, 130,040G)
kai_shee: 1,000G (3.3%, 4,293G)
HaateXIII: 885G (2.9%, 1,737G)
dogsandcatsand: 821G (2.7%, 2,488G)
TheGuesty: 500G (1.6%, 31,200G)
proper__noun__: 500G (1.6%, 6,828G)
luminarii: 500G (1.6%, 14,155G)
roofiepops: 444G (1.5%, 4,959G)
maakur_: 404G (1.3%, 404G)
old_overholt_: 400G (1.3%, 5,363G)
DustBirdEX: 321G (1.1%, 3,609G)
Miyokari: 250G (0.8%, 2,600G)
jicchi: 204G (0.7%, 204G)
datadrivenbot: 100G (0.3%, 14,112G)
Firesheath: 100G (0.3%, 18,666G)

white bets:
ungabunga_bot: 1,000G (12.8%, 428,905G)
Zoomopie: 855G (10.9%, 3,422G)
Wonser: 843G (10.8%, 843G)
DeathTaxesAndAnime: 796G (10.2%, 796G)
TheFALLofLindsay: 750G (9.6%, 10,951G)
sinnyil2: 600G (7.7%, 18,402G)
NicoSavoy: 500G (6.4%, 5,230G)
ZephyrTempest: 456G (5.8%, 1,414G)
LivingHitokiri: 400G (5.1%, 3,547G)
ShintaroNayaka: 400G (5.1%, 19,389G)
MirtaiAtana: 308G (3.9%, 308G)
cupholderr: 208G (2.7%, 208G)
mirapoix: 150G (1.9%, 2,962G)
aznwanderor: 112G (1.4%, 112G)
CustomGameMaster: 104G (1.3%, 104G)
mannequ1n: 100G (1.3%, 3,013G)
alecttox: 100G (1.3%, 10,636G)
brokenknight201: 100G (1.3%, 642G)
roqqqpsi: 21G (0.3%, 1,066G)
getthemoneyz: 6G (0.1%, 648,797G)
