Final Bets: blue - 17 bets for 18,636G (69.2%, x0.44); white - 13 bets for 8,293G (30.8%, x2.25)

blue bets:
reinoe: 8,000G (42.9%, 46,062G)
Zeroroute: 1,702G (9.1%, 1,702G)
Thyrandaal: 1,389G (7.5%, 1,389G)
latebit: 1,249G (6.7%, 1,249G)
resjudicata3: 1,195G (6.4%, 1,195G)
nhammen: 1,000G (5.4%, 421,339G)
CorpusCav: 672G (3.6%, 672G)
dogsandcatsand: 600G (3.2%, 3,290G)
krombobreaker: 500G (2.7%, 3,015G)
Snowfats: 500G (2.7%, 13,690G)
Dasutin23: 488G (2.6%, 7,004G)
Cryptopsy70: 365G (2.0%, 399G)
SephDarkheart: 312G (1.7%, 312G)
DracoknightZero: 264G (1.4%, 811G)
datadrivenbot: 200G (1.1%, 60,236G)
AllInBot: 100G (0.5%, 100G)
DeathTaxesAndAnime: 100G (0.5%, 2,184G)

white bets:
Mesmaster: 3,000G (36.2%, 282,846G)
Lord_Burrah: 1,569G (18.9%, 91,569G)
BirbBrainsBot: 1,000G (12.1%, 66,724G)
roofiepops: 474G (5.7%, 7,621G)
snkey: 456G (5.5%, 14,483G)
TheDapperChangeling: 387G (4.7%, 387G)
biske13: 316G (3.8%, 316G)
dementedlogic: 300G (3.6%, 1,323G)
getthemoneyz: 212G (2.6%, 1,919,119G)
Yangusburger: 200G (2.4%, 6,023G)
let_them_eat_the_rich: 179G (2.2%, 179G)
BartTradingCompany: 100G (1.2%, 5,170G)
maakur_: 100G (1.2%, 5,640G)
