Final Bets: black - 22 bets for 23,986G (79.5%, x0.26); brown - 14 bets for 6,176G (20.5%, x3.88)

black bets:
YaBoy125: 5,342G (22.3%, 10,685G)
gooseyourself: 3,000G (12.5%, 17,611G)
mpghappiness: 2,006G (8.4%, 2,006G)
SQUiDSQUARKLIN: 1,606G (6.7%, 1,606G)
Sairentozon7: 1,298G (5.4%, 1,298G)
sinnyil2: 1,150G (4.8%, 1,150G)
DLJuggernaut: 1,103G (4.6%, 1,103G)
VolgraTheMoose: 1,001G (4.2%, 31,586G)
ShinyPockets: 1,000G (4.2%, 3,779G)
BirbBrainsBot: 1,000G (4.2%, 28,439G)
prince_rogers_nelson_: 847G (3.5%, 847G)
CosmicTactician: 750G (3.1%, 19,516G)
ShintaroNayaka: 749G (3.1%, 9,181G)
TheChainNerd: 723G (3.0%, 5,723G)
letdowncity: 500G (2.1%, 16,926G)
IphoneDarkness: 500G (2.1%, 4,025G)
nok____: 427G (1.8%, 12,427G)
joewcarson: 300G (1.3%, 44,934G)
benticore: 250G (1.0%, 1,808G)
DustBirdEX: 234G (1.0%, 1,778G)
JLinkletter: 100G (0.4%, 3,113G)
datadrivenbot: 100G (0.4%, 37,791G)

brown bets:
NicoSavoy: 2,509G (40.6%, 2,509G)
DeathTaxesAndAnime: 1,129G (18.3%, 2,215G)
toka222: 800G (13.0%, 25,677G)
coralreeferz: 250G (4.0%, 4,914G)
GladiatorLupe: 244G (4.0%, 244G)
AllInBot: 204G (3.3%, 204G)
Anasetsuken: 200G (3.2%, 2,323G)
Meta_Five: 200G (3.2%, 3,201G)
acid_flashback: 150G (2.4%, 1,922G)
Miku_Shikhu: 100G (1.6%, 12,175G)
JewJosh: 100G (1.6%, 100G)
serperemagus: 100G (1.6%, 1,732G)
Alanaire: 100G (1.6%, 3,959G)
getthemoneyz: 90G (1.5%, 870,533G)
