Final Bets: blue - 17 bets for 15,702G (74.7%, x0.34); yellow - 9 bets for 5,325G (25.3%, x2.95)

blue bets:
nhammen: 5,000G (31.8%, 47,721G)
dogsandcatsand: 2,000G (12.7%, 133,167G)
fenaen: 1,285G (8.2%, 2,571G)
LDSkinny: 1,000G (6.4%, 6,178G)
Draconis345: 1,000G (6.4%, 2,702G)
BirbBrainsBot: 1,000G (6.4%, 48,735G)
JonnyCue: 1,000G (6.4%, 5,000G)
Drusiform: 1,000G (6.4%, 1,904G)
killth3kid: 620G (3.9%, 5,740G)
Aldrammech: 588G (3.7%, 588G)
Lord_Gwarth: 337G (2.1%, 3,434G)
AllInBot: 200G (1.3%, 200G)
datadrivenbot: 200G (1.3%, 50,836G)
Darkages009: 200G (1.3%, 873G)
ArlanKels: 122G (0.8%, 6,147G)
DHaveWord: 100G (0.6%, 1,753G)
getthemoneyz: 50G (0.3%, 1,516,495G)

yellow bets:
reinoe: 2,000G (37.6%, 73,620G)
VolgraTheMoose: 1,275G (23.9%, 1,275G)
powergems: 1,201G (22.6%, 1,201G)
LDHaten: 368G (6.9%, 368G)
holdenmagronik: 150G (2.8%, 2,401G)
douchetron: 100G (1.9%, 21,703G)
CosmicTactician: 100G (1.9%, 5,705G)
TheseJeans: 70G (1.3%, 1,531G)
dtrain332: 61G (1.1%, 6,126G)
