Final Bets: white - 12 bets for 5,135G (37.7%, x1.65); brown - 15 bets for 8,489G (62.3%, x0.60)

white bets:
reddwind_: 1,000G (19.5%, 9,553G)
dogsandcatsand: 1,000G (19.5%, 133,845G)
Aldrammech: 787G (15.3%, 787G)
killth3kid: 620G (12.1%, 5,950G)
DHaveWord: 444G (8.6%, 1,787G)
JonnyCue: 339G (6.6%, 5,339G)
Lord_Gwarth: 300G (5.8%, 3,548G)
AllInBot: 268G (5.2%, 268G)
letdowncity: 200G (3.9%, 10,164G)
gorgewall: 101G (2.0%, 3,400G)
Drusiform: 50G (1.0%, 2,243G)
getthemoneyz: 26G (0.5%, 1,516,512G)

brown bets:
reinoe: 2,000G (23.6%, 71,620G)
LordTomS: 1,883G (22.2%, 1,883G)
DesertWooder: 1,000G (11.8%, 11,341G)
Nizaha: 672G (7.9%, 20,875G)
coralreeferz: 556G (6.5%, 7,010G)
BirbBrainsBot: 529G (6.2%, 49,074G)
TasisSai: 500G (5.9%, 11,453G)
SephDarkheart: 468G (5.5%, 12,239G)
datadrivenbot: 200G (2.4%, 50,904G)
holdenmagronik: 150G (1.8%, 2,251G)
ArlanKels: 123G (1.4%, 6,188G)
UnderOneLight: 108G (1.3%, 108G)
Firesheath: 100G (1.2%, 30,174G)
CosmicTactician: 100G (1.2%, 5,605G)
Brainstew29: 100G (1.2%, 37,245G)
