Final Bets: purple - 16 bets for 9,159G (40.2%, x1.49); brown - 20 bets for 13,617G (59.8%, x0.67)

purple bets:
Baron_von_Scrub: 1,854G (20.2%, 3,708G)
GeeGXP: 1,744G (19.0%, 1,744G)
Grimmace45: 1,047G (11.4%, 5,237G)
Aldrammech: 1,000G (10.9%, 12,792G)
BirbBrainsBot: 1,000G (10.9%, 177,150G)
NovaKnight21: 583G (6.4%, 1,166G)
volgrathemoose: 450G (4.9%, 3,450G)
ungabunga_bot: 277G (3.0%, 307,510G)
midori_ribbon: 260G (2.8%, 260G)
getthemoneyz: 208G (2.3%, 608,822G)
Squatting_Bear: 200G (2.2%, 1,092G)
dorman_777: 124G (1.4%, 124G)
RestIessNight: 112G (1.2%, 112G)
ANFz: 100G (1.1%, 27,417G)
Langrisser: 100G (1.1%, 7,012G)
Bioticism: 100G (1.1%, 5,952G)

brown bets:
Mesmaster: 3,000G (22.0%, 56,225G)
Pie108: 2,000G (14.7%, 164,554G)
TheChainNerd: 1,000G (7.3%, 3,618G)
Lionhermit: 1,000G (7.3%, 40,624G)
Laserman1000: 867G (6.4%, 91,267G)
tsdZero: 708G (5.2%, 708G)
DeathTaxesAndAnime: 672G (4.9%, 672G)
Odin007_88: 555G (4.1%, 2,055G)
catfashions: 500G (3.7%, 2,271G)
luminarii: 500G (3.7%, 16,278G)
ZephyrTempest: 456G (3.3%, 1,072G)
roofiepops: 444G (3.3%, 9,384G)
edgehead62888: 435G (3.2%, 435G)
WrathfulRemy: 300G (2.2%, 1,792G)
SarrgeQc: 300G (2.2%, 715G)
EnemyController: 300G (2.2%, 169,126G)
SaintOmerville: 260G (1.9%, 260G)
genericco: 120G (0.9%, 120G)
VarkilTV: 100G (0.7%, 100G)
datadrivenbot: 100G (0.7%, 12,776G)
