Final Bets: white - 16 bets for 12,538G (59.1%, x0.69); black - 12 bets for 8,663G (40.9%, x1.45)

white bets:
Lydian_C: 4,200G (33.5%, 121,343G)
evdoggity: 2,000G (16.0%, 87,812G)
TheMurkGnome: 1,244G (9.9%, 8,244G)
upvla: 1,219G (9.7%, 8,242G)
BirbBrainsBot: 644G (5.1%, 644G)
joewcarson: 500G (4.0%, 35,316G)
acid_flashback: 466G (3.7%, 466G)
hiros13gts: 458G (3.7%, 458G)
ThreeMileIsland: 380G (3.0%, 380G)
getthemoneyz: 342G (2.7%, 1,249,015G)
Forkmore: 284G (2.3%, 284G)
gorgewall: 201G (1.6%, 6,498G)
KasugaiRoastedPeas: 200G (1.6%, 18,192G)
datadrivenbot: 200G (1.6%, 64,232G)
ANFz: 100G (0.8%, 45,339G)
nhammen: 100G (0.8%, 1,271G)

black bets:
amiture: 2,185G (25.2%, 2,185G)
Evewho: 1,559G (18.0%, 1,559G)
Zetchryn: 1,139G (13.1%, 1,139G)
DeathTaxesAndAnime: 928G (10.7%, 928G)
Laserman1000: 888G (10.3%, 33,188G)
Zeroroute: 500G (5.8%, 500G)
DavenIII: 500G (5.8%, 824G)
letdowncity: 380G (4.4%, 380G)
randgridr: 248G (2.9%, 248G)
TasisSai: 120G (1.4%, 236G)
OverlordSS4: 116G (1.3%, 116G)
nifboy: 100G (1.2%, 9,402G)
