Final Bets: red - 13 bets for 8,779G (38.1%, x1.62); champion - 14 bets for 14,250G (61.9%, x0.62)

red bets:
DavenIII: 1,832G (20.9%, 3,665G)
maddrave09: 1,300G (14.8%, 14,300G)
Chuckolator: 1,117G (12.7%, 92,255G)
Zetchryn: 1,000G (11.4%, 3,151G)
AniZero: 1,000G (11.4%, 13,056G)
silentkaster: 700G (8.0%, 15,700G)
DustBirdEX: 600G (6.8%, 1,464G)
upvla: 344G (3.9%, 8,769G)
amiture: 280G (3.2%, 280G)
ThreeMileIsland: 250G (2.8%, 530G)
superdevon1: 206G (2.3%, 2,064G)
ANFz: 100G (1.1%, 46,095G)
getthemoneyz: 50G (0.6%, 1,249,191G)

champion bets:
Lydian_C: 5,600G (39.3%, 121,471G)
DeathTaxesAndAnime: 3,071G (21.6%, 6,023G)
randgridr: 1,230G (8.6%, 1,230G)
Firesheath: 1,020G (7.2%, 1,020G)
Laserman1000: 700G (4.9%, 31,900G)
Evewho: 500G (3.5%, 8,726G)
Zeroroute: 500G (3.5%, 500G)
RunicMagus: 404G (2.8%, 404G)
CosmicTactician: 300G (2.1%, 45,232G)
hiros13gts: 224G (1.6%, 224G)
gorgewall: 201G (1.4%, 6,345G)
datadrivenbot: 200G (1.4%, 64,141G)
BirbBrainsBot: 200G (1.4%, 200G)
nhammen: 100G (0.7%, 1,226G)
