Final Bets: green - 10 bets for 13,644G (84.0%, x0.19); yellow - 10 bets for 2,590G (16.0%, x5.27)

green bets:
SkylerBunny: 4,000G (29.3%, 503,109G)
OneHundredFists: 3,770G (27.6%, 7,393G)
reinoe: 2,621G (19.2%, 2,621G)
Mesmaster: 1,000G (7.3%, 87,341G)
Laserman1000: 626G (4.6%, 3,126G)
helpimabug: 500G (3.7%, 4,971G)
Phytik: 477G (3.5%, 477G)
LAGBOT30000: 300G (2.2%, 4,887G)
Lythe_Caraker: 250G (1.8%, 142,899G)
datadrivenbot: 100G (0.7%, 49,492G)

yellow bets:
nifboy: 532G (20.5%, 532G)
ColetteMSLP: 400G (15.4%, 5,369G)
KyleWonToLiveForever: 308G (11.9%, 308G)
getthemoneyz: 298G (11.5%, 1,051,936G)
byrdturbo: 269G (10.4%, 12,924G)
placidphoenix: 236G (9.1%, 236G)
BirbBrainsBot: 200G (7.7%, 200G)
Mermydon: 147G (5.7%, 147G)
superdevon1: 100G (3.9%, 2,454G)
LunaArgenteus: 100G (3.9%, 100G)
