Final Bets: brown - 13 bets for 11,213G (49.0%, x1.04); champion - 11 bets for 11,680G (51.0%, x0.96)

brown bets:
Zeroroute: 3,559G (31.7%, 3,559G)
VolgraTheMoose: 1,221G (10.9%, 19,873G)
twelfthrootoftwo: 1,194G (10.6%, 2,343G)
AllInBot: 1,004G (9.0%, 1,004G)
TheMurkGnome: 1,000G (8.9%, 6,512G)
BirbBrainsBot: 1,000G (8.9%, 62,159G)
UmaiJam: 1,000G (8.9%, 52,870G)
Thyrandaal: 600G (5.4%, 600G)
winteriscorning: 200G (1.8%, 1,055G)
getthemoneyz: 152G (1.4%, 1,319,014G)
DouglasDragonThePoet: 150G (1.3%, 1,361G)
Macrosoft_Inc: 100G (0.9%, 100G)
roqqqpsi: 33G (0.3%, 3,395G)

champion bets:
randgridr: 3,566G (30.5%, 3,566G)
Lydian_C: 3,400G (29.1%, 50,657G)
DeathTaxesAndAnime: 1,594G (13.6%, 1,594G)
ruleof5: 1,000G (8.6%, 24,795G)
Xoomwaffle: 500G (4.3%, 3,535G)
cwilliams013: 500G (4.3%, 2,641G)
run_with_stone_GUNs: 356G (3.0%, 8,068G)
Error72: 324G (2.8%, 324G)
skipsandwiches: 240G (2.1%, 240G)
nhammen: 100G (0.9%, 6,455G)
Kellios11: 100G (0.9%, 27,576G)
