Final Bets: red - 14 bets for 16,318G (70.8%, x0.41); blue - 12 bets for 6,715G (29.2%, x2.43)

red bets:
Narcius: 4,600G (28.2%, 311,967G)
latebit: 2,356G (14.4%, 4,620G)
SkylerBunny: 1,500G (9.2%, 3,395G)
Aldrammech: 1,427G (8.7%, 1,427G)
Mesmaster: 1,312G (8.0%, 1,312G)
peanutvendor: 1,000G (6.1%, 9,597G)
nhammen: 1,000G (6.1%, 108,681G)
Drusiform: 710G (4.4%, 710G)
dogsandcatsand: 668G (4.1%, 668G)
Kronikle: 556G (3.4%, 9,815G)
flacococo: 537G (3.3%, 537G)
BirbBrainsBot: 352G (2.2%, 64,694G)
datadrivenbot: 200G (1.2%, 64,328G)
CosmicTactician: 100G (0.6%, 33,017G)

blue bets:
AllInBot: 2,420G (36.0%, 2,420G)
VolgraTheMoose: 1,001G (14.9%, 13,376G)
E_Ballard: 688G (10.2%, 688G)
letdowncity: 540G (8.0%, 19,533G)
Saldarin: 500G (7.4%, 7,979G)
JCBooBot: 426G (6.3%, 2,506G)
rNdOrchestra: 244G (3.6%, 766G)
resjudicata3: 200G (3.0%, 3,858G)
JCBoorgo: 200G (3.0%, 1,454G)
DeathTaxesAndAnime: 200G (3.0%, 4,531G)
getthemoneyz: 196G (2.9%, 1,690,703G)
mirapoix: 100G (1.5%, 3,036G)
