Final Bets: purple - 18 bets for 14,189G (61.3%, x0.63); brown - 16 bets for 8,957G (38.7%, x1.58)

purple bets:
Mesmaster: 2,000G (14.1%, 99,756G)
YaBoy125: 1,742G (12.3%, 58,085G)
CosmicTactician: 1,500G (10.6%, 5,203G)
Nickyfive: 1,388G (9.8%, 1,388G)
DeathTaxesAndAnime: 1,385G (9.8%, 1,385G)
DuraiPapers: 926G (6.5%, 926G)
Laserman1000: 870G (6.1%, 4,270G)
TheChainNerd: 664G (4.7%, 664G)
cam_ATS: 555G (3.9%, 30,210G)
mayfu: 500G (3.5%, 50,805G)
killth3kid: 450G (3.2%, 541G)
CorpusCav: 440G (3.1%, 440G)
Magicandy: 400G (2.8%, 2,743G)
ParadiseNinja: 368G (2.6%, 3,681G)
gorgewall: 301G (2.1%, 16,321G)
CapnChaos12: 300G (2.1%, 12,825G)
twelfthrootoftwo: 300G (2.1%, 1,729G)
delcake: 100G (0.7%, 262G)

brown bets:
dogsandcatsand: 1,500G (16.7%, 6,323G)
KittymanAdvance: 1,176G (13.1%, 1,176G)
VolgraTheMoose: 1,001G (11.2%, 38,149G)
getthemoneyz: 1,000G (11.2%, 981,045G)
BirbBrainsBot: 1,000G (11.2%, 81,030G)
Evewho: 982G (11.0%, 982G)
skillomono: 688G (7.7%, 688G)
butterbelljedi: 400G (4.5%, 7,825G)
AllInBot: 210G (2.3%, 210G)
Kronikle: 200G (2.2%, 20,155G)
ASkyNightly: 200G (2.2%, 1,089G)
CaptainGarlock: 200G (2.2%, 12,553G)
nifboy: 100G (1.1%, 2,766G)
Alanaire: 100G (1.1%, 19,325G)
Koorndog: 100G (1.1%, 1,116G)
ThisGuyLovesMath: 100G (1.1%, 100G)
