Final Bets: green - 14 bets for 16,994G (50.6%, x0.98); yellow - 19 bets for 16,622G (49.4%, x1.02)

green bets:
Anethum: 9,691G (57.0%, 19,383G)
fenaen: 1,500G (8.8%, 73,202G)
ungabunga_bot: 1,000G (5.9%, 229,260G)
BirbBrainsBot: 1,000G (5.9%, 151,237G)
Shalloween: 800G (4.7%, 40,109G)
DLJuggernaut: 750G (4.4%, 14,435G)
getthemoneyz: 574G (3.4%, 568,457G)
SwaffleWaffles: 500G (2.9%, 68,177G)
KonzeraLive: 300G (1.8%, 13,267G)
EnemyController: 279G (1.6%, 99,279G)
ItsMyCoolName: 200G (1.2%, 1,729G)
museofdoom: 200G (1.2%, 4,271G)
duskps: 100G (0.6%, 12,923G)
GarbagePhoenix: 100G (0.6%, 160G)

yellow bets:
Webb_MD: 8,770G (52.8%, 8,770G)
Bryon_W: 1,903G (11.4%, 1,903G)
Estan_AD: 1,017G (6.1%, 1,017G)
Zeroroute: 600G (3.6%, 600G)
leakimiko: 516G (3.1%, 3,442G)
SQUiDSQUARKLIN: 500G (3.0%, 1,842G)
catfashions: 500G (3.0%, 3,223G)
HaateXIII: 500G (3.0%, 47,939G)
joewcarson: 403G (2.4%, 403G)
NovaKnight21: 364G (2.2%, 364G)
killth3kid: 316G (1.9%, 24,723G)
PetitFoulard: 232G (1.4%, 232G)
GenieMilenko: 200G (1.2%, 2,817G)
Crimefridge: 200G (1.2%, 918G)
ThePineappleSalesman: 200G (1.2%, 19,816G)
ZephyrTempest: 101G (0.6%, 185,941G)
Lali_Lulelo: 100G (0.6%, 16,155G)
datadrivenbot: 100G (0.6%, 2,521G)
Bojanges: 100G (0.6%, 3,633G)
