Final Bets: white - 10 bets for 5,882G (31.2%, x2.21); black - 17 bets for 12,997G (68.8%, x0.45)

white bets:
nifboy: 1,000G (17.0%, 18,369G)
killth3kid: 1,000G (17.0%, 115,600G)
Smokegiant: 1,000G (17.0%, 82,656G)
DudeMonkey77: 880G (15.0%, 880G)
FriendSquirrel: 524G (8.9%, 524G)
MagicBottle: 508G (8.6%, 20,703G)
getthemoneyz: 382G (6.5%, 1,220,293G)
ArashiKurobara: 288G (4.9%, 288G)
hiros13gts: 200G (3.4%, 1,906G)
soliares: 100G (1.7%, 1,488G)

black bets:
TheChainNerd: 3,059G (23.5%, 30,596G)
Nizaha: 2,581G (19.9%, 5,163G)
E_Ballard: 1,054G (8.1%, 1,054G)
BirbBrainsBot: 1,000G (7.7%, 125,952G)
JumbocactuarX27: 1,000G (7.7%, 15,768G)
winteriscorning: 709G (5.5%, 709G)
HaateXIII: 672G (5.2%, 672G)
Laserman1000: 538G (4.1%, 21,838G)
Snowfats: 500G (3.8%, 6,580G)
benticore: 438G (3.4%, 8,767G)
DustBirdEX: 345G (2.7%, 2,698G)
CapnChaos12: 300G (2.3%, 5,174G)
gorgewall: 201G (1.5%, 20,840G)
datadrivenbot: 200G (1.5%, 55,838G)
Grandlanzer: 200G (1.5%, 60,754G)
DeathTaxesAndAnime: 100G (0.8%, 2,897G)
CosmicTactician: 100G (0.8%, 44,848G)
