Final Bets: red - 16 bets for 6,892G (36.9%, x1.71); yellow - 24 bets for 11,781G (63.1%, x0.59)

red bets:
Lionhermit: 1,000G (14.5%, 43,133G)
BirbBrainsBot: 826G (12.0%, 168,898G)
HaplessOne: 666G (9.7%, 15,933G)
Ungaiii: 542G (7.9%, 542G)
volgrathemoose: 500G (7.3%, 3,500G)
toka222: 500G (7.3%, 14,671G)
genericco: 500G (7.3%, 5,309G)
Baron_von_Scrub: 474G (6.9%, 10,025G)
RoboticNomad: 400G (5.8%, 3,573G)
Sairentozon7: 396G (5.7%, 396G)
DustBirdEX: 345G (5.0%, 4,530G)
Breakdown777: 300G (4.4%, 9,295G)
ANFz: 123G (1.8%, 36,997G)
getthemoneyz: 120G (1.7%, 656,201G)
ar_tactic: 100G (1.5%, 36,934G)
mikesk1: 100G (1.5%, 7,025G)

yellow bets:
killth3kid: 2,000G (17.0%, 70,597G)
DaveStrider55: 1,888G (16.0%, 1,888G)
NicoSavoy: 1,000G (8.5%, 7,263G)
ungabunga_bot: 1,000G (8.5%, 444,135G)
powergems: 783G (6.6%, 783G)
TheGuesty: 500G (4.2%, 33,844G)
Setdevildog: 500G (4.2%, 2,667G)
maakur_: 428G (3.6%, 428G)
mpghappiness: 320G (2.7%, 320G)
CapnChaos12: 316G (2.7%, 316G)
Lali_Lulelo: 312G (2.6%, 312G)
twelfthrootoftwo: 300G (2.5%, 1,648G)
turquoise_mage: 300G (2.5%, 514G)
MrDiggs49: 292G (2.5%, 292G)
cam_ATS: 279G (2.4%, 279G)
Kyune: 250G (2.1%, 2,408G)
SamaelMerihem: 212G (1.8%, 212G)
gorgewall: 201G (1.7%, 5,788G)
TheJonTerp: 200G (1.7%, 1,018G)
grayeternity: 200G (1.7%, 1,034G)
theanonymouslurker: 200G (1.7%, 200G)
Dymntd: 100G (0.8%, 17,945G)
datadrivenbot: 100G (0.8%, 11,447G)
7Cerulean7: 100G (0.8%, 5,662G)
