Final Bets: red - 20 bets for 6,549G (34.9%, x1.86); blue - 19 bets for 12,196G (65.1%, x0.54)

red bets:
getthemoneyz: 1,000G (15.3%, 1,947,624G)
HaateXIII: 960G (14.7%, 960G)
CrazyLou64: 639G (9.8%, 639G)
Phi_Sig: 555G (8.5%, 31,379G)
killth3kid: 500G (7.6%, 24,948G)
roofiepops: 442G (6.7%, 442G)
Runeseeker22: 308G (4.7%, 11,277G)
DeathTaxesAndAnime: 300G (4.6%, 3,298G)
grishhammer: 293G (4.5%, 293G)
tripaplex: 227G (3.5%, 227G)
Musashi45: 200G (3.1%, 321G)
datadrivenbot: 200G (3.1%, 61,404G)
gingerfoo69: 200G (3.1%, 3,548G)
J_MacC1991: 124G (1.9%, 124G)
VolgraTheMoose: 101G (1.5%, 8,379G)
AllInBot: 100G (1.5%, 100G)
BartTradingCompany: 100G (1.5%, 8,305G)
nhammen: 100G (1.5%, 425,538G)
Neinhartx: 100G (1.5%, 239G)
RuneS_77: 100G (1.5%, 20,316G)

blue bets:
old_overholt_: 3,000G (24.6%, 26,661G)
ser_pyrro: 1,239G (10.2%, 2,478G)
HASTERIOUS: 1,074G (8.8%, 1,074G)
BirbBrainsBot: 1,000G (8.2%, 151,942G)
Nizaha: 828G (6.8%, 73,709G)
Zeroroute: 766G (6.3%, 766G)
run_with_stone_GUNs: 696G (5.7%, 24,552G)
resjudicata3: 689G (5.6%, 689G)
Laserman1000: 600G (4.9%, 2,800G)
Shalloween: 500G (4.1%, 6,495G)
LivingHitokiri: 500G (4.1%, 3,585G)
CorpusCav: 400G (3.3%, 21,333G)
ValensEXP_: 304G (2.5%, 2,710G)
J_52: 100G (0.8%, 6,224G)
MemoriesofFinal: 100G (0.8%, 12,678G)
maakur_: 100G (0.8%, 4,473G)
Yangusburger: 100G (0.8%, 6,438G)
Morsigil: 100G (0.8%, 664G)
Thyrandaal: 100G (0.8%, 70,405G)
