Final Bets: red - 41 bets for 23,615G (74.7%, x0.34); blue - 14 bets for 8,003G (25.3%, x2.95)

red bets:
NovaKnight21: 4,819G (20.4%, 9,638G)
Nickyfive: 1,769G (7.5%, 3,539G)
TheChainNerd: 1,571G (6.7%, 15,711G)
Panushenko: 1,043G (4.4%, 2,047G)
BirbBrainsBot: 1,000G (4.2%, 200,608G)
Rastanar: 1,000G (4.2%, 8,059G)
Lord_Burrah: 1,000G (4.2%, 76,251G)
DavenIII: 788G (3.3%, 788G)
evolvingdev: 734G (3.1%, 734G)
snkey: 666G (2.8%, 32,529G)
thaetreis: 648G (2.7%, 648G)
Aldrammech: 600G (2.5%, 600G)
ctharvey: 571G (2.4%, 571G)
Lanshaft: 544G (2.3%, 19,507G)
Draconis345: 500G (2.1%, 1,898G)
ELzukkor: 500G (2.1%, 10,450G)
Jeardra: 500G (2.1%, 935G)
roqqqpsi: 495G (2.1%, 495G)
MoonSlayerRS: 490G (2.1%, 490G)
genoguy: 453G (1.9%, 453G)
bad1dea: 400G (1.7%, 190,162G)
ThePineappleSalesman: 388G (1.6%, 388G)
tevoul: 303G (1.3%, 6,073G)
ZephyrTempest: 289G (1.2%, 11,168G)
Baron_von_Scrub: 288G (1.2%, 288G)
fenixcrest: 234G (1.0%, 4,691G)
Mrasin: 228G (1.0%, 228G)
fenaen: 200G (0.8%, 4,300G)
Oshimi12: 200G (0.8%, 2,471G)
TheSyffy: 200G (0.8%, 2,595G)
xbtpxsauce: 184G (0.8%, 184G)
ko2q: 155G (0.7%, 155G)
bernoullisb1tch: 150G (0.6%, 405G)
Zagorsek: 100G (0.4%, 278,853G)
Bongomon7: 100G (0.4%, 3,431G)
AlenaZarek: 100G (0.4%, 11,120G)
datadrivenbot: 100G (0.4%, 13,217G)
Jordache7K: 100G (0.4%, 14,784G)
omegasuspekt: 100G (0.4%, 810G)
maakur_: 100G (0.4%, 56,382G)
daveb_: 5G (0.0%, 1,670G)

blue bets:
megaman2202: 1,735G (21.7%, 34,701G)
mayfu: 1,200G (15.0%, 19,915G)
Lodrak: 1,001G (12.5%, 4,723G)
reinoe: 1,000G (12.5%, 8,417G)
ItotheCtotheE: 500G (6.2%, 32,370G)
z32o: 500G (6.2%, 7,644G)
Grasnikk: 500G (6.2%, 5,898G)
rnark: 420G (5.2%, 420G)
SomeCallMeGON: 329G (4.1%, 329G)
DHaveWord: 292G (3.6%, 292G)
coralreeferz: 250G (3.1%, 10,427G)
getthemoneyz: 126G (1.6%, 352,799G)
ungabunga_bot: 100G (1.2%, 492G)
silentperogy: 50G (0.6%, 5,599G)
