Final Bets: green - 23 bets for 14,277G (45.5%, x1.20); yellow - 21 bets for 17,083G (54.5%, x0.84)

green bets:
z32o: 1,857G (13.0%, 7,144G)
TheChainNerd: 1,624G (11.4%, 16,243G)
Panushenko: 1,224G (8.6%, 2,400G)
mayfu: 1,200G (8.4%, 18,715G)
Nickyfive: 1,034G (7.2%, 4,139G)
Lodrak: 1,001G (7.0%, 3,722G)
Aldrammech: 807G (5.7%, 807G)
coralreeferz: 750G (5.3%, 10,177G)
MoonSlayerRS: 656G (4.6%, 656G)
Lanshaft: 560G (3.9%, 19,691G)
ThePineappleSalesman: 519G (3.6%, 519G)
ItotheCtotheE: 500G (3.5%, 31,870G)
Draconis345: 500G (3.5%, 2,067G)
snkey: 500G (3.5%, 32,755G)
rnark: 420G (2.9%, 420G)
DHaveWord: 292G (2.0%, 292G)
xbtpxsauce: 246G (1.7%, 246G)
Theseawolf1: 200G (1.4%, 5,879G)
SomeCallMeGON: 132G (0.9%, 132G)
tevoul: 103G (0.7%, 5,176G)
Zagorsek: 100G (0.7%, 278,887G)
mega_goopta: 50G (0.4%, 815G)
daveb_: 2G (0.0%, 1,672G)

yellow bets:
NovaKnight21: 5,635G (33.0%, 11,271G)
pandasforsale: 4,891G (28.6%, 4,891G)
DavenIII: 1,055G (6.2%, 1,055G)
BirbBrainsBot: 1,000G (5.9%, 200,947G)
bad1dea: 1,000G (5.9%, 190,298G)
getthemoneyz: 926G (5.4%, 352,673G)
Dothan89: 332G (1.9%, 332G)
ELzukkor: 300G (1.8%, 10,619G)
ZephyrTempest: 226G (1.3%, 11,266G)
roqqqpsi: 222G (1.3%, 663G)
ko2q: 208G (1.2%, 208G)
Kellios11: 200G (1.2%, 7,199G)
bernoullisb1tch: 200G (1.2%, 456G)
fenixcrest: 188G (1.1%, 3,770G)
maakur_: 100G (0.6%, 56,416G)
Cataphract116: 100G (0.6%, 1,105G)
silentperogy: 100G (0.6%, 5,549G)
datadrivenbot: 100G (0.6%, 13,251G)
evolvingdev: 100G (0.6%, 983G)
Aneyus: 100G (0.6%, 11,952G)
Oshimi12: 100G (0.6%, 2,539G)
