Final Bets: purple - 25 bets for 29,375G (89.0%, x0.12); brown - 8 bets for 3,615G (11.0%, x8.13)

purple bets:
reinoe: 5,125G (17.4%, 5,125G)
Mesmaster: 5,000G (17.0%, 103,176G)
roofiepops: 3,257G (11.1%, 3,257G)
Nickyfive: 2,000G (6.8%, 31,046G)
E_Ballard: 1,585G (5.4%, 1,585G)
Rislyeu: 1,515G (5.2%, 3,030G)
RunicMagus: 1,250G (4.3%, 56,870G)
VolgraTheMoose: 1,142G (3.9%, 2,284G)
MagicBottle: 1,000G (3.4%, 5,030G)
BirbBrainsBot: 1,000G (3.4%, 42,568G)
BlackFireUK: 1,000G (3.4%, 31,462G)
Dasutin23: 1,000G (3.4%, 33,748G)
awokenshard: 820G (2.8%, 820G)
Laserman1000: 800G (2.7%, 4,800G)
KasugaiRoastedPeas: 528G (1.8%, 528G)
sososteve: 519G (1.8%, 519G)
LionelParks: 500G (1.7%, 5,485G)
AltimaMantoid: 329G (1.1%, 3,129G)
ColetteMSLP: 300G (1.0%, 3,698G)
gorgewall: 201G (0.7%, 26,354G)
rmelzer1986: 104G (0.4%, 104G)
nifboy: 100G (0.3%, 3,709G)
nsm013: 100G (0.3%, 2,563G)
Firesheath: 100G (0.3%, 8,833G)
datadrivenbot: 100G (0.3%, 47,947G)

brown bets:
evdoggity: 1,000G (27.7%, 93,508G)
DudeMonkey77: 680G (18.8%, 680G)
RageImmortaI: 679G (18.8%, 679G)
Shalloween: 400G (11.1%, 79,180G)
getthemoneyz: 268G (7.4%, 1,068,127G)
alterworlds: 248G (6.9%, 248G)
placidphoenix: 240G (6.6%, 240G)
victoriolue: 100G (2.8%, 3,038G)
