Final Bets: black - 16 bets for 5,791G (62.0%, x0.61); brown - 8 bets for 3,546G (38.0%, x1.63)

black bets:
alecttox: 1,000G (17.3%, 4,424G)
EnemyController: 1,000G (17.3%, 321,087G)
Candina: 999G (17.3%, 14,223G)
ColetteMSLP: 600G (10.4%, 61,956G)
Lanshaft: 404G (7.0%, 2,172G)
chaotic_prodigy: 335G (5.8%, 335G)
krasny1944: 212G (3.7%, 212G)
kaelsun: 203G (3.5%, 203G)
lifeguard_dan: 200G (3.5%, 1,128G)
Tetsuwan_Melty: 150G (2.6%, 1,171G)
aeonicvector: 148G (2.6%, 1,240G)
foofermoofer: 140G (2.4%, 140G)
nifboy: 100G (1.7%, 3,394G)
CosmicTactician: 100G (1.7%, 17,200G)
datadrivenbot: 100G (1.7%, 22,753G)
travis_butters: 100G (1.7%, 1,059G)

brown bets:
mpghappiness: 1,001G (28.2%, 28,734G)
BirbBrainsBot: 1,000G (28.2%, 122,266G)
Baron_von_Scrub: 474G (13.4%, 9,609G)
bruubarg: 400G (11.3%, 3,500G)
Saldarin: 365G (10.3%, 365G)
getthemoneyz: 106G (3.0%, 701,145G)
AllInBot: 100G (2.8%, 100G)
ravingsockmonkey: 100G (2.8%, 1,425G)
