Final Bets: red - 15 bets for 17,981G (81.4%, x0.23); green - 7 bets for 4,116G (18.6%, x4.37)

red bets:
upvla: 5,908G (32.9%, 5,908G)
ko2q: 3,189G (17.7%, 6,379G)
Chihuahua_Charity: 3,000G (16.7%, 7,738G)
khelor_: 1,459G (8.1%, 1,459G)
ayeayex3: 719G (4.0%, 719G)
krombobreaker: 700G (3.9%, 7,644G)
DHaveWord: 670G (3.7%, 1,340G)
AltimaMantoid: 500G (2.8%, 21,000G)
skipsandwiches: 452G (2.5%, 29,301G)
Error72: 408G (2.3%, 408G)
3ngag3: 376G (2.1%, 5,000G)
datadrivenbot: 200G (1.1%, 76,654G)
ZephXrotH: 200G (1.1%, 269G)
MemoriesofFinal: 100G (0.6%, 43,069G)
alexmozg: 100G (0.6%, 878G)

green bets:
gorgewall: 1,504G (36.5%, 1,504G)
otakutaylor: 1,000G (24.3%, 8,341G)
NovaKnight21: 864G (21.0%, 864G)
BirbBrainsBot: 396G (9.6%, 66,276G)
AllInBot: 200G (4.9%, 200G)
BeepBeepImaRobot: 112G (2.7%, 112G)
getthemoneyz: 40G (1.0%, 2,050,848G)
