Final Bets: black - 24 bets for 17,655G (56.6%, x0.77); purple - 14 bets for 13,541G (43.4%, x1.30)

black bets:
ensiron: 5,565G (31.5%, 5,565G)
omegasuspekt: 1,726G (9.8%, 3,453G)
SolarisFall: 1,621G (9.2%, 16,212G)
DeathTaxesAndAnime: 1,000G (5.7%, 9,376G)
YaBoy125: 1,000G (5.7%, 3,552G)
BirbBrainsBot: 1,000G (5.7%, 20,124G)
bad1dea: 1,000G (5.7%, 255,817G)
OneHundredFists: 1,000G (5.7%, 11,244G)
Shakarak: 832G (4.7%, 832G)
Axelrod: 741G (4.2%, 14,828G)
UmaiJam: 339G (1.9%, 3,397G)
getthemoneyz: 336G (1.9%, 400,785G)
ZephyrTempest: 266G (1.5%, 7,540G)
KasugaiRoastedPeas: 200G (1.1%, 31,721G)
DeliciousSub: 200G (1.1%, 14,353G)
IMMASHAARK: 120G (0.7%, 120G)
Nerf_Vergil: 108G (0.6%, 108G)
Maeveen: 100G (0.6%, 9,856G)
Basmal: 100G (0.6%, 18,530G)
ApplesauceBoss: 100G (0.6%, 1,413G)
RughSontos: 100G (0.6%, 3,201G)
chronoxtrigger: 100G (0.6%, 3,968G)
datadrivenbot: 100G (0.6%, 15,748G)
daveb_: 1G (0.0%, 2,149G)

purple bets:
z32o: 2,959G (21.9%, 29,590G)
sinnyil2: 2,631G (19.4%, 5,262G)
SkylerBunny: 2,100G (15.5%, 58,057G)
Nizaha: 1,001G (7.4%, 3,429G)
TheRobbieRobster: 1,000G (7.4%, 1,000G)
oodlesonoodles11: 1,000G (7.4%, 5,897G)
Herecomedeth: 750G (5.5%, 34,968G)
Lanshaft: 580G (4.3%, 9,555G)
kingchadking: 477G (3.5%, 477G)
Oshimi12: 410G (3.0%, 410G)
SpaZmodeus: 333G (2.5%, 4,203G)
SeedSC: 100G (0.7%, 161,444G)
lijarkh: 100G (0.7%, 5,221G)
Seeingeye24: 100G (0.7%, 2,339G)
