Player: !Green
Team: Green Team
Palettes: Green/White



DAC169
Female
Leo
60
50
Time Mage
Talk Skill
Parry
Beastmaster
Fly

Healing Staff

Black Hood
Robe of Lords
Rubber Shoes

Haste, Stop, Immobilize, Reflect, Demi, Demi 2
Threaten, Solution, Death Sentence, Negotiate, Refute



Nifboy
Monster
Aries
77
49
Archaic Demon










Ruleof5
Monster
Cancer
70
49
Steel Giant










Prince
Monster
Pisces
57
75
Byblos







