High Risers:
1. MemoriesofFinal: +9,998G
2. ruleof5: +7,479G
3. OneHundredFists: +6,755G
4. Deeps_one: +6,166G
5. Mesmaster: +6,068G
6. Mushufasa_: +5,193G
7. HorusTaurus: +4,438G
8. Skyridge0: +3,967G
9. WireLord: +2,019G
10. FatTunaKing: +1,596G
11. bdb_goldenleo: +1,100G
12. heropong: +1,000G
13. ayeayex3: +800G
14. Blaster_Bomb: +620G
15. Zachara: +500G
16. CorpusCav: +500G
17. Sharosa: +449G
18. CosmicTactician: +324G
19. Ruvelia_BibeI: +305G
20. ar_tactic: +300G
21. 3ngag3: +100G
22. bigbongsmoker: +100G
23. DustBirdEX: +4G
24. MoonSugarFiend: -100G
25. seppu777: -144G
26. Lolthsmeat: -155G
27. PopsLIVE: -164G
28. Tithonus: -200G
29. 2b_yorha_b: -250G
30. upvla: -251G
31. DeathTaxesAndAnime: -298G
32. CassiePhoenix: -300G
33. Aaron2Nerdy: -381G
34. gorgewall: -464G
35. IaibOaob: -519G
36. goth_Applebees_hostess: -580G
37. Carledo: -1,000G
38. ColetteMSLP: -1,000G
39. lijarkh: -1,000G
40. theQueenfuta: -2,776G
41. JayceXIV: -9,058G
42. almost__sane: -23,755G
