High Risers:
1. Virilikus: +9,092G
2. otakutaylor: +6,130G
3. Sairentozon7: +3,305G
4. EnemyController: +3,141G
5. Laserman1000: +2,713G
6. skipsandwiches: +1,666G
7. shaddoll: +1,517G
8. Spartan_Paladin: +1,259G
9. Reddash9: +1,104G
10. brokenknight201: +1,022G
11. kilrazin: +857G
12. old_overholt_: +642G
13. giantdeathlaser: +620G
14. RikiNom: +560G
15. ExplanationMarkWow: +375G
16. argentbast: +278G
17. Wonser: +195G
18. Arcblazer23: +189G
19. CorpusCav: +180G
20. SephDarkheart: +133G
21. lijarkh: +93G
22. wiznaibusthis: +92G
23. acid_flashback: +91G
24. ribbiks: +80G
25. Thyrandaal: +54G
26. UnholyCorsair: +39G
27. run_with_stone_GUNs: +4G
28. galkife: +4G
29. dogsandcatsand: -16G
30. latebit: -26G
31. ValensEXP_: -52G
32. Craymel_Mage: -66G
33. Shalloween: -87G
34. gorgewall: -94G
35. Kellios11: -100G
36. lotharek: -105G
37. Mesmaster: -151G
38. king_smashington: -190G
39. Phi_Sig: -200G
40. Nizaha: -284G
41. just_here2: -300G
42. CapnChaos12: -300G
43. ANFz: -300G
44. 2b_yorha_b: -300G
45. fenaen: -303G
46. FatTunaKing: -324G
47. TheBrett: -451G
48. rnark: -458G
49. lowlf: -568G
50. Forkmore: -648G
51. 3ngag3: -750G
52. Lord_Burrah: -897G
53. nhammen: -1,000G
54. khelor_: -1,000G
55. Lyner87: -1,000G
56. krombobreaker: -1,131G
57. Lord_Gwarth: -1,362G
58. Evewho: -1,400G
59. RunicMagus: -1,420G
60. Smashy: -1,619G
61. maakur_: -1,865G
62. VolgraTheMoose: -3,797G
63. OneHundredFists: -5,569G
64. resjudicata3: -6,825G
