Final Bets: purple - 11 bets for 4,472G (22.5%, x3.43); brown - 19 bets for 15,360G (77.5%, x0.29)

purple bets:
lotharek: 798G (17.8%, 798G)
FatTunaKing: 524G (11.7%, 524G)
otakutaylor: 500G (11.2%, 17,412G)
getthemoneyz: 446G (10.0%, 2,133,440G)
3ngag3: 424G (9.5%, 9,828G)
rnark: 420G (9.4%, 6,568G)
Wonser: 408G (9.1%, 4,869G)
shaddoll: 300G (6.7%, 3,464G)
argentbast: 252G (5.6%, 252G)
AllInBot: 200G (4.5%, 200G)
Evewho: 200G (4.5%, 7,544G)

brown bets:
old_overholt_: 3,000G (19.5%, 65,641G)
TheBrett: 1,858G (12.1%, 1,858G)
resjudicata3: 1,617G (10.5%, 1,617G)
Runeseeker22: 1,497G (9.7%, 1,497G)
Nizaha: 1,327G (8.6%, 10,210G)
ExplanationMarkWow: 1,000G (6.5%, 19,480G)
BirbBrainsBot: 1,000G (6.5%, 166,324G)
VolgraTheMoose: 916G (6.0%, 26,594G)
Mesmaster: 532G (3.5%, 532G)
krombobreaker: 500G (3.3%, 23,250G)
SephDarkheart: 456G (3.0%, 456G)
latebit: 400G (2.6%, 400G)
Craymel_Mage: 232G (1.5%, 232G)
acid_flashback: 225G (1.5%, 2,501G)
ribbiks: 200G (1.3%, 2,853G)
CorpusCav: 200G (1.3%, 28,566G)
datadrivenbot: 200G (1.3%, 81,017G)
UnholyCorsair: 100G (0.7%, 7,264G)
giantdeathlaser: 100G (0.7%, 7,878G)
