Final Bets: black - 15 bets for 12,071G (34.9%, x1.86); champion - 21 bets for 22,510G (65.1%, x0.54)

black bets:
otakutaylor: 3,000G (24.9%, 23,832G)
dogsandcatsand: 1,382G (11.4%, 2,711G)
Virilikus: 1,000G (8.3%, 167,854G)
rnark: 1,000G (8.3%, 6,148G)
E_Ballard: 836G (6.9%, 836G)
resjudicata3: 831G (6.9%, 831G)
Laserman1000: 726G (6.0%, 14,026G)
lowlf: 632G (5.2%, 16,876G)
Runeseeker22: 560G (4.6%, 560G)
ExplanationMarkWow: 500G (4.1%, 21,243G)
old_overholt_: 500G (4.1%, 66,783G)
Smashy: 404G (3.3%, 1,931G)
Spartan_Paladin: 400G (3.3%, 8,462G)
Evewho: 200G (1.7%, 6,944G)
Aaron2Nerdy: 100G (0.8%, 100G)

champion bets:
EnemyController: 10,000G (44.4%, 1,798,623G)
OneHundredFists: 3,853G (17.1%, 7,555G)
Nizaha: 1,241G (5.5%, 9,547G)
RikiNom: 1,045G (4.6%, 1,045G)
BirbBrainsBot: 1,000G (4.4%, 164,186G)
getthemoneyz: 888G (3.9%, 2,132,348G)
Mesmaster: 532G (2.4%, 532G)
CorpusCav: 500G (2.2%, 28,978G)
krombobreaker: 500G (2.2%, 23,351G)
latebit: 400G (1.8%, 400G)
Lord_Gwarth: 396G (1.8%, 396G)
Arcblazer23: 352G (1.6%, 352G)
AllInBot: 308G (1.4%, 308G)
TheBrett: 252G (1.1%, 1,241G)
Reddash9: 250G (1.1%, 1,231G)
Craymel_Mage: 232G (1.0%, 232G)
datadrivenbot: 200G (0.9%, 80,783G)
acid_flashback: 200G (0.9%, 1,967G)
giantdeathlaser: 160G (0.7%, 7,870G)
gorgewall: 101G (0.4%, 10,595G)
Thyrandaal: 100G (0.4%, 168,481G)
