Final Bets: red - 23 bets for 8,582G (46.8%, x1.13); green - 15 bets for 9,739G (53.2%, x0.88)

red bets:
BirbBrainsBot: 1,000G (11.7%, 180,889G)
puerfleur: 787G (9.2%, 787G)
getthemoneyz: 632G (7.4%, 728,912G)
shs_: 600G (7.0%, 11,129G)
Laserman1000: 503G (5.9%, 5,803G)
MrFlabyo: 500G (5.8%, 49,867G)
OmnibotGamma: 500G (5.8%, 23,366G)
Grandlanzer: 498G (5.8%, 498G)
solomongrundy85: 452G (5.3%, 452G)
ravingsockmonkey: 440G (5.1%, 440G)
moonliquor: 423G (4.9%, 423G)
gorgewall: 401G (4.7%, 9,950G)
KonzeraLive: 400G (4.7%, 12,540G)
serperemagus: 307G (3.6%, 307G)
Tekenu: 273G (3.2%, 273G)
AmewTheFox: 200G (2.3%, 10,845G)
Mokura3rd: 112G (1.3%, 112G)
Klednar21: 104G (1.2%, 104G)
E_Ballard: 100G (1.2%, 8,285G)
Seawalker777: 100G (1.2%, 842G)
datadrivenbot: 100G (1.2%, 21,944G)
Milkman153: 100G (1.2%, 2,069G)
Stealthtoucan: 50G (0.6%, 100G)

green bets:
fenaen: 2,824G (29.0%, 2,824G)
Shalloween: 1,757G (18.0%, 3,446G)
sinnyil2: 1,050G (10.8%, 2,101G)
LDSkinny: 1,000G (10.3%, 11,106G)
StealthModeLocke: 701G (7.2%, 701G)
Estan_AD: 529G (5.4%, 529G)
GeeGXP: 430G (4.4%, 430G)
HASTERIOUS: 345G (3.5%, 6,909G)
benticore: 304G (3.1%, 304G)
Rislyeu: 200G (2.1%, 829G)
AllInBot: 199G (2.0%, 199G)
maakur_: 100G (1.0%, 2,336G)
cloud92684: 100G (1.0%, 6,971G)
Evewho: 100G (1.0%, 2,934G)
foofermoofer: 100G (1.0%, 2,733G)
