Final Bets: green - 27 bets for 11,127G (46.8%, x1.14); yellow - 20 bets for 12,650G (53.2%, x0.88)

green bets:
BenYuPoker: 2,231G (20.1%, 2,231G)
DeathTaxesAndAnime: 1,252G (11.3%, 2,456G)
leakimiko: 1,068G (9.6%, 35,622G)
BirbBrainsBot: 1,000G (9.0%, 273,347G)
rubenflonne: 803G (7.2%, 803G)
TheChainNerd: 540G (4.9%, 540G)
Rogueain: 356G (3.2%, 356G)
Baron_von_Scrub: 353G (3.2%, 10,474G)
roofiepops: 350G (3.1%, 4,215G)
DustBirdEX: 300G (2.7%, 4,666G)
JumbocactuarX27: 292G (2.6%, 292G)
ungabunga_bot: 292G (2.6%, 66,027G)
Slowbrofist: 264G (2.4%, 264G)
ZephyrTempest: 264G (2.4%, 24,922G)
getthemoneyz: 258G (2.3%, 444,762G)
Shalloween: 250G (2.2%, 2,818G)
Tithonus: 200G (1.8%, 10,141G)
johngalang6: 200G (1.8%, 3,372G)
gikokiko: 112G (1.0%, 112G)
AllInBot: 100G (0.9%, 100G)
ApplesauceBoss: 100G (0.9%, 4,005G)
oogthecaveman: 100G (0.9%, 4,221G)
rNdOrchestra: 100G (0.9%, 856G)
datadrivenbot: 100G (0.9%, 24,409G)
EnemyController: 100G (0.9%, 31,303G)
Ausuri: 100G (0.9%, 1,507G)
DrAntiSocial: 42G (0.4%, 1,238G)

yellow bets:
DavenIII: 2,500G (19.8%, 24,943G)
Nizaha: 1,973G (15.6%, 3,947G)
Zeroroute: 1,305G (10.3%, 1,305G)
sinnyil2: 1,200G (9.5%, 109,760G)
SolarisFall: 1,109G (8.8%, 11,097G)
The_Fryman: 1,074G (8.5%, 1,074G)
Lanshaft: 600G (4.7%, 4,144G)
Pie108: 500G (4.0%, 5,797G)
kingchadking: 436G (3.4%, 436G)
Adam1949: 400G (3.2%, 3,135G)
CapnChaos12: 384G (3.0%, 384G)
yure1x: 268G (2.1%, 268G)
ugoplatamia: 200G (1.6%, 29,789G)
old_overholt_: 200G (1.6%, 7,069G)
Lodrak: 100G (0.8%, 6,701G)
friendsquirrel: 100G (0.8%, 5,071G)
Tougou: 100G (0.8%, 5,664G)
SeedSC: 100G (0.8%, 141,855G)
Reiniku: 100G (0.8%, 485G)
daveb_: 1G (0.0%, 1,426G)
