Final Bets: purple - 16 bets for 10,290G (34.5%, x1.90); brown - 18 bets for 19,574G (65.5%, x0.53)

purple bets:
ACSpree: 2,156G (21.0%, 4,312G)
evdoggity: 2,000G (19.4%, 88,898G)
Forkmore: 1,000G (9.7%, 11,294G)
brokenknight201: 935G (9.1%, 935G)
DustBirdEX: 738G (7.2%, 1,476G)
RunicMagus: 667G (6.5%, 667G)
EnemyController: 555G (5.4%, 1,402,688G)
TasisSai: 500G (4.9%, 13,935G)
Breakdown777: 500G (4.9%, 1,820G)
readdesert: 264G (2.6%, 264G)
Snowfats: 250G (2.4%, 3,478G)
getthemoneyz: 204G (2.0%, 1,271,037G)
Mysteriousdewd: 200G (1.9%, 7,129G)
Lydian_C: 121G (1.2%, 98,532G)
Miku_Shikhu: 100G (1.0%, 3,392G)
BlueAbs: 100G (1.0%, 100G)

brown bets:
reinoe: 5,000G (25.5%, 42,629G)
DeathTaxesAndAnime: 3,928G (20.1%, 7,703G)
flacococo: 2,644G (13.5%, 2,644G)
NIghtdew14: 1,477G (7.5%, 2,954G)
Evewho: 1,203G (6.1%, 1,203G)
RedRiderAyame: 1,000G (5.1%, 7,179G)
BirbBrainsBot: 1,000G (5.1%, 83,244G)
evontno: 548G (2.8%, 548G)
upvla: 500G (2.6%, 1,409G)
letdowncity: 404G (2.1%, 1,005G)
randgridr: 400G (2.0%, 5,311G)
dantayystv: 300G (1.5%, 3,531G)
ojur20: 300G (1.5%, 1,000G)
Treafa: 250G (1.3%, 1,901G)
twelfthrootoftwo: 200G (1.0%, 3,743G)
datadrivenbot: 200G (1.0%, 62,842G)
maddrave09: 120G (0.6%, 120G)
nhammen: 100G (0.5%, 5,679G)
