Final Bets: red - 11 bets for 4,322G (22.7%, x3.40); purple - 21 bets for 14,715G (77.3%, x0.29)

red bets:
kai_shee: 1,000G (23.1%, 26,293G)
inzo_bettingbot: 508G (11.8%, 10,166G)
DejaPoo21: 500G (11.6%, 25,428G)
DavenIII: 500G (11.6%, 3,100G)
JumbocactuarX27: 500G (11.6%, 6,675G)
TheChainNerd: 464G (10.7%, 464G)
getthemoneyz: 238G (5.5%, 385,615G)
ko2q: 232G (5.4%, 232G)
gum44: 180G (4.2%, 180G)
Treapvort: 100G (2.3%, 19,678G)
coaks388: 100G (2.3%, 5,509G)

purple bets:
LordSDB: 3,000G (20.4%, 10,723G)
Laserman1000: 1,900G (12.9%, 19,600G)
leakimiko: 1,288G (8.8%, 25,760G)
Lord_Burrah: 1,200G (8.2%, 87,241G)
ZestyArsenic: 1,154G (7.8%, 1,154G)
Lodrak: 1,001G (6.8%, 13,507G)
Grasnikk: 1,000G (6.8%, 13,741G)
Cataphract116: 700G (4.8%, 2,509G)
Draconis345: 500G (3.4%, 2,690G)
DustBirdEX: 500G (3.4%, 6,091G)
LDSkinny: 498G (3.4%, 498G)
volgrathemoose: 436G (3.0%, 436G)
Baron_von_Scrub: 414G (2.8%, 414G)
genoguy: 312G (2.1%, 312G)
Verxl: 200G (1.4%, 3,391G)
Lazerkick: 200G (1.4%, 17,679G)
Jordache7K: 111G (0.8%, 13,142G)
Maeveen: 100G (0.7%, 9,658G)
maakur_: 100G (0.7%, 7,645G)
ZephyrTempest: 100G (0.7%, 2,617G)
daveb_: 1G (0.0%, 2,138G)
