Final Bets: black - 17 bets for 24,126G (75.4%, x0.33); brown - 10 bets for 7,854G (24.6%, x3.07)

black bets:
ko2q: 7,395G (30.7%, 14,791G)
DeathTaxesAndAnime: 5,008G (20.8%, 9,821G)
reinoe: 3,000G (12.4%, 139,241G)
SkylerBunny: 2,500G (10.4%, 308,668G)
ColetteMSLP: 1,000G (4.1%, 30,941G)
Laserman1000: 971G (4.0%, 1,942G)
Miku_Shikhu: 646G (2.7%, 646G)
DustBirdEX: 564G (2.3%, 564G)
TasisSai: 500G (2.1%, 20,735G)
Drusiform: 500G (2.1%, 7,996G)
SephDarkheart: 496G (2.1%, 16,095G)
Lifevirus: 401G (1.7%, 802G)
CorpusCav: 400G (1.7%, 3,765G)
Lord_Gwarth: 288G (1.2%, 1,007G)
vorap: 204G (0.8%, 204G)
foxfaeez: 153G (0.6%, 1,530G)
MinBetBot: 100G (0.4%, 17,262G)

brown bets:
nhammen: 4,000G (50.9%, 207,143G)
BirbBrainsBot: 1,000G (12.7%, 93,632G)
dogsandcatsand: 876G (11.2%, 1,718G)
douchetron: 600G (7.6%, 600G)
Forkmore: 424G (5.4%, 1,231G)
AllInBot: 284G (3.6%, 284G)
DesertWooder: 256G (3.3%, 256G)
getthemoneyz: 164G (2.1%, 1,559,490G)
holdenmagronik: 150G (1.9%, 2,376G)
CosmicTactician: 100G (1.3%, 5,980G)
