Final Bets: purple - 6 bets for 2,799G (47.2%, x1.12); brown - 8 bets for 3,136G (52.8%, x0.89)

purple bets:
ruebyy: 949G (33.9%, 949G)
BirbBrainsBot: 920G (32.9%, 121,946G)
HaateXIII: 540G (19.3%, 540G)
redrhinofever: 200G (7.1%, 4,768G)
nok____: 140G (5.0%, 2,840G)
slickdang: 50G (1.8%, 348G)

brown bets:
getthemoneyz: 1,000G (31.9%, 993,268G)
serperemagus: 600G (19.1%, 600G)
solomongrundy85: 536G (17.1%, 536G)
Lythe_Caraker: 250G (8.0%, 111,639G)
HaychDub: 250G (8.0%, 36,797G)
reddwind_: 200G (6.4%, 549G)
Evewho: 200G (6.4%, 17,541G)
CorpusCav: 100G (3.2%, 1,836G)
