Final Bets: black - 19 bets for 14,358G (27.4%, x2.65); champion - 36 bets for 38,096G (72.6%, x0.38)

black bets:
KasugaiRoastedPeas: 6,343G (44.2%, 12,687G)
proper__noun__: 2,000G (13.9%, 6,330G)
Meta_Five: 1,000G (7.0%, 3,878G)
Grimmace45: 687G (4.8%, 3,436G)
DavenIII: 580G (4.0%, 580G)
Phytik: 542G (3.8%, 542G)
HaateXIII: 500G (3.5%, 39,785G)
DustBirdEX: 478G (3.3%, 957G)
DrAntiSocial: 420G (2.9%, 2,994G)
YaBoy125: 344G (2.4%, 344G)
Sitiran: 296G (2.1%, 2,961G)
b_bot: 250G (1.7%, 5,626G)
old_overholt_: 200G (1.4%, 3,128G)
richardserious: 200G (1.4%, 6,074G)
ZephyrTempest: 179G (1.2%, 1,197G)
byrdturbo: 111G (0.8%, 5,991G)
itsdigitalbro: 108G (0.8%, 108G)
Firesheath: 100G (0.7%, 9,784G)
Bioticism: 20G (0.1%, 3,111G)

champion bets:
TheRedMelody: 6,000G (15.7%, 26,000G)
Mtueni: 4,000G (10.5%, 254,939G)
Chrysaors: 3,067G (8.1%, 30,671G)
hales_bopp_it: 2,088G (5.5%, 2,088G)
Nizaha: 2,001G (5.3%, 14,242G)
JumbocactuarX27: 2,000G (5.2%, 17,005G)
aStatue: 1,697G (4.5%, 1,697G)
WoooBlaaa: 1,652G (4.3%, 1,652G)
lobsterlobster: 1,141G (3.0%, 1,141G)
DeathTaxesAndAnime: 1,029G (2.7%, 1,029G)
MagicBottle: 1,004G (2.6%, 5,024G)
ungabunga_bot: 1,000G (2.6%, 285,569G)
BirbBrainsBot: 1,000G (2.6%, 136,716G)
Lionhermit: 1,000G (2.6%, 44,777G)
Shalloween: 900G (2.4%, 25,630G)
sinnyil2: 868G (2.3%, 868G)
fenaen: 653G (1.7%, 653G)
hydroshade: 646G (1.7%, 646G)
Zeroroute: 604G (1.6%, 604G)
DLJuggernaut: 600G (1.6%, 10,598G)
HaychDub: 550G (1.4%, 10,742G)
ACSpree: 505G (1.3%, 505G)
Laserman1000: 500G (1.3%, 74,800G)
LeepingJJ: 500G (1.3%, 13,994G)
midori_ribbon: 497G (1.3%, 497G)
getthemoneyz: 470G (1.2%, 612,754G)
evontno: 460G (1.2%, 460G)
nifboy: 416G (1.1%, 948G)
Crono: 300G (0.8%, 1,310G)
PetitFoulard: 244G (0.6%, 244G)
ar_tactic: 200G (0.5%, 30,273G)
MMagnetMan: 104G (0.3%, 104G)
FriendSquirrel: 100G (0.3%, 23,637G)
ANFz: 100G (0.3%, 21,868G)
belife42: 100G (0.3%, 100G)
datadrivenbot: 100G (0.3%, 10,809G)
