Final Bets: white - 10 bets for 10,142G (62.7%, x0.59); black - 14 bets for 6,022G (37.3%, x1.68)

white bets:
DLJuggernaut: 5,133G (50.6%, 10,066G)
CorpusCav: 1,311G (12.9%, 42,136G)
BirbBrainsBot: 1,000G (9.9%, 69,370G)
DeathTaxesAndAnime: 908G (9.0%, 908G)
Blastinus: 703G (6.9%, 703G)
just_here2: 520G (5.1%, 16,631G)
2b_yorha_b: 250G (2.5%, 9,960G)
WireLord: 116G (1.1%, 1,376G)
gorgewall: 101G (1.0%, 4,519G)
DHaveWord: 100G (1.0%, 9,612G)

black bets:
latebit: 1,300G (21.6%, 19,027G)
RunicMagus: 1,020G (16.9%, 41,381G)
Thyrandaal: 744G (12.4%, 744G)
IaibOaob: 555G (9.2%, 21,525G)
krombobreaker: 500G (8.3%, 30,215G)
seppu777: 333G (5.5%, 3,366G)
xGlaive: 300G (5.0%, 3,000G)
Shalloween: 300G (5.0%, 9,815G)
Reddash9: 228G (3.8%, 228G)
AllInBot: 200G (3.3%, 200G)
datadrivenbot: 200G (3.3%, 80,141G)
MemoriesofFinal: 200G (3.3%, 6,475G)
ValensEXP_: 100G (1.7%, 6,610G)
getthemoneyz: 42G (0.7%, 2,161,979G)
