Final Bets: red - 30 bets for 16,819G (66.5%, x0.50); blue - 21 bets for 8,463G (33.5%, x1.99)

red bets:
sinnyil2: 3,439G (20.4%, 6,878G)
SolarisFall: 2,002G (11.9%, 20,028G)
toka222: 1,500G (8.9%, 439,909G)
BirbBrainsBot: 1,000G (5.9%, 43,067G)
Lord_Burrah: 1,000G (5.9%, 92,931G)
inzo_bettingbot: 1,000G (5.9%, 37,555G)
bad1dea: 1,000G (5.9%, 270,846G)
mpghappiness: 738G (4.4%, 738G)
baconbacon1207: 500G (3.0%, 20,345G)
fenaen: 496G (2.9%, 496G)
lijarkh: 400G (2.4%, 2,740G)
UmaiJam: 351G (2.1%, 3,513G)
TheGuesty: 350G (2.1%, 10,561G)
Psychomidget: 344G (2.0%, 344G)
silentperogy: 300G (1.8%, 7,971G)
TheRobbieRobster: 275G (1.6%, 275G)
ZephyrTempest: 242G (1.4%, 10,644G)
roqqqpsi: 222G (1.3%, 946G)
jhazor: 208G (1.2%, 208G)
powergems: 200G (1.2%, 6,509G)
Lordminsc: 200G (1.2%, 21,843G)
ELzukkor: 200G (1.2%, 2,626G)
SleepyBenzo: 148G (0.9%, 148G)
Generalunderdog: 104G (0.6%, 148G)
Tithonus: 100G (0.6%, 5,492G)
RunicMagus: 100G (0.6%, 19,392G)
BuffaloCrunch: 100G (0.6%, 15,608G)
ko2q: 100G (0.6%, 932G)
PiCurious: 100G (0.6%, 5,398G)
Avin_Chaos: 100G (0.6%, 7,509G)

blue bets:
DeathTaxesAndAnime: 1,006G (11.9%, 1,006G)
LASERJESUS1337: 1,000G (11.8%, 32,859G)
fenixcrest: 924G (10.9%, 9,245G)
Aldrammech: 855G (10.1%, 855G)
Laserman1000: 712G (8.4%, 712G)
Lanshaft: 600G (7.1%, 7,329G)
reinoe: 500G (5.9%, 12,228G)
omegasuspekt: 428G (5.1%, 428G)
Oreo_Pizza: 400G (4.7%, 9,615G)
Break3r: 387G (4.6%, 387G)
friendsquirrel: 352G (4.2%, 352G)
robespyah: 350G (4.1%, 350G)
maakur_: 324G (3.8%, 324G)
kanehrym: 200G (2.4%, 896G)
Tougou: 100G (1.2%, 4,170G)
BadBlanket: 100G (1.2%, 2,387G)
RughSontos: 100G (1.2%, 5,226G)
Lythe_Caraker: 100G (1.2%, 47,921G)
getthemoneyz: 14G (0.2%, 397,906G)
GrayGhostGaming: 10G (0.1%, 1,208G)
daveb_: 1G (0.0%, 1,505G)
