Final Bets: white - 27 bets for 24,317G (69.1%, x0.45); black - 17 bets for 10,877G (30.9%, x2.24)

white bets:
toka222: 7,500G (30.8%, 434,164G)
Aldrammech: 2,669G (11.0%, 2,669G)
Psychomidget: 2,284G (9.4%, 2,284G)
sinnyil2: 2,152G (8.8%, 4,304G)
friendsquirrel: 1,555G (6.4%, 1,555G)
DustBirdEX: 1,432G (5.9%, 1,432G)
DeathTaxesAndAnime: 1,026G (4.2%, 2,050G)
kai_shee: 1,000G (4.1%, 48,343G)
bad1dea: 500G (2.1%, 274,767G)
Laserman1000: 500G (2.1%, 500G)
BirbBrainsBot: 489G (2.0%, 46,988G)
TheGuesty: 487G (2.0%, 10,487G)
ShintaroNayaka: 400G (1.6%, 1,659G)
ZephyrTempest: 285G (1.2%, 11,419G)
Break3r: 272G (1.1%, 272G)
Rastanar: 240G (1.0%, 240G)
roqqqpsi: 222G (0.9%, 836G)
ELzukkor: 200G (0.8%, 3,411G)
KasugaiRoastedPeas: 200G (0.8%, 31,126G)
kanehrym: 200G (0.8%, 696G)
Generalunderdog: 104G (0.4%, 200G)
RughSontos: 100G (0.4%, 5,126G)
datadrivenbot: 100G (0.4%, 17,503G)
denamda: 100G (0.4%, 16,969G)
OneHundredFists: 100G (0.4%, 1,407G)
KaLam1ty: 100G (0.4%, 4,962G)
silentperogy: 100G (0.4%, 8,293G)

black bets:
gooseyourself: 3,000G (27.6%, 23,074G)
LASERJESUS1337: 3,000G (27.6%, 27,859G)
baconbacon1207: 1,000G (9.2%, 20,597G)
inzo_bettingbot: 1,000G (9.2%, 41,476G)
CCRUNNER149UWP: 555G (5.1%, 9,696G)
HaateXIII: 426G (3.9%, 3,974G)
fenaen: 348G (3.2%, 348G)
nerdynel17: 331G (3.0%, 831G)
Aeolus_000: 236G (2.2%, 236G)
urieltheflameofgod: 200G (1.8%, 1,746G)
getthemoneyz: 148G (1.4%, 397,542G)
TheRobbieRobster: 140G (1.3%, 140G)
Tougou: 100G (0.9%, 4,416G)
ko2q: 100G (0.9%, 982G)
Avin_Chaos: 100G (0.9%, 7,359G)
Lythe_Caraker: 100G (0.9%, 47,721G)
robespyah: 93G (0.9%, 937G)
