Final Bets: red - 9 bets for 6,221G (55.5%, x0.80); blue - 12 bets for 4,990G (44.5%, x1.25)

red bets:
AllInBot: 1,515G (24.4%, 1,515G)
Firesheath: 1,374G (22.1%, 1,374G)
Valdimar_5467: 1,212G (19.5%, 1,212G)
Nizaha: 652G (10.5%, 11,361G)
gorgewall: 548G (8.8%, 548G)
TimeJannies: 397G (6.4%, 397G)
DAC169: 200G (3.2%, 671G)
datadrivenbot: 200G (3.2%, 47,539G)
Lydian_C: 123G (2.0%, 6,501G)

blue bets:
BirbBrainsBot: 1,000G (20.0%, 175,039G)
reinoe: 1,000G (20.0%, 68,920G)
DeathTaxesAndAnime: 918G (18.4%, 918G)
getthemoneyz: 818G (16.4%, 1,492,618G)
ShanksMcShiv: 336G (6.7%, 336G)
nemuineru: 200G (4.0%, 1,386G)
AugnosMusic: 200G (4.0%, 1,528G)
reddwind_: 200G (4.0%, 9,282G)
Phillippus: 108G (2.2%, 108G)
rednecknazgul: 100G (2.0%, 2,201G)
porkbacon: 100G (2.0%, 4,362G)
moonliquor: 10G (0.2%, 46,741G)
