Final Bets: black - 8 bets for 5,017G (42.9%, x1.33); brown - 12 bets for 6,678G (57.1%, x0.75)

black bets:
randgridr: 1,669G (33.3%, 6,678G)
LordTomS: 1,000G (19.9%, 7,553G)
BirbBrainsBot: 1,000G (19.9%, 174,623G)
gorgewall: 921G (18.4%, 921G)
datadrivenbot: 200G (4.0%, 47,150G)
Lydian_C: 123G (2.5%, 9,205G)
DeathTaxesAndAnime: 100G (2.0%, 9,025G)
getthemoneyz: 4G (0.1%, 1,492,880G)

brown bets:
AllInBot: 1,463G (21.9%, 1,463G)
douchetron: 1,227G (18.4%, 2,407G)
nifboy: 1,000G (15.0%, 5,589G)
Nizaha: 656G (9.8%, 11,756G)
Firesheath: 620G (9.3%, 620G)
sinnyil2: 555G (8.3%, 4,301G)
iBardic: 421G (6.3%, 421G)
Wooplestein: 236G (3.5%, 236G)
nemuineru: 200G (3.0%, 1,800G)
cloud_d1: 100G (1.5%, 1,271G)
porkbacon: 100G (1.5%, 5,199G)
Azzy_Omega: 100G (1.5%, 661G)
