Final Bets: blue - 31 bets for 22,158G (39.5%, x1.53); green - 14 bets for 33,887G (60.5%, x0.65)

blue bets:
SkylerBunny: 3,000G (13.5%, 82,766G)
Arcblazer23: 2,464G (11.1%, 2,464G)
Nickyfive: 1,775G (8.0%, 3,550G)
TheChainNerd: 1,500G (6.8%, 47,000G)
TheMM42: 1,200G (5.4%, 17,831G)
CorpusCav: 1,007G (4.5%, 5,924G)
DeathTaxesAndAnime: 1,000G (4.5%, 11,601G)
BirbBrainsBot: 1,000G (4.5%, 32,011G)
phrossi_v: 1,000G (4.5%, 81,019G)
Shalloween: 780G (3.5%, 1,561G)
Spartan_Paladin: 760G (3.4%, 61,769G)
Laserman1000: 542G (2.4%, 23,842G)
bruubarg: 512G (2.3%, 2,512G)
Jinxzers: 500G (2.3%, 5,211G)
killth3kid: 500G (2.3%, 25,939G)
Dymntd: 500G (2.3%, 30,565G)
Evewho: 500G (2.3%, 17,133G)
Baron_von_Scrub: 474G (2.1%, 15,437G)
fenaen: 465G (2.1%, 2,329G)
getthemoneyz: 426G (1.9%, 748,903G)
cloud92684: 300G (1.4%, 12,525G)
kaidykat: 300G (1.4%, 11,085G)
Breakdown777: 300G (1.4%, 3,525G)
evdoggity: 300G (1.4%, 6,211G)
Ungaiii: 252G (1.1%, 252G)
gorgewall: 201G (0.9%, 21,777G)
Xcessive30: 200G (0.9%, 4,393G)
maakur_: 100G (0.5%, 8,273G)
Grandlanzer: 100G (0.5%, 8,086G)
datadrivenbot: 100G (0.5%, 26,343G)
littlebilly3: 100G (0.5%, 482G)

green bets:
AllInBot: 17,269G (51.0%, 17,269G)
NicoSavoy: 4,000G (11.8%, 13,294G)
RaIshtar: 3,000G (8.9%, 4,086G)
eudes89: 2,174G (6.4%, 2,174G)
Mesmaster: 2,000G (5.9%, 104,810G)
bokurakira: 1,204G (3.6%, 1,204G)
serperemagus: 878G (2.6%, 878G)
StealthModeLocke: 864G (2.5%, 864G)
HaychDub: 750G (2.2%, 7,518G)
lowlf: 584G (1.7%, 584G)
LeoNightFury: 500G (1.5%, 2,183G)
poulol: 300G (0.9%, 5,103G)
PotionDweller: 256G (0.8%, 256G)
gr8keeper: 108G (0.3%, 993G)
