Final Bets: white - 14 bets for 15,066G (61.0%, x0.64); black - 19 bets for 9,641G (39.0%, x1.56)

white bets:
Treapvort: 10,463G (69.4%, 20,926G)
InOzWeTrust: 878G (5.8%, 878G)
Zetchryn: 750G (5.0%, 17,334G)
WireLord: 535G (3.6%, 535G)
helpimabug: 500G (3.3%, 1,631G)
SpaZmodeus: 462G (3.1%, 462G)
Lali_Lulelo: 384G (2.5%, 384G)
Meowyster_: 235G (1.6%, 235G)
Orerries: 212G (1.4%, 212G)
syraxan: 200G (1.3%, 1,840G)
BadBlanket: 200G (1.3%, 2,346G)
Tithonus: 100G (0.7%, 6,673G)
Basmal: 100G (0.7%, 37,009G)
HEROScioN: 47G (0.3%, 475G)

black bets:
LanseDM: 2,204G (22.9%, 2,204G)
BirbBrainsBot: 1,000G (10.4%, 81,924G)
bad1dea: 1,000G (10.4%, 304,415G)
inzo_bettingbot: 1,000G (10.4%, 66,603G)
Humble_Fabio: 777G (8.1%, 2,756G)
SleepyBenzo: 500G (5.2%, 2,689G)
getthemoneyz: 442G (4.6%, 403,100G)
guering: 400G (4.1%, 1,771G)
Lydian_C: 320G (3.3%, 2,845G)
ShintaroNayaka: 300G (3.1%, 2,647G)
ko2q: 276G (2.9%, 276G)
TheRobbieRobster: 274G (2.8%, 274G)
SystemShut: 216G (2.2%, 216G)
KasugaiRoastedPeas: 200G (2.1%, 28,265G)
ugoplatamia: 200G (2.1%, 1,549G)
0utlier: 200G (2.1%, 4,221G)
greghatch: 132G (1.4%, 132G)
PatSouI: 100G (1.0%, 26,210G)
Oshimi12: 100G (1.0%, 1,344G)
