Final Bets: blue - 28 bets for 19,079G (50.9%, x0.96); purple - 23 bets for 18,368G (49.1%, x1.04)

blue bets:
rockmem21: 2,728G (14.3%, 45,479G)
Nizaha: 2,001G (10.5%, 17,712G)
WolfApoc: 2,000G (10.5%, 19,911G)
Shalloween: 1,500G (7.9%, 53,377G)
Lord_Burrah: 1,367G (7.2%, 89,367G)
BirbBrainsBot: 1,000G (5.2%, 123,334G)
bad1dea: 1,000G (5.2%, 332,918G)
inzo_bettingbot: 1,000G (5.2%, 57,109G)
Axelrod: 1,000G (5.2%, 43,486G)
Baron_von_Scrub: 525G (2.8%, 3,387G)
volgrathemoose: 501G (2.6%, 5,826G)
FattyBearsteak: 500G (2.6%, 5,695G)
Evewho: 500G (2.6%, 2,650G)
UmaiJam: 496G (2.6%, 496G)
NUMBER1DB: 485G (2.5%, 485G)
robespyah: 356G (1.9%, 712G)
mirapoix: 300G (1.6%, 5,313G)
ZephyrTempest: 284G (1.5%, 22,633G)
Lazerkick: 264G (1.4%, 264G)
TheGuesty: 250G (1.3%, 2,493G)
MrDiggs49: 212G (1.1%, 212G)
getthemoneyz: 210G (1.1%, 400,917G)
AllInBot: 100G (0.5%, 100G)
joewcarson: 100G (0.5%, 100G)
Thed63: 100G (0.5%, 100G)
herrshaun: 100G (0.5%, 4,593G)
datadrivenbot: 100G (0.5%, 15,318G)
silentperogy: 100G (0.5%, 7,226G)

purple bets:
OmnibotGamma: 7,354G (40.0%, 14,421G)
Aldrammech: 1,630G (8.9%, 16,308G)
SkylerBunny: 1,280G (7.0%, 1,280G)
Laserman1000: 1,040G (5.7%, 5,340G)
Vampire_Killer: 1,000G (5.4%, 4,757G)
old_overholt_: 1,000G (5.4%, 1,887G)
EnemyController: 600G (3.3%, 6,607G)
banjooie: 538G (2.9%, 538G)
apupdoc: 511G (2.8%, 511G)
HaychDub: 500G (2.7%, 6,186G)
fenixcrest: 472G (2.6%, 472G)
roofiepops: 433G (2.4%, 433G)
Anomandaris__: 300G (1.6%, 1,656G)
bondagebandi: 278G (1.5%, 278G)
SystemShut: 274G (1.5%, 274G)
CorpusCav: 250G (1.4%, 3,066G)
Club_Sodar: 208G (1.1%, 208G)
ugoplatamia: 200G (1.1%, 7,520G)
BadBlanket: 100G (0.5%, 4,826G)
Oshimi12: 100G (0.5%, 2,400G)
Basmal: 100G (0.5%, 53,372G)
SpaZmodeus: 100G (0.5%, 1,750G)
Lali_Lulelo: 100G (0.5%, 3,856G)
