Final Bets: brown - 29 bets for 19,257G (76.9%, x0.30); champion - 13 bets for 5,773G (23.1%, x3.34)

brown bets:
RedRiderAyame: 2,500G (13.0%, 16,881G)
Nickyfive: 2,500G (13.0%, 16,044G)
Creggers: 2,000G (10.4%, 58,595G)
killth3kid: 1,664G (8.6%, 1,664G)
RaIshtar: 1,500G (7.8%, 24,548G)
twelfthrootoftwo: 1,046G (5.4%, 2,051G)
Grimmace45: 1,000G (5.2%, 3,351G)
maleblackfiora: 701G (3.6%, 701G)
OhEnou: 700G (3.6%, 700G)
winteriscorning: 654G (3.4%, 654G)
victoriolue: 600G (3.1%, 600G)
Rislyeu: 500G (2.6%, 8,941G)
NIghtdew14: 476G (2.5%, 476G)
Aldrammech: 464G (2.4%, 464G)
RunicMagus: 440G (2.3%, 440G)
fluffskull: 400G (2.1%, 5,165G)
ColetteMSLP: 300G (1.6%, 3,651G)
TasisSai: 215G (1.1%, 354G)
gorgewall: 201G (1.0%, 4,180G)
DustBirdEX: 201G (1.0%, 4,601G)
AllInBot: 200G (1.0%, 200G)
Othatmattkid: 200G (1.0%, 1,271G)
dtrain332: 165G (0.9%, 165G)
datadrivenbot: 163G (0.8%, 33,466G)
Lydian_C: 121G (0.6%, 73,243G)
nhammen: 100G (0.5%, 11,343G)
Firesheath: 100G (0.5%, 1,203G)
ANFz: 100G (0.5%, 41,227G)
Hasterious: 46G (0.2%, 4,676G)

champion bets:
BirbBrainsBot: 1,000G (17.3%, 186,572G)
Shalloween: 1,000G (17.3%, 88,251G)
The4d6: 500G (8.7%, 1,663G)
Lanshaft: 488G (8.5%, 19,932G)
TheMurkGnome: 476G (8.2%, 476G)
GatsbysGhost: 400G (6.9%, 3,867G)
randgridr: 348G (6.0%, 348G)
furrytomahawkk: 335G (5.8%, 335G)
AND4H: 300G (5.2%, 6,868G)
ThreeMileIsland: 300G (5.2%, 5,589G)
Geffro1908: 256G (4.4%, 256G)
getthemoneyz: 192G (3.3%, 1,305,709G)
lijerrr: 178G (3.1%, 178G)
