Final Bets: purple - 12 bets for 6,073G (27.7%, x2.61); brown - 16 bets for 15,868G (72.3%, x0.38)

purple bets:
Mesmaster: 1,000G (16.5%, 40,380G)
reinoe: 1,000G (16.5%, 76,464G)
superdevon1: 744G (12.3%, 37,221G)
Nizaha: 660G (10.9%, 24,884G)
killth3kid: 608G (10.0%, 608G)
VolgraTheMoose: 608G (10.0%, 608G)
coralreeferz: 540G (8.9%, 540G)
braveboyblue: 212G (3.5%, 212G)
gorgewall: 201G (3.3%, 7,054G)
datadrivenbot: 200G (3.3%, 48,061G)
Drusiform: 200G (3.3%, 1,381G)
twelfthrootoftwo: 100G (1.6%, 4,508G)

brown bets:
UmaiJam: 3,000G (18.9%, 55,476G)
NIghtdew14: 2,500G (15.8%, 13,685G)
DeathTaxesAndAnime: 2,020G (12.7%, 3,962G)
xBizzy: 1,113G (7.0%, 5,567G)
BirbBrainsBot: 1,000G (6.3%, 186,777G)
getthemoneyz: 1,000G (6.3%, 1,501,388G)
Brainstew29: 1,000G (6.3%, 14,073G)
nekojin: 1,000G (6.3%, 10,452G)
randgridr: 600G (3.8%, 600G)
blorpy_: 564G (3.6%, 7,058G)
ForagerCats: 500G (3.2%, 3,307G)
SephDarkheart: 444G (2.8%, 444G)
AllInBot: 351G (2.2%, 351G)
Hirameki85: 264G (1.7%, 15,688G)
Lord_Gwarth: 260G (1.6%, 260G)
resjudicata3: 252G (1.6%, 252G)
