Final Bets: black - 24 bets for 20,911G (49.2%, x1.03); brown - 10 bets for 21,560G (50.8%, x0.97)

black bets:
dogsandcatsand: 3,000G (14.3%, 80,478G)
Mesmaster: 3,000G (14.3%, 40,619G)
boxyID: 3,000G (14.3%, 38,529G)
NIghtdew14: 1,750G (8.4%, 15,142G)
RaIshtar: 1,388G (6.6%, 1,388G)
reinoe: 1,000G (4.8%, 76,112G)
BirbBrainsBot: 1,000G (4.8%, 186,250G)
Drusiform: 1,000G (4.8%, 1,581G)
Lord_Gwarth: 987G (4.7%, 987G)
Brainstew29: 900G (4.3%, 13,956G)
superdevon1: 714G (3.4%, 35,748G)
blorpy_: 629G (3.0%, 7,866G)
killth3kid: 608G (2.9%, 1,108G)
nekojin: 500G (2.4%, 10,835G)
gorgewall: 201G (1.0%, 6,902G)
AllInBot: 200G (1.0%, 200G)
braveboyblue: 200G (1.0%, 817G)
datadrivenbot: 200G (1.0%, 47,891G)
coralreeferz: 175G (0.8%, 1,198G)
Galeronis: 124G (0.6%, 124G)
ANFz: 100G (0.5%, 57,014G)
daveb_: 100G (0.5%, 5,065G)
getthemoneyz: 72G (0.3%, 1,501,643G)
ArlanKels: 63G (0.3%, 2,101G)

brown bets:
douchetron: 14,425G (66.9%, 28,286G)
xBizzy: 1,976G (9.2%, 6,589G)
VolgraTheMoose: 1,272G (5.9%, 1,272G)
KyleWonToLiveForever: 1,200G (5.6%, 20,322G)
resjudicata3: 963G (4.5%, 963G)
Nizaha: 660G (3.1%, 24,822G)
randgridr: 600G (2.8%, 600G)
Hirameki85: 264G (1.2%, 16,828G)
nifboy: 100G (0.5%, 3,755G)
TheBodaciousLlama: 100G (0.5%, 100G)
