Final Bets: blue - 14 bets for 37,374G (44.8%, x1.23); brown - 20 bets for 46,016G (55.2%, x0.81)

blue bets:
douchetron: 21,561G (57.7%, 42,277G)
KyleWonToLiveForever: 4,500G (12.0%, 21,486G)
DeathTaxesAndAnime: 2,871G (7.7%, 5,630G)
NIghtdew14: 2,000G (5.4%, 13,392G)
OneHundredFists: 1,852G (5.0%, 1,852G)
randgridr: 1,182G (3.2%, 1,182G)
coralreeferz: 1,023G (2.7%, 1,023G)
superdevon1: 700G (1.9%, 35,034G)
braveboyblue: 617G (1.7%, 617G)
nifboy: 500G (1.3%, 3,852G)
Lord_Gwarth: 260G (0.7%, 260G)
Galeronis: 108G (0.3%, 108G)
ANFz: 100G (0.3%, 56,914G)
TheseJeans: 100G (0.3%, 1,709G)

brown bets:
boxyID: 10,000G (21.7%, 35,529G)
Mesmaster: 10,000G (21.7%, 37,619G)
dogsandcatsand: 10,000G (21.7%, 77,478G)
reinoe: 5,000G (10.9%, 75,112G)
NicoSavoy: 2,162G (4.7%, 108,118G)
Shalloween: 1,300G (2.8%, 27,371G)
VolgraTheMoose: 1,255G (2.7%, 2,510G)
BirbBrainsBot: 1,000G (2.2%, 185,250G)
nekojin: 1,000G (2.2%, 10,335G)
getthemoneyz: 674G (1.5%, 1,501,571G)
Nizaha: 660G (1.4%, 25,462G)
Drusiform: 581G (1.3%, 581G)
blorpy_: 578G (1.3%, 7,237G)
SephDarkheart: 444G (1.0%, 1,614G)
resjudicata3: 300G (0.7%, 1,897G)
Hirameki85: 264G (0.6%, 17,084G)
gorgewall: 201G (0.4%, 6,701G)
AllInBot: 200G (0.4%, 200G)
datadrivenbot: 200G (0.4%, 47,691G)
TheBodaciousLlama: 197G (0.4%, 197G)
