Final Bets: white - 13 bets for 13,281G (34.3%, x1.91); champion - 16 bets for 25,391G (65.7%, x0.52)

white bets:
SkylerBunny: 8,000G (60.2%, 102,932G)
poGpopE: 1,000G (7.5%, 19,225G)
BirbBrainsBot: 1,000G (7.5%, 134,062G)
douchetron: 923G (6.9%, 1,810G)
superdevon1: 662G (5.0%, 33,115G)
silentperogy: 400G (3.0%, 29,934G)
Belkra: 236G (1.8%, 236G)
HaateXIII: 226G (1.7%, 2,326G)
silentkaster: 223G (1.7%, 10,223G)
gorgewall: 201G (1.5%, 8,045G)
AllInBot: 200G (1.5%, 200G)
mrpickins: 200G (1.5%, 5,551G)
getthemoneyz: 10G (0.1%, 1,421,728G)

champion bets:
amiture: 5,000G (19.7%, 53,387G)
reinoe: 5,000G (19.7%, 150,524G)
prince_rogers_nelson_: 4,183G (16.5%, 4,183G)
NicoSavoy: 3,656G (14.4%, 365,605G)
randgridr: 2,106G (8.3%, 4,212G)
josephiroth_143: 2,000G (7.9%, 11,043G)
Treafa: 711G (2.8%, 711G)
DaKoopa49: 536G (2.1%, 536G)
DustBirdEX: 528G (2.1%, 528G)
vorap: 500G (2.0%, 128,168G)
DamnThatShark: 356G (1.4%, 356G)
Hirameki85: 252G (1.0%, 5,138G)
datadrivenbot: 200G (0.8%, 45,091G)
boxyID: 140G (0.6%, 140G)
roofiepops: 123G (0.5%, 9,105G)
DAC169: 100G (0.4%, 1,939G)
