Final Bets: black - 19 bets for 21,335G (79.3%, x0.26); purple - 11 bets for 5,584G (20.7%, x3.82)

black bets:
HaplessOne: 7,199G (33.7%, 14,116G)
Mesmaster: 3,000G (14.1%, 62,960G)
Grimmace45: 2,012G (9.4%, 2,012G)
Zhies1337: 2,000G (9.4%, 7,906G)
Lord_Burrah: 1,500G (7.0%, 107,000G)
sinnyil2: 1,200G (5.6%, 12,253G)
Draconis345: 1,000G (4.7%, 90,793G)
reinoe: 600G (2.8%, 600G)
TheGuesty: 500G (2.3%, 23,391G)
Breakdown777: 500G (2.3%, 16,947G)
Estan_AD: 500G (2.3%, 4,438G)
HorusTaurus: 333G (1.6%, 3,585G)
Squatting_Bear: 300G (1.4%, 4,386G)
Sentwist: 150G (0.7%, 2,004G)
ungabunga_bot: 141G (0.7%, 321,792G)
maakur_: 100G (0.5%, 118,666G)
lifeguard_dan: 100G (0.5%, 2,114G)
datadrivenbot: 100G (0.5%, 11,915G)
Tougou: 100G (0.5%, 7,453G)

purple bets:
Carledo: 1,481G (26.5%, 26,034G)
BirbBrainsBot: 1,000G (17.9%, 187,794G)
Baron_von_Scrub: 824G (14.8%, 824G)
LordSDB: 500G (9.0%, 4,644G)
FNCardascia_: 469G (8.4%, 469G)
getthemoneyz: 426G (7.6%, 600,900G)
Rislyeu: 256G (4.6%, 256G)
hydroshade: 224G (4.0%, 224G)
Eyepoor_: 204G (3.7%, 204G)
LorianFaust: 100G (1.8%, 424G)
gggamezzz: 100G (1.8%, 1,131G)
