Final Bets: white - 11 bets for 7,322G (45.5%, x1.20); black - 10 bets for 8,781G (54.5%, x0.83)

white bets:
AllInBot: 1,770G (24.2%, 1,770G)
rocl: 1,000G (13.7%, 69,312G)
WireLord: 1,000G (13.7%, 6,704G)
ungabunga_bot: 1,000G (13.7%, 123,851G)
BirbBrainsBot: 1,000G (13.7%, 116,685G)
skysa250: 500G (6.8%, 15,288G)
getthemoneyz: 388G (5.3%, 483,288G)
PotionDweller: 264G (3.6%, 264G)
Tithonus: 200G (2.7%, 14,699G)
Lythe_Caraker: 100G (1.4%, 99,395G)
redrhinofever: 100G (1.4%, 1,843G)

black bets:
leakimiko: 3,016G (34.3%, 3,016G)
mirapoix: 1,709G (19.5%, 1,709G)
HaplessOne: 1,500G (17.1%, 75,554G)
NovaKnight21: 860G (9.8%, 4,448G)
datadrivenbot: 694G (7.9%, 8,708G)
HASTERIOUS: 336G (3.8%, 336G)
Chuckolator: 266G (3.0%, 6,651G)
Cataphract116: 200G (2.3%, 1,793G)
jame3200: 100G (1.1%, 900G)
AerodyneX: 100G (1.1%, 100G)
