Final Bets: blue - 10 bets for 9,263G (53.0%, x0.89); white - 11 bets for 8,218G (47.0%, x1.13)

blue bets:
KitchTowel: 5,000G (54.0%, 26,641G)
mirapoix: 1,753G (18.9%, 1,753G)
leakimiko: 600G (6.5%, 600G)
datadrivenbot: 386G (4.2%, 8,883G)
HASTERIOUS: 336G (3.6%, 336G)
redrhinofever: 300G (3.2%, 2,300G)
mayormcfunbags: 300G (3.2%, 2,990G)
AllInBot: 214G (2.3%, 214G)
Tithonus: 200G (2.2%, 14,877G)
ungabunga_bot: 174G (1.9%, 124,837G)

white bets:
WireLord: 2,000G (24.3%, 5,907G)
HaplessOne: 1,500G (18.3%, 76,225G)
PotionDweller: 1,100G (13.4%, 2,242G)
rocl: 1,000G (12.2%, 71,285G)
BirbBrainsBot: 1,000G (12.2%, 117,005G)
getthemoneyz: 522G (6.4%, 483,810G)
skysa250: 500G (6.1%, 16,842G)
PatSouI: 200G (2.4%, 5,388G)
jame3200: 157G (1.9%, 757G)
AerodyneX: 139G (1.7%, 139G)
Evewho: 100G (1.2%, 5,333G)
