Final Bets: blue - 10 bets for 9,903G (55.2%, x0.81); champion - 10 bets for 8,034G (44.8%, x1.23)

blue bets:
mirapoix: 3,308G (33.4%, 3,308G)
KitchTowel: 2,000G (20.2%, 31,077G)
PotionDweller: 1,142G (11.5%, 1,142G)
Primeval_33: 856G (8.6%, 856G)
HASTERIOUS: 634G (6.4%, 634G)
datadrivenbot: 593G (6.0%, 9,225G)
redrhinofever: 566G (5.7%, 2,566G)
AllInBot: 404G (4.1%, 404G)
Cataphract116: 300G (3.0%, 1,800G)
darkbringer813: 100G (1.0%, 100G)

champion bets:
HaplessOne: 2,000G (24.9%, 74,725G)
WireLord: 1,953G (24.3%, 3,907G)
superdevon1: 1,075G (13.4%, 2,150G)
skysa250: 1,000G (12.4%, 16,342G)
BirbBrainsBot: 1,000G (12.4%, 116,005G)
ungabunga_bot: 557G (6.9%, 124,991G)
Tithonus: 200G (2.5%, 15,054G)
Evewho: 100G (1.2%, 5,233G)
jame3200: 100G (1.2%, 600G)
volgrathemoose: 49G (0.6%, 833G)
