Final Bets: white - 13 bets for 7,774G (65.1%, x0.54); black - 9 bets for 4,167G (34.9%, x1.87)

white bets:
Mesmaster: 2,000G (25.7%, 80,755G)
volgrathemoose: 1,001G (12.9%, 6,357G)
BirbBrainsBot: 1,000G (12.9%, 79,532G)
getthemoneyz: 966G (12.4%, 686,226G)
mirapoix: 799G (10.3%, 799G)
bruubarg: 500G (6.4%, 7,000G)
SkyridgeZero: 500G (6.4%, 20,651G)
PotionDweller: 248G (3.2%, 248G)
mardokttv: 208G (2.7%, 208G)
Nerf_Vergil: 200G (2.6%, 221G)
Lawndough: 152G (2.0%, 152G)
waterwatereverywhere: 100G (1.3%, 7,658G)
AmaninAmide: 100G (1.3%, 2,260G)

black bets:
NovaKnight21: 2,015G (48.4%, 2,015G)
lowlf: 568G (13.6%, 568G)
Digitalsocrates: 517G (12.4%, 1,035G)
gorgewall: 401G (9.6%, 11,361G)
nifboy: 250G (6.0%, 4,843G)
serperemagus: 116G (2.8%, 116G)
DeathTaxesAndAnime: 100G (2.4%, 1,592G)
ALY327: 100G (2.4%, 47,974G)
datadrivenbot: 100G (2.4%, 22,243G)
