Final Bets: green - 17 bets for 20,615G (70.6%, x0.42); yellow - 13 bets for 8,590G (29.4%, x2.40)

green bets:
JumbocactuarX27: 12,770G (61.9%, 25,541G)
EnemyController: 1,111G (5.4%, 1,421,159G)
BirbBrainsBot: 1,000G (4.9%, 131,624G)
nhammen: 1,000G (4.9%, 6,947G)
killth3kid: 700G (3.4%, 92,546G)
Nizaha: 536G (2.6%, 2,732G)
MagicBottle: 532G (2.6%, 532G)
joewcarson: 500G (2.4%, 30,245G)
upvla: 500G (2.4%, 1,305G)
Blakelmenakle: 356G (1.7%, 356G)
furrytomahawkk: 338G (1.6%, 338G)
athros13: 264G (1.3%, 16,050G)
Finewax: 250G (1.2%, 891G)
getthemoneyz: 204G (1.0%, 1,275,208G)
gorgewall: 201G (1.0%, 2,172G)
nsm013: 200G (1.0%, 11,081G)
TasisSai: 153G (0.7%, 300G)

yellow bets:
randgridr: 2,959G (34.4%, 2,959G)
DeathTaxesAndAnime: 1,892G (22.0%, 1,892G)
TheChainNerd: 1,000G (11.6%, 28,268G)
ShintaroNayaka: 1,000G (11.6%, 7,538G)
pplvee1: 348G (4.1%, 348G)
ArashiKurobara: 324G (3.8%, 6,352G)
Mysteriousdewd: 200G (2.3%, 4,791G)
datadrivenbot: 200G (2.3%, 57,309G)
skipsandwiches: 199G (2.3%, 199G)
Xoomwaffle: 160G (1.9%, 160G)
RyanTheRebs: 108G (1.3%, 108G)
turbn: 100G (1.2%, 2,927G)
SephDarkheart: 100G (1.2%, 23,112G)
