Final Bets: white - 19 bets for 12,661G (71.8%, x0.39); black - 12 bets for 4,979G (28.2%, x2.54)

white bets:
gorgewall: 2,256G (17.8%, 2,256G)
Forkmore: 2,222G (17.5%, 8,788G)
Cryptopsy70: 1,348G (10.6%, 44,945G)
EnemyController: 1,111G (8.8%, 1,421,622G)
athros13: 1,000G (7.9%, 16,160G)
DeathTaxesAndAnime: 988G (7.8%, 988G)
Blakelmenakle: 504G (4.0%, 504G)
turbn: 500G (3.9%, 2,827G)
joewcarson: 500G (3.9%, 30,453G)
Wonser: 400G (3.2%, 1,044G)
TasisSai: 364G (2.9%, 364G)
ArashiKurobara: 324G (2.6%, 6,028G)
randgridr: 304G (2.4%, 304G)
RedRiderAyame: 220G (1.7%, 2,052G)
datadrivenbot: 200G (1.6%, 57,109G)
skipsandwiches: 112G (0.9%, 112G)
Xoomwaffle: 108G (0.9%, 108G)
nhammen: 100G (0.8%, 7,364G)
JumbocactuarX27: 100G (0.8%, 30,862G)

black bets:
KyleWonToLiveForever: 1,677G (33.7%, 1,677G)
BirbBrainsBot: 1,000G (20.1%, 132,041G)
Nizaha: 536G (10.8%, 2,955G)
ShintaroNayaka: 400G (8.0%, 6,538G)
pplvee1: 348G (7.0%, 348G)
getthemoneyz: 270G (5.4%, 1,275,293G)
Mysteriousdewd: 200G (4.0%, 4,591G)
nok____: 187G (3.8%, 4,287G)
byrdturbo: 111G (2.2%, 30,248G)
Finewax: 100G (2.0%, 995G)
nifboy: 100G (2.0%, 8,236G)
raenrond: 50G (1.0%, 3,999G)
