Final Bets: purple - 15 bets for 15,390G (66.2%, x0.51); brown - 14 bets for 7,848G (33.8%, x1.96)

purple bets:
AniZero: 4,364G (28.4%, 4,364G)
Rilgon: 3,384G (22.0%, 3,384G)
SkylerBunny: 3,000G (19.5%, 585,141G)
twelfthrootoftwo: 1,000G (6.5%, 1,953G)
DLJuggernaut: 584G (3.8%, 584G)
CrownOfHorns: 511G (3.3%, 511G)
killth3kid: 500G (3.2%, 3,596G)
alterworlds: 500G (3.2%, 3,205G)
roofiepops: 462G (3.0%, 462G)
BlackfyreRoy: 400G (2.6%, 13,963G)
gamesage53: 235G (1.5%, 235G)
KasugaiRoastedPeas: 200G (1.3%, 14,396G)
Blastinus: 100G (0.6%, 798G)
datadrivenbot: 100G (0.6%, 48,855G)
moonliquor: 50G (0.3%, 838G)

brown bets:
E_Ballard: 1,663G (21.2%, 1,663G)
BirbBrainsBot: 1,000G (12.7%, 150,078G)
Spartan_Paladin: 800G (10.2%, 55,305G)
DarrenDinosaurs: 672G (8.6%, 672G)
O_Heyno: 663G (8.4%, 663G)
prince_rogers_nelson_: 600G (7.6%, 600G)
sparker9: 600G (7.6%, 17,086G)
extinctrational: 524G (6.7%, 524G)
getthemoneyz: 342G (4.4%, 1,023,832G)
potgodtopdog: 333G (4.2%, 51,634G)
RunicMagus: 300G (3.8%, 43,842G)
thewondertrickster: 150G (1.9%, 300G)
Baron_von_Scrub: 101G (1.3%, 21,640G)
OneHundredFists: 100G (1.3%, 18,244G)
