Final Bets: red - 14 bets for 8,907G (27.5%, x2.64); brown - 19 bets for 23,502G (72.5%, x0.38)

red bets:
Baron_von_Scrub: 2,468G (27.7%, 31,408G)
GladiatorLupe: 1,000G (11.2%, 9,795G)
RunicMagus: 1,000G (11.2%, 45,679G)
BirbBrainsBot: 1,000G (11.2%, 154,159G)
Virilikus: 1,000G (11.2%, 197,840G)
Lanshaft: 435G (4.9%, 854G)
moonliquor: 404G (4.5%, 404G)
Sans_from_Snowdin: 400G (4.5%, 12,672G)
sparker9: 300G (3.4%, 18,214G)
DamnThatShark: 240G (2.7%, 240G)
potgodtopdog: 222G (2.5%, 52,287G)
KonzeraLive: 200G (2.2%, 3,483G)
getthemoneyz: 138G (1.5%, 1,024,230G)
maleblackfiora: 100G (1.1%, 276G)

brown bets:
SkylerBunny: 5,000G (21.3%, 577,141G)
Mesmaster: 5,000G (21.3%, 214,225G)
Kronikle: 2,584G (11.0%, 2,584G)
AniZero: 2,055G (8.7%, 2,055G)
O_Heyno: 1,963G (8.4%, 1,963G)
BlackfyreRoy: 1,000G (4.3%, 14,001G)
GatsbysGhost: 1,000G (4.3%, 5,699G)
Spartan_Paladin: 860G (3.7%, 57,869G)
E_Ballard: 632G (2.7%, 632G)
nifboy: 528G (2.2%, 528G)
Laserman1000: 500G (2.1%, 5,700G)
Evewho: 500G (2.1%, 3,921G)
twelfthrootoftwo: 500G (2.1%, 1,501G)
Oreo_Pizza: 500G (2.1%, 7,093G)
RageImmortaI: 400G (1.7%, 1,395G)
gamesage53: 172G (0.7%, 172G)
thewondertrickster: 108G (0.5%, 108G)
datadrivenbot: 100G (0.4%, 48,555G)
livvexx: 100G (0.4%, 2,377G)
