High Risers:
1. Livinghitokiri: +4,816G
2. Run_with_stone_guns: +3,147G
3. Zachara: +3,000G
4. Sephdarkheart: +2,673G
5. Moist_noodles: +1,000G
6. Pepperbuster: +940G
7. Memoriesoffinal: +821G
8. Volgrathemoose: +726G
9. Raixelol: +667G
10. Disindjinnuous: +635G
11. Runicmagus: +594G
12. Daveniii: +525G
13. Grishhammer: +510G
14. E_ballard: +504G
15. Lokenwow: +500G
16. Ser_pyrro: +500G
17. Zckaiser: +500G
18. Smugzug: +490G
19. Khelor_: +458G
20. Mushufasa_: +327G
21. Brenogarwin: +300G
22. Snkey: +281G
23. Ar_tactic: +276G
24. Just_here2: +200G
25. Powergems: +200G
26. Lord_gwarth: +129G
27. Leonidusx: +100G
28. J_macc1991: +36G
29. Error72: -1G
30. Deathtaxesandanime: -28G
31. Mirapoix: -100G
32. Worldly_unbrain: -147G
33. Aly327: -300G
34. Krombobreaker: -321G
35. Cosmictactician: -468G
36. Pplvee1: -568G
37. Bruubarg: -975G
38. Gooseyourself: -1,000G
39. Latebit: -1,000G
40. Thesabretoothe: -1,000G
41. Valensexp_: -1,044G
42. Nifboy: -1,260G
43. Gongonono: -1,309G
44. Sairentozon7: -1,310G
45. Dogsandcatsand: -1,350G
46. Resjudicata3: -1,847G
47. Bonemiser: -2,334G
