Final Bets: brown - 12 bets for 4,638G (20.5%, x3.88); champion - 19 bets for 18,006G (79.5%, x0.26)

brown bets:
AllInBot: 778G (16.8%, 778G)
Raixelol: 600G (12.9%, 5,203G)
bruubarg: 500G (10.8%, 5,829G)
krombobreaker: 500G (10.8%, 8,988G)
Bongomon7: 480G (10.3%, 480G)
pplvee1: 372G (8.0%, 372G)
SephDarkheart: 344G (7.4%, 28,073G)
Disindjinnuous: 250G (5.4%, 7,332G)
getthemoneyz: 238G (5.1%, 1,952,893G)
khelor_: 200G (4.3%, 3,522G)
gongonono: 200G (4.3%, 2,462G)
robespyah: 176G (3.8%, 176G)

champion bets:
LivingHitokiri: 5,000G (27.8%, 43,933G)
resjudicata3: 3,000G (16.7%, 9,432G)
pepperbuster: 2,732G (15.2%, 32,732G)
Mushufasa_: 2,000G (11.1%, 20,807G)
DavenIII: 920G (5.1%, 920G)
BirbBrainsBot: 694G (3.9%, 3,177G)
dogsandcatsand: 632G (3.5%, 27,661G)
CosmicTactician: 500G (2.8%, 28,782G)
Lord_Gwarth: 500G (2.8%, 4,112G)
ValensEXP_: 320G (1.8%, 5,019G)
MemoriesofFinal: 300G (1.7%, 25,462G)
ar_tactic: 300G (1.7%, 100,738G)
Smugzug: 276G (1.5%, 5,969G)
grishhammer: 232G (1.3%, 1,178G)
datadrivenbot: 200G (1.1%, 64,597G)
BartTradingCompany: 100G (0.6%, 9,891G)
DeathTaxesAndAnime: 100G (0.6%, 2,946G)
RunicMagus: 100G (0.6%, 13,807G)
VolgraTheMoose: 100G (0.6%, 3,810G)
