Final Bets: green - 10 bets for 10,529G (62.9%, x0.59); yellow - 12 bets for 6,205G (37.1%, x1.70)

green bets:
Mesmaster: 3,000G (28.5%, 28,609G)
Mtueni: 2,500G (23.7%, 249,075G)
BirbBrainsBot: 1,000G (9.5%, 117,139G)
JumbocactuarX27: 1,000G (9.5%, 18,471G)
PetitFoulard: 974G (9.3%, 974G)
Eyepoor_: 815G (7.7%, 815G)
getthemoneyz: 440G (4.2%, 645,871G)
Hoffrandexpress: 400G (3.8%, 2,119G)
LivingHitokiri: 200G (1.9%, 8,909G)
CapnSauce420: 200G (1.9%, 3,095G)

yellow bets:
nifboy: 2,570G (41.4%, 2,570G)
Draconis345: 1,000G (16.1%, 88,411G)
Zachara: 750G (12.1%, 76,250G)
ZephyrTempest: 456G (7.3%, 3,251G)
FNCardascia_: 367G (5.9%, 735G)
bahamutlagooon: 310G (5.0%, 1,705G)
Miyokari: 250G (4.0%, 3,587G)
Slider1012: 150G (2.4%, 831G)
ungabunga_bot: 102G (1.6%, 421,120G)
Realitydown: 100G (1.6%, 5,179G)
datadrivenbot: 100G (1.6%, 13,285G)
DrAntiSocial: 50G (0.8%, 10,080G)
