Final Bets: white - 26 bets for 24,340G (81.7%, x0.22); champion - 12 bets for 5,437G (18.3%, x4.48)

white bets:
NicoSavoy: 2,258G (9.3%, 45,177G)
DustBirdEX: 2,102G (8.6%, 4,205G)
nhammen: 2,012G (8.3%, 9,148G)
Sairentozon7: 2,000G (8.2%, 85,196G)
Mesmaster: 2,000G (8.2%, 6,353G)
reinoe: 2,000G (8.2%, 157,879G)
loveyouallfriends: 2,000G (8.2%, 38,536G)
latebit: 1,400G (5.8%, 30,676G)
itskage: 1,323G (5.4%, 13,231G)
dogsandcatsand: 1,300G (5.3%, 2,425G)
skillomono: 835G (3.4%, 1,671G)
Galeronis: 748G (3.1%, 748G)
killth3kid: 692G (2.8%, 37,821G)
Zeroroute: 600G (2.5%, 600G)
letdowncity: 520G (2.1%, 32,438G)
TasisSai: 500G (2.1%, 7,881G)
TheDeeyo: 500G (2.1%, 3,127G)
muffin_money: 350G (1.4%, 10,290G)
DeathTaxesAndAnime: 300G (1.2%, 2,316G)
CosmicTactician: 200G (0.8%, 14,764G)
datadrivenbot: 200G (0.8%, 63,186G)
MinBetBot: 100G (0.4%, 4,195G)
Drusiform: 100G (0.4%, 9,251G)
Rook512: 100G (0.4%, 2,322G)
alecttox: 100G (0.4%, 43,998G)
windsah: 100G (0.4%, 3,571G)

champion bets:
UmaiJam: 2,000G (36.8%, 17,330G)
SkylerBunny: 684G (12.6%, 684G)
douchetron: 600G (11.0%, 600G)
BevBear: 561G (10.3%, 2,245G)
resjudicata3: 500G (9.2%, 6,719G)
AllInBot: 350G (6.4%, 350G)
TheDali23: 293G (5.4%, 587G)
daveb_: 166G (3.1%, 3,612G)
northkoreancleetus: 150G (2.8%, 5,356G)
ko2q: 100G (1.8%, 2,903G)
getthemoneyz: 32G (0.6%, 1,622,645G)
BirbBrainsBot: 1G (0.0%, 77,524G)
