Final Bets: purple - 15 bets for 8,864G (53.9%, x0.86); brown - 9 bets for 7,593G (46.1%, x1.17)

purple bets:
SephDarkheart: 1,284G (14.5%, 1,284G)
fenaen: 1,200G (13.5%, 29,854G)
Error72: 1,011G (11.4%, 2,022G)
killth3kid: 1,000G (11.3%, 90,673G)
BirbBrainsBot: 987G (11.1%, 987G)
getthemoneyz: 774G (8.7%, 1,241,673G)
joewcarson: 500G (5.6%, 39,824G)
DLJuggernaut: 500G (5.6%, 3,866G)
Shalloween: 400G (4.5%, 56,553G)
ArashiKurobara: 304G (3.4%, 2,982G)
Forkmore: 280G (3.2%, 4,314G)
datadrivenbot: 200G (2.3%, 63,101G)
ar_tactic: 200G (2.3%, 67,079G)
docmitchphd: 124G (1.4%, 124G)
nhammen: 100G (1.1%, 7,550G)

brown bets:
Nickyfive: 2,000G (26.3%, 31,435G)
UmaiJam: 2,000G (26.3%, 53,037G)
TheChainNerd: 1,000G (13.2%, 18,783G)
ShintaroNayaka: 1,000G (13.2%, 11,610G)
randgridr: 693G (9.1%, 2,313G)
dantayystv: 500G (6.6%, 6,614G)
TasisSai: 200G (2.6%, 864G)
CosmicTactician: 100G (1.3%, 45,549G)
raenrond: 100G (1.3%, 1,910G)
