Final Bets: green - 16 bets for 17,746G (77.8%, x0.28); black - 7 bets for 5,057G (22.2%, x3.51)

green bets:
Kithmar796: 8,830G (49.8%, 8,830G)
UmaiJam: 2,000G (11.3%, 57,335G)
joewcarson: 2,000G (11.3%, 40,302G)
killth3kid: 1,000G (5.6%, 89,166G)
ShintaroNayaka: 1,000G (5.6%, 12,974G)
Error72: 753G (4.2%, 753G)
CosmicTactician: 500G (2.8%, 45,466G)
Shalloween: 400G (2.3%, 56,101G)
ArashiKurobara: 304G (1.7%, 1,988G)
Forkmore: 280G (1.6%, 3,891G)
datadrivenbot: 200G (1.1%, 62,800G)
Finewax: 104G (0.6%, 104G)
nhammen: 100G (0.6%, 7,399G)
danielrogercardoso: 100G (0.6%, 800G)
TasisSai: 100G (0.6%, 946G)
JethroThrul: 75G (0.4%, 759G)

black bets:
TheChainNerd: 3,216G (63.6%, 21,445G)
dantayystv: 1,000G (19.8%, 8,376G)
randgridr: 364G (7.2%, 2,430G)
getthemoneyz: 202G (4.0%, 1,240,309G)
BirbBrainsBot: 200G (4.0%, 200G)
raenrond: 50G (1.0%, 1,877G)
captainmilestw: 25G (0.5%, 573G)
