Final Bets: blue - 13 bets for 6,739G (44.8%, x1.23); yellow - 17 bets for 8,298G (55.2%, x0.81)

blue bets:
BirbBrainsBot: 1,000G (14.8%, 166,136G)
Lionhermit: 1,000G (14.8%, 49,886G)
catfashions: 750G (11.1%, 6,420G)
rico_flex: 666G (9.9%, 37,764G)
HaateXIII: 624G (9.3%, 624G)
HaplessOne: 622G (9.2%, 622G)
Estan_AD: 500G (7.4%, 11,320G)
Laserman1000: 440G (6.5%, 440G)
Dexsana: 404G (6.0%, 404G)
gorgewall: 301G (4.5%, 8,652G)
theNGUYENNER: 200G (3.0%, 1,854G)
NicoSavoy: 132G (2.0%, 132G)
mikesk1: 100G (1.5%, 2,729G)

yellow bets:
metagameface: 1,500G (18.1%, 4,270G)
Evewho: 1,131G (13.6%, 1,131G)
dogsandcatsand: 1,104G (13.3%, 3,347G)
volgrathemoose: 1,001G (12.1%, 22,618G)
Lali_Lulelo: 835G (10.1%, 835G)
CorpusCav: 654G (7.9%, 4,454G)
ZZ_Yoshi: 320G (3.9%, 3,213G)
Setdevildog: 300G (3.6%, 2,649G)
ungabunga_bot: 287G (3.5%, 425,208G)
Miyokari: 250G (3.0%, 5,522G)
jicchi: 208G (2.5%, 208G)
thalessenador: 146G (1.8%, 146G)
CustomGameMaster: 138G (1.7%, 438G)
getthemoneyz: 120G (1.4%, 658,014G)
Waracy: 104G (1.3%, 104G)
benticore: 100G (1.2%, 4,432G)
datadrivenbot: 100G (1.2%, 12,966G)
