Final Bets: purple - 17 bets for 22,848G (78.2%, x0.28); brown - 10 bets for 6,365G (21.8%, x3.59)

purple bets:
roqqqpsi: 14,734G (64.5%, 133,951G)
dogsandcatsand: 1,538G (6.7%, 1,538G)
BirbBrainsBot: 1,000G (4.4%, 14,833G)
sinnyil2: 888G (3.9%, 888G)
Breakdown777: 697G (3.1%, 1,394G)
TheChainNerd: 613G (2.7%, 6,132G)
BlackFireUK: 520G (2.3%, 520G)
ShintaroNayaka: 500G (2.2%, 9,307G)
MagicBottle: 492G (2.2%, 18,464G)
amiture: 424G (1.9%, 424G)
Rytor: 400G (1.8%, 15,126G)
ArashiKurobara: 264G (1.2%, 10,303G)
Rilgon: 248G (1.1%, 285G)
neocarbuncle: 210G (0.9%, 3,972G)
SephDarkheart: 120G (0.5%, 120G)
ANFz: 100G (0.4%, 25,513G)
nifboy: 100G (0.4%, 13,356G)

brown bets:
Baron_von_Scrub: 3,252G (51.1%, 3,252G)
toka222: 1,000G (15.7%, 93,343G)
Laserman1000: 597G (9.4%, 22,897G)
skipsandwiches: 431G (6.8%, 431G)
HuffFlex: 300G (4.7%, 9,629G)
RageImmortaI: 246G (3.9%, 246G)
xLilAsia: 208G (3.3%, 208G)
gorgewall: 201G (3.2%, 5,572G)
nok____: 100G (1.6%, 5,000G)
getthemoneyz: 30G (0.5%, 1,181,150G)
