Final Bets: white - 20 bets for 24,890G (76.8%, x0.30); black - 9 bets for 7,526G (23.2%, x3.31)

white bets:
porkchop5158: 5,000G (20.1%, 46,898G)
WitchHunterIX: 3,000G (12.1%, 31,380G)
pplvee1: 2,980G (12.0%, 2,980G)
Zeroroute: 2,515G (10.1%, 2,515G)
Thyrandaal: 2,000G (8.0%, 4,213G)
Evewho: 1,593G (6.4%, 1,593G)
NIghtdew14: 1,250G (5.0%, 13,127G)
BirbBrainsBot: 1,000G (4.0%, 131,587G)
getthemoneyz: 1,000G (4.0%, 1,328,319G)
nhammen: 1,000G (4.0%, 7,188G)
HaateXIII: 820G (3.3%, 820G)
Aldrammech: 500G (2.0%, 11,361G)
GoatShow2: 481G (1.9%, 481G)
DudeMonkey77: 420G (1.7%, 2,710G)
fenaen: 338G (1.4%, 677G)
Vacillents: 276G (1.1%, 276G)
SUGRboi: 216G (0.9%, 216G)
gorgewall: 201G (0.8%, 5,228G)
datadrivenbot: 200G (0.8%, 34,375G)
Miku_Shikhu: 100G (0.4%, 15,487G)

black bets:
dogsandcatsand: 3,901G (51.8%, 3,901G)
Rislyeu: 1,000G (13.3%, 7,173G)
AllInBot: 838G (11.1%, 838G)
coralreeferz: 550G (7.3%, 21,703G)
SephDarkheart: 340G (4.5%, 46,392G)
CapnChaos12: 300G (4.0%, 2,533G)
Legionx13: 250G (3.3%, 3,894G)
lyonslegacy: 224G (3.0%, 224G)
ohhinm: 123G (1.6%, 2,908G)
