Final Bets: red - 13 bets for 8,701G (41.0%, x1.44); blue - 13 bets for 12,534G (59.0%, x0.69)

red bets:
Zetchryn: 2,702G (31.1%, 2,702G)
Chuckolator: 2,106G (24.2%, 53,668G)
FriendSquirrel: 572G (6.6%, 572G)
TasisSai: 510G (5.9%, 510G)
NIghtdew14: 484G (5.6%, 484G)
killth3kid: 412G (4.7%, 1,324G)
baconbacon1207: 400G (4.6%, 13,120G)
AllInBot: 389G (4.5%, 389G)
getthemoneyz: 322G (3.7%, 1,306,498G)
Cryptopsy70: 304G (3.5%, 2,698G)
boosted420: 200G (2.3%, 2,837G)
datadrivenbot: 200G (2.3%, 28,275G)
nhammen: 100G (1.1%, 11,083G)

blue bets:
mpghappiness: 3,982G (31.8%, 7,809G)
TheChainNerd: 1,500G (12.0%, 36,354G)
Nickyfive: 1,500G (12.0%, 17,625G)
BirbBrainsBot: 1,000G (8.0%, 191,564G)
JumbocactuarX27: 1,000G (8.0%, 34,338G)
Zeroroute: 972G (7.8%, 972G)
powergems: 777G (6.2%, 4,054G)
MagicBottle: 544G (4.3%, 19,896G)
coralreeferz: 519G (4.1%, 519G)
ArashiKurobara: 336G (2.7%, 2,659G)
JLinkletter: 204G (1.6%, 204G)
CosmicTactician: 100G (0.8%, 43,130G)
WorkKnight: 100G (0.8%, 100G)
