Final Bets: red - 13 bets for 9,938G (38.7%, x1.58); blue - 16 bets for 15,746G (61.3%, x0.63)

red bets:
Thyrandaal: 2,603G (26.2%, 5,104G)
Evewho: 1,972G (19.8%, 3,867G)
Baron_von_Scrub: 1,111G (11.2%, 56,338G)
reinoe: 1,000G (10.1%, 8,363G)
toka222: 900G (9.1%, 33,758G)
killth3kid: 500G (5.0%, 16,121G)
Yiroep2: 500G (5.0%, 1,746G)
genericco: 500G (5.0%, 5,064G)
kaelsun: 292G (2.9%, 292G)
placidphoenix: 209G (2.1%, 209G)
ScarletSpiderBen: 150G (1.5%, 2,299G)
gorgewall: 101G (1.0%, 15,664G)
AllInBot: 100G (1.0%, 100G)

blue bets:
helpimabug: 6,172G (39.2%, 12,597G)
WitchHunterIX: 1,932G (12.3%, 1,932G)
LAGBOT30000: 1,090G (6.9%, 1,090G)
BirbBrainsBot: 1,000G (6.4%, 163,309G)
getthemoneyz: 1,000G (6.4%, 932,460G)
OneHundredFists: 1,000G (6.4%, 57,460G)
Spuzzmocker: 798G (5.1%, 798G)
Creggers: 500G (3.2%, 2,666G)
DAC169: 492G (3.1%, 965G)
mpghappiness: 345G (2.2%, 3,242G)
ConRar: 313G (2.0%, 313G)
roofiepops: 304G (1.9%, 304G)
CapnChaos12: 300G (1.9%, 9,844G)
ColetteMSLP: 300G (1.9%, 2,131G)
Miku_Shikhu: 100G (0.6%, 13,482G)
datadrivenbot: 100G (0.6%, 36,154G)
