Final Bets: green - 20 bets for 12,527G (70.3%, x0.42); yellow - 7 bets for 5,305G (29.7%, x2.36)

green bets:
OneHundredFists: 3,000G (23.9%, 56,460G)
Mesmaster: 2,000G (16.0%, 75,215G)
gorgewall: 1,001G (8.0%, 15,824G)
killth3kid: 1,000G (8.0%, 16,913G)
BirbBrainsBot: 1,000G (8.0%, 162,309G)
HaateXIII: 736G (5.9%, 736G)
placidphoenix: 540G (4.3%, 540G)
prince_rogers_nelson_: 500G (4.0%, 17,435G)
reinoe: 500G (4.0%, 9,947G)
getthemoneyz: 406G (3.2%, 931,460G)
solomongrundy85: 400G (3.2%, 11,184G)
WitchHunterIX: 292G (2.3%, 292G)
AllInBot: 258G (2.1%, 258G)
DAC169: 240G (1.9%, 473G)
ScarletSpiderBen: 150G (1.2%, 2,537G)
ConRar: 104G (0.8%, 104G)
Lythe_Caraker: 100G (0.8%, 116,598G)
datadrivenbot: 100G (0.8%, 36,054G)
Miku_Shikhu: 100G (0.8%, 13,382G)
ArkaiTiger: 100G (0.8%, 939G)

yellow bets:
helpimabug: 3,148G (59.3%, 6,425G)
Yiroep2: 500G (9.4%, 2,538G)
electric_algus: 400G (7.5%, 8,209G)
LAGBOT30000: 372G (7.0%, 372G)
mpghappiness: 345G (6.5%, 2,897G)
roofiepops: 304G (5.7%, 304G)
Spuzzmocker: 236G (4.4%, 236G)
