Final Bets: purple - 15 bets for 13,309G (58.6%, x0.71); brown - 16 bets for 9,418G (41.4%, x1.41)

purple bets:
OneHundredFists: 5,000G (37.6%, 58,926G)
reinoe: 2,000G (15.0%, 10,159G)
killth3kid: 1,000G (7.5%, 19,678G)
BirbBrainsBot: 1,000G (7.5%, 163,928G)
HASTERIOUS: 920G (6.9%, 920G)
LAGBOT30000: 817G (6.1%, 817G)
Spuzzmocker: 518G (3.9%, 518G)
nok____: 322G (2.4%, 4,496G)
getthemoneyz: 308G (2.3%, 931,998G)
helpimabug: 304G (2.3%, 304G)
ColetteMSLP: 300G (2.3%, 831G)
kaelsun: 292G (2.2%, 292G)
Lythe_Caraker: 250G (1.9%, 116,640G)
ScarletSpiderBen: 150G (1.1%, 2,900G)
placidphoenix: 128G (1.0%, 128G)

brown bets:
sinnyil2: 2,347G (24.9%, 2,347G)
HaateXIII: 2,301G (24.4%, 2,301G)
mpghappiness: 1,125G (11.9%, 2,207G)
AllInBot: 806G (8.6%, 806G)
vorap: 500G (5.3%, 144,554G)
prince_rogers_nelson_: 500G (5.3%, 17,647G)
CapnChaos12: 300G (3.2%, 9,248G)
fluffskull: 300G (3.2%, 1,091G)
wyonearth: 264G (2.8%, 264G)
Yiroep2: 250G (2.7%, 538G)
DAC169: 212G (2.3%, 212G)
aidanlucky7: 108G (1.1%, 108G)
ConRar: 104G (1.1%, 104G)
gorgewall: 101G (1.1%, 16,047G)
datadrivenbot: 100G (1.1%, 35,996G)
ArkaiTiger: 100G (1.1%, 881G)
