Final Bets: red - 15 bets for 25,064G (63.4%, x0.58); yellow - 14 bets for 14,455G (36.6%, x1.73)

red bets:
sinnyil2: 12,553G (50.1%, 25,106G)
AniZero: 5,668G (22.6%, 11,337G)
douchetron: 3,240G (12.9%, 3,240G)
killth3kid: 752G (3.0%, 23,217G)
latebit: 628G (2.5%, 628G)
Zeroroute: 500G (2.0%, 500G)
holdenmagronik: 352G (1.4%, 872G)
Tarheels218: 300G (1.2%, 784G)
skillomono: 299G (1.2%, 598G)
datadrivenbot: 200G (0.8%, 65,062G)
Docrad_: 172G (0.7%, 172G)
MinBetBot: 100G (0.4%, 6,207G)
AllInBot: 100G (0.4%, 100G)
ko2q: 100G (0.4%, 4,432G)
Thyrandaal: 100G (0.4%, 482,675G)

yellow bets:
DavenIII: 5,568G (38.5%, 79,550G)
Forkmore: 2,517G (17.4%, 2,517G)
toka222: 1,600G (11.1%, 160,349G)
BirbBrainsBot: 1,000G (6.9%, 49,463G)
WhiteTigress: 1,000G (6.9%, 6,562G)
SephDarkheart: 600G (4.2%, 103,759G)
skipsandwiches: 562G (3.9%, 562G)
Shalloween: 500G (3.5%, 14,609G)
getthemoneyz: 268G (1.9%, 1,668,111G)
xBizzy: 260G (1.8%, 4,089G)
PuzzleSecretary: 198G (1.4%, 198G)
gongonono: 150G (1.0%, 1,007G)
Skjodo: 132G (0.9%, 132G)
Bongomon7: 100G (0.7%, 2,195G)
