Final Bets: red - 13 bets for 6,368G (33.3%, x2.00); white - 12 bets for 12,766G (66.7%, x0.50)

red bets:
BirbBrainsBot: 1,000G (15.7%, 48,989G)
DavenIII: 1,000G (15.7%, 79,818G)
dogsandcatsand: 1,000G (15.7%, 14,974G)
WhiteTigress: 800G (12.6%, 6,193G)
douchetron: 600G (9.4%, 600G)
Error72: 500G (7.9%, 3,706G)
holdenmagronik: 352G (5.5%, 925G)
skipsandwiches: 340G (5.3%, 340G)
JonnyCue: 284G (4.5%, 4,729G)
getthemoneyz: 176G (2.8%, 1,667,895G)
gongonono: 116G (1.8%, 116G)
MinBetBot: 100G (1.6%, 6,318G)
ko2q: 100G (1.6%, 4,490G)

white bets:
toka222: 7,509G (58.8%, 155,549G)
Lord_Gwarth: 1,560G (12.2%, 2,964G)
Forkmore: 861G (6.7%, 861G)
Chuckolator: 631G (4.9%, 7,299G)
ShintaroNayaka: 592G (4.6%, 592G)
Shalloween: 400G (3.1%, 14,109G)
latebit: 380G (3.0%, 380G)
DesertWooder: 250G (2.0%, 2,530G)
datadrivenbot: 200G (1.6%, 65,282G)
PuzzleSecretary: 183G (1.4%, 183G)
AllInBot: 100G (0.8%, 100G)
Thyrandaal: 100G (0.8%, 482,786G)
