Final Bets: purple - 14 bets for 6,584G (52.4%, x0.91); brown - 12 bets for 5,992G (47.6%, x1.10)

purple bets:
SeniorBunk: 1,341G (20.4%, 1,341G)
Creggers: 1,000G (15.2%, 17,802G)
Laserman1000: 952G (14.5%, 952G)
NIghtdew14: 750G (11.4%, 22,018G)
moonliquor: 500G (7.6%, 27,687G)
killth3kid: 500G (7.6%, 500G)
douchetron: 289G (4.4%, 289G)
Treafa: 250G (3.8%, 1,279G)
roqqqpsi: 236G (3.6%, 1,579G)
mirapoix: 200G (3.0%, 2,995G)
datadrivenbot: 200G (3.0%, 40,632G)
TheeBennison: 200G (3.0%, 872G)
RuneS_77: 100G (1.5%, 12,895G)
getthemoneyz: 66G (1.0%, 1,374,506G)

brown bets:
Spartan_Paladin: 1,500G (25.0%, 41,503G)
BirbBrainsBot: 1,000G (16.7%, 42,302G)
Zagorsek: 960G (16.0%, 1,920G)
coralreeferz: 750G (12.5%, 34,225G)
benticore: 500G (8.3%, 33,796G)
AllInBot: 285G (4.8%, 285G)
Hirameki85: 227G (3.8%, 3,027G)
holdenmagronik: 224G (3.7%, 1,020G)
ArlanKels: 200G (3.3%, 3,620G)
winteriscorning: 200G (3.3%, 2,029G)
mrpickins: 100G (1.7%, 748G)
nhammen: 46G (0.8%, 4,600G)
