Final Bets: red - 14 bets for 7,317G (21.3%, x3.70); yellow - 16 bets for 27,079G (78.7%, x0.27)

red bets:
JonnyCue: 1,190G (16.3%, 11,190G)
JCBooBot: 1,000G (13.7%, 52,686G)
ruleof5: 1,000G (13.7%, 23,246G)
BirbBrainsBot: 872G (11.9%, 83,432G)
Laserman1000: 700G (9.6%, 14,500G)
killth3kid: 544G (7.4%, 793G)
WhiteTigress: 500G (6.8%, 11,139G)
holdenmagronik: 368G (5.0%, 368G)
Tarheels218: 341G (4.7%, 341G)
MagikarpPKMN: 300G (4.1%, 734G)
datadrivenbot: 200G (2.7%, 59,016G)
krombobreaker: 200G (2.7%, 940G)
arumz: 100G (1.4%, 1,576G)
getthemoneyz: 2G (0.0%, 1,758,966G)

yellow bets:
HaateXIII: 9,968G (36.8%, 9,968G)
SkylerBunny: 5,533G (20.4%, 5,533G)
reinoe: 3,000G (11.1%, 70,412G)
Forkmore: 1,090G (4.0%, 1,090G)
Dasutin23: 1,000G (3.7%, 38,753G)
Thyrandaal: 1,000G (3.7%, 97,293G)
Wonser: 1,000G (3.7%, 9,117G)
DavenIII: 956G (3.5%, 956G)
dogsandcatsand: 829G (3.1%, 829G)
E_Ballard: 788G (2.9%, 68,124G)
Lord_Gwarth: 615G (2.3%, 615G)
Runeseeker22: 500G (1.8%, 1,757G)
DLJuggernaut: 500G (1.8%, 1,097G)
AllInBot: 100G (0.4%, 100G)
ko2q: 100G (0.4%, 4,309G)
HS39: 100G (0.4%, 318G)
