Final Bets: black - 11 bets for 8,912G (64.1%, x0.56); purple - 15 bets for 4,986G (35.9%, x1.79)

black bets:
KittymanAdvance: 1,826G (20.5%, 1,826G)
Breakdown777: 1,500G (16.8%, 81,490G)
BirbBrainsBot: 1,000G (11.2%, 51,518G)
nifboy: 818G (9.2%, 818G)
powergems: 777G (8.7%, 10,566G)
LordSDB: 700G (7.9%, 15,443G)
JumbocactuarX27: 686G (7.7%, 686G)
OppressivelyMinty: 500G (5.6%, 4,977G)
NovaKnight21: 472G (5.3%, 472G)
TheChainNerd: 450G (5.0%, 6,450G)
Zachara: 183G (2.1%, 101,883G)

purple bets:
edgehead62888: 1,000G (20.1%, 33,031G)
maakur_: 696G (14.0%, 696G)
Bryon_W: 500G (10.0%, 1,220G)
eudes89: 500G (10.0%, 8,054G)
actual_JP: 440G (8.8%, 440G)
serperemagus: 400G (8.0%, 400G)
DustBirdEX: 372G (7.5%, 372G)
Anak761: 250G (5.0%, 9,150G)
AltimaMantoid: 204G (4.1%, 204G)
silentkaster: 150G (3.0%, 1,103G)
AllInBot: 100G (2.0%, 100G)
datadrivenbot: 100G (2.0%, 40,986G)
IphoneDarkness: 100G (2.0%, 2,502G)
E_Ballard: 100G (2.0%, 9,692G)
getthemoneyz: 74G (1.5%, 959,187G)
