Final Bets: white - 7 bets for 6,098G (29.0%, x2.44); black - 18 bets for 14,894G (71.0%, x0.41)

white bets:
roofiepops: 3,586G (58.8%, 3,586G)
reinoe: 1,000G (16.4%, 53,714G)
getthemoneyz: 612G (10.0%, 1,919,989G)
ser_pyrro: 600G (9.8%, 4,153G)
heyBtw: 100G (1.6%, 2,684G)
maakur_: 100G (1.6%, 5,788G)
mrfripps: 100G (1.6%, 12,047G)

black bets:
Willjin: 3,000G (20.1%, 46,264G)
Mesmaster: 3,000G (20.1%, 274,010G)
latebit: 1,644G (11.0%, 1,644G)
Zeroroute: 1,643G (11.0%, 4,834G)
BirbBrainsBot: 1,000G (6.7%, 67,273G)
DracoknightZero: 857G (5.8%, 857G)
Thyrandaal: 776G (5.2%, 776G)
Riley331: 598G (4.0%, 598G)
dogsandcatsand: 596G (4.0%, 596G)
Cryptopsy70: 364G (2.4%, 632G)
Leonidusx: 351G (2.4%, 351G)
Smugzug: 264G (1.8%, 264G)
KasugaiRoastedPeas: 200G (1.3%, 2,272G)
datadrivenbot: 200G (1.3%, 59,708G)
gorgewall: 101G (0.7%, 8,704G)
BartTradingCompany: 100G (0.7%, 5,972G)
AllInBot: 100G (0.7%, 100G)
let_them_eat_the_rich: 100G (0.7%, 497G)
