High Risers:
1. Snowfats: +13,460G
2. Deathtaxesandanime: +8,251G
3. Onehundredfists: +7,954G
4. Reinoe: +7,578G
5. Mesmaster: +7,215G
6. Upvla: +3,571G
7. Skillomono: +2,741G
8. Shalloween: +2,668G
9. Loveyouallfriends: +2,541G
10. Roofiepops: +1,656G
11. Hotpocketsofficial: +1,571G
12. Anfz: +1,349G
13. Hojimitsu: +1,046G
14. Technominari: +866G
15. Biske13: +778G
16. Moshyhero: +335G
17. Seppu777: +302G
18. Smashy: +162G
19. Dogsandcatsand: +143G
20. Bappletrees: +143G
21. J_macc1991: +113G
22. Chuckolator: +66G
23. Chichirodriguez: +57G
24. Riley331: +56G
25. Superdevon1: +50G
26. Wildvol: +24G
27. Fenaen: +4G
28. Ribbiks: -22G
29. Heybtw: -49G
30. Aceof86: -95G
31. Runicmagus: -100G
32. Maakur_: -100G
33. Corpuscav: -124G
34. Lord_gwarth: -150G
35. Daveb_: -151G
36. Lijarkh: -183G
37. Nhammen: -200G
38. Cosmictactician: -200G
39. Dasutin23: -200G
40. Kellios11: -200G
41. Dracoknightzero: -260G
42. Rndorchestra: -264G
43. Run_with_stone_guns: -300G
44. Poorest_hobo: -309G
45. Formerlydrdong: -381G
46. Seaweed_b: -400G
47. Phi_sig: -400G
48. Khelor_: -424G
49. Sietaha: -467G
50. Lythe_caraker: -500G
51. Lowlf: -500G
52. Wrath189: -500G
53. Powergems: -777G
54. Segomod: -1,000G
55. Leonidusx: -1,000G
56. E_ballard: -1,000G
57. Memoriesoffinal: -1,200G
58. Laserman1000: -1,229G
59. Silentkaster: -1,250G
60. Valensexp_: -1,306G
61. Sinnyil2: -1,500G
62. Raixelol: -1,588G
63. Krombobreaker: -1,695G
64. Resjudicata3: -1,861G
65. Mindblownnnn: -1,883G
66. Nicosavoy: -2,000G
67. Anizero: -2,611G
68. Latebit: -2,725G
69. Dljuggernaut: -2,800G
70. Thyrandaal: -3,501G
71. Thunderducker: -4,944G
72. Error72: -5,661G
73. Chihuahua_charity: -6,384G
74. Nickyfive: -24,912G
