Final Bets: black - 29 bets for 13,772G (45.5%, x1.20); brown - 21 bets for 16,479G (54.5%, x0.84)

black bets:
HaplessOne: 1,234G (9.0%, 20,243G)
DeathTaxesAndAnime: 1,119G (8.1%, 2,196G)
killth3kid: 1,000G (7.3%, 48,028G)
BirbBrainsBot: 1,000G (7.3%, 142,181G)
ungabunga_bot: 1,000G (7.3%, 286,548G)
JumbocactuarX27: 1,000G (7.3%, 17,528G)
Jahshine: 698G (5.1%, 698G)
YaBoy125: 620G (4.5%, 620G)
Aldrammech: 600G (4.4%, 600G)
ApplesauceBoss: 600G (4.4%, 600G)
superdevon1: 586G (4.3%, 31,544G)
Estan_AD: 550G (4.0%, 550G)
roofiepops: 444G (3.2%, 11,637G)
CoderCalamity: 431G (3.1%, 1,437G)
Rislyeu: 367G (2.7%, 367G)
Realitydown: 332G (2.4%, 332G)
Grimmace45: 292G (2.1%, 292G)
Wonser: 292G (2.1%, 292G)
getthemoneyz: 278G (2.0%, 607,117G)
Arlum: 250G (1.8%, 1,732G)
vorap: 200G (1.5%, 26,066G)
coralreeferz: 150G (1.1%, 2,858G)
midori_ribbon: 125G (0.9%, 3,306G)
bairen0: 104G (0.8%, 104G)
nifboy: 100G (0.7%, 7,784G)
Dymntd: 100G (0.7%, 8,916G)
ko2q: 100G (0.7%, 9,334G)
moonliquor: 100G (0.7%, 383G)
Bioticism: 100G (0.7%, 3,979G)

brown bets:
reinoe: 3,259G (19.8%, 6,518G)
Pie108: 2,000G (12.1%, 169,923G)
Shalloween: 2,000G (12.1%, 57,935G)
Zeroroute: 1,727G (10.5%, 4,652G)
hydroshade: 1,000G (6.1%, 4,347G)
Lionhermit: 1,000G (6.1%, 43,318G)
Conome: 848G (5.1%, 848G)
powergems: 777G (4.7%, 13,555G)
TheMurkGnome: 548G (3.3%, 4,960G)
SarrgeQc: 500G (3.0%, 7,226G)
ZephyrTempest: 456G (2.8%, 1,133G)
DrAntiSocial: 420G (2.5%, 9,395G)
b0shii: 420G (2.5%, 14,368G)
itzover9001: 324G (2.0%, 324G)
CapnSauce420: 250G (1.5%, 3,884G)
Nova_riety: 250G (1.5%, 4,719G)
Error72: 250G (1.5%, 2,099G)
jhaller2: 200G (1.2%, 4,962G)
Evewho: 100G (0.6%, 9,395G)
datadrivenbot: 100G (0.6%, 10,947G)
Sykper: 50G (0.3%, 3,600G)
