Final Bets: black - 17 bets for 19,908G (63.4%, x0.58); brown - 8 bets for 11,483G (36.6%, x1.73)

black bets:
dogsandcatsand: 10,435G (52.4%, 20,462G)
NicoSavoy: 2,000G (10.0%, 49,424G)
Runeseeker22: 1,402G (7.0%, 9,353G)
BirbBrainsBot: 1,000G (5.0%, 80,220G)
Sairentozon7: 1,000G (5.0%, 15,608G)
Arcblazer23: 1,000G (5.0%, 10,807G)
thunderducker: 777G (3.9%, 3,502G)
krombobreaker: 500G (2.5%, 10,877G)
ribbiks: 500G (2.5%, 3,921G)
killth3kid: 300G (1.5%, 31,500G)
getthemoneyz: 244G (1.2%, 1,921,858G)
datadrivenbot: 200G (1.0%, 58,770G)
PukingGoombas: 150G (0.8%, 2,616G)
AllInBot: 100G (0.5%, 100G)
BartTradingCompany: 100G (0.5%, 5,154G)
DeathTaxesAndAnime: 100G (0.5%, 2,660G)
ccrunnertempest: 100G (0.5%, 1,000G)

brown bets:
Thyrandaal: 5,761G (50.2%, 11,298G)
HaateXIII: 2,098G (18.3%, 4,197G)
nekojin: 1,000G (8.7%, 26,382G)
upvla: 994G (8.7%, 994G)
Raixelol: 600G (5.2%, 600G)
Zagorsek: 408G (3.6%, 408G)
Xeiphyer: 346G (3.0%, 346G)
acid_flashback: 276G (2.4%, 5,538G)
