Final Bets: blue - 22 bets for 9,834G (37.9%, x1.64); green - 23 bets for 16,135G (62.1%, x0.61)

blue bets:
Zetchryn: 2,067G (21.0%, 2,067G)
RongRongArts: 1,100G (11.2%, 20,346G)
EnemyController: 721G (7.3%, 721G)
sinnyil2: 648G (6.6%, 648G)
Lanshaft: 600G (6.1%, 9,128G)
reinoe: 520G (5.3%, 520G)
DarrenDinosaurs: 500G (5.1%, 10,706G)
urieltheflameofgod: 500G (5.1%, 2,922G)
red__lancer: 500G (5.1%, 17,076G)
AllInBot: 412G (4.2%, 412G)
CorpusCav: 400G (4.1%, 4,676G)
DHaveWord: 324G (3.3%, 324G)
SolarisFall: 308G (3.1%, 308G)
getthemoneyz: 284G (2.9%, 400,419G)
L2_Sentinel: 200G (2.0%, 14,382G)
RunicMagus: 200G (2.0%, 20,830G)
BadBlanket: 100G (1.0%, 2,450G)
ApplesauceBoss: 100G (1.0%, 4,595G)
DeathTaxesAndAnime: 100G (1.0%, 3,630G)
datadrivenbot: 100G (1.0%, 15,215G)
alrightbye: 100G (1.0%, 956G)
Sairentozon7: 50G (0.5%, 2,398G)

green bets:
PatSouI: 3,241G (20.1%, 3,241G)
Virilikus: 2,195G (13.6%, 10,976G)
Aldrammech: 2,043G (12.7%, 20,431G)
KupoKel: 1,161G (7.2%, 1,161G)
BirbBrainsBot: 1,000G (6.2%, 129,097G)
bad1dea: 1,000G (6.2%, 339,835G)
OmnibotGamma: 989G (6.1%, 989G)
Cataphract116: 925G (5.7%, 925G)
Oreo_Pizza: 500G (3.1%, 11,043G)
Laserman1000: 500G (3.1%, 500G)
roofiepops: 400G (2.5%, 3,398G)
Vyroxe: 354G (2.2%, 354G)
Theseawolf1: 292G (1.8%, 292G)
ZephyrTempest: 221G (1.4%, 23,265G)
ugoplatamia: 200G (1.2%, 6,968G)
KasugaiRoastedPeas: 200G (1.2%, 31,484G)
Weretigress: 200G (1.2%, 1,411G)
Pah_J: 200G (1.2%, 1,357G)
TheRobbieRobster: 164G (1.0%, 164G)
moonliquor: 100G (0.6%, 229G)
HashtagRob_: 100G (0.6%, 1,142G)
SeedSC: 100G (0.6%, 99,758G)
cougboi: 50G (0.3%, 3,436G)
