Final Bets: white - 18 bets for 7,895G (33.1%, x2.02); purple - 17 bets for 15,970G (66.9%, x0.49)

white bets:
Shakarak: 1,200G (15.2%, 21,640G)
theNGUYENNER: 1,000G (12.7%, 3,502G)
Lionhermit: 1,000G (12.7%, 38,969G)
Estan_AD: 882G (11.2%, 882G)
Dymntd: 500G (6.3%, 15,335G)
ZephyrTempest: 456G (5.8%, 3,672G)
maakur_: 408G (5.2%, 408G)
RestIessNight: 407G (5.2%, 407G)
Tithonus: 312G (4.0%, 312G)
cupholderr: 300G (3.8%, 2,279G)
twelfthrootoftwo: 300G (3.8%, 1,029G)
Chuckolator: 298G (3.8%, 7,612G)
dogsandcatsand: 228G (2.9%, 228G)
mikesk1: 200G (2.5%, 916G)
CustomGameMaster: 104G (1.3%, 104G)
ANFz: 100G (1.3%, 32,432G)
sir_sugarboogerz: 100G (1.3%, 100G)
datadrivenbot: 100G (1.3%, 13,377G)

purple bets:
mannequ1n: 2,805G (17.6%, 2,805G)
reinoe: 2,000G (12.5%, 17,614G)
R_Raynos: 2,000G (12.5%, 22,258G)
NicoSavoy: 2,000G (12.5%, 10,584G)
LanseDM: 1,500G (9.4%, 24,283G)
DeathTaxesAndAnime: 1,333G (8.3%, 1,333G)
ungabunga_bot: 1,000G (6.3%, 425,706G)
Lali_Lulelo: 973G (6.1%, 973G)
CorpusCav: 550G (3.4%, 4,116G)
gorgewall: 300G (1.9%, 3,891G)
SirCherish: 300G (1.9%, 1,333G)
CapnChaos12: 300G (1.9%, 300G)
BirbBrainsBot: 246G (1.5%, 138,457G)
genoguy: 220G (1.4%, 220G)
duckfist: 220G (1.4%, 220G)
Velixtra: 167G (1.0%, 167G)
getthemoneyz: 56G (0.4%, 647,395G)
