Final Bets: yellow - 12 bets for 3,860G (17.6%, x4.69); white - 18 bets for 18,097G (82.4%, x0.21)

yellow bets:
nekojin: 548G (14.2%, 548G)
TsukikageRyu: 500G (13.0%, 2,622G)
Smashy: 500G (13.0%, 6,711G)
getthemoneyz: 422G (10.9%, 1,879,103G)
Zeroroute: 356G (9.2%, 356G)
Panushenko: 356G (9.2%, 356G)
latebit: 336G (8.7%, 3,007G)
akash7: 243G (6.3%, 3,443G)
velvet_muffins: 210G (5.4%, 210G)
mindblownnnn: 200G (5.2%, 200G)
farside00831: 100G (2.6%, 594G)
BartTradingCompany: 89G (2.3%, 892G)

white bets:
Mesmaster: 5,000G (27.6%, 171,928G)
snkey: 4,700G (26.0%, 65,556G)
resjudicata3: 1,151G (6.4%, 1,151G)
BirbBrainsBot: 1,000G (5.5%, 109,304G)
NicoSavoy: 1,000G (5.5%, 8,768G)
Rislyeu: 1,000G (5.5%, 12,019G)
upvla: 899G (5.0%, 36,398G)
ANFz: 694G (3.8%, 694G)
krombobreaker: 500G (2.8%, 3,935G)
Leonidusx: 500G (2.8%, 5,846G)
heyBtw: 335G (1.9%, 3,351G)
Meta_Five: 300G (1.7%, 5,792G)
MemoriesofFinal: 222G (1.2%, 1,222G)
ValensEXP_: 220G (1.2%, 1,265G)
datadrivenbot: 200G (1.1%, 56,867G)
AllInBot: 143G (0.8%, 143G)
Lydian_C: 123G (0.7%, 6,554G)
Thranduil_: 110G (0.6%, 1,109G)
