Final Bets: red - 17 bets for 6,653G (35.2%, x1.84); blue - 20 bets for 12,253G (64.8%, x0.54)

red bets:
Fenrislfr: 1,660G (25.0%, 16,604G)
Tougou: 1,061G (15.9%, 1,061G)
Aldrammech: 1,000G (15.0%, 52,675G)
Shalloween: 500G (7.5%, 62,160G)
fenaen: 500G (7.5%, 29,030G)
nifboy: 310G (4.7%, 6,208G)
WittyNames: 300G (4.5%, 1,627G)
ericzubat: 208G (3.1%, 208G)
Anox_Skell: 200G (3.0%, 2,660G)
urieltheflameofgod: 200G (3.0%, 26,814G)
byrdturbo: 169G (2.5%, 8,655G)
ZephyrTempest: 101G (1.5%, 160,659G)
ApplesauceBoss: 100G (1.5%, 11,469G)
datadrivenbot: 100G (1.5%, 1,429G)
SquidgyXom: 100G (1.5%, 10,153G)
FriendSquirrel: 100G (1.5%, 24,430G)
daveb_: 44G (0.7%, 5,115G)

blue bets:
omegasuspekt: 2,671G (21.8%, 5,342G)
Lord_Burrah: 2,000G (16.3%, 92,000G)
roofiepops: 1,000G (8.2%, 17,256G)
ungabunga_bot: 1,000G (8.2%, 177,188G)
BirbBrainsBot: 1,000G (8.2%, 7,158G)
Nizaha: 501G (4.1%, 2,862G)
MeleeWizard: 500G (4.1%, 3,471G)
RunicMagus: 500G (4.1%, 36,734G)
JIDkomu: 500G (4.1%, 12,573G)
flowinprose: 500G (4.1%, 63,465G)
roqqqpsi: 441G (3.6%, 441G)
luminarii: 350G (2.9%, 22,492G)
Lanshaft: 336G (2.7%, 897G)
rico_flex: 300G (2.4%, 13,216G)
Chuckolator: 232G (1.9%, 22,147G)
AllInBot: 100G (0.8%, 100G)
mexskacin: 100G (0.8%, 7,560G)
Lordminsc: 100G (0.8%, 27,148G)
Jeeboheebo: 100G (0.8%, 6,493G)
getthemoneyz: 22G (0.2%, 515,768G)
