Final Bets: blue - 17 bets for 5,710G (28.8%, x2.47); yellow - 15 bets for 14,087G (71.2%, x0.41)

blue bets:
BirbBrainsBot: 1,000G (17.5%, 184,591G)
FatTunaKing: 622G (10.9%, 622G)
krombobreaker: 500G (8.8%, 27,582G)
old_overholt_: 500G (8.8%, 63,663G)
DarrenDinosaurs: 500G (8.8%, 17,849G)
reddwind_: 488G (8.5%, 488G)
JonnyCue: 464G (8.1%, 10,186G)
Lolthsmeat: 312G (5.5%, 3,592G)
TheBrett: 260G (4.6%, 260G)
CosmicTactician: 200G (3.5%, 2,223G)
datadrivenbot: 200G (3.5%, 81,237G)
Shalloween: 200G (3.5%, 8,105G)
yagyuudarkness: 108G (1.9%, 108G)
maakur_: 100G (1.8%, 1,599G)
wizzo66: 100G (1.8%, 548G)
Yangusburger: 100G (1.8%, 27,516G)
getthemoneyz: 56G (1.0%, 2,131,137G)

yellow bets:
DavenIII: 3,162G (22.4%, 31,626G)
Nizaha: 2,001G (14.2%, 4,002G)
reinoe: 2,000G (14.2%, 25,693G)
Lyner87: 1,049G (7.4%, 1,049G)
E_Ballard: 1,008G (7.2%, 1,008G)
Lord_Gwarth: 1,000G (7.1%, 3,454G)
killth3kid: 804G (5.7%, 35,273G)
fenaen: 660G (4.7%, 19,004G)
lowlf: 636G (4.5%, 8,279G)
AllInBot: 448G (3.2%, 448G)
Runeseeker22: 431G (3.1%, 8,639G)
CorpusCav: 400G (2.8%, 30,583G)
CapnChaos12: 300G (2.1%, 3,312G)
pteraranger: 138G (1.0%, 12,538G)
king_smashington: 50G (0.4%, 617G)
