High Risers:
1. Mesmaster: +8,584G
2. Seppu777: +2,763G
3. Reinoe: +2,668G
4. Sinnyil2: +2,251G
5. Shadowninja25: +2,125G
6. Nizaha: +1,999G
7. Treafa: +1,997G
8. Resjudicata3: +1,679G
9. Colettemslp: +1,075G
10. Zagorsek: +1,016G
11. Corpuscav: +811G
12. Otakutaylor: +639G
13. Ericzubat: +513G
14. Scsuperstar: +408G
15. Lightsct: +361G
16. Kilrazin: +285G
17. King_smashington: +242G
18. Danielrknealeart: +241G
19. Altimamantoid: +197G
20. Firesheath: +151G
21. Volgrathemoose: +101G
22. Maakur_: +91G
23. Gilgamensche: +80G
24. Galkife: +61G
25. Killth3kid: +4G
26. Deathtaxesandanime: -76G
27. Actual_jp: -100G
28. Tithonus: -124G
29. Phi_sig: -196G
30. Hasterious: -200G
31. 0v3rr8d: -200G
32. Zephxroth: -200G
33. Gorgewall: -256G
34. Cryptopsy70: -271G
35. Krombobreaker: -314G
36. Laserman1000: -352G
37. Genkidou: -490G
38. Nekojin: -500G
39. Ribbiks: -552G
40. Itsonlyspencer: -652G
41. Snarkmage: -669G
42. Lord_gwarth: -729G
43. Dasutin23: -740G
44. Sephdarkheart: -744G
45. Valensexp_: -749G
46. Robespyah: -793G
47. Craymel_mage: -838G
48. Shalloween: -1,000G
49. Anfz: -1,000G
50. Foesquirrel: -1,152G
51. Leonidusx: -1,400G
52. Jonnycue: -1,468G
53. Roofiepops: -1,474G
54. Evdoggity: -1,500G
55. Forkmore: -1,767G
56. Willjin: -1,800G
57. Dogsandcatsand: -1,863G
58. Error72: -2,002G
59. Pplvee1: -9,803G
