Final Bets: purple - 17 bets for 11,454G (43.5%, x1.30); brown - 11 bets for 14,902G (56.5%, x0.77)

purple bets:
FoeSquirrel: 4,031G (35.2%, 8,063G)
robespyah: 1,000G (8.7%, 1,427G)
gorgewall: 926G (8.1%, 926G)
killth3kid: 624G (5.4%, 624G)
nekojin: 588G (5.1%, 588G)
seppu777: 555G (4.8%, 9,649G)
Dasutin23: 540G (4.7%, 12,277G)
krombobreaker: 500G (4.4%, 15,010G)
CorpusCav: 500G (4.4%, 4,561G)
resjudicata3: 484G (4.2%, 484G)
Treafa: 396G (3.5%, 14,206G)
Tithonus: 360G (3.1%, 360G)
AllInBot: 260G (2.3%, 260G)
otakutaylor: 200G (1.7%, 3,709G)
datadrivenbot: 200G (1.7%, 71,309G)
ZephXrotH: 200G (1.7%, 819G)
kilrazin: 90G (0.8%, 545G)

brown bets:
Mesmaster: 7,686G (51.6%, 15,372G)
reinoe: 2,000G (13.4%, 24,811G)
Zagorsek: 1,106G (7.4%, 1,106G)
BirbBrainsBot: 1,000G (6.7%, 20,854G)
getthemoneyz: 1,000G (6.7%, 2,029,801G)
Nizaha: 868G (5.8%, 69,720G)
Lord_Gwarth: 596G (4.0%, 596G)
SnarkMage: 211G (1.4%, 422G)
ribbiks: 200G (1.3%, 5,788G)
DeathTaxesAndAnime: 135G (0.9%, 1,965G)
Firesheath: 100G (0.7%, 2,719G)
