Final Bets: blue - 9 bets for 9,123G (48.1%, x1.08); green - 14 bets for 9,838G (51.9%, x0.93)

blue bets:
pplvee1: 5,000G (54.8%, 10,998G)
BirbBrainsBot: 1,000G (11.0%, 21,623G)
Nizaha: 868G (9.5%, 70,387G)
gorgewall: 712G (7.8%, 712G)
killth3kid: 624G (6.8%, 624G)
robespyah: 427G (4.7%, 427G)
SnarkMage: 292G (3.2%, 584G)
Firesheath: 100G (1.1%, 2,796G)
king_smashington: 100G (1.1%, 744G)

green bets:
FoeSquirrel: 2,016G (20.5%, 4,032G)
Mesmaster: 2,000G (20.3%, 21,280G)
sinnyil2: 1,200G (12.2%, 166,566G)
seppu777: 999G (10.2%, 9,094G)
CorpusCav: 999G (10.2%, 4,061G)
krombobreaker: 500G (5.1%, 14,510G)
getthemoneyz: 492G (5.0%, 2,030,570G)
resjudicata3: 372G (3.8%, 372G)
Tithonus: 360G (3.7%, 360G)
ColetteMSLP: 300G (3.0%, 4,750G)
AllInBot: 200G (2.0%, 200G)
datadrivenbot: 200G (2.0%, 71,109G)
galkife: 100G (1.0%, 76,494G)
kilrazin: 100G (1.0%, 455G)
