Final Bets: green - 15 bets for 7,850G (48.7%, x1.05); black - 12 bets for 8,279G (51.3%, x0.95)

green bets:
Craymel_Mage: 1,066G (13.6%, 1,066G)
Error72: 1,001G (12.8%, 24,007G)
Forkmore: 1,000G (12.7%, 9,002G)
BirbBrainsBot: 1,000G (12.7%, 22,410G)
gorgewall: 985G (12.5%, 985G)
killth3kid: 624G (7.9%, 624G)
CorpusCav: 543G (6.9%, 4,543G)
Tithonus: 360G (4.6%, 360G)
seppu777: 333G (4.2%, 10,615G)
robespyah: 300G (3.8%, 300G)
AllInBot: 200G (2.5%, 200G)
datadrivenbot: 200G (2.5%, 71,651G)
galkife: 100G (1.3%, 76,587G)
maakur_: 100G (1.3%, 7,845G)
getthemoneyz: 38G (0.5%, 2,031,201G)

black bets:
reinoe: 2,000G (24.2%, 24,348G)
sinnyil2: 1,200G (14.5%, 167,679G)
resjudicata3: 999G (12.1%, 999G)
Nizaha: 868G (10.5%, 68,651G)
dogsandcatsand: 696G (8.4%, 4,189G)
Lord_Gwarth: 596G (7.2%, 596G)
Laserman1000: 504G (6.1%, 20,104G)
krombobreaker: 500G (6.0%, 15,868G)
pplvee1: 408G (4.9%, 408G)
ColetteMSLP: 300G (3.6%, 5,564G)
kilrazin: 108G (1.3%, 741G)
king_smashington: 100G (1.2%, 823G)
