Final Bets: white - 16 bets for 6,368G (36.7%, x1.73); brown - 21 bets for 11,003G (63.3%, x0.58)

white bets:
BirbBrainsBot: 1,000G (15.7%, 82,782G)
eltejongrande: 901G (14.1%, 901G)
DaveStrider55: 716G (11.2%, 716G)
Aldrammech: 600G (9.4%, 600G)
volgrathemoose: 568G (8.9%, 568G)
ForestMagi: 455G (7.1%, 455G)
b0shii: 321G (5.0%, 611G)
ZephyrTempest: 315G (4.9%, 53,309G)
TheMurkGnome: 302G (4.7%, 2,842G)
getthemoneyz: 288G (4.5%, 475,398G)
JackOnFire1: 252G (4.0%, 252G)
DrAntiSocial: 250G (3.9%, 1,368G)
sixstop: 100G (1.6%, 2,507G)
Heroebal: 100G (1.6%, 2,229G)
silentperogy: 100G (1.6%, 16,788G)
Langrisser: 100G (1.6%, 4,943G)

brown bets:
SolarisFall: 2,059G (18.7%, 20,596G)
Baron_von_Scrub: 1,234G (11.2%, 18,065G)
loveyouallfriends: 1,000G (9.1%, 36,676G)
JumbocactuarX27: 906G (8.2%, 906G)
HaateXIII: 686G (6.2%, 3,030G)
nifboy: 616G (5.6%, 616G)
Lanshaft: 600G (5.5%, 7,090G)
Zeroroute: 600G (5.5%, 600G)
BlinkFS: 500G (4.5%, 37,384G)
Laserman1000: 500G (4.5%, 11,800G)
AllInBot: 376G (3.4%, 376G)
datadrivenbot: 373G (3.4%, 23,145G)
jhaller2: 300G (2.7%, 4,479G)
dennarai: 250G (2.3%, 25,572G)
KasugaiRoastedPeas: 200G (1.8%, 14,080G)
SkepticalMinotaur: 200G (1.8%, 5,947G)
Tithonus: 200G (1.8%, 13,067G)
ungabunga_bot: 103G (0.9%, 108,494G)
ApplesauceBoss: 100G (0.9%, 1,371G)
Lordminsc: 100G (0.9%, 8,605G)
TimeJannies: 100G (0.9%, 100G)
