Final Bets: white - 16 bets for 7,956G (28.2%, x2.54); brown - 24 bets for 20,245G (71.8%, x0.39)

white bets:
Kojigawatz: 1,274G (16.0%, 1,274G)
Zbgs: 1,000G (12.6%, 44,376G)
roqqqpsi: 803G (10.1%, 803G)
CCRUNNER149UWP: 707G (8.9%, 707G)
Aldrammech: 600G (7.5%, 600G)
RughSontos: 504G (6.3%, 504G)
NytFantom: 500G (6.3%, 6,102G)
Breakdown777: 500G (6.3%, 6,899G)
sinnyil2: 500G (6.3%, 19,755G)
reinoe: 500G (6.3%, 7,625G)
DudeMonkey77: 333G (4.2%, 5,057G)
AllInBot: 201G (2.5%, 201G)
Kronikle: 200G (2.5%, 3,984G)
mpghappiness: 200G (2.5%, 1,000G)
Lordminsc: 100G (1.3%, 5,153G)
getthemoneyz: 34G (0.4%, 471,521G)

brown bets:
catfashions: 3,839G (19.0%, 3,839G)
Laserman1000: 2,400G (11.9%, 2,400G)
mivvim: 2,116G (10.5%, 2,116G)
Zeroroute: 1,693G (8.4%, 3,764G)
kai_shee: 1,001G (4.9%, 120,133G)
Jerboj: 1,000G (4.9%, 39,440G)
BirbBrainsBot: 1,000G (4.9%, 68,668G)
MantisFinch: 1,000G (4.9%, 12,765G)
Conome: 1,000G (4.9%, 3,034G)
datadrivenbot: 789G (3.9%, 23,240G)
Lanshaft: 600G (3.0%, 11,342G)
nifboy: 500G (2.5%, 2,381G)
silentperogy: 500G (2.5%, 16,647G)
MoonSlayerRS: 436G (2.2%, 436G)
roofiepops: 380G (1.9%, 380G)
ZephyrTempest: 369G (1.8%, 50,661G)
JustSuperish: 343G (1.7%, 343G)
b0shii: 333G (1.6%, 2,383G)
fallendj77: 244G (1.2%, 244G)
ungabunga_bot: 220G (1.1%, 111,114G)
organizing_secrets: 200G (1.0%, 1,299G)
edgehead62888: 132G (0.7%, 132G)
maakur_: 100G (0.5%, 7,577G)
DrAntiSocial: 50G (0.2%, 1,542G)
