Final Bets: red - 17 bets for 9,213G (69.3%, x0.44); blue - 9 bets for 4,089G (30.7%, x2.25)

red bets:
DeathTaxesAndAnime: 2,061G (22.4%, 2,061G)
BirbBrainsBot: 1,000G (10.9%, 65,942G)
terminusterminal: 1,000G (10.9%, 10,993G)
nhammen: 1,000G (10.9%, 76,079G)
blorpy_: 694G (7.5%, 8,683G)
gorgewall: 608G (6.6%, 608G)
CT_5_Holy: 496G (5.4%, 496G)
Powermhero: 448G (4.9%, 32,448G)
getthemoneyz: 366G (4.0%, 1,514,047G)
Lumberinjack: 300G (3.3%, 5,835G)
MonchoStrife: 224G (2.4%, 224G)
Laserman1000: 204G (2.2%, 1,904G)
PantherIscariot: 200G (2.2%, 4,527G)
amsans1247: 200G (2.2%, 3,582G)
datadrivenbot: 200G (2.2%, 49,714G)
Gunz232323: 112G (1.2%, 112G)
Drusiform: 100G (1.1%, 1,899G)

blue bets:
Shalloween: 1,400G (34.2%, 43,341G)
TheMurkGnome: 700G (17.1%, 60,228G)
HaateXIII: 600G (14.7%, 6,147G)
ko2q: 568G (13.9%, 568G)
LordTomS: 271G (6.6%, 271G)
AllInBot: 200G (4.9%, 200G)
holdenmagronik: 150G (3.7%, 1,111G)
douchetron: 100G (2.4%, 20,642G)
Brainstew29: 100G (2.4%, 37,350G)
