Final Bets: white - 17 bets for 5,980G (28.2%, x2.54); black - 18 bets for 15,210G (71.8%, x0.39)

white bets:
HaplessOne: 1,234G (20.6%, 93,471G)
Aldrammech: 1,000G (16.7%, 33,733G)
Mesmaster: 1,000G (16.7%, 49,914G)
eudes89: 500G (8.4%, 1,647G)
Tsuike: 316G (5.3%, 316G)
Lionhermit: 300G (5.0%, 300G)
aeonicvector: 258G (4.3%, 258G)
wooyuji: 212G (3.5%, 212G)
JLinkletter: 200G (3.3%, 1,927G)
uwuslayer15: 200G (3.3%, 551G)
GladiatorLupe: 200G (3.3%, 800G)
KasugaiRoastedPeas: 200G (3.3%, 4,328G)
Tougou: 100G (1.7%, 5,342G)
Arbitae: 100G (1.7%, 1,148G)
maleblackfiora: 60G (1.0%, 810G)
letdowncity: 50G (0.8%, 1,334G)
silverelmdor: 50G (0.8%, 963G)

black bets:
holyonline: 3,776G (24.8%, 3,776G)
mpghappiness: 1,695G (11.1%, 1,695G)
hydroshade: 1,500G (9.9%, 9,389G)
volgrathemoose: 1,366G (9.0%, 1,366G)
flowinprose: 1,000G (6.6%, 73,217G)
BirbBrainsBot: 1,000G (6.6%, 106,045G)
red__lancer: 1,000G (6.6%, 31,664G)
Zachara: 631G (4.1%, 89,631G)
fenaen: 600G (3.9%, 8,024G)
ungabunga_bot: 598G (3.9%, 515,041G)
SeniorBunk: 548G (3.6%, 548G)
getthemoneyz: 416G (2.7%, 685,904G)
Rislyeu: 348G (2.3%, 348G)
jwchapm: 200G (1.3%, 834G)
Kronikle: 200G (1.3%, 4,797G)
foofermoofer: 132G (0.9%, 132G)
datadrivenbot: 100G (0.7%, 17,818G)
Letsfighting: 100G (0.7%, 1,915G)
