Final Bets: red - 14 bets for 3,496G (14.9%, x5.69); yellow - 18 bets for 19,892G (85.1%, x0.18)

red bets:
BirbBrainsBot: 1,000G (28.6%, 170,534G)
OneHundredFists: 524G (15.0%, 524G)
electric_glass: 300G (8.6%, 8,685G)
soren_of_tyto: 282G (8.1%, 282G)
bruubarg: 250G (7.2%, 4,500G)
aznwanderor: 220G (6.3%, 220G)
KasugaiRoastedPeas: 200G (5.7%, 372G)
xxbronamastexx: 176G (5.0%, 176G)
Dymntd: 100G (2.9%, 6,838G)
UnholyCorsair: 100G (2.9%, 1,819G)
Heroebal: 100G (2.9%, 4,754G)
Kyune: 100G (2.9%, 6,393G)
getthemoneyz: 94G (2.7%, 680,081G)
alecttox: 50G (1.4%, 10,282G)

yellow bets:
EnemyController: 5,000G (25.1%, 280,784G)
powergems: 4,827G (24.3%, 9,655G)
HaplessOne: 2,535G (12.7%, 4,972G)
Shalloween: 1,770G (8.9%, 1,770G)
Laserman1000: 1,346G (6.8%, 2,641G)
Arcblazer23: 627G (3.2%, 627G)
E_Ballard: 600G (3.0%, 600G)
Estan_AD: 526G (2.6%, 526G)
luminarii: 450G (2.3%, 21,986G)
Lanshaft: 392G (2.0%, 3,145G)
CapnChaos12: 376G (1.9%, 376G)
moonliquor: 375G (1.9%, 375G)
CorpusCav: 300G (1.5%, 5,560G)
DeathTaxesAndAnime: 300G (1.5%, 1,451G)
WunUP: 168G (0.8%, 168G)
Sykper: 100G (0.5%, 112G)
Nizaha: 100G (0.5%, 15,244G)
datadrivenbot: 100G (0.5%, 19,951G)
