Final Bets: purple - 18 bets for 24,764G (54.9%, x0.82); champion - 27 bets for 20,319G (45.1%, x1.22)

purple bets:
resjudicata3: 7,281G (29.4%, 14,278G)
DeathTaxesAndAnime: 4,271G (17.2%, 8,376G)
HaateXIII: 3,424G (13.8%, 3,424G)
latebit: 2,443G (9.9%, 4,791G)
Rislyeu: 2,000G (8.1%, 22,044G)
VolgraTheMoose: 1,001G (4.0%, 117,659G)
Thyrandaal: 692G (2.8%, 692G)
dogsandcatsand: 572G (2.3%, 5,824G)
technominari: 500G (2.0%, 76,056G)
AltimaMantoid: 497G (2.0%, 4,097G)
snkey: 400G (1.6%, 67,685G)
ColetteMSLP: 400G (1.6%, 5,841G)
Zeroroute: 360G (1.5%, 360G)
killth3kid: 300G (1.2%, 47,556G)
farside00831: 200G (0.8%, 404G)
datadrivenbot: 200G (0.8%, 57,598G)
Lydian_C: 123G (0.5%, 7,112G)
DracoknightZero: 100G (0.4%, 2,943G)

champion bets:
Greggernaut: 5,000G (24.6%, 83,179G)
Zerguzen: 2,468G (12.1%, 2,468G)
OneHundredFists: 1,749G (8.6%, 3,431G)
BirbBrainsBot: 1,000G (4.9%, 107,748G)
fattunaking: 1,000G (4.9%, 27,607G)
lowlf: 961G (4.7%, 961G)
RobotOcelot: 934G (4.6%, 934G)
brodeity: 827G (4.1%, 827G)
mindblownnnn: 741G (3.6%, 741G)
Kronikle: 640G (3.1%, 39,501G)
akash7: 537G (2.6%, 5,937G)
krombobreaker: 500G (2.5%, 4,493G)
ForagerCats: 500G (2.5%, 15,356G)
khelor_: 474G (2.3%, 474G)
CorpusCav: 400G (2.0%, 26,257G)
Chaide: 371G (1.8%, 371G)
Xoomwaffle: 348G (1.7%, 15,695G)
Wonser: 344G (1.7%, 5,973G)
TsukikageRyu: 300G (1.5%, 1,823G)
RonaldoTheGypsy: 250G (1.2%, 3,897G)
ValensEXP_: 224G (1.1%, 2,952G)
CosmicTactician: 200G (1.0%, 33,385G)
getthemoneyz: 172G (0.8%, 1,878,072G)
seppu777: 111G (0.5%, 12,005G)
AllInBot: 100G (0.5%, 100G)
Yangusburger: 100G (0.5%, 5,879G)
BartTradingCompany: 68G (0.3%, 680G)
