Final Bets: red - 16 bets for 12,320G (24.8%, x3.03); blue - 20 bets for 37,310G (75.2%, x0.33)

red bets:
fattunaking: 2,322G (18.8%, 2,322G)
nekojin: 1,376G (11.2%, 1,376G)
ShadowNinja25: 1,259G (10.2%, 1,259G)
DeathTaxesAndAnime: 1,205G (9.8%, 1,205G)
NicoSavoy: 1,000G (8.1%, 129,608G)
biske13: 1,000G (8.1%, 229,322G)
BappleTrees: 982G (8.0%, 982G)
getthemoneyz: 686G (5.6%, 1,984,439G)
CorpusCav: 600G (4.9%, 7,481G)
Chihuahua_Charity: 500G (4.1%, 12,460G)
Zeroroute: 439G (3.6%, 2,311G)
stoneforge_: 414G (3.4%, 414G)
AllInBot: 200G (1.6%, 200G)
J_MacC1991: 136G (1.1%, 6,411G)
gorgewall: 101G (0.8%, 7,090G)
RunicMagus: 100G (0.8%, 10,782G)

blue bets:
Shalloween: 10,091G (27.0%, 10,091G)
Mesmaster: 10,000G (26.8%, 36,311G)
reinoe: 4,554G (12.2%, 4,554G)
Nickyfive: 2,882G (7.7%, 5,764G)
Runeseeker22: 1,484G (4.0%, 9,895G)
AbandonedHall: 1,252G (3.4%, 1,252G)
latebit: 1,111G (3.0%, 20,078G)
BirbBrainsBot: 1,000G (2.7%, 85,583G)
Willjin: 969G (2.6%, 969G)
douchetron: 607G (1.6%, 607G)
krombobreaker: 500G (1.3%, 10,651G)
Laserman1000: 500G (1.3%, 5,104G)
dire_drenz: 428G (1.1%, 857G)
DHaveWord: 412G (1.1%, 11,476G)
FoeSquirrel: 384G (1.0%, 769G)
ValensEXP_: 336G (0.9%, 5,468G)
ColetteMSLP: 300G (0.8%, 1,279G)
Dodecadeath: 200G (0.5%, 4,355G)
datadrivenbot: 200G (0.5%, 70,348G)
ericzubat: 100G (0.3%, 1,390G)
