Final Bets: red - 15 bets for 13,931G (55.8%, x0.79); blue - 13 bets for 11,013G (44.2%, x1.26)

red bets:
SkylerBunny: 6,000G (43.1%, 332,152G)
Amorial: 2,196G (15.8%, 2,196G)
NIghtdew14: 1,500G (10.8%, 5,603G)
Lord_Burrah: 1,000G (7.2%, 76,604G)
killth3kid: 652G (4.7%, 1,937G)
Aldrammech: 628G (4.5%, 628G)
Skjodo: 500G (3.6%, 5,981G)
Laserman1000: 340G (2.4%, 1,540G)
getthemoneyz: 314G (2.3%, 1,555,251G)
AllInBot: 200G (1.4%, 200G)
datadrivenbot: 200G (1.4%, 49,278G)
ANFz: 101G (0.7%, 45,785G)
MinBetBot: 100G (0.7%, 16,838G)
Twisted_Nutsatchel: 100G (0.7%, 15,597G)
plus_flora: 100G (0.7%, 1,100G)

blue bets:
DustBirdEX: 2,783G (25.3%, 5,567G)
DeathTaxesAndAnime: 2,196G (19.9%, 4,307G)
dogsandcatsand: 1,907G (17.3%, 1,907G)
BirbBrainsBot: 1,000G (9.1%, 107,329G)
pplvee1: 755G (6.9%, 755G)
Lanshaft: 564G (5.1%, 12,328G)
TheMurkGnome: 548G (5.0%, 548G)
CorpusCav: 500G (4.5%, 4,346G)
PantherIscariot: 222G (2.0%, 2,647G)
latebit: 188G (1.7%, 188G)
Drusiform: 150G (1.4%, 2,113G)
Pbjellytimez: 100G (0.9%, 2,336G)
Blastinus: 100G (0.9%, 1,111G)
