Final Bets: red - 10 bets for 6,543G (40.0%, x1.50); blue - 11 bets for 9,817G (60.0%, x0.67)

red bets:
NicoSavoy: 1,664G (25.4%, 33,287G)
HaateXIII: 1,292G (19.7%, 1,292G)
BirbBrainsBot: 1,000G (15.3%, 160,866G)
Zbgs: 1,000G (15.3%, 15,530G)
douchetron: 676G (10.3%, 676G)
getthemoneyz: 282G (4.3%, 1,720,825G)
helpimabug: 220G (3.4%, 220G)
corysteam: 208G (3.2%, 208G)
gorgewall: 101G (1.5%, 4,872G)
TheUltimateSmashAdventure: 100G (1.5%, 108G)

blue bets:
Chuckolator: 4,255G (43.3%, 4,255G)
fattunaking: 2,000G (20.4%, 10,333G)
DLJuggernaut: 1,000G (10.2%, 15,518G)
Laserman1000: 700G (7.1%, 15,000G)
resjudicata3: 543G (5.5%, 543G)
ribbiks: 500G (5.1%, 3,141G)
AllInBot: 219G (2.2%, 219G)
DeathTaxesAndAnime: 200G (2.0%, 4,100G)
datadrivenbot: 200G (2.0%, 63,480G)
absalom_20: 100G (1.0%, 100G)
nifboy: 100G (1.0%, 3,291G)
