Final Bets: red - 18 bets for 7,849G (46.7%, x1.14); blue - 19 bets for 8,954G (53.3%, x0.88)

red bets:
killth3kid: 2,000G (25.5%, 49,225G)
SkylerBunny: 1,200G (15.3%, 54,391G)
HaateXIII: 604G (7.7%, 604G)
Estan_AD: 500G (6.4%, 2,149G)
Kyune: 500G (6.4%, 1,570G)
Breakdown777: 500G (6.4%, 16,723G)
Baron_von_Scrub: 474G (6.0%, 5,600G)
gooseyourself: 456G (5.8%, 456G)
SQUiDSQUARKLIN: 394G (5.0%, 394G)
RunicMagus: 250G (3.2%, 44,895G)
HawkSick: 200G (2.5%, 1,775G)
genericco: 156G (2.0%, 156G)
ANFz: 111G (1.4%, 29,561G)
NicoSavoy: 104G (1.3%, 104G)
maakur_: 100G (1.3%, 118,879G)
mannequ1n: 100G (1.3%, 5,628G)
CustomGameMaster: 100G (1.3%, 100G)
Meta_Five: 100G (1.3%, 1,535G)

blue bets:
Aneyus: 3,165G (35.3%, 33,165G)
Lali_Lulelo: 1,069G (11.9%, 2,139G)
Lionhermit: 1,000G (11.2%, 35,584G)
Mesmaster: 1,000G (11.2%, 26,354G)
Laserman1000: 424G (4.7%, 424G)
Billybones5150: 300G (3.4%, 22,031G)
eudes89: 297G (3.3%, 297G)
ewan_e: 256G (2.9%, 256G)
Yasmosis: 244G (2.7%, 244G)
gorgewall: 200G (2.2%, 8,460G)
powergems: 200G (2.2%, 9,956G)
FNCardascia_: 122G (1.4%, 244G)
Hoffrandexpress: 100G (1.1%, 323G)
theNGUYENNER: 100G (1.1%, 1,000G)
FriendSquirrel: 100G (1.1%, 25,542G)
ko2q: 100G (1.1%, 1,968G)
benticore: 100G (1.1%, 4,556G)
datadrivenbot: 100G (1.1%, 12,402G)
Ross_from_Cali: 77G (0.9%, 3,154G)
