Final Bets: white - 19 bets for 6,804G (30.9%, x2.24); black - 23 bets for 15,250G (69.1%, x0.45)

white bets:
LDSkinny: 1,000G (14.7%, 34,548G)
Mesmaster: 1,000G (14.7%, 26,084G)
SQUiDSQUARKLIN: 843G (12.4%, 843G)
Lali_Lulelo: 564G (8.3%, 564G)
Laserman1000: 527G (7.7%, 527G)
CorpusCav: 450G (6.6%, 5,270G)
twelfthrootoftwo: 400G (5.9%, 1,318G)
ewan_e: 318G (4.7%, 318G)
joewcarson: 300G (4.4%, 6,881G)
RestIessNight: 274G (4.0%, 274G)
CustomGameMaster: 214G (3.1%, 214G)
getthemoneyz: 178G (2.6%, 647,462G)
eudes89: 149G (2.2%, 149G)
FNCardascia_: 137G (2.0%, 274G)
Hoffrandexpress: 100G (1.5%, 277G)
striator: 100G (1.5%, 334G)
benticore: 100G (1.5%, 4,356G)
duckfist: 100G (1.5%, 1,347G)
SulliedGraves: 50G (0.7%, 734G)

black bets:
lijarkh: 2,000G (13.1%, 22,536G)
Hamborn: 2,000G (13.1%, 53,689G)
Meta_Five: 1,653G (10.8%, 1,653G)
HaateXIII: 1,607G (10.5%, 1,607G)
ungabunga_bot: 1,000G (6.6%, 412,166G)
BirbBrainsBot: 1,000G (6.6%, 97,146G)
reinoe: 1,000G (6.6%, 29,346G)
MantisFinch: 1,000G (6.6%, 34,464G)
Evewho: 520G (3.4%, 520G)
CapnChaos12: 500G (3.3%, 49,925G)
Breakdown777: 500G (3.3%, 17,415G)
ApplesNP: 316G (2.1%, 316G)
RunicMagus: 300G (2.0%, 45,180G)
gorgewall: 300G (2.0%, 8,060G)
Billybones5150: 250G (1.6%, 21,511G)
NicoSavoy: 249G (1.6%, 249G)
Yasmosis: 244G (1.6%, 244G)
mannequ1n: 200G (1.3%, 5,742G)
theNGUYENNER: 200G (1.3%, 900G)
ANFz: 111G (0.7%, 29,577G)
DeathTaxesAndAnime: 100G (0.7%, 4,051G)
ko2q: 100G (0.7%, 1,892G)
datadrivenbot: 100G (0.7%, 12,326G)
