Final Bets: red - 21 bets for 15,279G (56.8%, x0.76); yellow - 21 bets for 11,604G (43.2%, x1.32)

red bets:
sinnyil2: 2,940G (19.2%, 2,940G)
Mesmaster: 2,000G (13.1%, 25,825G)
Lali_Lulelo: 1,578G (10.3%, 1,578G)
CustomGameMaster: 1,194G (7.8%, 1,194G)
lijarkh: 1,000G (6.5%, 20,536G)
EnemyController: 1,000G (6.5%, 203,372G)
eudes89: 842G (5.5%, 842G)
NicoSavoy: 608G (4.0%, 608G)
FNCardascia_: 548G (3.6%, 1,097G)
Laserman1000: 545G (3.6%, 5,245G)
Estan_AD: 500G (3.3%, 2,784G)
Fenrislfr: 500G (3.3%, 1,579G)
Baron_von_Scrub: 474G (3.1%, 6,641G)
Hoffrandexpress: 400G (2.6%, 1,357G)
chaotic_prodigy: 278G (1.8%, 278G)
Kyune: 250G (1.6%, 3,553G)
twelfthrootoftwo: 200G (1.3%, 2,515G)
daveb_: 122G (0.8%, 1,181G)
Tougou: 100G (0.7%, 11,252G)
mannequ1n: 100G (0.7%, 4,542G)
datadrivenbot: 100G (0.7%, 12,126G)

yellow bets:
RestIessNight: 1,388G (12.0%, 1,388G)
HaateXIII: 1,110G (9.6%, 2,178G)
MantisFinch: 1,000G (8.6%, 32,464G)
ungabunga_bot: 1,000G (8.6%, 412,944G)
BirbBrainsBot: 1,000G (8.6%, 95,146G)
Lionhermit: 1,000G (8.6%, 33,584G)
Billybones5150: 1,000G (8.6%, 21,261G)
Xenomorith: 735G (6.3%, 735G)
Rislyeu: 725G (6.2%, 1,450G)
Breakdown777: 500G (4.3%, 16,915G)
Cryptopsy70: 404G (3.5%, 9,326G)
ApplesNP: 316G (2.7%, 316G)
RunicMagus: 300G (2.6%, 45,080G)
gorgewall: 300G (2.6%, 8,616G)
Arlum: 200G (1.7%, 623G)
HawkSick: 200G (1.7%, 3,669G)
benticore: 100G (0.9%, 4,980G)
maakur_: 100G (0.9%, 119,695G)
theNGUYENNER: 100G (0.9%, 100G)
GiggleStik: 100G (0.9%, 6,608G)
getthemoneyz: 26G (0.2%, 647,343G)
