Final Bets: red - 18 bets for 12,091G (57.5%, x0.74); blue - 14 bets for 8,941G (42.5%, x1.35)

red bets:
HaateXIII: 2,919G (24.1%, 2,919G)
Evewho: 2,000G (16.5%, 16,596G)
Lydian_C: 1,200G (9.9%, 5,128G)
RaIshtar: 1,082G (8.9%, 1,082G)
superdevon1: 700G (5.8%, 1,400G)
getthemoneyz: 652G (5.4%, 902,439G)
Bilabrin: 644G (5.3%, 644G)
Laserman1000: 600G (5.0%, 26,400G)
snkey: 432G (3.6%, 432G)
skillomono: 308G (2.5%, 308G)
letdowncity: 300G (2.5%, 12,235G)
Milkman153: 300G (2.5%, 5,420G)
Aldrammech: 249G (2.1%, 2,499G)
DAC169: 204G (1.7%, 204G)
gorgewall: 201G (1.7%, 7,838G)
Miku_Shikhu: 100G (0.8%, 16,192G)
Lythe_Caraker: 100G (0.8%, 114,198G)
datadrivenbot: 100G (0.8%, 35,756G)

blue bets:
nifboy: 3,385G (37.9%, 3,385G)
BirbBrainsBot: 1,000G (11.2%, 94,965G)
Mesmaster: 1,000G (11.2%, 17,494G)
Quadh0nk: 628G (7.0%, 628G)
E_Ballard: 576G (6.4%, 576G)
Oreo_Pizza: 500G (5.6%, 15,823G)
OneHundredFists: 500G (5.6%, 43,540G)
Sairentozon7: 328G (3.7%, 328G)
twelfthrootoftwo: 320G (3.6%, 320G)
Spuzzmocker: 228G (2.6%, 228G)
Dreygyron: 176G (2.0%, 176G)
AllInBot: 100G (1.1%, 100G)
ko2q: 100G (1.1%, 2,605G)
nsm013: 100G (1.1%, 1,495G)
