Final Bets: white - 11 bets for 15,641G (60.6%, x0.65); black - 22 bets for 10,159G (39.4%, x1.54)

white bets:
Evewho: 7,443G (47.6%, 14,596G)
CaptainGarlock: 3,531G (22.6%, 3,531G)
BirbBrainsBot: 1,000G (6.4%, 95,317G)
OneHundredFists: 1,000G (6.4%, 43,716G)
snkey: 819G (5.2%, 819G)
Lydian_C: 560G (3.6%, 3,168G)
twelfthrootoftwo: 453G (2.9%, 453G)
HaychDub: 300G (1.9%, 20,940G)
woohoo_brokeback: 222G (1.4%, 7,933G)
getthemoneyz: 160G (1.0%, 901,868G)
jpTawok: 153G (1.0%, 3,060G)

black bets:
E_Ballard: 3,304G (32.5%, 3,304G)
Mesmaster: 1,000G (9.8%, 18,846G)
RaIshtar: 819G (8.1%, 819G)
HaateXIII: 716G (7.0%, 716G)
superdevon1: 707G (7.0%, 707G)
Lali_Lulelo: 479G (4.7%, 479G)
Rislyeu: 400G (3.9%, 4,168G)
NIghtdew14: 376G (3.7%, 376G)
Bilabrin: 344G (3.4%, 344G)
roofiepops: 300G (3.0%, 300G)
conradharlock: 260G (2.6%, 260G)
Lythe_Caraker: 250G (2.5%, 113,242G)
DAC169: 204G (2.0%, 204G)
IphoneDarkness: 200G (2.0%, 2,890G)
AllInBot: 100G (1.0%, 100G)
nifboy: 100G (1.0%, 7,863G)
ruleof5: 100G (1.0%, 8,111G)
ko2q: 100G (1.0%, 2,640G)
Miku_Shikhu: 100G (1.0%, 16,236G)
Quadh0nk: 100G (1.0%, 1,163G)
datadrivenbot: 100G (1.0%, 35,556G)
reddwind_: 100G (1.0%, 9,463G)
