Final Bets: purple - 20 bets for 15,622G (50.6%, x0.98); brown - 9 bets for 15,280G (49.4%, x1.02)

purple bets:
cam_ATS: 5,076G (32.5%, 5,076G)
Thyrandaal: 2,000G (12.8%, 8,076G)
Rislyeu: 1,884G (12.1%, 3,768G)
BirbBrainsBot: 1,000G (6.4%, 95,967G)
Sairentozon7: 772G (4.9%, 772G)
Spuzzmocker: 536G (3.4%, 536G)
killth3kid: 500G (3.2%, 7,962G)
HaychDub: 500G (3.2%, 21,135G)
NoNotBees: 500G (3.2%, 6,254G)
E_Ballard: 448G (2.9%, 448G)
getthemoneyz: 424G (2.7%, 901,972G)
CaptainGarlock: 420G (2.7%, 5,824G)
RaIshtar: 336G (2.2%, 336G)
CapnChaos12: 300G (1.9%, 10,719G)
Lythe_Caraker: 250G (1.6%, 112,992G)
Dreygyron: 222G (1.4%, 1,019G)
DAC169: 204G (1.3%, 204G)
nifboy: 100G (0.6%, 7,763G)
datadrivenbot: 100G (0.6%, 35,456G)
IphoneDarkness: 50G (0.3%, 2,690G)

brown bets:
Evewho: 9,909G (64.8%, 19,430G)
Mesmaster: 2,000G (13.1%, 17,846G)
snkey: 1,351G (8.8%, 1,351G)
Lydian_C: 560G (3.7%, 3,532G)
superdevon1: 500G (3.3%, 500G)
twelfthrootoftwo: 300G (2.0%, 747G)
letdowncity: 300G (2.0%, 12,366G)
conradharlock: 260G (1.7%, 260G)
AllInBot: 100G (0.7%, 100G)
