Final Bets: white - 14 bets for 7,867G (60.3%, x0.66); brown - 16 bets for 5,189G (39.7%, x1.52)

white bets:
OneHundredFists: 2,000G (25.4%, 45,102G)
Mesmaster: 2,000G (25.4%, 20,480G)
dogsandcatsand: 1,000G (12.7%, 6,280G)
Lydian_C: 650G (8.3%, 3,655G)
Lali_Lulelo: 424G (5.4%, 424G)
NIghtdew14: 376G (4.8%, 376G)
getthemoneyz: 266G (3.4%, 901,204G)
NoNotBees: 250G (3.2%, 5,254G)
mattcorn7: 201G (2.6%, 201G)
Evewho: 200G (2.5%, 29,620G)
snkey: 200G (2.5%, 3,536G)
nifboy: 100G (1.3%, 8,791G)
datadrivenbot: 100G (1.3%, 35,385G)
nsm013: 100G (1.3%, 1,530G)

brown bets:
Virilikus: 1,000G (19.3%, 153,503G)
Oobs56: 957G (18.4%, 1,914G)
superdevon1: 500G (9.6%, 500G)
cam_ATS: 368G (7.1%, 368G)
CaptainGarlock: 300G (5.8%, 5,104G)
Spuzzmocker: 295G (5.7%, 295G)
AllInBot: 261G (5.0%, 261G)
Nohurty: 256G (4.9%, 256G)
Lythe_Caraker: 250G (4.8%, 112,542G)
DAC169: 204G (3.9%, 204G)
twelfthrootoftwo: 200G (3.9%, 754G)
BirbBrainsBot: 178G (3.4%, 94,638G)
fluffskull: 120G (2.3%, 120G)
Quadh0nk: 100G (1.9%, 1,092G)
Miku_Shikhu: 100G (1.9%, 16,136G)
lastly: 100G (1.9%, 20,012G)
