Final Bets: blue - 14 bets for 6,385G (33.5%, x1.99); white - 19 bets for 12,698G (66.5%, x0.50)

blue bets:
Thyrandaal: 2,000G (31.3%, 6,076G)
Dreygyron: 1,032G (16.2%, 1,032G)
nifboy: 1,000G (15.7%, 8,857G)
superdevon1: 500G (7.8%, 500G)
killth3kid: 500G (7.8%, 7,462G)
Spuzzmocker: 228G (3.6%, 228G)
DAC169: 204G (3.2%, 204G)
gorgewall: 201G (3.1%, 7,696G)
Evewho: 200G (3.1%, 29,752G)
fluffskull: 120G (1.9%, 120G)
AllInBot: 100G (1.6%, 100G)
Miku_Shikhu: 100G (1.6%, 16,036G)
lastly: 100G (1.6%, 19,912G)
datadrivenbot: 100G (1.6%, 35,451G)

white bets:
Mesmaster: 2,000G (15.8%, 21,799G)
Virilikus: 2,000G (15.8%, 152,503G)
Lydian_C: 1,200G (9.5%, 4,084G)
BirbBrainsBot: 1,000G (7.9%, 94,460G)
OneHundredFists: 1,000G (7.9%, 46,421G)
Oobs56: 957G (7.5%, 957G)
HaateXIII: 716G (5.6%, 716G)
NIghtdew14: 624G (4.9%, 624G)
twelfthrootoftwo: 554G (4.4%, 554G)
E_Ballard: 448G (3.5%, 448G)
RaIshtar: 336G (2.6%, 336G)
mattcorn7: 334G (2.6%, 334G)
getthemoneyz: 314G (2.5%, 901,379G)
letdowncity: 300G (2.4%, 12,761G)
Nohurty: 256G (2.0%, 256G)
CaptainGarlock: 250G (2.0%, 4,804G)
NoNotBees: 250G (2.0%, 5,419G)
Quadh0nk: 100G (0.8%, 992G)
IphoneDarkness: 59G (0.5%, 2,540G)
