Final Bets: red - 24 bets for 22,089G (78.0%, x0.28); blue - 12 bets for 6,248G (22.0%, x3.54)

red bets:
toka222: 6,500G (29.4%, 58,220G)
E_Ballard: 4,057G (18.4%, 4,057G)
ThePineappleSalesman: 1,623G (7.3%, 3,183G)
CrownOfHorns: 1,362G (6.2%, 1,362G)
BirbBrainsBot: 1,000G (4.5%, 166,899G)
Theseawolf1: 1,000G (4.5%, 58,438G)
CapnChaos12: 702G (3.2%, 702G)
killth3kid: 600G (2.7%, 8,398G)
Zeroroute: 600G (2.7%, 600G)
Rislyeu: 598G (2.7%, 598G)
HaplessOne: 568G (2.6%, 568G)
fenaen: 500G (2.3%, 1,743G)
bruubarg: 500G (2.3%, 4,000G)
HaateXIII: 460G (2.1%, 460G)
Dellusionsx: 300G (1.4%, 6,633G)
otakutaylor: 300G (1.4%, 300G)
CorpusCav: 300G (1.4%, 4,167G)
VulcanPanderp: 269G (1.2%, 269G)
gabbagooluigi: 250G (1.1%, 1,832G)
Reltz_: 200G (0.9%, 1,219G)
Tougou: 100G (0.5%, 1,930G)
nekross92: 100G (0.5%, 201G)
datadrivenbot: 100G (0.5%, 19,131G)
CosmicTactician: 100G (0.5%, 7,904G)

blue bets:
Lolprinze: 2,309G (37.0%, 2,309G)
Tsuike: 770G (12.3%, 770G)
roofiepops: 555G (8.9%, 53,397G)
Nizaha: 501G (8.0%, 16,840G)
windsah: 500G (8.0%, 9,940G)
HASTERIOUS: 463G (7.4%, 9,266G)
jakeduhhsnake: 426G (6.8%, 426G)
Seawalker777: 224G (3.6%, 224G)
marin1987: 200G (3.2%, 4,017G)
DeathTaxesAndAnime: 150G (2.4%, 2,563G)
soren_of_tyto: 100G (1.6%, 100G)
isolatedchapelsix: 50G (0.8%, 728G)
