Final Bets: brown - 37 bets for 20,141G (56.8%, x0.76); champion - 28 bets for 15,289G (43.2%, x1.32)

brown bets:
snkey: 3,000G (14.9%, 38,017G)
orlandu_lv: 1,532G (7.6%, 9,532G)
Dothan89: 1,489G (7.4%, 1,489G)
Nanovolt: 1,446G (7.2%, 1,446G)
HaplessOne: 1,446G (7.2%, 18,018G)
Riot_Jayway: 1,111G (5.5%, 180,067G)
OmnibotGamma: 1,013G (5.0%, 1,013G)
Lodrak: 1,001G (5.0%, 8,213G)
Blain_Cooper: 1,000G (5.0%, 1,983G)
BirbBrainsBot: 1,000G (5.0%, 194,076G)
bad1dea: 1,000G (5.0%, 185,639G)
Lionhermit: 608G (3.0%, 1,216G)
Deathmaker06: 500G (2.5%, 20,671G)
CorpusCav: 400G (2.0%, 2,000G)
nerdynel17: 369G (1.8%, 369G)
Sarou120: 348G (1.7%, 348G)
urieltheflameofgod: 318G (1.6%, 318G)
I_nod_my_head_when_I_lose: 300G (1.5%, 18,822G)
kingchadking: 260G (1.3%, 260G)
Glory_Seeker: 200G (1.0%, 4,153G)
Oshimi12: 200G (1.0%, 1,865G)
Bulleta: 100G (0.5%, 4,097G)
ApplesauceBoss: 100G (0.5%, 7,215G)
rico_flex: 100G (0.5%, 2,173G)
Reverie3: 100G (0.5%, 2,521G)
ANFz: 100G (0.5%, 22,442G)
RughSontos: 100G (0.5%, 1,345G)
BadBlanket: 100G (0.5%, 5,056G)
datadrivenbot: 100G (0.5%, 12,660G)
Avin_Chaos: 100G (0.5%, 458G)
Kellios11: 100G (0.5%, 7,000G)
Jeardra: 100G (0.5%, 470G)
deesignal: 100G (0.5%, 1,036G)
alecttox: 100G (0.5%, 6,762G)
mirapoix: 100G (0.5%, 1,939G)
SpaZmodeus: 100G (0.5%, 100G)
Tougou: 100G (0.5%, 2,058G)

champion bets:
SeedSC: 2,000G (13.1%, 73,131G)
RayneShock: 1,787G (11.7%, 1,787G)
RongRongArts: 1,262G (8.3%, 2,524G)
sinnyil2: 1,200G (7.8%, 9,157G)
Zetchryn: 1,000G (6.5%, 1,675G)
AdmiralPikachu: 1,000G (6.5%, 30,567G)
kai_shee: 1,000G (6.5%, 37,324G)
EnemyController: 750G (4.9%, 21,455G)
Lanshaft: 552G (3.6%, 18,543G)
Zeroroute: 500G (3.3%, 500G)
SeraphPDH: 500G (3.3%, 5,516G)
darkp_ramza: 400G (2.6%, 9,430G)
Lazerkick: 400G (2.6%, 12,012G)
InkyLink: 400G (2.6%, 9,732G)
Hirine: 300G (2.0%, 1,310G)
nomoment: 296G (1.9%, 296G)
SolarisFall: 284G (1.9%, 284G)
Baron_von_Scrub: 228G (1.5%, 228G)
HighJayster: 216G (1.4%, 216G)
HRak050: 214G (1.4%, 214G)
roofiepops: 200G (1.3%, 16,289G)
silentperogy: 200G (1.3%, 5,501G)
Tithonus: 100G (0.7%, 1,802G)
Firesheath: 100G (0.7%, 543G)
chronoxtrigger: 100G (0.7%, 2,000G)
Peluducer: 100G (0.7%, 1,125G)
Zagorsek: 100G (0.7%, 277,564G)
AlenaZarek: 100G (0.7%, 10,339G)
