Final Bets: white - 15 bets for 10,651G (49.2%, x1.03); black - 24 bets for 10,997G (50.8%, x0.97)

white bets:
TheMurkGnome: 2,596G (24.4%, 25,980G)
R_Raynos: 2,038G (19.1%, 2,038G)
LivingHitokiri: 1,000G (9.4%, 5,064G)
reinoe: 1,000G (9.4%, 4,132G)
Laserman1000: 700G (6.6%, 52,000G)
Phi_Sig: 555G (5.2%, 145,315G)
Tydemore: 538G (5.1%, 538G)
getthemoneyz: 520G (4.9%, 578,926G)
Realitydown: 451G (4.2%, 451G)
Ironzombie8: 400G (3.8%, 1,000G)
ewan_e: 300G (2.8%, 1,875G)
ANFz: 253G (2.4%, 21,921G)
Evewho: 100G (0.9%, 14,694G)
pLifer: 100G (0.9%, 887G)
ZZ_Yoshi: 100G (0.9%, 71,668G)

black bets:
HaplessOne: 2,222G (20.2%, 184,607G)
Pie108: 2,000G (18.2%, 116,056G)
BirbBrainsBot: 1,000G (9.1%, 173,609G)
feDoran: 1,000G (9.1%, 20,907G)
Spartan_Paladin: 600G (5.5%, 53,103G)
ungabunga_bot: 539G (4.9%, 243,729G)
gorgewall: 500G (4.5%, 3,736G)
Shalloween: 500G (4.5%, 67,506G)
gooseyourself: 500G (4.5%, 3,017G)
DudeMonkey77: 333G (3.0%, 10,006G)
KasugaiRoastedPeas: 330G (3.0%, 3,355G)
potgodtopdog: 200G (1.8%, 10,757G)
Billybones5150: 200G (1.8%, 14,791G)
skuldar: 172G (1.6%, 172G)
ZephyrTempest: 101G (0.9%, 187,173G)
kaidykat: 100G (0.9%, 941G)
Conome: 100G (0.9%, 941G)
Heroebal: 100G (0.9%, 3,789G)
rjA0zcOQ96: 100G (0.9%, 35,098G)
datadrivenbot: 100G (0.9%, 1,499G)
midori_ribbon: 100G (0.9%, 219G)
GarbagePhoenix: 100G (0.9%, 2,033G)
DrAntiSocial: 50G (0.5%, 20,262G)
b0shii: 50G (0.5%, 6,985G)
