Final Bets: yellow - 15 bets for 9,520G (47.5%, x1.11); champion - 15 bets for 10,543G (52.5%, x0.90)

yellow bets:
LDSkinny: 2,600G (27.3%, 3,721G)
tripaplex: 1,000G (10.5%, 4,571G)
PoroTact: 917G (9.6%, 917G)
Nizaha: 844G (8.9%, 75,149G)
douchetron: 841G (8.8%, 841G)
VolgraTheMoose: 784G (8.2%, 784G)
Raixelol: 600G (6.3%, 7,818G)
Runeseeker22: 572G (6.0%, 11,446G)
old_overholt_: 500G (5.3%, 29,453G)
ser_pyrro: 260G (2.7%, 260G)
Lyner87: 200G (2.1%, 107,626G)
CosmicTactician: 200G (2.1%, 27,062G)
gorgewall: 101G (1.1%, 3,524G)
maakur_: 100G (1.1%, 3,579G)
latebit: 1G (0.0%, 10,507G)

champion bets:
resjudicata3: 2,563G (24.3%, 5,026G)
SephDarkheart: 2,500G (23.7%, 30,302G)
CorpusCav: 2,000G (19.0%, 53,247G)
Wonser: 798G (7.6%, 798G)
dogsandcatsand: 636G (6.0%, 32,510G)
upvla: 500G (4.7%, 500G)
helpimabug: 425G (4.0%, 425G)
AllInBot: 361G (3.4%, 361G)
datadrivenbot: 200G (1.9%, 65,180G)
roofiepops: 123G (1.2%, 1,878G)
BirbBrainsBot: 121G (1.1%, 2,022G)
BartTradingCompany: 100G (0.9%, 10,674G)
grishhammer: 100G (0.9%, 1,251G)
Bongomon7: 100G (0.9%, 1,083G)
getthemoneyz: 16G (0.2%, 1,956,469G)
