Final Bets: white - 23 bets for 13,561G (65.8%, x0.52); black - 13 bets for 7,051G (34.2%, x1.92)

white bets:
kaelsun: 2,317G (17.1%, 2,317G)
volgrathemoose: 2,152G (15.9%, 4,304G)
Rislyeu: 1,823G (13.4%, 1,823G)
Jeeboheebo: 1,567G (11.6%, 1,567G)
Digitalsocrates: 825G (6.1%, 825G)
Aldrammech: 818G (6.0%, 818G)
MrDiggs49: 573G (4.2%, 573G)
Nizaha: 501G (3.7%, 8,308G)
Shalloween: 500G (3.7%, 2,405G)
Cryptopsy70: 472G (3.5%, 3,127G)
CorpusCav: 400G (2.9%, 10,914G)
metagameface: 304G (2.2%, 304G)
getthemoneyz: 266G (2.0%, 759,184G)
Stealthtoucan: 141G (1.0%, 2,837G)
gorgewall: 101G (0.7%, 16,276G)
Firesheath: 101G (0.7%, 1,827G)
Evewho: 100G (0.7%, 6,068G)
CosmicTactician: 100G (0.7%, 5,232G)
MiseryKoss: 100G (0.7%, 1,131G)
drlancemackraken: 100G (0.7%, 1,455G)
datadrivenbot: 100G (0.7%, 29,944G)
mrfripps: 100G (0.7%, 1,951G)
foofermoofer: 100G (0.7%, 1,558G)

black bets:
namamu: 1,000G (14.2%, 25,225G)
EnemyController: 1,000G (14.2%, 442,897G)
BirbBrainsBot: 1,000G (14.2%, 65,063G)
LivingHitokiri: 978G (13.9%, 978G)
dogsandcatsand: 750G (10.6%, 6,683G)
E_Ballard: 595G (8.4%, 595G)
nifboy: 500G (7.1%, 10,413G)
alterworlds: 368G (5.2%, 368G)
CapnChaos12: 300G (4.3%, 14,056G)
RaIshtar: 260G (3.7%, 260G)
moonliquor: 100G (1.4%, 1,535G)
moocaotao: 100G (1.4%, 2,048G)
maakur_: 100G (1.4%, 8,418G)
