Final Bets: white - 10 bets for 25,233G (57.4%, x0.74); purple - 28 bets for 18,727G (42.6%, x1.35)

white bets:
namamu: 20,000G (79.3%, 20,000G)
RaIshtar: 1,260G (5.0%, 1,260G)
Jeeboheebo: 996G (3.9%, 996G)
dogsandcatsand: 640G (2.5%, 6,411G)
Nizaha: 501G (2.0%, 8,867G)
Aldrammech: 500G (2.0%, 1,738G)
EnemyController: 500G (2.0%, 441,897G)
HASTERIOUS: 398G (1.6%, 7,975G)
FoeSquirrel: 338G (1.3%, 2,802G)
drlancemackraken: 100G (0.4%, 1,707G)

purple bets:
DeathTaxesAndAnime: 3,494G (18.7%, 6,852G)
Mesmaster: 3,000G (16.0%, 106,512G)
E_Ballard: 1,999G (10.7%, 1,999G)
CorpusCav: 1,007G (5.4%, 11,456G)
volgrathemoose: 1,001G (5.3%, 3,925G)
BirbBrainsBot: 1,000G (5.3%, 65,314G)
reinoe: 1,000G (5.3%, 73,584G)
Shalloween: 916G (4.9%, 1,833G)
LivingHitokiri: 888G (4.7%, 888G)
Digitalsocrates: 500G (2.7%, 2,073G)
Evewho: 500G (2.7%, 6,645G)
richardserious: 500G (2.7%, 2,312G)
metagameface: 462G (2.5%, 462G)
kaidykat: 343G (1.8%, 6,860G)
old_overholt_: 300G (1.6%, 20,306G)
CapnChaos12: 300G (1.6%, 15,431G)
moocaotao: 225G (1.2%, 2,048G)
gorgewall: 201G (1.1%, 16,276G)
getthemoneyz: 190G (1.0%, 759,971G)
poulol: 101G (0.5%, 6,516G)
moonliquor: 100G (0.5%, 2,122G)
cloud92684: 100G (0.5%, 16,555G)
mrfripps: 100G (0.5%, 1,753G)
CosmicTactician: 100G (0.5%, 5,232G)
MiseryKoss: 100G (0.5%, 1,183G)
datadrivenbot: 100G (0.5%, 29,944G)
Kyune: 100G (0.5%, 22,300G)
Flameatron: 100G (0.5%, 1,906G)
