Final Bets: purple - 10 bets for 21,748G (56.1%, x0.78); champion - 15 bets for 16,990G (43.9%, x1.28)

purple bets:
XalSmellsBad: 10,224G (47.0%, 10,224G)
vorap: 3,500G (16.1%, 5,446G)
JackOnFire1: 2,142G (9.8%, 8,571G)
WireLord: 2,000G (9.2%, 22,882G)
KasugaiRoastedPeas: 1,403G (6.5%, 7,033G)
volgrathemoose: 1,001G (4.6%, 4,227G)
upvla: 678G (3.1%, 7,493G)
aStatue: 600G (2.8%, 600G)
ApplesauceBoss: 100G (0.5%, 11,005G)
datadrivenbot: 100G (0.5%, 1,095G)

champion bets:
mayfu: 2,500G (14.7%, 49,282G)
sinnyil2: 2,500G (14.7%, 65,370G)
HaplessOne: 2,222G (13.1%, 203,852G)
roqqqpsi: 2,098G (12.3%, 9,539G)
Lydian_C: 1,400G (8.2%, 49,534G)
leakimiko: 1,248G (7.3%, 15,609G)
TheMurkGnome: 1,095G (6.4%, 16,483G)
ungabunga_bot: 1,000G (5.9%, 267,934G)
BirbBrainsBot: 1,000G (5.9%, 193,591G)
Anethum: 769G (4.5%, 769G)
ewan_e: 500G (2.9%, 10,169G)
Dexsana: 200G (1.2%, 7,009G)
ar_tactic: 200G (1.2%, 27,258G)
getthemoneyz: 158G (0.9%, 585,753G)
Evewho: 100G (0.6%, 12,145G)
