Final Bets: green - 33 bets for 20,583G (56.5%, x0.77); yellow - 15 bets for 15,834G (43.5%, x1.30)

green bets:
waterwatereverywhere: 5,296G (25.7%, 5,296G)
OneHundredFists: 3,459G (16.8%, 6,784G)
HighJayster: 1,500G (7.3%, 5,588G)
SkylerBunny: 1,000G (4.9%, 96,963G)
BirbBrainsBot: 1,000G (4.9%, 192,173G)
bad1dea: 1,000G (4.9%, 181,111G)
humble_fabio: 777G (3.8%, 3,016G)
getthemoneyz: 590G (2.9%, 350,782G)
proper__noun__: 500G (2.4%, 4,746G)
SeedSC: 500G (2.4%, 79,000G)
alecttox: 500G (2.4%, 6,362G)
ins4n1ty87: 456G (2.2%, 12,349G)
helpimabug: 444G (2.2%, 888G)
cougboi: 420G (2.0%, 2,248G)
RongRongArts: 398G (1.9%, 797G)
mirapoix: 388G (1.9%, 388G)
WireLord: 316G (1.5%, 316G)
Draconis345: 300G (1.5%, 300G)
Chuckolator: 245G (1.2%, 7,444G)
killth3kid: 220G (1.1%, 4,933G)
mangowarfare: 136G (0.7%, 136G)
DonCardenio: 116G (0.6%, 116G)
MrDiggs49: 112G (0.5%, 112G)
ApplesauceBoss: 100G (0.5%, 4,956G)
TJ_FordCDN: 100G (0.5%, 3,556G)
Basmal: 100G (0.5%, 7,914G)
Hirine: 100G (0.5%, 1,385G)
lijarkh: 100G (0.5%, 2,752G)
datadrivenbot: 100G (0.5%, 12,337G)
mega_goopta: 100G (0.5%, 364G)
Avin_Chaos: 100G (0.5%, 555G)
rubenflonne: 100G (0.5%, 1,987G)
deesignal: 10G (0.0%, 1,275G)

yellow bets:
Ququroon: 4,805G (30.3%, 96,113G)
NovaKnight21: 4,408G (27.8%, 8,816G)
Lydian_C: 2,300G (14.5%, 20,856G)
kingchadking: 832G (5.3%, 832G)
Lionhermit: 608G (3.8%, 608G)
Lanshaft: 552G (3.5%, 21,907G)
BenYuPoker: 528G (3.3%, 528G)
Axelrod: 369G (2.3%, 7,384G)
nomoment: 300G (1.9%, 300G)
Zetchryn: 288G (1.8%, 288G)
Bulleta: 244G (1.5%, 244G)
EnemyController: 200G (1.3%, 20,842G)
TheVanishingHaro: 200G (1.3%, 1,560G)
WillFitzgerald: 100G (0.6%, 4,402G)
a_mo22: 100G (0.6%, 5,762G)
