Final Bets: blue - 28 bets for 14,833G (32.6%, x2.07); yellow - 19 bets for 30,703G (67.4%, x0.48)

blue bets:
proper__noun__: 3,246G (21.9%, 3,246G)
SeedSC: 3,000G (20.2%, 76,000G)
WillFitzgerald: 1,000G (6.7%, 4,532G)
rubenflonne: 787G (5.3%, 787G)
helpimabug: 692G (4.7%, 692G)
RongRongArts: 622G (4.2%, 622G)
mirapoix: 605G (4.1%, 605G)
Lanshaft: 552G (3.7%, 21,521G)
UmaiJam: 436G (2.9%, 436G)
Axelrod: 399G (2.7%, 7,988G)
humble_fabio: 333G (2.2%, 2,367G)
TheVanishingHaro: 300G (2.0%, 520G)
Skarthe: 300G (2.0%, 3,705G)
YaBoy125: 300G (2.0%, 1,897G)
Avin_Chaos: 255G (1.7%, 255G)
HighJayster: 220G (1.5%, 220G)
killth3kid: 220G (1.5%, 5,017G)
LAGBOT30000: 200G (1.3%, 6,966G)
Hirine: 200G (1.3%, 1,453G)
HRak050: 200G (1.3%, 6,480G)
samtimemc: 200G (1.3%, 2,466G)
ungabunga_bot: 150G (1.0%, 2,187G)
mangowarfare: 116G (0.8%, 116G)
Basmal: 100G (0.7%, 7,614G)
ApplesauceBoss: 100G (0.7%, 5,812G)
datadrivenbot: 100G (0.7%, 12,193G)
cougboi: 100G (0.7%, 1,828G)
mega_goopta: 100G (0.7%, 264G)

yellow bets:
kingchadking: 6,241G (20.3%, 6,241G)
Lydian_C: 5,440G (17.7%, 24,683G)
Ququroon: 5,117G (16.7%, 102,359G)
SkylerBunny: 2,000G (6.5%, 92,522G)
OneHundredFists: 1,891G (6.2%, 3,708G)
Zetchryn: 1,857G (6.0%, 1,857G)
Lionhermit: 1,402G (4.6%, 1,402G)
sinnyil2: 1,200G (3.9%, 18,794G)
BirbBrainsBot: 1,000G (3.3%, 193,115G)
bad1dea: 1,000G (3.3%, 182,053G)
KupoKel: 935G (3.0%, 935G)
omegasuspekt: 652G (2.1%, 1,304G)
waterwatereverywhere: 484G (1.6%, 484G)
getthemoneyz: 426G (1.4%, 351,024G)
HaplessOne: 396G (1.3%, 20,972G)
Draconis345: 300G (1.0%, 300G)
deesignal: 130G (0.4%, 1,309G)
a_mo22: 120G (0.4%, 6,086G)
MrDiggs49: 112G (0.4%, 112G)
