Final Bets: red - 17 bets for 7,947G (61.0%, x0.64); green - 8 bets for 5,076G (39.0%, x1.57)

red bets:
poorest_hobo: 1,059G (13.3%, 1,059G)
dogsandcatsand: 1,046G (13.2%, 1,046G)
BirbBrainsBot: 1,000G (12.6%, 52,366G)
getthemoneyz: 772G (9.7%, 1,854,918G)
superdevon1: 605G (7.6%, 4,034G)
latebit: 598G (7.5%, 598G)
rocl: 372G (4.7%, 1,208G)
SephDarkheart: 368G (4.6%, 4,068G)
AltimaMantoid: 354G (4.5%, 3,754G)
lijarkh: 338G (4.3%, 338G)
krombobreaker: 328G (4.1%, 328G)
CorpusCav: 300G (3.8%, 19,035G)
datadrivenbot: 200G (2.5%, 55,449G)
Leonidusx: 200G (2.5%, 18,014G)
seppu777: 200G (2.5%, 1,035G)
BartTradingCompany: 107G (1.3%, 1,070G)
AllInBot: 100G (1.3%, 100G)

green bets:
Zeroroute: 1,474G (29.0%, 1,474G)
Sobid: 1,298G (25.6%, 2,547G)
VolgraTheMoose: 1,001G (19.7%, 136,155G)
silentkaster: 413G (8.1%, 1,413G)
Sietaha: 300G (5.9%, 11,555G)
ArrenJevleth: 250G (4.9%, 3,205G)
Yangusburger: 240G (4.7%, 240G)
RunicMagus: 100G (2.0%, 6,800G)
