Final Bets: purple - 10 bets for 5,842G (34.5%, x1.90); brown - 17 bets for 11,112G (65.5%, x0.53)

purple bets:
DeathTaxesAndAnime: 1,631G (27.9%, 1,631G)
Zeroroute: 880G (15.1%, 880G)
HaateXIII: 800G (13.7%, 800G)
OtherBrand: 800G (13.7%, 1,779G)
benticore: 500G (8.6%, 23,613G)
superdevon1: 481G (8.2%, 4,819G)
Legionx13: 250G (4.3%, 2,679G)
Treafa: 250G (4.3%, 389G)
lyonslegacy: 200G (3.4%, 1,527G)
moonliquor: 50G (0.9%, 24,910G)

brown bets:
RaIshtar: 4,000G (36.0%, 85,958G)
BirbBrainsBot: 1,000G (9.0%, 129,595G)
reinoe: 1,000G (9.0%, 80,351G)
mpghappiness: 863G (7.8%, 863G)
Evewho: 548G (4.9%, 548G)
Monopool: 500G (4.5%, 4,500G)
iBardic: 500G (4.5%, 3,424G)
ZicaX: 456G (4.1%, 456G)
randgridr: 424G (3.8%, 9,608G)
SephDarkheart: 332G (3.0%, 57,642G)
AllInBot: 293G (2.6%, 293G)
getthemoneyz: 276G (2.5%, 1,330,181G)
dtrain332: 264G (2.4%, 264G)
gorgewall: 201G (1.8%, 7,387G)
datadrivenbot: 200G (1.8%, 33,448G)
ohhinm: 155G (1.4%, 1,588G)
LiqwidB: 100G (0.9%, 1,000G)
