Final Bets: blue - 16 bets for 8,920G (42.9%, x1.33); green - 18 bets for 11,873G (57.1%, x0.75)

blue bets:
Rislyeu: 1,751G (19.6%, 3,503G)
HaplessOne: 1,234G (13.8%, 79,853G)
sinnyil2: 1,200G (13.5%, 41,600G)
Evewho: 1,000G (11.2%, 12,428G)
Theseawolf1: 1,000G (11.2%, 50,422G)
Ross_from_Cali: 756G (8.5%, 756G)
TheUnforgivenRage: 541G (6.1%, 541G)
ApplesauceBoss: 356G (4.0%, 356G)
zunath: 300G (3.4%, 15,288G)
nifboy: 250G (2.8%, 2,579G)
alecttox: 240G (2.7%, 240G)
Arcblazer23: 116G (1.3%, 116G)
zzaanexx: 100G (1.1%, 747G)
oops25: 50G (0.6%, 750G)
aeonicvector: 25G (0.3%, 1,317G)
Letsfighting: 1G (0.0%, 1,000G)

green bets:
Mesmaster: 3,000G (25.3%, 32,648G)
Lali_Lulelo: 1,069G (9.0%, 2,138G)
ungabunga_bot: 1,000G (8.4%, 493,872G)
BirbBrainsBot: 1,000G (8.4%, 66,741G)
Lionhermit: 1,000G (8.4%, 48,393G)
Meta_Five: 800G (6.7%, 7,354G)
Zeroroute: 600G (5.1%, 600G)
Spartan_Paladin: 600G (5.1%, 63,635G)
CorpusCav: 425G (3.6%, 7,925G)
HaateXIII: 424G (3.6%, 424G)
gorgewall: 401G (3.4%, 5,129G)
thethorndog1: 400G (3.4%, 4,428G)
getthemoneyz: 254G (2.1%, 679,673G)
GnielKnows: 234G (2.0%, 938G)
animefan112233: 216G (1.8%, 216G)
mannequ1n: 200G (1.7%, 6,809G)
MalakiGenesys: 150G (1.3%, 911G)
datadrivenbot: 100G (0.8%, 18,281G)
