Final Bets: green - 19 bets for 23,633G (80.5%, x0.24); purple - 9 bets for 5,732G (19.5%, x4.12)

green bets:
DHaveWord: 6,023G (25.5%, 12,047G)
Mesmaster: 5,613G (23.8%, 5,613G)
AllInBot: 2,828G (12.0%, 2,828G)
Mushufasa_: 2,000G (8.5%, 99,437G)
VolgraTheMoose: 1,001G (4.2%, 14,007G)
shinji202: 1,000G (4.2%, 126,592G)
BirbBrainsBot: 1,000G (4.2%, 61,095G)
NovaKnight21: 860G (3.6%, 860G)
AltimaMantoid: 700G (3.0%, 21,700G)
hecsec: 669G (2.8%, 669G)
ko2q: 544G (2.3%, 544G)
brenogarwin: 212G (0.9%, 212G)
iBardic: 200G (0.8%, 19,472G)
datadrivenbot: 200G (0.8%, 75,389G)
necoarcueid: 200G (0.8%, 1,452G)
Rhyser76: 200G (0.8%, 1,183G)
Setsaku: 172G (0.7%, 172G)
NicoSavoy: 111G (0.5%, 140,290G)
JeffGoldblum_: 100G (0.4%, 100G)

purple bets:
withpaint: 2,896G (50.5%, 2,896G)
Sairentozon7: 1,000G (17.4%, 50,036G)
MemoriesofFinal: 500G (8.7%, 43,759G)
ColetteMSLP: 300G (5.2%, 2,557G)
otakutaylor: 300G (5.2%, 5,739G)
ser_pyrro: 300G (5.2%, 300G)
getthemoneyz: 236G (4.1%, 2,048,229G)
lijarkh: 100G (1.7%, 2,083G)
Armorgames1: 100G (1.7%, 3,959G)
