Final Bets: red - 20 bets for 16,109G (58.2%, x0.72); blue - 20 bets for 11,550G (41.8%, x1.39)

red bets:
LAGBOT30000: 2,313G (14.4%, 46,274G)
GreatRedDragon: 1,729G (10.7%, 50,021G)
JackOnFire1: 1,677G (10.4%, 1,677G)
Lydian_C: 1,200G (7.4%, 74,356G)
TheMurkGnome: 1,061G (6.6%, 2,433G)
volgrathemoose: 1,001G (6.2%, 2,975G)
Mtueni: 1,000G (6.2%, 264,463G)
Rivonus: 1,000G (6.2%, 7,338G)
gooseyourself: 967G (6.0%, 967G)
coledot_: 962G (6.0%, 9,624G)
Zeroroute: 700G (4.3%, 3,137G)
XalSmellsBad: 500G (3.1%, 8,568G)
HaateXIII: 500G (3.1%, 39,344G)
mirapoix: 412G (2.6%, 412G)
TopTabling: 250G (1.6%, 1,000G)
AllInBot: 221G (1.4%, 221G)
Mikumari12: 216G (1.3%, 216G)
EnemyController: 200G (1.2%, 89,783G)
twelfthrootoftwo: 100G (0.6%, 7,846G)
datadrivenbot: 100G (0.6%, 2,367G)

blue bets:
Shakarak: 1,200G (10.4%, 23,276G)
Baron_von_Scrub: 1,111G (9.6%, 75,143G)
Evewho: 1,018G (8.8%, 1,018G)
itzover9001: 1,000G (8.7%, 59,240G)
ungabunga_bot: 1,000G (8.7%, 213,337G)
BirbBrainsBot: 1,000G (8.7%, 142,954G)
Dymntd: 926G (8.0%, 926G)
Laserman1000: 659G (5.7%, 47,359G)
KasugaiRoastedPeas: 600G (5.2%, 600G)
gorgewall: 500G (4.3%, 5,449G)
SwaffleWaffles: 500G (4.3%, 62,225G)
braumbles: 500G (4.3%, 84,758G)
Tougou: 500G (4.3%, 11,106G)
Lanshaft: 368G (3.2%, 1,665G)
Nizaha: 201G (1.7%, 12,699G)
ZephyrTempest: 101G (0.9%, 180,960G)
RunicMagus: 100G (0.9%, 31,662G)
ApplesauceBoss: 100G (0.9%, 8,893G)
duskps: 100G (0.9%, 8,224G)
b0shii: 66G (0.6%, 4,415G)
