Final Bets: green - 7 bets for 3,011G (29.9%, x2.34); brown - 8 bets for 7,043G (70.1%, x0.43)

green bets:
NovaKnight21: 1,338G (44.4%, 2,676G)
iBardic: 500G (16.6%, 25,467G)
WitchHunterIX: 500G (16.6%, 33,454G)
AllInBot: 293G (9.7%, 293G)
getthemoneyz: 186G (6.2%, 1,368,604G)
CT_5_Holy: 100G (3.3%, 1,711G)
BirbBrainsBot: 94G (3.1%, 34,872G)

brown bets:
unclebearboy: 3,000G (42.6%, 11,428G)
douchetron: 1,533G (21.8%, 3,006G)
Jadusable2: 786G (11.2%, 786G)
twelfthrootoftwo: 648G (9.2%, 648G)
superdevon1: 555G (7.9%, 11,113G)
randgridr: 200G (2.8%, 3,091G)
datadrivenbot: 200G (2.8%, 39,516G)
Lydian_C: 121G (1.7%, 58,552G)
