Final Bets: green - 22 bets for 18,866G (81.1%, x0.23); yellow - 14 bets for 4,391G (18.9%, x4.30)

green bets:
Zbgs: 3,500G (18.6%, 54,922G)
upvla: 2,650G (14.0%, 5,301G)
Lydian_C: 2,400G (12.7%, 85,043G)
Baron_von_Scrub: 1,111G (5.9%, 87,387G)
LDSkinny: 1,000G (5.3%, 25,759G)
Reductions: 1,000G (5.3%, 1,069G)
Lord_Burrah: 1,000G (5.3%, 82,596G)
JumbocactuarX27: 1,000G (5.3%, 2,450G)
HaychDub: 750G (4.0%, 7,618G)
DavenIII: 700G (3.7%, 24,321G)
volgrathemoose: 632G (3.3%, 2,464G)
leakimiko: 621G (3.3%, 4,140G)
Anethum: 500G (2.7%, 16,033G)
TheRylander: 400G (2.1%, 3,003G)
waterwatereverywhere: 350G (1.9%, 6,730G)
TheChainNerd: 344G (1.8%, 344G)
lifeguard_dan: 280G (1.5%, 280G)
troublesometree: 228G (1.2%, 2,228G)
rjA0zcOQ96: 100G (0.5%, 35,934G)
OneHundredFists: 100G (0.5%, 1,467G)
datadrivenbot: 100G (0.5%, 3,085G)
DHaveWord: 100G (0.5%, 2,872G)

yellow bets:
BirbBrainsBot: 1,000G (22.8%, 151,766G)
Zeroroute: 882G (20.1%, 882G)
ungabunga_bot: 672G (15.3%, 229,907G)
catfashions: 350G (8.0%, 4,622G)
Tinglenator: 276G (6.3%, 276G)
getthemoneyz: 274G (6.2%, 569,455G)
SquidgyXom: 244G (5.6%, 244G)
nifboy: 118G (2.7%, 2,959G)
roqqqpsi: 116G (2.6%, 5,846G)
perce90: 108G (2.5%, 108G)
ZephyrTempest: 101G (2.3%, 186,198G)
FriendSquirrel: 100G (2.3%, 33,548G)
PlatinumPlume: 100G (2.3%, 20,836G)
DrAntiSocial: 50G (1.1%, 25,843G)
