Final Bets: red - 12 bets for 17,220G (55.4%, x0.80); blue - 29 bets for 13,843G (44.6%, x1.24)

red bets:
HaateXIII: 10,228G (59.4%, 20,055G)
killth3kid: 2,000G (11.6%, 91,636G)
maakur_: 1,246G (7.2%, 1,246G)
E_Ballard: 985G (5.7%, 985G)
Zeroroute: 600G (3.5%, 600G)
PetitFoulard: 501G (2.9%, 501G)
carsenhk: 500G (2.9%, 19,209G)
Kyune: 304G (1.8%, 304G)
RoboticNomad: 300G (1.7%, 1,999G)
NicoSavoy: 256G (1.5%, 256G)
TheJonTerp: 200G (1.2%, 3,229G)
Firesheath: 100G (0.6%, 19,468G)

blue bets:
Grimmace45: 1,795G (13.0%, 35,914G)
Rislyeu: 1,516G (11.0%, 3,032G)
ungabunga_bot: 1,000G (7.2%, 458,069G)
BirbBrainsBot: 1,000G (7.2%, 191,209G)
Mesmaster: 1,000G (7.2%, 135,871G)
TheChainNerd: 708G (5.1%, 1,417G)
proper__noun__: 702G (5.1%, 702G)
ApplesauceBoss: 604G (4.4%, 604G)
reinoe: 500G (3.6%, 500G)
Baron_von_Scrub: 474G (3.4%, 6,816G)
Estan_AD: 452G (3.3%, 452G)
getthemoneyz: 446G (3.2%, 669,844G)
Cryptopsy70: 408G (2.9%, 408G)
YaBoy125: 380G (2.7%, 380G)
beowulfrulez: 373G (2.7%, 373G)
Maldoree: 356G (2.6%, 356G)
CorpusCav: 300G (2.2%, 3,700G)
LAGBOT30000: 247G (1.8%, 24,784G)
jwchapm: 228G (1.6%, 228G)
TheFALLofLindsay: 212G (1.5%, 212G)
DejaPoo21: 200G (1.4%, 9,226G)
cupholderr: 200G (1.4%, 46,262G)
neerrm: 160G (1.2%, 160G)
eudes89: 132G (1.0%, 132G)
yetichamp: 100G (0.7%, 100G)
datadrivenbot: 100G (0.7%, 12,262G)
pstud: 100G (0.7%, 909G)
O_Heyno: 100G (0.7%, 100G)
DrAntiSocial: 50G (0.4%, 12,924G)
