Final Bets: white - 28 bets for 15,240G (50.4%, x0.99); purple - 19 bets for 15,020G (49.6%, x1.01)

white bets:
twelfthrootoftwo: 1,863G (12.2%, 3,654G)
Digitalsocrates: 1,012G (6.6%, 1,012G)
Evewho: 1,000G (6.6%, 10,149G)
NIghtdew14: 1,000G (6.6%, 31,225G)
Virilikus: 1,000G (6.6%, 191,179G)
Xoomwaffle: 985G (6.5%, 985G)
douchetron: 814G (5.3%, 1,598G)
i2inchtomahawk: 754G (4.9%, 754G)
TheChainNerd: 748G (4.9%, 748G)
Spartan_Paladin: 600G (3.9%, 43,113G)
ThreeMileIsland: 555G (3.6%, 9,231G)
DarrenDinosaurs: 524G (3.4%, 524G)
richardserious: 500G (3.3%, 2,347G)
RaIshtar: 500G (3.3%, 4,855G)
killth3kid: 484G (3.2%, 4,281G)
getthemoneyz: 480G (3.1%, 1,341,239G)
pplvee1: 388G (2.5%, 2,259G)
Error72: 356G (2.3%, 356G)
Treafa: 292G (1.9%, 347G)
Seaweed_B: 248G (1.6%, 248G)
Hirameki85: 236G (1.5%, 236G)
datadrivenbot: 200G (1.3%, 34,798G)
acedude1981: 200G (1.3%, 14,876G)
gorgewall: 101G (0.7%, 13,012G)
nhammen: 100G (0.7%, 4,831G)
ANFz: 100G (0.7%, 39,614G)
Thyrandaal: 100G (0.7%, 35,511G)
arkivegoof: 100G (0.7%, 1,155G)

purple bets:
SkylerBunny: 5,000G (33.3%, 38,495G)
rockmem21: 2,500G (16.6%, 8,798G)
HaateXIII: 1,378G (9.2%, 1,378G)
dogsandcatsand: 1,000G (6.7%, 6,186G)
DeathTaxesAndAnime: 764G (5.1%, 764G)
Laserman1000: 600G (4.0%, 3,500G)
E_Ballard: 596G (4.0%, 596G)
ohhinm: 592G (3.9%, 592G)
ColetteMSLP: 500G (3.3%, 11,351G)
fluffskull: 460G (3.1%, 460G)
Yarby: 350G (2.3%, 1,066G)
RageImmortaI: 308G (2.1%, 955G)
AllInBot: 200G (1.3%, 200G)
randgridr: 200G (1.3%, 2,255G)
ribbiks: 200G (1.3%, 1,097G)
Twisted_Nutsatchel: 100G (0.7%, 13,375G)
Miku_Shikhu: 100G (0.7%, 1,280G)
BaronHaynes: 100G (0.7%, 17,358G)
DaKoopa49: 72G (0.5%, 708G)
