Final Bets: white - 18 bets for 9,235G (60.8%, x0.65); black - 12 bets for 5,960G (39.2%, x1.55)

white bets:
Mesmaster: 2,000G (21.7%, 29,777G)
killth3kid: 1,230G (13.3%, 123,038G)
VolgraTheMoose: 1,001G (10.8%, 5,397G)
sukotsuto: 1,000G (10.8%, 31,561G)
cam_ATS: 555G (6.0%, 29,967G)
ANFz: 516G (5.6%, 516G)
HuffFlex: 500G (5.4%, 9,698G)
Snowfats: 500G (5.4%, 4,380G)
Aldrammech: 388G (4.2%, 388G)
fluffskull: 300G (3.2%, 2,611G)
twelfthrootoftwo: 300G (3.2%, 10,949G)
letdowncity: 234G (2.5%, 11,707G)
datadrivenbot: 200G (2.2%, 51,205G)
superdevon1: 107G (1.2%, 1,075G)
SephDarkheart: 104G (1.1%, 104G)
Miku_Shikhu: 100G (1.1%, 16,769G)
E_Ballard: 100G (1.1%, 9,571G)
CosmicTactician: 100G (1.1%, 51,230G)

black bets:
BirbBrainsBot: 1,000G (16.8%, 150,947G)
Creggers: 1,000G (16.8%, 21,048G)
turbn: 800G (13.4%, 8,809G)
getthemoneyz: 662G (11.1%, 1,161,868G)
reinoe: 500G (8.4%, 48,367G)
Error72: 500G (8.4%, 11,181G)
Mathlexis: 450G (7.6%, 1,588G)
DustBirdEX: 436G (7.3%, 436G)
SaltiestMage: 212G (3.6%, 212G)
livvexx: 200G (3.4%, 2,932G)
daveb_: 100G (1.7%, 838G)
Ring_Wyrm: 100G (1.7%, 3,142G)
