Final Bets: blue - 11 bets for 5,570G (22.6%, x3.43); champion - 27 bets for 19,127G (77.4%, x0.29)

blue bets:
killth3kid: 2,000G (35.9%, 59,576G)
JumbocactuarX27: 1,000G (18.0%, 21,098G)
ZephyrTempest: 456G (8.2%, 882G)
TheChainNerd: 448G (8.0%, 448G)
JarlBrolaf: 425G (7.6%, 425G)
FNCardascia_: 333G (6.0%, 666G)
EnemyController: 300G (5.4%, 208,103G)
Rislyeu: 296G (5.3%, 296G)
getthemoneyz: 112G (2.0%, 647,320G)
GrayGhostGaming: 100G (1.8%, 1,040G)
OneHundredFists: 100G (1.8%, 1,482G)

champion bets:
HaplessOne: 3,333G (17.4%, 30,246G)
Mesmaster: 3,000G (15.7%, 23,849G)
sinnyil2: 2,936G (15.4%, 4,256G)
LivingHitokiri: 1,000G (5.2%, 6,997G)
Lionhermit: 1,000G (5.2%, 37,654G)
Nickyfive: 895G (4.7%, 1,790G)
DeathTaxesAndAnime: 788G (4.1%, 788G)
HaateXIII: 608G (3.2%, 608G)
eudes89: 574G (3.0%, 574G)
joewcarson: 500G (2.6%, 8,915G)
fenaen: 500G (2.6%, 7,647G)
SQUiDSQUARKLIN: 500G (2.6%, 1,521G)
CapnChaos12: 500G (2.6%, 53,047G)
duckfist: 500G (2.6%, 5,527G)
Cryptopsy70: 404G (2.1%, 5,946G)
Hoffrandexpress: 400G (2.1%, 1,853G)
Eyepoor_: 264G (1.4%, 264G)
BirbBrainsBot: 262G (1.4%, 124,807G)
Miyokari: 250G (1.3%, 2,240G)
Practice_Pad: 200G (1.0%, 935G)
NicoSavoy: 112G (0.6%, 112G)
ungabunga_bot: 101G (0.5%, 429,214G)
nifboy: 100G (0.5%, 1,621G)
rjA0zcOQ96: 100G (0.5%, 18,608G)
maakur_: 100G (0.5%, 120,412G)
datadrivenbot: 100G (0.5%, 13,744G)
FriendSquirrel: 100G (0.5%, 26,192G)
