Final Bets: red - 17 bets for 7,689G (43.6%, x1.29); green - 19 bets for 9,953G (56.4%, x0.77)

red bets:
EnemyController: 1,000G (13.0%, 102,543G)
BirbBrainsBot: 1,000G (13.0%, 149,293G)
onetrickwolf: 772G (10.0%, 772G)
HaateXIII: 750G (9.8%, 43,368G)
Estan_AD: 719G (9.4%, 719G)
DavenIII: 650G (8.5%, 23,158G)
ShintaroNayaka: 500G (6.5%, 19,578G)
NovaKnight21: 400G (5.2%, 1,181G)
phu1996: 400G (5.2%, 1,569G)
Tinglenator: 363G (4.7%, 363G)
PetitFoulard: 296G (3.8%, 296G)
getthemoneyz: 230G (3.0%, 570,021G)
Meta_Five: 200G (2.6%, 10,518G)
Crimefridge: 108G (1.4%, 108G)
ZephyrTempest: 101G (1.3%, 186,063G)
Lali_Lulelo: 100G (1.3%, 16,190G)
GrandmasterFrankerZ: 100G (1.3%, 7,649G)

green bets:
roqqqpsi: 1,951G (19.6%, 8,871G)
video_game_ninja: 1,747G (17.6%, 1,747G)
fenaen: 1,500G (15.1%, 74,483G)
Zeroroute: 789G (7.9%, 789G)
catfashions: 500G (5.0%, 3,087G)
SwaffleWaffles: 500G (5.0%, 67,791G)
joewcarson: 453G (4.6%, 453G)
TheChainNerd: 344G (3.5%, 344G)
SQUiDSQUARKLIN: 300G (3.0%, 1,910G)
museofdoom: 300G (3.0%, 1,261G)
Anethum: 300G (3.0%, 17,386G)
ungabunga_bot: 244G (2.5%, 229,052G)
TheManInPlaid: 221G (2.2%, 2,938G)
ItsMyCoolName: 200G (2.0%, 2,674G)
TheRylander: 200G (2.0%, 3,915G)
GarbagePhoenix: 104G (1.0%, 104G)
lastly: 100G (1.0%, 3,734G)
DHaveWord: 100G (1.0%, 2,034G)
datadrivenbot: 100G (1.0%, 2,703G)
