Final Bets: green - 19 bets for 10,376G (42.5%, x1.35); brown - 16 bets for 14,059G (57.5%, x0.74)

green bets:
roqqqpsi: 2,523G (24.3%, 11,471G)
toka222: 2,000G (19.3%, 10,662G)
fenaen: 1,500G (14.5%, 75,142G)
EnemyController: 893G (8.6%, 100,893G)
catfashions: 500G (4.8%, 4,223G)
Courtesy_F1ush_: 500G (4.8%, 7,577G)
ItsMyCoolName: 400G (3.9%, 2,629G)
PetitFoulard: 327G (3.2%, 327G)
killth3kid: 316G (3.0%, 25,463G)
perce90: 300G (2.9%, 557G)
Estan_AD: 264G (2.5%, 264G)
Crimefridge: 152G (1.5%, 152G)
ZephyrTempest: 101G (1.0%, 185,861G)
lastly: 100G (1.0%, 4,352G)
Lali_Lulelo: 100G (1.0%, 16,131G)
GarbagePhoenix: 100G (1.0%, 260G)
datadrivenbot: 100G (1.0%, 2,821G)
DHaveWord: 100G (1.0%, 3,111G)
Bojanges: 100G (1.0%, 3,450G)

brown bets:
HaateXIII: 5,000G (35.6%, 43,122G)
onetrickwolf: 1,095G (7.8%, 1,095G)
TheRylander: 1,000G (7.1%, 3,981G)
ungabunga_bot: 1,000G (7.1%, 229,651G)
BirbBrainsBot: 1,000G (7.1%, 148,704G)
JumbocactuarX27: 1,000G (7.1%, 2,687G)
waterwatereverywhere: 1,000G (7.1%, 9,652G)
museofdoom: 904G (6.4%, 1,904G)
Zeroroute: 600G (4.3%, 600G)
Anethum: 500G (3.6%, 17,824G)
leakimiko: 282G (2.0%, 3,533G)
Meta_Five: 200G (1.4%, 10,400G)
CapnSauce420: 200G (1.4%, 5,110G)
getthemoneyz: 128G (0.9%, 569,363G)
duskps: 100G (0.7%, 13,101G)
DrAntiSocial: 50G (0.4%, 26,593G)
