Final Bets: red - 14 bets for 7,276G (51.8%, x0.93); white - 15 bets for 6,760G (48.2%, x1.08)

red bets:
NovaKnight21: 1,743G (24.0%, 1,743G)
Thyrandaal: 1,000G (13.7%, 46,817G)
NicoSavoy: 1,000G (13.7%, 16,318G)
killth3kid: 815G (11.2%, 8,159G)
Zeroroute: 600G (8.2%, 600G)
muffin_money: 500G (6.9%, 3,237G)
butterbelljedi: 367G (5.0%, 367G)
gorgewall: 301G (4.1%, 20,755G)
Grandlanzer: 300G (4.1%, 7,792G)
DeathTaxesAndAnime: 200G (2.7%, 2,503G)
AltimaMantoid: 150G (2.1%, 3,150G)
AllInBot: 100G (1.4%, 100G)
ko2q: 100G (1.4%, 13,169G)
datadrivenbot: 100G (1.4%, 43,155G)

white bets:
nifboy: 1,468G (21.7%, 1,468G)
Mesmaster: 1,100G (16.3%, 87,066G)
DamnThatShark: 1,000G (14.8%, 3,534G)
electric_algus: 500G (7.4%, 16,512G)
MadnessR: 500G (7.4%, 3,624G)
sir_uther115: 500G (7.4%, 2,447G)
letdowncity: 300G (4.4%, 22,506G)
O_Heyno: 272G (4.0%, 272G)
4shcrows: 212G (3.1%, 212G)
chaotic_prodigy: 208G (3.1%, 208G)
Flameatron: 200G (3.0%, 5,874G)
Smudgenosferatu: 200G (3.0%, 571G)
CosmicTactician: 100G (1.5%, 7,279G)
Evewho: 100G (1.5%, 3,508G)
Firesheath: 100G (1.5%, 13,797G)
