Final Bets: white - 12 bets for 11,668G (59.3%, x0.69); black - 10 bets for 7,997G (40.7%, x1.46)

white bets:
MoonSugarFiend: 5,000G (42.9%, 48,180G)
Mushufasa_: 1,234G (10.6%, 33,984G)
E_Ballard: 1,107G (9.5%, 1,107G)
mindblownnnn: 1,000G (8.6%, 4,133G)
Zagorsek: 897G (7.7%, 897G)
fenaen: 700G (6.0%, 33,162G)
ValensEXP_: 512G (4.4%, 22,041G)
khelor_: 500G (4.3%, 8,277G)
Zachara: 218G (1.9%, 3,618G)
AllInBot: 200G (1.7%, 200G)
datadrivenbot: 200G (1.7%, 85,439G)
DouglasDragonThePoet: 100G (0.9%, 2,999G)

black bets:
reinoe: 2,000G (25.0%, 35,006G)
HaplessOne: 1,805G (22.6%, 1,805G)
BirbBrainsBot: 1,000G (12.5%, 75,399G)
SeniorBunk: 1,000G (12.5%, 127,646G)
king_smashington: 558G (7.0%, 558G)
JonnyCue: 496G (6.2%, 10,770G)
Smashy: 460G (5.8%, 6,626G)
getthemoneyz: 328G (4.1%, 2,214,898G)
ExplanationMarkWow: 250G (3.1%, 13,890G)
FuzzyTigers: 100G (1.3%, 2,125G)
