Final Bets: purple - 6 bets for 4,621G (25.0%, x3.00); brown - 17 bets for 13,876G (75.0%, x0.33)

purple bets:
E_Ballard: 1,866G (40.4%, 1,866G)
Zagorsek: 1,512G (32.7%, 1,512G)
maakur_: 712G (15.4%, 712G)
Zachara: 267G (5.8%, 3,767G)
getthemoneyz: 164G (3.5%, 2,214,570G)
DouglasDragonThePoet: 100G (2.2%, 3,068G)

brown bets:
dogsandcatsand: 2,613G (18.8%, 2,613G)
MoonSugarFiend: 2,000G (14.4%, 51,607G)
Mushufasa_: 1,234G (8.9%, 34,830G)
Smashy: 1,000G (7.2%, 6,166G)
BirbBrainsBot: 1,000G (7.2%, 74,399G)
Lord_Gwarth: 1,000G (7.2%, 1,713G)
mindblownnnn: 1,000G (7.2%, 4,818G)
killth3kid: 864G (6.2%, 23,320G)
HaplessOne: 600G (4.3%, 600G)
ValensEXP_: 512G (3.7%, 22,392G)
Breakdown777: 500G (3.6%, 3,218G)
khelor_: 500G (3.6%, 8,620G)
AllInBot: 337G (2.4%, 337G)
king_smashington: 316G (2.3%, 316G)
datadrivenbot: 200G (1.4%, 85,576G)
nhammen: 100G (0.7%, 45,653G)
FuzzyTigers: 100G (0.7%, 2,025G)
