Final Bets: white - 10 bets for 7,309G (37.7%, x1.65); brown - 16 bets for 12,084G (62.3%, x0.60)

white bets:
E_Ballard: 2,224G (30.4%, 2,224G)
Mushufasa_: 1,234G (16.9%, 34,007G)
SephDarkheart: 1,100G (15.0%, 1,100G)
mindblownnnn: 1,000G (13.7%, 5,151G)
ExplanationMarkWow: 777G (10.6%, 13,000G)
Zagorsek: 508G (7.0%, 508G)
Zachara: 250G (3.4%, 3,500G)
DouglasDragonThePoet: 100G (1.4%, 3,295G)
FuzzyTigers: 100G (1.4%, 1,958G)
getthemoneyz: 16G (0.2%, 2,215,064G)

brown bets:
dogsandcatsand: 1,707G (14.1%, 1,707G)
Lord_Gwarth: 1,550G (12.8%, 1,550G)
AllInBot: 1,427G (11.8%, 1,427G)
BirbBrainsBot: 1,000G (8.3%, 76,345G)
MoonSugarFiend: 1,000G (8.3%, 52,273G)
killth3kid: 864G (7.1%, 22,744G)
maakur_: 712G (5.9%, 712G)
fenaen: 700G (5.8%, 32,942G)
ValensEXP_: 512G (4.2%, 22,998G)
khelor_: 500G (4.1%, 8,291G)
Breakdown777: 500G (4.1%, 2,885G)
Smashy: 500G (4.1%, 6,499G)
JonnyCue: 496G (4.1%, 10,274G)
king_smashington: 316G (2.6%, 316G)
datadrivenbot: 200G (1.7%, 85,443G)
nhammen: 100G (0.8%, 45,686G)
