Final Bets: green - 12 bets for 8,895G (59.4%, x0.68); yellow - 12 bets for 6,072G (40.6%, x1.46)

green bets:
upvla: 3,000G (33.7%, 9,589G)
RedRiderAyame: 2,250G (25.3%, 6,397G)
BirbBrainsBot: 925G (10.4%, 178,999G)
sinnyil2: 904G (10.2%, 904G)
MagicBottle: 540G (6.1%, 12,789G)
Rytor: 360G (4.0%, 360G)
getthemoneyz: 292G (3.3%, 1,298,434G)
winteriscorning: 224G (2.5%, 224G)
CosmicTactician: 100G (1.1%, 41,926G)
Firesheath: 100G (1.1%, 1,912G)
SephDarkheart: 100G (1.1%, 28,306G)
TasisSai: 100G (1.1%, 1,057G)

yellow bets:
AllInBot: 2,208G (36.4%, 2,208G)
TheChainNerd: 1,000G (16.5%, 27,552G)
datadrivenbot: 749G (12.3%, 43,273G)
mpghappiness: 572G (9.4%, 572G)
CapnChaos12: 300G (4.9%, 6,979G)
furrytomahawkk: 260G (4.3%, 260G)
Lythe_Caraker: 250G (4.1%, 143,656G)
Geffro1908: 232G (3.8%, 232G)
gorgewall: 201G (3.3%, 4,145G)
Miku_Shikhu: 100G (1.6%, 10,407G)
nifboy: 100G (1.6%, 3,935G)
TaigaFGC: 100G (1.6%, 1,000G)
