Final Bets: blue - 8 bets for 6,011G (60.8%, x0.64); purple - 11 bets for 3,869G (39.2%, x1.55)

blue bets:
iBardic: 2,000G (33.3%, 15,266G)
snkey: 1,255G (20.9%, 12,545G)
mindblownnnn: 1,088G (18.1%, 1,088G)
run_with_stone_GUNs: 652G (10.8%, 21,650G)
AllInBot: 504G (8.4%, 504G)
pplvee1: 312G (5.2%, 312G)
BartTradingCompany: 100G (1.7%, 320G)
CosmicTactician: 100G (1.7%, 30,584G)

purple bets:
BirbBrainsBot: 1,000G (25.8%, 193,004G)
brodeity: 500G (12.9%, 500G)
krombobreaker: 500G (12.9%, 6,034G)
projekt_mike: 400G (10.3%, 4,525G)
bigbongsmoker: 316G (8.2%, 4,331G)
Neech: 292G (7.5%, 1,269G)
ValensEXP_: 252G (6.5%, 2,630G)
gongonono: 200G (5.2%, 5,369G)
datadrivenbot: 200G (5.2%, 58,299G)
getthemoneyz: 108G (2.8%, 1,903,181G)
gorgewall: 101G (2.6%, 5,127G)
