Final Bets: black - 11 bets for 16,657G (58.0%, x0.73); purple - 18 bets for 12,085G (42.0%, x1.38)

black bets:
SephDarkheart: 4,810G (28.9%, 4,810G)
latebit: 2,911G (17.5%, 5,708G)
ko2q: 2,222G (13.3%, 4,445G)
maakur_: 1,620G (9.7%, 1,620G)
Thyrandaal: 1,234G (7.4%, 120,343G)
Aldrammech: 1,000G (6.0%, 21,999G)
sinnyil2: 832G (5.0%, 832G)
itsonlyspencer: 712G (4.3%, 712G)
killth3kid: 616G (3.7%, 4,636G)
Shalloween: 500G (3.0%, 57,268G)
ribbiks: 200G (1.2%, 5,855G)

purple bets:
gorgewall: 2,884G (23.9%, 2,884G)
maximumcrit: 2,390G (19.8%, 2,390G)
Lord_Burrah: 1,197G (9.9%, 83,197G)
getthemoneyz: 1,000G (8.3%, 1,513,825G)
BirbBrainsBot: 1,000G (8.3%, 25,878G)
ANFz: 500G (4.1%, 58,199G)
Smashy: 500G (4.1%, 7,832G)
NIghtdew14: 500G (4.1%, 2,541G)
CapnChaos12: 300G (2.5%, 16,474G)
NewbGaming: 300G (2.5%, 830G)
butterbelljedi: 288G (2.4%, 288G)
xBizzy: 208G (1.7%, 208G)
Foamsoldier: 204G (1.7%, 204G)
AllInBot: 200G (1.7%, 200G)
DAC169: 200G (1.7%, 2,171G)
datadrivenbot: 200G (1.7%, 49,889G)
Aeriyah: 114G (0.9%, 1,140G)
DHaveWord: 100G (0.8%, 1,732G)
