Final Bets: green - 22 bets for 11,474G (39.2%, x1.55); yellow - 18 bets for 17,827G (60.8%, x0.64)

green bets:
Evewho: 1,647G (14.4%, 3,230G)
Aldrammech: 1,000G (8.7%, 7,592G)
mpghappiness: 1,000G (8.7%, 11,111G)
ungabunga_bot: 1,000G (8.7%, 465,344G)
HaateXIII: 664G (5.8%, 664G)
BirbBrainsBot: 598G (5.2%, 598G)
DudeMonkey77: 598G (5.2%, 9,092G)
Baron_von_Scrub: 535G (4.7%, 25,089G)
Theseawolf1: 500G (4.4%, 38,347G)
volgrathemoose: 500G (4.4%, 3,154G)
DLJuggernaut: 500G (4.4%, 8,065G)
NicoSavoy: 500G (4.4%, 5,690G)
maakur_: 436G (3.8%, 436G)
CorpusCav: 400G (3.5%, 16,597G)
roofiepops: 333G (2.9%, 1,280G)
cupholderr: 300G (2.6%, 52,438G)
CapnChaos12: 300G (2.6%, 6,870G)
LAGBOT30000: 242G (2.1%, 24,292G)
ANFz: 121G (1.1%, 47,862G)
E_Ballard: 100G (0.9%, 3,803G)
Avin_Chaos: 100G (0.9%, 17,004G)
datadrivenbot: 100G (0.9%, 12,523G)

yellow bets:
toka222: 3,500G (19.6%, 37,707G)
Zbgs: 3,000G (16.8%, 79,832G)
Cryptopsy70: 2,923G (16.4%, 2,923G)
killth3kid: 2,000G (11.2%, 108,561G)
nifboy: 1,000G (5.6%, 1,000G)
ThePineappleSalesman: 1,000G (5.6%, 29,035G)
Mesmaster: 1,000G (5.6%, 125,674G)
CustomGameMaster: 800G (4.5%, 3,827G)
RoboticNomad: 700G (3.9%, 9,284G)
twelfthrootoftwo: 400G (2.2%, 4,511G)
vorap: 300G (1.7%, 40,831G)
rico_flex: 300G (1.7%, 27,111G)
ACSpree: 296G (1.7%, 296G)
carsenhk: 150G (0.8%, 21,112G)
getthemoneyz: 146G (0.8%, 673,441G)
Velixtra: 112G (0.6%, 112G)
Communis: 100G (0.6%, 100G)
Dymntd: 100G (0.6%, 16,029G)
