Final Bets: blue - 16 bets for 12,413G (53.0%, x0.89); yellow - 14 bets for 11,003G (47.0%, x1.13)

blue bets:
randgridr: 2,257G (18.2%, 2,257G)
Error72: 2,000G (16.1%, 12,844G)
DavenIII: 1,907G (15.4%, 3,814G)
fenaen: 1,200G (9.7%, 32,649G)
dogsandcatsand: 1,000G (8.1%, 5,492G)
Aldrammech: 924G (7.4%, 924G)
Cryptopsy70: 600G (4.8%, 26,062G)
Ring_Wyrm: 540G (4.4%, 540G)
moonliquor: 500G (4.0%, 1,408G)
Evewho: 500G (4.0%, 15,234G)
Forkmore: 284G (2.3%, 2,425G)
gorgewall: 201G (1.6%, 10,831G)
datadrivenbot: 200G (1.6%, 62,291G)
maddrave09: 100G (0.8%, 600G)
nhammen: 100G (0.8%, 6,774G)
DeathTaxesAndAnime: 100G (0.8%, 2,868G)

yellow bets:
NicoSavoy: 2,000G (18.2%, 156,549G)
roqqqpsi: 1,857G (16.9%, 46,446G)
TheChainNerd: 1,000G (9.1%, 20,595G)
Theseawolf1: 1,000G (9.1%, 26,444G)
BirbBrainsBot: 1,000G (9.1%, 1,119G)
SkylerBunny: 1,000G (9.1%, 3,939G)
evdoggity: 1,000G (9.1%, 86,306G)
getthemoneyz: 574G (5.2%, 1,242,690G)
dantayystv: 500G (4.5%, 802G)
KasugaiRoastedPeas: 400G (3.6%, 19,982G)
TasisSai: 371G (3.4%, 728G)
VolgraTheMoose: 101G (0.9%, 7,845G)
RageImmortaI: 100G (0.9%, 2,258G)
Aquios_: 100G (0.9%, 235G)
