Final Bets: red - 15 bets for 7,921G (30.5%, x2.28); blue - 18 bets for 18,066G (69.5%, x0.44)

red bets:
UmaiJam: 1,700G (21.5%, 72,839G)
coralreeferz: 1,500G (18.9%, 28,749G)
Grimmace45: 1,394G (17.6%, 13,941G)
BirbBrainsBot: 1,000G (12.6%, 101,651G)
Seaweed_B: 500G (6.3%, 5,714G)
TheMurkGnome: 500G (6.3%, 39,173G)
resjudicata3: 228G (2.9%, 228G)
getthemoneyz: 218G (2.8%, 1,395,999G)
Rytor: 200G (2.5%, 22,055G)
dinin991: 164G (2.1%, 164G)
OverlordSS4: 116G (1.5%, 116G)
douchetron: 101G (1.3%, 7,402G)
Blastinus: 100G (1.3%, 1,326G)
chapchansan: 100G (1.3%, 2,092G)
Hirameki85: 100G (1.3%, 5,300G)

blue bets:
reinoe: 5,000G (27.7%, 118,819G)
Shalloween: 4,199G (23.2%, 8,398G)
mattcorn7: 2,000G (11.1%, 24,793G)
Thyrandaal: 1,111G (6.1%, 238,840G)
WitchHunterIX: 1,000G (5.5%, 1,360G)
porkchop5158: 994G (5.5%, 994G)
pandasforsale: 946G (5.2%, 946G)
AllInBot: 764G (4.2%, 764G)
slotheye17: 500G (2.8%, 1,645G)
DustBirdEX: 400G (2.2%, 6,073G)
Treafa: 312G (1.7%, 931G)
datadrivenbot: 200G (1.1%, 40,385G)
flacococo: 136G (0.8%, 136G)
MrBusiness: 104G (0.6%, 104G)
poGpopE: 100G (0.6%, 8,660G)
CT_5_Holy: 100G (0.6%, 503G)
mrpickins: 100G (0.6%, 5,740G)
Miku_Shikhu: 100G (0.6%, 1,711G)
