Final Bets: blue - 14 bets for 11,246G (58.2%, x0.72); white - 11 bets for 8,092G (41.8%, x1.39)

blue bets:
Shalloween: 4,044G (36.0%, 8,088G)
Thyrandaal: 3,333G (29.6%, 244,059G)
coralreeferz: 1,250G (11.1%, 31,745G)
prince_rogers_nelson_: 576G (5.1%, 576G)
slotheye17: 500G (4.4%, 1,667G)
silentperogy: 400G (3.6%, 32,822G)
Treafa: 312G (2.8%, 312G)
AllInBot: 200G (1.8%, 200G)
datadrivenbot: 200G (1.8%, 41,029G)
mattcorn7: 120G (1.1%, 120G)
mrpickins: 100G (0.9%, 6,344G)
Hirameki85: 100G (0.9%, 5,500G)
resjudicata3: 100G (0.9%, 833G)
roofiepops: 11G (0.1%, 1,417G)

white bets:
UmaiJam: 1,700G (21.0%, 73,623G)
Grimmace45: 1,365G (16.9%, 13,656G)
ColetteMSLP: 1,000G (12.4%, 23,646G)
TheMurkGnome: 1,000G (12.4%, 50,524G)
BirbBrainsBot: 854G (10.6%, 103,432G)
Miku_Shikhu: 634G (7.8%, 634G)
Seaweed_B: 500G (6.2%, 8,202G)
DustBirdEX: 400G (4.9%, 6,359G)
MaskGibson: 396G (4.9%, 396G)
getthemoneyz: 142G (1.8%, 1,397,305G)
douchetron: 101G (1.2%, 7,518G)
