Final Bets: red - 19 bets for 13,661G (80.7%, x0.24); green - 6 bets for 3,276G (19.3%, x4.17)

red bets:
DavenIII: 2,500G (18.3%, 33,307G)
old_overholt_: 2,000G (14.6%, 47,674G)
Mushufasa_: 1,234G (9.0%, 23,323G)
BirbBrainsBot: 1,000G (7.3%, 174,431G)
Sairentozon7: 1,000G (7.3%, 79,824G)
MoonSugarFiend: 1,000G (7.3%, 63,416G)
Thyrandaal: 984G (7.2%, 984G)
killth3kid: 844G (6.2%, 42,507G)
CosmicTactician: 657G (4.8%, 1,314G)
2b_yorha_b: 500G (3.7%, 31,974G)
getthemoneyz: 476G (3.5%, 2,203,628G)
Spartan_Paladin: 396G (2.9%, 396G)
FuzzyTigers: 269G (2.0%, 269G)
AllInBot: 200G (1.5%, 200G)
ValensEXP_: 200G (1.5%, 3,135G)
datadrivenbot: 200G (1.5%, 83,273G)
Sharosa: 100G (0.7%, 951G)
DrAntiSocial: 100G (0.7%, 772G)
nhammen: 1G (0.0%, 15,599G)

green bets:
CorpusCav: 1,300G (39.7%, 44,261G)
fenaen: 688G (21.0%, 38,640G)
Zagorsek: 572G (17.5%, 572G)
DouglasDragonThePoet: 416G (12.7%, 416G)
Evewho: 200G (6.1%, 20,255G)
AbandonedHall: 100G (3.1%, 666G)
