Final Bets: red - 26 bets for 23,335G (58.0%, x0.72); brown - 13 bets for 16,914G (42.0%, x1.38)

red bets:
thunderducker: 3,796G (16.3%, 3,796G)
DavenIII: 2,500G (10.7%, 35,443G)
Leonidusx: 2,000G (8.6%, 514,533G)
old_overholt_: 2,000G (8.6%, 50,202G)
tinytittyfiend: 2,000G (8.6%, 15,087G)
MoonSugarFiend: 2,000G (8.6%, 63,655G)
Mushufasa_: 1,234G (5.3%, 24,131G)
latebit: 1,200G (5.1%, 4,256G)
SQUiDSQUARKLIN: 996G (4.3%, 996G)
Spartan_Paladin: 994G (4.3%, 994G)
DouglasDragonThePoet: 842G (3.6%, 842G)
nifboy: 689G (3.0%, 689G)
AllInBot: 502G (2.2%, 502G)
technominari: 500G (2.1%, 91,468G)
Cryptopsy70: 420G (1.8%, 1,286G)
getthemoneyz: 262G (1.1%, 2,203,550G)
ValensEXP_: 200G (0.9%, 3,388G)
Evewho: 200G (0.9%, 19,855G)
resjudicata3: 200G (0.9%, 12,915G)
datadrivenbot: 200G (0.9%, 83,526G)
readdesert: 100G (0.4%, 721G)
Sharosa: 100G (0.4%, 975G)
AbandonedHall: 100G (0.4%, 466G)
CosmicTactician: 100G (0.4%, 2,041G)
FuzzyTigers: 100G (0.4%, 436G)
smallboops: 100G (0.4%, 985G)

brown bets:
Jeeboheebo: 8,227G (48.6%, 8,227G)
CorpusCav: 1,200G (7.1%, 44,190G)
Zagorsek: 1,158G (6.8%, 1,158G)
SeniorBunk: 1,000G (5.9%, 8,265G)
BirbBrainsBot: 1,000G (5.9%, 173,671G)
nhammen: 1,000G (5.9%, 14,600G)
E_Ballard: 940G (5.6%, 940G)
Shalloween: 600G (3.5%, 58,591G)
Lionhermit: 589G (3.5%, 589G)
2b_yorha_b: 500G (3.0%, 31,594G)
almost__sane: 400G (2.4%, 792G)
NicoSavoy: 200G (1.2%, 6,642G)
SensualOnix: 100G (0.6%, 121G)
