Final Bets: black - 19 bets for 13,936G (36.9%, x1.71); purple - 8 bets for 23,843G (63.1%, x0.58)

black bets:
Shalloween: 2,400G (17.2%, 36,669G)
NicoSavoy: 2,000G (14.4%, 344,477G)
EnemyController: 1,999G (14.3%, 1,514,218G)
getthemoneyz: 1,000G (7.2%, 1,440,890G)
silentkaster: 1,000G (7.2%, 11,000G)
BirbBrainsBot: 1,000G (7.2%, 26,374G)
prince_rogers_nelson_: 660G (4.7%, 660G)
iBardic: 652G (4.7%, 652G)
superdevon1: 594G (4.3%, 29,730G)
killth3kid: 556G (4.0%, 17,022G)
josephiroth_143: 500G (3.6%, 1,994G)
gooblz: 300G (2.2%, 2,755G)
AllInBot: 257G (1.8%, 257G)
mrpickins: 232G (1.7%, 3,877G)
SpicyCherrySoda_: 224G (1.6%, 224G)
datadrivenbot: 200G (1.4%, 47,687G)
amhamor: 139G (1.0%, 139G)
roofiepops: 123G (0.9%, 9,739G)
twelfthrootoftwo: 100G (0.7%, 936G)

purple bets:
douchetron: 17,641G (74.0%, 34,592G)
Zeroroute: 2,660G (11.2%, 2,660G)
randgridr: 1,816G (7.6%, 18,165G)
escobro: 1,000G (4.2%, 12,212G)
Treafa: 332G (1.4%, 426G)
resjudicata3: 244G (1.0%, 244G)
Lydian_C: 123G (0.5%, 6,482G)
dtrain332: 27G (0.1%, 2,799G)
