Final Bets: white - 22 bets for 15,772G (63.4%, x0.58); black - 19 bets for 9,099G (36.6%, x1.73)

white bets:
dogsandcatsand: 2,500G (15.9%, 27,666G)
JumbocactuarX27: 2,000G (12.7%, 4,919G)
holdenmagronik: 1,570G (10.0%, 1,570G)
upvla: 1,220G (7.7%, 1,220G)
LDSkinny: 1,080G (6.8%, 1,080G)
powergems: 1,000G (6.3%, 6,770G)
VolgraTheMoose: 898G (5.7%, 898G)
roofiepops: 740G (4.7%, 740G)
Musashi45: 663G (4.2%, 3,887G)
thunderducker: 654G (4.1%, 654G)
Smugzug: 522G (3.3%, 7,459G)
Lifebregin: 500G (3.2%, 23,712G)
triniculo: 467G (3.0%, 467G)
prince_rogers_nelson_: 428G (2.7%, 428G)
JonnyCue: 380G (2.4%, 2,209G)
killth3kid: 250G (1.6%, 10,180G)
WhiteDog420: 200G (1.3%, 272G)
datadrivenbot: 200G (1.3%, 65,985G)
BirbBrainsBot: 200G (1.3%, 200G)
AllInBot: 100G (0.6%, 100G)
grishhammer: 100G (0.6%, 1,282G)
Thyrandaal: 100G (0.6%, 67,622G)

black bets:
sinnyil2: 1,200G (13.2%, 163,028G)
ins4n1ty87: 1,169G (12.8%, 8,081G)
SacrificialToast: 1,000G (11.0%, 10,303G)
getthemoneyz: 1,000G (11.0%, 1,955,954G)
Willjin: 600G (6.6%, 600G)
lowlf: 536G (5.9%, 15,574G)
Dasutin23: 524G (5.8%, 8,562G)
LivingHitokiri: 500G (5.5%, 58,167G)
BaronHaynes: 500G (5.5%, 38,460G)
skipsandwiches: 412G (4.5%, 16,875G)
pplvee1: 372G (4.1%, 372G)
ser_pyrro: 260G (2.9%, 260G)
mirapoix: 200G (2.2%, 4,617G)
mrfripps: 200G (2.2%, 10,427G)
SnarkMage: 166G (1.8%, 333G)
Setsaku: 160G (1.8%, 160G)
BartTradingCompany: 100G (1.1%, 9,707G)
maakur_: 100G (1.1%, 3,243G)
Disindjinnuous: 100G (1.1%, 4,255G)
