Final Bets: red - 8 bets for 7,384G (41.3%, x1.42); blue - 23 bets for 10,496G (58.7%, x0.70)

red bets:
NovaKnight21: 2,520G (34.1%, 5,040G)
Thyrandaal: 1,829G (24.8%, 3,587G)
resjudicata3: 1,305G (17.7%, 1,305G)
OneHundredFists: 1,000G (13.5%, 14,258G)
rocl: 404G (5.5%, 5,432G)
Lydian_C: 123G (1.7%, 1,423G)
Chuckolator: 103G (1.4%, 23,624G)
MemoriesofFinal: 100G (1.4%, 4,993G)

blue bets:
Mesmaster: 2,000G (19.1%, 272,334G)
NicoSavoy: 2,000G (19.1%, 48,587G)
BirbBrainsBot: 1,000G (9.5%, 87,150G)
TheDapperChangeling: 770G (7.3%, 770G)
CorpusCav: 684G (6.5%, 684G)
thunderducker: 600G (5.7%, 600G)
upvla: 500G (4.8%, 500G)
lijarkh: 340G (3.2%, 340G)
ser_pyrro: 300G (2.9%, 4,107G)
Mushufasa_: 288G (2.7%, 288G)
ValensEXP_: 272G (2.6%, 380G)
Ogema_theDream: 220G (2.1%, 235G)
ArrenJevleth: 200G (1.9%, 6,055G)
otakutaylor: 200G (1.9%, 2,963G)
datadrivenbot: 200G (1.9%, 58,286G)
Moshyhero: 200G (1.9%, 2,704G)
threedope: 112G (1.1%, 112G)
getthemoneyz: 110G (1.0%, 1,921,770G)
AllInBot: 100G (1.0%, 100G)
BartTradingCompany: 100G (1.0%, 5,426G)
humbertogeovane: 100G (1.0%, 867G)
palachipala: 100G (1.0%, 100G)
gingerfoo69: 100G (1.0%, 862G)
