Final Bets: purple - 18 bets for 16,774G (63.6%, x0.57); brown - 15 bets for 9,593G (36.4%, x1.75)

purple bets:
OneHundredFists: 6,576G (39.2%, 12,896G)
otakutaylor: 2,704G (16.1%, 2,704G)
NicoSavoy: 2,000G (11.9%, 49,994G)
BirbBrainsBot: 1,000G (6.0%, 89,005G)
getthemoneyz: 1,000G (6.0%, 1,921,859G)
Sairentozon7: 1,000G (6.0%, 15,929G)
thunderducker: 600G (3.6%, 600G)
upvla: 500G (3.0%, 500G)
ValensEXP_: 272G (1.6%, 649G)
Mushufasa_: 200G (1.2%, 1,177G)
Moshyhero: 200G (1.2%, 2,645G)
nok____: 200G (1.2%, 2,600G)
threedope: 112G (0.7%, 112G)
BartTradingCompany: 100G (0.6%, 5,425G)
palachipala: 100G (0.6%, 100G)
gingerfoo69: 100G (0.6%, 861G)
TheDapperChangeling: 100G (0.6%, 1,112G)
Bluebirdzontwitch: 10G (0.1%, 990G)

brown bets:
ser_pyrro: 2,000G (20.8%, 4,327G)
Chuckolator: 1,996G (20.8%, 23,521G)
NovaKnight21: 1,260G (13.1%, 2,520G)
Mesmaster: 1,000G (10.4%, 271,741G)
Raixelol: 600G (6.3%, 600G)
resjudicata3: 532G (5.5%, 532G)
ANFz: 496G (5.2%, 1,311G)
lijarkh: 437G (4.6%, 437G)
ArrenJevleth: 300G (3.1%, 6,256G)
Ogema_theDream: 220G (2.3%, 453G)
datadrivenbot: 200G (2.1%, 58,284G)
humbertogeovane: 200G (2.1%, 866G)
AllInBot: 129G (1.3%, 129G)
Lydian_C: 123G (1.3%, 2,303G)
Axciom: 100G (1.0%, 413G)
