Final Bets: green - 18 bets for 11,924G (44.3%, x1.26); brown - 21 bets for 15,001G (55.7%, x0.79)

green bets:
Grimmace45: 3,470G (29.1%, 3,470G)
dorman_777: 2,426G (20.3%, 2,426G)
BirbBrainsBot: 996G (8.4%, 12,131G)
FoeSquirrel: 664G (5.6%, 1,328G)
InOzWeTrust: 625G (5.2%, 625G)
superdevon1: 519G (4.4%, 5,190G)
PotionDweller: 500G (4.2%, 4,914G)
Bahamut64: 500G (4.2%, 14,169G)
Sungazes: 400G (3.4%, 1,505G)
TheGuesty: 334G (2.8%, 25,834G)
twelfthrootoftwo: 300G (2.5%, 2,866G)
tsdZero: 250G (2.1%, 1,716G)
CoderCalamity: 220G (1.8%, 220G)
benticore: 220G (1.8%, 220G)
Bioticism: 200G (1.7%, 6,903G)
Firesheath: 100G (0.8%, 13,872G)
Evewho: 100G (0.8%, 8,602G)
tmo50x: 100G (0.8%, 7,586G)

brown bets:
Arunic: 3,000G (20.0%, 8,320G)
killth3kid: 2,000G (13.3%, 45,829G)
Mtueni: 2,000G (13.3%, 240,049G)
volgrathemoose: 1,653G (11.0%, 3,306G)
Jeeboheebo: 1,171G (7.8%, 1,171G)
ungabunga_bot: 1,000G (6.7%, 337,449G)
Zeroroute: 500G (3.3%, 500G)
EnemyController: 500G (3.3%, 179,367G)
luminarii: 465G (3.1%, 12,135G)
OmnibotGamma: 460G (3.1%, 460G)
ZephyrTempest: 456G (3.0%, 2,141G)
roofiepops: 444G (3.0%, 13,748G)
RunicMagus: 300G (2.0%, 49,329G)
joewcarson: 300G (2.0%, 5,403G)
SQUiDSQUARKLIN: 272G (1.8%, 272G)
genericco: 136G (0.9%, 136G)
nifboy: 100G (0.7%, 5,589G)
datadrivenbot: 100G (0.7%, 14,741G)
calmcat15: 50G (0.3%, 686G)
b0shii: 50G (0.3%, 11,858G)
getthemoneyz: 44G (0.3%, 612,768G)
