Final Bets: brown - 18 bets for 11,970G (44.5%, x1.24); champion - 22 bets for 14,899G (55.5%, x0.80)

brown bets:
killth3kid: 2,000G (16.7%, 47,419G)
sinnyil2: 1,200G (10.0%, 25,133G)
ungabunga_bot: 1,000G (8.4%, 338,244G)
BirbBrainsBot: 1,000G (8.4%, 11,135G)
Bahamut64: 1,000G (8.4%, 13,669G)
Mtueni: 1,000G (8.4%, 241,639G)
OmnibotGamma: 826G (6.9%, 826G)
HaateXIII: 557G (4.7%, 1,525G)
CapnChaos12: 500G (4.2%, 53,412G)
SQUiDSQUARKLIN: 488G (4.1%, 488G)
ZephyrTempest: 456G (3.8%, 2,503G)
TheFALLofLindsay: 346G (2.9%, 346G)
Grimmace45: 336G (2.8%, 336G)
luminarii: 327G (2.7%, 12,505G)
RyuTsuno: 324G (2.7%, 324G)
joewcarson: 300G (2.5%, 5,641G)
InOzWeTrust: 260G (2.2%, 260G)
calmcat15: 50G (0.4%, 726G)

champion bets:
Bioticism: 3,351G (22.5%, 6,703G)
jakeduhhsnake: 2,000G (13.4%, 70,460G)
DeathTaxesAndAnime: 1,162G (7.8%, 1,162G)
saucy_wings: 1,142G (7.7%, 1,142G)
red__lancer: 1,000G (6.7%, 32,070G)
Fenrislfr: 1,000G (6.7%, 3,343G)
EnemyController: 1,000G (6.7%, 179,764G)
Zeroroute: 897G (6.0%, 897G)
vorap: 800G (5.4%, 32,856G)
superdevon1: 467G (3.1%, 4,671G)
Cryptopsy70: 388G (2.6%, 32,411G)
twelfthrootoftwo: 300G (2.0%, 2,566G)
tsdZero: 250G (1.7%, 1,466G)
genericco: 244G (1.6%, 244G)
CoderCalamity: 220G (1.5%, 220G)
getthemoneyz: 166G (1.1%, 612,803G)
Firesheath: 100G (0.7%, 13,772G)
Evewho: 100G (0.7%, 8,502G)
DHaveWord: 100G (0.7%, 2,832G)
datadrivenbot: 100G (0.7%, 14,820G)
Realitydown: 100G (0.7%, 5,401G)
daveb_: 12G (0.1%, 1,103G)
