Final Bets: red - 16 bets for 11,148G (65.2%, x0.53); blue - 12 bets for 5,950G (34.8%, x1.87)

red bets:
HaateXIII: 2,834G (25.4%, 2,834G)
NovaKnight21: 1,000G (9.0%, 7,312G)
BirbBrainsBot: 1,000G (9.0%, 52,531G)
Creggers: 1,000G (9.0%, 26,500G)
NicoSavoy: 1,000G (9.0%, 214,848G)
Laserman1000: 900G (8.1%, 36,700G)
superdevon1: 666G (6.0%, 4,445G)
AllInBot: 590G (5.3%, 590G)
escobro: 500G (4.5%, 12,097G)
killth3kid: 436G (3.9%, 1,308G)
Lemonjohns: 400G (3.6%, 5,989G)
roofiepops: 222G (2.0%, 2,633G)
cho_pin: 200G (1.8%, 1,442G)
datadrivenbot: 200G (1.8%, 30,907G)
Miku_Shikhu: 100G (0.9%, 16,469G)
ANFz: 100G (0.9%, 47,235G)

blue bets:
sinnyil2: 2,480G (41.7%, 4,960G)
twelfthrootoftwo: 646G (10.9%, 646G)
prince_rogers_nelson_: 556G (9.3%, 556G)
Evewho: 540G (9.1%, 540G)
dtrain332: 491G (8.3%, 491G)
randgridr: 396G (6.7%, 396G)
Treafa: 256G (4.3%, 439G)
gorgewall: 201G (3.4%, 9,952G)
nifboy: 100G (1.7%, 10,111G)
Legionx13: 100G (1.7%, 3,473G)
Firesheath: 100G (1.7%, 13,414G)
getthemoneyz: 84G (1.4%, 1,313,235G)
