Final Bets: white - 8 bets for 3,521G (32.7%, x2.05); purple - 13 bets for 7,233G (67.3%, x0.49)

white bets:
Laserman1000: 971G (27.6%, 38,771G)
BirbBrainsBot: 640G (18.2%, 53,589G)
cho_pin: 500G (14.2%, 1,785G)
superdevon1: 493G (14.0%, 4,932G)
prince_rogers_nelson_: 456G (13.0%, 456G)
furrytomahawkk: 200G (5.7%, 7,961G)
getthemoneyz: 140G (4.0%, 1,313,217G)
Lydian_C: 121G (3.4%, 63,698G)

purple bets:
sinnyil2: 1,118G (15.5%, 2,237G)
Creggers: 1,000G (13.8%, 28,982G)
Thyrandaal: 1,000G (13.8%, 8,857G)
HaateXIII: 784G (10.8%, 784G)
AllInBot: 675G (9.3%, 675G)
escobro: 500G (6.9%, 12,364G)
randgridr: 396G (5.5%, 396G)
LAGBOT30000: 389G (5.4%, 7,790G)
Treafa: 370G (5.1%, 370G)
Lemonjohns: 300G (4.1%, 6,202G)
Grandlanzer: 300G (4.1%, 91,562G)
gorgewall: 201G (2.8%, 9,685G)
datadrivenbot: 200G (2.8%, 32,136G)
