Final Bets: green - 8 bets for 3,972G (24.8%, x3.03); yellow - 5 bets for 12,018G (75.2%, x0.33)

green bets:
BirbBrainsBot: 1,000G (25.2%, 6,221G)
Mesmaster: 1,000G (25.2%, 80,207G)
prince_rogers_nelson_: 600G (15.1%, 600G)
getthemoneyz: 532G (13.4%, 1,058,336G)
CrownOfHorns: 328G (8.3%, 328G)
Arcblazer23: 312G (7.9%, 312G)
Ring_Wyrm: 100G (2.5%, 4,981G)
nifboy: 100G (2.5%, 6,822G)

yellow bets:
serperemagus: 7,233G (60.2%, 7,233G)
VolgraTheMoose: 3,365G (28.0%, 6,731G)
ACSpree: 1,120G (9.3%, 1,120G)
Evewho: 200G (1.7%, 7,580G)
datadrivenbot: 100G (0.8%, 49,877G)
