Final Bets: red - 5 bets for 4,022G (58.5%, x0.71); green - 4 bets for 2,852G (41.5%, x1.41)

red bets:
prince_rogers_nelson_: 2,095G (52.1%, 2,095G)
nifboy: 1,000G (24.9%, 7,025G)
serperemagus: 645G (16.0%, 645G)
PrancesWithWolves: 182G (4.5%, 182G)
datadrivenbot: 100G (2.5%, 49,725G)

green bets:
BirbBrainsBot: 1,000G (35.1%, 9,056G)
Mesmaster: 1,000G (35.1%, 84,389G)
getthemoneyz: 652G (22.9%, 1,059,955G)
Evewho: 200G (7.0%, 6,980G)
