Final Bets: green - 11 bets for 4,068G (26.6%, x2.76); yellow - 15 bets for 11,220G (73.4%, x0.36)

green bets:
CT_5_Holy: 795G (19.5%, 795G)
maakur_: 572G (14.1%, 572G)
Nizaha: 556G (13.7%, 11,628G)
killth3kid: 464G (11.4%, 1,426G)
letdowncity: 432G (10.6%, 432G)
getthemoneyz: 330G (8.1%, 1,328,161G)
furrytomahawkk: 296G (7.3%, 296G)
Evewho: 200G (4.9%, 1,312G)
shineeyo: 200G (4.9%, 12,287G)
ohhinm: 123G (3.0%, 2,129G)
Powermhero: 100G (2.5%, 26,538G)

yellow bets:
NicoSavoy: 2,300G (20.5%, 258,065G)
Zeroroute: 2,280G (20.3%, 2,280G)
ColetteMSLP: 1,218G (10.9%, 1,218G)
BirbBrainsBot: 1,000G (8.9%, 129,292G)
HaateXIII: 816G (7.3%, 816G)
Thyrandaal: 800G (7.1%, 2,086G)
InfiniteContinues: 760G (6.8%, 760G)
lyonslegacy: 410G (3.7%, 410G)
AllInBot: 394G (3.5%, 394G)
Treafa: 276G (2.5%, 276G)
athros13: 272G (2.4%, 9,115G)
gorgewall: 201G (1.8%, 5,118G)
datadrivenbot: 200G (1.8%, 34,913G)
roqqqpsi: 193G (1.7%, 204G)
nhammen: 100G (0.9%, 9,939G)
