Final Bets: red - 15 bets for 10,570G (78.9%, x0.27); green - 9 bets for 2,828G (21.1%, x3.74)

red bets:
RaIshtar: 2,011G (19.0%, 2,011G)
Lord_Burrah: 1,487G (14.1%, 79,487G)
BirbBrainsBot: 1,000G (9.5%, 129,246G)
HaateXIII: 816G (7.7%, 816G)
ColetteMSLP: 803G (7.6%, 803G)
Powermhero: 761G (7.2%, 26,761G)
Zeroroute: 600G (5.7%, 600G)
Nizaha: 560G (5.3%, 13,428G)
Evewho: 500G (4.7%, 2,054G)
lyonslegacy: 480G (4.5%, 480G)
killth3kid: 464G (4.4%, 1,706G)
Cryptopsy70: 316G (3.0%, 316G)
furrytomahawkk: 296G (2.8%, 296G)
Treafa: 276G (2.6%, 410G)
shineeyo: 200G (1.9%, 12,139G)

green bets:
getthemoneyz: 738G (26.1%, 1,329,380G)
AllInBot: 436G (15.4%, 436G)
Beastmages: 333G (11.8%, 333G)
CapnChaos12: 300G (10.6%, 5,010G)
roqqqpsi: 286G (10.1%, 302G)
ohhinm: 234G (8.3%, 1,589G)
gorgewall: 201G (7.1%, 5,113G)
datadrivenbot: 200G (7.1%, 34,903G)
douchetron: 100G (3.5%, 100G)
