Final Bets: red - 11 bets for 8,300G (48.1%, x1.08); blue - 12 bets for 8,948G (51.9%, x0.93)

red bets:
actual_JP: 2,681G (32.3%, 2,681G)
Thyrandaal: 1,234G (14.9%, 162,120G)
Aldrammech: 1,000G (12.0%, 5,452G)
BirbBrainsBot: 1,000G (12.0%, 86,221G)
RetroGameCommander: 658G (7.9%, 658G)
brokenknight201: 500G (6.0%, 3,819G)
Miku_Shikhu: 452G (5.4%, 452G)
VolgraTheMoose: 400G (4.8%, 2,158G)
getthemoneyz: 174G (2.1%, 1,561,701G)
ANFz: 101G (1.2%, 46,455G)
MinBetBot: 100G (1.2%, 17,866G)

blue bets:
ko2q: 2,606G (29.1%, 2,606G)
DavenIII: 1,250G (14.0%, 6,182G)
AllInBot: 1,217G (13.6%, 1,217G)
MisssTresss: 1,132G (12.7%, 1,132G)
dogsandcatsand: 684G (7.6%, 684G)
CT_5_Holy: 508G (5.7%, 508G)
coralreeferz: 500G (5.6%, 28,650G)
roqqqpsi: 360G (4.0%, 2,406G)
Smugzug: 291G (3.3%, 291G)
TheDeeyo: 200G (2.2%, 400G)
CosmicTactician: 100G (1.1%, 7,084G)
northkoreancleetus: 100G (1.1%, 100G)
