Final Bets: yellow - 15 bets for 23,132G (61.7%, x0.62); champion - 11 bets for 14,333G (38.3%, x1.61)

yellow bets:
pplvee1: 7,152G (30.9%, 7,152G)
Thyrandaal: 4,000G (17.3%, 164,501G)
nhammen: 4,000G (17.3%, 211,131G)
Aldrammech: 1,968G (8.5%, 1,968G)
maximumcrit: 1,000G (4.3%, 23,081G)
dogsandcatsand: 1,000G (4.3%, 2,055G)
BirbBrainsBot: 1,000G (4.3%, 90,452G)
cho_pin: 781G (3.4%, 781G)
Miku_Shikhu: 600G (2.6%, 1,328G)
killth3kid: 552G (2.4%, 6,481G)
josephiroth_143: 500G (2.2%, 3,561G)
DesertWooder: 252G (1.1%, 252G)
getthemoneyz: 126G (0.5%, 1,561,606G)
ANFz: 101G (0.4%, 46,281G)
MinBetBot: 100G (0.4%, 17,958G)

champion bets:
douchetron: 7,521G (52.5%, 14,748G)
UmaiJam: 2,000G (14.0%, 25,012G)
J2DaBibbles: 1,200G (8.4%, 17,055G)
ko2q: 640G (4.5%, 640G)
CT_5_Holy: 508G (3.5%, 508G)
RetroGameCommander: 500G (3.5%, 6,725G)
sinnyil2: 500G (3.5%, 4,283G)
roqqqpsi: 471G (3.3%, 858G)
VolgraTheMoose: 401G (2.8%, 2,512G)
SephDarkheart: 392G (2.7%, 16,843G)
AllInBot: 200G (1.4%, 200G)
