Final Bets: white - 10 bets for 7,494G (36.7%, x1.72); black - 17 bets for 12,918G (63.3%, x0.58)

white bets:
Adam1949: 3,000G (40.0%, 90,248G)
ThreeMileIsland: 1,000G (13.3%, 17,433G)
ohhinm: 1,000G (13.3%, 3,899G)
coralreeferz: 750G (10.0%, 33,736G)
Shalloween: 600G (8.0%, 114,743G)
ProjectLG: 300G (4.0%, 4,610G)
getthemoneyz: 276G (3.7%, 1,390,093G)
BirbBrainsBot: 268G (3.6%, 82,698G)
resjudicata3: 200G (2.7%, 846G)
Zakanakai: 100G (1.3%, 1,228G)

black bets:
MrFlabyo: 5,000G (38.7%, 270,527G)
E_Ballard: 1,682G (13.0%, 1,682G)
VolgraTheMoose: 1,288G (10.0%, 1,288G)
Thyrandaal: 1,111G (8.6%, 169,670G)
DustBirdEX: 1,000G (7.7%, 3,889G)
Nizaha: 584G (4.5%, 22,448G)
Lanshaft: 508G (3.9%, 21,749G)
kahjeethaswares: 300G (2.3%, 4,784G)
TasisSai: 300G (2.3%, 2,097G)
Mathlexis: 240G (1.9%, 1,266G)
AllInBot: 200G (1.5%, 200G)
dtrain332: 200G (1.5%, 2,948G)
datadrivenbot: 200G (1.5%, 40,714G)
Cyril_Jay: 100G (0.8%, 1,294G)
lyans00: 100G (0.8%, 2,899G)
nhammen: 90G (0.7%, 12,492G)
wkhumes: 15G (0.1%, 1,013G)
