Final Bets: black - 24 bets for 15,257G (64.8%, x0.54); brown - 20 bets for 8,290G (35.2%, x1.84)

black bets:
ShintaroNayaka: 3,187G (20.9%, 3,187G)
thefyeman: 2,000G (13.1%, 16,593G)
rechaun: 1,579G (10.3%, 1,579G)
fenixcrest: 1,046G (6.9%, 10,462G)
TheChainNerd: 1,000G (6.6%, 35,674G)
Lord_Burrah: 1,000G (6.6%, 87,370G)
kingchadking: 830G (5.4%, 830G)
NovaKnight21: 685G (4.5%, 685G)
ThePineappleSalesman: 581G (3.8%, 581G)
jethrothrul: 524G (3.4%, 524G)
truestrike: 518G (3.4%, 518G)
Bryon_W: 472G (3.1%, 472G)
ForagerCats: 391G (2.6%, 391G)
Treapvort: 300G (2.0%, 300G)
ugoplatamia: 200G (1.3%, 29,918G)
RezzaDV: 144G (0.9%, 144G)
AllInBot: 100G (0.7%, 100G)
Tithonus: 100G (0.7%, 8,157G)
Slowbrofist: 100G (0.7%, 100G)
ko2q: 100G (0.7%, 1,276G)
RongRongArts: 100G (0.7%, 6,958G)
JumbocactuarX27: 100G (0.7%, 2,534G)
datadrivenbot: 100G (0.7%, 14,708G)
SeedSC: 100G (0.7%, 124,047G)

brown bets:
sinnyil2: 1,451G (17.5%, 1,451G)
BirbBrainsBot: 1,000G (12.1%, 131,285G)
bad1dea: 1,000G (12.1%, 347,946G)
leakimiko: 885G (10.7%, 29,503G)
Lodrak: 732G (8.8%, 732G)
z32o: 604G (7.3%, 604G)
getthemoneyz: 556G (6.7%, 400,434G)
megaman2202: 372G (4.5%, 372G)
Aeolus_000: 300G (3.6%, 5,948G)
volgrathemoose: 250G (3.0%, 2,771G)
tmo50x: 200G (2.4%, 1,358G)
rubenflonne: 200G (2.4%, 7,709G)
UmaiJam: 195G (2.4%, 1,954G)
LuckyLuckLuc2: 111G (1.3%, 40,154G)
Jordache7K: 111G (1.3%, 13,647G)
maakur_: 100G (1.2%, 2,215G)
DeathTaxesAndAnime: 100G (1.2%, 2,475G)
RunicMagus: 100G (1.2%, 22,575G)
roqqqpsi: 22G (0.3%, 1,164G)
daveb_: 1G (0.0%, 546G)
