Final Bets: purple - 20 bets for 22,571G (72.1%, x0.39); brown - 14 bets for 8,720G (27.9%, x2.59)

purple bets:
E_Ballard: 6,078G (26.9%, 6,078G)
pplvee1: 3,071G (13.6%, 3,071G)
sinnyil2: 2,571G (11.4%, 5,142G)
powergems: 1,438G (6.4%, 1,438G)
ExecutedGiraffe: 1,063G (4.7%, 1,063G)
Aldrammech: 1,000G (4.4%, 31,609G)
Vex_Novisk: 1,000G (4.4%, 26,647G)
proper__noun__: 1,000G (4.4%, 4,716G)
jaik1231: 874G (3.9%, 874G)
volgrathemoose: 700G (3.1%, 7,636G)
DrAntiSocial: 655G (2.9%, 655G)
fenaen: 631G (2.8%, 631G)
Mokura3rd: 590G (2.6%, 590G)
killth3kid: 500G (2.2%, 21,144G)
EnemyController: 500G (2.2%, 429,359G)
AlenaZarek: 300G (1.3%, 43,666G)
CosmicTactician: 300G (1.3%, 5,385G)
AllInBot: 100G (0.4%, 100G)
lastly: 100G (0.4%, 13,277G)
datadrivenbot: 100G (0.4%, 26,684G)

brown bets:
red__lancer: 2,000G (22.9%, 76,680G)
DavenIII: 1,747G (20.0%, 1,942G)
BirbBrainsBot: 1,000G (11.5%, 6,721G)
Who_lio42: 600G (6.9%, 10,546G)
smegma_sorcerer: 500G (5.7%, 3,680G)
TheFALLofLindsay: 500G (5.7%, 15,919G)
getthemoneyz: 498G (5.7%, 747,765G)
NicoSavoy: 480G (5.5%, 480G)
coralreeferz: 350G (4.0%, 8,059G)
DustBirdEX: 345G (4.0%, 4,152G)
TeaTime29: 300G (3.4%, 2,979G)
letdowncity: 250G (2.9%, 10,815G)
Firesheath: 100G (1.1%, 1,972G)
DashXero: 50G (0.6%, 1,464G)
