Final Bets: green - 11 bets for 5,334G (38.2%, x1.62); yellow - 11 bets for 8,615G (61.8%, x0.62)

green bets:
BirbBrainsBot: 1,000G (18.7%, 163,693G)
SkyridgeZero: 1,000G (18.7%, 18,150G)
Zachara: 1,000G (18.7%, 90,490G)
Dymntd: 500G (9.4%, 21,114G)
HASTERIOUS: 485G (9.1%, 9,706G)
getthemoneyz: 454G (8.5%, 716,559G)
GnielKnows: 248G (4.6%, 248G)
kaidykat: 217G (4.1%, 4,351G)
zepharoth89: 180G (3.4%, 180G)
Sungazes: 150G (2.8%, 3,567G)
AllInBot: 100G (1.9%, 100G)

yellow bets:
Powermhero: 3,455G (40.1%, 3,455G)
Mesmaster: 2,000G (23.2%, 59,028G)
YaBoy125: 603G (7.0%, 603G)
gorgewall: 501G (5.8%, 8,960G)
bruubarg: 500G (5.8%, 2,504G)
StealthModeLocke: 466G (5.4%, 466G)
vorap: 400G (4.6%, 86,296G)
Lydian_C: 320G (3.7%, 1,200G)
cloud92684: 170G (2.0%, 170G)
Devrology101: 100G (1.2%, 1,424G)
datadrivenbot: 100G (1.2%, 20,448G)
