Final Bets: red - 12 bets for 7,203G (61.0%, x0.64); blue - 7 bets for 4,614G (39.0%, x1.56)

red bets:
douchetron: 1,445G (20.1%, 2,891G)
AllInBot: 1,158G (16.1%, 1,158G)
BirbBrainsBot: 1,000G (13.9%, 142,117G)
Creggers: 1,000G (13.9%, 23,987G)
JIDkomu: 1,000G (13.9%, 8,545G)
randgridr: 444G (6.2%, 444G)
CapnChaos12: 300G (4.2%, 5,587G)
skipsandwiches: 256G (3.6%, 256G)
JLinkletter: 200G (2.8%, 6,739G)
datadrivenbot: 200G (2.8%, 32,455G)
PastelChum: 100G (1.4%, 185G)
CT_5_Holy: 100G (1.4%, 3,857G)

blue bets:
prince_rogers_nelson_: 2,000G (43.3%, 19,454G)
WitchHunterIX: 1,000G (21.7%, 33,653G)
porkchop5158: 1,000G (21.7%, 39,163G)
ruleof5: 300G (6.5%, 16,500G)
lyonslegacy: 200G (4.3%, 17,801G)
Firesheath: 100G (2.2%, 17,463G)
getthemoneyz: 14G (0.3%, 1,332,109G)
