Final Bets: green - 16 bets for 19,280G (79.5%, x0.26); yellow - 7 bets for 4,960G (20.5%, x3.89)

green bets:
prince_rogers_nelson_: 11,288G (58.5%, 22,576G)
NicoSavoy: 2,000G (10.4%, 241,488G)
JIDkomu: 1,000G (5.2%, 7,545G)
PrancesWithWolves: 1,000G (5.2%, 1,966G)
BirbBrainsBot: 1,000G (5.2%, 141,117G)
getthemoneyz: 526G (2.7%, 1,332,131G)
ruleof5: 500G (2.6%, 16,968G)
randgridr: 444G (2.3%, 444G)
lyonslegacy: 300G (1.6%, 18,117G)
dtrain332: 272G (1.4%, 272G)
Legionx13: 250G (1.3%, 6,475G)
b00tyt00ts: 200G (1.0%, 200G)
datadrivenbot: 200G (1.0%, 32,255G)
Firesheath: 100G (0.5%, 17,619G)
CT_5_Holy: 100G (0.5%, 3,757G)
PastelChum: 100G (0.5%, 100G)

yellow bets:
porkchop5158: 1,000G (20.2%, 40,724G)
Creggers: 1,000G (20.2%, 22,987G)
WitchHunterIX: 1,000G (20.2%, 35,214G)
amiture: 837G (16.9%, 837G)
douchetron: 723G (14.6%, 1,446G)
AllInBot: 200G (4.0%, 200G)
ribbiks: 200G (4.0%, 1,587G)
