Final Bets: red - 6 bets for 1,539G (40.3%, x1.48); green - 4 bets for 2,278G (59.7%, x0.68)

red bets:
ko2q: 688G (44.7%, 688G)
Armorgames1: 350G (22.7%, 3,509G)
datadrivenbot: 200G (13.0%, 54,985G)
gorgewall: 101G (6.6%, 5,843G)
MinBetBot: 100G (6.5%, 19,983G)
srdonko2098: 100G (6.5%, 1,729G)

green bets:
BirbBrainsBot: 1,000G (43.9%, 161,380G)
getthemoneyz: 578G (25.4%, 1,578,350G)
mike_the_mike: 500G (21.9%, 2,147G)
AllInBot: 200G (8.8%, 200G)
