Final Bets: black - 14 bets for 8,141G (70.0%, x0.43); purple - 9 bets for 3,493G (30.0%, x2.33)

black bets:
BenYuPoker: 3,073G (37.7%, 6,146G)
Maeveen: 1,270G (15.6%, 1,270G)
WireLord: 1,000G (12.3%, 24,317G)
darnitkevin: 600G (7.4%, 2,393G)
volgrathemoose: 500G (6.1%, 2,202G)
kingchadking: 448G (5.5%, 448G)
JustSuperish: 248G (3.0%, 248G)
UmaiJam: 239G (2.9%, 2,398G)
Cataphract116: 200G (2.5%, 1,085G)
ungabunga_bot: 163G (2.0%, 75,767G)
AllInBot: 100G (1.2%, 100G)
ApplesauceBoss: 100G (1.2%, 3,013G)
maakur_: 100G (1.2%, 1,152G)
datadrivenbot: 100G (1.2%, 26,377G)

purple bets:
BirbBrainsBot: 1,000G (28.6%, 245,133G)
SeedSC: 1,000G (28.6%, 167,542G)
lastly: 501G (14.3%, 501G)
Evewho: 284G (8.1%, 284G)
Slowbrofist: 276G (7.9%, 276G)
getthemoneyz: 182G (5.2%, 444,166G)
ScarletSpiderBen: 100G (2.9%, 434G)
Treapvort: 100G (2.9%, 4,698G)
BlinkFS: 50G (1.4%, 2,773G)
