Final Bets: purple - 10 bets for 4,276G (30.2%, x2.31); brown - 12 bets for 9,873G (69.8%, x0.43)

purple bets:
latebit: 1,000G (23.4%, 29,414G)
Forkmore: 613G (14.3%, 613G)
Zagorsek: 576G (13.5%, 576G)
baconbacon1207: 500G (11.7%, 9,914G)
JonnyCue: 500G (11.7%, 4,065G)
getthemoneyz: 320G (7.5%, 1,611,338G)
BirbBrainsBot: 317G (7.4%, 77,683G)
AllInBot: 200G (4.7%, 200G)
coralreeferz: 150G (3.5%, 1,179G)
Krinku: 100G (2.3%, 268G)

brown bets:
UmaiJam: 2,000G (20.3%, 19,342G)
Bryon_W: 2,000G (20.3%, 11,514G)
douchetron: 1,233G (12.5%, 1,233G)
DavenIII: 1,150G (11.6%, 4,601G)
differences86: 1,000G (10.1%, 1,064G)
skillomono: 658G (6.7%, 658G)
dogsandcatsand: 564G (5.7%, 564G)
ko2q: 440G (4.5%, 440G)
WhiteTigress: 328G (3.3%, 328G)
CosmicTactician: 200G (2.0%, 15,747G)
datadrivenbot: 200G (2.0%, 63,088G)
MinBetBot: 100G (1.0%, 3,551G)
