Final Bets: red - 26 bets for 17,848G (69.3%, x0.44); blue - 12 bets for 7,921G (30.7%, x2.25)

red bets:
TsukiNoHanaCh: 3,094G (17.3%, 3,094G)
resjudicata3: 1,974G (11.1%, 3,871G)
khelor_: 1,646G (9.2%, 1,646G)
roofiepops: 1,273G (7.1%, 1,273G)
mizzmoonshine: 1,189G (6.7%, 1,189G)
RunicMagus: 1,020G (5.7%, 14,249G)
krombobreaker: 1,000G (5.6%, 19,110G)
gorgewall: 894G (5.0%, 894G)
Laserman1000: 598G (3.4%, 11,598G)
Zagorsek: 508G (2.8%, 508G)
nekojin: 500G (2.8%, 7,597G)
ExplanationMarkWow: 500G (2.8%, 16,991G)
sireaulou: 478G (2.7%, 478G)
Demon_Lord_Josh: 405G (2.3%, 405G)
Einswolf: 400G (2.2%, 851G)
Snowfats: 344G (1.9%, 344G)
Zerguzen: 300G (1.7%, 2,799G)
2b_yorha_b: 300G (1.7%, 1,339G)
AllInBot: 272G (1.5%, 272G)
bufuman: 233G (1.3%, 233G)
iBluntDouble: 220G (1.2%, 220G)
DocSTN: 200G (1.1%, 1,452G)
datadrivenbot: 200G (1.1%, 79,278G)
hecsec: 100G (0.6%, 662G)
NicoSavoy: 100G (0.6%, 52,171G)
Nasherex: 100G (0.6%, 544G)

blue bets:
latebit: 2,804G (35.4%, 46,743G)
CosmicTactician: 1,000G (12.6%, 40,619G)
BirbBrainsBot: 1,000G (12.6%, 21,040G)
DLJuggernaut: 611G (7.7%, 611G)
MemoriesofFinal: 557G (7.0%, 557G)
CorpusCav: 509G (6.4%, 9,296G)
bigbongsmoker: 490G (6.2%, 490G)
ValensEXP_: 408G (5.2%, 408G)
goth_Applebees_hostess: 288G (3.6%, 288G)
minorfffanatic1: 100G (1.3%, 3,036G)
baumgrattler: 100G (1.3%, 100G)
getthemoneyz: 54G (0.7%, 2,089,145G)
