Final Bets: white - 20 bets for 16,521G (55.1%, x0.81); black - 17 bets for 13,463G (44.9%, x1.23)

white bets:
Mesmaster: 5,000G (30.3%, 194,021G)
reinoe: 1,774G (10.7%, 1,774G)
macradarkstar: 1,620G (9.8%, 1,620G)
thunderducker: 1,259G (7.6%, 1,259G)
BirbBrainsBot: 1,000G (6.1%, 127,466G)
EnemyController: 888G (5.4%, 1,717,110G)
Laserman1000: 796G (4.8%, 796G)
Zagorsek: 676G (4.1%, 676G)
Raixelol: 560G (3.4%, 23,499G)
Theseawolf1: 500G (3.0%, 2,585G)
rocl: 384G (2.3%, 384G)
latebit: 344G (2.1%, 344G)
CapnChaos12: 300G (1.8%, 3,483G)
Strifu: 284G (1.7%, 284G)
SephDarkheart: 284G (1.7%, 284G)
blastty: 252G (1.5%, 252G)
resjudicata3: 200G (1.2%, 32,092G)
Vahn_Blade: 200G (1.2%, 22,550G)
RuneS_77: 100G (0.6%, 16,348G)
Twisted_Nutsatchel: 100G (0.6%, 10,891G)

black bets:
snkey: 3,700G (27.5%, 90,705G)
FriendSquirrel: 3,552G (26.4%, 3,552G)
CosmicTactician: 1,500G (11.1%, 33,162G)
DavenIII: 1,060G (7.9%, 2,080G)
Rytor: 500G (3.7%, 6,863G)
krombobreaker: 500G (3.7%, 5,995G)
Dasutin23: 460G (3.4%, 10,172G)
OneHundredFists: 416G (3.1%, 416G)
holdenmagronik: 396G (2.9%, 396G)
Cryptopsy70: 352G (2.6%, 682G)
triniculo: 308G (2.3%, 308G)
khelor_: 200G (1.5%, 1,343G)
datadrivenbot: 200G (1.5%, 59,764G)
Rune339: 108G (0.8%, 108G)
AllInBot: 100G (0.7%, 100G)
skillomono: 100G (0.7%, 1,070G)
BartTradingCompany: 11G (0.1%, 113G)
