Final Bets: blue - 17 bets for 19,330G (64.2%, x0.56); black - 12 bets for 10,771G (35.8%, x1.79)

blue bets:
snkey: 4,400G (22.8%, 94,140G)
SkylerBunny: 3,430G (17.7%, 6,727G)
Thyrandaal: 3,430G (17.7%, 6,726G)
AllInBot: 1,538G (8.0%, 1,538G)
EnemyController: 1,234G (6.4%, 1,717,803G)
farside00831: 900G (4.7%, 915G)
thunderducker: 706G (3.7%, 706G)
run_with_stone_GUNs: 624G (3.2%, 25,216G)
reinoe: 584G (3.0%, 584G)
krombobreaker: 500G (2.6%, 6,760G)
Theseawolf1: 500G (2.6%, 3,056G)
rocl: 488G (2.5%, 488G)
lowlf: 484G (2.5%, 1,551G)
khelor_: 200G (1.0%, 1,396G)
datadrivenbot: 200G (1.0%, 60,069G)
Twisted_Nutsatchel: 100G (0.5%, 10,691G)
BartTradingCompany: 12G (0.1%, 128G)

black bets:
FriendSquirrel: 4,572G (42.4%, 8,965G)
holdenmagronik: 1,164G (10.8%, 1,164G)
Laserman1000: 1,047G (9.7%, 1,047G)
BirbBrainsBot: 1,000G (9.3%, 126,766G)
pplvee1: 1,000G (9.3%, 5,010G)
getthemoneyz: 740G (6.9%, 1,872,815G)
latebit: 438G (4.1%, 438G)
Wonser: 248G (2.3%, 9,325G)
Sietaha: 236G (2.2%, 236G)
Chuckolator: 126G (1.2%, 21,464G)
RuneS_77: 100G (0.9%, 16,316G)
heyBtw: 100G (0.9%, 100G)
