Final Bets: red - 28 bets for 21,515G (63.8%, x0.57); blue - 17 bets for 12,214G (36.2%, x1.76)

red bets:
Lionhermit: 2,000G (9.3%, 14,269G)
superdevon1: 1,623G (7.5%, 3,247G)
ko2q: 1,598G (7.4%, 3,196G)
SkylerBunny: 1,500G (7.0%, 60,681G)
Lordminsc: 1,205G (5.6%, 43,091G)
Baron_von_Scrub: 1,111G (5.2%, 120,728G)
RongRongArts: 1,100G (5.1%, 468,256G)
Nizaha: 1,001G (4.7%, 3,819G)
Aldrammech: 1,000G (4.6%, 26,304G)
ungabunga_bot: 1,000G (4.6%, 192,958G)
getthemoneyz: 1,000G (4.6%, 547,634G)
manc0_: 1,000G (4.6%, 4,880G)
Zeroroute: 998G (4.6%, 3,821G)
leakimiko: 856G (4.0%, 9,513G)
Laserman1000: 727G (3.4%, 30,127G)
aStatue: 668G (3.1%, 668G)
Faplo: 576G (2.7%, 576G)
braumbles: 500G (2.3%, 58,839G)
Dexsana: 400G (1.9%, 2,941G)
Mandoragan: 320G (1.5%, 320G)
ANFz: 250G (1.2%, 18,039G)
Estan_AD: 250G (1.2%, 3,599G)
Heroebal: 200G (0.9%, 5,367G)
DontBackseatGame: 200G (0.9%, 2,392G)
AllInBot: 132G (0.6%, 132G)
datadrivenbot: 100G (0.5%, 253G)
Larkspir: 100G (0.5%, 100G)
smurphy000000: 100G (0.5%, 100G)

blue bets:
HASTERIOUS: 2,768G (22.7%, 2,768G)
nifboy: 2,644G (21.6%, 2,644G)
kai_shee: 2,000G (16.4%, 155,600G)
sinnyil2: 1,400G (11.5%, 121,621G)
BirbBrainsBot: 1,000G (8.2%, 109,364G)
Evewho: 376G (3.1%, 376G)
mastershango: 300G (2.5%, 10,267G)
killth3kid: 296G (2.4%, 9,042G)
Chuckolator: 249G (2.0%, 25,818G)
kaidykat: 200G (1.6%, 1,516G)
DaMadPanda182: 200G (1.6%, 5,820G)
EnemyController: 200G (1.6%, 70,425G)
LeepingJJ: 180G (1.5%, 1,480G)
ZephyrTempest: 101G (0.8%, 173,155G)
gorgewall: 100G (0.8%, 12,097G)
TheMM42: 100G (0.8%, 15,359G)
itsonlyspencer: 100G (0.8%, 2,716G)
