Final Bets: white - 17 bets for 17,087G (67.4%, x0.48); brown - 14 bets for 8,268G (32.6%, x2.07)

white bets:
Rislyeu: 3,087G (18.1%, 6,175G)
kaelsun: 2,873G (16.8%, 2,873G)
reinoe: 2,153G (12.6%, 2,153G)
metagameface: 2,057G (12.0%, 2,057G)
SkylerBunny: 1,500G (8.8%, 110,907G)
DeathTaxesAndAnime: 1,131G (6.6%, 2,218G)
sinnyil2: 1,070G (6.3%, 2,140G)
maicovisky: 1,000G (5.9%, 77,000G)
Sairentozon7: 560G (3.3%, 560G)
conradharlock: 500G (2.9%, 12,400G)
E_Ballard: 380G (2.2%, 380G)
killth3kid: 328G (1.9%, 11,994G)
Miku_Shikhu: 116G (0.7%, 116G)
ivellioz: 100G (0.6%, 990G)
datadrivenbot: 100G (0.6%, 33,259G)
cogniv0r3: 69G (0.4%, 1,385G)
nekross92: 63G (0.4%, 127G)

brown bets:
dogsandcatsand: 2,314G (28.0%, 4,629G)
gorgewall: 1,076G (13.0%, 1,076G)
nifboy: 1,000G (12.1%, 42,722G)
BirbBrainsBot: 1,000G (12.1%, 87,613G)
fenaen: 700G (8.5%, 25,573G)
letdowncity: 500G (6.0%, 19,740G)
OneHundredFists: 500G (6.0%, 3,326G)
LAGBOT30000: 364G (4.4%, 364G)
mechoking: 200G (2.4%, 3,729G)
Hellotrixxy: 200G (2.4%, 751G)
getthemoneyz: 114G (1.4%, 825,317G)
Alanaire: 100G (1.2%, 2,470G)
nhammen: 100G (1.2%, 1,155G)
ZombiFrancis: 100G (1.2%, 2,223G)
