Final Bets: green - 14 bets for 15,200G (84.3%, x0.19); yellow - 8 bets for 2,831G (15.7%, x5.37)

green bets:
DLJuggernaut: 5,000G (32.9%, 20,876G)
DeathTaxesAndAnime: 1,805G (11.9%, 3,541G)
Spartan_Paladin: 1,800G (11.8%, 9,818G)
EnemyController: 1,111G (7.3%, 1,810,935G)
BirbBrainsBot: 1,000G (6.6%, 175,204G)
nhammen: 1,000G (6.6%, 10,112G)
ruleof5: 960G (6.3%, 960G)
krombobreaker: 500G (3.3%, 42,105G)
2b_yorha_b: 500G (3.3%, 38,903G)
JonnyCue: 480G (3.2%, 13,460G)
rnark: 420G (2.8%, 1,119G)
gorgewall: 301G (2.0%, 4,207G)
datadrivenbot: 200G (1.3%, 79,920G)
Lydian_C: 123G (0.8%, 1,761G)

yellow bets:
lowlf: 684G (24.2%, 6,166G)
Laserman1000: 595G (21.0%, 10,795G)
LeoNightFury: 500G (17.7%, 7,044G)
Zbgs: 500G (17.7%, 14,728G)
AllInBot: 200G (7.1%, 200G)
Deeps_one: 188G (6.6%, 188G)
AUandIons: 100G (3.5%, 3,479G)
getthemoneyz: 64G (2.3%, 2,213,974G)
