Final Bets: black - 10 bets for 10,119G (45.6%, x1.19); purple - 13 bets for 12,058G (54.4%, x0.84)

black bets:
DeathTaxesAndAnime: 3,777G (37.3%, 3,777G)
technominari: 1,000G (9.9%, 92,078G)
BirbBrainsBot: 1,000G (9.9%, 175,380G)
LeoNightFury: 1,000G (9.9%, 6,214G)
ExplanationMarkWow: 1,000G (9.9%, 43,651G)
getthemoneyz: 970G (9.6%, 2,211,880G)
2b_yorha_b: 500G (4.9%, 39,001G)
Arcblazer23: 372G (3.7%, 372G)
Spartan_Paladin: 300G (3.0%, 9,522G)
Meanderandreturn: 200G (2.0%, 14,578G)

purple bets:
EnemyController: 3,333G (27.6%, 1,815,751G)
GenZealot: 2,000G (16.6%, 13,261G)
Leonidusx: 2,000G (16.6%, 463,385G)
Thyrandaal: 1,707G (14.2%, 1,707G)
Lydian_C: 1,137G (9.4%, 1,137G)
Evewho: 500G (4.1%, 13,929G)
Tithonus: 304G (2.5%, 304G)
ChiChiRodriguez: 260G (2.2%, 260G)
AllInBot: 200G (1.7%, 200G)
resjudicata3: 200G (1.7%, 3,750G)
datadrivenbot: 200G (1.7%, 79,606G)
Widewalk: 116G (1.0%, 116G)
gorgewall: 101G (0.8%, 3,947G)
