Final Bets: white - 23 bets for 15,435G (56.2%, x0.78); purple - 17 bets for 12,043G (43.8%, x1.28)

white bets:
Evewho: 4,000G (25.9%, 18,404G)
TheChainNerd: 3,034G (19.7%, 4,734G)
Digitalsocrates: 2,000G (13.0%, 5,534G)
BirbBrainsBot: 1,000G (6.5%, 93,776G)
Mesmaster: 1,000G (6.5%, 8,250G)
OneHundredFists: 1,000G (6.5%, 30,254G)
NIghtdew14: 376G (2.4%, 376G)
twelfthrootoftwo: 320G (2.1%, 320G)
Nohurty: 315G (2.0%, 315G)
letdowncity: 300G (1.9%, 11,651G)
Aldrammech: 270G (1.7%, 2,705G)
getthemoneyz: 262G (1.7%, 900,464G)
CaptainGarlock: 250G (1.6%, 4,423G)
DustBirdEX: 234G (1.5%, 951G)
Wonser: 224G (1.5%, 224G)
Anasetsuken: 200G (1.3%, 1,439G)
DeathTaxesAndAnime: 100G (0.6%, 19,305G)
Quadh0nk: 100G (0.6%, 1,064G)
E_Ballard: 100G (0.6%, 3,320G)
datadrivenbot: 100G (0.6%, 35,728G)
CorpusCav: 100G (0.6%, 1,407G)
nsm013: 100G (0.6%, 1,995G)
IphoneDarkness: 50G (0.3%, 1,712G)

purple bets:
Thyrandaal: 5,000G (41.5%, 8,768G)
ExecutedGiraffe: 1,127G (9.4%, 1,127G)
red__lancer: 1,000G (8.3%, 88,208G)
benticore: 873G (7.2%, 873G)
HaateXIII: 712G (5.9%, 712G)
mpghappiness: 646G (5.4%, 646G)
DLJuggernaut: 476G (4.0%, 476G)
dogsandcatsand: 447G (3.7%, 447G)
joewcarson: 400G (3.3%, 54,079G)
AllInBot: 309G (2.6%, 309G)
prayformercy: 285G (2.4%, 285G)
DAC169: 274G (2.3%, 274G)
ApplesauceBoss: 100G (0.8%, 2,144G)
Miku_Shikhu: 100G (0.8%, 15,878G)
adrammallech: 100G (0.8%, 100G)
nifboy: 100G (0.8%, 2,995G)
HASTERIOUS: 94G (0.8%, 1,880G)
