Final Bets: red - 10 bets for 5,205G (48.5%, x1.06); white - 7 bets for 5,518G (51.5%, x0.94)

red bets:
Joaneyy: 1,000G (19.2%, 9,932G)
Thyrandaal: 1,000G (19.2%, 52,593G)
roqqqpsi: 820G (15.8%, 1,391G)
pplvee1: 752G (14.4%, 752G)
SephDarkheart: 600G (11.5%, 176,833G)
Raixelol: 332G (6.4%, 1,112G)
LeoNightFury: 200G (3.8%, 200G)
gongonono: 200G (3.8%, 5,448G)
datadrivenbot: 200G (3.8%, 57,789G)
gorgewall: 101G (1.9%, 3,310G)

white bets:
Willjin: 3,000G (54.4%, 122,491G)
MemoriesofFinal: 952G (17.3%, 952G)
BirbBrainsBot: 611G (11.1%, 156,263G)
SWATb1gdog: 500G (9.1%, 3,468G)
PuzzleSecretary: 323G (5.9%, 323G)
Absalom_20: 120G (2.2%, 1,174G)
getthemoneyz: 12G (0.2%, 1,778,944G)
