Final Bets: red - 8 bets for 4,528G (26.8%, x2.73); champion - 13 bets for 12,380G (73.2%, x0.37)

red bets:
Thyrandaal: 2,000G (44.2%, 53,653G)
E_Ballard: 808G (17.8%, 94,397G)
Joaneyy: 500G (11.0%, 10,992G)
Tarheels218: 348G (7.7%, 1,290G)
Raixelol: 332G (7.3%, 1,464G)
HentaiWriter: 220G (4.9%, 220G)
gongonono: 200G (4.4%, 5,660G)
Absalom_20: 120G (2.7%, 1,054G)

champion bets:
Willjin: 4,000G (32.3%, 119,491G)
DavenIII: 2,000G (16.2%, 20,975G)
roqqqpsi: 1,559G (12.6%, 2,260G)
powergems: 1,234G (10.0%, 11,431G)
BirbBrainsBot: 1,000G (8.1%, 155,652G)
Jaritras: 710G (5.7%, 710G)
mirapoix: 500G (4.0%, 10,407G)
getthemoneyz: 428G (3.5%, 1,778,932G)
MemoriesofFinal: 284G (2.3%, 284G)
Kellios11: 200G (1.6%, 10,388G)
datadrivenbot: 200G (1.6%, 58,001G)
PuzzleSecretary: 164G (1.3%, 164G)
gorgewall: 101G (0.8%, 3,417G)
