Final Bets: green - 17 bets for 8,170G (46.9%, x1.13); yellow - 14 bets for 9,258G (53.1%, x0.88)

green bets:
newbie404: 1,649G (20.2%, 1,649G)
baconbacon1207: 1,000G (12.2%, 16,897G)
CCRUNNER149UWP: 888G (10.9%, 5,705G)
Draconis345: 832G (10.2%, 832G)
JumbocactuarX27: 804G (9.8%, 804G)
TheChainNerd: 556G (6.8%, 556G)
SeedSC: 420G (5.1%, 235,086G)
TheGuesty: 350G (4.3%, 4,272G)
RunicMagus: 304G (3.7%, 304G)
DrAntiSocial: 300G (3.7%, 2,610G)
ZephyrTempest: 236G (2.9%, 38,379G)
JustSuperish: 200G (2.4%, 2,685G)
ForagerCats: 200G (2.4%, 1,408G)
BirbBrainsBot: 131G (1.6%, 457G)
AllInBot: 100G (1.2%, 100G)
friendsquirrel: 100G (1.2%, 7,587G)
rjA0zcOQ96: 100G (1.2%, 5,627G)

yellow bets:
Jeeboheebo: 3,471G (37.5%, 6,806G)
Lord_Burrah: 1,500G (16.2%, 90,596G)
kingchadking: 972G (10.5%, 972G)
Lanshaft: 600G (6.5%, 3,213G)
getthemoneyz: 588G (6.4%, 450,144G)
CorpusCav: 500G (5.4%, 5,610G)
reinoe: 500G (5.4%, 10,640G)
mirapoix: 500G (5.4%, 4,346G)
Cataphract116: 200G (2.2%, 2,125G)
L2_Sentinel: 200G (2.2%, 13,619G)
joewcarson: 140G (1.5%, 140G)
Sitiran: 80G (0.9%, 161G)
ko2q: 5G (0.1%, 9,399G)
daveb_: 2G (0.0%, 1,880G)
