Final Bets: black - 30 bets for 19,230G (42.9%, x1.33); champion - 27 bets for 25,635G (57.1%, x0.75)

black bets:
Lydian_C: 4,200G (21.8%, 43,453G)
HASTERIOUS: 2,000G (10.4%, 74,057G)
SkylerBunny: 1,466G (7.6%, 1,466G)
Aurilliux: 1,220G (6.3%, 1,220G)
AlenaZarek: 1,200G (6.2%, 19,810G)
TheChainNerd: 1,000G (5.2%, 58,020G)
Deathmaker06: 1,000G (5.2%, 33,602G)
BirbBrainsBot: 1,000G (5.2%, 130,315G)
bad1dea: 1,000G (5.2%, 351,360G)
JIDkomu: 602G (3.1%, 602G)
reinoe: 528G (2.7%, 528G)
roqqqpsi: 522G (2.7%, 1,247G)
HEROScioN: 446G (2.3%, 446G)
Jeeboheebo: 432G (2.2%, 432G)
luminarii: 392G (2.0%, 12,192G)
upvla: 340G (1.8%, 9,845G)
ar_tactic: 300G (1.6%, 24,719G)
Pah_J: 236G (1.2%, 236G)
Cataphract116: 200G (1.0%, 3,764G)
NytFantom: 184G (1.0%, 184G)
byrdturbo: 111G (0.6%, 2,246G)
joewcarson: 108G (0.6%, 108G)
Tithonus: 100G (0.5%, 8,547G)
BadBlanket: 100G (0.5%, 2,964G)
Tougou: 100G (0.5%, 3,758G)
Tanookium: 100G (0.5%, 9,409G)
CidDurai: 100G (0.5%, 2,430G)
datadrivenbot: 100G (0.5%, 13,350G)
ZephyrTempest: 100G (0.5%, 19,462G)
Sitiran: 43G (0.2%, 430G)

champion bets:
DeathTaxesAndAnime: 4,482G (17.5%, 8,789G)
ugoplatamia: 3,801G (14.8%, 19,006G)
DudeMonkey77: 3,651G (14.2%, 36,513G)
Sairentozon7: 1,638G (6.4%, 1,638G)
SleepyBenzo: 1,377G (5.4%, 1,377G)
lowlf: 1,271G (5.0%, 1,271G)
roofiepops: 1,200G (4.7%, 5,540G)
Lord_Burrah: 1,200G (4.7%, 91,022G)
Laserman1000: 1,081G (4.2%, 11,181G)
DHaveWord: 907G (3.5%, 907G)
Shalloween: 800G (3.1%, 55,669G)
Skarthe: 719G (2.8%, 719G)
HaateXIII: 500G (2.0%, 4,057G)
Masta_Glenn: 500G (2.0%, 6,445G)
SolarisFall: 469G (1.8%, 469G)
EnemyController: 450G (1.8%, 900G)
powergems: 300G (1.2%, 1,872G)
Rastanar: 248G (1.0%, 248G)
wizblizz: 240G (0.9%, 240G)
Kellios11: 200G (0.8%, 5,689G)
AllInBot: 100G (0.4%, 100G)
ApplesauceBoss: 100G (0.4%, 3,374G)
ANFz: 100G (0.4%, 15,954G)
maakur_: 100G (0.4%, 4,032G)
pteraranger: 100G (0.4%, 10,800G)
GrayGhostGaming: 100G (0.4%, 1,462G)
RughSontos: 1G (0.0%, 2,364G)
