Final Bets: purple - 18 bets for 9,182G (59.3%, x0.69); brown - 16 bets for 6,311G (40.7%, x1.45)

purple bets:
metagameface: 3,000G (32.7%, 10,136G)
CorpusCav: 1,001G (10.9%, 7,838G)
EnemyController: 1,000G (10.9%, 439,246G)
reinoe: 1,000G (10.9%, 57,574G)
Monopool: 500G (5.4%, 3,462G)
gr8keeper: 500G (5.4%, 2,663G)
TaylorB503: 400G (4.4%, 2,388G)
Arcblazer23: 235G (2.6%, 235G)
neerrm: 203G (2.2%, 203G)
LivingHitokiri: 200G (2.2%, 26,948G)
maleblackfiora: 200G (2.2%, 625G)
Mokura3rd: 200G (2.2%, 1,336G)
AllInBot: 186G (2.0%, 186G)
bokurakira: 124G (1.4%, 1,245G)
soren_of_tyto: 116G (1.3%, 116G)
KyleWonToLiveForever: 116G (1.3%, 116G)
Firesheath: 101G (1.1%, 1,171G)
datadrivenbot: 100G (1.1%, 28,520G)

brown bets:
pandasforsale: 2,005G (31.8%, 2,005G)
BirbBrainsBot: 1,000G (15.8%, 65,563G)
HaateXIII: 500G (7.9%, 18,130G)
Digitalsocrates: 324G (5.1%, 324G)
getthemoneyz: 312G (4.9%, 759,824G)
Stealthtoucan: 304G (4.8%, 6,080G)
mistblade: 280G (4.4%, 280G)
astrozin11: 267G (4.2%, 1,267G)
nifboy: 250G (4.0%, 13,916G)
kaelsun: 240G (3.8%, 240G)
gogofromtogo: 228G (3.6%, 228G)
gorgewall: 201G (3.2%, 19,272G)
Grandlanzer: 100G (1.6%, 8,944G)
computerghoul: 100G (1.6%, 100G)
Sharosa: 100G (1.6%, 432G)
Cuchulame: 100G (1.6%, 100G)
