Final Bets: black - 14 bets for 12,153G (60.4%, x0.66); purple - 18 bets for 7,984G (39.6%, x1.52)

black bets:
OneHundredFists: 4,699G (38.7%, 9,214G)
metagameface: 2,000G (16.5%, 11,198G)
NovaKnight21: 1,000G (8.2%, 5,524G)
BirbBrainsBot: 1,000G (8.2%, 65,280G)
Laserman1000: 542G (4.5%, 22,742G)
Kronikle: 500G (4.1%, 16,682G)
LivingHitokiri: 500G (4.1%, 26,885G)
reinoe: 500G (4.1%, 57,978G)
CorpusCav: 401G (3.3%, 8,125G)
Digitalsocrates: 324G (2.7%, 324G)
Stealthtoucan: 299G (2.5%, 5,983G)
Evewho: 200G (1.6%, 6,602G)
AllInBot: 100G (0.8%, 100G)
getthemoneyz: 88G (0.7%, 759,568G)

purple bets:
Grandlanzer: 2,000G (25.1%, 8,744G)
EnemyController: 1,000G (12.5%, 440,650G)
NicoSavoy: 1,000G (12.5%, 20,259G)
Strifu: 500G (6.3%, 3,052G)
kaelsun: 412G (5.2%, 412G)
gorgewall: 401G (5.0%, 18,970G)
TaylorB503: 400G (5.0%, 2,663G)
benticore: 400G (5.0%, 4,735G)
gogofromtogo: 392G (4.9%, 392G)
HASTERIOUS: 323G (4.0%, 6,476G)
bokurakira: 240G (3.0%, 1,201G)
gr8keeper: 200G (2.5%, 3,150G)
Arcblazer23: 160G (2.0%, 160G)
soren_of_tyto: 120G (1.5%, 120G)
Powermhero: 120G (1.5%, 12,697G)
KyleWonToLiveForever: 116G (1.5%, 116G)
datadrivenbot: 100G (1.3%, 28,489G)
Cuchulame: 100G (1.3%, 100G)
