Final Bets: black - 18 bets for 8,091G (22.9%, x3.37); champion - 18 bets for 27,284G (77.1%, x0.30)

black bets:
EnemyController: 1,000G (12.4%, 440,539G)
BirbBrainsBot: 1,000G (12.4%, 64,937G)
NicoSavoy: 1,000G (12.4%, 18,259G)
Who_lio42: 1,000G (12.4%, 11,535G)
CorpusCav: 501G (6.2%, 8,656G)
LivingHitokiri: 500G (6.2%, 27,395G)
Evewho: 500G (6.2%, 7,177G)
Kronikle: 500G (6.2%, 17,454G)
Just_Data: 500G (6.2%, 52,240G)
gr8keeper: 300G (3.7%, 1,750G)
Stealthtoucan: 293G (3.6%, 5,871G)
HASTERIOUS: 292G (3.6%, 5,846G)
getthemoneyz: 238G (2.9%, 759,500G)
KyleWonToLiveForever: 116G (1.4%, 116G)
AllInBot: 100G (1.2%, 100G)
Sharosa: 100G (1.2%, 404G)
Digitalsocrates: 100G (1.2%, 1,014G)
alecttox: 51G (0.6%, 14,401G)

champion bets:
reinoe: 10,000G (36.7%, 57,306G)
metagameface: 4,000G (14.7%, 16,067G)
OneHundredFists: 3,074G (11.3%, 6,028G)
Dymntd: 2,500G (9.2%, 35,172G)
benticore: 2,000G (7.3%, 4,335G)
lowlf: 1,400G (5.1%, 1,400G)
Deathmaker06: 700G (2.6%, 2,596G)
TinchoT: 545G (2.0%, 545G)
Nizaha: 501G (1.8%, 9,342G)
DLJuggernaut: 500G (1.8%, 5,288G)
kaelsun: 453G (1.7%, 453G)
gogofromtogo: 431G (1.6%, 431G)
Arcblazer23: 302G (1.1%, 302G)
gorgewall: 201G (0.7%, 18,468G)
maleblackfiora: 200G (0.7%, 1,101G)
Cuchulame: 189G (0.7%, 189G)
thaetreis: 188G (0.7%, 188G)
datadrivenbot: 100G (0.4%, 28,478G)
