Final Bets: purple - 19 bets for 8,816G (44.4%, x1.25); brown - 14 bets for 11,048G (55.6%, x0.80)

purple bets:
douchetron: 2,958G (33.6%, 5,917G)
DavenIII: 600G (6.8%, 1,287G)
Nizaha: 568G (6.4%, 4,286G)
ohhinm: 568G (6.4%, 3,616G)
RaIshtar: 500G (5.7%, 6,246G)
Beastmages: 455G (5.2%, 455G)
Kronikle: 440G (5.0%, 10,716G)
MLWebz0r: 400G (4.5%, 2,646G)
Laserman1000: 360G (4.1%, 1,560G)
Cryptopsy70: 320G (3.6%, 575G)
AllInBot: 295G (3.3%, 295G)
Lord_Gwarth: 250G (2.8%, 1,695G)
Vultuous: 213G (2.4%, 213G)
holdenmagronik: 208G (2.4%, 2,262G)
gorgewall: 201G (2.3%, 14,394G)
Kithmar796: 200G (2.3%, 867G)
datadrivenbot: 200G (2.3%, 34,150G)
captainmilestw: 50G (0.6%, 1,349G)
DouglasDragonThePoet: 30G (0.3%, 2,848G)

brown bets:
UmaiJam: 1,500G (13.6%, 52,540G)
thehotrefrigerator: 1,097G (9.9%, 1,097G)
TheChainNerd: 1,086G (9.8%, 1,086G)
HaateXIII: 1,015G (9.2%, 1,015G)
BirbBrainsBot: 1,000G (9.1%, 182,403G)
KyleWonToLiveForever: 1,000G (9.1%, 9,178G)
JumbocactuarX27: 1,000G (9.1%, 24,745G)
BoneMiser: 984G (8.9%, 984G)
ShintaroNayaka: 886G (8.0%, 886G)
Oreo_Pizza: 500G (4.5%, 29,962G)
CapnChaos12: 300G (2.7%, 10,807G)
Treafa: 280G (2.5%, 779G)
kahjeethaswares: 200G (1.8%, 5,222G)
i2inchtomahawk: 200G (1.8%, 4,744G)
