Final Bets: green - 13 bets for 7,628G (49.7%, x1.01); yellow - 14 bets for 7,717G (50.3%, x0.99)

green bets:
NicoSavoy: 2,395G (31.4%, 119,757G)
nhammen: 2,000G (26.2%, 206,166G)
Nizaha: 692G (9.1%, 20,202G)
killth3kid: 640G (8.4%, 2,357G)
NIghtdew14: 569G (7.5%, 569G)
reinoe: 500G (6.6%, 128,774G)
VolgraTheMoose: 210G (2.8%, 2,260G)
rednecknazgul: 200G (2.6%, 4,703G)
Firesheath: 100G (1.3%, 23,583G)
Snowfats: 100G (1.3%, 10,402G)
onehitslay: 100G (1.3%, 182G)
Drusiform: 100G (1.3%, 3,516G)
JonnyCue: 22G (0.3%, 228G)

yellow bets:
ArcticXC: 2,000G (25.9%, 55,429G)
ko2q: 1,082G (14.0%, 2,164G)
BirbBrainsBot: 913G (11.8%, 44,064G)
KyleWonToLiveForever: 913G (11.8%, 13,144G)
gorgewall: 636G (8.2%, 636G)
SephDarkheart: 492G (6.4%, 14,866G)
resjudicata3: 476G (6.2%, 476G)
Treafa: 350G (4.5%, 1,051G)
PantherIscariot: 222G (2.9%, 5,632G)
AllInBot: 200G (2.6%, 200G)
getthemoneyz: 174G (2.3%, 1,555,715G)
douchetron: 100G (1.3%, 6,051G)
DHaveWord: 100G (1.3%, 2,869G)
roqqqpsi: 59G (0.8%, 1,184G)
