Final Bets: purple - 12 bets for 10,299G (43.8%, x1.28); brown - 21 bets for 13,205G (56.2%, x0.78)

purple bets:
ko2q: 2,117G (20.6%, 2,117G)
SkylerBunny: 2,000G (19.4%, 305,995G)
gorgewall: 1,136G (11.0%, 1,136G)
resjudicata3: 1,000G (9.7%, 3,351G)
Forkmore: 775G (7.5%, 775G)
FlohIristhrae: 712G (6.9%, 712G)
blorpy_: 671G (6.5%, 8,395G)
KasugaiRoastedPeas: 668G (6.5%, 668G)
killth3kid: 640G (6.2%, 4,179G)
Smashy: 380G (3.7%, 6,445G)
vrayx7: 100G (1.0%, 100G)
Brainstew29: 100G (1.0%, 38,205G)

brown bets:
dogsandcatsand: 2,673G (20.2%, 2,673G)
DeathTaxesAndAnime: 1,991G (15.1%, 3,904G)
reinoe: 1,000G (7.6%, 124,274G)
BirbBrainsBot: 1,000G (7.6%, 43,966G)
nhammen: 1,000G (7.6%, 204,666G)
terminusterminal: 1,000G (7.6%, 14,278G)
Nizaha: 692G (5.2%, 18,818G)
letdowncity: 504G (3.8%, 23,006G)
baconbacon1207: 500G (3.8%, 12,705G)
SephDarkheart: 492G (3.7%, 15,852G)
DHaveWord: 456G (3.5%, 3,368G)
getthemoneyz: 344G (2.6%, 1,555,641G)
roqqqpsi: 328G (2.5%, 2,193G)
Ayntlerz: 224G (1.7%, 224G)
AllInBot: 200G (1.5%, 200G)
rednecknazgul: 200G (1.5%, 5,616G)
latebit: 168G (1.3%, 168G)
muffin_money: 150G (1.1%, 6,409G)
PantherIscariot: 111G (0.8%, 6,240G)
Firesheath: 100G (0.8%, 24,290G)
JonnyCue: 72G (0.5%, 728G)
