High Risers:
1. skipsandwiches: +15,086G
2. Snowfats: +13,533G
3. CorpusCav: +6,533G
4. Spartan_Paladin: +3,745G
5. JonnyCue: +3,437G
6. roofiepops: +3,218G
7. DrAntiSocial: +3,207G
8. Chuckolator: +3,028G
9. tripaplex: +2,415G
10. powergems: +2,270G
11. Sairentozon7: +1,821G
12. bokurakira: +1,714G
13. maakur_: +1,546G
14. actual_JP: +1,500G
15. SeniorBunk: +1,500G
16. scsuperstar: +1,500G
17. fenaen: +1,216G
18. joewcarson: +1,200G
19. Leonidusx: +1,055G
20. DeathTaxesAndAnime: +1,010G
21. CapnChaos12: +1,004G
22. RunicMagus: +1,000G
23. krombobreaker: +1,000G
24. silentkaster: +1,000G
25. Lydian_C: +1,000G
26. DarrenDinosaurs: +1,000G
27. TheSabretoothe: +1,000G
28. Phi_Sig: +1,000G
29. Zagorsek: +1,000G
30. Deathmaker06: +931G
31. VolgraTheMoose: +764G
32. Laserman1000: +669G
33. just_here2: +639G
34. skillomono: +600G
35. Meta_Five: +564G
36. highelectricaltemperature: +537G
37. ExplanationMarkWow: +529G
38. DejaPoo21: +527G
39. Lolthsmeat: +504G
40. StealthModeLocke: +500G
41. Jeeboheebo: +500G
42. gorgewall: +500G
43. Bryon_W: +500G
44. FatTunaKing: +500G
45. PoroTact: +500G
46. acid_flashback: +445G
47. daveb_: +434G
48. Shalloween: +421G
49. 2b_yorha_b: +337G
50. Belkra: +300G
51. brokenknight201: +200G
52. heropong: +162G
53. Thyrandaal: +105G
54. Firesheath: +53G
55. mrfripps: -200G
56. holdenmagronik: -232G
57. LDSkinny: -300G
58. J_52: -321G
59. CosmicTactician: -333G
60. SQUiDSQUARKLIN: -400G
61. E_Ballard: -473G
62. ruleof5: -500G
63. pplvee1: -500G
64. nhammen: -563G
65. mindblownnnn: -600G
66. killth3kid: -773G
67. lowlf: -918G
68. DouglasDragonThePoet: -949G
69. Error72: -1,000G
70. mirapoix: -1,261G
71. HorusTaurus: -2,414G
72. Nizaha: -2,804G
73. rocl: -2,842G
74. dogsandcatsand: -4,518G
75. Lord_Gwarth: -4,691G
76. latebit: -5,000G
77. DavenIII: -5,562G
78. old_overholt_: -10,918G
