Final Bets: purple - 9 bets for 4,240G (32.9%, x2.04); brown - 12 bets for 8,639G (67.1%, x0.49)

purple bets:
fenaen: 1,500G (35.4%, 68,488G)
Meta_Five: 1,000G (23.6%, 5,028G)
joewcarson: 500G (11.8%, 10,341G)
DustBirdEX: 444G (10.5%, 7,110G)
MirtaiAtana: 288G (6.8%, 288G)
placeholdercats: 208G (4.9%, 208G)
Odin007_88: 100G (2.4%, 100G)
datadrivenbot: 100G (2.4%, 1,769G)
CosmicTactician: 100G (2.4%, 1,413G)

brown bets:
sinnyil2: 2,500G (28.9%, 109,199G)
leakimiko: 1,066G (12.3%, 13,325G)
ungabunga_bot: 1,000G (11.6%, 263,747G)
getthemoneyz: 1,000G (11.6%, 583,051G)
BirbBrainsBot: 1,000G (11.6%, 191,069G)
Breakdown777: 500G (5.8%, 27,540G)
SQUiDSQUARKLIN: 500G (5.8%, 5,806G)
catfashions: 500G (5.8%, 5,583G)
Estan_AD: 272G (3.1%, 272G)
ZephyrTempest: 101G (1.2%, 188,810G)
volgrathemoose: 100G (1.2%, 4,493G)
mirapoix: 100G (1.2%, 3,164G)
