Final Bets: red - 14 bets for 5,870G (53.6%, x0.87); brown - 15 bets for 5,084G (46.4%, x1.15)

red bets:
killth3kid: 1,000G (17.0%, 94,439G)
BirbBrainsBot: 1,000G (17.0%, 167,427G)
DeathTaxesAndAnime: 908G (15.5%, 908G)
maleblackfiora: 600G (10.2%, 739G)
winteriscorning: 590G (10.1%, 2,954G)
SkylerBunny: 424G (7.2%, 424G)
midnight_blues3: 400G (6.8%, 1,611G)
unclebearboy: 300G (5.1%, 7,639G)
gorgewall: 201G (3.4%, 14,078G)
Lydian_C: 121G (2.1%, 117,262G)
TasisSai: 100G (1.7%, 2,443G)
nhammen: 100G (1.7%, 9,935G)
ANFz: 100G (1.7%, 45,900G)
getthemoneyz: 26G (0.4%, 1,228,890G)

brown bets:
EnemyController: 1,111G (21.9%, 1,391,958G)
Evewho: 1,000G (19.7%, 14,171G)
Laserman1000: 721G (14.2%, 28,621G)
twelfthrootoftwo: 444G (8.7%, 444G)
superdevon1: 412G (8.1%, 412G)
Lythe_Caraker: 250G (4.9%, 148,396G)
ThreeMileIsland: 200G (3.9%, 910G)
fluffskull: 200G (3.9%, 4,236G)
datadrivenbot: 200G (3.9%, 61,608G)
Ring_Wyrm: 100G (2.0%, 11,180G)
slickdang: 100G (2.0%, 1,801G)
furrytomahawkk: 100G (2.0%, 1,777G)
nifboy: 100G (2.0%, 18,682G)
Grandlanzer: 100G (2.0%, 65,427G)
Hasterious: 46G (0.9%, 4,667G)
