Final Bets: white - 25 bets for 18,879G (68.5%, x0.46); black - 13 bets for 8,701G (31.5%, x2.17)

white bets:
randgridr: 3,767G (20.0%, 7,534G)
Shalloween: 1,500G (7.9%, 32,795G)
NovaKnight21: 1,394G (7.4%, 1,394G)
VolgraTheMoose: 1,309G (6.9%, 1,309G)
DustBirdEX: 1,202G (6.4%, 40,089G)
fenaen: 1,200G (6.4%, 3,276G)
BirbBrainsBot: 1,000G (5.3%, 177,257G)
gooblz: 960G (5.1%, 960G)
DeathTaxesAndAnime: 856G (4.5%, 856G)
killth3kid: 600G (3.2%, 4,199G)
DarrenDinosaurs: 576G (3.1%, 576G)
Rytor: 566G (3.0%, 566G)
Lanshaft: 548G (2.9%, 18,688G)
nekojin: 500G (2.6%, 9,207G)
TheRealRiggz: 500G (2.6%, 1,307G)
Forkmore: 388G (2.1%, 12,010G)
EmmaEnema: 364G (1.9%, 364G)
gggamezzz: 300G (1.6%, 4,189G)
Drusiform: 300G (1.6%, 3,920G)
Wooplestein: 271G (1.4%, 271G)
datadrivenbot: 200G (1.1%, 49,273G)
nhammen: 200G (1.1%, 30,362G)
LionheartLuso: 178G (0.9%, 178G)
TheArcanum: 100G (0.5%, 100G)
Firesheath: 100G (0.5%, 3,078G)

black bets:
ShintaroNayaka: 1,915G (22.0%, 1,915G)
Laserman1000: 1,394G (16.0%, 1,394G)
toka222: 1,000G (11.5%, 83,500G)
xBizzy: 839G (9.6%, 8,398G)
ohhinm: 772G (8.9%, 772G)
nifboy: 597G (6.9%, 597G)
E_Ballard: 500G (5.7%, 500G)
TasisSai: 500G (5.7%, 21,142G)
Lord_Gwarth: 298G (3.4%, 298G)
Strifu: 276G (3.2%, 276G)
AllInBot: 230G (2.6%, 230G)
Grandlanzer: 200G (2.3%, 129,140G)
getthemoneyz: 180G (2.1%, 1,497,946G)
