Final Bets: red - 16 bets for 12,920G (56.1%, x0.78); blue - 16 bets for 10,112G (43.9%, x1.28)

red bets:
Nickyfive: 3,090G (23.9%, 3,090G)
RoboticNomad: 2,493G (19.3%, 4,986G)
Mesmaster: 2,000G (15.5%, 81,250G)
Baron_von_Scrub: 1,111G (8.6%, 4,277G)
TheFALLofLindsay: 750G (5.8%, 2,421G)
HaateXIII: 644G (5.0%, 644G)
catfashions: 500G (3.9%, 14,319G)
Breakdown777: 500G (3.9%, 10,513G)
maakur_: 424G (3.3%, 424G)
ShintaroNayaka: 393G (3.0%, 393G)
ZZ_Yoshi: 350G (2.7%, 5,959G)
MMagnetMan: 204G (1.6%, 204G)
Tetsuwan_Melty: 150G (1.2%, 1,705G)
ANFz: 111G (0.9%, 33,768G)
foofermoofer: 100G (0.8%, 4,300G)
datadrivenbot: 100G (0.8%, 11,839G)

blue bets:
killth3kid: 2,000G (19.8%, 48,194G)
toka222: 1,670G (16.5%, 11,234G)
Grimmace45: 1,265G (12.5%, 25,309G)
BirbBrainsBot: 1,000G (9.9%, 155,965G)
Estan_AD: 799G (7.9%, 799G)
E_Ballard: 785G (7.8%, 785G)
Dymntd: 500G (4.9%, 18,720G)
Davarian: 451G (4.5%, 451G)
xxnamexx: 356G (3.5%, 356G)
Tekigi: 262G (2.6%, 262G)
ungabunga_bot: 218G (2.2%, 436,377G)
getthemoneyz: 206G (2.0%, 653,571G)
Primeval_33: 200G (2.0%, 7,126G)
NicoSavoy: 200G (2.0%, 10,709G)
ko2q: 100G (1.0%, 1,177G)
benticore: 100G (1.0%, 1,441G)
