Final Bets: yellow - 14 bets for 9,025G (15.5%, x5.44); purple - 27 bets for 49,123G (84.5%, x0.18)

yellow bets:
killth3kid: 2,000G (22.2%, 44,377G)
sinnyil2: 1,873G (20.8%, 1,873G)
nifboy: 1,072G (11.9%, 1,072G)
toka222: 650G (7.2%, 11,367G)
HaateXIII: 644G (7.1%, 644G)
Lydian_C: 623G (6.9%, 623G)
ANFz: 500G (5.5%, 34,226G)
Dymntd: 500G (5.5%, 20,673G)
Smashy: 300G (3.3%, 7,354G)
eudes89: 259G (2.9%, 259G)
ungabunga_bot: 204G (2.3%, 439,502G)
KasugaiRoastedPeas: 200G (2.2%, 413G)
benticore: 100G (1.1%, 1,491G)
Minhdotdot: 100G (1.1%, 800G)

purple bets:
catfashions: 23,156G (47.1%, 23,156G)
Mesmaster: 5,000G (10.2%, 92,558G)
rico_flex: 4,486G (9.1%, 29,908G)
Tetsuwan_Melty: 2,298G (4.7%, 2,298G)
NicoSavoy: 2,000G (4.1%, 7,540G)
E_Ballard: 1,307G (2.7%, 1,307G)
Nickyfive: 1,241G (2.5%, 1,241G)
Estan_AD: 1,103G (2.2%, 1,103G)
BirbBrainsBot: 1,000G (2.0%, 156,317G)
Anomandaris__: 1,000G (2.0%, 8,240G)
reinoe: 1,000G (2.0%, 24,036G)
joewcarson: 912G (1.9%, 912G)
getthemoneyz: 512G (1.0%, 653,130G)
RoboticNomad: 500G (1.0%, 5,021G)
Breakdown777: 500G (1.0%, 10,498G)
Baron_von_Scrub: 474G (1.0%, 4,687G)
mannequ1n: 396G (0.8%, 396G)
ZZ_Yoshi: 331G (0.7%, 7,219G)
Lali_Lulelo: 308G (0.6%, 308G)
holyonline: 300G (0.6%, 11,104G)
theanonymouslurker: 297G (0.6%, 297G)
Crimefridge: 250G (0.5%, 1,618G)
Tekigi: 238G (0.5%, 238G)
foofermoofer: 200G (0.4%, 3,916G)
CrownOfHorns: 164G (0.3%, 164G)
datadrivenbot: 100G (0.2%, 12,010G)
DrAntiSocial: 50G (0.1%, 14,221G)
