Final Bets: blue - 14 bets for 7,737G (49.2%, x1.03); yellow - 13 bets for 7,996G (50.8%, x0.97)

blue bets:
Thyrandaal: 1,424G (18.4%, 1,424G)
BirbBrainsBot: 1,000G (12.9%, 154,291G)
JumbocactuarX27: 1,000G (12.9%, 21,960G)
RaIshtar: 981G (12.7%, 981G)
HaateXIII: 824G (10.7%, 824G)
Xoomwaffle: 750G (9.7%, 2,625G)
ruleof5: 500G (6.5%, 2,001G)
killth3kid: 468G (6.0%, 1,979G)
SephDarkheart: 340G (4.4%, 48,866G)
getthemoneyz: 100G (1.3%, 1,334,615G)
Bongomon7: 100G (1.3%, 6,439G)
Practice_Pad: 100G (1.3%, 2,831G)
Jaku618: 100G (1.3%, 4,933G)
DouglasDragonThePoet: 50G (0.6%, 1,748G)

yellow bets:
NovaKnight21: 3,000G (37.5%, 7,975G)
evontno: 1,200G (15.0%, 36,078G)
skipsandwiches: 1,010G (12.6%, 1,981G)
ShintaroNayaka: 600G (7.5%, 600G)
brokenknight201: 500G (6.3%, 3,007G)
mirapoix: 476G (6.0%, 476G)
Error72: 344G (4.3%, 344G)
AllInBot: 200G (2.5%, 200G)
Miku_Shikhu: 200G (2.5%, 13,836G)
datadrivenbot: 200G (2.5%, 33,308G)
nofreewill: 116G (1.5%, 116G)
Brainstew29: 100G (1.3%, 986G)
captainmilestw: 50G (0.6%, 1,817G)
