High Risers:
1. Skillomono: +20,296G
2. Thyrandaal: +7,125G
3. Mrubiq: +7,066G
4. Rytor: +5,825G
5. Nekojin: +4,231G
6. Dasutin23: +2,230G
7. Dogsandcatsand: +1,287G
8. Error72: +1,131G
9. Sinnyil2: +1,104G
10. Haatexiii: +1,042G
11. Lord_gwarth: +1,013G
12. Shintaronayaka: +983G
13. Skylerbunny: +789G
14. Mushufasa_: +774G
15. Cryptopsy70: +686G
16. Jtn2002: +434G
17. Snkey: +369G
18. Richardserious: +327G
19. Kasugairoastedpeas: +301G
20. Ko2q: +297G
21. Truthdefined: +276G
22. Sephdarkheart: +224G
23. Lemonjohns: +219G
24. Thesabretoothe: +213G
25. Lwtest: +200G
26. Puzzlesecretary: +152G
27. Mrfripps: +100G
28. Lowlf: +83G
29. Lyner87: -100G
30. Chuckolator: -194G
31. Capnchaos12: -200G
32. Bigbongsmoker: -212G
33. Killth3kid: -253G
34. Formerlydrdong: -258G
35. Novaknight21: -296G
36. Maakur_: -304G
37. Lijarkh: -304G
38. Holdenmagronik: -304G
39. Runeseeker22: -309G
40. J2dabibbles: -400G
41. Run_with_stone_guns: -400G
42. Smashy: -400G
43. Seniorbunk: -480G
44. Thebluesman: -550G
45. Volgrathemoose: -652G
46. Altimamantoid: -724G
47. Jeeboheebo: -800G
48. Shalloween: -988G
49. Sairentozon7: -1,000G
50. Nhammen: -1,088G
51. Nicosavoy: -1,105G
52. Cosmictactician: -1,110G
53. Laserman1000: -1,204G
54. Acrusade: -1,352G
55. Brokenknight201: -1,400G
56. Trogdorthememeinator: -1,500G
57. Pepperbuster: -1,581G
58. Krombobreaker: -1,585G
59. Colettemslp: -1,708G
60. Roqqqpsi: -2,313G
61. Nizaha: -2,335G
62. Yangusburger: -2,520G
63. Deathtaxesandanime: -2,893G
64. E_ballard: -3,552G
65. Daveniii: -7,139G
66. Bonemiser: -7,858G
67. Zbgs: -8,387G
