Final Bets: red - 11 bets for 5,352G (73.8%, x0.36); blue - 3 bets for 1,902G (26.2%, x2.81)

red bets:
DeathTaxesAndAnime: 1,832G (34.2%, 1,832G)
BirbBrainsBot: 1,000G (18.7%, 120,124G)
iBardic: 557G (10.4%, 557G)
Raixelol: 556G (10.4%, 22,551G)
ColetteMSLP: 400G (7.5%, 6,239G)
AltimaMantoid: 337G (6.3%, 1,937G)
brodeity: 256G (4.8%, 256G)
datadrivenbot: 200G (3.7%, 58,313G)
hotpocketsofficial: 100G (1.9%, 2,033G)
BappleTrees: 100G (1.9%, 2,775G)
BartTradingCompany: 14G (0.3%, 147G)

blue bets:
DavenIII: 1,652G (86.9%, 3,305G)
getthemoneyz: 150G (7.9%, 1,872,770G)
AllInBot: 100G (5.3%, 100G)
