Final Bets: red - 22 bets for 13,051G (58.6%, x0.71); green - 23 bets for 9,212G (41.4%, x1.42)

red bets:
hkbadboy: 2,000G (15.3%, 6,303G)
Axelrod: 1,820G (13.9%, 36,405G)
inzo24: 1,200G (9.2%, 9,676G)
reinoe: 1,000G (7.7%, 12,573G)
DeathTaxesAndAnime: 750G (5.7%, 1,464G)
pandasforsale: 666G (5.1%, 17,304G)
WireLord: 644G (4.9%, 644G)
Aeolus_000: 600G (4.6%, 1,144G)
HaateXIII: 552G (4.2%, 552G)
cheesetacular: 500G (3.8%, 3,337G)
Zeroroute: 500G (3.8%, 500G)
nomoment: 500G (3.8%, 27,856G)
LeepingJJ: 500G (3.8%, 3,268G)
MrDiggs49: 500G (3.8%, 5,706G)
silentperogy: 400G (3.1%, 7,855G)
Maeveen: 200G (1.5%, 7,779G)
ugoplatamia: 200G (1.5%, 1,536G)
byrdturbo: 111G (0.9%, 2,851G)
RathFGC: 108G (0.8%, 108G)
ApplesauceBoss: 100G (0.8%, 3,488G)
twelfthrootoftwo: 100G (0.8%, 3,951G)
Basmal: 100G (0.8%, 36,403G)

green bets:
waterwatereverywhere: 1,145G (12.4%, 2,246G)
inzo_bettingbot: 1,000G (10.9%, 52,809G)
BirbBrainsBot: 1,000G (10.9%, 71,704G)
bad1dea: 1,000G (10.9%, 296,206G)
leakimiko: 960G (10.4%, 32,016G)
thaetreis: 580G (6.3%, 2,902G)
SleepyBenzo: 500G (5.4%, 2,418G)
EnemyController: 500G (5.4%, 18,320G)
nerdynel17: 340G (3.7%, 340G)
TheMurkGnome: 300G (3.3%, 3,063G)
ZephyrTempest: 234G (2.5%, 15,523G)
ensiron: 216G (2.3%, 216G)
InOzWeTrust: 203G (2.2%, 203G)
RongRongArts: 200G (2.2%, 8,580G)
The8thZodiac: 200G (2.2%, 1,218G)
Lanryte: 150G (1.6%, 8,214G)
TheRobbieRobster: 148G (1.6%, 148G)
powergems: 100G (1.1%, 9,165G)
RughSontos: 100G (1.1%, 6,395G)
dreadnxught: 100G (1.1%, 4,103G)
GrayGhostGaming: 100G (1.1%, 444G)
getthemoneyz: 86G (0.9%, 400,974G)
cougboi: 50G (0.5%, 3,593G)
