High Risers:
1. Mesmaster: +15,528G
2. 3ngag3: +8,448G
3. Sairentozon7: +4,269G
4. Roofiepops: +2,624G
5. Forkmore: +2,338G
6. Zerguzen: +1,573G
7. Meta_five: +1,564G
8. Shadowninja25: +1,315G
9. Actual_jp: +1,000G
10. Scsuperstar: +990G
11. Killabandaid: +903G
12. Nhammen: +887G
13. Old_overholt_: +833G
14. Gorgewall: +703G
15. Anfz: +667G
16. Colettemslp: +639G
17. Memoriesoffinal: +543G
18. Mirapoix: +543G
19. Fenaen: +541G
20. Galkife: +510G
21. Phi_sig: +500G
22. Buffalocrunch: +500G
23. Jonnycue: +500G
24. Sharknaldson: +500G
25. Zagorsek: +500G
26. Vorap: +500G
27. Firesheath: +500G
28. Farside00831: +500G
29. Rhyser76: +414G
30. Runicmagus: +372G
31. Krombobreaker: +350G
32. Dogsandcatsand: +290G
33. Maakur_: +132G
34. Hojimitsu: +128G
35. Lord_gwarth: +122G
36. Skipsandwiches: +100G
37. Robespyah: +68G
38. Snarkmage: +44G
39. Ribbiks: -76G
40. Nizaha: -93G
41. Seppu777: -118G
42. Drscarecroww: -158G
43. Gingerfoo69: -275G
44. Shalloween: -300G
45. Laserman1000: -375G
46. Valensexp_: -376G
47. Genkidou: -379G
48. Sinnyil2: -396G
49. Treafa: -396G
50. Resjudicata3: -465G
51. Run_with_stone_guns: -496G
52. Deathtaxesandanime: -676G
53. Killth3kid: -749G
54. Volgrathemoose: -901G
55. Leonidusx: -1,000G
56. Cosmictactician: -1,000G
57. Darrendinosaurs: -1,000G
58. Danielrknealeart: -1,000G
59. Lijarkh: -1,100G
60. Capnchaos12: -1,208G
61. Corpuscav: -1,463G
62. Daveniii: -1,549G
63. Nickyfive: -2,000G
64. Evdoggity: -2,000G
65. Pplvee1: -2,136G
66. Thyrandaal: -2,400G
67. Lyner87: -3,448G
68. Sephdarkheart: -3,754G
