Final Bets: green - 8 bets for 4,084G (18.1%, x4.52); yellow - 17 bets for 18,445G (81.9%, x0.22)

green bets:
Lord_Gwarth: 1,416G (34.7%, 1,416G)
Zerguzen: 1,026G (25.1%, 1,026G)
killth3kid: 640G (15.7%, 25,373G)
SephDarkheart: 388G (9.5%, 15,976G)
killabandaid: 208G (5.1%, 208G)
getthemoneyz: 206G (5.0%, 2,049,278G)
MemoriesofFinal: 100G (2.4%, 40,973G)
nhammen: 100G (2.4%, 287,681G)

yellow bets:
Mesmaster: 3,873G (21.0%, 3,873G)
3ngag3: 3,000G (16.3%, 9,943G)
Forkmore: 2,896G (15.7%, 2,896G)
Lyner87: 1,235G (6.7%, 99,191G)
Sairentozon7: 1,000G (5.4%, 7,884G)
CorpusCav: 1,000G (5.4%, 6,487G)
Nizaha: 884G (4.8%, 61,948G)
ShadowNinja25: 847G (4.6%, 847G)
BirbBrainsBot: 758G (4.1%, 83,015G)
gorgewall: 744G (4.0%, 744G)
krombobreaker: 700G (3.8%, 7,717G)
robespyah: 308G (1.7%, 308G)
ColetteMSLP: 300G (1.6%, 2,389G)
CapnChaos12: 300G (1.6%, 2,520G)
AllInBot: 200G (1.1%, 200G)
resjudicata3: 200G (1.1%, 3,791G)
datadrivenbot: 200G (1.1%, 77,910G)
