Final Bets: green - 9 bets for 5,489G (38.5%, x1.60); yellow - 16 bets for 8,778G (61.5%, x0.63)

green bets:
DavenIII: 2,237G (40.8%, 4,474G)
RongRongArts: 1,100G (20.0%, 20,248G)
UmaiJam: 634G (11.6%, 6,346G)
Lydian_C: 368G (6.7%, 368G)
Cataphract116: 300G (5.5%, 1,972G)
Oshimi12: 276G (5.0%, 276G)
lordhewlett: 252G (4.6%, 252G)
roqqqpsi: 222G (4.0%, 725G)
SpaZmodeus: 100G (1.8%, 3,646G)

yellow bets:
leakimiko: 2,108G (24.0%, 42,178G)
Jeeboheebo: 1,002G (11.4%, 24,754G)
BirbBrainsBot: 1,000G (11.4%, 12,962G)
bad1dea: 1,000G (11.4%, 254,002G)
getthemoneyz: 754G (8.6%, 399,554G)
Musclestache: 500G (5.7%, 8,561G)
PatSouI: 500G (5.7%, 19,467G)
HaplessOne: 500G (5.7%, 36,801G)
maakur_: 312G (3.6%, 312G)
ko2q: 252G (2.9%, 252G)
Treapvort: 200G (2.3%, 17,009G)
Maeveen: 200G (2.3%, 10,362G)
0utlier: 200G (2.3%, 200G)
datadrivenbot: 100G (1.1%, 16,558G)
RonaldoTheGypsy: 100G (1.1%, 2,273G)
WinnerBit: 50G (0.6%, 847G)
