Final Bets: green - 8 bets for 6,842G (50.3%, x0.99); yellow - 12 bets for 6,747G (49.7%, x1.01)

green bets:
UmaiJam: 3,000G (43.8%, 42,259G)
reinoe: 1,000G (14.6%, 74,291G)
BirbBrainsBot: 1,000G (14.6%, 10,676G)
Error72: 895G (13.1%, 895G)
getthemoneyz: 502G (7.3%, 1,515,184G)
DouglasDragonThePoet: 316G (4.6%, 316G)
ArlanKels: 69G (1.0%, 2,311G)
7Cerulean7: 60G (0.9%, 6,533G)

yellow bets:
NovaKnight21: 1,514G (22.4%, 1,514G)
NIghtdew14: 1,067G (15.8%, 1,067G)
ColetteMSLP: 1,000G (14.8%, 37,522G)
maximumcrit: 1,000G (14.8%, 7,664G)
RaIshtar: 519G (7.7%, 519G)
ShintaroNayaka: 397G (5.9%, 397G)
Smashy: 300G (4.4%, 9,581G)
roqqqpsi: 250G (3.7%, 264G)
AllInBot: 200G (3.0%, 200G)
datadrivenbot: 200G (3.0%, 48,198G)
DesertWooder: 200G (3.0%, 2,256G)
EmmaEnema: 100G (1.5%, 6,646G)
