Final Bets: purple - 11 bets for 3,400G (28.2%, x2.54); brown - 11 bets for 8,651G (71.8%, x0.39)

purple bets:
ColetteMSLP: 1,000G (29.4%, 37,182G)
Smashy: 500G (14.7%, 9,611G)
xBizzy: 394G (11.6%, 2,632G)
DesertWooder: 300G (8.8%, 1,906G)
roqqqpsi: 235G (6.9%, 429G)
AllInBot: 200G (5.9%, 200G)
datadrivenbot: 200G (5.9%, 48,130G)
twelfthrootoftwo: 200G (5.9%, 5,106G)
tsukiyo2830: 179G (5.3%, 179G)
7Cerulean7: 120G (3.5%, 6,651G)
ArlanKels: 72G (2.1%, 2,426G)

brown bets:
UmaiJam: 3,000G (34.7%, 47,196G)
Error72: 1,182G (13.7%, 2,365G)
maximumcrit: 1,000G (11.6%, 5,664G)
BirbBrainsBot: 1,000G (11.6%, 12,322G)
Lemonjohns: 538G (6.2%, 538G)
ShintaroNayaka: 518G (6.0%, 518G)
dinin991: 441G (5.1%, 441G)
RaIshtar: 328G (3.8%, 328G)
NIghtdew14: 300G (3.5%, 300G)
DouglasDragonThePoet: 174G (2.0%, 702G)
getthemoneyz: 170G (2.0%, 1,516,339G)
