Final Bets: blue - 11 bets for 9,357G (78.0%, x0.28); green - 10 bets for 2,636G (22.0%, x3.55)

blue bets:
UmaiJam: 3,000G (32.1%, 48,375G)
Error72: 1,415G (15.1%, 2,830G)
Smashy: 1,000G (10.7%, 8,111G)
maximumcrit: 1,000G (10.7%, 6,057G)
BirbBrainsBot: 1,000G (10.7%, 12,715G)
ShintaroNayaka: 722G (7.7%, 722G)
DesertWooder: 400G (4.3%, 1,606G)
twelfthrootoftwo: 300G (3.2%, 3,906G)
roqqqpsi: 250G (2.7%, 264G)
datadrivenbot: 200G (2.1%, 47,930G)
ArlanKels: 70G (0.7%, 2,354G)

green bets:
Lemonjohns: 749G (28.4%, 749G)
RaIshtar: 457G (17.3%, 457G)
iBardic: 418G (15.9%, 418G)
AllInBot: 200G (7.6%, 200G)
EmmaEnema: 200G (7.6%, 6,546G)
pplvee1: 200G (7.6%, 1,997G)
DouglasDragonThePoet: 154G (5.8%, 770G)
getthemoneyz: 118G (4.5%, 1,516,406G)
7Cerulean7: 90G (3.4%, 6,531G)
dinin991: 50G (1.9%, 614G)
