Final Bets: red - 10 bets for 3,677G (27.6%, x2.63); yellow - 9 bets for 9,669G (72.4%, x0.38)

red bets:
BirbBrainsBot: 1,000G (27.2%, 197,938G)
superdevon1: 996G (27.1%, 99,692G)
Sairentozon7: 408G (11.1%, 408G)
lowlf: 384G (10.4%, 4,271G)
AllInBot: 309G (8.4%, 309G)
getthemoneyz: 180G (4.9%, 1,734,794G)
FoxMime: 100G (2.7%, 323G)
RonaldoTheGypsy: 100G (2.7%, 558G)
ko2q: 100G (2.7%, 3,189G)
DAC169: 100G (2.7%, 2,886G)

yellow bets:
ruleof5: 3,000G (31.0%, 20,382G)
DeathTaxesAndAnime: 1,972G (20.4%, 3,867G)
sinnyil2: 1,652G (17.1%, 1,652G)
Seaweed_B: 1,000G (10.3%, 47,425G)
SkylerBunny: 744G (7.7%, 744G)
pokezel: 700G (7.2%, 10,083G)
WhiteTigress: 300G (3.1%, 14,153G)
datadrivenbot: 200G (2.1%, 67,891G)
gorgewall: 101G (1.0%, 19,710G)
