Final Bets: red - 12 bets for 5,944G (48.1%, x1.08); green - 9 bets for 6,420G (51.9%, x0.93)

red bets:
Lionhermit: 2,168G (36.5%, 4,251G)
Lydian_C: 780G (13.1%, 2,427G)
josephiroth_143: 690G (11.6%, 690G)
Saldarin: 500G (8.4%, 1,269G)
Digitalsocrates: 478G (8.0%, 478G)
CassiePhoenix: 364G (6.1%, 364G)
AllInBot: 283G (4.8%, 283G)
CrownOfHorns: 220G (3.7%, 220G)
TeaTime29: 144G (2.4%, 144G)
KyleWonToLiveForever: 116G (2.0%, 116G)
gorgewall: 101G (1.7%, 16,834G)
datadrivenbot: 100G (1.7%, 28,394G)

green bets:
NovaKnight21: 2,459G (38.3%, 4,918G)
sinnyil2: 1,511G (23.5%, 1,511G)
volgrathemoose: 887G (13.8%, 887G)
gogofromtogo: 500G (7.8%, 8,986G)
Zachara: 500G (7.8%, 88,500G)
LivingHitokiri: 380G (5.9%, 380G)
getthemoneyz: 98G (1.5%, 760,066G)
BirbBrainsBot: 84G (1.3%, 66,743G)
daveb_: 1G (0.0%, 895G)
