Final Bets: red - 20 bets for 17,866G (28.6%, x2.50); white - 9 bets for 44,677G (71.4%, x0.40)

red bets:
coralreeferz: 5,000G (28.0%, 13,876G)
nedryerson01: 3,007G (16.8%, 3,007G)
LDSkinny: 1,000G (5.6%, 21,959G)
loveyouallfriends: 1,000G (5.6%, 51,699G)
SpookyCookieMonster: 1,000G (5.6%, 3,047G)
BirbBrainsBot: 1,000G (5.6%, 142,445G)
Willjin: 1,000G (5.6%, 10,504G)
Lord_Burrah: 1,000G (5.6%, 79,961G)
DavenIII: 1,000G (5.6%, 25,369G)
getthemoneyz: 674G (3.8%, 566,693G)
waterwatereverywhere: 500G (2.8%, 2,558G)
upvla: 322G (1.8%, 6,604G)
kai_shee: 300G (1.7%, 300G)
fallendj77: 252G (1.4%, 252G)
catfashions: 250G (1.4%, 2,561G)
nifboy: 160G (0.9%, 4,018G)
ZephyrTempest: 101G (0.6%, 185,593G)
FriendSquirrel: 100G (0.6%, 33,242G)
rjA0zcOQ96: 100G (0.6%, 34,661G)
datadrivenbot: 100G (0.6%, 2,532G)

white bets:
aStatue: 41,928G (93.8%, 41,928G)
roqqqpsi: 1,623G (3.6%, 7,380G)
lastly: 250G (0.6%, 3,819G)
FoeSquirrel: 209G (0.5%, 419G)
TheChainNerd: 200G (0.4%, 1,078G)
xYungAnarchyx: 150G (0.3%, 1,171G)
ungabunga_bot: 117G (0.3%, 220,811G)
Error72: 100G (0.2%, 5,850G)
JumbocactuarX27: 100G (0.2%, 3,118G)
