Final Bets: green - 7 bets for 9,734G (39.6%, x1.53); yellow - 19 bets for 14,845G (60.4%, x0.66)

green bets:
KasugaiRoastedPeas: 5,740G (59.0%, 11,480G)
AllInBot: 2,527G (26.0%, 2,527G)
Radiance89: 471G (4.8%, 471G)
Miku_Shikhu: 416G (4.3%, 416G)
ArlanKels: 280G (2.9%, 280G)
WillFitzgerald: 200G (2.1%, 5,357G)
nifboy: 100G (1.0%, 2,965G)

yellow bets:
Thyrandaal: 2,222G (15.0%, 82,758G)
SomthingMore: 2,000G (13.5%, 50,581G)
douchetron: 1,695G (11.4%, 3,325G)
maximumcrit: 1,674G (11.3%, 11,674G)
LordTomS: 1,000G (6.7%, 3,193G)
getthemoneyz: 1,000G (6.7%, 1,481,723G)
BirbBrainsBot: 1,000G (6.7%, 148,350G)
Nizaha: 644G (4.3%, 644G)
Laserman1000: 644G (4.3%, 644G)
maakur_: 608G (4.1%, 608G)
sinnyil2: 500G (3.4%, 4,057G)
letdowncity: 484G (3.3%, 13,279G)
roqqqpsi: 293G (2.0%, 1,957G)
sphurnt: 250G (1.7%, 250G)
Lumberinjack: 231G (1.6%, 231G)
TasisSai: 200G (1.3%, 15,436G)
datadrivenbot: 200G (1.3%, 49,252G)
EmmaEnema: 100G (0.7%, 1,927G)
cho_pin: 100G (0.7%, 643G)
