Final Bets: white - 18 bets for 24,741G (88.3%, x0.13); black - 8 bets for 3,274G (11.7%, x7.56)

white bets:
reinoe: 5,000G (20.2%, 27,314G)
Narcius: 4,400G (17.8%, 313,486G)
latebit: 3,216G (13.0%, 3,216G)
VolgraTheMoose: 2,001G (8.1%, 36,331G)
J2DaBibbles: 2,000G (8.1%, 21,255G)
Forkmore: 1,860G (7.5%, 3,648G)
sinnyil2: 1,167G (4.7%, 2,334G)
Smashy: 1,000G (4.0%, 10,921G)
Laserman1000: 799G (3.2%, 15,399G)
Aldrammech: 700G (2.8%, 700G)
roofiepops: 624G (2.5%, 1,225G)
SephDarkheart: 600G (2.4%, 151,905G)
AllInBot: 387G (1.6%, 387G)
itsonlyspencer: 244G (1.0%, 7,653G)
zenlion: 232G (0.9%, 12,257G)
neocarbuncle: 210G (0.8%, 527G)
datadrivenbot: 200G (0.8%, 61,930G)
gorgewall: 101G (0.4%, 4,419G)

black bets:
BirbBrainsBot: 1,000G (30.5%, 145,208G)
theBinklive: 630G (19.2%, 2,520G)
maximumcrit: 500G (15.3%, 5,247G)
MagicBottle: 324G (9.9%, 2,762G)
getthemoneyz: 316G (9.7%, 1,715,417G)
douchetron: 304G (9.3%, 304G)
RunicMagus: 100G (3.1%, 8,072G)
CosmicTactician: 100G (3.1%, 37,480G)
