Final Bets: red - 6 bets for 2,484G (22.6%, x3.43); yellow - 10 bets for 8,519G (77.4%, x0.29)

red bets:
BirbBrainsBot: 1,000G (40.3%, 79,197G)
DejaPoo21: 500G (20.1%, 10,804G)
nifboy: 488G (19.6%, 488G)
DustBirdEX: 345G (13.9%, 3,021G)
serperemagus: 93G (3.7%, 7,193G)
getthemoneyz: 58G (2.3%, 1,022,398G)

yellow bets:
EnemyController: 2,345G (27.5%, 1,229,546G)
ShintaroNayaka: 2,020G (23.7%, 2,020G)
Shalloween: 1,400G (16.4%, 63,948G)
Chuckolator: 863G (10.1%, 52,562G)
HaateXIII: 500G (5.9%, 22,480G)
extinctrational: 400G (4.7%, 1,921G)
ColetteMSLP: 400G (4.7%, 2,314G)
the_jester87: 291G (3.4%, 291G)
DeathTaxesAndAnime: 200G (2.3%, 2,476G)
datadrivenbot: 100G (1.2%, 45,396G)
