High Risers:
1. Zerguzen: +8,766G
2. Enemycontroller: +8,186G
3. Skillomono: +5,594G
4. Forkmore: +3,793G
5. Danielrknealeart: +3,602G
6. Shalloween: +2,609G
7. Snarkmage: +2,118G
8. Lord_gwarth: +2,047G
9. Zagorsek: +1,568G
10. Blastinus: +1,305G
11. Mindblownnnn: +1,042G
12. Technominari: +1,000G
13. Chihuahua_charity: +1,000G
14. Rune339: +804G
15. Darrendinosaurs: +645G
16. Chuckolator: +575G
17. Runicmagus: +568G
18. Seniorbunk: +504G
19. Archknightx: +500G
20. Galkife: +500G
21. Mushufasa_: +500G
22. Huffflex: +500G
23. Gooseyourself: +500G
24. Alenazarek: +500G
25. Willjin: +500G
26. Evdoggity: +500G
27. Ruleof5: +500G
28. Laserman1000: +500G
29. Joewcarson: +500G
30. Aly327: +500G
31. Kellios11: +500G
32. Vorap: +500G
33. Powergems: +500G
34. Formerlydrdong: +500G
35. Sharknaldson: +500G
36. Maakur_: +468G
37. Memoriesoffinal: +437G
38. Latebit: +401G
39. Nicosavoy: +304G
40. Phi_sig: +300G
41. Sinnyil2: +200G
42. Chichirodriguez: +200G
43. Scsuperstar: +143G
44. Hasterious: +100G
45. Resjudicata3: +85G
46. Silentkaster: +10G
47. Flavafraze: -66G
48. Xsifthewolf: -100G
49. J_52: -100G
50. Ar_tactic: -200G
51. Gorgewall: -244G
52. Thyrandaal: -296G
53. Just_here2: -300G
54. Luckyluckluc2: -333G
55. Anfz: -404G
56. Spartan_paladin: -445G
57. Lythe_caraker: -500G
58. J_macc1991: -522G
59. Corpuscav: -709G
60. Chickennuggetcombo: -721G
61. Rhyser76: -787G
62. Helpimabug: -807G
63. Khelor_: -921G
64. Reinoe: -1,000G
65. Run_with_stone_guns: -1,000G
66. Davestrider55: -1,000G
67. Deathtaxesandanime: -1,100G
68. Mesmaster: -1,300G
69. Volgrathemoose: -1,403G
70. Daveb_: -1,439G
71. Kothn: -1,500G
72. Ericzubat: -1,500G
73. 3ngag3: -1,904G
74. Zbgs: -2,000G
75. Smashy: -2,083G
76. Nekojin: -2,116G
77. Orrfieldmedic: -4,103G
78. Robespyah: -6,685G
79. Bonemiser: -7,186G
80. Error72: -10,154G
