Final Bets: red - 13 bets for 8,401G (57.6%, x0.74); blue - 14 bets for 6,178G (42.4%, x1.36)

red bets:
rubenflonne: 1,942G (23.1%, 1,942G)
BenYuPoker: 1,574G (18.7%, 1,574G)
kingchadking: 914G (10.9%, 914G)
ungabunga_bot: 746G (8.9%, 71,158G)
Maeveen: 714G (8.5%, 1,428G)
YaBoy125: 600G (7.1%, 600G)
jethrothrul: 588G (7.0%, 588G)
Treapvort: 423G (5.0%, 423G)
ShintaroNayaka: 400G (4.8%, 9,318G)
ugoplatamia: 200G (2.4%, 13,460G)
AllInBot: 100G (1.2%, 100G)
2sexy4u: 100G (1.2%, 2,314G)
DHaveWord: 100G (1.2%, 3,935G)

blue bets:
BirbBrainsBot: 1,000G (16.2%, 281,155G)
bad1dea: 1,000G (16.2%, 64,017G)
WireLord: 1,000G (16.2%, 19,496G)
waterwatereverywhere: 637G (10.3%, 637G)
Shakarak: 600G (9.7%, 600G)
Slowbrofist: 567G (9.2%, 567G)
nifboy: 500G (8.1%, 8,863G)
herrshaun: 200G (3.2%, 2,470G)
getthemoneyz: 174G (2.8%, 447,365G)
SeedSC: 100G (1.6%, 141,917G)
SeniorBunk: 100G (1.6%, 2,655G)
redrhinofever: 100G (1.6%, 6,964G)
datadrivenbot: 100G (1.6%, 23,277G)
TinhShu: 100G (1.6%, 2,497G)
