Final Bets: purple - 21 bets for 11,462G (28.8%, x2.47); brown - 5 bets for 28,309G (71.2%, x0.40)

purple bets:
YaBoy125: 2,000G (17.4%, 17,331G)
Slowbrofist: 1,316G (11.5%, 1,316G)
BirbBrainsBot: 1,000G (8.7%, 278,155G)
bad1dea: 1,000G (8.7%, 61,717G)
WireLord: 1,000G (8.7%, 16,496G)
Treapvort: 761G (6.6%, 761G)
jethrothrul: 588G (5.1%, 588G)
AllInBot: 506G (4.4%, 506G)
nifboy: 500G (4.4%, 13,568G)
SkyridgeZero: 500G (4.4%, 9,391G)
Maeveen: 400G (3.5%, 1,728G)
getthemoneyz: 374G (3.3%, 446,199G)
JackOnFire1: 228G (2.0%, 228G)
ugoplatamia: 200G (1.7%, 13,865G)
rubenflonne: 200G (1.7%, 3,370G)
2sexy4u: 200G (1.7%, 2,238G)
ungabunga_bot: 197G (1.7%, 72,257G)
mayormcfunbags: 192G (1.7%, 192G)
maakur_: 100G (0.9%, 2,039G)
datadrivenbot: 100G (0.9%, 23,483G)
Evewho: 100G (0.9%, 3,600G)

brown bets:
upvla: 26,109G (92.2%, 52,218G)
redrhinofever: 1,000G (3.5%, 8,352G)
Shakarak: 600G (2.1%, 600G)
ShintaroNayaka: 500G (1.8%, 4,112G)
TinhShu: 100G (0.4%, 2,197G)
