Final Bets: yellow - 17 bets for 15,759G (56.5%, x0.77); purple - 14 bets for 12,121G (43.5%, x1.30)

yellow bets:
rechaun: 4,671G (29.6%, 4,671G)
leakimiko: 2,729G (17.3%, 34,114G)
ungabunga_bot: 1,000G (6.3%, 73,129G)
BirbBrainsBot: 1,000G (6.3%, 280,525G)
bad1dea: 1,000G (6.3%, 64,087G)
WireLord: 1,000G (6.3%, 18,866G)
waterwatereverywhere: 959G (6.1%, 1,882G)
jethrothrul: 839G (5.3%, 839G)
YaBoy125: 600G (3.8%, 600G)
TinhShu: 500G (3.2%, 1,887G)
Slowbrofist: 371G (2.4%, 371G)
ShintaroNayaka: 300G (1.9%, 4,010G)
Etce: 248G (1.6%, 248G)
Cataphract116: 200G (1.3%, 3,615G)
getthemoneyz: 142G (0.9%, 447,266G)
maakur_: 100G (0.6%, 2,329G)
datadrivenbot: 100G (0.6%, 23,530G)

purple bets:
AllInBot: 4,759G (39.3%, 4,759G)
BenYuPoker: 1,952G (16.1%, 1,952G)
kingchadking: 1,586G (13.1%, 1,586G)
mayormcfunbags: 955G (7.9%, 955G)
2sexy4u: 500G (4.1%, 2,995G)
redrhinofever: 500G (4.1%, 7,602G)
nifboy: 500G (4.1%, 12,303G)
JackOnFire1: 329G (2.7%, 329G)
ColetteMSLP: 300G (2.5%, 13,984G)
ugoplatamia: 200G (1.7%, 14,244G)
rubenflonne: 200G (1.7%, 3,364G)
mivvim: 140G (1.2%, 140G)
SeedSC: 100G (0.8%, 141,817G)
Treapvort: 100G (0.8%, 2,341G)
