Final Bets: purple - 8 bets for 4,902G (29.2%, x2.42); brown - 12 bets for 11,870G (70.8%, x0.41)

purple bets:
gorgewall: 1,136G (23.2%, 1,136G)
ColetteMSLP: 1,000G (20.4%, 26,473G)
superdevon1: 755G (15.4%, 37,768G)
prince_rogers_nelson_: 692G (14.1%, 692G)
randgridr: 564G (11.5%, 564G)
poGpopE: 331G (6.8%, 48,331G)
AllInBot: 324G (6.6%, 324G)
moonliquor: 100G (2.0%, 39,953G)

brown bets:
amiture: 5,000G (42.1%, 31,738G)
sinnyil2: 3,350G (28.2%, 6,700G)
BirbBrainsBot: 1,000G (8.4%, 58,303G)
getthemoneyz: 724G (6.1%, 1,447,493G)
InOzWeTrust: 500G (4.2%, 14,526G)
Calajo: 400G (3.4%, 2,498G)
douchetron: 220G (1.9%, 432G)
Wooplestein: 216G (1.8%, 216G)
datadrivenbot: 200G (1.7%, 45,957G)
gooblz: 112G (0.9%, 112G)
BaronHaynes: 100G (0.8%, 7,287G)
dtrain332: 48G (0.4%, 4,803G)
