Final Bets: purple - 12 bets for 4,793G (26.4%, x2.79); brown - 20 bets for 13,385G (73.6%, x0.36)

purple bets:
volgrathemoose: 1,144G (23.9%, 2,288G)
ungabunga_bot: 1,000G (20.9%, 492,897G)
Rislyeu: 531G (11.1%, 531G)
SQUiDSQUARKLIN: 500G (10.4%, 4,809G)
Legitamte: 333G (6.9%, 2,949G)
TheUnforgivenRage: 296G (6.2%, 296G)
Lolprinze: 220G (4.6%, 220G)
aeonicvector: 212G (4.4%, 212G)
ApplesauceBoss: 211G (4.4%, 1,863G)
MalakiGenesys: 146G (3.0%, 974G)
maakur_: 100G (2.1%, 2,570G)
mannequ1n: 100G (2.1%, 6,644G)

brown bets:
reinoe: 2,544G (19.0%, 2,544G)
Mesmaster: 2,000G (14.9%, 47,366G)
Lionhermit: 2,000G (14.9%, 48,672G)
joewcarson: 1,606G (12.0%, 1,606G)
BirbBrainsBot: 1,000G (7.5%, 69,482G)
E_Ballard: 949G (7.1%, 949G)
fenaen: 400G (3.0%, 400G)
Strifu: 371G (2.8%, 371G)
luminarii: 350G (2.6%, 13,568G)
DLJuggernaut: 332G (2.5%, 332G)
gggamezzz: 317G (2.4%, 2,637G)
thethorndog1: 300G (2.2%, 954G)
GnielKnows: 276G (2.1%, 1,105G)
SuicideKing_XIX: 200G (1.5%, 2,985G)
getthemoneyz: 170G (1.3%, 675,829G)
flametail24: 170G (1.3%, 1,000G)
datadrivenbot: 100G (0.7%, 18,002G)
LionelParks: 100G (0.7%, 1,170G)
ACSpree: 100G (0.7%, 2,020G)
Digitalsocrates: 100G (0.7%, 2,091G)
