Final Bets: white - 23 bets for 34,335G (94.7%, x0.06); black - 6 bets for 1,914G (5.3%, x17.94)

white bets:
upvla: 17,176G (50.0%, 34,353G)
HaplessOne: 5,000G (14.6%, 132,473G)
JackOnFire1: 2,500G (7.3%, 10,000G)
sinnyil2: 1,904G (5.5%, 3,809G)
EnemyController: 1,891G (5.5%, 31,891G)
ungabunga_bot: 1,000G (2.9%, 78,118G)
CapnChaos12: 500G (1.5%, 7,717G)
tinytittyfiend: 500G (1.5%, 14,197G)
Oobs56: 500G (1.5%, 3,405G)
getthemoneyz: 492G (1.4%, 442,703G)
lijarkh: 422G (1.2%, 422G)
HaateXIII: 366G (1.1%, 366G)
DudeMonkey77: 328G (1.0%, 328G)
V3rdeni: 300G (0.9%, 4,079G)
Conome: 283G (0.8%, 283G)
Tithonus: 200G (0.6%, 12,709G)
cougboi: 200G (0.6%, 5,165G)
Aldrammech: 199G (0.6%, 1,990G)
ScarletSpiderBen: 150G (0.4%, 1,431G)
AllInBot: 120G (0.3%, 120G)
BlinkFS: 104G (0.3%, 104G)
datadrivenbot: 100G (0.3%, 26,639G)
victoriolue: 100G (0.3%, 1,736G)

black bets:
BirbBrainsBot: 683G (35.7%, 246,672G)
mirapoix: 512G (26.8%, 512G)
Cha0sRuler: 400G (20.9%, 5,278G)
byrdturbo: 169G (8.8%, 6,130G)
Evewho: 100G (5.2%, 708G)
silentperogy: 50G (2.6%, 13,397G)
