Final Bets: purple - 17 bets for 7,995G (46.1%, x1.17); brown - 15 bets for 9,353G (53.9%, x0.85)

purple bets:
upvla: 2,190G (27.4%, 35,310G)
BirbBrainsBot: 1,000G (12.5%, 245,989G)
WireLord: 1,000G (12.5%, 11,511G)
ungabunga_bot: 723G (9.0%, 78,174G)
CapnChaos12: 500G (6.3%, 7,745G)
tinytittyfiend: 500G (6.3%, 14,225G)
reinoe: 500G (6.3%, 5,610G)
HaateXIII: 386G (4.8%, 386G)
Conome: 299G (3.7%, 299G)
RyuTsuno: 200G (2.5%, 9,072G)
ScarletSpiderBen: 150G (1.9%, 1,439G)
AllInBot: 127G (1.6%, 127G)
BlinkFS: 110G (1.4%, 110G)
datadrivenbot: 100G (1.3%, 26,645G)
cougboi: 100G (1.3%, 5,176G)
Oobs56: 100G (1.3%, 3,433G)
getthemoneyz: 10G (0.1%, 442,730G)

brown bets:
sinnyil2: 1,957G (20.9%, 3,915G)
HaplessOne: 1,500G (16.0%, 132,752G)
Treapvort: 1,330G (14.2%, 1,330G)
Escorian: 835G (8.9%, 835G)
Evewho: 608G (6.5%, 608G)
mirapoix: 512G (5.5%, 512G)
V3rdeni: 500G (5.3%, 4,096G)
Aldrammech: 400G (4.3%, 2,001G)
Maeveen: 400G (4.3%, 2,825G)
EnemyController: 300G (3.2%, 32,000G)
Meanderandreturn: 300G (3.2%, 7,474G)
Tithonus: 200G (2.1%, 12,720G)
Cha0sRuler: 200G (2.1%, 4,878G)
Ausuri: 200G (2.1%, 4,645G)
byrdturbo: 111G (1.2%, 5,961G)
