Final Bets: blue - 18 bets for 7,998G (39.5%, x1.53); brown - 18 bets for 12,232G (60.5%, x0.65)

blue bets:
sinnyil2: 2,143G (26.8%, 4,287G)
mirapoix: 516G (6.5%, 516G)
CapnChaos12: 500G (6.3%, 6,445G)
tinytittyfiend: 500G (6.3%, 13,725G)
Maeveen: 500G (6.3%, 2,467G)
PotionDweller: 500G (6.3%, 8,957G)
RyuTsuno: 500G (6.3%, 8,872G)
getthemoneyz: 466G (5.8%, 442,548G)
EnemyController: 400G (5.0%, 32,913G)
NUMBER1DB: 360G (4.5%, 360G)
DudeMonkey77: 346G (4.3%, 346G)
ungabunga_bot: 324G (4.1%, 76,672G)
JackOnFire1: 239G (3.0%, 10,139G)
ScarletSpiderBen: 200G (2.5%, 1,139G)
Cha0sRuler: 200G (2.5%, 4,649G)
BlinkFS: 104G (1.3%, 104G)
AllInBot: 100G (1.3%, 100G)
datadrivenbot: 100G (1.3%, 26,345G)

brown bets:
mizukouken: 3,384G (27.7%, 3,384G)
proper__noun__: 1,000G (8.2%, 1,890G)
BirbBrainsBot: 1,000G (8.2%, 248,273G)
WireLord: 1,000G (8.2%, 12,727G)
OneHundredFists: 1,000G (8.2%, 4,902G)
HaplessOne: 1,000G (8.2%, 135,102G)
Evewho: 900G (7.4%, 900G)
V3rdeni: 500G (4.1%, 3,523G)
reinoe: 500G (4.1%, 4,610G)
Meanderandreturn: 300G (2.5%, 9,158G)
timthehoodie: 250G (2.0%, 3,460G)
OttoRaynar: 240G (2.0%, 240G)
Chuckolator: 233G (1.9%, 2,926G)
Faplo: 216G (1.8%, 216G)
KasugaiRoastedPeas: 209G (1.7%, 19,217G)
Treapvort: 200G (1.6%, 2,689G)
Ausuri: 200G (1.6%, 5,063G)
victoriolue: 100G (0.8%, 1,742G)
