Final Bets: purple - 5 bets for 3,378G (29.4%, x2.40); brown - 11 bets for 8,108G (70.6%, x0.42)

purple bets:
actual_JP: 1,845G (54.6%, 3,619G)
BlackFireUK: 1,000G (29.6%, 3,358G)
getthemoneyz: 480G (14.2%, 1,169,657G)
SephDarkheart: 42G (1.2%, 5,042G)
prince_rogers_nelson_: 11G (0.3%, 1,311G)

brown bets:
Mesmaster: 2,000G (24.7%, 44,424G)
DudeMonkey77: 1,878G (23.2%, 1,878G)
BirbBrainsBot: 1,000G (12.3%, 166,672G)
NicoSavoy: 1,000G (12.3%, 113,367G)
TheChainNerd: 869G (10.7%, 8,693G)
YaBoy125: 420G (5.2%, 5,711G)
Quadh0nk: 324G (4.0%, 324G)
loveyouallfriends: 216G (2.7%, 216G)
datadrivenbot: 200G (2.5%, 55,250G)
gorgewall: 101G (1.2%, 5,507G)
enkikavlar: 100G (1.2%, 2,882G)
