Final Bets: red - 14 bets for 5,985G (17.3%, x4.77); blue - 27 bets for 28,522G (82.7%, x0.21)

red bets:
Aldrammech: 1,873G (31.3%, 1,873G)
dogsandcatsand: 831G (13.9%, 831G)
Nickyfive: 600G (10.0%, 600G)
Xoomwaffle: 506G (8.5%, 506G)
Firesheath: 488G (8.2%, 488G)
gooseyourself: 338G (5.6%, 338G)
getthemoneyz: 312G (5.2%, 1,302,153G)
Treafa: 236G (3.9%, 1,033G)
fluffskull: 200G (3.3%, 2,810G)
Rytor: 200G (3.3%, 3,441G)
Snoopiku: 200G (3.3%, 25,101G)
Miku_Shikhu: 100G (1.7%, 10,463G)
DAC169: 100G (1.7%, 1,897G)
SephDarkheart: 1G (0.0%, 46,371G)

blue bets:
moonliquor: 5,000G (17.5%, 21,235G)
aznwanderor: 5,000G (17.5%, 12,552G)
nifboy: 3,229G (11.3%, 6,459G)
Sairentozon7: 1,963G (6.9%, 1,963G)
gorgewall: 1,278G (4.5%, 1,278G)
fenaen: 1,200G (4.2%, 4,042G)
VolgraTheMoose: 1,005G (3.5%, 8,069G)
Creggers: 1,000G (3.5%, 61,429G)
WitchHunterIX: 1,000G (3.5%, 19,045G)
BirbBrainsBot: 1,000G (3.5%, 198,354G)
red__lancer: 1,000G (3.5%, 111,028G)
randgridr: 758G (2.7%, 758G)
Laserman1000: 749G (2.6%, 29,949G)
TasisSai: 722G (2.5%, 722G)
MagicBottle: 548G (1.9%, 21,153G)
Zeroroute: 500G (1.8%, 500G)
Grandlanzer: 500G (1.8%, 86,159G)
letdowncity: 420G (1.5%, 2,848G)
Patreseus: 300G (1.1%, 993G)
Lythe_Caraker: 250G (0.9%, 142,289G)
AllInBot: 200G (0.7%, 200G)
boosted420: 200G (0.7%, 672G)
Evewho: 200G (0.7%, 2,789G)
datadrivenbot: 200G (0.7%, 29,158G)
lastly: 100G (0.4%, 37,962G)
nhammen: 100G (0.4%, 10,585G)
CosmicTactician: 100G (0.4%, 42,725G)
