Final Bets: blue - 18 bets for 10,922G (29.4%, x2.40); champion - 17 bets for 26,227G (70.6%, x0.42)

blue bets:
Aldrammech: 2,673G (24.5%, 2,673G)
Nickyfive: 2,104G (19.3%, 2,104G)
EnemyController: 1,111G (10.2%, 1,455,332G)
ruleof5: 1,000G (9.2%, 22,958G)
evdoggity: 1,000G (9.2%, 85,405G)
gooseyourself: 836G (7.7%, 836G)
killth3kid: 416G (3.8%, 1,219G)
Miku_Shikhu: 400G (3.7%, 12,121G)
ColetteMSLP: 300G (2.7%, 3,377G)
Lemonjohns: 268G (2.5%, 268G)
Patreseus: 200G (1.8%, 1,756G)
gorgewall: 101G (0.9%, 3,069G)
CosmicTactician: 100G (0.9%, 43,579G)
DouglasDragonThePoet: 100G (0.9%, 1,354G)
dem0nj0ns: 100G (0.9%, 1,639G)
Firesheath: 100G (0.9%, 10,669G)
getthemoneyz: 68G (0.6%, 1,302,233G)
Hasterious: 45G (0.4%, 4,535G)

champion bets:
HaateXIII: 6,386G (24.3%, 12,772G)
RaIshtar: 6,000G (22.9%, 20,426G)
roqqqpsi: 4,491G (17.1%, 10,207G)
VolgraTheMoose: 2,001G (7.6%, 12,573G)
boosted420: 1,960G (7.5%, 1,960G)
randgridr: 1,000G (3.8%, 4,057G)
TasisSai: 957G (3.6%, 957G)
Laserman1000: 706G (2.7%, 31,606G)
dogsandcatsand: 568G (2.2%, 568G)
Lythe_Caraker: 500G (1.9%, 148,018G)
roofiepops: 472G (1.8%, 472G)
benticore: 250G (1.0%, 20,509G)
Treafa: 236G (0.9%, 236G)
AllInBot: 200G (0.8%, 200G)
datadrivenbot: 200G (0.8%, 30,005G)
Rytor: 200G (0.8%, 2,450G)
nifboy: 100G (0.4%, 3,622G)
