Final Bets: purple - 20 bets for 17,963G (63.2%, x0.58); brown - 9 bets for 10,470G (36.8%, x1.72)

purple bets:
HaateXIII: 4,433G (24.7%, 8,694G)
oodlesonoodles11: 1,779G (9.9%, 1,779G)
nifboy: 1,068G (5.9%, 1,068G)
Evewho: 1,060G (5.9%, 1,060G)
ungabunga_bot: 1,000G (5.6%, 429,176G)
theNGUYENNER: 1,000G (5.6%, 6,831G)
King_Harb: 1,000G (5.6%, 1,000G)
Jaritras: 963G (5.4%, 963G)
ScootyPff: 909G (5.1%, 909G)
ko2q: 860G (4.8%, 860G)
CapnChaos12: 776G (4.3%, 776G)
SirCherish: 714G (4.0%, 714G)
itsadud: 500G (2.8%, 4,961G)
OverlordCuddles: 500G (2.8%, 9,378G)
reshiramdude16: 400G (2.2%, 720G)
Ungaiii: 300G (1.7%, 1,416G)
cupholderr: 300G (1.7%, 2,349G)
gorgewall: 201G (1.1%, 7,818G)
ANFz: 100G (0.6%, 34,247G)
datadrivenbot: 100G (0.6%, 12,449G)

brown bets:
killth3kid: 2,000G (19.1%, 51,349G)
SkylerBunny: 2,000G (19.1%, 59,375G)
Mesmaster: 2,000G (19.1%, 78,948G)
HaplessOne: 1,500G (14.3%, 17,841G)
mannequ1n: 1,482G (14.2%, 1,482G)
BirbBrainsBot: 1,000G (9.6%, 161,044G)
getthemoneyz: 288G (2.8%, 655,843G)
Kyune: 100G (1.0%, 1,959G)
Firesheath: 100G (1.0%, 17,944G)
