Final Bets: blue - 23 bets for 14,084G (52.9%, x0.89); black - 16 bets for 12,548G (47.1%, x1.12)

blue bets:
OneHundredFists: 2,271G (16.1%, 2,271G)
metagameface: 2,000G (14.2%, 11,005G)
Digitalsocrates: 1,686G (12.0%, 1,686G)
Riot_Jayway: 1,111G (7.9%, 229,720G)
EnemyController: 1,000G (7.1%, 573,253G)
O_Heyno: 1,000G (7.1%, 2,283G)
superdevon1: 580G (4.1%, 5,800G)
Lydian_C: 560G (4.0%, 12,130G)
killth3kid: 500G (3.6%, 11,123G)
letdowncity: 500G (3.6%, 19,594G)
Kalabain: 445G (3.2%, 8,458G)
Zxpr0jk: 442G (3.1%, 442G)
MrUbiq: 387G (2.7%, 3,875G)
Mesmaster: 320G (2.3%, 320G)
wyonearth: 300G (2.1%, 2,432G)
fluffskull: 229G (1.6%, 229G)
mr_kindaro: 200G (1.4%, 3,036G)
LAGBOT30000: 182G (1.3%, 1,826G)
gorgewall: 101G (0.7%, 3,082G)
AllInBot: 100G (0.7%, 100G)
datadrivenbot: 100G (0.7%, 35,108G)
IphoneDarkness: 60G (0.4%, 3,902G)
TheMM42: 10G (0.1%, 12,096G)

black bets:
ll_aja_ll: 3,498G (27.9%, 3,498G)
SkylerBunny: 2,000G (15.9%, 116,026G)
Thyrandaal: 1,234G (9.8%, 53,959G)
Firesheath: 1,202G (9.6%, 1,202G)
BirbBrainsBot: 1,000G (8.0%, 39,029G)
nifboy: 640G (5.1%, 640G)
prince_rogers_nelson_: 500G (4.0%, 6,858G)
CosmicTactician: 500G (4.0%, 18,273G)
Rytor: 500G (4.0%, 15,505G)
DeathTaxesAndAnime: 400G (3.2%, 1,793G)
AtmaDragoon: 300G (2.4%, 911G)
Spuzzmocker: 220G (1.8%, 220G)
CaptainGarlock: 200G (1.6%, 2,142G)
richardserious: 150G (1.2%, 3,004G)
getthemoneyz: 104G (0.8%, 867,310G)
Belkra: 100G (0.8%, 1,398G)
