Final Bets: red - 16 bets for 8,119G (42.1%, x1.38); black - 18 bets for 11,182G (57.9%, x0.73)

red bets:
Rislyeu: 2,000G (24.6%, 10,797G)
metagameface: 795G (9.8%, 795G)
TheAbandonedShoji: 790G (9.7%, 790G)
Ring_Wyrm: 768G (9.5%, 768G)
NBD_Rab: 511G (6.3%, 511G)
Xeldena: 509G (6.3%, 509G)
ivellioz: 500G (6.2%, 785G)
Coolguye: 500G (6.2%, 1,046G)
Nohurty: 450G (5.5%, 450G)
RaIshtar: 296G (3.6%, 296G)
KasugaiRoastedPeas: 200G (2.5%, 5,737G)
EnemyController: 200G (2.5%, 536,987G)
L2_Sentinel: 200G (2.5%, 40,063G)
maleblackfiora: 150G (1.8%, 1,417G)
Angelomortis: 150G (1.8%, 1,653G)
datadrivenbot: 100G (1.2%, 32,769G)

black bets:
Evewho: 1,548G (13.8%, 3,036G)
DeathTaxesAndAnime: 1,395G (12.5%, 2,737G)
NovaKnight21: 1,127G (10.1%, 1,127G)
BirbBrainsBot: 1,000G (8.9%, 11,972G)
CorpusCav: 999G (8.9%, 21,314G)
TinchoT: 712G (6.4%, 712G)
ColetteMSLP: 707G (6.3%, 707G)
kaidykat: 565G (5.1%, 1,108G)
gogofromtogo: 500G (4.5%, 4,437G)
Grandlanzer: 500G (4.5%, 11,051G)
Cryptopsy70: 488G (4.4%, 6,362G)
Flameatron: 390G (3.5%, 5,704G)
OneHundredFists: 332G (3.0%, 332G)
twelfthrootoftwo: 300G (2.7%, 1,431G)
benticore: 250G (2.2%, 3,538G)
Lythe_Caraker: 250G (2.2%, 121,205G)
gorgewall: 101G (0.9%, 1,767G)
getthemoneyz: 18G (0.2%, 805,159G)
