Final Bets: red - 22 bets for 9,495G (58.6%, x0.71); blue - 12 bets for 6,702G (41.4%, x1.42)

red bets:
TheChainNerd: 1,500G (15.8%, 41,500G)
BirbBrainsBot: 1,000G (10.5%, 131,371G)
EnemyController: 1,000G (10.5%, 461,777G)
DeathTaxesAndAnime: 784G (8.3%, 784G)
Shalloween: 731G (7.7%, 1,462G)
skillomono: 687G (7.2%, 687G)
nifboy: 500G (5.3%, 4,427G)
HaateXIII: 500G (5.3%, 6,323G)
killth3kid: 500G (5.3%, 44,837G)
CosmicTactician: 498G (5.2%, 997G)
old_overholt_: 300G (3.2%, 22,566G)
joewcarson: 300G (3.2%, 3,146G)
cam_ATS: 250G (2.6%, 990G)
Nizaha: 201G (2.1%, 10,023G)
MiseryKoss: 200G (2.1%, 8,046G)
GrayGhostGaming: 100G (1.1%, 16,777G)
datadrivenbot: 100G (1.1%, 29,629G)
E_Ballard: 100G (1.1%, 1,160G)
getthemoneyz: 94G (1.0%, 787,281G)
Qaz12301: 50G (0.5%, 5,145G)
slickdang: 50G (0.5%, 515G)
Belkra: 50G (0.5%, 100G)

blue bets:
RunicMagus: 2,000G (29.8%, 25,520G)
gogofromtogo: 1,024G (15.3%, 1,024G)
mpghappiness: 1,001G (14.9%, 17,055G)
aznwanderor: 771G (11.5%, 771G)
HaychDub: 496G (7.4%, 496G)
coralreeferz: 450G (6.7%, 1,642G)
Lythe_Caraker: 250G (3.7%, 120,098G)
Lydian_C: 224G (3.3%, 224G)
mrfripps: 148G (2.2%, 148G)
zepharoth89: 138G (2.1%, 6,947G)
Error72: 100G (1.5%, 2,714G)
Flameatron: 100G (1.5%, 3,216G)
