Final Bets: red - 17 bets for 9,757G (39.4%, x1.54); black - 6 bets for 15,013G (60.6%, x0.65)

red bets:
reinoe: 2,000G (20.5%, 11,065G)
Moshyhero: 1,017G (10.4%, 1,017G)
BirbBrainsBot: 1,000G (10.2%, 156,145G)
Lemonjohns: 947G (9.7%, 947G)
dem0nj0ns: 700G (7.2%, 2,149G)
joewcarson: 592G (6.1%, 592G)
Magicandy: 500G (5.1%, 25,978G)
CT_5_Holy: 500G (5.1%, 2,192G)
Lythe_Caraker: 500G (5.1%, 142,870G)
Spuzzmocker: 500G (5.1%, 1,819G)
Digitalsocrates: 324G (3.3%, 324G)
getthemoneyz: 316G (3.2%, 1,112,854G)
VolgraTheMoose: 301G (3.1%, 16,601G)
gorgewall: 201G (2.1%, 28,677G)
DuneMeta: 159G (1.6%, 159G)
datadrivenbot: 100G (1.0%, 46,518G)
Evewho: 100G (1.0%, 7,427G)

black bets:
Mesmaster: 12,874G (85.8%, 12,874G)
CassiePhoenix: 729G (4.9%, 729G)
prince_rogers_nelson_: 600G (4.0%, 600G)
shs_: 500G (3.3%, 15,610G)
Sinikt: 206G (1.4%, 206G)
Smokegiant: 104G (0.7%, 104G)
