Final Bets: purple - 19 bets for 18,780G (77.7%, x0.29); brown - 10 bets for 5,405G (22.3%, x3.47)

purple bets:
DLJuggernaut: 6,606G (35.2%, 12,954G)
Thyrandaal: 1,960G (10.4%, 1,960G)
SkylerBunny: 1,759G (9.4%, 1,759G)
loveyouallfriends: 1,049G (5.6%, 1,049G)
latebit: 1,034G (5.5%, 1,034G)
Error72: 1,001G (5.3%, 68,531G)
TheMurkGnome: 783G (4.2%, 3,271G)
Zeroroute: 613G (3.3%, 2,190G)
onehitslay: 599G (3.2%, 4,647G)
dogsandcatsand: 584G (3.1%, 584G)
Lord_Gwarth: 555G (3.0%, 12,661G)
krombobreaker: 500G (2.7%, 5,326G)
AllInBot: 472G (2.5%, 472G)
hotpocketsofficial: 307G (1.6%, 307G)
CorpusCav: 250G (1.3%, 30,987G)
PuzzleSecretary: 200G (1.1%, 200G)
datadrivenbot: 200G (1.1%, 56,721G)
CosmicTactician: 200G (1.1%, 30,281G)
BappleTrees: 108G (0.6%, 108G)

brown bets:
DeathTaxesAndAnime: 1,426G (26.4%, 2,797G)
Snowfats: 858G (15.9%, 858G)
BirbBrainsBot: 819G (15.2%, 171,083G)
RobotOcelot: 710G (13.1%, 710G)
DavenIII: 612G (11.3%, 28,871G)
getthemoneyz: 346G (6.4%, 1,904,406G)
bigbongsmoker: 304G (5.6%, 7,297G)
silentkaster: 201G (3.7%, 3,266G)
RagequitSA: 100G (1.9%, 2,280G)
BartTradingCompany: 29G (0.5%, 294G)
