Final Bets: blue - 10 bets for 4,239G (32.1%, x2.11); yellow - 15 bets for 8,962G (67.9%, x0.47)

blue bets:
krasny1944: 1,139G (26.9%, 1,139G)
BirbBrainsBot: 948G (22.4%, 163,724G)
reinoe: 500G (11.8%, 15,024G)
josephiroth_143: 500G (11.8%, 6,792G)
BuffaloCrunch: 488G (11.5%, 488G)
Lythe_Caraker: 250G (5.9%, 123,767G)
zepharoth89: 202G (4.8%, 202G)
Devrology101: 100G (2.4%, 1,719G)
red_celt: 100G (2.4%, 1,255G)
getthemoneyz: 12G (0.3%, 719,325G)

yellow bets:
Mesmaster: 2,000G (22.3%, 55,864G)
EnemyController: 2,000G (22.3%, 323,680G)
HaplessOne: 1,234G (13.8%, 265,432G)
Laserman1000: 630G (7.0%, 3,530G)
Evewho: 440G (4.9%, 440G)
RaIshtar: 426G (4.8%, 426G)
Kyune: 408G (4.6%, 408G)
Estan_AD: 360G (4.0%, 360G)
CapnChaos12: 300G (3.3%, 2,017G)
sSwing: 280G (3.1%, 280G)
AllInBot: 245G (2.7%, 245G)
gorgewall: 201G (2.2%, 10,653G)
blastty: 172G (1.9%, 172G)
stopher121: 166G (1.9%, 166G)
datadrivenbot: 100G (1.1%, 20,387G)
