Final Bets: purple - 11 bets for 4,685G (28.0%, x2.57); brown - 16 bets for 12,062G (72.0%, x0.39)

purple bets:
3ngag3: 1,289G (27.5%, 11,289G)
KingJurgs: 666G (14.2%, 3,699G)
Chaide: 500G (10.7%, 1,744G)
OneHundredFists: 440G (9.4%, 440G)
mindblownnnn: 400G (8.5%, 3,516G)
getthemoneyz: 314G (6.7%, 1,935,576G)
Smugzug: 276G (5.9%, 276G)
tripaplex: 260G (5.5%, 263G)
Zerguzen: 240G (5.1%, 240G)
farside00831: 200G (4.3%, 3,691G)
nhammen: 100G (2.1%, 422,348G)

brown bets:
reinoe: 2,134G (17.7%, 4,268G)
NovaKnight21: 2,000G (16.6%, 17,012G)
Runeseeker22: 1,963G (16.3%, 13,089G)
Lord_Gwarth: 1,621G (13.4%, 1,621G)
latebit: 1,339G (11.1%, 2,626G)
BirbBrainsBot: 1,000G (8.3%, 125,399G)
SkylerBunny: 688G (5.7%, 688G)
biske13: 412G (3.4%, 412G)
Leonidusx: 200G (1.7%, 30,848G)
king_smashington: 104G (0.9%, 249G)
gorgewall: 101G (0.8%, 12,516G)
AllInBot: 100G (0.8%, 100G)
BartTradingCompany: 100G (0.8%, 7,903G)
MemoriesofFinal: 100G (0.8%, 7,051G)
heyBtw: 100G (0.8%, 1,789G)
MoonSugarFiend: 100G (0.8%, 100G)
