Final Bets: black - 15 bets for 5,079G (36.8%, x1.72); purple - 19 bets for 8,719G (63.2%, x0.58)

black bets:
nedryerson01: 1,000G (19.7%, 5,622G)
mirapoix: 708G (13.9%, 708G)
Jaritras: 661G (13.0%, 661G)
midori_ribbon: 400G (7.9%, 1,179G)
Aka_Gilly: 400G (7.9%, 43,178G)
vorap: 300G (5.9%, 14,948G)
TheRylander: 300G (5.9%, 3,811G)
nifboy: 290G (5.7%, 7,267G)
ANFz: 256G (5.0%, 22,218G)
skuldar: 200G (3.9%, 1,053G)
Anethum: 200G (3.9%, 5,905G)
Evode: 112G (2.2%, 112G)
museofdoom: 100G (2.0%, 1,942G)
sect_cor: 100G (2.0%, 26,238G)
rileydrinksbeer_: 52G (1.0%, 152G)

purple bets:
NovaKnight21: 1,111G (12.7%, 1,111G)
BirbBrainsBot: 1,000G (11.5%, 190,587G)
catfashions: 1,000G (11.5%, 7,353G)
getthemoneyz: 936G (10.7%, 582,914G)
OneHundredFists: 899G (10.3%, 899G)
volgrathemoose: 554G (6.4%, 554G)
lijarkh: 500G (5.7%, 4,054G)
ProdigyAzn: 461G (5.3%, 461G)
Bahamut64: 400G (4.6%, 12,949G)
DeathTaxesAndAnime: 300G (3.4%, 5,582G)
Squatting_Bear: 250G (2.9%, 1,697G)
Fenrislfr: 247G (2.8%, 247G)
ThePineappleSalesman: 200G (2.3%, 20,081G)
Bojanges: 200G (2.3%, 2,889G)
Primeval_33: 200G (2.3%, 4,308G)
ungabunga_bot: 160G (1.8%, 263,936G)
ZephyrTempest: 101G (1.2%, 189,439G)
datadrivenbot: 100G (1.1%, 2,516G)
smurphy000000: 100G (1.1%, 1,501G)
