Final Bets: blue - 15 bets for 12,703G (52.5%, x0.91); yellow - 11 bets for 11,514G (47.5%, x1.10)

blue bets:
Mesmaster: 5,000G (39.4%, 197,646G)
resjudicata3: 1,250G (9.8%, 1,250G)
CorpusCav: 1,200G (9.4%, 22,807G)
BirbBrainsBot: 1,000G (7.9%, 163,414G)
Arcblazer23: 1,000G (7.9%, 8,991G)
silentkaster: 959G (7.5%, 959G)
CapnChaos12: 585G (4.6%, 585G)
Chihuahua_Charity: 559G (4.4%, 559G)
getthemoneyz: 438G (3.4%, 1,948,940G)
datadrivenbot: 200G (1.6%, 60,922G)
gingerfoo69: 112G (0.9%, 112G)
BartTradingCompany: 100G (0.8%, 9,726G)
DracoknightZero: 100G (0.8%, 1,867G)
SnarkMage: 100G (0.8%, 778G)
J_52: 100G (0.8%, 6,892G)

yellow bets:
DLJuggernaut: 5,000G (43.4%, 44,163G)
Rislyeu: 2,500G (21.7%, 19,212G)
AllInBot: 1,157G (10.0%, 1,157G)
Stiqqery: 721G (6.3%, 1,442G)
Raixelol: 600G (5.2%, 19,178G)
nekojin: 572G (5.0%, 572G)
DaveStrider55: 364G (3.2%, 364G)
ribbiks: 200G (1.7%, 1,311G)
mizzmoonshine: 200G (1.7%, 200G)
johannjfs: 100G (0.9%, 1,025G)
tripaplex: 100G (0.9%, 1,213G)
