Final Bets: blue - 10 bets for 3,982G (44.0%, x1.27); yellow - 11 bets for 5,075G (56.0%, x0.78)

blue bets:
BirbBrainsBot: 1,000G (25.1%, 134,404G)
FriendSquirrel: 798G (20.0%, 798G)
MagicBottle: 512G (12.9%, 14,970G)
Firesheath: 428G (10.7%, 428G)
Aldrammech: 412G (10.3%, 412G)
redrhinofever: 300G (7.5%, 1,774G)
Shalloween: 200G (5.0%, 64,991G)
SephDarkheart: 140G (3.5%, 2,633G)
biffcake01: 100G (2.5%, 1,423G)
getthemoneyz: 92G (2.3%, 1,225,797G)

yellow bets:
Evewho: 1,585G (31.2%, 3,108G)
Laserman1000: 900G (17.7%, 19,900G)
FoeSquirrel: 666G (13.1%, 11,170G)
DudeMonkey77: 408G (8.0%, 408G)
alekzanndrr: 400G (7.9%, 6,412G)
joewcarson: 300G (5.9%, 18,966G)
Grandlanzer: 300G (5.9%, 61,198G)
Seaweed_B: 216G (4.3%, 5,735G)
DeathTaxesAndAnime: 100G (2.0%, 6,104G)
Twisted_Nutsatchel: 100G (2.0%, 8,736G)
raenrond: 100G (2.0%, 1,233G)
