Final Bets: black - 11 bets for 3,532G (32.0%, x2.12); brown - 13 bets for 7,492G (68.0%, x0.47)

black bets:
dogsandcatsand: 749G (21.2%, 1,469G)
Phi_Sig: 555G (15.7%, 1,360G)
FriendSquirrel: 528G (14.9%, 528G)
Firesheath: 428G (12.1%, 428G)
Aldrammech: 412G (11.7%, 412G)
alekzanndrr: 300G (8.5%, 6,726G)
getthemoneyz: 160G (4.5%, 1,225,705G)
FoeSquirrel: 100G (2.8%, 11,693G)
raenrond: 100G (2.8%, 1,311G)
Heroebal: 100G (2.8%, 4,404G)
TasisSai: 100G (2.8%, 282G)

brown bets:
Evewho: 2,219G (29.6%, 4,352G)
TheChainNerd: 1,000G (13.3%, 26,820G)
BirbBrainsBot: 1,000G (13.3%, 133,404G)
pandasforsale: 666G (8.9%, 13,931G)
roofiepops: 656G (8.8%, 3,968G)
Laserman1000: 506G (6.8%, 20,606G)
joewcarson: 500G (6.7%, 19,201G)
Seaweed_B: 216G (2.9%, 5,904G)
gorgewall: 201G (2.7%, 18,815G)
datadrivenbot: 200G (2.7%, 55,475G)
turbn: 128G (1.7%, 128G)
DeathTaxesAndAnime: 100G (1.3%, 6,182G)
Twisted_Nutsatchel: 100G (1.3%, 8,814G)
