Final Bets: green - 6 bets for 14,455G (63.4%, x0.58); yellow - 18 bets for 8,348G (36.6%, x1.73)

green bets:
YaBoy125: 9,589G (66.3%, 18,803G)
waterwatereverywhere: 3,006G (20.8%, 5,896G)
UmaiJam: 1,082G (7.5%, 10,825G)
lijarkh: 300G (2.1%, 6,282G)
ScrungyBungus: 278G (1.9%, 278G)
KasugaiRoastedPeas: 200G (1.4%, 18,309G)

yellow bets:
bad1dea: 1,250G (15.0%, 43,493G)
BenYuPoker: 1,041G (12.5%, 2,082G)
ungabunga_bot: 1,000G (12.0%, 48,049G)
getthemoneyz: 1,000G (12.0%, 443,244G)
BirbBrainsBot: 1,000G (12.0%, 245,837G)
JackOnFire1: 479G (5.7%, 5,979G)
WireLord: 454G (5.4%, 454G)
InOzWeTrust: 414G (5.0%, 414G)
oodlesonoodles11: 300G (3.6%, 3,223G)
AllInBot: 270G (3.2%, 270G)
Slowbrofist: 240G (2.9%, 240G)
ugoplatamia: 200G (2.4%, 13,891G)
redrhinofever: 200G (2.4%, 7,864G)
McGooferson: 100G (1.2%, 155G)
datadrivenbot: 100G (1.2%, 21,663G)
SeniorBunk: 100G (1.2%, 2,601G)
Wesablo: 100G (1.2%, 100G)
herrshaun: 100G (1.2%, 3,892G)
