Final Bets: blue - 13 bets for 7,460G (66.1%, x0.51); green - 7 bets for 3,833G (33.9%, x1.95)

blue bets:
UmaiJam: 1,304G (17.5%, 13,043G)
bad1dea: 1,115G (14.9%, 43,225G)
BenYuPoker: 1,084G (14.5%, 2,169G)
BirbBrainsBot: 1,000G (13.4%, 245,724G)
getthemoneyz: 926G (12.4%, 442,699G)
kingchadking: 592G (7.9%, 592G)
ungabunga_bot: 501G (6.7%, 47,584G)
Slowbrofist: 341G (4.6%, 341G)
ScrungyBungus: 155G (2.1%, 779G)
AllInBot: 142G (1.9%, 142G)
herrshaun: 100G (1.3%, 3,927G)
SeedSC: 100G (1.3%, 141,772G)
Wesablo: 100G (1.3%, 100G)

green bets:
waterwatereverywhere: 1,833G (47.8%, 1,833G)
WireLord: 867G (22.6%, 867G)
JackOnFire1: 550G (14.3%, 6,550G)
ugoplatamia: 200G (5.2%, 13,575G)
SeniorBunk: 175G (4.6%, 2,548G)
McGooferson: 108G (2.8%, 108G)
datadrivenbot: 100G (2.6%, 21,652G)
