Final Bets: purple - 16 bets for 16,889G (39.7%, x1.52); champion - 22 bets for 25,681G (60.3%, x0.66)

purple bets:
HaplessOne: 5,460G (32.3%, 21,842G)
OmnibotGamma: 5,366G (31.8%, 10,522G)
toka222: 1,500G (8.9%, 21,808G)
metagameface: 808G (4.8%, 808G)
Miyokari: 550G (3.3%, 11,397G)
CorpusCav: 500G (3.0%, 16,000G)
Rislyeu: 400G (2.4%, 3,730G)
OrganicArtist: 333G (2.0%, 1,262G)
nifboy: 332G (2.0%, 332G)
Kyune: 328G (1.9%, 328G)
FriendSquirrel: 304G (1.8%, 304G)
CapnChaos12: 300G (1.8%, 3,173G)
CosmicTactician: 300G (1.8%, 8,409G)
oldmanbody: 208G (1.2%, 208G)
jwchapm: 100G (0.6%, 1,222G)
Realitydown: 100G (0.6%, 2,802G)

champion bets:
coralreeferz: 3,404G (13.3%, 13,619G)
foofermoofer: 3,255G (12.7%, 3,255G)
Mtueni: 3,000G (11.7%, 250,816G)
sinnyil2: 2,500G (9.7%, 52,337G)
thefyeman: 2,000G (7.8%, 29,360G)
bringmoreknives: 1,796G (7.0%, 1,796G)
VeryVert: 1,703G (6.6%, 1,703G)
ungabunga_bot: 1,000G (3.9%, 485,443G)
BirbBrainsBot: 1,000G (3.9%, 24,488G)
proper__noun__: 1,000G (3.9%, 2,992G)
EnemyController: 1,000G (3.9%, 231,150G)
Lionhermit: 1,000G (3.9%, 50,801G)
Error72: 612G (2.4%, 2,041G)
Laserman1000: 549G (2.1%, 22,349G)
bahamutlagooon: 412G (1.6%, 8,252G)
vorap: 300G (1.2%, 50,612G)
getthemoneyz: 264G (1.0%, 671,616G)
E_Ballard: 250G (1.0%, 4,574G)
AUrato: 236G (0.9%, 236G)
old_overholt_: 200G (0.8%, 7,094G)
Heroebal: 100G (0.4%, 4,997G)
RunicMagus: 100G (0.4%, 47,107G)
