Final Bets: white - 15 bets for 11,812G (71.2%, x0.40); black - 7 bets for 4,783G (28.8%, x2.47)

white bets:
VolgraTheMoose: 1,751G (14.8%, 3,502G)
randgridr: 1,646G (13.9%, 8,234G)
Chambs12: 1,285G (10.9%, 1,285G)
gorgewall: 1,171G (9.9%, 1,171G)
douchetron: 1,090G (9.2%, 1,090G)
Aldrammech: 1,000G (8.5%, 65,194G)
poGpopE: 1,000G (8.5%, 42,059G)
letdowncity: 710G (6.0%, 710G)
gooblz: 540G (4.6%, 540G)
coralreeferz: 450G (3.8%, 4,719G)
AllInBot: 309G (2.6%, 309G)
Hirameki85: 260G (2.2%, 16,506G)
ArlanKels: 200G (1.7%, 736G)
datadrivenbot: 200G (1.7%, 47,190G)
kahjeethaswares: 200G (1.7%, 3,473G)

black bets:
boxyID: 1,500G (31.4%, 34,818G)
reinoe: 1,000G (20.9%, 129,400G)
BirbBrainsBot: 1,000G (20.9%, 43,059G)
Phi_Sig: 555G (11.6%, 112,823G)
getthemoneyz: 528G (11.0%, 1,444,014G)
reddwind_: 100G (2.1%, 30,087G)
Thyrandaal: 100G (2.1%, 55,868G)
