Final Bets: black - 13 bets for 10,834G (50.6%, x0.98); brown - 13 bets for 10,570G (49.4%, x1.02)

black bets:
Thyrandaal: 3,333G (30.8%, 56,356G)
NicoSavoy: 2,000G (18.5%, 340,277G)
Zagorsek: 1,082G (10.0%, 1,082G)
Aldrammech: 1,000G (9.2%, 63,194G)
BirbBrainsBot: 1,000G (9.2%, 43,529G)
Phi_Sig: 555G (5.1%, 114,194G)
poGpopE: 500G (4.6%, 44,709G)
nhammen: 400G (3.7%, 26,181G)
getthemoneyz: 264G (2.4%, 1,444,244G)
AllInBot: 200G (1.8%, 200G)
kahjeethaswares: 200G (1.8%, 3,273G)
datadrivenbot: 200G (1.8%, 47,006G)
ANFz: 100G (0.9%, 60,151G)

brown bets:
sinnyil2: 2,685G (25.4%, 5,371G)
gorgewall: 2,330G (22.0%, 2,330G)
reinoe: 1,000G (9.5%, 130,370G)
Virilikus: 1,000G (9.5%, 194,701G)
coralreeferz: 750G (7.1%, 4,269G)
ArlanKels: 583G (5.5%, 583G)
Rytor: 500G (4.7%, 19,945G)
douchetron: 424G (4.0%, 424G)
KyleWonToLiveForever: 416G (3.9%, 416G)
Arcblazer23: 288G (2.7%, 288G)
Chambs12: 244G (2.3%, 244G)
TasisSai: 200G (1.9%, 11,708G)
flatpromise: 150G (1.4%, 691G)
