Final Bets: white - 12 bets for 8,742G (13.9%, x6.17); champion - 18 bets for 53,947G (86.1%, x0.16)

white bets:
thefyeman: 3,000G (34.3%, 66,246G)
Baron_von_Scrub: 1,690G (19.3%, 3,380G)
HASTERIOUS: 1,193G (13.6%, 2,340G)
BirbBrainsBot: 1,000G (11.4%, 111,150G)
DudeMonkey77: 500G (5.7%, 7,786G)
Estan_AD: 300G (3.4%, 2,073G)
Deathmaker06: 300G (3.4%, 6,507G)
HaateXIII: 250G (2.9%, 2,523G)
Digitalsocrates: 200G (2.3%, 1,390G)
getthemoneyz: 132G (1.5%, 698,148G)
ScurvyMitch: 100G (1.1%, 3,300G)
Ross_from_Cali: 77G (0.9%, 668G)

champion bets:
NicoSavoy: 25,451G (47.2%, 50,902G)
CorpusCav: 11,272G (20.9%, 22,102G)
EnemyController: 5,000G (9.3%, 314,111G)
Kalpho: 4,085G (7.6%, 4,085G)
Mesmaster: 3,000G (5.6%, 69,347G)
TheUnforgivenRage: 2,053G (3.8%, 2,053G)
Laserman1000: 600G (1.1%, 6,400G)
argentbast: 400G (0.7%, 1,493G)
neocarbuncle: 350G (0.6%, 1,379G)
genericco: 312G (0.6%, 312G)
CapnChaos12: 300G (0.6%, 2,676G)
vorap: 300G (0.6%, 77,329G)
josephiroth_143: 220G (0.4%, 220G)
kaidykat: 200G (0.4%, 3,154G)
krasny1944: 104G (0.2%, 104G)
OneHundredFists: 100G (0.2%, 2,406G)
datadrivenbot: 100G (0.2%, 22,902G)
Firesheath: 100G (0.2%, 2,134G)
