Final Bets: green - 16 bets for 20,851G (87.6%, x0.14); yellow - 8 bets for 2,946G (12.4%, x7.08)

green bets:
OneHundredFists: 8,106G (38.9%, 8,106G)
Mesmaster: 3,000G (14.4%, 208,200G)
sinnyil2: 2,500G (12.0%, 117,209G)
NicoSavoy: 2,000G (9.6%, 84,878G)
DeathTaxesAndAnime: 1,001G (4.8%, 86,019G)
BirbBrainsBot: 1,000G (4.8%, 162,689G)
getthemoneyz: 914G (4.4%, 1,945,126G)
reddwind_: 428G (2.1%, 4,576G)
hotpocketsofficial: 378G (1.8%, 378G)
ColetteMSLP: 300G (1.4%, 484G)
khelor_: 300G (1.4%, 1,677G)
Zachara: 250G (1.2%, 151,000G)
MemoriesofFinal: 200G (1.0%, 17,843G)
datadrivenbot: 200G (1.0%, 60,660G)
ImmortalMage: 174G (0.8%, 174G)
johannjfs: 100G (0.5%, 482G)

yellow bets:
bruubarg: 1,041G (35.3%, 1,041G)
SkylerBunny: 700G (23.8%, 700G)
Chihuahua_Charity: 505G (17.1%, 505G)
old_overholt_: 200G (6.8%, 28,686G)
J_52: 200G (6.8%, 4,458G)
AllInBot: 100G (3.4%, 100G)
BartTradingCompany: 100G (3.4%, 9,756G)
gingerfoo69: 100G (3.4%, 1,152G)
