Final Bets: red - 6 bets for 1,030G (18.9%, x4.30); brown - 7 bets for 4,433G (81.1%, x0.23)

red bets:
SaltiestMage: 500G (48.5%, 5,155G)
twelfthrootoftwo: 200G (19.4%, 11,080G)
datadrivenbot: 100G (9.7%, 51,260G)
Salted_Cliff_Racer: 100G (9.7%, 129G)
agemo027: 100G (9.7%, 13,682G)
getthemoneyz: 30G (2.9%, 1,157,512G)

brown bets:
BirbBrainsBot: 1,000G (22.6%, 131,554G)
gorgewall: 833G (18.8%, 833G)
ShintaroNayaka: 600G (13.5%, 600G)
Dexsana: 600G (13.5%, 4,960G)
Dragon_RW: 500G (11.3%, 1,796G)
Arcblazer23: 500G (11.3%, 5,784G)
ColetteMSLP: 400G (9.0%, 4,647G)
