Final Bets: red - 4 bets for 6,728G (41.1%, x1.43); champion - 16 bets for 9,635G (58.9%, x0.70)

red bets:
Seaweed_B: 4,000G (59.5%, 85,848G)
superdevon1: 1,928G (28.7%, 96,416G)
SeniorBunk: 500G (7.4%, 16,000G)
WhiteTigress: 300G (4.5%, 1,312G)

champion bets:
Bryon_W: 2,000G (20.8%, 18,055G)
skipsandwiches: 1,244G (12.9%, 1,244G)
gorgewall: 1,211G (12.6%, 1,211G)
BirbBrainsBot: 1,000G (10.4%, 196,100G)
Sairentozon7: 1,000G (10.4%, 1,386G)
E_Ballard: 628G (6.5%, 628G)
SephDarkheart: 596G (6.2%, 121,227G)
ar_tactic: 500G (5.2%, 81,418G)
BoneMiser: 308G (3.2%, 308G)
Tarheels218: 276G (2.9%, 276G)
brando84back: 252G (2.6%, 252G)
datadrivenbot: 200G (2.1%, 69,640G)
getthemoneyz: 120G (1.2%, 1,660,078G)
AllInBot: 100G (1.0%, 100G)
ko2q: 100G (1.0%, 2,499G)
Miku_Shikhu: 100G (1.0%, 1,717G)
