Final Bets: blue - 14 bets for 11,690G (56.2%, x0.78); green - 19 bets for 9,097G (43.8%, x1.29)

blue bets:
mirapoix: 4,379G (37.5%, 8,759G)
kai_shee: 1,001G (8.6%, 133,149G)
SacrificialToast: 1,000G (8.6%, 11,297G)
Arunic: 1,000G (8.6%, 15,042G)
Pie108: 700G (6.0%, 17,398G)
Aldrammech: 600G (5.1%, 600G)
Kobold_Jager: 544G (4.7%, 544G)
Mosses76: 500G (4.3%, 39,133G)
moonliquor: 420G (3.6%, 841G)
fenaen: 372G (3.2%, 372G)
Vyroxe: 365G (3.1%, 365G)
TheGuesty: 350G (3.0%, 2,300G)
Kronikle: 328G (2.8%, 328G)
ungabunga_bot: 131G (1.1%, 116,891G)

green bets:
sinnyil2: 1,111G (12.2%, 11,282G)
getthemoneyz: 1,000G (11.0%, 480,382G)
BirbBrainsBot: 1,000G (11.0%, 84,150G)
roqqqpsi: 748G (8.2%, 748G)
NoNotBees: 694G (7.6%, 694G)
Lanshaft: 600G (6.6%, 8,561G)
datadrivenbot: 600G (6.6%, 18,955G)
DrAntiSocial: 519G (5.7%, 519G)
Shalloween: 500G (5.5%, 27,667G)
MoonSlayerRS: 444G (4.9%, 444G)
HASTERIOUS: 382G (4.2%, 1,529G)
NUMBER1DB: 333G (3.7%, 2,177G)
DudeMonkey77: 333G (3.7%, 4,824G)
mivvim: 256G (2.8%, 256G)
athros13: 200G (2.2%, 707G)
AllInBot: 100G (1.1%, 100G)
DeathTaxesAndAnime: 100G (1.1%, 2,537G)
IndecisiveNinja: 100G (1.1%, 3,278G)
daveb_: 77G (0.8%, 1,610G)
