Final Bets: green - 6 bets for 3,540G (29.3%, x2.42); yellow - 14 bets for 8,551G (70.7%, x0.41)

green bets:
Qaz12301: 1,785G (50.4%, 1,785G)
killth3kid: 1,000G (28.2%, 23,597G)
Helllyesss: 400G (11.3%, 4,140G)
ASkyNightly: 155G (4.4%, 200G)
victoriolue: 100G (2.8%, 7,517G)
benticore: 100G (2.8%, 1,404G)

yellow bets:
Mesmaster: 2,000G (23.4%, 151,727G)
OneHundredFists: 1,022G (12.0%, 1,022G)
BirbBrainsBot: 1,000G (11.7%, 108,464G)
BoneMiser: 886G (10.4%, 886G)
HASTERIOUS: 585G (6.8%, 11,704G)
getthemoneyz: 550G (6.4%, 781,020G)
Dymntd: 500G (5.8%, 47,299G)
sukotsuto: 500G (5.8%, 17,798G)
CorpusCav: 500G (5.8%, 19,503G)
gogofromtogo: 500G (5.8%, 4,311G)
Valentine009: 200G (2.3%, 200G)
VynxYukida: 108G (1.3%, 108G)
datadrivenbot: 100G (1.2%, 29,539G)
waterwatereverywhere: 100G (1.2%, 7,645G)
