Final Bets: red - 18 bets for 6,048G (32.9%, x2.04); blue - 20 bets for 12,344G (67.1%, x0.49)

red bets:
YaBoy125: 868G (14.4%, 868G)
getthemoneyz: 730G (12.1%, 741,964G)
Sairentozon7: 701G (11.6%, 701G)
Candina: 666G (11.0%, 83,106G)
LivingHitokiri: 500G (8.3%, 29,004G)
reinoe: 500G (8.3%, 32,590G)
BuffaloCrunch: 500G (8.3%, 7,253G)
CorpusCav: 300G (5.0%, 5,808G)
Arcblazer23: 226G (3.7%, 226G)
gogofromtogo: 208G (3.4%, 208G)
TeaTime29: 149G (2.5%, 149G)
AllInBot: 100G (1.7%, 100G)
Dymntd: 100G (1.7%, 29,088G)
Firesheath: 100G (1.7%, 4,040G)
Evewho: 100G (1.7%, 20,646G)
aeonicvector: 100G (1.7%, 1,678G)
Kyune: 100G (1.7%, 29,810G)
datadrivenbot: 100G (1.7%, 25,078G)

blue bets:
sinnyil2: 6,129G (49.7%, 12,258G)
Lydian_C: 1,200G (9.7%, 7,262G)
superdevon1: 1,158G (9.4%, 4,634G)
Mesmaster: 1,000G (8.1%, 99,216G)
flowinprose: 500G (4.1%, 106,211G)
gorgewall: 301G (2.4%, 11,251G)
thenextlantern: 300G (2.4%, 802G)
itsdigitalbro: 248G (2.0%, 248G)
DeathTaxesAndAnime: 200G (1.6%, 12,487G)
BirbBrainsBot: 200G (1.6%, 200G)
Powermhero: 200G (1.6%, 11,000G)
Klednar21: 150G (1.2%, 402G)
WinstonThrasher: 104G (0.8%, 104G)
KyleWonToLiveForever: 104G (0.8%, 104G)
ApplesauceBoss: 100G (0.8%, 8,321G)
Devrology101: 100G (0.8%, 2,730G)
Digitalsocrates: 100G (0.8%, 11,534G)
rednecknazgul: 100G (0.8%, 50,564G)
gr8keeper: 100G (0.8%, 3,177G)
DrAntiSocial: 50G (0.4%, 19,022G)
