Final Bets: white - 17 bets for 27,707G (75.2%, x0.33); black - 21 bets for 9,121G (24.8%, x3.04)

white bets:
HaplessOne: 12,345G (44.6%, 139,772G)
EnemyController: 5,000G (18.0%, 265,986G)
Virilikus: 2,000G (7.2%, 163,102G)
Aldrammech: 1,000G (3.6%, 5,077G)
sSwing: 871G (3.1%, 2,871G)
elburritofuerte: 836G (3.0%, 836G)
rico_flex: 800G (2.9%, 17,643G)
Estan_AD: 796G (2.9%, 796G)
FoeSquirrel: 706G (2.5%, 706G)
killth3kid: 600G (2.2%, 4,025G)
Zeroroute: 600G (2.2%, 600G)
gorgewall: 501G (1.8%, 12,765G)
vorap: 500G (1.8%, 75,092G)
ApplesauceBoss: 416G (1.5%, 416G)
KonzeraLive: 400G (1.4%, 15,010G)
CandyTamer: 236G (0.9%, 290G)
serperemagus: 100G (0.4%, 193G)

black bets:
coralreeferz: 1,250G (13.7%, 19,067G)
BirbBrainsBot: 1,000G (11.0%, 18,247G)
Lionhermit: 1,000G (11.0%, 18,852G)
OrganicArtist: 777G (8.5%, 2,258G)
getthemoneyz: 766G (8.4%, 684,447G)
volgrathemoose: 648G (7.1%, 648G)
E_Ballard: 600G (6.6%, 600G)
HaateXIII: 480G (5.3%, 480G)
Lanshaft: 392G (4.3%, 895G)
FriendSquirrel: 360G (3.9%, 360G)
Firesheath: 346G (3.8%, 346G)
CorpusCav: 300G (3.3%, 2,700G)
marin1987: 256G (2.8%, 256G)
LeoNightFury: 236G (2.6%, 236G)
Dymntd: 200G (2.2%, 4,677G)
alecttox: 150G (1.6%, 15,727G)
AkiriXx: 100G (1.1%, 100G)
jakeduhhsnake: 100G (1.1%, 704G)
Kyune: 100G (1.1%, 13,255G)
letdowncity: 50G (0.5%, 2,194G)
Seawalker777: 10G (0.1%, 763G)
