Final Bets: yellow - 12 bets for 15,957G (49.6%, x1.02); champion - 27 bets for 16,202G (50.4%, x0.98)

yellow bets:
Grimmace45: 3,046G (19.1%, 30,465G)
Virilikus: 2,792G (17.5%, 172,792G)
HaplessOne: 2,777G (17.4%, 142,777G)
rico_flex: 2,000G (12.5%, 22,090G)
Evewho: 1,634G (10.2%, 1,634G)
Candina: 1,200G (7.5%, 18,089G)
ANFz: 890G (5.6%, 1,190G)
killth3kid: 600G (3.8%, 3,447G)
JackOnFire1: 566G (3.5%, 566G)
CandyTamer: 236G (1.5%, 900G)
O_Heyno: 116G (0.7%, 116G)
mardokttv: 100G (0.6%, 465G)

champion bets:
TheMurkGnome: 1,541G (9.5%, 13,869G)
coralreeferz: 1,500G (9.3%, 14,030G)
Baron_von_Scrub: 1,111G (6.9%, 11,250G)
HaateXIII: 1,102G (6.8%, 1,102G)
Basmal: 1,000G (6.2%, 43,585G)
BirbBrainsBot: 1,000G (6.2%, 16,233G)
Lionhermit: 1,000G (6.2%, 15,667G)
Shalloween: 990G (6.1%, 990G)
volgrathemoose: 652G (4.0%, 652G)
old_overholt_: 500G (3.1%, 9,300G)
Bahamut64: 500G (3.1%, 14,667G)
twelfthrootoftwo: 500G (3.1%, 27,392G)
Dymntd: 500G (3.1%, 4,277G)
marin1987: 465G (2.9%, 465G)
OrganicArtist: 459G (2.8%, 900G)
LeoNightFury: 436G (2.7%, 436G)
CorpusCav: 436G (2.7%, 436G)
evdoggity: 400G (2.5%, 5,146G)
getthemoneyz: 392G (2.4%, 683,547G)
Firesheath: 316G (2.0%, 316G)
Estan_AD: 312G (1.9%, 312G)
gorgewall: 301G (1.9%, 13,031G)
E_Ballard: 289G (1.8%, 1,089G)
maleblackfiora: 200G (1.2%, 288G)
serperemagus: 100G (0.6%, 104G)
jakeduhhsnake: 100G (0.6%, 1,151G)
Kyune: 100G (0.6%, 13,256G)
