Final Bets: white - 14 bets for 14,441G (75.8%, x0.32); black - 11 bets for 4,606G (24.2%, x3.14)

white bets:
NovaKnight21: 5,853G (40.5%, 5,853G)
SkyridgeZero: 1,196G (8.3%, 1,196G)
RongRongArts: 1,100G (7.6%, 39,088G)
HaplessOne: 1,076G (7.5%, 21,160G)
BirbBrainsBot: 1,000G (6.9%, 191,618G)
bad1dea: 1,000G (6.9%, 182,269G)
Ranmilia: 1,000G (6.9%, 2,783G)
alltoreup: 1,000G (6.9%, 7,801G)
rnark: 333G (2.3%, 2,637G)
Humble_Fabio: 333G (2.3%, 4,776G)
Aneyus: 250G (1.7%, 13,039G)
PlatinumPlume: 100G (0.7%, 5,994G)
SeedSC: 100G (0.7%, 94,482G)
datadrivenbot: 100G (0.7%, 14,871G)

black bets:
R_Raynos: 1,585G (34.4%, 1,585G)
kingchadking: 1,021G (22.2%, 1,021G)
HASTERIOUS: 1,000G (21.7%, 75,787G)
rubenflonne: 200G (4.3%, 3,422G)
getthemoneyz: 200G (4.3%, 355,143G)
AllInBot: 100G (2.2%, 100G)
ungabunga_bot: 100G (2.2%, 3,173G)
Alc_Trinity: 100G (2.2%, 23,283G)
Maeveen: 100G (2.2%, 10,370G)
Treapvort: 100G (2.2%, 6,232G)
Rexamajinx: 100G (2.2%, 1,452G)
