Final Bets: purple - 17 bets for 9,593G (67.1%, x0.49); brown - 11 bets for 4,702G (32.9%, x2.04)

purple bets:
HaplessOne: 1,111G (11.6%, 197,839G)
Sairentozon7: 1,108G (11.6%, 1,108G)
Moshyhero: 1,000G (10.4%, 3,564G)
BirbBrainsBot: 1,000G (10.4%, 101,833G)
Lali_Lulelo: 919G (9.6%, 919G)
getthemoneyz: 800G (8.3%, 691,532G)
BoneMiser: 600G (6.3%, 600G)
maakur_: 540G (5.6%, 540G)
EnemyController: 500G (5.2%, 302,597G)
Tsuike: 445G (4.6%, 890G)
ShintaroNayaka: 400G (4.2%, 4,263G)
skillomono: 400G (4.2%, 5,126G)
Lythe_Caraker: 250G (2.6%, 124,061G)
Vex_Novisk: 200G (2.1%, 2,806G)
kaelsun: 120G (1.3%, 120G)
Heroebal: 100G (1.0%, 8,119G)
datadrivenbot: 100G (1.0%, 22,215G)

brown bets:
LordSDB: 1,000G (21.3%, 3,200G)
StealthModeLocke: 803G (17.1%, 803G)
Kronikle: 600G (12.8%, 17,173G)
HaateXIII: 500G (10.6%, 2,159G)
reinoe: 500G (10.6%, 7,690G)
DustBirdEX: 456G (9.7%, 35,137G)
evdoggity: 300G (6.4%, 4,824G)
WunUP: 252G (5.4%, 252G)
nifboy: 100G (2.1%, 8,779G)
CosmicTactician: 100G (2.1%, 22,417G)
Saldarin: 91G (1.9%, 919G)
