Final Bets: purple - 4 bets for 1,292G (3.7%, x25.98); brown - 15 bets for 33,563G (96.3%, x0.04)

purple bets:
letdowncity: 504G (39.0%, 10,875G)
Xoomwaffle: 340G (26.3%, 340G)
getthemoneyz: 268G (20.7%, 1,521,648G)
BaronHaynes: 180G (13.9%, 180G)

brown bets:
Arkreaver: 16,084G (47.9%, 16,084G)
actual_JP: 4,867G (14.5%, 4,867G)
Error72: 2,738G (8.2%, 2,738G)
ko2q: 2,407G (7.2%, 2,407G)
DeathTaxesAndAnime: 1,988G (5.9%, 1,988G)
pplvee1: 1,000G (3.0%, 7,516G)
CosmicTactician: 1,000G (3.0%, 3,528G)
BirbBrainsBot: 1,000G (3.0%, 75,696G)
DavenIII: 645G (1.9%, 645G)
xBizzy: 514G (1.5%, 3,428G)
VolgraTheMoose: 501G (1.5%, 2,829G)
AllInBot: 251G (0.7%, 251G)
LordTomS: 200G (0.6%, 200G)
datadrivenbot: 200G (0.6%, 52,195G)
MonchoStrife: 168G (0.5%, 168G)
