Final Bets: purple - 19 bets for 10,028G (61.7%, x0.62); brown - 14 bets for 6,219G (38.3%, x1.61)

purple bets:
mpghappiness: 2,561G (25.5%, 5,022G)
DudeMonkey77: 1,074G (10.7%, 1,074G)
TheChainNerd: 975G (9.7%, 4,878G)
Nickyfive: 748G (7.5%, 1,496G)
TinchoT: 741G (7.4%, 741G)
Kronikle: 700G (7.0%, 19,309G)
ThePineappleSalesman: 681G (6.8%, 681G)
joewcarson: 400G (4.0%, 29,785G)
SerumD: 400G (4.0%, 3,878G)
killth3kid: 328G (3.3%, 6,169G)
Flameatron: 300G (3.0%, 5,227G)
MiseryKoss: 288G (2.9%, 2,886G)
mistermastergreg: 200G (2.0%, 969G)
Lydian_C: 132G (1.3%, 11,796G)
CosmicTactician: 100G (1.0%, 15,812G)
ruleof5: 100G (1.0%, 1,795G)
lastly: 100G (1.0%, 14,451G)
El_Stavos: 100G (1.0%, 2,028G)
datadrivenbot: 100G (1.0%, 32,823G)

brown bets:
Jeeboheebo: 1,000G (16.1%, 11,102G)
Thyrandaal: 1,000G (16.1%, 16,238G)
BirbBrainsBot: 874G (14.1%, 89,451G)
Saldarin: 800G (12.9%, 1,756G)
thenextlantern: 724G (11.6%, 724G)
BigGlorious: 400G (6.4%, 2,744G)
DustBirdEX: 316G (5.1%, 316G)
CapnChaos12: 300G (4.8%, 24,377G)
KasugaiRoastedPeas: 200G (3.2%, 2,344G)
mechoking: 200G (3.2%, 2,541G)
getthemoneyz: 104G (1.7%, 829,449G)
Firesheath: 101G (1.6%, 2,244G)
HokTuey: 100G (1.6%, 1,337G)
Miku_Shikhu: 100G (1.6%, 2,650G)
