Final Bets: red - 10 bets for 7,396G (62.3%, x0.61); blue - 14 bets for 4,484G (37.7%, x1.65)

red bets:
leakimiko: 2,505G (33.9%, 31,317G)
sinnyil2: 1,090G (14.7%, 1,090G)
BirbBrainsBot: 1,000G (13.5%, 156,525G)
Mesmaster: 1,000G (13.5%, 50,373G)
Bioticism: 615G (8.3%, 615G)
ewan_e: 406G (5.5%, 406G)
lobsterlobster: 304G (4.1%, 304G)
BlaqkElectric: 200G (2.7%, 3,864G)
HawkSick: 176G (2.4%, 176G)
Evewho: 100G (1.4%, 9,210G)

blue bets:
vorap: 800G (17.8%, 27,971G)
ko2q: 785G (17.5%, 785G)
gorgewall: 600G (13.4%, 15,821G)
Odin007_88: 500G (11.2%, 7,874G)
twelfthrootoftwo: 500G (11.2%, 4,440G)
midori_ribbon: 250G (5.6%, 496G)
ccordc: 249G (5.6%, 249G)
KasugaiRoastedPeas: 200G (4.5%, 6,442G)
Lydian_C: 120G (2.7%, 2,205G)
ungabunga_bot: 103G (2.3%, 289,316G)
Lythe_Caraker: 100G (2.2%, 118,821G)
Arkreaver: 100G (2.2%, 12,910G)
datadrivenbot: 100G (2.2%, 11,343G)
Ross_from_Cali: 77G (1.7%, 13,256G)
