Final Bets: purple - 9 bets for 3,237G (15.4%, x5.50); brown - 20 bets for 17,795G (84.6%, x0.18)

purple bets:
DustBirdEX: 944G (29.2%, 944G)
ungabunga_bot: 533G (16.5%, 220,109G)
XalSmellsBad: 500G (15.4%, 19,873G)
sukotsuto: 300G (9.3%, 5,744G)
Rinhander: 264G (8.2%, 264G)
CT_5_Holy: 224G (6.9%, 224G)
ewan_e: 200G (6.2%, 985G)
getthemoneyz: 172G (5.3%, 566,299G)
Anethum: 100G (3.1%, 2,990G)

brown bets:
sinnyil2: 4,500G (25.3%, 106,055G)
HaplessOne: 2,500G (14.0%, 129,062G)
alrightbye: 2,399G (13.5%, 39,989G)
whiteonrice: 1,200G (6.7%, 1,200G)
BoneMiser: 1,000G (5.6%, 20,868G)
BirbBrainsBot: 1,000G (5.6%, 153,169G)
leakimiko: 670G (3.8%, 2,683G)
vorap: 659G (3.7%, 659G)
Snowfats: 581G (3.3%, 581G)
feDoran: 500G (2.8%, 14,533G)
Dexsana: 500G (2.8%, 10,739G)
Ethquan: 500G (2.8%, 6,851G)
Jahshine: 500G (2.8%, 6,809G)
Bulleta: 272G (1.5%, 272G)
Estan_AD: 264G (1.5%, 264G)
trigger15: 250G (1.4%, 1,344G)
Mikumari12: 200G (1.1%, 2,505G)
HorusTaurus: 100G (0.6%, 136G)
datadrivenbot: 100G (0.6%, 1,675G)
placeholdercats: 100G (0.6%, 208G)
