Final Bets: white - 10 bets for 7,365G (38.2%, x1.62); brown - 14 bets for 11,911G (61.8%, x0.62)

white bets:
sukotsuto: 2,800G (38.0%, 5,601G)
HaplessOne: 2,222G (30.2%, 130,680G)
reinoe: 600G (8.1%, 600G)
DustBirdEX: 416G (5.6%, 416G)
Ethquan: 300G (4.1%, 7,047G)
Bulleta: 276G (3.7%, 276G)
nifboy: 240G (3.3%, 6,013G)
whiteonrice: 208G (2.8%, 208G)
phu1996: 203G (2.8%, 203G)
ko2q: 100G (1.4%, 8,353G)

brown bets:
sinnyil2: 2,900G (24.3%, 109,229G)
alrightbye: 2,031G (17.1%, 40,636G)
Jerboj: 1,000G (8.4%, 49,396G)
ungabunga_bot: 1,000G (8.4%, 219,097G)
BirbBrainsBot: 1,000G (8.4%, 153,874G)
leakimiko: 981G (8.2%, 2,805G)
vorap: 831G (7.0%, 831G)
getthemoneyz: 720G (6.0%, 566,215G)
aStatue: 500G (4.2%, 4,520G)
Estan_AD: 312G (2.6%, 312G)
CT_5_Holy: 224G (1.9%, 224G)
ewan_e: 212G (1.8%, 212G)
BoneMiser: 100G (0.8%, 19,050G)
datadrivenbot: 100G (0.8%, 1,593G)
