Final Bets: black - 18 bets for 19,725G (57.1%, x0.75); purple - 18 bets for 14,794G (42.9%, x1.33)

black bets:
toka222: 10,000G (50.7%, 375,257G)
Aldrammech: 2,000G (10.1%, 21,958G)
DeathTaxesAndAnime: 1,352G (6.9%, 2,652G)
Zagorsek: 1,139G (5.8%, 1,139G)
BirbBrainsBot: 1,000G (5.1%, 82,073G)
evontno: 811G (4.1%, 811G)
Nizaha: 804G (4.1%, 80,413G)
dogsandcatsand: 703G (3.6%, 703G)
getthemoneyz: 646G (3.3%, 1,811,479G)
DaveStrider55: 336G (1.7%, 336G)
joewcarson: 200G (1.0%, 13,349G)
datadrivenbot: 200G (1.0%, 65,086G)
Kellios11: 200G (1.0%, 3,768G)
AbandonedHall: 100G (0.5%, 2,363G)
RunicMagus: 100G (0.5%, 1,902G)
aggroberserker: 83G (0.4%, 181G)
rocl: 50G (0.3%, 765G)
Chuckolator: 1G (0.0%, 6,253G)

purple bets:
FoeSquirrel: 3,413G (23.1%, 6,827G)
SkylerBunny: 2,000G (13.5%, 91,848G)
Thyrandaal: 2,000G (13.5%, 58,493G)
JumbocactuarX27: 1,000G (6.8%, 3,151G)
thebluesman: 1,000G (6.8%, 13,004G)
HaateXIII: 896G (6.1%, 896G)
Zeroroute: 779G (5.3%, 779G)
Laserman1000: 736G (5.0%, 736G)
SQUiDSQUARKLIN: 528G (3.6%, 528G)
roofiepops: 474G (3.2%, 1,772G)
lowlf: 452G (3.1%, 6,293G)
Raixelol: 360G (2.4%, 7,232G)
SephDarkheart: 324G (2.2%, 10,382G)
Tsuike: 300G (2.0%, 2,528G)
Zadckiel: 200G (1.4%, 654G)
MagikarpPKMN: 132G (0.9%, 132G)
HS39: 100G (0.7%, 2,518G)
nhammen: 100G (0.7%, 466,731G)
