Final Bets: red - 12 bets for 15,490G (32.2%, x2.11); champion - 24 bets for 32,675G (67.8%, x0.47)

red bets:
ANFz: 5,726G (37.0%, 5,726G)
Lydian_C: 4,200G (27.1%, 158,030G)
killth3kid: 1,199G (7.7%, 119,952G)
Firesheath: 1,157G (7.5%, 1,157G)
Laserman1000: 760G (4.9%, 16,160G)
VulcanPanderp: 687G (4.4%, 687G)
Gelwain: 600G (3.9%, 600G)
VolgraTheMoose: 501G (3.2%, 4,003G)
peeronid: 328G (2.1%, 3,629G)
getthemoneyz: 182G (1.2%, 1,169,310G)
Aldrammech: 100G (0.6%, 4,994G)
mister_sm1th: 50G (0.3%, 158G)

champion bets:
run_with_stone_GUNs: 8,349G (25.6%, 16,698G)
DeathTaxesAndAnime: 8,217G (25.1%, 16,112G)
xLilAsia: 3,000G (9.2%, 5,442G)
fenaen: 2,000G (6.1%, 44,233G)
maakur_: 1,004G (3.1%, 1,004G)
Forkmore: 1,000G (3.1%, 24,121G)
BirbBrainsBot: 1,000G (3.1%, 167,635G)
Rislyeu: 1,000G (3.1%, 6,424G)
SephDarkheart: 821G (2.5%, 821G)
RampagingRobot: 759G (2.3%, 759G)
HaychDub: 650G (2.0%, 5,469G)
alekzanndrr: 618G (1.9%, 618G)
Shalloween: 600G (1.8%, 65,371G)
Breakdown777: 560G (1.7%, 560G)
actual_JP: 540G (1.7%, 540G)
yeepeekayeahmf: 500G (1.5%, 4,795G)
DuneMeta: 500G (1.5%, 6,198G)
fluffskull: 425G (1.3%, 425G)
triniculo: 300G (0.9%, 1,156G)
Mathlexis: 220G (0.7%, 220G)
n2ash: 212G (0.6%, 212G)
L2_Sentinel: 200G (0.6%, 35,349G)
Miku_Shikhu: 100G (0.3%, 17,501G)
danielrogercardoso: 100G (0.3%, 100G)
