Final Bets: purple - 18 bets for 9,553G (33.5%, x1.98); brown - 26 bets for 18,922G (66.5%, x0.50)

purple bets:
lowlf: 2,000G (20.9%, 32,783G)
fenaen: 1,500G (15.7%, 75,656G)
volgrathemoose: 1,001G (10.5%, 16,970G)
TheChainNerd: 1,000G (10.5%, 4,204G)
Lionhermit: 1,000G (10.5%, 30,284G)
aStatue: 600G (6.3%, 600G)
TheRylander: 400G (4.2%, 3,866G)
itzover9001: 374G (3.9%, 374G)
coralreeferz: 350G (3.7%, 21,691G)
Error72: 280G (2.9%, 280G)
KasugaiRoastedPeas: 200G (2.1%, 4,141G)
benticore: 200G (2.1%, 9,269G)
Pink_LuigiX: 148G (1.5%, 148G)
FoeSquirrel: 100G (1.0%, 5,745G)
FriendSquirrel: 100G (1.0%, 27,768G)
belife42: 100G (1.0%, 971G)
maakur_: 100G (1.0%, 111,808G)
Jahshine: 100G (1.0%, 3,628G)

brown bets:
Zeroroute: 3,232G (17.1%, 5,164G)
JonnyCue: 2,000G (10.6%, 35,924G)
deenglow: 1,500G (7.9%, 46,219G)
roofiepops: 1,100G (5.8%, 7,976G)
ShintaroNayaka: 1,000G (5.3%, 13,165G)
catfashions: 1,000G (5.3%, 5,851G)
BirbBrainsBot: 1,000G (5.3%, 63,841G)
getthemoneyz: 1,000G (5.3%, 602,515G)
JumbocactuarX27: 1,000G (5.3%, 9,759G)
duskps: 757G (4.0%, 3,787G)
Mandoragan: 549G (2.9%, 549G)
SQUiDSQUARKLIN: 501G (2.6%, 3,373G)
BoneMiser: 500G (2.6%, 31,835G)
joewcarson: 500G (2.6%, 7,511G)
killth3kid: 500G (2.6%, 27,612G)
IndecisiveNinja: 464G (2.5%, 464G)
ZephyrTempest: 442G (2.3%, 2,947G)
Banzem: 312G (1.6%, 312G)
Egil72: 307G (1.6%, 307G)
ungabunga_bot: 306G (1.6%, 266,604G)
HorusTaurus: 300G (1.6%, 3,759G)
gggamezzz: 261G (1.4%, 261G)
FreefallSirius: 124G (0.7%, 124G)
RuneS_77: 100G (0.5%, 5,704G)
datadrivenbot: 100G (0.5%, 5,184G)
nifboy: 67G (0.4%, 1,687G)
