Final Bets: red - 20 bets for 14,767G (43.5%, x1.30); yellow - 22 bets for 19,212G (56.5%, x0.77)

red bets:
Zachara: 7,249G (49.1%, 52,249G)
sinnyil2: 1,200G (8.1%, 43,850G)
OmnibotGamma: 889G (6.0%, 889G)
BirbBrainsBot: 601G (4.1%, 243,845G)
Aldrammech: 600G (4.1%, 600G)
Lanshaft: 600G (4.1%, 6,800G)
bad1dea: 600G (4.1%, 58,752G)
Shalloween: 581G (3.9%, 1,141G)
lezprobe: 523G (3.5%, 523G)
MrDiggs49: 500G (3.4%, 500G)
pandasforsale: 333G (2.3%, 10,711G)
V3rdeni: 200G (1.4%, 535G)
ZephyrTempest: 174G (1.2%, 23,670G)
LeepingJJ: 160G (1.1%, 2,432G)
getthemoneyz: 152G (1.0%, 441,310G)
AllInBot: 100G (0.7%, 100G)
zepi_zza: 100G (0.7%, 978G)
synoda: 100G (0.7%, 100G)
CidDurai: 100G (0.7%, 3,207G)
ko2q: 5G (0.0%, 1,492G)

yellow bets:
BenYuPoker: 10,686G (55.6%, 21,372G)
ApplesauceBoss: 1,448G (7.5%, 1,448G)
upvla: 1,219G (6.3%, 25,373G)
robespyah: 1,000G (5.2%, 4,301G)
lowlf: 1,000G (5.2%, 18,879G)
Slowbrofist: 936G (4.9%, 936G)
RunicMagus: 400G (2.1%, 32,590G)
SkylerBunny: 328G (1.7%, 328G)
urieltheflameofgod: 328G (1.7%, 328G)
b0shii: 250G (1.3%, 912G)
DrAntiSocial: 236G (1.2%, 236G)
Laserman1000: 220G (1.1%, 220G)
KasugaiRoastedPeas: 200G (1.0%, 23,012G)
SeraphPDH: 200G (1.0%, 2,000G)
Spartan_Paladin: 160G (0.8%, 18,566G)
maakur_: 100G (0.5%, 2,256G)
AlenaZarek: 100G (0.5%, 1,513G)
SeniorBunk: 100G (0.5%, 4,113G)
datadrivenbot: 100G (0.5%, 19,869G)
maichenambrai: 100G (0.5%, 2,180G)
ungabunga_bot: 51G (0.3%, 45,827G)
oogthecaveman: 50G (0.3%, 5,829G)
