Final Bets: white - 15 bets for 7,153G (29.9%, x2.35); black - 22 bets for 16,808G (70.1%, x0.43)

white bets:
Aldrammech: 1,022G (14.3%, 1,022G)
friendsquirrel: 709G (9.9%, 709G)
Pie108: 700G (9.8%, 19,149G)
Lanshaft: 600G (8.4%, 8,999G)
hales_bopp_it: 600G (8.4%, 4,813G)
datadrivenbot: 587G (8.2%, 19,079G)
roofiepops: 514G (7.2%, 514G)
HaateXIII: 500G (7.0%, 1,514G)
Jerboj: 500G (7.0%, 39,654G)
NUMBER1DB: 400G (5.6%, 1,844G)
Laserman1000: 321G (4.5%, 3,521G)
CapnChaos12: 300G (4.2%, 3,418G)
joewcarson: 160G (2.2%, 160G)
arch8000: 140G (2.0%, 7,042G)
LazarusAjin: 100G (1.4%, 100G)

black bets:
sinnyil2: 2,500G (14.9%, 17,004G)
volgrathemoose: 2,001G (11.9%, 6,781G)
SacrificialToast: 2,000G (11.9%, 8,622G)
HASTERIOUS: 1,424G (8.5%, 1,424G)
kai_shee: 1,001G (6.0%, 129,824G)
BirbBrainsBot: 1,000G (5.9%, 87,506G)
Nizaha: 887G (5.3%, 1,775G)
gooseyourself: 765G (4.6%, 765G)
Sairentozon7: 700G (4.2%, 2,980G)
mirapoix: 667G (4.0%, 667G)
ungabunga_bot: 632G (3.8%, 116,471G)
UmaiJam: 596G (3.5%, 596G)
getthemoneyz: 530G (3.2%, 479,708G)
LDSkinny: 500G (3.0%, 1,025G)
fenaen: 372G (2.2%, 372G)
urieltheflameofgod: 300G (1.8%, 8,743G)
moonliquor: 263G (1.6%, 263G)
KasugaiRoastedPeas: 200G (1.2%, 5,582G)
AllInBot: 170G (1.0%, 170G)
IndecisiveNinja: 100G (0.6%, 2,864G)
LLight__: 100G (0.6%, 3,074G)
DrAntiSocial: 100G (0.6%, 1,644G)
