Final Bets: red - 11 bets for 12,727G (42.1%, x1.37); blue - 15 bets for 17,476G (57.9%, x0.73)

red bets:
WhiteTigress: 3,046G (23.9%, 3,046G)
UmaiJam: 2,000G (15.7%, 27,133G)
Zeroroute: 1,638G (12.9%, 1,638G)
E_Ballard: 1,276G (10.0%, 1,276G)
DavenIII: 1,251G (9.8%, 1,251G)
BirbBrainsBot: 1,000G (7.9%, 49,542G)
maximumcrit: 651G (5.1%, 651G)
skillomono: 607G (4.8%, 607G)
coralreeferz: 592G (4.7%, 25,910G)
AllInBot: 546G (4.3%, 546G)
Tarheels218: 120G (0.9%, 11,923G)

blue bets:
Forkmore: 10,000G (57.2%, 43,668G)
RyanTheRebs: 1,739G (10.0%, 1,739G)
latebit: 1,100G (6.3%, 12,051G)
TheDeeyo: 1,005G (5.8%, 1,005G)
JumbocactuarX27: 812G (4.6%, 812G)
douchetron: 606G (3.5%, 606G)
getthemoneyz: 560G (3.2%, 1,616,577G)
pplvee1: 480G (2.7%, 7,224G)
LDHaten: 272G (1.6%, 272G)
soren_of_tyto: 252G (1.4%, 252G)
datadrivenbot: 200G (1.1%, 60,033G)
holdenmagronik: 150G (0.9%, 560G)
MinBetBot: 100G (0.6%, 21,060G)
RunicMagus: 100G (0.6%, 5,920G)
Error72: 100G (0.6%, 5,658G)
