Final Bets: black - 15 bets for 20,195G (59.9%, x0.67); purple - 13 bets for 13,546G (40.1%, x1.49)

black bets:
Rytor: 5,064G (25.1%, 5,064G)
Forkmore: 5,000G (24.8%, 65,383G)
Lillifen: 3,137G (15.5%, 3,137G)
coralreeferz: 2,500G (12.4%, 26,574G)
Tarheels218: 1,000G (5.0%, 11,860G)
JumbocactuarX27: 604G (3.0%, 604G)
douchetron: 600G (3.0%, 600G)
RyanTheRebs: 500G (2.5%, 3,195G)
MrPhuui: 500G (2.5%, 6,389G)
DavenIII: 400G (2.0%, 400G)
WhiteTigress: 320G (1.6%, 320G)
datadrivenbot: 200G (1.0%, 60,457G)
holdenmagronik: 150G (0.7%, 822G)
Skjodo: 120G (0.6%, 120G)
neerrm: 100G (0.5%, 11,476G)

purple bets:
AllInBot: 3,497G (25.8%, 3,497G)
BaronHaynes: 3,000G (22.1%, 4,964G)
latebit: 3,000G (22.1%, 10,485G)
BirbBrainsBot: 1,000G (7.4%, 48,104G)
benticore: 1,000G (7.4%, 39,996G)
E_Ballard: 584G (4.3%, 584G)
KoukiiMonster: 569G (4.2%, 569G)
xBizzy: 232G (1.7%, 2,145G)
TheDeeyo: 200G (1.5%, 1,164G)
maddrave09: 136G (1.0%, 136G)
Scottydeluxe: 128G (0.9%, 3,630G)
RunicMagus: 100G (0.7%, 6,477G)
CosmicTactician: 100G (0.7%, 8,502G)
