Final Bets: blue - 9 bets for 21,793G (56.0%, x0.79); purple - 18 bets for 17,126G (44.0%, x1.27)

blue bets:
Forkmore: 10,000G (45.9%, 60,383G)
AllInBot: 8,710G (40.0%, 8,710G)
E_Ballard: 1,455G (6.7%, 1,455G)
getthemoneyz: 508G (2.3%, 1,616,101G)
MrPhuui: 500G (2.3%, 5,889G)
WhiteTigress: 320G (1.5%, 320G)
neerrm: 100G (0.5%, 11,376G)
RunicMagus: 100G (0.5%, 6,626G)
ko2q: 100G (0.5%, 1,626G)

purple bets:
BaronHaynes: 3,000G (17.5%, 9,437G)
latebit: 3,000G (17.5%, 14,958G)
coralreeferz: 2,500G (14.6%, 24,074G)
KoukiiMonster: 1,417G (8.3%, 1,417G)
maximumcrit: 1,017G (5.9%, 1,017G)
BirbBrainsBot: 1,000G (5.8%, 49,595G)
benticore: 1,000G (5.8%, 41,487G)
reddwind_: 1,000G (5.8%, 19,753G)
douchetron: 600G (3.5%, 600G)
LDHaten: 470G (2.7%, 470G)
Rytor: 436G (2.5%, 436G)
DavenIII: 400G (2.3%, 400G)
TheDeeyo: 400G (2.3%, 1,462G)
CosmicTactician: 300G (1.8%, 8,651G)
datadrivenbot: 200G (1.2%, 60,257G)
holdenmagronik: 150G (0.9%, 672G)
maddrave09: 136G (0.8%, 339G)
Error72: 100G (0.6%, 5,258G)
