Final Bets: purple - 12 bets for 17,743G (81.8%, x0.22); brown - 9 bets for 3,937G (18.2%, x4.51)

purple bets:
VolgraTheMoose: 4,741G (26.7%, 9,482G)
TheChainNerd: 4,632G (26.1%, 9,083G)
prince_rogers_nelson_: 2,600G (14.7%, 2,600G)
NIghtdew14: 1,500G (8.5%, 30,653G)
dogsandcatsand: 1,060G (6.0%, 1,060G)
ColetteMSLP: 1,000G (5.6%, 31,122G)
Zagorsek: 610G (3.4%, 610G)
ShintaroNayaka: 500G (2.8%, 9,161G)
neerrm: 500G (2.8%, 20,614G)
Smashy: 300G (1.7%, 3,197G)
datadrivenbot: 200G (1.1%, 45,769G)
Bongomon7: 100G (0.6%, 7,000G)

brown bets:
BirbBrainsBot: 1,000G (25.4%, 125,900G)
getthemoneyz: 1,000G (25.4%, 1,405,821G)
Thyrandaal: 666G (16.9%, 8,887G)
pplvee1: 412G (10.5%, 599G)
bahumat989: 336G (8.5%, 336G)
AllInBot: 200G (5.1%, 200G)
Chambs12: 200G (5.1%, 811G)
ohhinm: 100G (2.5%, 1,824G)
ArlanKels: 23G (0.6%, 780G)
