Final Bets: yellow - 13 bets for 21,431G (61.8%, x0.62); purple - 12 bets for 13,221G (38.2%, x1.62)

yellow bets:
SephDarkheart: 6,333G (29.6%, 6,333G)
TheChainNerd: 4,467G (20.8%, 8,759G)
NIghtdew14: 3,500G (16.3%, 30,568G)
UmaiJam: 1,800G (8.4%, 84,105G)
bahumat989: 1,375G (6.4%, 1,375G)
BirbBrainsBot: 1,000G (4.7%, 122,900G)
Thyrandaal: 1,000G (4.7%, 7,110G)
AllInBot: 819G (3.8%, 819G)
getthemoneyz: 390G (1.8%, 1,404,335G)
dogsandcatsand: 360G (1.7%, 360G)
holdenmagronik: 228G (1.1%, 228G)
zarath79: 141G (0.7%, 141G)
ArlanKels: 18G (0.1%, 916G)

purple bets:
VolgraTheMoose: 5,267G (39.8%, 10,534G)
Smashy: 2,357G (17.8%, 2,357G)
Lord_Burrah: 1,309G (9.9%, 76,309G)
pplvee1: 1,288G (9.7%, 1,288G)
Draconis345: 1,000G (7.6%, 44,254G)
red__lancer: 1,000G (7.6%, 112,630G)
neerrm: 300G (2.3%, 20,288G)
Chambs12: 200G (1.5%, 304G)
datadrivenbot: 200G (1.5%, 45,675G)
Bongomon7: 100G (0.8%, 6,665G)
JumbocactuarX27: 100G (0.8%, 20,418G)
ohhinm: 100G (0.8%, 2,818G)
