Final Bets: green - 11 bets for 5,458G (29.0%, x2.45); yellow - 20 bets for 13,373G (71.0%, x0.41)

green bets:
BirbBrainsBot: 1,000G (18.3%, 263,209G)
Draconis345: 869G (15.9%, 869G)
Sungazes: 700G (12.8%, 2,747G)
mivvim: 650G (11.9%, 650G)
HASTERIOUS: 540G (9.9%, 540G)
kingchadking: 452G (8.3%, 452G)
getthemoneyz: 346G (6.3%, 446,229G)
Humble_Fabio: 333G (6.1%, 7,746G)
Cataphract116: 268G (4.9%, 268G)
Slowbrofist: 200G (3.7%, 5,294G)
AllInBot: 100G (1.8%, 100G)

yellow bets:
Jeeboheebo: 5,092G (38.1%, 9,985G)
upvla: 1,219G (9.1%, 10,466G)
waterwatereverywhere: 1,150G (8.6%, 2,255G)
UmaiJam: 1,007G (7.5%, 1,975G)
kai_shee: 1,001G (7.5%, 107,374G)
TheChainNerd: 1,000G (7.5%, 10,653G)
BenYuPoker: 688G (5.1%, 688G)
SkyridgeZero: 500G (3.7%, 10,626G)
maakur_: 416G (3.1%, 416G)
ungabunga_bot: 207G (1.5%, 77,643G)
rubenflonne: 200G (1.5%, 4,187G)
itsj3llyfish: 200G (1.5%, 840G)
ScarletSpiderBen: 150G (1.1%, 924G)
lastly: 100G (0.7%, 1,788G)
JustSuperish: 100G (0.7%, 2,277G)
Aneyus: 100G (0.7%, 8,400G)
datadrivenbot: 100G (0.7%, 26,142G)
ZephyrTempest: 100G (0.7%, 31,286G)
DrAntiSocial: 38G (0.3%, 1,243G)
ko2q: 5G (0.0%, 1,551G)
