Final Bets: red - 21 bets for 7,840G (34.4%, x1.91); yellow - 18 bets for 14,966G (65.6%, x0.52)

red bets:
Aldrammech: 1,000G (12.8%, 102,618G)
ungabunga_bot: 1,000G (12.8%, 261,820G)
BirbBrainsBot: 1,000G (12.8%, 1,500G)
DustBirdEX: 666G (8.5%, 11,836G)
gorgewall: 500G (6.4%, 5,381G)
JumbocactuarX27: 500G (6.4%, 5,746G)
ZephyrTempest: 400G (5.1%, 400G)
SA_Zone: 400G (5.1%, 1,549G)
mesmaster: 300G (3.8%, 1,807G)
nuka1120: 300G (3.8%, 1,000G)
Mandoragan: 220G (2.8%, 220G)
Bojanges: 200G (2.6%, 5,320G)
DejaPoo21: 200G (2.6%, 21,625G)
Jondee10: 200G (2.6%, 631G)
skuldar: 200G (2.6%, 2,274G)
KasugaiRoastedPeas: 200G (2.6%, 10,692G)
Belivalan: 200G (2.6%, 4,011G)
FoeSquirrel: 142G (1.8%, 284G)
DarrenDinosaurs: 100G (1.3%, 12,596G)
HokTuey: 100G (1.3%, 3,173G)
getthemoneyz: 12G (0.2%, 588,682G)

yellow bets:
LivingHitokiri: 4,859G (32.5%, 4,859G)
TheMurkGnome: 3,000G (20.0%, 8,392G)
HaplessOne: 2,222G (14.8%, 227,215G)
sinnyil2: 1,200G (8.0%, 30,676G)
vorap: 1,000G (6.7%, 16,983G)
Breakdown777: 500G (3.3%, 26,722G)
zunath: 400G (2.7%, 1,389G)
NovaKnight21: 376G (2.5%, 376G)
Sovattaro: 300G (2.0%, 1,755G)
noheropage: 204G (1.4%, 204G)
Heroebal: 200G (1.3%, 2,688G)
Squatting_Bear: 104G (0.7%, 104G)
DrAntiSocial: 101G (0.7%, 21,698G)
DeathTaxesAndAnime: 100G (0.7%, 8,070G)
GrayGhostGaming: 100G (0.7%, 9,359G)
twelfthrootoftwo: 100G (0.7%, 3,718G)
datadrivenbot: 100G (0.7%, 2,421G)
FriendSquirrel: 100G (0.7%, 30,390G)
