Final Bets: yellow - 24 bets for 8,524G (29.7%, x2.37); black - 27 bets for 20,222G (70.3%, x0.42)

yellow bets:
vorap: 1,500G (17.6%, 18,575G)
Aldrammech: 1,000G (11.7%, 102,390G)
LivingHitokiri: 1,000G (11.7%, 8,044G)
animefan112233: 688G (8.1%, 4,688G)
volgrathemoose: 501G (5.9%, 3,306G)
Breakdown777: 500G (5.9%, 27,760G)
noheropage: 396G (4.6%, 396G)
Chuckolator: 305G (3.6%, 32,074G)
DeathTaxesAndAnime: 300G (3.5%, 8,622G)
TheRylander: 300G (3.5%, 5,466G)
SA_Zone: 250G (2.9%, 1,785G)
gorgewall: 200G (2.3%, 4,967G)
benticore: 200G (2.3%, 265G)
mesmaster: 200G (2.3%, 1,487G)
skuldar: 200G (2.3%, 2,374G)
Squatting_Bear: 158G (1.9%, 158G)
FoeSquirrel: 142G (1.7%, 284G)
getthemoneyz: 108G (1.3%, 588,684G)
Jahshine: 100G (1.2%, 4,226G)
run_with_STONE_GUNS: 100G (1.2%, 5,126G)
GrayGhostGaming: 100G (1.2%, 10,415G)
HokTuey: 100G (1.2%, 3,100G)
Heroebal: 100G (1.2%, 3,793G)
ZephyrTempest: 76G (0.9%, 509G)

black bets:
Pie108: 2,000G (9.9%, 266,681G)
WireLord: 2,000G (9.9%, 20,510G)
Fenrislfr: 1,314G (6.5%, 1,314G)
Shalloween: 1,300G (6.4%, 74,645G)
sinnyil2: 1,209G (6.0%, 32,309G)
KasugaiRoastedPeas: 1,200G (5.9%, 11,318G)
Baron_von_Scrub: 1,111G (5.5%, 93,661G)
ProdigyAzn: 1,000G (4.9%, 4,759G)
ungabunga_bot: 1,000G (4.9%, 259,820G)
HaateXIII: 1,000G (4.9%, 109,264G)
TheMurkGnome: 1,000G (4.9%, 11,284G)
powergems: 750G (3.7%, 21,846G)
EnemyController: 750G (3.7%, 141,691G)
DustBirdEX: 666G (3.3%, 11,851G)
BirbBrainsBot: 636G (3.1%, 636G)
roofiepops: 555G (2.7%, 7,869G)
DejaPoo21: 500G (2.5%, 21,425G)
JumbocactuarX27: 500G (2.5%, 6,154G)
zunath: 400G (2.0%, 2,099G)
nuka1120: 400G (2.0%, 754G)
Jondee10: 331G (1.6%, 331G)
FriendSquirrel: 100G (0.5%, 30,942G)
DarrenDinosaurs: 100G (0.5%, 12,896G)
Bojanges: 100G (0.5%, 5,147G)
twelfthrootoftwo: 100G (0.5%, 3,797G)
SeniorBunk: 100G (0.5%, 5,096G)
datadrivenbot: 100G (0.5%, 2,500G)
