Final Bets: red - 17 bets for 7,160G (37.9%, x1.64); blue - 14 bets for 11,741G (62.1%, x0.61)

red bets:
Grimmace45: 2,190G (30.6%, 7,761G)
BirbBrainsBot: 1,000G (14.0%, 178,826G)
SarrgeQc: 501G (7.0%, 1,636G)
Dymntd: 500G (7.0%, 17,826G)
gorgewall: 500G (7.0%, 16,741G)
Breakdown777: 500G (7.0%, 17,483G)
Baron_von_Scrub: 324G (4.5%, 324G)
HaateXIII: 317G (4.4%, 622G)
uncharreted: 229G (3.2%, 229G)
VarkilTV: 212G (3.0%, 212G)
RunicMagus: 200G (2.8%, 34,110G)
ungabunga_bot: 187G (2.6%, 311,767G)
nifboy: 100G (1.4%, 5,052G)
Lali_Lulelo: 100G (1.4%, 34,340G)
ANFz: 100G (1.4%, 27,453G)
Bioticism: 100G (1.4%, 11,336G)
evdoggity: 100G (1.4%, 5,561G)

blue bets:
catfashions: 2,761G (23.5%, 2,761G)
killth3kid: 2,000G (17.0%, 60,535G)
DeathTaxesAndAnime: 1,509G (12.9%, 2,959G)
genericco: 1,047G (8.9%, 2,054G)
jakeduhhsnake: 1,000G (8.5%, 72,415G)
volgrathemoose: 774G (6.6%, 774G)
WrathfulRemy: 590G (5.0%, 590G)
Goust18: 560G (4.8%, 11,227G)
ShintaroNayaka: 500G (4.3%, 3,124G)
grisanbela: 400G (3.4%, 1,516G)
Squatting_Bear: 300G (2.6%, 3,066G)
maakur_: 100G (0.9%, 117,469G)
bairen0: 100G (0.9%, 104G)
datadrivenbot: 100G (0.9%, 12,680G)
