Final Bets: green - 17 bets for 12,303G (50.2%, x0.99); yellow - 19 bets for 12,227G (49.8%, x1.01)

green bets:
catfashions: 2,222G (18.1%, 4,445G)
Dymntd: 2,000G (16.3%, 16,326G)
DeathTaxesAndAnime: 1,978G (16.1%, 3,879G)
Hamborn: 1,000G (8.1%, 56,678G)
J2DaBibbles: 1,000G (8.1%, 15,113G)
ShintaroNayaka: 1,000G (8.1%, 3,429G)
ColetteMSLP: 800G (6.5%, 32,913G)
volgrathemoose: 623G (5.1%, 1,246G)
Arlum: 553G (4.5%, 553G)
JoeykinsGaming: 400G (3.3%, 11,826G)
midori_ribbon: 201G (1.6%, 2,297G)
uncharreted: 108G (0.9%, 108G)
VarkilTV: 100G (0.8%, 100G)
TJ_FordCDN: 100G (0.8%, 7,647G)
Bioticism: 100G (0.8%, 11,236G)
evdoggity: 100G (0.8%, 5,461G)
getthemoneyz: 18G (0.1%, 609,123G)

yellow bets:
Pie108: 2,000G (16.4%, 159,875G)
killth3kid: 2,000G (16.4%, 61,755G)
ungabunga_bot: 1,000G (8.2%, 311,580G)
Mesmaster: 1,000G (8.2%, 39,767G)
jakeduhhsnake: 1,000G (8.2%, 73,025G)
DLJuggernaut: 636G (5.2%, 636G)
HaateXIII: 544G (4.4%, 544G)
SarrgeQc: 501G (4.1%, 1,135G)
Breakdown777: 500G (4.1%, 16,983G)
gorgewall: 500G (4.1%, 16,241G)
Fenrislfr: 466G (3.8%, 466G)
ZephyrTempest: 456G (3.7%, 894G)
helpimabug: 370G (3.0%, 740G)
Squatting_Bear: 300G (2.5%, 3,249G)
hydroshade: 250G (2.0%, 2,159G)
BirbBrainsBot: 204G (1.7%, 177,826G)
WrathfulRemy: 200G (1.6%, 950G)
Primeval_33: 200G (1.6%, 2,815G)
datadrivenbot: 100G (0.8%, 12,741G)
