Final Bets: white - 17 bets for 9,234G (20.5%, x3.87); champion - 28 bets for 35,715G (79.5%, x0.26)

white bets:
killth3kid: 2,000G (21.7%, 67,205G)
Grimmace45: 1,327G (14.4%, 5,311G)
BirbBrainsBot: 1,000G (10.8%, 175,360G)
DLJuggernaut: 1,000G (10.8%, 2,911G)
gooseyourself: 866G (9.4%, 866G)
crimson_hellkite: 500G (5.4%, 8,000G)
Dymntd: 500G (5.4%, 19,640G)
waterwatereverywhere: 420G (4.5%, 420G)
jkung8: 306G (3.3%, 306G)
gorgewall: 300G (3.2%, 17,454G)
uncharreted: 242G (2.6%, 242G)
madman66666: 231G (2.5%, 231G)
RunicMagus: 200G (2.2%, 33,710G)
maakur_: 100G (1.1%, 117,637G)
nifboy: 100G (1.1%, 5,284G)
ANFz: 100G (1.1%, 27,705G)
ZephyrTempest: 42G (0.5%, 850G)

champion bets:
sparsuvar: 13,384G (37.5%, 13,384G)
MantisFinch: 3,000G (8.4%, 33,589G)
Mesmaster: 3,000G (8.4%, 35,937G)
jakeduhhsnake: 2,000G (5.6%, 79,603G)
hydroshade: 1,750G (4.9%, 3,022G)
RyuTsuno: 1,731G (4.8%, 6,925G)
Bioticism: 1,719G (4.8%, 9,955G)
roofiepops: 1,555G (4.4%, 9,394G)
genericco: 1,320G (3.7%, 1,320G)
catfashions: 800G (2.2%, 800G)
WrathfulRemy: 600G (1.7%, 1,540G)
SarrgeQc: 501G (1.4%, 2,680G)
volgrathemoose: 501G (1.4%, 4,404G)
Majatok: 500G (1.4%, 801G)
Breakdown777: 500G (1.4%, 16,582G)
NovaKnight21: 500G (1.4%, 2,332G)
ccordc: 433G (1.2%, 2,167G)
ungabunga_bot: 396G (1.1%, 311,340G)
Humble_Fabio: 333G (0.9%, 1,298G)
Squatting_Bear: 300G (0.8%, 3,251G)
ACSpree: 268G (0.8%, 268G)
bairen0: 104G (0.3%, 104G)
VarkilTV: 100G (0.3%, 100G)
FoeSquirrel: 100G (0.3%, 2,415G)
Tougou: 100G (0.3%, 6,933G)
datadrivenbot: 100G (0.3%, 12,960G)
DrAntiSocial: 100G (0.3%, 8,054G)
getthemoneyz: 20G (0.1%, 607,850G)
