Final Bets: white - 33 bets for 25,247G (66.6%, x0.50); black - 22 bets for 12,638G (33.4%, x2.00)

white bets:
AniZero: 5,000G (19.8%, 51,434G)
Kobold_Jager: 2,388G (9.5%, 2,388G)
Mtueni: 2,000G (7.9%, 177,951G)
Evewho: 1,696G (6.7%, 3,392G)
Willjin: 1,500G (5.9%, 14,198G)
DustBirdEX: 1,200G (4.8%, 6,580G)
mirapoix: 1,175G (4.7%, 2,350G)
DaveStrider55: 1,121G (4.4%, 1,121G)
Djorama: 1,000G (4.0%, 6,964G)
BirbBrainsBot: 941G (3.7%, 146,248G)
Vampire_Killer: 858G (3.4%, 2,602G)
Laserman1000: 684G (2.7%, 12,184G)
TheGuesty: 602G (2.4%, 602G)
fenixcrest: 598G (2.4%, 5,980G)
OmnibotGamma: 500G (2.0%, 6,196G)
HaateXIII: 500G (2.0%, 4,759G)
Lordminsc: 416G (1.6%, 416G)
Meta_Five: 400G (1.6%, 8,836G)
omegasuspekt: 384G (1.5%, 384G)
rico_flex: 300G (1.2%, 6,552G)
Anomandaris__: 300G (1.2%, 3,436G)
ZephyrTempest: 232G (0.9%, 59,858G)
RubenFlonne: 200G (0.8%, 3,658G)
electric_glass: 200G (0.8%, 5,355G)
Kronikle: 200G (0.8%, 6,579G)
Rogueain: 200G (0.8%, 4,213G)
getthemoneyz: 140G (0.6%, 496,868G)
ThePuss: 112G (0.4%, 112G)
maakur_: 100G (0.4%, 3,596G)
MyFakeLife: 100G (0.4%, 29,667G)
rjA0zcOQ96: 100G (0.4%, 7,893G)
itzover9001: 50G (0.2%, 500G)
cougboi: 50G (0.2%, 13,148G)

black bets:
deenglow: 2,500G (19.8%, 19,777G)
HASTERIOUS: 1,686G (13.3%, 3,306G)
sinnyil2: 1,200G (9.5%, 21,927G)
volgrathemoose: 1,001G (7.9%, 3,879G)
ko2q: 1,000G (7.9%, 13,283G)
ANFz: 867G (6.9%, 1,734G)
Shalloween: 800G (6.3%, 32,618G)
DudeMonkey77: 555G (4.4%, 7,308G)
arch8000: 505G (4.0%, 16,838G)
MoonSlayerRS: 448G (3.5%, 448G)
Baron_von_Scrub: 416G (3.3%, 416G)
JackOnFire1: 375G (3.0%, 375G)
JoeykinsGaming: 200G (1.6%, 6,503G)
Aneyus: 187G (1.5%, 18,706G)
RunicMagus: 150G (1.2%, 821G)
ungabunga_bot: 145G (1.1%, 139,758G)
datadrivenbot: 144G (1.1%, 144G)
metagameface: 104G (0.8%, 104G)
AllInBot: 100G (0.8%, 100G)
Lodrak: 100G (0.8%, 2,604G)
ApplesauceBoss: 100G (0.8%, 4,968G)
daveb_: 55G (0.4%, 1,945G)
