Final Bets: white - 10 bets for 11,266G (60.2%, x0.66); black - 17 bets for 7,461G (39.8%, x1.51)

white bets:
SkylerBunny: 5,000G (44.4%, 142,744G)
killth3kid: 1,633G (14.5%, 16,330G)
MagicBottle: 1,000G (8.9%, 8,239G)
NovaKnight21: 1,000G (8.9%, 4,462G)
Baron_von_Scrub: 837G (7.4%, 1,675G)
roofiepops: 810G (7.2%, 810G)
TheChainNerd: 579G (5.1%, 3,279G)
ZCKaiser: 207G (1.8%, 414G)
E_Ballard: 100G (0.9%, 7,936G)
silentkaster: 100G (0.9%, 926G)

black bets:
Lydian_C: 1,200G (16.1%, 16,737G)
KittymanAdvance: 1,157G (15.5%, 1,157G)
getthemoneyz: 1,000G (13.4%, 958,519G)
BirbBrainsBot: 1,000G (13.4%, 28,920G)
kaidykat: 1,000G (13.4%, 26,733G)
NightwolfXVI: 361G (4.8%, 361G)
Azelgrim: 324G (4.3%, 324G)
Rytor: 272G (3.6%, 272G)
Flameatron: 200G (2.7%, 6,911G)
DeadGirlzREasy: 200G (2.7%, 22,385G)
Saouri: 200G (2.7%, 777G)
AllInBot: 100G (1.3%, 100G)
ko2q: 100G (1.3%, 8,640G)
datadrivenbot: 100G (1.3%, 39,164G)
s_o_b_e_q: 100G (1.3%, 1,454G)
Sans_from_Snowdin: 100G (1.3%, 14,902G)
AltimaMantoid: 47G (0.6%, 447G)
