Final Bets: green - 9 bets for 4,561G (47.1%, x1.12); yellow - 8 bets for 5,116G (52.9%, x0.89)

green bets:
Mushufasa_: 1,234G (27.1%, 19,253G)
DeathTaxesAndAnime: 976G (21.4%, 976G)
Rune339: 570G (12.5%, 5,707G)
ColetteMSLP: 512G (11.2%, 7,101G)
ValensEXP_: 480G (10.5%, 480G)
Humble_Fabio: 333G (7.3%, 4,536G)
datadrivenbot: 200G (4.4%, 82,455G)
NightwolfXVI: 156G (3.4%, 156G)
BrandNewFP: 100G (2.2%, 1,048G)

yellow bets:
BirbBrainsBot: 1,000G (19.5%, 158,128G)
getthemoneyz: 1,000G (19.5%, 2,201,331G)
mindblownnnn: 1,000G (19.5%, 28,443G)
HorusTaurus: 605G (11.8%, 605G)
run_with_stone_GUNs: 512G (10.0%, 22,564G)
Lolthsmeat: 352G (6.9%, 566G)
ar_tactic: 350G (6.8%, 71,025G)
AllInBot: 297G (5.8%, 297G)
