Final Bets: white - 5 bets for 5,251G (46.9%, x1.13); purple - 10 bets for 5,941G (53.1%, x0.88)

white bets:
DeathTaxesAndAnime: 4,363G (83.1%, 8,555G)
ValensEXP_: 480G (9.1%, 480G)
AllInBot: 200G (3.8%, 200G)
rkane398: 108G (2.1%, 108G)
HorusTaurus: 100G (1.9%, 883G)

purple bets:
Mushufasa_: 1,234G (20.8%, 18,513G)
dogsandcatsand: 1,186G (20.0%, 1,186G)
BirbBrainsBot: 1,000G (16.8%, 156,228G)
Humble_Fabio: 777G (13.1%, 3,467G)
krombobreaker: 500G (8.4%, 42,996G)
Synahel: 500G (8.4%, 2,213G)
getthemoneyz: 344G (5.8%, 2,198,876G)
datadrivenbot: 200G (3.4%, 82,335G)
readdesert: 100G (1.7%, 1,984G)
CosmicTactician: 100G (1.7%, 1,674G)
