Final Bets: white - 8 bets for 3,723G (31.7%, x2.15); black - 15 bets for 8,012G (68.3%, x0.46)

white bets:
BirbBrainsBot: 1,000G (26.9%, 144,767G)
Gilghana: 1,000G (26.9%, 9,732G)
khelor_: 500G (13.4%, 12,952G)
Evewho: 500G (13.4%, 7,852G)
getthemoneyz: 322G (8.6%, 2,236,670G)
gorgewall: 201G (5.4%, 11,515G)
king_smashington: 100G (2.7%, 2,645G)
jimm_bob: 100G (2.7%, 100G)

black bets:
Mushufasa_: 1,234G (15.4%, 51,425G)
Error72: 788G (9.8%, 788G)
Runeseeker22: 759G (9.5%, 15,194G)
YowaneHaku: 700G (8.7%, 2,712G)
Willjin: 600G (7.5%, 41,473G)
dogsandcatsand: 596G (7.4%, 596G)
ColetteMSLP: 544G (6.8%, 12,214G)
krombobreaker: 500G (6.2%, 48,311G)
JethroThrul: 500G (6.2%, 5,935G)
skinny666: 500G (6.2%, 2,761G)
AllInBot: 423G (5.3%, 423G)
TheBrett: 368G (4.6%, 13,228G)
datadrivenbot: 200G (2.5%, 85,448G)
Leonidusx: 200G (2.5%, 559,408G)
BlackAceBB: 100G (1.2%, 2,057G)
