Final Bets: green - 22 bets for 12,657G (58.5%, x0.71); yellow - 15 bets for 8,965G (41.5%, x1.41)

green bets:
MLWebz0r: 2,460G (19.4%, 2,460G)
NIghtdew14: 1,500G (11.9%, 60,973G)
TheChainNerd: 1,291G (10.2%, 1,291G)
ruleof5: 1,000G (7.9%, 13,379G)
rabbitlogik: 1,000G (7.9%, 3,293G)
Laserman1000: 988G (7.8%, 1,939G)
prince_rogers_nelson_: 956G (7.6%, 956G)
twelfthrootoftwo: 660G (5.2%, 660G)
killth3kid: 512G (4.0%, 856G)
Miku_Shikhu: 340G (2.7%, 340G)
Xoomwaffle: 332G (2.6%, 5,341G)
Treafa: 308G (2.4%, 308G)
gorgewall: 201G (1.6%, 7,322G)
super_robo_mg: 200G (1.6%, 481G)
datadrivenbot: 200G (1.6%, 39,491G)
Chaerie: 150G (1.2%, 334G)
Webb_MD: 140G (1.1%, 140G)
slotheye17: 108G (0.9%, 108G)
fluffskull: 101G (0.8%, 1,199G)
ANFz: 100G (0.8%, 57,153G)
Hirameki85: 100G (0.8%, 3,600G)
nhammen: 10G (0.1%, 14,384G)

yellow bets:
DeathTaxesAndAnime: 1,612G (18.0%, 1,612G)
Shalloween: 1,400G (15.6%, 89,316G)
BirbBrainsBot: 1,000G (11.2%, 94,682G)
coralreeferz: 1,000G (11.2%, 33,837G)
Thyrandaal: 1,000G (11.2%, 231,205G)
Lanshaft: 512G (5.7%, 21,812G)
letdowncity: 444G (5.0%, 444G)
DAC169: 443G (4.9%, 443G)
douchetron: 401G (4.5%, 401G)
getthemoneyz: 372G (4.1%, 1,393,198G)
resjudicata3: 224G (2.5%, 224G)
AllInBot: 200G (2.2%, 200G)
muffin_money: 150G (1.7%, 8,602G)
ArlanKels: 107G (1.2%, 3,572G)
drkarma503: 100G (1.1%, 100G)
