Final Bets: red - 18 bets for 11,071G (31.0%, x2.23); brown - 13 bets for 24,639G (69.0%, x0.45)

red bets:
Thyrandaal: 3,333G (30.1%, 231,617G)
rabbitlogik: 1,000G (9.0%, 2,645G)
BirbBrainsBot: 1,000G (9.0%, 97,194G)
Laserman1000: 922G (8.3%, 922G)
prince_rogers_nelson_: 576G (5.2%, 576G)
douchetron: 524G (4.7%, 524G)
TheMurkGnome: 520G (4.7%, 520G)
Aldrammech: 500G (4.5%, 10,485G)
Miku_Shikhu: 461G (4.2%, 461G)
DAC169: 400G (3.6%, 400G)
Error72: 368G (3.3%, 368G)
Chaerie: 366G (3.3%, 366G)
Humble_Fabio: 333G (3.0%, 2,924G)
datadrivenbot: 200G (1.8%, 38,875G)
nhammen: 200G (1.8%, 14,515G)
Hirameki85: 146G (1.3%, 3,846G)
getthemoneyz: 122G (1.1%, 1,394,326G)
chapchansan: 100G (0.9%, 1,825G)

brown bets:
omegasuspekt: 10,293G (41.8%, 20,587G)
sinnyil2: 5,386G (21.9%, 10,772G)
Shalloween: 2,000G (8.1%, 98,088G)
coralreeferz: 2,000G (8.1%, 34,139G)
Xoomwaffle: 1,250G (5.1%, 4,969G)
fluffskull: 1,098G (4.5%, 1,098G)
AllInBot: 704G (2.9%, 704G)
letdowncity: 444G (1.8%, 444G)
ArlanKels: 410G (1.7%, 4,103G)
Treafa: 308G (1.3%, 1,262G)
ruleof5: 300G (1.2%, 12,854G)
resjudicata3: 300G (1.2%, 1,385G)
slotheye17: 146G (0.6%, 146G)
