Final Bets: green - 18 bets for 14,056G (67.6%, x0.48); yellow - 17 bets for 6,734G (32.4%, x2.09)

green bets:
genericco: 2,528G (18.0%, 2,528G)
NicoSavoy: 2,000G (14.2%, 50,226G)
Kyune: 1,601G (11.4%, 1,601G)
Rislyeu: 1,479G (10.5%, 2,959G)
Bulleta: 1,120G (8.0%, 1,120G)
Mesmaster: 1,000G (7.1%, 67,968G)
LivingHitokiri: 1,000G (7.1%, 14,344G)
BirbBrainsBot: 1,000G (7.1%, 177,135G)
GnielKnows: 444G (3.2%, 1,777G)
AllInBot: 385G (2.7%, 385G)
mardokttv: 300G (2.1%, 5,149G)
rednecknazgul: 299G (2.1%, 299G)
otakutaylor: 200G (1.4%, 2,579G)
dowdlron: 200G (1.4%, 574G)
TeaTime29: 200G (1.4%, 385G)
datadrivenbot: 100G (0.7%, 19,719G)
Heroebal: 100G (0.7%, 8,542G)
Firesheath: 100G (0.7%, 932G)

yellow bets:
HaplessOne: 1,111G (16.5%, 277,969G)
roofiepops: 1,000G (14.9%, 8,139G)
HASTERIOUS: 622G (9.2%, 12,449G)
kaidykat: 600G (8.9%, 6,000G)
CorpusCav: 501G (7.4%, 8,786G)
Klednar21: 500G (7.4%, 620G)
YaBoy125: 420G (6.2%, 2,040G)
electric_algus: 333G (4.9%, 7,103G)
helpimabug: 280G (4.2%, 280G)
nifboy: 250G (3.7%, 12,361G)
Phytik: 240G (3.6%, 240G)
Zachara: 220G (3.3%, 89,770G)
gorgewall: 201G (3.0%, 10,833G)
getthemoneyz: 156G (2.3%, 727,803G)
Dymntd: 100G (1.5%, 22,307G)
TheMM42: 100G (1.5%, 22,552G)
puerfleur: 100G (1.5%, 580G)
