Final Bets: green - 23 bets for 18,050G (54.0%, x0.85); yellow - 17 bets for 15,368G (46.0%, x1.17)

green bets:
Shalloween: 3,180G (17.6%, 6,236G)
superdevon1: 2,124G (11.8%, 2,124G)
gooseyourself: 2,000G (11.1%, 19,100G)
killth3kid: 2,000G (11.1%, 54,763G)
LanseDM: 1,200G (6.6%, 24,805G)
volgrathemoose: 1,001G (5.5%, 8,872G)
Aldrammech: 1,000G (5.5%, 8,867G)
getthemoneyz: 850G (4.7%, 615,104G)
YaBoy125: 792G (4.4%, 792G)
Phi_Sig: 555G (3.1%, 147,185G)
SarrgeQc: 501G (2.8%, 2,371G)
ZephyrTempest: 456G (2.5%, 876G)
Kronikle: 388G (2.1%, 388G)
SolarisFall: 328G (1.8%, 328G)
Tithonus: 308G (1.7%, 308G)
ACSpree: 264G (1.5%, 264G)
cgMcWhiskers: 252G (1.4%, 252G)
Estan_AD: 250G (1.4%, 4,672G)
KasugaiRoastedPeas: 200G (1.1%, 3,183G)
rjA0zcOQ96: 101G (0.6%, 25,694G)
Rislyeu: 100G (0.6%, 1,622G)
ANFz: 100G (0.6%, 26,576G)
datadrivenbot: 100G (0.6%, 11,386G)

yellow bets:
onetrickwolf: 4,000G (26.0%, 48,209G)
fenaen: 2,434G (15.8%, 2,434G)
DeathTaxesAndAnime: 1,555G (10.1%, 1,555G)
ungabunga_bot: 1,000G (6.5%, 293,546G)
BirbBrainsBot: 1,000G (6.5%, 170,214G)
manc0_: 1,000G (6.5%, 6,884G)
Lionhermit: 1,000G (6.5%, 28,181G)
twelfthrootoftwo: 702G (4.6%, 702G)
DustBirdEX: 532G (3.5%, 992G)
Khirani: 500G (3.3%, 1,000G)
argentbast: 500G (3.3%, 10,400G)
hydroshade: 345G (2.2%, 345G)
Mullet_Knight: 300G (2.0%, 6,461G)
DaMadPanda182: 200G (1.3%, 21,110G)
maakur_: 100G (0.7%, 117,504G)
CosmicTactician: 100G (0.7%, 16,222G)
sphintus_koyote: 100G (0.7%, 9,355G)
