Final Bets: white - 13 bets for 10,113G (59.4%, x0.68); black - 8 bets for 6,901G (40.6%, x1.47)

white bets:
Evewho: 3,843G (38.0%, 3,843G)
evontno: 2,000G (19.8%, 20,000G)
killth3kid: 1,000G (9.9%, 68,723G)
BirbBrainsBot: 1,000G (9.9%, 52,581G)
DamnThatShark: 500G (4.9%, 3,127G)
Digitalsocrates: 408G (4.0%, 2,002G)
Lemonjohns: 300G (3.0%, 3,113G)
dem0nj0ns: 216G (2.1%, 216G)
Treafa: 204G (2.0%, 204G)
datadrivenbot: 200G (2.0%, 63,151G)
dantayystv: 200G (2.0%, 2,127G)
getthemoneyz: 142G (1.4%, 1,263,232G)
fluffskull: 100G (1.0%, 1,379G)

black bets:
Ring_Wyrm: 3,516G (50.9%, 3,516G)
Mesmaster: 1,000G (14.5%, 54,864G)
evdoggity: 1,000G (14.5%, 86,857G)
Lythe_Caraker: 500G (7.2%, 149,312G)
bruubarg: 352G (5.1%, 352G)
randgridr: 264G (3.8%, 2,832G)
byrdturbo: 169G (2.4%, 23,707G)
Firesheath: 100G (1.4%, 1,556G)
