Final Bets: white - 22 bets for 18,973G (83.3%, x0.20); purple - 9 bets for 3,795G (16.7%, x5.00)

white bets:
Bryon_W: 5,000G (26.4%, 14,312G)
fenixcrest: 2,577G (13.6%, 2,577G)
athros13: 1,495G (7.9%, 1,495G)
ApplesauceBoss: 1,413G (7.4%, 1,413G)
kai_shee: 1,001G (5.3%, 120,367G)
Lord_Burrah: 1,000G (5.3%, 92,979G)
datadrivenbot: 835G (4.4%, 24,088G)
YaBoy125: 818G (4.3%, 818G)
Draconis345: 797G (4.2%, 797G)
UmaiJam: 596G (3.1%, 596G)
BirbBrainsBot: 537G (2.8%, 79,283G)
ForagerCats: 500G (2.6%, 7,126G)
ungabunga_bot: 458G (2.4%, 118,959G)
friendsquirrel: 412G (2.2%, 412G)
HASTERIOUS: 324G (1.7%, 324G)
Slowbrofist: 324G (1.7%, 324G)
powergems: 300G (1.6%, 3,074G)
404namesnotfound: 280G (1.5%, 280G)
Namillus: 142G (0.7%, 510G)
maakur_: 100G (0.5%, 5,700G)
tmo50x: 50G (0.3%, 2,736G)
getthemoneyz: 14G (0.1%, 479,944G)

purple bets:
DrAntiSocial: 839G (22.1%, 839G)
mexskacin: 692G (18.2%, 692G)
superdevon1: 582G (15.3%, 11,640G)
ColetteMSLP: 500G (13.2%, 24,124G)
MoonSlayerRS: 440G (11.6%, 440G)
Sitiran: 279G (7.4%, 531G)
AllInBot: 259G (6.8%, 259G)
Kojigawatz: 104G (2.7%, 104G)
Treapvort: 100G (2.6%, 1,390G)
