Final Bets: blue - 10 bets for 4,368G (26.9%, x2.72); yellow - 14 bets for 11,875G (73.1%, x0.37)

blue bets:
kai_shee: 1,001G (22.9%, 142,023G)
Aldrammech: 1,000G (22.9%, 49,804G)
BirbBrainsBot: 1,000G (22.9%, 1,374G)
Nizaha: 501G (11.5%, 6,250G)
Lanshaft: 328G (7.5%, 3,333G)
Mudrockk: 200G (4.6%, 950G)
AllInBot: 100G (2.3%, 100G)
mexskacin: 100G (2.3%, 7,512G)
Evewho: 100G (2.3%, 3,009G)
getthemoneyz: 38G (0.9%, 514,368G)

yellow bets:
Baron_von_Scrub: 3,333G (28.1%, 99,322G)
volgrathemoose: 2,001G (16.9%, 161,550G)
ColetteMSLP: 2,000G (16.8%, 54,926G)
catfashions: 1,000G (8.4%, 21,133G)
fenixcrest: 732G (6.2%, 7,329G)
ungabunga_bot: 652G (5.5%, 177,241G)
TheGuesty: 629G (5.3%, 14,629G)
ShintaroNayaka: 600G (5.1%, 21,589G)
SwaffleWaffles: 529G (4.5%, 17,640G)
aStatue: 200G (1.7%, 4,762G)
datadrivenbot: 100G (0.8%, 589G)
gorgewall: 50G (0.4%, 6,272G)
popotinha1889: 26G (0.2%, 226G)
roqqqpsi: 23G (0.2%, 1,199G)
