Final Bets: white - 7 bets for 5,228G (33.3%, x2.00); black - 13 bets for 10,465G (66.7%, x0.50)

white bets:
toka222: 2,600G (49.7%, 114,642G)
BirbBrainsBot: 1,000G (19.1%, 15,342G)
Blaster_Bomb: 500G (9.6%, 500G)
gooblz: 500G (9.6%, 23,644G)
iBardic: 280G (5.4%, 280G)
datadrivenbot: 200G (3.8%, 70,198G)
ff7g00ru: 148G (2.8%, 148G)

black bets:
gorgewall: 3,497G (33.4%, 3,497G)
lowlf: 3,094G (29.6%, 3,094G)
getthemoneyz: 1,000G (9.6%, 1,654,441G)
blorpy_: 794G (7.6%, 19,868G)
Laserman1000: 500G (4.8%, 5,000G)
silentkaster: 500G (4.8%, 2,500G)
WhiteTigress: 376G (3.6%, 376G)
holdenmagronik: 150G (1.4%, 2,028G)
ryjelsum: 150G (1.4%, 987G)
CT_Remix: 104G (1.0%, 104G)
MinBetBot: 100G (1.0%, 6,011G)
AllInBot: 100G (1.0%, 100G)
ko2q: 100G (1.0%, 2,530G)
