Final Bets: blue - 20 bets for 11,991G (18.8%, x4.32); champion - 32 bets for 51,852G (81.2%, x0.23)

blue bets:
AllInBot: 3,626G (30.2%, 3,626G)
BirbBrainsBot: 1,000G (8.3%, 14,332G)
ForagerCats: 1,000G (8.3%, 9,142G)
LDSkinny: 1,000G (8.3%, 5,452G)
KetabrakBemos: 615G (5.1%, 4,115G)
gary_corson: 608G (5.1%, 608G)
Laserman1000: 515G (4.3%, 11,915G)
SeedSC: 420G (3.5%, 256,879G)
soapydragonfly: 414G (3.5%, 829G)
Meta_Five: 400G (3.3%, 6,699G)
Sitiran: 360G (3.0%, 3,607G)
Pakars: 320G (2.7%, 3,203G)
Ausuri: 300G (2.5%, 13,928G)
ZephyrTempest: 265G (2.2%, 42,676G)
Chuckolator: 248G (2.1%, 5,823G)
KasugaiRoastedPeas: 200G (1.7%, 15,243G)
Cataphract116: 200G (1.7%, 2,691G)
old_overholt_: 200G (1.7%, 3,155G)
ThePineappleSalesman: 200G (1.7%, 10,056G)
mexskacin: 100G (0.8%, 524G)

champion bets:
Shakarak: 13,934G (26.9%, 27,322G)
Lord_Burrah: 4,450G (8.6%, 89,000G)
TheManInPlaid: 4,317G (8.3%, 4,317G)
wollise89: 2,639G (5.1%, 3,770G)
sinnyil2: 2,200G (4.2%, 4,401G)
upvla: 2,190G (4.2%, 15,856G)
L2_Sentinel: 2,000G (3.9%, 17,675G)
LavyWays: 2,000G (3.9%, 26,163G)
MrDiggs49: 1,921G (3.7%, 1,921G)
roqqqpsi: 1,555G (3.0%, 7,585G)
leakimiko: 1,516G (2.9%, 30,335G)
Nizaha: 1,512G (2.9%, 3,024G)
Lanshaft: 1,338G (2.6%, 1,338G)
kingchadking: 1,061G (2.0%, 1,061G)
TheChainNerd: 1,000G (1.9%, 3,900G)
TheOneRanger: 1,000G (1.9%, 12,643G)
MantisFinch: 1,000G (1.9%, 14,722G)
joewcarson: 1,000G (1.9%, 2,858G)
HaateXIII: 820G (1.6%, 820G)
urieltheflameofgod: 785G (1.5%, 7,858G)
Skarthe: 764G (1.5%, 764G)
DeathTaxesAndAnime: 664G (1.3%, 664G)
Shalloween: 600G (1.2%, 18,727G)
ColetteMSLP: 400G (0.8%, 12,175G)
TheGuesty: 350G (0.7%, 3,430G)
CapnChaos12: 300G (0.6%, 5,476G)
ungabunga_bot: 131G (0.3%, 86,463G)
friendsquirrel: 100G (0.2%, 7,266G)
maakur_: 100G (0.2%, 4,830G)
Lodrak: 100G (0.2%, 3,882G)
datadrivenbot: 100G (0.2%, 24,324G)
ko2q: 5G (0.0%, 7,848G)
