Final Bets: green - 23 bets for 16,480G (64.5%, x0.55); yellow - 16 bets for 9,064G (35.5%, x1.82)

green bets:
sinnyil2: 1,947G (11.8%, 1,947G)
Laserman1000: 1,781G (10.8%, 1,781G)
KasugaiRoastedPeas: 1,100G (6.7%, 1,100G)
BirbBrainsBot: 1,000G (6.1%, 89,138G)
Aldrammech: 1,000G (6.1%, 30,801G)
TheGuesty: 1,000G (6.1%, 31,400G)
JIDkomu: 1,000G (6.1%, 3,110G)
Mesmaster: 1,000G (6.1%, 17,734G)
Lionhermit: 1,000G (6.1%, 50,384G)
NicoSavoy: 951G (5.8%, 951G)
Grimmace45: 864G (5.2%, 864G)
Sentwist: 604G (3.7%, 604G)
Fenrislfr: 524G (3.2%, 524G)
CorpusCav: 500G (3.0%, 3,106G)
ZephyrTempest: 456G (2.8%, 1,104G)
Baron_von_Scrub: 353G (2.1%, 5,405G)
twelfthrootoftwo: 300G (1.8%, 1,793G)
SulliedGraves: 300G (1.8%, 1,634G)
turquoise_mage: 300G (1.8%, 476G)
Primeval_33: 200G (1.2%, 5,644G)
moonliquor: 100G (0.6%, 7,316G)
maakur_: 100G (0.6%, 119,234G)
datadrivenbot: 100G (0.6%, 12,431G)

yellow bets:
HaateXIII: 1,989G (21.9%, 3,901G)
Shalloween: 1,337G (14.8%, 1,337G)
ungabunga_bot: 1,000G (11.0%, 404,499G)
catfashions: 1,000G (11.0%, 35,101G)
volgrathemoose: 976G (10.8%, 976G)
FNCardascia_: 740G (8.2%, 740G)
getthemoneyz: 508G (5.6%, 642,816G)
CCRUNNER149UWP: 364G (4.0%, 364G)
gorgewall: 300G (3.3%, 8,490G)
Aremath: 200G (2.2%, 4,030G)
DISTROlD: 200G (2.2%, 2,069G)
Kyune: 100G (1.1%, 1,522G)
rjA0zcOQ96: 100G (1.1%, 17,707G)
ApplesauceBoss: 100G (1.1%, 8,267G)
corpus11: 100G (1.1%, 100G)
GnielKnows: 50G (0.6%, 11,468G)
