Final Bets: red - 14 bets for 11,679G (68.2%, x0.47); white - 17 bets for 5,452G (31.8%, x2.14)

red bets:
catfashions: 2,500G (21.4%, 37,284G)
killth3kid: 2,000G (17.1%, 36,664G)
Mesmaster: 2,000G (17.1%, 21,735G)
TheGuesty: 1,510G (12.9%, 32,910G)
sinnyil2: 1,058G (9.1%, 1,058G)
volgrathemoose: 1,001G (8.6%, 4,824G)
DarrenDinosaurs: 460G (3.9%, 460G)
ZephyrTempest: 456G (3.9%, 2,267G)
FNCardascia_: 244G (2.1%, 244G)
TheJonTerp: 100G (0.9%, 788G)
maakur_: 100G (0.9%, 119,652G)
Kyune: 100G (0.9%, 2,657G)
Majatok: 100G (0.9%, 592G)
CustomGameMaster: 50G (0.4%, 993G)

white bets:
Lionhermit: 1,000G (18.3%, 46,217G)
Shalloween: 970G (17.8%, 970G)
ibrakadabra_legend: 500G (9.2%, 20,714G)
NicoSavoy: 500G (9.2%, 2,442G)
vorap: 500G (9.2%, 26,384G)
BirbBrainsBot: 320G (5.9%, 91,721G)
twelfthrootoftwo: 300G (5.5%, 1,260G)
gorgewall: 200G (3.7%, 10,084G)
CorpusCav: 200G (3.7%, 2,626G)
ThePineappleSalesman: 200G (3.7%, 25,835G)
ungabunga_bot: 157G (2.9%, 405,920G)
genericco: 156G (2.9%, 156G)
rjA0zcOQ96: 100G (1.8%, 18,374G)
datadrivenbot: 100G (1.8%, 12,250G)
Aremath: 100G (1.8%, 5,012G)
daveb_: 77G (1.4%, 1,713G)
getthemoneyz: 72G (1.3%, 644,749G)
