Final Bets: white - 12 bets for 4,891G (20.1%, x3.98); champion - 23 bets for 19,482G (79.9%, x0.25)

white bets:
Shalloween: 1,554G (31.8%, 3,048G)
Lionhermit: 1,000G (20.4%, 48,359G)
volgrathemoose: 501G (10.2%, 3,823G)
DarrenDinosaurs: 460G (9.4%, 460G)
ZephyrTempest: 456G (9.3%, 1,811G)
JIDkomu: 320G (6.5%, 320G)
CorpusCav: 254G (5.2%, 3,054G)
TheJonTerp: 100G (2.0%, 688G)
Lali_Lulelo: 100G (2.0%, 39,812G)
Aremath: 100G (2.0%, 5,226G)
getthemoneyz: 26G (0.5%, 644,903G)
CustomGameMaster: 20G (0.4%, 943G)

champion bets:
catfashions: 4,000G (20.5%, 34,784G)
NicoSavoy: 3,513G (18.0%, 3,513G)
Mesmaster: 3,000G (15.4%, 19,735G)
TheGuesty: 1,400G (7.2%, 31,400G)
midori_ribbon: 1,250G (6.4%, 2,756G)
old_overholt_: 1,000G (5.1%, 7,581G)
EnemyController: 1,000G (5.1%, 202,375G)
Fenrislfr: 792G (4.1%, 792G)
Zeroroute: 600G (3.1%, 600G)
YaBoy125: 544G (2.8%, 4,544G)
CapnChaos12: 500G (2.6%, 51,138G)
Majatok: 492G (2.5%, 492G)
twelfthrootoftwo: 300G (1.5%, 1,903G)
gorgewall: 200G (1.0%, 10,512G)
FNCardascia_: 122G (0.6%, 244G)
ungabunga_bot: 121G (0.6%, 406,256G)
DeathTaxesAndAnime: 100G (0.5%, 21,816G)
maakur_: 100G (0.5%, 119,552G)
datadrivenbot: 100G (0.5%, 12,464G)
benticore: 100G (0.5%, 2,620G)
Imakuni: 100G (0.5%, 4,613G)
BirbBrainsBot: 98G (0.5%, 92,406G)
DrAntiSocial: 50G (0.3%, 8,600G)
