Final Bets: green - 12 bets for 5,899G (44.9%, x1.23); yellow - 17 bets for 7,231G (55.1%, x0.82)

green bets:
JumbocactuarX27: 1,039G (17.6%, 1,039G)
BirbBrainsBot: 1,000G (17.0%, 51,939G)
AllInBot: 880G (14.9%, 880G)
joewcarson: 500G (8.5%, 36,406G)
killth3kid: 436G (7.4%, 436G)
nifboy: 424G (7.2%, 424G)
KasugaiRoastedPeas: 400G (6.8%, 8,295G)
Phi_Sig: 380G (6.4%, 380G)
Akrae: 328G (5.6%, 328G)
ZCKaiser: 322G (5.5%, 322G)
MadnessR: 100G (1.7%, 3,885G)
username123132: 90G (1.5%, 362G)

yellow bets:
LDSkinny: 1,212G (16.8%, 1,212G)
getthemoneyz: 1,000G (13.8%, 961,542G)
fenaen: 800G (11.1%, 39,811G)
sinnyil2: 792G (11.0%, 792G)
DuraiPapers: 602G (8.3%, 602G)
BStarTV: 469G (6.5%, 469G)
TheChainNerd: 428G (5.9%, 428G)
Flameatron: 399G (5.5%, 9,639G)
CapnChaos12: 300G (4.1%, 9,381G)
RunicMagus: 200G (2.8%, 50,231G)
TeaTime29: 200G (2.8%, 11,114G)
ko2q: 199G (2.8%, 6,890G)
DeathTaxesAndAnime: 180G (2.5%, 1,823G)
Angelomortis: 150G (2.1%, 849G)
Nohurty: 100G (1.4%, 985G)
CosmicTactician: 100G (1.4%, 7,844G)
Firesheath: 100G (1.4%, 13,242G)
