Final Bets: purple - 18 bets for 14,175G (75.1%, x0.33); brown - 11 bets for 4,690G (24.9%, x3.02)

purple bets:
CCRUNNER149UWP: 5,555G (39.2%, 6,989G)
LDSkinny: 2,000G (14.1%, 4,062G)
killth3kid: 805G (5.7%, 805G)
Cryptopsy70: 544G (3.8%, 19,723G)
getthemoneyz: 512G (3.6%, 962,553G)
HaateXIII: 500G (3.5%, 500G)
CapnChaos12: 500G (3.5%, 9,626G)
IphoneDarkness: 500G (3.5%, 1,027G)
KasugaiRoastedPeas: 500G (3.5%, 7,475G)
Nohurty: 483G (3.4%, 967G)
Angelomortis: 410G (2.9%, 821G)
DeathTaxesAndAnime: 330G (2.3%, 1,970G)
Akrae: 324G (2.3%, 324G)
Flameatron: 300G (2.1%, 10,050G)
CorpusCav: 300G (2.1%, 1,720G)
CosmicTactician: 300G (2.1%, 7,826G)
docmitchphd: 212G (1.5%, 212G)
AllInBot: 100G (0.7%, 100G)

brown bets:
toka222: 1,100G (23.5%, 56,319G)
opHendoslice: 1,000G (21.3%, 3,765G)
MrFlabyo: 500G (10.7%, 28,829G)
joewcarson: 500G (10.7%, 35,406G)
TheChainNerd: 434G (9.3%, 434G)
BirbBrainsBot: 394G (8.4%, 51,785G)
DuraiPapers: 212G (4.5%, 212G)
ZCKaiser: 200G (4.3%, 436G)
muffin_money: 150G (3.2%, 3,279G)
BStarTV: 100G (2.1%, 100G)
ko2q: 100G (2.1%, 7,052G)
