Final Bets: blue - 17 bets for 7,544G (40.3%, x1.48); yellow - 13 bets for 11,198G (59.7%, x0.67)

blue bets:
red__lancer: 2,000G (26.5%, 91,792G)
killth3kid: 1,071G (14.2%, 1,071G)
BirbBrainsBot: 1,000G (13.3%, 51,391G)
Anasetsuken: 550G (7.3%, 15,504G)
Cryptopsy70: 544G (7.2%, 19,903G)
joewcarson: 500G (6.6%, 34,906G)
JumbocactuarX27: 384G (5.1%, 384G)
CorpusCav: 300G (4.0%, 1,819G)
DuraiPapers: 212G (2.8%, 212G)
Avin_Chaos: 200G (2.7%, 17,817G)
Angelomortis: 150G (2.0%, 957G)
AllInBot: 133G (1.8%, 133G)
ko2q: 100G (1.3%, 6,952G)
Nohurty: 100G (1.3%, 1,127G)
BStarTV: 100G (1.3%, 100G)
CosmicTactician: 100G (1.3%, 7,925G)
jojo2k: 100G (1.3%, 113G)

yellow bets:
toka222: 6,500G (58.0%, 55,219G)
sinnyil2: 1,438G (12.8%, 1,438G)
getthemoneyz: 520G (4.6%, 962,722G)
Nizaha: 501G (4.5%, 29,308G)
Akrae: 431G (3.8%, 431G)
TheChainNerd: 428G (3.8%, 428G)
CapnChaos12: 300G (2.7%, 9,791G)
docmitchphd: 282G (2.5%, 282G)
ZCKaiser: 236G (2.1%, 236G)
autnagrag: 222G (2.0%, 2,263G)
Flameatron: 140G (1.3%, 10,149G)
Firesheath: 100G (0.9%, 13,324G)
IphoneDarkness: 100G (0.9%, 1,192G)
