Final Bets: red - 18 bets for 16,020G (60.4%, x0.65); blue - 20 bets for 10,487G (39.6%, x1.53)

red bets:
gabbagooluigi: 4,054G (25.3%, 4,054G)
Laserman1000: 2,400G (15.0%, 2,400G)
ShintaroNayaka: 1,116G (7.0%, 1,116G)
Theseawolf1: 1,000G (6.2%, 66,177G)
bruubarg: 1,000G (6.2%, 5,000G)
Bryon_W: 1,000G (6.2%, 3,545G)
CapnChaos12: 999G (6.2%, 999G)
Tsuike: 925G (5.8%, 1,851G)
ColetteMSLP: 800G (5.0%, 65,090G)
roofiepops: 555G (3.5%, 46,517G)
vorap: 400G (2.5%, 61,447G)
Lanshaft: 392G (2.4%, 4,956G)
AUrato: 325G (2.0%, 8,275G)
lifeguard_dan: 304G (1.9%, 304G)
SQUiDSQUARKLIN: 300G (1.9%, 2,804G)
CorpusCav: 250G (1.6%, 3,800G)
Tougou: 100G (0.6%, 3,932G)
Dymntd: 100G (0.6%, 6,576G)

blue bets:
toka222: 2,000G (19.1%, 57,258G)
dogsandcatsand: 1,000G (9.5%, 16,035G)
Boojob: 1,000G (9.5%, 4,524G)
EnemyController: 1,000G (9.5%, 275,120G)
NicoSavoy: 1,000G (9.5%, 40,685G)
nifboy: 782G (7.5%, 782G)
HaateXIII: 714G (6.8%, 714G)
Shalloween: 632G (6.0%, 632G)
DLJuggernaut: 500G (4.8%, 5,033G)
VulcanPanderp: 419G (4.0%, 419G)
old_overholt_: 300G (2.9%, 2,248G)
Lolprinze: 252G (2.4%, 252G)
KasugaiRoastedPeas: 200G (1.9%, 372G)
interalia: 162G (1.5%, 318G)
soren_of_tyto: 104G (1.0%, 104G)
Evewho: 100G (1.0%, 7,584G)
datadrivenbot: 100G (1.0%, 19,035G)
waterwatereverywhere: 100G (1.0%, 5,754G)
Reltz_: 100G (1.0%, 2,754G)
daveb_: 22G (0.2%, 1,723G)
