Final Bets: purple - 16 bets for 7,263G (50.2%, x0.99); brown - 19 bets for 7,217G (49.8%, x1.01)

purple bets:
moonliquor: 2,749G (37.8%, 2,749G)
TheGuesty: 539G (7.4%, 58,039G)
nifboy: 500G (6.9%, 8,380G)
Rislyeu: 500G (6.9%, 8,532G)
Laserman1000: 500G (6.9%, 20,700G)
killth3kid: 500G (6.9%, 38,466G)
ANFz: 400G (5.5%, 400G)
DLJuggernaut: 350G (4.8%, 1,434G)
RaIshtar: 280G (3.9%, 280G)
danteangel7psn: 224G (3.1%, 224G)
Qaz12301: 216G (3.0%, 216G)
wyonearth: 200G (2.8%, 1,458G)
Flameatron: 100G (1.4%, 1,007G)
Qraiz: 100G (1.4%, 325G)
datadrivenbot: 100G (1.4%, 30,112G)
daveb_: 5G (0.1%, 916G)

brown bets:
Shakarak: 1,200G (16.6%, 60,825G)
HaychDub: 1,096G (15.2%, 1,096G)
Lionhermit: 811G (11.2%, 811G)
Dymntd: 500G (6.9%, 43,795G)
LeoNightFury: 500G (6.9%, 10,563G)
Kyune: 500G (6.9%, 24,777G)
MiseryKoss: 500G (6.9%, 4,912G)
CT_5_Holy: 469G (6.5%, 469G)
Grandlanzer: 240G (3.3%, 240G)
BirbBrainsBot: 236G (3.3%, 117,199G)
getthemoneyz: 216G (3.0%, 785,159G)
CorpusCav: 200G (2.8%, 50,946G)
reddwind_: 133G (1.8%, 267G)
Stealthtoucan: 116G (1.6%, 116G)
moocaotao: 100G (1.4%, 1,978G)
Etanks: 100G (1.4%, 118G)
cogniv0r3: 100G (1.4%, 3,424G)
Nohurty: 100G (1.4%, 1,011G)
maleblackfiora: 100G (1.4%, 1,451G)
