Final Bets: yellow - 14 bets for 8,272G (39.8%, x1.51); champion - 21 bets for 12,530G (60.2%, x0.66)

yellow bets:
reinoe: 2,000G (24.2%, 18,693G)
Digitalsocrates: 1,000G (12.1%, 55,116G)
BirbBrainsBot: 1,000G (12.1%, 84,607G)
JumbocactuarX27: 1,000G (12.1%, 8,212G)
brokenknight201: 500G (6.0%, 3,098G)
Evewho: 464G (5.6%, 464G)
killth3kid: 450G (5.4%, 1,557G)
gorgewall: 401G (4.8%, 18,176G)
Sairentozon7: 372G (4.5%, 372G)
HaateXIII: 359G (4.3%, 1,683G)
ZCKaiser: 200G (2.4%, 1,209G)
Magicandy: 200G (2.4%, 209G)
getthemoneyz: 168G (2.0%, 980,677G)
Darkages009: 158G (1.9%, 158G)

champion bets:
EnemyController: 2,345G (18.7%, 613,881G)
run_with_stone_GUNs: 1,500G (12.0%, 22,915G)
docmitchphd: 1,000G (8.0%, 2,493G)
TheChainNerd: 988G (7.9%, 3,488G)
ColetteMSLP: 892G (7.1%, 892G)
CrownOfHorns: 808G (6.4%, 808G)
sinnyil2: 808G (6.4%, 808G)
pplvee1: 780G (6.2%, 780G)
Laserman1000: 673G (5.4%, 6,673G)
potgodtopdog: 666G (5.3%, 44,638G)
CorpusCav: 400G (3.2%, 3,200G)
roofiepops: 400G (3.2%, 958G)
Lythe_Caraker: 250G (2.0%, 110,025G)
nofreewill: 183G (1.5%, 183G)
AllInBot: 158G (1.3%, 158G)
roqqqpsi: 156G (1.2%, 1,423G)
cam_ATS: 123G (1.0%, 31,800G)
lastly: 100G (0.8%, 29,457G)
CosmicTactician: 100G (0.8%, 8,762G)
Firesheath: 100G (0.8%, 14,462G)
delcake: 100G (0.8%, 796G)
