Final Bets: green - 21 bets for 11,131G (51.6%, x0.94); yellow - 15 bets for 10,437G (48.4%, x1.07)

green bets:
leakimiko: 1,735G (15.6%, 34,709G)
omegasuspekt: 1,581G (14.2%, 3,163G)
Vampire_Killer: 1,000G (9.0%, 14,223G)
inzo_bettingbot: 1,000G (9.0%, 25,609G)
WireLord: 856G (7.7%, 856G)
SpaZmodeus: 666G (6.0%, 4,297G)
getthemoneyz: 624G (5.6%, 401,036G)
TheRobbieRobster: 500G (4.5%, 1,655G)
nomoment: 500G (4.5%, 17,436G)
Ant_ihistamine: 459G (4.1%, 459G)
Oshimi12: 405G (3.6%, 405G)
UmaiJam: 353G (3.2%, 3,536G)
RRazza: 332G (3.0%, 332G)
RurouniGeo: 212G (1.9%, 212G)
ensiron: 208G (1.9%, 208G)
rubenflonne: 200G (1.8%, 10,179G)
Zmanwise: 100G (0.9%, 1,214G)
datadrivenbot: 100G (0.9%, 15,810G)
timthehoodie: 100G (0.9%, 1,092G)
Aislingeach: 100G (0.9%, 6,019G)
bpc2163: 100G (0.9%, 3,391G)

yellow bets:
SkylerBunny: 2,000G (19.2%, 62,175G)
OneHundredFists: 2,000G (19.2%, 11,631G)
DeathTaxesAndAnime: 1,000G (9.6%, 13,679G)
BirbBrainsBot: 1,000G (9.6%, 19,262G)
bad1dea: 1,000G (9.6%, 255,955G)
I_nod_my_head_when_I_lose: 750G (7.2%, 10,222G)
Shakarak: 600G (5.7%, 2,903G)
Lanshaft: 580G (5.6%, 9,389G)
sinnyil2: 576G (5.5%, 576G)
ZephyrTempest: 287G (2.7%, 6,335G)
ko2q: 244G (2.3%, 244G)
Nizaha: 100G (1.0%, 2,249G)
Tithonus: 100G (1.0%, 3,426G)
InOzWeTrust: 100G (1.0%, 1,078G)
DaveStrider55: 100G (1.0%, 1,780G)
