Final Bets: purple - 27 bets for 28,076G (81.6%, x0.23); brown - 15 bets for 6,338G (18.4%, x4.43)

purple bets:
leakimiko: 5,361G (19.1%, 35,746G)
reinoe: 3,566G (12.7%, 3,566G)
omegasuspekt: 3,136G (11.2%, 6,273G)
DeathTaxesAndAnime: 3,000G (10.7%, 13,163G)
SkylerBunny: 3,000G (10.7%, 62,612G)
I_nod_my_head_when_I_lose: 1,000G (3.6%, 10,335G)
BirbBrainsBot: 1,000G (3.6%, 18,064G)
bad1dea: 1,000G (3.6%, 255,055G)
kingchadking: 967G (3.4%, 967G)
ko2q: 748G (2.7%, 748G)
Humble_Fabio: 630G (2.2%, 630G)
RurouniGeo: 616G (2.2%, 616G)
YoungSax: 608G (2.2%, 608G)
TheRobbieRobster: 500G (1.8%, 2,124G)
ensiron: 403G (1.4%, 403G)
UmaiJam: 398G (1.4%, 3,981G)
Ant_ihistamine: 340G (1.2%, 340G)
SpaZmodeus: 333G (1.2%, 5,088G)
ZephyrTempest: 322G (1.1%, 6,374G)
DaveStrider55: 300G (1.1%, 2,680G)
InOzWeTrust: 300G (1.1%, 778G)
chronoxtrigger: 100G (0.4%, 4,993G)
ApplesauceBoss: 100G (0.4%, 2,736G)
RughSontos: 100G (0.4%, 3,873G)
Basmal: 100G (0.4%, 19,107G)
datadrivenbot: 100G (0.4%, 15,804G)
mega_goopta: 48G (0.2%, 1,048G)

brown bets:
sinnyil2: 1,076G (17.0%, 1,076G)
Vampire_Killer: 1,000G (15.8%, 16,145G)
inzo_bettingbot: 1,000G (15.8%, 25,547G)
Lanshaft: 580G (9.2%, 9,590G)
OneHundredFists: 500G (7.9%, 9,631G)
z32o: 500G (7.9%, 32,083G)
pandasforsale: 444G (7.0%, 11,006G)
getthemoneyz: 338G (5.3%, 401,315G)
unclebearboy: 300G (4.7%, 4,548G)
Tithonus: 100G (1.6%, 3,726G)
Oshimi12: 100G (1.6%, 1,272G)
RabidHampsters: 100G (1.6%, 10,847G)
Phi_Sig: 100G (1.6%, 45,964G)
timthehoodie: 100G (1.6%, 2,311G)
SeedSC: 100G (1.6%, 162,711G)
