Final Bets: purple - 19 bets for 17,007G (32.3%, x2.10); champion - 22 bets for 35,726G (67.7%, x0.48)

purple bets:
leakimiko: 5,979G (35.2%, 39,865G)
SkylerBunny: 3,650G (21.5%, 62,150G)
timthehoodie: 1,000G (5.9%, 2,011G)
bad1dea: 1,000G (5.9%, 254,425G)
SeedSC: 1,000G (5.9%, 161,937G)
Shakarak: 979G (5.8%, 1,920G)
Anethum: 754G (4.4%, 754G)
I_nod_my_head_when_I_lose: 500G (2.9%, 10,105G)
RurouniGeo: 339G (2.0%, 339G)
ricky_ortease: 312G (1.8%, 11,836G)
MrDiggs49: 300G (1.8%, 7,376G)
helpimabug: 296G (1.7%, 296G)
reinoe: 200G (1.2%, 4,171G)
ZephyrTempest: 198G (1.2%, 6,042G)
ApplesauceBoss: 100G (0.6%, 2,985G)
chronoxtrigger: 100G (0.6%, 4,967G)
RughSontos: 100G (0.6%, 3,796G)
Kraisor: 100G (0.6%, 100G)
InOzWeTrust: 100G (0.6%, 1,363G)

champion bets:
OneHundredFists: 10,000G (28.0%, 14,101G)
kingchadking: 6,063G (17.0%, 6,063G)
unclebearboy: 4,858G (13.6%, 4,858G)
z32o: 3,000G (8.4%, 30,004G)
sinnyil2: 2,953G (8.3%, 2,953G)
TheRobbieRobster: 2,330G (6.5%, 2,330G)
DeathTaxesAndAnime: 1,000G (2.8%, 13,499G)
Lydian_C: 700G (2.0%, 2,208G)
UmaiJam: 669G (1.9%, 3,345G)
WireLord: 631G (1.8%, 1,159G)
Laserman1000: 600G (1.7%, 21,972G)
Chompie: 500G (1.4%, 8,944G)
JustSuperish: 500G (1.4%, 3,333G)
hkbadboy: 500G (1.4%, 1,796G)
SpaZmodeus: 333G (0.9%, 4,778G)
ko2q: 284G (0.8%, 284G)
Lythe_Caraker: 250G (0.7%, 49,816G)
RezzaDV: 155G (0.4%, 1,557G)
Tithonus: 100G (0.3%, 3,903G)
Basmal: 100G (0.3%, 19,297G)
Oshimi12: 100G (0.3%, 1,123G)
datadrivenbot: 100G (0.3%, 15,778G)
