Final Bets: red - 18 bets for 15,653G (32.1%, x2.12); blue - 19 bets for 33,182G (67.9%, x0.47)

red bets:
Thyrandaal: 7,921G (50.6%, 15,533G)
krombobreaker: 1,762G (11.3%, 1,762G)
DLJuggernaut: 1,443G (9.2%, 1,443G)
sinnyil2: 1,200G (7.7%, 55,426G)
DeathTaxesAndAnime: 1,148G (7.3%, 1,148G)
bigbongsmoker: 300G (1.9%, 3,437G)
brodeity: 260G (1.7%, 260G)
ValensEXP_: 240G (1.5%, 1,433G)
heyBtw: 215G (1.4%, 215G)
CorpusCav: 200G (1.3%, 28,105G)
datadrivenbot: 200G (1.3%, 58,668G)
AllInBot: 192G (1.2%, 192G)
ImmortalMage: 150G (1.0%, 150G)
Chuckolator: 112G (0.7%, 25,094G)
Bongomon7: 100G (0.6%, 1,857G)
mirapoix: 100G (0.6%, 3,460G)
BlackAceBB: 100G (0.6%, 2,851G)
BartTradingCompany: 10G (0.1%, 109G)

blue bets:
nhammen: 10,000G (30.1%, 408,093G)
Nickyfive: 10,000G (30.1%, 67,335G)
EnemyController: 3,333G (10.0%, 1,742,422G)
reinoe: 2,000G (6.0%, 16,541G)
Zagorsek: 1,566G (4.7%, 1,566G)
latebit: 1,209G (3.6%, 1,209G)
BirbBrainsBot: 1,000G (3.0%, 184,049G)
HaateXIII: 956G (2.9%, 956G)
VolgraTheMoose: 700G (2.1%, 700G)
moonliquor: 500G (1.5%, 61,451G)
rocl: 392G (1.2%, 392G)
getthemoneyz: 322G (1.0%, 1,901,901G)
CosmicTactician: 300G (0.9%, 31,429G)
SephDarkheart: 296G (0.9%, 296G)
ser_pyrro: 200G (0.6%, 2,647G)
BappleTrees: 104G (0.3%, 104G)
Riley331: 104G (0.3%, 104G)
RunicMagus: 100G (0.3%, 7,598G)
Yangusburger: 100G (0.3%, 7,466G)
