Final Bets: green - 17 bets for 12,656G (48.9%, x1.04); yellow - 16 bets for 13,203G (51.1%, x0.96)

green bets:
Nickyfive: 5,000G (39.5%, 72,052G)
nhammen: 2,000G (15.8%, 412,810G)
EnemyController: 1,111G (8.8%, 1,743,994G)
BirbBrainsBot: 1,000G (7.9%, 184,521G)
Phi_Sig: 555G (4.4%, 30,081G)
E_Ballard: 544G (4.3%, 544G)
SephDarkheart: 436G (3.4%, 436G)
getthemoneyz: 312G (2.5%, 1,902,053G)
W0RLDEND: 300G (2.4%, 9,174G)
thunderducker: 300G (2.4%, 1,657G)
formerlydrdong: 266G (2.1%, 266G)
brodeity: 260G (2.1%, 260G)
CorpusCav: 250G (2.0%, 27,905G)
heyBtw: 112G (0.9%, 112G)
AllInBot: 100G (0.8%, 100G)
CosmicTactician: 100G (0.8%, 31,571G)
BartTradingCompany: 10G (0.1%, 100G)

yellow bets:
Thyrandaal: 3,882G (29.4%, 7,612G)
Zagorsek: 2,305G (17.5%, 2,305G)
reinoe: 2,000G (15.1%, 17,484G)
DeathTaxesAndAnime: 1,048G (7.9%, 1,048G)
latebit: 779G (5.9%, 779G)
DLJuggernaut: 536G (4.1%, 536G)
moonliquor: 500G (3.8%, 61,687G)
Lifebregin: 500G (3.8%, 20,441G)
krombobreaker: 380G (2.9%, 380G)
bigbongsmoker: 300G (2.3%, 3,137G)
Craymel_Mage: 215G (1.6%, 215G)
Sietaha: 200G (1.5%, 17,792G)
datadrivenbot: 200G (1.5%, 58,468G)
Riley331: 157G (1.2%, 157G)
gorgewall: 101G (0.8%, 5,166G)
BlackAceBB: 100G (0.8%, 2,751G)
