Final Bets: white - 7 bets for 3,835G (21.9%, x3.58); black - 20 bets for 13,716G (78.1%, x0.28)

white bets:
DudeMonkey77: 1,676G (43.7%, 1,676G)
acid_flashback: 728G (19.0%, 728G)
killth3kid: 500G (13.0%, 10,972G)
gorgewall: 301G (7.8%, 27,721G)
JLinkletter: 280G (7.3%, 280G)
benticore: 250G (6.5%, 9,415G)
ar_tactic: 100G (2.6%, 55,527G)

black bets:
Lydian_C: 4,200G (30.6%, 193,569G)
helpimabug: 1,056G (7.7%, 1,056G)
SkylerBunny: 1,000G (7.3%, 511,768G)
BirbBrainsBot: 1,000G (7.3%, 34,283G)
Theseawolf1: 1,000G (7.3%, 32,442G)
HaateXIII: 860G (6.3%, 860G)
ShintaroNayaka: 808G (5.9%, 808G)
Zeroroute: 600G (4.4%, 600G)
rechaun: 532G (3.9%, 532G)
ruleof5: 500G (3.6%, 19,435G)
AltimaMantoid: 500G (3.6%, 1,000G)
Shalloween: 500G (3.6%, 81,337G)
DuraiPapers: 352G (2.6%, 352G)
Snowfats: 250G (1.8%, 3,082G)
SuzakuReii: 100G (0.7%, 2,037G)
rmelzer1986: 100G (0.7%, 100G)
datadrivenbot: 100G (0.7%, 48,754G)
nifboy: 100G (0.7%, 3,380G)
CosmicTactician: 100G (0.7%, 22,052G)
getthemoneyz: 58G (0.4%, 1,067,083G)
