High Risers:
1. Mushufasa_: +4,537G
2. resjudicata3: +3,615G
3. HorusTaurus: +2,577G
4. Rune339: +2,477G
5. Chihuahua_Charity: +1,805G
6. Lolthsmeat: +936G
7. actual_JP: +904G
8. Go2sleepTV: +800G
9. Evewho: +661G
10. CassiePhoenix: +659G
11. Aaron2Nerdy: +635G
12. HASTERIOUS: +600G
13. TheSabretoothe: +500G
14. Fiber_Wire: +309G
15. smallboops: +281G
16. Mesmaster: +200G
17. ser_pyrro: +200G
18. FuzzyTigers: +164G
19. Genkidou: +139G
20. OneHundredFists: +104G
21. reddwind_: +100G
22. WireLord: +88G
23. PancakeHero: -23G
24. MoonSugarFiend: -200G
25. upvla: -262G
26. Seaweed_B: -300G
27. NovaKnight21: -300G
28. scsuperstar: -347G
29. NicoSavoy: -376G
30. ColetteMSLP: -580G
31. MemoriesofFinal: -749G
32. lijarkh: -800G
33. DeathTaxesAndAnime: -1,804G
34. E_Ballard: -3,462G
