Final Bets: green - 24 bets for 23,669G (73.0%, x0.37); yellow - 18 bets for 8,771G (27.0%, x2.70)

green bets:
sinnyil2: 11,473G (48.5%, 11,473G)
HASTERIOUS: 2,440G (10.3%, 2,440G)
edgehead62888: 2,000G (8.4%, 31,510G)
DeathTaxesAndAnime: 1,921G (8.1%, 3,768G)
VolgraTheMoose: 1,001G (4.2%, 8,393G)
moonliquor: 603G (2.5%, 603G)
letdowncity: 500G (2.1%, 18,450G)
turbn: 500G (2.1%, 10,474G)
Digitalsocrates: 392G (1.7%, 392G)
killth3kid: 328G (1.4%, 10,469G)
Flameatron: 300G (1.3%, 2,167G)
waterwatereverywhere: 300G (1.3%, 10,398G)
kaelsun: 276G (1.2%, 276G)
reddwind_: 260G (1.1%, 260G)
NBD_Rab: 212G (0.9%, 212G)
ASkyNightly: 200G (0.8%, 200G)
Kalabain: 200G (0.8%, 1,246G)
moocaotao: 162G (0.7%, 319G)
Firesheath: 101G (0.4%, 1,900G)
Grandlanzer: 100G (0.4%, 2,703G)
CosmicTactician: 100G (0.4%, 16,964G)
lastly: 100G (0.4%, 13,564G)
datadrivenbot: 100G (0.4%, 32,906G)
outer_monologue: 100G (0.4%, 1,687G)

yellow bets:
BirbBrainsBot: 1,000G (11.4%, 82,609G)
Thyrandaal: 1,000G (11.4%, 4,669G)
EnemyController: 1,000G (11.4%, 554,189G)
gorgewall: 998G (11.4%, 998G)
maicovisky: 866G (9.9%, 61,866G)
Rislyeu: 500G (5.7%, 7,131G)
cogniv0r3: 500G (5.7%, 1,031G)
conradharlock: 500G (5.7%, 10,057G)
getthemoneyz: 400G (4.6%, 825,431G)
E_Ballard: 376G (4.3%, 376G)
Saldarin: 320G (3.6%, 320G)
argentbast: 300G (3.4%, 16,316G)
Huriel_Iskander: 287G (3.3%, 287G)
Ring_Wyrm: 224G (2.6%, 224G)
KasugaiRoastedPeas: 200G (2.3%, 1,448G)
Evewho: 100G (1.1%, 12,001G)
Miku_Shikhu: 100G (1.1%, 980G)
Anak761: 100G (1.1%, 4,583G)
