Final Bets: black - 21 bets for 15,304G (65.8%, x0.52); brown - 10 bets for 7,940G (34.2%, x1.93)

black bets:
flowinprose: 4,000G (26.1%, 112,797G)
ColetteMSLP: 1,224G (8.0%, 1,224G)
Sairentozon7: 1,060G (6.9%, 1,060G)
Nizaha: 1,001G (6.5%, 16,864G)
conradharlock: 1,000G (6.5%, 11,881G)
BirbBrainsBot: 1,000G (6.5%, 82,433G)
OneHundredFists: 1,000G (6.5%, 2,706G)
Laserman1000: 700G (4.6%, 28,500G)
roofiepops: 600G (3.9%, 600G)
getthemoneyz: 592G (3.9%, 824,174G)
gorgewall: 573G (3.7%, 573G)
turbn: 500G (3.3%, 13,044G)
mechoking: 500G (3.3%, 3,572G)
E_Ballard: 380G (2.5%, 380G)
joewcarson: 300G (2.0%, 28,292G)
Snoopiku: 250G (1.6%, 5,942G)
Ring_Wyrm: 224G (1.5%, 224G)
datadrivenbot: 100G (0.7%, 33,026G)
Kalabain: 100G (0.7%, 1,755G)
outer_monologue: 100G (0.7%, 2,124G)
sinnyil2: 100G (0.7%, 1,648G)

brown bets:
maicovisky: 3,763G (47.4%, 83,763G)
DeathTaxesAndAnime: 1,110G (14.0%, 2,178G)
EnemyController: 1,000G (12.6%, 553,337G)
letdowncity: 500G (6.3%, 18,459G)
argentbast: 500G (6.3%, 15,016G)
HASTERIOUS: 436G (5.5%, 436G)
kliffw: 257G (3.2%, 257G)
Nohurty: 228G (2.9%, 228G)
NBD_Rab: 100G (1.3%, 1,173G)
cogniv0r3: 46G (0.6%, 931G)
