Final Bets: purple - 15 bets for 9,781G (55.7%, x0.80); brown - 19 bets for 7,780G (44.3%, x1.26)

purple bets:
VolgraTheMoose: 2,001G (20.5%, 24,992G)
Evewho: 1,283G (13.1%, 1,283G)
Thyrandaal: 1,000G (10.2%, 182,853G)
reinoe: 1,000G (10.2%, 53,116G)
khelor_: 700G (7.2%, 1,227G)
latebit: 624G (6.4%, 624G)
mindblownnnn: 603G (6.2%, 603G)
krombobreaker: 500G (5.1%, 20,331G)
iBluntDouble: 425G (4.3%, 425G)
3ngag3: 388G (4.0%, 388G)
seppu777: 333G (3.4%, 2,600G)
ghazzzzzz: 316G (3.2%, 316G)
DocSTN: 208G (2.1%, 208G)
DeathTaxesAndAnime: 200G (2.0%, 1,884G)
datadrivenbot: 200G (2.0%, 76,038G)

brown bets:
resjudicata3: 1,329G (17.1%, 1,329G)
BirbBrainsBot: 1,000G (12.9%, 168,222G)
Chihuahua_Charity: 881G (11.3%, 881G)
Laserman1000: 757G (9.7%, 7,957G)
Runeseeker22: 653G (8.4%, 13,069G)
Rytor: 532G (6.8%, 532G)
silentkaster: 428G (5.5%, 428G)
Smashy: 372G (4.8%, 372G)
bigbongsmoker: 348G (4.5%, 11,813G)
AllInBot: 200G (2.6%, 200G)
GatrDntPlayNoSht: 200G (2.6%, 200G)
ShadowNinja25: 200G (2.6%, 1,209G)
Shalloween: 200G (2.6%, 3,287G)
Lord_Gwarth: 150G (1.9%, 2,858G)
SnarkMage: 132G (1.7%, 870G)
RunicMagus: 100G (1.3%, 26,087G)
DsTomioka: 100G (1.3%, 212G)
MemoriesofFinal: 100G (1.3%, 917G)
getthemoneyz: 98G (1.3%, 2,084,492G)
