Final Bets: white - 11 bets for 7,627G (50.5%, x0.98); purple - 16 bets for 7,482G (49.5%, x1.02)

white bets:
douchetron: 1,396G (18.3%, 1,396G)
Lythe_Caraker: 1,000G (13.1%, 185,863G)
BirbBrainsBot: 1,000G (13.1%, 177,460G)
Shalloween: 1,000G (13.1%, 4,525G)
CorpusCav: 555G (7.3%, 13,315G)
Lord_Burrah: 526G (6.9%, 99,526G)
BoneMiser: 500G (6.6%, 5,638G)
krombobreaker: 500G (6.6%, 13,680G)
Mushufasa_: 500G (6.6%, 61,938G)
DeathTaxesAndAnime: 400G (5.2%, 2,620G)
killth3kid: 250G (3.3%, 11,018G)

purple bets:
ColetteMSLP: 1,016G (13.6%, 1,016G)
reinoe: 1,000G (13.4%, 16,769G)
DaveStrider55: 892G (11.9%, 892G)
DarrenDinosaurs: 600G (8.0%, 600G)
ericzubat: 600G (8.0%, 9,713G)
Zerguzen: 546G (7.3%, 546G)
lijarkh: 505G (6.7%, 505G)
Rhyser76: 500G (6.7%, 940G)
Smashy: 500G (6.7%, 4,508G)
DanielRKnealeArt: 466G (6.2%, 466G)
Noctixx: 239G (3.2%, 239G)
AllInBot: 200G (2.7%, 200G)
datadrivenbot: 200G (2.7%, 72,750G)
ANFz: 100G (1.3%, 5,900G)
MemoriesofFinal: 100G (1.3%, 30,882G)
getthemoneyz: 18G (0.2%, 2,020,322G)
