Final Bets: red - 24 bets for 15,185G (57.5%, x0.74); purple - 20 bets for 11,245G (42.5%, x1.35)

red bets:
sinnyil2: 3,238G (21.3%, 6,477G)
ko2q: 1,509G (9.9%, 1,509G)
jakeduhhsnake: 1,000G (6.6%, 19,973G)
rico_flex: 1,000G (6.6%, 27,043G)
ACSpree: 892G (5.9%, 892G)
ZephyrTempest: 722G (4.8%, 4,814G)
NovaKnight21: 602G (4.0%, 1,205G)
midori_ribbon: 600G (4.0%, 2,830G)
reinoe: 600G (4.0%, 600G)
DeathTaxesAndAnime: 568G (3.7%, 568G)
killth3kid: 500G (3.3%, 39,833G)
ANFz: 500G (3.3%, 13,288G)
Zxpr0jk: 500G (3.3%, 5,553G)
CosmicTactician: 500G (3.3%, 3,726G)
gorgewall: 500G (3.3%, 12,323G)
DontBackseatGame: 400G (2.6%, 975G)
AmewTheFox: 400G (2.6%, 10,675G)
trigger15: 350G (2.3%, 774G)
LivingHitokiri: 280G (1.8%, 280G)
skuldar: 124G (0.8%, 124G)
AllInBot: 100G (0.7%, 100G)
Dymntd: 100G (0.7%, 4,230G)
Firesheath: 100G (0.7%, 9,088G)
datadrivenbot: 100G (0.7%, 6,643G)

purple bets:
MagicBottle: 2,517G (22.4%, 83,912G)
Kronikle: 1,676G (14.9%, 1,676G)
BirbBrainsBot: 1,000G (8.9%, 72,314G)
Mesmaster: 1,000G (8.9%, 27,030G)
Laserman1000: 767G (6.8%, 55,967G)
Shalloween: 600G (5.3%, 66,139G)
Tommy_Havoc: 500G (4.4%, 2,017G)
CerberQc: 455G (4.0%, 455G)
leakimiko: 424G (3.8%, 424G)
solomongrundy85: 400G (3.6%, 15,868G)
proper__noun__: 400G (3.6%, 10,864G)
getthemoneyz: 292G (2.6%, 599,004G)
Estan_AD: 250G (2.2%, 1,302G)
cgMcWhiskers: 212G (1.9%, 212G)
KasugaiRoastedPeas: 200G (1.8%, 600G)
Pink_LuigiX: 152G (1.4%, 152G)
vorap: 100G (0.9%, 14,609G)
astrozin11: 100G (0.9%, 2,700G)
Chompie: 100G (0.9%, 8,772G)
eudes89: 100G (0.9%, 100G)
