Final Bets: black - 5 bets for 854G (12.4%, x7.06); purple - 6 bets for 6,025G (87.6%, x0.14)

black bets:
getthemoneyz: 348G (40.7%, 1,469,672G)
AllInBot: 200G (23.4%, 200G)
BirbBrainsBot: 106G (12.4%, 126,511G)
TheseJeans: 100G (11.7%, 884G)
josephiroth_143: 100G (11.7%, 4,964G)

purple bets:
douchetron: 3,973G (65.9%, 7,792G)
Zachara: 999G (16.6%, 129,999G)
maximumcrit: 500G (8.3%, 13,389G)
byrdturbo: 333G (5.5%, 23,475G)
datadrivenbot: 200G (3.3%, 49,766G)
Drusiform: 20G (0.3%, 569G)
