Final Bets: green - 6 bets for 3,022G (29.1%, x2.44); purple - 6 bets for 7,371G (70.9%, x0.41)

green bets:
BirbBrainsBot: 1,000G (33.1%, 126,405G)
maximumcrit: 1,000G (33.1%, 13,460G)
CT_5_Holy: 476G (15.8%, 476G)
AllInBot: 200G (6.6%, 200G)
getthemoneyz: 196G (6.5%, 1,469,324G)
TheseJeans: 150G (5.0%, 784G)

purple bets:
douchetron: 4,261G (57.8%, 8,355G)
Zachara: 1,141G (15.5%, 130,141G)
randgridr: 864G (11.7%, 864G)
Drusiform: 572G (7.8%, 572G)
byrdturbo: 333G (4.5%, 23,522G)
datadrivenbot: 200G (2.7%, 49,794G)
