Final Bets: red - 14 bets for 6,383G (74.8%, x0.34); blue - 7 bets for 2,152G (25.2%, x2.97)

red bets:
BirbBrainsBot: 1,000G (15.7%, 192,331G)
MemoriesofFinal: 1,000G (15.7%, 24,214G)
Zachara: 957G (15.0%, 1,957G)
WireLord: 600G (9.4%, 600G)
SephDarkheart: 592G (9.3%, 8,317G)
ColetteMSLP: 524G (8.2%, 5,303G)
2b_yorha_b: 500G (7.8%, 33,810G)
QuestMoreLand: 493G (7.7%, 493G)
getthemoneyz: 160G (2.5%, 2,199,949G)
FuzzyTigers: 140G (2.2%, 140G)
FE34923: 116G (1.8%, 116G)
gorgewall: 101G (1.6%, 3,865G)
maakur_: 100G (1.6%, 1,680G)
DarrenDinosaurs: 100G (1.6%, 4,218G)

blue bets:
ValensEXP_: 603G (28.0%, 603G)
ForagerCats: 600G (27.9%, 3,682G)
TheSabretoothe: 348G (16.2%, 348G)
AllInBot: 200G (9.3%, 200G)
datadrivenbot: 200G (9.3%, 82,753G)
DrAntiSocial: 101G (4.7%, 2,753G)
CosmicTactician: 100G (4.6%, 1,494G)
