Final Bets: green - 19 bets for 10,233G (50.2%, x0.99); white - 21 bets for 10,158G (49.8%, x1.01)

green bets:
killth3kid: 2,000G (19.5%, 75,306G)
HaplessOne: 1,111G (10.9%, 30,382G)
RunicMagus: 1,100G (10.7%, 50,914G)
leakimiko: 780G (7.6%, 7,808G)
Zeroroute: 600G (5.9%, 600G)
LanseDM: 592G (5.8%, 592G)
luminarii: 538G (5.3%, 12,662G)
FNCardascia_: 519G (5.1%, 519G)
mirapoix: 484G (4.7%, 484G)
ZephyrTempest: 456G (4.5%, 1,126G)
Cryptopsy70: 400G (3.9%, 13,040G)
twelfthrootoftwo: 400G (3.9%, 1,789G)
Dexsana: 388G (3.8%, 388G)
Baron_von_Scrub: 364G (3.6%, 364G)
ungabunga_bot: 101G (1.0%, 379,700G)
maakur_: 100G (1.0%, 123,573G)
corpus11: 100G (1.0%, 100G)
Arlum: 100G (1.0%, 1,499G)
datadrivenbot: 100G (1.0%, 12,457G)

white bets:
madming25: 1,234G (12.1%, 9,902G)
KasugaiRoastedPeas: 1,234G (12.1%, 9,507G)
BirbBrainsBot: 1,000G (9.8%, 59,615G)
Lionhermit: 1,000G (9.8%, 17,492G)
JumbocactuarX27: 1,000G (9.8%, 7,109G)
Mesmaster: 1,000G (9.8%, 7,152G)
Evewho: 508G (5.0%, 508G)
joewcarson: 500G (4.9%, 7,030G)
genericco: 500G (4.9%, 2,458G)
shs_: 500G (4.9%, 8,213G)
EnemyController: 390G (3.8%, 192,739G)
electric_glass: 200G (2.0%, 2,567G)
Estan_AD: 200G (2.0%, 2,352G)
getthemoneyz: 168G (1.7%, 630,746G)
Xenomorith: 120G (1.2%, 120G)
duckfist: 104G (1.0%, 104G)
dinin991: 100G (1.0%, 1,668G)
evdoggity: 100G (1.0%, 6,722G)
Setdevildog: 100G (1.0%, 208G)
GiggleStik: 100G (1.0%, 6,539G)
RestIessNight: 100G (1.0%, 692G)
