Final Bets: white - 12 bets for 19,117G (55.2%, x0.81); black - 27 bets for 15,522G (44.8%, x1.23)

white bets:
TheMM42: 10,000G (52.3%, 25,397G)
Estan_AD: 3,087G (16.1%, 6,174G)
Etce: 2,155G (11.3%, 2,155G)
sinnyil2: 1,200G (6.3%, 76,807G)
ungabunga_bot: 646G (3.4%, 174,468G)
Shalloween: 600G (3.1%, 55,110G)
Anox_Skell: 500G (2.6%, 3,850G)
nifboy: 429G (2.2%, 8,596G)
EnemyController: 200G (1.0%, 66,624G)
FrozenFelid: 100G (0.5%, 7,908G)
ANFz: 100G (0.5%, 10,357G)
Lirchy: 100G (0.5%, 604G)

black bets:
Fenrislfr: 2,170G (14.0%, 21,708G)
HaplessOne: 1,500G (9.7%, 108,615G)
DustBirdEX: 1,307G (8.4%, 15,307G)
mirapoix: 1,180G (7.6%, 1,180G)
RongRongArts: 1,100G (7.1%, 468,641G)
BirbBrainsBot: 1,000G (6.4%, 26,545G)
reinoe: 1,000G (6.4%, 18,402G)
NovaKnight21: 760G (4.9%, 8,645G)
ericzubat: 654G (4.2%, 654G)
HaateXIII: 500G (3.2%, 8,277G)
flowinprose: 500G (3.2%, 92,693G)
sparsuvar: 500G (3.2%, 589G)
Breakdown777: 500G (3.2%, 33,356G)
DarrenDinosaurs: 436G (2.8%, 436G)
victoriolue: 412G (2.7%, 412G)
getthemoneyz: 316G (2.0%, 520,049G)
Chuckolator: 286G (1.8%, 22,713G)
gorgewall: 200G (1.3%, 2,159G)
Faplo: 200G (1.3%, 733G)
definitely_not_shroud: 200G (1.3%, 1,299G)
potgodtopdog: 200G (1.3%, 8,381G)
mastershango: 150G (1.0%, 1,593G)
ZephyrTempest: 101G (0.7%, 164,466G)
AllInBot: 100G (0.6%, 100G)
red_celt: 100G (0.6%, 8,701G)
OneHundredFists: 100G (0.6%, 4,296G)
cougboi: 50G (0.3%, 16,627G)
