Final Bets: white - 10 bets for 7,575G (44.6%, x1.24); black - 12 bets for 9,428G (55.4%, x0.80)

white bets:
toka222: 2,500G (33.0%, 117,377G)
cam_ATS: 1,500G (19.8%, 9,169G)
BirbBrainsBot: 1,000G (13.2%, 57,839G)
ACSpree: 900G (11.9%, 900G)
prince_rogers_nelson_: 500G (6.6%, 13,250G)
UmaiJam: 431G (5.7%, 431G)
CassiePhoenix: 424G (5.6%, 424G)
Lydian_C: 120G (1.6%, 182,137G)
E_Ballard: 100G (1.3%, 17,950G)
nhammen: 100G (1.3%, 4,089G)

black bets:
Carledo: 2,820G (29.9%, 92,461G)
fenaen: 1,163G (12.3%, 1,163G)
Nizaha: 1,001G (10.6%, 16,262G)
Draconis345: 1,000G (10.6%, 67,764G)
cactus_tony_: 825G (8.8%, 9,825G)
Breakdown777: 730G (7.7%, 730G)
eudes89: 552G (5.9%, 552G)
just_here2: 500G (5.3%, 10,985G)
gorgewall: 401G (4.3%, 14,844G)
getthemoneyz: 236G (2.5%, 1,023,413G)
nifboy: 100G (1.1%, 1,631G)
datadrivenbot: 100G (1.1%, 45,508G)
