Final Bets: yellow - 9 bets for 13,509G (62.0%, x0.61); brown - 11 bets for 8,263G (38.0%, x1.63)

yellow bets:
Carledo: 5,350G (39.6%, 89,170G)
fenixcrest: 4,317G (32.0%, 8,635G)
BirbBrainsBot: 1,000G (7.4%, 58,173G)
fenaen: 842G (6.2%, 842G)
CassiePhoenix: 603G (4.5%, 603G)
Nizaha: 501G (3.7%, 15,806G)
getthemoneyz: 446G (3.3%, 1,022,357G)
nifboy: 250G (1.9%, 4,605G)
Magicandy: 200G (1.5%, 2,663G)

brown bets:
Lydian_C: 2,400G (29.0%, 179,479G)
eudes89: 1,475G (17.9%, 1,475G)
VolgraTheMoose: 1,279G (15.5%, 2,558G)
Draconis345: 1,000G (12.1%, 69,075G)
Breakdown777: 508G (6.1%, 508G)
Yiroep2: 500G (6.1%, 10,050G)
prince_rogers_nelson_: 500G (6.1%, 18,092G)
gorgewall: 301G (3.6%, 14,739G)
nhammen: 100G (1.2%, 4,802G)
E_Ballard: 100G (1.2%, 18,523G)
datadrivenbot: 100G (1.2%, 45,497G)
