Final Bets: yellow - 12 bets for 7,406G (49.2%, x1.03); champion - 11 bets for 7,660G (50.8%, x0.97)

yellow bets:
prince_rogers_nelson_: 2,000G (27.0%, 17,592G)
fenaen: 1,357G (18.3%, 1,357G)
fenixcrest: 1,127G (15.2%, 11,276G)
BirbBrainsBot: 1,000G (13.5%, 58,785G)
VolgraTheMoose: 641G (8.7%, 1,283G)
eudes89: 384G (5.2%, 384G)
Carledo: 333G (4.5%, 92,442G)
nifboy: 250G (3.4%, 4,758G)
JethroThrul: 100G (1.4%, 1,674G)
maakur_: 100G (1.4%, 72,602G)
nhammen: 100G (1.4%, 4,702G)
getthemoneyz: 14G (0.2%, 1,022,630G)

champion bets:
Lydian_C: 2,400G (31.3%, 177,079G)
cam_ATS: 2,000G (26.1%, 14,741G)
Draconis345: 1,000G (13.1%, 68,079G)
Breakdown777: 508G (6.6%, 508G)
Yiroep2: 500G (6.5%, 9,550G)
Oobs56: 500G (6.5%, 17,008G)
gorgewall: 301G (3.9%, 14,438G)
Nizaha: 201G (2.6%, 16,112G)
datadrivenbot: 100G (1.3%, 45,397G)
E_Ballard: 100G (1.3%, 18,423G)
IphoneDarkness: 50G (0.7%, 7,183G)
