Final Bets: blue - 16 bets for 10,514G (29.9%, x2.35); brown - 24 bets for 24,705G (70.1%, x0.43)

blue bets:
ZPawZ: 3,000G (28.5%, 30,374G)
sinnyil2: 1,200G (11.4%, 108,602G)
3ngag3: 1,019G (9.7%, 25,019G)
Leonidusx: 1,000G (9.5%, 37,088G)
OneHundredFists: 1,000G (9.5%, 53,664G)
Spartan_Paladin: 800G (7.6%, 19,424G)
upvla: 456G (4.3%, 26,186G)
Zeroroute: 412G (3.9%, 412G)
AllInBot: 325G (3.1%, 325G)
Neech: 316G (3.0%, 489G)
tripaplex: 300G (2.9%, 2,252G)
red_celt: 280G (2.7%, 280G)
getthemoneyz: 106G (1.0%, 1,951,350G)
BartTradingCompany: 100G (1.0%, 9,707G)
J_52: 100G (1.0%, 7,093G)
grishhammer: 100G (1.0%, 272G)

brown bets:
nhammen: 10,000G (40.5%, 393,713G)
DHaveWord: 3,015G (12.2%, 5,913G)
DeathTaxesAndAnime: 1,865G (7.5%, 3,657G)
resjudicata3: 1,230G (5.0%, 2,413G)
CorpusCav: 1,209G (4.9%, 18,958G)
Lord_Gwarth: 1,185G (4.8%, 1,185G)
silentkaster: 688G (2.8%, 688G)
Xeiphyer: 669G (2.7%, 669G)
Kronikle: 660G (2.7%, 36,207G)
hotpocketsofficial: 592G (2.4%, 592G)
BappleTrees: 527G (2.1%, 527G)
krombobreaker: 500G (2.0%, 3,556G)
CosmicTactician: 500G (2.0%, 30,598G)
BirbBrainsBot: 301G (1.2%, 168,759G)
J_MacC1991: 272G (1.1%, 272G)
gingerfoo69: 246G (1.0%, 246G)
CrazyLou64: 246G (1.0%, 246G)
MemoriesofFinal: 200G (0.8%, 14,910G)
khelor_: 200G (0.8%, 1,417G)
datadrivenbot: 200G (0.8%, 60,762G)
Miku_Shikhu: 100G (0.4%, 16,523G)
lijarkh: 100G (0.4%, 1,109G)
latebit: 100G (0.4%, 2,829G)
GatsbysGhost: 100G (0.4%, 259G)
