Final Bets: red - 15 bets for 20,285G (83.3%, x0.20); green - 17 bets for 4,080G (16.7%, x4.97)

red bets:
BoneMiser: 8,124G (40.0%, 8,124G)
Mesmaster: 5,000G (24.6%, 108,205G)
KittymanAdvance: 1,745G (8.6%, 1,745G)
BirbBrainsBot: 1,000G (4.9%, 76,085G)
Thyrandaal: 1,000G (4.9%, 61,206G)
ANFz: 751G (3.7%, 751G)
EnemyController: 500G (2.5%, 613,530G)
TheChainNerd: 452G (2.2%, 452G)
Nizaha: 401G (2.0%, 18,016G)
roofiepops: 340G (1.7%, 340G)
CapnChaos12: 300G (1.5%, 15,418G)
just_here2: 300G (1.5%, 7,430G)
aeonicvector: 172G (0.8%, 172G)
AllInBot: 100G (0.5%, 100G)
maakur_: 100G (0.5%, 23,557G)

green bets:
DuraiPapers: 1,000G (24.5%, 5,387G)
cam_ATS: 555G (13.6%, 16,125G)
Anasetsuken: 400G (9.8%, 17,176G)
alterworlds: 323G (7.9%, 323G)
Pyrotyk: 300G (7.4%, 902G)
butterbelljedi: 247G (6.1%, 4,622G)
DeadGirlzREasy: 228G (5.6%, 228G)
galkife: 200G (4.9%, 53,082G)
Powermhero: 173G (4.2%, 26,873G)
ApplesauceBoss: 100G (2.5%, 11,387G)
ko2q: 100G (2.5%, 5,362G)
Evewho: 100G (2.5%, 1,947G)
Lordminsc: 100G (2.5%, 5,531G)
Firesheath: 100G (2.5%, 13,245G)
datadrivenbot: 100G (2.5%, 43,802G)
Nohurty: 50G (1.2%, 1,194G)
getthemoneyz: 4G (0.1%, 972,718G)
