Final Bets: red - 9 bets for 3,061G (49.2%, x1.03); yellow - 5 bets for 3,156G (50.8%, x0.97)

red bets:
BirbBrainsBot: 1,000G (32.7%, 88,703G)
Mesmaster: 537G (17.5%, 537G)
VolgraTheMoose: 500G (16.3%, 2,142G)
Tarheels218: 304G (9.9%, 304G)
datadrivenbot: 200G (6.5%, 69,865G)
getthemoneyz: 170G (5.6%, 1,620,890G)
DouglasDragonThePoet: 150G (4.9%, 1,547G)
dowsingmouse: 100G (3.3%, 1,345G)
ko2q: 100G (3.3%, 7,350G)

yellow bets:
NIghtdew14: 1,500G (47.5%, 17,676G)
Raixelol: 955G (30.3%, 955G)
Klednar21: 300G (9.5%, 2,738G)
gorgewall: 201G (6.4%, 3,261G)
AllInBot: 200G (6.3%, 200G)
