Final Bets: green - 11 bets for 6,756G (64.0%, x0.56); yellow - 4 bets for 3,801G (36.0%, x1.78)

green bets:
loveyouallfriends: 3,024G (44.8%, 3,024G)
BirbBrainsBot: 1,000G (14.8%, 147,237G)
dantayystv: 1,000G (14.8%, 7,424G)
gooseyourself: 695G (10.3%, 695G)
ShintaroNayaka: 400G (5.9%, 11,768G)
datadrivenbot: 200G (3.0%, 57,634G)
getthemoneyz: 186G (2.8%, 1,272,669G)
nhammen: 100G (1.5%, 6,247G)
JumbocactuarX27: 100G (1.5%, 28,289G)
raenrond: 50G (0.7%, 4,604G)
SephDarkheart: 1G (0.0%, 23,637G)

yellow bets:
TheChainNerd: 1,605G (42.2%, 16,054G)
NIghtdew14: 1,219G (32.1%, 6,098G)
powergems: 777G (20.4%, 16,859G)
Mysteriousdewd: 200G (5.3%, 5,890G)
