Final Bets: green - 12 bets for 5,477G (32.3%, x2.09); yellow - 20 bets for 11,467G (67.7%, x0.48)

green bets:
dogsandcatsand: 1,111G (20.3%, 34,367G)
BirbBrainsBot: 1,000G (18.3%, 24,418G)
getthemoneyz: 1,000G (18.3%, 1,964,071G)
FoeSquirrel: 528G (9.6%, 1,057G)
holdenmagronik: 448G (8.2%, 2,747G)
JonnyCue: 388G (7.1%, 388G)
killth3kid: 250G (4.6%, 10,066G)
Musashi45: 236G (4.3%, 236G)
SnarkMage: 171G (3.1%, 1,071G)
hdyehy: 145G (2.6%, 145G)
BartTradingCompany: 100G (1.8%, 10,100G)
AbandonedHall: 100G (1.8%, 870G)

yellow bets:
biske13: 2,000G (17.4%, 197,844G)
nhammen: 2,000G (17.4%, 293,147G)
CorpusCav: 1,400G (12.2%, 56,792G)
DeathTaxesAndAnime: 1,002G (8.7%, 21,082G)
akash7: 691G (6.0%, 6,191G)
AllInBot: 689G (6.0%, 689G)
Raixelol: 600G (5.2%, 600G)
thehunterlb: 500G (4.4%, 2,431G)
Wonser: 384G (3.3%, 384G)
Cryptopsy70: 376G (3.3%, 1,536G)
SephDarkheart: 356G (3.1%, 32,651G)
otakutaylor: 268G (2.3%, 268G)
old_overholt_: 200G (1.7%, 7,592G)
tripaplex: 200G (1.7%, 2,862G)
BaronHaynes: 200G (1.7%, 30,137G)
datadrivenbot: 200G (1.7%, 61,051G)
gorgewall: 101G (0.9%, 5,474G)
maakur_: 100G (0.9%, 3,737G)
MemoriesofFinal: 100G (0.9%, 23,105G)
Nythimus: 100G (0.9%, 748G)
