Final Bets: green - 20 bets for 9,134G (73.8%, x0.36); yellow - 12 bets for 3,250G (26.2%, x2.81)

green bets:
SkylerBunny: 2,000G (21.9%, 113,778G)
BirbBrainsBot: 1,000G (10.9%, 184,720G)
getthemoneyz: 950G (10.4%, 850,846G)
DeathTaxesAndAnime: 828G (9.1%, 828G)
marin1987: 743G (8.1%, 743G)
sinnyil2: 525G (5.7%, 5,352G)
cloud92684: 500G (5.5%, 7,885G)
DustBirdEX: 345G (3.8%, 1,727G)
Spuzzmocker: 310G (3.4%, 310G)
gorgewall: 301G (3.3%, 6,424G)
Sans_from_Snowdin: 276G (3.0%, 276G)
prince_rogers_nelson_: 250G (2.7%, 8,763G)
Quadh0nk: 200G (2.2%, 200G)
DAC169: 180G (2.0%, 180G)
foofermoofer: 172G (1.9%, 172G)
Coolguye: 150G (1.6%, 2,006G)
DivineApocalypse: 104G (1.1%, 104G)
Celdia: 100G (1.1%, 2,441G)
datadrivenbot: 100G (1.1%, 35,634G)
trinitis: 100G (1.1%, 1,000G)

yellow bets:
Lydian_C: 1,200G (36.9%, 14,206G)
Shinzutalos: 505G (15.5%, 3,373G)
WitchHunterIX: 288G (8.9%, 288G)
Lythe_Caraker: 250G (7.7%, 119,752G)
CaptainGarlock: 200G (6.2%, 827G)
rednecknazgul: 188G (5.8%, 188G)
Arcblazer23: 168G (5.2%, 168G)
Firesheath: 101G (3.1%, 3,540G)
wollip: 100G (3.1%, 100G)
itszaane: 100G (3.1%, 1,933G)
Creggers: 100G (3.1%, 1,417G)
O_Heyno: 50G (1.5%, 1,484G)
