Final Bets: black - 17 bets for 12,586G (64.6%, x0.55); champion - 15 bets for 6,892G (35.4%, x1.83)

black bets:
WitchHunterIX: 2,560G (20.3%, 2,560G)
Deathmaker06: 2,147G (17.1%, 2,147G)
SkylerBunny: 1,500G (11.9%, 111,057G)
marin1987: 1,321G (10.5%, 1,321G)
Creggers: 1,000G (7.9%, 4,710G)
DaveStrider55: 1,000G (7.9%, 6,651G)
DustBirdEX: 656G (5.2%, 656G)
Error72: 500G (4.0%, 8,700G)
Arcblazer23: 470G (3.7%, 470G)
DivineApocalypse: 231G (1.8%, 231G)
gorgewall: 201G (1.6%, 6,566G)
CaptainGarlock: 200G (1.6%, 895G)
mistblade: 200G (1.6%, 4,002G)
trinitis: 200G (1.6%, 950G)
ar_tactic: 200G (1.6%, 62,125G)
datadrivenbot: 100G (0.8%, 35,636G)
foofermoofer: 100G (0.8%, 1,442G)

champion bets:
HaateXIII: 2,061G (29.9%, 2,061G)
Lydian_C: 1,200G (17.4%, 12,742G)
BirbBrainsBot: 1,000G (14.5%, 186,730G)
Phytik: 531G (7.7%, 531G)
Kalabain: 400G (5.8%, 5,244G)
wyonearth: 300G (4.4%, 2,259G)
Sans_from_Snowdin: 276G (4.0%, 276G)
Etce: 260G (3.8%, 260G)
rednecknazgul: 188G (2.7%, 188G)
Coolguye: 150G (2.2%, 2,811G)
DeathTaxesAndAnime: 130G (1.9%, 1,164G)
Celdia: 100G (1.5%, 3,060G)
victoriolue: 100G (1.5%, 7,110G)
Evewho: 100G (1.5%, 7,221G)
getthemoneyz: 96G (1.4%, 852,461G)
