Final Bets: green - 12 bets for 3,839G (42.3%, x1.36); yellow - 16 bets for 5,230G (57.7%, x0.73)

green bets:
roofiepops: 1,000G (26.0%, 10,367G)
HaateXIII: 516G (13.4%, 516G)
killth3kid: 500G (13.0%, 15,224G)
byrdturbo: 420G (10.9%, 17,096G)
AllInBot: 352G (9.2%, 352G)
benticore: 347G (9.0%, 347G)
otakutaylor: 200G (5.2%, 1,869G)
dinin991: 104G (2.7%, 104G)
nifboy: 100G (2.6%, 7,198G)
lastly: 100G (2.6%, 12,472G)
datadrivenbot: 100G (2.6%, 22,062G)
crookedjay: 100G (2.6%, 147G)

yellow bets:
BirbBrainsBot: 1,000G (19.1%, 133,758G)
NicoSavoy: 1,000G (19.1%, 59,881G)
HaplessOne: 666G (12.7%, 240,998G)
astrozin11: 524G (10.0%, 524G)
Breakdown777: 500G (9.6%, 5,550G)
moonliquor: 344G (6.6%, 344G)
aeonicvector: 236G (4.5%, 236G)
RaIshtar: 224G (4.3%, 224G)
serperemagus: 128G (2.4%, 128G)
E_Ballard: 100G (1.9%, 7,179G)
LDSkinny: 100G (1.9%, 14,129G)
FoeSquirrel: 100G (1.9%, 1,927G)
CorpusCav: 100G (1.9%, 8,291G)
timthehoodie: 100G (1.9%, 1,188G)
GrayGhostGaming: 100G (1.9%, 8,368G)
getthemoneyz: 8G (0.2%, 703,737G)
