Final Bets: green - 10 bets for 5,693G (49.4%, x1.03); purple - 12 bets for 5,838G (50.6%, x0.98)

green bets:
upvla: 1,286G (22.6%, 1,286G)
ForagerCats: 1,000G (17.6%, 7,854G)
UmaiJam: 1,000G (17.6%, 63,650G)
Error72: 738G (13.0%, 738G)
Modoh: 549G (9.6%, 1,098G)
skipsandwiches: 320G (5.6%, 320G)
ruleof5: 300G (5.3%, 20,925G)
AllInBot: 200G (3.5%, 200G)
datadrivenbot: 200G (3.5%, 33,477G)
Scurg: 100G (1.8%, 795G)

purple bets:
Lydian_C: 1,400G (24.0%, 30,856G)
dogsandcatsand: 1,000G (17.1%, 29,592G)
reinoe: 1,000G (17.1%, 86,062G)
BirbBrainsBot: 533G (9.1%, 116,208G)
Xoomwaffle: 515G (8.8%, 515G)
randgridr: 500G (8.6%, 500G)
josephiroth_143: 500G (8.6%, 8,757G)
Musclestache: 200G (3.4%, 9,604G)
getthemoneyz: 84G (1.4%, 1,337,449G)
roqqqpsi: 51G (0.9%, 1,023G)
DouglasDragonThePoet: 50G (0.9%, 873G)
BoneMiser: 5G (0.1%, 2,352G)
