Final Bets: purple - 8 bets for 10,722G (87.3%, x0.15); brown - 4 bets for 1,562G (12.7%, x6.86)

purple bets:
Evewho: 4,978G (46.4%, 9,761G)
HorusTaurus: 2,347G (21.9%, 2,347G)
nifboy: 1,000G (9.3%, 27,153G)
BirbBrainsBot: 1,000G (9.3%, 185,888G)
HaplessOne: 888G (8.3%, 12,782G)
ko2q: 380G (3.5%, 380G)
datadrivenbot: 100G (0.9%, 11,006G)
roqqqpsi: 29G (0.3%, 2,970G)

brown bets:
ungabunga_bot: 1,000G (64.0%, 454,803G)
getthemoneyz: 254G (16.3%, 659,116G)
Tekigi: 208G (13.3%, 208G)
Digitalsocrates: 100G (6.4%, 100G)
