Final Bets: white - 15 bets for 12,901G (59.9%, x0.67); black - 15 bets for 8,636G (40.1%, x1.49)

white bets:
skillomono: 3,000G (23.3%, 7,136G)
placidphoenix: 2,683G (20.8%, 2,683G)
Nickyfive: 2,500G (19.4%, 10,600G)
BirbBrainsBot: 1,000G (7.8%, 49,438G)
getthemoneyz: 1,000G (7.8%, 961,167G)
Evewho: 638G (4.9%, 638G)
old_overholt_: 500G (3.9%, 22,932G)
KittymanAdvance: 317G (2.5%, 317G)
mpghappiness: 234G (1.8%, 7,657G)
autnagrag: 222G (1.7%, 3,037G)
Azelgrim: 216G (1.7%, 216G)
BStarTV: 204G (1.6%, 204G)
Powermhero: 164G (1.3%, 24,406G)
cam_ATS: 123G (1.0%, 13,561G)
AllInBot: 100G (0.8%, 100G)

black bets:
VolgraTheMoose: 3,500G (40.5%, 55,783G)
WitchHunterIX: 890G (10.3%, 890G)
DeathTaxesAndAnime: 640G (7.4%, 640G)
Nizaha: 501G (5.8%, 32,927G)
Creggers: 500G (5.8%, 10,646G)
DuraiPapers: 500G (5.8%, 1,935G)
CorpusCav: 420G (4.9%, 420G)
gorgewall: 301G (3.5%, 20,207G)
letdowncity: 300G (3.5%, 20,616G)
CapnChaos12: 300G (3.5%, 10,995G)
DustBirdEX: 234G (2.7%, 956G)
Kronikle: 200G (2.3%, 17,345G)
MadnessR: 200G (2.3%, 3,462G)
Alanaire: 100G (1.2%, 16,971G)
IphoneDarkness: 50G (0.6%, 1,289G)
