Final Bets: red - 14 bets for 20,443G (54.8%, x0.83); blue - 27 bets for 16,883G (45.2%, x1.21)

red bets:
Nizaha: 12,497G (61.1%, 24,995G)
sinnyil2: 2,500G (12.2%, 114,192G)
nofreewill: 1,119G (5.5%, 1,119G)
Laserman1000: 817G (4.0%, 4,917G)
reinoe: 592G (2.9%, 592G)
Treapvort: 510G (2.5%, 510G)
Vampire_Killer: 500G (2.4%, 7,858G)
kingchadking: 428G (2.1%, 428G)
SkylerBunny: 344G (1.7%, 344G)
ColetteMSLP: 300G (1.5%, 10,205G)
JIDkomu: 294G (1.4%, 294G)
Chuckolator: 242G (1.2%, 6,164G)
ugoplatamia: 200G (1.0%, 10,949G)
AllInBot: 100G (0.5%, 100G)

blue bets:
upvla: 4,721G (28.0%, 134,983G)
OneHundredFists: 1,348G (8.0%, 1,348G)
ungabunga_bot: 1,000G (5.9%, 62,734G)
BirbBrainsBot: 1,000G (5.9%, 261,011G)
bad1dea: 1,000G (5.9%, 52,702G)
waterwatereverywhere: 942G (5.6%, 942G)
Slowbrofist: 748G (4.4%, 748G)
BenYuPoker: 712G (4.2%, 712G)
DeathTaxesAndAnime: 608G (3.6%, 608G)
JackOnFire1: 556G (3.3%, 1,112G)
Jennero: 500G (3.0%, 877G)
b0shii: 486G (2.9%, 486G)
ANFz: 485G (2.9%, 485G)
getthemoneyz: 420G (2.5%, 442,086G)
roofiepops: 389G (2.3%, 389G)
RRazza: 352G (2.1%, 352G)
AdmiralPikachu: 328G (1.9%, 328G)
ZephyrTempest: 222G (1.3%, 26,447G)
Meanderandreturn: 200G (1.2%, 4,332G)
Shalloween: 200G (1.2%, 2,731G)
Rethera_: 116G (0.7%, 116G)
Tougou: 100G (0.6%, 6,398G)
SeedSC: 100G (0.6%, 141,573G)
ApplesauceBoss: 100G (0.6%, 3,168G)
datadrivenbot: 100G (0.6%, 22,691G)
Ausuri: 100G (0.6%, 3,128G)
cougboi: 50G (0.3%, 5,374G)
