Final Bets: purple - 17 bets for 13,533G (57.0%, x0.76); brown - 21 bets for 10,228G (43.0%, x1.32)

purple bets:
Nizaha: 7,636G (56.4%, 15,273G)
sinnyil2: 1,200G (8.9%, 114,877G)
BenYuPoker: 652G (4.8%, 652G)
waterwatereverywhere: 564G (4.2%, 564G)
Treapvort: 501G (3.7%, 501G)
Snowfats: 500G (3.7%, 4,036G)
Vampire_Killer: 500G (3.7%, 7,978G)
SkylerBunny: 344G (2.5%, 344G)
Rethera_: 330G (2.4%, 330G)
Maeveen: 328G (2.4%, 328G)
JackOnFire1: 228G (1.7%, 228G)
ugoplatamia: 200G (1.5%, 10,997G)
Lodrak: 200G (1.5%, 1,447G)
ApplesauceBoss: 100G (0.7%, 3,009G)
NoNotBees: 100G (0.7%, 778G)
Ausuri: 100G (0.7%, 3,213G)
cougboi: 50G (0.4%, 5,530G)

brown bets:
helpimabug: 2,001G (19.6%, 11,552G)
ANFz: 1,265G (12.4%, 1,265G)
BirbBrainsBot: 1,000G (9.8%, 260,860G)
bad1dea: 1,000G (9.8%, 52,551G)
b0shii: 684G (6.7%, 684G)
Laserman1000: 524G (5.1%, 5,924G)
Shalloween: 500G (4.9%, 2,901G)
timthehoodie: 500G (4.9%, 2,100G)
OneHundredFists: 348G (3.4%, 348G)
ungabunga_bot: 341G (3.3%, 61,621G)
upvla: 322G (3.1%, 132,121G)
getthemoneyz: 276G (2.7%, 441,832G)
DrAntiSocial: 256G (2.5%, 256G)
Slowbrofist: 252G (2.5%, 252G)
ZephyrTempest: 245G (2.4%, 26,476G)
Chuckolator: 214G (2.1%, 6,364G)
Meanderandreturn: 150G (1.5%, 4,015G)
AllInBot: 100G (1.0%, 100G)
Firesheath: 100G (1.0%, 5,222G)
datadrivenbot: 100G (1.0%, 22,776G)
herrshaun: 50G (0.5%, 3,949G)
