Final Bets: green - 22 bets for 9,328G (44.0%, x1.27); yellow - 17 bets for 11,868G (56.0%, x0.79)

green bets:
leakimiko: 1,111G (11.9%, 50,008G)
VulcanPanderp: 1,000G (10.7%, 5,341G)
BirbBrainsBot: 1,000G (10.7%, 167,666G)
fenaen: 899G (9.6%, 899G)
nifboy: 865G (9.3%, 865G)
EnemyController: 500G (5.4%, 278,666G)
Deathmaker06: 500G (5.4%, 14,868G)
joewcarson: 500G (5.4%, 1,928G)
skillomono: 400G (4.3%, 2,938G)
DustBirdEX: 345G (3.7%, 15,042G)
DudeMonkey77: 333G (3.6%, 9,598G)
gabbagooluigi: 328G (3.5%, 328G)
gorgewall: 301G (3.2%, 9,197G)
GladiatorLupe: 200G (2.1%, 7,882G)
Dellusionsx: 200G (2.1%, 7,301G)
getthemoneyz: 192G (2.1%, 683,320G)
holyonline: 150G (1.6%, 12,121G)
chaotic_prodigy: 104G (1.1%, 104G)
Kronikle: 100G (1.1%, 11,219G)
AUrato: 100G (1.1%, 7,576G)
bruubarg: 100G (1.1%, 100G)
datadrivenbot: 100G (1.1%, 19,408G)

yellow bets:
NovaKnight21: 3,000G (25.3%, 8,467G)
HaplessOne: 2,727G (23.0%, 5,349G)
JumbocactuarX27: 1,242G (10.5%, 1,242G)
Spartan_Paladin: 1,100G (9.3%, 63,175G)
TheChainNerd: 1,000G (8.4%, 8,725G)
ungabunga_bot: 680G (5.7%, 504,404G)
ShintaroNayaka: 568G (4.8%, 568G)
Tsuike: 340G (2.9%, 340G)
Zachara: 228G (1.9%, 82,628G)
Communis: 200G (1.7%, 8,314G)
itsZaes: 155G (1.3%, 572G)
JLinkletter: 128G (1.1%, 128G)
CosmicTactician: 100G (0.8%, 6,709G)
E_Ballard: 100G (0.8%, 2,439G)
Tougou: 100G (0.8%, 1,973G)
Nizaha: 100G (0.8%, 18,848G)
brokenknight201: 100G (0.8%, 2,694G)
