Final Bets: blue - 16 bets for 8,382G (21.8%, x3.58); champion - 23 bets for 30,037G (78.2%, x0.28)

blue bets:
NovaKnight21: 1,675G (20.0%, 1,675G)
BirbBrainsBot: 1,000G (11.9%, 90,741G)
OneHundredFists: 1,000G (11.9%, 5,992G)
Mesmaster: 1,000G (11.9%, 135,114G)
Laserman1000: 700G (8.4%, 28,000G)
Rislyeu: 500G (6.0%, 12,704G)
Drusic: 333G (4.0%, 333G)
Ring_Wyrm: 324G (3.9%, 324G)
Vagrance: 310G (3.7%, 310G)
Flameatron: 300G (3.6%, 557G)
getthemoneyz: 260G (3.1%, 821,905G)
Luna_XIV: 244G (2.9%, 244G)
GladiatorLupe: 236G (2.8%, 236G)
gogofromtogo: 200G (2.4%, 1,392G)
ivellioz: 200G (2.4%, 657G)
cogniv0r3: 100G (1.2%, 5,112G)

champion bets:
kaidykat: 8,398G (28.0%, 16,467G)
Anak761: 6,529G (21.7%, 6,529G)
EnemyController: 4,000G (13.3%, 557,644G)
TheMM42: 3,504G (11.7%, 6,871G)
HaateXIII: 1,807G (6.0%, 1,807G)
DeathTaxesAndAnime: 1,435G (4.8%, 2,814G)
HaychDub: 1,046G (3.5%, 1,046G)
ChronoG: 604G (2.0%, 604G)
Thyrandaal: 546G (1.8%, 546G)
DAC169: 419G (1.4%, 419G)
BlackJack3D6: 228G (0.8%, 228G)
moocaotao: 225G (0.7%, 919G)
Nohurty: 200G (0.7%, 1,801G)
megakim: 200G (0.7%, 5,065G)
JLinkletter: 148G (0.5%, 148G)
Kalabain: 142G (0.5%, 142G)
gorgewall: 101G (0.3%, 1,690G)
Grandlanzer: 100G (0.3%, 2,059G)
CosmicTactician: 100G (0.3%, 19,067G)
datadrivenbot: 100G (0.3%, 32,768G)
Kronikle: 100G (0.3%, 23,743G)
reddwind_: 100G (0.3%, 993G)
moonliquor: 5G (0.0%, 2,412G)
