Final Bets: green - 24 bets for 19,832G (70.1%, x0.43); yellow - 14 bets for 8,460G (29.9%, x2.34)

green bets:
RaIshtar: 5,000G (25.2%, 19,419G)
books_books: 2,000G (10.1%, 32,700G)
Zeroroute: 1,874G (9.4%, 1,874G)
killth3kid: 1,000G (5.0%, 86,063G)
Draconis345: 1,000G (5.0%, 68,033G)
BirbBrainsBot: 1,000G (5.0%, 45,660G)
ANFz: 1,000G (5.0%, 44,287G)
E_Ballard: 1,000G (5.0%, 2,881G)
cam_ATS: 999G (5.0%, 44,777G)
Laserman1000: 600G (3.0%, 25,700G)
DLJuggernaut: 500G (2.5%, 4,707G)
dogsandcatsand: 500G (2.5%, 10,500G)
Lanshaft: 476G (2.4%, 10,844G)
getthemoneyz: 434G (2.2%, 1,260,312G)
Blastinus: 406G (2.0%, 406G)
lijerrr: 400G (2.0%, 973G)
ColetteMSLP: 300G (1.5%, 4,711G)
Shalloween: 300G (1.5%, 57,447G)
dantayystv: 220G (1.1%, 220G)
maddrave09: 200G (1.0%, 28,546G)
Evewho: 200G (1.0%, 4,781G)
datadrivenbot: 200G (1.0%, 63,273G)
Lydian_C: 123G (0.6%, 120,809G)
upidstupid: 100G (0.5%, 5,911G)

yellow bets:
DeathTaxesAndAnime: 3,613G (42.7%, 7,086G)
HaateXIII: 704G (8.3%, 704G)
BoneMiser: 600G (7.1%, 600G)
amiture: 500G (5.9%, 5,421G)
mirapoix: 500G (5.9%, 4,267G)
SephDarkheart: 459G (5.4%, 459G)
reinoe: 420G (5.0%, 420G)
ACSpree: 372G (4.4%, 372G)
run_with_stone_GUNs: 316G (3.7%, 10,097G)
gorgewall: 301G (3.6%, 8,504G)
silentkaster: 275G (3.3%, 16,275G)
mrfripps: 200G (2.4%, 5,981G)
fluffskull: 100G (1.2%, 1,667G)
Aquios_: 100G (1.2%, 220G)
