Final Bets: green - 12 bets for 4,966G (33.8%, x1.96); yellow - 14 bets for 9,712G (66.2%, x0.51)

green bets:
DeathTaxesAndAnime: 1,034G (20.8%, 1,034G)
BirbBrainsBot: 1,000G (20.1%, 66,419G)
reddwind_: 1,000G (20.1%, 52,308G)
Royal_Ruckus: 518G (10.4%, 518G)
getthemoneyz: 338G (6.8%, 1,320,139G)
Thyrandaal: 300G (6.0%, 300G)
JiroDoge: 250G (5.0%, 1,883G)
ProjectLG: 200G (4.0%, 5,087G)
nifboy: 100G (2.0%, 9,868G)
neerrm: 100G (2.0%, 18,851G)
Grandlanzer: 100G (2.0%, 91,925G)
roqqqpsi: 26G (0.5%, 2,685G)

yellow bets:
upvla: 2,000G (20.6%, 15,372G)
sinnyil2: 1,889G (19.5%, 3,779G)
Dasutin23: 1,000G (10.3%, 31,064G)
randgridr: 1,000G (10.3%, 4,128G)
reinoe: 1,000G (10.3%, 80,745G)
AllInBot: 835G (8.6%, 835G)
BlueAbs: 640G (6.6%, 640G)
TasisSai: 342G (3.5%, 671G)
Treafa: 250G (2.6%, 273G)
denniiax: 200G (2.1%, 1,097G)
datadrivenbot: 200G (2.1%, 32,299G)
dinin991: 156G (1.6%, 156G)
TheStreamingSpider: 100G (1.0%, 263G)
letdowncity: 100G (1.0%, 9,877G)
