Final Bets: white - 12 bets for 9,890G (71.7%, x0.40); black - 10 bets for 3,909G (28.3%, x2.53)

white bets:
Evewho: 4,577G (46.3%, 8,976G)
TheChainNerd: 1,625G (16.4%, 11,625G)
reinoe: 1,000G (10.1%, 24,931G)
superdevon1: 904G (9.1%, 4,523G)
DavenIII: 650G (6.6%, 7,333G)
JumbocactuarX27: 522G (5.3%, 522G)
asherban: 112G (1.1%, 112G)
letdowncity: 100G (1.0%, 4,645G)
TeaTime29: 100G (1.0%, 771G)
CosmicTactician: 100G (1.0%, 13,639G)
wizblizz: 100G (1.0%, 1,392G)
datadrivenbot: 100G (1.0%, 20,421G)

black bets:
BirbBrainsBot: 1,000G (25.6%, 172,814G)
LordSDB: 500G (12.8%, 6,607G)
LeoNightFury: 500G (12.8%, 2,843G)
Lawndough: 495G (12.7%, 495G)
rechaun: 384G (9.8%, 384G)
AllInBot: 302G (7.7%, 302G)
NIghtdew14: 250G (6.4%, 7,887G)
getthemoneyz: 228G (5.8%, 731,142G)
LivingHitokiri: 200G (5.1%, 14,077G)
zepharoth89: 50G (1.3%, 1,166G)
