Final Bets: white - 17 bets for 10,798G (63.9%, x0.57); black - 13 bets for 6,105G (36.1%, x1.77)

white bets:
Lordminsc: 3,633G (33.6%, 3,633G)
TheGuesty: 1,380G (12.8%, 25,380G)
Lionhermit: 1,000G (9.3%, 37,655G)
WrathfulRemy: 896G (8.3%, 896G)
Nickyfive: 736G (6.8%, 1,472G)
nifboy: 560G (5.2%, 560G)
FoeSquirrel: 521G (4.8%, 1,043G)
volgrathemoose: 503G (4.7%, 19,503G)
maakur_: 416G (3.9%, 416G)
Eyepoor_: 300G (2.8%, 2,946G)
genoguy: 224G (2.1%, 224G)
SuicideKing_XIX: 200G (1.9%, 1,098G)
ferroniss: 100G (0.9%, 100G)
datadrivenbot: 100G (0.9%, 12,996G)
CorpusCav: 100G (0.9%, 4,892G)
AmaninAmide: 100G (0.9%, 2,059G)
roqqqpsi: 29G (0.3%, 1,486G)

black bets:
ungabunga_bot: 1,000G (16.4%, 423,146G)
BirbBrainsBot: 1,000G (16.4%, 155,363G)
pandasforsale: 666G (10.9%, 22,900G)
E_Ballard: 600G (9.8%, 600G)
ColetteMSLP: 500G (8.2%, 28,805G)
Baron_von_Scrub: 474G (7.8%, 20,673G)
Luna_XIV: 457G (7.5%, 457G)
VarkilTV: 400G (6.6%, 1,375G)
CapnChaos12: 308G (5.0%, 308G)
mannequ1n: 250G (4.1%, 5,687G)
getthemoneyz: 226G (3.7%, 651,314G)
metagameface: 124G (2.0%, 124G)
corpus11: 100G (1.6%, 100G)
