Final Bets: blue - 22 bets for 14,247G (65.2%, x0.53); yellow - 13 bets for 7,600G (34.8%, x1.87)

blue bets:
Laserman1000: 3,000G (21.1%, 3,000G)
TheGuesty: 1,999G (14.0%, 32,999G)
WrathfulRemy: 1,003G (7.0%, 1,003G)
BirbBrainsBot: 1,000G (7.0%, 154,575G)
Lionhermit: 1,000G (7.0%, 38,220G)
NovaKnight21: 900G (6.3%, 4,088G)
ungabunga_bot: 608G (4.3%, 422,030G)
volgrathemoose: 591G (4.1%, 18,786G)
nifboy: 560G (3.9%, 560G)
Breakdown777: 500G (3.5%, 14,680G)
Velixtra: 479G (3.4%, 479G)
Baron_von_Scrub: 474G (3.3%, 21,432G)
maakur_: 416G (2.9%, 416G)
roqqqpsi: 323G (2.3%, 1,472G)
carbonpile: 300G (2.1%, 6,748G)
metagameface: 262G (1.8%, 262G)
getthemoneyz: 228G (1.6%, 651,166G)
Snoopiku: 200G (1.4%, 2,140G)
ZDarius: 104G (0.7%, 104G)
Squatting_Bear: 100G (0.7%, 2,742G)
ferroniss: 100G (0.7%, 100G)
datadrivenbot: 100G (0.7%, 12,953G)

yellow bets:
reinoe: 2,000G (26.3%, 10,962G)
Lordminsc: 1,422G (18.7%, 2,844G)
Lali_Lulelo: 1,249G (16.4%, 1,249G)
concles: 777G (10.2%, 16,504G)
sinnyil2: 500G (6.6%, 15,251G)
CapnChaos12: 308G (4.1%, 308G)
AmaninAmide: 300G (3.9%, 2,116G)
Luna_XIV: 236G (3.1%, 236G)
genoguy: 224G (2.9%, 224G)
SuicideKing_XIX: 200G (2.6%, 1,011G)
mazecrossant: 184G (2.4%, 184G)
CosmicTactician: 100G (1.3%, 11,504G)
Jampck: 100G (1.3%, 498G)
