Final Bets: white - 13 bets for 8,964G (24.2%, x3.14); champion - 28 bets for 28,152G (75.8%, x0.32)

white bets:
Lordminsc: 5,506G (61.4%, 11,012G)
Grimmace45: 777G (8.7%, 24,160G)
nifboy: 560G (6.2%, 560G)
genericco: 500G (5.6%, 5,232G)
maakur_: 416G (4.6%, 416G)
getthemoneyz: 408G (4.6%, 651,643G)
RestIessNight: 200G (2.2%, 1,148G)
byrdturbo: 169G (1.9%, 2,299G)
Squatting_Bear: 100G (1.1%, 2,642G)
mikesk1: 100G (1.1%, 2,759G)
sir_sugarboogerz: 100G (1.1%, 3,119G)
Sairentozon7: 100G (1.1%, 3,592G)
roqqqpsi: 28G (0.3%, 1,412G)

champion bets:
sinnyil2: 8,094G (28.8%, 16,188G)
volgrathemoose: 2,001G (7.1%, 19,866G)
killth3kid: 2,000G (7.1%, 49,488G)
Lord_Burrah: 1,752G (6.2%, 102,752G)
roofiepops: 1,444G (5.1%, 3,692G)
SuicideKing_XIX: 1,394G (5.0%, 1,394G)
Jaritras: 1,080G (3.8%, 1,080G)
AmaninAmide: 1,000G (3.6%, 2,486G)
BirbBrainsBot: 1,000G (3.6%, 153,617G)
carbonpile: 1,000G (3.6%, 6,969G)
WrathfulRemy: 797G (2.8%, 797G)
ColetteMSLP: 750G (2.7%, 28,360G)
Laserman1000: 716G (2.5%, 716G)
E_Ballard: 600G (2.1%, 600G)
Lali_Lulelo: 592G (2.1%, 592G)
Estan_AD: 500G (1.8%, 4,061G)
Breakdown777: 500G (1.8%, 13,680G)
metagameface: 411G (1.5%, 411G)
Kronikle: 400G (1.4%, 1,955G)
jwchapm: 400G (1.4%, 850G)
Theseawolf1: 344G (1.2%, 344G)
mazecrossant: 329G (1.2%, 329G)
CapnChaos12: 300G (1.1%, 1,933G)
genoguy: 224G (0.8%, 224G)
benticore: 200G (0.7%, 5,178G)
Hypez_nova1: 112G (0.4%, 112G)
ungabunga_bot: 112G (0.4%, 419,564G)
datadrivenbot: 100G (0.4%, 12,653G)
