Final Bets: green - 16 bets for 6,681G (41.9%, x1.38); yellow - 12 bets for 9,253G (58.1%, x0.72)

green bets:
gooseyourself: 1,290G (19.3%, 2,580G)
getthemoneyz: 1,000G (15.0%, 939,472G)
maakur_: 688G (10.3%, 688G)
thaetreis: 567G (8.5%, 1,134G)
DLJuggernaut: 500G (7.5%, 17,872G)
Rytor: 500G (7.5%, 4,919G)
Alaquane: 440G (6.6%, 440G)
benticore: 412G (6.2%, 412G)
Avin_Chaos: 300G (4.5%, 17,102G)
lordhewlett: 256G (3.8%, 256G)
Miku_Shikhu: 200G (3.0%, 6,346G)
alterworlds: 128G (1.9%, 128G)
AllInBot: 100G (1.5%, 100G)
lastly: 100G (1.5%, 22,161G)
nappychicken: 100G (1.5%, 3,240G)
datadrivenbot: 100G (1.5%, 37,335G)

yellow bets:
TheChainNerd: 2,500G (27.0%, 15,976G)
Breakdown777: 1,500G (16.2%, 44,301G)
Baron_von_Scrub: 1,111G (12.0%, 49,692G)
VolgraTheMoose: 1,001G (10.8%, 59,600G)
BirbBrainsBot: 1,000G (10.8%, 188,241G)
Pyre_Pyre: 1,000G (10.8%, 2,540G)
actual_JP: 424G (4.6%, 424G)
Zachara: 250G (2.7%, 99,500G)
ZCKaiser: 167G (1.8%, 1,677G)
E_Ballard: 100G (1.1%, 5,057G)
CosmicTactician: 100G (1.1%, 1,067G)
Milkman153: 100G (1.1%, 5,004G)
