Final Bets: white - 12 bets for 4,856G (22.3%, x3.48); black - 20 bets for 16,891G (77.7%, x0.29)

white bets:
BoneMiser: 1,219G (25.1%, 1,219G)
Mesmaster: 1,000G (20.6%, 136,976G)
Estan_AD: 500G (10.3%, 5,552G)
Dymntd: 500G (10.3%, 18,354G)
cupholderr: 500G (10.3%, 27,506G)
getthemoneyz: 376G (7.7%, 659,104G)
electric_glass: 250G (5.1%, 8,320G)
TheJonTerp: 200G (4.1%, 3,138G)
Practice_Pad: 150G (3.1%, 673G)
OneHundredFists: 100G (2.1%, 4,162G)
SulliedGraves: 50G (1.0%, 3,125G)
Communis: 11G (0.2%, 111G)

black bets:
theNGUYENNER: 5,000G (29.6%, 15,491G)
Evewho: 2,062G (12.2%, 4,045G)
theanonymouslurker: 2,013G (11.9%, 2,013G)
HaplessOne: 1,316G (7.8%, 5,266G)
BirbBrainsBot: 1,000G (5.9%, 185,358G)
Pie108: 1,000G (5.9%, 10,343G)
Lydian_C: 854G (5.1%, 854G)
CorpusCav: 599G (3.5%, 6,199G)
ko2q: 530G (3.1%, 530G)
reinoe: 500G (3.0%, 500G)
waterwatereverywhere: 436G (2.6%, 436G)
troublesometree: 431G (2.6%, 431G)
twelfthrootoftwo: 400G (2.4%, 1,246G)
ungabunga_bot: 150G (0.9%, 447,398G)
Realitydown: 100G (0.6%, 3,492G)
datadrivenbot: 100G (0.6%, 12,282G)
JIDkomu: 100G (0.6%, 7,238G)
cougboi: 100G (0.6%, 9,834G)
Kyune: 100G (0.6%, 7,074G)
Oobs56: 100G (0.6%, 2,588G)
