Final Bets: green - 21 bets for 16,603G (57.4%, x0.74); white - 12 bets for 12,313G (42.6%, x1.35)

green bets:
cupholderr: 3,000G (18.1%, 31,503G)
Estan_AD: 2,585G (15.6%, 5,171G)
theNGUYENNER: 2,000G (12.0%, 8,859G)
Lydian_C: 1,146G (6.9%, 1,146G)
ko2q: 1,089G (6.6%, 1,089G)
BirbBrainsBot: 1,000G (6.0%, 184,698G)
alecttox: 1,000G (6.0%, 9,736G)
twelfthrootoftwo: 776G (4.7%, 776G)
HaplessOne: 666G (4.0%, 5,674G)
Jaritras: 576G (3.5%, 3,576G)
zmoses: 500G (3.0%, 11,116G)
BuffaloCrunch: 456G (2.7%, 456G)
waterwatereverywhere: 440G (2.7%, 440G)
getthemoneyz: 404G (2.4%, 660,305G)
ungabunga_bot: 211G (1.3%, 448,479G)
Tekigi: 204G (1.2%, 204G)
cougboi: 150G (0.9%, 9,857G)
OneHundredFists: 100G (0.6%, 4,520G)
datadrivenbot: 100G (0.6%, 12,369G)
SulliedGraves: 100G (0.6%, 3,449G)
Oobs56: 100G (0.6%, 2,763G)

white bets:
Master_Metroid: 5,000G (40.6%, 35,954G)
BoneMiser: 3,767G (30.6%, 7,535G)
Mesmaster: 1,000G (8.1%, 141,135G)
megamax667: 549G (4.5%, 8,494G)
CorpusCav: 540G (4.4%, 4,540G)
kaydinv: 500G (4.1%, 6,668G)
RughSontos: 416G (3.4%, 416G)
TheJonTerp: 200G (1.6%, 3,787G)
Lythe_Caraker: 100G (0.8%, 116,614G)
Tomion: 100G (0.8%, 2,655G)
troublesometree: 100G (0.8%, 881G)
Communis: 41G (0.3%, 182G)
