Final Bets: black - 24 bets for 13,712G (74.7%, x0.34); purple - 15 bets for 4,640G (25.3%, x2.96)

black bets:
leakimiko: 1,800G (13.1%, 37,646G)
HaplessOne: 1,234G (9.0%, 87,865G)
Aldrammech: 1,000G (7.3%, 3,711G)
Theseawolf1: 1,000G (7.3%, 48,418G)
BirbBrainsBot: 849G (6.2%, 109,700G)
getthemoneyz: 828G (6.0%, 685,861G)
LionelParks: 742G (5.4%, 742G)
aeonicvector: 695G (5.1%, 994G)
Rislyeu: 662G (4.8%, 662G)
nifboy: 609G (4.4%, 609G)
reinoe: 500G (3.6%, 4,412G)
JLinkletter: 500G (3.6%, 1,074G)
fenaen: 500G (3.6%, 8,237G)
ungabunga_bot: 467G (3.4%, 513,562G)
CorpusCav: 422G (3.1%, 8,422G)
luminarii: 400G (2.9%, 11,186G)
FriendSquirrel: 328G (2.4%, 328G)
zunath: 300G (2.2%, 14,222G)
katgreen: 204G (1.5%, 204G)
Tsuike: 200G (1.5%, 868G)
eudes89: 148G (1.1%, 148G)
Lawndough: 124G (0.9%, 124G)
datadrivenbot: 100G (0.7%, 18,252G)
Lythe_Caraker: 100G (0.7%, 123,731G)

purple bets:
manc0_: 1,000G (21.6%, 33,073G)
Maldoree: 609G (13.1%, 609G)
killth3kid: 555G (12.0%, 10,522G)
Mesmaster: 500G (10.8%, 50,712G)
Lionhermit: 456G (9.8%, 456G)
evdoggity: 288G (6.2%, 288G)
wooyuji: 212G (4.6%, 212G)
IanTheWoodchuck: 200G (4.3%, 294G)
otakutaylor: 168G (3.6%, 168G)
HyorinMaster: 152G (3.3%, 152G)
lastly: 100G (2.2%, 13,579G)
Kyune: 100G (2.2%, 3,417G)
jwchapm: 100G (2.2%, 1,090G)
GladiatorLupe: 100G (2.2%, 100G)
Arbitae: 100G (2.2%, 900G)
