Final Bets: white - 27 bets for 12,393G (38.4%, x1.60); brown - 20 bets for 19,880G (61.6%, x0.62)

white bets:
Mtueni: 3,000G (24.2%, 107,364G)
inzo_bettingbot: 1,000G (8.1%, 11,254G)
BirbBrainsBot: 1,000G (8.1%, 194,942G)
bad1dea: 1,000G (8.1%, 187,300G)
leakimiko: 973G (7.9%, 12,172G)
Lodrak: 660G (5.3%, 660G)
HaplessOne: 643G (5.2%, 14,735G)
tone_t: 615G (5.0%, 615G)
DavenIII: 546G (4.4%, 546G)
JumbocactuarX27: 379G (3.1%, 379G)
fenaen: 296G (2.4%, 296G)
ZephyrTempest: 251G (2.0%, 1,984G)
CCRUNNER149UWP: 228G (1.8%, 228G)
HRak050: 213G (1.7%, 213G)
ugoplatamia: 200G (1.6%, 2,592G)
Drakel: 200G (1.6%, 1,000G)
ra1kia: 200G (1.6%, 1,387G)
inzo24: 167G (1.3%, 167G)
moonliquor: 131G (1.1%, 131G)
greghatch: 128G (1.0%, 128G)
ko2q: 116G (0.9%, 116G)
wackyzachyy: 112G (0.9%, 112G)
BadBlanket: 100G (0.8%, 2,771G)
datadrivenbot: 100G (0.8%, 15,532G)
getthemoneyz: 84G (0.7%, 356,313G)
Nerdy1: 50G (0.4%, 160G)
RughSontos: 1G (0.0%, 1,631G)

brown bets:
Eoika: 4,712G (23.7%, 4,712G)
Ququroon: 4,582G (23.0%, 91,654G)
typicalfanboy: 2,781G (14.0%, 27,816G)
Vivithegr8: 2,420G (12.2%, 4,401G)
kai_shee: 1,000G (5.0%, 41,672G)
PlatinumPlume: 777G (3.9%, 6,253G)
rocl: 604G (3.0%, 6,045G)
friendsquirrel: 533G (2.7%, 533G)
HaateXIII: 500G (2.5%, 5,656G)
PetitFoulard: 340G (1.7%, 340G)
Skarthe: 300G (1.5%, 6,955G)
Baron_von_Scrub: 240G (1.2%, 240G)
Axelrod: 219G (1.1%, 21,926G)
Aeolus_000: 200G (1.0%, 2,605G)
AllInBot: 160G (0.8%, 160G)
Jeardra: 112G (0.6%, 112G)
denamda: 100G (0.5%, 19,761G)
SeraphPDH: 100G (0.5%, 9,677G)
RuneS_77: 100G (0.5%, 4,859G)
red_celt: 100G (0.5%, 2,192G)
