Final Bets: white - 17 bets for 12,669G (79.0%, x0.27); black - 10 bets for 3,376G (21.0%, x3.75)

white bets:
Evewho: 3,550G (28.0%, 3,550G)
TheChainNerd: 2,643G (20.9%, 2,643G)
cam_ATS: 1,560G (12.3%, 25,508G)
BirbBrainsBot: 1,000G (7.9%, 183,236G)
Laserman1000: 785G (6.2%, 28,385G)
nifboy: 700G (5.5%, 700G)
sinnyil2: 500G (3.9%, 6,181G)
Thyrandaal: 404G (3.2%, 404G)
twelfthrootoftwo: 400G (3.2%, 1,010G)
DustBirdEX: 314G (2.5%, 628G)
CosmicTactician: 200G (1.6%, 1,391G)
MadnessR: 185G (1.5%, 185G)
Lydian_C: 120G (0.9%, 5,709G)
ko2q: 100G (0.8%, 6,187G)
datadrivenbot: 100G (0.8%, 38,754G)
Grandlanzer: 100G (0.8%, 5,820G)
getthemoneyz: 8G (0.1%, 936,031G)

black bets:
Baron_von_Scrub: 1,111G (32.9%, 29,499G)
RunicMagus: 600G (17.8%, 52,761G)
YaBoy125: 477G (14.1%, 4,779G)
Ring_Wyrm: 376G (11.1%, 376G)
ZCKaiser: 211G (6.2%, 2,119G)
gorgewall: 201G (6.0%, 13,825G)
AllInBot: 100G (3.0%, 100G)
DusterW: 100G (3.0%, 100G)
Yiroep2: 100G (3.0%, 1,182G)
IphoneDarkness: 100G (3.0%, 4,507G)
