Final Bets: blue - 18 bets for 14,523G (46.0%, x1.17); champion - 16 bets for 17,051G (54.0%, x0.85)

blue bets:
Evewho: 2,000G (13.8%, 21,824G)
resjudicata3: 1,827G (12.6%, 3,654G)
Thyrandaal: 1,522G (10.5%, 1,522G)
Mushufasa_: 1,234G (8.5%, 22,425G)
ko2q: 1,039G (7.2%, 1,039G)
SeniorBunk: 1,000G (6.9%, 67,260G)
old_overholt_: 1,000G (6.9%, 38,353G)
Shalloween: 1,000G (6.9%, 70,866G)
killth3kid: 848G (5.8%, 41,391G)
Snowfats: 500G (3.4%, 57,361G)
Lord_Gwarth: 500G (3.4%, 6,550G)
YowaneHaku: 500G (3.4%, 4,028G)
getthemoneyz: 492G (3.4%, 2,204,279G)
Lolthsmeat: 360G (2.5%, 360G)
gorgewall: 201G (1.4%, 8,522G)
AllInBot: 200G (1.4%, 200G)
datadrivenbot: 200G (1.4%, 82,231G)
CosmicTactician: 100G (0.7%, 2,749G)

champion bets:
Virilikus: 5,000G (29.3%, 137,879G)
E_Ballard: 3,071G (18.0%, 3,071G)
ruleof5: 2,555G (15.0%, 2,555G)
Leonidusx: 2,000G (11.7%, 518,674G)
BirbBrainsBot: 1,000G (5.9%, 190,428G)
lowlf: 688G (4.0%, 3,014G)
Zagorsek: 576G (3.4%, 576G)
2b_yorha_b: 500G (2.9%, 36,129G)
smallboops: 500G (2.9%, 2,683G)
brokenknight201: 300G (1.8%, 2,456G)
verythinice: 256G (1.5%, 256G)
Demon_Lord_Josh: 232G (1.4%, 232G)
MelTorefas: 123G (0.7%, 123G)
nhammen: 100G (0.6%, 9,862G)
ExplanationMarkWow: 100G (0.6%, 50,130G)
king_smashington: 50G (0.3%, 5,303G)
