Final Bets: red - 10 bets for 6,135G (37.4%, x1.67); blue - 22 bets for 10,274G (62.6%, x0.60)

red bets:
SkylerBunny: 2,000G (32.6%, 87,750G)
DustBirdEX: 1,234G (20.1%, 21,944G)
argentbast: 1,000G (16.3%, 30,773G)
Digitalsocrates: 500G (8.1%, 2,258G)
xdwags: 400G (6.5%, 400G)
gorgewall: 201G (3.3%, 28,878G)
flametail24: 200G (3.3%, 1,654G)
Evewho: 200G (3.3%, 3,134G)
ChronoG: 200G (3.3%, 653G)
King_Harb: 200G (3.3%, 6,740G)

blue bets:
DeathTaxesAndAnime: 1,400G (13.6%, 1,400G)
gooseyourself: 1,084G (10.6%, 1,084G)
BirbBrainsBot: 1,000G (9.7%, 138,389G)
Deathmaker06: 1,000G (9.7%, 3,330G)
Laserman1000: 800G (7.8%, 34,000G)
getthemoneyz: 780G (7.6%, 793,292G)
sinnyil2: 593G (5.8%, 1,187G)
EnemyController: 500G (4.9%, 475,729G)
Ring_Wyrm: 480G (4.7%, 480G)
electric_algus: 384G (3.7%, 384G)
red_celt: 368G (3.6%, 368G)
OneHundredFists: 308G (3.0%, 308G)
silentperogy: 300G (2.9%, 28,758G)
Flameatron: 300G (2.9%, 5,657G)
gogofromtogo: 200G (1.9%, 2,380G)
Shalloween: 200G (1.9%, 2,636G)
Grandlanzer: 100G (1.0%, 7,514G)
Antipathics: 100G (1.0%, 1,528G)
CorpusCav: 100G (1.0%, 12,358G)
datadrivenbot: 100G (1.0%, 30,632G)
TinchoT: 100G (1.0%, 8,913G)
Ross_from_Cali: 77G (0.7%, 3,421G)
