Final Bets: green - 11 bets for 5,953G (47.0%, x1.13); yellow - 14 bets for 6,726G (53.0%, x0.89)

green bets:
argentbast: 1,000G (16.8%, 29,773G)
EnemyController: 1,000G (16.8%, 476,028G)
BirbBrainsBot: 1,000G (16.8%, 138,986G)
Lionhermit: 1,000G (16.8%, 2,877G)
OneHundredFists: 492G (8.3%, 492G)
getthemoneyz: 378G (6.3%, 793,758G)
byrdturbo: 333G (5.6%, 22,577G)
Lythe_Caraker: 250G (4.2%, 122,170G)
Xcessive30: 200G (3.4%, 1,272G)
TinchoT: 200G (3.4%, 8,973G)
DustBirdEX: 100G (1.7%, 20,710G)

yellow bets:
Digitalsocrates: 1,758G (26.1%, 1,758G)
DeathTaxesAndAnime: 1,140G (16.9%, 2,236G)
CorpusCav: 1,020G (15.2%, 12,418G)
gooseyourself: 731G (10.9%, 731G)
PezPezzington: 500G (7.4%, 7,484G)
Shalloween: 400G (5.9%, 2,755G)
Grandlanzer: 300G (4.5%, 7,574G)
gogofromtogo: 200G (3.0%, 2,499G)
flametail24: 200G (3.0%, 1,454G)
xdwags: 100G (1.5%, 100G)
E_Ballard: 100G (1.5%, 2,289G)
Antipathics: 100G (1.5%, 1,588G)
datadrivenbot: 100G (1.5%, 30,692G)
Ross_from_Cali: 77G (1.1%, 2,467G)
