Final Bets: black - 9 bets for 20,514G (76.2%, x0.31); purple - 11 bets for 6,412G (23.8%, x3.20)

black bets:
NovaKnight21: 17,729G (86.4%, 17,729G)
ANFz: 770G (3.8%, 1,541G)
evontno: 500G (2.4%, 6,447G)
Ross_from_Cali: 413G (2.0%, 3,996G)
E_Ballard: 352G (1.7%, 352G)
Lythe_Caraker: 250G (1.2%, 122,573G)
L2_Sentinel: 200G (1.0%, 38,874G)
flametail24: 200G (1.0%, 1,702G)
red_celt: 100G (0.5%, 855G)

purple bets:
electric_algus: 1,226G (19.1%, 1,226G)
CorpusCav: 1,100G (17.2%, 14,244G)
BirbBrainsBot: 1,000G (15.6%, 138,898G)
Kronikle: 1,000G (15.6%, 20,625G)
getthemoneyz: 594G (9.3%, 791,754G)
Digitalsocrates: 500G (7.8%, 4,441G)
OneHundredFists: 308G (4.8%, 308G)
HaateXIII: 250G (3.9%, 6,210G)
DustBirdEX: 234G (3.6%, 19,620G)
datadrivenbot: 100G (1.6%, 30,661G)
Ring_Wyrm: 100G (1.6%, 747G)
