Final Bets: white - 24 bets for 15,689G (71.1%, x0.41); purple - 13 bets for 6,382G (28.9%, x2.46)

white bets:
Leonidusx: 2,000G (12.7%, 17,594G)
Shalloween: 1,500G (9.6%, 11,908G)
reinoe: 1,340G (8.5%, 1,340G)
CorpusCav: 1,322G (8.4%, 14,322G)
krombobreaker: 1,284G (8.2%, 1,284G)
sinnyil2: 1,200G (7.6%, 113,230G)
BirbBrainsBot: 1,000G (6.4%, 111,198G)
solomongrundy85: 859G (5.5%, 859G)
Mudrockk: 800G (5.1%, 16,883G)
E_Ballard: 680G (4.3%, 680G)
upvla: 534G (3.4%, 534G)
ruleof5: 492G (3.1%, 492G)
Zeroroute: 453G (2.9%, 2,389G)
Runeseeker22: 426G (2.7%, 8,532G)
Laserman1000: 394G (2.5%, 1,794G)
ArrenJevleth: 300G (1.9%, 12,119G)
Smugzug: 272G (1.7%, 1,640G)
datadrivenbot: 200G (1.3%, 60,744G)
getthemoneyz: 122G (0.8%, 1,929,715G)
PantherIscariot: 111G (0.7%, 2,055G)
AllInBot: 100G (0.6%, 100G)
BartTradingCompany: 100G (0.6%, 8,045G)
maakur_: 100G (0.6%, 3,647G)
grishhammer: 100G (0.6%, 1,010G)

purple bets:
SkylerBunny: 1,178G (18.5%, 1,178G)
LivingHitokiri: 1,116G (17.5%, 1,116G)
NicoSavoy: 1,000G (15.7%, 60,382G)
HASTERIOUS: 688G (10.8%, 688G)
Oreo_Pizza: 500G (7.8%, 247,568G)
ser_pyrro: 500G (7.8%, 4,778G)
seppu777: 333G (5.2%, 6,147G)
Zerguzen: 240G (3.8%, 240G)
Omally_: 220G (3.4%, 220G)
dinin991: 200G (3.1%, 2,288G)
CrazyLou64: 153G (2.4%, 153G)
mrironjustice: 153G (2.4%, 153G)
gorgewall: 101G (1.6%, 12,775G)
