Final Bets: red - 10 bets for 10,814G (59.5%, x0.68); blue - 13 bets for 7,358G (40.5%, x1.47)

red bets:
VolgraTheMoose: 5,001G (46.2%, 64,300G)
TheChainNerd: 2,449G (22.6%, 12,247G)
Breakdown777: 1,200G (11.1%, 36,783G)
eudes89: 684G (6.3%, 684G)
DLJuggernaut: 500G (4.6%, 16,481G)
peeronid: 300G (2.8%, 6,153G)
Angelomortis: 252G (2.3%, 252G)
Milkman153: 200G (1.8%, 5,030G)
alterworlds: 128G (1.2%, 128G)
datadrivenbot: 100G (0.9%, 37,005G)

blue bets:
serperemagus: 2,432G (33.1%, 2,432G)
Baron_von_Scrub: 1,111G (15.1%, 54,592G)
BirbBrainsBot: 1,000G (13.6%, 189,174G)
sinnyil2: 772G (10.5%, 772G)
powergems: 500G (6.8%, 3,333G)
fluffskull: 283G (3.8%, 283G)
dinin991: 270G (3.7%, 270G)
AllInBot: 262G (3.6%, 262G)
Anasetsuken: 200G (2.7%, 914G)
Anomandaris__: 176G (2.4%, 176G)
getthemoneyz: 152G (2.1%, 939,343G)
velvetnightmarex: 100G (1.4%, 1,814G)
E_Ballard: 100G (1.4%, 5,682G)
