Final Bets: yellow - 21 bets for 26,399G (82.3%, x0.22); purple - 5 bets for 5,679G (17.7%, x4.65)

yellow bets:
Shalloween: 6,000G (22.7%, 159,210G)
Thyrandaal: 4,000G (15.2%, 30,991G)
NovaKnight21: 2,528G (9.6%, 2,528G)
dtrain332: 2,041G (7.7%, 2,041G)
NicoSavoy: 2,000G (7.6%, 265,971G)
Nizaha: 1,893G (7.2%, 3,786G)
sinnyil2: 1,718G (6.5%, 1,718G)
mpghappiness: 1,599G (6.1%, 3,137G)
Digitalsocrates: 1,000G (3.8%, 1,799G)
BirbBrainsBot: 1,000G (3.8%, 170,708G)
NeonTarget: 900G (3.4%, 900G)
ruleof5: 300G (1.1%, 2,519G)
gorgewall: 201G (0.8%, 15,723G)
AllInBot: 200G (0.8%, 200G)
Klednar21: 200G (0.8%, 1,494G)
datadrivenbot: 200G (0.8%, 30,576G)
shineeyo: 200G (0.8%, 12,760G)
Lydian_C: 121G (0.5%, 87,542G)
Miku_Shikhu: 100G (0.4%, 1,630G)
victoriolue: 100G (0.4%, 2,265G)
getthemoneyz: 98G (0.4%, 1,340,740G)

purple bets:
douchetron: 4,026G (70.9%, 7,896G)
Lythe_Caraker: 1,000G (17.6%, 154,636G)
superdevon1: 453G (8.0%, 4,536G)
Firesheath: 100G (1.8%, 11,202G)
DAC169: 100G (1.8%, 997G)
