Final Bets: white - 14 bets for 11,426G (60.8%, x0.65); black - 16 bets for 7,382G (39.2%, x1.55)

white bets:
NovaKnight21: 2,629G (23.0%, 2,629G)
Sairentozon7: 2,065G (18.1%, 2,065G)
ExecutedGiraffe: 1,795G (15.7%, 1,795G)
gooseyourself: 1,061G (9.3%, 1,061G)
Zbgs: 1,000G (8.8%, 50,178G)
DLJuggernaut: 700G (6.1%, 3,048G)
HaychDub: 528G (4.6%, 1,057G)
ANFz: 500G (4.4%, 4,863G)
killth3kid: 332G (2.9%, 13,008G)
Kalabain: 208G (1.8%, 208G)
Reien: 200G (1.8%, 240G)
Flameatron: 200G (1.8%, 447G)
Geffro1908: 108G (0.9%, 108G)
Evewho: 100G (0.9%, 15,811G)

black bets:
reinoe: 1,000G (13.5%, 8,972G)
astrozin11: 1,000G (13.5%, 1,000G)
Oobs56: 1,000G (13.5%, 2,318G)
getthemoneyz: 998G (13.5%, 825,147G)
DeathTaxesAndAnime: 776G (10.5%, 776G)
wyonearth: 500G (6.8%, 4,580G)
BirbBrainsBot: 423G (5.7%, 90,644G)
gogofromtogo: 352G (4.8%, 352G)
Grandlanzer: 300G (4.1%, 300G)
Nohurty: 269G (3.6%, 539G)
twelfthrootoftwo: 200G (2.7%, 579G)
TinchoT: 164G (2.2%, 164G)
mrmaniac_: 100G (1.4%, 100G)
datadrivenbot: 100G (1.4%, 32,895G)
SulliedGraves: 100G (1.4%, 3,527G)
Ring_Wyrm: 100G (1.4%, 947G)
