High Risers:
1. Mesmaster: +15,620G
2. Nhammen: +9,645G
3. Nickyfive: +4,616G
4. Lansedm: +3,528G
5. Enemycontroller: +3,214G
6. E_ballard: +2,147G
7. Arcblazer23: +1,886G
8. Wrath189: +1,577G
9. Valensexp_: +1,280G
10. Escobro: +1,058G
11. Dljuggernaut: +911G
12. Yangusburger: +843G
13. Lijarkh: +759G
14. Reinoe: +687G
15. Maakur_: +639G
16. Mrubiq: +595G
17. Reddwind_: +594G
18. Hotpocketsofficial: +572G
19. Sietaha: +557G
20. Moonliquor: +545G
21. Laserman1000: +523G
22. Stealthmodelocke: +504G
23. Lord_gwarth: +504G
24. Daveniii: +504G
25. Archknightx: +500G
26. The_pengwin: +500G
27. Myfakelife: +500G
28. Redmage4evah: +500G
29. Lokenwow: +500G
30. Kronikle: +500G
31. Run_with_stone_guns: +500G
32. Lushifah: +500G
33. Squasian: +500G
34. Dac169: +500G
35. Mirapoix: +500G
36. Porotact: +500G
37. Pandakingeric: +500G
38. Latebit: +500G
39. Rocl: +500G
40. Kenokai: +500G
41. Craymel_mage: +500G
42. Onehundredfists: +500G
43. Chichirodriguez: +500G
44. Mindblownnnn: +466G
45. Darrendinosaurs: +440G
46. Brenogarwin: +334G
47. Daveb_: +300G
48. Deathtaxesandanime: +274G
49. Robotocelot: +228G
50. Readdesert: +227G
51. Resjudicata3: +200G
52. Chuckolator: +162G
53. Neech: +114G
54. Friendsquirrel: +111G
55. Zagorsek: +106G
56. Phi_sig: +104G
57. Whitetigress: +100G
58. Skillomono: +100G
59. Dracoknightzero: +87G
60. Thunderducker: +37G
61. Aceof86: +6G
62. Twisted_nutsatchel: -32G
63. Heybtw: -90G
64. Krombobreaker: -96G
65. Old_overholt_: -144G
66. Muffin_money: -150G
67. Seppu777: -241G
68. Ser_pyrro: -358G
69. Cosmictactician: -391G
70. Brokenknight201: -400G
71. Smashy: -400G
72. Corpuscav: -450G
73. Actual_jp: -500G
74. Volgrathemoose: -564G
75. W0rldend: -586G
76. Fenaen: -588G
77. Sinnyil2: -700G
78. Pplvee1: -702G
79. Leonidusx: -800G
80. Gorgewall: -857G
81. Mrfripps: -877G
82. Themurkgnome: -921G
83. Mmagnetman: -1,000G
84. Powergems: -1,000G
85. Lowlf: -1,195G
86. Capnchaos12: -1,247G
87. Ct_5_holy: -1,284G
88. Bigbongsmoker: -1,777G
89. J2dabibbles: -2,900G
90. Thyrandaal: -3,673G
91. Segomod: -4,000G
