Final Bets: white - 22 bets for 17,482G (40.6%, x1.46); black - 19 bets for 25,592G (59.4%, x0.68)

white bets:
Mesmaster: 5,000G (28.6%, 221,187G)
EnemyController: 2,222G (12.7%, 1,743,025G)
reinoe: 2,000G (11.4%, 18,738G)
VolgraTheMoose: 1,066G (6.1%, 1,066G)
BirbBrainsBot: 1,000G (5.7%, 182,887G)
getthemoneyz: 824G (4.7%, 1,900,890G)
E_Ballard: 707G (4.0%, 707G)
brodeity: 641G (3.7%, 641G)
ser_pyrro: 600G (3.4%, 1,255G)
DLJuggernaut: 536G (3.1%, 536G)
lowlf: 492G (2.8%, 5,200G)
krombobreaker: 380G (2.2%, 380G)
seppu777: 333G (1.9%, 609G)
CapnChaos12: 300G (1.7%, 3,723G)
Wrath189: 276G (1.6%, 276G)
CorpusCav: 200G (1.1%, 27,614G)
datadrivenbot: 200G (1.1%, 58,157G)
Leonidusx: 200G (1.1%, 9,188G)
Riley331: 164G (0.9%, 164G)
Chuckolator: 137G (0.8%, 24,780G)
aceof86: 104G (0.6%, 104G)
mrfripps: 100G (0.6%, 10,995G)

black bets:
Nickyfive: 15,000G (58.6%, 92,269G)
LanseDM: 3,000G (11.7%, 25,991G)
DeathTaxesAndAnime: 1,596G (6.2%, 1,596G)
Thyrandaal: 1,184G (4.6%, 1,184G)
Zagorsek: 688G (2.7%, 688G)
lijarkh: 582G (2.3%, 582G)
thunderducker: 576G (2.3%, 576G)
moonliquor: 500G (2.0%, 63,745G)
RobotOcelot: 500G (2.0%, 4,826G)
AllInBot: 403G (1.6%, 403G)
Cryptopsy70: 356G (1.4%, 356G)
bigbongsmoker: 300G (1.2%, 300G)
DracoknightZero: 252G (1.0%, 2,472G)
ValensEXP_: 244G (1.0%, 1,468G)
gorgewall: 101G (0.4%, 4,289G)
nhammen: 100G (0.4%, 411,433G)
readdesert: 100G (0.4%, 1,530G)
Twisted_Nutsatchel: 100G (0.4%, 1,728G)
BartTradingCompany: 10G (0.0%, 105G)
