Final Bets: purple - 18 bets for 7,161G (39.2%, x1.55); brown - 24 bets for 11,103G (60.8%, x0.64)

purple bets:
KasugaiRoastedPeas: 1,100G (15.4%, 1,100G)
Baron_von_Scrub: 1,001G (14.0%, 35,410G)
edgehead62888: 1,000G (14.0%, 8,047G)
FoeSquirrel: 934G (13.0%, 934G)
fenaen: 520G (7.3%, 520G)
itzover9001: 500G (7.0%, 1,024G)
Nizaha: 404G (5.6%, 404G)
sukotsuto: 400G (5.6%, 2,622G)
GreatRedDragon: 268G (3.7%, 268G)
Chuckolator: 232G (3.2%, 10,531G)
SwaffleWaffles: 147G (2.1%, 3,675G)
popotinha1889: 110G (1.5%, 110G)
LazarusAjin: 100G (1.4%, 3,296G)
lastly: 100G (1.4%, 4,380G)
ANFz: 100G (1.4%, 6,712G)
Irondynamics: 100G (1.4%, 1,204G)
getthemoneyz: 94G (1.3%, 506,490G)
braumbles: 51G (0.7%, 1,033G)

brown bets:
DustBirdEX: 1,500G (13.5%, 4,726G)
HaplessOne: 1,500G (13.5%, 78,450G)
Bryon_W: 1,460G (13.1%, 1,460G)
Cataphract116: 1,000G (9.0%, 7,298G)
BirbBrainsBot: 930G (8.4%, 205,782G)
rico_flex: 500G (4.5%, 2,593G)
HASTERIOUS: 396G (3.6%, 396G)
nifboy: 392G (3.5%, 7,850G)
ungabunga_bot: 365G (3.3%, 173,555G)
dictatorhowells: 357G (3.2%, 357G)
TheMurkGnome: 348G (3.1%, 348G)
Adam1949: 300G (2.7%, 2,504G)
CapnChaos12: 300G (2.7%, 1,946G)
Lavatis: 300G (2.7%, 1,327G)
killth3kid: 272G (2.4%, 796G)
ZephyrTempest: 249G (2.2%, 85,255G)
elkydeluxe: 200G (1.8%, 1,790G)
ericzubat: 146G (1.3%, 146G)
Lodrak: 100G (0.9%, 3,915G)
RunicMagus: 100G (0.9%, 1,131G)
alrightbye: 100G (0.9%, 8,191G)
Drisful_rlqt: 100G (0.9%, 1,406G)
Jerboj: 100G (0.9%, 39,271G)
datadrivenbot: 88G (0.8%, 171G)
