Final Bets: red - 10 bets for 3,713G (41.4%, x1.42); yellow - 10 bets for 5,261G (58.6%, x0.71)

red bets:
cam_ATS: 1,500G (40.4%, 17,593G)
prince_rogers_nelson_: 584G (15.7%, 584G)
josephiroth_143: 400G (10.8%, 2,338G)
gorgewall: 301G (8.1%, 20,209G)
ColetteMSLP: 300G (8.1%, 1,698G)
AltimaMantoid: 232G (6.2%, 232G)
JethroThrul: 100G (2.7%, 1,114G)
Jaltos: 100G (2.7%, 809G)
Gatsbysghost: 100G (2.7%, 100G)
getthemoneyz: 96G (2.6%, 989,750G)

yellow bets:
BirbBrainsBot: 1,000G (19.0%, 102,172G)
TheChainNerd: 804G (15.3%, 804G)
DuraiPapers: 761G (14.5%, 3,808G)
NovaKnight21: 687G (13.1%, 687G)
Bryon_W: 500G (9.5%, 3,167G)
actual_JP: 468G (8.9%, 468G)
Baron_von_Scrub: 440G (8.4%, 440G)
just_here2: 300G (5.7%, 8,266G)
Nizaha: 201G (3.8%, 13,254G)
RunicMagus: 100G (1.9%, 65,362G)
