Final Bets: white - 10 bets for 4,236G (49.1%, x1.04); purple - 6 bets for 4,396G (50.9%, x0.96)

white bets:
SephDarkheart: 1,712G (40.4%, 1,712G)
seppu777: 777G (18.3%, 1,972G)
bigbongsmoker: 561G (13.2%, 1,122G)
ValensEXP_: 300G (7.1%, 5,141G)
Kurtis_E_Flush_: 300G (7.1%, 3,144G)
datadrivenbot: 200G (4.7%, 58,173G)
Neech: 170G (4.0%, 1,712G)
gorgewall: 101G (2.4%, 4,599G)
AllInBot: 100G (2.4%, 100G)
BartTradingCompany: 15G (0.4%, 153G)

purple bets:
Willjin: 2,000G (45.5%, 85,694G)
getthemoneyz: 608G (13.8%, 1,903,725G)
Raixelol: 584G (13.3%, 22,643G)
BirbBrainsBot: 523G (11.9%, 188,276G)
Ogema_theDream: 381G (8.7%, 381G)
ColetteMSLP: 300G (6.8%, 1,368G)
