Final Bets: green - 16 bets for 14,101G (46.4%, x1.15); yellow - 28 bets for 16,273G (53.6%, x0.87)

green bets:
Lordminsc: 3,569G (25.3%, 7,139G)
Baron_von_Scrub: 3,090G (21.9%, 3,090G)
Aldrammech: 1,000G (7.1%, 25,258G)
WrathfulRemy: 1,000G (7.1%, 3,902G)
Arunic: 1,000G (7.1%, 4,309G)
Rislyeu: 768G (5.4%, 1,537G)
SarrgeQc: 768G (5.4%, 768G)
Dymntd: 608G (4.3%, 608G)
TheMM42: 500G (3.5%, 8,096G)
KasugaiRoastedPeas: 499G (3.5%, 5,265G)
roofiepops: 444G (3.1%, 24,814G)
LAGBOT30000: 303G (2.1%, 30,314G)
Bloody_Nips: 200G (1.4%, 2,019G)
ElectricLogan: 152G (1.1%, 405G)
Escorian: 100G (0.7%, 8,150G)
maakur_: 100G (0.7%, 118,845G)

yellow bets:
killth3kid: 2,000G (12.3%, 58,419G)
Pie108: 2,000G (12.3%, 165,887G)
Realitydown: 1,817G (11.2%, 1,817G)
DustBirdEX: 1,080G (6.6%, 1,080G)
BirbBrainsBot: 1,000G (6.1%, 1,682G)
Lionhermit: 1,000G (6.1%, 34,550G)
DeathTaxesAndAnime: 862G (5.3%, 1,692G)
Grimmace45: 824G (5.1%, 824G)
Eyepoor_: 712G (4.4%, 712G)
Shalloween: 568G (3.5%, 568G)
EnemyController: 500G (3.1%, 169,088G)
Breakdown777: 500G (3.1%, 18,904G)
catfashions: 500G (3.1%, 13,294G)
ZephyrTempest: 456G (2.8%, 5,598G)
Mudrockk: 400G (2.5%, 1,486G)
getthemoneyz: 272G (1.7%, 609,070G)
FNCardascia_: 212G (1.3%, 212G)
MeotorMang: 200G (1.2%, 405G)
duckfist: 200G (1.2%, 900G)
RunicMagus: 200G (1.2%, 53,018G)
LorianFaust: 200G (1.2%, 3,220G)
ungabunga_bot: 166G (1.0%, 328,853G)
VarkilTV: 104G (0.6%, 104G)
bluuuuuuuh: 100G (0.6%, 3,448G)
Squatting_Bear: 100G (0.6%, 2,886G)
datadrivenbot: 100G (0.6%, 12,772G)
Lyner87: 100G (0.6%, 65,524G)
astrozin11: 100G (0.6%, 9,510G)
