Final Bets: black - 19 bets for 8,258G (29.1%, x2.43); purple - 23 bets for 20,079G (70.9%, x0.41)

black bets:
Aldrammech: 1,000G (12.1%, 26,223G)
ungabunga_bot: 1,000G (12.1%, 326,863G)
BirbBrainsBot: 1,000G (12.1%, 1,502G)
SarrgeQc: 731G (8.9%, 731G)
DustBirdEX: 704G (8.5%, 2,349G)
Eyepoor_: 657G (8.0%, 657G)
Shalloween: 568G (6.9%, 568G)
roofiepops: 444G (5.4%, 25,301G)
getthemoneyz: 386G (4.7%, 608,875G)
LAGBOT30000: 306G (3.7%, 30,622G)
nedryerson01: 300G (3.6%, 7,739G)
FNCardascia_: 212G (2.6%, 212G)
benticore: 200G (2.4%, 1,915G)
brokenknight201: 200G (2.4%, 587G)
duckfist: 150G (1.8%, 1,038G)
itsadud: 100G (1.2%, 100G)
frozentomato: 100G (1.2%, 1,349G)
bluuuuuuuh: 100G (1.2%, 3,740G)
alecttox: 100G (1.2%, 9,027G)

purple bets:
evontno: 5,000G (24.9%, 10,170G)
Lordminsc: 3,780G (18.8%, 7,561G)
killth3kid: 2,000G (10.0%, 64,084G)
Pie108: 2,000G (10.0%, 163,620G)
DeathTaxesAndAnime: 1,309G (6.5%, 2,567G)
Lionhermit: 1,000G (5.0%, 36,238G)
Zeroroute: 600G (3.0%, 600G)
rico_flex: 555G (2.8%, 30,966G)
Bloody_Nips: 500G (2.5%, 2,439G)
ZephyrTempest: 456G (2.3%, 6,037G)
astrozin11: 391G (1.9%, 10,591G)
Zetchryn: 336G (1.7%, 336G)
Baron_von_Scrub: 328G (1.6%, 328G)
Grimmace45: 324G (1.6%, 324G)
RestIessNight: 300G (1.5%, 1,679G)
nok____: 300G (1.5%, 10,210G)
VarkilTV: 200G (1.0%, 322G)
RunicMagus: 200G (1.0%, 53,191G)
ApplesauceBoss: 100G (0.5%, 7,092G)
maakur_: 100G (0.5%, 118,927G)
datadrivenbot: 100G (0.5%, 12,754G)
LorianFaust: 100G (0.5%, 2,693G)
ElectricLogan: 100G (0.5%, 1,256G)
