Final Bets: purple - 20 bets for 14,307G (33.9%, x1.95); champion - 33 bets for 27,937G (66.1%, x0.51)

purple bets:
killth3kid: 5,000G (34.9%, 62,907G)
KasugaiRoastedPeas: 1,230G (8.6%, 5,357G)
Aldrammech: 1,000G (7.0%, 24,223G)
Lionhermit: 1,000G (7.0%, 37,314G)
Zetchryn: 789G (5.5%, 789G)
Baron_von_Scrub: 771G (5.4%, 771G)
nok____: 554G (3.9%, 10,554G)
GrandmasterFrankerZ: 526G (3.7%, 526G)
Breakdown777: 500G (3.5%, 20,081G)
DustBirdEX: 456G (3.2%, 456G)
volgrathemoose: 401G (2.8%, 3,405G)
Grimmace45: 324G (2.3%, 324G)
RestIessNight: 300G (2.1%, 1,502G)
benticore: 300G (2.1%, 1,515G)
LAGBOT30000: 295G (2.1%, 29,511G)
astrozin11: 290G (2.0%, 10,990G)
Rislyeu: 260G (1.8%, 260G)
ANFz: 111G (0.8%, 30,883G)
ApplesauceBoss: 100G (0.7%, 7,133G)
Squatting_Bear: 100G (0.7%, 2,873G)

champion bets:
Lordminsc: 6,073G (21.7%, 12,147G)
Sairentozon7: 3,360G (12.0%, 3,360G)
SkylerBunny: 2,500G (8.9%, 48,910G)
DeathTaxesAndAnime: 2,120G (7.6%, 4,158G)
Pie108: 2,000G (7.2%, 165,773G)
Zeroroute: 1,410G (5.0%, 1,410G)
midori_ribbon: 1,198G (4.3%, 1,198G)
CorpusCav: 1,000G (3.6%, 27,072G)
HaateXIII: 895G (3.2%, 895G)
Laserman1000: 800G (2.9%, 90,400G)
getthemoneyz: 574G (2.1%, 608,271G)
WrathfulRemy: 500G (1.8%, 2,951G)
Oreo_Pizza: 500G (1.8%, 9,736G)
AlenaZarek: 500G (1.8%, 34,665G)
ZephyrTempest: 456G (1.6%, 5,403G)
tsdZero: 451G (1.6%, 451G)
roofiepops: 444G (1.6%, 24,413G)
EnemyController: 400G (1.4%, 169,401G)
ungabunga_bot: 351G (1.3%, 325,935G)
Dymntd: 280G (1.0%, 280G)
MrDiggs49: 280G (1.0%, 280G)
trigger15: 250G (0.9%, 3,730G)
FNCardascia_: 216G (0.8%, 216G)
Eyepoor_: 212G (0.8%, 212G)
RunicMagus: 200G (0.7%, 53,273G)
BirbBrainsBot: 200G (0.7%, 200G)
itsadud: 167G (0.6%, 167G)
MeotorMang: 100G (0.4%, 167G)
ElectricLogan: 100G (0.4%, 1,197G)
frozentomato: 100G (0.4%, 1,249G)
datadrivenbot: 100G (0.4%, 12,862G)
rjA0zcOQ96: 100G (0.4%, 24,031G)
duckfist: 100G (0.4%, 1,021G)
