Final Bets: purple - 10 bets for 16,821G (59.6%, x0.68); brown - 13 bets for 11,402G (40.4%, x1.48)

purple bets:
douchetron: 9,772G (58.1%, 19,162G)
fluffskull: 1,988G (11.8%, 1,988G)
NovaKnight21: 1,402G (8.3%, 1,402G)
resjudicata3: 1,292G (7.7%, 1,292G)
prince_rogers_nelson_: 660G (3.9%, 660G)
superdevon1: 624G (3.7%, 31,232G)
killth3kid: 560G (3.3%, 15,560G)
AllInBot: 200G (1.2%, 200G)
datadrivenbot: 200G (1.2%, 47,246G)
Lydian_C: 123G (0.7%, 3,884G)

brown bets:
EnemyController: 2,222G (19.5%, 1,507,472G)
NicoSavoy: 2,000G (17.5%, 345,242G)
Shalloween: 2,000G (17.5%, 42,412G)
BirbBrainsBot: 1,000G (8.8%, 29,322G)
KyleWonToLiveForever: 1,000G (8.8%, 2,410G)
nekojin: 1,000G (8.8%, 17,638G)
getthemoneyz: 580G (5.1%, 1,440,405G)
amhamor: 502G (4.4%, 502G)
Hasterious: 439G (3.9%, 2,223G)
winteriscorning: 200G (1.8%, 2,924G)
ThreeMileIsland: 200G (1.8%, 8,830G)
blorpy_: 159G (1.4%, 1,996G)
twelfthrootoftwo: 100G (0.9%, 1,288G)
