Final Bets: purple - 12 bets for 5,751G (56.0%, x0.79); brown - 10 bets for 4,520G (44.0%, x1.27)

purple bets:
HaplessOne: 1,500G (26.1%, 83,248G)
lijarkh: 1,327G (23.1%, 1,327G)
rocl: 1,000G (17.4%, 65,552G)
PotionDweller: 500G (8.7%, 500G)
Dexsana: 400G (7.0%, 1,483G)
HASTERIOUS: 368G (6.4%, 368G)
datadrivenbot: 140G (2.4%, 181G)
Koolguydude: 116G (2.0%, 116G)
Tithonus: 100G (1.7%, 6,905G)
doktorzhivago: 100G (1.7%, 24,018G)
gorgewall: 100G (1.7%, 1,048G)
potgodtopdog: 100G (1.7%, 4,450G)

brown bets:
BirbBrainsBot: 1,000G (22.1%, 186,699G)
WireLord: 1,000G (22.1%, 4,900G)
Goust18: 500G (11.1%, 8,454G)
mayormcfunbags: 500G (11.1%, 3,239G)
Anomandaris__: 500G (11.1%, 9,506G)
tinyjeans: 300G (6.6%, 2,046G)
getthemoneyz: 212G (4.7%, 500,295G)
Jeeboheebo: 208G (4.6%, 208G)
Maeveen: 200G (4.4%, 5,127G)
Evewho: 100G (2.2%, 3,225G)
