Final Bets: green - 16 bets for 16,781G (71.7%, x0.39); yellow - 10 bets for 6,614G (28.3%, x2.54)

green bets:
DeathTaxesAndAnime: 6,591G (39.3%, 12,924G)
bruubarg: 2,586G (15.4%, 2,586G)
prince_rogers_nelson_: 1,566G (9.3%, 1,566G)
Lydian_C: 1,200G (7.2%, 14,878G)
Mesmaster: 1,000G (6.0%, 6,238G)
superdevon1: 604G (3.6%, 2,417G)
Digitalsocrates: 500G (3.0%, 7,419G)
HaychDub: 500G (3.0%, 21,286G)
electric_algus: 400G (2.4%, 16,736G)
Arcblazer23: 383G (2.3%, 383G)
ColetteMSLP: 300G (1.8%, 2,119G)
CrownOfHorns: 284G (1.7%, 284G)
HASTERIOUS: 272G (1.6%, 5,447G)
soren_of_tyto: 251G (1.5%, 251G)
ChronoG: 244G (1.5%, 244G)
datadrivenbot: 100G (0.6%, 37,302G)

yellow bets:
Evewho: 1,898G (28.7%, 1,898G)
reinoe: 1,000G (15.1%, 24,149G)
BirbBrainsBot: 1,000G (15.1%, 73,403G)
HaateXIII: 704G (10.6%, 704G)
Kalabain: 700G (10.6%, 29,700G)
AllInBot: 537G (8.1%, 537G)
almontys: 212G (3.2%, 212G)
getthemoneyz: 208G (3.1%, 888,914G)
mr_kindaro: 204G (3.1%, 204G)
astrozin11: 151G (2.3%, 2,951G)
