Final Bets: white - 15 bets for 41,303G (69.4%, x0.44); black - 24 bets for 18,199G (30.6%, x2.27)

white bets:
Lyner87: 29,225G (70.8%, 29,225G)
SephDarkheart: 3,220G (7.8%, 3,220G)
DavenIII: 3,042G (7.4%, 6,085G)
Lord_Burrah: 1,268G (3.1%, 99,268G)
Thyrandaal: 1,000G (2.4%, 190,251G)
latebit: 800G (1.9%, 800G)
killth3kid: 748G (1.8%, 17,126G)
Raixelol: 600G (1.5%, 600G)
krombobreaker: 500G (1.2%, 6,414G)
AllInBot: 200G (0.5%, 200G)
khelor_: 200G (0.5%, 1,567G)
otakutaylor: 200G (0.5%, 5,066G)
LDSkinny: 100G (0.2%, 3,910G)
galkife: 100G (0.2%, 85,405G)
nhammen: 100G (0.2%, 247,030G)

black bets:
old_overholt_: 3,000G (16.5%, 27,460G)
JonnyCue: 2,000G (11.0%, 2,000G)
Leonidusx: 2,000G (11.0%, 211,521G)
CorpusCav: 1,500G (8.2%, 20,704G)
RunicMagus: 1,050G (5.8%, 5,529G)
skipsandwiches: 1,001G (5.5%, 110,170G)
BirbBrainsBot: 1,000G (5.5%, 174,851G)
getthemoneyz: 906G (5.0%, 2,080,173G)
FriendSquirrel: 858G (4.7%, 858G)
dogsandcatsand: 728G (4.0%, 728G)
lowlf: 600G (3.3%, 23,772G)
Nizaha: 600G (3.3%, 4,801G)
moonliquor: 500G (2.7%, 73,250G)
DHaveWord: 436G (2.4%, 949G)
ValensEXP_: 392G (2.2%, 4,712G)
bigbongsmoker: 344G (1.9%, 16,348G)
AltimaMantoid: 319G (1.8%, 24,219G)
datadrivenbot: 200G (1.1%, 77,110G)
ShadowNinja25: 200G (1.1%, 3,000G)
Smugzug: 165G (0.9%, 3,315G)
maakur_: 100G (0.5%, 6,807G)
killabandaid: 100G (0.5%, 1,390G)
McGooferson: 100G (0.5%, 1,181G)
DocSTN: 100G (0.5%, 100G)
