Final Bets: white - 18 bets for 10,290G (58.8%, x0.70); purple - 14 bets for 7,207G (41.2%, x1.43)

white bets:
latebit: 4,371G (42.5%, 8,572G)
thunderducker: 800G (7.8%, 2,007G)
killth3kid: 748G (7.3%, 15,633G)
DHaveWord: 704G (6.8%, 704G)
Nizaha: 600G (5.8%, 8,440G)
krombobreaker: 500G (4.9%, 5,634G)
ValensEXP_: 392G (3.8%, 3,536G)
Smugzug: 307G (3.0%, 3,420G)
Zachara: 254G (2.5%, 154,654G)
ShadowNinja25: 254G (2.5%, 3,654G)
killabandaid: 232G (2.3%, 232G)
Craymel_Mage: 228G (2.2%, 228G)
AllInBot: 200G (1.9%, 200G)
khelor_: 200G (1.9%, 955G)
datadrivenbot: 200G (1.9%, 76,510G)
LDSkinny: 100G (1.0%, 8,130G)
nhammen: 100G (1.0%, 247,019G)
Farseli_: 100G (1.0%, 1,033G)

purple bets:
RunicMagus: 1,050G (14.6%, 7,914G)
Lyner87: 1,000G (13.9%, 1,000G)
reinoe: 1,000G (13.9%, 45,340G)
BirbBrainsBot: 878G (12.2%, 177,123G)
Shalloween: 660G (9.2%, 660G)
lowlf: 600G (8.3%, 23,172G)
bruubarg: 600G (8.3%, 600G)
holdenmagronik: 468G (6.5%, 4,172G)
bigbongsmoker: 344G (4.8%, 15,144G)
otakutaylor: 300G (4.2%, 4,954G)
Leonidusx: 200G (2.8%, 220,337G)
skipsandwiches: 100G (1.4%, 117,617G)
moonliquor: 5G (0.1%, 72,200G)
getthemoneyz: 2G (0.0%, 2,081,129G)
