Final Bets: green - 12 bets for 11,170G (64.9%, x0.54); yellow - 11 bets for 6,030G (35.1%, x1.85)

green bets:
HaateXIII: 5,921G (53.0%, 5,921G)
serperemagus: 1,014G (9.1%, 1,014G)
NicoSavoy: 1,000G (9.0%, 23,871G)
Laserman1000: 753G (6.7%, 74,453G)
porkchop5158: 500G (4.5%, 2,248G)
KasugaiRoastedPeas: 480G (4.3%, 480G)
nifboy: 420G (3.8%, 420G)
DeathTaxesAndAnime: 400G (3.6%, 2,335G)
gorgewall: 301G (2.7%, 19,242G)
AllInBot: 181G (1.6%, 181G)
fluffskull: 100G (0.9%, 532G)
Evewho: 100G (0.9%, 2,843G)

yellow bets:
Mesmaster: 2,000G (33.2%, 87,820G)
toka222: 1,050G (17.4%, 67,031G)
BirbBrainsBot: 1,000G (16.6%, 42,887G)
Umbrellaexile: 500G (8.3%, 3,106G)
WitchHunterIX: 500G (8.3%, 10,085G)
Nohurty: 459G (7.6%, 918G)
oliversizzletwist: 121G (2.0%, 121G)
Firesheath: 100G (1.7%, 13,640G)
Miku_Shikhu: 100G (1.7%, 15,574G)
DuraiPapers: 100G (1.7%, 1,161G)
Kronikle: 100G (1.7%, 16,118G)
