Final Bets: white - 18 bets for 30,461G (58.6%, x0.71); black - 33 bets for 21,479G (41.4%, x1.42)

white bets:
sinnyil2: 16,216G (53.2%, 32,433G)
Lazerkick: 4,505G (14.8%, 4,505G)
OmnibotGamma: 2,069G (6.8%, 2,069G)
SkylerBunny: 2,000G (6.6%, 66,719G)
Riot_Jayway: 1,111G (3.6%, 185,448G)
kingchadking: 1,062G (3.5%, 1,062G)
pandasforsale: 666G (2.2%, 7,966G)
Theseawolf1: 500G (1.6%, 8,621G)
ELzukkor: 500G (1.6%, 3,813G)
reinoe: 484G (1.6%, 484G)
TheRobbieRobster: 386G (1.3%, 386G)
TheGuesty: 250G (0.8%, 4,117G)
ensiron: 200G (0.7%, 2,502G)
Cataphract116: 112G (0.4%, 112G)
shiokenstar: 100G (0.3%, 1,833G)
victoriolue: 100G (0.3%, 3,619G)
OneHundredFists: 100G (0.3%, 1,752G)
Tougou: 100G (0.3%, 4,131G)

black bets:
MantisFinch: 3,054G (14.2%, 12,216G)
DeathTaxesAndAnime: 3,000G (14.0%, 5,995G)
Faantatv: 1,310G (6.1%, 1,310G)
MoonSlayerRS: 1,190G (5.5%, 1,190G)
thefyeman: 1,000G (4.7%, 26,726G)
BirbBrainsBot: 1,000G (4.7%, 11,526G)
bad1dea: 1,000G (4.7%, 247,458G)
kai_shee: 1,000G (4.7%, 30,059G)
SolarisFall: 863G (4.0%, 17,265G)
nerdynel17: 809G (3.8%, 809G)
inzo_bettingbot: 794G (3.7%, 15,894G)
inzo24: 731G (3.4%, 731G)
Lanshaft: 580G (2.7%, 10,464G)
HaychDub: 550G (2.6%, 21,175G)
mpghappiness: 500G (2.3%, 8,601G)
Zeroroute: 500G (2.3%, 500G)
TheMurkGnome: 500G (2.3%, 12,696G)
wackyzachyy: 450G (2.1%, 8,519G)
DustBirdEX: 300G (1.4%, 5,188G)
DeliciousSub: 300G (1.4%, 12,153G)
Oshimi12: 264G (1.2%, 264G)
ZephyrTempest: 250G (1.2%, 4,596G)
getthemoneyz: 234G (1.1%, 394,805G)
ugoplatamia: 200G (0.9%, 600G)
Aeolus_000: 200G (0.9%, 2,833G)
ForagerCats: 200G (0.9%, 3,753G)
Basmal: 100G (0.5%, 16,503G)
SpaZmodeus: 100G (0.5%, 2,958G)
SeedSC: 100G (0.5%, 154,571G)
ApplesauceBoss: 100G (0.5%, 4,199G)
datadrivenbot: 100G (0.5%, 15,965G)
guering: 100G (0.5%, 479G)
WillFitzgerald: 100G (0.5%, 2,470G)
