Final Bets: blue - 23 bets for 30,507G (69.5%, x0.44); green - 19 bets for 13,380G (30.5%, x2.28)

blue bets:
mpghappiness: 7,681G (25.2%, 7,681G)
OmnibotGamma: 4,123G (13.5%, 4,123G)
ELzukkor: 3,966G (13.0%, 3,966G)
DeliciousSub: 3,000G (9.8%, 11,353G)
sinnyil2: 2,500G (8.2%, 44,068G)
DeathTaxesAndAnime: 1,650G (5.4%, 3,246G)
SolarisFall: 1,640G (5.4%, 16,402G)
SkylerBunny: 1,500G (4.9%, 66,629G)
reinoe: 963G (3.2%, 963G)
Zeroroute: 584G (1.9%, 584G)
TheRobbieRobster: 558G (1.8%, 558G)
DustBirdEX: 500G (1.6%, 4,588G)
fenaen: 324G (1.1%, 324G)
Cataphract116: 223G (0.7%, 223G)
nerdynel17: 215G (0.7%, 215G)
ugoplatamia: 200G (0.7%, 633G)
ForagerCats: 200G (0.7%, 3,586G)
Rethera_: 180G (0.6%, 180G)
SeedSC: 100G (0.3%, 154,371G)
WillFitzgerald: 100G (0.3%, 2,270G)
gum44: 100G (0.3%, 1,570G)
ANFz: 100G (0.3%, 23,906G)
datadrivenbot: 100G (0.3%, 15,882G)

green bets:
rockmem21: 3,690G (27.6%, 36,902G)
toka222: 2,300G (17.2%, 420,286G)
thefyeman: 1,000G (7.5%, 26,563G)
BirbBrainsBot: 1,000G (7.5%, 10,693G)
wackyzachyy: 1,000G (7.5%, 9,419G)
pandasforsale: 999G (7.5%, 7,437G)
inzo_bettingbot: 755G (5.6%, 15,100G)
ensiron: 420G (3.1%, 2,697G)
getthemoneyz: 396G (3.0%, 394,511G)
kingchadking: 308G (2.3%, 308G)
TheMurkGnome: 300G (2.2%, 11,896G)
Hirine: 300G (2.2%, 5,634G)
ZephyrTempest: 250G (1.9%, 4,401G)
inzo24: 212G (1.6%, 212G)
ApplesauceBoss: 100G (0.7%, 4,116G)
Basmal: 100G (0.7%, 16,420G)
victoriolue: 100G (0.7%, 3,707G)
Lazerkick: 100G (0.7%, 7,482G)
guering: 50G (0.4%, 396G)
