Final Bets: green - 14 bets for 9,528G (62.4%, x0.60); yellow - 8 bets for 5,736G (37.6%, x1.66)

green bets:
DeathTaxesAndAnime: 1,831G (19.2%, 1,831G)
evontno: 1,368G (14.4%, 1,368G)
killth3kid: 1,000G (10.5%, 96,722G)
HaateXIII: 956G (10.0%, 956G)
BoneMiser: 843G (8.8%, 843G)
Error72: 636G (6.7%, 636G)
SephDarkheart: 509G (5.3%, 509G)
Laserman1000: 500G (5.2%, 22,400G)
randgridr: 500G (5.2%, 2,327G)
Neuros91: 500G (5.2%, 663G)
letdowncity: 376G (3.9%, 8,770G)
gorgewall: 201G (2.1%, 14,463G)
datadrivenbot: 200G (2.1%, 60,639G)
Jumza: 108G (1.1%, 108G)

yellow bets:
TheChainNerd: 3,167G (55.2%, 31,672G)
BirbBrainsBot: 1,000G (17.4%, 155,580G)
porkchop5158: 500G (8.7%, 4,439G)
Shalloween: 400G (7.0%, 63,190G)
ArashiKurobara: 300G (5.2%, 4,425G)
TasisSai: 200G (3.5%, 2,070G)
DrPoopersMD: 149G (2.6%, 149G)
getthemoneyz: 20G (0.3%, 1,228,231G)
