Final Bets: green - 10 bets for 9,499G (71.1%, x0.41); black - 12 bets for 3,866G (28.9%, x2.46)

green bets:
evontno: 5,430G (57.2%, 5,430G)
TheChainNerd: 1,000G (10.5%, 26,282G)
DeathTaxesAndAnime: 896G (9.4%, 896G)
Laserman1000: 531G (5.6%, 23,731G)
MagicBottle: 516G (5.4%, 15,779G)
Shalloween: 300G (3.2%, 63,536G)
SephDarkheart: 252G (2.7%, 252G)
gorgewall: 201G (2.1%, 14,338G)
datadrivenbot: 200G (2.1%, 60,272G)
Jumza: 173G (1.8%, 173G)

black bets:
BirbBrainsBot: 1,000G (25.9%, 153,701G)
powergems: 600G (15.5%, 3,919G)
SkylerBunny: 416G (10.8%, 416G)
Banzem: 302G (7.8%, 302G)
ArashiKurobara: 300G (7.8%, 3,394G)
DamnThatShark: 288G (7.4%, 288G)
benticore: 250G (6.5%, 4,051G)
randgridr: 250G (6.5%, 2,596G)
getthemoneyz: 238G (6.2%, 1,228,128G)
Neuros91: 112G (2.9%, 112G)
TasisSai: 100G (2.6%, 1,634G)
nhammen: 10G (0.3%, 10,020G)
