Final Bets: purple - 17 bets for 34,138G (87.6%, x0.14); brown - 13 bets for 4,843G (12.4%, x7.05)

purple bets:
sinnyil2: 23,091G (67.6%, 46,182G)
Phytik: 2,393G (7.0%, 27,665G)
leakimiko: 2,034G (6.0%, 2,034G)
deenglow: 1,500G (4.4%, 45,794G)
HaplessOne: 1,500G (4.4%, 12,675G)
BirbBrainsBot: 907G (2.7%, 50,644G)
ko2q: 606G (1.8%, 1,212G)
Goust18: 500G (1.5%, 7,034G)
R_Raynos: 465G (1.4%, 465G)
Bulleta: 330G (1.0%, 330G)
twelfthrootoftwo: 200G (0.6%, 1,494G)
summmmmmmmmm: 112G (0.3%, 112G)
xyKOX: 100G (0.3%, 100G)
Realitydown: 100G (0.3%, 7,993G)
ungabunga_bot: 100G (0.3%, 264,287G)
datadrivenbot: 100G (0.3%, 3,953G)
HorusTaurus: 100G (0.3%, 823G)

brown bets:
Lydian_C: 1,200G (24.8%, 69,222G)
getthemoneyz: 1,000G (20.6%, 592,726G)
Mesmaster: 1,000G (20.6%, 27,132G)
DustBirdEX: 333G (6.9%, 12,462G)
perce90: 300G (6.2%, 773G)
LivingHitokiri: 200G (4.1%, 9,468G)
mirapoix: 150G (3.1%, 11,661G)
Pink_LuigiX: 144G (3.0%, 144G)
Reductions: 112G (2.3%, 112G)
sagafrontier2: 104G (2.1%, 104G)
PorkitoSh0w: 100G (2.1%, 100G)
Evewho: 100G (2.1%, 14,530G)
dramaticintro55: 100G (2.1%, 100G)
