Final Bets: white - 20 bets for 7,487G (31.0%, x2.22); purple - 29 bets for 16,628G (69.0%, x0.45)

white bets:
MoonSlayerRS: 1,215G (16.2%, 1,215G)
Zeroroute: 1,153G (15.4%, 1,153G)
humble_fabio: 771G (10.3%, 2,337G)
DLJuggernaut: 750G (10.0%, 8,355G)
halnco: 600G (8.0%, 600G)
ra1kia: 596G (8.0%, 1,716G)
Draconis345: 300G (4.0%, 300G)
HaychDub: 300G (4.0%, 11,691G)
fenixcrest: 276G (3.7%, 5,538G)
roqqqpsi: 222G (3.0%, 645G)
Evewho: 204G (2.7%, 204G)
Chompie: 200G (2.7%, 856G)
Bahamut64: 200G (2.7%, 1,517G)
a_mo22: 100G (1.3%, 5,467G)
Zagorsek: 100G (1.3%, 281,156G)
Glory_Seeker: 100G (1.3%, 4,704G)
SeraphPDH: 100G (1.3%, 8,457G)
datadrivenbot: 100G (1.3%, 12,528G)
Oshimi12: 100G (1.3%, 468G)
Basmal: 100G (1.3%, 7,864G)

purple bets:
sinnyil2: 2,500G (15.0%, 29,150G)
Winterharte: 2,000G (12.0%, 13,027G)
OmnibotGamma: 1,000G (6.0%, 6,006G)
BirbBrainsBot: 1,000G (6.0%, 185,568G)
DudeMonkey77: 1,000G (6.0%, 48,977G)
bad1dea: 1,000G (6.0%, 179,538G)
rockmem21: 1,000G (6.0%, 6,590G)
mirapoix: 884G (5.3%, 884G)
DavenIII: 700G (4.2%, 1,567G)
Shalloween: 700G (4.2%, 42,392G)
CorpusCav: 700G (4.2%, 1,727G)
BenYuPoker: 592G (3.6%, 1,209G)
DustBirdEX: 577G (3.5%, 1,155G)
evdoggity: 544G (3.3%, 544G)
WireLord: 440G (2.6%, 440G)
deesignal: 277G (1.7%, 277G)
ZephyrTempest: 264G (1.6%, 12,796G)
getthemoneyz: 263G (1.6%, 342,521G)
KasugaiRoastedPeas: 200G (1.2%, 36,619G)
tevoul: 183G (1.1%, 3,674G)
Tougou: 100G (0.6%, 5,287G)
Firesheath: 100G (0.6%, 1,921G)
maakur_: 100G (0.6%, 64,259G)
silentperogy: 100G (0.6%, 3,370G)
RyuTsuno: 100G (0.6%, 4,211G)
rubenflonne: 100G (0.6%, 2,300G)
Nizaha: 100G (0.6%, 4,750G)
SealPoulpe: 100G (0.6%, 805G)
daveb_: 4G (0.0%, 1,550G)
