Final Bets: white - 11 bets for 3,033G (8.3%, x11.02); black - 26 bets for 33,410G (91.7%, x0.09)

white bets:
elkydeluxe: 800G (26.4%, 16,260G)
nifboy: 391G (12.9%, 3,915G)
TheGuesty: 350G (11.5%, 17,231G)
Lanshaft: 332G (10.9%, 715G)
AllInBot: 238G (7.8%, 238G)
Sitiran: 224G (7.4%, 2,245G)
sect_cor: 200G (6.6%, 27,559G)
getthemoneyz: 198G (6.5%, 513,047G)
mexskacin: 100G (3.3%, 7,563G)
FoeSquirrel: 100G (3.3%, 2,935G)
FriendSquirrel: 100G (3.3%, 25,004G)

black bets:
flowinprose: 10,000G (29.9%, 73,724G)
Sairentozon7: 4,235G (12.7%, 4,235G)
volgrathemoose: 3,422G (10.2%, 158,422G)
Nickyfive: 2,929G (8.8%, 5,859G)
catfashions: 2,000G (6.0%, 5,840G)
DustBirdEX: 1,916G (5.7%, 19,916G)
Aldrammech: 1,000G (3.0%, 54,243G)
IndecisiveNinja: 1,000G (3.0%, 115,479G)
TheMM42: 1,000G (3.0%, 21,012G)
VySaika: 1,000G (3.0%, 12,657G)
gooseyourself: 1,000G (3.0%, 21,866G)
kaidykat: 500G (1.5%, 1,336G)
nedryerson01: 500G (1.5%, 17,220G)
Breakdown777: 500G (1.5%, 37,661G)
ericzubat: 500G (1.5%, 931G)
Lavatis: 400G (1.2%, 544G)
powergems: 300G (0.9%, 15,434G)
ungabunga_bot: 290G (0.9%, 174,726G)
ANFz: 200G (0.6%, 13,306G)
BirbBrainsBot: 200G (0.6%, 200G)
ko2q: 100G (0.3%, 29,157G)
RunicMagus: 100G (0.3%, 42,623G)
datadrivenbot: 100G (0.3%, 1,479G)
Lordminsc: 100G (0.3%, 30,391G)
Tougou: 100G (0.3%, 1,458G)
roqqqpsi: 18G (0.1%, 912G)
