Final Bets: green - 22 bets for 16,772G (59.6%, x0.68); yellow - 20 bets for 11,373G (40.4%, x1.47)

green bets:
DuraiPapers: 5,675G (33.8%, 5,675G)
Digitalsocrates: 4,740G (28.3%, 9,481G)
EnemyController: 1,234G (7.4%, 1,348,944G)
Sairentozon7: 706G (4.2%, 8,110G)
Laserman1000: 632G (3.8%, 632G)
reinoe: 600G (3.6%, 600G)
Zachara: 562G (3.4%, 142,562G)
ColetteMSLP: 400G (2.4%, 7,094G)
reddwind_: 392G (2.3%, 392G)
CT_5_Holy: 332G (2.0%, 332G)
gorgewall: 201G (1.2%, 25,863G)
Evewho: 200G (1.2%, 7,836G)
CosmicTactician: 200G (1.2%, 20,773G)
superdevon1: 100G (0.6%, 3,902G)
ANFz: 100G (0.6%, 7,808G)
moocaotao: 100G (0.6%, 4,450G)
datadrivenbot: 100G (0.6%, 49,676G)
Smokegiant: 100G (0.6%, 100G)
loveyouallfriends: 100G (0.6%, 3,418G)
Lythe_Caraker: 100G (0.6%, 143,986G)
Grandlanzer: 100G (0.6%, 31,733G)
Hasterious: 98G (0.6%, 9,803G)

yellow bets:
SkylerBunny: 5,000G (44.0%, 488,840G)
evdoggity: 1,000G (8.8%, 85,717G)
HaateXIII: 588G (5.2%, 588G)
getthemoneyz: 534G (4.7%, 1,051,333G)
DLJuggernaut: 500G (4.4%, 3,966G)
Spuzzmocker: 500G (4.4%, 3,519G)
Chuckolator: 421G (3.7%, 124,475G)
Zetchryn: 404G (3.6%, 404G)
Shalloween: 400G (3.5%, 85,963G)
pandasforsale: 364G (3.2%, 364G)
Arcblazer23: 312G (2.7%, 312G)
Moshyhero: 250G (2.2%, 3,741G)
ruleof5: 200G (1.8%, 21,035G)
BirbBrainsBot: 200G (1.8%, 200G)
Sarou120: 200G (1.8%, 1,677G)
slickdang: 100G (0.9%, 168G)
twelfthrootoftwo: 100G (0.9%, 6,127G)
KonzeraLive: 100G (0.9%, 4,160G)
placidphoenix: 100G (0.9%, 2,752G)
fluffskull: 100G (0.9%, 3,329G)
