Final Bets: purple - 10 bets for 9,546G (41.8%, x1.39); brown - 20 bets for 13,315G (58.2%, x0.72)

purple bets:
Aldrammech: 4,917G (51.5%, 4,917G)
Shalloween: 2,575G (27.0%, 2,575G)
mrpickins: 500G (5.2%, 6,151G)
Lord_Gwarth: 400G (4.2%, 1,308G)
SephDarkheart: 388G (4.1%, 12,140G)
TasisSai: 200G (2.1%, 2,676G)
datadrivenbot: 200G (2.1%, 41,900G)
muffin_money: 150G (1.6%, 8,064G)
slotheye17: 116G (1.2%, 116G)
mirapoix: 100G (1.0%, 40,321G)

brown bets:
dogsandcatsand: 5,091G (38.2%, 9,983G)
BirbBrainsBot: 1,000G (7.5%, 113,938G)
getthemoneyz: 1,000G (7.5%, 1,403,424G)
bruubarg: 1,000G (7.5%, 13,815G)
ANFz: 1,000G (7.5%, 57,022G)
mpghappiness: 600G (4.5%, 600G)
DustBirdEX: 520G (3.9%, 520G)
Oreo_Pizza: 500G (3.8%, 37,459G)
Zbgs: 468G (3.5%, 468G)
nhammen: 400G (3.0%, 16,675G)
ruleof5: 300G (2.3%, 8,607G)
Smashy: 300G (2.3%, 8,581G)
TheUnforgivenRage: 212G (1.6%, 212G)
AllInBot: 200G (1.5%, 200G)
ribbiks: 200G (1.5%, 7,697G)
Lydian_C: 123G (0.9%, 21,899G)
gorgewall: 101G (0.8%, 6,597G)
Zakanakai: 100G (0.8%, 484G)
Practice_Pad: 100G (0.8%, 504G)
Hirameki85: 100G (0.8%, 5,000G)
