Final Bets: red - 17 bets for 5,754G (31.0%, x2.22); green - 9 bets for 12,782G (69.0%, x0.45)

red bets:
bruubarg: 1,000G (17.4%, 14,532G)
DustBirdEX: 893G (15.5%, 893G)
roofiepops: 611G (10.6%, 611G)
Aldrammech: 516G (9.0%, 516G)
SephDarkheart: 388G (6.7%, 11,752G)
TheUnforgivenRage: 364G (6.3%, 364G)
AllInBot: 343G (6.0%, 343G)
Smashy: 300G (5.2%, 7,796G)
gorgewall: 201G (3.5%, 6,669G)
TasisSai: 200G (3.5%, 2,476G)
datadrivenbot: 200G (3.5%, 41,700G)
getthemoneyz: 172G (3.0%, 1,404,141G)
muffin_money: 150G (2.6%, 7,914G)
slotheye17: 116G (2.0%, 116G)
ANFz: 100G (1.7%, 57,739G)
mrpickins: 100G (1.7%, 5,651G)
mirapoix: 100G (1.7%, 40,221G)

green bets:
E_Ballard: 4,547G (35.6%, 4,547G)
dogsandcatsand: 4,091G (32.0%, 13,637G)
Lydian_C: 1,200G (9.4%, 21,987G)
BirbBrainsBot: 1,000G (7.8%, 114,655G)
Shalloween: 772G (6.0%, 772G)
Lord_Gwarth: 500G (3.9%, 908G)
nhammen: 400G (3.1%, 16,962G)
Hirameki85: 172G (1.3%, 5,072G)
Practice_Pad: 100G (0.8%, 576G)
