Final Bets: red - 16 bets for 7,443G (49.4%, x1.02); champion - 10 bets for 7,627G (50.6%, x0.98)

red bets:
gorgewall: 1,235G (16.6%, 1,235G)
BirbBrainsBot: 1,000G (13.4%, 43,468G)
SephDarkheart: 1,000G (13.4%, 17,154G)
dogsandcatsand: 790G (10.6%, 790G)
Forkmore: 691G (9.3%, 691G)
nifboy: 556G (7.5%, 556G)
amsans1247: 500G (6.7%, 6,558G)
roqqqpsi: 410G (5.5%, 432G)
Lord_Gwarth: 337G (4.5%, 4,424G)
Drusiform: 250G (3.4%, 4,866G)
HaateXIII: 200G (2.7%, 1,905G)
holdenmagronik: 150G (2.0%, 2,850G)
rednecknazgul: 100G (1.3%, 2,982G)
CosmicTactician: 100G (1.3%, 4,401G)
MonchoStrife: 100G (1.3%, 726G)
getthemoneyz: 24G (0.3%, 1,557,274G)

champion bets:
DavenIII: 1,866G (24.5%, 3,732G)
sinnyil2: 1,395G (18.3%, 1,395G)
PantherIscariot: 1,111G (14.6%, 4,577G)
RuneS_77: 1,000G (13.1%, 14,789G)
Nizaha: 692G (9.1%, 21,923G)
TasisSai: 500G (6.6%, 8,024G)
butterbelljedi: 487G (6.4%, 487G)
latebit: 276G (3.6%, 276G)
AllInBot: 200G (2.6%, 200G)
Bongomon7: 100G (1.3%, 3,853G)
