Final Bets: purple - 14 bets for 14,897G (39.1%, x1.56); champion - 19 bets for 23,179G (60.9%, x0.64)

purple bets:
SephDarkheart: 10,000G (67.1%, 18,504G)
Evewho: 676G (4.5%, 676G)
benticore: 675G (4.5%, 6,750G)
Laserman1000: 592G (4.0%, 20,692G)
MagicBottle: 512G (3.4%, 17,018G)
joewcarson: 500G (3.4%, 19,480G)
Rannock57: 470G (3.2%, 470G)
Aldrammech: 408G (2.7%, 408G)
DudeMonkey77: 404G (2.7%, 404G)
redrhinofever: 280G (1.9%, 2,547G)
VolgraTheMoose: 178G (1.2%, 2,398G)
Firesheath: 100G (0.7%, 1,869G)
nifboy: 100G (0.7%, 16,473G)
getthemoneyz: 2G (0.0%, 1,224,079G)

champion bets:
roqqqpsi: 7,068G (30.5%, 64,258G)
red__lancer: 4,000G (17.3%, 104,301G)
GatsbysGhost: 2,000G (8.6%, 3,446G)
reinoe: 1,846G (8.0%, 39,891G)
roofiepops: 1,731G (7.5%, 1,731G)
fenaen: 1,200G (5.2%, 20,908G)
randgridr: 1,189G (5.1%, 1,189G)
BirbBrainsBot: 1,000G (4.3%, 129,314G)
powergems: 700G (3.0%, 8,655G)
EnemyController: 555G (2.4%, 1,384,995G)
ArashiKurobara: 500G (2.2%, 6,284G)
CapnChaos12: 300G (1.3%, 4,223G)
soliares: 285G (1.2%, 386G)
gorgewall: 201G (0.9%, 19,733G)
datadrivenbot: 200G (0.9%, 55,343G)
TasisSai: 104G (0.4%, 104G)
nhammen: 100G (0.4%, 12,642G)
Miku_Shikhu: 100G (0.4%, 2,080G)
DeathTaxesAndAnime: 100G (0.4%, 3,081G)
