Final Bets: red - 21 bets for 10,242G (29.6%, x2.38); blue - 19 bets for 24,385G (70.4%, x0.42)

red bets:
toka222: 1,200G (11.7%, 536,783G)
nedryerson01: 1,000G (9.8%, 8,467G)
ungabunga_bot: 1,000G (9.8%, 142,294G)
BirbBrainsBot: 1,000G (9.8%, 178,564G)
Nickyfive: 1,000G (9.8%, 10,710G)
Pie108: 700G (6.8%, 24,354G)
Lanshaft: 655G (6.4%, 1,311G)
Lodrak: 572G (5.6%, 572G)
LDSkinny: 500G (4.9%, 1,984G)
getthemoneyz: 442G (4.3%, 501,157G)
HaateXIII: 376G (3.7%, 376G)
Grasnikk: 260G (2.5%, 260G)
killth3kid: 252G (2.5%, 252G)
Lyner87: 250G (2.4%, 24,519G)
mexskacin: 236G (2.3%, 236G)
joewcarson: 200G (2.0%, 4,163G)
ZephyrTempest: 195G (1.9%, 66,530G)
DemonRHK: 104G (1.0%, 104G)
JumbocactuarX27: 100G (1.0%, 4,010G)
ANFz: 100G (1.0%, 6,808G)
datadrivenbot: 100G (1.0%, 100G)

blue bets:
AllInBot: 13,091G (53.7%, 13,091G)
fenaen: 1,500G (6.2%, 14,659G)
Shalloween: 1,400G (5.7%, 31,925G)
NovaKnight21: 1,276G (5.2%, 1,276G)
sinnyil2: 1,200G (4.9%, 58,390G)
kai_shee: 1,001G (4.1%, 138,031G)
TheChainNerd: 1,000G (4.1%, 11,584G)
YaBoy125: 777G (3.2%, 7,940G)
catfashions: 500G (2.1%, 4,218G)
ko2q: 500G (2.1%, 19,004G)
old_overholt_: 500G (2.1%, 6,770G)
ShintaroNayaka: 400G (1.6%, 14,476G)
Laserman1000: 400G (1.6%, 2,200G)
CapnChaos12: 300G (1.2%, 1,589G)
HeroponThrawn: 132G (0.5%, 132G)
Ross_from_Cali: 108G (0.4%, 108G)
Tougou: 100G (0.4%, 4,545G)
RunicMagus: 100G (0.4%, 1,187G)
Firesheath: 100G (0.4%, 2,273G)
