Final Bets: purple - 9 bets for 3,957G (17.8%, x4.62); brown - 22 bets for 18,275G (82.2%, x0.22)

purple bets:
coralreeferz: 1,500G (37.9%, 21,618G)
Aldrammech: 500G (12.6%, 7,019G)
pplvee1: 500G (12.6%, 3,189G)
getthemoneyz: 438G (11.1%, 1,328,745G)
OtherBrand: 296G (7.5%, 296G)
dtrain332: 268G (6.8%, 268G)
gorgewall: 201G (5.1%, 4,522G)
ohhinm: 134G (3.4%, 1,853G)
GoatShow2: 120G (3.0%, 120G)

brown bets:
rockmem21: 2,000G (10.9%, 12,434G)
NicoSavoy: 2,000G (10.9%, 266,481G)
reinoe: 2,000G (10.9%, 80,563G)
RaIshtar: 1,667G (9.1%, 1,667G)
mirapoix: 1,407G (7.7%, 1,407G)
nhammen: 1,400G (7.7%, 4,760G)
BirbBrainsBot: 1,000G (5.5%, 129,906G)
Rislyeu: 1,000G (5.5%, 9,869G)
lyonslegacy: 854G (4.7%, 854G)
Laserman1000: 730G (4.0%, 730G)
Zeroroute: 600G (3.3%, 600G)
Evewho: 556G (3.0%, 556G)
Vacillents: 500G (2.7%, 2,261G)
Thyrandaal: 490G (2.7%, 490G)
randgridr: 440G (2.4%, 9,778G)
superdevon1: 377G (2.1%, 3,777G)
CapnChaos12: 300G (1.6%, 3,531G)
nekojin: 250G (1.4%, 4,238G)
AllInBot: 200G (1.1%, 200G)
Legionx13: 200G (1.1%, 3,767G)
datadrivenbot: 200G (1.1%, 32,974G)
douchetron: 104G (0.6%, 104G)
