Final Bets: white - 12 bets for 26,420G (68.4%, x0.46); brown - 15 bets for 12,230G (31.6%, x2.16)

white bets:
NicoSavoy: 16,200G (61.3%, 266,914G)
Rislyeu: 4,000G (15.1%, 10,446G)
HaateXIII: 3,053G (11.6%, 3,053G)
roofiepops: 800G (3.0%, 1,669G)
Zeroroute: 600G (2.3%, 600G)
Sye990: 500G (1.9%, 24,880G)
Vacillents: 300G (1.1%, 2,459G)
CapnChaos12: 300G (1.1%, 3,704G)
datadrivenbot: 200G (0.8%, 33,089G)
POGpope: 200G (0.8%, 1,323G)
GoatShow2: 163G (0.6%, 163G)
douchetron: 104G (0.4%, 104G)

brown bets:
pplvee1: 3,657G (29.9%, 3,657G)
rockmem21: 2,300G (18.8%, 12,587G)
Laserman1000: 1,208G (9.9%, 1,208G)
BirbBrainsBot: 1,000G (8.2%, 129,291G)
ohhinm: 596G (4.9%, 596G)
lyonslegacy: 589G (4.8%, 589G)
randgridr: 440G (3.6%, 10,031G)
superdevon1: 399G (3.3%, 3,998G)
getthemoneyz: 374G (3.1%, 1,328,237G)
coralreeferz: 350G (2.9%, 20,658G)
Thyrandaal: 336G (2.7%, 336G)
AllInBot: 330G (2.7%, 330G)
Legionx13: 250G (2.0%, 3,864G)
gorgewall: 201G (1.6%, 4,120G)
nhammen: 200G (1.6%, 5,125G)
