Final Bets: white - 23 bets for 12,141G (60.6%, x0.65); purple - 21 bets for 7,900G (39.4%, x1.54)

white bets:
reinoe: 2,958G (24.4%, 2,958G)
Baron_von_Scrub: 1,111G (9.2%, 73,524G)
aStatue: 1,043G (8.6%, 1,043G)
Aldrammech: 1,000G (8.2%, 92,893G)
Laserman1000: 700G (5.8%, 54,900G)
itzover9001: 549G (4.5%, 549G)
volgrathemoose: 501G (4.1%, 12,122G)
killth3kid: 500G (4.1%, 29,001G)
ANFz: 500G (4.1%, 19,278G)
EnemyController: 500G (4.1%, 148,229G)
cgMcWhiskers: 450G (3.7%, 450G)
Bryon_W: 428G (3.5%, 428G)
Dymntd: 318G (2.6%, 318G)
twelfthrootoftwo: 300G (2.5%, 1,468G)
Lazerkick: 272G (2.2%, 272G)
ar_tactic: 220G (1.8%, 29,033G)
Orerries: 216G (1.8%, 216G)
elicsgo_: 174G (1.4%, 174G)
RunicMagus: 100G (0.8%, 54,831G)
Firesheath: 100G (0.8%, 10,050G)
datadrivenbot: 100G (0.8%, 5,081G)
ungabunga_bot: 100G (0.8%, 277,902G)
daveb_: 1G (0.0%, 843G)

purple bets:
Zeroroute: 1,763G (22.3%, 1,763G)
BirbBrainsBot: 1,000G (12.7%, 74,459G)
getthemoneyz: 572G (7.2%, 598,650G)
Shalloween: 500G (6.3%, 49,912G)
Grimmace45: 500G (6.3%, 8,031G)
sinnyil2: 500G (6.3%, 3,088G)
deenglow: 500G (6.3%, 52,980G)
DustBirdEX: 432G (5.5%, 432G)
vorap: 300G (3.8%, 18,985G)
TheRylander: 300G (3.8%, 3,078G)
Estan_AD: 250G (3.2%, 1,584G)
Primeval_33: 216G (2.7%, 216G)
Anethum: 200G (2.5%, 1,897G)
astrozin11: 200G (2.5%, 3,000G)
dorman_777: 112G (1.4%, 112G)
itsdigitalbro: 104G (1.3%, 104G)
ZephyrTempest: 101G (1.3%, 3,652G)
nifboy: 100G (1.3%, 4,523G)
mirapoix: 100G (1.3%, 6,833G)
Evewho: 100G (1.3%, 13,172G)
richardserious: 50G (0.6%, 724G)
