Final Bets: black - 9 bets for 4,095G (40.2%, x1.49); champion - 9 bets for 6,089G (59.8%, x0.67)

black bets:
lowlf: 1,000G (24.4%, 3,481G)
BirbBrainsBot: 1,000G (24.4%, 49,806G)
CT_5_Holy: 747G (18.2%, 747G)
getthemoneyz: 448G (10.9%, 1,676,854G)
CapnChaos12: 300G (7.3%, 2,271G)
DesertWooder: 200G (4.9%, 1,398G)
datadrivenbot: 200G (4.9%, 62,508G)
ko2q: 100G (2.4%, 3,226G)
emptygoat: 100G (2.4%, 100G)

champion bets:
Lazarus_DS: 2,076G (34.1%, 2,076G)
superdevon1: 1,198G (19.7%, 119,888G)
Evewho: 1,000G (16.4%, 3,545G)
Seaweed_B: 1,000G (16.4%, 56,114G)
rhsgangster: 294G (4.8%, 294G)
Starfire6789: 220G (3.6%, 220G)
gorgewall: 101G (1.7%, 4,286G)
AllInBot: 100G (1.6%, 100G)
Drusiform: 100G (1.6%, 713G)
