High Risers:
1. Skyridgezero: +4,949G
2. Panushenko: +2,014G
3. Deathtaxesandanime: +1,573G
4. Colettemslp: +771G
5. Ct_5_holy: +535G
6. Davestrider55: +337G
7. Farside00831: +322G
8. Brenogarwin: +274G
9. Ser_pyrro: +151G
10. Valensexp_: +138G
11. Lijarkh: -100G
12. Volgrathemoose: -129G
13. Altimamantoid: -200G
14. Go2sleeptv: -200G
15. Raixelol: -225G
16. Hasterious: -286G
17. Seaweed_b: -296G
18. Neech: -296G
19. Zachara: -300G
20. 0v3rr8d: -300G
21. Bigbongsmoker: -300G
22. Sairentozon7: -300G
23. Cassiephoenix: -436G
24. Upvla: -725G
25. Baronhaynes: -1,000G
26. Mushufasa_: -1,083G
27. Bruubarg: -1,200G
28. Helpimabug: -1,208G
29. Hotpocketsofficial: -1,837G
30. Novaknight21: -1,898G
31. Ibardic: -1,935G
32. Nicosavoy: -3,584G
