Final Bets: red - 8 bets for 1,789G (32.1%, x2.12); blue - 8 bets for 3,791G (67.9%, x0.47)

red bets:
getthemoneyz: 436G (24.4%, 1,915,999G)
hotpocketsofficial: 400G (22.4%, 1,873G)
upvla: 345G (19.3%, 12,547G)
iBardic: 200G (11.2%, 18,476G)
ayeayex3: 136G (7.6%, 136G)
ser_pyrro: 120G (6.7%, 120G)
AllInBot: 100G (5.6%, 100G)
BirbBrainsBot: 52G (2.9%, 48,701G)

blue bets:
DeathTaxesAndAnime: 1,109G (29.3%, 1,109G)
helpimabug: 1,085G (28.6%, 2,171G)
Raixelol: 592G (15.6%, 15,081G)
Panushenko: 397G (10.5%, 397G)
PolkaGrandma: 208G (5.5%, 208G)
datadrivenbot: 200G (5.3%, 57,445G)
BartTradingCompany: 100G (2.6%, 4,001G)
Mushufasa_: 100G (2.6%, 1,783G)
