Final Bets: white - 8 bets for 8,358G (71.8%, x0.39); purple - 5 bets for 3,287G (28.2%, x2.54)

white bets:
iBardic: 4,000G (47.9%, 18,443G)
DeathTaxesAndAnime: 2,005G (24.0%, 3,933G)
NicoSavoy: 1,000G (12.0%, 48,455G)
brenogarwin: 853G (10.2%, 853G)
datadrivenbot: 200G (2.4%, 57,716G)
BartTradingCompany: 100G (1.2%, 3,814G)
AllInBot: 100G (1.2%, 100G)
Mushufasa_: 100G (1.2%, 1,169G)

purple bets:
hotpocketsofficial: 1,552G (47.2%, 1,552G)
BirbBrainsBot: 867G (26.4%, 48,535G)
Raixelol: 596G (18.1%, 17,444G)
AltimaMantoid: 200G (6.1%, 4,200G)
getthemoneyz: 72G (2.2%, 1,915,534G)
