Final Bets: red - 14 bets for 8,873G (19.8%, x4.04); champion - 19 bets for 35,829G (80.2%, x0.25)

red bets:
CassiePhoenix: 2,218G (25.0%, 2,218G)
toka222: 1,350G (15.2%, 4,943G)
BirbBrainsBot: 1,000G (11.3%, 140,421G)
ungabunga_bot: 956G (10.8%, 220,700G)
Tithonus: 800G (9.0%, 800G)
AllInBot: 469G (5.3%, 469G)
ShintaroNayaka: 400G (4.5%, 21,283G)
gooseyourself: 372G (4.2%, 372G)
TheChainNerd: 332G (3.7%, 332G)
Anethum: 284G (3.2%, 284G)
Dexsana: 250G (2.8%, 10,884G)
getthemoneyz: 192G (2.2%, 561,047G)
xYungAnarchyx: 150G (1.7%, 1,277G)
druggeddwarf: 100G (1.1%, 1,700G)

champion bets:
sinnyil2: 12,344G (34.5%, 133,135G)
Lydian_C: 5,600G (15.6%, 120,108G)
Jahshine: 5,000G (14.0%, 7,182G)
HaplessOne: 2,500G (7.0%, 126,730G)
Error72: 1,809G (5.0%, 1,809G)
leakimiko: 1,208G (3.4%, 2,416G)
Bryon_W: 1,079G (3.0%, 1,079G)
UmbraKnights: 1,000G (2.8%, 2,319G)
Estan_AD: 975G (2.7%, 975G)
perce90: 881G (2.5%, 881G)
SpicyCherrySoda_: 778G (2.2%, 778G)
Laserman1000: 510G (1.4%, 41,010G)
aStatue: 500G (1.4%, 500G)
roqqqpsi: 437G (1.2%, 1,990G)
Slowbrofist: 380G (1.1%, 380G)
clesseses: 300G (0.8%, 615G)
PetitFoulard: 228G (0.6%, 228G)
gorgewall: 200G (0.6%, 6,714G)
datadrivenbot: 100G (0.3%, 549G)
