Final Bets: white - 12 bets for 7,002G (57.1%, x0.75); black - 11 bets for 5,268G (42.9%, x1.33)

white bets:
Aldrammech: 2,000G (28.6%, 6,780G)
Firesheath: 1,124G (16.1%, 1,124G)
JCBooBot: 1,000G (14.3%, 22,198G)
Lord_Gwarth: 774G (11.1%, 774G)
katsupdog: 500G (7.1%, 2,587G)
bruubarg: 460G (6.6%, 460G)
thunderducker: 444G (6.3%, 444G)
arumz: 300G (4.3%, 2,224G)
AllInBot: 100G (1.4%, 100G)
IndecisiveNinja: 100G (1.4%, 8,009G)
nhammen: 100G (1.4%, 129,972G)
Thyrandaal: 100G (1.4%, 91,117G)

black bets:
Shalloween: 1,300G (24.7%, 20,842G)
BirbBrainsBot: 1,000G (19.0%, 79,818G)
E_Ballard: 776G (14.7%, 63,347G)
SephDarkheart: 600G (11.4%, 167,235G)
DustBirdEX: 404G (7.7%, 404G)
getthemoneyz: 298G (5.7%, 1,768,974G)
Mushufasa_: 232G (4.4%, 232G)
Runeseeker22: 208G (3.9%, 208G)
datadrivenbot: 200G (3.8%, 64,034G)
muffin_money: 150G (2.8%, 10,503G)
neerrm: 100G (1.9%, 19,884G)
