Final Bets: purple - 12 bets for 5,246G (56.7%, x0.76); brown - 8 bets for 4,005G (43.3%, x1.31)

purple bets:
Firesheath: 1,970G (37.6%, 1,970G)
thunderducker: 778G (14.8%, 778G)
SephDarkheart: 600G (11.4%, 166,635G)
katsupdog: 500G (9.5%, 2,963G)
DustBirdEX: 404G (7.7%, 404G)
Mushufasa_: 232G (4.4%, 232G)
Runeseeker22: 208G (4.0%, 208G)
datadrivenbot: 200G (3.8%, 63,834G)
IndecisiveNinja: 100G (1.9%, 8,084G)
Aldrammech: 100G (1.9%, 8,285G)
Thyrandaal: 100G (1.9%, 91,192G)
BirbBrainsBot: 54G (1.0%, 78,818G)

brown bets:
JCBooBot: 1,000G (25.0%, 22,950G)
Shalloween: 1,000G (25.0%, 19,542G)
Wonser: 750G (18.7%, 7,170G)
CorpusCav: 492G (12.3%, 492G)
oldmanbody: 224G (5.6%, 224G)
getthemoneyz: 214G (5.3%, 1,768,676G)
AllInBot: 175G (4.4%, 175G)
muffin_money: 150G (3.7%, 10,353G)
