Final Bets: green - 17 bets for 9,211G (42.1%, x1.38); yellow - 10 bets for 12,667G (57.9%, x0.73)

green bets:
DustBirdEX: 2,197G (23.9%, 2,197G)
Lydian_C: 1,200G (13.0%, 14,109G)
Thyrandaal: 1,000G (10.9%, 5,953G)
ohhinm: 918G (10.0%, 918G)
Laserman1000: 777G (8.4%, 777G)
nifboy: 748G (8.1%, 748G)
killth3kid: 524G (5.7%, 1,888G)
Lord_Gwarth: 437G (4.7%, 437G)
SephDarkheart: 392G (4.3%, 392G)
roqqqpsi: 216G (2.3%, 228G)
AllInBot: 200G (2.2%, 200G)
datadrivenbot: 200G (2.2%, 43,335G)
ANFz: 100G (1.1%, 58,489G)
cameloramelo: 100G (1.1%, 2,185G)
mrpickins: 100G (1.1%, 6,434G)
ArlanKels: 52G (0.6%, 1,740G)
AintDeadYett: 50G (0.5%, 1,063G)

yellow bets:
omegasuspekt: 5,151G (40.7%, 10,303G)
UmaiJam: 1,700G (13.4%, 70,470G)
SkylerBunny: 1,600G (12.6%, 67,867G)
slotheye17: 1,378G (10.9%, 2,756G)
BirbBrainsBot: 1,000G (7.9%, 122,271G)
DamnThatShark: 1,000G (7.9%, 8,708G)
getthemoneyz: 438G (3.5%, 1,408,042G)
TasisSai: 200G (1.6%, 3,235G)
mirapoix: 100G (0.8%, 42,643G)
Hirameki85: 100G (0.8%, 3,701G)
