Final Bets: red - 19 bets for 8,722G (59.5%, x0.68); yellow - 8 bets for 5,942G (40.5%, x1.47)

red bets:
EnemyController: 1,000G (11.5%, 540,032G)
HaateXIII: 910G (10.4%, 910G)
RaIshtar: 821G (9.4%, 821G)
Firesheath: 745G (8.5%, 745G)
DeathTaxesAndAnime: 744G (8.5%, 744G)
TheChainNerd: 664G (7.6%, 664G)
potgodtopdog: 555G (6.4%, 41,010G)
Phi_Sig: 555G (6.4%, 152,326G)
DLJuggernaut: 450G (5.2%, 8,558G)
mpghappiness: 436G (5.0%, 436G)
killth3kid: 320G (3.7%, 541G)
Saldarin: 312G (3.6%, 312G)
Flameatron: 300G (3.4%, 6,782G)
wyonearth: 300G (3.4%, 848G)
Angelomortis: 220G (2.5%, 220G)
Miku_Shikhu: 104G (1.2%, 104G)
datadrivenbot: 100G (1.1%, 32,847G)
ko2q: 100G (1.1%, 7,044G)
getthemoneyz: 86G (1.0%, 814,548G)

yellow bets:
Lydian_C: 1,500G (25.2%, 11,741G)
Thyrandaal: 1,000G (16.8%, 15,188G)
BirbBrainsBot: 995G (16.7%, 31,733G)
DavenIII: 800G (13.5%, 11,295G)
Laserman1000: 700G (11.8%, 28,400G)
Kyune: 500G (8.4%, 12,079G)
Zachara: 247G (4.2%, 105,447G)
MaimTrain: 200G (3.4%, 8,979G)
