Final Bets: white - 13 bets for 7,542G (59.4%, x0.68); purple - 12 bets for 5,152G (40.6%, x1.46)

white bets:
NovaKnight21: 3,000G (39.8%, 10,548G)
MaimTrain: 1,000G (13.3%, 9,273G)
DeathTaxesAndAnime: 744G (9.9%, 744G)
TheChainNerd: 664G (8.8%, 664G)
Kyune: 500G (6.6%, 12,813G)
killth3kid: 320G (4.2%, 320G)
Saldarin: 312G (4.1%, 312G)
Zachara: 310G (4.1%, 105,810G)
Angelomortis: 220G (2.9%, 220G)
aeonicvector: 152G (2.0%, 916G)
Lydian_C: 120G (1.6%, 13,943G)
Grandlanzer: 100G (1.3%, 10,298G)
datadrivenbot: 100G (1.3%, 32,747G)

purple bets:
joewcarson: 1,000G (19.4%, 14,024G)
BirbBrainsBot: 1,000G (19.4%, 33,194G)
EnemyController: 1,000G (19.4%, 539,032G)
Cryptopsy70: 488G (9.5%, 5,868G)
mpghappiness: 436G (8.5%, 436G)
wyonearth: 300G (5.8%, 548G)
benticore: 250G (4.9%, 3,418G)
HaychDub: 250G (4.9%, 2,797G)
Belkra: 128G (2.5%, 128G)
Miku_Shikhu: 104G (2.0%, 104G)
ruleof5: 100G (1.9%, 1,910G)
getthemoneyz: 96G (1.9%, 814,462G)
