Final Bets: white - 13 bets for 7,865G (78.5%, x0.27); purple - 8 bets for 2,149G (21.5%, x3.66)

white bets:
Mesmaster: 2,000G (25.4%, 84,095G)
Digitalsocrates: 1,938G (24.6%, 3,525G)
CT_5_Holy: 949G (12.1%, 949G)
prince_rogers_nelson_: 878G (11.2%, 15,878G)
CrownOfHorns: 757G (9.6%, 757G)
fluffskull: 300G (3.8%, 2,862G)
Lythe_Caraker: 250G (3.2%, 142,921G)
getthemoneyz: 206G (2.6%, 1,051,803G)
BirbBrainsBot: 200G (2.5%, 200G)
Ring_Wyrm: 100G (1.3%, 6,030G)
datadrivenbot: 100G (1.3%, 49,199G)
AshesSmashes: 100G (1.3%, 100G)
Hasterious: 87G (1.1%, 8,708G)

purple bets:
nifboy: 536G (24.9%, 536G)
superdevon1: 405G (18.8%, 405G)
arcadiues: 283G (13.2%, 283G)
redrhinofever: 264G (12.3%, 264G)
blastty: 228G (10.6%, 228G)
Evewho: 200G (9.3%, 9,187G)
MilesDong: 133G (6.2%, 133G)
itsadud: 100G (4.7%, 18,686G)
