Final Bets: red - 11 bets for 5,904G (25.0%, x2.99); blue - 13 bets for 17,672G (75.0%, x0.33)

red bets:
Jeeboheebo: 2,020G (34.2%, 11,972G)
WireLord: 1,499G (25.4%, 1,499G)
ko2q: 619G (10.5%, 619G)
superdevon1: 500G (8.5%, 500G)
AllInBot: 250G (4.2%, 250G)
TheBodaciousLlama: 250G (4.2%, 250G)
ugoplatamia: 200G (3.4%, 19,938G)
UmbraKnights: 200G (3.4%, 1,923G)
cougboi: 150G (2.5%, 3,319G)
mayormcfunbags: 116G (2.0%, 116G)
Lali_Lulelo: 100G (1.7%, 2,829G)

blue bets:
YaBoy125: 9,823G (55.6%, 9,823G)
NovaKnight21: 3,447G (19.5%, 6,895G)
BirbBrainsBot: 1,000G (5.7%, 132,681G)
bad1dea: 1,000G (5.7%, 347,618G)
unclebearboy: 624G (3.5%, 624G)
SleepyBenzo: 570G (3.2%, 570G)
UmaiJam: 325G (1.8%, 3,253G)
getthemoneyz: 204G (1.2%, 400,590G)
Treapvort: 200G (1.1%, 34,650G)
byrdturbo: 169G (1.0%, 3,064G)
Cataphract116: 110G (0.6%, 1,057G)
jethrothrul: 100G (0.6%, 2,118G)
datadrivenbot: 100G (0.6%, 14,355G)
