Final Bets: white - 8 bets for 1,583G (61.2%, x0.63); purple - 2 bets for 1,002G (38.8%, x1.58)

white bets:
fluffskull: 504G (31.8%, 504G)
TheSyffy: 398G (25.1%, 398G)
datadrivenbot: 200G (12.6%, 65,577G)
gorgewall: 101G (6.4%, 3,809G)
MinBetBot: 100G (6.3%, 7,164G)
AllInBot: 100G (6.3%, 100G)
ko2q: 100G (6.3%, 2,161G)
getthemoneyz: 80G (5.1%, 1,670,682G)

purple bets:
Sairentozon7: 1,000G (99.8%, 28,262G)
BirbBrainsBot: 2G (0.2%, 53,686G)
