Final Bets: red - 20 bets for 9,592G (15.8%, x5.35); blue - 32 bets for 51,278G (84.2%, x0.19)

red bets:
killth3kid: 2,000G (20.9%, 39,698G)
BirbBrainsBot: 1,000G (10.4%, 13,030G)
Belivalan: 1,000G (10.4%, 15,085G)
Hamborn: 1,000G (10.4%, 54,766G)
ungabunga_bot: 697G (7.3%, 336,822G)
Aldrammech: 600G (6.3%, 600G)
KasugaiRoastedPeas: 600G (6.3%, 600G)
Cryptopsy70: 388G (4.0%, 29,823G)
gorgewall: 328G (3.4%, 328G)
elelor: 316G (3.3%, 316G)
duckfist: 300G (3.1%, 1,486G)
genericco: 202G (2.1%, 202G)
WrathfulRemy: 200G (2.1%, 2,566G)
TheMM42: 200G (2.1%, 8,874G)
VarkilTV: 200G (2.1%, 1,867G)
Chuckolator: 161G (1.7%, 6,926G)
Alanaire: 100G (1.0%, 1,626G)
Tougou: 100G (1.0%, 9,702G)
RestIessNight: 100G (1.0%, 687G)
rico_flex: 100G (1.0%, 31,034G)

blue bets:
Alenivan: 10,049G (19.6%, 10,049G)
Evewho: 5,004G (9.8%, 10,009G)
DeathTaxesAndAnime: 4,875G (9.5%, 9,559G)
Spartan_Paladin: 4,400G (8.6%, 48,494G)
SkylerBunny: 4,000G (7.8%, 60,449G)
moonliquor: 3,187G (6.2%, 3,187G)
arch8000: 3,000G (5.9%, 3,890G)
Shalloween: 2,829G (5.5%, 2,829G)
RunicMagus: 1,600G (3.1%, 49,641G)
HaateXIII: 1,460G (2.8%, 1,460G)
Yasmosis: 1,353G (2.6%, 1,353G)
hydroshade: 1,289G (2.5%, 2,578G)
fenaen: 1,001G (2.0%, 2,604G)
ttLYNCH09: 1,000G (2.0%, 3,240G)
nifboy: 1,000G (2.0%, 7,222G)
jakeduhhsnake: 1,000G (2.0%, 77,462G)
reinoe: 600G (1.2%, 600G)
Zeroroute: 530G (1.0%, 530G)
CoderCalamity: 481G (0.9%, 481G)
itsdigitalbro: 450G (0.9%, 3,094G)
Eyepoor_: 429G (0.8%, 429G)
twelfthrootoftwo: 300G (0.6%, 1,510G)
Arlum: 300G (0.6%, 1,490G)
mirapoix: 200G (0.4%, 1,791G)
Setdevildog: 200G (0.4%, 2,981G)
nonchalantskeleton: 129G (0.3%, 129G)
marrrrrrrrrrrrrrrrrrrr: 112G (0.2%, 112G)
maakur_: 100G (0.2%, 128,353G)
reshiramdude16: 100G (0.2%, 100G)
datadrivenbot: 100G (0.2%, 14,548G)
Squatting_Bear: 100G (0.2%, 1,082G)
jakoholic: 100G (0.2%, 100G)
