Final Bets: purple - 20 bets for 38,400G (68.2%, x0.47); brown - 25 bets for 17,889G (31.8%, x2.15)

purple bets:
Evewho: 16,682G (43.4%, 16,682G)
arch8000: 4,451G (11.6%, 4,451G)
ACSpree: 4,000G (10.4%, 40,300G)
hydroshade: 1,567G (4.1%, 3,134G)
reinoe: 1,516G (3.9%, 1,516G)
rico_flex: 1,500G (3.9%, 30,437G)
Aldrammech: 1,287G (3.4%, 1,287G)
RunicMagus: 1,100G (2.9%, 49,540G)
TheMM42: 1,000G (2.6%, 8,674G)
BirbBrainsBot: 1,000G (2.6%, 10,030G)
jakeduhhsnake: 1,000G (2.6%, 76,870G)
KasugaiRoastedPeas: 600G (1.6%, 600G)
ttLYNCH09: 555G (1.4%, 3,708G)
ungabunga_bot: 515G (1.3%, 336,403G)
Zeroroute: 500G (1.3%, 500G)
Fenrislfr: 342G (0.9%, 342G)
HaplessOne: 333G (0.9%, 46,699G)
Eyepoor_: 228G (0.6%, 228G)
RestIessNight: 124G (0.3%, 124G)
maakur_: 100G (0.3%, 128,447G)

brown bets:
DeathTaxesAndAnime: 8,202G (45.8%, 16,084G)
SkylerBunny: 1,500G (8.4%, 59,860G)
Lydian_C: 1,200G (6.7%, 11,883G)
Shalloween: 1,025G (5.7%, 2,010G)
SarrgeQc: 501G (2.8%, 1,524G)
old_overholt_: 500G (2.8%, 3,832G)
Theseawolf1: 500G (2.8%, 7,118G)
twelfthrootoftwo: 500G (2.8%, 1,270G)
duckfist: 500G (2.8%, 1,210G)
superdevon1: 447G (2.5%, 4,477G)
mpghappiness: 357G (2.0%, 357G)
helpimabug: 352G (2.0%, 352G)
Jaritras: 328G (1.8%, 328G)
Smashy: 300G (1.7%, 3,109G)
Arlum: 300G (1.7%, 1,568G)
CoderCalamity: 269G (1.5%, 269G)
jakoholic: 212G (1.2%, 212G)
getthemoneyz: 156G (0.9%, 611,549G)
genericco: 140G (0.8%, 140G)
nifboy: 100G (0.6%, 7,384G)
Tougou: 100G (0.6%, 9,624G)
Lythe_Caraker: 100G (0.6%, 116,694G)
datadrivenbot: 100G (0.6%, 14,489G)
Alanaire: 100G (0.6%, 1,448G)
reshiramdude16: 100G (0.6%, 100G)
