Final Bets: red - 21 bets for 9,612G (40.8%, x1.45); blue - 13 bets for 13,936G (59.2%, x0.69)

red bets:
DuraiPapers: 1,200G (12.5%, 47,533G)
YaBoy125: 1,041G (10.8%, 34,707G)
Rislyeu: 1,015G (10.6%, 1,015G)
LDSkinny: 1,000G (10.4%, 36,021G)
Dasutin23: 1,000G (10.4%, 33,669G)
CT_5_Holy: 946G (9.8%, 946G)
Zagorsek: 618G (6.4%, 618G)
TheChainNerd: 509G (5.3%, 2,729G)
killth3kid: 500G (5.2%, 4,712G)
Zalerah: 300G (3.1%, 2,860G)
getthemoneyz: 228G (2.4%, 1,037,235G)
Nizaha: 201G (2.1%, 8,492G)
Evewho: 200G (2.1%, 6,404G)
muffin_money: 150G (1.6%, 7,908G)
TheBigSalarius: 104G (1.1%, 104G)
nifboy: 100G (1.0%, 2,078G)
nhammen: 100G (1.0%, 787G)
Firesheath: 100G (1.0%, 6,010G)
maakur_: 100G (1.0%, 76,673G)
datadrivenbot: 100G (1.0%, 48,846G)
CosmicTactician: 100G (1.0%, 21,540G)

blue bets:
Digitalsocrates: 4,452G (31.9%, 8,905G)
hot_momba: 2,419G (17.4%, 2,419G)
JumbocactuarX27: 2,397G (17.2%, 2,397G)
SkylerBunny: 1,200G (8.6%, 547,996G)
BirbBrainsBot: 1,000G (7.2%, 172,193G)
E_Ballard: 644G (4.6%, 644G)
evontno: 512G (3.7%, 512G)
Arcblazer23: 312G (2.2%, 312G)
roqqqpsi: 284G (2.0%, 28,406G)
aviner42: 216G (1.5%, 216G)
sparker9: 200G (1.4%, 17,362G)
sososteve: 200G (1.4%, 3,480G)
Kellios11: 100G (0.7%, 53,767G)
