Final Bets: green - 15 bets for 6,365G (24.7%, x3.05); brown - 25 bets for 19,387G (75.3%, x0.33)

green bets:
jtbirdACC: 1,150G (18.1%, 4,436G)
fenaen: 1,001G (15.7%, 58,592G)
braumbles: 1,000G (15.7%, 91,359G)
kai_shee: 530G (8.3%, 1,060G)
MrFlabyo: 500G (7.9%, 78,315G)
feDoran: 500G (7.9%, 3,529G)
roqqqpsi: 393G (6.2%, 1,787G)
Chuckolator: 314G (4.9%, 28,602G)
getthemoneyz: 244G (3.8%, 569,892G)
PetitFoulard: 232G (3.6%, 232G)
ZephyrTempest: 101G (1.6%, 181,189G)
gorgewall: 100G (1.6%, 10,035G)
Heroebal: 100G (1.6%, 3,815G)
xYungAnarchyx: 100G (1.6%, 1,049G)
TheChainNerd: 100G (1.6%, 3,816G)

brown bets:
orlandu_lv: 2,500G (12.9%, 7,467G)
HaateXIII: 2,500G (12.9%, 28,571G)
sinnyil2: 2,345G (12.1%, 90,385G)
ko2q: 2,115G (10.9%, 4,230G)
Nizaha: 1,001G (5.2%, 13,414G)
BirbBrainsBot: 1,000G (5.2%, 151,654G)
JonnyCue: 1,000G (5.2%, 33,379G)
JumbocactuarX27: 1,000G (5.2%, 6,697G)
ForagerCats: 1,000G (5.2%, 39,785G)
ungabunga_bot: 875G (4.5%, 218,308G)
ColetteMSLP: 500G (2.6%, 20,597G)
joewcarson: 500G (2.6%, 5,368G)
CapnChaos12: 500G (2.6%, 50,803G)
SQUiDSQUARKLIN: 500G (2.6%, 2,831G)
EnemyController: 415G (2.1%, 79,415G)
Dexef: 333G (1.7%, 18,011G)
nifboy: 292G (1.5%, 7,316G)
Zachara: 217G (1.1%, 61,717G)
KasugaiRoastedPeas: 200G (1.0%, 15,166G)
ManaSphere: 194G (1.0%, 194G)
AllInBot: 100G (0.5%, 100G)
RunicMagus: 100G (0.5%, 33,883G)
datadrivenbot: 100G (0.5%, 987G)
LordMaxoss: 50G (0.3%, 3,288G)
DrAntiSocial: 50G (0.3%, 23,581G)
