Final Bets: red - 11 bets for 8,608G (49.6%, x1.02); brown - 13 bets for 8,746G (50.4%, x0.98)

red bets:
loveyouallfriends: 5,000G (58.1%, 46,960G)
E_Ballard: 604G (7.0%, 4,336G)
krombobreaker: 500G (5.8%, 2,753G)
Smashy: 500G (5.8%, 7,171G)
Lemonjohns: 420G (4.9%, 5,779G)
CorpusCav: 400G (4.6%, 8,843G)
Snowfats: 316G (3.7%, 316G)
CosmicTactician: 300G (3.5%, 40,198G)
BartTradingCompany: 267G (3.1%, 2,677G)
datadrivenbot: 200G (2.3%, 54,668G)
gorgewall: 101G (1.2%, 2,354G)

brown bets:
Zeroroute: 1,754G (20.1%, 5,849G)
VolgraTheMoose: 1,001G (11.4%, 138,690G)
fattunaking: 1,000G (11.4%, 7,089G)
Runeseeker22: 1,000G (11.4%, 5,812G)
Raixelol: 683G (7.8%, 683G)
resjudicata3: 625G (7.1%, 625G)
BirbBrainsBot: 594G (6.8%, 182,665G)
Sietaha: 500G (5.7%, 770G)
technominari: 500G (5.7%, 82,289G)
latebit: 399G (4.6%, 399G)
getthemoneyz: 334G (3.8%, 1,835,736G)
bigbongsmoker: 256G (2.9%, 2,685G)
nhammen: 100G (1.1%, 426,747G)
