Final Bets: red - 22 bets for 11,325G (42.1%, x1.37); blue - 21 bets for 15,565G (57.9%, x0.73)

red bets:
HaateXIII: 2,160G (19.1%, 2,160G)
DeathTaxesAndAnime: 1,740G (15.4%, 1,740G)
Nizaha: 1,330G (11.7%, 2,660G)
sinnyil2: 1,200G (10.6%, 123,419G)
BenYuPoker: 810G (7.2%, 810G)
kingchadking: 432G (3.8%, 432G)
Maeveen: 328G (2.9%, 328G)
thevilmen: 300G (2.6%, 551G)
alrightbye: 300G (2.6%, 3,869G)
Meanderandreturn: 300G (2.6%, 4,536G)
sneakyness: 262G (2.3%, 262G)
DrAntiSocial: 256G (2.3%, 256G)
Slowbrofist: 252G (2.2%, 252G)
Tyerenex: 252G (2.2%, 252G)
Phytik: 232G (2.0%, 4,388G)
JackOnFire1: 228G (2.0%, 228G)
lynx1x1: 219G (1.9%, 438G)
b0shii: 200G (1.8%, 2,158G)
Ausuri: 200G (1.8%, 2,134G)
AllInBot: 124G (1.1%, 124G)
bahumat989: 100G (0.9%, 3,781G)
BuffaloCrunch: 100G (0.9%, 16,841G)

blue bets:
omegasuspekt: 3,001G (19.3%, 6,002G)
Laserman1000: 1,832G (11.8%, 4,932G)
UmaiJam: 1,390G (8.9%, 2,726G)
helpimabug: 1,001G (6.4%, 9,189G)
ungabunga_bot: 1,000G (6.4%, 64,498G)
BirbBrainsBot: 1,000G (6.4%, 263,002G)
bad1dea: 1,000G (6.4%, 54,693G)
WireLord: 1,000G (6.4%, 8,763G)
Treapvort: 969G (6.2%, 969G)
JIDkomu: 694G (4.5%, 694G)
waterwatereverywhere: 564G (3.6%, 564G)
OneHundredFists: 352G (2.3%, 352G)
PatSouI: 352G (2.3%, 352G)
SkylerBunny: 344G (2.2%, 344G)
getthemoneyz: 266G (1.7%, 442,549G)
ugoplatamia: 200G (1.3%, 11,607G)
Shalloween: 200G (1.3%, 2,578G)
ApplesauceBoss: 100G (0.6%, 2,744G)
victoriolue: 100G (0.6%, 1,966G)
SeedSC: 100G (0.6%, 141,832G)
KaLam1ty: 100G (0.6%, 5,631G)
