Final Bets: white - 20 bets for 7,555G (47.3%, x1.12); black - 18 bets for 8,429G (52.7%, x0.90)

white bets:
sinnyil2: 1,200G (15.9%, 123,091G)
DarrenDinosaurs: 689G (9.1%, 689G)
BenYuPoker: 652G (8.6%, 652G)
Laserman1000: 646G (8.6%, 6,746G)
Nizaha: 592G (7.8%, 592G)
ungabunga_bot: 450G (6.0%, 64,577G)
DrAntiSocial: 441G (5.8%, 441G)
kingchadking: 432G (5.7%, 432G)
SkylerBunny: 348G (4.6%, 348G)
JIDkomu: 343G (4.5%, 343G)
Slowbrofist: 252G (3.3%, 252G)
b0shii: 250G (3.3%, 2,139G)
sneakyness: 232G (3.1%, 232G)
JackOnFire1: 228G (3.0%, 228G)
ugoplatamia: 200G (2.6%, 11,553G)
L2_Sentinel: 200G (2.6%, 15,188G)
ApplesauceBoss: 100G (1.3%, 2,717G)
SeedSC: 100G (1.3%, 141,805G)
datadrivenbot: 100G (1.3%, 22,756G)
thevilmen: 100G (1.3%, 287G)

black bets:
DeathTaxesAndAnime: 1,048G (12.4%, 1,048G)
BirbBrainsBot: 1,000G (11.9%, 264,453G)
bad1dea: 1,000G (11.9%, 56,144G)
WireLord: 1,000G (11.9%, 10,214G)
helpimabug: 599G (7.1%, 9,717G)
waterwatereverywhere: 564G (6.7%, 564G)
UmaiJam: 511G (6.1%, 5,115G)
Phytik: 500G (5.9%, 3,656G)
AdmiralPikachu: 408G (4.8%, 408G)
0utlier: 390G (4.6%, 390G)
Meanderandreturn: 300G (3.6%, 4,381G)
Chuckolator: 265G (3.1%, 7,058G)
getthemoneyz: 244G (2.9%, 441,899G)
KasugaiRoastedPeas: 200G (2.4%, 12,935G)
AllInBot: 100G (1.2%, 100G)
bahumat989: 100G (1.2%, 3,581G)
victoriolue: 100G (1.2%, 1,939G)
Treapvort: 100G (1.2%, 1,746G)
