Final Bets: purple - 9 bets for 3,998G (52.5%, x0.90); brown - 5 bets for 3,615G (47.5%, x1.11)

purple bets:
Mushufasa_: 1,234G (30.9%, 20,438G)
DeathTaxesAndAnime: 972G (24.3%, 972G)
BirbBrainsBot: 665G (16.6%, 154,119G)
getthemoneyz: 326G (8.2%, 2,198,273G)
AllInBot: 200G (5.0%, 200G)
datadrivenbot: 200G (5.0%, 82,980G)
chaosdesigned: 200G (5.0%, 4,069G)
gorgewall: 101G (2.5%, 5,911G)
WireLord: 100G (2.5%, 1,716G)

brown bets:
upvla: 1,018G (28.2%, 1,018G)
ValensEXP_: 1,000G (27.7%, 5,007G)
Arcblazer23: 898G (24.8%, 898G)
ko2q: 499G (13.8%, 998G)
NicoSavoy: 200G (5.5%, 2,094G)
