Final Bets: purple - 15 bets for 7,387G (50.9%, x0.97); brown - 15 bets for 7,137G (49.1%, x1.04)

purple bets:
safira125: 1,046G (14.2%, 1,046G)
BirbBrainsBot: 1,000G (13.5%, 84,633G)
BoneMiser: 797G (10.8%, 797G)
DudeMonkey77: 700G (9.5%, 700G)
Nickyfive: 604G (8.2%, 604G)
Nizaha: 524G (7.1%, 8,873G)
baconbacon1207: 500G (6.8%, 11,833G)
HaateXIII: 500G (6.8%, 4,747G)
MagicBottle: 500G (6.8%, 15,481G)
dogsandcatsand: 460G (6.2%, 460G)
ArashiKurobara: 280G (3.8%, 8,034G)
biffcake01: 200G (2.7%, 2,569G)
Miku_Shikhu: 100G (1.4%, 7,613G)
IDruggedShamu: 100G (1.4%, 100G)
getthemoneyz: 76G (1.0%, 1,205,187G)

brown bets:
E_Ballard: 2,331G (32.7%, 2,331G)
DeathTaxesAndAnime: 1,370G (19.2%, 1,370G)
athros13: 1,000G (14.0%, 18,212G)
ShintaroNayaka: 628G (8.8%, 628G)
ZCKaiser: 316G (4.4%, 2,817G)
KasugaiRoastedPeas: 300G (4.2%, 12,559G)
gorgewall: 201G (2.8%, 26,110G)
datadrivenbot: 200G (2.8%, 56,921G)
Shalloween: 200G (2.8%, 64,564G)
hiros13gts: 108G (1.5%, 108G)
letdowncity: 100G (1.4%, 7,112G)
nhammen: 100G (1.4%, 12,275G)
enkikavlar: 100G (1.4%, 7,019G)
danielrogercardoso: 100G (1.4%, 185G)
SephDarkheart: 83G (1.2%, 8,364G)
