Final Bets: white - 16 bets for 14,657G (51.6%, x0.94); black - 30 bets for 13,760G (48.4%, x1.07)

white bets:
KupoKel: 6,781G (46.3%, 6,781G)
sinnyil2: 1,200G (8.2%, 88,519G)
UmaiJam: 1,065G (7.3%, 10,653G)
waterwatereverywhere: 1,055G (7.2%, 2,070G)
Treapvort: 890G (6.1%, 890G)
Lanshaft: 600G (4.1%, 5,701G)
The8thZodiac: 578G (3.9%, 578G)
superdevon1: 500G (3.4%, 500G)
JackOnFire1: 338G (2.3%, 6,838G)
JIDkomu: 300G (2.0%, 7,540G)
tinytittyfiend: 300G (2.0%, 300G)
RurouniGeo: 220G (1.5%, 220G)
ungabunga_bot: 220G (1.5%, 49,646G)
getthemoneyz: 210G (1.4%, 441,895G)
NewbGaming: 200G (1.4%, 883G)
KaLam1ty: 200G (1.4%, 6,022G)

black bets:
upvla: 2,190G (15.9%, 70,984G)
Shakarak: 2,000G (14.5%, 14,809G)
HaateXIII: 1,500G (10.9%, 14,695G)
Numbersborne: 1,489G (10.8%, 1,489G)
YaBoy125: 715G (5.2%, 715G)
Laserman1000: 700G (5.1%, 14,400G)
Evewho: 614G (4.5%, 614G)
CT_5_Holy: 420G (3.1%, 420G)
SkylerBunny: 411G (3.0%, 411G)
Draconis345: 396G (2.9%, 396G)
Shalloween: 308G (2.2%, 308G)
DudeMonkey77: 300G (2.2%, 1,691G)
bad1dea: 300G (2.2%, 47,860G)
EnemyController: 300G (2.2%, 24,593G)
Chompie: 240G (1.7%, 6,692G)
jaykaye: 208G (1.5%, 208G)
ugoplatamia: 200G (1.5%, 7,682G)
mirapoix: 200G (1.5%, 17,568G)
V3rdeni: 200G (1.5%, 1,037G)
b0shii: 200G (1.5%, 807G)
Helllyesss: 108G (0.8%, 108G)
AllInBot: 100G (0.7%, 100G)
ApplesauceBoss: 100G (0.7%, 6,099G)
TheJonTerp: 100G (0.7%, 4,191G)
Arkreaver: 100G (0.7%, 100G)
DeathTaxesAndAnime: 100G (0.7%, 3,486G)
datadrivenbot: 100G (0.7%, 21,817G)
Imakuni: 100G (0.7%, 7,311G)
BirbBrainsBot: 51G (0.4%, 247,478G)
LordMaxoss: 10G (0.1%, 208G)
