Final Bets: purple - 35 bets for 50,235G (88.2%, x0.13); brown - 15 bets for 6,698G (11.8%, x7.50)

purple bets:
Gelwain: 19,200G (38.2%, 38,400G)
proper__noun__: 5,000G (10.0%, 21,831G)
upvla: 3,222G (6.4%, 68,794G)
Laserman1000: 2,600G (5.2%, 13,700G)
HaplessOne: 2,500G (5.0%, 100,954G)
PatSouI: 2,176G (4.3%, 2,176G)
DudeMonkey77: 1,391G (2.8%, 1,391G)
OneHundredFists: 1,029G (2.0%, 1,029G)
KupoKel: 1,000G (2.0%, 13,147G)
BuffaloCrunch: 1,000G (2.0%, 16,820G)
BirbBrainsBot: 1,000G (2.0%, 247,427G)
bad1dea: 1,000G (2.0%, 47,560G)
I_nod_my_head_when_I_lose: 1,000G (2.0%, 20,793G)
Zbgs: 1,000G (2.0%, 33,984G)
EnemyController: 1,000G (2.0%, 24,293G)
Lanshaft: 600G (1.2%, 6,264G)
YaBoy125: 592G (1.2%, 592G)
getthemoneyz: 582G (1.2%, 442,092G)
JIDkomu: 500G (1.0%, 7,822G)
b0shii: 500G (1.0%, 607G)
Imakuni: 500G (1.0%, 7,211G)
RurouniGeo: 427G (0.9%, 427G)
SkylerBunny: 340G (0.7%, 340G)
Evewho: 256G (0.5%, 256G)
NewbGaming: 250G (0.5%, 1,071G)
TrogdorTheMemeinator: 228G (0.5%, 228G)
CT_5_Holy: 212G (0.4%, 212G)
rubenflonne: 200G (0.4%, 4,497G)
Treapvort: 200G (0.4%, 1,726G)
KaLam1ty: 200G (0.4%, 6,210G)
The8thZodiac: 150G (0.3%, 1,121G)
ZZ_Yoshi: 130G (0.3%, 3,097G)
ApplesauceBoss: 100G (0.2%, 5,999G)
datadrivenbot: 100G (0.2%, 21,717G)
ungabunga_bot: 50G (0.1%, 49,853G)

brown bets:
waterwatereverywhere: 1,560G (23.3%, 3,060G)
pandasforsale: 1,111G (16.6%, 10,202G)
superdevon1: 969G (14.5%, 969G)
tinytittyfiend: 582G (8.7%, 582G)
galkife: 500G (7.5%, 81,553G)
Draconis345: 328G (4.9%, 328G)
Shalloween: 308G (4.6%, 308G)
Nocturnal_Perspective: 300G (4.5%, 5,546G)
Numbersborne: 232G (3.5%, 232G)
ugoplatamia: 200G (3.0%, 7,482G)
V3rdeni: 200G (3.0%, 837G)
Helllyesss: 108G (1.6%, 108G)
AllInBot: 100G (1.5%, 100G)
Chompie: 100G (1.5%, 6,452G)
DeathTaxesAndAnime: 100G (1.5%, 3,386G)
