Final Bets: red - 7 bets for 9,250G (60.8%, x0.64); green - 16 bets for 5,966G (39.2%, x1.55)

red bets:
haaaaaank: 7,410G (80.1%, 7,410G)
HaplessOne: 936G (10.1%, 26,536G)
kingchadking: 304G (3.3%, 304G)
rubenflonne: 200G (2.2%, 8,930G)
HaychDub: 200G (2.2%, 29,232G)
ApplesauceBoss: 100G (1.1%, 7,645G)
PatSouI: 100G (1.1%, 21,259G)

green bets:
leakimiko: 1,355G (22.7%, 27,118G)
Humble_Fabio: 1,111G (18.6%, 2,234G)
KupoKel: 1,000G (16.8%, 18,687G)
inzo_bettingbot: 634G (10.6%, 12,680G)
Tyerenex: 500G (8.4%, 1,587G)
getthemoneyz: 228G (3.8%, 383,250G)
FreneticRiot: 200G (3.4%, 6,858G)
ShintaroNayaka: 200G (3.4%, 8,811G)
Faqs_McGee: 116G (1.9%, 116G)
Caster_Daily: 100G (1.7%, 1,181G)
ko2q: 100G (1.7%, 836G)
maakur_: 100G (1.7%, 1,100G)
Treapvort: 100G (1.7%, 19,616G)
SeedSC: 100G (1.7%, 148,126G)
Manamorphose: 100G (1.7%, 9,513G)
roqqqpsi: 22G (0.4%, 1,597G)
