Final Bets: blue - 11 bets for 7,438G (60.6%, x0.65); yellow - 12 bets for 4,840G (39.4%, x1.54)

blue bets:
VolgraTheMoose: 1,718G (23.1%, 3,436G)
BirbBrainsBot: 1,000G (13.4%, 74,255G)
prince_rogers_nelson_: 865G (11.6%, 865G)
Zagorsek: 833G (11.2%, 1,667G)
Mudrockk: 775G (10.4%, 775G)
AllInBot: 564G (7.6%, 564G)
RaIshtar: 536G (7.2%, 536G)
Lanshaft: 504G (6.8%, 19,132G)
Xoomwaffle: 500G (6.7%, 10,775G)
Evewho: 100G (1.3%, 2,817G)
nhammen: 43G (0.6%, 9,224G)

yellow bets:
twelfthrootoftwo: 1,724G (35.6%, 3,381G)
E_Ballard: 632G (13.1%, 632G)
Nizaha: 584G (12.1%, 23,435G)
Scurg: 500G (10.3%, 3,659G)
pplvee1: 404G (8.3%, 26,704G)
Bururururu: 208G (4.3%, 208G)
elnobueno: 208G (4.3%, 208G)
datadrivenbot: 200G (4.1%, 41,709G)
Lydian_C: 123G (2.5%, 21,677G)
roqqqpsi: 103G (2.1%, 2,063G)
ArlanKels: 80G (1.7%, 2,684G)
getthemoneyz: 74G (1.5%, 1,389,653G)
