Final Bets: black - 13 bets for 8,826G (58.7%, x0.70); purple - 13 bets for 6,221G (41.3%, x1.42)

black bets:
twelfthrootoftwo: 3,075G (34.8%, 6,030G)
VolgraTheMoose: 1,718G (19.5%, 1,718G)
dogsandcatsand: 1,000G (11.3%, 7,087G)
Nizaha: 584G (6.6%, 24,332G)
Xoomwaffle: 560G (6.3%, 10,275G)
RaIshtar: 536G (6.1%, 536G)
Scurg: 500G (5.7%, 4,427G)
Error72: 368G (4.2%, 368G)
datadrivenbot: 200G (2.3%, 42,016G)
Musclestache: 100G (1.1%, 176G)
elnobueno: 100G (1.1%, 528G)
DouglasDragonThePoet: 50G (0.6%, 4,093G)
nhammen: 35G (0.4%, 9,181G)

purple bets:
E_Ballard: 1,603G (25.8%, 1,603G)
Zagorsek: 834G (13.4%, 834G)
BirbBrainsBot: 652G (10.5%, 73,255G)
prince_rogers_nelson_: 572G (9.2%, 572G)
Bururururu: 528G (8.5%, 528G)
Lanshaft: 504G (8.1%, 18,628G)
pplvee1: 404G (6.5%, 27,325G)
roqqqpsi: 333G (5.4%, 2,221G)
Mudrockk: 276G (4.4%, 276G)
AllInBot: 200G (3.2%, 200G)
Lydian_C: 123G (2.0%, 21,866G)
getthemoneyz: 108G (1.7%, 1,389,767G)
ArlanKels: 84G (1.4%, 2,807G)
