Final Bets: green - 10 bets for 4,582G (27.2%, x2.68); yellow - 14 bets for 12,263G (72.8%, x0.37)

green bets:
DeathTaxesAndAnime: 1,365G (29.8%, 2,678G)
getthemoneyz: 1,000G (21.8%, 2,117,541G)
Laserman1000: 505G (11.0%, 10,705G)
LivingHitokiri: 500G (10.9%, 156,385G)
lijarkh: 308G (6.7%, 4,329G)
AllInBot: 200G (4.4%, 200G)
baumgrattler: 200G (4.4%, 2,561G)
iBardic: 200G (4.4%, 16,379G)
chaosdesigned: 200G (4.4%, 824G)
clancrushbone: 104G (2.3%, 104G)

yellow bets:
lowlf: 2,222G (18.1%, 12,819G)
latebit: 1,933G (15.8%, 64,463G)
resjudicata3: 1,726G (14.1%, 1,726G)
ValensEXP_: 1,586G (12.9%, 1,586G)
Mushufasa_: 1,234G (10.1%, 141,570G)
MoonSugarFiend: 1,000G (8.2%, 8,357G)
ApplesNP: 500G (4.1%, 52,818G)
khelor_: 500G (4.1%, 3,155G)
krombobreaker: 500G (4.1%, 18,301G)
silentkaster: 450G (3.7%, 22,872G)
DuPlatypus: 212G (1.7%, 212G)
datadrivenbot: 200G (1.6%, 79,304G)
readdesert: 100G (0.8%, 1,825G)
Sharosa: 100G (0.8%, 661G)
