Final Bets: red - 12 bets for 4,691G (39.6%, x1.53); blue - 10 bets for 7,160G (60.4%, x0.66)

red bets:
Error72: 1,001G (21.3%, 69,265G)
BirbBrainsBot: 1,000G (21.3%, 164,522G)
run_with_stone_GUNs: 624G (13.3%, 24,912G)
Leonidusx: 429G (9.1%, 429G)
JumbocactuarX27: 424G (9.0%, 424G)
getthemoneyz: 392G (8.4%, 1,893,399G)
latebit: 356G (7.6%, 356G)
AllInBot: 147G (3.1%, 147G)
gorgewall: 101G (2.2%, 2,247G)
Lyner87: 100G (2.1%, 102,024G)
Lushifah: 100G (2.1%, 1,095G)
BartTradingCompany: 17G (0.4%, 170G)

blue bets:
bruubarg: 3,904G (54.5%, 3,904G)
LDSkinny: 1,000G (14.0%, 32,756G)
Raixelol: 572G (8.0%, 25,080G)
CosmicTactician: 500G (7.0%, 31,873G)
Rytor: 484G (6.8%, 484G)
aceof86: 200G (2.8%, 1,972G)
datadrivenbot: 200G (2.8%, 58,293G)
RunicMagus: 100G (1.4%, 8,656G)
Bongomon7: 100G (1.4%, 3,071G)
StrawbreeRed: 100G (1.4%, 151G)
