Final Bets: black - 20 bets for 12,107G (49.7%, x1.01); brown - 16 bets for 12,275G (50.3%, x0.99)

black bets:
maakur_: 1,682G (13.9%, 1,682G)
kai_shee: 1,000G (8.3%, 42,825G)
BirbBrainsBot: 1,000G (8.3%, 109,948G)
inzo_bettingbot: 1,000G (8.3%, 48,601G)
bad1dea: 1,000G (8.3%, 322,293G)
Goust18: 1,000G (8.3%, 6,435G)
Axelrod: 1,000G (8.3%, 43,174G)
CCRUNNER149UWP: 888G (7.3%, 11,746G)
MrDiggs49: 515G (4.3%, 515G)
EnemyController: 500G (4.1%, 3,173G)
Rastanar: 465G (3.8%, 465G)
FattyBearsteak: 400G (3.3%, 6,755G)
ko2q: 300G (2.5%, 300G)
luminarii: 300G (2.5%, 10,382G)
ZephyrTempest: 241G (2.0%, 20,387G)
getthemoneyz: 216G (1.8%, 403,883G)
urieltheflameofgod: 200G (1.7%, 3,192G)
KasugaiRoastedPeas: 200G (1.7%, 30,986G)
datadrivenbot: 100G (0.8%, 15,227G)
richardserious: 100G (0.8%, 587G)

brown bets:
SkylerBunny: 4,008G (32.7%, 4,008G)
EunosXX: 2,026G (16.5%, 40,520G)
sinnyil2: 1,200G (9.8%, 5,672G)
TheChainNerd: 1,000G (8.1%, 26,020G)
friendsquirrel: 893G (7.3%, 893G)
HaateXIII: 500G (4.1%, 3,661G)
fenixcrest: 468G (3.8%, 468G)
IndecisiveNinja: 364G (3.0%, 364G)
fenaen: 364G (3.0%, 364G)
Aeolus_000: 300G (2.4%, 4,135G)
Legitamte: 280G (2.3%, 280G)
JumbocactuarX27: 272G (2.2%, 272G)
ugoplatamia: 200G (1.6%, 27,164G)
Legendaryax4: 200G (1.6%, 1,109G)
AllInBot: 100G (0.8%, 100G)
Nizaha: 100G (0.8%, 12,784G)
