Final Bets: black - 17 bets for 7,573G (63.7%, x0.57); purple - 10 bets for 4,317G (36.3%, x1.75)

black bets:
EnemyController: 1,500G (19.8%, 593,492G)
Draconis345: 1,000G (13.2%, 64,375G)
DuraiPapers: 1,000G (13.2%, 1,980G)
BirbBrainsBot: 704G (9.3%, 49,344G)
roqqqpsi: 500G (6.6%, 500G)
BlackFireUK: 500G (6.6%, 15,636G)
ShintaroNayaka: 480G (6.3%, 480G)
CorpusCav: 420G (5.5%, 420G)
Flameatron: 300G (4.0%, 10,073G)
CapnChaos12: 300G (4.0%, 11,088G)
AllInBot: 259G (3.4%, 259G)
silentkaster: 168G (2.2%, 2,668G)
Evewho: 100G (1.3%, 1,118G)
datadrivenbot: 100G (1.3%, 43,653G)
IphoneDarkness: 100G (1.3%, 1,284G)
ko2q: 100G (1.3%, 4,501G)
getthemoneyz: 42G (0.6%, 961,196G)

purple bets:
OneHundredFists: 1,384G (32.1%, 1,384G)
Laserman1000: 882G (20.4%, 4,182G)
DLJuggernaut: 500G (11.6%, 16,163G)
TheChainNerd: 351G (8.1%, 3,783G)
letdowncity: 300G (6.9%, 21,537G)
ColetteMSLP: 300G (6.9%, 4,306G)
RunicMagus: 200G (4.6%, 61,288G)
brokenknight201: 200G (4.6%, 2,130G)
Firesheath: 100G (2.3%, 14,018G)
Alanaire: 100G (2.3%, 14,993G)
