Final Bets: red - 17 bets for 12,687G (55.3%, x0.81); purple - 20 bets for 10,271G (44.7%, x1.24)

red bets:
VolgraTheMoose: 2,001G (15.8%, 47,926G)
RunicMagus: 1,800G (14.2%, 61,639G)
Nickyfive: 1,652G (13.0%, 1,652G)
killth3kid: 1,535G (12.1%, 1,535G)
EnemyController: 1,500G (11.8%, 591,992G)
BirbBrainsBot: 1,000G (7.9%, 48,640G)
Laserman1000: 529G (4.2%, 5,729G)
roqqqpsi: 500G (3.9%, 500G)
ShintaroNayaka: 480G (3.8%, 480G)
CorpusCav: 420G (3.3%, 420G)
Mosses76: 250G (2.0%, 36,690G)
muffin_money: 250G (2.0%, 4,742G)
DeathTaxesAndAnime: 250G (2.0%, 1,803G)
run_with_stone_GUNs: 200G (1.6%, 23,867G)
getthemoneyz: 120G (0.9%, 961,154G)
silentkaster: 100G (0.8%, 2,500G)
IphoneDarkness: 100G (0.8%, 1,184G)

purple bets:
sinnyil2: 1,407G (13.7%, 1,407G)
Evewho: 1,018G (9.9%, 1,018G)
DLJuggernaut: 1,000G (9.7%, 17,040G)
Draconis345: 1,000G (9.7%, 63,375G)
BlackFireUK: 1,000G (9.7%, 15,136G)
DuraiPapers: 980G (9.5%, 980G)
bluciferous: 853G (8.3%, 1,706G)
TheChainNerd: 399G (3.9%, 4,399G)
Sairentozon7: 364G (3.5%, 364G)
Flameatron: 300G (2.9%, 9,773G)
ColetteMSLP: 300G (2.9%, 4,832G)
amishninja: 300G (2.9%, 2,067G)
letdowncity: 300G (2.9%, 22,063G)
Lythe_Caraker: 250G (2.4%, 111,546G)
Meta_Five: 200G (1.9%, 25,865G)
Avin_Chaos: 200G (1.9%, 18,123G)
AllInBot: 100G (1.0%, 100G)
Alanaire: 100G (1.0%, 15,168G)
datadrivenbot: 100G (1.0%, 43,553G)
Grandlanzer: 100G (1.0%, 4,920G)
