Final Bets: green - 20 bets for 6,004G (24.4%, x3.11); yellow - 31 bets for 18,649G (75.6%, x0.32)

green bets:
VulcanPanderp: 1,000G (16.7%, 2,873G)
HaplessOne: 1,000G (16.7%, 95,377G)
DeathTaxesAndAnime: 556G (9.3%, 556G)
mirapoix: 476G (7.9%, 476G)
I_nod_my_head_when_I_lose: 400G (6.7%, 20,162G)
DHaveWord: 340G (5.7%, 340G)
Maeveen: 312G (5.2%, 312G)
CapnChaos12: 300G (5.0%, 1,117G)
technominari: 300G (5.0%, 90,418G)
V3rdeni: 200G (3.3%, 1,672G)
AllInBot: 192G (3.2%, 192G)
InOzWeTrust: 128G (2.1%, 128G)
Nizaha: 100G (1.7%, 19,276G)
TinhShu: 100G (1.7%, 1,469G)
chronoxtrigger: 100G (1.7%, 2,500G)
silentperogy: 100G (1.7%, 9,596G)
Powermhero: 100G (1.7%, 9,549G)
Alc_Trinity: 100G (1.7%, 35,216G)
EnemyController: 100G (1.7%, 16,700G)
moonliquor: 100G (1.7%, 319G)

yellow bets:
RyuTsuno: 2,309G (12.4%, 4,619G)
Shakarak: 2,000G (10.7%, 24,016G)
reinoe: 1,455G (7.8%, 1,455G)
sinnyil2: 1,067G (5.7%, 1,067G)
ungabunga_bot: 1,000G (5.4%, 19,522G)
kai_shee: 1,000G (5.4%, 106,877G)
BirbBrainsBot: 1,000G (5.4%, 202,145G)
bad1dea: 1,000G (5.4%, 18,423G)
Shalloween: 1,000G (5.4%, 91,272G)
LanseDM: 761G (4.1%, 761G)
Laserman1000: 627G (3.4%, 15,427G)
kingchadking: 512G (2.7%, 512G)
Lodrak: 501G (2.7%, 24,094G)
CorpusCav: 500G (2.7%, 4,554G)
z32o: 500G (2.7%, 5,916G)
ig_ats: 500G (2.7%, 6,612G)
shs_: 452G (2.4%, 452G)
Spartan_Paladin: 400G (2.1%, 17,407G)
SkylerBunny: 304G (1.6%, 304G)
JackOnFire1: 250G (1.3%, 700G)
ugoplatamia: 200G (1.1%, 19,794G)
maichenambrai: 200G (1.1%, 1,604G)
TheMurkGnome: 200G (1.1%, 1,769G)
lavian94: 169G (0.9%, 169G)
getthemoneyz: 142G (0.8%, 436,812G)
ApplesauceBoss: 100G (0.5%, 4,703G)
action_otter: 100G (0.5%, 245G)
Mechapope1: 100G (0.5%, 5,406G)
SeedSC: 100G (0.5%, 130,015G)
ANFz: 100G (0.5%, 1,400G)
datadrivenbot: 100G (0.5%, 17,788G)
