Final Bets: purple - 23 bets for 13,442G (56.5%, x0.77); brown - 11 bets for 10,348G (43.5%, x1.30)

purple bets:
Shakarak: 3,000G (22.3%, 25,603G)
leakimiko: 1,611G (12.0%, 32,225G)
BirbBrainsBot: 1,000G (7.4%, 202,703G)
bad1dea: 1,000G (7.4%, 18,985G)
HaplessOne: 1,000G (7.4%, 94,613G)
MoonSlayerRS: 917G (6.8%, 917G)
sinnyil2: 872G (6.5%, 1,744G)
mirapoix: 588G (4.4%, 588G)
Lodrak: 501G (3.7%, 24,373G)
SkylerBunny: 497G (3.7%, 497G)
ANFz: 412G (3.1%, 412G)
R_Raynos: 395G (2.9%, 395G)
Maeveen: 312G (2.3%, 312G)
lavian94: 276G (2.1%, 276G)
TheRobbieRobster: 180G (1.3%, 180G)
JackOnFire1: 150G (1.1%, 811G)
getthemoneyz: 120G (0.9%, 436,808G)
Jordache7K: 111G (0.8%, 18,217G)
Nizaha: 100G (0.7%, 19,200G)
ApplesauceBoss: 100G (0.7%, 4,759G)
datadrivenbot: 100G (0.7%, 17,844G)
TinhShu: 100G (0.7%, 1,269G)
action_otter: 100G (0.7%, 324G)

brown bets:
VulcanPanderp: 2,319G (22.4%, 2,319G)
Numbersborne: 1,936G (18.7%, 1,936G)
TheMurkGnome: 1,857G (17.9%, 1,857G)
Laserman1000: 1,236G (11.9%, 1,236G)
z32o: 1,000G (9.7%, 5,577G)
Shalloween: 1,000G (9.7%, 92,184G)
ig_ats: 500G (4.8%, 6,273G)
ugoplatamia: 200G (1.9%, 19,905G)
AllInBot: 100G (1.0%, 100G)
Powermhero: 100G (1.0%, 9,484G)
Mechapope1: 100G (1.0%, 5,485G)
