Final Bets: green - 10 bets for 5,761G (18.6%, x4.38); yellow - 19 bets for 25,238G (81.4%, x0.23)

green bets:
MantisFinch: 2,000G (34.7%, 37,689G)
BirbBrainsBot: 1,000G (17.4%, 2,217G)
Shalloween: 600G (10.4%, 60,799G)
Nizaha: 501G (8.7%, 11,610G)
elkydeluxe: 500G (8.7%, 16,401G)
VySaika: 500G (8.7%, 15,679G)
ZephyrTempest: 270G (4.7%, 155,397G)
getthemoneyz: 190G (3.3%, 515,302G)
FoeSquirrel: 100G (1.7%, 3,875G)
FriendSquirrel: 100G (1.7%, 19,246G)

yellow bets:
AniZero: 5,000G (19.8%, 36,597G)
reinoe: 4,222G (16.7%, 4,222G)
Dothan89: 4,000G (15.8%, 42,063G)
Fenrislfr: 2,017G (8.0%, 20,175G)
roofiepops: 2,000G (7.9%, 22,399G)
MirtaiAtana: 1,550G (6.1%, 1,550G)
Baron_von_Scrub: 1,234G (4.9%, 99,466G)
CapnChaos12: 1,000G (4.0%, 34,343G)
SkylerBunny: 1,000G (4.0%, 52,312G)
Laserman1000: 600G (2.4%, 24,800G)
catfashions: 600G (2.4%, 22,687G)
MalakoFox: 500G (2.0%, 49,152G)
TheGuesty: 350G (1.4%, 12,487G)
Lavatis: 300G (1.2%, 10,287G)
ungabunga_bot: 277G (1.1%, 177,008G)
nifboy: 238G (0.9%, 4,762G)
mastershango: 150G (0.6%, 2,159G)
Conome: 100G (0.4%, 2,352G)
datadrivenbot: 100G (0.4%, 548G)
