Final Bets: white - 18 bets for 19,418G (44.8%, x1.23); champion - 23 bets for 23,948G (55.2%, x0.81)

white bets:
Musashi45: 7,338G (37.8%, 14,677G)
acid_flashback: 3,500G (18.0%, 82,936G)
bruubarg: 1,975G (10.2%, 16,575G)
BirbBrainsBot: 1,000G (5.1%, 104,644G)
Sairentozon7: 1,000G (5.1%, 76,131G)
Nizaha: 660G (3.4%, 6,595G)
ko2q: 635G (3.3%, 635G)
DHaveWord: 573G (3.0%, 1,147G)
old_overholt_: 500G (2.6%, 56,131G)
roofiepops: 474G (2.4%, 7,848G)
JonnyCue: 468G (2.4%, 16,675G)
2b_yorha_b: 400G (2.1%, 20,614G)
yagyuudarkness: 355G (1.8%, 355G)
daveb_: 199G (1.0%, 8,309G)
NicoSavoy: 111G (0.6%, 11,579G)
Firesheath: 100G (0.5%, 4,232G)
Verriand: 80G (0.4%, 290G)
DouglasDragonThePoet: 50G (0.3%, 1,863G)

champion bets:
Snowfats: 10,000G (41.8%, 48,887G)
MoonSugarFiend: 3,000G (12.5%, 33,510G)
Shalloween: 1,999G (8.3%, 50,893G)
CorpusCav: 1,500G (6.3%, 60,932G)
DeathTaxesAndAnime: 936G (3.9%, 936G)
killth3kid: 824G (3.4%, 34,450G)
fenaen: 672G (2.8%, 27,883G)
SephDarkheart: 576G (2.4%, 20,209G)
resjudicata3: 572G (2.4%, 572G)
Phi_Sig: 555G (2.3%, 4,465G)
just_here2: 532G (2.2%, 18,711G)
pplvee1: 468G (2.0%, 468G)
3ngag3: 440G (1.8%, 17,430G)
Lolthsmeat: 340G (1.4%, 840G)
maximalplus: 317G (1.3%, 317G)
AllInBot: 200G (0.8%, 200G)
ValensEXP_: 200G (0.8%, 5,439G)
Evewho: 200G (0.8%, 6,547G)
datadrivenbot: 200G (0.8%, 86,204G)
getthemoneyz: 116G (0.5%, 2,176,188G)
gorgewall: 101G (0.4%, 7,560G)
maakur_: 100G (0.4%, 5,056G)
CosmicTactician: 100G (0.4%, 2,942G)
