Final Bets: blue - 13 bets for 7,444G (54.1%, x0.85); purple - 14 bets for 6,313G (45.9%, x1.18)

blue bets:
WitchHunterIX: 1,783G (24.0%, 1,783G)
Nizaha: 1,001G (13.4%, 16,511G)
EnemyController: 1,000G (13.4%, 286,404G)
regios91: 930G (12.5%, 930G)
killth3kid: 600G (8.1%, 2,313G)
getthemoneyz: 458G (6.2%, 687,976G)
ApplesauceBoss: 424G (5.7%, 424G)
joewcarson: 300G (4.0%, 6,737G)
SQUiDSQUARKLIN: 300G (4.0%, 2,686G)
CandyTamer: 236G (3.2%, 546G)
Moshyhero: 212G (2.8%, 212G)
AmaninAmide: 100G (1.3%, 2,621G)
jakeduhhsnake: 100G (1.3%, 1,222G)

purple bets:
namamu: 1,000G (15.8%, 12,872G)
BirbBrainsBot: 1,000G (15.8%, 50,545G)
UmaiJam: 1,000G (15.8%, 7,169G)
Spartan_Paladin: 600G (9.5%, 72,606G)
Firesheath: 542G (8.6%, 542G)
Fenrislfr: 488G (7.7%, 488G)
brokenknight201: 401G (6.4%, 401G)
luminarii: 350G (5.5%, 21,773G)
vorap: 300G (4.8%, 76,888G)
kintaru_oe: 200G (3.2%, 471G)
bruubarg: 124G (2.0%, 124G)
asherban: 108G (1.7%, 108G)
CorpusCav: 100G (1.6%, 3,647G)
datadrivenbot: 100G (1.6%, 24,782G)
