Final Bets: blue - 18 bets for 19,101G (70.4%, x0.42); white - 6 bets for 8,035G (29.6%, x2.38)

blue bets:
DavenIII: 5,000G (26.2%, 110,472G)
VolgraTheMoose: 2,555G (13.4%, 34,260G)
douchetron: 2,400G (12.6%, 15,917G)
roqqqpsi: 1,967G (10.3%, 8,943G)
TasisSai: 1,814G (9.5%, 3,557G)
EnemyController: 1,111G (5.8%, 1,563,260G)
Nizaha: 756G (4.0%, 16,860G)
SkylerBunny: 520G (2.7%, 520G)
CosmicTactician: 500G (2.6%, 34,747G)
Lord_Gwarth: 500G (2.6%, 2,350G)
latebit: 424G (2.2%, 424G)
Lemonjohns: 420G (2.2%, 7,013G)
MagicBottle: 312G (1.6%, 312G)
maximumcrit: 300G (1.6%, 6,645G)
datadrivenbot: 200G (1.0%, 64,059G)
daveb_: 122G (0.6%, 8,655G)
AllInBot: 100G (0.5%, 100G)
Thyrandaal: 100G (0.5%, 20,064G)

white bets:
KyleWonToLiveForever: 4,359G (54.3%, 4,359G)
BirbBrainsBot: 1,000G (12.4%, 106,456G)
killth3kid: 1,000G (12.4%, 44,192G)
Meta_Five: 1,000G (12.4%, 23,825G)
Shalloween: 500G (6.2%, 16,035G)
getthemoneyz: 176G (2.2%, 1,702,811G)
