Final Bets: yellow - 7 bets for 2,651G (15.7%, x5.37); champion - 15 bets for 14,234G (84.3%, x0.19)

yellow bets:
Wonser: 1,219G (46.0%, 1,219G)
getthemoneyz: 482G (18.2%, 1,984,860G)
killth3kid: 250G (9.4%, 10,956G)
AllInBot: 200G (7.5%, 200G)
mirapoix: 200G (7.5%, 2,881G)
CosmicTactician: 200G (7.5%, 30,292G)
maakur_: 100G (3.8%, 2,578G)

champion bets:
latebit: 3,333G (23.4%, 18,728G)
VolgraTheMoose: 2,500G (17.6%, 15,630G)
reinoe: 2,000G (14.1%, 14,624G)
Leonidusx: 1,000G (7.0%, 82,455G)
BirbBrainsBot: 975G (6.8%, 107,953G)
gorgewall: 968G (6.8%, 968G)
Shalloween: 912G (6.4%, 1,824G)
CorpusCav: 700G (4.9%, 11,044G)
krombobreaker: 500G (3.5%, 4,877G)
lijarkh: 372G (2.6%, 372G)
ValensEXP_: 348G (2.4%, 3,647G)
daveb_: 222G (1.6%, 5,205G)
datadrivenbot: 200G (1.4%, 72,199G)
gilgamensche: 104G (0.7%, 104G)
nhammen: 100G (0.7%, 247,787G)
