Final Bets: purple - 16 bets for 8,588G (47.7%, x1.10); brown - 17 bets for 9,404G (52.3%, x0.91)

purple bets:
fenaen: 1,656G (19.3%, 3,313G)
DeathTaxesAndAnime: 1,396G (16.3%, 1,396G)
CapnChaos12: 1,121G (13.1%, 1,121G)
MrDiggs49: 865G (10.1%, 865G)
datadrivenbot: 679G (7.9%, 24,371G)
nifboy: 500G (5.8%, 5,424G)
catfashions: 500G (5.8%, 20,687G)
moonliquor: 430G (5.0%, 861G)
LDSkinny: 348G (4.1%, 348G)
EnemyController: 300G (3.5%, 38,016G)
KasugaiRoastedPeas: 200G (2.3%, 9,213G)
organizing_secrets: 193G (2.2%, 193G)
maakur_: 100G (1.2%, 2,113G)
oldmanbody: 100G (1.2%, 100G)
loveyouallfriends: 100G (1.2%, 30,173G)
ANFz: 100G (1.2%, 2,703G)

brown bets:
DudeMonkey77: 1,189G (12.6%, 1,189G)
kai_shee: 1,001G (10.6%, 129,849G)
BirbBrainsBot: 1,000G (10.6%, 56,766G)
bpc2163: 1,000G (10.6%, 9,944G)
getthemoneyz: 940G (10.0%, 472,447G)
Lanshaft: 734G (7.8%, 734G)
Lodrak: 627G (6.7%, 627G)
Webb_MD: 620G (6.6%, 620G)
old_overholt_: 500G (5.3%, 10,625G)
Goust18: 500G (5.3%, 12,602G)
madming25: 500G (5.3%, 1,583G)
ZephyrTempest: 310G (3.3%, 49,942G)
AllInBot: 100G (1.1%, 100G)
IndecisiveNinja: 100G (1.1%, 4,352G)
ApplesauceBoss: 100G (1.1%, 2,152G)
ko2q: 100G (1.1%, 2,376G)
roqqqpsi: 83G (0.9%, 759G)
