Final Bets: green - 12 bets for 11,022G (80.1%, x0.25); yellow - 4 bets for 2,741G (19.9%, x4.02)

green bets:
RaIshtar: 3,000G (27.2%, 34,400G)
twelfthrootoftwo: 1,291G (11.7%, 2,532G)
BirbBrainsBot: 1,000G (9.1%, 158,873G)
dantayystv: 1,000G (9.1%, 9,256G)
skipsandwiches: 1,000G (9.1%, 7,162G)
NIghtdew14: 919G (8.3%, 919G)
getthemoneyz: 902G (8.2%, 1,283,170G)
randgridr: 500G (4.5%, 6,580G)
Evewho: 500G (4.5%, 7,100G)
peeronid: 500G (4.5%, 8,225G)
datadrivenbot: 210G (1.9%, 39,992G)
AllInBot: 200G (1.8%, 200G)

yellow bets:
J2DaBibbles: 1,000G (36.5%, 18,845G)
prince_rogers_nelson_: 817G (29.8%, 817G)
JethroThrul: 803G (29.3%, 803G)
Lydian_C: 121G (4.4%, 78,935G)
