Final Bets: blue - 16 bets for 13,561G (55.3%, x0.81); yellow - 20 bets for 10,962G (44.7%, x1.24)

blue bets:
nhammen: 3,000G (22.1%, 37,180G)
Nizaha: 2,201G (16.2%, 8,806G)
Mushufasa_: 1,234G (9.1%, 45,571G)
Belkra: 1,113G (8.2%, 1,113G)
BirbBrainsBot: 1,000G (7.4%, 192,374G)
SeniorBunk: 777G (5.7%, 68,660G)
maakur_: 704G (5.2%, 704G)
Willjin: 600G (4.4%, 31,802G)
Zagorsek: 588G (4.3%, 588G)
IndecisiveNinja: 536G (4.0%, 536G)
2b_yorha_b: 500G (3.7%, 31,041G)
JonnyCue: 488G (3.6%, 12,305G)
lowlf: 404G (3.0%, 3,608G)
ValensEXP_: 200G (1.5%, 7,103G)
YowaneHaku: 116G (0.9%, 116G)
FuzzyTigers: 100G (0.7%, 357G)

yellow bets:
CorpusCav: 1,300G (11.9%, 55,416G)
heropong: 1,286G (11.7%, 1,286G)
Zetchryn: 1,000G (9.1%, 3,772G)
killth3kid: 856G (7.8%, 46,446G)
DrAntiSocial: 752G (6.9%, 752G)
Mudrockk: 750G (6.8%, 6,056G)
tinytittyfiend: 742G (6.8%, 742G)
SephDarkheart: 592G (5.4%, 14,077G)
ColetteMSLP: 528G (4.8%, 6,103G)
krombobreaker: 500G (4.6%, 35,982G)
old_overholt_: 500G (4.6%, 31,273G)
getthemoneyz: 446G (4.1%, 2,201,072G)
Musashi45: 304G (2.8%, 357G)
CapnChaos12: 300G (2.7%, 15,744G)
AllInBot: 290G (2.6%, 290G)
DHaveWord: 216G (2.0%, 216G)
datadrivenbot: 200G (1.8%, 82,336G)
Finewax: 200G (1.8%, 4,896G)
CosmicTactician: 100G (0.9%, 1,669G)
Firesheath: 100G (0.9%, 2,593G)
