Final Bets: white - 22 bets for 14,088G (52.2%, x0.92); black - 28 bets for 12,899G (47.8%, x1.09)

white bets:
kingchadking: 5,109G (36.3%, 5,109G)
ELzukkor: 1,420G (10.1%, 2,841G)
Lodrak: 1,001G (7.1%, 5,157G)
DudeMonkey77: 1,000G (7.1%, 31,086G)
LanseDM: 1,000G (7.1%, 24,678G)
Laserman1000: 800G (5.7%, 16,900G)
Lazerkick: 700G (5.0%, 11,605G)
Jeeboheebo: 560G (4.0%, 560G)
Theseawolf1: 500G (3.5%, 9,528G)
Oshimi12: 349G (2.5%, 349G)
DHaveWord: 304G (2.2%, 304G)
Baron_von_Scrub: 252G (1.8%, 3,816G)
DaveStrider55: 200G (1.4%, 4,943G)
Gatcha_man: 143G (1.0%, 143G)
AllInBot: 100G (0.7%, 100G)
OneHundredFists: 100G (0.7%, 12,085G)
Aneyus: 100G (0.7%, 16,933G)
Av0ndale: 100G (0.7%, 895G)
rubenflonne: 100G (0.7%, 2,375G)
SpaZmodeus: 100G (0.7%, 2,620G)
BuffaloCrunch: 100G (0.7%, 14,911G)
Bahamut64: 50G (0.4%, 4,861G)

black bets:
SeedSC: 3,000G (23.3%, 97,876G)
LuckyLuckLuc2: 1,111G (8.6%, 20,463G)
Sotehr: 1,076G (8.3%, 1,076G)
BirbBrainsBot: 1,000G (7.8%, 222,513G)
bad1dea: 1,000G (7.8%, 214,756G)
sinnyil2: 784G (6.1%, 784G)
Kl0kwurk: 600G (4.7%, 8,945G)
CorpusCav: 500G (3.9%, 7,414G)
HaplessOne: 500G (3.9%, 22,199G)
roofiepops: 498G (3.9%, 498G)
TheSyffy: 433G (3.4%, 433G)
DeathTaxesAndAnime: 408G (3.2%, 408G)
SealPoulpe: 200G (1.6%, 7,233G)
tone_t: 200G (1.6%, 8,047G)
theallmightyensiron: 200G (1.6%, 675G)
wackyzachyy: 172G (1.3%, 172G)
spit8866: 154G (1.2%, 154G)
YesThisIsToshi: 132G (1.0%, 132G)
getthemoneyz: 126G (1.0%, 354,948G)
TheRobbieRobster: 104G (0.8%, 104G)
ungabunga_bot: 100G (0.8%, 5,249G)
PlatinumSalty: 100G (0.8%, 100G)
BadBlanket: 100G (0.8%, 2,831G)
Keeby1: 100G (0.8%, 1,802G)
Melbraega: 100G (0.8%, 143G)
Meridian75W: 100G (0.8%, 100G)
deesignal: 100G (0.8%, 4,911G)
RughSontos: 1G (0.0%, 3,765G)
