Final Bets: red - 15 bets for 12,691G (81.8%, x0.22); blue - 9 bets for 2,817G (18.2%, x4.51)

red bets:
resjudicata3: 2,631G (20.7%, 5,159G)
VolgraTheMoose: 2,001G (15.8%, 33,873G)
latebit: 1,265G (10.0%, 63,289G)
Nizaha: 1,238G (9.8%, 1,238G)
RunicMagus: 1,020G (8.0%, 42,081G)
TheBrett: 911G (7.2%, 911G)
killth3kid: 776G (6.1%, 37,935G)
Lolthsmeat: 500G (3.9%, 4,417G)
ExplanationMarkWow: 500G (3.9%, 19,800G)
krombobreaker: 500G (3.9%, 15,395G)
bigbongsmoker: 429G (3.4%, 429G)
ValensEXP_: 420G (3.3%, 420G)
AllInBot: 200G (1.6%, 200G)
datadrivenbot: 200G (1.6%, 79,506G)
maakur_: 100G (0.8%, 6,469G)

blue bets:
fenaen: 640G (22.7%, 9,811G)
fattunaking: 512G (18.2%, 512G)
SephDarkheart: 444G (15.8%, 5,466G)
KGenjy: 332G (11.8%, 332G)
getthemoneyz: 276G (9.8%, 2,114,867G)
BirbBrainsBot: 251G (8.9%, 100,663G)
Einswolf: 212G (7.5%, 212G)
Blastinus: 100G (3.5%, 1,406G)
lotharek: 50G (1.8%, 3,260G)
