Final Bets: white - 12 bets for 7,487G (43.5%, x1.30); black - 14 bets for 9,719G (56.5%, x0.77)

white bets:
thunderducker: 1,800G (24.0%, 10,679G)
latebit: 1,314G (17.6%, 65,742G)
VolgraTheMoose: 900G (12.0%, 33,417G)
E_Ballard: 804G (10.7%, 804G)
Nizaha: 628G (8.4%, 628G)
krombobreaker: 500G (6.7%, 15,006G)
3ngag3: 416G (5.6%, 9,626G)
ColetteMSLP: 300G (4.0%, 5,139G)
KGenjy: 271G (3.6%, 271G)
AllInBot: 200G (2.7%, 200G)
datadrivenbot: 200G (2.7%, 79,892G)
yagyuudarkness: 154G (2.1%, 154G)

black bets:
Virilikus: 3,000G (30.9%, 180,165G)
ExplanationMarkWow: 1,000G (10.3%, 21,468G)
BirbBrainsBot: 1,000G (10.3%, 99,412G)
Spartan_Paladin: 1,000G (10.3%, 5,031G)
killth3kid: 776G (8.0%, 37,331G)
ANFz: 738G (7.6%, 1,477G)
ValensEXP_: 513G (5.3%, 513G)
Lolthsmeat: 500G (5.1%, 5,382G)
bigbongsmoker: 384G (4.0%, 384G)
getthemoneyz: 332G (3.4%, 2,115,080G)
Twisted_Nutsatchel: 176G (1.8%, 176G)
maakur_: 100G (1.0%, 6,662G)
Sharosa: 100G (1.0%, 2,077G)
TheBrett: 100G (1.0%, 913G)
