Final Bets: black - 22 bets for 23,130G (76.3%, x0.31); purple - 10 bets for 7,186G (23.7%, x3.22)

black bets:
mayfu: 10,000G (43.2%, 56,212G)
metagameface: 2,000G (8.6%, 7,105G)
SkylerBunny: 2,000G (8.6%, 116,893G)
DeathTaxesAndAnime: 1,445G (6.2%, 2,835G)
Aldrammech: 1,000G (4.3%, 25,060G)
conradharlock: 1,000G (4.3%, 12,347G)
getthemoneyz: 948G (4.1%, 824,144G)
ExecutedGiraffe: 941G (4.1%, 941G)
E_Ballard: 511G (2.2%, 511G)
gorgewall: 473G (2.0%, 473G)
ar_tactic: 400G (1.7%, 59,280G)
Angelomortis: 317G (1.4%, 317G)
Ring_Wyrm: 300G (1.3%, 1,528G)
outer_monologue: 300G (1.3%, 2,738G)
ivellioz: 285G (1.2%, 285G)
LeoNightFury: 280G (1.2%, 280G)
Lythe_Caraker: 250G (1.1%, 120,402G)
maleblackfiora: 224G (1.0%, 583G)
s_o_b_e_q: 156G (0.7%, 156G)
ANFz: 100G (0.4%, 2,198G)
turbn: 100G (0.4%, 12,755G)
datadrivenbot: 100G (0.4%, 33,511G)

purple bets:
OneHundredFists: 2,526G (35.2%, 3,874G)
sinnyil2: 1,248G (17.4%, 1,248G)
BirbBrainsBot: 1,000G (13.9%, 86,514G)
HaateXIII: 644G (9.0%, 644G)
superdevon1: 584G (8.1%, 5,841G)
LAGBOT30000: 400G (5.6%, 1,777G)
DustBirdEX: 384G (5.3%, 768G)
Spartan_Paladin: 200G (2.8%, 62,022G)
Evewho: 100G (1.4%, 11,442G)
VolgraTheMoose: 100G (1.4%, 9,609G)
