Final Bets: white - 9 bets for 6,022G (55.0%, x0.82); black - 11 bets for 4,919G (45.0%, x1.22)

white bets:
Lordminsc: 1,786G (29.7%, 1,786G)
BirbBrainsBot: 1,000G (16.6%, 46,936G)
kaidykat: 1,000G (16.6%, 31,286G)
prince_rogers_nelson_: 536G (8.9%, 536G)
NWOW_44: 500G (8.3%, 6,101G)
Anasetsuken: 500G (8.3%, 16,511G)
sparker9: 300G (5.0%, 3,820G)
Kellios11: 200G (3.3%, 10,424G)
TeaTime29: 200G (3.3%, 12,781G)

black bets:
serperemagus: 1,263G (25.7%, 1,263G)
red__lancer: 1,000G (20.3%, 91,055G)
AllInBot: 511G (10.4%, 511G)
joewcarson: 500G (10.2%, 39,039G)
TheChainNerd: 424G (8.6%, 424G)
nifboy: 424G (8.6%, 424G)
AltimaMantoid: 329G (6.7%, 329G)
autnagrag: 222G (4.5%, 820G)
dinin991: 136G (2.8%, 136G)
CosmicTactician: 100G (2.0%, 8,923G)
IphoneDarkness: 10G (0.2%, 1,281G)
