Final Bets: green - 6 bets for 2,569G (17.3%, x4.76); white - 15 bets for 12,240G (82.7%, x0.21)

green bets:
Draconis345: 1,000G (38.9%, 59,868G)
AltimaMantoid: 845G (32.9%, 845G)
nifboy: 424G (16.5%, 424G)
AllInBot: 100G (3.9%, 100G)
CosmicTactician: 100G (3.9%, 8,723G)
maakur_: 100G (3.9%, 21,522G)

white bets:
dogsandcatsand: 2,509G (20.5%, 7,604G)
NWOW_44: 2,000G (16.3%, 6,761G)
Lordminsc: 1,205G (9.8%, 3,942G)
Nickyfive: 1,132G (9.2%, 1,132G)
DLJuggernaut: 1,000G (8.2%, 20,325G)
EnemyController: 1,000G (8.2%, 594,357G)
Laserman1000: 720G (5.9%, 75,220G)
BirbBrainsBot: 573G (4.7%, 47,583G)
TheChainNerd: 424G (3.5%, 424G)
serperemagus: 420G (3.4%, 420G)
autnagrag: 331G (2.7%, 331G)
Kellios11: 300G (2.5%, 10,487G)
Zachara: 226G (1.8%, 107,626G)
ZCKaiser: 200G (1.6%, 410G)
Grandlanzer: 200G (1.6%, 6,921G)
