Final Bets: purple - 16 bets for 5,218G (22.4%, x3.47); brown - 21 bets for 18,115G (77.6%, x0.29)

purple bets:
LanseDM: 1,092G (20.9%, 1,092G)
Aldrammech: 1,000G (19.2%, 22,760G)
OmnibotGamma: 500G (9.6%, 8,176G)
caprinovoa: 500G (9.6%, 2,177G)
Kyune: 453G (8.7%, 453G)
vorap: 300G (5.7%, 28,910G)
CT_5_Holy: 232G (4.4%, 232G)
reshiramdude16: 200G (3.8%, 607G)
KonzeraLive: 200G (3.8%, 1,813G)
ThePineappleSalesman: 200G (3.8%, 21,865G)
mannequ1n: 108G (2.1%, 108G)
Firesheath: 101G (1.9%, 11,075G)
mpghappiness: 100G (1.9%, 10,828G)
bahamutlagooon: 100G (1.9%, 2,108G)
getthemoneyz: 82G (1.6%, 631,160G)
benticore: 50G (1.0%, 768G)

brown bets:
Shalloween: 3,437G (19.0%, 6,740G)
Mesmaster: 3,000G (16.6%, 17,295G)
Laserman1000: 1,752G (9.7%, 1,752G)
HaateXIII: 1,531G (8.5%, 3,002G)
Evewho: 1,234G (6.8%, 2,420G)
DeathTaxesAndAnime: 1,010G (5.6%, 1,010G)
ungabunga_bot: 1,000G (5.5%, 382,707G)
BirbBrainsBot: 1,000G (5.5%, 66,313G)
SQUiDSQUARKLIN: 841G (4.6%, 841G)
carsenhk: 500G (2.8%, 15,876G)
rico_flex: 500G (2.8%, 43,119G)
Baron_von_Scrub: 481G (2.7%, 481G)
luminarii: 425G (2.3%, 12,111G)
coralreeferz: 350G (1.9%, 6,635G)
old_overholt_: 300G (1.7%, 2,210G)
AeglosCrescens: 200G (1.1%, 1,289G)
twelfthrootoftwo: 200G (1.1%, 2,521G)
duckfist: 104G (0.6%, 104G)
RunicMagus: 100G (0.6%, 49,920G)
datadrivenbot: 100G (0.6%, 12,174G)
DrAntiSocial: 50G (0.3%, 7,824G)
