Final Bets: white - 15 bets for 5,621G (45.1%, x1.22); brown - 14 bets for 6,835G (54.9%, x0.82)

white bets:
ungabunga_bot: 1,000G (17.8%, 532,937G)
volgrathemoose: 604G (10.7%, 604G)
killth3kid: 600G (10.7%, 3,708G)
FoeSquirrel: 563G (10.0%, 563G)
Lionhermit: 500G (8.9%, 2,185G)
AUrato: 500G (8.9%, 4,514G)
CorpusCav: 470G (8.4%, 2,270G)
luminarii: 350G (6.2%, 13,912G)
getthemoneyz: 334G (5.9%, 679,093G)
AmaninAmide: 200G (3.6%, 3,151G)
nekross92: 100G (1.8%, 400G)
datadrivenbot: 100G (1.8%, 19,094G)
ANFz: 100G (1.8%, 2,018G)
Arbitae: 100G (1.8%, 1,023G)
skillomono: 100G (1.8%, 1,137G)

brown bets:
sinnyil2: 1,073G (15.7%, 1,073G)
BirbBrainsBot: 1,000G (14.6%, 139,096G)
reinoe: 1,000G (14.6%, 7,144G)
Mesmaster: 1,000G (14.6%, 50,426G)
Laserman1000: 670G (9.8%, 12,570G)
Firesheath: 580G (8.5%, 580G)
DeathTaxesAndAnime: 500G (7.3%, 1,419G)
vorap: 300G (4.4%, 53,810G)
Tsuike: 200G (2.9%, 858G)
neocarbuncle: 108G (1.6%, 108G)
ausar1: 104G (1.5%, 104G)
Lolprinze: 100G (1.5%, 3,294G)
Kezia444: 100G (1.5%, 100G)
nekojin: 100G (1.5%, 769G)
