Final Bets: blue - 5 bets for 1,622G (23.0%, x3.35); purple - 11 bets for 5,441G (77.0%, x0.30)

blue bets:
HaplessOne: 777G (47.9%, 23,719G)
TheGuesty: 500G (30.8%, 32,693G)
willieb17568: 197G (12.1%, 1,976G)
Arkreaver: 100G (6.2%, 10,064G)
getthemoneyz: 48G (3.0%, 615,634G)

purple bets:
ccordc: 1,078G (19.8%, 2,156G)
BirbBrainsBot: 1,000G (18.4%, 172,547G)
ungabunga_bot: 1,000G (18.4%, 313,483G)
ACSpree: 881G (16.2%, 881G)
volgrathemoose: 424G (7.8%, 424G)
Baron_von_Scrub: 308G (5.7%, 308G)
ar_tactic: 250G (4.6%, 32,232G)
twelfthrootoftwo: 200G (3.7%, 3,183G)
CassiePhoenix: 100G (1.8%, 7,362G)
LorianFaust: 100G (1.8%, 100G)
datadrivenbot: 100G (1.8%, 11,189G)
