Final Bets: white - 21 bets for 17,841G (73.4%, x0.36); black - 9 bets for 6,479G (26.6%, x2.75)

white bets:
RaIshtar: 2,800G (15.7%, 5,111G)
Nickyfive: 1,500G (8.4%, 37,952G)
UmaiJam: 1,500G (8.4%, 51,966G)
SkylerBunny: 1,400G (7.8%, 501,439G)
FriendSquirrel: 1,104G (6.2%, 2,165G)
MagicBottle: 1,000G (5.6%, 4,574G)
amiture: 1,000G (5.6%, 32,437G)
BirbBrainsBot: 1,000G (5.6%, 144,596G)
HaateXIII: 1,000G (5.6%, 3,822G)
E_Ballard: 1,000G (5.6%, 5,521G)
Nizaha: 985G (5.5%, 985G)
getthemoneyz: 808G (4.5%, 1,111,516G)
Zeroroute: 769G (4.3%, 769G)
Cryptopsy70: 608G (3.4%, 15,931G)
DLJuggernaut: 421G (2.4%, 421G)
DustBirdEX: 345G (1.9%, 6,993G)
gorgewall: 201G (1.1%, 26,731G)
nhammen: 100G (0.6%, 6,302G)
Firesheath: 100G (0.6%, 17,996G)
Finewax: 100G (0.6%, 100G)
datadrivenbot: 100G (0.6%, 46,321G)

black bets:
MrFlabyo: 2,000G (30.9%, 410,226G)
DeathTaxesAndAnime: 1,278G (19.7%, 2,506G)
BlackFireUK: 1,163G (18.0%, 1,163G)
YaBoy125: 988G (15.2%, 9,880G)
Shalloween: 600G (9.3%, 74,178G)
yeepeekayeahmf: 150G (2.3%, 5,245G)
Nohurty: 100G (1.5%, 2,114G)
Neo_Exodus: 100G (1.5%, 7,598G)
CosmicTactician: 100G (1.5%, 20,332G)
