Final Bets: yellow - 21 bets for 15,484G (58.3%, x0.71); champion - 13 bets for 11,060G (41.7%, x1.40)

yellow bets:
Nizaha: 4,296G (27.7%, 8,593G)
Zeroroute: 2,340G (15.1%, 5,647G)
amiture: 2,000G (12.9%, 34,792G)
SkylerBunny: 1,300G (8.4%, 503,019G)
powergems: 777G (5.0%, 16,707G)
DeathTaxesAndAnime: 756G (4.9%, 756G)
HaateXIII: 500G (3.2%, 4,788G)
Neo_Exodus: 500G (3.2%, 7,098G)
BlackFireUK: 488G (3.2%, 488G)
killth3kid: 444G (2.9%, 2,072G)
Shalloween: 400G (2.6%, 72,883G)
ArashiKurobara: 338G (2.2%, 338G)
DLJuggernaut: 328G (2.1%, 328G)
gorgewall: 201G (1.3%, 26,201G)
username123132: 150G (1.0%, 3,293G)
getthemoneyz: 144G (0.9%, 1,112,483G)
Finewax: 122G (0.8%, 122G)
nifboy: 100G (0.6%, 2,549G)
nhammen: 100G (0.6%, 6,229G)
Firesheath: 100G (0.6%, 17,632G)
datadrivenbot: 100G (0.6%, 46,244G)

champion bets:
MagicBottle: 3,809G (34.4%, 3,809G)
UmaiJam: 1,500G (13.6%, 51,557G)
BirbBrainsBot: 1,000G (9.0%, 142,323G)
DudeMonkey77: 1,000G (9.0%, 12,688G)
JumbocactuarX27: 1,000G (9.0%, 9,613G)
FriendSquirrel: 617G (5.6%, 617G)
TheChainNerd: 600G (5.4%, 6,009G)
Forkmore: 500G (4.5%, 729G)
RunicMagus: 500G (4.5%, 54,511G)
DustBirdEX: 234G (2.1%, 7,145G)
safira125: 100G (0.9%, 100G)
CosmicTactician: 100G (0.9%, 19,905G)
latebit: 100G (0.9%, 100G)
