Final Bets: white - 26 bets for 15,968G (64.8%, x0.54); brown - 13 bets for 8,661G (35.2%, x1.84)

white bets:
killth3kid: 2,000G (12.5%, 52,295G)
Mesmaster: 2,000G (12.5%, 28,414G)
Evewho: 1,720G (10.8%, 3,373G)
eudes89: 1,270G (8.0%, 1,270G)
HorusTaurus: 1,256G (7.9%, 1,256G)
EnemyController: 1,000G (6.3%, 201,934G)
twelfthrootoftwo: 1,000G (6.3%, 2,429G)
MirtaiAtana: 858G (5.4%, 858G)
RestIessNight: 677G (4.2%, 677G)
Xenomorith: 624G (3.9%, 624G)
regios91: 540G (3.4%, 540G)
theNGUYENNER: 500G (3.1%, 1,592G)
moonliquor: 500G (3.1%, 10,810G)
gorgewall: 300G (1.9%, 7,005G)
Fenrislfr: 292G (1.8%, 292G)
cupholderr: 282G (1.8%, 282G)
ungabunga_bot: 213G (1.3%, 413,128G)
ANFz: 121G (0.8%, 31,573G)
CorpusCav: 111G (0.7%, 5,176G)
NicoSavoy: 108G (0.7%, 108G)
mannequ1n: 100G (0.6%, 4,228G)
Lali_Lulelo: 100G (0.6%, 7,702G)
datadrivenbot: 100G (0.6%, 11,571G)
Cedreous: 100G (0.6%, 1,000G)
Estan_AD: 100G (0.6%, 1,956G)
getthemoneyz: 96G (0.6%, 648,282G)

brown bets:
SkylerBunny: 1,500G (17.3%, 57,590G)
duckfist: 1,467G (16.9%, 1,467G)
DeathTaxesAndAnime: 1,284G (14.8%, 1,284G)
Lionhermit: 1,000G (11.5%, 34,783G)
BirbBrainsBot: 828G (9.6%, 101,834G)
Laserman1000: 800G (9.2%, 8,300G)
sinnyil2: 500G (5.8%, 4,749G)
concles: 500G (5.8%, 18,448G)
ZDarius: 282G (3.3%, 282G)
Rislyeu: 200G (2.3%, 4,871G)
Heroebal: 100G (1.2%, 6,297G)
CosmicTactician: 100G (1.2%, 17,590G)
vampyreinabox: 100G (1.2%, 2,116G)
