Final Bets: blue - 22 bets for 13,660G (53.4%, x0.87); yellow - 10 bets for 11,936G (46.6%, x1.14)

blue bets:
amiture: 2,000G (14.6%, 9,167G)
DustBirdEX: 1,726G (12.6%, 11,509G)
BirbBrainsBot: 1,000G (7.3%, 67,052G)
Tarheels218: 1,000G (7.3%, 13,241G)
dogsandcatsand: 925G (6.8%, 925G)
Mesmaster: 789G (5.8%, 789G)
Nizaha: 724G (5.3%, 21,402G)
killth3kid: 692G (5.1%, 41,684G)
Aldrammech: 664G (4.9%, 664G)
blorpy_: 607G (4.4%, 7,599G)
Lanshaft: 580G (4.2%, 12,011G)
SephDarkheart: 556G (4.1%, 101,822G)
Kronikle: 516G (3.8%, 12,871G)
loveyouallfriends: 400G (2.9%, 50,490G)
getthemoneyz: 364G (2.7%, 1,619,083G)
AllInBot: 297G (2.2%, 297G)
TheMM42: 200G (1.5%, 4,423G)
datadrivenbot: 200G (1.5%, 63,654G)
Skjodo: 120G (0.9%, 120G)
MinBetBot: 100G (0.7%, 3,987G)
ko2q: 100G (0.7%, 509G)
northkoreancleetus: 100G (0.7%, 3,057G)

yellow bets:
Virilikus: 3,000G (25.1%, 231,258G)
DeathTaxesAndAnime: 2,574G (21.6%, 5,048G)
resjudicata3: 1,725G (14.5%, 1,725G)
Rislyeu: 1,500G (12.6%, 12,840G)
ColetteMSLP: 1,000G (8.4%, 28,516G)
Thyrandaal: 1,000G (8.4%, 248,125G)
OnTheBOTA: 500G (4.2%, 8,994G)
twelfthrootoftwo: 300G (2.5%, 1,945G)
xBizzy: 236G (2.0%, 935G)
ANFz: 101G (0.8%, 11,962G)
