Final Bets: white - 12 bets for 8,634G (53.1%, x0.88); brown - 14 bets for 7,625G (46.9%, x1.13)

white bets:
prince_rogers_nelson_: 2,523G (29.2%, 2,523G)
kaidykat: 1,451G (16.8%, 145,165G)
DeathTaxesAndAnime: 1,325G (15.3%, 2,599G)
TheMM42: 1,311G (15.2%, 6,559G)
Cryptopsy70: 604G (7.0%, 15,954G)
Magicandy: 300G (3.5%, 12,905G)
joewcarson: 300G (3.5%, 4,134G)
getthemoneyz: 294G (3.4%, 1,087,720G)
gorgewall: 201G (2.3%, 27,581G)
Klednar21: 125G (1.4%, 268G)
thewondertrickster: 100G (1.2%, 896G)
datadrivenbot: 100G (1.2%, 45,924G)

brown bets:
Thyrandaal: 2,000G (26.2%, 6,229G)
BirbBrainsBot: 1,000G (13.1%, 74,087G)
Mesmaster: 1,000G (13.1%, 107,570G)
Tithonus: 801G (10.5%, 801G)
rabbitlogik: 636G (8.3%, 636G)
HaateXIII: 500G (6.6%, 4,883G)
CaptainGarlock: 500G (6.6%, 10,611G)
gamesage53: 376G (4.9%, 376G)
maleblackfiora: 300G (3.9%, 342G)
almontys: 112G (1.5%, 112G)
nifboy: 100G (1.3%, 4,303G)
Firesheath: 100G (1.3%, 15,082G)
moocaotao: 100G (1.3%, 4,012G)
cougboi: 100G (1.3%, 8,403G)
