High Risers:
1. Horustaurus: +5,649G
2. Zachara: +2,754G
3. Memoriesoffinal: +2,440G
4. Russell2x: +764G
5. 3ngag3: +421G
6. Upvla: +404G
7. Jeeboheebo: +300G
8. Lijarkh: +300G
9. Vynxyukida: +27G
10. Abandonedhall: +12G
11. Widewalk: +4G
12. Rune339: -100G
13. Chihuahua_charity: -100G
14. Ayeayex3: -200G
15. Popslive: -200G
16. Thesabretoothe: -370G
17. Hasterious: -400G
18. Novaknight21: -400G
19. Colettemslp: -416G
20. Ibardic: -442G
21. Ar_tactic: -500G
22. Genkidou: -597G
23. Volgrathemoose: -821G
24. Ser_pyrro: -849G
25. Lwtest: -893G
26. Gorgewall: -910G
27. Error72: -1,000G
28. Jumbocactuarx27: -1,000G
29. Deathtaxesandanime: -1,020G
30. Sephdarkheart: -1,200G
31. Lord_gwarth: -1,306G
32. Nifboy: -8,721G
33. Mindblownnnn: -21,200G
