Final Bets: red - 25 bets for 9,385G (26.3%, x2.80); blue - 39 bets for 26,241G (73.7%, x0.36)

red bets:
Lodrak: 1,001G (10.7%, 15,827G)
OmnibotGamma: 1,000G (10.7%, 9,769G)
Fallenmagi: 1,000G (10.7%, 8,082G)
AllInBot: 943G (10.0%, 943G)
DavenIII: 550G (5.9%, 4,619G)
Lionhermit: 500G (5.3%, 3,683G)
EunosXX: 500G (5.3%, 41,054G)
reinoe: 468G (5.0%, 468G)
fenixcrest: 448G (4.8%, 8,961G)
alrightbye: 325G (3.5%, 10,486G)
DustBirdEX: 300G (3.2%, 7,630G)
MrDiggs49: 300G (3.2%, 7,976G)
urieltheflameofgod: 276G (2.9%, 276G)
getthemoneyz: 274G (2.9%, 354,292G)
tone_t: 200G (2.1%, 8,430G)
ForagerCats: 200G (2.1%, 8,036G)
gum44: 200G (2.1%, 6,303G)
theallmightyensiron: 200G (2.1%, 255G)
SpaZmodeus: 100G (1.1%, 2,968G)
Chao_Garden: 100G (1.1%, 2,716G)
Alc_Trinity: 100G (1.1%, 27,037G)
BadBlanket: 100G (1.1%, 2,131G)
TheOneRanger: 100G (1.1%, 2,624G)
electric_glass: 100G (1.1%, 1,708G)
sweetbeetpete: 100G (1.1%, 3,640G)

blue bets:
rechaun: 8,361G (31.9%, 8,361G)
MantisFinch: 1,740G (6.6%, 6,962G)
Spartan_Paladin: 1,064G (4.1%, 13,303G)
fenaen: 1,001G (3.8%, 3,796G)
BirbBrainsBot: 1,000G (3.8%, 203,587G)
bad1dea: 1,000G (3.8%, 198,961G)
DudeMonkey77: 1,000G (3.8%, 33,900G)
DeathTaxesAndAnime: 900G (3.4%, 2,061G)
TheChainNerd: 794G (3.0%, 794G)
LeepingJJ: 793G (3.0%, 6,793G)
Dexef: 772G (2.9%, 772G)
red__lancer: 658G (2.5%, 11,658G)
Lanshaft: 572G (2.2%, 6,103G)
Phi_Sig: 555G (2.1%, 40,701G)
DHaveWord: 552G (2.1%, 1,083G)
genoguy: 500G (1.9%, 5,240G)
Baron_von_Scrub: 498G (1.9%, 498G)
ko2q: 432G (1.6%, 432G)
luminarii: 398G (1.5%, 8,570G)
SerumD: 308G (1.2%, 308G)
omegasuspekt: 300G (1.1%, 300G)
CapnChaos12: 300G (1.1%, 3,874G)
DLJuggernaut: 300G (1.1%, 10,339G)
ricky_ortease: 300G (1.1%, 4,438G)
ZephyrTempest: 299G (1.1%, 2,096G)
JumbocactuarX27: 244G (0.9%, 244G)
ZestyArsenic: 200G (0.8%, 479G)
Fumil: 200G (0.8%, 2,101G)
DeliciousSub: 200G (0.8%, 8,580G)
ungabunga_bot: 100G (0.4%, 5,684G)
MeleeWizard: 100G (0.4%, 6,460G)
Tougou: 100G (0.4%, 5,413G)
ApplesauceBoss: 100G (0.4%, 10,110G)
Kellios11: 100G (0.4%, 8,149G)
rrazzoug: 100G (0.4%, 7,790G)
Oshimi12: 100G (0.4%, 1,290G)
reverv: 100G (0.4%, 6,510G)
coralreeferz: 100G (0.4%, 5,385G)
Esunos: 100G (0.4%, 6,729G)
