Final Bets: white - 13 bets for 7,464G (37.6%, x1.66); black - 21 bets for 12,404G (62.4%, x0.60)

white bets:
Nizaha: 3,334G (44.7%, 6,668G)
Aldrammech: 1,324G (17.7%, 1,324G)
ungabunga_bot: 500G (6.7%, 109,584G)
rico_flex: 500G (6.7%, 3,358G)
datadrivenbot: 448G (6.0%, 20,269G)
RubenFlonne: 396G (5.3%, 396G)
arch8000: 300G (4.0%, 7,129G)
Pochitchi: 136G (1.8%, 136G)
AllInBot: 126G (1.7%, 126G)
Lordminsc: 100G (1.3%, 10,815G)
RezzaDV: 100G (1.3%, 2,833G)
JohnDuggins: 100G (1.3%, 1,122G)
Lodrak: 100G (1.3%, 2,769G)

black bets:
Shakarak: 2,500G (20.2%, 9,469G)
toka222: 1,500G (12.1%, 525,981G)
leakimiko: 1,455G (11.7%, 29,106G)
getthemoneyz: 1,000G (8.1%, 478,333G)
BirbBrainsBot: 1,000G (8.1%, 74,267G)
Lanshaft: 758G (6.1%, 758G)
ricky_ortease: 741G (6.0%, 16,346G)
catfashions: 500G (4.0%, 1,079G)
SWATb1gdog: 400G (3.2%, 2,328G)
Slowbrofist: 389G (3.1%, 389G)
HaateXIII: 340G (2.7%, 340G)
waterwatereverywhere: 300G (2.4%, 3,467G)
mpghappiness: 272G (2.2%, 272G)
b0shii: 222G (1.8%, 1,638G)
Kronikle: 200G (1.6%, 6,650G)
KasugaiRoastedPeas: 200G (1.6%, 6,992G)
maakur_: 200G (1.6%, 2,857G)
AnthraX85: 128G (1.0%, 128G)
VySaika: 124G (1.0%, 124G)
ko2q: 100G (0.8%, 3,792G)
DrAntiSocial: 75G (0.6%, 3,181G)
