Final Bets: purple - 27 bets for 12,355G (59.6%, x0.68); brown - 22 bets for 8,390G (40.4%, x1.47)

purple bets:
wackyzachyy: 1,500G (12.1%, 3,443G)
Cataphract116: 1,069G (8.7%, 1,069G)
BirbBrainsBot: 1,000G (8.1%, 206,032G)
bad1dea: 1,000G (8.1%, 201,382G)
dantetouhou: 1,000G (8.1%, 30,833G)
DeathTaxesAndAnime: 708G (5.7%, 708G)
Lanshaft: 572G (4.6%, 7,329G)
Phi_Sig: 555G (4.5%, 39,824G)
MrDiggs49: 500G (4.0%, 5,808G)
nomoment: 500G (4.0%, 12,115G)
gum44: 500G (4.0%, 5,960G)
SealPoulpe: 400G (3.2%, 4,524G)
SpaZmodeus: 333G (2.7%, 2,494G)
HighJayster: 301G (2.4%, 301G)
ColetteMSLP: 300G (2.4%, 7,321G)
HRak050: 300G (2.4%, 1,510G)
DustBirdEX: 300G (2.4%, 7,509G)
theallmightyensiron: 300G (2.4%, 1,351G)
ZephyrTempest: 281G (2.3%, 2,461G)
ra1kia: 236G (1.9%, 3,864G)
oogthecaveman: 150G (1.2%, 5,614G)
ungabunga_bot: 100G (0.8%, 6,034G)
Nizaha: 100G (0.8%, 16,898G)
Oshimi12: 100G (0.8%, 1,303G)
Ficklebeast: 100G (0.8%, 2,253G)
ApplesauceBoss: 100G (0.8%, 10,578G)
beardboss07: 50G (0.4%, 1,915G)

brown bets:
PetitFoulard: 1,390G (16.6%, 1,390G)
Lodrak: 1,001G (11.9%, 12,693G)
Fallenmagi: 1,000G (11.9%, 6,397G)
Dexef: 827G (9.9%, 827G)
TheChainNerd: 597G (7.1%, 5,977G)
ricky_ortease: 500G (6.0%, 4,438G)
luminarii: 365G (4.4%, 8,803G)
tone_t: 300G (3.6%, 8,582G)
Hirine: 300G (3.6%, 5,361G)
LeepingJJ: 261G (3.1%, 8,229G)
JumbocactuarX27: 244G (2.9%, 244G)
AllInBot: 237G (2.8%, 237G)
getthemoneyz: 210G (2.5%, 355,176G)
Chao_Garden: 200G (2.4%, 2,166G)
sweetbeetpete: 200G (2.4%, 2,129G)
sankvtw: 150G (1.8%, 1,292G)
GeekDadMan: 108G (1.3%, 2,091G)
rrazzoug: 100G (1.2%, 7,989G)
BadBlanket: 100G (1.2%, 2,331G)
SeraphPDH: 100G (1.2%, 10,493G)
DHaveWord: 100G (1.2%, 2,045G)
Kellios11: 100G (1.2%, 8,249G)
