Final Bets: green - 21 bets for 27,934G (29.4%, x2.40); purple - 11 bets for 67,100G (70.6%, x0.42)

green bets:
RaIshtar: 8,030G (28.7%, 8,030G)
EnemyController: 5,000G (17.9%, 1,435,177G)
Nickyfive: 4,000G (14.3%, 8,717G)
JumbocactuarX27: 2,500G (8.9%, 31,218G)
CosmicTactician: 1,000G (3.6%, 40,583G)
BirbBrainsBot: 1,000G (3.6%, 174,671G)
Sairentozon7: 1,000G (3.6%, 16,631G)
sinnyil2: 904G (3.2%, 904G)
getthemoneyz: 606G (2.2%, 1,297,459G)
AllInBot: 563G (2.0%, 563G)
maakur_: 552G (2.0%, 552G)
killth3kid: 400G (1.4%, 1,435G)
latebit: 345G (1.2%, 345G)
randgridr: 340G (1.2%, 340G)
TasisSai: 328G (1.2%, 328G)
Nohurty: 316G (1.1%, 316G)
CapnChaos12: 300G (1.1%, 7,546G)
furrytomahawkk: 300G (1.1%, 2,009G)
benticore: 250G (0.9%, 18,611G)
DHaveWord: 100G (0.4%, 10,016G)
RasenRendan: 100G (0.4%, 458G)

purple bets:
Geffro1908: 60,420G (90.0%, 60,420G)
Cryptopsy70: 1,794G (2.7%, 59,830G)
mpghappiness: 1,215G (1.8%, 2,383G)
TheChainNerd: 1,000G (1.5%, 26,174G)
datadrivenbot: 994G (1.5%, 42,738G)
mirapoix: 552G (0.8%, 552G)
joewcarson: 500G (0.7%, 32,813G)
MrMarkPolo: 225G (0.3%, 4,564G)
flacococo: 200G (0.3%, 200G)
DouglasDragonThePoet: 100G (0.1%, 541G)
Firesheath: 100G (0.1%, 2,481G)
