Final Bets: green - 26 bets for 18,401G (69.8%, x0.43); yellow - 11 bets for 7,943G (30.2%, x2.32)

green bets:
leakimiko: 2,147G (11.7%, 26,845G)
Vampire_Killer: 1,500G (8.2%, 12,532G)
Lord_Burrah: 1,200G (6.5%, 95,957G)
kai_shee: 1,000G (5.4%, 49,776G)
TheChainNerd: 1,000G (5.4%, 13,199G)
BirbBrainsBot: 1,000G (5.4%, 105,134G)
xDeadlytoxinsx: 1,000G (5.4%, 2,327G)
bad1dea: 1,000G (5.4%, 315,822G)
HaplessOne: 1,000G (5.4%, 21,219G)
holyonline: 1,000G (5.4%, 3,022G)
sankvtw: 1,000G (5.4%, 2,107G)
getthemoneyz: 944G (5.1%, 400,390G)
Ungaiii: 620G (3.4%, 4,500G)
Lanshaft: 600G (3.3%, 11,135G)
Zeroroute: 500G (2.7%, 500G)
SerumD: 500G (2.7%, 9,597G)
JumbocactuarX27: 462G (2.5%, 462G)
IndecisiveNinja: 364G (2.0%, 364G)
Aeolus_000: 300G (1.6%, 3,566G)
DLJuggernaut: 300G (1.6%, 7,986G)
ForagerCats: 264G (1.4%, 264G)
ugoplatamia: 200G (1.1%, 19,950G)
maakur_: 200G (1.1%, 2,042G)
AllInBot: 100G (0.5%, 100G)
datadrivenbot: 100G (0.5%, 15,773G)
MirrorTwin: 100G (0.5%, 543G)

yellow bets:
sinnyil2: 2,500G (31.5%, 29,554G)
Nickyfive: 2,088G (26.3%, 4,177G)
JonnyCue: 1,000G (12.6%, 41,278G)
ko2q: 517G (6.5%, 517G)
SleepyBenzo: 500G (6.3%, 2,870G)
Winterharte: 460G (5.8%, 460G)
SomeCallMeGON: 421G (5.3%, 421G)
MeleeWizard: 236G (3.0%, 236G)
SeedSC: 100G (1.3%, 99,461G)
ZephyrTempest: 100G (1.3%, 18,949G)
Rikrizen: 21G (0.3%, 431G)
