Final Bets: red - 6 bets for 3,583G (41.9%, x1.39); blue - 14 bets for 4,972G (58.1%, x0.72)

red bets:
BirbBrainsBot: 1,000G (27.9%, 171,047G)
AllInBot: 842G (23.5%, 842G)
Mesmaster: 570G (15.9%, 570G)
SeniorBunk: 452G (12.6%, 452G)
Lemonjohns: 420G (11.7%, 5,473G)
ForagerCats: 299G (8.3%, 599G)

blue bets:
ko2q: 1,000G (20.1%, 2,446G)
amiture: 1,000G (20.1%, 11,760G)
TheMurkGnome: 800G (16.1%, 7,268G)
ZephyrBurst83: 500G (10.1%, 10,136G)
WhiteTigress: 360G (7.2%, 360G)
RyanTheRebs: 244G (4.9%, 244G)
datadrivenbot: 200G (4.0%, 65,639G)
getthemoneyz: 186G (3.7%, 1,657,378G)
Mister_Quof: 155G (3.1%, 155G)
Lydian_C: 123G (2.5%, 970G)
3ngag3: 104G (2.1%, 1,104G)
Drusiform: 100G (2.0%, 7,749G)
DHaveWord: 100G (2.0%, 2,158G)
WhattayaBrian: 100G (2.0%, 1,115G)
