Final Bets: yellow - 17 bets for 18,681G (53.2%, x0.88); champion - 20 bets for 16,437G (46.8%, x1.14)

yellow bets:
HaateXIII: 6,664G (35.7%, 6,664G)
Virilikus: 3,000G (16.1%, 220,885G)
Zeroroute: 2,704G (14.5%, 7,728G)
DeathTaxesAndAnime: 1,676G (9.0%, 3,288G)
Nizaha: 800G (4.3%, 82,764G)
Chuckolator: 566G (3.0%, 7,008G)
CorpusCav: 500G (2.7%, 5,118G)
Aldrammech: 500G (2.7%, 21,218G)
MemoriesofFinal: 431G (2.3%, 3,739G)
HASTERIOUS: 402G (2.2%, 8,052G)
Lord_Gwarth: 337G (1.8%, 6,523G)
douchetron: 260G (1.4%, 260G)
Blackpapalink: 200G (1.1%, 1,005G)
datadrivenbot: 200G (1.1%, 65,050G)
Dynablade: 191G (1.0%, 3,891G)
muffin_money: 150G (0.8%, 5,301G)
HS39: 100G (0.5%, 2,822G)

champion bets:
Thyrandaal: 3,000G (18.3%, 37,460G)
Mesmaster: 3,000G (18.3%, 121,630G)
solomongrundy85: 1,099G (6.7%, 1,099G)
Lifebregin: 1,000G (6.1%, 17,410G)
BirbBrainsBot: 1,000G (6.1%, 65,627G)
reinoe: 1,000G (6.1%, 15,534G)
thebluesman: 1,000G (6.1%, 3,514G)
bigbongsmoker: 1,000G (6.1%, 1,530G)
E_Ballard: 836G (5.1%, 113,124G)
Lydian_C: 560G (3.4%, 32,139G)
nekojin: 528G (3.2%, 528G)
silentperogy: 500G (3.0%, 42,178G)
Forkmore: 500G (3.0%, 41,936G)
pepperbuster: 385G (2.3%, 1,385G)
krombobreaker: 260G (1.6%, 8,248G)
DracoknightZero: 216G (1.3%, 216G)
Leonidusx: 200G (1.2%, 4,530G)
roofiepops: 123G (0.7%, 2,314G)
RobotOcelot: 116G (0.7%, 116G)
getthemoneyz: 114G (0.7%, 1,816,729G)
