Final Bets: blue - 8 bets for 2,113G (23.9%, x3.18); yellow - 13 bets for 6,720G (76.1%, x0.31)

blue bets:
ChrisWado: 739G (35.0%, 739G)
FriendSquirrel: 407G (19.3%, 407G)
LAGBOT30000: 269G (12.7%, 26,984G)
Saldarin: 200G (9.5%, 2,241G)
BirbBrainsBot: 198G (9.4%, 93,741G)
nifboy: 100G (4.7%, 3,597G)
maakur_: 100G (4.7%, 2,781G)
Moshyhero: 100G (4.7%, 1,217G)

yellow bets:
DavenIII: 1,152G (17.1%, 1,152G)
Baron_von_Scrub: 1,111G (16.5%, 10,174G)
Candina: 1,111G (16.5%, 23,121G)
elelor: 1,000G (14.9%, 8,959G)
mardokttv: 564G (8.4%, 564G)
SerumD: 400G (6.0%, 3,690G)
lifeguard_dan: 357G (5.3%, 357G)
JumbocactuarX27: 357G (5.3%, 357G)
d4rr1n: 321G (4.8%, 1,607G)
datadrivenbot: 100G (1.5%, 21,639G)
GladiatorLupe: 100G (1.5%, 5,863G)
zepharoth89: 79G (1.2%, 229G)
getthemoneyz: 68G (1.0%, 691,898G)
