Final Bets: black - 10 bets for 5,946G (55.8%, x0.79); purple - 13 bets for 4,702G (44.2%, x1.26)

black bets:
Nickyfive: 1,513G (25.4%, 3,027G)
BirbBrainsBot: 1,000G (16.8%, 93,543G)
Zachara: 739G (12.4%, 90,239G)
DeathTaxesAndAnime: 678G (11.4%, 678G)
E_Ballard: 600G (10.1%, 600G)
Saldarin: 500G (8.4%, 2,041G)
volgrathemoose: 500G (8.4%, 4,401G)
ChrisWado: 216G (3.6%, 216G)
maakur_: 100G (1.7%, 2,681G)
Moshyhero: 100G (1.7%, 1,117G)

purple bets:
Candina: 1,234G (26.2%, 23,470G)
DavenIII: 650G (13.8%, 1,514G)
Baron_von_Scrub: 474G (10.1%, 10,523G)
lifeguard_dan: 469G (10.0%, 469G)
JumbocactuarX27: 469G (10.0%, 469G)
mardokttv: 370G (7.9%, 741G)
SerumD: 300G (6.4%, 3,816G)
getthemoneyz: 182G (3.9%, 691,919G)
zepharoth89: 154G (3.3%, 254G)
nifboy: 100G (2.1%, 3,497G)
FoeSquirrel: 100G (2.1%, 1,867G)
GladiatorLupe: 100G (2.1%, 5,894G)
datadrivenbot: 100G (2.1%, 21,670G)
