Final Bets: yellow - 6 bets for 5,660G (50.6%, x0.98); black - 14 bets for 5,534G (49.4%, x1.02)

yellow bets:
Baron_von_Scrub: 2,552G (45.1%, 10,049G)
Candina: 1,900G (33.6%, 22,236G)
SerumD: 500G (8.8%, 3,516G)
d4rr1n: 341G (6.0%, 1,708G)
LAGBOT30000: 267G (4.7%, 26,715G)
AmaninAmide: 100G (1.8%, 2,250G)

black bets:
E_Ballard: 1,074G (19.4%, 1,074G)
BirbBrainsBot: 1,000G (18.1%, 94,334G)
DavenIII: 864G (15.6%, 864G)
Zachara: 823G (14.9%, 90,823G)
Saldarin: 400G (7.2%, 2,436G)
mardokttv: 371G (6.7%, 371G)
JumbocactuarX27: 308G (5.6%, 308G)
Moshyhero: 200G (3.6%, 1,196G)
slash_kamei: 120G (2.2%, 120G)
nifboy: 100G (1.8%, 3,397G)
zepharoth89: 100G (1.8%, 100G)
datadrivenbot: 100G (1.8%, 21,570G)
DrAntiSocial: 50G (0.9%, 17,976G)
getthemoneyz: 24G (0.4%, 691,737G)
