Final Bets: white - 7 bets for 2,113G (28.3%, x2.53); purple - 7 bets for 5,341G (71.7%, x0.40)

white bets:
BirbBrainsBot: 1,000G (47.3%, 120,647G)
getthemoneyz: 268G (12.7%, 1,703,395G)
AllInBot: 204G (9.7%, 204G)
TheMM42: 200G (9.5%, 6,154G)
datadrivenbot: 200G (9.5%, 62,058G)
maleblackfiora: 140G (6.6%, 148G)
gorgewall: 101G (4.8%, 5,091G)

purple bets:
kaidykat: 1,733G (32.4%, 173,352G)
CassiePhoenix: 1,000G (18.7%, 3,421G)
SkylerBunny: 1,000G (18.7%, 5,740G)
E_Ballard: 704G (13.2%, 704G)
CT_5_Holy: 400G (7.5%, 1,692G)
Lazarus_DS: 300G (5.6%, 608G)
nok____: 204G (3.8%, 4,804G)
