Final Bets: blue - 4 bets for 4,300G (78.1%, x0.28); purple - 5 bets for 1,205G (21.9%, x3.57)

blue bets:
Willjin: 3,000G (69.8%, 6,769G)
SkylerBunny: 1,000G (23.3%, 6,136G)
datadrivenbot: 200G (4.7%, 61,858G)
ko2q: 100G (2.3%, 2,851G)

purple bets:
BirbBrainsBot: 632G (52.4%, 119,647G)
Lazarus_DS: 200G (16.6%, 727G)
getthemoneyz: 172G (14.3%, 1,703,127G)
gorgewall: 101G (8.4%, 4,990G)
AllInBot: 100G (8.3%, 100G)
