Final Bets: white - 11 bets for 5,905G (44.5%, x1.25); brown - 14 bets for 7,356G (55.5%, x0.80)

white bets:
mpghappiness: 1,282G (21.7%, 1,282G)
twelfthrootoftwo: 1,092G (18.5%, 2,143G)
HaateXIII: 768G (13.0%, 768G)
superdevon1: 625G (10.6%, 15,625G)
hiros13gts: 600G (10.2%, 5,259G)
killth3kid: 420G (7.1%, 2,192G)
zah69: 417G (7.1%, 417G)
gorgewall: 201G (3.4%, 10,415G)
AllInBot: 200G (3.4%, 200G)
chaos_sux_unless_its_ds: 200G (3.4%, 681G)
Firesheath: 100G (1.7%, 13,502G)

brown bets:
TasisSai: 1,000G (13.6%, 11,534G)
BirbBrainsBot: 1,000G (13.6%, 23,422G)
dantayystv: 1,000G (13.6%, 20,656G)
Sairentozon7: 1,000G (13.6%, 6,750G)
Axelrod: 737G (10.0%, 36,897G)
getthemoneyz: 684G (9.3%, 1,302,549G)
randgridr: 372G (5.1%, 4,455G)
Treafa: 307G (4.2%, 307G)
flacococo: 271G (3.7%, 271G)
Lemonjohns: 268G (3.6%, 268G)
infinite21: 217G (2.9%, 217G)
Heroebal: 200G (2.7%, 4,741G)
datadrivenbot: 200G (2.7%, 29,578G)
victoriolue: 100G (1.4%, 3,365G)
