Final Bets: green - 8 bets for 4,071G (44.6%, x1.24); champion - 9 bets for 5,055G (55.4%, x0.81)

green bets:
Mushufasa_: 1,000G (24.6%, 66,569G)
BirbBrainsBot: 885G (21.7%, 21,971G)
dogsandcatsand: 696G (17.1%, 2,483G)
getthemoneyz: 500G (12.3%, 2,031,979G)
skipsandwiches: 440G (10.8%, 23,953G)
Error72: 400G (9.8%, 400G)
CassiePhoenix: 100G (2.5%, 1,530G)
Genkidou: 50G (1.2%, 1,720G)

champion bets:
peeronid: 1,078G (21.3%, 1,078G)
Leonidusx: 1,000G (19.8%, 207,762G)
MilkaChoko: 1,000G (19.8%, 2,173G)
krombobreaker: 700G (13.8%, 18,743G)
ForagerCats: 500G (9.9%, 6,776G)
Chihuahua_Charity: 276G (5.5%, 276G)
AllInBot: 200G (4.0%, 200G)
MemoriesofFinal: 200G (4.0%, 40,447G)
gorgewall: 101G (2.0%, 4,142G)
