Final Bets: white - 6 bets for 12,262G (49.4%, x1.03); black - 18 bets for 12,582G (50.6%, x0.97)

white bets:
reinoe: 5,000G (40.8%, 53,931G)
Zeroroute: 2,987G (24.4%, 2,987G)
Aldrammech: 2,647G (21.6%, 2,647G)
silentkaster: 1,000G (8.2%, 20,000G)
Forkmore: 376G (3.1%, 376G)
Lord_Gwarth: 252G (2.1%, 252G)

black bets:
E_Ballard: 3,617G (28.7%, 3,617G)
Thyrandaal: 2,000G (15.9%, 79,463G)
toka222: 1,500G (11.9%, 91,286G)
BirbBrainsBot: 1,000G (7.9%, 146,101G)
dogsandcatsand: 1,000G (7.9%, 60,698G)
getthemoneyz: 520G (4.1%, 1,481,344G)
nok____: 513G (4.1%, 513G)
pplvee1: 448G (3.6%, 2,088G)
Miku_Shikhu: 412G (3.3%, 412G)
Dexef: 333G (2.6%, 4,912G)
AllInBot: 200G (1.6%, 200G)
Radiance89: 200G (1.6%, 951G)
TasisSai: 200G (1.6%, 15,416G)
datadrivenbot: 200G (1.6%, 49,003G)
roqqqpsi: 165G (1.3%, 1,100G)
GoatShow2: 124G (1.0%, 124G)
dinin991: 100G (0.8%, 645G)
super_robo_mg: 50G (0.4%, 1,318G)
