Final Bets: white - 12 bets for 15,184G (66.5%, x0.50); black - 15 bets for 7,650G (33.5%, x1.98)

white bets:
reinoe: 10,000G (65.9%, 66,753G)
ruleof5: 1,000G (6.6%, 16,665G)
Aldrammech: 937G (6.2%, 937G)
roofiepops: 695G (4.6%, 695G)
Kronikle: 592G (3.9%, 3,273G)
technominari: 500G (3.3%, 74,652G)
Runeseeker22: 400G (2.6%, 1,706G)
krombobreaker: 300G (2.0%, 2,654G)
MemoriesofFinal: 260G (1.7%, 260G)
datadrivenbot: 200G (1.3%, 59,257G)
J2Reed: 200G (1.3%, 200G)
AllInBot: 100G (0.7%, 100G)

black bets:
Thyrandaal: 1,234G (16.1%, 146,270G)
Zeroroute: 1,127G (14.7%, 3,220G)
sinnyil2: 1,052G (13.8%, 1,052G)
BirbBrainsBot: 1,000G (13.1%, 106,569G)
dogsandcatsand: 702G (9.2%, 702G)
WesSideVandal: 500G (6.5%, 3,158G)
Smashy: 500G (6.5%, 12,159G)
resjudicata3: 300G (3.9%, 3,489G)
getthemoneyz: 296G (3.9%, 1,768,475G)
Leonidusx: 212G (2.8%, 212G)
Mudrockk: 200G (2.6%, 3,601G)
camelot_fanboy: 177G (2.3%, 179G)
muffin_money: 150G (2.0%, 7,807G)
BaronHaynes: 100G (1.3%, 80,816G)
RonaldoTheGypsy: 100G (1.3%, 2,938G)
