Final Bets: green - 19 bets for 12,174G (52.1%, x0.92); yellow - 19 bets for 11,202G (47.9%, x1.09)

green bets:
SkylerBunny: 2,000G (16.4%, 79,552G)
eudes89: 2,000G (16.4%, 6,421G)
TheChainNerd: 1,579G (13.0%, 40,579G)
BoneMiser: 1,083G (8.9%, 1,083G)
Aldrammech: 1,000G (8.2%, 46,771G)
BirbBrainsBot: 1,000G (8.2%, 23,676G)
NicoSavoy: 1,000G (8.2%, 5,730G)
killth3kid: 500G (4.1%, 26,026G)
Xcessive30: 500G (4.1%, 5,700G)
HaateXIII: 500G (4.1%, 26,966G)
Grandlanzer: 300G (2.5%, 9,435G)
gr8keeper: 200G (1.6%, 2,100G)
UnholyCorsair: 100G (0.8%, 4,684G)
ALY327: 100G (0.8%, 50,997G)
d4rr1n: 100G (0.8%, 3,278G)
Ross_from_Cali: 77G (0.6%, 512G)
getthemoneyz: 60G (0.5%, 743,459G)
DrAntiSocial: 50G (0.4%, 337G)
zepharoth89: 25G (0.2%, 2,166G)

yellow bets:
volgrathemoose: 1,172G (10.5%, 1,172G)
Baron_von_Scrub: 1,111G (9.9%, 12,103G)
NIghtdew14: 1,000G (8.9%, 5,140G)
Virilikus: 1,000G (8.9%, 180,364G)
Sairentozon7: 969G (8.7%, 969G)
Rislyeu: 911G (8.1%, 911G)
Laserman1000: 900G (8.0%, 19,900G)
HaychDub: 750G (6.7%, 5,843G)
Cryptopsy70: 644G (5.7%, 644G)
HASTERIOUS: 606G (5.4%, 12,130G)
Vex_Novisk: 500G (4.5%, 18,484G)
DustBirdEX: 456G (4.1%, 5,338G)
Jinxzers: 300G (2.7%, 999G)
benticore: 250G (2.2%, 2,163G)
gorgewall: 201G (1.8%, 21,728G)
kaelsun: 132G (1.2%, 132G)
AllInBot: 100G (0.9%, 100G)
DeathTaxesAndAnime: 100G (0.9%, 10,958G)
datadrivenbot: 100G (0.9%, 26,919G)
