Final Bets: white - 12 bets for 11,248G (53.9%, x0.85); brown - 19 bets for 9,606G (46.1%, x1.17)

white bets:
TheChainNerd: 2,796G (24.9%, 40,796G)
SkylerBunny: 2,500G (22.2%, 80,149G)
Virilikus: 2,000G (17.8%, 186,099G)
volgrathemoose: 1,001G (8.9%, 3,155G)
vorap: 500G (4.4%, 99,532G)
gr8keeper: 500G (4.4%, 2,223G)
Jinxzers: 500G (4.4%, 2,098G)
killth3kid: 500G (4.4%, 25,526G)
Vex_Novisk: 500G (4.4%, 19,155G)
serperemagus: 301G (2.7%, 301G)
AllInBot: 100G (0.9%, 100G)
DrAntiSocial: 50G (0.4%, 304G)

brown bets:
Zbgs: 3,000G (31.2%, 47,841G)
BirbBrainsBot: 1,000G (10.4%, 22,679G)
gooseyourself: 950G (9.9%, 950G)
Tougou: 899G (9.4%, 899G)
Rislyeu: 500G (5.2%, 7,042G)
DustBirdEX: 456G (4.7%, 5,495G)
FriendSquirrel: 412G (4.3%, 412G)
HaychDub: 350G (3.6%, 6,999G)
eudes89: 300G (3.1%, 300G)
Arcblazer23: 272G (2.8%, 272G)
coralreeferz: 250G (2.6%, 8,811G)
kaelsun: 236G (2.5%, 236G)
gorgewall: 201G (2.1%, 22,235G)
GladiatorLupe: 200G (2.1%, 2,946G)
getthemoneyz: 180G (1.9%, 744,276G)
ALY327: 100G (1.0%, 50,797G)
UnholyCorsair: 100G (1.0%, 4,689G)
alecttox: 100G (1.0%, 14,326G)
pplvee1: 100G (1.0%, 5,789G)
