Final Bets: purple - 11 bets for 8,907G (50.1%, x1.00); brown - 11 bets for 8,869G (49.9%, x1.00)

purple bets:
twelfthrootoftwo: 4,468G (50.2%, 8,761G)
AllInBot: 1,176G (13.2%, 1,176G)
JumbocactuarX27: 1,000G (11.2%, 27,778G)
powergems: 555G (6.2%, 11,254G)
LAGBOT30000: 504G (5.7%, 10,096G)
ColetteMSLP: 400G (4.5%, 4,304G)
latebit: 204G (2.3%, 204G)
Evewho: 200G (2.2%, 5,413G)
loveyouallfriends: 200G (2.2%, 8,915G)
nhammen: 100G (1.1%, 11,300G)
E_Ballard: 100G (1.1%, 4,609G)

brown bets:
Error72: 2,348G (26.5%, 4,604G)
NIghtdew14: 1,709G (19.3%, 1,709G)
BirbBrainsBot: 1,000G (11.3%, 162,971G)
dantayystv: 1,000G (11.3%, 11,059G)
pplvee1: 937G (10.6%, 937G)
getthemoneyz: 594G (6.7%, 1,285,816G)
datadrivenbot: 581G (6.6%, 40,096G)
AlysSariel: 300G (3.4%, 2,599G)
dtrain332: 200G (2.3%, 1,319G)
peeronid: 100G (1.1%, 7,725G)
SephDarkheart: 100G (1.1%, 26,440G)
