Final Bets: purple - 9 bets for 4,285G (18.4%, x4.44); brown - 15 bets for 19,039G (81.6%, x0.23)

purple bets:
upvla: 1,234G (28.8%, 33,978G)
BirbBrainsBot: 1,000G (23.3%, 177,462G)
getthemoneyz: 532G (12.4%, 502,232G)
Faplo: 475G (11.1%, 475G)
Treapvort: 388G (9.1%, 388G)
Maeveen: 356G (8.3%, 356G)
AllInBot: 100G (2.3%, 100G)
lijarkh: 100G (2.3%, 4,746G)
WireLord: 100G (2.3%, 2,193G)

brown bets:
skysa250: 10,000G (52.5%, 26,087G)
HaplessOne: 3,333G (17.5%, 65,650G)
sinnyil2: 1,200G (6.3%, 53,805G)
datadrivenbot: 904G (4.7%, 4,009G)
mirapoix: 612G (3.2%, 612G)
rocl: 500G (2.6%, 68,667G)
DeathTaxesAndAnime: 500G (2.6%, 3,023G)
Anomandaris__: 500G (2.6%, 9,385G)
HASTERIOUS: 348G (1.8%, 348G)
NoNotBees: 268G (1.4%, 5,512G)
OrgasmicToast: 250G (1.3%, 521G)
jhazor: 224G (1.2%, 224G)
Primeval_33: 200G (1.1%, 2,990G)
Tithonus: 100G (0.5%, 11,385G)
ungabunga_bot: 100G (0.5%, 140,053G)
