Final Bets: red - 11 bets for 7,360G (49.2%, x1.03); blue - 7 bets for 7,600G (50.8%, x0.97)

red bets:
NovaKnight21: 1,666G (22.6%, 1,666G)
superdevon1: 1,665G (22.6%, 41,637G)
DeathTaxesAndAnime: 1,027G (14.0%, 1,027G)
amiture: 1,000G (13.6%, 3,471G)
douchetron: 600G (8.2%, 600G)
AllInBot: 590G (8.0%, 590G)
gorgewall: 201G (2.7%, 1,906G)
datadrivenbot: 200G (2.7%, 50,402G)
shannahan45: 200G (2.7%, 1,569G)
PantherIscariot: 111G (1.5%, 3,429G)
Firesheath: 100G (1.4%, 24,173G)

blue bets:
ko2q: 2,360G (31.1%, 2,360G)
Kronikle: 2,000G (26.3%, 9,421G)
BirbBrainsBot: 1,000G (13.2%, 22,636G)
josephiroth_143: 1,000G (13.2%, 5,257G)
getthemoneyz: 484G (6.4%, 1,544,654G)
DHaveWord: 456G (6.0%, 2,175G)
DesertWooder: 300G (3.9%, 2,096G)
