Final Bets: white - 11 bets for 5,991G (30.2%, x2.31); brown - 13 bets for 13,832G (69.8%, x0.43)

white bets:
Evewho: 2,000G (33.4%, 62,642G)
Mesmaster: 1,051G (17.5%, 2,102G)
b0lt: 1,000G (16.7%, 30,422G)
Laserman1000: 503G (8.4%, 10,103G)
superdevon1: 384G (6.4%, 3,232G)
Demon_Lord_Josh: 248G (4.1%, 248G)
gorgewall: 201G (3.4%, 12,421G)
datadrivenbot: 200G (3.3%, 85,720G)
chaosdesigned: 200G (3.3%, 4,119G)
squideater_: 104G (1.7%, 104G)
TheBrett: 100G (1.7%, 30,988G)

brown bets:
YowaneHaku: 2,459G (17.8%, 2,459G)
Runeseeker22: 2,251G (16.3%, 45,031G)
CorpusCav: 2,000G (14.5%, 114,268G)
Mushufasa_: 1,234G (8.9%, 50,321G)
DeathTaxesAndAnime: 1,111G (8.0%, 26,888G)
BirbBrainsBot: 1,000G (7.2%, 65,058G)
Lionhermit: 1,000G (7.2%, 3,549G)
HaplessOne: 555G (4.0%, 5,488G)
shs_: 500G (3.6%, 17,376G)
tripaplex: 500G (3.6%, 9,730G)
AllInBot: 460G (3.3%, 460G)
lowlf: 408G (2.9%, 408G)
getthemoneyz: 354G (2.6%, 2,218,439G)
