Final Bets: purple - 14 bets for 7,728G (39.1%, x1.56); brown - 11 bets for 12,053G (60.9%, x0.64)

purple bets:
kai_shee: 1,001G (13.0%, 139,117G)
Bryon_W: 1,000G (12.9%, 10,386G)
ForagerCats: 1,000G (12.9%, 48,529G)
ericzubat: 942G (12.2%, 942G)
BirbBrainsBot: 879G (11.4%, 36,161G)
TheMurkGnome: 527G (6.8%, 17,391G)
nifboy: 454G (5.9%, 9,088G)
Sn0bb: 439G (5.7%, 439G)
ShintaroNayaka: 400G (5.2%, 19,940G)
Lanshaft: 344G (4.5%, 2,504G)
Anarbor13: 300G (3.9%, 1,100G)
getthemoneyz: 242G (3.1%, 523,436G)
FriendSquirrel: 100G (1.3%, 26,376G)
FoeSquirrel: 100G (1.3%, 2,551G)

brown bets:
Zachara: 2,500G (20.7%, 70,000G)
sinnyil2: 2,222G (18.4%, 88,115G)
JackOnFire1: 2,035G (16.9%, 4,070G)
coralreeferz: 1,750G (14.5%, 12,652G)
TheChainNerd: 1,063G (8.8%, 1,063G)
LDSkinny: 1,000G (8.3%, 6,094G)
waterwatereverywhere: 591G (4.9%, 591G)
ungabunga_bot: 591G (4.9%, 183,194G)
ZephyrTempest: 101G (0.8%, 164,393G)
AllInBot: 100G (0.8%, 100G)
mexskacin: 100G (0.8%, 5,598G)
