Final Bets: blue - 17 bets for 9,605G (62.4%, x0.60); yellow - 15 bets for 5,776G (37.6%, x1.66)

blue bets:
Grimmace45: 1,319G (13.7%, 26,385G)
sinnyil2: 1,200G (12.5%, 50,117G)
Aldrammech: 1,000G (10.4%, 8,886G)
NicoSavoy: 1,000G (10.4%, 23,884G)
maakur_: 685G (7.1%, 685G)
ungabunga_bot: 598G (6.2%, 485,279G)
Lordminsc: 596G (6.2%, 596G)
OmnibotGamma: 500G (5.2%, 21,054G)
AUrato: 500G (5.2%, 3,277G)
Mudrockk: 500G (5.2%, 2,805G)
luminarii: 500G (5.2%, 13,880G)
roofiepops: 444G (4.6%, 11,847G)
guering: 373G (3.9%, 373G)
jtrap666: 100G (1.0%, 100G)
rjA0zcOQ96: 100G (1.0%, 10,873G)
BlackfyreRoy: 100G (1.0%, 3,169G)
getthemoneyz: 90G (0.9%, 673,899G)

yellow bets:
metagameface: 1,000G (17.3%, 3,584G)
Zbgs: 1,000G (17.3%, 68,109G)
BirbBrainsBot: 728G (12.6%, 27,974G)
mpghappiness: 521G (9.0%, 521G)
HaateXIII: 420G (7.3%, 1,220G)
vorap: 400G (6.9%, 46,801G)
fenaen: 384G (6.6%, 384G)
nifboy: 332G (5.7%, 332G)
SQUiDSQUARKLIN: 300G (5.2%, 300G)
Vultuous: 150G (2.6%, 3,070G)
thethorndog1: 141G (2.4%, 141G)
7Cerulean7: 100G (1.7%, 16,415G)
RunicMagus: 100G (1.7%, 47,237G)
JesterInsultsTheWorld: 100G (1.7%, 1,000G)
datadrivenbot: 100G (1.7%, 15,557G)
