Final Bets: purple - 14 bets for 9,644G (33.6%, x1.98); brown - 18 bets for 19,091G (66.4%, x0.51)

purple bets:
Virilikus: 2,000G (20.7%, 184,970G)
VolgraTheMoose: 1,379G (14.3%, 1,379G)
ColetteMSLP: 1,000G (10.4%, 26,941G)
ko2q: 1,000G (10.4%, 29,344G)
amiture: 1,000G (10.4%, 34,176G)
Aldrammech: 799G (8.3%, 799G)
AllInBot: 583G (6.0%, 583G)
Lanshaft: 560G (5.8%, 13,816G)
blorpy_: 451G (4.7%, 5,640G)
getthemoneyz: 422G (4.4%, 1,515,216G)
sinnyil2: 150G (1.6%, 1,828G)
ANFz: 100G (1.0%, 57,747G)
Firesheath: 100G (1.0%, 30,406G)
Lumberinjack: 100G (1.0%, 1,271G)

brown bets:
reinoe: 5,000G (26.2%, 56,401G)
NIghtdew14: 2,500G (13.1%, 6,292G)
Zeroroute: 2,199G (11.5%, 4,922G)
SkylerBunny: 2,000G (10.5%, 213,418G)
latebit: 1,704G (8.9%, 1,704G)
Rislyeu: 1,000G (5.2%, 3,228G)
BirbBrainsBot: 1,000G (5.2%, 51,780G)
gorgewall: 604G (3.2%, 604G)
douchetron: 500G (2.6%, 21,283G)
maximumcrit: 500G (2.6%, 20,135G)
superdevon1: 482G (2.5%, 48,201G)
RunicMagus: 472G (2.5%, 472G)
amsans1247: 300G (1.6%, 1,537G)
Aeriyah: 208G (1.1%, 208G)
UnderOneLight: 200G (1.0%, 608G)
datadrivenbot: 200G (1.0%, 51,052G)
daveb_: 122G (0.6%, 4,672G)
BaronHaynes: 100G (0.5%, 8,538G)
