Final Bets: green - 17 bets for 19,013G (38.0%, x1.63); yellow - 11 bets for 30,964G (62.0%, x0.61)

green bets:
SkylerBunny: 7,000G (36.8%, 310,389G)
DeathTaxesAndAnime: 3,280G (17.3%, 6,433G)
LanseDM: 1,500G (7.9%, 4,638G)
getthemoneyz: 1,000G (5.3%, 1,558,732G)
BirbBrainsBot: 1,000G (5.3%, 92,447G)
Amorial: 852G (4.5%, 852G)
Forkmore: 811G (4.3%, 811G)
dogsandcatsand: 707G (3.7%, 707G)
douchetron: 600G (3.2%, 600G)
Theseawolf1: 500G (2.6%, 4,623G)
Miku_Shikhu: 456G (2.4%, 456G)
vorap: 402G (2.1%, 402G)
Rytor: 297G (1.6%, 1,489G)
AllInBot: 200G (1.1%, 200G)
InOzWeTrust: 196G (1.0%, 196G)
Pbjellytimez: 112G (0.6%, 112G)
MinBetBot: 100G (0.5%, 17,255G)

yellow bets:
ko2q: 14,252G (46.0%, 28,504G)
J2DaBibbles: 9,973G (32.2%, 19,555G)
sinnyil2: 1,312G (4.2%, 1,312G)
Laserman1000: 1,268G (4.1%, 1,268G)
reinoe: 1,000G (3.2%, 133,918G)
ColetteMSLP: 1,000G (3.2%, 30,562G)
NWOW_44: 1,000G (3.2%, 19,182G)
DustBirdEX: 564G (1.8%, 564G)
resjudicata3: 368G (1.2%, 368G)
foxfaeez: 127G (0.4%, 1,252G)
Brainstew29: 100G (0.3%, 38,268G)
