Final Bets: green - 8 bets for 8,466G (46.8%, x1.13); black - 14 bets for 9,608G (53.2%, x0.88)

green bets:
TheMM42: 3,020G (35.7%, 3,020G)
Lord_Burrah: 2,500G (29.5%, 90,500G)
TheChainNerd: 1,500G (17.7%, 11,027G)
serperemagus: 526G (6.2%, 526G)
just_here2: 500G (5.9%, 6,968G)
outer_monologue: 200G (2.4%, 2,034G)
alterworlds: 120G (1.4%, 120G)
Mill_Matter: 100G (1.2%, 709G)

black bets:
skillomono: 2,249G (23.4%, 2,249G)
DavenIII: 2,000G (20.8%, 9,006G)
Ulster_: 1,250G (13.0%, 4,736G)
BirbBrainsBot: 1,000G (10.4%, 25,844G)
ruleof5: 861G (9.0%, 861G)
pplvee1: 606G (6.3%, 606G)
Bryon_W: 460G (4.8%, 460G)
ShintaroNayaka: 400G (4.2%, 3,986G)
Flameatron: 200G (2.1%, 5,987G)
getthemoneyz: 182G (1.9%, 811,029G)
E_Ballard: 100G (1.0%, 5,284G)
lastly: 100G (1.0%, 13,842G)
datadrivenbot: 100G (1.0%, 32,858G)
CosmicTactician: 100G (1.0%, 16,511G)
