Final Bets: black - 8 bets for 5,289G (33.2%, x2.01); champion - 17 bets for 10,628G (66.8%, x0.50)

black bets:
ShintaroNayaka: 1,922G (36.3%, 4,338G)
TheChainNerd: 1,500G (28.4%, 9,527G)
BirbBrainsBot: 1,000G (18.9%, 26,725G)
NBD_Rab: 267G (5.0%, 267G)
outer_monologue: 200G (3.8%, 1,834G)
Mill_Matter: 200G (3.8%, 599G)
E_Ballard: 100G (1.9%, 5,376G)
lastly: 100G (1.9%, 13,930G)

champion bets:
Zachara: 2,000G (18.8%, 102,000G)
Lord_Burrah: 2,000G (18.8%, 88,000G)
RaIshtar: 1,500G (14.1%, 3,898G)
pplvee1: 1,140G (10.7%, 1,140G)
volgrathemoose: 1,001G (9.4%, 14,346G)
DudeMonkey77: 500G (4.7%, 3,897G)
getthemoneyz: 422G (4.0%, 811,189G)
TheMM42: 408G (3.8%, 408G)
Belkra: 309G (2.9%, 619G)
BlackFireUK: 300G (2.8%, 4,518G)
zepharoth89: 292G (2.7%, 5,843G)
Flameatron: 200G (1.9%, 6,163G)
laserbeaming: 136G (1.3%, 136G)
alterworlds: 120G (1.1%, 120G)
ruleof5: 100G (0.9%, 1,620G)
RunicMagus: 100G (0.9%, 30,838G)
datadrivenbot: 100G (0.9%, 32,946G)
