Final Bets: red - 22 bets for 15,736G (65.4%, x0.53); blue - 18 bets for 8,321G (34.6%, x1.89)

red bets:
DeathTaxesAndAnime: 4,048G (25.7%, 4,048G)
catfashions: 2,000G (12.7%, 40,566G)
Eyepoor_: 1,002G (6.4%, 1,002G)
BirbBrainsBot: 1,000G (6.4%, 125,437G)
JumbocactuarX27: 1,000G (6.4%, 22,134G)
Lionhermit: 1,000G (6.4%, 45,035G)
Grimmace45: 926G (5.9%, 1,852G)
ungabunga_bot: 875G (5.6%, 430,106G)
coralreeferz: 750G (4.8%, 17,064G)
proper__noun__: 599G (3.8%, 599G)
EnemyController: 500G (3.2%, 212,328G)
maakur_: 400G (2.5%, 400G)
LivingHitokiri: 312G (2.0%, 312G)
CorpusCav: 311G (2.0%, 3,927G)
oldmanbody: 204G (1.3%, 204G)
amiture: 200G (1.3%, 4,893G)
ZephyrTempest: 133G (0.8%, 2,664G)
FNCardascia_: 126G (0.8%, 252G)
CustomGameMaster: 100G (0.6%, 100G)
datadrivenbot: 100G (0.6%, 13,785G)
Faplo: 100G (0.6%, 570G)
tmo50x: 50G (0.3%, 8,396G)

blue bets:
killth3kid: 2,000G (24.0%, 57,100G)
nifboy: 733G (8.8%, 733G)
Nickyfive: 689G (8.3%, 1,379G)
HaateXIII: 612G (7.4%, 612G)
Laserman1000: 600G (7.2%, 3,700G)
roqqqpsi: 516G (6.2%, 516G)
joewcarson: 500G (6.0%, 4,087G)
SQUiDSQUARKLIN: 500G (6.0%, 718G)
TheChainNerd: 448G (5.4%, 448G)
NicoSavoy: 419G (5.0%, 419G)
Cryptopsy70: 404G (4.9%, 8,090G)
bahamutlagooon: 200G (2.4%, 1,660G)
turquoise_mage: 200G (2.4%, 538G)
Pochitchi: 100G (1.2%, 7,018G)
mannequ1n: 100G (1.2%, 3,392G)
Sungazes: 100G (1.2%, 625G)
DixTrix: 100G (1.2%, 1,212G)
CosmicTactician: 100G (1.2%, 18,066G)
