Final Bets: white - 11 bets for 6,513G (37.5%, x1.66); black - 16 bets for 10,844G (62.5%, x0.60)

white bets:
OneHundredFists: 1,997G (30.7%, 1,997G)
gorgewall: 1,021G (15.7%, 1,021G)
thunderducker: 800G (12.3%, 19,367G)
krombobreaker: 700G (10.7%, 7,906G)
khelor_: 500G (7.7%, 1,438G)
BirbBrainsBot: 424G (6.5%, 47,387G)
JumbocactuarX27: 400G (6.1%, 10,932G)
getthemoneyz: 332G (5.1%, 2,038,369G)
killabandaid: 139G (2.1%, 139G)
Firesheath: 100G (1.5%, 2,112G)
hojimitsu: 100G (1.5%, 100G)

black bets:
Mesmaster: 2,000G (18.4%, 63,294G)
resjudicata3: 1,244G (11.5%, 1,244G)
silentkaster: 1,200G (11.1%, 1,200G)
latebit: 1,111G (10.2%, 17,099G)
Shalloween: 1,000G (9.2%, 18,417G)
AllInBot: 845G (7.8%, 845G)
seppu777: 777G (7.2%, 14,473G)
reddwind_: 460G (4.2%, 8,104G)
scsuperstar: 444G (4.1%, 444G)
douchetron: 424G (3.9%, 424G)
ValensEXP_: 372G (3.4%, 1,216G)
ColetteMSLP: 300G (2.8%, 4,360G)
akash7: 217G (2.0%, 13,817G)
datadrivenbot: 200G (1.8%, 72,834G)
chrisk103: 139G (1.3%, 139G)
NicoSavoy: 111G (1.0%, 127,490G)
