Final Bets: green - 6 bets for 3,518G (27.9%, x2.59); yellow - 13 bets for 9,109G (72.1%, x0.39)

green bets:
Error72: 1,234G (35.1%, 19,703G)
BirbBrainsBot: 1,000G (28.4%, 68,467G)
killth3kid: 500G (14.2%, 11,494G)
getthemoneyz: 336G (9.6%, 1,077,480G)
alterworlds: 248G (7.0%, 248G)
Forkmore: 200G (5.7%, 200G)

yellow bets:
Rytor: 3,873G (42.5%, 3,873G)
VolgraTheMoose: 1,001G (11.0%, 11,017G)
CosmicTactician: 1,000G (11.0%, 19,668G)
E_Ballard: 672G (7.4%, 672G)
prince_rogers_nelson_: 600G (6.6%, 600G)
Laserman1000: 500G (5.5%, 10,300G)
GatsbysGhost: 500G (5.5%, 4,571G)
Chronolynx42: 250G (2.7%, 45,721G)
cactus_tony_: 212G (2.3%, 212G)
gorgewall: 201G (2.2%, 25,578G)
letdowncity: 100G (1.1%, 9,865G)
Blastinus: 100G (1.1%, 688G)
datadrivenbot: 100G (1.1%, 46,723G)
