Final Bets: black - 14 bets for 8,256G (49.6%, x1.02); purple - 11 bets for 8,404G (50.4%, x0.98)

black bets:
sinnyil2: 1,844G (22.3%, 3,689G)
GladiatorLupe: 1,000G (12.1%, 10,562G)
BirbBrainsBot: 1,000G (12.1%, 67,768G)
Error72: 1,000G (12.1%, 18,469G)
serperemagus: 840G (10.2%, 840G)
alterworlds: 667G (8.1%, 667G)
Laserman1000: 593G (7.2%, 10,493G)
Rurk: 500G (6.1%, 9,499G)
CosmicTactician: 200G (2.4%, 20,496G)
Evewho: 200G (2.4%, 1,622G)
RampagingRobot: 112G (1.4%, 112G)
maakur_: 100G (1.2%, 75,560G)
nifboy: 100G (1.2%, 2,191G)
datadrivenbot: 100G (1.2%, 46,614G)

purple bets:
roqqqpsi: 3,521G (41.9%, 32,014G)
dogsandcatsand: 1,000G (11.9%, 19,500G)
prince_rogers_nelson_: 914G (10.9%, 914G)
JethroThrul: 770G (9.2%, 770G)
Chronolynx42: 500G (5.9%, 45,818G)
NIghtdew14: 500G (5.9%, 5,535G)
Zagorsek: 320G (3.8%, 320G)
getthemoneyz: 278G (3.3%, 1,077,422G)
gorgewall: 201G (2.4%, 25,714G)
Forkmore: 200G (2.4%, 200G)
Meta_Five: 200G (2.4%, 36,515G)
