Final Bets: purple - 32 bets for 104,927G (22.8%, x3.39); brown - 11 bets for 355,992G (77.2%, x0.29)

purple bets:
sinnyil2: 23,231G (22.1%, 23,231G)
Aldrammech: 22,116G (21.1%, 22,116G)
HaateXIII: 15,000G (14.3%, 58,994G)
Baron_von_Scrub: 10,000G (9.5%, 31,189G)
DonCardenio: 7,103G (6.8%, 7,103G)
nedryerson01: 5,872G (5.6%, 5,872G)
pandasforsale: 2,222G (2.1%, 18,333G)
alrightbye: 2,063G (2.0%, 41,266G)
Evewho: 2,000G (1.9%, 17,193G)
Realitydown: 1,938G (1.8%, 1,938G)
vorap: 1,600G (1.5%, 11,262G)
TheRylander: 1,428G (1.4%, 1,428G)
mizukouken: 1,000G (1.0%, 6,699G)
ungabunga_bot: 1,000G (1.0%, 262,903G)
BirbBrainsBot: 1,000G (1.0%, 187,062G)
Lionhermit: 1,000G (1.0%, 20,329G)
Mtueni: 1,000G (1.0%, 291,893G)
kai_shee: 1,000G (1.0%, 4,277G)
skuldar: 714G (0.7%, 714G)
noheropage: 637G (0.6%, 637G)
EnemyController: 500G (0.5%, 128,744G)
Anethum: 412G (0.4%, 412G)
DeathTaxesAndAnime: 300G (0.3%, 5,385G)
Squatting_Bear: 271G (0.3%, 271G)
placeholdercats: 267G (0.3%, 267G)
Belivalan: 253G (0.2%, 253G)
Jahshine: 228G (0.2%, 228G)
getthemoneyz: 216G (0.2%, 584,127G)
mesmaster: 200G (0.2%, 1,904G)
LivingHitokiri: 144G (0.1%, 144G)
tanarusasamiya: 112G (0.1%, 112G)
datadrivenbot: 100G (0.1%, 2,040G)

brown bets:
ZephyrTempest: 351,802G (98.8%, 351,802G)
Pie108: 2,000G (0.6%, 116,417G)
Breakdown777: 500G (0.1%, 25,430G)
ShintaroNayaka: 400G (0.1%, 17,261G)
nifboy: 312G (0.1%, 7,821G)
museofdoom: 208G (0.1%, 208G)
Jaritras: 200G (0.1%, 494G)
ThePineappleSalesman: 200G (0.1%, 19,054G)
Sovattaro: 169G (0.0%, 169G)
DrAntiSocial: 101G (0.0%, 20,972G)
maakur_: 100G (0.0%, 111,751G)
