Final Bets: purple - 15 bets for 6,796G (28.8%, x2.47); brown - 19 bets for 16,767G (71.2%, x0.41)

purple bets:
toka222: 1,500G (22.1%, 79,686G)
DeathTaxesAndAnime: 992G (14.6%, 992G)
killth3kid: 700G (10.3%, 98,997G)
getthemoneyz: 562G (8.3%, 1,276,864G)
CorpusCav: 539G (7.9%, 539G)
Firesheath: 478G (7.0%, 478G)
brokenknight201: 400G (5.9%, 2,002G)
ArashiKurobara: 324G (4.8%, 3,043G)
randgridr: 304G (4.5%, 304G)
furrytomahawkk: 232G (3.4%, 232G)
datadrivenbot: 200G (2.9%, 57,383G)
Shalloween: 200G (2.9%, 40,715G)
TasisSai: 153G (2.3%, 300G)
skipsandwiches: 112G (1.6%, 112G)
g00gly: 100G (1.5%, 952G)

brown bets:
TheChainNerd: 2,933G (17.5%, 29,330G)
Zagorsek: 2,100G (12.5%, 2,100G)
NicoSavoy: 2,000G (11.9%, 188,268G)
red__lancer: 2,000G (11.9%, 104,534G)
BlueAbs: 1,214G (7.2%, 2,381G)
BirbBrainsBot: 1,000G (6.0%, 130,840G)
Rislyeu: 952G (5.7%, 952G)
loveyouallfriends: 634G (3.8%, 1,269G)
upvla: 600G (3.6%, 600G)
Nizaha: 540G (3.2%, 540G)
joewcarson: 500G (3.0%, 29,200G)
Chanar_ejin: 500G (3.0%, 2,274G)
superdevon1: 444G (2.6%, 444G)
letdowncity: 412G (2.5%, 8,991G)
KyleWonToLiveForever: 380G (2.3%, 380G)
CapnChaos12: 300G (1.8%, 6,786G)
oldmanbody: 108G (0.6%, 108G)
turbn: 100G (0.6%, 3,681G)
raenrond: 50G (0.3%, 4,127G)
