Final Bets: red - 9 bets for 13,794G (60.3%, x0.66); blue - 16 bets for 9,077G (39.7%, x1.52)

red bets:
E_Ballard: 7,859G (57.0%, 7,859G)
Evewho: 2,704G (19.6%, 5,302G)
ko2q: 775G (5.6%, 775G)
BuffaloCrunch: 756G (5.5%, 756G)
roqqqpsi: 695G (5.0%, 695G)
gorgewall: 601G (4.4%, 3,222G)
Eyepoor_: 200G (1.4%, 2,161G)
HypeTraining: 104G (0.8%, 104G)
Grasshyren: 100G (0.7%, 100G)

blue bets:
SirCherish: 1,208G (13.3%, 1,208G)
Shakarak: 1,200G (13.2%, 20,440G)
itsadud: 1,064G (11.7%, 1,064G)
ungabunga_bot: 1,000G (11.0%, 431,811G)
BirbBrainsBot: 1,000G (11.0%, 135,765G)
theNGUYENNER: 671G (7.4%, 671G)
Lali_Lulelo: 592G (6.5%, 592G)
Dexef: 542G (6.0%, 542G)
Kyune: 498G (5.5%, 498G)
Cataphract116: 400G (4.4%, 15,023G)
HorusTaurus: 276G (3.0%, 276G)
cupholderr: 200G (2.2%, 21,163G)
CorpusCav: 126G (1.4%, 2,096G)
Chompie: 100G (1.1%, 6,854G)
datadrivenbot: 100G (1.1%, 13,534G)
foofermoofer: 100G (1.1%, 650G)
