Final Bets: white - 10 bets for 16,851G (61.9%, x0.61); purple - 11 bets for 10,353G (38.1%, x1.63)

white bets:
Mesmaster: 10,813G (64.2%, 10,813G)
gilgamensche: 1,667G (9.9%, 8,337G)
sinnyil2: 1,200G (7.1%, 170,788G)
Shalloween: 896G (5.3%, 896G)
lowlf: 560G (3.3%, 21,161G)
latebit: 512G (3.0%, 512G)
krombobreaker: 500G (3.0%, 1,639G)
Smashy: 328G (1.9%, 328G)
datadrivenbot: 200G (1.2%, 70,443G)
SnarkMage: 175G (1.0%, 586G)

purple bets:
NicoSavoy: 5,000G (48.3%, 115,154G)
AllInBot: 1,882G (18.2%, 1,882G)
BirbBrainsBot: 1,000G (9.7%, 139,833G)
DeathTaxesAndAnime: 804G (7.8%, 804G)
CorpusCav: 566G (5.5%, 3,574G)
ColetteMSLP: 300G (2.9%, 4,428G)
getthemoneyz: 256G (2.5%, 1,991,954G)
ShadowNinja25: 208G (2.0%, 208G)
J_MacC1991: 136G (1.3%, 136G)
gorgewall: 101G (1.0%, 9,159G)
nhammen: 100G (1.0%, 250,445G)
