Final Bets: black - 14 bets for 39,803G (83.3%, x0.20); purple - 12 bets for 7,958G (16.7%, x5.00)

black bets:
reinoe: 20,000G (50.2%, 90,074G)
gorgewall: 8,432G (21.2%, 8,432G)
Mesmaster: 4,000G (10.0%, 11,885G)
HaateXIII: 1,845G (4.6%, 1,845G)
VolgraTheMoose: 1,001G (2.5%, 67,809G)
Sairentozon7: 945G (2.4%, 945G)
BirbBrainsBot: 930G (2.3%, 4,918G)
Rytor: 724G (1.8%, 7,244G)
Zeroroute: 500G (1.3%, 500G)
dogsandcatsand: 416G (1.0%, 416G)
Treafa: 410G (1.0%, 410G)
Panushenko: 400G (1.0%, 5,487G)
Aldrammech: 100G (0.3%, 8,261G)
Error72: 100G (0.3%, 1,964G)

purple bets:
Thyrandaal: 5,000G (62.8%, 65,424G)
DustBirdEX: 660G (8.3%, 660G)
SkylerBunny: 556G (7.0%, 556G)
Smashy: 452G (5.7%, 9,423G)
rNdOrchestra: 252G (3.2%, 2,318G)
AllInBot: 227G (2.9%, 227G)
Chihuahua_Charity: 224G (2.8%, 224G)
datadrivenbot: 200G (2.5%, 65,987G)
richardserious: 200G (2.5%, 7,381G)
Absalom_20: 100G (1.3%, 436G)
roofiepops: 55G (0.7%, 2,117G)
getthemoneyz: 32G (0.4%, 1,732,626G)
