Final Bets: white - 7 bets for 4,391G (66.0%, x0.52); black - 4 bets for 2,267G (34.0%, x1.94)

white bets:
Mushufasa_: 1,234G (28.1%, 24,110G)
BirbBrainsBot: 1,000G (22.8%, 153,046G)
VolgraTheMoose: 960G (21.9%, 16,044G)
ValensEXP_: 480G (10.9%, 480G)
AllInBot: 317G (7.2%, 317G)
chaosdesigned: 200G (4.6%, 3,619G)
datadrivenbot: 200G (4.6%, 83,209G)

black bets:
DeathTaxesAndAnime: 1,541G (68.0%, 1,541G)
Rune339: 377G (16.6%, 3,777G)
Humble_Fabio: 333G (14.7%, 2,334G)
getthemoneyz: 16G (0.7%, 2,199,176G)
