Final Bets: blue - 6 bets for 3,962G (50.3%, x0.99); yellow - 6 bets for 3,910G (49.7%, x1.01)

blue bets:
ValensEXP_: 1,184G (29.9%, 1,184G)
BirbBrainsBot: 1,000G (25.2%, 153,513G)
getthemoneyz: 736G (18.6%, 2,199,841G)
upvla: 642G (16.2%, 642G)
Zachara: 200G (5.0%, 108,700G)
NicoSavoy: 200G (5.0%, 1,745G)

yellow bets:
Mushufasa_: 1,234G (31.6%, 21,642G)
DeathTaxesAndAnime: 1,131G (28.9%, 2,218G)
AllInBot: 493G (12.6%, 493G)
Humble_Fabio: 444G (11.4%, 3,630G)
HorusTaurus: 408G (10.4%, 408G)
datadrivenbot: 200G (5.1%, 82,809G)
