Final Bets: green - 10 bets for 5,370G (17.4%, x4.74); yellow - 28 bets for 25,458G (82.6%, x0.21)

green bets:
Creggers: 2,000G (37.2%, 8,226G)
amiture: 1,000G (18.6%, 10,307G)
red__lancer: 1,000G (18.6%, 116,063G)
Laserman1000: 900G (16.8%, 9,700G)
muffin_money: 150G (2.8%, 13,303G)
DragonLord_Carter: 100G (1.9%, 144G)
Tarheels218: 100G (1.9%, 244G)
PuzzleSecretary: 50G (0.9%, 943G)
THE_REAL_SEADOG: 50G (0.9%, 1,157G)
getthemoneyz: 20G (0.4%, 1,619,485G)

yellow bets:
DavenIII: 4,290G (16.9%, 8,580G)
pplvee1: 2,850G (11.2%, 2,850G)
toka222: 2,500G (9.8%, 88,190G)
regios91: 2,107G (8.3%, 2,107G)
dogsandcatsand: 1,862G (7.3%, 3,651G)
powergems: 1,718G (6.7%, 1,718G)
northkoreancleetus: 1,429G (5.6%, 1,429G)
BirbBrainsBot: 1,000G (3.9%, 94,172G)
Sairentozon7: 1,000G (3.9%, 54,351G)
nhammen: 1,000G (3.9%, 17,721G)
LDSkinny: 954G (3.7%, 954G)
Nizaha: 736G (2.9%, 8,766G)
joeSzaf: 500G (2.0%, 1,290G)
nekojin: 500G (2.0%, 13,793G)
Oreo_Pizza: 500G (2.0%, 50,224G)
WhiteTigress: 344G (1.4%, 344G)
latebit: 336G (1.3%, 39,742G)
holdenmagronik: 332G (1.3%, 1,939G)
Valgram: 234G (0.9%, 234G)
itskage: 203G (0.8%, 2,031G)
AllInBot: 200G (0.8%, 200G)
CosmicTactician: 200G (0.8%, 20,241G)
datadrivenbot: 200G (0.8%, 67,710G)
MonchoStrife: 124G (0.5%, 124G)
koeeh: 104G (0.4%, 104G)
captainmilestw: 100G (0.4%, 394G)
douchetron: 100G (0.4%, 14,714G)
demi_fiend_: 35G (0.1%, 237G)
