Final Bets: green - 16 bets for 8,140G (71.1%, x0.41); yellow - 5 bets for 3,313G (28.9%, x2.46)

green bets:
Evewho: 2,226G (27.3%, 4,366G)
Dexsana: 1,696G (20.8%, 1,696G)
BirbBrainsBot: 1,000G (12.3%, 138,161G)
ungabunga_bot: 782G (9.6%, 434,496G)
mivvim: 300G (3.7%, 5,391G)
CorpusCav: 300G (3.7%, 2,784G)
mikesk1: 300G (3.7%, 2,101G)
Kyune: 284G (3.5%, 284G)
HorusTaurus: 276G (3.4%, 276G)
cupholderr: 200G (2.5%, 18,959G)
Practice_Pad: 200G (2.5%, 1,769G)
getthemoneyz: 152G (1.9%, 650,301G)
theNGUYENNER: 120G (1.5%, 120G)
SirCherish: 104G (1.3%, 104G)
Arkreaver: 100G (1.2%, 10,824G)
datadrivenbot: 100G (1.2%, 13,105G)

yellow bets:
reinoe: 1,000G (30.2%, 11,009G)
ko2q: 754G (22.8%, 754G)
HawkSick: 666G (20.1%, 4,925G)
Lali_Lulelo: 592G (17.9%, 592G)
gorgewall: 301G (9.1%, 4,450G)
