Final Bets: blue - 10 bets for 5,193G (52.1%, x0.92); green - 11 bets for 4,783G (47.9%, x1.09)

blue bets:
HorusTaurus: 1,888G (36.4%, 1,888G)
SkyridgeZero: 1,000G (19.3%, 15,932G)
gorgewall: 501G (9.6%, 4,275G)
vorap: 500G (9.6%, 32,822G)
foofermoofer: 500G (9.6%, 1,000G)
Dexsana: 404G (7.8%, 404G)
Practice_Pad: 100G (1.9%, 2,243G)
CorpusCav: 100G (1.9%, 2,507G)
ungabunga_bot: 100G (1.9%, 433,897G)
datadrivenbot: 100G (1.9%, 13,442G)

green bets:
Evewho: 1,771G (37.0%, 3,473G)
BirbBrainsBot: 1,000G (20.9%, 136,568G)
Who_lio42: 500G (10.5%, 14,151G)
ShintaroNayaka: 400G (8.4%, 18,881G)
mikesk1: 300G (6.3%, 2,023G)
cupholderr: 200G (4.2%, 17,920G)
getthemoneyz: 188G (3.9%, 649,717G)
theNGUYENNER: 120G (2.5%, 120G)
SirCherish: 104G (2.2%, 104G)
ko2q: 100G (2.1%, 1,712G)
Eyepoor_: 100G (2.1%, 2,296G)
