Final Bets: black - 11 bets for 3,475G (31.1%, x2.22); purple - 9 bets for 7,702G (68.9%, x0.45)

black bets:
CT_5_Holy: 1,061G (30.5%, 1,061G)
cupholderr: 500G (14.4%, 18,137G)
Dexsana: 404G (11.6%, 404G)
theNGUYENNER: 250G (7.2%, 250G)
mikesk1: 250G (7.2%, 2,349G)
Who_lio42: 250G (7.2%, 14,694G)
SirCherish: 221G (6.4%, 221G)
itsadud: 189G (5.4%, 947G)
Miyokari: 150G (4.3%, 2,055G)
ko2q: 100G (2.9%, 1,821G)
datadrivenbot: 100G (2.9%, 13,342G)

purple bets:
leakimiko: 3,477G (45.1%, 13,910G)
ungabunga_bot: 1,000G (13.0%, 433,797G)
BirbBrainsBot: 1,000G (13.0%, 137,654G)
Lali_Lulelo: 796G (10.3%, 796G)
gorgewall: 501G (6.5%, 3,774G)
vorap: 300G (3.9%, 32,322G)
Eyepoor_: 300G (3.9%, 2,405G)
HorusTaurus: 276G (3.6%, 276G)
getthemoneyz: 52G (0.7%, 649,921G)
