Final Bets: black - 11 bets for 3,345G (10.0%, x8.99); champion - 12 bets for 30,073G (90.0%, x0.11)

black bets:
Lali_Lulelo: 592G (17.7%, 592G)
CT_5_Holy: 500G (14.9%, 3,553G)
ccordc: 500G (14.9%, 1,477G)
Triyaden: 350G (10.5%, 2,350G)
itsadud: 302G (9.0%, 1,366G)
CorpusCav: 300G (9.0%, 2,696G)
gorgewall: 201G (6.0%, 3,623G)
Cataphract116: 200G (6.0%, 15,423G)
foofermoofer: 200G (6.0%, 850G)
datadrivenbot: 100G (3.0%, 13,634G)
Chompie: 100G (3.0%, 7,254G)

champion bets:
cupholderr: 19,045G (63.3%, 19,045G)
Evewho: 2,751G (9.1%, 5,396G)
Miyokari: 2,087G (6.9%, 2,087G)
Who_lio42: 2,000G (6.7%, 15,598G)
BirbBrainsBot: 1,000G (3.3%, 135,654G)
theNGUYENNER: 604G (2.0%, 604G)
ko2q: 556G (1.8%, 1,113G)
Eyepoor_: 500G (1.7%, 2,105G)
mikesk1: 500G (1.7%, 2,703G)
getthemoneyz: 460G (1.5%, 649,677G)
Kyune: 448G (1.5%, 448G)
ungabunga_bot: 122G (0.4%, 431,797G)
