Final Bets: white - 12 bets for 6,202G (90.6%, x0.10); purple - 4 bets for 644G (9.4%, x9.63)

white bets:
bruubarg: 1,000G (16.1%, 10,000G)
Ogema_theDream: 871G (14.0%, 871G)
Neech: 817G (13.2%, 817G)
dogsandcatsand: 616G (9.9%, 44,968G)
Raixelol: 600G (9.7%, 17,612G)
LivingHitokiri: 592G (9.5%, 592G)
krombobreaker: 500G (8.1%, 6,488G)
threedope: 500G (8.1%, 1,105G)
BirbBrainsBot: 206G (3.3%, 150,041G)
DHaveWord: 200G (3.2%, 6,881G)
datadrivenbot: 200G (3.2%, 60,544G)
BartTradingCompany: 100G (1.6%, 6,944G)

purple bets:
ValensEXP_: 300G (46.6%, 6,265G)
getthemoneyz: 140G (21.7%, 1,944,380G)
gingerfoo69: 104G (16.1%, 104G)
AllInBot: 100G (15.5%, 100G)
