Final Bets: blue - 20 bets for 22,289G (67.4%, x0.48); purple - 16 bets for 10,784G (32.6%, x2.07)

blue bets:
madming25: 6,592G (29.6%, 6,592G)
Dothan89: 3,000G (13.5%, 39,023G)
neerrm: 2,178G (9.8%, 2,178G)
fenaen: 2,000G (9.0%, 39,147G)
Sans_from_Snowdin: 1,542G (6.9%, 1,542G)
EnemyController: 1,500G (6.7%, 66,872G)
LDSkinny: 1,000G (4.5%, 4,505G)
itsonlyspencer: 1,000G (4.5%, 7,953G)
JumbocactuarX27: 872G (3.9%, 872G)
VySaika: 500G (2.2%, 13,548G)
Cryptopsy70: 368G (1.7%, 24,122G)
0utlier: 350G (1.6%, 3,036G)
nifboy: 273G (1.2%, 6,832G)
SWATb1gdog: 252G (1.1%, 252G)
DrAntiSocial: 200G (0.9%, 17,852G)
rico_flex: 200G (0.9%, 15,950G)
ungabunga_bot: 161G (0.7%, 206,636G)
ZephyrTempest: 101G (0.5%, 167,647G)
FriendSquirrel: 100G (0.4%, 34,430G)
datadrivenbot: 100G (0.4%, 1,862G)

purple bets:
IndecisiveNinja: 2,000G (18.5%, 96,915G)
kai_shee: 2,000G (18.5%, 143,736G)
AllInBot: 1,336G (12.4%, 1,336G)
Pie108: 1,000G (9.3%, 60,321G)
BirbBrainsBot: 1,000G (9.3%, 88,949G)
reinoe: 604G (5.6%, 604G)
Sitiran: 501G (4.6%, 9,350G)
TheChainNerd: 500G (4.6%, 2,791G)
braumbles: 500G (4.6%, 50,672G)
catfashions: 484G (4.5%, 484G)
CorpusCav: 452G (4.2%, 12,856G)
Tougou: 100G (0.9%, 1,319G)
4shcrows: 100G (0.9%, 100G)
Bongomon7: 100G (0.9%, 2,650G)
portmanteur: 69G (0.6%, 1,382G)
getthemoneyz: 38G (0.4%, 542,067G)
