Final Bets: red - 22 bets for 11,083G (26.5%, x2.77); blue - 38 bets for 30,754G (73.5%, x0.36)

red bets:
lijarkh: 2,724G (24.6%, 5,448G)
DeathTaxesAndAnime: 1,500G (13.5%, 2,943G)
RunicMagus: 1,200G (10.8%, 17,277G)
Laserman1000: 932G (8.4%, 8,232G)
Aldrammech: 924G (8.3%, 9,247G)
DustBirdEX: 600G (5.4%, 1,206G)
I_nod_my_head_when_I_lose: 600G (5.4%, 13,521G)
alrightbye: 556G (5.0%, 556G)
SkylerBunny: 348G (3.1%, 348G)
Evewho: 276G (2.5%, 276G)
urieltheflameofgod: 250G (2.3%, 4,109G)
Tithonus: 200G (1.8%, 13,390G)
KasugaiRoastedPeas: 200G (1.8%, 13,020G)
AllInBot: 100G (0.9%, 100G)
ApplesauceBoss: 100G (0.9%, 3,605G)
Lordminsc: 100G (0.9%, 11,790G)
electric_glass: 100G (0.9%, 775G)
rjA0zcOQ96: 100G (0.9%, 5,577G)
BlinkFS: 100G (0.9%, 100G)
SeedSC: 100G (0.9%, 169,922G)
getthemoneyz: 72G (0.6%, 442,272G)
daveb_: 1G (0.0%, 1,231G)

blue bets:
reinoe: 3,627G (11.8%, 3,627G)
leakimiko: 2,833G (9.2%, 35,420G)
fenixcrest: 2,107G (6.9%, 2,107G)
kingchadking: 1,949G (6.3%, 1,949G)
BenYuPoker: 1,894G (6.2%, 3,788G)
LuckyLuckLuc2: 1,299G (4.2%, 26,873G)
jethrothrul: 1,268G (4.1%, 1,268G)
Shalloween: 1,244G (4.0%, 1,244G)
upvla: 1,219G (4.0%, 30,331G)
HASTERIOUS: 1,132G (3.7%, 1,132G)
HaateXIII: 1,043G (3.4%, 1,043G)
kai_shee: 1,001G (3.3%, 101,518G)
BirbBrainsBot: 1,000G (3.3%, 274,569G)
OneHundredFists: 1,000G (3.3%, 1,792G)
HaplessOne: 1,000G (3.3%, 117,372G)
Maldoree: 849G (2.8%, 849G)
gooseyourself: 822G (2.7%, 1,613G)
0utlier: 690G (2.2%, 2,657G)
GingerDynomite: 500G (1.6%, 4,345G)
b0shii: 447G (1.5%, 447G)
ko2q: 393G (1.3%, 393G)
Slowbrofist: 355G (1.2%, 355G)
Maeveen: 350G (1.1%, 350G)
ZephyrTempest: 320G (1.0%, 26,560G)
Arku_E: 312G (1.0%, 312G)
CapnChaos12: 300G (1.0%, 4,648G)
ungabunga_bot: 240G (0.8%, 70,380G)
JIDkomu: 216G (0.7%, 432G)
NewbGaming: 204G (0.7%, 204G)
Kellios11: 200G (0.7%, 4,704G)
Dustmasc: 200G (0.7%, 419G)
rico_flex: 150G (0.5%, 3,144G)
InOzWeTrust: 140G (0.5%, 140G)
Tougou: 100G (0.3%, 3,519G)
thevilmen: 100G (0.3%, 100G)
datadrivenbot: 100G (0.3%, 24,604G)
ANFz: 100G (0.3%, 2,450G)
cougboi: 50G (0.2%, 5,610G)
