Final Bets: purple - 10 bets for 8,203G (61.6%, x0.62); brown - 10 bets for 5,110G (38.4%, x1.61)

purple bets:
evontno: 2,320G (28.3%, 2,320G)
KasugaiRoastedPeas: 2,000G (24.4%, 17,806G)
BirbBrainsBot: 1,000G (12.2%, 188,854G)
DeathTaxesAndAnime: 824G (10.0%, 824G)
Digitalsocrates: 627G (7.6%, 627G)
superdevon1: 364G (4.4%, 364G)
LAGBOT30000: 300G (3.7%, 4,393G)
NightwolfXVI: 300G (3.7%, 4,282G)
genericco: 244G (3.0%, 244G)
alekzanndrr: 224G (2.7%, 224G)

brown bets:
YaBoy125: 1,000G (19.6%, 6,382G)
Smokegiant: 1,000G (19.6%, 96,224G)
getthemoneyz: 876G (17.1%, 1,176,911G)
Ring_Wyrm: 512G (10.0%, 512G)
baconbacon1207: 500G (9.8%, 11,385G)
KyleWonToLiveForever: 478G (9.4%, 478G)
fluffskull: 344G (6.7%, 344G)
Evewho: 200G (3.9%, 11,512G)
enkikavlar: 100G (2.0%, 1,378G)
KSops: 100G (2.0%, 2,128G)
