Final Bets: red - 31 bets for 17,387G (50.6%, x0.97); blue - 22 bets for 16,941G (49.4%, x1.03)

red bets:
Zeroroute: 2,060G (11.8%, 2,060G)
TheRobbieRobster: 2,000G (11.5%, 24,328G)
Shalloween: 2,000G (11.5%, 49,884G)
Shakarak: 1,701G (9.8%, 1,701G)
wackyzachyy: 1,450G (8.3%, 18,646G)
DudeMonkey77: 1,000G (5.8%, 29,082G)
inzo_bettingbot: 1,000G (5.8%, 22,837G)
SeedSC: 1,000G (5.8%, 173,634G)
HaplessOne: 500G (2.9%, 40,846G)
HaateXIII: 450G (2.6%, 13,390G)
RurouniGeo: 405G (2.3%, 405G)
Aeolus_000: 400G (2.3%, 945G)
Axelrod: 341G (2.0%, 34,168G)
getthemoneyz: 312G (1.8%, 400,068G)
fenixcrest: 296G (1.7%, 5,923G)
Baron_von_Scrub: 252G (1.4%, 4,563G)
ig_ats: 250G (1.4%, 4,121G)
TheGuesty: 250G (1.4%, 6,102G)
Chocobomog123: 224G (1.3%, 224G)
MidloSage: 212G (1.2%, 212G)
silentperogy: 200G (1.2%, 5,954G)
AnthraX85: 148G (0.9%, 148G)
edgehead62888: 120G (0.7%, 120G)
Mechapope1: 116G (0.7%, 116G)
Tougou: 100G (0.6%, 3,635G)
Lali_Lulelo: 100G (0.6%, 3,968G)
twelfthrootoftwo: 100G (0.6%, 3,122G)
CorpusCav: 100G (0.6%, 10,502G)
ApplesauceBoss: 100G (0.6%, 1,398G)
datadrivenbot: 100G (0.6%, 17,311G)
chronoxtrigger: 100G (0.6%, 5,005G)

blue bets:
HASTERIOUS: 2,500G (14.8%, 58,865G)
kingchadking: 2,143G (12.6%, 2,143G)
MoonSlayerRS: 1,492G (8.8%, 1,492G)
Aldrammech: 1,338G (7.9%, 13,383G)
sinnyil2: 1,200G (7.1%, 7,523G)
lunaticruin: 1,045G (6.2%, 4,289G)
DeathTaxesAndAnime: 948G (5.6%, 948G)
ko2q: 755G (4.5%, 755G)
pelerin_: 700G (4.1%, 5,559G)
BirbBrainsBot: 636G (3.8%, 636G)
bad1dea: 600G (3.5%, 229,342G)
Rastanar: 500G (3.0%, 4,723G)
reinoe: 500G (3.0%, 6,469G)
Rytor: 500G (3.0%, 9,713G)
TheChainNerd: 472G (2.8%, 472G)
TheMurkGnome: 400G (2.4%, 10,596G)
cheezybuda: 300G (1.8%, 7,193G)
ZephyrTempest: 280G (1.7%, 3,822G)
cheesetacular: 232G (1.4%, 232G)
gameman733: 200G (1.2%, 3,145G)
noztril: 100G (0.6%, 217G)
UmbraKnights: 100G (0.6%, 664G)
