Final Bets: blue - 23 bets for 53,453G (80.9%, x0.24); yellow - 25 bets for 12,581G (19.1%, x4.25)

blue bets:
TheRobbieRobster: 21,767G (40.7%, 21,767G)
DeadBart: 17,401G (32.6%, 17,401G)
ig_ats: 2,621G (4.9%, 2,621G)
HASTERIOUS: 2,500G (4.7%, 63,522G)
sinnyil2: 1,500G (2.8%, 8,640G)
Lord_Burrah: 1,200G (2.2%, 91,566G)
DeathTaxesAndAnime: 1,070G (2.0%, 2,118G)
Axelrod: 1,022G (1.9%, 34,080G)
HaplessOne: 1,000G (1.9%, 40,325G)
Zeroroute: 500G (0.9%, 500G)
cheesetacular: 454G (0.8%, 454G)
edgehead62888: 401G (0.8%, 401G)
DustBirdEX: 400G (0.7%, 2,006G)
MoonSlayerRS: 356G (0.7%, 356G)
TheGuesty: 250G (0.5%, 6,458G)
AnthraX85: 227G (0.4%, 227G)
nerdynel17: 184G (0.3%, 184G)
twelfthrootoftwo: 100G (0.2%, 3,318G)
Tougou: 100G (0.2%, 3,335G)
InOzWeTrust: 100G (0.2%, 200G)
noztril: 100G (0.2%, 445G)
GrayGhostGaming: 100G (0.2%, 1,282G)
datadrivenbot: 100G (0.2%, 17,278G)

yellow bets:
Aldrammech: 1,309G (10.4%, 13,098G)
Shakarak: 1,254G (10.0%, 1,254G)
WalkerNash: 1,009G (8.0%, 25,583G)
DudeMonkey77: 1,000G (7.9%, 28,040G)
bad1dea: 1,000G (7.9%, 229,721G)
gooseyourself: 1,000G (7.9%, 12,554G)
BirbBrainsBot: 967G (7.7%, 967G)
TheChainNerd: 956G (7.6%, 956G)
inzo_bettingbot: 900G (7.2%, 22,504G)
DejaPoo21: 500G (4.0%, 27,193G)
Lionhermit: 500G (4.0%, 7,890G)
Aeolus_000: 300G (2.4%, 1,831G)
TheMurkGnome: 300G (2.4%, 11,112G)
cheezybuda: 300G (2.4%, 7,645G)
gameman733: 200G (1.6%, 3,050G)
ZephyrTempest: 180G (1.4%, 4,358G)
afk9999: 120G (1.0%, 120G)
getthemoneyz: 120G (1.0%, 401,162G)
Mechapope1: 116G (0.9%, 116G)
BadBlanket: 100G (0.8%, 2,277G)
Oshimi12: 100G (0.8%, 1,953G)
mirapoix: 100G (0.8%, 7,132G)
arch8000: 100G (0.8%, 9,073G)
ko2q: 100G (0.8%, 1,209G)
silentperogy: 50G (0.4%, 5,354G)
