Final Bets: red - 12 bets for 5,410G (46.9%, x1.13); blue - 8 bets for 6,123G (53.1%, x0.88)

red bets:
UmaiJam: 2,000G (37.0%, 19,247G)
BirbBrainsBot: 1,000G (18.5%, 82,796G)
reddwind_: 564G (10.4%, 5,555G)
Draconis345: 500G (9.2%, 4,551G)
Drusiform: 291G (5.4%, 291G)
resjudicata3: 276G (5.1%, 276G)
Lumberinjack: 213G (3.9%, 213G)
holdenmagronik: 150G (2.8%, 2,718G)
Chuckolator: 115G (2.1%, 919G)
gorgewall: 101G (1.9%, 2,370G)
MinBetBot: 100G (1.8%, 18,420G)
silverChangeling: 100G (1.8%, 2,126G)

blue bets:
peeronid: 2,500G (40.8%, 16,836G)
douchetron: 846G (13.8%, 846G)
superdevon1: 722G (11.8%, 36,117G)
ko2q: 677G (11.1%, 677G)
AllInBot: 491G (8.0%, 491G)
YaBoy125: 404G (6.6%, 404G)
Aestheta: 372G (6.1%, 372G)
PantherIscariot: 111G (1.8%, 5,694G)
