Final Bets: white - 9 bets for 15,677G (75.6%, x0.32); black - 16 bets for 5,054G (24.4%, x3.10)

white bets:
ShintaroNayaka: 7,256G (46.3%, 7,256G)
marin1987: 4,096G (26.1%, 4,096G)
BirbBrainsBot: 1,000G (6.4%, 65,313G)
JumbocactuarX27: 1,000G (6.4%, 2,445G)
Phytik: 621G (4.0%, 621G)
prince_rogers_nelson_: 552G (3.5%, 552G)
LDSkinny: 500G (3.2%, 1,304G)
pplvee1: 452G (2.9%, 452G)
Rytor: 200G (1.3%, 953G)

black bets:
Thyrandaal: 1,000G (19.8%, 66,076G)
docmitchphd: 677G (13.4%, 677G)
Error72: 500G (9.9%, 9,941G)
DustBirdEX: 456G (9.0%, 5,128G)
Evewho: 448G (8.9%, 448G)
AllInBot: 307G (6.1%, 307G)
brokenknight201: 268G (5.3%, 268G)
RunicMagus: 250G (4.9%, 65,199G)
run_with_stone_GUNs: 250G (4.9%, 27,189G)
ZCKaiser: 200G (4.0%, 1,283G)
TheChainNerd: 162G (3.2%, 2,402G)
getthemoneyz: 136G (2.7%, 968,657G)
CosmicTactician: 100G (2.0%, 6,767G)
datadrivenbot: 100G (2.0%, 42,759G)
serperemagus: 100G (2.0%, 6,260G)
outer_monologue: 100G (2.0%, 2,851G)
