Final Bets: black - 16 bets for 5,271G (51.2%, x0.95); brown - 11 bets for 5,014G (48.8%, x1.05)

black bets:
BirbBrainsBot: 1,000G (19.0%, 62,313G)
BlackFireUK: 1,000G (19.0%, 17,249G)
getthemoneyz: 560G (10.6%, 968,399G)
Error72: 500G (9.5%, 8,492G)
JumbocactuarX27: 384G (7.3%, 384G)
roofiepops: 336G (6.4%, 336G)
DustBirdEX: 234G (4.4%, 5,852G)
AltimaMantoid: 224G (4.2%, 224G)
ZCKaiser: 200G (3.8%, 907G)
docmitchphd: 200G (3.8%, 2,755G)
TheChainNerd: 183G (3.5%, 3,423G)
AllInBot: 100G (1.9%, 100G)
maakur_: 100G (1.9%, 24,035G)
mrfripps: 100G (1.9%, 5,642G)
Chronolynx42: 100G (1.9%, 1,870G)
IphoneDarkness: 50G (0.9%, 4,806G)

brown bets:
prince_rogers_nelson_: 1,674G (33.4%, 1,674G)
Draconis345: 1,000G (19.9%, 63,153G)
ShintaroNayaka: 778G (15.5%, 778G)
serperemagus: 500G (10.0%, 6,614G)
HaateXIII: 250G (5.0%, 3,835G)
JethroThrul: 212G (4.2%, 212G)
Kellios11: 200G (4.0%, 12,952G)
CosmicTactician: 100G (2.0%, 7,036G)
datadrivenbot: 100G (2.0%, 43,028G)
outer_monologue: 100G (2.0%, 3,061G)
nifboy: 100G (2.0%, 3,020G)
