Final Bets: red - 7 bets for 5,560G (40.8%, x1.45); yellow - 14 bets for 8,074G (59.2%, x0.69)

red bets:
toka222: 1,500G (27.0%, 79,887G)
E_Ballard: 1,382G (24.9%, 1,382G)
TheChainNerd: 796G (14.3%, 796G)
NovaKnight21: 788G (14.2%, 788G)
killth3kid: 544G (9.8%, 11,730G)
Lord_Gwarth: 350G (6.3%, 2,483G)
AllInBot: 200G (3.6%, 200G)

yellow bets:
mpghappiness: 2,746G (34.0%, 2,746G)
SephDarkheart: 1,559G (19.3%, 15,597G)
BirbBrainsBot: 1,000G (12.4%, 168,970G)
ShintaroNayaka: 500G (6.2%, 4,023G)
boxyID: 500G (6.2%, 3,351G)
Shalloween: 500G (6.2%, 500G)
Thyrandaal: 222G (2.7%, 9,867G)
ArlanKels: 214G (2.7%, 4,296G)
getthemoneyz: 210G (2.6%, 1,423,130G)
datadrivenbot: 200G (2.5%, 47,263G)
Lydian_C: 123G (1.5%, 10,208G)
holdenmagronik: 100G (1.2%, 1,321G)
RuneS_77: 100G (1.2%, 13,073G)
ohhinm: 100G (1.2%, 2,503G)
