Final Bets: red - 16 bets for 8,847G (51.5%, x0.94); blue - 6 bets for 8,320G (48.5%, x1.06)

red bets:
DeathTaxesAndAnime: 1,647G (18.6%, 1,647G)
UmaiJam: 1,400G (15.8%, 48,050G)
Nizaha: 1,070G (12.1%, 2,141G)
BirbBrainsBot: 1,000G (11.3%, 137,974G)
Cryptopsy70: 608G (6.9%, 14,133G)
getthemoneyz: 572G (6.5%, 1,110,252G)
Forkmore: 500G (5.7%, 3,246G)
Shalloween: 400G (4.5%, 73,893G)
joewcarson: 300G (3.4%, 1,722G)
twelfthrootoftwo: 300G (3.4%, 13,042G)
ColetteMSLP: 300G (3.4%, 2,524G)
null_sett: 250G (2.8%, 1,929G)
HaateXIII: 250G (2.8%, 2,908G)
E_Ballard: 100G (1.1%, 1,571G)
datadrivenbot: 100G (1.1%, 46,414G)
klefelix: 50G (0.6%, 100G)

blue bets:
Baron_von_Scrub: 6,802G (81.8%, 13,604G)
Laserman1000: 700G (8.4%, 15,200G)
ChaoreLance: 358G (4.3%, 358G)
sososteve: 250G (3.0%, 5,835G)
casteia: 200G (2.4%, 1,834G)
moonliquor: 10G (0.1%, 483G)
