Final Bets: white - 15 bets for 10,140G (43.9%, x1.28); black - 13 bets for 12,956G (56.1%, x0.78)

white bets:
Baron_von_Scrub: 3,401G (33.5%, 6,802G)
UmaiJam: 1,400G (13.8%, 47,967G)
SkylerBunny: 1,100G (10.8%, 504,229G)
BirbBrainsBot: 1,000G (9.9%, 137,930G)
powergems: 777G (7.7%, 15,730G)
Forkmore: 463G (4.6%, 4,215G)
moonliquor: 408G (4.0%, 408G)
twelfthrootoftwo: 400G (3.9%, 13,024G)
ColetteMSLP: 300G (3.0%, 2,806G)
benticore: 250G (2.5%, 3,131G)
flacococo: 241G (2.4%, 241G)
E_Ballard: 100G (1.0%, 1,831G)
Firesheath: 100G (1.0%, 17,312G)
ANFz: 100G (1.0%, 5,237G)
Ring_Wyrm: 100G (1.0%, 2,603G)

black bets:
prince_rogers_nelson_: 3,818G (29.5%, 3,818G)
DeathTaxesAndAnime: 3,010G (23.2%, 5,903G)
reinoe: 2,000G (15.4%, 14,636G)
Nizaha: 1,574G (12.1%, 1,574G)
lowlf: 1,212G (9.4%, 90,713G)
null_sett: 500G (3.9%, 2,663G)
sososteve: 250G (1.9%, 5,235G)
getthemoneyz: 142G (1.1%, 1,109,790G)
maakur_: 100G (0.8%, 74,280G)
Sans_from_Snowdin: 100G (0.8%, 28,390G)
datadrivenbot: 100G (0.8%, 46,408G)
CosmicTactician: 100G (0.8%, 26,023G)
klefelix: 50G (0.4%, 147G)
