Final Bets: blue - 21 bets for 15,165G (68.2%, x0.47); brown - 12 bets for 7,064G (31.8%, x2.15)

blue bets:
Drusiform: 4,000G (26.4%, 24,897G)
superdevon1: 2,093G (13.8%, 69,794G)
SkyridgeZero: 1,500G (9.9%, 34,915G)
dogsandcatsand: 1,495G (9.9%, 2,933G)
BirbBrainsBot: 1,000G (6.6%, 176,857G)
Nizaha: 704G (4.6%, 8,526G)
SephDarkheart: 528G (3.5%, 83,742G)
technominari: 500G (3.3%, 90,401G)
JonnyCue: 495G (3.3%, 495G)
Tarheels218: 449G (3.0%, 449G)
Rilgon: 427G (2.8%, 8,543G)
AllInBot: 419G (2.8%, 419G)
CorpusCav: 400G (2.6%, 5,529G)
nhammen: 400G (2.6%, 3,093G)
datadrivenbot: 200G (1.3%, 59,731G)
Shalloween: 200G (1.3%, 9,710G)
daveb_: 144G (0.9%, 4,636G)
MinBetBot: 100G (0.7%, 22,613G)
northkoreancleetus: 100G (0.7%, 1,655G)
getthemoneyz: 6G (0.0%, 1,589,376G)
moonliquor: 5G (0.0%, 47,877G)

brown bets:
E_Ballard: 1,191G (16.9%, 1,191G)
douchetron: 1,163G (16.5%, 1,163G)
SkylerBunny: 1,000G (14.2%, 23,571G)
Rytor: 761G (10.8%, 7,614G)
Gunz232323: 649G (9.2%, 649G)
TheDeeyo: 500G (7.1%, 7,945G)
VolgraTheMoose: 500G (7.1%, 2,266G)
DavenIII: 392G (5.5%, 392G)
mpghappiness: 304G (4.3%, 304G)
Lord_Gwarth: 296G (4.2%, 3,049G)
Lillifen: 208G (2.9%, 208G)
holdenmagronik: 100G (1.4%, 2,618G)
