Final Bets: purple - 7 bets for 4,699G (35.5%, x1.82); brown - 12 bets for 8,548G (64.5%, x0.55)

purple bets:
Nizaha: 1,001G (21.3%, 14,017G)
Digitalsocrates: 1,000G (21.3%, 5,143G)
ANFz: 1,000G (21.3%, 25,042G)
BirbBrainsBot: 1,000G (21.3%, 178,412G)
letdowncity: 360G (7.7%, 13,733G)
DaKoopa49: 220G (4.7%, 220G)
getthemoneyz: 118G (2.5%, 1,170,777G)

brown bets:
skillomono: 2,000G (23.4%, 14,528G)
SkylerBunny: 1,408G (16.5%, 1,408G)
DeathTaxesAndAnime: 1,320G (15.4%, 1,320G)
tanarusasamiya: 1,020G (11.9%, 1,020G)
reinoe: 1,000G (11.7%, 57,508G)
Laserman1000: 500G (5.8%, 20,900G)
HaateXIII: 500G (5.8%, 3,613G)
prince_rogers_nelson_: 300G (3.5%, 4,644G)
winteriscorning: 200G (2.3%, 793G)
enkikavlar: 100G (1.2%, 2,256G)
Rikrizen: 100G (1.2%, 5,603G)
moocaotao: 100G (1.2%, 2,875G)
