Final Bets: yellow - 13 bets for 7,396G (42.0%, x1.38); black - 20 bets for 10,233G (58.0%, x0.72)

yellow bets:
Shakarak: 2,000G (27.0%, 4,045G)
Fenrislfr: 2,000G (27.0%, 4,608G)
joewcarson: 1,001G (13.5%, 6,847G)
Aldrammech: 1,000G (13.5%, 72,690G)
rico_flex: 300G (4.1%, 14,003G)
ungabunga_bot: 282G (3.8%, 198,424G)
LordMaxoss: 200G (2.7%, 557G)
Mandoragan: 112G (1.5%, 112G)
ZephyrTempest: 101G (1.4%, 166,506G)
AllInBot: 100G (1.4%, 100G)
FoeSquirrel: 100G (1.4%, 3,009G)
FriendSquirrel: 100G (1.4%, 32,385G)
gorgewall: 100G (1.4%, 3,626G)

black bets:
Shalloween: 1,400G (13.7%, 51,238G)
sinnyil2: 1,200G (11.7%, 82,154G)
JonnyCue: 1,000G (9.8%, 13,000G)
BirbBrainsBot: 1,000G (9.8%, 45,663G)
Laserman1000: 700G (6.8%, 30,300G)
athros13: 500G (4.9%, 40,528G)
Lionhermit: 500G (4.9%, 12,454G)
proper__noun__: 500G (4.9%, 3,905G)
VySaika: 500G (4.9%, 18,837G)
SquidgyXom: 500G (4.9%, 11,889G)
nifboy: 494G (4.8%, 12,350G)
GrandmasterFrankerZ: 420G (4.1%, 9,624G)
RunicMagus: 400G (3.9%, 34,805G)
Lanshaft: 348G (3.4%, 1,858G)
alrightbye: 207G (2.0%, 20,785G)
getthemoneyz: 164G (1.6%, 523,327G)
ANFz: 100G (1.0%, 16,206G)
faustified: 100G (1.0%, 100G)
datadrivenbot: 100G (1.0%, 805G)
rhsgangster: 100G (1.0%, 475G)
