Final Bets: white - 8 bets for 4,461G (26.1%, x2.83); champion - 16 bets for 12,636G (73.9%, x0.35)

white bets:
AllInBot: 2,121G (47.5%, 2,121G)
gilgamensche: 1,000G (22.4%, 4,647G)
CorpusCav: 500G (11.2%, 7,313G)
ColetteMSLP: 300G (6.7%, 3,807G)
Leonidusx: 200G (4.5%, 92,654G)
skcocorb: 150G (3.4%, 1,014G)
maakur_: 100G (2.2%, 2,378G)
getthemoneyz: 90G (2.0%, 1,990,878G)

champion bets:
VolgraTheMoose: 2,001G (15.8%, 13,462G)
NicoSavoy: 2,000G (15.8%, 124,145G)
Runeseeker22: 1,275G (10.1%, 1,275G)
SephDarkheart: 1,200G (9.5%, 33,396G)
arumz: 1,000G (7.9%, 30,002G)
BirbBrainsBot: 1,000G (7.9%, 134,184G)
gorgewall: 972G (7.7%, 972G)
Shalloween: 896G (7.1%, 896G)
dogsandcatsand: 672G (5.3%, 48,867G)
krombobreaker: 500G (4.0%, 3,528G)
douchetron: 384G (3.0%, 384G)
datadrivenbot: 200G (1.6%, 71,120G)
ShadowNinja25: 200G (1.6%, 1,219G)
J_MacC1991: 136G (1.1%, 136G)
nhammen: 100G (0.8%, 250,810G)
RunicMagus: 100G (0.8%, 14,452G)
