Final Bets: purple - 14 bets for 4,413G (23.1%, x3.33); champion - 9 bets for 14,711G (76.9%, x0.30)

purple bets:
BirbBrainsBot: 1,000G (22.7%, 29,897G)
DLJuggernaut: 779G (17.7%, 1,529G)
Miku_Shikhu: 376G (8.5%, 376G)
amhamor: 350G (7.9%, 2,666G)
broxenguard: 338G (7.7%, 338G)
maximumcrit: 300G (6.8%, 975G)
BaronHaynes: 250G (5.7%, 7,997G)
mirapoix: 200G (4.5%, 2,862G)
datadrivenbot: 200G (4.5%, 46,649G)
TheseJeans: 200G (4.5%, 964G)
getthemoneyz: 120G (2.7%, 1,440,781G)
holdenmagronik: 100G (2.3%, 1,392G)
Firesheath: 100G (2.3%, 3,472G)
TeaTime29: 100G (2.3%, 5,028G)

champion bets:
amiture: 5,000G (34.0%, 35,065G)
EnemyController: 3,333G (22.7%, 1,525,824G)
AllInBot: 3,326G (22.6%, 3,326G)
ThreeMileIsland: 1,000G (6.8%, 9,568G)
gorgewall: 788G (5.4%, 788G)
Laserman1000: 500G (3.4%, 10,000G)
douchetron: 404G (2.7%, 404G)
Hirameki85: 260G (1.8%, 15,950G)
ssfsx17: 100G (0.7%, 100G)
