Final Bets: purple - 24 bets for 26,081G (45.5%, x1.20); brown - 10 bets for 31,232G (54.5%, x0.84)

purple bets:
bryan792: 8,000G (30.7%, 188,000G)
Lydian_C: 5,600G (21.5%, 57,590G)
RunicMagus: 2,500G (9.6%, 39,541G)
Imakuni: 1,000G (3.8%, 6,260G)
BirbBrainsBot: 1,000G (3.8%, 221,153G)
bad1dea: 1,000G (3.8%, 41,169G)
Lord_Burrah: 1,000G (3.8%, 91,452G)
NovaKnight21: 800G (3.1%, 8,401G)
BenYuPoker: 608G (2.3%, 608G)
jethrothrul: 568G (2.2%, 568G)
superdevon1: 500G (1.9%, 500G)
ko2q: 500G (1.9%, 3,877G)
SeedSC: 500G (1.9%, 138,345G)
getthemoneyz: 422G (1.6%, 436,766G)
ShintaroNayaka: 400G (1.5%, 2,439G)
fenaen: 396G (1.5%, 396G)
TheGuesty: 344G (1.3%, 4,944G)
catfashions: 280G (1.1%, 280G)
JIDkomu: 160G (0.6%, 160G)
Carledo: 103G (0.4%, 2,897G)
Tithonus: 100G (0.4%, 7,391G)
datadrivenbot: 100G (0.4%, 18,940G)
Lazlodamus: 100G (0.4%, 1,147G)
ass_brains: 100G (0.4%, 3,112G)

brown bets:
AllInBot: 24,230G (77.6%, 24,230G)
rocl: 2,000G (6.4%, 13,434G)
EmireEP: 1,667G (5.3%, 12,667G)
Shakarak: 1,500G (4.8%, 21,474G)
Lanshaft: 600G (1.9%, 12,153G)
Lodrak: 501G (1.6%, 33,877G)
Vampire_Killer: 500G (1.6%, 4,550G)
ungabunga_bot: 112G (0.4%, 21,725G)
Kellios11: 100G (0.3%, 7,689G)
roqqqpsi: 22G (0.1%, 1,554G)
