Final Bets: green - 13 bets for 7,384G (18.9%, x4.29); champion - 20 bets for 31,705G (81.1%, x0.23)

green bets:
Shakarak: 3,000G (40.6%, 17,974G)
BirbBrainsBot: 1,000G (13.5%, 221,259G)
bad1dea: 1,000G (13.5%, 41,275G)
BenYuPoker: 612G (8.3%, 612G)
Shalloween: 500G (6.8%, 97,921G)
Thed63: 300G (4.1%, 1,950G)
roqqqpsi: 222G (3.0%, 1,306G)
Rytor: 200G (2.7%, 10,628G)
sect_cor: 150G (2.0%, 19,894G)
AllInBot: 100G (1.4%, 100G)
Tithonus: 100G (1.4%, 7,586G)
catfashions: 100G (1.4%, 4,168G)
Aneyus: 100G (1.4%, 10,659G)

champion bets:
Lydian_C: 20,300G (64.0%, 65,126G)
0utlier: 2,292G (7.2%, 2,292G)
volgrathemoose: 2,001G (6.3%, 3,789G)
ShintaroNayaka: 1,200G (3.8%, 2,758G)
AlenaZarek: 1,053G (3.3%, 1,053G)
Aldrammech: 1,003G (3.2%, 10,036G)
RunicMagus: 600G (1.9%, 42,650G)
Lodrak: 501G (1.6%, 33,904G)
exaltedhamster: 500G (1.6%, 1,724G)
SerumD: 500G (1.6%, 15,494G)
newbie404: 428G (1.3%, 428G)
FoxtrotNovemberCharlie: 267G (0.8%, 267G)
robespyah: 250G (0.8%, 2,550G)
Kellios11: 200G (0.6%, 7,772G)
JIDkomu: 160G (0.5%, 160G)
ko2q: 100G (0.3%, 3,876G)
McGooferson: 100G (0.3%, 1,069G)
SeedSC: 100G (0.3%, 137,835G)
datadrivenbot: 100G (0.3%, 19,159G)
ungabunga_bot: 50G (0.2%, 22,007G)
