Final Bets: green - 21 bets for 18,951G (78.5%, x0.27); yellow - 15 bets for 5,196G (21.5%, x3.65)

green bets:
DuraiPapers: 3,518G (18.6%, 3,518G)
Breakdown777: 2,687G (14.2%, 5,375G)
Thyrandaal: 2,446G (12.9%, 2,446G)
prince_rogers_nelson_: 2,399G (12.7%, 2,399G)
Mesmaster: 2,000G (10.6%, 108,163G)
amiture: 1,000G (5.3%, 25,228G)
DLJuggernaut: 920G (4.9%, 1,805G)
Rilgon: 755G (4.0%, 7,559G)
cam_ATS: 555G (2.9%, 18,324G)
Evewho: 500G (2.6%, 10,916G)
reinoe: 500G (2.6%, 4,104G)
MagicBottle: 448G (2.4%, 448G)
VolgraTheMoose: 401G (2.1%, 2,638G)
Ring_Wyrm: 200G (1.1%, 2,444G)
regios91: 200G (1.1%, 3,325G)
biffcake01: 111G (0.6%, 2,291G)
maakur_: 100G (0.5%, 76,476G)
ANFz: 100G (0.5%, 3,692G)
datadrivenbot: 100G (0.5%, 47,482G)
moonliquor: 10G (0.1%, 1,396G)
tanarusasamiya: 1G (0.0%, 3,745G)

yellow bets:
BirbBrainsBot: 1,000G (19.2%, 113,558G)
Digitalsocrates: 816G (15.7%, 816G)
WalkerNash: 500G (9.6%, 37,606G)
mpghappiness: 420G (8.1%, 3,638G)
getthemoneyz: 404G (7.8%, 1,100,948G)
n2ash: 315G (6.1%, 1,487G)
Oobs56: 300G (5.8%, 41,641G)
DamnThatShark: 252G (4.8%, 252G)
Forkmore: 200G (3.8%, 6,616G)
twelfthrootoftwo: 200G (3.8%, 10,150G)
Lemonjohns: 200G (3.8%, 830G)
Shalloween: 200G (3.8%, 74,498G)
RampagingRobot: 189G (3.6%, 189G)
serperemagus: 100G (1.9%, 13,675G)
andylamborghini: 100G (1.9%, 399G)
