Final Bets: purple - 11 bets for 8,618G (23.5%, x3.25); brown - 33 bets for 28,029G (76.5%, x0.31)

purple bets:
DuraiPapers: 2,466G (28.6%, 4,932G)
UmaiJam: 1,300G (15.1%, 37,723G)
SkylerBunny: 1,200G (13.9%, 514,516G)
BirbBrainsBot: 1,000G (11.6%, 113,456G)
Mesmaster: 1,000G (11.6%, 109,609G)
Digitalsocrates: 600G (7.0%, 600G)
MagicBottle: 448G (5.2%, 448G)
TsukikageRyu: 300G (3.5%, 6,270G)
Evewho: 200G (2.3%, 11,233G)
getthemoneyz: 54G (0.6%, 1,101,078G)
griever_rj: 50G (0.6%, 1,000G)

brown bets:
Thyrandaal: 3,117G (11.1%, 3,117G)
prince_rogers_nelson_: 3,057G (10.9%, 3,057G)
blastty: 2,356G (8.4%, 2,356G)
moonliquor: 1,848G (6.6%, 1,848G)
regios91: 1,735G (6.2%, 3,470G)
mpghappiness: 1,577G (5.6%, 1,577G)
Lord_Burrah: 1,575G (5.6%, 83,575G)
Breakdown777: 1,528G (5.5%, 3,056G)
roofiepops: 1,207G (4.3%, 1,207G)
twelfthrootoftwo: 1,000G (3.6%, 9,650G)
amiture: 1,000G (3.6%, 26,408G)
serperemagus: 1,000G (3.6%, 13,665G)
thewondertrickster: 993G (3.5%, 3,313G)
Cryptopsy70: 608G (2.2%, 14,888G)
genericco: 579G (2.1%, 579G)
cam_ATS: 555G (2.0%, 18,975G)
NightwolfXVI: 520G (1.9%, 520G)
VolgraTheMoose: 501G (1.8%, 3,108G)
WalkerNash: 500G (1.8%, 36,606G)
Lemonjohns: 400G (1.4%, 1,196G)
fluffskull: 316G (1.1%, 316G)
n2ash: 309G (1.1%, 1,413G)
sososteve: 300G (1.1%, 3,272G)
DamnThatShark: 252G (0.9%, 252G)
Forkmore: 250G (0.9%, 6,166G)
NotBalrog: 200G (0.7%, 8,542G)
just_here2: 200G (0.7%, 13,235G)
silentkaster: 145G (0.5%, 9,145G)
Ring_Wyrm: 100G (0.4%, 2,499G)
datadrivenbot: 100G (0.4%, 47,409G)
Firesheath: 100G (0.4%, 16,723G)
Mec36: 100G (0.4%, 890G)
tanarusasamiya: 1G (0.0%, 3,745G)
