High Risers:
1. Mesmaster: +12,749G
2. Nhammen: +11,947G
3. Krombobreaker: +2,668G
4. Rndorchestra: +1,120G
5. Riley331: +662G
6. Volgrathemoose: +650G
7. Capnchaos12: +498G
8. Zagorsek: +464G
9. Resjudicata3: +456G
10. Sephdarkheart: +237G
11. Gorgewall: +189G
12. Zeroroute: +89G
13. Let_them_eat_the_rich: +41G
14. Mirapoix: +34G
15. Corpuscav: +28G
16. Dasutin23: -86G
17. Blastinus: -100G
18. Escobro: -132G
19. Acid_flashback: -134G
20. Muffin_money: -150G
21. Redmage4evah: -200G
22. Dac169: -200G
23. Maakur_: -200G
24. Arrenjevleth: -300G
25. Thunderducker: -333G
26. Cryptopsy70: -337G
27. Kronikle: -410G
28. Chuckolator: -500G
29. Ser_pyrro: -561G
30. Haatexiii: -639G
31. Runicmagus: -695G
32. Jaritras: -729G
33. Triniculo: -781G
34. Old_overholt_: -875G
35. Lord_gwarth: -900G
36. Deathtaxesandanime: -900G
37. Cosmictactician: -927G
38. Nickyfive: -1,000G
39. Willjin: -1,000G
40. Greggernaut: -1,000G
41. Actual_jp: -1,000G
42. Phi_sig: -1,000G
43. Segomod: -1,000G
44. Pplvee1: -1,000G
45. Memoriesoffinal: -1,000G
46. Anfz: -1,000G
47. Lijarkh: -1,000G
48. E_ballard: -1,000G
49. Laserman1000: -1,000G
50. Bonemiser: -1,000G
51. Silentkaster: -1,000G
52. Skylerbunny: -1,000G
53. Coralreeferz: -1,063G
54. Sinnyil2: -1,200G
55. Snowfats: -1,256G
56. Bigbongsmoker: -1,613G
57. Seppu777: -1,696G
58. Runeseeker22: -1,801G
59. Snkey: -1,838G
60. Brokenknight201: -2,400G
61. Butterbelljedi: -2,746G
62. Roofiepops: -4,481G
