Final Bets: blue - 14 bets for 9,110G (52.9%, x0.89); yellow - 15 bets for 8,107G (47.1%, x1.12)

blue bets:
nhammen: 2,000G (22.0%, 410,964G)
DeathTaxesAndAnime: 1,088G (11.9%, 1,088G)
old_overholt_: 1,000G (11.0%, 31,939G)
BirbBrainsBot: 1,000G (11.0%, 64,445G)
escobro: 1,000G (11.0%, 4,321G)
Mesmaster: 1,000G (11.0%, 278,187G)
Dasutin23: 484G (5.3%, 7,478G)
Cryptopsy70: 364G (4.0%, 1,492G)
AllInBot: 352G (3.9%, 352G)
seppu777: 222G (2.4%, 1,916G)
CosmicTactician: 200G (2.2%, 30,202G)
datadrivenbot: 200G (2.2%, 60,206G)
BartTradingCompany: 100G (1.1%, 5,113G)
RunicMagus: 100G (1.1%, 12,491G)

yellow bets:
krombobreaker: 1,066G (13.1%, 1,066G)
Jaritras: 1,036G (12.8%, 1,036G)
Runeseeker22: 1,026G (12.7%, 10,261G)
Thyrandaal: 776G (9.6%, 776G)
SkylerBunny: 672G (8.3%, 672G)
CorpusCav: 672G (8.3%, 672G)
rNdOrchestra: 612G (7.5%, 612G)
getthemoneyz: 578G (7.1%, 1,919,541G)
Zagorsek: 404G (5.0%, 404G)
bigbongsmoker: 324G (4.0%, 7,726G)
Riley331: 310G (3.8%, 310G)
Wrath189: 303G (3.7%, 303G)
acid_flashback: 127G (1.6%, 4,242G)
gorgewall: 101G (1.2%, 8,697G)
let_them_eat_the_rich: 100G (1.2%, 100G)
