Final Bets: white - 16 bets for 8,147G (49.8%, x1.01); black - 18 bets for 8,223G (50.2%, x0.99)

white bets:
Nizaha: 1,183G (14.5%, 1,183G)
kai_shee: 1,001G (12.3%, 144,601G)
TheChainNerd: 1,000G (12.3%, 16,278G)
BirbBrainsBot: 1,000G (12.3%, 137,316G)
Pie108: 700G (8.6%, 20,369G)
ungabunga_bot: 616G (7.6%, 136,548G)
Lanshaft: 600G (7.4%, 4,171G)
fenaen: 480G (5.9%, 480G)
luminarii: 420G (5.2%, 14,288G)
ZephyrTempest: 356G (4.4%, 57,775G)
athros13: 200G (2.5%, 2,323G)
AllInBot: 193G (2.4%, 193G)
Firesheath: 100G (1.2%, 1,337G)
Chompie: 100G (1.2%, 3,699G)
jame3200: 100G (1.2%, 368G)
getthemoneyz: 98G (1.2%, 493,084G)

black bets:
Nickyfive: 2,005G (24.4%, 8,022G)
OmnibotGamma: 1,254G (15.2%, 1,254G)
metagameface: 692G (8.4%, 692G)
nifboy: 642G (7.8%, 1,284G)
datadrivenbot: 580G (7.1%, 580G)
0v3rr8d: 501G (6.1%, 501G)
catfashions: 400G (4.9%, 690G)
DHaveWord: 386G (4.7%, 386G)
RunicMagus: 344G (4.2%, 344G)
killth3kid: 244G (3.0%, 244G)
KasugaiRoastedPeas: 200G (2.4%, 5,032G)
benticore: 200G (2.4%, 1,939G)
joewcarson: 200G (2.4%, 14,410G)
rico_flex: 175G (2.1%, 4,932G)
ApplesauceBoss: 100G (1.2%, 7,462G)
Tougou: 100G (1.2%, 3,340G)
Lodrak: 100G (1.2%, 5,519G)
a_mo22: 100G (1.2%, 5,874G)
