Final Bets: green - 30 bets for 78,717G (21.1%, x3.75); yellow - 3 bets for 294,974G (78.9%, x0.27)

green bets:
Sairentozon7: 32,565G (41.4%, 65,131G)
Lythe_Caraker: 10,000G (12.7%, 133,687G)
lowlf: 10,000G (12.7%, 44,892G)
Firesheath: 4,972G (6.3%, 4,972G)
kahjeethaswares: 3,200G (4.1%, 3,200G)
CT_5_Holy: 2,500G (3.2%, 3,762G)
superdevon1: 2,243G (2.8%, 32,053G)
BaronHaynes: 2,000G (2.5%, 11,184G)
EnemyController: 2,000G (2.5%, 1,497,670G)
nifboy: 1,509G (1.9%, 3,019G)
nekojin: 1,500G (1.9%, 16,032G)
gorgewall: 1,001G (1.3%, 5,123G)
TheseJeans: 944G (1.2%, 944G)
prince_rogers_nelson_: 640G (0.8%, 640G)
twelfthrootoftwo: 500G (0.6%, 18,172G)
Realitydown: 420G (0.5%, 420G)
Hirameki85: 400G (0.5%, 11,909G)
nok____: 288G (0.4%, 288G)
Arcblazer23: 284G (0.4%, 284G)
AllInBot: 256G (0.3%, 256G)
Calajo: 228G (0.3%, 228G)
datadrivenbot: 200G (0.3%, 44,334G)
getthemoneyz: 198G (0.3%, 1,426,290G)
gooblz: 167G (0.2%, 167G)
Wooplestein: 150G (0.2%, 1,362G)
Chuckolator: 136G (0.2%, 5,273G)
Chambs12: 116G (0.1%, 116G)
windsah: 100G (0.1%, 3,700G)
poGpopE: 100G (0.1%, 8,542G)
Powermhero: 100G (0.1%, 32,210G)

yellow bets:
BirbBrainsBot: 291,424G (98.8%, 291,424G)
NicoSavoy: 2,727G (0.9%, 272,713G)
Laserman1000: 823G (0.3%, 4,323G)
