Final Bets: red - 32 bets for 46,762G (84.2%, x0.19); green - 22 bets for 8,801G (15.8%, x5.31)

red bets:
SolarisFall: 10,269G (22.0%, 10,269G)
toka222: 10,000G (21.4%, 513,830G)
Gelwain: 6,970G (14.9%, 13,940G)
Zeroroute: 2,770G (5.9%, 5,937G)
TheChainNerd: 1,887G (4.0%, 1,887G)
Ant_ihistamine: 1,580G (3.4%, 1,580G)
GingerDynomite: 1,398G (3.0%, 1,398G)
KasugaiRoastedPeas: 1,200G (2.6%, 11,540G)
sinnyil2: 1,200G (2.6%, 107,363G)
kai_shee: 1,001G (2.1%, 98,476G)
ShintaroNayaka: 1,000G (2.1%, 4,409G)
BenYuPoker: 936G (2.0%, 936G)
mirapoix: 700G (1.5%, 3,434G)
Lanshaft: 600G (1.3%, 2,942G)
reinoe: 596G (1.3%, 596G)
Pie108: 500G (1.1%, 5,804G)
Cataphract116: 500G (1.1%, 5,064G)
OneHundredFists: 500G (1.1%, 1,161G)
kingchadking: 440G (0.9%, 440G)
roofiepops: 440G (0.9%, 3,865G)
MantisFinch: 420G (0.9%, 420G)
JumbocactuarX27: 336G (0.7%, 336G)
Slowbrofist: 264G (0.6%, 264G)
dodgeroll: 264G (0.6%, 264G)
proper__noun__: 244G (0.5%, 244G)
ugoplatamia: 200G (0.4%, 31,304G)
AllInBot: 140G (0.3%, 140G)
ungabunga_bot: 102G (0.2%, 62,668G)
friendsquirrel: 100G (0.2%, 4,907G)
datadrivenbot: 100G (0.2%, 24,050G)
SeedSC: 100G (0.2%, 142,146G)
ko2q: 5G (0.0%, 1,791G)

green bets:
joewcarson: 1,226G (13.9%, 1,226G)
BirbBrainsBot: 1,000G (11.4%, 270,579G)
Nizaha: 835G (9.5%, 835G)
jethrothrul: 592G (6.7%, 592G)
CapnChaos12: 538G (6.1%, 538G)
Laserman1000: 501G (5.7%, 10,901G)
TheOneRanger: 500G (5.7%, 9,145G)
DavenIII: 500G (5.7%, 17,501G)
Shalloween: 460G (5.2%, 460G)
Baron_von_Scrub: 353G (4.0%, 11,728G)
yure1x: 352G (4.0%, 352G)
EnemyController: 300G (3.4%, 31,935G)
Anethum: 276G (3.1%, 276G)
getthemoneyz: 240G (2.7%, 442,935G)
roqqqpsi: 222G (2.5%, 2,161G)
ZephyrTempest: 216G (2.5%, 24,048G)
Tithonus: 200G (2.3%, 12,146G)
InOzWeTrust: 140G (1.6%, 140G)
Lodrak: 100G (1.1%, 5,823G)
PlatinumPlume: 100G (1.1%, 14,694G)
Ausuri: 100G (1.1%, 1,641G)
rico_flex: 50G (0.6%, 1,525G)
