Final Bets: green - 16 bets for 15,915G (54.0%, x0.85); yellow - 21 bets for 13,556G (46.0%, x1.17)

green bets:
cam_ATS: 4,567G (28.7%, 24,540G)
reinoe: 2,000G (12.6%, 9,682G)
HaateXIII: 1,697G (10.7%, 1,697G)
TheChainNerd: 1,669G (10.5%, 14,369G)
Breakdown777: 1,500G (9.4%, 62,309G)
EnemyController: 1,000G (6.3%, 580,800G)
Thyrandaal: 885G (5.6%, 885G)
NightwolfXVI: 557G (3.5%, 557G)
ShintaroNayaka: 500G (3.1%, 9,202G)
Baron_von_Scrub: 474G (3.0%, 32,854G)
DamnThatShark: 400G (2.5%, 1,000G)
jobbedbone: 246G (1.5%, 246G)
Snoopiku: 200G (1.3%, 6,247G)
lastly: 100G (0.6%, 23,963G)
datadrivenbot: 100G (0.6%, 38,674G)
lewdylew: 20G (0.1%, 213G)

yellow bets:
Lanshaft: 2,821G (20.8%, 5,643G)
IphoneDarkness: 2,261G (16.7%, 2,261G)
AllInBot: 1,189G (8.8%, 1,189G)
Evewho: 1,000G (7.4%, 6,127G)
BirbBrainsBot: 1,000G (7.4%, 184,896G)
twelfthrootoftwo: 826G (6.1%, 826G)
nifboy: 696G (5.1%, 696G)
YaBoy125: 612G (4.5%, 6,128G)
Tougou: 500G (3.7%, 2,530G)
OneHundredFists: 500G (3.7%, 14,724G)
Monopool: 300G (2.2%, 1,253G)
Milkman153: 300G (2.2%, 3,501G)
livvexx: 269G (2.0%, 269G)
fluffskull: 250G (1.8%, 1,217G)
DeathTaxesAndAnime: 250G (1.8%, 3,269G)
benticore: 206G (1.5%, 4,129G)
kaidykat: 200G (1.5%, 28,439G)
getthemoneyz: 166G (1.2%, 938,869G)
E_Ballard: 100G (0.7%, 6,020G)
CosmicTactician: 100G (0.7%, 1,316G)
nhammen: 10G (0.1%, 1,054G)
