Final Bets: purple - 19 bets for 14,290G (69.5%, x0.44); brown - 14 bets for 6,275G (30.5%, x2.28)

purple bets:
Monopool: 2,060G (14.4%, 2,060G)
TheChainNerd: 1,836G (12.8%, 16,836G)
HaateXIII: 1,821G (12.7%, 3,642G)
Breakdown777: 1,500G (10.5%, 62,591G)
Lali_Lulelo: 1,315G (9.2%, 1,315G)
Thyrandaal: 1,049G (7.3%, 1,049G)
IphoneDarkness: 890G (6.2%, 890G)
DustBirdEX: 860G (6.0%, 860G)
Anasetsuken: 500G (3.5%, 9,600G)
cam_ATS: 456G (3.2%, 29,074G)
ShintaroNayaka: 400G (2.8%, 10,232G)
NightwolfXVI: 400G (2.8%, 2,170G)
ColetteMSLP: 300G (2.1%, 913G)
JRHiga: 260G (1.8%, 260G)
gorgewall: 201G (1.4%, 15,245G)
AllInBot: 142G (1.0%, 142G)
Quadh0nk: 100G (0.7%, 2,092G)
datadrivenbot: 100G (0.7%, 38,801G)
livvexx: 100G (0.7%, 142G)

brown bets:
BlackFireUK: 1,208G (19.3%, 1,208G)
BirbBrainsBot: 1,000G (15.9%, 183,306G)
HASTERIOUS: 900G (14.3%, 18,005G)
YaBoy125: 601G (9.6%, 6,016G)
EnemyController: 500G (8.0%, 582,570G)
Baron_von_Scrub: 474G (7.6%, 33,788G)
getthemoneyz: 422G (6.7%, 938,377G)
DamnThatShark: 300G (4.8%, 541G)
benticore: 250G (4.0%, 3,673G)
kaidykat: 200G (3.2%, 28,539G)
CosmicTactician: 200G (3.2%, 1,616G)
E_Ballard: 100G (1.6%, 6,462G)
TheMM42: 100G (1.6%, 3,388G)
lewdylew: 20G (0.3%, 210G)
