Final Bets: purple - 25 bets for 12,865G (70.3%, x0.42); brown - 10 bets for 5,442G (29.7%, x2.36)

purple bets:
Shalloween: 2,000G (15.5%, 7,796G)
silentkaster: 1,621G (12.6%, 25,621G)
3ngag3: 1,128G (8.8%, 1,128G)
getthemoneyz: 1,000G (7.8%, 2,105,063G)
BirbBrainsBot: 1,000G (7.8%, 14,105G)
evontno: 763G (5.9%, 10,763G)
Reddash9: 708G (5.5%, 708G)
Nizaha: 608G (4.7%, 11,612G)
krombobreaker: 500G (3.9%, 30,985G)
resjudicata3: 472G (3.7%, 472G)
ValensEXP_: 400G (3.1%, 1,667G)
MemoriesofFinal: 321G (2.5%, 321G)
AllInBot: 306G (2.4%, 306G)
Lyner87: 304G (2.4%, 304G)
ShreddySpaghetti: 285G (2.2%, 285G)
ChiChiRodriguez: 232G (1.8%, 232G)
datadrivenbot: 200G (1.6%, 77,087G)
bufuman: 200G (1.6%, 1,230G)
Einswolf: 185G (1.4%, 185G)
7Cerulean7: 120G (0.9%, 2,524G)
ghazzzzzz: 112G (0.9%, 112G)
RikiNom: 100G (0.8%, 100G)
NicoSavoy: 100G (0.8%, 70,410G)
nhammen: 100G (0.8%, 11,132G)
king_smashington: 100G (0.8%, 14,431G)

brown bets:
latebit: 2,185G (40.2%, 2,185G)
VolgraTheMoose: 880G (16.2%, 46,700G)
ShadowNinja25: 709G (13.0%, 709G)
CorpusCav: 500G (9.2%, 16,678G)
Rhyser76: 324G (6.0%, 324G)
Rikrizen: 244G (4.5%, 4,889G)
CosmicTactician: 200G (3.7%, 43,824G)
DocSTN: 200G (3.7%, 6,646G)
RunicMagus: 100G (1.8%, 23,020G)
ayeCoop: 100G (1.8%, 100G)
