Final Bets: black - 17 bets for 15,111G (66.5%, x0.50); champion - 21 bets for 7,599G (33.5%, x1.99)

black bets:
iBluntDouble: 6,983G (46.2%, 6,983G)
DocSTN: 2,000G (13.2%, 6,246G)
Smashy: 840G (5.6%, 840G)
dogsandcatsand: 744G (4.9%, 12,123G)
3ngag3: 567G (3.8%, 2,067G)
DarrenDinosaurs: 500G (3.3%, 14,660G)
CorpusCav: 500G (3.3%, 17,679G)
krombobreaker: 500G (3.3%, 31,291G)
Lord_Gwarth: 500G (3.3%, 6,390G)
ValensEXP_: 400G (2.6%, 1,667G)
Shalloween: 400G (2.6%, 9,027G)
PopsLIVE: 338G (2.2%, 338G)
MemoriesofFinal: 289G (1.9%, 1,805G)
AllInBot: 200G (1.3%, 200G)
DeathTaxesAndAnime: 150G (1.0%, 3,028G)
king_smashington: 100G (0.7%, 14,571G)
NicoSavoy: 100G (0.7%, 70,531G)

champion bets:
BirbBrainsBot: 1,000G (13.2%, 13,046G)
technominari: 1,000G (13.2%, 99,065G)
latebit: 915G (12.0%, 915G)
VolgraTheMoose: 884G (11.6%, 46,875G)
Laserman1000: 803G (10.6%, 8,703G)
getthemoneyz: 766G (10.1%, 2,104,030G)
ShadowNinja25: 331G (4.4%, 331G)
mindblownnnn: 292G (3.8%, 292G)
Rikrizen: 217G (2.9%, 4,357G)
resjudicata3: 200G (2.6%, 835G)
CosmicTactician: 200G (2.6%, 43,817G)
ayeCoop: 140G (1.8%, 140G)
gorgewall: 101G (1.3%, 5,077G)
RunicMagus: 100G (1.3%, 22,720G)
Reddash9: 100G (1.3%, 100G)
Einswolf: 100G (1.3%, 100G)
RikiNom: 100G (1.3%, 100G)
datadrivenbot: 100G (1.3%, 76,929G)
ShreddySpaghetti: 100G (1.3%, 100G)
nhammen: 100G (1.3%, 11,577G)
bufuman: 50G (0.7%, 1,094G)
