High Risers:
1. Mesmaster: +25,287G
2. Old_overholt_: +2,240G
3. Thyrandaal: +1,847G
4. Friendsquirrel: +1,043G
5. Radishchef: +839G
6. Sinnyil2: +642G
7. Volgrathemoose: +599G
8. Powergems: +523G
9. Joewcarson: +428G
10. Cosmictactician: +424G
11. Arumz: +422G
12. Nicosavoy: +327G
13. Moonliquor: +314G
14. Oreo_pizza: +291G
15. Nizaha: +277G
16. Ronaldothegypsy: +243G
17. Jumbocactuarx27: +241G
18. Killth3kid: +204G
19. Fenaen: +128G
20. Altima_ys: +125G
21. Smugzug: +125G
22. Kellios11: +106G
23. Yaboy125: +91G
24. Corpuscav: +74G
25. Tsukiyo2830: +62G
26. Thesabretoothe: +23G
27. Ruleof5: +4G
28. Alcibiadeez: +3G
29. Chuckolator: -96G
30. Twisted_nutsatchel: -100G
31. Deathtaxesandanime: -100G
32. Pplvee1: -100G
33. Latebit: -133G
34. Yangusburger: -150G
35. Lord_gwarth: -150G
36. Gorgewall: -197G
37. Itsmycoolname: -200G
38. Krombobreaker: -204G
39. Sairentozon7: -220G
40. Resjudicata3: -300G
41. Dasutin23: -331G
42. Cryptopsy70: -348G
43. Phi_sig: -400G
44. Lwtest: -405G
45. Takkerna: -468G
46. Rocl: -634G
47. Sephdarkheart: -678G
48. E_ballard: -685G
49. Ldskinny: -696G
50. Thebluesman: -729G
51. Capnchaos12: -758G
52. Daveniii: -800G
53. Dogsandcatsand: -886G
54. Redmage4evah: -1,000G
55. Pepperbuster: -1,237G
56. Bigbongsmoker: -1,269G
57. Puzzlesecretary: -1,299G
58. Lowlf: -1,380G
59. J2dabibbles: -1,600G
60. Dljuggernaut: -2,000G
61. Holdenmagronik: -2,305G
62. Brokenknight201: -2,600G
63. Nekojin: -3,079G
64. Zagorsek: -5,178G
