Final Bets: white - 12 bets for 10,975G (63.4%, x0.58); purple - 15 bets for 6,331G (36.6%, x1.73)

white bets:
E_Ballard: 2,769G (25.2%, 2,769G)
nhammen: 2,000G (18.2%, 80,046G)
Nizaha: 1,932G (17.6%, 1,932G)
tinytittyfiend: 1,696G (15.5%, 1,696G)
BirbBrainsBot: 1,000G (9.1%, 86,465G)
SephDarkheart: 440G (4.0%, 3,342G)
TheBrett: 300G (2.7%, 6,701G)
holdenmagronik: 238G (2.2%, 476G)
AllInBot: 200G (1.8%, 200G)
CorpusCav: 200G (1.8%, 27,736G)
maakur_: 100G (0.9%, 3,661G)
DHaveWord: 100G (0.9%, 2,947G)

purple bets:
Leonidusx: 2,000G (31.6%, 275,200G)
thunderducker: 1,000G (15.8%, 10,170G)
fenaen: 640G (10.1%, 15,268G)
ExplanationMarkWow: 500G (7.9%, 16,575G)
Lord_Gwarth: 372G (5.9%, 372G)
CapnChaos12: 300G (4.7%, 5,928G)
EmperorBeef: 298G (4.7%, 196,298G)
Shalloween: 200G (3.2%, 12,808G)
lotharek: 200G (3.2%, 8,107G)
old_overholt_: 200G (3.2%, 46,068G)
datadrivenbot: 200G (3.2%, 79,991G)
ValensEXP_: 200G (3.2%, 1,642G)
getthemoneyz: 116G (1.8%, 2,109,880G)
yagyuudarkness: 104G (1.6%, 104G)
MoonSugarFiend: 1G (0.0%, 6,012G)
