Final Bets: green - 9 bets for 8,352G (30.6%, x2.27); white - 23 bets for 18,965G (69.4%, x0.44)

green bets:
E_Ballard: 4,366G (52.3%, 4,366G)
latebit: 1,394G (16.7%, 69,701G)
Sairentozon7: 1,000G (12.0%, 24,368G)
Willjin: 600G (7.2%, 33,086G)
Lord_Gwarth: 372G (4.5%, 372G)
RagequitSA: 348G (4.2%, 348G)
king_smashington: 100G (1.2%, 751G)
lotharek: 100G (1.2%, 7,907G)
getthemoneyz: 72G (0.9%, 2,109,764G)

white bets:
Leonidusx: 4,000G (21.1%, 273,200G)
tinytittyfiend: 2,674G (14.1%, 2,674G)
Nizaha: 1,523G (8.0%, 3,046G)
Chihuahua_Charity: 1,500G (7.9%, 18,116G)
skillomono: 1,009G (5.3%, 9,435G)
BirbBrainsBot: 1,000G (5.3%, 87,042G)
old_overholt_: 1,000G (5.3%, 45,868G)
TheBrett: 1,000G (5.3%, 6,874G)
Thyrandaal: 1,000G (5.3%, 185,124G)
fenaen: 640G (3.4%, 14,628G)
holdenmagronik: 613G (3.2%, 613G)
JonnyCue: 500G (2.6%, 4,521G)
SephDarkheart: 440G (2.3%, 3,596G)
LDSkinny: 400G (2.1%, 400G)
AllInBot: 315G (1.7%, 315G)
CapnChaos12: 300G (1.6%, 5,628G)
EmperorBeef: 300G (1.6%, 196,000G)
Shalloween: 200G (1.1%, 12,608G)
ValensEXP_: 200G (1.1%, 1,442G)
datadrivenbot: 200G (1.1%, 79,791G)
maakur_: 100G (0.5%, 3,719G)
xav8904: 50G (0.3%, 363G)
MoonSugarFiend: 1G (0.0%, 6,011G)
