Final Bets: blue - 16 bets for 15,142G (63.9%, x0.57); green - 6 bets for 8,559G (36.1%, x1.77)

blue bets:
dogsandcatsand: 5,438G (35.9%, 10,664G)
randgridr: 2,136G (14.1%, 4,273G)
gorgewall: 2,133G (14.1%, 2,133G)
ColetteMSLP: 1,000G (6.6%, 30,019G)
BirbBrainsBot: 1,000G (6.6%, 138,007G)
DouglasDragonThePoet: 807G (5.3%, 807G)
ko2q: 668G (4.4%, 668G)
zenlion: 500G (3.3%, 4,474G)
getthemoneyz: 410G (2.7%, 1,561,137G)
alex115daniels: 300G (2.0%, 2,871G)
AllInBot: 200G (1.3%, 200G)
datadrivenbot: 200G (1.3%, 50,478G)
MinBetBot: 100G (0.7%, 16,369G)
eightflyingcars: 100G (0.7%, 1,059G)
Twisted_Nutsatchel: 100G (0.7%, 16,120G)
srdonko2098: 50G (0.3%, 3,288G)

green bets:
LordSDB: 6,000G (70.1%, 73,690G)
DeathTaxesAndAnime: 1,404G (16.4%, 1,404G)
CassiePhoenix: 500G (5.8%, 500G)
foxfaeez: 355G (4.1%, 1,779G)
gargola2498: 200G (2.3%, 4,603G)
Zeera98: 100G (1.2%, 1,459G)
