Final Bets: white - 20 bets for 18,029G (73.5%, x0.36); black - 15 bets for 6,503G (26.5%, x2.77)

white bets:
pplvee1: 3,894G (21.6%, 3,894G)
Riot_Jayway: 2,222G (12.3%, 198,547G)
MrFlabyo: 2,000G (11.1%, 48,675G)
DerangedShadow: 1,989G (11.0%, 6,632G)
ShintaroNayaka: 1,366G (7.6%, 1,366G)
mpghappiness: 1,001G (5.6%, 4,180G)
Sairentozon7: 1,000G (5.5%, 4,567G)
LDSkinny: 938G (5.2%, 938G)
DeathTaxesAndAnime: 875G (4.9%, 1,717G)
Cryptopsy70: 480G (2.7%, 3,690G)
JumbocactuarX27: 433G (2.4%, 433G)
joewcarson: 300G (1.7%, 3,874G)
killth3kid: 300G (1.7%, 300G)
serperemagus: 288G (1.6%, 288G)
zepharoth89: 243G (1.3%, 2,438G)
Shinzutalos: 200G (1.1%, 200G)
CosmicTactician: 200G (1.1%, 4,754G)
Flameatron: 100G (0.6%, 5,978G)
datadrivenbot: 100G (0.6%, 32,167G)
TinchoT: 100G (0.6%, 6,608G)

black bets:
EmireEP: 1,000G (15.4%, 10,000G)
DustBirdEX: 1,000G (15.4%, 1,000G)
ThePineappleSalesman: 948G (14.6%, 948G)
BirbBrainsBot: 659G (10.1%, 151,657G)
getthemoneyz: 422G (6.5%, 800,847G)
coralreeferz: 400G (6.2%, 400G)
Lionhermit: 388G (6.0%, 388G)
benticore: 300G (4.6%, 3,033G)
bokurakira: 291G (4.5%, 2,917G)
nifboy: 250G (3.8%, 7,314G)
brokenknight201: 244G (3.8%, 244G)
Nizaha: 201G (3.1%, 15,722G)
gogofromtogo: 200G (3.1%, 4,771G)
Qaz12301: 100G (1.5%, 4,858G)
ko2q: 100G (1.5%, 2,388G)
