Final Bets: green - 14 bets for 10,236G (33.6%, x1.98); brown - 24 bets for 20,270G (66.4%, x0.50)

green bets:
DeathTaxesAndAnime: 4,351G (42.5%, 8,533G)
serperemagus: 1,200G (11.7%, 1,200G)
zepharoth89: 1,130G (11.0%, 2,260G)
OneHundredFists: 792G (7.7%, 792G)
DerangedShadow: 765G (7.5%, 3,063G)
Laserman1000: 704G (6.9%, 31,104G)
JumbocactuarX27: 328G (3.2%, 328G)
killth3kid: 300G (2.9%, 300G)
HASTERIOUS: 145G (1.4%, 2,918G)
Lydian_C: 120G (1.2%, 5,179G)
Firesheath: 101G (1.0%, 4,517G)
CosmicTactician: 100G (1.0%, 4,818G)
E_Ballard: 100G (1.0%, 4,947G)
mrfripps: 100G (1.0%, 707G)

brown bets:
mpghappiness: 7,361G (36.3%, 8,179G)
Sairentozon7: 2,000G (9.9%, 4,928G)
Riot_Jayway: 1,111G (5.5%, 201,668G)
gogofromtogo: 1,000G (4.9%, 5,298G)
BirbBrainsBot: 1,000G (4.9%, 152,982G)
RaIshtar: 1,000G (4.9%, 11,892G)
Lionhermit: 972G (4.8%, 1,907G)
DustBirdEX: 743G (3.7%, 743G)
SerumD: 600G (3.0%, 1,684G)
Nizaha: 501G (2.5%, 16,017G)
letdowncity: 500G (2.5%, 10,928G)
HaateXIII: 500G (2.5%, 6,620G)
EnemyController: 500G (2.5%, 477,550G)
Cryptopsy70: 480G (2.4%, 3,863G)
old_overholt_: 300G (1.5%, 24,354G)
benticore: 300G (1.5%, 3,185G)
wyonearth: 300G (1.5%, 3,574G)
brokenknight201: 244G (1.2%, 244G)
KasugaiRoastedPeas: 200G (1.0%, 7,240G)
Flameatron: 200G (1.0%, 5,798G)
Grandlanzer: 200G (1.0%, 9,376G)
Qaz12301: 100G (0.5%, 5,270G)
datadrivenbot: 100G (0.5%, 32,095G)
getthemoneyz: 58G (0.3%, 800,509G)
