Final Bets: red - 17 bets for 6,855G (30.6%, x2.26); blue - 21 bets for 15,525G (69.4%, x0.44)

red bets:
Aldrammech: 1,000G (14.6%, 34,998G)
BirbBrainsBot: 1,000G (14.6%, 84,587G)
HASTERIOUS: 740G (10.8%, 740G)
Nohurty: 728G (10.6%, 728G)
Baron_von_Scrub: 474G (6.9%, 34,133G)
OneHundredFists: 407G (5.9%, 407G)
CorpusCav: 400G (5.8%, 400G)
Bilabrin: 336G (4.9%, 336G)
DAC169: 325G (4.7%, 325G)
s_o_b_e_q: 313G (4.6%, 313G)
wyonearth: 300G (4.4%, 6,163G)
getthemoneyz: 232G (3.4%, 824,646G)
gogofromtogo: 200G (2.9%, 3,988G)
Flameatron: 100G (1.5%, 1,989G)
CosmicTactician: 100G (1.5%, 17,567G)
Evewho: 100G (1.5%, 12,517G)
maleblackfiora: 100G (1.5%, 1,694G)

blue bets:
DeathTaxesAndAnime: 3,619G (23.3%, 7,097G)
E_Ballard: 3,260G (21.0%, 3,260G)
SkylerBunny: 1,200G (7.7%, 104,628G)
sinnyil2: 1,200G (7.7%, 7,965G)
nifboy: 1,000G (6.4%, 42,670G)
Laserman1000: 603G (3.9%, 27,903G)
HaychDub: 551G (3.5%, 1,103G)
Grandlanzer: 500G (3.2%, 3,250G)
conradharlock: 500G (3.2%, 13,854G)
PezPezzington: 500G (3.2%, 8,465G)
Angelomortis: 415G (2.7%, 415G)
LeoNightFury: 393G (2.5%, 393G)
gorgewall: 352G (2.3%, 352G)
DustBirdEX: 320G (2.1%, 320G)
helpimabug: 288G (1.9%, 288G)
ACSpree: 236G (1.5%, 236G)
ivellioz: 212G (1.4%, 212G)
Miku_Shikhu: 116G (0.7%, 116G)
Ring_Wyrm: 110G (0.7%, 1,178G)
datadrivenbot: 100G (0.6%, 33,470G)
ChronoG: 50G (0.3%, 4,280G)
