Final Bets: purple - 16 bets for 6,012G (22.6%, x3.42); brown - 28 bets for 20,573G (77.4%, x0.29)

purple bets:
BirbBrainsBot: 1,000G (16.6%, 157,176G)
bairen0: 833G (13.9%, 833G)
aStatue: 600G (10.0%, 600G)
HaateXIII: 500G (8.3%, 29,110G)
sinnyil2: 500G (8.3%, 13,776G)
Estan_AD: 499G (8.3%, 499G)
ZephyrTempest: 456G (7.6%, 4,002G)
fenaen: 408G (6.8%, 408G)
ungabunga_bot: 303G (5.0%, 292,558G)
cgMcWhiskers: 240G (4.0%, 240G)
getthemoneyz: 206G (3.4%, 608,855G)
mirapoix: 150G (2.5%, 2,577G)
RestIessNight: 104G (1.7%, 104G)
ANFz: 100G (1.7%, 25,451G)
vampyreinabox: 100G (1.7%, 551G)
daveb_: 13G (0.2%, 1,593G)

brown bets:
Lordminsc: 2,618G (12.7%, 5,236G)
Pie108: 2,000G (9.7%, 195,355G)
deenglow: 2,000G (9.7%, 58,590G)
volgrathemoose: 1,501G (7.3%, 9,679G)
ko2q: 1,272G (6.2%, 1,272G)
Baron_von_Scrub: 1,111G (5.4%, 84,260G)
killth3kid: 1,000G (4.9%, 62,002G)
Mesmaster: 1,000G (4.9%, 52,316G)
Shalloween: 1,000G (4.9%, 8,546G)
Arlum: 1,000G (4.9%, 2,041G)
DeathTaxesAndAnime: 822G (4.0%, 822G)
Gelwain: 568G (2.8%, 568G)
itzover9001: 566G (2.8%, 1,132G)
Theseawolf1: 500G (2.4%, 7,881G)
corwinambrose: 500G (2.4%, 1,318G)
lijarkh: 500G (2.4%, 26,419G)
CorpusCav: 453G (2.2%, 15,743G)
luminarii: 450G (2.2%, 19,843G)
HorusTaurus: 325G (1.6%, 325G)
hydroshade: 306G (1.5%, 306G)
trigger15: 250G (1.2%, 6,612G)
StreamraY: 200G (1.0%, 1,330G)
animefan112233: 116G (0.6%, 116G)
Bioticism: 115G (0.6%, 2,335G)
nifboy: 100G (0.5%, 9,004G)
tmo50x: 100G (0.5%, 9,842G)
Lythe_Caraker: 100G (0.5%, 119,383G)
datadrivenbot: 100G (0.5%, 11,219G)
