Final Bets: purple - 11 bets for 11,341G (45.4%, x1.20); brown - 13 bets for 13,627G (54.6%, x0.83)

purple bets:
ko2q: 3,049G (26.9%, 3,049G)
nhammen: 3,000G (26.5%, 349,409G)
superdevon1: 1,986G (17.5%, 66,210G)
BirbBrainsBot: 1,000G (8.8%, 143,916G)
Drusiform: 1,000G (8.8%, 31,985G)
SkylerBunny: 668G (5.9%, 668G)
AllInBot: 200G (1.8%, 200G)
getthemoneyz: 138G (1.2%, 1,571,475G)
MinBetBot: 100G (0.9%, 20,517G)
Firesheath: 100G (0.9%, 27,028G)
Brainstew29: 100G (0.9%, 38,838G)

brown bets:
DeathTaxesAndAnime: 8,034G (59.0%, 15,754G)
douchetron: 1,582G (11.6%, 1,582G)
itskage: 1,294G (9.5%, 12,944G)
Gunz232323: 580G (4.3%, 580G)
reddwind_: 568G (4.2%, 8,438G)
silentperogy: 400G (2.9%, 32,211G)
Aestheta: 244G (1.8%, 244G)
Zeldrick: 239G (1.8%, 239G)
xBizzy: 220G (1.6%, 220G)
Rook512: 161G (1.2%, 1,619G)
Gyrolin: 104G (0.8%, 104G)
gorgewall: 101G (0.7%, 4,779G)
MidnightAaron: 100G (0.7%, 2,456G)
