Final Bets: white - 18 bets for 8,467G (25.3%, x2.95); brown - 11 bets for 24,962G (74.7%, x0.34)

white bets:
superdevon1: 1,270G (15.0%, 63,518G)
TheMurkGnome: 1,172G (13.8%, 20,728G)
BirbBrainsBot: 1,000G (11.8%, 141,916G)
MidnightAaron: 1,000G (11.8%, 1,539G)
ko2q: 684G (8.1%, 684G)
SkylerBunny: 668G (7.9%, 668G)
itskage: 600G (7.1%, 12,619G)
Armorgames1: 360G (4.3%, 3,603G)
nhammen: 300G (3.5%, 341,409G)
getthemoneyz: 288G (3.4%, 1,570,809G)
Aestheta: 244G (2.9%, 244G)
xBizzy: 220G (2.6%, 220G)
Chuckolator: 205G (2.4%, 6,381G)
nok____: 200G (2.4%, 4,748G)
Gyrolin: 104G (1.2%, 104G)
Brainstew29: 100G (1.2%, 38,638G)
dtrain332: 27G (0.3%, 2,708G)
Rook512: 25G (0.3%, 1,993G)

brown bets:
DeathTaxesAndAnime: 19,461G (78.0%, 38,159G)
NicoSavoy: 1,967G (7.9%, 49,199G)
douchetron: 1,421G (5.7%, 1,421G)
NovaKnight21: 576G (2.3%, 576G)
Kronikle: 500G (2.0%, 11,816G)
AllInBot: 475G (1.9%, 475G)
Zeldrick: 138G (0.6%, 138G)
Lydian_C: 123G (0.5%, 21,942G)
gorgewall: 101G (0.4%, 4,002G)
MinBetBot: 100G (0.4%, 20,554G)
Drusiform: 100G (0.4%, 29,985G)
