Final Bets: blue - 15 bets for 6,998G (50.1%, x1.00); green - 8 bets for 6,977G (49.9%, x1.00)

blue bets:
Mesmaster: 2,292G (32.8%, 2,292G)
BirbBrainsBot: 1,000G (14.3%, 50,240G)
WhiteTigress: 700G (10.0%, 4,547G)
superdevon1: 607G (8.7%, 60,752G)
sinnyil2: 555G (7.9%, 13,480G)
Chuckolator: 344G (4.9%, 344G)
resjudicata3: 300G (4.3%, 300G)
neocarbuncle: 276G (3.9%, 276G)
CT_5_Holy: 200G (2.9%, 4,323G)
datadrivenbot: 200G (2.9%, 57,388G)
roofiepops: 123G (1.8%, 18,074G)
gorgewall: 101G (1.4%, 5,060G)
MinBetBot: 100G (1.4%, 22,465G)
ko2q: 100G (1.4%, 2,708G)
arctodus13: 100G (1.4%, 363G)

green bets:
skillomono: 1,751G (25.1%, 1,751G)
latebit: 1,350G (19.3%, 20,747G)
SkylerBunny: 1,301G (18.6%, 2,551G)
braveboyblue: 1,000G (14.3%, 17,758G)
Nizaha: 716G (10.3%, 6,920G)
zenlion: 500G (7.2%, 12,102G)
AllInBot: 257G (3.7%, 257G)
getthemoneyz: 102G (1.5%, 1,616,652G)
