Final Bets: green - 22 bets for 14,499G (65.0%, x0.54); yellow - 11 bets for 7,811G (35.0%, x1.86)

green bets:
SkylerBunny: 3,000G (20.7%, 516,482G)
Baron_von_Scrub: 2,335G (16.1%, 4,671G)
RunicMagus: 1,250G (8.6%, 55,159G)
Nizaha: 1,001G (6.9%, 10,049G)
WitchHunterIX: 1,000G (6.9%, 10,666G)
extinctrational: 801G (5.5%, 801G)
DLJuggernaut: 755G (5.2%, 1,481G)
E_Ballard: 660G (4.6%, 660G)
reinoe: 600G (4.1%, 600G)
killth3kid: 500G (3.4%, 11,433G)
DarrenDinosaurs: 496G (3.4%, 496G)
roofiepops: 444G (3.1%, 4,198G)
Shalloween: 400G (2.8%, 78,217G)
alterworlds: 248G (1.7%, 248G)
gorgewall: 201G (1.4%, 26,893G)
LionelParks: 200G (1.4%, 6,400G)
porkchop5158: 124G (0.9%, 124G)
Firesheath: 100G (0.7%, 9,114G)
moocaotao: 100G (0.7%, 4,453G)
CosmicTactician: 100G (0.7%, 21,840G)
datadrivenbot: 100G (0.7%, 48,430G)
getthemoneyz: 84G (0.6%, 1,069,284G)

yellow bets:
roqqqpsi: 3,233G (41.4%, 29,391G)
BirbBrainsBot: 1,000G (12.8%, 44,221G)
Mesmaster: 1,000G (12.8%, 97,817G)
Zagorsek: 888G (11.4%, 888G)
VolgraTheMoose: 500G (6.4%, 500G)
Rislyeu: 336G (4.3%, 336G)
ColetteMSLP: 300G (3.8%, 3,184G)
Lythe_Caraker: 250G (3.2%, 142,300G)
rmelzer1986: 104G (1.3%, 104G)
nhammen: 100G (1.3%, 1,466G)
Ring_Wyrm: 100G (1.3%, 3,414G)
