Final Bets: blue - 20 bets for 7,418G (45.9%, x1.18); yellow - 11 bets for 8,760G (54.1%, x0.85)

blue bets:
BirbBrainsBot: 1,000G (13.5%, 44,109G)
UmaiJam: 1,000G (13.5%, 27,109G)
ShintaroNayaka: 847G (11.4%, 847G)
extinctrational: 590G (8.0%, 590G)
Aldrammech: 559G (7.5%, 559G)
VolgraTheMoose: 500G (6.7%, 500G)
killth3kid: 500G (6.7%, 11,223G)
DarrenDinosaurs: 496G (6.7%, 496G)
Rislyeu: 340G (4.6%, 340G)
ColetteMSLP: 300G (4.0%, 3,641G)
Nizaha: 201G (2.7%, 9,299G)
gorgewall: 201G (2.7%, 26,625G)
LionelParks: 200G (2.7%, 6,400G)
nhammen: 100G (1.3%, 1,710G)
moocaotao: 100G (1.3%, 4,153G)
Ring_Wyrm: 100G (1.3%, 3,558G)
fluffskull: 100G (1.3%, 1,109G)
datadrivenbot: 100G (1.3%, 48,288G)
Firesheath: 100G (1.3%, 9,014G)
getthemoneyz: 84G (1.1%, 1,068,830G)

yellow bets:
roqqqpsi: 3,876G (44.2%, 35,242G)
Mesmaster: 2,000G (22.8%, 101,004G)
Laserman1000: 868G (9.9%, 4,568G)
DeathTaxesAndAnime: 716G (8.2%, 716G)
placidphoenix: 300G (3.4%, 3,603G)
sososteve: 300G (3.4%, 1,804G)
silentkaster: 200G (2.3%, 11,124G)
Evewho: 200G (2.3%, 7,488G)
Digitalsocrates: 100G (1.1%, 2,735G)
rmelzer1986: 100G (1.1%, 255G)
nifboy: 100G (1.1%, 3,391G)
