Final Bets: purple - 12 bets for 12,011G (46.1%, x1.17); brown - 17 bets for 14,018G (53.9%, x0.86)

purple bets:
NovaKnight21: 4,667G (38.9%, 4,667G)
LDSkinny: 1,836G (15.3%, 1,836G)
CosmicTactician: 1,630G (13.6%, 1,630G)
khelor_: 1,330G (11.1%, 1,330G)
DrAntiSocial: 828G (6.9%, 828G)
Shalloween: 728G (6.1%, 728G)
Forkmore: 340G (2.8%, 340G)
datadrivenbot: 200G (1.7%, 81,041G)
AbandonedHall: 152G (1.3%, 152G)
Sharosa: 100G (0.8%, 152G)
Thyrandaal: 100G (0.8%, 168,434G)
mirapoix: 100G (0.8%, 3,641G)

brown bets:
latebit: 5,328G (38.0%, 88,814G)
ItotheCtotheE: 1,000G (7.1%, 28,580G)
LivingHitokiri: 1,000G (7.1%, 162,896G)
BirbBrainsBot: 1,000G (7.1%, 142,271G)
E_Ballard: 828G (5.9%, 828G)
killth3kid: 796G (5.7%, 36,210G)
maakur_: 624G (4.5%, 624G)
DLJuggernaut: 620G (4.4%, 620G)
DavenIII: 516G (3.7%, 516G)
lotharek: 500G (3.6%, 6,607G)
getthemoneyz: 370G (2.6%, 2,130,348G)
KinniQuacks: 350G (2.5%, 2,120G)
tripaplex: 300G (2.1%, 1,997G)
scsuperstar: 250G (1.8%, 5,440G)
ShadowNinja25: 236G (1.7%, 236G)
AllInBot: 200G (1.4%, 200G)
GeNoFPaniC: 100G (0.7%, 100G)
