Final Bets: purple - 11 bets for 5,628G (34.2%, x1.92); brown - 15 bets for 10,824G (65.8%, x0.52)

purple bets:
Forkmore: 1,111G (19.7%, 28,906G)
DeathTaxesAndAnime: 788G (14.0%, 788G)
Firesheath: 684G (12.2%, 684G)
ShintaroNayaka: 600G (10.7%, 600G)
Zagorsek: 581G (10.3%, 581G)
Nizaha: 504G (9.0%, 9,107G)
Deathmaker06: 500G (8.9%, 8,993G)
phoenix6107: 329G (5.8%, 329G)
letdowncity: 230G (4.1%, 11,529G)
safira125: 200G (3.6%, 2,351G)
Baron_von_Scrub: 101G (1.8%, 25,511G)

brown bets:
reinoe: 4,127G (38.1%, 8,093G)
placidphoenix: 1,032G (9.5%, 1,032G)
RampagingRobot: 1,000G (9.2%, 16,000G)
J2DaBibbles: 1,000G (9.2%, 21,475G)
Evewho: 1,000G (9.2%, 16,014G)
BlackFireUK: 500G (4.6%, 3,941G)
HaateXIII: 500G (4.6%, 8,780G)
Mathlexis: 450G (4.2%, 3,214G)
getthemoneyz: 396G (3.7%, 1,154,563G)
LAGBOT30000: 300G (2.8%, 3,791G)
RageImmortaI: 168G (1.6%, 168G)
gorgewall: 101G (0.9%, 5,241G)
Miku_Shikhu: 100G (0.9%, 22,394G)
datadrivenbot: 100G (0.9%, 52,079G)
moonliquor: 50G (0.5%, 3,646G)
