Final Bets: blue - 15 bets for 10,343G (51.3%, x0.95); brown - 13 bets for 9,800G (48.7%, x1.06)

blue bets:
Firesheath: 3,025G (29.2%, 3,025G)
Chuckolator: 1,766G (17.1%, 85,677G)
butterbelljedi: 1,321G (12.8%, 1,321G)
RampagingRobot: 1,000G (9.7%, 16,000G)
DeathTaxesAndAnime: 788G (7.6%, 788G)
ShintaroNayaka: 600G (5.8%, 600G)
reinoe: 500G (4.8%, 9,475G)
killth3kid: 444G (4.3%, 132,278G)
RageImmortaI: 294G (2.8%, 294G)
phoenix6107: 104G (1.0%, 104G)
gorgewall: 101G (1.0%, 5,327G)
Ring_Wyrm: 100G (1.0%, 2,143G)
fluffskull: 100G (1.0%, 3,152G)
datadrivenbot: 100G (1.0%, 51,931G)
holy_explosion: 100G (1.0%, 100G)

brown bets:
Mesmaster: 2,000G (20.4%, 5,935G)
UmaiJam: 1,800G (18.4%, 82,615G)
Mathlexis: 1,618G (16.5%, 3,596G)
Forkmore: 1,000G (10.2%, 27,693G)
E_Ballard: 842G (8.6%, 842G)
mpghappiness: 536G (5.5%, 1,076G)
Nizaha: 504G (5.1%, 8,551G)
Rurk: 500G (5.1%, 16,819G)
run_with_stone_GUNs: 250G (2.6%, 3,991G)
placidphoenix: 248G (2.5%, 248G)
getthemoneyz: 202G (2.1%, 1,154,669G)
maleblackfiora: 200G (2.0%, 974G)
Grandlanzer: 100G (1.0%, 43,521G)
