Final Bets: red - 22 bets for 23,272G (76.6%, x0.31); brown - 14 bets for 7,118G (23.4%, x3.27)

red bets:
HaateXIII: 11,100G (47.7%, 11,100G)
Digitalsocrates: 2,000G (8.6%, 31,599G)
mattcorn7: 1,807G (7.8%, 1,807G)
JumbocactuarX27: 1,288G (5.5%, 1,288G)
Theseawolf1: 1,000G (4.3%, 37,812G)
Oobs56: 1,000G (4.3%, 3,746G)
TheChainNerd: 700G (3.0%, 700G)
Laserman1000: 601G (2.6%, 13,001G)
YaBoy125: 532G (2.3%, 532G)
Cryptopsy70: 528G (2.3%, 12,489G)
CosmicTactician: 500G (2.1%, 24,009G)
Mosses76: 444G (1.9%, 35,886G)
killth3kid: 384G (1.7%, 384G)
CapnChaos12: 300G (1.3%, 11,266G)
cam_ATS: 288G (1.2%, 288G)
kaidykat: 200G (0.9%, 29,364G)
Alanaire: 100G (0.4%, 9,221G)
Bongomon7: 100G (0.4%, 7,753G)
Firesheath: 100G (0.4%, 1,992G)
ko2q: 100G (0.4%, 2,542G)
datadrivenbot: 100G (0.4%, 34,665G)
RuneS_77: 100G (0.4%, 9,914G)

brown bets:
Evewho: 1,203G (16.9%, 2,359G)
Thyrandaal: 1,108G (15.6%, 1,108G)
OneHundredFists: 1,000G (14.0%, 44,952G)
BirbBrainsBot: 825G (11.6%, 123,795G)
Rislyeu: 750G (10.5%, 11,222G)
Yiroep2: 500G (7.0%, 1,350G)
dogsandcatsand: 500G (7.0%, 19,801G)
metagameface: 376G (5.3%, 376G)
HaychDub: 250G (3.5%, 25,192G)
brokenknight201: 200G (2.8%, 1,392G)
getthemoneyz: 106G (1.5%, 916,922G)
AllInBot: 100G (1.4%, 100G)
nifboy: 100G (1.4%, 1,457G)
E_Ballard: 100G (1.4%, 5,784G)
