Final Bets: red - 21 bets for 17,045G (68.4%, x0.46); purple - 9 bets for 7,889G (31.6%, x2.16)

red bets:
Thyrandaal: 5,000G (29.3%, 83,987G)
gorgewall: 1,599G (9.4%, 1,599G)
chronicdeath: 1,482G (8.7%, 1,482G)
timthehoodie: 1,000G (5.9%, 4,505G)
Aldrammech: 1,000G (5.9%, 12,512G)
BirbBrainsBot: 1,000G (5.9%, 46,408G)
soren_of_tyto: 776G (4.6%, 776G)
E_Ballard: 764G (4.5%, 63,803G)
killth3kid: 528G (3.1%, 2,922G)
CapnChaos12: 500G (2.9%, 1,494G)
WesSideVandal: 500G (2.9%, 1,680G)
CorpusCav: 500G (2.9%, 2,928G)
Lord_Gwarth: 500G (2.9%, 2,026G)
thunderducker: 432G (2.5%, 432G)
Cryptopsy70: 332G (1.9%, 816G)
DeathTaxesAndAnime: 320G (1.9%, 2,408G)
douchetron: 228G (1.3%, 228G)
Radiance89: 212G (1.2%, 212G)
datadrivenbot: 200G (1.2%, 64,841G)
AllInBot: 100G (0.6%, 100G)
getthemoneyz: 72G (0.4%, 1,749,184G)

purple bets:
VolgraTheMoose: 2,001G (25.4%, 74,795G)
Mesmaster: 2,000G (25.4%, 55,361G)
DustBirdEX: 1,832G (23.2%, 1,832G)
SkylerBunny: 616G (7.8%, 616G)
lowlf: 408G (5.2%, 9,657G)
MagicBottle: 328G (4.2%, 328G)
twelfthrootoftwo: 300G (3.8%, 2,290G)
Runeseeker22: 204G (2.6%, 1,258G)
Omally_: 200G (2.5%, 204G)
