Final Bets: purple - 16 bets for 8,578G (61.4%, x0.63); brown - 8 bets for 5,387G (38.6%, x1.59)

purple bets:
Candina: 2,000G (23.3%, 20,913G)
Evewho: 1,297G (15.1%, 2,544G)
BirbBrainsBot: 1,000G (11.7%, 134,354G)
Mesmaster: 1,000G (11.7%, 63,454G)
getthemoneyz: 986G (11.5%, 706,869G)
otakutaylor: 400G (4.7%, 5,014G)
Estan_AD: 352G (4.1%, 352G)
Mr_Greed029: 300G (3.5%, 1,738G)
AllInBot: 210G (2.4%, 210G)
gorgewall: 201G (2.3%, 10,727G)
TheMM42: 200G (2.3%, 5,255G)
AlysSariel: 200G (2.3%, 1,658G)
serperemagus: 132G (1.5%, 132G)
madman_clinton: 100G (1.2%, 6,593G)
datadrivenbot: 100G (1.2%, 22,010G)
red_celt: 100G (1.2%, 538G)

brown bets:
HASTERIOUS: 2,446G (45.4%, 4,797G)
CorpusCav: 1,020G (18.9%, 11,115G)
superdevon1: 653G (12.1%, 6,530G)
argentbast: 500G (9.3%, 5,056G)
kaidykat: 300G (5.6%, 3,944G)
bruubarg: 244G (4.5%, 244G)
kaelsun: 124G (2.3%, 124G)
d4rr1n: 100G (1.9%, 2,724G)
