Final Bets: green - 11 bets for 6,110G (43.1%, x1.32); black - 14 bets for 8,073G (56.9%, x0.76)

green bets:
CorpusCav: 1,450G (23.7%, 11,450G)
BirbBrainsBot: 1,000G (16.4%, 136,329G)
Mesmaster: 1,000G (16.4%, 63,797G)
Candina: 999G (16.4%, 21,292G)
TheMM42: 500G (8.2%, 5,758G)
Estan_AD: 352G (5.8%, 352G)
kaidykat: 300G (4.9%, 4,048G)
gorgewall: 201G (3.3%, 11,032G)
getthemoneyz: 108G (1.8%, 707,737G)
d4rr1n: 100G (1.6%, 2,660G)
CrownOfHorns: 100G (1.6%, 1,541G)

black bets:
PotionDweller: 2,491G (30.9%, 2,491G)
argentbast: 1,000G (12.4%, 5,051G)
CT_5_Holy: 729G (9.0%, 729G)
Firesheath: 692G (8.6%, 692G)
superdevon1: 668G (8.3%, 6,689G)
HASTERIOUS: 612G (7.6%, 612G)
serperemagus: 581G (7.2%, 581G)
Mr_Greed029: 500G (6.2%, 1,326G)
otakutaylor: 200G (2.5%, 5,041G)
AlysSariel: 200G (2.5%, 2,054G)
AllInBot: 100G (1.2%, 100G)
madman_clinton: 100G (1.2%, 6,456G)
red_celt: 100G (1.2%, 802G)
datadrivenbot: 100G (1.2%, 22,208G)
