Player: !Black
Team: Black Team
Palettes: Black/Red



AM3P Batman
Monster
Leo
67
51
Holy Dragon










AdaephonD
Monster
Gemini
45
53
King Behemoth










Theatheologist
Monster
Cancer
68
59
Minotaur










Verxl
Monster
Sagittarius
62
56
Black Goblin







