Final Bets: red - 17 bets for 17,273G (50.1%, x1.00); brown - 21 bets for 17,213G (49.9%, x1.00)

red bets:
Virilikus: 5,000G (28.9%, 174,656G)
Mesmaster: 2,000G (11.6%, 17,478G)
SkylerBunny: 1,500G (8.7%, 47,718G)
LeoNightFury: 1,387G (8.0%, 1,387G)
ungabunga_bot: 1,000G (5.8%, 495,832G)
BirbBrainsBot: 1,000G (5.8%, 58,285G)
DLJuggernaut: 1,000G (5.8%, 4,535G)
Dexsana: 1,000G (5.8%, 3,826G)
BlackfyreRoy: 925G (5.4%, 925G)
maakur_: 571G (3.3%, 571G)
DustBirdEX: 508G (2.9%, 508G)
MercurialForge: 471G (2.7%, 471G)
tronfonne: 352G (2.0%, 352G)
nifboy: 250G (1.4%, 4,123G)
NicoSavoy: 199G (1.2%, 24,947G)
Dymntd: 100G (0.6%, 1,290G)
FriendSquirrel: 10G (0.1%, 1,315G)

brown bets:
DaMadPanda182: 2,645G (15.4%, 32,645G)
toka222: 2,490G (14.5%, 57,985G)
lowlf: 2,000G (11.6%, 32,102G)
Zeroroute: 1,571G (9.1%, 3,275G)
Ungaiii: 1,000G (5.8%, 10,124G)
edgehead62888: 1,000G (5.8%, 7,998G)
dogsandcatsand: 1,000G (5.8%, 16,649G)
Evewho: 1,000G (5.8%, 22,784G)
Lawndough: 934G (5.4%, 934G)
Rislyeu: 823G (4.8%, 3,294G)
Laserman1000: 500G (2.9%, 23,600G)
twelfthrootoftwo: 500G (2.9%, 7,663G)
EnemyController: 500G (2.9%, 244,003G)
Digitalsocrates: 394G (2.3%, 788G)
otakutaylor: 300G (1.7%, 1,828G)
Jampck: 100G (0.6%, 1,732G)
Bojanges: 100G (0.6%, 8,312G)
RunicMagus: 100G (0.6%, 39,357G)
datadrivenbot: 100G (0.6%, 17,475G)
DHaveWord: 100G (0.6%, 3,182G)
getthemoneyz: 56G (0.3%, 673,155G)
