Final Bets: blue - 27 bets for 23,156G (42.0%, x1.38); champion - 30 bets for 32,018G (58.0%, x0.72)

blue bets:
Virilikus: 3,000G (13.0%, 63,829G)
sinnyil2: 2,500G (10.8%, 22,423G)
Zeroroute: 2,040G (8.8%, 3,046G)
leakimiko: 1,625G (7.0%, 32,518G)
LanseDM: 1,500G (6.5%, 10,041G)
BlinkFS: 1,223G (5.3%, 1,223G)
I_nod_my_head_when_I_lose: 1,000G (4.3%, 22,278G)
BirbBrainsBot: 1,000G (4.3%, 22,692G)
WireLord: 1,000G (4.3%, 31,800G)
red__lancer: 1,000G (4.3%, 30,266G)
Baron_von_Scrub: 864G (3.7%, 864G)
mirapoix: 822G (3.5%, 1,645G)
Evewho: 792G (3.4%, 792G)
Aldrammech: 682G (2.9%, 6,825G)
datadrivenbot: 639G (2.8%, 25,040G)
Goust18: 600G (2.6%, 15,313G)
roofiepops: 555G (2.4%, 10,425G)
wollise89: 500G (2.2%, 2,273G)
TheMurkGnome: 449G (1.9%, 6,673G)
HaateXIII: 324G (1.4%, 324G)
ZephyrTempest: 274G (1.2%, 45,014G)
Aka_Gilly: 200G (0.9%, 9,966G)
proper__noun__: 190G (0.8%, 551G)
ko2q: 100G (0.4%, 5,166G)
moonliquor: 100G (0.4%, 523G)
BuffaloCrunch: 100G (0.4%, 14,101G)
Ross_from_Cali: 77G (0.3%, 1,003G)

champion bets:
MoonSlayerRS: 4,503G (14.1%, 4,503G)
shinji202: 4,000G (12.5%, 115,141G)
reinoe: 3,000G (9.4%, 15,439G)
Nizaha: 2,472G (7.7%, 4,945G)
Theseawolf1: 2,000G (6.2%, 5,500G)
Lanshaft: 1,792G (5.6%, 1,792G)
Laserman1000: 1,614G (5.0%, 13,814G)
OmnibotGamma: 1,292G (4.0%, 1,292G)
NoNotBees: 1,220G (3.8%, 1,220G)
DeathTaxesAndAnime: 1,215G (3.8%, 2,383G)
Kobold_Jager: 1,071G (3.3%, 2,142G)
Lord_Burrah: 1,000G (3.1%, 95,242G)
Tyerenex: 1,000G (3.1%, 7,365G)
Jerboj: 1,000G (3.1%, 17,453G)
b0shii: 752G (2.3%, 752G)
thevilmen: 608G (1.9%, 608G)
volgrathemoose: 606G (1.9%, 606G)
ungabunga_bot: 604G (1.9%, 84,148G)
SkylerBunny: 360G (1.1%, 360G)
AllInBot: 355G (1.1%, 355G)
urieltheflameofgod: 300G (0.9%, 8,703G)
sneakyness: 232G (0.7%, 232G)
CorpusCav: 222G (0.7%, 11,233G)
Bongomon7: 200G (0.6%, 3,292G)
Tougou: 100G (0.3%, 6,912G)
ANFz: 100G (0.3%, 2,807G)
Kronikle: 100G (0.3%, 7,616G)
SeraphPDH: 100G (0.3%, 3,606G)
DrAntiSocial: 100G (0.3%, 3,513G)
RunicMagus: 100G (0.3%, 3,412G)
