Final Bets: red - 13 bets for 7,892G (50.3%, x0.99); blue - 17 bets for 7,791G (49.7%, x1.01)

red bets:
Aldrammech: 2,000G (25.3%, 31,926G)
RabidHampsters: 2,000G (25.3%, 9,198G)
DeathTaxesAndAnime: 1,605G (20.3%, 1,605G)
killth3kid: 500G (6.3%, 16,247G)
Digitalsocrates: 500G (6.3%, 14,108G)
E_Ballard: 392G (5.0%, 392G)
Miku_Shikhu: 224G (2.8%, 224G)
MiseryKoss: 200G (2.5%, 444G)
Coolguye: 150G (1.9%, 3,011G)
Lydian_C: 120G (1.5%, 6,351G)
Evewho: 100G (1.3%, 12,688G)
ANFz: 100G (1.3%, 4,577G)
Nohurty: 1G (0.0%, 1,235G)

blue bets:
OneHundredFists: 1,009G (13.0%, 1,009G)
BirbBrainsBot: 1,000G (12.8%, 120,163G)
sinnyil2: 712G (9.1%, 712G)
Thyrandaal: 613G (7.9%, 613G)
BoneMiser: 600G (7.7%, 600G)
Rislyeu: 532G (6.8%, 532G)
HaychDub: 532G (6.8%, 532G)
Laserman1000: 500G (6.4%, 22,700G)
mpghappiness: 456G (5.9%, 456G)
gorgewall: 368G (4.7%, 368G)
getthemoneyz: 330G (4.2%, 830,677G)
Grandlanzer: 304G (3.9%, 304G)
DustBirdEX: 285G (3.7%, 571G)
Geffro1908: 200G (2.6%, 494G)
ar_tactic: 150G (1.9%, 60,474G)
CosmicTactician: 100G (1.3%, 15,090G)
Celdia: 100G (1.3%, 784G)
