Final Bets: red - 7 bets for 8,474G (39.5%, x1.53); blue - 24 bets for 12,955G (60.5%, x0.65)

red bets:
twelfthrootoftwo: 3,305G (39.0%, 6,481G)
AllInBot: 2,758G (32.5%, 2,758G)
Zeroroute: 870G (10.3%, 870G)
randgridr: 780G (9.2%, 780G)
latebit: 461G (5.4%, 461G)
InOzWeTrust: 200G (2.4%, 8,026G)
Legionx13: 100G (1.2%, 3,514G)

blue bets:
EnemyController: 2,222G (17.2%, 1,457,344G)
NIghtdew14: 1,520G (11.7%, 6,080G)
BirbBrainsBot: 1,000G (7.7%, 90,458G)
boosted420: 1,000G (7.7%, 4,493G)
NicoSavoy: 1,000G (7.7%, 231,606G)
nifboy: 899G (6.9%, 1,799G)
RyanTheRebs: 800G (6.2%, 3,048G)
getthemoneyz: 558G (4.3%, 1,325,421G)
TheMurkGnome: 541G (4.2%, 4,553G)
JDogg2K4: 511G (3.9%, 511G)
Geffro1908: 460G (3.6%, 460G)
ColetteMSLP: 300G (2.3%, 4,886G)
brokenknight201: 300G (2.3%, 577G)
Treafa: 260G (2.0%, 390G)
gorgewall: 201G (1.6%, 5,843G)
dtrain332: 200G (1.5%, 979G)
SUGRboi: 200G (1.5%, 335G)
datadrivenbot: 200G (1.5%, 32,074G)
dem0nj0ns: 200G (1.5%, 3,905G)
Powermhero: 183G (1.4%, 27,183G)
TasisSai: 100G (0.8%, 1,477G)
mirapoix: 100G (0.8%, 8,622G)
Firesheath: 100G (0.8%, 3,952G)
BlueAbs: 100G (0.8%, 3,127G)
