Final Bets: white - 9 bets for 4,443G (35.2%, x1.84); purple - 14 bets for 8,171G (64.8%, x0.54)

white bets:
NovaKnight21: 2,311G (52.0%, 2,311G)
upvla: 500G (11.3%, 18,363G)
BirbBrainsBot: 478G (10.8%, 6,654G)
DirkC_Fenrir84: 250G (5.6%, 3,053G)
b0lt: 204G (4.6%, 204G)
DouglasDragonThePoet: 200G (4.5%, 3,395G)
Sharosa: 200G (4.5%, 5,536G)
thequeenfuta: 200G (4.5%, 200G)
OneHundredFists: 100G (2.3%, 18,386G)

purple bets:
HorusTaurus: 2,000G (24.5%, 9,216G)
FatTunaKing: 1,573G (19.3%, 1,573G)
randgridr: 1,427G (17.5%, 2,783G)
Aaron2Nerdy: 702G (8.6%, 702G)
Genkidou: 480G (5.9%, 960G)
seppu777: 444G (5.4%, 2,440G)
resjudicata3: 300G (3.7%, 2,369G)
AllInBot: 243G (3.0%, 243G)
Evewho: 200G (2.4%, 8,988G)
datadrivenbot: 200G (2.4%, 82,716G)
bdb_goldenleo: 186G (2.3%, 690G)
getthemoneyz: 180G (2.2%, 2,143,319G)
DragonLord_Carter: 125G (1.5%, 479G)
PantherIscariot: 111G (1.4%, 2,309G)
