Final Bets: blue - 11 bets for 3,823G (32.5%, x2.08); champion - 11 bets for 7,938G (67.5%, x0.48)

blue bets:
OneHundredFists: 1,200G (31.4%, 21,685G)
BirbBrainsBot: 1,000G (26.2%, 7,094G)
theQueenfuta: 384G (10.0%, 384G)
TheBrett: 268G (7.0%, 4,071G)
getthemoneyz: 208G (5.4%, 2,143,325G)
b0lt: 204G (5.3%, 204G)
bdb_goldenleo: 159G (4.2%, 2,467G)
DouglasDragonThePoet: 100G (2.6%, 4,791G)
lijarkh: 100G (2.6%, 9,974G)
DragonLord_Carter: 100G (2.6%, 639G)
DirkC_Fenrir84: 100G (2.6%, 3,532G)

champion bets:
E_Ballard: 2,539G (32.0%, 2,539G)
resjudicata3: 1,699G (21.4%, 3,332G)
Aaron2Nerdy: 1,042G (13.1%, 1,042G)
Willjin: 600G (7.6%, 33,527G)
FatTunaKing: 532G (6.7%, 532G)
ar_tactic: 400G (5.0%, 74,268G)
HorusTaurus: 400G (5.0%, 10,504G)
Deeps_one: 300G (3.8%, 3,520G)
AllInBot: 200G (2.5%, 200G)
datadrivenbot: 200G (2.5%, 83,009G)
NovaKnight21: 26G (0.3%, 1,726G)
