Final Bets: red - 19 bets for 18,948G (48.1%, x1.08); yellow - 31 bets for 20,429G (51.9%, x0.93)

red bets:
Aldrammech: 10,821G (57.1%, 21,642G)
Goust18: 2,420G (12.8%, 2,420G)
danielOut: 1,067G (5.6%, 1,067G)
Evewho: 1,000G (5.3%, 6,249G)
Tougou: 600G (3.2%, 600G)
DarrenDinosaurs: 500G (2.6%, 8,013G)
fenixcrest: 472G (2.5%, 472G)
LAGBOT30000: 342G (1.8%, 6,840G)
SystemShut: 291G (1.5%, 291G)
HaateXIII: 250G (1.3%, 2,314G)
banjooie: 244G (1.3%, 244G)
DeathTaxesAndAnime: 200G (1.1%, 2,642G)
robespyah: 130G (0.7%, 523G)
Jordache7K: 111G (0.6%, 13,758G)
ApplesauceBoss: 100G (0.5%, 2,175G)
Oshimi12: 100G (0.5%, 2,894G)
Lythe_Caraker: 100G (0.5%, 47,531G)
SpaZmodeus: 100G (0.5%, 1,851G)
datadrivenbot: 100G (0.5%, 15,124G)

yellow bets:
rockmem21: 6,536G (32.0%, 43,574G)
NewVanguard: 2,255G (11.0%, 2,255G)
CorpusCav: 1,211G (5.9%, 1,211G)
sinnyil2: 1,200G (5.9%, 5,193G)
BirbBrainsBot: 1,000G (4.9%, 129,287G)
inzo_bettingbot: 1,000G (4.9%, 61,108G)
bad1dea: 1,000G (4.9%, 339,019G)
Axelrod: 1,000G (4.9%, 48,587G)
SkylerBunny: 580G (2.8%, 580G)
volgrathemoose: 500G (2.4%, 7,342G)
CCRUNNER149UWP: 444G (2.2%, 2,817G)
getthemoneyz: 344G (1.7%, 401,898G)
TheRobbieRobster: 336G (1.6%, 336G)
OmnibotGamma: 324G (1.6%, 324G)
greghatch: 294G (1.4%, 294G)
ZephyrTempest: 272G (1.3%, 24,228G)
mirapoix: 250G (1.2%, 5,602G)
ensiron: 224G (1.1%, 224G)
Numbersborne: 208G (1.0%, 208G)
ugoplatamia: 200G (1.0%, 8,743G)
b_bot: 200G (1.0%, 3,385G)
RunicMagus: 200G (1.0%, 21,702G)
BurlapChampion: 150G (0.7%, 1,152G)
AllInBot: 100G (0.5%, 100G)
BadBlanket: 100G (0.5%, 4,606G)
joewcarson: 100G (0.5%, 100G)
FattyBearsteak: 100G (0.5%, 5,172G)
old_overholt_: 100G (0.5%, 1,026G)
Nizaha: 100G (0.5%, 16,336G)
richardserious: 100G (0.5%, 1,023G)
daveb_: 1G (0.0%, 939G)
