Final Bets: green - 16 bets for 5,445G (46.5%, x1.15); yellow - 8 bets for 6,254G (53.5%, x0.87)

green bets:
evdoggity: 1,000G (18.4%, 92,655G)
Zagorsek: 952G (17.5%, 952G)
neocarbuncle: 831G (15.3%, 831G)
Baron_von_Scrub: 516G (9.5%, 516G)
BirbBrainsBot: 423G (7.8%, 74,510G)
benticore: 250G (4.6%, 7,608G)
EnemyController: 250G (4.6%, 1,359,914G)
Yiroep2: 243G (4.5%, 243G)
Meta_Five: 200G (3.7%, 38,463G)
getthemoneyz: 180G (3.3%, 1,077,932G)
Ring_Wyrm: 100G (1.8%, 3,445G)
Kellios11: 100G (1.8%, 49,820G)
thewondertrickster: 100G (1.8%, 289G)
jojo2k: 100G (1.8%, 832G)
datadrivenbot: 100G (1.8%, 46,218G)
diyahressem: 100G (1.8%, 318G)

yellow bets:
SkylerBunny: 2,000G (32.0%, 526,146G)
E_Ballard: 1,245G (19.9%, 1,245G)
DeathTaxesAndAnime: 1,242G (19.9%, 1,242G)
amiture: 1,000G (16.0%, 11,904G)
Digitalsocrates: 300G (4.8%, 300G)
SuzakuReii: 244G (3.9%, 244G)
Lydian_C: 123G (2.0%, 185,859G)
Grandlanzer: 100G (1.6%, 33,433G)
