Final Bets: green - 10 bets for 6,647G (43.8%, x1.29); yellow - 13 bets for 8,546G (56.2%, x0.78)

green bets:
TheChainNerd: 2,651G (39.9%, 26,510G)
killth3kid: 1,000G (15.0%, 106,628G)
dogsandcatsand: 666G (10.0%, 3,892G)
Cryptopsy70: 600G (9.0%, 19,308G)
FriendSquirrel: 524G (7.9%, 524G)
GatsbysGhost: 500G (7.5%, 5,907G)
ArashiKurobara: 284G (4.3%, 9,214G)
EnemyController: 222G (3.3%, 1,380,888G)
nhammen: 100G (1.5%, 11,975G)
Quadh0nk: 100G (1.5%, 4,886G)

yellow bets:
UmaiJam: 1,700G (19.9%, 70,261G)
ShintaroNayaka: 1,253G (14.7%, 1,253G)
fenaen: 1,200G (14.0%, 26,946G)
BirbBrainsBot: 1,000G (11.7%, 125,977G)
JumbocactuarX27: 1,000G (11.7%, 6,554G)
run_with_stone_GUNs: 666G (7.8%, 13,913G)
getthemoneyz: 616G (7.2%, 1,218,630G)
benticore: 511G (6.0%, 10,233G)
datadrivenbot: 200G (2.3%, 54,975G)
just_here2: 200G (2.3%, 16,782G)
neerrm: 100G (1.2%, 15,755G)
StrawbreeRed: 50G (0.6%, 146G)
SephDarkheart: 50G (0.6%, 23,479G)
