Final Bets: black - 9 bets for 6,993G (49.1%, x1.04); purple - 15 bets for 7,250G (50.9%, x0.96)

black bets:
CorpusCav: 2,000G (28.6%, 112,431G)
NicoSavoy: 2,000G (28.6%, 228,372G)
ruleof5: 954G (13.6%, 1,909G)
ValensEXP_: 520G (7.4%, 26,035G)
lowlf: 420G (6.0%, 6,103G)
superdevon1: 396G (5.7%, 396G)
IaibOaob: 333G (4.8%, 23,364G)
getthemoneyz: 270G (3.9%, 2,217,877G)
datadrivenbot: 100G (1.4%, 86,555G)

purple bets:
SensualOnix: 1,504G (20.7%, 1,504G)
AllInBot: 1,186G (16.4%, 1,186G)
helpimabug: 1,001G (13.8%, 4,096G)
Sairentozon7: 708G (9.8%, 708G)
Jehudy7: 700G (9.7%, 6,202G)
BirbBrainsBot: 596G (8.2%, 98,743G)
xXTysongXx: 300G (4.1%, 2,671G)
Genkidou: 284G (3.9%, 284G)
gorgewall: 201G (2.8%, 8,921G)
abubulive: 200G (2.8%, 517G)
YowaneHaku: 150G (2.1%, 8,373G)
verythinice: 120G (1.7%, 120G)
DeathTaxesAndAnime: 100G (1.4%, 25,087G)
JethroThrul: 100G (1.4%, 6,137G)
MemoriesofFinal: 100G (1.4%, 7,698G)
