Final Bets: green - 18 bets for 14,144G (57.3%, x0.75); yellow - 17 bets for 10,556G (42.7%, x1.34)

green bets:
OneHundredFists: 2,981G (21.1%, 5,847G)
NovaKnight21: 2,000G (14.1%, 20,373G)
TheChainNerd: 1,500G (10.6%, 29,000G)
GladiatorLupe: 1,383G (9.8%, 1,383G)
Nickyfive: 1,119G (7.9%, 1,119G)
megaman2202: 865G (6.1%, 865G)
Laserman1000: 600G (4.2%, 26,104G)
volgrathemoose: 565G (4.0%, 565G)
nifboy: 500G (3.5%, 5,674G)
UmaiJam: 500G (3.5%, 500G)
killth3kid: 500G (3.5%, 39,028G)
rechaun: 500G (3.5%, 2,792G)
wyonearth: 498G (3.5%, 498G)
theshinyakuma: 211G (1.5%, 211G)
reddwind_: 122G (0.9%, 244G)
Flameatron: 100G (0.7%, 2,244G)
RuneS_77: 100G (0.7%, 7,570G)
datadrivenbot: 100G (0.7%, 29,269G)

yellow bets:
toka222: 1,650G (15.6%, 119,221G)
ko2q: 1,598G (15.1%, 1,598G)
mattcorn7: 1,476G (14.0%, 1,476G)
BirbBrainsBot: 1,000G (9.5%, 132,113G)
red__lancer: 1,000G (9.5%, 85,424G)
Lali_Lulelo: 768G (7.3%, 768G)
LDSkinny: 556G (5.3%, 556G)
Powerpinch: 500G (4.7%, 4,912G)
coralreeferz: 407G (3.9%, 407G)
Valentine009: 393G (3.7%, 393G)
LeepingJJ: 316G (3.0%, 316G)
RunicMagus: 200G (1.9%, 25,922G)
gogofromtogo: 200G (1.9%, 1,579G)
getthemoneyz: 192G (1.8%, 787,650G)
Nohurty: 100G (0.9%, 1,005G)
lastly: 100G (0.9%, 15,620G)
MiseryKoss: 100G (0.9%, 3,199G)
