Final Bets: black - 15 bets for 31,245G (59.7%, x0.68); brown - 14 bets for 21,095G (40.3%, x1.48)

black bets:
mattcorn7: 17,242G (55.2%, 34,485G)
SkylerBunny: 4,000G (12.8%, 210,152G)
thaetreis: 2,400G (7.7%, 60,281G)
Zeroroute: 1,649G (5.3%, 3,888G)
sinnyil2: 1,356G (4.3%, 1,356G)
lowlf: 1,111G (3.6%, 113,138G)
Aldrammech: 1,000G (3.2%, 5,961G)
evontno: 900G (2.9%, 4,040G)
CorpusCav: 500G (1.6%, 7,775G)
AllInBot: 294G (0.9%, 294G)
BoneMiser: 292G (0.9%, 292G)
datadrivenbot: 200G (0.6%, 54,624G)
ANFz: 101G (0.3%, 45,421G)
MinBetBot: 100G (0.3%, 17,370G)
puls3evo: 100G (0.3%, 2,968G)

brown bets:
dogsandcatsand: 6,386G (30.3%, 8,294G)
Thyrandaal: 5,000G (23.7%, 207,707G)
nhammen: 3,000G (14.2%, 215,973G)
reinoe: 2,000G (9.5%, 162,616G)
BirbBrainsBot: 1,000G (4.7%, 139,245G)
douchetron: 600G (2.8%, 600G)
Lanshaft: 564G (2.7%, 13,041G)
E_Ballard: 560G (2.7%, 6,801G)
Lythe_Caraker: 500G (2.4%, 161,577G)
pplvee1: 472G (2.2%, 4,688G)
itskage: 403G (1.9%, 4,037G)
Ayntlerz: 250G (1.2%, 3,001G)
Drusiform: 200G (0.9%, 1,081G)
getthemoneyz: 160G (0.8%, 1,564,423G)
