Final Bets: purple - 24 bets for 11,173G (40.6%, x1.47); brown - 13 bets for 16,375G (59.4%, x0.68)

purple bets:
NovaKnight21: 1,333G (11.9%, 1,333G)
sinnyil2: 1,200G (10.7%, 30,003G)
UmaiJam: 1,000G (9.0%, 19,068G)
BirbBrainsBot: 1,000G (9.0%, 132,092G)
HeroponThrawn: 851G (7.6%, 851G)
getthemoneyz: 732G (6.6%, 492,647G)
kekkerscrew: 700G (6.3%, 19,331G)
Shalloween: 600G (5.4%, 33,450G)
ungabunga_bot: 589G (5.3%, 134,024G)
LDSkinny: 465G (4.2%, 465G)
datadrivenbot: 334G (3.0%, 4,103G)
ZephyrTempest: 321G (2.9%, 55,495G)
TheOneRanger: 320G (2.9%, 320G)
joewcarson: 300G (2.7%, 9,989G)
mpghappiness: 280G (2.5%, 280G)
Kobold_Jager: 244G (2.2%, 244G)
MeleeWizard: 148G (1.3%, 148G)
WoooBlaaa: 132G (1.2%, 132G)
wollise89: 120G (1.1%, 2,192G)
jame3200: 104G (0.9%, 104G)
urieltheflameofgod: 100G (0.9%, 13,414G)
ko2q: 100G (0.9%, 10,011G)
OrganicArtist: 100G (0.9%, 800G)
Tougou: 100G (0.9%, 2,723G)

brown bets:
rechaun: 10,161G (62.1%, 10,161G)
MoonSlayerRS: 2,359G (14.4%, 2,359G)
Pie108: 700G (4.3%, 16,207G)
Lanshaft: 600G (3.7%, 9,211G)
HaateXIII: 539G (3.3%, 539G)
roofiepops: 440G (2.7%, 1,667G)
DeathTaxesAndAnime: 432G (2.6%, 432G)
catfashions: 400G (2.4%, 621G)
Skarthe: 272G (1.7%, 272G)
nifboy: 172G (1.1%, 172G)
AllInBot: 100G (0.6%, 100G)
Lodrak: 100G (0.6%, 7,623G)
dliv2341: 100G (0.6%, 100G)
