Final Bets: black - 8 bets for 28,463G (51.4%, x0.95); brown - 18 bets for 26,960G (48.6%, x1.06)

black bets:
AllInBot: 24,232G (85.1%, 24,232G)
NIghtdew14: 2,000G (7.0%, 29,213G)
Nizaha: 596G (2.1%, 19,180G)
Aldrammech: 524G (1.8%, 524G)
thehotrefrigerator: 442G (1.6%, 442G)
roqqqpsi: 369G (1.3%, 568G)
brokenknight201: 200G (0.7%, 1,356G)
ravingsockmonkey: 100G (0.4%, 710G)

brown bets:
sinnyil2: 6,016G (22.3%, 12,032G)
Thyrandaal: 4,645G (17.2%, 4,645G)
VolgraTheMoose: 3,613G (13.4%, 7,226G)
Shalloween: 3,253G (12.1%, 3,253G)
UmaiJam: 1,700G (6.3%, 75,793G)
superdevon1: 1,668G (6.2%, 33,363G)
BirbBrainsBot: 1,000G (3.7%, 143,498G)
lube_squid: 1,000G (3.7%, 3,114G)
Seaweed_B: 1,000G (3.7%, 24,039G)
Lanshaft: 524G (1.9%, 25,705G)
Miku_Shikhu: 500G (1.9%, 7,223G)
nhammen: 500G (1.9%, 22,923G)
just_here2: 400G (1.5%, 9,053G)
Lord_Gwarth: 400G (1.5%, 7,221G)
Webb_MD: 257G (1.0%, 257G)
resjudicata3: 236G (0.9%, 236G)
datadrivenbot: 200G (0.7%, 46,152G)
getthemoneyz: 48G (0.2%, 1,420,730G)
