Final Bets: yellow - 14 bets for 17,794G (42.6%, x1.35); brown - 13 bets for 23,949G (57.4%, x0.74)

yellow bets:
reinoe: 10,000G (56.2%, 147,176G)
NIghtdew14: 2,500G (14.0%, 27,213G)
Seaweed_B: 1,000G (5.6%, 25,095G)
SkylerBunny: 1,000G (5.6%, 78,533G)
Nizaha: 596G (3.3%, 18,584G)
Aldrammech: 524G (2.9%, 524G)
Lanshaft: 524G (2.9%, 26,258G)
resjudicata3: 485G (2.7%, 485G)
superdevon1: 351G (2.0%, 35,124G)
roqqqpsi: 220G (1.2%, 232G)
AllInBot: 200G (1.1%, 200G)
datadrivenbot: 200G (1.1%, 46,363G)
Miku_Shikhu: 100G (0.6%, 7,751G)
getthemoneyz: 94G (0.5%, 1,420,781G)

brown bets:
sinnyil2: 9,191G (38.4%, 18,383G)
VolgraTheMoose: 5,520G (23.0%, 11,040G)
Shalloween: 3,343G (14.0%, 6,687G)
UmaiJam: 1,700G (7.1%, 77,588G)
lube_squid: 1,000G (4.2%, 4,170G)
BirbBrainsBot: 1,000G (4.2%, 144,554G)
roofiepops: 512G (2.1%, 512G)
Hirameki85: 500G (2.1%, 4,212G)
Thyrandaal: 333G (1.4%, 9,553G)
brokenknight201: 300G (1.3%, 1,156G)
Lord_Gwarth: 250G (1.0%, 7,643G)
Treafa: 200G (0.8%, 752G)
nhammen: 100G (0.4%, 23,451G)
