Final Bets: yellow - 16 bets for 15,264G (36.7%, x1.72); champion - 21 bets for 26,297G (63.3%, x0.58)

yellow bets:
sinnyil2: 5,098G (33.4%, 10,196G)
NIghtdew14: 2,500G (16.4%, 30,578G)
Seaweed_B: 2,000G (13.1%, 27,441G)
Aldrammech: 1,229G (8.1%, 1,229G)
douchetron: 1,000G (6.6%, 1,348G)
SephDarkheart: 749G (4.9%, 749G)
roqqqpsi: 687G (4.5%, 1,528G)
killth3kid: 536G (3.5%, 11,306G)
Lanshaft: 524G (3.4%, 27,463G)
brokenknight201: 300G (2.0%, 1,356G)
thehotrefrigerator: 216G (1.4%, 216G)
PoroTact: 100G (0.7%, 7,418G)
DAC169: 100G (0.7%, 2,183G)
Chompie: 100G (0.7%, 9,674G)
Miku_Shikhu: 100G (0.7%, 7,886G)
resjudicata3: 25G (0.2%, 1,138G)

champion bets:
Thyrandaal: 9,220G (35.1%, 9,220G)
Hirameki85: 4,212G (16.0%, 4,212G)
VolgraTheMoose: 3,010G (11.4%, 6,020G)
UmaiJam: 1,700G (6.5%, 75,888G)
Shalloween: 1,672G (6.4%, 3,344G)
NicoSavoy: 1,000G (3.8%, 355,933G)
BirbBrainsBot: 1,000G (3.8%, 143,554G)
E_Ballard: 676G (2.6%, 676G)
Nizaha: 596G (2.3%, 19,886G)
Treafa: 500G (1.9%, 552G)
AllInBot: 469G (1.8%, 469G)
Laserman1000: 400G (1.5%, 2,500G)
dogsandcatsand: 368G (1.4%, 368G)
superdevon1: 360G (1.4%, 36,096G)
Lord_Gwarth: 350G (1.3%, 7,393G)
ravingsockmonkey: 200G (0.8%, 610G)
datadrivenbot: 200G (0.8%, 46,632G)
ScottyDeluxe: 116G (0.4%, 116G)
Firesheath: 100G (0.4%, 11,005G)
nhammen: 100G (0.4%, 23,351G)
getthemoneyz: 48G (0.2%, 1,420,908G)
