Final Bets: green - 31 bets for 17,096G (41.5%, x1.41); yellow - 18 bets for 24,091G (58.5%, x0.71)

green bets:
wackyzachyy: 3,011G (17.6%, 20,079G)
YaBoy125: 1,402G (8.2%, 9,950G)
gooseyourself: 1,000G (5.8%, 8,111G)
BirbBrainsBot: 1,000G (5.8%, 14,245G)
inzo_bettingbot: 1,000G (5.8%, 17,152G)
bad1dea: 1,000G (5.8%, 247,722G)
pandasforsale: 999G (5.8%, 9,515G)
OmnibotGamma: 796G (4.7%, 796G)
WireLord: 772G (4.5%, 772G)
SolarisFall: 738G (4.3%, 14,763G)
getthemoneyz: 732G (4.3%, 396,350G)
Riot_Jayway: 500G (2.9%, 187,778G)
TheMurkGnome: 460G (2.7%, 13,356G)
DeathTaxesAndAnime: 432G (2.5%, 432G)
DustBirdEX: 400G (2.3%, 4,261G)
kingchadking: 308G (1.8%, 308G)
Lazerkick: 300G (1.8%, 13,808G)
HaateXIII: 300G (1.8%, 9,339G)
Baron_von_Scrub: 264G (1.5%, 264G)
ZephyrTempest: 242G (1.4%, 4,249G)
inzo24: 212G (1.2%, 212G)
shiokenstar: 212G (1.2%, 212G)
Aeolus_000: 200G (1.2%, 1,013G)
TheRobbieRobster: 116G (0.7%, 116G)
Lali_Lulelo: 100G (0.6%, 3,682G)
rrazzoug: 100G (0.6%, 7,514G)
WillFitzgerald: 100G (0.6%, 2,100G)
SeedSC: 100G (0.6%, 153,714G)
red_celt: 100G (0.6%, 2,487G)
datadrivenbot: 100G (0.6%, 15,640G)
OneHundredFists: 100G (0.6%, 3,623G)

yellow bets:
sinnyil2: 13,455G (55.9%, 26,911G)
SkylerBunny: 5,000G (20.8%, 56,943G)
Zeroroute: 1,078G (4.5%, 1,078G)
DudeMonkey77: 1,000G (4.2%, 29,200G)
rockmem21: 994G (4.1%, 49,749G)
samtimemc: 400G (1.7%, 7,849G)
MoonSlayerRS: 348G (1.4%, 348G)
Chompie: 300G (1.2%, 8,036G)
Oshimi12: 264G (1.1%, 264G)
loveyouallfriends: 252G (1.0%, 252G)
ugoplatamia: 200G (0.8%, 1,213G)
DeliciousSub: 200G (0.8%, 13,307G)
ApplesauceBoss: 100G (0.4%, 3,203G)
Basmal: 100G (0.4%, 16,765G)
SpaZmodeus: 100G (0.4%, 3,078G)
BadBlanket: 100G (0.4%, 1,970G)
guering: 100G (0.4%, 743G)
victoriolue: 100G (0.4%, 4,115G)
