Final Bets: white - 10 bets for 6,900G (30.3%, x2.30); black - 15 bets for 15,903G (69.7%, x0.43)

white bets:
E_Ballard: 3,502G (50.8%, 7,005G)
douchetron: 976G (14.1%, 976G)
killth3kid: 732G (10.6%, 18,755G)
brokenknight201: 700G (10.1%, 10,896G)
THE_REAL_SEADOG: 250G (3.6%, 1,229G)
Kastavar: 240G (3.5%, 2,407G)
RunicMagus: 200G (2.9%, 10,432G)
MinBetBot: 100G (1.4%, 7,203G)
nifboy: 100G (1.4%, 8,241G)
Thyrandaal: 100G (1.4%, 310,860G)

black bets:
DavenIII: 7,053G (44.4%, 41,493G)
nhammen: 2,000G (12.6%, 53,856G)
neerrm: 1,337G (8.4%, 13,719G)
powergems: 1,086G (6.8%, 2,173G)
BirbBrainsBot: 1,000G (6.3%, 8,822G)
ko2q: 848G (5.3%, 1,697G)
getthemoneyz: 802G (5.0%, 1,661,139G)
skillomono: 416G (2.6%, 416G)
Lord_Gwarth: 381G (2.4%, 381G)
flacococo: 268G (1.7%, 268G)
DouglasDragonThePoet: 200G (1.3%, 1,271G)
datadrivenbot: 200G (1.3%, 70,395G)
PuzzleSecretary: 112G (0.7%, 112G)
AllInBot: 100G (0.6%, 100G)
Laserman1000: 100G (0.6%, 1,700G)
