Final Bets: blue - 16 bets for 16,703G (50.1%, x1.00); purple - 16 bets for 16,655G (49.9%, x1.00)

blue bets:
Mesmaster: 5,000G (29.9%, 111,289G)
Thyrandaal: 5,000G (29.9%, 38,836G)
SephDarkheart: 1,321G (7.9%, 1,321G)
BartTradingCompany: 1,000G (6.0%, 16,466G)
Lydian_C: 760G (4.6%, 27,966G)
Zagorsek: 616G (3.7%, 616G)
Smashy: 596G (3.6%, 596G)
bigbongsmoker: 500G (3.0%, 1,402G)
thebluesman: 450G (2.7%, 3,771G)
Leonidusx: 300G (1.8%, 2,810G)
krombobreaker: 260G (1.6%, 7,765G)
killth3kid: 250G (1.5%, 7,210G)
Johnnywad309: 250G (1.5%, 750G)
datadrivenbot: 200G (1.2%, 64,975G)
HS39: 100G (0.6%, 2,550G)
pepperbuster: 100G (0.6%, 800G)

purple bets:
latebit: 5,000G (30.0%, 51,544G)
Zeroroute: 3,244G (19.5%, 27,037G)
Forkmore: 2,500G (15.0%, 46,948G)
BirbBrainsBot: 1,000G (6.0%, 66,635G)
Virilikus: 1,000G (6.0%, 214,159G)
E_Ballard: 836G (5.0%, 108,860G)
poorest_hobo: 579G (3.5%, 579G)
Lord_Gwarth: 555G (3.3%, 6,187G)
0v3rr8d: 500G (3.0%, 19,544G)
douchetron: 361G (2.2%, 361G)
Twisted_Nutsatchel: 350G (2.1%, 22,319G)
getthemoneyz: 210G (1.3%, 1,818,314G)
resjudicata3: 200G (1.2%, 11,636G)
RobotOcelot: 120G (0.7%, 120G)
Dynablade: 100G (0.6%, 100G)
Blackpapalink: 100G (0.6%, 543G)
