Final Bets: white - 18 bets for 14,575G (71.7%, x0.39); black - 9 bets for 5,747G (28.3%, x2.54)

white bets:
HaateXIII: 2,816G (19.3%, 2,816G)
red__lancer: 2,000G (13.7%, 108,801G)
Nizaha: 1,320G (9.1%, 1,320G)
EnemyController: 1,111G (7.6%, 1,380,766G)
BirbBrainsBot: 1,000G (6.9%, 126,616G)
killth3kid: 1,000G (6.9%, 115,287G)
JumbocactuarX27: 1,000G (6.9%, 9,956G)
DudeMonkey77: 777G (5.3%, 777G)
getthemoneyz: 574G (3.9%, 1,221,389G)
FriendSquirrel: 524G (3.6%, 524G)
Arcblazer23: 500G (3.4%, 4,091G)
E_Ballard: 484G (3.3%, 484G)
benticore: 469G (3.2%, 9,395G)
CapnChaos12: 300G (2.1%, 6,060G)
Jumza: 200G (1.4%, 435G)
randgridr: 200G (1.4%, 473G)
hiros13gts: 200G (1.4%, 3,163G)
nifboy: 100G (0.7%, 18,969G)

black bets:
TheChainNerd: 2,780G (48.4%, 27,801G)
thaetreis: 1,200G (20.9%, 25,518G)
Theseawolf1: 1,000G (17.4%, 29,095G)
gorgewall: 201G (3.5%, 21,613G)
datadrivenbot: 200G (3.5%, 55,798G)
upidstupid: 100G (1.7%, 1,390G)
CosmicTactician: 100G (1.7%, 45,132G)
soliares: 100G (1.7%, 1,004G)
ArashiKurobara: 66G (1.1%, 554G)
