Final Bets: white - 20 bets for 6,291G (36.1%, x1.77); brown - 17 bets for 11,158G (63.9%, x0.56)

white bets:
BirbBrainsBot: 966G (15.4%, 104,762G)
RaIshtar: 679G (10.8%, 679G)
Zeroroute: 600G (9.5%, 600G)
LeoNightFury: 547G (8.7%, 547G)
killth3kid: 500G (7.9%, 20,023G)
Aldrammech: 500G (7.9%, 1,907G)
eudes89: 500G (7.9%, 11,970G)
d4rr1n: 500G (7.9%, 2,753G)
KasugaiRoastedPeas: 200G (3.2%, 896G)
GladiatorLupe: 200G (3.2%, 4,344G)
roqqqpsi: 179G (2.8%, 17,960G)
Lydian_C: 120G (1.9%, 3,271G)
CosmicTactician: 100G (1.6%, 3,033G)
TinchoT: 100G (1.6%, 6,431G)
Seawalker777: 100G (1.6%, 1,079G)
MiseryKoss: 100G (1.6%, 3,629G)
datadrivenbot: 100G (1.6%, 30,323G)
Flameatron: 100G (1.6%, 1,463G)
Milkman153: 100G (1.6%, 3,338G)
littlebilly3: 100G (1.6%, 580G)

brown bets:
YaBoy125: 2,617G (23.5%, 21,813G)
DeadBart: 2,534G (22.7%, 2,534G)
alterworlds: 1,244G (11.1%, 1,244G)
DeathTaxesAndAnime: 656G (5.9%, 656G)
Sharosa: 580G (5.2%, 580G)
nifboy: 500G (4.5%, 12,518G)
letdowncity: 500G (4.5%, 11,047G)
gogofromtogo: 500G (4.5%, 5,893G)
Lionhermit: 500G (4.5%, 5,844G)
KonzeraLive: 400G (3.6%, 9,436G)
Grandlanzer: 300G (2.7%, 3,853G)
HaateXIII: 250G (2.2%, 11,111G)
EmperorBeef: 162G (1.5%, 257,862G)
zepharoth89: 129G (1.2%, 6,477G)
AmaninAmide: 100G (0.9%, 4,222G)
lastly: 100G (0.9%, 12,260G)
getthemoneyz: 86G (0.8%, 766,011G)
