Final Bets: black - 17 bets for 6,141G (66.2%, x0.51); brown - 8 bets for 3,136G (33.8%, x1.96)

black bets:
RaIshtar: 1,245G (20.3%, 10,788G)
reinoe: 1,000G (16.3%, 144,139G)
Nizaha: 600G (9.8%, 12,791G)
EnemyController: 555G (9.0%, 1,500,922G)
killth3kid: 544G (8.9%, 14,331G)
SephDarkheart: 416G (6.8%, 14,927G)
ruleof5: 300G (4.9%, 13,065G)
roqqqpsi: 282G (4.6%, 1,880G)
Lord_Gwarth: 236G (3.8%, 236G)
datadrivenbot: 200G (3.3%, 47,565G)
DHaveWord: 145G (2.4%, 3,041G)
ScottyDeluxe: 120G (2.0%, 648G)
ArlanKels: 112G (1.8%, 2,240G)
RuneS_77: 100G (1.6%, 11,847G)
jeffersonsa: 100G (1.6%, 100G)
DouglasDragonThePoet: 100G (1.6%, 2,550G)
getthemoneyz: 86G (1.4%, 1,423,324G)

brown bets:
BirbBrainsBot: 1,000G (31.9%, 171,830G)
AllInBot: 786G (25.1%, 786G)
HaateXIII: 500G (15.9%, 2,333G)
Snoopiku: 450G (14.3%, 20,000G)
holdenmagronik: 100G (3.2%, 1,440G)
Nexusletum: 100G (3.2%, 419G)
ohhinm: 100G (3.2%, 4,008G)
Thyrandaal: 100G (3.2%, 15,607G)
