Final Bets: red - 13 bets for 5,320G (25.2%, x2.97); blue - 18 bets for 15,804G (74.8%, x0.34)

red bets:
itskage: 1,384G (26.0%, 13,846G)
SephDarkheart: 1,000G (18.8%, 98,355G)
amiture: 1,000G (18.8%, 2,640G)
oldmanbody: 824G (15.5%, 824G)
AllInBot: 200G (3.8%, 200G)
datadrivenbot: 200G (3.8%, 62,701G)
holdenmagronik: 150G (2.8%, 2,404G)
getthemoneyz: 134G (2.5%, 1,614,277G)
NewbGaming: 108G (2.0%, 108G)
IndecisiveNinja: 100G (1.9%, 3,209G)
CosmicTactician: 100G (1.9%, 17,405G)
cho_pin: 100G (1.9%, 439G)
koeeh: 20G (0.4%, 1,000G)

blue bets:
JumbocactuarX27: 3,183G (20.1%, 3,183G)
DavenIII: 2,566G (16.2%, 10,264G)
Forkmore: 1,535G (9.7%, 3,010G)
latebit: 1,400G (8.9%, 31,713G)
fenaen: 1,200G (7.6%, 5,606G)
BirbBrainsBot: 1,000G (6.3%, 81,984G)
Tarheels218: 1,000G (6.3%, 15,158G)
Nizaha: 732G (4.6%, 14,520G)
DarrenDinosaurs: 600G (3.8%, 600G)
E_Ballard: 592G (3.7%, 3,260G)
EnemyController: 555G (3.5%, 1,570,195G)
Mesmaster: 412G (2.6%, 412G)
nhammen: 347G (2.2%, 3,473G)
ArrenJevleth: 250G (1.6%, 1,790G)
northkoreancleetus: 132G (0.8%, 132G)
MinBetBot: 100G (0.6%, 5,509G)
Valgram: 100G (0.6%, 100G)
fesight: 100G (0.6%, 1,529G)
