Final Bets: purple - 12 bets for 5,620G (43.9%, x1.28); brown - 14 bets for 7,178G (56.1%, x0.78)

purple bets:
itskage: 1,759G (31.3%, 17,595G)
JumbocactuarX27: 1,155G (20.6%, 1,155G)
killth3kid: 696G (12.4%, 38,630G)
fenaen: 528G (9.4%, 4,406G)
Kronikle: 520G (9.3%, 13,606G)
ArrenJevleth: 250G (4.4%, 1,123G)
datadrivenbot: 200G (3.6%, 63,162G)
MonchoStrife: 112G (2.0%, 112G)
MinBetBot: 100G (1.8%, 5,531G)
DeathTaxesAndAnime: 100G (1.8%, 3,514G)
Valgram: 100G (1.8%, 100G)
Scurg: 100G (1.8%, 1,074G)

brown bets:
EnemyController: 1,111G (15.5%, 1,571,122G)
latebit: 1,100G (15.3%, 28,913G)
skipsandwiches: 1,001G (13.9%, 12,263G)
BirbBrainsBot: 1,000G (13.9%, 82,205G)
amiture: 1,000G (13.9%, 5,498G)
DavenIII: 452G (6.3%, 9,040G)
nhammen: 346G (4.8%, 3,469G)
getthemoneyz: 288G (4.0%, 1,614,666G)
xBizzy: 240G (3.3%, 1,056G)
AllInBot: 200G (2.8%, 200G)
maddrave09: 140G (2.0%, 495G)
Drusiform: 100G (1.4%, 5,957G)
SephDarkheart: 100G (1.4%, 101,517G)
CosmicTactician: 100G (1.4%, 18,458G)
