Final Bets: purple - 20 bets for 8,688G (47.6%, x1.10); champion - 17 bets for 9,564G (52.4%, x0.91)

purple bets:
OneHundredFists: 1,154G (13.3%, 2,518G)
Nohurty: 1,122G (12.9%, 1,122G)
mpghappiness: 1,001G (11.5%, 2,612G)
CrownOfHorns: 899G (10.3%, 899G)
sSwing: 752G (8.7%, 5,580G)
mr_kindaro: 500G (5.8%, 1,705G)
DAC169: 496G (5.7%, 496G)
maleblackfiora: 400G (4.6%, 2,603G)
RaIshtar: 400G (4.6%, 4,421G)
electric_algus: 388G (4.5%, 388G)
IanTheWoodchuck: 252G (2.9%, 252G)
DeathTaxesAndAnime: 250G (2.9%, 1,951G)
Miku_Shikhu: 228G (2.6%, 228G)
gorgewall: 201G (2.3%, 2,876G)
Coolguye: 150G (1.7%, 1,867G)
benticore: 145G (1.7%, 2,917G)
Celdia: 100G (1.2%, 439G)
cougboi: 100G (1.2%, 12,243G)
datadrivenbot: 100G (1.2%, 35,141G)
ChronoG: 50G (0.6%, 4,781G)

champion bets:
Rislyeu: 1,746G (18.3%, 3,493G)
sinnyil2: 1,200G (12.5%, 4,473G)
BirbBrainsBot: 1,000G (10.5%, 134,602G)
Mesmaster: 1,000G (10.5%, 131,439G)
Bioticism: 744G (7.8%, 744G)
wyonearth: 700G (7.3%, 3,051G)
Laserman1000: 500G (5.2%, 22,600G)
cloud92684: 500G (5.2%, 10,885G)
Dymntd: 500G (5.2%, 35,360G)
NicoSavoy: 384G (4.0%, 384G)
gogofromtogo: 376G (3.9%, 376G)
Sans_from_Snowdin: 260G (2.7%, 260G)
twelfthrootoftwo: 200G (2.1%, 676G)
reddwind_: 200G (2.1%, 2,175G)
Thyrandaal: 148G (1.5%, 148G)
Grandlanzer: 100G (1.0%, 2,722G)
getthemoneyz: 6G (0.1%, 838,886G)
