Final Bets: red - 18 bets for 9,652G (44.3%, x1.26); blue - 16 bets for 12,145G (55.7%, x0.79)

red bets:
AllInBot: 1,248G (12.9%, 1,248G)
HaateXIII: 892G (9.2%, 892G)
Laserman1000: 854G (8.8%, 854G)
brokenknight201: 822G (8.5%, 822G)
fenaen: 800G (8.3%, 9,377G)
TheChainNerd: 788G (8.2%, 788G)
E_Ballard: 672G (7.0%, 672G)
mpghappiness: 600G (6.2%, 600G)
killth3kid: 536G (5.6%, 16,321G)
Lanshaft: 520G (5.4%, 14,675G)
amiture: 500G (5.2%, 10,305G)
SephDarkheart: 404G (4.2%, 404G)
thehotrefrigerator: 216G (2.2%, 216G)
Miku_Shikhu: 200G (2.1%, 1,884G)
datadrivenbot: 200G (2.1%, 45,529G)
MLWebz0r: 200G (2.1%, 7,997G)
DouglasDragonThePoet: 100G (1.0%, 1,588G)
Twisted_Nutsatchel: 100G (1.0%, 13,177G)

blue bets:
NicoSavoy: 3,575G (29.4%, 357,534G)
Shalloween: 2,459G (20.2%, 4,919G)
BirbBrainsBot: 1,000G (8.2%, 141,067G)
dogsandcatsand: 1,000G (8.2%, 5,511G)
getthemoneyz: 884G (7.3%, 1,411,172G)
Nizaha: 596G (4.9%, 20,472G)
EnemyController: 555G (4.6%, 1,485,935G)
mayfu: 500G (4.1%, 48,004G)
Zagorsek: 484G (4.0%, 484G)
DudeMonkey77: 432G (3.6%, 432G)
TasisSai: 200G (1.6%, 1,725G)
gorgewall: 101G (0.8%, 6,695G)
Bongomon7: 100G (0.8%, 6,964G)
Firesheath: 100G (0.8%, 6,865G)
holdenmagronik: 100G (0.8%, 2,176G)
ArlanKels: 59G (0.5%, 1,182G)
