Final Bets: white - 11 bets for 6,968G (28.3%, x2.53); black - 18 bets for 17,630G (71.7%, x0.40)

white bets:
prince_rogers_nelson_: 2,000G (28.7%, 7,699G)
DeathTaxesAndAnime: 1,154G (16.6%, 1,154G)
BirbBrainsBot: 1,000G (14.4%, 102,682G)
superdevon1: 922G (13.2%, 3,688G)
Evewho: 648G (9.3%, 648G)
Lydian_C: 396G (5.7%, 396G)
CorpusCav: 300G (4.3%, 1,314G)
mr_kindaro: 200G (2.9%, 901G)
getthemoneyz: 192G (2.8%, 902,138G)
cloworora: 146G (2.1%, 146G)
fluffskull: 10G (0.1%, 1,359G)

black bets:
Mesmaster: 3,000G (17.0%, 14,592G)
AllInBot: 2,892G (16.4%, 2,892G)
HaateXIII: 2,218G (12.6%, 2,218G)
Kalabain: 2,000G (11.3%, 24,621G)
Bravo_Mike86: 1,733G (9.8%, 1,733G)
soren_of_tyto: 1,595G (9.0%, 1,595G)
GladiatorLupe: 1,031G (5.8%, 2,023G)
rednecknazgul: 509G (2.9%, 509G)
CT_5_Holy: 401G (2.3%, 401G)
Arcblazer23: 382G (2.2%, 382G)
gorgewall: 301G (1.7%, 8,566G)
ColetteMSLP: 300G (1.7%, 2,110G)
Avin_Chaos: 300G (1.7%, 16,651G)
vortamir: 300G (1.7%, 818G)
JLinkletter: 260G (1.5%, 260G)
serperemagus: 200G (1.1%, 2,215G)
PinchGG: 108G (0.6%, 108G)
datadrivenbot: 100G (0.6%, 35,480G)
