Final Bets: red - 13 bets for 10,764G (35.8%, x1.79); green - 17 bets for 19,267G (64.2%, x0.56)

red bets:
Bravo_Mike86: 8,098G (75.2%, 8,098G)
PinchGG: 506G (4.7%, 506G)
prince_rogers_nelson_: 448G (4.2%, 448G)
CorpusCav: 412G (3.8%, 412G)
Avin_Chaos: 300G (2.8%, 16,770G)
mr_kindaro: 200G (1.9%, 2,352G)
AkiriXx: 200G (1.9%, 1,038G)
AllInBot: 100G (0.9%, 100G)
Ring_Wyrm: 100G (0.9%, 1,868G)
rednecknazgul: 100G (0.9%, 2,378G)
fluffskull: 100G (0.9%, 1,349G)
datadrivenbot: 100G (0.9%, 35,755G)
Digitalsocrates: 100G (0.9%, 38,871G)

green bets:
Mesmaster: 8,098G (42.0%, 13,782G)
Evewho: 2,184G (11.3%, 2,184G)
Kalabain: 2,000G (10.4%, 23,411G)
BirbBrainsBot: 1,000G (5.2%, 104,031G)
Arcblazer23: 892G (4.6%, 1,785G)
getthemoneyz: 778G (4.0%, 902,599G)
HaychDub: 750G (3.9%, 24,926G)
Rislyeu: 596G (3.1%, 596G)
serperemagus: 500G (2.6%, 2,294G)
Sairentozon7: 500G (2.6%, 1,832G)
DeathTaxesAndAnime: 409G (2.1%, 2,009G)
Lydian_C: 320G (1.7%, 1,326G)
gorgewall: 301G (1.6%, 8,384G)
JLinkletter: 300G (1.6%, 1,216G)
vortamir: 300G (1.6%, 937G)
GladiatorLupe: 200G (1.0%, 3,604G)
HASTERIOUS: 139G (0.7%, 2,798G)
