Final Bets: purple - 28 bets for 27,414G (73.6%, x0.36); brown - 17 bets for 9,829G (26.4%, x2.79)

purple bets:
nickelbank: 10,000G (36.5%, 22,900G)
leakimiko: 4,117G (15.0%, 27,453G)
Fenrislfr: 3,030G (11.1%, 30,301G)
ColetteMSLP: 1,500G (5.5%, 64,023G)
Aldrammech: 1,000G (3.6%, 51,154G)
ungabunga_bot: 1,000G (3.6%, 184,417G)
BirbBrainsBot: 1,000G (3.6%, 3,195G)
elkydeluxe: 1,000G (3.6%, 16,011G)
MirtaiAtana: 772G (2.8%, 772G)
Nizaha: 501G (1.8%, 10,681G)
Breakdown777: 500G (1.8%, 32,831G)
Laserman1000: 500G (1.8%, 21,500G)
Draconis345: 500G (1.8%, 84,467G)
Cryptopsy70: 364G (1.3%, 20,590G)
Lavatis: 300G (1.1%, 6,252G)
KasugaiRoastedPeas: 200G (0.7%, 29,244G)
getthemoneyz: 120G (0.4%, 517,103G)
scrongoips: 100G (0.4%, 10,086G)
HokTuey: 100G (0.4%, 2,102G)
Djorama: 100G (0.4%, 7,898G)
XshieselX: 100G (0.4%, 476G)
ko2q: 100G (0.4%, 28,920G)
Evewho: 100G (0.4%, 7,776G)
datadrivenbot: 100G (0.4%, 100G)
Firesheath: 100G (0.4%, 10,179G)
ANFz: 100G (0.4%, 12,776G)
RunicMagus: 100G (0.4%, 42,777G)
LordMaxoss: 10G (0.0%, 804G)

brown bets:
Shakarak: 2,500G (25.4%, 9,487G)
SkylerBunny: 1,500G (15.3%, 67,083G)
sinnyil2: 1,200G (12.2%, 51,375G)
OmnibotGamma: 1,000G (10.2%, 24,521G)
HaplessOne: 1,000G (10.2%, 78,092G)
Webb_MD: 728G (7.4%, 728G)
SquidgyXom: 500G (5.1%, 17,769G)
EnemyController: 301G (3.1%, 54,801G)
ericzubat: 200G (2.0%, 208G)
flowinprose: 200G (2.0%, 63,579G)
mastershango: 150G (1.5%, 3,616G)
Tougou: 100G (1.0%, 43,280G)
rjA0zcOQ96: 100G (1.0%, 33,331G)
ApplesauceBoss: 100G (1.0%, 11,230G)
zalgamesh: 100G (1.0%, 969G)
electric_glass: 100G (1.0%, 4,443G)
potgodtopdog: 50G (0.5%, 5,233G)
