Final Bets: red - 21 bets for 19,124G (56.5%, x0.77); yellow - 23 bets for 14,752G (43.5%, x1.30)

red bets:
flowinprose: 5,000G (26.1%, 63,379G)
leakimiko: 2,992G (15.6%, 29,929G)
HaplessOne: 1,500G (7.8%, 77,092G)
sinnyil2: 1,205G (6.3%, 50,175G)
RongRongArts: 1,100G (5.8%, 469,082G)
Aldrammech: 1,000G (5.2%, 51,513G)
ko2q: 1,000G (5.2%, 28,956G)
BirbBrainsBot: 1,000G (5.2%, 3,554G)
ThePuss: 855G (4.5%, 855G)
SquidgyXom: 600G (3.1%, 17,269G)
ANFz: 500G (2.6%, 12,812G)
elkydeluxe: 500G (2.6%, 16,370G)
ZephyrTempest: 443G (2.3%, 159,193G)
DeathTaxesAndAnime: 300G (1.6%, 20,800G)
Lavatis: 300G (1.6%, 6,360G)
getthemoneyz: 244G (1.3%, 517,146G)
ungabunga_bot: 185G (1.0%, 184,776G)
lijarkh: 100G (0.5%, 16,430G)
Chompie: 100G (0.5%, 8,083G)
datadrivenbot: 100G (0.5%, 136G)
HokTuey: 100G (0.5%, 2,138G)

yellow bets:
Fenrislfr: 3,138G (21.3%, 31,387G)
Shakarak: 2,000G (13.6%, 6,987G)
SkylerBunny: 1,500G (10.2%, 65,583G)
RunicMagus: 1,200G (8.1%, 42,813G)
MirtaiAtana: 1,049G (7.1%, 1,049G)
KasugaiRoastedPeas: 1,000G (6.8%, 29,316G)
Nizaha: 501G (3.4%, 10,861G)
Breakdown777: 500G (3.4%, 33,010G)
OmnibotGamma: 500G (3.4%, 23,521G)
EnemyController: 500G (3.4%, 54,500G)
potgodtopdog: 500G (3.4%, 5,183G)
MattMan119: 400G (2.7%, 11,674G)
Cryptopsy70: 364G (2.5%, 20,721G)
TheMurkGnome: 300G (2.0%, 3,480G)
mastershango: 200G (1.4%, 3,466G)
ericzubat: 200G (1.4%, 208G)
silentperogy: 200G (1.4%, 22,185G)
talyhawk: 200G (1.4%, 11,564G)
rjA0zcOQ96: 100G (0.7%, 33,231G)
ApplesauceBoss: 100G (0.7%, 11,130G)
electric_glass: 100G (0.7%, 4,343G)
Tetsuwan_Melty: 100G (0.7%, 2,135G)
XshieselX: 100G (0.7%, 512G)
