Final Bets: red - 20 bets for 9,194G (65.0%, x0.54); blue - 8 bets for 4,940G (35.0%, x1.86)

red bets:
NicoSavoy: 2,000G (21.8%, 135,514G)
upvla: 1,200G (13.1%, 5,551G)
ShadowNinja25: 1,029G (11.2%, 1,029G)
BoneMiser: 577G (6.3%, 577G)
AllInBot: 531G (5.8%, 531G)
moonliquor: 500G (5.4%, 74,111G)
krombobreaker: 500G (5.4%, 7,451G)
lijarkh: 477G (5.2%, 477G)
Wonser: 388G (4.2%, 388G)
ValensEXP_: 336G (3.7%, 4,419G)
ericzubat: 300G (3.3%, 5,634G)
Rikrizen: 258G (2.8%, 5,163G)
killth3kid: 250G (2.7%, 12,545G)
datadrivenbot: 200G (2.2%, 68,858G)
BirbBrainsBot: 139G (1.5%, 76,578G)
SnarkMage: 108G (1.2%, 1,012G)
gorgewall: 101G (1.1%, 13,629G)
nhammen: 100G (1.1%, 248,261G)
J_52: 100G (1.1%, 3,682G)
SeniorBunk: 100G (1.1%, 13,734G)

blue bets:
LanseDM: 1,000G (20.2%, 12,070G)
getthemoneyz: 908G (18.4%, 1,978,458G)
Nizaha: 856G (17.3%, 74,067G)
CorpusCav: 711G (14.4%, 711G)
evontno: 600G (12.1%, 600G)
resjudicata3: 549G (11.1%, 549G)
Leonidusx: 200G (4.0%, 73,488G)
Dodecadeath: 116G (2.3%, 116G)
