Final Bets: green - 13 bets for 5,737G (51.2%, x0.95); yellow - 11 bets for 5,473G (48.8%, x1.05)

green bets:
BoneMiser: 887G (15.5%, 887G)
Shalloween: 880G (15.3%, 880G)
AllInBot: 816G (14.2%, 816G)
dogsandcatsand: 660G (11.5%, 23,640G)
CorpusCav: 504G (8.8%, 504G)
krombobreaker: 500G (8.7%, 7,720G)
resjudicata3: 340G (5.9%, 340G)
CapnChaos12: 300G (5.2%, 2,037G)
killth3kid: 250G (4.4%, 12,679G)
ericzubat: 200G (3.5%, 5,795G)
datadrivenbot: 200G (3.5%, 68,965G)
nhammen: 100G (1.7%, 248,315G)
MemoriesofFinal: 100G (1.7%, 37,703G)

yellow bets:
LanseDM: 1,500G (27.4%, 11,070G)
BirbBrainsBot: 1,000G (18.3%, 76,653G)
Nizaha: 856G (15.6%, 73,211G)
evontno: 600G (11.0%, 600G)
getthemoneyz: 472G (8.6%, 1,977,550G)
Cryptopsy70: 380G (6.9%, 380G)
Rikrizen: 265G (4.8%, 5,302G)
king_smashington: 100G (1.8%, 463G)
ShadowNinja25: 100G (1.8%, 1,582G)
arumz: 100G (1.8%, 38,027G)
mrfripps: 100G (1.8%, 12,512G)
