Final Bets: green - 9 bets for 6,416G (21.3%, x3.69); champion - 15 bets for 23,674G (78.7%, x0.27)

green bets:
LanseDM: 3,000G (46.8%, 8,074G)
BirbBrainsBot: 1,000G (15.6%, 75,185G)
Jonomytho: 780G (12.2%, 2,603G)
getthemoneyz: 632G (9.9%, 1,976,751G)
Firesheath: 584G (9.1%, 584G)
Dodecadeath: 120G (1.9%, 120G)
nhammen: 100G (1.6%, 247,872G)
Shalloween: 100G (1.6%, 1,390G)
RunnerJeff: 100G (1.6%, 400G)

champion bets:
DeathTaxesAndAnime: 9,637G (40.7%, 18,897G)
Leonidusx: 5,000G (21.1%, 72,893G)
FoeSquirrel: 3,496G (14.8%, 6,993G)
evontno: 1,001G (4.2%, 7,729G)
Nizaha: 856G (3.6%, 72,569G)
resjudicata3: 537G (2.3%, 537G)
krombobreaker: 500G (2.1%, 10,100G)
MemoriesofFinal: 500G (2.1%, 37,723G)
ericzubat: 500G (2.1%, 5,734G)
CorpusCav: 400G (1.7%, 2,293G)
douchetron: 372G (1.6%, 372G)
CapnChaos12: 300G (1.3%, 2,023G)
AllInBot: 200G (0.8%, 200G)
datadrivenbot: 200G (0.8%, 69,076G)
SnarkMage: 175G (0.7%, 175G)
