Final Bets: green - 7 bets for 3,470G (31.2%, x2.21); yellow - 8 bets for 7,666G (68.8%, x0.45)

green bets:
skillomono: 1,000G (28.8%, 8,343G)
BirbBrainsBot: 1,000G (28.8%, 78,087G)
NIghtdew14: 1,000G (28.8%, 8,623G)
getthemoneyz: 170G (4.9%, 1,203,989G)
actual_JP: 100G (2.9%, 13,410G)
fluffskull: 100G (2.9%, 3,027G)
Nymissa: 100G (2.9%, 1,672G)

yellow bets:
cam_ATS: 1,500G (19.6%, 52,443G)
run_with_stone_GUNs: 1,373G (17.9%, 13,738G)
RaIshtar: 1,200G (15.7%, 10,949G)
Draconis345: 1,000G (13.0%, 69,009G)
ForagerCats: 1,000G (13.0%, 18,568G)
DustBirdEX: 937G (12.2%, 937G)
dogsandcatsand: 456G (5.9%, 456G)
datadrivenbot: 200G (2.6%, 56,926G)
