Final Bets: black - 16 bets for 13,236G (81.4%, x0.23); brown - 6 bets for 3,031G (18.6%, x4.37)

black bets:
BlackFireUK: 3,463G (26.2%, 3,463G)
Digitalsocrates: 2,000G (15.1%, 20,705G)
gogofromtogo: 1,943G (14.7%, 1,943G)
roqqqpsi: 1,323G (10.0%, 12,031G)
VolgraTheMoose: 1,001G (7.6%, 13,537G)
NicoSavoy: 1,000G (7.6%, 3,876G)
just_here2: 500G (3.8%, 4,509G)
conradharlock: 500G (3.8%, 13,195G)
gorgewall: 360G (2.7%, 360G)
twelfthrootoftwo: 300G (2.3%, 1,935G)
wyonearth: 252G (1.9%, 252G)
cam_ATS: 244G (1.8%, 244G)
lastly: 100G (0.8%, 13,726G)
CosmicTactician: 100G (0.8%, 18,808G)
datadrivenbot: 100G (0.8%, 33,328G)
Spuzzmocker: 50G (0.4%, 1,211G)

brown bets:
Rislyeu: 1,144G (37.7%, 2,288G)
BirbBrainsBot: 701G (23.1%, 97,724G)
Laserman1000: 600G (19.8%, 25,100G)
byrdturbo: 222G (7.3%, 17,406G)
Evewho: 200G (6.6%, 9,781G)
getthemoneyz: 164G (5.4%, 826,520G)
