Final Bets: white - 17 bets for 20,544G (54.2%, x0.85); black - 13 bets for 17,374G (45.8%, x1.18)

white bets:
Virilikus: 5,000G (24.3%, 216,673G)
Andrain: 3,364G (16.4%, 3,364G)
Thyrandaal: 3,307G (16.1%, 3,307G)
NIghtdew14: 3,000G (14.6%, 18,843G)
Lord_Burrah: 1,000G (4.9%, 87,642G)
ForagerCats: 1,000G (4.9%, 10,410G)
Blastinus: 815G (4.0%, 815G)
Nizaha: 564G (2.7%, 4,099G)
Miku_Shikhu: 500G (2.4%, 13,062G)
Aldrammech: 496G (2.4%, 496G)
randgridr: 448G (2.2%, 945G)
upvla: 325G (1.6%, 909G)
AllInBot: 200G (1.0%, 200G)
datadrivenbot: 200G (1.0%, 31,050G)
Whiskybrave: 124G (0.6%, 124G)
gorgewall: 101G (0.5%, 2,229G)
ANFz: 100G (0.5%, 39,122G)

black bets:
HaateXIII: 11,578G (66.6%, 23,156G)
roofiepops: 1,497G (8.6%, 1,497G)
twelfthrootoftwo: 1,133G (6.5%, 2,222G)
BirbBrainsBot: 1,000G (5.8%, 161,297G)
ruleof5: 500G (2.9%, 4,535G)
Laserman1000: 400G (2.3%, 2,100G)
SephDarkheart: 344G (2.0%, 54,980G)
CapnChaos12: 300G (1.7%, 8,605G)
Rytor: 200G (1.2%, 1,837G)
regios91: 200G (1.2%, 5,390G)
neocarbuncle: 110G (0.6%, 830G)
Klednar21: 100G (0.6%, 417G)
getthemoneyz: 12G (0.1%, 1,339,583G)
