Final Bets: green - 11 bets for 5,211G (40.6%, x1.46); purple - 12 bets for 7,634G (59.4%, x0.68)

green bets:
WireLord: 1,000G (19.2%, 17,233G)
BirbBrainsBot: 1,000G (19.2%, 277,719G)
alecttox: 1,000G (19.2%, 34,509G)
ungabunga_bot: 821G (15.8%, 71,405G)
YaBoy125: 600G (11.5%, 600G)
getthemoneyz: 240G (4.6%, 447,778G)
mirapoix: 200G (3.8%, 1,675G)
AllInBot: 100G (1.9%, 100G)
TinhShu: 100G (1.9%, 1,887G)
datadrivenbot: 100G (1.9%, 22,816G)
herrshaun: 50G (1.0%, 4,015G)

purple bets:
BenYuPoker: 1,658G (21.7%, 1,658G)
DeathTaxesAndAnime: 1,547G (20.3%, 1,547G)
Slowbrofist: 1,193G (15.6%, 1,193G)
waterwatereverywhere: 682G (8.9%, 682G)
Evewho: 500G (6.5%, 2,569G)
mayormcfunbags: 420G (5.5%, 420G)
Rogueain: 356G (4.7%, 356G)
HaychDub: 350G (4.6%, 4,687G)
Maeveen: 328G (4.3%, 328G)
ColetteMSLP: 300G (3.9%, 14,184G)
ugoplatamia: 200G (2.6%, 20,500G)
2sexy4u: 100G (1.3%, 2,712G)
