Final Bets: green - 17 bets for 8,182G (31.3%, x2.20); champion - 15 bets for 17,982G (68.7%, x0.46)

green bets:
upvla: 1,219G (14.9%, 69,300G)
BirbBrainsBot: 1,000G (12.2%, 279,184G)
bad1dea: 1,000G (12.2%, 62,394G)
WireLord: 1,000G (12.2%, 18,698G)
Humble_Fabio: 777G (9.5%, 2,681G)
waterwatereverywhere: 568G (6.9%, 568G)
alecttox: 474G (5.8%, 35,974G)
HysteriaDays: 360G (4.4%, 360G)
Maeveen: 328G (4.0%, 328G)
defaultlybrave: 300G (3.7%, 1,998G)
Slowbrofist: 256G (3.1%, 256G)
mirapoix: 200G (2.4%, 1,968G)
HaychDub: 200G (2.4%, 4,337G)
SeniorBunk: 200G (2.4%, 2,643G)
Meanderandreturn: 150G (1.8%, 4,682G)
2sexy4u: 100G (1.2%, 2,612G)
TinhShu: 50G (0.6%, 2,033G)

champion bets:
thevilmen: 6,014G (33.4%, 6,014G)
ugoplatamia: 4,060G (22.6%, 20,300G)
InOzWeTrust: 2,296G (12.8%, 2,296G)
YaBoy125: 1,479G (8.2%, 1,479G)
reinoe: 1,094G (6.1%, 1,094G)
BenYuPoker: 656G (3.6%, 656G)
DeathTaxesAndAnime: 612G (3.4%, 612G)
nifboy: 500G (2.8%, 1,835G)
NovaKnight21: 400G (2.2%, 3,180G)
ColetteMSLP: 300G (1.7%, 13,884G)
AllInBot: 246G (1.4%, 246G)
mayormcfunbags: 124G (0.7%, 124G)
ungabunga_bot: 100G (0.6%, 72,608G)
datadrivenbot: 100G (0.6%, 22,962G)
herrshaun: 1G (0.0%, 3,088G)
