Final Bets: white - 14 bets for 12,485G (69.3%, x0.44); black - 16 bets for 5,528G (30.7%, x2.26)

white bets:
dogsandcatsand: 2,411G (19.3%, 4,729G)
AniZero: 2,000G (16.0%, 22,623G)
latebit: 1,500G (12.0%, 15,614G)
E_Ballard: 1,438G (11.5%, 1,438G)
silentkaster: 1,078G (8.6%, 1,078G)
fattunaking: 1,000G (8.0%, 11,241G)
Spartan_Paladin: 800G (6.4%, 16,412G)
Yangusburger: 500G (4.0%, 4,892G)
Leonidusx: 500G (4.0%, 16,370G)
reddwind_: 380G (3.0%, 1,977G)
Blastinus: 276G (2.2%, 276G)
VMuliadi: 250G (2.0%, 2,296G)
ribbiks: 248G (2.0%, 248G)
Sobid: 104G (0.8%, 104G)

black bets:
DLJuggernaut: 882G (16.0%, 1,731G)
BirbBrainsBot: 692G (12.5%, 25,889G)
Zagorsek: 652G (11.8%, 652G)
getthemoneyz: 556G (10.1%, 1,849,961G)
Runeseeker22: 500G (9.0%, 2,274G)
thebluesman: 387G (7.0%, 14,387G)
rocl: 368G (6.7%, 530G)
AltimaMantoid: 352G (6.4%, 2,652G)
krombobreaker: 320G (5.8%, 320G)
datadrivenbot: 200G (3.6%, 55,647G)
Powermhero: 130G (2.4%, 50,380G)
khelor_: 112G (2.0%, 112G)
gorgewall: 101G (1.8%, 4,739G)
nhammen: 100G (1.8%, 431,287G)
moocaotao: 100G (1.8%, 2,703G)
BartTradingCompany: 76G (1.4%, 762G)
