Final Bets: red - 12 bets for 6,481G (51.0%, x0.96); black - 16 bets for 6,221G (49.0%, x1.04)

red bets:
LDSkinny: 1,000G (15.4%, 33,255G)
BirbBrainsBot: 1,000G (15.4%, 30,272G)
Thyrandaal: 1,000G (15.4%, 127,482G)
krombobreaker: 738G (11.4%, 738G)
E_Ballard: 616G (9.5%, 616G)
run_with_stone_GUNs: 560G (8.6%, 24,820G)
rocl: 368G (5.7%, 848G)
thunderducker: 333G (5.1%, 9,216G)
ValensEXP_: 300G (4.6%, 1,485G)
ArrenJevleth: 300G (4.6%, 2,222G)
Powermhero: 150G (2.3%, 50,650G)
khelor_: 116G (1.8%, 116G)

black bets:
roqqqpsi: 968G (15.6%, 1,291G)
YaBoy125: 921G (14.8%, 6,144G)
evontno: 907G (14.6%, 907G)
Lifebregin: 500G (8.0%, 25,505G)
VMuliadi: 500G (8.0%, 2,092G)
AltimaMantoid: 355G (5.7%, 3,955G)
roofiepops: 333G (5.4%, 2,286G)
Blastinus: 327G (5.3%, 327G)
getthemoneyz: 284G (4.6%, 1,851,088G)
ribbiks: 248G (4.0%, 248G)
DouglasDragonThePoet: 200G (3.2%, 975G)
Leonidusx: 200G (3.2%, 15,670G)
datadrivenbot: 200G (3.2%, 55,736G)
gorgewall: 101G (1.6%, 4,937G)
moocaotao: 100G (1.6%, 2,747G)
BartTradingCompany: 77G (1.2%, 771G)
