Final Bets: purple - 15 bets for 13,168G (53.1%, x0.88); brown - 15 bets for 11,645G (46.9%, x1.13)

purple bets:
skipsandwiches: 5,000G (38.0%, 165,937G)
roofiepops: 1,230G (9.3%, 6,819G)
thunderducker: 1,200G (9.1%, 3,202G)
lowlf: 1,111G (8.4%, 17,042G)
Sairentozon7: 1,000G (7.6%, 49,273G)
lijarkh: 675G (5.1%, 675G)
NicoSavoy: 532G (4.0%, 532G)
CorpusCav: 500G (3.8%, 33,704G)
krombobreaker: 500G (3.8%, 25,230G)
Lolthsmeat: 304G (2.3%, 6,599G)
Smokegiant: 252G (1.9%, 252G)
minorfffanatic1: 236G (1.8%, 2,720G)
DuPlatypus: 228G (1.7%, 228G)
Evewho: 200G (1.5%, 8,738G)
datadrivenbot: 200G (1.5%, 82,386G)

brown bets:
Mesmaster: 5,000G (42.9%, 15,430G)
RikiNom: 2,175G (18.7%, 2,175G)
latebit: 1,345G (11.6%, 1,345G)
BirbBrainsBot: 1,000G (8.6%, 162,987G)
Arcblazer23: 356G (3.1%, 356G)
AllInBot: 349G (3.0%, 349G)
TheSabretoothe: 292G (2.5%, 292G)
J_MacC1991: 248G (2.1%, 1,160G)
DeathTaxesAndAnime: 200G (1.7%, 7,944G)
cloudycube: 200G (1.7%, 362G)
DAC169: 100G (0.9%, 4,250G)
victoriolue: 100G (0.9%, 93,346G)
OneHundredFists: 100G (0.9%, 17,531G)
rkane398: 100G (0.9%, 333G)
getthemoneyz: 80G (0.7%, 2,130,600G)
