Final Bets: white - 14 bets for 5,644G (33.7%, x1.97); brown - 11 bets for 11,107G (66.3%, x0.51)

white bets:
Sairentozon7: 1,000G (17.7%, 48,273G)
Evewho: 1,000G (17.7%, 8,038G)
NicoSavoy: 532G (9.4%, 532G)
CorpusCav: 500G (8.9%, 33,625G)
krombobreaker: 500G (8.9%, 25,151G)
DuPlatypus: 420G (7.4%, 420G)
RikiNom: 400G (7.1%, 4,634G)
Lolthsmeat: 304G (5.4%, 7,551G)
TheBrett: 252G (4.5%, 252G)
minorfffanatic1: 236G (4.2%, 1,683G)
datadrivenbot: 200G (3.5%, 82,354G)
OneHundredFists: 100G (1.8%, 17,644G)
AbandonedHall: 100G (1.8%, 970G)
rkane398: 100G (1.8%, 346G)

brown bets:
Mesmaster: 5,000G (45.0%, 16,084G)
latebit: 1,461G (13.2%, 2,865G)
TheSabretoothe: 1,145G (10.3%, 1,145G)
BirbBrainsBot: 1,000G (9.0%, 163,118G)
thunderducker: 777G (7.0%, 2,749G)
KasugaiRoastedPeas: 548G (4.9%, 548G)
getthemoneyz: 426G (3.8%, 2,130,608G)
DeathTaxesAndAnime: 300G (2.7%, 8,170G)
AllInBot: 200G (1.8%, 200G)
cloudycube: 150G (1.4%, 588G)
victoriolue: 100G (0.9%, 93,459G)
