Final Bets: green - 23 bets for 16,292G (61.7%, x0.62); yellow - 11 bets for 10,133G (38.3%, x1.61)

green bets:
JonnyCue: 4,900G (30.1%, 4,900G)
nifboy: 1,342G (8.2%, 1,342G)
killth3kid: 1,235G (7.6%, 1,235G)
Aldrammech: 1,189G (7.3%, 1,189G)
BirbBrainsBot: 1,000G (6.1%, 82,688G)
SephDarkheart: 826G (5.1%, 826G)
AllInBot: 738G (4.5%, 738G)
douchetron: 600G (3.7%, 600G)
blorpy_: 559G (3.4%, 6,990G)
TasisSai: 500G (3.1%, 8,641G)
Mushufasa_: 500G (3.1%, 5,940G)
rednecknazgul: 486G (3.0%, 486G)
Forkmore: 416G (2.6%, 416G)
Shalloween: 400G (2.5%, 36,044G)
latebit: 322G (2.0%, 322G)
flacococo: 213G (1.3%, 213G)
CosmicTactician: 200G (1.2%, 3,161G)
datadrivenbot: 200G (1.2%, 51,781G)
DesertWooder: 200G (1.2%, 1,675G)
holdenmagronik: 150G (0.9%, 2,564G)
zenlion: 116G (0.7%, 116G)
Firesheath: 100G (0.6%, 25,066G)
DHaveWord: 100G (0.6%, 2,589G)

yellow bets:
SkylerBunny: 2,100G (20.7%, 203,312G)
DeathTaxesAndAnime: 1,813G (17.9%, 1,813G)
Artea_: 1,561G (15.4%, 1,561G)
TheMurkGnome: 1,077G (10.6%, 1,077G)
VolgraTheMoose: 1,001G (9.9%, 4,265G)
dogsandcatsand: 1,000G (9.9%, 228,331G)
gorgewall: 616G (6.1%, 616G)
Laserman1000: 371G (3.7%, 1,771G)
amsans1247: 300G (3.0%, 3,211G)
Lord_Gwarth: 280G (2.8%, 280G)
getthemoneyz: 14G (0.1%, 1,531,051G)
