Final Bets: red - 13 bets for 6,400G (30.8%, x2.24); blue - 21 bets for 14,348G (69.2%, x0.45)

red bets:
Ogema_theDream: 1,225G (19.1%, 1,225G)
BirbBrainsBot: 1,000G (15.6%, 102,978G)
TheBrett: 1,000G (15.6%, 26,026G)
lowlf: 664G (10.4%, 8,160G)
ExplanationMarkWow: 500G (7.8%, 45,638G)
2b_yorha_b: 400G (6.2%, 19,309G)
bigbongsmoker: 316G (4.9%, 5,700G)
murderclan: 250G (3.9%, 3,658G)
getthemoneyz: 244G (3.8%, 2,177,127G)
gorgewall: 201G (3.1%, 7,669G)
ANFz: 200G (3.1%, 7,528G)
Pyrotyk: 200G (3.1%, 600G)
maximalplus: 200G (3.1%, 3,449G)

blue bets:
E_Ballard: 3,022G (21.1%, 3,022G)
VolgraTheMoose: 1,555G (10.8%, 13,878G)
CorpusCav: 1,500G (10.5%, 64,688G)
resjudicata3: 1,076G (7.5%, 1,076G)
old_overholt_: 1,000G (7.0%, 53,089G)
Lord_Gwarth: 1,000G (7.0%, 20,279G)
Deathmaker06: 777G (5.4%, 35,942G)
SephDarkheart: 576G (4.0%, 20,676G)
run_with_stone_GUNs: 508G (3.5%, 21,835G)
Chuckolator: 459G (3.2%, 459G)
AllInBot: 429G (3.0%, 429G)
TheKillerNacho: 408G (2.8%, 408G)
HorusTaurus: 396G (2.8%, 396G)
DHaveWord: 342G (2.4%, 684G)
Reddash9: 300G (2.1%, 828G)
Evewho: 200G (1.4%, 9,078G)
Demon_Lord_Josh: 200G (1.4%, 5,814G)
datadrivenbot: 200G (1.4%, 86,050G)
ValensEXP_: 200G (1.4%, 5,009G)
maakur_: 100G (0.7%, 4,271G)
heropong: 100G (0.7%, 925G)
