Final Bets: red - 14 bets for 7,579G (45.5%, x1.20); blue - 9 bets for 9,093G (54.5%, x0.83)

red bets:
twelfthrootoftwo: 1,735G (22.9%, 3,402G)
BirbBrainsBot: 1,000G (13.2%, 6,568G)
Sairentozon7: 1,000G (13.2%, 52,676G)
getthemoneyz: 896G (11.8%, 1,342,251G)
readdesert: 624G (8.2%, 624G)
nekojin: 500G (6.6%, 2,653G)
iBardic: 400G (5.3%, 16,563G)
douchetron: 331G (4.4%, 650G)
dem0nj0ns: 291G (3.8%, 291G)
gorgewall: 201G (2.7%, 14,825G)
AllInBot: 200G (2.6%, 200G)
Lemonjohns: 200G (2.6%, 1,771G)
ribbiks: 200G (2.6%, 1,171G)
dtrain332: 1G (0.0%, 7,384G)

blue bets:
reddwind_: 3,000G (33.0%, 35,423G)
NovaKnight21: 2,000G (22.0%, 20,510G)
victoriolue: 1,103G (12.1%, 1,103G)
ColetteMSLP: 1,000G (11.0%, 18,563G)
superdevon1: 580G (6.4%, 11,603G)
CT_5_Holy: 534G (5.9%, 534G)
randgridr: 472G (5.2%, 19,018G)
Zachara: 204G (2.2%, 136,704G)
datadrivenbot: 200G (2.2%, 35,339G)
