Final Bets: blue - 16 bets for 9,379G (60.3%, x0.66); yellow - 16 bets for 6,168G (39.7%, x1.52)

blue bets:
roofiepops: 3,466G (37.0%, 15,497G)
Evewho: 1,171G (12.5%, 2,298G)
argentbast: 1,000G (10.7%, 7,035G)
Shalloween: 697G (7.4%, 697G)
DeathTaxesAndAnime: 680G (7.3%, 680G)
Meta_Five: 500G (5.3%, 9,212G)
volgrathemoose: 413G (4.4%, 826G)
d4rr1n: 300G (3.2%, 4,605G)
CandyTamer: 252G (2.7%, 867G)
Xcessive30: 200G (2.1%, 1,306G)
Hellotrixxy: 200G (2.1%, 674G)
ko2q: 100G (1.1%, 1,532G)
kaidykat: 100G (1.1%, 18,067G)
Flameatron: 100G (1.1%, 1,128G)
datadrivenbot: 100G (1.1%, 30,188G)
cogniv0r3: 100G (1.1%, 2,654G)

yellow bets:
CorpusCav: 1,006G (16.3%, 51,833G)
BirbBrainsBot: 1,000G (16.2%, 117,901G)
RaIshtar: 800G (13.0%, 1,815G)
HASTERIOUS: 636G (10.3%, 12,737G)
fenaen: 492G (8.0%, 492G)
Baron_von_Scrub: 474G (7.7%, 24,066G)
Lionhermit: 384G (6.2%, 384G)
red_celt: 264G (4.3%, 264G)
Qaz12301: 216G (3.5%, 216G)
Valentine009: 204G (3.3%, 204G)
getthemoneyz: 188G (3.0%, 783,921G)
danteangel7psn: 104G (1.7%, 104G)
TheMM42: 100G (1.6%, 10,334G)
DAC169: 100G (1.6%, 1,443G)
MiseryKoss: 100G (1.6%, 6,289G)
megakim: 100G (1.6%, 3,464G)
