Final Bets: blue - 11 bets for 5,501G (37.4%, x1.67); green - 12 bets for 9,188G (62.6%, x0.60)

blue bets:
Numbersborne: 2,165G (39.4%, 2,165G)
BirbBrainsBot: 804G (14.6%, 246,574G)
bad1dea: 800G (14.5%, 44,224G)
ungabunga_bot: 660G (12.0%, 50,267G)
Belivalan: 302G (5.5%, 302G)
redrhinofever: 200G (3.6%, 6,136G)
getthemoneyz: 170G (3.1%, 443,157G)
ApplesauceBoss: 100G (1.8%, 2,178G)
DaveStrider55: 100G (1.8%, 2,247G)
datadrivenbot: 100G (1.8%, 21,893G)
McGooferson: 100G (1.8%, 255G)

green bets:
sinnyil2: 2,200G (23.9%, 74,944G)
BenYuPoker: 2,093G (22.8%, 2,093G)
upvla: 1,219G (13.3%, 110,691G)
WireLord: 1,078G (11.7%, 1,078G)
marblescrew: 673G (7.3%, 673G)
mirapoix: 500G (5.4%, 4,045G)
kingchadking: 416G (4.5%, 416G)
JackOnFire1: 342G (3.7%, 6,842G)
AllInBot: 267G (2.9%, 267G)
ugoplatamia: 200G (2.2%, 13,633G)
SeedSC: 100G (1.1%, 141,714G)
herrshaun: 100G (1.1%, 3,632G)
