Final Bets: green - 19 bets for 24,785G (91.7%, x0.09); yellow - 7 bets for 2,250G (8.3%, x11.02)

green bets:
Shakarak: 6,000G (24.2%, 16,961G)
Sairentozon7: 2,465G (9.9%, 2,465G)
sinnyil2: 2,222G (9.0%, 13,043G)
Mesmaster: 2,000G (8.1%, 57,167G)
HorusTaurus: 2,000G (8.1%, 7,667G)
HaplessOne: 1,234G (5.0%, 11,049G)
Lydian_C: 1,200G (4.8%, 5,044G)
ungabunga_bot: 1,000G (4.0%, 288,136G)
BirbBrainsBot: 1,000G (4.0%, 156,818G)
reinoe: 1,000G (4.0%, 24,280G)
Dexef: 999G (4.0%, 3,281G)
ccordc: 880G (3.6%, 880G)
getthemoneyz: 704G (2.8%, 609,972G)
ShintaroNayaka: 580G (2.3%, 580G)
volgrathemoose: 501G (2.0%, 11,600G)
DrAntiSocial: 420G (1.7%, 9,430G)
FoxtrotNovemberCharlie: 280G (1.1%, 280G)
superneol: 200G (0.8%, 1,109G)
Arkreaver: 100G (0.4%, 13,216G)

yellow bets:
Goust18: 500G (22.2%, 11,965G)
vorap: 500G (22.2%, 30,722G)
ko2q: 350G (15.6%, 350G)
mayormcfunbags: 300G (13.3%, 1,760G)
Anethum: 300G (13.3%, 5,783G)
KasugaiRoastedPeas: 200G (8.9%, 6,953G)
datadrivenbot: 100G (4.4%, 11,792G)
