Final Bets: green - 7 bets for 5,962G (28.9%, x2.46); champion - 15 bets for 14,652G (71.1%, x0.41)

green bets:
leakimiko: 2,062G (34.6%, 25,780G)
BirbBrainsBot: 1,000G (16.8%, 154,658G)
Mtueni: 1,000G (16.8%, 250,931G)
ColetteMSLP: 800G (13.4%, 38,260G)
superneol: 500G (8.4%, 1,055G)
sinnyil2: 500G (8.4%, 19,360G)
getthemoneyz: 100G (1.7%, 609,470G)

champion bets:
reinoe: 3,000G (20.5%, 26,950G)
Mesmaster: 3,000G (20.5%, 52,706G)
HorusTaurus: 2,000G (13.7%, 9,502G)
ccordc: 1,388G (9.5%, 2,776G)
HaplessOne: 1,234G (8.4%, 12,332G)
midori_ribbon: 817G (5.6%, 817G)
aStatue: 604G (4.1%, 604G)
ShintaroNayaka: 580G (4.0%, 580G)
volgrathemoose: 500G (3.4%, 11,870G)
electric_glass: 420G (2.9%, 7,379G)
DrAntiSocial: 420G (2.9%, 8,900G)
FoxtrotNovemberCharlie: 366G (2.5%, 366G)
ungabunga_bot: 123G (0.8%, 289,147G)
datadrivenbot: 100G (0.7%, 11,679G)
Arkreaver: 100G (0.7%, 12,856G)
