Final Bets: green - 12 bets for 3,202G (33.4%, x1.99); yellow - 11 bets for 6,382G (66.6%, x0.50)

green bets:
roqqqpsi: 545G (17.0%, 4,957G)
cloud92684: 500G (15.6%, 4,704G)
ApplesauceBoss: 408G (12.7%, 408G)
getthemoneyz: 396G (12.4%, 683,343G)
CassiePhoenix: 348G (10.9%, 348G)
gorgewall: 201G (6.3%, 12,298G)
GeeGXP: 200G (6.2%, 9,964G)
Bryon_W: 200G (6.2%, 1,245G)
AmaninAmide: 124G (3.9%, 124G)
Jeeboheebo: 100G (3.1%, 4,817G)
Furgers: 100G (3.1%, 1,182G)
DeathTaxesAndAnime: 80G (2.5%, 1,679G)

yellow bets:
Phytik: 2,516G (39.4%, 2,516G)
BirbBrainsBot: 1,000G (15.7%, 192,420G)
twelfthrootoftwo: 1,000G (15.7%, 24,113G)
solomongrundy85: 500G (7.8%, 15,833G)
HASTERIOUS: 338G (5.3%, 6,779G)
ShintaroNayaka: 332G (5.2%, 332G)
dowdlron: 200G (3.1%, 1,389G)
soren_of_tyto: 196G (3.1%, 196G)
otakutaylor: 100G (1.6%, 683G)
datadrivenbot: 100G (1.6%, 22,635G)
Evewho: 100G (1.6%, 611G)
