Final Bets: blue - 9 bets for 7,141G (49.4%, x1.03); yellow - 14 bets for 7,320G (50.6%, x0.98)

blue bets:
metagameface: 2,000G (28.0%, 25,368G)
bruubarg: 1,718G (24.1%, 1,718G)
E_Ballard: 998G (14.0%, 998G)
ApplesauceBoss: 921G (12.9%, 921G)
Candina: 500G (7.0%, 2,261G)
CassiePhoenix: 348G (4.9%, 348G)
ShintaroNayaka: 332G (4.6%, 332G)
cloud92684: 200G (2.8%, 4,276G)
AmaninAmide: 124G (1.7%, 124G)

yellow bets:
Evewho: 1,493G (20.4%, 1,493G)
TheChainNerd: 1,000G (13.7%, 7,435G)
BirbBrainsBot: 1,000G (13.7%, 190,922G)
twelfthrootoftwo: 1,000G (13.7%, 24,315G)
GeeGXP: 1,000G (13.7%, 10,082G)
getthemoneyz: 378G (5.2%, 682,413G)
AUrato: 351G (4.8%, 8,791G)
Bryon_W: 300G (4.1%, 1,120G)
PotionDweller: 298G (4.1%, 298G)
Jeeboheebo: 100G (1.4%, 4,757G)
dowdlron: 100G (1.4%, 1,189G)
otakutaylor: 100G (1.4%, 1,279G)
datadrivenbot: 100G (1.4%, 22,621G)
CosmicTactician: 100G (1.4%, 11,151G)
