Final Bets: white - 13 bets for 8,457G (64.4%, x0.55); purple - 9 bets for 4,669G (35.6%, x1.81)

white bets:
metagameface: 4,000G (47.3%, 23,368G)
GeeGXP: 1,000G (11.8%, 11,058G)
Draconis345: 1,000G (11.8%, 76,467G)
ApplesauceBoss: 408G (4.8%, 408G)
Mtueni: 400G (4.7%, 15,205G)
CassiePhoenix: 348G (4.1%, 348G)
Bryon_W: 300G (3.5%, 1,417G)
twelfthrootoftwo: 300G (3.5%, 25,291G)
Candina: 300G (3.5%, 1,761G)
gorgewall: 101G (1.2%, 12,169G)
Jeeboheebo: 100G (1.2%, 4,855G)
datadrivenbot: 100G (1.2%, 22,719G)
Evewho: 100G (1.2%, 2,949G)

purple bets:
otakutaylor: 1,377G (29.5%, 1,377G)
TheChainNerd: 1,000G (21.4%, 8,411G)
BirbBrainsBot: 1,000G (21.4%, 191,898G)
VidMonkey: 400G (8.6%, 1,000G)
ShintaroNayaka: 332G (7.1%, 332G)
PotionDweller: 250G (5.4%, 589G)
AmaninAmide: 124G (2.7%, 124G)
bruubarg: 108G (2.3%, 108G)
getthemoneyz: 78G (1.7%, 682,782G)
