Final Bets: red - 16 bets for 32,031G (90.2%, x0.11); blue - 9 bets for 3,492G (9.8%, x9.17)

red bets:
reinoe: 16,640G (51.9%, 16,640G)
wurstwaesserchen: 5,000G (15.6%, 17,640G)
ThePineappleSalesman: 2,347G (7.3%, 4,603G)
megaman2202: 1,090G (3.4%, 1,090G)
TheChainNerd: 1,000G (3.1%, 9,358G)
solomongrundy85: 1,000G (3.1%, 13,588G)
Hamborn: 1,000G (3.1%, 54,242G)
UmaiJam: 1,000G (3.1%, 5,531G)
rechaun: 998G (3.1%, 998G)
gorgewall: 501G (1.6%, 12,960G)
ar_tactic: 500G (1.6%, 44,461G)
itsadud: 435G (1.4%, 435G)
d4rr1n: 200G (0.6%, 200G)
isolatedchapelsix: 120G (0.4%, 1,204G)
CosmicTactician: 100G (0.3%, 23,931G)
datadrivenbot: 100G (0.3%, 23,511G)

blue bets:
BirbBrainsBot: 1,000G (28.6%, 32,902G)
Evewho: 1,000G (28.6%, 5,684G)
E_Ballard: 600G (17.2%, 600G)
run_with_stone_GUNs: 250G (7.2%, 5,784G)
Breakdown777: 200G (5.7%, 3,822G)
roqqqpsi: 122G (3.5%, 12,277G)
Zachara: 120G (3.4%, 85,070G)
AUrato: 100G (2.9%, 11,141G)
marin1987: 100G (2.9%, 756G)
