Final Bets: green - 19 bets for 27,885G (84.8%, x0.18); yellow - 7 bets for 5,016G (15.2%, x5.56)

green bets:
E_Ballard: 6,104G (21.9%, 6,104G)
Error72: 5,000G (17.9%, 10,611G)
asherban: 3,311G (11.9%, 3,311G)
powergems: 2,376G (8.5%, 4,753G)
ThePineappleSalesman: 2,256G (8.1%, 2,256G)
roqqqpsi: 1,473G (5.3%, 13,396G)
solomongrundy85: 1,000G (3.6%, 12,588G)
getthemoneyz: 1,000G (3.6%, 683,589G)
BirbBrainsBot: 1,000G (3.6%, 42,075G)
UmaiJam: 1,000G (3.6%, 4,531G)
ForagerCats: 1,000G (3.6%, 13,362G)
Zachara: 671G (2.4%, 86,171G)
wurstwaesserchen: 500G (1.8%, 12,644G)
AUrato: 482G (1.7%, 12,058G)
d4rr1n: 204G (0.7%, 204G)
run_with_stone_GUNs: 200G (0.7%, 8,077G)
isolatedchapelsix: 108G (0.4%, 1,084G)
CosmicTactician: 100G (0.4%, 23,831G)
datadrivenbot: 100G (0.4%, 23,411G)

yellow bets:
Evewho: 2,000G (39.9%, 14,857G)
TheChainNerd: 1,000G (19.9%, 8,358G)
reinoe: 600G (12.0%, 600G)
NIghtdew14: 500G (10.0%, 9,058G)
megaman2202: 436G (8.7%, 436G)
rechaun: 380G (7.6%, 380G)
marin1987: 100G (2.0%, 1,673G)
