Final Bets: white - 15 bets for 8,428G (4.9%, x19.26); champion - 14 bets for 162,320G (95.1%, x0.05)

white bets:
TheChainNerd: 1,000G (11.9%, 13,815G)
powergems: 1,000G (11.9%, 6,606G)
BirbBrainsBot: 1,000G (11.9%, 43,785G)
Hamborn: 1,000G (11.9%, 54,859G)
solomongrundy85: 978G (11.6%, 978G)
getthemoneyz: 796G (9.4%, 682,297G)
megaman2202: 700G (8.3%, 5,432G)
reinoe: 600G (7.1%, 600G)
OrganicArtist: 373G (4.4%, 733G)
Snowman080: 367G (4.4%, 367G)
isolatedchapelsix: 214G (2.5%, 1,432G)
asherban: 100G (1.2%, 100G)
Error72: 100G (1.2%, 9,330G)
Evewho: 100G (1.2%, 29,155G)
Bryon_W: 100G (1.2%, 1,233G)

champion bets:
HaplessOne: 147,434G (90.8%, 147,434G)
UmaiJam: 3,647G (2.2%, 3,647G)
DavenIII: 3,484G (2.1%, 6,969G)
maakur_: 2,449G (1.5%, 2,449G)
E_Ballard: 2,039G (1.3%, 2,039G)
rechaun: 744G (0.5%, 744G)
run_with_stone_GUNs: 666G (0.4%, 7,996G)
marin1987: 666G (0.4%, 2,525G)
d4rr1n: 470G (0.3%, 470G)
ThePineappleSalesman: 308G (0.2%, 308G)
roqqqpsi: 113G (0.1%, 11,363G)
CosmicTactician: 100G (0.1%, 24,035G)
datadrivenbot: 100G (0.1%, 23,377G)
lastly: 100G (0.1%, 13,768G)
