Final Bets: purple - 22 bets for 22,447G (34.1%, x1.94); champion - 7 bets for 43,442G (65.9%, x0.52)

purple bets:
prince_rogers_nelson_: 10,096G (45.0%, 10,096G)
SeniorBunk: 1,500G (6.7%, 9,435G)
sukotsuto: 1,500G (6.7%, 28,993G)
dogsandcatsand: 1,290G (5.7%, 1,290G)
Shalloween: 1,000G (4.5%, 66,217G)
roofiepops: 1,000G (4.5%, 3,937G)
BirbBrainsBot: 1,000G (4.5%, 85,188G)
opHendoslice: 1,000G (4.5%, 8,397G)
BStarTV: 1,000G (4.5%, 7,831G)
Laserman1000: 600G (2.7%, 12,200G)
TheChainNerd: 492G (2.2%, 492G)
killth3kid: 480G (2.1%, 2,213G)
silentkaster: 250G (1.1%, 7,500G)
getthemoneyz: 218G (1.0%, 1,021,248G)
Nizaha: 201G (0.9%, 12,187G)
KasugaiRoastedPeas: 200G (0.9%, 8,446G)
Lydian_C: 120G (0.5%, 167,375G)
Quadh0nk: 100G (0.4%, 2,774G)
Firesheath: 100G (0.4%, 2,435G)
lastly: 100G (0.4%, 27,497G)
Seaweed_B: 100G (0.4%, 100G)
datadrivenbot: 100G (0.4%, 44,776G)

champion bets:
KyleWonToLiveForever: 36,945G (85.0%, 36,945G)
reinoe: 1,948G (4.5%, 3,896G)
Zeroroute: 1,794G (4.1%, 3,758G)
pandasforsale: 1,355G (3.1%, 1,355G)
SkylerBunny: 1,200G (2.8%, 598,858G)
maakur_: 100G (0.2%, 73,680G)
nhammen: 100G (0.2%, 3,533G)
