Final Bets: red - 10 bets for 4,180G (32.2%, x2.10); green - 12 bets for 8,795G (67.8%, x0.48)

red bets:
BirbBrainsBot: 1,000G (23.9%, 90,780G)
Thyrandaal: 808G (19.3%, 808G)
Seaweed_B: 744G (17.8%, 744G)
Aldrammech: 500G (12.0%, 4,506G)
thaetreis: 400G (9.6%, 28,761G)
AllInBot: 200G (4.8%, 200G)
silentperogy: 200G (4.8%, 30,126G)
getthemoneyz: 128G (3.1%, 1,324,640G)
Heroebal: 100G (2.4%, 3,675G)
dem0nj0ns: 100G (2.4%, 4,739G)

green bets:
twelfthrootoftwo: 1,768G (20.1%, 3,467G)
roqqqpsi: 1,241G (14.1%, 11,290G)
HuffFlex: 1,000G (11.4%, 19,236G)
prince_rogers_nelson_: 980G (11.1%, 980G)
dtrain332: 932G (10.6%, 932G)
ThreeMileIsland: 866G (9.8%, 866G)
ZicaX: 828G (9.4%, 828G)
randgridr: 412G (4.7%, 3,410G)
SUGRboi: 236G (2.7%, 236G)
BlueAbs: 232G (2.6%, 232G)
datadrivenbot: 200G (2.3%, 35,264G)
CT_5_Holy: 100G (1.1%, 7,478G)
