Final Bets: purple - 12 bets for 7,041G (28.3%, x2.53); brown - 13 bets for 17,844G (71.7%, x0.39)

purple bets:
twelfthrootoftwo: 1,035G (14.7%, 2,030G)
BirbBrainsBot: 1,000G (14.2%, 9,060G)
RaIshtar: 1,000G (14.2%, 7,358G)
TheMurkGnome: 883G (12.5%, 883G)
Thyrandaal: 700G (9.9%, 66,818G)
getthemoneyz: 646G (9.2%, 1,360,495G)
brokenknight201: 500G (7.1%, 11,934G)
latebit: 400G (5.7%, 400G)
AllInBot: 339G (4.8%, 339G)
gorgewall: 201G (2.9%, 16,786G)
ribbiks: 177G (2.5%, 177G)
douchetron: 160G (2.3%, 160G)

brown bets:
NIghtdew14: 4,000G (22.4%, 40,381G)
sinnyil2: 3,756G (21.0%, 7,513G)
randgridr: 3,456G (19.4%, 3,456G)
Virilikus: 3,000G (16.8%, 182,512G)
NicoSavoy: 2,000G (11.2%, 271,968G)
MLWebz0r: 400G (2.2%, 3,544G)
Zagorsek: 364G (2.0%, 729G)
Vultuous: 258G (1.4%, 258G)
datadrivenbot: 200G (1.1%, 37,188G)
nhammen: 110G (0.6%, 2,636G)
Miku_Shikhu: 100G (0.6%, 1,207G)
RunicMagus: 100G (0.6%, 3,750G)
DAC169: 100G (0.6%, 1,151G)
