Final Bets: blue - 15 bets for 9,464G (55.8%, x0.79); green - 7 bets for 7,497G (44.2%, x1.26)

blue bets:
Mesmaster: 3,000G (31.7%, 30,401G)
EnemyController: 1,111G (11.7%, 1,358,454G)
BirbBrainsBot: 1,000G (10.6%, 151,571G)
getthemoneyz: 644G (6.8%, 1,162,093G)
ANFz: 516G (5.5%, 516G)
Laserman1000: 500G (5.3%, 11,400G)
CosmicTactician: 500G (5.3%, 49,144G)
loveyouallfriends: 406G (4.3%, 1,406G)
Aldrammech: 392G (4.1%, 392G)
DustBirdEX: 345G (3.6%, 1,436G)
twelfthrootoftwo: 300G (3.2%, 10,461G)
CITOtheMOSQUITO: 250G (2.6%, 5,323G)
Salted_Cliff_Racer: 200G (2.1%, 1,067G)
datadrivenbot: 200G (2.1%, 51,343G)
funkjunkey: 100G (1.1%, 1,000G)

green bets:
turbn: 2,000G (26.7%, 4,307G)
SkylerBunny: 1,534G (20.5%, 1,534G)
DarrenDinosaurs: 1,417G (18.9%, 1,417G)
Mathlexis: 950G (12.7%, 3,201G)
TheChainNerd: 896G (12.0%, 8,964G)
prince_rogers_nelson_: 600G (8.0%, 600G)
nhammen: 100G (1.3%, 9,040G)
