Final Bets: white - 26 bets for 13,960G (63.2%, x0.58); brown - 16 bets for 8,123G (36.8%, x1.72)

white bets:
DeathTaxesAndAnime: 1,331G (9.5%, 1,331G)
Zeroroute: 1,124G (8.1%, 1,124G)
BenYuPoker: 1,006G (7.2%, 1,971G)
Nizaha: 1,001G (7.2%, 18,314G)
kai_shee: 1,001G (7.2%, 97,567G)
BirbBrainsBot: 1,000G (7.2%, 246,839G)
bad1dea: 1,000G (7.2%, 36,590G)
waterwatereverywhere: 759G (5.4%, 1,490G)
ungabunga_bot: 662G (4.7%, 50,951G)
lunaticruin: 653G (4.7%, 653G)
Shalloween: 585G (4.2%, 585G)
Laserman1000: 537G (3.8%, 11,637G)
SerumD: 500G (3.6%, 8,275G)
ZephyrTempest: 379G (2.7%, 27,131G)
soapydragonfly: 300G (2.1%, 728G)
DLJuggernaut: 300G (2.1%, 13,521G)
Pie108: 256G (1.8%, 8,910G)
JustSuperish: 244G (1.7%, 244G)
CamelCash007: 224G (1.6%, 224G)
ugoplatamia: 200G (1.4%, 21,111G)
urieltheflameofgod: 200G (1.4%, 2,025G)
EnemyController: 200G (1.4%, 28,047G)
AlenaZarek: 150G (1.1%, 2,802G)
joewcarson: 128G (0.9%, 128G)
TinhShu: 120G (0.9%, 2,367G)
datadrivenbot: 100G (0.7%, 21,675G)

brown bets:
AllInBot: 1,658G (20.4%, 1,658G)
DrDelicatessen: 1,396G (17.2%, 1,396G)
toka222: 1,100G (13.5%, 523,052G)
Mtueni: 1,000G (12.3%, 127,644G)
Lanshaft: 600G (7.4%, 7,034G)
TheChainNerd: 528G (6.5%, 528G)
Nocturnal_Perspective: 500G (6.2%, 5,306G)
maakur_: 400G (4.9%, 400G)
friendsquirrel: 368G (4.5%, 368G)
Firesheath: 100G (1.2%, 1,751G)
gikokiko: 100G (1.2%, 100G)
2sexy4u: 100G (1.2%, 1,162G)
Ausuri: 100G (1.2%, 955G)
Tougou: 100G (1.2%, 7,063G)
getthemoneyz: 68G (0.8%, 438,903G)
ko2q: 5G (0.1%, 1,806G)
