Final Bets: red - 4 bets for 2,562G (31.8%, x2.14); yellow - 12 bets for 5,486G (68.2%, x0.47)

red bets:
TheChainNerd: 974G (38.0%, 974G)
CassiePhoenix: 908G (35.4%, 908G)
ShintaroNayaka: 580G (22.6%, 580G)
AllInBot: 100G (3.9%, 100G)

yellow bets:
RaIshtar: 1,301G (23.7%, 1,301G)
BirbBrainsBot: 1,000G (18.2%, 68,876G)
Evewho: 948G (17.3%, 948G)
gorgewall: 401G (7.3%, 20,027G)
serperemagus: 400G (7.3%, 6,760G)
SweetHat: 300G (5.5%, 4,057G)
DeathTaxesAndAnime: 300G (5.5%, 3,588G)
AltimaMantoid: 248G (4.5%, 1,648G)
KasugaiRoastedPeas: 200G (3.6%, 14,548G)
getthemoneyz: 188G (3.4%, 970,664G)
CosmicTactician: 100G (1.8%, 6,962G)
datadrivenbot: 100G (1.8%, 42,389G)
