Final Bets: purple - 15 bets for 6,184G (29.4%, x2.40); brown - 25 bets for 14,848G (70.6%, x0.42)

purple bets:
LuckyLuckLuc2: 1,234G (20.0%, 26,608G)
HaplessOne: 1,000G (16.2%, 99,481G)
Numbersborne: 840G (13.6%, 840G)
bad1dea: 600G (9.7%, 29,236G)
BirbBrainsBot: 560G (9.1%, 211,433G)
z32o: 436G (7.1%, 436G)
getthemoneyz: 360G (5.8%, 436,025G)
Pie108: 256G (4.1%, 4,723G)
ugoplatamia: 200G (3.2%, 4,924G)
ZephyrTempest: 187G (3.0%, 20,522G)
electric_glass: 150G (2.4%, 919G)
byrdturbo: 111G (1.8%, 4,165G)
Maowiwowi: 100G (1.6%, 100G)
ThanatosXRagnarok: 100G (1.6%, 14,140G)
cougboi: 50G (0.8%, 5,673G)

brown bets:
Shakarak: 2,000G (13.5%, 28,457G)
BenYuPoker: 1,987G (13.4%, 3,975G)
UmaiJam: 1,611G (10.8%, 16,113G)
sinnyil2: 1,500G (10.1%, 41,001G)
upvla: 1,290G (8.7%, 22,965G)
RongRongArts: 1,104G (7.4%, 2,208G)
Laserman1000: 1,090G (7.3%, 1,090G)
DeathTaxesAndAnime: 500G (3.4%, 8,817G)
LAGBOT30000: 483G (3.3%, 9,668G)
DarrenDinosaurs: 388G (2.6%, 388G)
OverlordCuddles: 372G (2.5%, 372G)
Cryptopsy70: 352G (2.4%, 4,810G)
Chuckolator: 334G (2.2%, 9,869G)
bluuuuuuuh: 300G (2.0%, 1,280G)
AllInBot: 267G (1.8%, 267G)
Conome: 236G (1.6%, 236G)
Tomion: 200G (1.3%, 2,293G)
L2_Sentinel: 200G (1.3%, 13,323G)
Powermhero: 200G (1.3%, 7,640G)
Sitiran: 104G (0.7%, 104G)
Spirit_NB: 100G (0.7%, 279G)
datadrivenbot: 100G (0.7%, 17,864G)
ungabunga_bot: 50G (0.3%, 21,860G)
JackOnFire1: 50G (0.3%, 4,509G)
ZZ_Yoshi: 30G (0.2%, 3,258G)
