Final Bets: purple - 15 bets for 18,068G (70.4%, x0.42); brown - 12 bets for 7,600G (29.6%, x2.38)

purple bets:
nekojin: 3,752G (20.8%, 7,357G)
Virilikus: 3,000G (16.6%, 333,665G)
latebit: 2,736G (15.1%, 5,365G)
Mesmaster: 2,000G (11.1%, 6,291G)
skillomono: 1,194G (6.6%, 2,388G)
zenlion: 1,000G (5.5%, 11,712G)
reinoe: 1,000G (5.5%, 100,223G)
Laserman1000: 828G (4.6%, 4,428G)
KasugaiRoastedPeas: 531G (2.9%, 531G)
Thyrandaal: 526G (2.9%, 526G)
silentkaster: 500G (2.8%, 1,189G)
peanutvendor: 400G (2.2%, 9,098G)
gorgewall: 301G (1.7%, 7,843G)
datadrivenbot: 200G (1.1%, 64,740G)
CosmicTactician: 100G (0.6%, 35,231G)

brown bets:
kaidykat: 1,879G (24.7%, 187,950G)
SkylerBunny: 1,200G (15.8%, 12,819G)
BirbBrainsBot: 1,000G (13.2%, 78,011G)
Amorial: 751G (9.9%, 7,511G)
douchetron: 600G (7.9%, 600G)
JCBooBot: 519G (6.8%, 4,723G)
Smashy: 500G (6.6%, 10,175G)
Armorgames1: 422G (5.6%, 4,227G)
lowlf: 356G (4.7%, 2,711G)
3ngag3: 149G (2.0%, 9,749G)
AllInBot: 132G (1.7%, 132G)
getthemoneyz: 92G (1.2%, 1,692,439G)
