Final Bets: purple - 14 bets for 10,950G (38.3%, x1.61); champion - 13 bets for 17,656G (61.7%, x0.62)

purple bets:
Mesmaster: 4,132G (37.7%, 4,132G)
Amorial: 1,158G (10.6%, 11,584G)
BirbBrainsBot: 1,000G (9.1%, 79,465G)
reinoe: 1,000G (9.1%, 102,450G)
Thyrandaal: 1,000G (9.1%, 5,202G)
Laserman1000: 883G (8.1%, 4,983G)
latebit: 408G (3.7%, 6,846G)
lowlf: 356G (3.3%, 2,355G)
KasugaiRoastedPeas: 300G (2.7%, 754G)
getthemoneyz: 246G (2.2%, 1,692,805G)
3ngag3: 166G (1.5%, 11,166G)
gorgewall: 101G (0.9%, 8,427G)
skillomono: 100G (0.9%, 1,445G)
nhammen: 100G (0.9%, 131,380G)

champion bets:
Virilikus: 5,000G (28.3%, 328,169G)
SkylerBunny: 4,907G (27.8%, 9,623G)
Smashy: 4,613G (26.1%, 9,226G)
Sairentozon7: 1,000G (5.7%, 15,936G)
Forkmore: 580G (3.3%, 5,212G)
JCBooBot: 455G (2.6%, 3,255G)
resjudicata3: 300G (1.7%, 6,979G)
datadrivenbot: 200G (1.1%, 65,315G)
silentkaster: 193G (1.1%, 1,593G)
Docrad_: 108G (0.6%, 108G)
AllInBot: 100G (0.6%, 100G)
loveyouallfriends: 100G (0.6%, 60,298G)
CapnChaos12: 100G (0.6%, 1,776G)
