Final Bets: red - 22 bets for 16,420G (70.9%, x0.41); blue - 18 bets for 6,743G (29.1%, x2.44)

red bets:
Aldrammech: 10,000G (60.9%, 30,134G)
AllInBot: 874G (5.3%, 874G)
fenaen: 623G (3.8%, 4,157G)
lowlf: 588G (3.6%, 588G)
Jeeboheebo: 524G (3.2%, 524G)
NIghtdew14: 500G (3.0%, 2,652G)
joewcarson: 400G (2.4%, 6,815G)
ShintaroNayaka: 400G (2.4%, 3,380G)
JumbocactuarX27: 320G (1.9%, 320G)
Just_Data: 300G (1.8%, 56,031G)
bruubarg: 280G (1.7%, 280G)
richardserious: 248G (1.5%, 248G)
CosmicTactician: 200G (1.2%, 3,416G)
Flameatron: 200G (1.2%, 1,958G)
JoeykinsGaming: 200G (1.2%, 13,555G)
frozentomato: 150G (0.9%, 6,776G)
ravingsockmonkey: 112G (0.7%, 112G)
Firesheath: 101G (0.6%, 2,302G)
datadrivenbot: 100G (0.6%, 28,386G)
Kyune: 100G (0.6%, 33,933G)
FriendSquirrel: 100G (0.6%, 1,242G)
SerumD: 100G (0.6%, 2,769G)

blue bets:
BirbBrainsBot: 1,000G (14.8%, 55,814G)
E_Ballard: 1,000G (14.8%, 3,900G)
rednecknazgul: 596G (8.8%, 596G)
CorpusCav: 500G (7.4%, 9,600G)
gogofromtogo: 500G (7.4%, 1,254G)
poulol: 499G (7.4%, 5,092G)
coralreeferz: 450G (6.7%, 8,971G)
RagequitSA: 332G (4.9%, 332G)
benticore: 316G (4.7%, 316G)
cloud92684: 300G (4.4%, 10,987G)
nifboy: 250G (3.7%, 18,712G)
Lyner87: 250G (3.7%, 57,075G)
TeaTime29: 200G (3.0%, 1,704G)
LivingHitokiri: 200G (3.0%, 5,203G)
maakur_: 100G (1.5%, 9,282G)
Kellios11: 100G (1.5%, 8,356G)
TinchoT: 100G (1.5%, 400G)
DrAntiSocial: 50G (0.7%, 2,339G)
