Final Bets: white - 27 bets for 25,357G (71.9%, x0.39); black - 14 bets for 9,903G (28.1%, x2.56)

white bets:
Aldrammech: 5,000G (19.7%, 40,949G)
holyonline: 4,460G (17.6%, 4,460G)
Bilabrin: 2,987G (11.8%, 5,974G)
DavenIII: 2,500G (9.9%, 12,184G)
JumbocactuarX27: 1,056G (4.2%, 1,056G)
Theseawolf1: 1,000G (3.9%, 47,401G)
bruubarg: 925G (3.6%, 925G)
turtlelover2244: 900G (3.5%, 900G)
richardserious: 820G (3.2%, 820G)
Laserman1000: 782G (3.1%, 31,082G)
ShintaroNayaka: 700G (2.8%, 3,544G)
E_Ballard: 600G (2.4%, 600G)
Jinxzers: 500G (2.0%, 4,871G)
cloud92684: 500G (2.0%, 10,955G)
Jeeboheebo: 488G (1.9%, 488G)
YaBoy125: 420G (1.7%, 17,117G)
UFOCATCHERDAILY: 300G (1.2%, 3,392G)
BirbBrainsBot: 285G (1.1%, 56,156G)
demidusk: 234G (0.9%, 234G)
ferroniss: 200G (0.8%, 19,084G)
AllInBot: 100G (0.4%, 100G)
FriendSquirrel: 100G (0.4%, 1,283G)
rednecknazgul: 100G (0.4%, 426G)
ALY327: 100G (0.4%, 52,361G)
datadrivenbot: 100G (0.4%, 28,561G)
Flameatron: 100G (0.4%, 1,940G)
CosmicTactician: 100G (0.4%, 3,398G)

black bets:
LivingHitokiri: 4,003G (40.4%, 4,003G)
reinoe: 2,000G (20.2%, 39,350G)
Just_Data: 1,000G (10.1%, 55,154G)
skillomono: 784G (7.9%, 784G)
HaateXIII: 500G (5.0%, 28,161G)
benticore: 316G (3.2%, 316G)
nifboy: 250G (2.5%, 18,462G)
gogofromtogo: 224G (2.3%, 224G)
TeaTime29: 200G (2.0%, 1,504G)
Kellios11: 200G (2.0%, 8,256G)
frozentomato: 150G (1.5%, 7,509G)
ravingsockmonkey: 112G (1.1%, 112G)
DeathTaxesAndAnime: 100G (1.0%, 13,282G)
getthemoneyz: 64G (0.6%, 761,598G)
