Final Bets: white - 12 bets for 10,887G (65.4%, x0.53); black - 16 bets for 5,757G (34.6%, x1.89)

white bets:
NovaKnight21: 4,414G (40.5%, 8,828G)
kai_shee: 1,000G (9.2%, 50,461G)
BirbBrainsBot: 1,000G (9.2%, 27,764G)
getthemoneyz: 1,000G (9.2%, 399,347G)
bad1dea: 1,000G (9.2%, 257,312G)
Winterharte: 1,000G (9.2%, 6,328G)
Rytor: 500G (4.6%, 10,870G)
rrazzoug: 300G (2.8%, 7,113G)
LordSDB: 273G (2.5%, 273G)
MrFlabyo: 200G (1.8%, 19,567G)
JohnDuggins: 100G (0.9%, 922G)
datadrivenbot: 100G (0.9%, 17,940G)

black bets:
Zetchryn: 1,810G (31.4%, 1,810G)
z32o: 548G (9.5%, 548G)
JustSuperish: 500G (8.7%, 2,473G)
WillFitzgerald: 391G (6.8%, 391G)
Baron_von_Scrub: 365G (6.3%, 365G)
PlatinumPlume: 345G (6.0%, 7,732G)
InOzWeTrust: 341G (5.9%, 341G)
MirtaiAtana: 318G (5.5%, 318G)
LAGBOT30000: 300G (5.2%, 7,131G)
0utlier: 300G (5.2%, 300G)
jhazor: 208G (3.6%, 208G)
ApplesauceBoss: 100G (1.7%, 2,042G)
ko2q: 100G (1.7%, 989G)
volgrathemoose: 100G (1.7%, 2,776G)
WinnerBit: 30G (0.5%, 1,267G)
daveb_: 1G (0.0%, 902G)
