Final Bets: yellow - 11 bets for 5,098G (27.1%, x2.68); champion - 18 bets for 13,682G (72.9%, x0.37)

yellow bets:
MirtaiAtana: 1,000G (19.6%, 5,327G)
kai_shee: 1,000G (19.6%, 51,005G)
0utlier: 826G (16.2%, 826G)
LordSDB: 660G (12.9%, 660G)
volgrathemoose: 436G (8.6%, 1,292G)
InOzWeTrust: 340G (6.7%, 680G)
Aurilliux: 284G (5.6%, 284G)
robespyah: 236G (4.6%, 236G)
bajeger: 116G (2.3%, 116G)
ApplesauceBoss: 100G (2.0%, 2,656G)
ass_brains: 100G (2.0%, 5,097G)

champion bets:
Aldrammech: 1,966G (14.4%, 19,660G)
Lord_Burrah: 1,923G (14.1%, 90,923G)
ForagerCats: 1,784G (13.0%, 1,784G)
Zetchryn: 1,000G (7.3%, 7,369G)
bad1dea: 1,000G (7.3%, 255,671G)
Winterharte: 1,000G (7.3%, 2,332G)
gooseyourself: 1,000G (7.3%, 12,240G)
BirbBrainsBot: 992G (7.3%, 26,123G)
fenaen: 554G (4.0%, 1,108G)
rrazzoug: 500G (3.7%, 7,716G)
nomoment: 500G (3.7%, 26,094G)
z32o: 500G (3.7%, 4,101G)
jhazor: 455G (3.3%, 455G)
RyuTsuno: 200G (1.5%, 6,115G)
Carledo: 103G (0.8%, 4,664G)
Treapvort: 100G (0.7%, 19,074G)
datadrivenbot: 100G (0.7%, 17,810G)
ko2q: 5G (0.0%, 1,585G)
