Final Bets: red - 13 bets for 10,395G (66.5%, x0.50); green - 9 bets for 5,235G (33.5%, x1.99)

red bets:
Shalloween: 3,000G (28.9%, 30,218G)
NIghtdew14: 2,079G (20.0%, 10,397G)
randgridr: 1,112G (10.7%, 5,562G)
VolgraTheMoose: 1,001G (9.6%, 12,344G)
fluffskull: 639G (6.1%, 639G)
killth3kid: 556G (5.3%, 9,903G)
Aldrammech: 532G (5.1%, 532G)
joewcarson: 500G (4.8%, 16,994G)
ArlanKels: 316G (3.0%, 3,959G)
Hirameki85: 260G (2.5%, 14,785G)
datadrivenbot: 200G (1.9%, 49,141G)
Endiverge: 100G (1.0%, 2,929G)
onehitslay: 100G (1.0%, 651G)

green bets:
gorgewall: 2,123G (40.6%, 2,123G)
prince_rogers_nelson_: 656G (12.5%, 656G)
BirbBrainsBot: 646G (12.3%, 29,285G)
Nizaha: 616G (11.8%, 10,260G)
getthemoneyz: 432G (8.3%, 1,444,886G)
pplvee1: 432G (8.3%, 4,956G)
AllInBot: 200G (3.8%, 200G)
twelfthrootoftwo: 100G (1.9%, 1,587G)
dtrain332: 30G (0.6%, 3,010G)
