Final Bets: red - 9 bets for 5,483G (36.0%, x1.77); blue - 16 bets for 9,728G (64.0%, x0.56)

red bets:
BirbBrainsBot: 1,000G (18.2%, 160,076G)
Mesmaster: 1,000G (18.2%, 4,281G)
Firesheath: 902G (16.5%, 902G)
DeathTaxesAndAnime: 808G (14.7%, 808G)
SeniorBunk: 679G (12.4%, 679G)
nifboy: 500G (9.1%, 6,120G)
getthemoneyz: 274G (5.0%, 1,644,229G)
Aldrammech: 243G (4.4%, 2,436G)
theBinklive: 77G (1.4%, 779G)

blue bets:
E_Ballard: 1,717G (17.7%, 3,435G)
SkylerBunny: 1,000G (10.3%, 4,212G)
Sairentozon7: 1,000G (10.3%, 9,330G)
Tarheels218: 1,000G (10.3%, 4,706G)
Valgram: 700G (7.2%, 2,583G)
Laserman1000: 700G (7.2%, 8,300G)
Lanshaft: 592G (6.1%, 8,220G)
SephDarkheart: 580G (6.0%, 114,957G)
Forkmore: 516G (5.3%, 516G)
neocarbuncle: 511G (5.3%, 511G)
nekojin: 488G (5.0%, 11,532G)
AllInBot: 224G (2.3%, 224G)
CosmicTactician: 200G (2.1%, 22,752G)
arctodus13: 200G (2.1%, 2,800G)
datadrivenbot: 200G (2.1%, 64,821G)
Thyrandaal: 100G (1.0%, 257,406G)
