Final Bets: white - 11 bets for 9,213G (54.8%, x0.83); black - 14 bets for 7,601G (45.2%, x1.21)

white bets:
arctodus13: 2,600G (28.2%, 2,600G)
SeniorBunk: 1,884G (20.4%, 1,884G)
Forkmore: 1,221G (13.3%, 1,221G)
amiture: 1,000G (10.9%, 12,116G)
E_Ballard: 859G (9.3%, 1,718G)
SephDarkheart: 580G (6.3%, 114,377G)
Aldrammech: 325G (3.5%, 3,258G)
Panushenko: 312G (3.4%, 312G)
datadrivenbot: 200G (2.2%, 64,894G)
DeathTaxesAndAnime: 132G (1.4%, 2,940G)
CosmicTactician: 100G (1.1%, 22,689G)

black bets:
NicoSavoy: 1,789G (23.5%, 35,788G)
BirbBrainsBot: 1,000G (13.2%, 163,217G)
Nizaha: 744G (9.8%, 10,268G)
SkylerBunny: 712G (9.4%, 712G)
Lord_Gwarth: 697G (9.2%, 697G)
Laserman1000: 600G (7.9%, 6,900G)
Lanshaft: 592G (7.8%, 7,036G)
Tarheels218: 500G (6.6%, 3,206G)
triniculo: 398G (5.2%, 398G)
AllInBot: 237G (3.1%, 237G)
neocarbuncle: 100G (1.3%, 657G)
Valgram: 100G (1.3%, 2,020G)
theBinklive: 82G (1.1%, 825G)
getthemoneyz: 50G (0.7%, 1,645,161G)
