Final Bets: red - 16 bets for 15,245G (60.4%, x0.66); brown - 17 bets for 9,994G (39.6%, x1.53)

red bets:
douchetron: 3,225G (21.2%, 3,225G)
MrFlabyo: 3,000G (19.7%, 250,858G)
Aldrammech: 2,578G (16.9%, 15,416G)
latebit: 1,500G (9.8%, 40,147G)
DavenIII: 1,000G (6.6%, 81,883G)
SkylerBunny: 744G (4.9%, 744G)
killth3kid: 736G (4.8%, 24,927G)
E_Ballard: 640G (4.2%, 640G)
moonliquor: 500G (3.3%, 56,185G)
fenaen: 432G (2.8%, 2,272G)
Galeronis: 252G (1.7%, 252G)
datadrivenbot: 200G (1.3%, 68,772G)
AllInBot: 138G (0.9%, 138G)
MinBetBot: 100G (0.7%, 6,909G)
IndecisiveNinja: 100G (0.7%, 3,913G)
Thyrandaal: 100G (0.7%, 309,808G)

brown bets:
dogsandcatsand: 5,000G (50.0%, 58,254G)
BirbBrainsBot: 1,000G (10.0%, 18,213G)
Firesheath: 732G (7.3%, 732G)
BlueAbs: 663G (6.6%, 663G)
ProjectLG: 586G (5.9%, 5,863G)
xBizzy: 252G (2.5%, 837G)
Drusiform: 250G (2.5%, 7,761G)
getthemoneyz: 236G (2.4%, 1,661,030G)
ff7g00ru: 204G (2.0%, 204G)
butterbelljedi: 200G (2.0%, 1,278G)
Tarheels218: 200G (2.0%, 2,093G)
Lifebregin: 143G (1.4%, 143G)
Lord_Gwarth: 119G (1.2%, 1,194G)
HASTERIOUS: 109G (1.1%, 2,186G)
RunicMagus: 100G (1.0%, 10,131G)
CosmicTactician: 100G (1.0%, 23,919G)
brenogarwin: 100G (1.0%, 1,106G)
