Final Bets: red - 7 bets for 6,655G (17.5%, x4.70); champion - 24 bets for 31,300G (82.5%, x0.21)

red bets:
MrFlabyo: 5,000G (75.1%, 252,825G)
SephDarkheart: 600G (9.0%, 113,616G)
ProjectLG: 527G (7.9%, 5,277G)
AllInBot: 228G (3.4%, 228G)
MinBetBot: 100G (1.5%, 6,975G)
IndecisiveNinja: 100G (1.5%, 4,483G)
moonliquor: 100G (1.5%, 56,513G)

champion bets:
douchetron: 5,839G (18.7%, 5,839G)
Forkmore: 5,000G (16.0%, 24,320G)
dogsandcatsand: 5,000G (16.0%, 53,254G)
Drusiform: 3,755G (12.0%, 7,511G)
latebit: 2,000G (6.4%, 41,130G)
Zbgs: 1,500G (4.8%, 7,861G)
SkylerBunny: 1,232G (3.9%, 1,232G)
brenogarwin: 1,006G (3.2%, 1,006G)
BirbBrainsBot: 1,000G (3.2%, 17,213G)
RunicMagus: 750G (2.4%, 10,531G)
lowlf: 699G (2.2%, 699G)
Lifebregin: 604G (1.9%, 604G)
roofiepops: 555G (1.8%, 3,348G)
Tarheels218: 500G (1.6%, 2,893G)
Galeronis: 417G (1.3%, 417G)
coralreeferz: 250G (0.8%, 2,308G)
datadrivenbot: 200G (0.6%, 68,903G)
itsonlyspencer: 200G (0.6%, 1,671G)
Lord_Gwarth: 157G (0.5%, 1,575G)
holdenmagronik: 150G (0.5%, 1,493G)
ff7g00ru: 148G (0.5%, 148G)
getthemoneyz: 138G (0.4%, 1,660,794G)
Thyrandaal: 100G (0.3%, 309,874G)
Error72: 100G (0.3%, 4,326G)
