Final Bets: yellow - 21 bets for 9,039G (19.2%, x4.21); white - 29 bets for 38,046G (80.8%, x0.24)

yellow bets:
DeadGirlzREasy: 1,291G (14.3%, 1,291G)
SkylerBunny: 1,200G (13.3%, 94,653G)
Thyrandaal: 889G (9.8%, 889G)
dogsandcatsand: 691G (7.6%, 691G)
kaelsun: 602G (6.7%, 602G)
killth3kid: 500G (5.5%, 28,195G)
skillomono: 500G (5.5%, 2,871G)
Zbgs: 500G (5.5%, 6,907G)
sinnyil2: 500G (5.5%, 6,141G)
mpghappiness: 488G (5.4%, 488G)
Lydian_C: 320G (3.5%, 4,035G)
LAGBOT30000: 283G (3.1%, 1,419G)
Meta_Five: 200G (2.2%, 14,009G)
Evewho: 200G (2.2%, 17,423G)
benticore: 185G (2.0%, 3,716G)
autnagrag: 166G (1.8%, 5,346G)
neocarbuncle: 124G (1.4%, 124G)
Firesheath: 100G (1.1%, 3,035G)
alithesillybird: 100G (1.1%, 1,112G)
DeathTaxesAndAnime: 100G (1.1%, 8,069G)
Oobs56: 100G (1.1%, 4,483G)

white bets:
Rislyeu: 10,000G (26.3%, 42,591G)
nifboy: 7,060G (18.6%, 14,121G)
Lanshaft: 6,793G (17.9%, 13,586G)
RunicMagus: 2,500G (6.6%, 57,231G)
Monopool: 1,925G (5.1%, 1,925G)
BirbBrainsBot: 1,000G (2.6%, 174,217G)
metagameface: 1,000G (2.6%, 21,325G)
roofiepops: 960G (2.5%, 960G)
electric_algus: 888G (2.3%, 12,570G)
NightwolfXVI: 650G (1.7%, 650G)
CosmicTactician: 618G (1.6%, 618G)
Kronikle: 600G (1.6%, 16,154G)
Baron_von_Scrub: 474G (1.2%, 47,301G)
Shalloween: 464G (1.2%, 464G)
silentkaster: 418G (1.1%, 418G)
acid_flashback: 405G (1.1%, 405G)
Belted_Kingfisher: 369G (1.0%, 369G)
ColetteMSLP: 300G (0.8%, 1,607G)
VagabondAzulien: 229G (0.6%, 229G)
Luizsanq: 214G (0.6%, 214G)
gorgewall: 201G (0.5%, 21,515G)
Flameatron: 200G (0.5%, 2,973G)
Miku_Shikhu: 200G (0.5%, 8,906G)
getthemoneyz: 148G (0.4%, 932,771G)
AllInBot: 100G (0.3%, 100G)
OneHundredFists: 100G (0.3%, 41,118G)
datadrivenbot: 100G (0.3%, 37,858G)
cougboi: 100G (0.3%, 18,736G)
J_MacC1991: 30G (0.1%, 1,001G)
