Final Bets: white - 18 bets for 12,230G (42.9%, x1.33); black - 25 bets for 16,304G (57.1%, x0.75)

white bets:
DustBirdEX: 2,481G (20.3%, 2,481G)
OneHundredFists: 1,255G (10.3%, 2,591G)
Saldarin: 1,025G (8.4%, 1,025G)
conradharlock: 1,000G (8.2%, 24,427G)
BirbBrainsBot: 1,000G (8.2%, 45,357G)
EnemyController: 1,000G (8.2%, 543,383G)
Thyrandaal: 1,000G (8.2%, 6,462G)
potgodtopdog: 777G (6.4%, 38,516G)
Aldrammech: 600G (4.9%, 600G)
thenextlantern: 424G (3.5%, 424G)
E_Ballard: 368G (3.0%, 368G)
wyonearth: 300G (2.5%, 7,870G)
Polygamic: 204G (1.7%, 204G)
L2_Sentinel: 200G (1.6%, 31,229G)
Evewho: 200G (1.6%, 4,815G)
getthemoneyz: 172G (1.4%, 815,563G)
outer_monologue: 124G (1.0%, 124G)
aeonicvector: 100G (0.8%, 988G)

black bets:
pandasforsale: 3,576G (21.9%, 3,576G)
metagameface: 2,364G (14.5%, 2,364G)
volgrathemoose: 1,001G (6.1%, 7,760G)
Grandlanzer: 1,000G (6.1%, 2,671G)
ExecutedGiraffe: 973G (6.0%, 973G)
HaychDub: 750G (4.6%, 3,011G)
Anak761: 750G (4.6%, 750G)
DeathTaxesAndAnime: 748G (4.6%, 748G)
Firesheath: 721G (4.4%, 721G)
DAC169: 551G (3.4%, 551G)
Sairentozon7: 540G (3.3%, 540G)
letdowncity: 500G (3.1%, 22,653G)
aznwanderor: 500G (3.1%, 17,958G)
TheAbandonedShoji: 398G (2.4%, 398G)
spootoo: 337G (2.1%, 337G)
bruubarg: 332G (2.0%, 332G)
Mullet_Knight: 300G (1.8%, 4,249G)
Coolguye: 200G (1.2%, 204G)
KyleWonToLiveForever: 188G (1.2%, 188G)
Kalabain: 104G (0.6%, 104G)
gorgewall: 101G (0.6%, 1,237G)
Ring_Wyrm: 100G (0.6%, 1,112G)
CosmicTactician: 100G (0.6%, 14,753G)
datadrivenbot: 100G (0.6%, 33,178G)
HASTERIOUS: 70G (0.4%, 1,400G)
