Final Bets: white - 9 bets for 4,542G (12.6%, x6.92); purple - 14 bets for 31,430G (87.4%, x0.14)

white bets:
Aldrammech: 1,782G (39.2%, 1,782G)
BirbBrainsBot: 1,000G (22.0%, 5,315G)
CorpusCav: 400G (8.8%, 7,959G)
holdenmagronik: 372G (8.2%, 1,253G)
WhiteTigress: 300G (6.6%, 8,717G)
getthemoneyz: 288G (6.3%, 1,794,068G)
Leonidusx: 200G (4.4%, 236G)
Firesheath: 100G (2.2%, 3,303G)
Thyrandaal: 100G (2.2%, 35,102G)

purple bets:
DarrenDinosaurs: 12,478G (39.7%, 12,478G)
JumbocactuarX27: 7,866G (25.0%, 7,866G)
DeathTaxesAndAnime: 6,385G (20.3%, 12,520G)
snkey: 1,000G (3.2%, 2,492G)
LDSkinny: 1,000G (3.2%, 31,480G)
thunderducker: 915G (2.9%, 915G)
lowlf: 440G (1.4%, 440G)
Raixelol: 348G (1.1%, 5,631G)
SephDarkheart: 300G (1.0%, 300G)
Runeseeker22: 248G (0.8%, 4,037G)
datadrivenbot: 200G (0.6%, 65,154G)
macradarkstar: 100G (0.3%, 100G)
RunicMagus: 100G (0.3%, 2,881G)
moonliquor: 50G (0.2%, 60,586G)
