Final Bets: red - 12 bets for 8,427G (56.1%, x0.78); champion - 14 bets for 6,605G (43.9%, x1.28)

red bets:
FoxtrotNovemberCharlie: 2,314G (27.5%, 2,314G)
volgrathemoose: 1,001G (11.9%, 3,672G)
BirbBrainsBot: 1,000G (11.9%, 67,877G)
ungabunga_bot: 1,000G (11.9%, 267,681G)
JumbocactuarX27: 1,000G (11.9%, 7,221G)
getthemoneyz: 604G (7.2%, 604,238G)
Anethum: 400G (4.7%, 3,978G)
ShintaroNayaka: 400G (4.7%, 12,959G)
Bongomon7: 308G (3.7%, 308G)
twelfthrootoftwo: 200G (2.4%, 1,294G)
Realitydown: 100G (1.2%, 7,640G)
run_with_STONE_GUNS: 100G (1.2%, 7,257G)

champion bets:
leakimiko: 1,806G (27.3%, 12,044G)
mightygerm1: 1,201G (18.2%, 1,201G)
roqqqpsi: 783G (11.9%, 3,408G)
ColetteMSLP: 550G (8.3%, 20,521G)
PatSouI: 500G (7.6%, 25,272G)
Mandoragan: 401G (6.1%, 401G)
Jeeboheebo: 372G (5.6%, 372G)
Cataphract116: 300G (4.5%, 22,065G)
MirtaiAtana: 292G (4.4%, 292G)
skullshatterer: 100G (1.5%, 298G)
CassiePhoenix: 100G (1.5%, 10,030G)
datadrivenbot: 100G (1.5%, 3,831G)
tmo50x: 50G (0.8%, 5,234G)
DrAntiSocial: 50G (0.8%, 21,455G)
