Final Bets: black - 14 bets for 10,195G (54.4%, x0.84); champion - 13 bets for 8,550G (45.6%, x1.19)

black bets:
roqqqpsi: 3,217G (31.6%, 29,252G)
CosmicTactician: 1,135G (11.1%, 1,135G)
volgrathemoose: 1,001G (9.8%, 3,902G)
Mesmaster: 1,000G (9.8%, 151,815G)
serperemagus: 860G (8.4%, 860G)
YaBoy125: 632G (6.2%, 632G)
Jaritras: 620G (6.1%, 620G)
pplvee1: 500G (4.9%, 1,523G)
ThePineappleSalesman: 356G (3.5%, 356G)
Breakdown777: 300G (2.9%, 8,566G)
wyonearth: 274G (2.7%, 274G)
E_Ballard: 100G (1.0%, 1,833G)
maakur_: 100G (1.0%, 5,229G)
ApplesauceBoss: 100G (1.0%, 2,264G)

champion bets:
gogofromtogo: 4,185G (48.9%, 4,185G)
Who_lio42: 1,000G (11.7%, 8,485G)
DrAntiSocial: 808G (9.5%, 808G)
bruubarg: 600G (7.0%, 6,973G)
maleblackfiora: 300G (3.5%, 1,360G)
BirbBrainsBot: 293G (3.4%, 111,214G)
LeoNightFury: 268G (3.1%, 268G)
Lydian_C: 216G (2.5%, 216G)
Qaz12301: 212G (2.5%, 212G)
eudes89: 200G (2.3%, 10,974G)
Flameatron: 200G (2.3%, 624G)
getthemoneyz: 168G (2.0%, 782,868G)
datadrivenbot: 100G (1.2%, 29,403G)
