Final Bets: green - 8 bets for 2,720G (20.5%, x3.89); yellow - 17 bets for 10,568G (79.5%, x0.26)

green bets:
nifboy: 796G (29.3%, 25,150G)
evdoggity: 500G (18.4%, 21,605G)
DanielRKnealeArt: 500G (18.4%, 2,584G)
superdevon1: 336G (12.4%, 336G)
khelor_: 200G (7.4%, 6,812G)
getthemoneyz: 180G (6.6%, 2,022,119G)
genkidou: 108G (4.0%, 764G)
MemoriesofFinal: 100G (3.7%, 30,617G)

yellow bets:
reinoe: 3,000G (28.4%, 18,642G)
gorgewall: 1,163G (11.0%, 1,163G)
BirbBrainsBot: 1,000G (9.5%, 179,588G)
skillomono: 1,000G (9.5%, 7,653G)
ValensEXP_: 892G (8.4%, 892G)
lowlf: 564G (5.3%, 17,239G)
OneHundredFists: 516G (4.9%, 516G)
krombobreaker: 500G (4.7%, 16,291G)
AllInBot: 432G (4.1%, 432G)
3ngag3: 360G (3.4%, 1,827G)
ericzubat: 300G (2.8%, 10,830G)
adellraynes: 200G (1.9%, 200G)
ar_tactic: 200G (1.9%, 95,044G)
datadrivenbot: 200G (1.9%, 72,406G)
seppu777: 111G (1.1%, 13,388G)
nhammen: 100G (0.9%, 256,505G)
kilrazin: 30G (0.3%, 126G)
