Final Bets: purple - 20 bets for 21,900G (73.3%, x0.36); brown - 14 bets for 7,988G (26.7%, x2.74)

purple bets:
Mesmaster: 5,000G (22.8%, 83,566G)
HaplessOne: 3,880G (17.7%, 3,880G)
tronfonne: 3,246G (14.8%, 3,246G)
Lord_Burrah: 1,728G (7.9%, 95,728G)
Estan_AD: 1,416G (6.5%, 2,833G)
Nizaha: 1,001G (4.6%, 7,759G)
red__lancer: 1,000G (4.6%, 66,869G)
HaateXIII: 1,000G (4.6%, 2,799G)
AmaninAmide: 500G (2.3%, 3,317G)
twelfthrootoftwo: 500G (2.3%, 16,864G)
luminarii: 450G (2.1%, 14,442G)
Rislyeu: 364G (1.7%, 364G)
Kezia444: 333G (1.5%, 333G)
PookaPrime: 300G (1.4%, 2,798G)
nifboy: 250G (1.1%, 1,990G)
Drusic: 232G (1.1%, 232G)
otakutaylor: 200G (0.9%, 2,969G)
Strifu: 200G (0.9%, 896G)
ANFz: 200G (0.9%, 2,744G)
datadrivenbot: 100G (0.5%, 18,535G)

brown bets:
Firesheath: 2,379G (29.8%, 2,379G)
ungabunga_bot: 1,000G (12.5%, 529,404G)
Draconis345: 1,000G (12.5%, 74,551G)
BirbBrainsBot: 869G (10.9%, 145,028G)
killth3kid: 600G (7.5%, 5,340G)
CorpusCav: 396G (5.0%, 396G)
Lionhermit: 308G (3.9%, 308G)
ApplesauceBoss: 300G (3.8%, 1,711G)
skillomono: 300G (3.8%, 4,098G)
rjA0zcOQ96: 300G (3.8%, 300G)
itsZaes: 222G (2.8%, 720G)
getthemoneyz: 114G (1.4%, 678,569G)
Lolprinze: 100G (1.3%, 2,794G)
foofermoofer: 100G (1.3%, 806G)
