Final Bets: blue - 18 bets for 7,634G (26.2%, x2.82); green - 17 bets for 21,542G (73.8%, x0.35)

blue bets:
tronfonne: 2,000G (26.2%, 4,430G)
BirbBrainsBot: 1,000G (13.1%, 144,159G)
EnemyController: 500G (6.5%, 253,032G)
itsZaes: 498G (6.5%, 498G)
Rislyeu: 497G (6.5%, 497G)
Kezia444: 454G (5.9%, 454G)
CorpusCav: 396G (5.2%, 396G)
Drusic: 317G (4.2%, 317G)
vorap: 300G (3.9%, 55,699G)
PookaPrime: 300G (3.9%, 2,907G)
elburritofuerte: 300G (3.9%, 3,724G)
getthemoneyz: 272G (3.6%, 678,455G)
nifboy: 250G (3.3%, 2,081G)
AmaninAmide: 200G (2.6%, 3,499G)
Evewho: 100G (1.3%, 2,600G)
ANFz: 100G (1.3%, 2,817G)
datadrivenbot: 100G (1.3%, 18,571G)
nekross92: 50G (0.7%, 100G)

green bets:
Baron_von_Scrub: 8,917G (41.4%, 8,917G)
HaplessOne: 2,700G (12.5%, 5,295G)
Mesmaster: 2,000G (9.3%, 85,390G)
Estan_AD: 1,674G (7.8%, 3,349G)
UmaiJam: 1,248G (5.8%, 12,480G)
Draconis345: 1,000G (4.6%, 73,551G)
skillomono: 1,000G (4.6%, 3,798G)
killth3kid: 600G (2.8%, 4,740G)
Firesheath: 580G (2.7%, 580G)
luminarii: 450G (2.1%, 14,606G)
rjA0zcOQ96: 300G (1.4%, 300G)
twelfthrootoftwo: 300G (1.4%, 17,046G)
Strifu: 200G (0.9%, 969G)
otakutaylor: 200G (0.9%, 3,042G)
ungabunga_bot: 173G (0.8%, 528,404G)
Lolprinze: 100G (0.5%, 2,694G)
moocaotao: 100G (0.5%, 4,791G)
