Final Bets: white - 16 bets for 9,661G (56.8%, x0.76); black - 11 bets for 7,339G (43.2%, x1.32)

white bets:
Zeroroute: 2,316G (24.0%, 2,316G)
Zbgs: 1,500G (15.5%, 27,248G)
pplvee1: 1,250G (12.9%, 27,638G)
killth3kid: 1,000G (10.4%, 107,305G)
Aldrammech: 785G (8.1%, 785G)
Rilgon: 733G (7.6%, 2,933G)
MagicBottle: 504G (5.2%, 15,599G)
Jumza: 300G (3.1%, 768G)
redrhinofever: 276G (2.9%, 276G)
alterworlds: 260G (2.7%, 260G)
Shalloween: 200G (2.1%, 64,583G)
datadrivenbot: 200G (2.1%, 56,853G)
getthemoneyz: 122G (1.3%, 1,209,266G)
IDruggedShamu: 100G (1.0%, 4,836G)
ChubbyBroCast: 65G (0.7%, 325G)
SephDarkheart: 50G (0.5%, 24,021G)

black bets:
Nizaha: 1,363G (18.6%, 1,363G)
Evewho: 1,071G (14.6%, 2,101G)
ANFz: 1,000G (13.6%, 29,538G)
BirbBrainsBot: 1,000G (13.6%, 110,071G)
fluffskull: 737G (10.0%, 737G)
DarrenDinosaurs: 516G (7.0%, 516G)
Seaweed_B: 500G (6.8%, 4,187G)
DudeMonkey77: 400G (5.5%, 400G)
Digitalsocrates: 368G (5.0%, 2,196G)
ArashiKurobara: 284G (3.9%, 6,578G)
enkikavlar: 100G (1.4%, 5,252G)
