Final Bets: red - 13 bets for 6,072G (28.3%, x2.53); blue - 18 bets for 15,353G (71.7%, x0.40)

red bets:
BirbBrainsBot: 1,000G (16.5%, 78,501G)
Sairentozon7: 1,000G (16.5%, 80,718G)
NicoSavoy: 963G (15.9%, 963G)
EnemyController: 666G (11.0%, 1,803,895G)
DLJuggernaut: 640G (10.5%, 640G)
IaibOaob: 456G (7.5%, 22,798G)
getthemoneyz: 306G (5.0%, 2,166,534G)
Rune339: 268G (4.4%, 268G)
2b_yorha_b: 250G (4.1%, 11,462G)
AllInBot: 200G (3.3%, 200G)
Lydian_C: 123G (2.0%, 11,796G)
bdb_goldenleo: 100G (1.6%, 2,608G)
SRG_Chugganomics: 100G (1.6%, 1,999G)

blue bets:
Mesmaster: 4,286G (27.9%, 8,573G)
DeathTaxesAndAnime: 2,065G (13.5%, 4,050G)
Evewho: 2,000G (13.0%, 6,894G)
CosmicTactician: 1,460G (9.5%, 1,460G)
CorpusCav: 1,212G (7.9%, 51,365G)
RunicMagus: 1,020G (6.6%, 53,929G)
Laserman1000: 860G (5.6%, 17,660G)
reinoe: 728G (4.7%, 728G)
khelor_: 500G (3.3%, 13,600G)
Aaron2Nerdy: 224G (1.5%, 224G)
ValensEXP_: 200G (1.3%, 6,259G)
datadrivenbot: 200G (1.3%, 82,697G)
EmperorBeef: 196G (1.3%, 172,596G)
gorgewall: 101G (0.7%, 4,332G)
scsuperstar: 100G (0.7%, 6,293G)
FuzzyTigers: 100G (0.7%, 2,590G)
Firesheath: 100G (0.7%, 2,345G)
MoonSugarFiend: 1G (0.0%, 33,880G)
