Final Bets: blue - 15 bets for 6,108G (32.4%, x2.09); yellow - 12 bets for 12,763G (67.6%, x0.48)

blue bets:
EnemyController: 1,111G (18.2%, 1,800,293G)
BirbBrainsBot: 1,000G (16.4%, 78,292G)
Laserman1000: 800G (13.1%, 17,100G)
NicoSavoy: 552G (9.0%, 552G)
LeoNightFury: 500G (8.2%, 7,871G)
FE34923: 400G (6.5%, 5,202G)
Deeps_one: 300G (4.9%, 1,073G)
Rune339: 268G (4.4%, 268G)
2b_yorha_b: 250G (4.1%, 10,290G)
getthemoneyz: 226G (3.7%, 2,167,257G)
Evewho: 200G (3.3%, 8,128G)
Genkidou: 200G (3.3%, 2,028G)
gorgewall: 101G (1.7%, 4,303G)
Firesheath: 100G (1.6%, 2,489G)
MemoriesofFinal: 100G (1.6%, 17,013G)

yellow bets:
scsuperstar: 6,464G (50.6%, 6,464G)
CorpusCav: 1,500G (11.8%, 49,466G)
randgridr: 1,158G (9.1%, 1,158G)
RunicMagus: 1,020G (8.0%, 53,592G)
Deathmaker06: 1,000G (7.8%, 36,218G)
reinoe: 728G (5.7%, 728G)
AllInBot: 200G (1.6%, 200G)
ValensEXP_: 200G (1.6%, 6,138G)
datadrivenbot: 200G (1.6%, 83,067G)
bdb_goldenleo: 192G (1.5%, 2,300G)
DAC169: 100G (0.8%, 4,475G)
MoonSugarFiend: 1G (0.0%, 33,908G)
