Final Bets: purple - 10 bets for 10,310G (54.5%, x0.83); brown - 13 bets for 8,603G (45.5%, x1.20)

purple bets:
reinoe: 3,000G (29.1%, 50,743G)
FriendSquirrel: 2,070G (20.1%, 2,070G)
roqqqpsi: 1,031G (10.0%, 51,558G)
killth3kid: 1,000G (9.7%, 101,912G)
Evewho: 1,000G (9.7%, 8,528G)
Laserman1000: 705G (6.8%, 28,705G)
MagicBottle: 516G (5.0%, 16,005G)
CosmicTactician: 500G (4.8%, 47,161G)
DamnThatShark: 288G (2.8%, 288G)
datadrivenbot: 200G (1.9%, 60,276G)

brown bets:
TheChainNerd: 2,763G (32.1%, 27,632G)
SkylerBunny: 1,500G (17.4%, 3,750G)
fenaen: 1,200G (13.9%, 22,842G)
BirbBrainsBot: 1,000G (11.6%, 157,449G)
HaateXIII: 680G (7.9%, 680G)
CapnChaos12: 300G (3.5%, 5,518G)
Shalloween: 300G (3.5%, 62,557G)
TasisSai: 300G (3.5%, 1,555G)
randgridr: 220G (2.6%, 1,769G)
Neuros91: 116G (1.3%, 116G)
rednecknazgul: 100G (1.2%, 6,792G)
DeathTaxesAndAnime: 100G (1.2%, 2,820G)
getthemoneyz: 24G (0.3%, 1,227,269G)
