Final Bets: blue - 9 bets for 4,825G (62.4%, x0.60); green - 12 bets for 2,913G (37.6%, x1.66)

blue bets:
HaplessOne: 1,111G (23.0%, 19,108G)
getthemoneyz: 1,000G (20.7%, 656,252G)
BirbBrainsBot: 1,000G (20.7%, 155,865G)
solomongrundy85: 500G (10.4%, 17,928G)
lijarkh: 500G (10.4%, 14,378G)
ko2q: 364G (7.5%, 364G)
cupholderr: 200G (4.1%, 12,189G)
twelfthrootoftwo: 100G (2.1%, 1,620G)
bigbaddru: 50G (1.0%, 334G)

green bets:
OverlordCuddles: 600G (20.6%, 15,162G)
sinnyil2: 509G (17.5%, 2,198G)
LivingHitokiri: 332G (11.4%, 332G)
Eyepoor_: 300G (10.3%, 2,976G)
KasugaiRoastedPeas: 200G (6.9%, 1,006G)
CorpusCav: 200G (6.9%, 7,671G)
mikesk1: 200G (6.9%, 6,237G)
Practice_Pad: 156G (5.4%, 156G)
ungabunga_bot: 116G (4.0%, 426,351G)
datadrivenbot: 100G (3.4%, 12,331G)
foofermoofer: 100G (3.4%, 301G)
tabletz21: 100G (3.4%, 500G)
