Player: !Red
Team: Red Team
Palettes: Red/Brown



Lythe Caraker
Monster
Cancer
70
52
Steel Giant










Evewho
Monster
Sagittarius
65
72
Black Goblin










V3rdeni
Female
Virgo
42
52
Wizard
Battle Skill
Damage Split
Equip Shield
Move-MP Up

Rod
Round Shield
Flash Hat
Chameleon Robe
Cursed Ring

Fire, Bolt 2, Bolt 4, Empower, Frog
Speed Break, Mind Break



Oogthecaveman
Monster
Aquarius
67
78
Goblin







