Final Bets: green - 8 bets for 5,850G (26.6%, x2.75); yellow - 15 bets for 16,109G (73.4%, x0.36)

green bets:
OneHundredFists: 4,069G (69.6%, 47,119G)
E_Ballard: 708G (12.1%, 708G)
JonnyCue: 496G (8.5%, 6,541G)
NicoSavoy: 200G (3.4%, 225,587G)
Zachara: 186G (3.2%, 5,186G)
getthemoneyz: 186G (3.2%, 2,219,081G)
helpimabug: 3G (0.1%, 9,995G)
JethroThrul: 2G (0.0%, 5,257G)

yellow bets:
Lolthsmeat: 5,000G (31.0%, 48,433G)
WireLord: 3,346G (20.8%, 6,692G)
MemoriesofFinal: 3,000G (18.6%, 7,037G)
BirbBrainsBot: 1,000G (6.2%, 103,405G)
AllInBot: 789G (4.9%, 789G)
ruleof5: 596G (3.7%, 596G)
verythinice: 569G (3.5%, 569G)
YowaneHaku: 500G (3.1%, 9,759G)
superdevon1: 400G (2.5%, 1,283G)
Musashi45: 308G (1.9%, 1,774G)
ValensEXP_: 200G (1.2%, 25,151G)
datadrivenbot: 200G (1.2%, 85,717G)
DeathTaxesAndAnime: 100G (0.6%, 23,874G)
ImmortalMage: 100G (0.6%, 100G)
FatTunaKing: 1G (0.0%, 7,044G)
