Final Bets: red - 24 bets for 26,290G (18.4%, x4.42); blue - 9 bets for 116,305G (81.6%, x0.23)

red bets:
Aldrammech: 7,010G (26.7%, 7,010G)
NIghtdew14: 3,305G (12.6%, 6,610G)
Virilikus: 3,000G (11.4%, 178,645G)
VolgraTheMoose: 2,001G (7.6%, 10,049G)
ANFz: 1,540G (5.9%, 1,540G)
HaateXIII: 1,500G (5.7%, 3,896G)
sinnyil2: 1,205G (4.6%, 2,411G)
JCBooBot: 1,000G (3.8%, 5,281G)
Shalloween: 1,000G (3.8%, 13,287G)
dogsandcatsand: 955G (3.6%, 955G)
douchetron: 600G (2.3%, 600G)
CosmicTactician: 500G (1.9%, 30,327G)
CapnChaos12: 416G (1.6%, 416G)
MagicBottle: 304G (1.2%, 304G)
ThreeMileIsland: 300G (1.1%, 1,908G)
resjudicata3: 300G (1.1%, 1,397G)
getthemoneyz: 264G (1.0%, 1,692,383G)
Chuckolator: 245G (0.9%, 15,666G)
daveb_: 244G (0.9%, 8,712G)
datadrivenbot: 200G (0.8%, 62,585G)
gorgewall: 101G (0.4%, 5,895G)
3ngag3: 100G (0.4%, 1,000G)
Docrad_: 100G (0.4%, 1,416G)
lyans00: 100G (0.4%, 4,178G)

blue bets:
Thyrandaal: 100,000G (86.0%, 475,630G)
E_Ballard: 10,928G (9.4%, 10,928G)
kaidykat: 1,778G (1.5%, 177,861G)
Mesmaster: 1,134G (1.0%, 1,134G)
BirbBrainsBot: 1,000G (0.9%, 71,270G)
Nizaha: 756G (0.7%, 17,997G)
SkylerBunny: 599G (0.5%, 599G)
AllInBot: 100G (0.1%, 100G)
DeathTaxesAndAnime: 10G (0.0%, 2,831G)
