Final Bets: purple - 19 bets for 29,935G (7.7%, x12.06); brown - 16 bets for 361,003G (92.3%, x0.08)

purple bets:
toka222: 10,000G (33.4%, 151,453G)
Virilikus: 10,000G (33.4%, 170,645G)
resjudicata3: 1,047G (3.5%, 1,047G)
ThreeMileIsland: 1,000G (3.3%, 1,814G)
sinnyil2: 972G (3.2%, 972G)
E_Ballard: 748G (2.5%, 748G)
Chuckolator: 705G (2.4%, 15,421G)
Aldrammech: 700G (2.3%, 700G)
just_here2: 600G (2.0%, 49,021G)
Kronikle: 556G (1.9%, 10,032G)
CapnChaos12: 512G (1.7%, 512G)
SkylerBunny: 508G (1.7%, 508G)
CosmicTactician: 500G (1.7%, 29,327G)
Shalloween: 500G (1.7%, 12,287G)
Mesmaster: 492G (1.6%, 492G)
ANFz: 436G (1.5%, 436G)
MagicBottle: 304G (1.0%, 304G)
daveb_: 255G (0.9%, 8,468G)
lyans00: 100G (0.3%, 4,078G)

brown bets:
Thyrandaal: 333,333G (92.3%, 550,118G)
reinoe: 16,880G (4.7%, 16,880G)
HaateXIII: 2,396G (0.7%, 2,396G)
VolgraTheMoose: 2,001G (0.6%, 7,798G)
kaidykat: 1,786G (0.5%, 178,653G)
BirbBrainsBot: 1,000G (0.3%, 70,633G)
3ngag3: 800G (0.2%, 800G)
Nizaha: 756G (0.2%, 17,474G)
douchetron: 738G (0.2%, 738G)
JCBooBot: 418G (0.1%, 3,491G)
getthemoneyz: 286G (0.1%, 1,691,665G)
datadrivenbot: 200G (0.1%, 62,428G)
Docrad_: 108G (0.0%, 1,325G)
gorgewall: 101G (0.0%, 5,802G)
AllInBot: 100G (0.0%, 100G)
DragonLord_Carter: 100G (0.0%, 156G)
