Final Bets: purple - 15 bets for 12,998G (73.2%, x0.37); brown - 10 bets for 4,756G (26.8%, x2.73)

purple bets:
reinoe: 3,000G (23.1%, 96,451G)
Deathmaker06: 2,000G (15.4%, 40,378G)
CorpusCav: 2,000G (15.4%, 105,253G)
Zagorsek: 1,711G (13.2%, 1,711G)
Sairentozon7: 1,514G (11.6%, 1,514G)
E_Ballard: 716G (5.5%, 716G)
Breakdown777: 500G (3.8%, 2,770G)
MaraDyne: 300G (2.3%, 1,703G)
DouglasDragonThePoet: 300G (2.3%, 1,211G)
QuestMoreLand: 252G (1.9%, 1,903G)
gorgewall: 201G (1.5%, 8,202G)
datadrivenbot: 200G (1.5%, 86,877G)
squideater_: 200G (1.5%, 1,979G)
skipsandwiches: 100G (0.8%, 114,509G)
TheBrett: 4G (0.0%, 727G)

brown bets:
old_overholt_: 1,276G (26.8%, 1,276G)
coralreeferz: 723G (15.2%, 723G)
BirbBrainsBot: 624G (13.1%, 119,340G)
DLJuggernaut: 501G (10.5%, 501G)
AnthroMetal: 500G (10.5%, 8,512G)
ALY327: 428G (9.0%, 428G)
getthemoneyz: 280G (5.9%, 2,225,393G)
AllInBot: 200G (4.2%, 200G)
ninjapenguim: 124G (2.6%, 124G)
Firesheath: 100G (2.1%, 6,780G)
