Final Bets: white - 17 bets for 10,639G (48.8%, x1.05); purple - 17 bets for 11,142G (51.2%, x0.95)

white bets:
nhammen: 3,000G (28.2%, 51,874G)
BirbBrainsBot: 1,000G (9.4%, 119,130G)
Lord_Gwarth: 1,000G (9.4%, 13,130G)
Deathmaker06: 1,000G (9.4%, 40,110G)
killth3kid: 872G (8.2%, 28,371G)
old_overholt_: 852G (8.0%, 852G)
Meta_Five: 500G (4.7%, 5,645G)
Breakdown777: 500G (4.7%, 2,453G)
coralreeferz: 481G (4.5%, 481G)
Mudrockk: 397G (3.7%, 1,589G)
QuestMoreLand: 252G (2.4%, 1,995G)
AllInBot: 200G (1.9%, 200G)
DouglasDragonThePoet: 200G (1.9%, 1,221G)
ninjapenguim: 175G (1.6%, 175G)
skipsandwiches: 100G (0.9%, 112,526G)
Firesheath: 100G (0.9%, 6,580G)
getthemoneyz: 10G (0.1%, 2,225,318G)

purple bets:
CorpusCav: 2,000G (18.0%, 106,813G)
holdenmagronik: 1,915G (17.2%, 1,915G)
E_Ballard: 1,383G (12.4%, 1,383G)
SephDarkheart: 860G (7.7%, 860G)
Zagorsek: 616G (5.5%, 616G)
nifboy: 616G (5.5%, 616G)
DLJuggernaut: 583G (5.2%, 583G)
Shalloween: 500G (4.5%, 64,483G)
khelor_: 500G (4.5%, 9,216G)
Zetchryn: 488G (4.4%, 488G)
lowlf: 420G (3.8%, 3,436G)
MaraDyne: 400G (3.6%, 1,813G)
Demon_Lord_Josh: 260G (2.3%, 260G)
gorgewall: 201G (1.8%, 11,703G)
datadrivenbot: 200G (1.8%, 87,033G)
RunicMagus: 100G (0.9%, 34,255G)
JethroThrul: 100G (0.9%, 2,666G)
