Final Bets: green - 16 bets for 11,877G (59.7%, x0.67); champion - 21 bets for 8,013G (40.3%, x1.48)

green bets:
CorpusCav: 2,000G (16.8%, 106,277G)
nhammen: 2,000G (16.8%, 57,579G)
Zagorsek: 1,067G (9.0%, 1,067G)
BirbBrainsBot: 1,000G (8.4%, 120,909G)
coralreeferz: 853G (7.2%, 1,706G)
DLJuggernaut: 714G (6.0%, 714G)
brokenknight201: 662G (5.6%, 662G)
ALY327: 605G (5.1%, 605G)
Mudrockk: 500G (4.2%, 2,737G)
squideater_: 500G (4.2%, 1,152G)
Lord_Gwarth: 500G (4.2%, 13,177G)
old_overholt_: 500G (4.2%, 3,021G)
lowlf: 420G (3.5%, 3,324G)
TheBrett: 348G (2.9%, 348G)
gorgewall: 201G (1.7%, 11,649G)
QuestMoreLand: 7G (0.1%, 1,259G)

champion bets:
DouglasDragonThePoet: 1,230G (15.4%, 1,230G)
killth3kid: 872G (10.9%, 28,412G)
E_Ballard: 716G (8.9%, 716G)
fenaen: 704G (8.8%, 35,363G)
Laserman1000: 504G (6.3%, 21,004G)
Shalloween: 500G (6.2%, 62,983G)
khelor_: 500G (6.2%, 9,082G)
Breakdown777: 500G (6.2%, 2,477G)
Zetchryn: 488G (6.1%, 488G)
ChiChiRodriguez: 272G (3.4%, 272G)
AllInBot: 200G (2.5%, 200G)
ValensEXP_: 200G (2.5%, 20,478G)
SensualOnix: 200G (2.5%, 208G)
Meta_Five: 200G (2.5%, 5,869G)
datadrivenbot: 200G (2.5%, 86,633G)
MaraDyne: 200G (2.5%, 1,413G)
Esunos: 145G (1.8%, 145G)
ninjapenguim: 124G (1.5%, 124G)
JethroThrul: 100G (1.2%, 2,566G)
RunicMagus: 100G (1.2%, 34,055G)
getthemoneyz: 58G (0.7%, 2,225,849G)
