Final Bets: purple - 16 bets for 16,504G (86.8%, x0.15); brown - 9 bets for 2,515G (13.2%, x6.56)

purple bets:
reinoe: 7,150G (43.3%, 7,150G)
Dexsana: 2,999G (18.2%, 11,465G)
HaplessOne: 2,123G (12.9%, 2,123G)
rico_flex: 1,000G (6.1%, 23,946G)
EnemyController: 1,000G (6.1%, 147,486G)
Odin007_88: 500G (3.0%, 2,517G)
ZephyrTempest: 436G (2.6%, 2,911G)
ANFz: 256G (1.6%, 23,907G)
mesmaster: 200G (1.2%, 2,105G)
byrdturbo: 169G (1.0%, 7,081G)
BirbBrainsBot: 132G (0.8%, 12,368G)
nifboy: 126G (0.8%, 3,161G)
ungabunga_bot: 113G (0.7%, 266,847G)
jakeduhhsnake: 100G (0.6%, 104G)
L_M_D: 100G (0.6%, 100G)
datadrivenbot: 100G (0.6%, 2,567G)

brown bets:
DontBackseatGame: 1,000G (39.8%, 3,035G)
alrightbye: 365G (14.5%, 36,566G)
PotionDweller: 250G (9.9%, 9,371G)
KasugaiRoastedPeas: 200G (8.0%, 9,117G)
getthemoneyz: 198G (7.9%, 587,829G)
LivingHitokiri: 152G (6.0%, 152G)
trigger15: 150G (6.0%, 442G)
Heroebal: 100G (4.0%, 7,942G)
Evewho: 100G (4.0%, 20,458G)
