Final Bets: blue - 12 bets for 8,082G (29.6%, x2.38); black - 20 bets for 19,231G (70.4%, x0.42)

blue bets:
Sairentozon7: 2,597G (32.1%, 2,597G)
Zetchryn: 1,429G (17.7%, 1,429G)
DeathTaxesAndAnime: 1,111G (13.7%, 18,060G)
Evewho: 1,000G (12.4%, 22,226G)
3ngag3: 640G (7.9%, 31,116G)
khelor_: 500G (6.2%, 12,153G)
squideater_: 300G (3.7%, 13,719G)
ExplanationMarkWow: 200G (2.5%, 28,649G)
tangenthoodie: 104G (1.3%, 104G)
Jehudy7: 100G (1.2%, 1,162G)
HorusTaurus: 100G (1.2%, 5,732G)
Chuckolator: 1G (0.0%, 2,227G)

black bets:
MoonSugarFiend: 6,000G (31.2%, 36,538G)
OneHundredFists: 4,069G (21.2%, 21,517G)
nhammen: 2,000G (10.4%, 55,009G)
BirbBrainsBot: 1,000G (5.2%, 138,837G)
TheBrett: 1,000G (5.2%, 6,657G)
randgridr: 791G (4.1%, 791G)
getthemoneyz: 556G (2.9%, 2,229,554G)
ValensEXP_: 528G (2.7%, 18,122G)
resjudicata3: 500G (2.6%, 3,115G)
krombobreaker: 500G (2.6%, 47,342G)
murderclan: 492G (2.6%, 492G)
YowaneHaku: 272G (1.4%, 272G)
Forkmore: 222G (1.2%, 1,978G)
gorgewall: 201G (1.0%, 5,997G)
AllInBot: 200G (1.0%, 200G)
highelectricaltemperature: 200G (1.0%, 1,082G)
datadrivenbot: 200G (1.0%, 84,454G)
FuzzyTigers: 200G (1.0%, 809G)
MrJamDango: 200G (1.0%, 6,631G)
RunicMagus: 100G (0.5%, 29,689G)
