Final Bets: green - 12 bets for 5,702G (28.3%, x2.53); yellow - 20 bets for 14,428G (71.7%, x0.40)

green bets:
dogsandcatsand: 1,523G (26.7%, 1,523G)
edgehead62888: 1,000G (17.5%, 26,542G)
BirbBrainsBot: 1,000G (17.5%, 28,035G)
KittymanAdvance: 373G (6.5%, 373G)
Aldrammech: 328G (5.8%, 328G)
getthemoneyz: 322G (5.6%, 957,131G)
NightwolfXVI: 278G (4.9%, 278G)
benticore: 261G (4.6%, 5,225G)
fluffskull: 252G (4.4%, 252G)
roqqqpsi: 165G (2.9%, 1,503G)
nhammen: 100G (1.8%, 2,051G)
biffcake01: 100G (1.8%, 555G)

yellow bets:
Baron_von_Scrub: 4,474G (31.0%, 4,474G)
Breakdown777: 1,500G (10.4%, 72,700G)
cam_ATS: 1,234G (8.6%, 23,472G)
BlackFireUK: 1,166G (8.1%, 1,166G)
s_o_b_e_q: 1,042G (7.2%, 1,042G)
Thyrandaal: 1,000G (6.9%, 48,803G)
galkife: 750G (5.2%, 49,016G)
moonliquor: 500G (3.5%, 5,469G)
superdevon1: 500G (3.5%, 3,619G)
DLJuggernaut: 500G (3.5%, 21,888G)
LAGBOT30000: 384G (2.7%, 384G)
DamnThatShark: 328G (2.3%, 328G)
cheesy_e: 200G (1.4%, 1,229G)
Grandlanzer: 200G (1.4%, 4,173G)
DeadGirlzREasy: 200G (1.4%, 9,884G)
AllInBot: 100G (0.7%, 100G)
E_Ballard: 100G (0.7%, 7,465G)
Sans_from_Snowdin: 100G (0.7%, 22,555G)
datadrivenbot: 100G (0.7%, 38,076G)
AltimaMantoid: 50G (0.3%, 800G)
