Final Bets: yellow - 17 bets for 10,943G (31.8%, x2.14); champion - 16 bets for 23,457G (68.2%, x0.47)

yellow bets:
LazarusAjin: 4,304G (39.3%, 21,524G)
Baron_von_Scrub: 1,111G (10.2%, 5,924G)
evdoggity: 1,000G (9.1%, 28,546G)
BirbBrainsBot: 1,000G (9.1%, 28,642G)
Who_lio42: 500G (4.6%, 16,735G)
tehMi1kman: 500G (4.6%, 1,335G)
Aka_Gilly: 500G (4.6%, 58,519G)
Aldrammech: 368G (3.4%, 368G)
AllInBot: 305G (2.8%, 305G)
letdowncity: 300G (2.7%, 16,502G)
benticore: 297G (2.7%, 5,942G)
Meta_Five: 200G (1.8%, 18,709G)
alithesillybird: 200G (1.8%, 2,581G)
TeaTime29: 200G (1.8%, 16,137G)
Azelgrim: 100G (0.9%, 100G)
AltimaMantoid: 56G (0.5%, 656G)
getthemoneyz: 2G (0.0%, 958,838G)

champion bets:
Thyrandaal: 10,000G (42.6%, 52,982G)
Sans_from_Snowdin: 5,000G (21.3%, 22,539G)
BlackFireUK: 2,128G (9.1%, 2,128G)
biffcake01: 1,668G (7.1%, 1,668G)
cam_ATS: 1,234G (5.3%, 23,686G)
DeadGirlzREasy: 1,000G (4.3%, 9,524G)
triniculo: 861G (3.7%, 861G)
Zeroroute: 600G (2.6%, 600G)
Snoopiku: 200G (0.9%, 6,808G)
Songdeh: 162G (0.7%, 162G)
KittymanAdvance: 104G (0.4%, 104G)
nhammen: 100G (0.4%, 2,571G)
E_Ballard: 100G (0.4%, 7,444G)
Quadh0nk: 100G (0.4%, 2,338G)
datadrivenbot: 100G (0.4%, 37,867G)
Grandlanzer: 100G (0.4%, 4,252G)
