Final Bets: purple - 18 bets for 16,306G (63.8%, x0.57); brown - 13 bets for 9,244G (36.2%, x1.76)

purple bets:
sinnyil2: 3,114G (19.1%, 6,229G)
Lordminsc: 2,960G (18.2%, 2,960G)
Grimmace45: 1,826G (11.2%, 11,826G)
Jeeboheebo: 1,719G (10.5%, 1,719G)
proper__noun__: 1,621G (9.9%, 8,108G)
TheGuesty: 1,253G (7.7%, 35,253G)
Laserman1000: 1,000G (6.1%, 108,300G)
luminarii: 500G (3.1%, 11,622G)
OmnibotGamma: 500G (3.1%, 5,701G)
EnemyController: 500G (3.1%, 184,920G)
vorap: 400G (2.5%, 28,503G)
midori_ribbon: 200G (1.2%, 989G)
ungabunga_bot: 163G (1.0%, 353,183G)
CapnSauce420: 150G (0.9%, 3,649G)
Firesheath: 100G (0.6%, 13,449G)
Creggers: 100G (0.6%, 2,018G)
maakur_: 100G (0.6%, 126,146G)
datadrivenbot: 100G (0.6%, 12,315G)

brown bets:
Mesmaster: 3,000G (32.5%, 80,202G)
killth3kid: 2,000G (21.6%, 44,963G)
BirbBrainsBot: 1,000G (10.8%, 50,898G)
DeathTaxesAndAnime: 736G (8.0%, 736G)
HaateXIII: 580G (6.3%, 580G)
ZephyrTempest: 456G (4.9%, 2,414G)
getthemoneyz: 296G (3.2%, 630,031G)
genericco: 282G (3.1%, 282G)
Kyune: 250G (2.7%, 1,921G)
hydroshade: 244G (2.6%, 244G)
awokenshard: 200G (2.2%, 367G)
jwchapm: 100G (1.1%, 892G)
OperatorTheory: 100G (1.1%, 451G)
