Final Bets: red - 14 bets for 8,185G (43.5%, x1.30); green - 16 bets for 10,648G (56.5%, x0.77)

red bets:
killth3kid: 2,000G (24.4%, 42,963G)
BirbBrainsBot: 1,000G (12.2%, 49,898G)
MrDiggs49: 959G (11.7%, 959G)
gooseyourself: 948G (11.6%, 948G)
DeathTaxesAndAnime: 740G (9.0%, 740G)
sinnyil2: 700G (8.6%, 7,994G)
HaateXIII: 580G (7.1%, 580G)
getthemoneyz: 314G (3.8%, 629,735G)
vorap: 300G (3.7%, 28,730G)
hydroshade: 244G (3.0%, 244G)
Firesheath: 100G (1.2%, 13,506G)
jwchapm: 100G (1.2%, 792G)
maakur_: 100G (1.2%, 126,203G)
RestIessNight: 100G (1.2%, 1,206G)

green bets:
Lordminsc: 2,319G (21.8%, 4,638G)
Grimmace45: 1,861G (17.5%, 12,861G)
Laserman1000: 1,067G (10.0%, 108,867G)
OmnibotGamma: 1,000G (9.4%, 5,984G)
Mesmaster: 1,000G (9.4%, 77,202G)
I_nod_my_head_when_I_lose: 500G (4.7%, 48,288G)
luminarii: 500G (4.7%, 11,905G)
TheGuesty: 463G (4.3%, 35,963G)
ZephyrTempest: 456G (4.3%, 1,958G)
fenaen: 400G (3.8%, 4,070G)
ungabunga_bot: 365G (3.4%, 353,275G)
KasugaiRoastedPeas: 200G (1.9%, 4,075G)
awokenshard: 167G (1.6%, 167G)
CapnSauce420: 150G (1.4%, 3,734G)
Creggers: 100G (0.9%, 2,075G)
datadrivenbot: 100G (0.9%, 12,372G)
