Final Bets: blue - 25 bets for 15,087G (63.4%, x0.58); green - 13 bets for 8,698G (36.6%, x1.73)

blue bets:
leakimiko: 2,133G (14.1%, 2,133G)
electric_glass: 1,690G (11.2%, 3,381G)
DeathTaxesAndAnime: 1,426G (9.5%, 2,798G)
BirbBrainsBot: 1,000G (6.6%, 100,398G)
vorap: 1,000G (6.6%, 28,955G)
Lionhermit: 1,000G (6.6%, 39,454G)
MrDiggs49: 1,000G (6.6%, 6,111G)
sinnyil2: 688G (4.6%, 688G)
Kyune: 574G (3.8%, 574G)
Laserman1000: 574G (3.8%, 5,374G)
CapnChaos12: 500G (3.3%, 49,562G)
ungabunga_bot: 492G (3.3%, 413,260G)
roofiepops: 444G (2.9%, 3,382G)
genericco: 403G (2.7%, 403G)
Eyepoor_: 300G (2.0%, 4,224G)
EnemyController: 300G (2.0%, 207,809G)
twelfthrootoftwo: 300G (2.0%, 2,894G)
LAGBOT30000: 263G (1.7%, 26,352G)
NicoSavoy: 200G (1.3%, 1,396G)
Practice_Pad: 200G (1.3%, 448G)
Avin_Chaos: 200G (1.3%, 15,638G)
OneHundredFists: 100G (0.7%, 1,392G)
datadrivenbot: 100G (0.7%, 11,947G)
hisuikohaku: 100G (0.7%, 100G)
cougboi: 100G (0.7%, 9,003G)

green bets:
Lali_Lulelo: 2,515G (28.9%, 2,515G)
theNGUYENNER: 1,737G (20.0%, 1,737G)
evontno: 1,500G (17.2%, 8,034G)
pandasforsale: 666G (7.7%, 25,964G)
GnielKnows: 500G (5.7%, 10,071G)
Miyokari: 400G (4.6%, 1,236G)
cupholderr: 300G (3.4%, 2,888G)
Mudrockk: 300G (3.4%, 9,969G)
LeepingJJ: 292G (3.4%, 292G)
duckfist: 212G (2.4%, 212G)
mannequ1n: 100G (1.1%, 4,233G)
ZDarius: 100G (1.1%, 100G)
getthemoneyz: 76G (0.9%, 647,379G)
