Final Bets: yellow - 21 bets for 13,147G (42.2%, x1.37); black - 25 bets for 17,985G (57.8%, x0.73)

yellow bets:
Zeroroute: 1,716G (13.1%, 1,716G)
wackyzachyy: 1,260G (9.6%, 18,146G)
fenaen: 1,174G (8.9%, 1,174G)
leakimiko: 1,023G (7.8%, 34,110G)
DarrenDinosaurs: 1,000G (7.6%, 8,813G)
BirbBrainsBot: 1,000G (7.6%, 73,309G)
sinnyil2: 884G (6.7%, 1,769G)
Herecomedeth: 670G (5.1%, 35,091G)
inzo24: 600G (4.6%, 9,417G)
WireLord: 596G (4.5%, 1,193G)
rubenflonne: 500G (3.8%, 6,559G)
NovaKnight21: 452G (3.4%, 452G)
fenixcrest: 452G (3.4%, 4,523G)
ZephyrTempest: 308G (2.3%, 15,842G)
Aeolus_000: 300G (2.3%, 1,481G)
EnemyController: 300G (2.3%, 21,320G)
I_nod_my_head_when_I_lose: 300G (2.3%, 15,430G)
ugoplatamia: 200G (1.5%, 1,829G)
Fumil: 200G (1.5%, 603G)
getthemoneyz: 112G (0.9%, 401,632G)
BadBlanket: 100G (0.8%, 2,395G)

black bets:
omegasuspekt: 2,014G (11.2%, 4,029G)
hkbadboy: 2,000G (11.1%, 7,841G)
Boojob: 2,000G (11.1%, 11,740G)
waterwatereverywhere: 1,743G (9.7%, 1,743G)
AniZero: 1,575G (8.8%, 54,504G)
silentperogy: 1,500G (8.3%, 6,395G)
MrDiggs49: 1,000G (5.6%, 4,505G)
pandasforsale: 999G (5.6%, 13,672G)
Laserman1000: 682G (3.8%, 3,482G)
cheesetacular: 600G (3.3%, 2,119G)
TheMurkGnome: 459G (2.6%, 459G)
nerdynel17: 431G (2.4%, 431G)
RunicMagus: 400G (2.2%, 22,492G)
mirapoix: 400G (2.2%, 4,951G)
The8thZodiac: 358G (2.0%, 358G)
ApplesauceBoss: 340G (1.9%, 340G)
rico_flex: 300G (1.7%, 3,164G)
SleepyBenzo: 212G (1.2%, 212G)
jaykaye: 204G (1.1%, 204G)
staviiramos: 200G (1.1%, 742G)
TheRobbieRobster: 148G (0.8%, 148G)
Lydian_C: 120G (0.7%, 2,208G)
twelfthrootoftwo: 100G (0.6%, 3,384G)
Basmal: 100G (0.6%, 36,530G)
HashtagRob_: 100G (0.6%, 950G)
