Final Bets: yellow - 15 bets for 11,510G (64.7%, x0.54); brown - 12 bets for 6,270G (35.3%, x1.84)

yellow bets:
Thyrandaal: 3,000G (26.1%, 182,472G)
Nizaha: 1,603G (13.9%, 1,603G)
VolgraTheMoose: 1,501G (13.0%, 31,871G)
roofiepops: 1,134G (9.9%, 1,134G)
BirbBrainsBot: 1,000G (8.7%, 97,802G)
TheBrett: 502G (4.4%, 502G)
krombobreaker: 500G (4.3%, 13,965G)
Lolthsmeat: 500G (4.3%, 8,961G)
old_overholt_: 400G (3.5%, 47,276G)
resjudicata3: 300G (2.6%, 10,365G)
ColetteMSLP: 300G (2.6%, 3,768G)
Genkidou: 200G (1.7%, 1,752G)
datadrivenbot: 200G (1.7%, 78,934G)
ziegfriedz_: 200G (1.7%, 900G)
AbandonedHall: 170G (1.5%, 170G)

brown bets:
killth3kid: 3,000G (47.8%, 41,711G)
E_Ballard: 804G (12.8%, 804G)
ExplanationMarkWow: 738G (11.8%, 20,738G)
mirapoix: 504G (8.0%, 504G)
KGenjy: 224G (3.6%, 224G)
Einswolf: 212G (3.4%, 212G)
AllInBot: 200G (3.2%, 200G)
ValensEXP_: 200G (3.2%, 658G)
chaosdesigned: 200G (3.2%, 1,031G)
maakur_: 100G (1.6%, 6,337G)
king_smashington: 50G (0.8%, 982G)
getthemoneyz: 38G (0.6%, 2,114,909G)
