Final Bets: white - 12 bets for 5,249G (51.0%, x0.96); black - 8 bets for 5,050G (49.0%, x1.04)

white bets:
lowlf: 1,930G (36.8%, 1,930G)
BirbBrainsBot: 602G (11.5%, 78,212G)
CorpusCav: 500G (9.5%, 8,140G)
Lawndough: 490G (9.3%, 490G)
getthemoneyz: 458G (8.7%, 686,971G)
Digitalsocrates: 421G (8.0%, 1,053G)
PotionDweller: 248G (4.7%, 248G)
Nerf_Vergil: 200G (3.8%, 673G)
Lythe_Caraker: 100G (1.9%, 123,102G)
Evewho: 100G (1.9%, 3,675G)
datadrivenbot: 100G (1.9%, 22,728G)
nifboy: 100G (1.9%, 4,663G)

black bets:
Lydian_C: 1,787G (35.4%, 3,505G)
Deathmaker06: 1,000G (19.8%, 7,626G)
Mesmaster: 1,000G (19.8%, 82,888G)
mistblade: 763G (15.1%, 763G)
SirGaffy: 200G (4.0%, 385G)
waterwatereverywhere: 100G (2.0%, 6,579G)
serperemagus: 100G (2.0%, 3,061G)
CT_5_Holy: 100G (2.0%, 2,215G)
