Final Bets: red - 22 bets for 12,415G (52.0%, x0.92); blue - 11 bets for 11,451G (48.0%, x1.08)

red bets:
killth3kid: 1,233G (9.9%, 121,372G)
HaateXIII: 1,232G (9.9%, 1,232G)
DeathTaxesAndAnime: 1,179G (9.5%, 1,179G)
EnemyController: 1,111G (8.9%, 1,352,279G)
baconbacon1207: 1,000G (8.1%, 11,318G)
BirbBrainsBot: 1,000G (8.1%, 171,967G)
solomongrundy85: 1,000G (8.1%, 15,300G)
RunicMagus: 1,000G (8.1%, 55,388G)
Laserman1000: 800G (6.4%, 17,300G)
Nizaha: 516G (4.2%, 9,425G)
Mathlexis: 478G (3.9%, 478G)
roofiepops: 444G (3.6%, 3,807G)
Shalloween: 400G (3.2%, 63,933G)
CaptainGarlock: 200G (1.6%, 13,855G)
Lydian_C: 121G (1.0%, 164,831G)
gorgewall: 101G (0.8%, 2,059G)
FoeSquirrel: 100G (0.8%, 9,552G)
lastly: 100G (0.8%, 36,732G)
fluffskull: 100G (0.8%, 2,089G)
Aldrammech: 100G (0.8%, 5,005G)
mister_sm1th: 100G (0.8%, 143G)
MrMarkPolo: 100G (0.8%, 3,157G)

blue bets:
UmaiJam: 3,400G (29.7%, 74,893G)
nifboy: 2,391G (20.9%, 2,391G)
Baron_von_Scrub: 1,264G (11.0%, 2,528G)
actual_JP: 1,063G (9.3%, 1,063G)
ValtonZenola: 1,000G (8.7%, 16,400G)
Firesheath: 898G (7.8%, 898G)
Breakdown777: 564G (4.9%, 564G)
xLilAsia: 500G (4.4%, 4,414G)
SephDarkheart: 219G (1.9%, 219G)
DuneMeta: 100G (0.9%, 3,124G)
getthemoneyz: 52G (0.5%, 1,170,702G)
