Final Bets: blue - 16 bets for 7,853G (54.2%, x0.84); yellow - 11 bets for 6,634G (45.8%, x1.18)

blue bets:
DeathTaxesAndAnime: 1,711G (21.8%, 3,356G)
BirbBrainsBot: 1,000G (12.7%, 15,141G)
fenixcrest: 1,000G (12.7%, 13,152G)
HaateXIII: 500G (6.4%, 6,412G)
ShintaroNayaka: 500G (6.4%, 6,549G)
MagicBottle: 492G (6.3%, 16,801G)
TheChainNerd: 464G (5.9%, 4,644G)
Sairentozon7: 432G (5.5%, 432G)
Lemonjohns: 400G (5.1%, 868G)
Hattoriisan: 294G (3.7%, 294G)
ArashiKurobara: 264G (3.4%, 10,328G)
gorgewall: 201G (2.6%, 6,196G)
redrhinofever: 200G (2.5%, 1,395G)
xLilAsia: 195G (2.5%, 390G)
ANFz: 100G (1.3%, 25,761G)
GBZero: 100G (1.3%, 258G)

yellow bets:
Lanshaft: 3,465G (52.2%, 6,795G)
bruubarg: 635G (9.6%, 635G)
MrFlabyo: 500G (7.5%, 310,920G)
LavyWays: 500G (7.5%, 141,594G)
letdowncity: 364G (5.5%, 10,252G)
getthemoneyz: 248G (3.7%, 1,182,645G)
Rilgon: 248G (3.7%, 248G)
neocarbuncle: 210G (3.2%, 5,611G)
winteriscorning: 200G (3.0%, 200G)
amiture: 164G (2.5%, 164G)
skipsandwiches: 100G (1.5%, 1,155G)
