Final Bets: white - 6 bets for 5,777G (27.4%, x2.65); brown - 19 bets for 15,292G (72.6%, x0.38)

white bets:
AllInBot: 1,861G (32.2%, 1,861G)
bokurakira: 1,500G (26.0%, 5,330G)
LDSkinny: 1,000G (17.3%, 6,666G)
lowlf: 660G (11.4%, 8,304G)
JonnyCue: 468G (8.1%, 17,469G)
Musashi45: 288G (5.0%, 288G)

brown bets:
acid_flashback: 3,000G (19.6%, 47,783G)
LivingHitokiri: 1,500G (9.8%, 162,007G)
CorpusCav: 1,400G (9.2%, 54,851G)
RunicMagus: 1,200G (7.8%, 65,943G)
Snowfats: 1,000G (6.5%, 50,095G)
BirbBrainsBot: 1,000G (6.5%, 99,070G)
Lord_Gwarth: 1,000G (6.5%, 11,285G)
nhammen: 1,000G (6.5%, 72,531G)
killth3kid: 820G (5.4%, 37,281G)
NicoSavoy: 556G (3.6%, 556G)
ExplanationMarkWow: 500G (3.3%, 44,390G)
maximalplus: 500G (3.3%, 2,671G)
2b_yorha_b: 400G (2.6%, 18,382G)
Error72: 356G (2.3%, 356G)
CosmicTactician: 300G (2.0%, 1,947G)
getthemoneyz: 260G (1.7%, 2,171,350G)
DrAntiSocial: 200G (1.3%, 1,808G)
datadrivenbot: 200G (1.3%, 84,566G)
Firesheath: 100G (0.7%, 1,746G)
