Final Bets: yellow - 10 bets for 12,021G (23.7%, x3.22); champion - 23 bets for 38,763G (76.3%, x0.31)

yellow bets:
maximalplus: 7,900G (65.7%, 7,900G)
Sairentozon7: 1,000G (8.3%, 78,691G)
killth3kid: 820G (6.8%, 37,591G)
lowlf: 660G (5.5%, 6,984G)
JonnyCue: 500G (4.2%, 16,000G)
bokurakira: 500G (4.2%, 3,530G)
goth_Applebees_hostess: 423G (3.5%, 846G)
Firesheath: 100G (0.8%, 1,960G)
maakur_: 100G (0.8%, 5,778G)
getthemoneyz: 18G (0.1%, 2,170,954G)

champion bets:
old_overholt_: 5,000G (12.9%, 53,876G)
LivingHitokiri: 5,000G (12.9%, 162,078G)
Lord_Gwarth: 5,000G (12.9%, 10,663G)
RunicMagus: 4,000G (10.3%, 66,396G)
acid_flashback: 3,000G (7.7%, 45,916G)
DeathTaxesAndAnime: 2,430G (6.3%, 4,765G)
Shalloween: 2,000G (5.2%, 33,129G)
Nizaha: 1,915G (4.9%, 3,830G)
CorpusCav: 1,500G (3.9%, 56,085G)
tripaplex: 1,000G (2.6%, 6,427G)
BirbBrainsBot: 1,000G (2.6%, 98,448G)
Deathmaker06: 1,000G (2.6%, 34,632G)
Snowfats: 1,000G (2.6%, 50,473G)
E_Ballard: 904G (2.3%, 904G)
reinoe: 728G (1.9%, 728G)
fenaen: 672G (1.7%, 25,930G)
DLJuggernaut: 640G (1.7%, 640G)
AllInBot: 552G (1.4%, 552G)
ExplanationMarkWow: 500G (1.3%, 44,079G)
2b_yorha_b: 400G (1.0%, 18,133G)
daveb_: 222G (0.6%, 6,745G)
datadrivenbot: 200G (0.5%, 84,442G)
nhammen: 100G (0.3%, 72,909G)
