Final Bets: red - 17 bets for 15,267G (48.6%, x1.06); blue - 12 bets for 16,156G (51.4%, x0.94)

red bets:
skuldar: 4,581G (30.0%, 4,581G)
sinnyil2: 3,500G (22.9%, 114,203G)
whiteonrice: 1,625G (10.6%, 1,625G)
volgrathemoose: 1,001G (6.6%, 1,991G)
ungabunga_bot: 1,000G (6.6%, 265,112G)
BirbBrainsBot: 1,000G (6.6%, 191,855G)
leakimiko: 801G (5.2%, 10,016G)
TheRylander: 300G (2.0%, 1,404G)
Anethum: 300G (2.0%, 4,318G)
ANFz: 254G (1.7%, 21,730G)
Realitydown: 200G (1.3%, 1,573G)
museofdoom: 200G (1.3%, 1,386G)
Odin007_88: 104G (0.7%, 104G)
ZephyrTempest: 101G (0.7%, 188,382G)
lastly: 100G (0.7%, 6,013G)
datadrivenbot: 100G (0.7%, 2,496G)
GarbagePhoenix: 100G (0.7%, 2,505G)

blue bets:
itzover9001: 7,917G (49.0%, 7,917G)
Meta_Five: 3,000G (18.6%, 5,266G)
snkey: 1,371G (8.5%, 1,371G)
J2DaBibbles: 1,000G (6.2%, 23,220G)
Estan_AD: 758G (4.7%, 758G)
Breakdown777: 500G (3.1%, 22,414G)
joewcarson: 500G (3.1%, 17,221G)
GrandmasterFrankerZ: 420G (2.6%, 5,132G)
Squatting_Bear: 200G (1.2%, 2,474G)
roofiepops: 200G (1.2%, 5,505G)
nifboy: 190G (1.2%, 3,811G)
maakur_: 100G (0.6%, 112,748G)
