Final Bets: blue - 15 bets for 5,728G (39.0%, x1.56); green - 14 bets for 8,943G (61.0%, x0.64)

blue bets:
Nickyfive: 1,500G (26.2%, 35,048G)
MagicBottle: 1,000G (17.5%, 10,872G)
Laserman1000: 500G (8.7%, 20,400G)
BlackFireUK: 492G (8.6%, 492G)
killth3kid: 444G (7.8%, 1,390G)
E_Ballard: 412G (7.2%, 412G)
FriendSquirrel: 367G (6.4%, 721G)
DustBirdEX: 234G (4.1%, 7,488G)
roqqqpsi: 172G (3.0%, 17,227G)
Lydian_C: 121G (2.1%, 152,035G)
ArashiKurobara: 100G (1.7%, 499G)
jojo2k: 100G (1.7%, 1,487G)
CosmicTactician: 100G (1.7%, 21,071G)
datadrivenbot: 100G (1.7%, 46,627G)
fluffskull: 86G (1.5%, 1,602G)

green bets:
Nizaha: 1,597G (17.9%, 3,194G)
TheChainNerd: 1,451G (16.2%, 14,515G)
UmaiJam: 1,400G (15.7%, 43,878G)
VolgraTheMoose: 1,108G (12.4%, 2,217G)
fenixcrest: 1,000G (11.2%, 7,101G)
Bryon_W: 500G (5.6%, 4,350G)
BirbBrainsBot: 500G (5.6%, 142,522G)
Shalloween: 400G (4.5%, 72,292G)
sososteve: 300G (3.4%, 6,822G)
Lemonjohns: 300G (3.4%, 1,024G)
biffcake01: 111G (1.2%, 2,082G)
nifboy: 100G (1.1%, 2,650G)
Sans_from_Snowdin: 100G (1.1%, 25,690G)
getthemoneyz: 76G (0.8%, 1,112,938G)
