Final Bets: white - 16 bets for 17,455G (51.0%, x0.96); purple - 14 bets for 16,779G (49.0%, x1.04)

white bets:
nocmon411: 5,000G (28.6%, 6,091G)
randgridr: 4,083G (23.4%, 4,083G)
Zeroroute: 2,518G (14.4%, 8,685G)
SephDarkheart: 2,024G (11.6%, 2,024G)
Leonidusx: 1,000G (5.7%, 15,312G)
AllInBot: 396G (2.3%, 396G)
Wonser: 368G (2.1%, 21,245G)
Panushenko: 360G (2.1%, 360G)
old_overholt_: 300G (1.7%, 29,257G)
ValensEXP_: 256G (1.5%, 4,696G)
CorpusCav: 250G (1.4%, 3,967G)
resjudicata3: 200G (1.1%, 5,826G)
aceof86: 200G (1.1%, 2,942G)
datadrivenbot: 200G (1.1%, 59,380G)
farside00831: 200G (1.1%, 3,876G)
BartTradingCompany: 100G (0.6%, 2,549G)

purple bets:
Mesmaster: 5,000G (29.8%, 215,041G)
Yangusburger: 2,445G (14.6%, 2,445G)
Zagorsek: 2,359G (14.1%, 2,359G)
Smugzug: 1,760G (10.5%, 2,228G)
Thyrandaal: 1,611G (9.6%, 3,160G)
BirbBrainsBot: 1,000G (6.0%, 21,270G)
loveyouallfriends: 1,000G (6.0%, 12,031G)
VolgraTheMoose: 712G (4.2%, 712G)
akash7: 259G (1.5%, 7,559G)
CosmicTactician: 200G (1.2%, 36,467G)
getthemoneyz: 120G (0.7%, 1,919,660G)
J_MacC1991: 112G (0.7%, 112G)
gorgewall: 101G (0.6%, 8,070G)
RunicMagus: 100G (0.6%, 10,222G)
