Final Bets: purple - 15 bets for 13,665G (34.0%, x1.94); brown - 32 bets for 26,492G (66.0%, x0.52)

purple bets:
OmnibotGamma: 4,184G (30.6%, 16,737G)
rockmem21: 3,040G (22.2%, 15,200G)
Shalloween: 1,200G (8.8%, 47,395G)
SolarisFall: 1,076G (7.9%, 21,530G)
Lodrak: 1,001G (7.3%, 6,062G)
AllInBot: 616G (4.5%, 616G)
defaultlybrave: 500G (3.7%, 1,078G)
gum44: 500G (3.7%, 8,308G)
wackyzachyy: 475G (3.5%, 475G)
Oshimi12: 373G (2.7%, 373G)
kekkerscrew: 300G (2.2%, 1,295G)
ungabunga_bot: 100G (0.7%, 5,420G)
TheRobbieRobster: 100G (0.7%, 100G)
SpaZmodeus: 100G (0.7%, 1,770G)
EnemyController: 100G (0.7%, 22,081G)

brown bets:
Zeroroute: 3,697G (14.0%, 10,394G)
LuckyLuckLuc2: 3,333G (12.6%, 11,763G)
Shakarak: 3,000G (11.3%, 27,427G)
rnark: 2,235G (8.4%, 2,235G)
Lord_Burrah: 2,000G (7.5%, 85,141G)
MantisFinch: 1,000G (3.8%, 24,442G)
DeathTaxesAndAnime: 1,000G (3.8%, 1,936G)
BirbBrainsBot: 1,000G (3.8%, 214,401G)
getthemoneyz: 1,000G (3.8%, 353,234G)
bad1dea: 1,000G (3.8%, 206,702G)
DHaveWord: 872G (3.3%, 872G)
superdevon1: 819G (3.1%, 13,657G)
Lali_Lulelo: 560G (2.1%, 560G)
Lazerkick: 500G (1.9%, 12,409G)
Rastanar: 500G (1.9%, 10,634G)
MynenARS: 435G (1.6%, 435G)
ELzukkor: 400G (1.5%, 3,284G)
Wizard_01: 400G (1.5%, 25,357G)
Aldrammech: 369G (1.4%, 3,697G)
Chao_Garden: 300G (1.1%, 3,652G)
ZephyrTempest: 290G (1.1%, 1,179G)
ShanksMcShiv: 257G (1.0%, 507G)
MrFlabyo: 200G (0.8%, 22,400G)
fenaen: 200G (0.8%, 4,394G)
KasugaiRoastedPeas: 200G (0.8%, 33,764G)
tone_t: 200G (0.8%, 6,641G)
CorpusCav: 200G (0.8%, 6,633G)
sankvtw: 125G (0.5%, 1,211G)
denamda: 100G (0.4%, 19,930G)
jethrothrul: 100G (0.4%, 3,543G)
Ficklebeast: 100G (0.4%, 5,720G)
BadBlanket: 100G (0.4%, 2,432G)
