Final Bets: green - 16 bets for 8,256G (53.2%, x0.88); yellow - 20 bets for 7,270G (46.8%, x1.14)

green bets:
LAGBOT30000: 1,295G (15.7%, 25,910G)
volgrathemoose: 1,097G (13.3%, 2,194G)
mpghappiness: 1,001G (12.1%, 24,814G)
Aldrammech: 1,000G (12.1%, 33,728G)
BirbBrainsBot: 1,000G (12.1%, 125,810G)
ANFz: 627G (7.6%, 627G)
namamu: 420G (5.1%, 12,666G)
roofiepops: 400G (4.8%, 12,872G)
Moshyhero: 250G (3.0%, 2,398G)
getthemoneyz: 224G (2.7%, 701,278G)
fenaen: 222G (2.7%, 444G)
AkiriXx: 200G (2.4%, 200G)
GladiatorLupe: 200G (2.4%, 2,536G)
neocarbuncle: 120G (1.5%, 120G)
AllInBot: 100G (1.2%, 100G)
datadrivenbot: 100G (1.2%, 22,852G)

yellow bets:
NovaKnight21: 2,332G (32.1%, 2,332G)
dogsandcatsand: 548G (7.5%, 548G)
Kronikle: 500G (6.9%, 16,975G)
Baron_von_Scrub: 474G (6.5%, 7,760G)
Cryptopsy70: 460G (6.3%, 2,964G)
Lanshaft: 404G (5.6%, 404G)
krasny1944: 377G (5.2%, 377G)
triniculo: 264G (3.6%, 264G)
HaateXIII: 250G (3.4%, 3,850G)
HaychDub: 250G (3.4%, 8,405G)
JLinkletter: 242G (3.3%, 242G)
josephiroth_143: 228G (3.1%, 228G)
travis_butters: 200G (2.8%, 963G)
cloud92684: 200G (2.8%, 9,962G)
littlebilly3: 100G (1.4%, 219G)
CosmicTactician: 100G (1.4%, 17,482G)
benticore: 100G (1.4%, 1,045G)
ravingsockmonkey: 100G (1.4%, 1,000G)
letdowncity: 100G (1.4%, 3,683G)
zepharoth89: 41G (0.6%, 1,041G)
