Final Bets: white - 18 bets for 9,124G (42.0%, x1.38); black - 17 bets for 12,605G (58.0%, x0.72)

white bets:
ANFz: 1,183G (13.0%, 1,183G)
Aldrammech: 1,000G (11.0%, 34,613G)
bruubarg: 1,000G (11.0%, 2,500G)
BirbBrainsBot: 1,000G (11.0%, 126,691G)
cloud92684: 1,000G (11.0%, 9,762G)
ravingsockmonkey: 900G (9.9%, 900G)
roofiepops: 666G (7.3%, 13,228G)
fenaen: 639G (7.0%, 639G)
AkiriXx: 376G (4.1%, 376G)
dogsandcatsand: 280G (3.1%, 280G)
josephiroth_143: 228G (2.5%, 228G)
Mushufasa_: 200G (2.2%, 237G)
JLinkletter: 136G (1.5%, 136G)
getthemoneyz: 116G (1.3%, 701,475G)
benticore: 100G (1.1%, 945G)
CosmicTactician: 100G (1.1%, 17,382G)
GladiatorLupe: 100G (1.1%, 2,712G)
letdowncity: 100G (1.1%, 3,583G)

black bets:
volgrathemoose: 3,164G (25.1%, 3,164G)
Grimmace45: 2,222G (17.6%, 14,909G)
mpghappiness: 2,222G (17.6%, 25,695G)
CorpusCav: 800G (6.3%, 22,776G)
namamu: 666G (5.3%, 13,036G)
NovaKnight21: 572G (4.5%, 572G)
Lordminsc: 500G (4.0%, 2,450G)
Cryptopsy70: 460G (3.6%, 2,504G)
Lanshaft: 404G (3.2%, 404G)
aurosaerondo: 400G (3.2%, 1,258G)
Moshyhero: 300G (2.4%, 2,618G)
neocarbuncle: 226G (1.8%, 226G)
krasny1944: 212G (1.7%, 212G)
AllInBot: 188G (1.5%, 188G)
littlebilly3: 119G (0.9%, 119G)
datadrivenbot: 100G (0.8%, 22,940G)
zepharoth89: 50G (0.4%, 1,000G)
