Final Bets: purple - 10 bets for 8,719G (40.8%, x1.45); brown - 14 bets for 12,654G (59.2%, x0.69)

purple bets:
nickelbank: 5,000G (57.3%, 27,350G)
OnTheBOTA: 1,000G (11.5%, 10,094G)
upvla: 1,000G (11.5%, 13,641G)
TheMurkGnome: 500G (5.7%, 14,504G)
AllInBot: 319G (3.7%, 319G)
furrytomahawkk: 300G (3.4%, 7,038G)
Evewho: 200G (2.3%, 5,103G)
dtrain332: 200G (2.3%, 248G)
Firesheath: 100G (1.1%, 10,314G)
nifboy: 100G (1.1%, 10,170G)

brown bets:
dantayystv: 3,000G (23.7%, 15,193G)
Creggers: 2,000G (15.8%, 34,477G)
sinnyil2: 1,391G (11.0%, 1,391G)
EnemyController: 1,111G (8.8%, 1,455,329G)
BirbBrainsBot: 1,000G (7.9%, 53,556G)
Thyrandaal: 958G (7.6%, 958G)
randgridr: 901G (7.1%, 901G)
HaateXIII: 784G (6.2%, 784G)
prince_rogers_nelson_: 735G (5.8%, 735G)
gorgewall: 201G (1.6%, 9,781G)
datadrivenbot: 200G (1.6%, 32,112G)
getthemoneyz: 152G (1.2%, 1,315,536G)
Lydian_C: 121G (1.0%, 60,297G)
CT_5_Holy: 100G (0.8%, 6,880G)
