Final Bets: green - 10 bets for 4,775G (19.6%, x4.11); yellow - 22 bets for 19,631G (80.4%, x0.24)

green bets:
Shalloween: 1,542G (32.3%, 1,542G)
BirbBrainsBot: 1,000G (20.9%, 34,303G)
Raixelol: 588G (12.3%, 27,388G)
superdevon1: 555G (11.6%, 2,775G)
mindblownnnn: 300G (6.3%, 1,945G)
getthemoneyz: 262G (5.5%, 1,915,199G)
hotpocketsofficial: 200G (4.2%, 599G)
heyBtw: 128G (2.7%, 128G)
BartTradingCompany: 100G (2.1%, 2,910G)
biske13: 100G (2.1%, 3,186G)

yellow bets:
reinoe: 5,000G (25.5%, 50,535G)
CosmicTactician: 3,000G (15.3%, 34,201G)
resjudicata3: 2,000G (10.2%, 3,689G)
Lord_Gwarth: 1,500G (7.6%, 14,024G)
latebit: 1,299G (6.6%, 1,299G)
CorpusCav: 1,200G (6.1%, 2,812G)
upvla: 891G (4.5%, 6,377G)
Laserman1000: 820G (4.2%, 820G)
ValensEXP_: 551G (2.8%, 551G)
krombobreaker: 500G (2.5%, 3,273G)
ANFz: 500G (2.5%, 5,746G)
roofiepops: 474G (2.4%, 3,523G)
Sietaha: 356G (1.8%, 17,827G)
AllInBot: 338G (1.7%, 338G)
Chihuahua_Charity: 240G (1.2%, 240G)
aceof86: 200G (1.0%, 4,223G)
datadrivenbot: 200G (1.0%, 58,449G)
Moshyhero: 150G (0.8%, 4,053G)
Chuckolator: 112G (0.6%, 24,823G)
Blastinus: 100G (0.5%, 1,506G)
formerlydrdong: 100G (0.5%, 1,440G)
hojimitsu: 100G (0.5%, 1,046G)
