Final Bets: white - 16 bets for 14,532G (83.7%, x0.19); brown - 4 bets for 2,827G (16.3%, x5.14)

white bets:
ShadowNinja25: 2,898G (19.9%, 2,898G)
gorgewall: 2,057G (14.2%, 2,057G)
NicoSavoy: 2,000G (13.8%, 141,556G)
sinnyil2: 1,200G (8.3%, 168,648G)
Smashy: 1,000G (6.9%, 2,055G)
BirbBrainsBot: 1,000G (6.9%, 76,380G)
Nizaha: 856G (5.9%, 75,054G)
roofiepops: 727G (5.0%, 727G)
krombobreaker: 500G (3.4%, 8,583G)
CorpusCav: 500G (3.4%, 4,045G)
old_overholt_: 500G (3.4%, 24,989G)
ColetteMSLP: 400G (2.8%, 3,601G)
resjudicata3: 344G (2.4%, 344G)
killth3kid: 250G (1.7%, 12,172G)
datadrivenbot: 200G (1.4%, 70,203G)
MemoriesofFinal: 100G (0.7%, 38,507G)

brown bets:
FoeSquirrel: 1,751G (61.9%, 3,502G)
lube_squid: 500G (17.7%, 8,162G)
AllInBot: 432G (15.3%, 432G)
getthemoneyz: 144G (5.1%, 1,980,027G)
