Final Bets: purple - 9 bets for 6,553G (69.0%, x0.45); brown - 5 bets for 2,943G (31.0%, x2.23)

purple bets:
RaIshtar: 2,564G (39.1%, 2,564G)
BoneMiser: 1,325G (20.2%, 1,325G)
iBardic: 780G (11.9%, 780G)
douchetron: 572G (8.7%, 572G)
prince_rogers_nelson_: 412G (6.3%, 412G)
maximumcrit: 316G (4.8%, 316G)
JethroThrul: 272G (4.2%, 272G)
ar_tactic: 250G (3.8%, 81,944G)
ArlanKels: 62G (0.9%, 6,275G)

brown bets:
NovaKnight21: 1,667G (56.6%, 1,667G)
letdowncity: 400G (13.6%, 12,295G)
BirbBrainsBot: 354G (12.0%, 42,894G)
getthemoneyz: 322G (10.9%, 1,515,103G)
AllInBot: 200G (6.8%, 200G)
