Final Bets: red - 11 bets for 15,324G (57.3%, x0.75); blue - 19 bets for 11,421G (42.7%, x1.34)

red bets:
red_celt: 4,431G (28.9%, 4,431G)
Shakarak: 3,366G (22.0%, 6,601G)
Treapvort: 1,934G (12.6%, 3,868G)
lowlf: 1,484G (9.7%, 1,484G)
DeathTaxesAndAnime: 1,279G (8.3%, 2,508G)
lavian94: 970G (6.3%, 970G)
Maeveen: 600G (3.9%, 600G)
Riot_Jayway: 500G (3.3%, 190,969G)
mirapoix: 460G (3.0%, 460G)
lijarkh: 200G (1.3%, 4,362G)
Basmal: 100G (0.7%, 56,404G)

blue bets:
Lydian_C: 2,300G (20.1%, 86,132G)
upvla: 1,219G (10.7%, 15,703G)
sinnyil2: 1,200G (10.5%, 58,146G)
BirbBrainsBot: 1,000G (8.8%, 127,809G)
bad1dea: 1,000G (8.8%, 349,109G)
HASTERIOUS: 1,000G (8.8%, 72,384G)
chronicdeath: 732G (6.4%, 732G)
UmaiJam: 691G (6.1%, 6,915G)
KupoKel: 604G (5.3%, 604G)
superdevon1: 460G (4.0%, 4,601G)
R_Raynos: 260G (2.3%, 260G)
getthemoneyz: 234G (2.0%, 403,810G)
ugoplatamia: 200G (1.8%, 32,930G)
mayormcfunbags: 116G (1.0%, 116G)
AllInBot: 100G (0.9%, 100G)
chronoxtrigger: 100G (0.9%, 3,706G)
datadrivenbot: 100G (0.9%, 13,463G)
BuffaloCrunch: 100G (0.9%, 16,052G)
ko2q: 5G (0.0%, 1,454G)
