Final Bets: white - 10 bets for 11,802G (35.1%, x1.85); black - 21 bets for 21,804G (64.9%, x0.54)

white bets:
fluffywormhole: 3,160G (26.8%, 3,160G)
Aldrammech: 3,094G (26.2%, 3,094G)
TheChainNerd: 2,500G (21.2%, 15,854G)
AllInBot: 1,108G (9.4%, 1,108G)
namamu: 666G (5.6%, 21,073G)
Sairentozon7: 500G (4.2%, 1,791G)
Baron_von_Scrub: 474G (4.0%, 11,706G)
lastly: 100G (0.8%, 12,939G)
littlebilly3: 100G (0.8%, 100G)
AlysSariel: 100G (0.8%, 2,196G)

black bets:
flowinprose: 10,000G (45.9%, 79,099G)
catfashions: 2,000G (9.2%, 13,133G)
Zeroroute: 1,826G (8.4%, 4,328G)
toka222: 1,340G (6.1%, 79,051G)
RaIshtar: 1,224G (5.6%, 1,224G)
gooseyourself: 1,007G (4.6%, 2,014G)
BirbBrainsBot: 1,000G (4.6%, 163,191G)
TheMM42: 589G (2.7%, 11,788G)
DustBirdEX: 456G (2.1%, 3,787G)
MagicBottle: 372G (1.7%, 372G)
ShintaroNayaka: 364G (1.7%, 364G)
getthemoneyz: 360G (1.7%, 719,702G)
MADTheta: 250G (1.1%, 5,543G)
otakutaylor: 200G (0.9%, 1,584G)
Breakdown777: 200G (0.9%, 2,435G)
aeonicvector: 116G (0.5%, 1,059G)
rjA0zcOQ96: 100G (0.5%, 3,202G)
E_Ballard: 100G (0.5%, 10,565G)
datadrivenbot: 100G (0.5%, 20,334G)
cloud92684: 100G (0.5%, 1,259G)
Kyune: 100G (0.5%, 5,987G)
