Final Bets: yellow - 14 bets for 8,924G (40.1%, x1.49); brown - 22 bets for 13,316G (59.9%, x0.67)

yellow bets:
toka222: 1,650G (18.5%, 84,287G)
catfashions: 1,500G (16.8%, 14,488G)
Sairentozon7: 1,346G (15.1%, 1,346G)
gooseyourself: 770G (8.6%, 1,540G)
TheMM42: 703G (7.9%, 14,063G)
Aldrammech: 600G (6.7%, 600G)
Lanshaft: 420G (4.7%, 690G)
krasny1944: 401G (4.5%, 401G)
joewcarson: 300G (3.4%, 2,438G)
Kyune: 250G (2.8%, 6,044G)
SQUiDSQUARKLIN: 248G (2.8%, 248G)
Drusic: 248G (2.8%, 248G)
aeonicvector: 244G (2.7%, 244G)
Ungaiii: 244G (2.7%, 244G)

brown bets:
cloud92684: 3,521G (26.4%, 3,521G)
Zeroroute: 1,517G (11.4%, 3,573G)
Saldarin: 1,509G (11.3%, 1,509G)
Breakdown777: 1,365G (10.3%, 1,365G)
BirbBrainsBot: 1,000G (7.5%, 165,005G)
MagicBottle: 701G (5.3%, 1,403G)
ShintaroNayaka: 619G (4.6%, 619G)
fenaen: 600G (4.5%, 3,691G)
fluffywormhole: 476G (3.6%, 476G)
HaychDub: 450G (3.4%, 11,301G)
otakutaylor: 300G (2.3%, 892G)
HaateXIII: 250G (1.9%, 6,441G)
serperemagus: 144G (1.1%, 144G)
AllInBot: 100G (0.8%, 100G)
Tougou: 100G (0.8%, 3,402G)
lastly: 100G (0.8%, 12,539G)
rjA0zcOQ96: 100G (0.8%, 3,367G)
littlebilly3: 100G (0.8%, 447G)
datadrivenbot: 100G (0.8%, 20,088G)
AlysSariel: 100G (0.8%, 2,414G)
RaIshtar: 100G (0.8%, 6,276G)
getthemoneyz: 64G (0.5%, 720,581G)
