Final Bets: yellow - 13 bets for 5,799G (26.9%, x2.72); champion - 27 bets for 15,797G (73.1%, x0.37)

yellow bets:
toka222: 1,500G (25.9%, 86,749G)
Aldrammech: 1,495G (25.8%, 1,495G)
FriendSquirrel: 551G (9.5%, 551G)
catfashions: 500G (8.6%, 16,726G)
Laserman1000: 483G (8.3%, 2,883G)
HaychDub: 350G (6.0%, 10,851G)
fluffywormhole: 280G (4.8%, 280G)
Sairentozon7: 190G (3.3%, 3,354G)
AllInBot: 100G (1.7%, 100G)
Kyune: 100G (1.7%, 6,417G)
maakur_: 100G (1.7%, 4,129G)
E_Ballard: 100G (1.7%, 10,419G)
littlebilly3: 50G (0.9%, 347G)

champion bets:
Zeroroute: 2,056G (13.0%, 2,056G)
TheMM42: 2,000G (12.7%, 15,112G)
NicoSavoy: 2,000G (12.7%, 77,280G)
Deathmaker06: 1,389G (8.8%, 4,633G)
BirbBrainsBot: 1,000G (6.3%, 164,005G)
krasny1944: 999G (6.3%, 999G)
fenaen: 800G (5.1%, 3,091G)
MagicBottle: 702G (4.4%, 702G)
Drusic: 618G (3.9%, 618G)
otakutaylor: 592G (3.7%, 592G)
HaateXIII: 500G (3.2%, 6,191G)
Lanshaft: 420G (2.7%, 1,317G)
Breakdown777: 380G (2.4%, 380G)
ShintaroNayaka: 364G (2.3%, 364G)
Saldarin: 284G (1.8%, 284G)
sSwing: 280G (1.8%, 280G)
d4rr1n: 240G (1.5%, 240G)
aeonicvector: 200G (1.3%, 608G)
getthemoneyz: 146G (0.9%, 720,517G)
serperemagus: 144G (0.9%, 144G)
cloud92684: 128G (0.8%, 128G)
AlysSariel: 100G (0.6%, 2,314G)
datadrivenbot: 100G (0.6%, 19,988G)
rjA0zcOQ96: 100G (0.6%, 3,267G)
Tougou: 100G (0.6%, 3,302G)
foofermoofer: 100G (0.6%, 5,814G)
DrAntiSocial: 55G (0.3%, 20,487G)
