Final Bets: green - 29 bets for 11,349G (60.6%, x0.65); yellow - 17 bets for 7,365G (39.4%, x1.54)

green bets:
Lali_Lulelo: 1,558G (13.7%, 1,558G)
BirbBrainsBot: 1,000G (8.8%, 14,157G)
RunicMagus: 799G (7.0%, 799G)
Baron_von_Scrub: 765G (6.7%, 1,530G)
MynenARS: 668G (5.9%, 668G)
Slowbrofist: 561G (4.9%, 561G)
luminarii: 530G (4.7%, 14,370G)
ungabunga_bot: 518G (4.6%, 88,966G)
proper__noun__: 500G (4.4%, 2,734G)
kingchadking: 476G (4.2%, 476G)
LavyWays: 400G (3.5%, 27,086G)
IndecisiveNinja: 392G (3.5%, 392G)
mexskacin: 381G (3.4%, 381G)
TheGuesty: 350G (3.1%, 5,496G)
theFalseTruth: 332G (2.9%, 332G)
Jerboj: 326G (2.9%, 326G)
fenaen: 300G (2.6%, 3,332G)
mivvim: 256G (2.3%, 256G)
ZephyrTempest: 255G (2.2%, 42,728G)
jhazor: 200G (1.8%, 5,509G)
joewcarson: 144G (1.3%, 144G)
getthemoneyz: 116G (1.0%, 453,803G)
ciprofloxacin: 112G (1.0%, 112G)
AllInBot: 100G (0.9%, 100G)
friendsquirrel: 100G (0.9%, 8,304G)
Firesheath: 100G (0.9%, 1,882G)
datadrivenbot: 100G (0.9%, 24,393G)
daveb_: 5G (0.0%, 2,171G)
ko2q: 5G (0.0%, 6,697G)

yellow bets:
TheChainNerd: 1,258G (17.1%, 1,258G)
roqqqpsi: 888G (12.1%, 6,829G)
DeathTaxesAndAnime: 664G (9.0%, 664G)
Lanshaft: 600G (8.1%, 600G)
Shalloween: 600G (8.1%, 17,754G)
DudeMonkey77: 571G (7.8%, 571G)
mirapoix: 528G (7.2%, 528G)
Pie108: 500G (6.8%, 9,483G)
SkylerBunny: 356G (4.8%, 356G)
Tithonus: 300G (4.1%, 15,559G)
CapnChaos12: 300G (4.1%, 5,055G)
KasugaiRoastedPeas: 200G (2.7%, 14,922G)
Sungazes: 200G (2.7%, 1,674G)
RughSontos: 100G (1.4%, 2,212G)
maakur_: 100G (1.4%, 4,077G)
urieltheflameofgod: 100G (1.4%, 8,553G)
ApplesauceBoss: 100G (1.4%, 3,040G)
