Final Bets: purple - 14 bets for 8,885G (38.9%, x1.57); brown - 26 bets for 13,936G (61.1%, x0.64)

purple bets:
RughSontos: 2,221G (25.0%, 2,221G)
Zeroroute: 1,419G (16.0%, 1,419G)
catfashions: 1,000G (11.3%, 4,537G)
Pie108: 700G (7.9%, 17,673G)
JustSuperish: 672G (7.6%, 672G)
Aldrammech: 600G (6.8%, 600G)
DejaPoo21: 587G (6.6%, 587G)
Baron_von_Scrub: 535G (6.0%, 2,297G)
datadrivenbot: 507G (5.7%, 21,744G)
Lordminsc: 300G (3.4%, 5,601G)
organizing_secrets: 100G (1.1%, 1,583G)
sect_cor: 100G (1.1%, 20,122G)
prcammy: 94G (1.1%, 194G)
bigbaddru: 50G (0.6%, 100G)

brown bets:
NovaKnight21: 2,000G (14.4%, 5,100G)
WireLord: 2,000G (14.4%, 43,922G)
mirapoix: 1,403G (10.1%, 1,403G)
ungabunga_bot: 1,000G (7.2%, 108,640G)
BirbBrainsBot: 1,000G (7.2%, 67,025G)
DeathTaxesAndAnime: 929G (6.7%, 929G)
Lanshaft: 600G (4.3%, 11,744G)
Scotobot: 500G (3.6%, 2,522G)
Breakdown777: 500G (3.6%, 8,086G)
kekkerscrew: 500G (3.6%, 17,780G)
reinoe: 500G (3.6%, 8,377G)
Jeeboheebo: 480G (3.4%, 480G)
roofiepops: 380G (2.7%, 380G)
ZephyrTempest: 329G (2.4%, 49,984G)
getthemoneyz: 306G (2.2%, 472,084G)
Laserman1000: 304G (2.2%, 304G)
Kojigawatz: 300G (2.2%, 5,000G)
b0shii: 222G (1.6%, 1,131G)
edgehead62888: 136G (1.0%, 136G)
AllInBot: 100G (0.7%, 100G)
ApplesauceBoss: 100G (0.7%, 2,719G)
404namesnotfound: 100G (0.7%, 1,121G)
maakur_: 100G (0.7%, 7,475G)
ko2q: 100G (0.7%, 6,771G)
DrAntiSocial: 30G (0.2%, 1,758G)
roqqqpsi: 17G (0.1%, 864G)
