Final Bets: green - 20 bets for 22,608G (71.4%, x0.40); black - 19 bets for 9,040G (28.6%, x2.50)

green bets:
reinoe: 9,147G (40.5%, 9,147G)
Aldrammech: 2,926G (12.9%, 2,926G)
Scotobot: 2,601G (11.5%, 2,601G)
organizing_secrets: 1,183G (5.2%, 1,183G)
I_nod_my_head_when_I_lose: 1,000G (4.4%, 26,978G)
catfashions: 1,000G (4.4%, 4,131G)
datadrivenbot: 831G (3.7%, 20,951G)
Laserman1000: 621G (2.7%, 3,521G)
Lanshaft: 600G (2.7%, 11,797G)
Zeroroute: 600G (2.7%, 600G)
Jeeboheebo: 480G (2.1%, 480G)
TheManInPlaid: 444G (2.0%, 5,450G)
DejaPoo21: 380G (1.7%, 380G)
roqqqpsi: 227G (1.0%, 1,036G)
edgehead62888: 136G (0.6%, 136G)
Kojigawatz: 100G (0.4%, 100G)
ApplesauceBoss: 100G (0.4%, 2,583G)
Jerboj: 100G (0.4%, 38,991G)
Sairentozon7: 82G (0.4%, 1,462G)
b0shii: 50G (0.2%, 1,051G)

black bets:
Vampire_Killer: 1,118G (12.4%, 1,118G)
kai_shee: 1,001G (11.1%, 124,424G)
kekkerscrew: 1,000G (11.1%, 16,299G)
ungabunga_bot: 1,000G (11.1%, 109,150G)
BirbBrainsBot: 1,000G (11.1%, 65,663G)
getthemoneyz: 626G (6.9%, 472,535G)
TheChainNerd: 568G (6.3%, 568G)
Breakdown777: 500G (5.5%, 10,572G)
sinnyil2: 500G (5.5%, 16,920G)
DudeMonkey77: 444G (4.9%, 7,195G)
Slowbrofist: 320G (3.5%, 320G)
ZephyrTempest: 205G (2.3%, 49,721G)
silentperogy: 200G (2.2%, 17,155G)
madming25: 108G (1.2%, 108G)
AllInBot: 100G (1.1%, 100G)
ko2q: 100G (1.1%, 7,123G)
maakur_: 100G (1.1%, 7,827G)
Lordminsc: 100G (1.1%, 5,101G)
DrAntiSocial: 50G (0.6%, 1,607G)
