Final Bets: green - 16 bets for 17,216G (71.5%, x0.40); yellow - 12 bets for 6,862G (28.5%, x2.51)

green bets:
Leonidusx: 10,000G (58.1%, 539,729G)
MoonSugarFiend: 1,959G (11.4%, 1,959G)
waterwatereverywhere: 1,000G (5.8%, 14,607G)
BirbBrainsBot: 1,000G (5.8%, 148,802G)
LuckyLuckLuc2: 555G (3.2%, 2,490G)
MrJamDango: 400G (2.3%, 6,140G)
Genkidou: 362G (2.1%, 362G)
goth_Applebees_hostess: 312G (1.8%, 312G)
squideater_: 300G (1.7%, 15,819G)
Jehudy7: 300G (1.7%, 2,225G)
resjudicata3: 200G (1.2%, 5,162G)
J_52: 200G (1.2%, 2,357G)
Magicandy: 200G (1.2%, 17,501G)
datadrivenbot: 200G (1.2%, 84,086G)
verythinice: 128G (0.7%, 973G)
TheBrett: 100G (0.6%, 17,910G)

yellow bets:
CorpusCav: 2,000G (29.1%, 100,332G)
KyleWonToLiveForever: 952G (13.9%, 952G)
DLJuggernaut: 876G (12.8%, 876G)
ruleof5: 648G (9.4%, 648G)
Galeronis: 526G (7.7%, 526G)
superdevon1: 404G (5.9%, 5,312G)
JethroThrul: 400G (5.8%, 400G)
YowaneHaku: 276G (4.0%, 276G)
AllInBot: 200G (2.9%, 200G)
NicoSavoy: 200G (2.9%, 188,862G)
Zachara: 200G (2.9%, 4,400G)
getthemoneyz: 180G (2.6%, 2,235,206G)
