Final Bets: green - 25 bets for 17,145G (58.7%, x0.70); yellow - 16 bets for 12,042G (41.3%, x1.42)

green bets:
feDoran: 3,000G (17.5%, 23,577G)
Nickyfive: 1,929G (11.3%, 3,859G)
sinnyil2: 1,200G (7.0%, 35,326G)
HaplessOne: 1,111G (6.5%, 237,983G)
Aldrammech: 1,000G (5.8%, 105,889G)
SacrificialToast: 1,000G (5.8%, 14,366G)
ungabunga_bot: 1,000G (5.8%, 261,473G)
BirbBrainsBot: 1,000G (5.8%, 1,877G)
TheRylander: 1,000G (5.8%, 4,240G)
getthemoneyz: 824G (4.8%, 587,271G)
Shalloween: 700G (4.1%, 66,253G)
Banzem: 574G (3.3%, 574G)
gorgewall: 500G (2.9%, 5,480G)
Estan_AD: 452G (2.6%, 904G)
ZephyrTempest: 400G (2.3%, 702G)
nifboy: 259G (1.5%, 6,494G)
ANFz: 256G (1.5%, 22,945G)
RunicMagus: 150G (0.9%, 62,487G)
L_M_D: 149G (0.9%, 149G)
arch8000: 137G (0.8%, 4,587G)
WrathfulRemy: 104G (0.6%, 104G)
DeathTaxesAndAnime: 100G (0.6%, 8,855G)
twelfthrootoftwo: 100G (0.6%, 2,499G)
datadrivenbot: 100G (0.6%, 2,620G)
Evewho: 100G (0.6%, 21,628G)

yellow bets:
Lydian_C: 4,200G (34.9%, 41,441G)
Pie108: 2,000G (16.6%, 259,561G)
fenaen: 1,500G (12.5%, 67,910G)
Baron_von_Scrub: 1,111G (9.2%, 90,586G)
EnemyController: 500G (4.2%, 142,435G)
Breakdown777: 500G (4.2%, 33,514G)
Grimmace45: 480G (4.0%, 2,402G)
itzover9001: 454G (3.8%, 454G)
Lavatis: 400G (3.3%, 2,828G)
TrueRhyme: 212G (1.8%, 212G)
LivingHitokiri: 148G (1.2%, 148G)
PrysmGames: 137G (1.1%, 137G)
maakur_: 100G (0.8%, 112,753G)
Realitydown: 100G (0.8%, 10,408G)
rjA0zcOQ96: 100G (0.8%, 34,686G)
Jaritras: 100G (0.8%, 366G)
