Final Bets: green - 23 bets for 11,198G (16.9%, x4.90); champion - 24 bets for 54,919G (83.1%, x0.20)

green bets:
itzover9001: 2,276G (20.3%, 2,276G)
vorap: 1,200G (10.7%, 24,876G)
XalSmellsBad: 1,200G (10.7%, 25,636G)
BirbBrainsBot: 762G (6.8%, 4,856G)
museofdoom: 697G (6.2%, 697G)
Banzem: 588G (5.3%, 588G)
SacrificialToast: 500G (4.5%, 16,747G)
EnemyController: 500G (4.5%, 141,435G)
Grimmace45: 490G (4.4%, 2,452G)
Ungaiii: 389G (3.5%, 389G)
Reductions: 355G (3.2%, 355G)
RunicMagus: 350G (3.1%, 61,903G)
TheRylander: 300G (2.7%, 5,119G)
ZephyrTempest: 275G (2.5%, 1,838G)
nifboy: 248G (2.2%, 6,204G)
SquidgyXom: 200G (1.8%, 4,396G)
mesmaster: 200G (1.8%, 947G)
getthemoneyz: 168G (1.5%, 587,928G)
DeathTaxesAndAnime: 100G (0.9%, 9,664G)
rjA0zcOQ96: 100G (0.9%, 34,891G)
placeholdercats: 100G (0.9%, 5,668G)
Realitydown: 100G (0.9%, 11,013G)
Chompie: 100G (0.9%, 8,334G)

champion bets:
sinnyil2: 17,434G (31.7%, 34,869G)
LanseDM: 13,057G (23.8%, 13,057G)
HaplessOne: 5,555G (10.1%, 236,202G)
feDoran: 3,943G (7.2%, 33,943G)
gooseyourself: 3,000G (5.5%, 14,368G)
Pie108: 2,000G (3.6%, 251,061G)
Nickyfive: 1,303G (2.4%, 2,607G)
Estan_AD: 1,221G (2.2%, 1,221G)
Wolvaroo: 1,164G (2.1%, 1,164G)
Odin007_88: 1,000G (1.8%, 1,000G)
WireLord: 1,000G (1.8%, 17,274G)
Larkspir: 1,000G (1.8%, 4,814G)
Laserman1000: 600G (1.1%, 51,300G)
LivingHitokiri: 496G (0.9%, 496G)
ungabunga_bot: 466G (0.8%, 262,088G)
roofiepops: 400G (0.7%, 4,870G)
gorgewall: 300G (0.5%, 7,065G)
ANFz: 256G (0.5%, 23,273G)
radical_psi: 174G (0.3%, 174G)
smurphy000000: 150G (0.3%, 3,304G)
twelfthrootoftwo: 100G (0.2%, 3,213G)
lawnboxer: 100G (0.2%, 29,941G)
datadrivenbot: 100G (0.2%, 2,868G)
CosmicTactician: 100G (0.2%, 2,895G)
