Final Bets: red - 13 bets for 9,384G (36.2%, x1.76); blue - 13 bets for 16,557G (63.8%, x0.57)

red bets:
Mesmaster: 2,000G (21.3%, 47,655G)
DLJuggernaut: 1,108G (11.8%, 2,174G)
BirbBrainsBot: 1,000G (10.7%, 194,686G)
getthemoneyz: 1,000G (10.7%, 1,042,371G)
MagicBottle: 1,000G (10.7%, 1,896G)
loveyouallfriends: 782G (8.3%, 782G)
ANFz: 643G (6.9%, 1,287G)
DuraiPapers: 500G (5.3%, 49,973G)
CosmicTactician: 500G (5.3%, 20,645G)
twelfthrootoftwo: 300G (3.2%, 2,034G)
Moshyhero: 250G (2.7%, 5,546G)
gorgewall: 201G (2.1%, 8,994G)
Meanderandreturn: 100G (1.1%, 1,176G)

blue bets:
Digitalsocrates: 6,205G (37.5%, 11,283G)
butterbelljedi: 2,969G (17.9%, 2,969G)
Jadusable2: 1,732G (10.5%, 1,732G)
LanseDM: 1,100G (6.6%, 1,100G)
Zetchryn: 1,000G (6.0%, 6,468G)
Dasutin23: 1,000G (6.0%, 33,181G)
Tithonus: 651G (3.9%, 651G)
prince_rogers_nelson_: 600G (3.6%, 600G)
Zeroroute: 600G (3.6%, 600G)
superdevon1: 300G (1.8%, 300G)
Evewho: 200G (1.2%, 5,967G)
datadrivenbot: 100G (0.6%, 48,357G)
moocaotao: 100G (0.6%, 2,528G)
