Final Bets: green - 17 bets for 8,355G (38.9%, x1.57); white - 18 bets for 13,108G (61.1%, x0.64)

green bets:
Zetchryn: 1,000G (12.0%, 6,951G)
DuraiPapers: 1,000G (12.0%, 46,725G)
BirbBrainsBot: 1,000G (12.0%, 198,214G)
Mesmaster: 1,000G (12.0%, 46,881G)
OneHundredFists: 596G (7.1%, 596G)
Digitalsocrates: 588G (7.0%, 588G)
Oreo_Pizza: 500G (6.0%, 5,521G)
CosmicTactician: 500G (6.0%, 20,861G)
ANFz: 484G (5.8%, 484G)
MagicBottle: 436G (5.2%, 436G)
Lythe_Caraker: 250G (3.0%, 99,179G)
gorgewall: 201G (2.4%, 9,034G)
Evewho: 200G (2.4%, 5,880G)
CT_5_Holy: 200G (2.4%, 2,299G)
Meanderandreturn: 200G (2.4%, 766G)
moocaotao: 100G (1.2%, 2,677G)
datadrivenbot: 100G (1.2%, 48,520G)

white bets:
DLJuggernaut: 2,883G (22.0%, 5,654G)
Zeroroute: 2,278G (17.4%, 2,278G)
EnemyController: 1,234G (9.4%, 1,263,545G)
Arcblazer23: 1,038G (7.9%, 1,038G)
Arashii85: 1,000G (7.6%, 1,000G)
reinoe: 1,000G (7.6%, 9,979G)
Jadusable2: 735G (5.6%, 1,735G)
prince_rogers_nelson_: 600G (4.6%, 600G)
GatsbysGhost: 600G (4.6%, 4,075G)
DudeMonkey77: 500G (3.8%, 21,900G)
superdevon1: 300G (2.3%, 300G)
GladiatorLupe: 200G (1.5%, 4,161G)
twelfthrootoftwo: 200G (1.5%, 1,552G)
getthemoneyz: 140G (1.1%, 1,044,055G)
placidphoenix: 100G (0.8%, 1,766G)
nhammen: 100G (0.8%, 1,375G)
KonzeraLive: 100G (0.8%, 1,685G)
flacococo: 100G (0.8%, 488G)
