Final Bets: green - 22 bets for 15,154G (53.9%, x0.85); yellow - 19 bets for 12,945G (46.1%, x1.17)

green bets:
RongRongArts: 2,000G (13.2%, 465,805G)
HaplessOne: 1,744G (11.5%, 6,978G)
Nizaha: 1,001G (6.6%, 3,800G)
BirbBrainsBot: 1,000G (6.6%, 32,004G)
getthemoneyz: 1,000G (6.6%, 584,106G)
Dymntd: 1,000G (6.6%, 1,186G)
HaateXIII: 1,000G (6.6%, 74,545G)
TheMurkGnome: 1,000G (6.6%, 9,350G)
edgehead62888: 1,000G (6.6%, 8,181G)
pandasforsale: 777G (5.1%, 28,542G)
Zeroroute: 600G (4.0%, 600G)
NovaKnight21: 577G (3.8%, 577G)
Billybones5150: 500G (3.3%, 12,945G)
leakimiko: 404G (2.7%, 404G)
ZephyrTempest: 400G (2.6%, 1,738G)
itzover9001: 308G (2.0%, 308G)
FoxtrotNovemberCharlie: 260G (1.7%, 260G)
Heroebal: 200G (1.3%, 5,818G)
lobsterlobster: 120G (0.8%, 120G)
Remmahknik: 100G (0.7%, 100G)
datadrivenbot: 100G (0.7%, 3,582G)
nifboy: 63G (0.4%, 1,577G)

yellow bets:
ewan_e: 3,000G (23.2%, 7,881G)
Pie108: 2,000G (15.4%, 272,224G)
ungabunga_bot: 1,000G (7.7%, 258,906G)
cgMcWhiskers: 1,000G (7.7%, 2,792G)
LeepingJJ: 1,000G (7.7%, 8,397G)
waterwatereverywhere: 1,000G (7.7%, 5,201G)
ColetteMSLP: 500G (3.9%, 23,951G)
Grimmace45: 500G (3.9%, 4,942G)
genericco: 500G (3.9%, 500G)
nuka1120: 312G (2.4%, 312G)
Mesmaster: 312G (2.4%, 312G)
Chuckolator: 305G (2.4%, 29,107G)
gorgewall: 300G (2.3%, 3,133G)
TheRylander: 300G (2.3%, 2,974G)
jakeduhhsnake: 250G (1.9%, 785G)
museofdoom: 216G (1.7%, 216G)
twelfthrootoftwo: 200G (1.5%, 860G)
duskps: 150G (1.2%, 13,981G)
Sykper: 100G (0.8%, 100G)
