Final Bets: red - 15 bets for 7,906G (42.7%, x1.34); yellow - 17 bets for 10,599G (57.3%, x0.75)

red bets:
WireLord: 2,105G (26.6%, 2,105G)
SpookyCookieMonster: 1,080G (13.7%, 1,080G)
mpghappiness: 780G (9.9%, 780G)
BirbBrainsBot: 621G (7.9%, 207,247G)
Zeroroute: 600G (7.6%, 600G)
NovaKnight21: 500G (6.3%, 3,665G)
CapnChaos12: 500G (6.3%, 3,647G)
TheMurkGnome: 445G (5.6%, 445G)
SquidgyXom: 300G (3.8%, 2,739G)
Chuckolator: 232G (2.9%, 8,505G)
ZephyrTempest: 224G (2.8%, 87,105G)
mastershango: 200G (2.5%, 350G)
datadrivenbot: 119G (1.5%, 164G)
Heroebal: 100G (1.3%, 3,908G)
Treapvort: 100G (1.3%, 3,616G)

yellow bets:
Lydian_C: 2,400G (22.6%, 75,977G)
HaplessOne: 2,000G (18.9%, 83,476G)
SkylerBunny: 1,077G (10.2%, 1,077G)
reinoe: 1,000G (9.4%, 14,983G)
itzover9001: 728G (6.9%, 728G)
ungabunga_bot: 587G (5.5%, 168,827G)
OmnibotGamma: 500G (4.7%, 12,039G)
Kurtis_E_Flush_: 455G (4.3%, 455G)
Lavatis: 360G (3.4%, 1,508G)
HASTERIOUS: 306G (2.9%, 1,225G)
Pochitchi: 300G (2.8%, 996G)
HaateXIII: 250G (2.4%, 2,068G)
elkydeluxe: 200G (1.9%, 2,008G)
getthemoneyz: 124G (1.2%, 504,056G)
gorgewall: 112G (1.1%, 112G)
ericzubat: 100G (0.9%, 293G)
rjA0zcOQ96: 100G (0.9%, 9,318G)
