Final Bets: green - 11 bets for 4,064G (33.6%, x1.98); yellow - 11 bets for 8,029G (66.4%, x0.51)

green bets:
Aestheta: 763G (18.8%, 763G)
E_Ballard: 600G (14.8%, 600G)
theNGUYENNER: 500G (12.3%, 9,518G)
CT_5_Holy: 453G (11.1%, 453G)
Anethum: 400G (9.8%, 1,894G)
ko2q: 392G (9.6%, 392G)
otakutaylor: 300G (7.4%, 3,915G)
RollingWithNat20: 300G (7.4%, 1,431G)
getthemoneyz: 156G (3.8%, 675,825G)
superneol: 100G (2.5%, 291G)
Jeeboheebo: 100G (2.5%, 1,449G)

yellow bets:
R_Raynos: 2,000G (24.9%, 14,796G)
Phytik: 1,377G (17.2%, 12,685G)
Shakarak: 1,200G (14.9%, 21,028G)
ungabunga_bot: 1,000G (12.5%, 472,543G)
BirbBrainsBot: 1,000G (12.5%, 5,864G)
TheFALLofLindsay: 454G (5.7%, 454G)
Miyokari: 450G (5.6%, 3,995G)
gorgewall: 301G (3.7%, 8,950G)
Tekenu: 120G (1.5%, 120G)
datadrivenbot: 100G (1.2%, 13,499G)
roqqqpsi: 27G (0.3%, 1,389G)
