Final Bets: black - 19 bets for 12,606G (64.8%, x0.54); brown - 6 bets for 6,850G (35.2%, x1.84)

black bets:
Shakarak: 2,000G (15.9%, 18,435G)
leakimiko: 1,800G (14.3%, 61,679G)
Ungaiii: 1,170G (9.3%, 1,170G)
Phytik: 1,074G (8.5%, 13,386G)
rechaun: 1,013G (8.0%, 1,013G)
BirbBrainsBot: 1,000G (7.9%, 5,142G)
E_Ballard: 898G (7.1%, 1,796G)
ko2q: 722G (5.7%, 722G)
YaBoy125: 707G (5.6%, 707G)
RollingWithNat20: 518G (4.1%, 1,036G)
megaman2202: 416G (3.3%, 416G)
Miyokari: 350G (2.8%, 3,973G)
gorgewall: 301G (2.4%, 9,031G)
otakutaylor: 200G (1.6%, 3,616G)
gonnhead: 200G (1.6%, 5,417G)
byrdturbo: 111G (0.9%, 6,922G)
datadrivenbot: 100G (0.8%, 13,567G)
roqqqpsi: 18G (0.1%, 933G)
getthemoneyz: 8G (0.1%, 676,092G)

brown bets:
CassiePhoenix: 2,059G (30.1%, 2,059G)
rocl: 2,000G (29.2%, 55,253G)
theNGUYENNER: 1,000G (14.6%, 8,018G)
ungabunga_bot: 991G (14.5%, 474,092G)
NovaKnight21: 700G (10.2%, 10,564G)
Jeeboheebo: 100G (1.5%, 2,312G)
