Final Bets: blue - 11 bets for 4,456G (53.4%, x0.87); brown - 9 bets for 3,882G (46.6%, x1.15)

blue bets:
Lordminsc: 1,384G (31.1%, 2,768G)
BirbBrainsBot: 1,000G (22.4%, 4,142G)
ungabunga_bot: 387G (8.7%, 475,916G)
byrdturbo: 333G (7.5%, 6,811G)
gorgewall: 301G (6.8%, 8,730G)
Miyokari: 250G (5.6%, 3,623G)
roqqqpsi: 201G (4.5%, 915G)
RollingWithNat20: 200G (4.5%, 518G)
theNGUYENNER: 200G (4.5%, 9,858G)
otakutaylor: 100G (2.2%, 3,416G)
datadrivenbot: 100G (2.2%, 13,467G)

brown bets:
rocl: 2,000G (51.5%, 58,934G)
megaman2202: 416G (10.7%, 416G)
ko2q: 392G (10.1%, 392G)
YaBoy125: 384G (9.9%, 384G)
gonnhead: 250G (6.4%, 5,217G)
TheFALLofLindsay: 216G (5.6%, 216G)
Jeeboheebo: 100G (2.6%, 3,496G)
E_Ballard: 100G (2.6%, 898G)
getthemoneyz: 24G (0.6%, 676,084G)
