Final Bets: brown - 8 bets for 4,200G (46.2%, x1.16); champion - 9 bets for 4,885G (53.8%, x0.86)

brown bets:
rocl: 2,000G (47.6%, 61,230G)
Anethum: 992G (23.6%, 992G)
theNGUYENNER: 500G (11.9%, 9,658G)
LordSDB: 308G (7.3%, 308G)
gonnhead: 100G (2.4%, 5,504G)
E_Ballard: 100G (2.4%, 1,013G)
Jeeboheebo: 100G (2.4%, 4,611G)
datadrivenbot: 100G (2.4%, 13,367G)

champion bets:
Lordminsc: 1,384G (28.3%, 1,384G)
ungabunga_bot: 1,000G (20.5%, 475,529G)
BirbBrainsBot: 1,000G (20.5%, 3,142G)
otakutaylor: 500G (10.2%, 3,316G)
RollingWithNat20: 318G (6.5%, 318G)
Miyokari: 250G (5.1%, 3,373G)
getthemoneyz: 248G (5.1%, 676,112G)
roqqqpsi: 157G (3.2%, 714G)
ko2q: 28G (0.6%, 842G)
