Final Bets: yellow - 7 bets for 8,188G (58.3%, x0.72); black - 10 bets for 5,858G (41.7%, x1.40)

yellow bets:
Raixelol: 3,759G (45.9%, 3,759G)
Mesmaster: 2,000G (24.4%, 207,733G)
sinnyil2: 1,200G (14.7%, 121,821G)
DaveStrider55: 829G (10.1%, 829G)
datadrivenbot: 200G (2.4%, 59,752G)
BartTradingCompany: 100G (1.2%, 9,823G)
MemoriesofFinal: 100G (1.2%, 16,913G)

black bets:
mindblownnnn: 1,500G (25.6%, 8,686G)
hotpocketsofficial: 1,221G (20.8%, 1,221G)
BirbBrainsBot: 1,000G (17.1%, 169,849G)
AltimaMantoid: 550G (9.4%, 6,300G)
Ogema_theDream: 532G (9.1%, 532G)
threedope: 509G (8.7%, 509G)
Rune339: 300G (5.1%, 3,825G)
AllInBot: 100G (1.7%, 100G)
gingerfoo69: 100G (1.7%, 839G)
getthemoneyz: 46G (0.8%, 1,948,750G)
