Final Bets: purple - 15 bets for 11,034G (33.0%, x2.03); brown - 28 bets for 22,447G (67.0%, x0.49)

purple bets:
CT_5_Holy: 2,553G (23.1%, 2,553G)
Baron_von_Scrub: 1,111G (10.1%, 99,018G)
Fenrislfr: 1,085G (9.8%, 10,853G)
Aldrammech: 1,000G (9.1%, 53,485G)
OmnibotGamma: 1,000G (9.1%, 25,026G)
SkylerBunny: 1,000G (9.1%, 46,376G)
braumbles: 778G (7.1%, 15,574G)
TheChainNerd: 512G (4.6%, 512G)
TheMM42: 500G (4.5%, 18,286G)
Breakdown777: 500G (4.5%, 28,476G)
roofiepops: 440G (4.0%, 21,059G)
nifboy: 255G (2.3%, 5,114G)
FoeSquirrel: 100G (0.9%, 3,185G)
FriendSquirrel: 100G (0.9%, 20,401G)
mexskacin: 100G (0.9%, 5,014G)

brown bets:
HASTERIOUS: 4,038G (18.0%, 18,356G)
HaateXIII: 2,500G (11.1%, 23,329G)
HaplessOne: 1,500G (6.7%, 74,654G)
DustBirdEX: 1,003G (4.5%, 24,003G)
volgrathemoose: 1,001G (4.5%, 155,374G)
MantisFinch: 1,000G (4.5%, 41,106G)
ungabunga_bot: 1,000G (4.5%, 174,850G)
getthemoneyz: 1,000G (4.5%, 516,048G)
BirbBrainsBot: 1,000G (4.5%, 3,502G)
lijarkh: 1,000G (4.5%, 14,574G)
NoNotBees: 1,000G (4.5%, 15,198G)
Shalloween: 800G (3.6%, 59,441G)
Mtueni: 500G (2.2%, 291,758G)
Tougou: 500G (2.2%, 40,057G)
catfashions: 500G (2.2%, 23,639G)
OneHundredFists: 500G (2.2%, 1,678G)
Lavatis: 500G (2.2%, 10,980G)
ZephyrTempest: 499G (2.2%, 153,936G)
SwaffleWaffles: 463G (2.1%, 15,447G)
SquidgyXom: 400G (1.8%, 13,237G)
waterwatereverywhere: 372G (1.7%, 372G)
TheGuesty: 350G (1.6%, 12,049G)
Lanshaft: 328G (1.5%, 5,013G)
OtherBrand: 244G (1.1%, 244G)
DrAntiSocial: 133G (0.6%, 7,039G)
Tekenu: 116G (0.5%, 116G)
DeathTaxesAndAnime: 100G (0.4%, 20,613G)
datadrivenbot: 100G (0.4%, 571G)
