Final Bets: green - 10 bets for 4,275G (31.0%, x2.23); yellow - 13 bets for 9,530G (69.0%, x0.45)

green bets:
rechaun: 1,326G (31.0%, 1,326G)
megaman2202: 500G (11.7%, 5,388G)
BirbBrainsBot: 492G (11.5%, 191,812G)
JackOnFire1: 454G (10.6%, 454G)
Willjin: 400G (9.4%, 15,857G)
DrAntiSocial: 352G (8.2%, 352G)
getthemoneyz: 320G (7.5%, 498,061G)
CassiePhoenix: 260G (6.1%, 260G)
Tithonus: 100G (2.3%, 4,683G)
SwaffleWaffles: 71G (1.7%, 1,424G)

yellow bets:
YaBoy125: 1,719G (18.0%, 3,371G)
HASTERIOUS: 1,548G (16.2%, 1,548G)
leakimiko: 1,017G (10.7%, 1,017G)
kai_shee: 1,001G (10.5%, 150,847G)
ColetteMSLP: 1,000G (10.5%, 22,668G)
Zetchryn: 1,000G (10.5%, 15,531G)
HeroponThrawn: 947G (9.9%, 947G)
datadrivenbot: 347G (3.6%, 348G)
Lanshaft: 304G (3.2%, 1,448G)
Dexsana: 272G (2.9%, 272G)
ungabunga_bot: 225G (2.4%, 161,593G)
lastly: 100G (1.0%, 1,131G)
Roelath: 50G (0.5%, 100G)
