Final Bets: white - 20 bets for 15,455G (63.7%, x0.57); black - 12 bets for 8,818G (36.3%, x1.75)

white bets:
roofiepops: 3,397G (22.0%, 3,397G)
EnemyController: 3,333G (21.6%, 1,809,441G)
CorpusCav: 1,400G (9.1%, 40,427G)
Mushufasa_: 1,234G (8.0%, 17,299G)
Lord_Gwarth: 1,054G (6.8%, 1,054G)
HorusTaurus: 1,000G (6.5%, 14,942G)
lowlf: 676G (4.4%, 3,682G)
Nizaha: 672G (4.3%, 14,406G)
dogsandcatsand: 556G (3.6%, 4,461G)
Wonser: 416G (2.7%, 813G)
CapnChaos12: 300G (1.9%, 10,758G)
tripaplex: 288G (1.9%, 288G)
mizzmoonshine: 212G (1.4%, 212G)
AllInBot: 200G (1.3%, 200G)
datadrivenbot: 200G (1.3%, 81,040G)
yagyuudarkness: 116G (0.8%, 116G)
gorgewall: 101G (0.7%, 4,819G)
nhammen: 100G (0.6%, 2,668G)
heropong: 100G (0.6%, 3,237G)
CosmicTactician: 100G (0.6%, 1,703G)

black bets:
bringmoreknives: 1,000G (11.3%, 6,426G)
BirbBrainsBot: 1,000G (11.3%, 164,499G)
ExplanationMarkWow: 1,000G (11.3%, 36,191G)
Sairentozon7: 1,000G (11.3%, 85,303G)
JumbocactuarX27: 1,000G (11.3%, 2,895G)
getthemoneyz: 878G (10.0%, 2,204,214G)
killth3kid: 840G (9.5%, 33,804G)
Snowfats: 500G (5.7%, 57,859G)
2b_yorha_b: 500G (5.7%, 39,734G)
EvilLego6: 500G (5.7%, 28,815G)
technominari: 500G (5.7%, 87,498G)
maakur_: 100G (1.1%, 2,482G)
