Final Bets: blue - 14 bets for 10,022G (50.4%, x0.98); yellow - 14 bets for 9,850G (49.6%, x1.02)

blue bets:
ko2q: 4,001G (39.9%, 8,002G)
Snowfats: 1,000G (10.0%, 58,735G)
HorusTaurus: 1,000G (10.0%, 13,942G)
lowlf: 676G (6.7%, 2,330G)
dogsandcatsand: 556G (5.5%, 3,349G)
AllInBot: 527G (5.3%, 527G)
Wonser: 416G (4.2%, 1,096G)
CorpusCav: 400G (4.0%, 41,480G)
KGenjy: 350G (3.5%, 8,102G)
old_overholt_: 300G (3.0%, 48,134G)
TheBrett: 296G (3.0%, 19,318G)
datadrivenbot: 200G (2.0%, 81,167G)
NicoSavoy: 200G (2.0%, 2,091G)
SensualOnix: 100G (1.0%, 264G)

yellow bets:
EnemyController: 1,766G (17.9%, 1,802,775G)
DavenIII: 1,525G (15.5%, 3,050G)
BirbBrainsBot: 1,000G (10.2%, 165,252G)
ExplanationMarkWow: 1,000G (10.2%, 36,944G)
killth3kid: 840G (8.5%, 36,650G)
Thyrandaal: 804G (8.2%, 804G)
KasugaiRoastedPeas: 556G (5.6%, 556G)
Galeronis: 543G (5.5%, 543G)
technominari: 500G (5.1%, 89,192G)
2b_yorha_b: 500G (5.1%, 40,110G)
CapnChaos12: 300G (3.0%, 10,949G)
tripaplex: 288G (2.9%, 288G)
getthemoneyz: 128G (1.3%, 2,205,553G)
maakur_: 100G (1.0%, 2,821G)
