Final Bets: purple - 18 bets for 7,608G (13.2%, x6.57); brown - 12 bets for 50,014G (86.8%, x0.15)

purple bets:
BirbBrainsBot: 1,000G (13.1%, 8,014G)
Shalloween: 800G (10.5%, 17,353G)
dogsandcatsand: 740G (9.7%, 740G)
fenaen: 628G (8.3%, 16,049G)
Phi_Sig: 555G (7.3%, 12,499G)
ExplanationMarkWow: 500G (6.6%, 7,316G)
Lord_Gwarth: 500G (6.6%, 3,854G)
joewcarson: 500G (6.6%, 4,003G)
getthemoneyz: 414G (5.4%, 2,097,706G)
nhammen: 400G (5.3%, 400G)
MemoriesofFinal: 312G (4.1%, 312G)
TakzSeason: 250G (3.3%, 3,489G)
CosmicTactician: 200G (2.6%, 38,412G)
wiznaibusthis: 200G (2.6%, 2,729G)
SQUiDSQUARKLIN: 200G (2.6%, 3,636G)
Twisted_Nutsatchel: 172G (2.3%, 172G)
Genkidou: 125G (1.6%, 1,662G)
MoonSugarFiend: 112G (1.5%, 1,043G)

brown bets:
AllInBot: 41,040G (82.1%, 41,040G)
latebit: 3,745G (7.5%, 7,345G)
CorpusCav: 1,200G (2.4%, 19,331G)
resjudicata3: 1,169G (2.3%, 2,293G)
krombobreaker: 1,000G (2.0%, 34,541G)
silentkaster: 755G (1.5%, 24,593G)
Smokegiant: 252G (0.5%, 252G)
escobro: 252G (0.5%, 5,724G)
datadrivenbot: 200G (0.4%, 76,303G)
DocSTN: 200G (0.4%, 1,295G)
gorgewall: 101G (0.2%, 4,762G)
king_smashington: 100G (0.2%, 21,689G)
