Final Bets: red - 8 bets for 5,935G (22.5%, x3.45); blue - 28 bets for 20,479G (77.5%, x0.29)

red bets:
DeathTaxesAndAnime: 1,770G (29.8%, 3,471G)
OneHundredFists: 1,738G (29.3%, 3,409G)
Laserman1000: 1,000G (16.8%, 1,000G)
Willjin: 576G (9.7%, 576G)
killth3kid: 500G (8.4%, 35,789G)
let_them_eat_the_rich: 151G (2.5%, 151G)
BartTradingCompany: 100G (1.7%, 7,822G)
MemoriesofFinal: 100G (1.7%, 7,874G)

blue bets:
Shalloween: 7,945G (38.8%, 15,890G)
CorpusCav: 2,000G (9.8%, 10,695G)
resjudicata3: 1,261G (6.2%, 1,261G)
BirbBrainsBot: 1,000G (4.9%, 142,097G)
getthemoneyz: 1,000G (4.9%, 1,940,419G)
reinoe: 1,000G (4.9%, 17,658G)
Zagorsek: 845G (4.1%, 845G)
mirapoix: 700G (3.4%, 3,182G)
roofiepops: 574G (2.8%, 574G)
hotpocketsofficial: 555G (2.7%, 555G)
Oreo_Pizza: 500G (2.4%, 251,438G)
Neech: 308G (1.5%, 912G)
ValensEXP_: 296G (1.4%, 9,003G)
Regular_Obbi: 252G (1.2%, 252G)
RonaldoTheGypsy: 250G (1.2%, 3,486G)
Zerguzen: 244G (1.2%, 244G)
Vikera: 232G (1.1%, 232G)
Chaide: 212G (1.0%, 212G)
silentkaster: 201G (1.0%, 2,586G)
datadrivenbot: 200G (1.0%, 58,374G)
mrfripps: 200G (1.0%, 11,808G)
MoonSugarFiend: 182G (0.9%, 1,824G)
J_52: 121G (0.6%, 6,931G)
AllInBot: 100G (0.5%, 100G)
FrozenFelid: 100G (0.5%, 9,555G)
Zeusjuicy: 100G (0.5%, 2,271G)
miso_gang: 100G (0.5%, 100G)
latebit: 1G (0.0%, 1,324G)
