Final Bets: green - 17 bets for 6,533G (48.7%, x1.05); yellow - 15 bets for 6,888G (51.3%, x0.95)

green bets:
Raixelol: 1,000G (15.3%, 23,474G)
Lord_Gwarth: 888G (13.6%, 888G)
killth3kid: 664G (10.2%, 11,566G)
douchetron: 600G (9.2%, 600G)
Phi_Sig: 555G (8.5%, 145,799G)
dogsandcatsand: 516G (7.9%, 516G)
maximumcrit: 500G (7.7%, 7,050G)
TheDeeyo: 500G (7.7%, 1,169G)
Lillifen: 200G (3.1%, 200G)
datadrivenbot: 200G (3.1%, 56,809G)
peeronid: 199G (3.0%, 10,280G)
latebit: 188G (2.9%, 29,965G)
ohhinm: 123G (1.9%, 3,491G)
RuneS_77: 100G (1.5%, 14,715G)
Atot7: 100G (1.5%, 763G)
Wooplestein: 100G (1.5%, 961G)
nhammen: 100G (1.5%, 4,417G)

yellow bets:
BirbBrainsBot: 1,000G (14.5%, 182,648G)
benticore: 1,000G (14.5%, 46,711G)
Forkmore: 777G (11.3%, 10,360G)
AllInBot: 751G (10.9%, 751G)
JumbocactuarX27: 746G (10.8%, 746G)
E_Ballard: 568G (8.2%, 13,668G)
SephDarkheart: 520G (7.5%, 50,499G)
pplvee1: 476G (6.9%, 9,115G)
DavenIII: 399G (5.8%, 3,999G)
holdenmagronik: 150G (2.2%, 2,165G)
Chuckolator: 101G (1.5%, 17,027G)
MinBetBot: 100G (1.5%, 22,540G)
mpghappiness: 100G (1.5%, 6,000G)
ko2q: 100G (1.5%, 863G)
Tarheels218: 100G (1.5%, 762G)
