Final Bets: red - 23 bets for 13,366G (58.3%, x0.72); blue - 12 bets for 9,577G (41.7%, x1.40)

red bets:
toka222: 1,800G (13.5%, 56,439G)
Jeeboheebo: 1,000G (7.5%, 4,693G)
BirbBrainsBot: 1,000G (7.5%, 25,094G)
Sairentozon7: 1,000G (7.5%, 4,720G)
Rytor: 1,000G (7.5%, 14,902G)
OneHundredFists: 1,000G (7.5%, 7,751G)
Rislyeu: 888G (6.6%, 888G)
Spartan_Paladin: 800G (6.0%, 61,827G)
JumbocactuarX27: 672G (5.0%, 672G)
fenaen: 600G (4.5%, 25,244G)
killth3kid: 500G (3.7%, 13,321G)
letdowncity: 500G (3.7%, 20,401G)
Zeroroute: 500G (3.7%, 500G)
shs_: 500G (3.7%, 13,564G)
getthemoneyz: 314G (2.3%, 870,258G)
CapnChaos12: 300G (2.2%, 25,672G)
Lythe_Caraker: 250G (1.9%, 117,195G)
roqqqpsi: 167G (1.2%, 16,799G)
benticore: 155G (1.2%, 3,102G)
Lydian_C: 120G (0.9%, 12,473G)
Celdia: 100G (0.7%, 366G)
outer_monologue: 100G (0.7%, 3,089G)
Grandlanzer: 100G (0.7%, 8,731G)

blue bets:
DavenIII: 3,792G (39.6%, 7,585G)
YaBoy125: 1,484G (15.5%, 2,969G)
VolgraTheMoose: 1,001G (10.5%, 24,769G)
metagameface: 1,000G (10.4%, 2,292G)
HaateXIII: 904G (9.4%, 904G)
joewcarson: 400G (4.2%, 40,849G)
HASTERIOUS: 346G (3.6%, 6,936G)
CaptainGarlock: 200G (2.1%, 1,568G)
Miku_Shikhu: 150G (1.6%, 9,038G)
RunicMagus: 100G (1.0%, 43,527G)
Error72: 100G (1.0%, 11,841G)
IphoneDarkness: 100G (1.0%, 2,431G)
