Final Bets: green - 12 bets for 4,985G (33.0%, x2.03); brown - 19 bets for 10,121G (67.0%, x0.49)

green bets:
DLJuggernaut: 1,033G (20.7%, 4,132G)
metagameface: 1,000G (20.1%, 5,072G)
Digitalsocrates: 1,000G (20.1%, 13,323G)
killth3kid: 500G (10.0%, 11,985G)
JumbocactuarX27: 340G (6.8%, 340G)
DAC169: 300G (6.0%, 1,422G)
JarlBrolaf: 216G (4.3%, 216G)
roqqqpsi: 196G (3.9%, 19,672G)
Quadh0nk: 100G (2.0%, 1,201G)
Ring_Wyrm: 100G (2.0%, 702G)
outer_monologue: 100G (2.0%, 3,183G)
RuneS_77: 100G (2.0%, 8,669G)

brown bets:
NicoSavoy: 2,200G (21.7%, 2,200G)
nsm013: 1,000G (9.9%, 2,356G)
BirbBrainsBot: 1,000G (9.9%, 30,111G)
Sairentozon7: 1,000G (9.9%, 5,657G)
sinnyil2: 790G (7.8%, 5,197G)
Cryptopsy70: 504G (5.0%, 4,921G)
joewcarson: 501G (5.0%, 41,900G)
Zeroroute: 500G (4.9%, 500G)
SQUiDSQUARKLIN: 500G (4.9%, 3,181G)
CosmicTactician: 500G (4.9%, 14,945G)
Mesmaster: 312G (3.1%, 312G)
Meta_Five: 200G (2.0%, 3,495G)
KasugaiRoastedPeas: 200G (2.0%, 1,365G)
Saldarin: 200G (2.0%, 2,576G)
IphoneDarkness: 200G (2.0%, 2,421G)
getthemoneyz: 194G (1.9%, 869,229G)
Lydian_C: 120G (1.2%, 12,353G)
Celdia: 100G (1.0%, 540G)
CaptainGarlock: 100G (1.0%, 2,457G)
