Final Bets: green - 14 bets for 9,002G (48.1%, x1.08); yellow - 14 bets for 9,696G (51.9%, x0.93)

green bets:
DustBirdEX: 1,793G (19.9%, 1,793G)
NovaKnight21: 1,415G (15.7%, 1,415G)
maximumcrit: 1,405G (15.6%, 1,405G)
Laserman1000: 913G (10.1%, 19,813G)
Aldrammech: 700G (7.8%, 700G)
blorpy_: 623G (6.9%, 7,796G)
SkylerBunny: 580G (6.4%, 580G)
thunderducker: 333G (3.7%, 4,451G)
JonnyCue: 316G (3.5%, 316G)
twelfthrootoftwo: 300G (3.3%, 3,493G)
minorfffanatic1: 200G (2.2%, 200G)
datadrivenbot: 200G (2.2%, 65,822G)
Lydian_C: 123G (1.4%, 16,828G)
gorgewall: 101G (1.1%, 9,075G)

yellow bets:
NicoSavoy: 2,000G (20.6%, 35,094G)
BoneMiser: 1,546G (15.9%, 1,546G)
technominari: 1,000G (10.3%, 76,096G)
BirbBrainsBot: 1,000G (10.3%, 51,354G)
KyleWonToLiveForever: 1,000G (10.3%, 19,929G)
Firesheath: 756G (7.8%, 756G)
getthemoneyz: 582G (6.0%, 1,755,925G)
poorest_hobo: 500G (5.2%, 34,407G)
MemoriesofFinal: 409G (4.2%, 409G)
PuzzleSecretary: 299G (3.1%, 299G)
AllInBot: 203G (2.1%, 203G)
krombobreaker: 200G (2.1%, 1,006G)
3ngag3: 101G (1.0%, 13,801G)
nifboy: 100G (1.0%, 4,156G)
