Final Bets: purple - 13 bets for 8,465G (53.0%, x0.89); brown - 12 bets for 7,509G (47.0%, x1.13)

purple bets:
Aldrammech: 2,020G (23.9%, 2,020G)
maximumcrit: 1,212G (14.3%, 1,212G)
AllInBot: 1,129G (13.3%, 1,129G)
Laserman1000: 900G (10.6%, 18,900G)
E_Ballard: 764G (9.0%, 62,730G)
NovaKnight21: 688G (8.1%, 688G)
PuzzleSecretary: 600G (7.1%, 1,143G)
twelfthrootoftwo: 300G (3.5%, 2,570G)
MemoriesofFinal: 228G (2.7%, 228G)
thunderducker: 200G (2.4%, 2,918G)
datadrivenbot: 200G (2.4%, 65,999G)
Lydian_C: 123G (1.5%, 16,941G)
gorgewall: 101G (1.2%, 9,165G)

brown bets:
NicoSavoy: 2,000G (26.6%, 36,951G)
BirbBrainsBot: 1,000G (13.3%, 54,168G)
Firesheath: 760G (10.1%, 760G)
DustBirdEX: 696G (9.3%, 696G)
SkylerBunny: 580G (7.7%, 580G)
minorfffanatic1: 577G (7.7%, 577G)
3ngag3: 574G (7.6%, 14,074G)
JonnyCue: 316G (4.2%, 316G)
DaveStrider55: 304G (4.0%, 304G)
CapnChaos12: 300G (4.0%, 4,142G)
getthemoneyz: 202G (2.7%, 1,756,997G)
krombobreaker: 200G (2.7%, 992G)
