Final Bets: blue - 12 bets for 6,848G (39.7%, x1.52); yellow - 13 bets for 10,405G (60.3%, x0.66)

blue bets:
SkylerBunny: 1,238G (18.1%, 1,238G)
Lydian_C: 1,200G (17.5%, 16,818G)
BirbBrainsBot: 1,000G (14.6%, 55,295G)
Laserman1000: 800G (11.7%, 18,000G)
Aldrammech: 700G (10.2%, 700G)
NovaKnight21: 688G (10.0%, 688G)
twelfthrootoftwo: 300G (4.4%, 2,270G)
MemoriesofFinal: 228G (3.3%, 228G)
minorfffanatic1: 227G (3.3%, 1,227G)
3ngag3: 221G (3.2%, 14,721G)
datadrivenbot: 200G (2.9%, 65,799G)
getthemoneyz: 46G (0.7%, 1,757,225G)

yellow bets:
BoneMiser: 2,981G (28.6%, 2,981G)
Firesheath: 1,617G (15.5%, 1,617G)
DustBirdEX: 1,481G (14.2%, 1,481G)
thunderducker: 777G (7.5%, 2,718G)
Foamsoldier: 720G (6.9%, 720G)
JonnyCue: 672G (6.5%, 672G)
blorpy_: 528G (5.1%, 6,600G)
maximumcrit: 420G (4.0%, 420G)
lowlf: 408G (3.9%, 8,315G)
PuzzleSecretary: 300G (2.9%, 543G)
krombobreaker: 300G (2.9%, 1,217G)
gorgewall: 101G (1.0%, 9,064G)
AllInBot: 100G (1.0%, 100G)
