Final Bets: yellow - 10 bets for 6,931G (42.9%, x1.33); brown - 11 bets for 9,240G (57.1%, x0.75)

yellow bets:
NicoSavoy: 2,000G (28.9%, 37,206G)
JonnyCue: 1,114G (16.1%, 1,114G)
DustBirdEX: 1,000G (14.4%, 1,925G)
BirbBrainsBot: 1,000G (14.4%, 55,323G)
Firesheath: 760G (11.0%, 760G)
PuzzleSecretary: 300G (4.3%, 510G)
getthemoneyz: 256G (3.7%, 1,756,691G)
datadrivenbot: 200G (2.9%, 65,399G)
krombobreaker: 200G (2.9%, 1,799G)
gorgewall: 101G (1.5%, 9,033G)

brown bets:
HaateXIII: 3,311G (35.8%, 3,311G)
NovaKnight21: 2,012G (21.8%, 2,012G)
Galeronis: 713G (7.7%, 713G)
SkylerBunny: 708G (7.7%, 708G)
AllInBot: 486G (5.3%, 486G)
3ngag3: 462G (5.0%, 15,462G)
maximumcrit: 420G (4.5%, 420G)
thunderducker: 400G (4.3%, 3,870G)
twelfthrootoftwo: 300G (3.2%, 1,970G)
MemoriesofFinal: 228G (2.5%, 228G)
minorfffanatic1: 200G (2.2%, 200G)
