High Risers:
1. Nhammen: +13,272G
2. Forkmore: +12,202G
3. Deathtaxesandanime: +3,765G
4. Dljuggernaut: +3,023G
5. Thyrandaal: +1,420G
6. Jonnycue: +662G
7. Mirapoix: +630G
8. Kasugairoastedpeas: +485G
9. Arcticxc: +310G
10. Onehundredfists: +299G
11. Douchetron: +171G
12. Dogsandcatsand: +161G
13. Lowlf: +155G
14. Hotpocketsofficial: +147G
15. J_macc1991: +133G
16. Skipsandwiches: +99G
17. Ldskinny: +97G
18. Tripaplex: +97G
19. Formerlydrdong: +70G
20. Maakur_: +31G
21. Monkmagnus: +28G
22. J_52: +5G
23. Grishhammer: -45G
24. Gorgewall: -78G
25. Killth3kid: -148G
26. Porotact: -149G
27. Escobro: -200G
28. King_smashington: -203G
29. Daveb_: -230G
30. Cryptopsy70: -263G
31. Mrfripps: -290G
32. Just_here2: -300G
33. Memoriesoffinal: -300G
34. Valensexp_: -317G
35. Yagyuudarkness: -332G
36. Lyner87: -354G
37. Ericzubat: -362G
38. Sairentozon7: -400G
39. Joewcarson: -400G
40. Friendsquirrel: -400G
41. Latebit: -419G
42. Pplvee1: -451G
43. Foragercats: -500G
44. Ribbiks: -500G
45. Cosmictactician: -580G
46. Capnchaos12: -700G
47. Nifboy: -768G
48. Volgrathemoose: -775G
49. Lord_gwarth: -800G
50. Old_overholt_: -838G
51. Bruubarg: -913G
52. E_ballard: -1,000G
53. Firesheath: -1,052G
54. Ser_pyrro: -1,097G
55. Krombobreaker: -1,210G
56. Sephdarkheart: -1,356G
57. Seppu777: -1,399G
58. Colettemslp: -1,400G
59. Corpuscav: -1,712G
60. Laserman1000: -2,200G
61. Popslive: -2,560G
62. Chuckolator: -3,236G
63. Fattunaking: -5,900G
64. Musashi45: -8,337G
