Final Bets: white - 13 bets for 6,940G (40.0%, x1.50); black - 15 bets for 10,420G (60.0%, x0.67)

white bets:
LivingHitokiri: 2,000G (28.8%, 45,462G)
getthemoneyz: 1,000G (14.4%, 1,954,333G)
BirbBrainsBot: 1,000G (14.4%, 2,919G)
ser_pyrro: 1,000G (14.4%, 17,797G)
DavenIII: 578G (8.3%, 1,157G)
robespyah: 275G (4.0%, 275G)
Lord_Gwarth: 250G (3.6%, 3,204G)
grishhammer: 236G (3.4%, 1,139G)
Lyner87: 200G (2.9%, 104,062G)
gongonono: 200G (2.9%, 2,200G)
AllInBot: 100G (1.4%, 100G)
nhammen: 100G (1.4%, 362,555G)
latebit: 1G (0.0%, 7,082G)

black bets:
LDSkinny: 4,161G (39.9%, 8,322G)
BlackAceBB: 1,443G (13.8%, 1,443G)
Sairentozon7: 1,000G (9.6%, 31,846G)
bruubarg: 600G (5.8%, 600G)
pepperbuster: 500G (4.8%, 32,436G)
run_with_stone_GUNs: 408G (3.9%, 12,192G)
skipsandwiches: 408G (3.9%, 16,814G)
CosmicTactician: 400G (3.8%, 28,824G)
MemoriesofFinal: 300G (2.9%, 25,339G)
resjudicata3: 300G (2.9%, 10,509G)
Smashy: 300G (2.9%, 300G)
Mushufasa_: 200G (1.9%, 21,559G)
datadrivenbot: 200G (1.9%, 65,058G)
BartTradingCompany: 100G (1.0%, 10,121G)
RunicMagus: 100G (1.0%, 13,912G)
