Final Bets: green - 9 bets for 4,623G (23.4%, x3.28); champion - 13 bets for 15,171G (76.6%, x0.30)

green bets:
pplvee1: 1,549G (33.5%, 1,549G)
Thyrandaal: 1,000G (21.6%, 69,194G)
BirbBrainsBot: 936G (20.2%, 161,419G)
LASERJESUS1337: 300G (6.5%, 300G)
getthemoneyz: 230G (5.0%, 1,781,783G)
gongonono: 200G (4.3%, 7,139G)
LeoNightFury: 200G (4.3%, 200G)
Sir_Jim_0f_Slim: 108G (2.3%, 108G)
HS39: 100G (2.2%, 1,496G)

champion bets:
Willjin: 5,000G (33.0%, 124,500G)
DavenIII: 4,000G (26.4%, 21,371G)
Leonidusx: 2,000G (13.2%, 16,784G)
Error72: 1,001G (6.6%, 48,204G)
roqqqpsi: 666G (4.4%, 2,667G)
SephDarkheart: 600G (4.0%, 177,171G)
mirapoix: 600G (4.0%, 600G)
MemoriesofFinal: 345G (2.3%, 1,633G)
Raixelol: 332G (2.2%, 2,997G)
HentaiWriter: 220G (1.5%, 220G)
datadrivenbot: 200G (1.3%, 57,420G)
fluffywormhole: 106G (0.7%, 5,332G)
gorgewall: 101G (0.7%, 2,202G)
