Final Bets: blue - 18 bets for 7,503G (41.3%, x1.42); green - 20 bets for 10,665G (58.7%, x0.70)

blue bets:
upvla: 1,219G (16.2%, 50,169G)
HaplessOne: 1,000G (13.3%, 92,759G)
shs_: 923G (12.3%, 923G)
Evewho: 689G (9.2%, 689G)
YaBoy125: 588G (7.8%, 588G)
HRak050: 458G (6.1%, 458G)
Langrisser: 418G (5.6%, 418G)
luminarii: 366G (4.9%, 9,926G)
AnthraX85: 303G (4.0%, 1,011G)
Nocturnal_Perspective: 300G (4.0%, 5,346G)
bad1dea: 300G (4.0%, 54,519G)
DrAntiSocial: 240G (3.2%, 3,354G)
ZephyrTempest: 205G (2.7%, 27,408G)
zepi_zza: 100G (1.3%, 6,111G)
ApplesauceBoss: 100G (1.3%, 5,947G)
bluuuuuuuh: 100G (1.3%, 919G)
Chompie: 100G (1.3%, 8,321G)
BirbBrainsBot: 94G (1.3%, 249,849G)

green bets:
leakimiko: 1,381G (12.9%, 27,628G)
coledot_: 1,221G (11.4%, 4,070G)
urieltheflameofgod: 1,194G (11.2%, 1,194G)
Arunic: 1,000G (9.4%, 9,606G)
Shalloween: 963G (9.0%, 963G)
reinoe: 576G (5.4%, 576G)
AllInBot: 545G (5.1%, 545G)
ForagerCats: 527G (4.9%, 527G)
loveyouallfriends: 500G (4.7%, 12,958G)
EnemyController: 500G (4.7%, 22,733G)
roofiepops: 400G (3.8%, 5,599G)
getthemoneyz: 398G (3.7%, 444,154G)
SkylerBunny: 336G (3.2%, 336G)
electric_glass: 272G (2.6%, 272G)
JackOnFire1: 227G (2.1%, 227G)
ugoplatamia: 200G (1.9%, 6,664G)
b0shii: 200G (1.9%, 598G)
datadrivenbot: 100G (0.9%, 21,308G)
JudgeSkrapz: 75G (0.7%, 2,084G)
ungabunga_bot: 50G (0.5%, 53,334G)
