Final Bets: green - 11 bets for 7,595G (37.8%, x1.65); black - 14 bets for 12,497G (62.2%, x0.61)

green bets:
NicoSavoy: 2,820G (37.1%, 2,820G)
BirbBrainsBot: 1,000G (13.2%, 107,136G)
Aldrammech: 905G (11.9%, 905G)
Cryptopsy70: 584G (7.7%, 29,626G)
Belkra: 576G (7.6%, 576G)
killth3kid: 480G (6.3%, 10,559G)
MagicBottle: 424G (5.6%, 424G)
Rilgon: 256G (3.4%, 513G)
benticore: 250G (3.3%, 2,571G)
Avin_Chaos: 200G (2.6%, 9,957G)
datadrivenbot: 100G (1.3%, 49,469G)

black bets:
roqqqpsi: 5,982G (47.9%, 27,193G)
HaychDub: 1,456G (11.7%, 2,913G)
dogsandcatsand: 1,333G (10.7%, 4,972G)
E_Ballard: 604G (4.8%, 604G)
extinctrational: 553G (4.4%, 553G)
jojo2k: 501G (4.0%, 501G)
amiture: 500G (4.0%, 4,405G)
RunicMagus: 400G (3.2%, 46,014G)
Rurk: 345G (2.8%, 1,644G)
getthemoneyz: 320G (2.6%, 1,008,001G)
CosmicTactician: 200G (1.6%, 16,148G)
BeyondWithinX: 104G (0.8%, 104G)
Firesheath: 100G (0.8%, 2,185G)
daveb_: 99G (0.8%, 2,390G)
