Final Bets: black - 11 bets for 4,900G (30.1%, x2.33); brown - 11 bets for 11,405G (69.9%, x0.43)

black bets:
latebit: 1,000G (20.4%, 3,228G)
reinoe: 1,000G (20.4%, 96,968G)
AllInBot: 726G (14.8%, 726G)
NIghtdew14: 500G (10.2%, 4,139G)
killth3kid: 444G (9.1%, 444G)
Xoomwaffle: 268G (5.5%, 268G)
Treafa: 260G (5.3%, 260G)
gorgewall: 201G (4.1%, 6,200G)
cocoaking09: 201G (4.1%, 1,500G)
datadrivenbot: 200G (4.1%, 31,236G)
Belkra: 100G (2.0%, 2,174G)

brown bets:
Mesmaster: 3,000G (26.3%, 15,939G)
NicoSavoy: 3,000G (26.3%, 233,663G)
VolgraTheMoose: 1,001G (8.8%, 21,940G)
SephDarkheart: 1,000G (8.8%, 57,355G)
BirbBrainsBot: 1,000G (8.8%, 90,798G)
DeathTaxesAndAnime: 732G (6.4%, 732G)
nifboy: 700G (6.1%, 1,400G)
RyanTheRebs: 600G (5.3%, 1,914G)
Blastinus: 200G (1.8%, 1,296G)
dem0nj0ns: 100G (0.9%, 4,462G)
getthemoneyz: 72G (0.6%, 1,325,788G)
