High Risers:
1. Rytor: +7,438G
2. Ruleof5: +5,044G
3. Nifboy: +4,253G
4. Upvla: +2,368G
5. Sephdarkheart: +549G
6. Memoriesoffinal: +204G
7. Error72: +84G
8. Genkidou: -38G
9. Cassiephoenix: -43G
10. Actual_jp: -100G
11. Ar_tactic: -130G
12. Aly327: -300G
13. Grininda: -300G
14. Reddwind_: -300G
15. Arumz: -341G
16. Raixelol: -689G
17. Hasterious: -800G
18. E_ballard: -1,000G
19. Deathtaxesandanime: -1,000G
20. 3ngag3: -1,456G
21. Shalloween: -2,054G
22. Fattunaking: -4,954G
23. Twisted_nutsatchel: -6,571G
24. Mesmaster: -7,000G
25. Hotpocketsofficial: -8,707G
