Final Bets: red - 32 bets for 16,273G (52.2%, x0.92); yellow - 30 bets for 14,895G (47.8%, x1.09)

red bets:
Mtueni: 5,000G (30.7%, 133,770G)
omegasuspekt: 1,828G (11.2%, 3,656G)
Lodrak: 1,001G (6.2%, 13,440G)
OmnibotGamma: 1,000G (6.1%, 7,626G)
z32o: 998G (6.1%, 998G)
Bahamut64: 863G (5.3%, 863G)
UmaiJam: 580G (3.6%, 5,806G)
RurouniGeo: 500G (3.1%, 2,226G)
Scotobot: 410G (2.5%, 410G)
deesignal: 400G (2.5%, 1,043G)
Axelrod: 327G (2.0%, 6,548G)
gameman733: 300G (1.8%, 1,621G)
DustBirdEX: 284G (1.7%, 284G)
Zetchryn: 276G (1.7%, 276G)
Bulleta: 240G (1.5%, 240G)
evdoggity: 236G (1.5%, 236G)
tevoul: 214G (1.3%, 4,285G)
KasugaiRoastedPeas: 200G (1.2%, 36,309G)
cheezybuda: 200G (1.2%, 2,250G)
RyuTsuno: 200G (1.2%, 3,756G)
SealPoulpe: 200G (1.2%, 200G)
Zagorsek: 100G (0.6%, 279,146G)
oogthecaveman: 100G (0.6%, 2,637G)
maakur_: 100G (0.6%, 64,341G)
Nizaha: 100G (0.6%, 3,982G)
BadBlanket: 100G (0.6%, 3,137G)
datadrivenbot: 100G (0.6%, 12,254G)
nofreewill: 100G (0.6%, 600G)
Chompie: 100G (0.6%, 2,134G)
astrozin11: 100G (0.6%, 11,019G)
halnco: 100G (0.6%, 941G)
getthemoneyz: 16G (0.1%, 346,827G)

yellow bets:
DaveStrider55: 1,394G (9.4%, 1,394G)
rockmem21: 1,300G (8.7%, 2,600G)
MantisFinch: 1,288G (8.6%, 2,577G)
SkylerBunny: 1,000G (6.7%, 74,696G)
BirbBrainsBot: 1,000G (6.7%, 187,153G)
bad1dea: 1,000G (6.7%, 180,219G)
Lord_Burrah: 1,000G (6.7%, 73,947G)
J2DaBibbles: 800G (5.4%, 6,280G)
BenYuPoker: 528G (3.5%, 528G)
Zeroroute: 500G (3.4%, 500G)
genoguy: 500G (3.4%, 18,305G)
RunicMagus: 500G (3.4%, 23,104G)
I_nod_my_head_when_I_lose: 500G (3.4%, 14,589G)
JIDkomu: 500G (3.4%, 9,998G)
HaplessOne: 500G (3.4%, 12,572G)
mirapoix: 384G (2.6%, 384G)
anachronity: 315G (2.1%, 315G)
fenixcrest: 298G (2.0%, 5,978G)
TheGuesty: 250G (1.7%, 2,000G)
ZephyrTempest: 238G (1.6%, 12,026G)
Oshimi12: 200G (1.3%, 1,845G)
carchan131: 100G (0.7%, 2,258G)
VentoLivre: 100G (0.7%, 608G)
Gr33nFlashlight: 100G (0.7%, 225G)
CorpusCav: 100G (0.7%, 1,527G)
dreadnxught: 100G (0.7%, 1,881G)
silentperogy: 100G (0.7%, 3,722G)
madman_clinton: 100G (0.7%, 783G)
Jeardra: 100G (0.7%, 904G)
DejaPoo21: 100G (0.7%, 20,519G)
