Final Bets: blue - 21 bets for 17,288G (53.3%, x0.88); yellow - 17 bets for 15,131G (46.7%, x1.14)

blue bets:
Sairentozon7: 4,422G (25.6%, 4,422G)
VolgraTheMoose: 3,592G (20.8%, 7,184G)
ThePineappleSalesman: 2,297G (13.3%, 2,297G)
Rislyeu: 1,448G (8.4%, 1,448G)
Lydian_C: 1,200G (6.9%, 13,814G)
BirbBrainsBot: 1,000G (5.8%, 174,310G)
Thyrandaal: 1,000G (5.8%, 6,302G)
killth3kid: 500G (2.9%, 17,834G)
KyleWonToLiveForever: 407G (2.4%, 407G)
d4rr1n: 272G (1.6%, 272G)
Flameatron: 200G (1.2%, 548G)
E_Ballard: 100G (0.6%, 5,192G)
lastly: 100G (0.6%, 12,357G)
Celdia: 100G (0.6%, 4,589G)
moocaotao: 100G (0.6%, 1,312G)
GrayGhostGaming: 100G (0.6%, 7,558G)
cogniv0r3: 100G (0.6%, 1,968G)
Ring_Wyrm: 100G (0.6%, 1,093G)
datadrivenbot: 100G (0.6%, 35,252G)
BruddaShrine: 100G (0.6%, 1,097G)
IphoneDarkness: 50G (0.3%, 1,075G)

yellow bets:
DeathTaxesAndAnime: 3,382G (22.4%, 6,632G)
dogsandcatsand: 2,000G (13.2%, 2,000G)
YaBoy125: 1,655G (10.9%, 1,655G)
argentbast: 1,583G (10.5%, 1,583G)
maakur_: 1,152G (7.6%, 1,152G)
Breakdown777: 1,001G (6.6%, 20,032G)
SkylerBunny: 1,000G (6.6%, 115,627G)
nifboy: 608G (4.0%, 608G)
EnemyController: 500G (3.3%, 558,516G)
Riot_Jayway: 500G (3.3%, 226,631G)
Sans_from_Snowdin: 440G (2.9%, 440G)
LordSDB: 400G (2.6%, 1,339G)
joewcarson: 300G (2.0%, 34,275G)
Pyre_Pyre: 250G (1.7%, 9,021G)
CaptainGarlock: 200G (1.3%, 1,162G)
Evewho: 100G (0.7%, 7,810G)
getthemoneyz: 60G (0.4%, 843,378G)
