Final Bets: green - 9 bets for 3,862G (38.5%, x1.60); brown - 12 bets for 6,179G (61.5%, x0.63)

green bets:
SkyridgeZero: 1,500G (38.8%, 39,784G)
lowlf: 1,221G (31.6%, 103,057G)
superdevon1: 316G (8.2%, 316G)
roqqqpsi: 224G (5.8%, 22,455G)
gorgewall: 201G (5.2%, 27,620G)
Quadh0nk: 100G (2.6%, 5,970G)
Armorgames1: 100G (2.6%, 100G)
Neo_Exodus: 100G (2.6%, 4,684G)
datadrivenbot: 100G (2.6%, 46,445G)

brown bets:
Tithonus: 1,081G (17.5%, 1,081G)
Who_lio42: 1,000G (16.2%, 14,712G)
BirbBrainsBot: 1,000G (16.2%, 85,222G)
Arcblazer23: 1,000G (16.2%, 8,328G)
prince_rogers_nelson_: 600G (9.7%, 600G)
LAGBOT30000: 300G (4.9%, 4,615G)
twelfthrootoftwo: 300G (4.9%, 13,138G)
Lemonjohns: 236G (3.8%, 236G)
Klednar21: 200G (3.2%, 616G)
PrancesWithWolves: 200G (3.2%, 200G)
getthemoneyz: 162G (2.6%, 1,091,390G)
Firesheath: 100G (1.6%, 14,850G)
