Final Bets: white - 19 bets for 7,346G (52.2%, x0.91); purple - 16 bets for 6,717G (47.8%, x1.09)

white bets:
Shalloween: 1,300G (17.7%, 67,880G)
HaplessOne: 1,111G (15.1%, 184,393G)
BirbBrainsBot: 979G (13.3%, 172,857G)
HaateXIII: 750G (10.2%, 47,203G)
Laserman1000: 703G (9.6%, 52,603G)
JumbocactuarX27: 500G (6.8%, 3,126G)
R_Raynos: 348G (4.7%, 348G)
gorgewall: 300G (4.1%, 3,194G)
ANFz: 252G (3.4%, 22,701G)
KasugaiRoastedPeas: 200G (2.7%, 3,372G)
avathesunqueen: 129G (1.8%, 129G)
skuldar: 124G (1.7%, 124G)
ZephyrTempest: 101G (1.4%, 187,295G)
twelfthrootoftwo: 100G (1.4%, 8,503G)
DeathTaxesAndAnime: 100G (1.4%, 5,581G)
tmo50x: 100G (1.4%, 7,182G)
Legitimized: 100G (1.4%, 30,115G)
ZZ_Yoshi: 99G (1.3%, 71,910G)
smurphy000000: 50G (0.7%, 544G)

purple bets:
WireLord: 2,000G (29.8%, 30,231G)
ungabunga_bot: 918G (13.7%, 246,373G)
alrightbye: 761G (11.3%, 38,071G)
TheRylander: 500G (7.4%, 3,993G)
XalSmellsBad: 500G (7.4%, 17,520G)
DLJuggernaut: 400G (6.0%, 10,865G)
getthemoneyz: 264G (3.9%, 579,429G)
TheMurkGnome: 236G (3.5%, 23,638G)
LivingHitokiri: 200G (3.0%, 6,063G)
Realitydown: 200G (3.0%, 757G)
DonCardenio: 200G (3.0%, 4,082G)
Fenrislfr: 188G (2.8%, 188G)
RunicMagus: 100G (1.5%, 67,039G)
GarbagePhoenix: 100G (1.5%, 2,260G)
datadrivenbot: 100G (1.5%, 1,261G)
b0shii: 50G (0.7%, 8,043G)
