Final Bets: blue - 19 bets for 8,480G (38.9%, x1.57); white - 14 bets for 13,300G (61.1%, x0.64)

blue bets:
alrightbye: 1,865G (22.0%, 37,310G)
BirbBrainsBot: 1,000G (11.8%, 173,752G)
ungabunga_bot: 715G (8.4%, 245,455G)
Shalloween: 700G (8.3%, 69,069G)
R_Raynos: 666G (7.9%, 666G)
DLJuggernaut: 500G (5.9%, 10,465G)
JumbocactuarX27: 500G (5.9%, 3,583G)
getthemoneyz: 376G (4.4%, 579,165G)
ZZ_Yoshi: 333G (3.9%, 72,001G)
roofiepops: 333G (3.9%, 45,390G)
ANFz: 252G (3.0%, 22,931G)
Estan_AD: 250G (2.9%, 2,771G)
skuldar: 237G (2.8%, 237G)
TheMM42: 200G (2.4%, 11,043G)
Fenrislfr: 152G (1.8%, 152G)
ZephyrTempest: 101G (1.2%, 187,387G)
GarbagePhoenix: 100G (1.2%, 2,160G)
tmo50x: 100G (1.2%, 7,273G)
smurphy000000: 100G (1.2%, 590G)

white bets:
leakimiko: 4,212G (31.7%, 28,081G)
Pie108: 2,000G (15.0%, 115,769G)
HaplessOne: 2,000G (15.0%, 185,409G)
TheMurkGnome: 1,018G (7.7%, 23,402G)
HaateXIII: 750G (5.6%, 47,889G)
Laserman1000: 746G (5.6%, 53,246G)
SQUiDSQUARKLIN: 500G (3.8%, 6,969G)
XalSmellsBad: 500G (3.8%, 17,020G)
TheRylander: 500G (3.8%, 3,493G)
ProdigyAzn: 474G (3.6%, 474G)
ewan_e: 300G (2.3%, 1,433G)
RunicMagus: 100G (0.8%, 66,939G)
DeathTaxesAndAnime: 100G (0.8%, 5,672G)
datadrivenbot: 100G (0.8%, 1,161G)
