Final Bets: black - 13 bets for 9,511G (43.6%, x1.29); purple - 14 bets for 12,316G (56.4%, x0.77)

black bets:
douchetron: 1,983G (20.8%, 3,889G)
DeathTaxesAndAnime: 1,642G (17.3%, 3,221G)
ko2q: 1,000G (10.5%, 29,247G)
Aldrammech: 1,000G (10.5%, 8,405G)
BirbBrainsBot: 1,000G (10.5%, 92,871G)
reinoe: 1,000G (10.5%, 138,066G)
SeniorBunk: 432G (4.5%, 432G)
Pbjellytimez: 378G (4.0%, 378G)
resjudicata3: 280G (2.9%, 280G)
getthemoneyz: 266G (2.8%, 1,556,982G)
Smokegiant: 248G (2.6%, 248G)
CosmicTactician: 200G (2.1%, 5,464G)
CorpusCav: 82G (0.9%, 2,082G)

purple bets:
DustBirdEX: 4,153G (33.7%, 8,307G)
SkylerBunny: 3,000G (24.4%, 294,075G)
Skjodo: 1,801G (14.6%, 1,801G)
superdevon1: 793G (6.4%, 39,685G)
TasisSai: 500G (4.1%, 18,315G)
sinnyil2: 450G (3.7%, 2,299G)
timthehoodie: 300G (2.4%, 548G)
vorap: 271G (2.2%, 271G)
Drusiform: 232G (1.9%, 232G)
Amorial: 216G (1.8%, 216G)
AllInBot: 200G (1.6%, 200G)
silverChangeling: 200G (1.6%, 1,790G)
MinBetBot: 100G (0.8%, 17,001G)
deegelcr: 100G (0.8%, 100G)
