Final Bets: red - 11 bets for 7,518G (30.6%, x2.27); black - 17 bets for 17,087G (69.4%, x0.44)

red bets:
SkylerBunny: 2,500G (33.3%, 291,075G)
reinoe: 2,000G (26.6%, 139,361G)
ko2q: 1,000G (13.3%, 30,542G)
BirbBrainsBot: 1,000G (13.3%, 94,166G)
CorpusCav: 400G (5.3%, 2,188G)
Amorial: 216G (2.9%, 216G)
MinBetBot: 100G (1.3%, 16,901G)
mirapoix: 100G (1.3%, 3,204G)
Aldrammech: 100G (1.3%, 9,700G)
Skjodo: 100G (1.3%, 100G)
getthemoneyz: 2G (0.0%, 1,557,326G)

black bets:
douchetron: 3,293G (19.3%, 6,457G)
Thyrandaal: 3,000G (17.6%, 156,140G)
DeathTaxesAndAnime: 2,726G (16.0%, 5,347G)
DustBirdEX: 1,038G (6.1%, 4,154G)
ColetteMSLP: 1,000G (5.9%, 30,605G)
SeniorBunk: 991G (5.8%, 991G)
Pbjellytimez: 867G (5.1%, 867G)
InOzWeTrust: 811G (4.7%, 811G)
superdevon1: 777G (4.5%, 38,892G)
resjudicata3: 643G (3.8%, 643G)
dogsandcatsand: 532G (3.1%, 1,045G)
TasisSai: 500G (2.9%, 17,815G)
timthehoodie: 276G (1.6%, 276G)
Drusiform: 232G (1.4%, 232G)
AllInBot: 200G (1.2%, 200G)
gorgewall: 101G (0.6%, 2,005G)
deegelcr: 100G (0.6%, 100G)
