Final Bets: green - 22 bets for 12,840G (50.4%, x0.98); yellow - 22 bets for 12,618G (49.6%, x1.02)

green bets:
greghatch: 1,992G (15.5%, 4,472G)
Lodrak: 1,388G (10.8%, 2,777G)
Lord_Burrah: 1,200G (9.3%, 75,800G)
Winterharte: 1,000G (7.8%, 15,029G)
getthemoneyz: 1,000G (7.8%, 355,729G)
rjA0zcOQ96: 960G (7.5%, 960G)
DavenIII: 850G (6.6%, 1,343G)
leakimiko: 677G (5.3%, 13,554G)
fenaen: 615G (4.8%, 1,230G)
rocl: 579G (4.5%, 5,790G)
genoguy: 516G (4.0%, 516G)
Draconis345: 420G (3.3%, 3,175G)
ColetteMSLP: 400G (3.1%, 8,355G)
Pie108: 240G (1.9%, 2,922G)
Baron_von_Scrub: 236G (1.8%, 236G)
SomeCallMeGON: 200G (1.6%, 1,385G)
ko2q: 193G (1.5%, 193G)
AllInBot: 172G (1.3%, 172G)
giantdeathlaser: 100G (0.8%, 6,997G)
datadrivenbot: 100G (0.8%, 15,528G)
daveb_: 1G (0.0%, 2,142G)
RughSontos: 1G (0.0%, 1,561G)

yellow bets:
wackyzachyy: 2,750G (21.8%, 9,789G)
TheChainNerd: 1,000G (7.9%, 8,486G)
BirbBrainsBot: 1,000G (7.9%, 190,416G)
bad1dea: 1,000G (7.9%, 182,174G)
DudeMonkey77: 1,000G (7.9%, 49,772G)
ryokubaka: 895G (7.1%, 895G)
HaplessOne: 891G (7.1%, 18,979G)
Dexef: 555G (4.4%, 6,055G)
Skarthe: 500G (4.0%, 7,821G)
Dothan89: 500G (4.0%, 1,836G)
killth3kid: 500G (4.0%, 19,167G)
luminarii: 294G (2.3%, 10,406G)
DustBirdEX: 292G (2.3%, 292G)
Oshimi12: 220G (1.7%, 220G)
ZephyrTempest: 217G (1.7%, 1,485G)
ricky_ortease: 204G (1.6%, 204G)
Club_Sodar: 200G (1.6%, 504G)
Thed63: 200G (1.6%, 1,116G)
inzo_bettingbot: 100G (0.8%, 1,846G)
mirapoix: 100G (0.8%, 3,682G)
OneHundredFists: 100G (0.8%, 8,925G)
dgeata: 100G (0.8%, 100G)
