Final Bets: yellow - 12 bets for 5,930G (30.6%, x2.26); brown - 20 bets for 13,426G (69.4%, x0.44)

yellow bets:
reinoe: 1,035G (17.5%, 1,035G)
BirbBrainsBot: 1,000G (16.9%, 150,905G)
RaIshtar: 800G (13.5%, 13,422G)
coralreeferz: 742G (12.5%, 742G)
nifboy: 500G (8.4%, 8,646G)
letdowncity: 500G (8.4%, 11,684G)
JumbocactuarX27: 500G (8.4%, 1,799G)
killth3kid: 300G (5.1%, 500G)
tsukiyo2830: 179G (3.0%, 179G)
getthemoneyz: 146G (2.5%, 799,613G)
CamelCash007: 128G (2.2%, 128G)
E_Ballard: 100G (1.7%, 6,147G)

brown bets:
DerangedShadow: 2,241G (16.7%, 4,483G)
roofiepops: 1,400G (10.4%, 6,788G)
DeathTaxesAndAnime: 1,337G (10.0%, 2,623G)
mpghappiness: 1,001G (7.5%, 7,820G)
EnemyController: 1,000G (7.4%, 478,108G)
Saldarin: 966G (7.2%, 966G)
HaychDub: 939G (7.0%, 939G)
powergems: 890G (6.6%, 1,890G)
Nizaha: 501G (3.7%, 14,792G)
HaateXIII: 500G (3.7%, 7,718G)
gogofromtogo: 500G (3.7%, 4,530G)
Belkra: 500G (3.7%, 1,238G)
Polygamic: 400G (3.0%, 1,299G)
Shinzutalos: 381G (2.8%, 381G)
Creggers: 250G (1.9%, 3,007G)
serperemagus: 200G (1.5%, 200G)
Lydian_C: 120G (0.9%, 4,258G)
DustBirdEX: 100G (0.7%, 21,165G)
ko2q: 100G (0.7%, 2,744G)
datadrivenbot: 100G (0.7%, 32,147G)
