Final Bets: yellow - 6 bets for 5,686G (43.2%, x1.31); brown - 16 bets for 7,466G (56.8%, x0.76)

yellow bets:
SkylerBunny: 4,000G (70.3%, 584,703G)
Arcblazer23: 834G (14.7%, 834G)
SuzakuReii: 500G (8.8%, 4,872G)
BStarTV: 132G (2.3%, 132G)
Lydian_C: 120G (2.1%, 153,743G)
OverlordSS4: 100G (1.8%, 4,278G)

brown bets:
braisethelard: 1,246G (16.7%, 1,246G)
BirbBrainsBot: 1,000G (13.4%, 78,702G)
reinoe: 1,000G (13.4%, 27,420G)
Chuckolator: 780G (10.4%, 37,734G)
prince_rogers_nelson_: 600G (8.0%, 600G)
CrownOfHorns: 460G (6.2%, 460G)
getthemoneyz: 420G (5.6%, 1,010,385G)
Meanderandreturn: 400G (5.4%, 2,739G)
gorgewall: 301G (4.0%, 5,998G)
soren_of_tyto: 296G (4.0%, 296G)
Lythe_Caraker: 250G (3.3%, 104,368G)
Zachara: 213G (2.9%, 146,213G)
Evewho: 200G (2.7%, 4,109G)
delcake: 100G (1.3%, 1,061G)
datadrivenbot: 100G (1.3%, 48,952G)
BlackfyreRoy: 100G (1.3%, 3,183G)
