Player: !Blue
Team: Blue Team
Palettes: Blue/Purple



DaKoopa49
Monster
Taurus
72
69
Explosive










OtherBrand
Monster
Leo
48
46
Red Dragon










E Ballard
Monster
Aries
53
75
Floating Eye










Treafa
Male
Taurus
55
41
Oracle
Charge
Damage Split
Secret Hunt
Jump+3

Gokuu Rod

Headgear
Chain Vest
Cursed Ring

Poison, Life Drain, Pray Faith, Silence Song, Dispel Magic
Charge+1, Charge+5, Charge+10
