Final Bets: white - 18 bets for 11,595G (68.9%, x0.45); black - 11 bets for 5,243G (31.1%, x2.21)

white bets:
Shalloween: 2,500G (21.6%, 173,369G)
dogsandcatsand: 1,500G (12.9%, 7,523G)
VolgraTheMoose: 1,139G (9.8%, 2,279G)
BirbBrainsBot: 1,000G (8.6%, 195,517G)
Darius099: 754G (6.5%, 754G)
TheChainNerd: 744G (6.4%, 744G)
DustBirdEX: 636G (5.5%, 1,272G)
Nizaha: 572G (4.9%, 9,907G)
RaIshtar: 500G (4.3%, 8,116G)
randgridr: 464G (4.0%, 464G)
getthemoneyz: 338G (2.9%, 1,338,815G)
CapnChaos12: 300G (2.6%, 13,715G)
Lord_Gwarth: 300G (2.6%, 835G)
Seaweed_B: 248G (2.1%, 248G)
AllInBot: 200G (1.7%, 200G)
datadrivenbot: 200G (1.7%, 33,694G)
Firesheath: 100G (0.9%, 8,004G)
ohhinm: 100G (0.9%, 2,995G)

black bets:
twelfthrootoftwo: 1,089G (20.8%, 1,089G)
Laserman1000: 644G (12.3%, 644G)
E_Ballard: 592G (11.3%, 592G)
DarrenDinosaurs: 500G (9.5%, 7,196G)
Lanshaft: 496G (9.5%, 23,990G)
roofiepops: 492G (9.4%, 492G)
ColetteMSLP: 400G (7.6%, 7,252G)
RageImmortaI: 304G (5.8%, 304G)
Treafa: 287G (5.5%, 288G)
douchetron: 239G (4.6%, 239G)
Skincrawler: 200G (3.8%, 2,257G)
