Final Bets: red - 9 bets for 4,025G (37.0%, x1.71); yellow - 13 bets for 6,866G (63.0%, x0.59)

red bets:
AllInBot: 1,139G (28.3%, 1,139G)
DLJuggernaut: 620G (15.4%, 620G)
krombobreaker: 500G (12.4%, 23,641G)
3ngag3: 424G (10.5%, 10,755G)
CorpusCav: 400G (9.9%, 29,413G)
lijarkh: 312G (7.8%, 312G)
ValensEXP_: 300G (7.5%, 5,174G)
Evewho: 200G (5.0%, 3,454G)
getthemoneyz: 130G (3.2%, 2,126,313G)

yellow bets:
thunderducker: 1,075G (15.7%, 1,075G)
scsuperstar: 1,000G (14.6%, 2,979G)
BirbBrainsBot: 1,000G (14.6%, 123,908G)
nok____: 1,000G (14.6%, 17,546G)
Shalloween: 724G (10.5%, 724G)
NicoSavoy: 524G (7.6%, 524G)
lotharek: 500G (7.3%, 7,061G)
sireaulou: 220G (3.2%, 220G)
resjudicata3: 200G (2.9%, 4,281G)
DuPlatypus: 200G (2.9%, 1,275G)
Yangusburger: 200G (2.9%, 27,676G)
LuckyLuckLuc2: 123G (1.8%, 6,369G)
cloudycube: 100G (1.5%, 3,081G)
