Player: !Green
Team: Green Team
Palettes: Green/White



Sinnyil2
Monster
Scorpio
42
67
Swine










Terofyin
Monster
Sagittarius
58
69
Skeleton










Mayfu
Monster
Libra
46
63
Behemoth










Catfashions
Monster
Taurus
69
48
Steel Giant







