Final Bets: red - 10 bets for 2,277G (17.5%, x4.70); green - 18 bets for 10,709G (82.5%, x0.21)

red bets:
NicoSavoy: 548G (24.1%, 548G)
Chuckolator: 420G (18.4%, 420G)
LadyCyan: 220G (9.7%, 220G)
DeathTaxesAndAnime: 200G (8.8%, 1,924G)
mirapoix: 200G (8.8%, 12,408G)
Evewho: 200G (8.8%, 5,542G)
ValensEXP_: 200G (8.8%, 7,533G)
gorgewall: 101G (4.4%, 6,163G)
maakur_: 100G (4.4%, 2,958G)
getthemoneyz: 88G (3.9%, 2,165,327G)

green bets:
MoonSugarFiend: 2,000G (18.7%, 24,384G)
latebit: 1,200G (11.2%, 19,701G)
CorpusCav: 1,130G (10.6%, 47,850G)
Lord_Gwarth: 1,000G (9.3%, 21,485G)
HorusTaurus: 1,000G (9.3%, 9,533G)
kilrazin: 600G (5.6%, 8,046G)
Rytor: 581G (5.4%, 581G)
Demon_Lord_Josh: 511G (4.8%, 511G)
krombobreaker: 500G (4.7%, 34,567G)
BirbBrainsBot: 401G (3.7%, 77,392G)
Deeps_one: 400G (3.7%, 3,729G)
Zeroroute: 336G (3.1%, 336G)
2b_yorha_b: 250G (2.3%, 9,005G)
AllInBot: 200G (1.9%, 200G)
DuPlatypus: 200G (1.9%, 1,521G)
datadrivenbot: 200G (1.9%, 84,167G)
FE34923: 100G (0.9%, 100G)
heropong: 100G (0.9%, 3,135G)
