Final Bets: red - 13 bets for 9,031G (55.3%, x0.81); champion - 9 bets for 7,296G (44.7%, x1.24)

red bets:
douchetron: 2,323G (25.7%, 4,556G)
Evewho: 1,968G (21.8%, 1,968G)
grininda: 1,000G (11.1%, 5,744G)
twelfthrootoftwo: 652G (7.2%, 652G)
resjudicata3: 644G (7.1%, 644G)
E_Ballard: 624G (6.9%, 624G)
dem0nj0ns: 500G (5.5%, 3,034G)
Lemonjohns: 420G (4.7%, 5,364G)
ruleof5: 300G (3.3%, 15,764G)
CT_5_Holy: 200G (2.2%, 1,413G)
datadrivenbot: 200G (2.2%, 41,040G)
Vultuous: 100G (1.1%, 1,867G)
mirapoix: 100G (1.1%, 41,112G)

champion bets:
UmaiJam: 1,700G (23.3%, 71,250G)
AllInBot: 1,159G (15.9%, 1,159G)
BirbBrainsBot: 1,000G (13.7%, 66,593G)
NovaKnight21: 1,000G (13.7%, 2,627G)
Musclestache: 590G (8.1%, 590G)
renkei_fukai: 574G (7.9%, 574G)
prince_rogers_nelson_: 564G (7.7%, 564G)
getthemoneyz: 508G (7.0%, 1,388,494G)
gorgewall: 201G (2.8%, 10,988G)
