Final Bets: green - 20 bets for 8,197G (47.8%, x1.09); yellow - 15 bets for 8,953G (52.2%, x0.92)

green bets:
HASTERIOUS: 2,000G (24.4%, 74,151G)
JIDkomu: 1,000G (12.2%, 10,431G)
Humble_Fabio: 777G (9.5%, 5,651G)
leakimiko: 575G (7.0%, 11,507G)
Faqs_McGee: 515G (6.3%, 515G)
Riot_Jayway: 500G (6.1%, 171,250G)
waterwatereverywhere: 488G (6.0%, 2,124G)
YoungSax: 465G (5.7%, 465G)
RongRongArts: 435G (5.3%, 435G)
Skarthe: 300G (3.7%, 8,035G)
pathogen7: 200G (2.4%, 1,508G)
ar_tactic: 130G (1.6%, 20,638G)
Zmanwise: 112G (1.4%, 112G)
superbrute9k: 100G (1.2%, 2,324G)
SeedSC: 100G (1.2%, 64,680G)
Treapvort: 100G (1.2%, 4,304G)
zackyap87: 100G (1.2%, 747G)
MajikNinja44: 100G (1.2%, 100G)
datadrivenbot: 100G (1.2%, 12,681G)
BuffaloCrunch: 100G (1.2%, 17,073G)

yellow bets:
kingchadking: 2,000G (22.3%, 34,889G)
KupoKel: 1,500G (16.8%, 9,662G)
BirbBrainsBot: 1,000G (11.2%, 195,109G)
bad1dea: 1,000G (11.2%, 184,047G)
Zetchryn: 1,000G (11.2%, 4,509G)
YaBoy125: 841G (9.4%, 841G)
Chuckolator: 349G (3.9%, 7,041G)
getthemoneyz: 216G (2.4%, 350,488G)
rubenflonne: 200G (2.2%, 2,984G)
Anethum: 200G (2.2%, 12,464G)
ELzukkor: 200G (2.2%, 5,906G)
enders57: 128G (1.4%, 128G)
EODTex: 112G (1.3%, 112G)
lynx1x1: 107G (1.2%, 215G)
Alc_Trinity: 100G (1.1%, 21,930G)
