Final Bets: red - 18 bets for 77,206G (87.2%, x0.15); purple - 19 bets for 11,370G (12.8%, x6.79)

red bets:
kingchadking: 40,827G (52.9%, 40,827G)
Anethum: 17,792G (23.0%, 17,792G)
rechaun: 7,445G (9.6%, 7,445G)
Zetchryn: 5,361G (6.9%, 5,361G)
WireLord: 1,217G (1.6%, 1,217G)
Skarthe: 1,000G (1.3%, 8,090G)
JIDkomu: 1,000G (1.3%, 9,663G)
summmmmmmmmm: 961G (1.2%, 961G)
ungabunga_bot: 350G (0.5%, 1,340G)
Bulleta: 300G (0.4%, 7,405G)
pathogen7: 200G (0.3%, 1,302G)
rubenflonne: 200G (0.3%, 3,480G)
arciusvyse: 120G (0.2%, 120G)
BuffaloCrunch: 100G (0.1%, 17,139G)
superbrute9k: 100G (0.1%, 2,081G)
red_celt: 100G (0.1%, 1,667G)
datadrivenbot: 100G (0.1%, 12,747G)
lynx1x1: 33G (0.0%, 110G)

purple bets:
SeedSC: 2,000G (17.6%, 65,676G)
PotionDweller: 1,500G (13.2%, 11,458G)
YaBoy125: 1,000G (8.8%, 1,611G)
BirbBrainsBot: 1,000G (8.8%, 192,025G)
bad1dea: 1,000G (8.8%, 180,963G)
TheSyffy: 704G (6.2%, 704G)
leakimiko: 606G (5.3%, 12,121G)
z32o: 592G (5.2%, 592G)
mayormcfunbags: 572G (5.0%, 572G)
BenYuPoker: 532G (4.7%, 532G)
Lydian_C: 430G (3.8%, 26,915G)
ELzukkor: 300G (2.6%, 6,503G)
spit8866: 300G (2.6%, 318G)
getthemoneyz: 218G (1.9%, 349,376G)
Maeveen: 200G (1.8%, 5,431G)
EODTex: 116G (1.0%, 116G)
Treapvort: 100G (0.9%, 4,348G)
Basmal: 100G (0.9%, 5,097G)
ar_tactic: 100G (0.9%, 20,718G)
