High Risers:
1. Nhammen: +4,580G
2. Runeseeker22: +2,603G
3. Rislyeu: +1,872G
4. Ericzubat: +1,534G
5. Gooseyourself: +1,532G
6. Smashy: +1,439G
7. Corpuscav: +1,437G
8. Valensexp_: +1,096G
9. Capnchaos12: +1,024G
10. Roofiepops: +923G
11. Sinnyil2: +667G
12. Ribbiks: +411G
13. Resjudicata3: +380G
14. Mushufasa_: +345G
15. Davestrider55: +233G
16. Kilrazin: +162G
17. Upvla: +119G
18. 3ngag3: +106G
19. Zagorsek: +92G
20. Genkidou: +82G
21. Nicosavoy: +39G
22. Z3r0_1: +15G
23. Killth3kid: +4G
24. Latebit: -22G
25. Lyner87: -96G
26. Ibardic: -131G
27. Zbgs: -200G
28. Nok____: -200G
29. Mirapoix: -200G
30. Galkife: -257G
31. Khelor_: -258G
32. Darkestxday: -600G
33. Itsonlyspencer: -652G
34. Rune339: -689G
35. Scsuperstar: -691G
36. Laserman1000: -901G
37. E_ballard: -996G
38. Deathtaxesandanime: -1,000G
39. Shadowninja25: -1,000G
40. Thesabretoothe: -1,000G
41. Firesheath: -1,000G
42. Anfz: -1,097G
43. Gorgewall: -1,149G
44. Colettemslp: -1,179G
45. Lythe_caraker: -1,296G
46. Krombobreaker: -1,965G
47. Thyrandaal: -1,971G
48. Shalloween: -2,521G
49. Sairentozon7: -2,946G
50. Error72: -19,470G
