Final Bets: black - 14 bets for 13,381G (61.4%, x0.63); brown - 13 bets for 8,427G (38.6%, x1.59)

black bets:
Mushufasa_: 7,000G (52.3%, 53,500G)
AllInBot: 1,382G (10.3%, 1,382G)
OneHundredFists: 1,063G (7.9%, 1,063G)
krombobreaker: 700G (5.2%, 18,884G)
killth3kid: 628G (4.7%, 850G)
ericzubat: 509G (3.8%, 27,939G)
Rune339: 473G (3.5%, 4,738G)
Error72: 400G (3.0%, 400G)
ColetteMSLP: 350G (2.6%, 5,198G)
Shalloween: 300G (2.2%, 13,848G)
CapnChaos12: 300G (2.2%, 3,294G)
gorgewall: 101G (0.8%, 2,056G)
Thyrandaal: 100G (0.7%, 108,509G)
roofiepops: 75G (0.6%, 1,454G)

brown bets:
nhammen: 2,000G (23.7%, 268,870G)
BirbBrainsBot: 1,000G (11.9%, 12,323G)
Rislyeu: 1,000G (11.9%, 32,057G)
Runeseeker22: 921G (10.9%, 921G)
CorpusCav: 544G (6.5%, 544G)
ANFz: 516G (6.1%, 516G)
Smashy: 500G (5.9%, 1,833G)
Zagorsek: 464G (5.5%, 464G)
getthemoneyz: 418G (5.0%, 2,031,552G)
DarkestxDay: 400G (4.7%, 400G)
ValensEXP_: 364G (4.3%, 2,980G)
ribbiks: 200G (2.4%, 2,876G)
galkife: 100G (1.2%, 76,359G)
