Final Bets: white - 12 bets for 6,922G (66.7%, x0.50); champion - 13 bets for 3,460G (33.3%, x2.00)

white bets:
VolgraTheMoose: 2,501G (36.1%, 12,681G)
dogsandcatsand: 1,152G (16.6%, 1,152G)
pplvee1: 966G (14.0%, 1,289G)
Vacillents: 566G (8.2%, 566G)
killth3kid: 448G (6.5%, 950G)
TasisSai: 388G (5.6%, 388G)
BirbBrainsBot: 211G (3.0%, 129,452G)
datadrivenbot: 200G (2.9%, 33,166G)
DeathTaxesAndAnime: 190G (2.7%, 2,938G)
Heroebal: 100G (1.4%, 3,050G)
lastly: 100G (1.4%, 33,788G)
Aquios_: 100G (1.4%, 1,086G)

champion bets:
EnemyController: 555G (16.0%, 1,460,263G)
Mudrockk: 500G (14.5%, 862G)
RyanTheRebs: 430G (12.4%, 430G)
boosted420: 430G (12.4%, 430G)
Treafa: 268G (7.7%, 268G)
Monopool: 212G (6.1%, 212G)
AllInBot: 200G (5.8%, 200G)
Legionx13: 200G (5.8%, 4,486G)
upidstupid: 200G (5.8%, 5,351G)
fluffywormhole: 137G (4.0%, 3,436G)
Royal_Ruckus: 136G (3.9%, 136G)
nhammen: 100G (2.9%, 7,660G)
getthemoneyz: 92G (2.7%, 1,332,110G)
