Final Bets: red - 21 bets for 24,645G (70.0%, x0.43); blue - 11 bets for 10,552G (30.0%, x2.34)

red bets:
Zagorsek: 9,300G (37.7%, 18,600G)
ko2q: 2,064G (8.4%, 4,128G)
latebit: 2,000G (8.1%, 24,436G)
foxfaeez: 1,713G (7.0%, 1,713G)
fenaen: 1,032G (4.2%, 1,032G)
pplvee1: 1,000G (4.1%, 7,177G)
BirbBrainsBot: 1,000G (4.1%, 83,709G)
UmaiJam: 1,000G (4.1%, 22,442G)
nhammen: 1,000G (4.1%, 76,408G)
benticore: 1,000G (4.1%, 47,426G)
getthemoneyz: 978G (4.0%, 1,530,926G)
killth3kid: 624G (2.5%, 624G)
SephDarkheart: 472G (1.9%, 472G)
amsans1247: 300G (1.2%, 2,125G)
MLWebz0r: 232G (0.9%, 10,264G)
captainmilestw: 224G (0.9%, 224G)
NewbGaming: 200G (0.8%, 1,598G)
datadrivenbot: 200G (0.8%, 51,392G)
Gunz232323: 112G (0.5%, 112G)
nifboy: 100G (0.4%, 4,423G)
xBizzy: 94G (0.4%, 1,889G)

blue bets:
Forkmore: 3,904G (37.0%, 7,809G)
Rurk: 1,678G (15.9%, 1,678G)
evdoggity: 1,000G (9.5%, 251,812G)
Draconis345: 1,000G (9.5%, 1,878G)
dogsandcatsand: 1,000G (9.5%, 135,175G)
reinoe: 1,000G (9.5%, 68,690G)
ArashiKurobara: 364G (3.4%, 5,628G)
Happy0ni: 250G (2.4%, 750G)
AllInBot: 200G (1.9%, 200G)
resjudicata3: 100G (0.9%, 1,358G)
dtrain332: 56G (0.5%, 5,659G)
