Final Bets: green - 15 bets for 6,795G (29.4%, x2.40); yellow - 18 bets for 16,304G (70.6%, x0.42)

green bets:
prince_rogers_nelson_: 1,792G (26.4%, 1,792G)
datadrivenbot: 646G (9.5%, 36,585G)
TasisSai: 515G (7.6%, 515G)
Whiskybrave: 500G (7.4%, 5,911G)
NIghtdew14: 476G (7.0%, 476G)
TheMurkGnome: 472G (6.9%, 472G)
Aldrammech: 464G (6.8%, 464G)
RunicMagus: 436G (6.4%, 436G)
randgridr: 344G (5.1%, 344G)
Error72: 300G (4.4%, 300G)
RedRiderAyame: 250G (3.7%, 11,175G)
AllInBot: 200G (2.9%, 200G)
alekzanndrr: 200G (2.9%, 299G)
OhEnou: 100G (1.5%, 100G)
Shurgajoe: 100G (1.5%, 982G)

yellow bets:
Xoomwaffle: 3,366G (20.6%, 3,366G)
DamnThatShark: 2,000G (12.3%, 3,867G)
NicoSavoy: 2,000G (12.3%, 195,381G)
reinoe: 2,000G (12.3%, 51,131G)
Seaweed_B: 1,385G (8.5%, 1,385G)
twelfthrootoftwo: 1,070G (6.6%, 2,099G)
BirbBrainsBot: 1,000G (6.1%, 183,668G)
Creggers: 1,000G (6.1%, 58,660G)
Rislyeu: 650G (4.0%, 7,701G)
furrytomahawkk: 495G (3.0%, 495G)
Digitalsocrates: 420G (2.6%, 2,005G)
DustBirdEX: 209G (1.3%, 4,697G)
gorgewall: 201G (1.2%, 2,046G)
CosmicTactician: 200G (1.2%, 41,986G)
nhammen: 100G (0.6%, 12,102G)
Miku_Shikhu: 100G (0.6%, 9,587G)
Kellios11: 100G (0.6%, 29,333G)
getthemoneyz: 8G (0.0%, 1,306,300G)
