Final Bets: white - 27 bets for 13,574G (50.3%, x0.99); champion - 23 bets for 13,410G (49.7%, x1.01)

white bets:
randgridr: 1,260G (9.3%, 1,260G)
LDSkinny: 1,000G (7.4%, 25,523G)
BirbBrainsBot: 1,000G (7.4%, 184,932G)
JumbocactuarX27: 1,000G (7.4%, 42,862G)
NicoSavoy: 1,000G (7.4%, 196,214G)
Rislyeu: 1,000G (7.4%, 10,118G)
RedRiderAyame: 900G (6.6%, 15,944G)
twelfthrootoftwo: 899G (6.6%, 1,763G)
Laserman1000: 740G (5.5%, 28,740G)
ThreeMileIsland: 555G (4.1%, 5,391G)
Smokegiant: 500G (3.7%, 2,717G)
Lanshaft: 488G (3.6%, 17,945G)
TheMurkGnome: 472G (3.5%, 472G)
Aldrammech: 464G (3.4%, 464G)
GatsbysGhost: 400G (2.9%, 4,126G)
benticore: 250G (1.8%, 19,799G)
alekzanndrr: 228G (1.7%, 228G)
gorgewall: 201G (1.5%, 1,429G)
Grandlanzer: 200G (1.5%, 84,294G)
AND4H: 200G (1.5%, 6,670G)
Valdimar_5467: 200G (1.5%, 8,429G)
TasisSai: 171G (1.3%, 336G)
Miku_Shikhu: 100G (0.7%, 9,681G)
Firesheath: 100G (0.7%, 2,209G)
Jeras01: 100G (0.7%, 1,917G)
OhEnou: 100G (0.7%, 402G)
Hasterious: 46G (0.3%, 4,631G)

champion bets:
Creggers: 2,500G (18.6%, 59,589G)
solomongrundy85: 1,684G (12.6%, 3,368G)
Shalloween: 1,000G (7.5%, 86,655G)
ValtonZenola: 960G (7.2%, 960G)
NIghtdew14: 952G (7.1%, 952G)
BoneMiser: 874G (6.5%, 874G)
Xoomwaffle: 850G (6.3%, 3,952G)
LanseDM: 600G (4.5%, 600G)
getthemoneyz: 590G (4.4%, 1,305,515G)
Snoopiku: 500G (3.7%, 26,801G)
Digitalsocrates: 420G (3.1%, 1,900G)
run_with_stone_GUNs: 344G (2.6%, 8,174G)
Othatmattkid: 300G (2.2%, 1,721G)
Error72: 300G (2.2%, 300G)
lijerrr: 300G (2.2%, 1,852G)
Seaweed_B: 236G (1.8%, 236G)
AllInBot: 200G (1.5%, 200G)
Kronikle: 200G (1.5%, 5,327G)
DustBirdEX: 200G (1.5%, 4,588G)
BakuretsuLa: 100G (0.7%, 100G)
nhammen: 100G (0.7%, 12,144G)
Shurgajoe: 100G (0.7%, 742G)
furrytomahawkk: 100G (0.7%, 978G)
