Final Bets: white - 15 bets for 16,335G (64.8%, x0.54); black - 8 bets for 8,857G (35.2%, x1.84)

white bets:
books_books: 5,000G (30.6%, 12,492G)
midnight_blues3: 2,000G (12.2%, 15,618G)
NicoSavoy: 2,000G (12.2%, 174,430G)
Evewho: 1,409G (8.6%, 1,409G)
Realitydown: 1,111G (6.8%, 1,111G)
reinoe: 1,000G (6.1%, 13,139G)
twelfthrootoftwo: 983G (6.0%, 1,928G)
ValtonZenola: 500G (3.1%, 3,281G)
upvla: 456G (2.8%, 9,037G)
Firesheath: 444G (2.7%, 444G)
superdevon1: 416G (2.5%, 416G)
Zetchryn: 416G (2.5%, 416G)
datadrivenbot: 200G (1.2%, 64,002G)
BirbBrainsBot: 200G (1.2%, 200G)
dantayystv: 200G (1.2%, 411G)

black bets:
HaateXIII: 5,755G (65.0%, 5,755G)
DLJuggernaut: 1,160G (13.1%, 1,160G)
SkylerBunny: 1,000G (11.3%, 18,097G)
Digitalsocrates: 392G (4.4%, 2,049G)
Mysteriousdewd: 200G (2.3%, 15,076G)
getthemoneyz: 146G (1.6%, 1,249,163G)
Nightehawke: 104G (1.2%, 104G)
artahc: 100G (1.1%, 4,732G)
