Final Bets: white - 22 bets for 16,106G (77.9%, x0.28); purple - 15 bets for 4,574G (22.1%, x3.52)

white bets:
JumbocactuarX27: 2,904G (18.0%, 2,904G)
TheChainNerd: 1,875G (11.6%, 18,875G)
HaateXIII: 1,493G (9.3%, 1,493G)
sinnyil2: 1,388G (8.6%, 1,388G)
HaplessOne: 1,111G (6.9%, 275,753G)
O_Heyno: 1,004G (6.2%, 1,004G)
Sairentozon7: 1,000G (6.2%, 4,916G)
red_celt: 955G (5.9%, 955G)
Laserman1000: 761G (4.7%, 7,461G)
roofiepops: 555G (3.4%, 15,885G)
killth3kid: 500G (3.1%, 20,608G)
IndecisiveNinja: 488G (3.0%, 488G)
FriendSquirrel: 441G (2.7%, 441G)
ShintaroNayaka: 400G (2.5%, 5,785G)
joewcarson: 300G (1.9%, 2,460G)
tresbienhien: 238G (1.5%, 238G)
Xcessive30: 200G (1.2%, 1,210G)
nok____: 143G (0.9%, 18,431G)
atlasthestrong: 100G (0.6%, 308G)
CosmicTactician: 100G (0.6%, 13,704G)
datadrivenbot: 100G (0.6%, 20,731G)
zepharoth89: 50G (0.3%, 1,337G)

purple bets:
BirbBrainsBot: 1,000G (21.9%, 178,365G)
benticore: 796G (17.4%, 796G)
maakur_: 580G (12.7%, 580G)
Bilabrin: 324G (7.1%, 324G)
itsdigitalbro: 300G (6.6%, 1,179G)
getthemoneyz: 258G (5.6%, 729,515G)
nifboy: 250G (5.5%, 10,752G)
volgrathemoose: 250G (5.5%, 1,691G)
BlackfyreRoy: 216G (4.7%, 216G)
AllInBot: 100G (2.2%, 100G)
letdowncity: 100G (2.2%, 4,172G)
Evewho: 100G (2.2%, 3,528G)
E_Ballard: 100G (2.2%, 7,923G)
bringmoreknives: 100G (2.2%, 6,149G)
TheMM42: 100G (2.2%, 22,201G)
