Final Bets: purple - 12 bets for 8,718G (70.1%, x0.43); brown - 15 bets for 3,721G (29.9%, x2.34)

purple bets:
TheChainNerd: 5,541G (63.6%, 55,541G)
Baron_von_Scrub: 1,111G (12.7%, 28,484G)
Aldrammech: 600G (6.9%, 600G)
ShintaroNayaka: 384G (4.4%, 384G)
alterworlds: 370G (4.2%, 370G)
AllInBot: 205G (2.4%, 205G)
bokurakira: 104G (1.2%, 695G)
CosmicTactician: 100G (1.1%, 4,557G)
maakur_: 100G (1.1%, 8,288G)
datadrivenbot: 100G (1.1%, 28,049G)
lifeguard_dan: 100G (1.1%, 570G)
daveb_: 3G (0.0%, 756G)

brown bets:
gooseyourself: 894G (24.0%, 894G)
gogofromtogo: 426G (11.4%, 426G)
rechaun: 400G (10.7%, 400G)
getthemoneyz: 294G (7.9%, 764,237G)
letdowncity: 250G (6.7%, 8,473G)
coralreeferz: 250G (6.7%, 1,910G)
Saldarin: 200G (5.4%, 5,639G)
thenextlantern: 200G (5.4%, 227G)
zepharoth89: 199G (5.3%, 3,996G)
serperemagus: 176G (4.7%, 176G)
mrfripps: 100G (2.7%, 100G)
TheMM42: 100G (2.7%, 2,320G)
brokenknight201: 100G (2.7%, 630G)
pplvee1: 100G (2.7%, 1,277G)
BirbBrainsBot: 32G (0.9%, 71,193G)
