Final Bets: purple - 13 bets for 5,687G (32.2%, x2.10); brown - 17 bets for 11,960G (67.8%, x0.48)

purple bets:
Firesheath: 1,639G (28.8%, 1,639G)
getthemoneyz: 810G (14.2%, 1,652,001G)
Laserman1000: 500G (8.8%, 5,800G)
MrPhuui: 500G (8.8%, 7,550G)
HaateXIII: 500G (8.8%, 5,009G)
powergems: 444G (7.8%, 3,085G)
WhiteTigress: 300G (5.3%, 1,621G)
wildetrys: 300G (5.3%, 1,759G)
Shalloween: 300G (5.3%, 12,470G)
theBinklive: 158G (2.8%, 633G)
MonchoStrife: 132G (2.3%, 7,849G)
Esdega: 100G (1.8%, 1,213G)
PuzzleSecretary: 4G (0.1%, 140G)

brown bets:
reinoe: 3,000G (25.1%, 227,976G)
TasisSai: 2,240G (18.7%, 2,240G)
Forkmore: 1,060G (8.9%, 2,079G)
BirbBrainsBot: 1,000G (8.4%, 166,147G)
douchetron: 1,000G (8.4%, 13,266G)
Thyrandaal: 1,000G (8.4%, 259,056G)
Lanshaft: 596G (5.0%, 7,126G)
silentkaster: 539G (4.5%, 7,098G)
ANFz: 500G (4.2%, 3,645G)
datadrivenbot: 200G (1.7%, 64,046G)
whelming_wave: 200G (1.7%, 200G)
arctodus13: 124G (1.0%, 124G)
gorgewall: 101G (0.8%, 3,828G)
AllInBot: 100G (0.8%, 100G)
ko2q: 100G (0.8%, 2,916G)
itskage: 100G (0.8%, 2,932G)
CosmicTactician: 100G (0.8%, 23,451G)
