Final Bets: blue - 9 bets for 3,241G (40.9%, x1.44); black - 13 bets for 4,675G (59.1%, x0.69)

blue bets:
BirbBrainsBot: 1,000G (30.9%, 166,481G)
silentkaster: 715G (22.1%, 6,715G)
getthemoneyz: 534G (16.5%, 1,653,293G)
Shalloween: 300G (9.3%, 13,723G)
Tarheels218: 201G (6.2%, 6,538G)
wildetrys: 190G (5.9%, 1,390G)
gorgewall: 101G (3.1%, 3,719G)
AllInBot: 100G (3.1%, 100G)
CosmicTactician: 100G (3.1%, 23,351G)

black bets:
Meta_Five: 1,000G (21.4%, 17,249G)
TasisSai: 708G (15.1%, 708G)
Forkmore: 682G (14.6%, 682G)
Lanshaft: 596G (12.7%, 7,140G)
MrPhuui: 500G (10.7%, 8,614G)
Chuckolator: 417G (8.9%, 1,901G)
datadrivenbot: 200G (4.3%, 64,113G)
theBinklive: 195G (4.2%, 780G)
arctodus13: 163G (3.5%, 163G)
nifboy: 100G (2.1%, 5,394G)
douchetron: 100G (2.1%, 15,312G)
nhammen: 10G (0.2%, 28,000G)
PuzzleSecretary: 4G (0.1%, 148G)
