Final Bets: red - 18 bets for 10,419G (34.7%, x1.88); green - 13 bets for 19,590G (65.3%, x0.53)

red bets:
OneHundredFists: 2,002G (19.2%, 3,927G)
Aldrammech: 1,266G (12.2%, 12,664G)
MagicBottle: 1,000G (9.6%, 24,947G)
Digitalsocrates: 1,000G (9.6%, 60,137G)
BirbBrainsBot: 1,000G (9.6%, 48,974G)
kaidykat: 1,000G (9.6%, 31,098G)
ruebyy: 700G (6.7%, 700G)
Cryptopsy70: 552G (5.3%, 21,294G)
DuraiPapers: 500G (4.8%, 3,408G)
gorgewall: 301G (2.9%, 19,965G)
Miku_Shikhu: 300G (2.9%, 12,693G)
BigGlorious: 300G (2.9%, 4,794G)
KittymanAdvance: 116G (1.1%, 116G)
OtherBrand: 100G (1.0%, 4,295G)
biffcake01: 100G (1.0%, 2,724G)
dinin991: 100G (1.0%, 1,583G)
butterbelljedi: 50G (0.5%, 1,868G)
getthemoneyz: 32G (0.3%, 957,809G)

green bets:
Zbgs: 11,536G (58.9%, 11,536G)
AllInBot: 1,880G (9.6%, 1,880G)
cam_ATS: 1,555G (7.9%, 19,000G)
ko2q: 1,554G (7.9%, 3,109G)
SamaelMerihem: 694G (3.5%, 694G)
TheChainNerd: 567G (2.9%, 3,567G)
Tougou: 460G (2.3%, 460G)
Biospark45: 309G (1.6%, 309G)
twelfthrootoftwo: 300G (1.5%, 2,251G)
DustBirdEX: 234G (1.2%, 4,443G)
Nizaha: 201G (1.0%, 33,289G)
CorpusCav: 200G (1.0%, 1,290G)
datadrivenbot: 100G (0.5%, 43,789G)
