Final Bets: green - 15 bets for 8,737G (41.6%, x1.40); yellow - 25 bets for 12,252G (58.4%, x0.71)

green bets:
coralreeferz: 1,250G (14.3%, 22,814G)
Baron_von_Scrub: 1,111G (12.7%, 75,087G)
volgrathemoose: 1,001G (11.5%, 6,111G)
Aldrammech: 1,000G (11.4%, 54,479G)
gooseyourself: 1,000G (11.4%, 23,539G)
ungabunga_bot: 717G (8.2%, 272,543G)
mesmaster: 658G (7.5%, 658G)
Zeroroute: 600G (6.9%, 600G)
Breakdown777: 500G (5.7%, 24,755G)
ZephyrTempest: 400G (4.6%, 619G)
CosmicTactician: 100G (1.1%, 3,491G)
twelfthrootoftwo: 100G (1.1%, 493G)
Squatting_Bear: 100G (1.1%, 108G)
datadrivenbot: 100G (1.1%, 3,702G)
vorap: 100G (1.1%, 23,471G)

yellow bets:
deenglow: 1,500G (12.2%, 47,883G)
sinnyil2: 1,200G (9.8%, 77,174G)
LivingHitokiri: 1,113G (9.1%, 1,113G)
FoxtrotNovemberCharlie: 1,078G (8.8%, 1,078G)
BirbBrainsBot: 1,000G (8.2%, 41,161G)
MantisFinch: 1,000G (8.2%, 29,777G)
getthemoneyz: 928G (7.6%, 586,663G)
plus_flora: 762G (6.2%, 762G)
alecttox: 500G (4.1%, 6,962G)
roofiepops: 400G (3.3%, 4,901G)
Lazlodamus: 332G (2.7%, 332G)
Wrin_: 264G (2.2%, 264G)
TheRylander: 240G (2.0%, 240G)
nuka1120: 208G (1.7%, 208G)
Mirrorclaw: 204G (1.7%, 204G)
RunicMagus: 200G (1.6%, 55,918G)
Jerboj: 200G (1.6%, 59,602G)
run_with_STONE_GUNS: 200G (1.6%, 6,081G)
Evewho: 200G (1.6%, 15,072G)
EnemyController: 200G (1.6%, 153,518G)
nifboy: 123G (1.0%, 3,082G)
maakur_: 100G (0.8%, 113,434G)
duskps: 100G (0.8%, 16,358G)
Dymntd: 100G (0.8%, 2,936G)
poodonkula: 100G (0.8%, 100G)
