Final Bets: blue - 9 bets for 3,854G (30.7%, x2.26); brown - 12 bets for 8,703G (69.3%, x0.44)

blue bets:
BirbBrainsBot: 1,000G (25.9%, 95,852G)
CorpusCav: 1,000G (25.9%, 4,516G)
krombobreaker: 500G (13.0%, 8,704G)
Mushufasa_: 500G (13.0%, 50,982G)
hotpocketsofficial: 320G (8.3%, 320G)
getthemoneyz: 198G (5.1%, 1,985,950G)
markese: 136G (3.5%, 5,565G)
Dodecadeath: 100G (2.6%, 4,498G)
gingerfoo69: 100G (2.6%, 4,923G)

brown bets:
latebit: 3,333G (38.3%, 13,298G)
CT_5_Holy: 1,260G (14.5%, 1,260G)
resjudicata3: 1,070G (12.3%, 1,070G)
douchetron: 957G (11.0%, 957G)
Songdeh: 500G (5.7%, 3,260G)
MoonSugarFiend: 343G (3.9%, 686G)
ValensEXP_: 340G (3.9%, 6,392G)
wyonearth: 300G (3.4%, 1,682G)
AllInBot: 200G (2.3%, 200G)
datadrivenbot: 200G (2.3%, 70,990G)
MemoriesofFinal: 100G (1.1%, 33,641G)
Bluebirdzontwitch: 100G (1.1%, 2,106G)
