Final Bets: purple - 15 bets for 8,630G (67.5%, x0.48); brown - 7 bets for 4,154G (32.5%, x2.08)

purple bets:
douchetron: 1,187G (13.8%, 1,187G)
Shalloween: 1,000G (11.6%, 17,404G)
BirbBrainsBot: 1,000G (11.6%, 166,195G)
reinoe: 1,000G (11.6%, 32,722G)
killth3kid: 792G (9.2%, 51,207G)
dogsandcatsand: 696G (8.1%, 696G)
Forkmore: 600G (7.0%, 600G)
SephDarkheart: 600G (7.0%, 159,093G)
Willjin: 500G (5.8%, 13,593G)
AllInBot: 439G (5.1%, 439G)
InOzWeTrust: 204G (2.4%, 204G)
whelming_wave: 200G (2.3%, 200G)
datadrivenbot: 200G (2.3%, 65,904G)
g1nger4le: 112G (1.3%, 112G)
Aldrammech: 100G (1.2%, 9,504G)

brown bets:
Thyrandaal: 1,529G (36.8%, 1,529G)
E_Ballard: 724G (17.4%, 47,509G)
getthemoneyz: 574G (13.8%, 1,736,135G)
latebit: 460G (11.1%, 15,830G)
Lord_Gwarth: 372G (9.0%, 372G)
lowlf: 372G (9.0%, 9,309G)
Lydian_C: 123G (3.0%, 5,190G)
