Final Bets: blue - 15 bets for 24,869G (54.2%, x0.84); green - 11 bets for 20,995G (45.8%, x1.18)

blue bets:
Aldrammech: 9,552G (38.4%, 9,552G)
latebit: 7,838G (31.5%, 15,370G)
Lydian_C: 1,200G (4.8%, 5,067G)
BirbBrainsBot: 1,000G (4.0%, 166,676G)
Forkmore: 889G (3.6%, 889G)
killth3kid: 792G (3.2%, 51,588G)
AllInBot: 650G (2.6%, 650G)
SephDarkheart: 600G (2.4%, 159,382G)
brokenknight201: 500G (2.0%, 8,140G)
VolgraTheMoose: 500G (2.0%, 48,662G)
Thyrandaal: 432G (1.7%, 432G)
Lord_Gwarth: 372G (1.5%, 372G)
whelming_wave: 296G (1.2%, 296G)
MagikarpPKMN: 128G (0.5%, 128G)
getthemoneyz: 120G (0.5%, 1,735,561G)

green bets:
DavenIII: 9,000G (42.9%, 89,764G)
reinoe: 5,000G (23.8%, 33,203G)
Willjin: 2,000G (9.5%, 13,834G)
dogsandcatsand: 1,031G (4.9%, 1,031G)
NovaKnight21: 1,000G (4.8%, 3,530G)
Shalloween: 1,000G (4.8%, 17,885G)
bruubarg: 544G (2.6%, 544G)
RunicMagus: 500G (2.4%, 7,118G)
maximumcrit: 396G (1.9%, 396G)
Tarheels218: 324G (1.5%, 1,267G)
datadrivenbot: 200G (1.0%, 66,000G)
