Final Bets: purple - 15 bets for 6,038G (40.5%, x1.47); brown - 9 bets for 8,858G (59.5%, x0.68)

purple bets:
L2_Sentinel: 1,000G (16.6%, 10,549G)
BirbBrainsBot: 1,000G (16.6%, 205,546G)
Treapvort: 806G (13.3%, 806G)
Goust18: 600G (9.9%, 7,141G)
herrshaun: 501G (8.3%, 501G)
ungabunga_bot: 500G (8.3%, 15,792G)
rubenflonne: 500G (8.3%, 4,150G)
getthemoneyz: 356G (5.9%, 434,328G)
ugoplatamia: 200G (3.3%, 20,900G)
yure1x: 150G (2.5%, 731G)
lavian94: 124G (2.1%, 124G)
Tithonus: 100G (1.7%, 9,160G)
twelfthrootoftwo: 100G (1.7%, 5,374G)
datadrivenbot: 100G (1.7%, 18,029G)
ko2q: 1G (0.0%, 1,892G)

brown bets:
YaBoy125: 3,825G (43.2%, 38,256G)
WireLord: 1,430G (16.1%, 1,430G)
PatSouI: 1,307G (14.8%, 1,307G)
ApplesauceBoss: 916G (10.3%, 916G)
mayormcfunbags: 658G (7.4%, 658G)
Evewho: 500G (5.6%, 2,322G)
AllInBot: 100G (1.1%, 100G)
victoriolue: 100G (1.1%, 4,624G)
roqqqpsi: 22G (0.2%, 1,967G)
