Final Bets: green - 17 bets for 9,372G (40.4%, x1.48); yellow - 22 bets for 13,839G (59.6%, x0.68)

green bets:
J2DaBibbles: 3,200G (34.1%, 14,301G)
killth3kid: 2,000G (21.3%, 85,819G)
Grimmace45: 1,140G (12.2%, 5,702G)
ungabunga_bot: 1,000G (10.7%, 374,616G)
WrathfulRemy: 400G (4.3%, 2,432G)
ChrisPlaysThing: 220G (2.3%, 220G)
dogsandcatsand: 220G (2.3%, 220G)
sukotsuto: 200G (2.1%, 1,631G)
caprinovoa: 200G (2.1%, 2,372G)
mannequ1n: 141G (1.5%, 141G)
bahamutlagooon: 120G (1.3%, 249G)
alphara2: 104G (1.1%, 104G)
maakur_: 100G (1.1%, 125,097G)
Juggaloslip: 100G (1.1%, 510G)
CosmicTactician: 100G (1.1%, 24,421G)
ZephyrTempest: 99G (1.1%, 1,991G)
getthemoneyz: 28G (0.3%, 633,782G)

yellow bets:
Lionhermit: 1,500G (10.8%, 13,105G)
mpghappiness: 1,472G (10.6%, 2,888G)
DavenIII: 1,334G (9.6%, 2,669G)
DeathTaxesAndAnime: 1,295G (9.4%, 2,540G)
HaplessOne: 1,111G (8.0%, 20,757G)
TheChainNerd: 1,000G (7.2%, 5,204G)
Pie108: 1,000G (7.2%, 135,681G)
BirbBrainsBot: 1,000G (7.2%, 73,218G)
JumbocactuarX27: 1,000G (7.2%, 14,273G)
ColetteMSLP: 800G (5.8%, 22,192G)
SealPoulpe: 500G (3.6%, 3,527G)
Kronikle: 404G (2.9%, 404G)
coralreeferz: 250G (1.8%, 1,517G)
Rislyeu: 200G (1.4%, 2,711G)
duckfist: 200G (1.4%, 1,839G)
amhamor: 148G (1.1%, 148G)
TheRylander: 125G (0.9%, 2,514G)
MrMarkPolo: 100G (0.7%, 1,395G)
Kyune: 100G (0.7%, 4,845G)
datadrivenbot: 100G (0.7%, 11,407G)
Kithmar796: 100G (0.7%, 1,716G)
FriendSquirrel: 100G (0.7%, 31,499G)
