Final Bets: purple - 7 bets for 4,188G (12.8%, x6.83); brown - 31 bets for 28,620G (87.2%, x0.15)

purple bets:
killth3kid: 2,000G (47.8%, 88,772G)
TheChainNerd: 1,000G (23.9%, 4,506G)
FoeSquirrel: 296G (7.1%, 593G)
ZephyrTempest: 252G (6.0%, 1,681G)
ChrisPlaysThing: 220G (5.3%, 220G)
dogsandcatsand: 220G (5.3%, 220G)
sukotsuto: 200G (4.8%, 943G)

brown bets:
sinnyil2: 4,862G (17.0%, 9,724G)
SealPoulpe: 3,027G (10.6%, 3,027G)
SlightlyTalonted: 2,566G (9.0%, 2,566G)
HaateXIII: 2,531G (8.8%, 2,531G)
Grimmace45: 1,956G (6.8%, 7,825G)
coralreeferz: 1,644G (5.7%, 1,644G)
Lionhermit: 1,500G (5.2%, 12,052G)
HaplessOne: 1,234G (4.3%, 20,014G)
BirbBrainsBot: 1,000G (3.5%, 72,516G)
mpghappiness: 937G (3.3%, 1,838G)
DeathTaxesAndAnime: 824G (2.9%, 1,616G)
DavenIII: 785G (2.7%, 785G)
getthemoneyz: 726G (2.5%, 633,273G)
Kithmar796: 600G (2.1%, 1,616G)
Rislyeu: 502G (1.8%, 2,511G)
ALY327: 500G (1.7%, 33,499G)
duckfist: 500G (1.7%, 1,728G)
Squasian: 500G (1.7%, 8,213G)
bahamutlagooon: 462G (1.6%, 462G)
mannequ1n: 383G (1.3%, 383G)
ungabunga_bot: 235G (0.8%, 376,391G)
eudes89: 221G (0.8%, 221G)
caprinovoa: 200G (0.7%, 2,756G)
Practice_Pad: 149G (0.5%, 149G)
alphara2: 146G (0.5%, 146G)
amhamor: 130G (0.5%, 130G)
maakur_: 100G (0.3%, 125,275G)
CosmicTactician: 100G (0.3%, 24,629G)
FriendSquirrel: 100G (0.3%, 31,299G)
datadrivenbot: 100G (0.3%, 11,337G)
jwchapm: 100G (0.3%, 479G)
