Final Bets: purple - 17 bets for 6,677G (29.5%, x2.39); brown - 22 bets for 15,947G (70.5%, x0.42)

purple bets:
Shalloween: 1,000G (15.0%, 55,850G)
BirbBrainsBot: 1,000G (15.0%, 8,183G)
bad1dea: 1,000G (15.0%, 249,012G)
HaplessOne: 1,000G (15.0%, 37,100G)
Breakdown777: 500G (7.5%, 8,579G)
LordSDB: 500G (7.5%, 3,522G)
z32o: 473G (7.1%, 1,820G)
cheesetacular: 228G (3.4%, 228G)
getthemoneyz: 228G (3.4%, 397,414G)
iiLockdownV2: 126G (1.9%, 126G)
Maeveen: 100G (1.5%, 10,104G)
Treapvort: 100G (1.5%, 16,233G)
Cataphract116: 100G (1.5%, 2,547G)
Malcreos: 100G (1.5%, 383G)
SeedSC: 100G (1.5%, 174,698G)
0utlier: 100G (1.5%, 252G)
roqqqpsi: 22G (0.3%, 1,310G)

brown bets:
KupoKel: 2,500G (15.7%, 27,943G)
DavenIII: 2,500G (15.7%, 17,987G)
Nizaha: 1,796G (11.3%, 1,796G)
volgrathemoose: 1,552G (9.7%, 3,104G)
leakimiko: 1,085G (6.8%, 36,184G)
DejaPoo21: 1,000G (6.3%, 27,805G)
thaetreis: 1,000G (6.3%, 4,940G)
MoonSlayerRS: 627G (3.9%, 627G)
fenaen: 479G (3.0%, 479G)
ko2q: 471G (3.0%, 471G)
Lydian_C: 464G (2.9%, 464G)
Winterharte: 456G (2.9%, 456G)
maakur_: 399G (2.5%, 399G)
TheGuesty: 350G (2.2%, 3,666G)
Oshimi12: 348G (2.2%, 348G)
kingchadking: 320G (2.0%, 320G)
loveyouallfriends: 150G (0.9%, 6,834G)
MirtaiAtana: 100G (0.6%, 1,465G)
kanehrym: 100G (0.6%, 1,171G)
datadrivenbot: 100G (0.6%, 16,338G)
SpaZmodeus: 100G (0.6%, 2,648G)
WinnerBit: 50G (0.3%, 801G)
