Final Bets: green - 12 bets for 11,609G (51.6%, x0.94); white - 8 bets for 10,905G (48.4%, x1.06)

green bets:
josephiroth_143: 4,000G (34.5%, 9,930G)
SkylerBunny: 2,400G (20.7%, 82,699G)
douchetron: 1,398G (12.0%, 1,398G)
BirbBrainsBot: 1,000G (8.6%, 136,723G)
Aldrammech: 929G (8.0%, 929G)
killth3kid: 540G (4.7%, 16,171G)
Rislyeu: 500G (4.3%, 14,454G)
Hirameki85: 248G (2.1%, 4,500G)
Brainstew29: 200G (1.7%, 1,987G)
datadrivenbot: 200G (1.7%, 45,758G)
PenguinMaid: 100G (0.9%, 100G)
getthemoneyz: 94G (0.8%, 1,419,861G)

white bets:
LionheartLuso: 5,108G (46.8%, 5,108G)
AllInBot: 2,924G (26.8%, 2,924G)
Soulshade84: 1,772G (16.2%, 1,772G)
Treafa: 500G (4.6%, 500G)
gorgewall: 201G (1.8%, 6,418G)
Grandlanzer: 200G (1.8%, 120,266G)
hottakesincorporated: 100G (0.9%, 630G)
Miku_Shikhu: 100G (0.9%, 4,680G)
