Final Bets: red - 23 bets for 12,054G (50.4%, x0.98); green - 18 bets for 11,843G (49.6%, x1.02)

red bets:
deenglow: 1,500G (12.4%, 53,127G)
Chrysaors: 1,215G (10.1%, 20,255G)
JanusII: 1,000G (8.3%, 21,522G)
ungabunga_bot: 1,000G (8.3%, 275,598G)
BirbBrainsBot: 1,000G (8.3%, 70,639G)
TheRylander: 1,000G (8.3%, 6,008G)
kai_shee: 1,000G (8.3%, 7,472G)
superdevon1: 500G (4.1%, 9,895G)
ColetteMSLP: 500G (4.1%, 23,547G)
nuka1120: 500G (4.1%, 1,201G)
DavenIII: 500G (4.1%, 16,470G)
vorap: 300G (2.5%, 22,004G)
ANFz: 256G (2.1%, 17,711G)
trigger15: 216G (1.8%, 216G)
Nizaha: 201G (1.7%, 6,762G)
daveb_: 200G (1.7%, 1,647G)
BadErosion: 200G (1.7%, 5,389G)
cgMcWhiskers: 200G (1.7%, 816G)
courtjesteroriginal: 200G (1.7%, 676G)
mirapoix: 200G (1.7%, 9,337G)
getthemoneyz: 136G (1.1%, 602,495G)
roofiepops: 130G (1.1%, 5,727G)
FoeSquirrel: 100G (0.8%, 5,769G)

green bets:
Zeroroute: 2,785G (23.5%, 2,785G)
Pie108: 2,000G (16.9%, 291,373G)
duskps: 1,189G (10.0%, 5,948G)
ko2q: 1,084G (9.2%, 1,084G)
reinoe: 1,022G (8.6%, 1,022G)
jakeduhhsnake: 1,000G (8.4%, 13,155G)
luminarii: 572G (4.8%, 20,752G)
joewcarson: 364G (3.1%, 364G)
Chuckolator: 344G (2.9%, 24,852G)
midori_ribbon: 300G (2.5%, 2,071G)
Wonser: 300G (2.5%, 3,744G)
dorman_777: 232G (2.0%, 232G)
haigy: 150G (1.3%, 3,145G)
ZephyrTempest: 101G (0.9%, 8,396G)
nifboy: 100G (0.8%, 1,641G)
SeniorBunk: 100G (0.8%, 4,205G)
ApplesauceBoss: 100G (0.8%, 3,295G)
datadrivenbot: 100G (0.8%, 5,420G)
