Final Bets: red - 9 bets for 7,765G (41.2%, x1.43); blue - 19 bets for 11,082G (58.8%, x0.70)

red bets:
SkylerBunny: 2,000G (25.8%, 570,138G)
Aldrammech: 1,718G (22.1%, 1,718G)
prince_rogers_nelson_: 1,405G (18.1%, 1,405G)
dogsandcatsand: 1,000G (12.9%, 14,476G)
E_Ballard: 608G (7.8%, 608G)
blastty: 370G (4.8%, 370G)
pandasforsale: 364G (4.7%, 364G)
Grandlanzer: 200G (2.6%, 13,220G)
Quadh0nk: 100G (1.3%, 497G)

blue bets:
DLJuggernaut: 2,052G (18.5%, 4,024G)
eudes89: 1,125G (10.2%, 1,125G)
Breakdown777: 1,089G (9.8%, 1,089G)
BirbBrainsBot: 1,000G (9.0%, 117,339G)
Virilikus: 1,000G (9.0%, 196,174G)
joewcarson: 593G (5.4%, 593G)
CosmicTactician: 500G (4.5%, 14,234G)
amiture: 500G (4.5%, 8,226G)
CITOtheMOSQUITO: 500G (4.5%, 3,015G)
Laserman1000: 500G (4.5%, 5,900G)
brokenknight201: 500G (4.5%, 2,337G)
roofiepops: 376G (3.4%, 376G)
getthemoneyz: 326G (2.9%, 1,009,981G)
twelfthrootoftwo: 300G (2.7%, 3,303G)
gorgewall: 201G (1.8%, 5,765G)
Evewho: 200G (1.8%, 2,984G)
porkchop5158: 120G (1.1%, 120G)
Firesheath: 100G (0.9%, 1,992G)
datadrivenbot: 100G (0.9%, 49,112G)
