Final Bets: green - 14 bets for 15,782G (72.3%, x0.38); yellow - 14 bets for 6,043G (27.7%, x2.61)

green bets:
Aldrammech: 4,170G (26.4%, 4,170G)
prince_rogers_nelson_: 3,410G (21.6%, 3,410G)
Nickyfive: 2,000G (12.7%, 23,019G)
E_Ballard: 1,476G (9.4%, 1,476G)
galkife: 1,000G (6.3%, 51,940G)
helpimabug: 912G (5.8%, 1,863G)
potgodtopdog: 777G (4.9%, 48,343G)
Oreo_Pizza: 500G (3.2%, 7,142G)
killth3kid: 480G (3.0%, 11,378G)
DeathTaxesAndAnime: 400G (2.5%, 1,796G)
CITOtheMOSQUITO: 250G (1.6%, 2,515G)
BirbBrainsBot: 207G (1.3%, 116,339G)
Conome: 100G (0.6%, 4,417G)
datadrivenbot: 100G (0.6%, 49,012G)

yellow bets:
SkylerBunny: 1,500G (24.8%, 572,992G)
Zagorsek: 634G (10.5%, 634G)
solomongrundy85: 548G (9.1%, 548G)
Breakdown777: 532G (8.8%, 532G)
serperemagus: 512G (8.5%, 512G)
getthemoneyz: 416G (6.9%, 1,009,655G)
eudes89: 396G (6.6%, 396G)
joewcarson: 320G (5.3%, 320G)
gorgewall: 301G (5.0%, 5,564G)
sososteve: 250G (4.1%, 4,866G)
dogsandcatsand: 234G (3.9%, 15,903G)
twelfthrootoftwo: 200G (3.3%, 3,003G)
CosmicTactician: 100G (1.7%, 13,734G)
Evewho: 100G (1.7%, 2,784G)
