Final Bets: red - 24 bets for 12,350G (49.2%, x1.03); blue - 16 bets for 12,743G (50.8%, x0.97)

red bets:
sinnyil2: 2,142G (17.3%, 4,285G)
WireLord: 2,000G (16.2%, 42,866G)
MantisFinch: 1,000G (8.1%, 14,718G)
ungabunga_bot: 1,000G (8.1%, 112,530G)
BirbBrainsBot: 1,000G (8.1%, 78,879G)
waterwatereverywhere: 617G (5.0%, 617G)
Lanshaft: 600G (4.9%, 11,707G)
NovaKnight21: 600G (4.9%, 4,161G)
DustBirdEX: 372G (3.0%, 372G)
mayormcfunbags: 361G (2.9%, 361G)
ZephyrTempest: 338G (2.7%, 53,512G)
DudeMonkey77: 333G (2.7%, 5,372G)
TheMurkGnome: 300G (2.4%, 1,936G)
SWATb1gdog: 250G (2.0%, 5,956G)
nifboy: 219G (1.8%, 219G)
jhaller2: 200G (1.6%, 3,706G)
Billybones5150: 200G (1.6%, 2,614G)
ArdentDrops: 200G (1.6%, 20,291G)
InOzWeTrust: 197G (1.6%, 197G)
byrdturbo: 111G (0.9%, 5,503G)
AllInBot: 100G (0.8%, 100G)
maakur_: 100G (0.8%, 2,839G)
Lodrak: 100G (0.8%, 2,454G)
getthemoneyz: 10G (0.1%, 478,005G)

blue bets:
HASTERIOUS: 2,469G (19.4%, 2,469G)
LanseDM: 2,000G (15.7%, 11,254G)
Zeroroute: 1,701G (13.3%, 1,701G)
volgrathemoose: 1,501G (11.8%, 9,021G)
edgehead62888: 1,000G (7.8%, 6,370G)
datadrivenbot: 754G (5.9%, 22,901G)
DejaPoo21: 703G (5.5%, 703G)
Laserman1000: 700G (5.5%, 14,300G)
DrAntiSocial: 675G (5.3%, 675G)
Conome: 339G (2.7%, 339G)
DaMadPanda182: 200G (1.6%, 2,597G)
Asedunu: 200G (1.6%, 1,408G)
ko2q: 200G (1.6%, 4,791G)
SkepticalMinotaur: 200G (1.6%, 3,465G)
Chompie: 100G (0.8%, 6,774G)
RughSontos: 1G (0.0%, 1,751G)
