Final Bets: white - 9 bets for 13,169G (71.9%, x0.39); brown - 11 bets for 5,150G (28.1%, x2.56)

white bets:
shannahan45: 10,000G (75.9%, 13,552G)
killth3kid: 1,164G (8.8%, 11,642G)
TheChainNerd: 512G (3.9%, 2,560G)
getthemoneyz: 392G (3.0%, 957,609G)
gorgewall: 301G (2.3%, 19,862G)
Koorndog: 300G (2.3%, 729G)
Avin_Chaos: 200G (1.5%, 19,290G)
d4rr1n: 200G (1.5%, 8,714G)
datadrivenbot: 100G (0.8%, 39,072G)

brown bets:
Baron_von_Scrub: 1,200G (23.3%, 1,200G)
BirbBrainsBot: 1,000G (19.4%, 21,009G)
Sans_from_Snowdin: 1,000G (19.4%, 23,715G)
Furgers: 771G (15.0%, 771G)
ShintaroNayaka: 464G (9.0%, 464G)
OppressivelyMinty: 250G (4.9%, 3,270G)
ZCKaiser: 115G (2.2%, 230G)
AllInBot: 100G (1.9%, 100G)
HawkSick: 100G (1.9%, 997G)
nhammen: 100G (1.9%, 2,913G)
IphoneDarkness: 50G (1.0%, 3,558G)
