Final Bets: white - 10 bets for 8,719G (55.4%, x0.81); black - 11 bets for 7,025G (44.6%, x1.24)

white bets:
Dexsana: 4,000G (45.9%, 22,449G)
datkins728: 1,116G (12.8%, 1,116G)
lijarkh: 1,000G (11.5%, 22,690G)
lastly: 891G (10.2%, 891G)
sinnyil2: 700G (8.0%, 2,687G)
twelfthrootoftwo: 500G (5.7%, 3,196G)
summmmmmmmmm: 212G (2.4%, 212G)
volgrathemoose: 100G (1.1%, 2,614G)
ar_tactic: 100G (1.1%, 32,507G)
datadrivenbot: 100G (1.1%, 11,556G)

black bets:
HaplessOne: 1,111G (15.8%, 23,512G)
ungabunga_bot: 1,000G (14.2%, 312,488G)
BirbBrainsBot: 1,000G (14.2%, 169,845G)
Baron_von_Scrub: 987G (14.0%, 1,975G)
willieb17568: 900G (12.8%, 1,801G)
SaintOmerville: 756G (10.8%, 756G)
TheGuesty: 500G (7.1%, 30,500G)
ACSpree: 325G (4.6%, 325G)
L2_Sentinel: 200G (2.8%, 31,472G)
getthemoneyz: 146G (2.1%, 615,036G)
rjA0zcOQ96: 100G (1.4%, 25,085G)
