Final Bets: white - 31 bets for 20,177G (58.5%, x0.71); black - 40 bets for 14,341G (41.5%, x1.41)

white bets:
Mtueni: 5,000G (24.8%, 107,809G)
eltejongrande: 4,000G (19.8%, 14,722G)
RyuTsuno: 1,490G (7.4%, 1,490G)
Evewho: 1,352G (6.7%, 5,409G)
DudeMonkey77: 1,000G (5.0%, 44,769G)
Lazerkick: 600G (3.0%, 13,543G)
Lanshaft: 560G (2.8%, 15,199G)
lijarkh: 500G (2.5%, 3,828G)
Draconis345: 500G (2.5%, 1,553G)
Axelrod: 500G (2.5%, 16,616G)
Riot_Jayway: 500G (2.5%, 178,394G)
Humble_Fabio: 444G (2.2%, 1,439G)
mirapoix: 396G (2.0%, 396G)
UmaiJam: 309G (1.5%, 3,093G)
Oshimi12: 300G (1.5%, 4,802G)
CapnChaos12: 300G (1.5%, 3,834G)
nifboy: 236G (1.2%, 236G)
fenixcrest: 217G (1.1%, 4,350G)
RurouniGeo: 208G (1.0%, 208G)
SpaZmodeus: 204G (1.0%, 204G)
CorpusCav: 201G (1.0%, 2,012G)
Aeolus_000: 200G (1.0%, 1,282G)
KasugaiRoastedPeas: 200G (1.0%, 31,860G)
Davarian: 176G (0.9%, 176G)
rjA0zcOQ96: 156G (0.8%, 2,136G)
Snowfats: 150G (0.7%, 3,241G)
rubenflonne: 100G (0.5%, 2,739G)
Tougou: 100G (0.5%, 3,644G)
mpghappiness: 100G (0.5%, 4,358G)
WillFitzgerald: 100G (0.5%, 2,834G)
Club_Sodar: 78G (0.4%, 782G)

black bets:
reinoe: 2,000G (13.9%, 3,999G)
Lodrak: 1,253G (8.7%, 1,253G)
OmnibotGamma: 1,000G (7.0%, 5,672G)
JumbocactuarX27: 938G (6.5%, 938G)
BirbBrainsBot: 622G (4.3%, 198,464G)
Aldrammech: 600G (4.2%, 600G)
bad1dea: 600G (4.2%, 187,142G)
BadBlanket: 556G (3.9%, 556G)
Nizaha: 501G (3.5%, 10,282G)
I_nod_my_head_when_I_lose: 500G (3.5%, 18,126G)
Deathmaker06: 500G (3.5%, 20,263G)
Ququroon: 500G (3.5%, 86,999G)
Winnosh: 478G (3.3%, 478G)
RughSontos: 416G (2.9%, 416G)
TheGuesty: 342G (2.4%, 2,092G)
Baron_von_Scrub: 252G (1.8%, 2,213G)
Chuckolator: 247G (1.7%, 6,249G)
getthemoneyz: 204G (1.4%, 356,877G)
AllInBot: 200G (1.4%, 200G)
slatios: 200G (1.4%, 4,436G)
Viola03773: 200G (1.4%, 297G)
ForagerCats: 200G (1.4%, 9,798G)
arch8000: 200G (1.4%, 11,186G)
prostateprancer: 194G (1.4%, 194G)
ungabunga_bot: 126G (0.9%, 820G)
ko2q: 104G (0.7%, 104G)
boggart742: 104G (0.7%, 104G)
spit8866: 104G (0.7%, 104G)
Zagorsek: 100G (0.7%, 279,681G)
Aneyus: 100G (0.7%, 12,853G)
Basmal: 100G (0.7%, 5,214G)
Aremath: 100G (0.7%, 6,235G)
KamenRiderDecade: 100G (0.7%, 100G)
ApplesauceBoss: 100G (0.7%, 9,320G)
maakur_: 100G (0.7%, 57,014G)
Cataphract116: 100G (0.7%, 1,135G)
a_mo22: 100G (0.7%, 4,764G)
datadrivenbot: 100G (0.7%, 13,482G)
Avin_Chaos: 100G (0.7%, 1,177G)
silentperogy: 100G (0.7%, 6,537G)
