Final Bets: white - 13 bets for 12,772G (83.3%, x0.20); brown - 9 bets for 2,567G (16.7%, x4.98)

white bets:
RaIshtar: 5,000G (39.1%, 71,213G)
Error72: 1,763G (13.8%, 3,457G)
KitchTowel: 1,233G (9.7%, 1,233G)
BirbBrainsBot: 1,000G (7.8%, 142,036G)
JumbocactuarX27: 1,000G (7.8%, 45,164G)
Lord_Burrah: 1,000G (7.8%, 77,967G)
randgridr: 436G (3.4%, 10,925G)
getthemoneyz: 356G (2.8%, 1,330,841G)
SephDarkheart: 332G (2.6%, 53,712G)
skipsandwiches: 252G (2.0%, 252G)
AllInBot: 200G (1.6%, 200G)
nhammen: 100G (0.8%, 10,028G)
DHaveWord: 100G (0.8%, 5,395G)

brown bets:
Zetchryn: 745G (29.0%, 745G)
Thyrandaal: 500G (19.5%, 8,585G)
Legitimized: 468G (18.2%, 468G)
Xoomwaffle: 280G (10.9%, 1,356G)
datadrivenbot: 200G (7.8%, 32,342G)
Beastmages: 124G (4.8%, 124G)
mrfripps: 100G (3.9%, 5,397G)
Bongomon7: 100G (3.9%, 11,259G)
DouglasDragonThePoet: 50G (1.9%, 1,208G)
