Final Bets: blue - 13 bets for 7,819G (26.4%, x2.79); yellow - 29 bets for 21,794G (73.6%, x0.36)

blue bets:
Shalloween: 1,200G (15.3%, 93,030G)
mirapoix: 1,029G (13.2%, 2,058G)
BirbBrainsBot: 1,000G (12.8%, 207,136G)
bad1dea: 1,000G (12.8%, 26,562G)
getthemoneyz: 636G (8.1%, 433,341G)
Lanshaft: 600G (7.7%, 5,303G)
DudeMonkey77: 592G (7.6%, 592G)
sinnyil2: 555G (7.1%, 2,465G)
ANFz: 416G (5.3%, 416G)
samtimemc: 284G (3.6%, 284G)
ZephyrTempest: 254G (3.2%, 17,956G)
yure1x: 203G (2.6%, 203G)
richardserious: 50G (0.6%, 234G)

yellow bets:
Ant_ihistamine: 6,384G (29.3%, 6,384G)
Shakarak: 2,500G (11.5%, 33,279G)
Zeroroute: 1,740G (8.0%, 1,740G)
BenYuPoker: 1,706G (7.8%, 3,413G)
Lord_Burrah: 1,101G (5.1%, 92,101G)
Laserman1000: 1,074G (4.9%, 1,074G)
catfashions: 1,000G (4.6%, 2,292G)
Wolvaroo: 593G (2.7%, 593G)
jethrothrul: 560G (2.6%, 560G)
Lodrak: 501G (2.3%, 33,972G)
galkife: 500G (2.3%, 77,196G)
kingchadking: 451G (2.1%, 451G)
KonzeraLive: 400G (1.8%, 7,965G)
luminarii: 312G (1.4%, 9,072G)
RughSontos: 300G (1.4%, 3,187G)
action_otter: 300G (1.4%, 392G)
ig_ats: 300G (1.4%, 14,594G)
Tyerenex: 250G (1.1%, 5,736G)
lunaticruin: 247G (1.1%, 1,107G)
soapydragonfly: 244G (1.1%, 244G)
Conome: 221G (1.0%, 221G)
b0shii: 216G (1.0%, 216G)
ugoplatamia: 200G (0.9%, 10,200G)
maichenambrai: 200G (0.9%, 700G)
AllInBot: 169G (0.8%, 169G)
joewcarson: 120G (0.6%, 120G)
SeedSC: 100G (0.5%, 139,909G)
datadrivenbot: 100G (0.5%, 16,908G)
ko2q: 5G (0.0%, 1,922G)
