Final Bets: black - 16 bets for 6,883G (30.5%, x2.28); purple - 32 bets for 15,710G (69.5%, x0.44)

black bets:
Gelwain: 1,648G (23.9%, 1,648G)
BirbBrainsBot: 1,000G (14.5%, 164,280G)
jakeduhhsnake: 1,000G (14.5%, 54,663G)
volgrathemoose: 501G (7.3%, 9,362G)
RestIessNight: 500G (7.3%, 6,565G)
ZephyrTempest: 456G (6.6%, 2,986G)
Cryptopsy70: 384G (5.6%, 38,566G)
astrozin11: 368G (5.3%, 368G)
getthemoneyz: 312G (4.5%, 608,830G)
Nizaha: 201G (2.9%, 13,602G)
eudes89: 108G (1.6%, 108G)
moonliquor: 100G (1.5%, 589G)
maakur_: 100G (1.5%, 112,904G)
Rislyeu: 100G (1.5%, 2,638G)
nifboy: 100G (1.5%, 8,906G)
ko2q: 5G (0.1%, 1,365G)

purple bets:
killth3kid: 2,000G (12.7%, 58,187G)
genericco: 1,753G (11.2%, 1,753G)
DeathTaxesAndAnime: 1,411G (9.0%, 1,411G)
TheGuesty: 1,000G (6.4%, 31,000G)
Lionhermit: 1,000G (6.4%, 44,581G)
Jaritras: 648G (4.1%, 648G)
midori_ribbon: 639G (4.1%, 639G)
Laserman1000: 550G (3.5%, 73,450G)
Billybones5150: 500G (3.2%, 28,092G)
cgMcWhiskers: 500G (3.2%, 1,812G)
Dymntd: 500G (3.2%, 3,535G)
Fenrislfr: 500G (3.2%, 1,987G)
HaateXIII: 500G (3.2%, 18,660G)
deenglow: 500G (3.2%, 57,510G)
HorusTaurus: 444G (2.8%, 5,764G)
KasugaiRoastedPeas: 400G (2.5%, 14,119G)
ungabunga_bot: 365G (2.3%, 292,027G)
vorap: 300G (1.9%, 33,595G)
CoderCalamity: 300G (1.9%, 1,091G)
twelfthrootoftwo: 300G (1.9%, 6,220G)
EnemyController: 300G (1.9%, 162,319G)
dorman_777: 200G (1.3%, 801G)
SarrgeQc: 200G (1.3%, 208G)
vampyreinabox: 150G (1.0%, 2,062G)
Squatting_Bear: 100G (0.6%, 917G)
kuterian: 100G (0.6%, 1,196G)
Evewho: 100G (0.6%, 4,981G)
ApplesauceBoss: 100G (0.6%, 5,016G)
datadrivenbot: 100G (0.6%, 11,114G)
CosmicTactician: 100G (0.6%, 12,270G)
SeniorBunk: 100G (0.6%, 3,455G)
Triskiut: 50G (0.3%, 329G)
