Final Bets: green - 16 bets for 39,210G (46.7%, x1.14); yellow - 26 bets for 44,687G (53.3%, x0.88)

green bets:
aStatue: 22,664G (57.8%, 22,664G)
R_Raynos: 10,792G (27.5%, 10,792G)
animefan112233: 1,290G (3.3%, 9,390G)
SQUiDSQUARKLIN: 1,212G (3.1%, 1,212G)
coledot_: 1,010G (2.6%, 20,215G)
DudeMonkey77: 333G (0.8%, 11,479G)
itsonlyspencer: 300G (0.8%, 10,257G)
I_nod_my_head_when_I_lose: 300G (0.8%, 44,981G)
Teknakon: 292G (0.7%, 292G)
ericzubat: 212G (0.5%, 212G)
StormSquad: 204G (0.5%, 204G)
ANFz: 200G (0.5%, 12,013G)
ZephyrTempest: 101G (0.3%, 164,113G)
sage_the_kitsune: 100G (0.3%, 100G)
Langrisser: 100G (0.3%, 6,757G)
arch8000: 100G (0.3%, 17,738G)

yellow bets:
roofiepops: 17,665G (39.5%, 17,665G)
TheMurkGnome: 6,352G (14.2%, 6,352G)
volgrathemoose: 5,000G (11.2%, 139,888G)
Mtueni: 3,000G (6.7%, 275,682G)
GreatRedDragon: 2,000G (4.5%, 12,276G)
DarrenDinosaurs: 1,696G (3.8%, 1,696G)
Fenrislfr: 1,562G (3.5%, 15,620G)
Pochitchi: 1,000G (2.2%, 14,597G)
mr_schwifty: 1,000G (2.2%, 4,706G)
BirbBrainsBot: 1,000G (2.2%, 24,954G)
getthemoneyz: 698G (1.6%, 519,150G)
pandasforsale: 512G (1.1%, 512G)
Breakdown777: 500G (1.1%, 38,649G)
Zxpr0jk: 491G (1.1%, 491G)
nifboy: 380G (0.9%, 7,605G)
ungabunga_bot: 339G (0.8%, 176,889G)
joewcarson: 304G (0.7%, 304G)
mastershango: 266G (0.6%, 1,266G)
SwaffleWaffles: 210G (0.5%, 21,087G)
tanarusasamiya: 112G (0.3%, 112G)
AllInBot: 100G (0.2%, 100G)
mexskacin: 100G (0.2%, 5,672G)
Tougou: 100G (0.2%, 1,642G)
FriendSquirrel: 100G (0.2%, 26,276G)
ko2q: 100G (0.2%, 26,131G)
timthehoodie: 100G (0.2%, 5,127G)
