Final Bets: blue - 30 bets for 17,458G (45.2%, x1.21); champion - 24 bets for 21,199G (54.8%, x0.82)

blue bets:
lowlf: 2,001G (11.5%, 55,514G)
Mesmaster: 2,000G (11.5%, 37,390G)
JonnyCue: 1,138G (6.5%, 34,038G)
skuldar: 1,082G (6.2%, 1,082G)
Aldrammech: 1,000G (5.7%, 89,999G)
ungabunga_bot: 1,000G (5.7%, 280,730G)
BirbBrainsBot: 1,000G (5.7%, 83,285G)
JumbocactuarX27: 1,000G (5.7%, 16,386G)
cgMcWhiskers: 1,000G (5.7%, 5,290G)
sinnyil2: 852G (4.9%, 852G)
getthemoneyz: 798G (4.6%, 604,017G)
DavenIII: 576G (3.3%, 576G)
floopinthepig: 500G (2.9%, 1,994G)
ANFz: 500G (2.9%, 14,235G)
richardserious: 374G (2.1%, 374G)
YaBoy125: 344G (2.0%, 344G)
oldmanbody: 315G (1.8%, 315G)
lsspope: 300G (1.7%, 1,000G)
Egil72: 260G (1.5%, 260G)
TheRylander: 252G (1.4%, 252G)
vorap: 200G (1.1%, 15,171G)
BadErosion: 200G (1.1%, 6,200G)
Yontipon: 116G (0.7%, 116G)
DrAntiSocial: 100G (0.6%, 4,332G)
Lythe_Caraker: 100G (0.6%, 113,606G)
Heroebal: 100G (0.6%, 5,254G)
datadrivenbot: 100G (0.6%, 8,831G)
mexicanwatermelonangel: 100G (0.6%, 100G)
Bongomon7: 100G (0.6%, 1,314G)
tmo50x: 50G (0.3%, 5,523G)

champion bets:
Nizaha: 2,734G (12.9%, 5,469G)
Pie108: 2,000G (9.4%, 291,965G)
Avin_Chaos: 2,000G (9.4%, 12,315G)
ACSpree: 1,925G (9.1%, 1,925G)
DeathTaxesAndAnime: 1,664G (7.8%, 3,264G)
WoooBlaaa: 1,453G (6.9%, 1,453G)
Spartan_Paladin: 1,300G (6.1%, 56,321G)
HorusTaurus: 1,000G (4.7%, 8,713G)
SquidgyXom: 975G (4.6%, 975G)
AllInBot: 848G (4.0%, 848G)
helpimabug: 793G (3.7%, 1,587G)
catfashions: 750G (3.5%, 19,241G)
lastly: 547G (2.6%, 547G)
CosmicTactician: 500G (2.4%, 3,207G)
CapnChaos12: 500G (2.4%, 45,777G)
Jerboj: 500G (2.4%, 59,058G)
ZephyrTempest: 400G (1.9%, 4,679G)
SomeCallMeGON: 400G (1.9%, 4,897G)
RyuTsuno: 308G (1.5%, 308G)
trigger15: 250G (1.2%, 1,255G)
PetitFoulard: 240G (1.1%, 240G)
GingerDynomite: 50G (0.2%, 6,839G)
Clongetty: 50G (0.2%, 100G)
daveb_: 12G (0.1%, 2,101G)
