Final Bets: red - 20 bets for 8,965G (40.1%, x1.49); yellow - 12 bets for 13,396G (59.9%, x0.67)

red bets:
Estan_AD: 1,589G (17.7%, 3,179G)
BirbBrainsBot: 1,000G (11.2%, 124,777G)
Kyune: 856G (9.5%, 856G)
Mesmaster: 750G (8.4%, 66,403G)
CorpusCav: 685G (7.6%, 9,685G)
sSwing: 685G (7.6%, 4,685G)
Moshyhero: 650G (7.3%, 650G)
JLinkletter: 616G (6.9%, 616G)
electric_glass: 300G (3.3%, 18,918G)
twelfthrootoftwo: 300G (3.3%, 18,640G)
genericco: 300G (3.3%, 300G)
getthemoneyz: 218G (2.4%, 682,871G)
wooyuji: 216G (2.4%, 216G)
beneeto: 200G (2.2%, 200G)
ANFz: 100G (1.1%, 1,892G)
OneHundredFists: 100G (1.1%, 1,481G)
DoublePrizes: 100G (1.1%, 100G)
StealthModeLocke: 100G (1.1%, 41,777G)
datadrivenbot: 100G (1.1%, 18,309G)
neocarbuncle: 100G (1.1%, 1,313G)

yellow bets:
Firesheath: 6,365G (47.5%, 6,365G)
elburritofuerte: 1,000G (7.5%, 8,096G)
ungabunga_bot: 1,000G (7.5%, 517,946G)
Deathmaker06: 1,000G (7.5%, 10,550G)
GnielKnows: 733G (5.5%, 2,932G)
tronfonne: 716G (5.3%, 716G)
SamaelMerihem: 666G (5.0%, 1,352G)
superdevon1: 590G (4.4%, 11,816G)
mistblade: 500G (3.7%, 16,402G)
nifboy: 376G (2.8%, 376G)
Inosukeanu: 250G (1.9%, 1,519G)
AmaninAmide: 200G (1.5%, 1,795G)
