Final Bets: white - 16 bets for 18,852G (85.3%, x0.17); black - 7 bets for 3,238G (14.7%, x5.82)

white bets:
Aldrammech: 6,349G (33.7%, 6,349G)
Willjin: 5,000G (26.5%, 95,844G)
DavenIII: 3,500G (18.6%, 72,137G)
JumbocactuarX27: 1,146G (6.1%, 1,146G)
soren_of_tyto: 523G (2.8%, 523G)
dogsandcatsand: 404G (2.1%, 404G)
ArashiKurobara: 376G (2.0%, 1,315G)
tsukiyo2830: 289G (1.5%, 289G)
NewbGaming: 250G (1.3%, 1,395G)
Chihuahua_Charity: 220G (1.2%, 220G)
datadrivenbot: 200G (1.1%, 67,392G)
AllInBot: 171G (0.9%, 171G)
Lydian_C: 123G (0.7%, 2,377G)
gorgewall: 101G (0.5%, 22,103G)
RunicMagus: 100G (0.5%, 4,999G)
SephDarkheart: 100G (0.5%, 159,194G)

black bets:
Thyrandaal: 1,000G (30.9%, 32,128G)
E_Ballard: 732G (22.6%, 54,335G)
pplvee1: 524G (16.2%, 9,701G)
getthemoneyz: 310G (9.6%, 1,732,782G)
BirbBrainsBot: 274G (8.5%, 274G)
kliffw: 232G (7.2%, 20,072G)
FoxMime: 166G (5.1%, 166G)
