Final Bets: brown - 25 bets for 28,357G (63.8%, x0.57); champion - 14 bets for 16,072G (36.2%, x1.76)

brown bets:
soren_of_tyto: 9,839G (34.7%, 9,839G)
NicoSavoy: 5,000G (17.6%, 132,880G)
SeniorBunk: 3,500G (12.3%, 11,750G)
resjudicata3: 1,116G (3.9%, 1,116G)
Error72: 1,001G (3.5%, 39,929G)
mrfripps: 1,000G (3.5%, 12,145G)
old_overholt_: 1,000G (3.5%, 24,898G)
Nizaha: 856G (3.0%, 73,582G)
ShadowNinja25: 657G (2.3%, 657G)
Smugzug: 514G (1.8%, 514G)
MemoriesofFinal: 500G (1.8%, 37,420G)
ericzubat: 500G (1.8%, 5,651G)
BoneMiser: 368G (1.3%, 368G)
lijarkh: 368G (1.3%, 368G)
RagequitSA: 344G (1.2%, 344G)
AllInBot: 339G (1.2%, 339G)
CapnChaos12: 300G (1.1%, 2,263G)
killth3kid: 250G (0.9%, 12,603G)
SnarkMage: 200G (0.7%, 899G)
datadrivenbot: 200G (0.7%, 68,745G)
yagyuudarkness: 104G (0.4%, 104G)
gorgewall: 101G (0.4%, 13,572G)
silentbotanist: 100G (0.4%, 395G)
Widewalk: 100G (0.4%, 100G)
CorpusCav: 100G (0.4%, 1,654G)

champion bets:
douchetron: 7,390G (46.0%, 7,390G)
DeathTaxesAndAnime: 1,196G (7.4%, 19,062G)
getthemoneyz: 1,000G (6.2%, 1,979,458G)
BirbBrainsBot: 1,000G (6.2%, 77,578G)
Leonidusx: 1,000G (6.2%, 74,488G)
Sairentozon7: 1,000G (6.2%, 31,642G)
brokenknight201: 900G (5.6%, 22,902G)
roofiepops: 738G (4.6%, 738G)
lowlf: 552G (3.4%, 20,857G)
krombobreaker: 500G (3.1%, 7,951G)
Wonser: 388G (2.4%, 388G)
Rikrizen: 287G (1.8%, 5,750G)
Dodecadeath: 116G (0.7%, 116G)
moonliquor: 5G (0.0%, 75,116G)
