Final Bets: green - 18 bets for 11,450G (61.0%, x0.64); yellow - 15 bets for 7,323G (39.0%, x1.56)

green bets:
ThePineappleSalesman: 1,849G (16.1%, 1,849G)
Laserman1000: 1,256G (11.0%, 18,566G)
Lodrak: 1,001G (8.7%, 11,474G)
kai_shee: 1,000G (8.7%, 26,698G)
WalkerNash: 1,000G (8.7%, 12,381G)
DavenIII: 600G (5.2%, 5,196G)
Lanshaft: 572G (5.0%, 1,917G)
genoguy: 558G (4.9%, 558G)
athros13: 532G (4.6%, 532G)
PatSouI: 500G (4.4%, 31,237G)
JumbocactuarX27: 500G (4.4%, 7,646G)
volgrathemoose: 436G (3.8%, 436G)
Lazerkick: 400G (3.5%, 16,290G)
rjA0zcOQ96: 392G (3.4%, 392G)
Humble_Fabio: 284G (2.5%, 284G)
Treapvort: 200G (1.7%, 20,807G)
Cataphract116: 200G (1.7%, 1,495G)
wackyzachyy: 170G (1.5%, 170G)

yellow bets:
Jeeboheebo: 2,001G (27.3%, 8,913G)
leakimiko: 771G (10.5%, 25,718G)
Draconis345: 690G (9.4%, 690G)
NovaKnight21: 575G (7.9%, 575G)
SomeCallMeGON: 500G (6.8%, 2,349G)
friendsquirrel: 497G (6.8%, 497G)
HaplessOne: 465G (6.3%, 29,565G)
jigglefluffenstuff: 372G (5.1%, 372G)
LDSkinny: 308G (4.2%, 308G)
Verxl: 300G (4.1%, 4,486G)
RezzaDV: 284G (3.9%, 2,844G)
ZestyArsenic: 250G (3.4%, 250G)
coaks388: 200G (2.7%, 5,886G)
ko2q: 100G (1.4%, 1,138G)
getthemoneyz: 10G (0.1%, 386,307G)
