Final Bets: black - 11 bets for 7,357G (52.9%, x0.89); purple - 13 bets for 6,557G (47.1%, x1.12)

black bets:
CorpusCav: 1,500G (20.4%, 66,707G)
DeathTaxesAndAnime: 1,441G (19.6%, 1,441G)
Mushufasa_: 1,234G (16.8%, 13,510G)
AllInBot: 1,113G (15.1%, 1,113G)
NicoSavoy: 564G (7.7%, 564G)
Reddash9: 505G (6.9%, 505G)
technominari: 500G (6.8%, 83,023G)
datadrivenbot: 200G (2.7%, 88,230G)
Heroebal: 100G (1.4%, 3,033G)
J_52: 100G (1.4%, 1,779G)
smallboops: 100G (1.4%, 597G)

purple bets:
OneHundredFists: 1,069G (16.3%, 22,452G)
BirbBrainsBot: 1,000G (15.3%, 100,924G)
Laserman1000: 897G (13.7%, 8,697G)
banjooie: 785G (12.0%, 785G)
ColetteMSLP: 504G (7.7%, 17,286G)
krombobreaker: 500G (7.6%, 39,805G)
iBardic: 500G (7.6%, 2,113G)
2b_yorha_b: 400G (6.1%, 18,450G)
getthemoneyz: 336G (5.1%, 2,175,074G)
Rhyser76: 220G (3.4%, 220G)
gorgewall: 201G (3.1%, 7,165G)
cloudycube: 100G (1.5%, 656G)
DrAntiSocial: 45G (0.7%, 1,624G)
