Final Bets: red - 32 bets for 24,951G (70.5%, x0.42); blue - 23 bets for 10,438G (29.5%, x2.39)

red bets:
Aldrammech: 7,429G (29.8%, 7,429G)
OmnibotGamma: 2,236G (9.0%, 4,385G)
silentperogy: 2,000G (8.0%, 5,623G)
BenYuPoker: 1,453G (5.8%, 1,453G)
ko2q: 1,051G (4.2%, 1,051G)
robespyah: 1,000G (4.0%, 9,242G)
AlenaZarek: 871G (3.5%, 1,742G)
SkylerBunny: 798G (3.2%, 798G)
ANFz: 732G (2.9%, 732G)
pandasforsale: 666G (2.7%, 11,431G)
JIDkomu: 578G (2.3%, 578G)
jethrothrul: 572G (2.3%, 572G)
Lodrak: 501G (2.0%, 37,579G)
TheGuesty: 500G (2.0%, 6,400G)
The_Pengwin: 500G (2.0%, 16,464G)
NovaKnight21: 500G (2.0%, 7,086G)
fenixcrest: 447G (1.8%, 8,957G)
fenaen: 400G (1.6%, 400G)
MoonSlayerRS: 392G (1.6%, 392G)
urieltheflameofgod: 324G (1.3%, 324G)
kingdelas2: 300G (1.2%, 1,400G)
MrFlabyo: 296G (1.2%, 296G)
Chuckolator: 245G (1.0%, 8,373G)
AllInBot: 243G (1.0%, 243G)
Laserman1000: 216G (0.9%, 216G)
b0shii: 200G (0.8%, 736G)
tmo50x: 100G (0.4%, 657G)
zepi_zza: 100G (0.4%, 1,883G)
datadrivenbot: 100G (0.4%, 19,912G)
dayumbt: 100G (0.4%, 1,000G)
ungabunga_bot: 51G (0.2%, 44,588G)
oogthecaveman: 50G (0.2%, 7,266G)

blue bets:
Lydian_C: 1,200G (11.5%, 78,800G)
sinnyil2: 1,200G (11.5%, 45,590G)
ApplesauceBoss: 1,051G (10.1%, 1,051G)
BirbBrainsBot: 1,000G (9.6%, 240,529G)
MrDiggs49: 990G (9.5%, 990G)
getthemoneyz: 712G (6.8%, 439,769G)
Lanshaft: 600G (5.7%, 10,445G)
RunicMagus: 600G (5.7%, 35,712G)
ValtonZenola: 526G (5.0%, 526G)
lezprobe: 487G (4.7%, 487G)
DudeMonkey77: 300G (2.9%, 300G)
bad1dea: 300G (2.9%, 57,847G)
samtimemc: 256G (2.5%, 256G)
CorpusCav: 250G (2.4%, 5,800G)
KasugaiRoastedPeas: 200G (1.9%, 23,211G)
SeniorBunk: 125G (1.2%, 4,610G)
byrdturbo: 111G (1.1%, 5,793G)
JackOnFire1: 108G (1.0%, 108G)
DeathTaxesAndAnime: 100G (1.0%, 2,515G)
maichenambrai: 100G (1.0%, 2,651G)
RughSontos: 100G (1.0%, 2,937G)
Lethendra: 100G (1.0%, 100G)
roqqqpsi: 22G (0.2%, 988G)
