Final Bets: green - 23 bets for 43,605G (74.1%, x0.35); champion - 28 bets for 15,250G (25.9%, x2.86)

green bets:
BenYuPoker: 12,151G (27.9%, 24,302G)
mirapoix: 11,662G (26.7%, 11,662G)
Keeby1: 8,986G (20.6%, 8,986G)
Lydian_C: 2,300G (5.3%, 77,497G)
sinnyil2: 1,200G (2.8%, 45,787G)
Shalloween: 1,068G (2.4%, 1,068G)
shortstack99: 1,032G (2.4%, 1,032G)
robespyah: 1,000G (2.3%, 8,002G)
maichenambrai: 1,000G (2.3%, 2,212G)
jethrothrul: 576G (1.3%, 576G)
ApplesauceBoss: 568G (1.3%, 568G)
Chuckolator: 385G (0.9%, 8,637G)
SkylerBunny: 328G (0.8%, 328G)
Laserman1000: 288G (0.7%, 288G)
KasugaiRoastedPeas: 200G (0.5%, 23,542G)
dayumbt: 200G (0.5%, 200G)
byrdturbo: 111G (0.3%, 5,919G)
DeathTaxesAndAnime: 100G (0.2%, 2,394G)
maakur_: 100G (0.2%, 2,446G)
tmo50x: 100G (0.2%, 904G)
datadrivenbot: 100G (0.2%, 19,945G)
AlenaZarek: 100G (0.2%, 1,524G)
ungabunga_bot: 50G (0.1%, 48,294G)

champion bets:
Mtueni: 3,000G (19.7%, 128,303G)
BirbBrainsBot: 1,000G (6.6%, 243,340G)
bad1dea: 1,000G (6.6%, 58,247G)
fenaen: 997G (6.5%, 997G)
reinoe: 997G (6.5%, 997G)
Aldrammech: 729G (4.8%, 7,297G)
Lanshaft: 600G (3.9%, 7,396G)
RunicMagus: 600G (3.9%, 33,021G)
AllInBot: 571G (3.7%, 571G)
ANFz: 562G (3.7%, 562G)
Lodrak: 501G (3.3%, 36,787G)
kingdelas2: 500G (3.3%, 1,500G)
SeedSC: 500G (3.3%, 139,987G)
TheGuesty: 450G (3.0%, 6,953G)
lezprobe: 449G (2.9%, 449G)
urieltheflameofgod: 426G (2.8%, 426G)
kingchadking: 416G (2.7%, 416G)
friendsquirrel: 364G (2.4%, 364G)
Baron_von_Scrub: 314G (2.1%, 9,229G)
mpghappiness: 268G (1.8%, 268G)
roqqqpsi: 222G (1.5%, 1,545G)
V3rdeni: 200G (1.3%, 208G)
ZephyrTempest: 187G (1.2%, 23,130G)
MrDiggs49: 140G (0.9%, 140G)
synoda: 132G (0.9%, 132G)
zepi_zza: 100G (0.7%, 1,524G)
b0shii: 20G (0.1%, 295G)
ko2q: 5G (0.0%, 1,497G)
