Final Bets: white - 11 bets for 5,121G (33.7%, x1.97); black - 14 bets for 10,085G (66.3%, x0.51)

white bets:
neerrm: 1,001G (19.5%, 15,749G)
RongRongArts: 1,000G (19.5%, 1,215,949G)
killth3kid: 672G (13.1%, 30,835G)
SephDarkheart: 532G (10.4%, 74,392G)
Snowfats: 500G (9.8%, 13,248G)
LDSkinny: 500G (9.8%, 3,289G)
holdenmagronik: 316G (6.2%, 739G)
AllInBot: 200G (3.9%, 200G)
datadrivenbot: 200G (3.9%, 57,636G)
moonliquor: 100G (2.0%, 50,336G)
DHaveWord: 100G (2.0%, 1,203G)

black bets:
nhammen: 3,000G (29.7%, 7,172G)
Nizaha: 1,300G (12.9%, 10,071G)
latebit: 1,300G (12.9%, 14,189G)
BirbBrainsBot: 1,000G (9.9%, 27,383G)
fenaen: 817G (8.1%, 817G)
dogsandcatsand: 747G (7.4%, 1,465G)
douchetron: 600G (5.9%, 600G)
getthemoneyz: 484G (4.8%, 1,608,740G)
Lillifen: 216G (2.1%, 216G)
foxfaeez: 200G (2.0%, 3,077G)
DesertWooder: 120G (1.2%, 2,055G)
gorgewall: 101G (1.0%, 2,983G)
MinBetBot: 100G (1.0%, 24,379G)
CosmicTactician: 100G (1.0%, 6,983G)
