Final Bets: red - 11 bets for 6,829G (43.3%, x1.31); blue - 14 bets for 8,927G (56.7%, x0.76)

red bets:
YaBoy125: 2,743G (40.2%, 54,878G)
prince_rogers_nelson_: 1,000G (14.6%, 7,310G)
WitchHunterIX: 1,000G (14.6%, 18,970G)
BirbBrainsBot: 909G (13.3%, 4,178G)
josephiroth_143: 400G (5.9%, 864G)
alithesillybird: 200G (2.9%, 4,847G)
KyleWonToLiveForever: 168G (2.5%, 168G)
AllInBot: 147G (2.2%, 147G)
Lydian_C: 120G (1.8%, 13,547G)
Evewho: 100G (1.5%, 14,043G)
getthemoneyz: 42G (0.6%, 949,955G)

blue bets:
reinoe: 2,000G (22.4%, 14,349G)
OneHundredFists: 1,948G (21.8%, 3,820G)
gorgewall: 1,001G (11.2%, 21,245G)
Creggers: 1,000G (11.2%, 11,936G)
Mesmaster: 1,000G (11.2%, 111,302G)
serperemagus: 384G (4.3%, 384G)
RaIshtar: 344G (3.9%, 344G)
EnemyController: 300G (3.4%, 590,063G)
Lythe_Caraker: 250G (2.8%, 113,897G)
MadnessR: 200G (2.2%, 1,744G)
CT_5_Holy: 200G (2.2%, 1,612G)
xdwags: 100G (1.1%, 100G)
datadrivenbot: 100G (1.1%, 39,873G)
DamnThatShark: 100G (1.1%, 100G)
