Final Bets: blue - 5 bets for 2,896G (21.9%, x3.56); green - 13 bets for 10,320G (78.1%, x0.28)

blue bets:
getthemoneyz: 1,000G (34.5%, 2,053,447G)
upvla: 855G (29.5%, 855G)
nifboy: 840G (29.0%, 840G)
gorgewall: 101G (3.5%, 6,796G)
lwtest: 100G (3.5%, 7,453G)

green bets:
Runeseeker22: 2,777G (26.9%, 2,777G)
Error72: 1,688G (16.4%, 1,688G)
resjudicata3: 1,200G (11.6%, 11,961G)
MemoriesofFinal: 1,000G (9.7%, 47,127G)
BirbBrainsBot: 557G (5.4%, 107,289G)
pplvee1: 503G (4.9%, 503G)
krombobreaker: 500G (4.8%, 3,465G)
CosmicTactician: 500G (4.8%, 26,350G)
ser_pyrro: 500G (4.8%, 3,972G)
Tarheels218: 380G (3.7%, 1,906G)
wyonearth: 300G (2.9%, 4,739G)
Lolthsmeat: 292G (2.8%, 292G)
Lydian_C: 123G (1.2%, 2,587G)
