Final Bets: blue - 22 bets for 15,440G (63.7%, x0.57); white - 22 bets for 8,809G (36.3%, x1.75)

blue bets:
Baron_von_Scrub: 2,466G (16.0%, 4,932G)
Lanshaft: 2,458G (15.9%, 2,458G)
MoonSlayerRS: 1,626G (10.5%, 1,626G)
Lord_Burrah: 1,280G (8.3%, 89,280G)
Lodrak: 1,167G (7.6%, 1,167G)
NoNotBees: 892G (5.8%, 892G)
volgrathemoose: 836G (5.4%, 836G)
Break3r: 792G (5.1%, 792G)
HaateXIII: 702G (4.5%, 702G)
Aldrammech: 618G (4.0%, 6,185G)
thevilmen: 513G (3.3%, 513G)
old_overholt_: 448G (2.9%, 448G)
OmnibotGamma: 368G (2.4%, 368G)
Tithonus: 300G (1.9%, 13,635G)
KasugaiRoastedPeas: 200G (1.3%, 15,101G)
godkone: 200G (1.3%, 580G)
joewcarson: 148G (1.0%, 148G)
ungabunga_bot: 121G (0.8%, 86,630G)
RughSontos: 100G (0.6%, 3,374G)
BlinkFS: 100G (0.6%, 793G)
maakur_: 100G (0.6%, 3,478G)
ko2q: 5G (0.0%, 4,300G)

white bets:
BirbBrainsBot: 1,000G (11.4%, 19,253G)
reinoe: 1,000G (11.4%, 18,548G)
MagicBottle: 684G (7.8%, 684G)
Slowbrofist: 644G (7.3%, 644G)
TheManInPlaid: 627G (7.1%, 4,829G)
HASTERIOUS: 560G (6.4%, 560G)
I_nod_my_head_when_I_lose: 500G (5.7%, 19,893G)
fenaen: 500G (5.7%, 6,319G)
Tyerenex: 500G (5.7%, 4,043G)
SkylerBunny: 456G (5.2%, 456G)
ColetteMSLP: 400G (4.5%, 14,507G)
roofiepops: 315G (3.6%, 10,844G)
ZephyrTempest: 280G (3.2%, 44,331G)
Bulleta: 250G (2.8%, 4,386G)
OtherBrand: 240G (2.7%, 240G)
AllInBot: 219G (2.5%, 219G)
getthemoneyz: 134G (1.5%, 457,529G)
ApplesauceBoss: 100G (1.1%, 2,562G)
RunicMagus: 100G (1.1%, 3,364G)
The8thZodiac: 100G (1.1%, 1,374G)
jackkrause: 100G (1.1%, 2,474G)
SeraphPDH: 100G (1.1%, 1,474G)
