Final Bets: yellow - 9 bets for 6,515G (37.5%, x1.67); black - 16 bets for 10,854G (62.5%, x0.60)

yellow bets:
RongRongArts: 2,000G (30.7%, 321,814G)
TheChainNerd: 1,000G (15.3%, 5,427G)
BirbBrainsBot: 1,000G (15.3%, 170,754G)
HaplessOne: 666G (10.2%, 5,494G)
BoneMiser: 600G (9.2%, 600G)
ungabunga_bot: 549G (8.4%, 509,141G)
LaserRamon: 400G (6.1%, 6,093G)
brokenknight201: 200G (3.1%, 4,541G)
Evewho: 100G (1.5%, 12,334G)

black bets:
JumbocactuarX27: 2,242G (20.7%, 4,484G)
DavenIII: 2,100G (19.3%, 6,824G)
TheFALLofLindsay: 1,093G (10.1%, 1,093G)
helpimabug: 1,000G (9.2%, 10,892G)
reinoe: 1,000G (9.2%, 7,965G)
E_Ballard: 786G (7.2%, 786G)
roqqqpsi: 558G (5.1%, 564G)
joewcarson: 500G (4.6%, 5,330G)
Rastanar: 400G (3.7%, 26,486G)
getthemoneyz: 386G (3.6%, 687,044G)
rjA0zcOQ96: 312G (2.9%, 312G)
CosmicTactician: 100G (0.9%, 8,242G)
zeando: 100G (0.9%, 2,592G)
SQUiDSQUARKLIN: 100G (0.9%, 828G)
datadrivenbot: 100G (0.9%, 18,825G)
daveb_: 77G (0.7%, 2,503G)
