Final Bets: purple - 10 bets for 6,634G (39.9%, x1.50); brown - 10 bets for 9,981G (60.1%, x0.66)

purple bets:
ruebyy: 2,000G (30.1%, 5,768G)
Draconis345: 1,000G (15.1%, 63,863G)
BirbBrainsBot: 1,000G (15.1%, 52,056G)
reinoe: 1,000G (15.1%, 11,680G)
KingofTricksters: 532G (8.0%, 532G)
prince_rogers_nelson_: 500G (7.5%, 10,372G)
Mermydon: 300G (4.5%, 505G)
getthemoneyz: 102G (1.5%, 1,013,980G)
Firesheath: 100G (1.5%, 23,504G)
Ring_Wyrm: 100G (1.5%, 1,095G)

brown bets:
Digitalsocrates: 4,000G (40.1%, 26,764G)
reddwind_: 3,000G (30.1%, 29,245G)
pancake11112: 961G (9.6%, 961G)
TeaTime29: 500G (5.0%, 12,930G)
josephiroth_143: 445G (4.5%, 445G)
gorgewall: 401G (4.0%, 14,407G)
Coolguye: 250G (2.5%, 2,778G)
placidphoenix: 224G (2.2%, 224G)
BlackShi: 100G (1.0%, 1,151G)
datadrivenbot: 100G (1.0%, 44,917G)
