Final Bets: white - 13 bets for 8,244G (64.9%, x0.54); purple - 4 bets for 4,450G (35.1%, x1.85)

white bets:
reinoe: 2,000G (24.3%, 13,791G)
YaBoy125: 1,214G (14.7%, 40,473G)
BirbBrainsBot: 1,000G (12.1%, 54,167G)
reddwind_: 1,000G (12.1%, 26,245G)
Realitydown: 852G (10.3%, 852G)
getthemoneyz: 644G (7.8%, 1,014,621G)
gorgewall: 401G (4.9%, 14,249G)
josephiroth_143: 289G (3.5%, 289G)
placidphoenix: 224G (2.7%, 224G)
KingofTricksters: 216G (2.6%, 216G)
Evewho: 200G (2.4%, 3,227G)
pancake11112: 104G (1.3%, 104G)
datadrivenbot: 100G (1.2%, 44,717G)

purple bets:
Digitalsocrates: 4,000G (89.9%, 23,370G)
Lythe_Caraker: 250G (5.6%, 107,135G)
Firesheath: 100G (2.2%, 23,715G)
Ring_Wyrm: 100G (2.2%, 1,245G)
