Final Bets: yellow - 5 bets for 4,656G (39.3%, x1.55); white - 11 bets for 7,204G (60.7%, x0.65)

yellow bets:
ruebyy: 2,000G (43.0%, 8,777G)
Realitydown: 1,312G (28.2%, 1,312G)
BirbBrainsBot: 1,000G (21.5%, 54,707G)
Mermydon: 300G (6.4%, 956G)
getthemoneyz: 44G (0.9%, 1,014,969G)

white bets:
Digitalsocrates: 4,000G (55.5%, 19,370G)
reddwind_: 1,000G (13.9%, 26,785G)
josephiroth_143: 445G (6.2%, 445G)
gorgewall: 401G (5.6%, 14,465G)
placidphoenix: 345G (4.8%, 345G)
KingofTricksters: 333G (4.6%, 333G)
Evewho: 200G (2.8%, 3,335G)
pancake11112: 160G (2.2%, 160G)
Lydian_C: 120G (1.7%, 199,155G)
E_Ballard: 100G (1.4%, 17,106G)
datadrivenbot: 100G (1.4%, 44,771G)
