Final Bets: purple - 17 bets for 6,802G (51.2%, x0.95); brown - 13 bets for 6,483G (48.8%, x1.05)

purple bets:
Nickyfive: 1,833G (26.9%, 12,224G)
BirbBrainsBot: 1,000G (14.7%, 49,270G)
kaidykat: 1,000G (14.7%, 31,227G)
RaIshtar: 461G (6.8%, 461G)
gorgewall: 401G (5.9%, 18,763G)
butterbelljedi: 350G (5.1%, 1,041G)
MadnessR: 336G (4.9%, 3,364G)
getthemoneyz: 236G (3.5%, 960,628G)
DustBirdEX: 234G (3.4%, 1,771G)
Nizaha: 201G (3.0%, 32,591G)
Meta_Five: 200G (2.9%, 28,442G)
AllInBot: 100G (1.5%, 100G)
Lordminsc: 100G (1.5%, 4,261G)
nhammen: 100G (1.5%, 2,151G)
datadrivenbot: 100G (1.5%, 43,321G)
ko2q: 100G (1.5%, 4,401G)
IphoneDarkness: 50G (0.7%, 1,312G)

brown bets:
VolgraTheMoose: 2,500G (38.6%, 44,752G)
CorpusCav: 586G (9.0%, 586G)
Evewho: 564G (8.7%, 564G)
Rytor: 498G (7.7%, 498G)
ShintaroNayaka: 484G (7.5%, 484G)
Sairentozon7: 364G (5.6%, 364G)
O_Heyno: 357G (5.5%, 357G)
CapnChaos12: 300G (4.6%, 11,787G)
Azelgrim: 216G (3.3%, 216G)
DuraiPapers: 216G (3.3%, 216G)
roqqqpsi: 198G (3.1%, 900G)
reinoe: 100G (1.5%, 6,802G)
Kellios11: 100G (1.5%, 10,087G)
