Final Bets: purple - 19 bets for 9,434G (46.1%, x1.17); brown - 10 bets for 11,036G (53.9%, x0.85)

purple bets:
toka222: 1,100G (11.7%, 50,702G)
TheChainNerd: 1,091G (11.6%, 1,091G)
BlackFireUK: 1,000G (10.6%, 13,978G)
BirbBrainsBot: 1,000G (10.6%, 120,512G)
killth3kid: 592G (6.3%, 592G)
Dasutin23: 573G (6.1%, 573G)
letdowncity: 500G (5.3%, 15,071G)
Soltaker21: 500G (5.3%, 2,898G)
theshinyakuma: 500G (5.3%, 5,214G)
DustBirdEX: 496G (5.3%, 496G)
Thyrandaal: 474G (5.0%, 474G)
joewcarson: 400G (4.2%, 58,348G)
ShintaroNayaka: 400G (4.2%, 10,922G)
docmitchphd: 208G (2.2%, 208G)
wafflereaper212: 200G (2.1%, 1,901G)
Mosses76: 100G (1.1%, 37,836G)
Firesheath: 100G (1.1%, 2,779G)
RuneS_77: 100G (1.1%, 10,635G)
datadrivenbot: 100G (1.1%, 35,432G)

brown bets:
elelor: 4,418G (40.0%, 8,663G)
metagameface: 2,000G (18.1%, 7,785G)
HaateXIII: 1,547G (14.0%, 3,095G)
gooseyourself: 1,000G (9.1%, 17,123G)
prince_rogers_nelson_: 464G (4.2%, 464G)
cam_ATS: 449G (4.1%, 449G)
getthemoneyz: 420G (3.8%, 913,287G)
NovaKnight21: 398G (3.6%, 2,834G)
Quadh0nk: 240G (2.2%, 240G)
AllInBot: 100G (0.9%, 100G)
