Final Bets: black - 8 bets for 5,833G (29.4%, x2.40); purple - 11 bets for 14,005G (70.6%, x0.42)

black bets:
Nizaha: 2,531G (43.4%, 5,062G)
rocl: 1,000G (17.1%, 60,610G)
BirbBrainsBot: 1,000G (17.1%, 195,774G)
Treapvort: 618G (10.6%, 618G)
NoNotBees: 375G (6.4%, 11,627G)
SpookyCookieMonster: 109G (1.9%, 727G)
Tithonus: 100G (1.7%, 4,822G)
diottt: 100G (1.7%, 100G)

purple bets:
Lydian_C: 4,500G (32.1%, 64,898G)
HASTERIOUS: 3,035G (21.7%, 3,035G)
HaplessOne: 2,500G (17.9%, 79,740G)
ungabunga_bot: 1,000G (7.1%, 157,007G)
getthemoneyz: 1,000G (7.1%, 502,429G)
leakimiko: 600G (4.3%, 600G)
helpimabug: 507G (3.6%, 507G)
datadrivenbot: 379G (2.7%, 581G)
R_Raynos: 284G (2.0%, 284G)
ApplesauceBoss: 100G (0.7%, 4,112G)
Maeveen: 100G (0.7%, 2,921G)
