Final Bets: blue - 8 bets for 9,447G (40.4%, x1.47); brown - 17 bets for 13,924G (59.6%, x0.68)

blue bets:
maicovisky: 5,000G (52.9%, 66,561G)
CT_5_Holy: 1,094G (11.6%, 1,094G)
killth3kid: 1,000G (10.6%, 100,799G)
alterworlds: 781G (8.3%, 781G)
Zeroroute: 600G (6.4%, 600G)
MagicBottle: 520G (5.5%, 13,635G)
SephDarkheart: 252G (2.7%, 252G)
Flameatron: 200G (2.1%, 6,944G)

brown bets:
reinoe: 3,000G (21.5%, 49,586G)
Evewho: 2,000G (14.4%, 10,597G)
Lydian_C: 1,500G (10.8%, 111,844G)
VolgraTheMoose: 1,001G (7.2%, 6,027G)
LDSkinny: 1,000G (7.2%, 9,706G)
BirbBrainsBot: 1,000G (7.2%, 156,554G)
roofiepops: 888G (6.4%, 3,702G)
randgridr: 708G (5.1%, 2,833G)
HaateXIII: 500G (3.6%, 2,725G)
dogsandcatsand: 480G (3.4%, 6,251G)
roqqqpsi: 446G (3.2%, 44,610G)
Shalloween: 400G (2.9%, 62,542G)
winteriscorning: 319G (2.3%, 319G)
Forkmore: 272G (2.0%, 4,216G)
datadrivenbot: 200G (1.4%, 59,431G)
getthemoneyz: 110G (0.8%, 1,227,376G)
TasisSai: 100G (0.7%, 2,427G)
