Final Bets: red - 15 bets for 7,170G (59.1%, x0.69); blue - 7 bets for 4,962G (40.9%, x1.44)

red bets:
leakimiko: 3,226G (45.0%, 17,927G)
midori_ribbon: 550G (7.7%, 1,242G)
Who_lio42: 500G (7.0%, 3,798G)
twelfthrootoftwo: 500G (7.0%, 932G)
KasugaiRoastedPeas: 500G (7.0%, 5,111G)
Dexsana: 384G (5.4%, 384G)
Practice_Pad: 311G (4.3%, 311G)
ThePuss: 260G (3.6%, 260G)
Estan_AD: 250G (3.5%, 5,916G)
ungabunga_bot: 151G (2.1%, 359,387G)
belife42: 138G (1.9%, 138G)
datadrivenbot: 100G (1.4%, 11,956G)
Dreadedsean: 100G (1.4%, 4,227G)
Evewho: 100G (1.4%, 6,965G)
crimson_hellkite: 100G (1.4%, 7,200G)

blue bets:
ColetteMSLP: 1,000G (20.2%, 23,992G)
BirbBrainsBot: 1,000G (20.2%, 68,458G)
NovaKnight21: 862G (17.4%, 862G)
HaplessOne: 777G (15.7%, 44,813G)
sinnyil2: 555G (11.2%, 14,319G)
amiture: 500G (10.1%, 5,393G)
Jaritras: 268G (5.4%, 268G)
