Final Bets: yellow - 14 bets for 10,081G (41.4%, x1.41); purple - 15 bets for 14,246G (58.6%, x0.71)

yellow bets:
Lydian_C: 4,200G (41.7%, 92,365G)
Choco_Joe: 1,000G (9.9%, 2,392G)
letdowncity: 932G (9.2%, 932G)
Meta_Five: 800G (7.9%, 22,118G)
mirapoix: 580G (5.8%, 580G)
evontno: 500G (5.0%, 34,878G)
RaIshtar: 496G (4.9%, 496G)
killth3kid: 468G (4.6%, 4,126G)
CapnChaos12: 300G (3.0%, 8,734G)
dtrain332: 200G (2.0%, 2,161G)
boosted420: 200G (2.0%, 5,256G)
datadrivenbot: 200G (2.0%, 32,858G)
roqqqpsi: 197G (2.0%, 208G)
getthemoneyz: 8G (0.1%, 1,338,173G)

purple bets:
douchetron: 5,512G (38.7%, 10,808G)
TheChainNerd: 2,492G (17.5%, 9,968G)
Error72: 1,601G (11.2%, 3,140G)
Thyrandaal: 1,314G (9.2%, 1,314G)
BirbBrainsBot: 1,000G (7.0%, 153,714G)
coralreeferz: 500G (3.5%, 24,200G)
triniculo: 329G (2.3%, 329G)
DouglasDragonThePoet: 324G (2.3%, 324G)
oldchris: 250G (1.8%, 4,143G)
gorgewall: 201G (1.4%, 3,717G)
AllInBot: 200G (1.4%, 200G)
shineeyo: 200G (1.4%, 11,577G)
ohhinm: 123G (0.9%, 5,947G)
cocoaking09: 100G (0.7%, 1,636G)
Firesheath: 100G (0.7%, 13,292G)
