Final Bets: purple - 16 bets for 7,236G (47.4%, x1.11); brown - 15 bets for 8,033G (52.6%, x0.90)

purple bets:
LDSkinny: 1,092G (15.1%, 1,092G)
Aldrammech: 1,000G (13.8%, 8,437G)
ungabunga_bot: 1,000G (13.8%, 505,033G)
Mesmaster: 1,000G (13.8%, 78,103G)
tronfonne: 764G (10.6%, 764G)
HaateXIII: 448G (6.2%, 448G)
Lanshaft: 388G (5.4%, 5,243G)
Kezia444: 337G (4.7%, 337G)
skillomono: 329G (4.5%, 329G)
gorgewall: 301G (4.2%, 12,491G)
MADTheta: 150G (2.1%, 910G)
FoeSquirrel: 100G (1.4%, 1,976G)
Lawndough: 100G (1.4%, 2,328G)
VulcanPanderp: 100G (1.4%, 8,607G)
AmaninAmide: 75G (1.0%, 327G)
getthemoneyz: 52G (0.7%, 683,853G)

brown bets:
RunicMagus: 1,200G (14.9%, 33,487G)
Lydian_C: 1,200G (14.9%, 6,057G)
BirbBrainsBot: 1,000G (12.4%, 171,682G)
Estan_AD: 943G (11.7%, 943G)
rico_flex: 888G (11.1%, 26,117G)
FriendSquirrel: 544G (6.8%, 544G)
fox_mulder23: 454G (5.7%, 454G)
Evewho: 364G (4.5%, 364G)
Lali_Lulelo: 364G (4.5%, 364G)
Tsuike: 340G (4.2%, 340G)
beowulfrulez: 280G (3.5%, 280G)
madming25: 140G (1.7%, 140G)
CandyTamer: 128G (1.6%, 777G)
Kyune: 100G (1.2%, 5,614G)
daveb_: 88G (1.1%, 2,202G)
