Final Bets: red - 25 bets for 15,149G (67.5%, x0.48); blue - 16 bets for 7,310G (32.5%, x2.07)

red bets:
MagicBottle: 2,735G (18.1%, 91,188G)
ko2q: 1,995G (13.2%, 1,995G)
AmewTheFox: 1,500G (9.9%, 12,914G)
BirbBrainsBot: 1,000G (6.6%, 73,691G)
Mesmaster: 1,000G (6.6%, 24,552G)
Conome: 1,000G (6.6%, 2,827G)
Estan_AD: 650G (4.3%, 1,300G)
ACSpree: 621G (4.1%, 621G)
reinoe: 600G (4.0%, 600G)
ColetteMSLP: 550G (3.6%, 18,281G)
midori_ribbon: 500G (3.3%, 1,463G)
gorgewall: 400G (2.6%, 10,745G)
NovaKnight21: 396G (2.6%, 396G)
AllInBot: 376G (2.5%, 376G)
KasugaiRoastedPeas: 300G (2.0%, 4,276G)
cgMcWhiskers: 216G (1.4%, 216G)
lijarkh: 200G (1.3%, 3,171G)
squiregonnacary: 200G (1.3%, 200G)
Chompie: 200G (1.3%, 7,507G)
getthemoneyz: 186G (1.2%, 601,637G)
skuldar: 124G (0.8%, 124G)
Aremath: 100G (0.7%, 3,270G)
Realitydown: 100G (0.7%, 5,786G)
datadrivenbot: 100G (0.7%, 6,537G)
Dymntd: 100G (0.7%, 6,811G)

blue bets:
leakimiko: 2,011G (27.5%, 4,470G)
DeathTaxesAndAnime: 785G (10.7%, 785G)
Laserman1000: 776G (10.6%, 56,876G)
Shalloween: 600G (8.2%, 66,639G)
killth3kid: 500G (6.8%, 39,895G)
helpimabug: 500G (6.8%, 2,500G)
RyuTsuno: 420G (5.7%, 420G)
vorap: 400G (5.5%, 14,728G)
LAGBOT30000: 375G (5.1%, 37,534G)
LivingHitokiri: 280G (3.8%, 280G)
Pink_LuigiX: 252G (3.4%, 252G)
ZephyrTempest: 101G (1.4%, 3,953G)
Firesheath: 100G (1.4%, 8,763G)
astrozin11: 100G (1.4%, 5,860G)
Evewho: 100G (1.4%, 7,583G)
ZZ_Yoshi: 10G (0.1%, 68,794G)
