Final Bets: purple - 14 bets for 6,799G (37.3%, x1.68); brown - 13 bets for 11,427G (62.7%, x0.59)

purple bets:
Mesmaster: 2,000G (29.4%, 27,574G)
DeathTaxesAndAnime: 1,815G (26.7%, 3,559G)
Pink_LuigiX: 758G (11.1%, 758G)
Nickyfive: 508G (7.5%, 508G)
LAGBOT30000: 398G (5.9%, 39,280G)
evdoggity: 300G (4.4%, 4,340G)
getthemoneyz: 204G (3.0%, 602,255G)
twelfthrootoftwo: 200G (2.9%, 2,543G)
Reductions: 116G (1.7%, 116G)
AllInBot: 100G (1.5%, 100G)
datadrivenbot: 100G (1.5%, 6,237G)
Evewho: 100G (1.5%, 7,590G)
Legitimized: 100G (1.5%, 22,669G)
Dymntd: 100G (1.5%, 5,211G)

brown bets:
MagicBottle: 4,290G (37.5%, 85,818G)
DarrenDinosaurs: 1,347G (11.8%, 1,347G)
BirbBrainsBot: 1,000G (8.8%, 70,691G)
Powermhero: 1,000G (8.8%, 5,000G)
sinnyil2: 840G (7.4%, 840G)
Laserman1000: 800G (7.0%, 60,800G)
killth3kid: 500G (4.4%, 42,212G)
Billybones5150: 500G (4.4%, 20,318G)
ACSpree: 400G (3.5%, 931G)
gorgewall: 200G (1.8%, 9,945G)
AmewTheFox: 200G (1.8%, 12,528G)
cgMcWhiskers: 200G (1.8%, 1,789G)
powergems: 150G (1.3%, 18,724G)
