Final Bets: purple - 17 bets for 14,415G (70.3%, x0.42); brown - 11 bets for 6,090G (29.7%, x2.37)

purple bets:
Nickyfive: 2,967G (20.6%, 5,934G)
HaplessOne: 1,500G (10.4%, 196,398G)
mpghappiness: 1,001G (6.9%, 27,476G)
Draconis345: 1,000G (6.9%, 73,379G)
BirbBrainsBot: 1,000G (6.9%, 99,996G)
Deathmaker06: 1,000G (6.9%, 6,198G)
skillomono: 1,000G (6.9%, 5,204G)
HaateXIII: 770G (5.3%, 770G)
E_Ballard: 738G (5.1%, 738G)
Laserman1000: 682G (4.7%, 6,082G)
AUrato: 515G (3.6%, 12,896G)
killth3kid: 500G (3.5%, 11,536G)
SerumD: 500G (3.5%, 3,980G)
fenaen: 500G (3.5%, 1,104G)
CapnChaos12: 492G (3.4%, 492G)
Vex_Novisk: 200G (1.4%, 3,010G)
zepharoth89: 50G (0.3%, 350G)

brown bets:
Baron_von_Scrub: 2,550G (41.9%, 2,550G)
DustBirdEX: 789G (13.0%, 35,712G)
WunUP: 769G (12.6%, 769G)
DavenIII: 550G (9.0%, 8,617G)
JLinkletter: 422G (6.9%, 422G)
Tsuike: 402G (6.6%, 804G)
EnemyController: 200G (3.3%, 300,174G)
getthemoneyz: 108G (1.8%, 690,847G)
nifboy: 100G (1.6%, 8,752G)
GladiatorLupe: 100G (1.6%, 3,601G)
datadrivenbot: 100G (1.6%, 22,043G)
