Final Bets: black - 16 bets for 11,238G (56.6%, x0.77); champion - 18 bets for 8,602G (43.4%, x1.31)

black bets:
Nickyfive: 3,093G (27.5%, 6,187G)
DudeMonkey77: 2,312G (20.6%, 2,312G)
mpghappiness: 1,001G (8.9%, 26,462G)
DustBirdEX: 789G (7.0%, 36,848G)
JLinkletter: 702G (6.2%, 702G)
Laserman1000: 634G (5.6%, 6,834G)
GladiatorLupe: 500G (4.4%, 4,436G)
killth3kid: 500G (4.4%, 10,251G)
Saldarin: 460G (4.1%, 460G)
zWEAPONz: 367G (3.3%, 367G)
d4rr1n: 300G (2.7%, 5,400G)
WunUP: 180G (1.6%, 180G)
maakur_: 100G (0.9%, 2,283G)
datadrivenbot: 100G (0.9%, 22,163G)
skillomono: 100G (0.9%, 5,626G)
CosmicTactician: 100G (0.9%, 22,356G)

champion bets:
sinnyil2: 2,400G (27.9%, 4,801G)
BirbBrainsBot: 1,000G (11.6%, 100,783G)
HaplessOne: 666G (7.7%, 195,268G)
JumbocactuarX27: 601G (7.0%, 601G)
Zoomopie: 576G (6.7%, 576G)
bruubarg: 500G (5.8%, 6,840G)
EnemyController: 500G (5.8%, 300,617G)
Deathmaker06: 500G (5.8%, 6,620G)
StealthModeLocke: 320G (3.7%, 320G)
evdoggity: 300G (3.5%, 4,628G)
nifboy: 250G (2.9%, 8,652G)
tsukiyo2830: 203G (2.4%, 203G)
Vex_Novisk: 200G (2.3%, 3,145G)
Moshyhero: 200G (2.3%, 4,139G)
getthemoneyz: 136G (1.6%, 690,666G)
Bryon_W: 100G (1.2%, 2,576G)
Tsuike: 100G (1.2%, 684G)
DrAntiSocial: 50G (0.6%, 18,075G)
