Final Bets: blue - 7 bets for 1,912G (33.1%, x2.02); yellow - 8 bets for 3,870G (66.9%, x0.49)

blue bets:
LAGBOT30000: 515G (26.9%, 10,316G)
ShintaroNayaka: 400G (20.9%, 4,420G)
DAC169: 393G (20.6%, 393G)
CT_5_Holy: 288G (15.1%, 288G)
Nelrith: 116G (6.1%, 116G)
datadrivenbot: 100G (5.2%, 33,425G)
Evewho: 100G (5.2%, 4,901G)

yellow bets:
NovaKnight21: 1,596G (41.2%, 1,596G)
BirbBrainsBot: 863G (22.3%, 67,408G)
joewcarson: 400G (10.3%, 16,747G)
gogofromtogo: 340G (8.8%, 340G)
twelfthrootoftwo: 300G (7.8%, 1,455G)
getthemoneyz: 170G (4.4%, 820,544G)
gorgewall: 101G (2.6%, 3,559G)
fluffskull: 100G (2.6%, 391G)
