Final Bets: purple - 17 bets for 13,832G (78.1%, x0.28); brown - 12 bets for 3,871G (21.9%, x3.57)

purple bets:
Jeeboheebo: 3,155G (22.8%, 6,187G)
LDSkinny: 2,000G (14.5%, 3,381G)
RongRongArts: 1,782G (12.9%, 1,782G)
NovaKnight21: 1,200G (8.7%, 8,489G)
ForagerCats: 1,024G (7.4%, 1,024G)
MoonSlayerRS: 1,007G (7.3%, 1,007G)
reinoe: 1,000G (7.2%, 12,360G)
BirbBrainsBot: 665G (4.8%, 665G)
upvla: 532G (3.8%, 2,020G)
lijarkh: 364G (2.6%, 364G)
ZephyrTempest: 364G (2.6%, 38,304G)
Slowbrofist: 284G (2.1%, 284G)
CidDurai: 200G (1.4%, 3,623G)
AllInBot: 100G (0.7%, 100G)
maakur_: 100G (0.7%, 4,792G)
tmo50x: 50G (0.4%, 1,647G)
ko2q: 5G (0.0%, 8,900G)

brown bets:
HeroponThrawn: 1,000G (25.8%, 7,032G)
TheChainNerd: 1,000G (25.8%, 3,040G)
kingchadking: 472G (12.2%, 472G)
Baron_von_Scrub: 356G (9.2%, 356G)
Draconis345: 332G (8.6%, 332G)
JustSuperish: 200G (5.2%, 2,824G)
getthemoneyz: 188G (4.9%, 450,188G)
friendsquirrel: 100G (2.6%, 6,894G)
RunicMagus: 100G (2.6%, 571G)
jhazor: 100G (2.6%, 1,425G)
roqqqpsi: 22G (0.6%, 2,646G)
PatSouI: 1G (0.0%, 5,006G)
