Final Bets: white - 13 bets for 9,484G (57.7%, x0.73); black - 9 bets for 6,945G (42.3%, x1.37)

white bets:
DeathTaxesAndAnime: 2,500G (26.4%, 99,938G)
gorgewall: 1,410G (14.9%, 1,410G)
latebit: 1,000G (10.5%, 52,939G)
BirbBrainsBot: 1,000G (10.5%, 170,266G)
BaronHaynes: 1,000G (10.5%, 65,742G)
zenlion: 1,000G (10.5%, 15,019G)
Zerguzen: 400G (4.2%, 16,016G)
getthemoneyz: 254G (2.7%, 1,783,124G)
rocl: 220G (2.3%, 24,264G)
datadrivenbot: 200G (2.1%, 63,326G)
iBardic: 200G (2.1%, 5,407G)
RonaldoTheGypsy: 200G (2.1%, 809G)
Yangusburger: 100G (1.1%, 100G)

black bets:
Firesheath: 3,567G (51.4%, 3,567G)
thunderducker: 1,014G (14.6%, 1,014G)
BartTradingCompany: 569G (8.2%, 5,695G)
Leonidusx: 500G (7.2%, 8,563G)
lowlf: 436G (6.3%, 436G)
Treafa: 384G (5.5%, 4,031G)
Raixelol: 336G (4.8%, 2,543G)
pepperbuster: 100G (1.4%, 100G)
MemoriesofFinal: 39G (0.6%, 1,331G)
