Final Bets: white - 16 bets for 16,099G (74.7%, x0.34); brown - 11 bets for 5,444G (25.3%, x2.96)

white bets:
Aldrammech: 5,000G (31.1%, 35,433G)
toka222: 3,500G (21.7%, 61,203G)
J2DaBibbles: 2,000G (12.4%, 21,437G)
HaplessOne: 1,500G (9.3%, 247,588G)
BirbBrainsBot: 1,000G (6.2%, 157,975G)
volgrathemoose: 696G (4.3%, 696G)
killth3kid: 500G (3.1%, 17,662G)
Mudrockk: 400G (2.5%, 3,296G)
bruubarg: 319G (2.0%, 3,619G)
Breakdown777: 300G (1.9%, 6,256G)
proper__noun__: 250G (1.6%, 8,077G)
Seawalker777: 200G (1.2%, 2,152G)
getthemoneyz: 134G (0.8%, 717,446G)
gggamezzz: 100G (0.6%, 3,991G)
maakur_: 100G (0.6%, 6,401G)
datadrivenbot: 100G (0.6%, 21,919G)

brown bets:
catfashions: 1,039G (19.1%, 1,039G)
dogsandcatsand: 1,000G (18.4%, 4,161G)
NIghtdew14: 1,000G (18.4%, 5,961G)
Lionhermit: 1,000G (18.4%, 12,158G)
CorpusCav: 400G (7.3%, 2,367G)
HorusTaurus: 316G (5.8%, 316G)
lanouh: 211G (3.9%, 211G)
AllInBot: 178G (3.3%, 178G)
E_Ballard: 100G (1.8%, 9,043G)
Saldarin: 100G (1.8%, 1,037G)
letdowncity: 100G (1.8%, 3,312G)
