Final Bets: green - 23 bets for 13,505G (58.4%, x0.71); yellow - 8 bets for 9,632G (41.6%, x1.40)

green bets:
SkylerBunny: 3,000G (22.2%, 498,915G)
TheChainNerd: 1,724G (12.8%, 6,897G)
UmaiJam: 1,300G (9.6%, 38,443G)
BirbBrainsBot: 1,000G (7.4%, 129,602G)
amiture: 1,000G (7.4%, 27,583G)
ShintaroNayaka: 968G (7.2%, 968G)
neerrm: 888G (6.6%, 57,443G)
Shalloween: 600G (4.4%, 72,935G)
shs_: 500G (3.7%, 12,838G)
Belkra: 364G (2.7%, 364G)
SuzakuReii: 260G (1.9%, 260G)
getthemoneyz: 248G (1.8%, 1,109,241G)
ArashiKurobara: 220G (1.6%, 220G)
n2ash: 208G (1.5%, 208G)
gorgewall: 201G (1.5%, 26,559G)
CosmicTactician: 200G (1.5%, 21,480G)
Combo_Nerd: 200G (1.5%, 3,316G)
docmitchphd: 120G (0.9%, 120G)
Smokegiant: 104G (0.8%, 104G)
maakur_: 100G (0.7%, 74,876G)
nifboy: 100G (0.7%, 3,013G)
datadrivenbot: 100G (0.7%, 47,037G)
Grandlanzer: 100G (0.7%, 37,726G)

yellow bets:
Lydian_C: 4,200G (43.6%, 175,658G)
Forkmore: 1,000G (10.4%, 3,639G)
reinoe: 1,000G (10.4%, 19,990G)
dogsandcatsand: 1,000G (10.4%, 10,023G)
prince_rogers_nelson_: 1,000G (10.4%, 14,287G)
YaBoy125: 632G (6.6%, 632G)
Lub1s: 500G (5.2%, 1,352G)
mrfripps: 300G (3.1%, 4,469G)
