Final Bets: blue - 11 bets for 6,266G (32.0%, x2.13); green - 19 bets for 13,331G (68.0%, x0.47)

blue bets:
toka222: 2,200G (35.1%, 28,814G)
ACSpree: 1,201G (19.2%, 1,201G)
nifboy: 747G (11.9%, 747G)
BirbBrainsBot: 410G (6.5%, 72,326G)
Lionhermit: 400G (6.4%, 47,190G)
HyorinMaster: 314G (5.0%, 314G)
SQUiDSQUARKLIN: 300G (4.8%, 4,086G)
getthemoneyz: 294G (4.7%, 673,080G)
EnemyController: 200G (3.2%, 243,498G)
ko2q: 100G (1.6%, 2,529G)
Firesheath: 100G (1.6%, 25,164G)

green bets:
JumbocactuarX27: 4,531G (34.0%, 4,531G)
IndecisiveNinja: 1,894G (14.2%, 1,894G)
DavenIII: 1,600G (12.0%, 14,082G)
LottieStarlight: 1,000G (7.5%, 1,000G)
killth3kid: 548G (4.1%, 1,310G)
DustBirdEX: 516G (3.9%, 516G)
katgreen: 469G (3.5%, 469G)
imafella: 410G (3.1%, 2,738G)
Legionofwar: 407G (3.1%, 407G)
jwchapm: 352G (2.6%, 352G)
joewcarson: 344G (2.6%, 344G)
LivingHitokiri: 336G (2.5%, 336G)
CosmicTactician: 300G (2.3%, 9,768G)
SedeferiS: 200G (1.5%, 700G)
ungabunga_bot: 108G (0.8%, 493,100G)
MalakiGenesys: 104G (0.8%, 476G)
PookaPrime: 100G (0.8%, 100G)
datadrivenbot: 100G (0.8%, 19,129G)
daveb_: 12G (0.1%, 1,966G)
