Final Bets: green - 25 bets for 19,840G (85.5%, x0.17); brown - 9 bets for 3,369G (14.5%, x5.89)

green bets:
foofermoofer: 3,641G (18.4%, 3,641G)
Bilabrin: 3,500G (17.6%, 11,921G)
dogsandcatsand: 2,000G (10.1%, 16,856G)
fenaen: 1,821G (9.2%, 1,821G)
LottieStarlight: 1,470G (7.4%, 1,470G)
DustBirdEX: 1,003G (5.1%, 1,003G)
katgreen: 910G (4.6%, 910G)
imafella: 768G (3.9%, 3,072G)
Laserman1000: 684G (3.4%, 28,984G)
LivingHitokiri: 653G (3.3%, 653G)
jwchapm: 553G (2.8%, 553G)
mpghappiness: 470G (2.4%, 470G)
Jeeboheebo: 436G (2.2%, 436G)
nifboy: 352G (1.8%, 352G)
Lionhermit: 250G (1.3%, 47,111G)
BirbBrainsBot: 249G (1.3%, 70,916G)
ChrisWado: 200G (1.0%, 1,062G)
PookaPrime: 179G (0.9%, 179G)
ungabunga_bot: 101G (0.5%, 493,472G)
Davarian: 100G (0.5%, 809G)
CosmicTactician: 100G (0.5%, 9,909G)
ko2q: 100G (0.5%, 2,329G)
T8T3R: 100G (0.5%, 372G)
datadrivenbot: 100G (0.5%, 19,208G)
wooyuji: 100G (0.5%, 100G)

brown bets:
JumbocactuarX27: 786G (23.3%, 786G)
SedeferiS: 594G (17.6%, 594G)
Kronikle: 500G (14.8%, 6,366G)
IndecisiveNinja: 484G (14.4%, 484G)
Aneyus: 336G (10.0%, 33,624G)
getthemoneyz: 226G (6.7%, 672,746G)
ferroniss: 200G (5.9%, 6,965G)
MalakiGenesys: 143G (4.2%, 573G)
MaverickUmbracato: 100G (3.0%, 1,892G)
