Final Bets: white - 11 bets for 5,907G (36.1%, x1.77); black - 17 bets for 10,448G (63.9%, x0.57)

white bets:
Mesmaster: 2,164G (36.6%, 2,164G)
DeathTaxesAndAnime: 852G (14.4%, 852G)
getthemoneyz: 646G (10.9%, 2,068,166G)
OneHundredFists: 564G (9.5%, 564G)
old_overholt_: 300G (5.1%, 28,944G)
otakutaylor: 300G (5.1%, 3,786G)
thunderducker: 300G (5.1%, 5,467G)
AllInBot: 284G (4.8%, 284G)
scsuperstar: 216G (3.7%, 216G)
BirbBrainsBot: 181G (3.1%, 151,292G)
Jabuamba: 100G (1.7%, 116G)

black bets:
mindblownnnn: 2,000G (19.1%, 20,324G)
CorpusCav: 1,500G (14.4%, 15,301G)
NovaKnight21: 1,250G (12.0%, 1,250G)
gorgewall: 1,091G (10.4%, 1,091G)
Morsigil: 1,000G (9.6%, 5,065G)
Runeseeker22: 807G (7.7%, 16,149G)
ghazzzzzz: 590G (5.6%, 590G)
bufuman: 499G (4.8%, 499G)
killabandaid: 330G (3.2%, 330G)
J_52: 300G (2.9%, 2,787G)
SnarkMage: 234G (2.2%, 1,874G)
datadrivenbot: 200G (1.9%, 74,028G)
XerxesMindbreaker: 185G (1.8%, 185G)
lunar_kaos: 150G (1.4%, 800G)
Lolthsmeat: 112G (1.1%, 112G)
hecsec: 100G (1.0%, 699G)
Genkidou: 100G (1.0%, 3,147G)
