Final Bets: blue - 9 bets for 7,333G (45.1%, x1.22); green - 18 bets for 8,932G (54.9%, x0.82)

blue bets:
thunderducker: 3,667G (50.0%, 3,667G)
BirbBrainsBot: 1,000G (13.6%, 150,161G)
Kronikle: 684G (9.3%, 24,425G)
lowlf: 600G (8.2%, 24,013G)
Evewho: 500G (6.8%, 4,749G)
MemoriesofFinal: 500G (6.8%, 66,988G)
getthemoneyz: 178G (2.4%, 2,067,611G)
bufuman: 104G (1.4%, 104G)
minorfffanatic1: 100G (1.4%, 783G)

green bets:
mindblownnnn: 2,500G (28.0%, 25,862G)
HaateXIII: 818G (9.2%, 818G)
Runeseeker22: 788G (8.8%, 15,775G)
gorgewall: 768G (8.6%, 768G)
OneHundredFists: 564G (6.3%, 564G)
scsuperstar: 533G (6.0%, 533G)
killabandaid: 517G (5.8%, 517G)
CorpusCav: 500G (5.6%, 17,651G)
AllInBot: 494G (5.5%, 494G)
otakutaylor: 300G (3.4%, 3,086G)
DeathTaxesAndAnime: 252G (2.8%, 2,104G)
datadrivenbot: 200G (2.2%, 73,941G)
lunar_kaos: 150G (1.7%, 785G)
SnarkMage: 132G (1.5%, 2,200G)
Lolthsmeat: 112G (1.3%, 112G)
XerxesMindbreaker: 104G (1.2%, 104G)
J_52: 100G (1.1%, 2,857G)
hecsec: 100G (1.1%, 556G)
