Final Bets: purple - 21 bets for 13,800G (61.6%, x0.62); brown - 14 bets for 8,586G (38.4%, x1.61)

purple bets:
VirulenceXT: 3,000G (21.7%, 101,947G)
alecttox: 2,238G (16.2%, 2,238G)
alrightbye: 1,896G (13.7%, 47,415G)
ungabunga_bot: 1,000G (7.2%, 264,971G)
BirbBrainsBot: 1,000G (7.2%, 186,971G)
Lord_Burrah: 1,000G (7.2%, 106,872G)
leakimiko: 856G (6.2%, 5,711G)
Bahamut64: 500G (3.6%, 8,862G)
NovaKnight21: 372G (2.7%, 372G)
lifeguard_dan: 280G (2.0%, 280G)
ANFz: 256G (1.9%, 23,011G)
museofdoom: 200G (1.4%, 204G)
Realitydown: 200G (1.4%, 1,551G)
MMagnetMan: 200G (1.4%, 1,223G)
Lavatis: 200G (1.4%, 3,478G)
WrathfulRemy: 129G (0.9%, 129G)
b0shii: 123G (0.9%, 5,539G)
maakur_: 100G (0.7%, 113,112G)
DeathTaxesAndAnime: 100G (0.7%, 5,343G)
datadrivenbot: 100G (0.7%, 2,697G)
richardserious: 50G (0.4%, 851G)

brown bets:
Pie108: 2,000G (23.3%, 120,808G)
fenaen: 1,500G (17.5%, 76,456G)
Odin007_88: 1,000G (11.6%, 3,104G)
nedryerson01: 800G (9.3%, 3,749G)
itzover9001: 714G (8.3%, 714G)
OneHundredFists: 506G (5.9%, 506G)
Breakdown777: 500G (5.8%, 23,813G)
Squatting_Bear: 400G (4.7%, 3,271G)
FoeSquirrel: 362G (4.2%, 724G)
TheRylander: 300G (3.5%, 2,046G)
nifboy: 187G (2.2%, 4,681G)
Xerisse: 116G (1.4%, 116G)
ZephyrTempest: 101G (1.2%, 189,028G)
FriendSquirrel: 100G (1.2%, 30,193G)
