Final Bets: red - 17 bets for 7,886G (64.9%, x0.54); blue - 11 bets for 4,268G (35.1%, x1.85)

red bets:
VolgraTheMoose: 1,001G (12.7%, 3,475G)
NicoSavoy: 1,000G (12.7%, 257,186G)
maakur_: 806G (10.2%, 806G)
gorgewall: 668G (8.5%, 668G)
Laserman1000: 645G (8.2%, 2,745G)
getthemoneyz: 592G (7.5%, 1,328,184G)
fluffskull: 500G (6.3%, 4,108G)
Aldrammech: 500G (6.3%, 12,751G)
reinoe: 500G (6.3%, 79,888G)
killth3kid: 464G (5.9%, 1,473G)
CapnChaos12: 300G (3.8%, 3,833G)
Evewho: 200G (2.5%, 2,026G)
datadrivenbot: 200G (2.5%, 34,780G)
InfiniteContinues: 198G (2.5%, 198G)
lewdylew: 108G (1.4%, 108G)
holandrix: 104G (1.3%, 104G)
Miku_Shikhu: 100G (1.3%, 14,916G)

blue bets:
BirbBrainsBot: 1,000G (23.4%, 132,612G)
KyleWonToLiveForever: 1,000G (23.4%, 10,748G)
Nizaha: 560G (13.1%, 14,784G)
roqqqpsi: 380G (8.9%, 400G)
coralreeferz: 350G (8.2%, 22,843G)
furrytomahawkk: 328G (7.7%, 328G)
AllInBot: 200G (4.7%, 200G)
Brainstew29: 150G (3.5%, 747G)
mirapoix: 100G (2.3%, 2,291G)
Powermhero: 100G (2.3%, 27,292G)
Thyrandaal: 100G (2.3%, 2,203G)
