Final Bets: yellow - 14 bets for 8,224G (30.6%, x2.26); champion - 11 bets for 18,615G (69.4%, x0.44)

yellow bets:
HaateXIII: 1,516G (18.4%, 1,516G)
VolgraTheMoose: 1,501G (18.3%, 8,246G)
gorgewall: 1,001G (12.2%, 3,274G)
DarrenDinosaurs: 895G (10.9%, 895G)
Vultuous: 728G (8.9%, 728G)
furrytomahawkk: 556G (6.8%, 2,056G)
killth3kid: 468G (5.7%, 1,580G)
ThreeMileIsland: 462G (5.6%, 462G)
SephDarkheart: 336G (4.1%, 45,567G)
skipsandwiches: 256G (3.1%, 256G)
support_npc: 200G (2.4%, 901G)
datadrivenbot: 200G (2.4%, 33,997G)
ANFz: 100G (1.2%, 39,879G)
moonliquor: 5G (0.1%, 33,978G)

champion bets:
helpimabug: 14,323G (76.9%, 28,646G)
Zeroroute: 1,033G (5.5%, 1,033G)
BirbBrainsBot: 1,000G (5.4%, 132,903G)
Nizaha: 560G (3.0%, 16,352G)
Laserman1000: 489G (2.6%, 2,389G)
AllInBot: 344G (1.8%, 344G)
Thyrandaal: 332G (1.8%, 332G)
ohhinm: 216G (1.2%, 216G)
NeonTarget: 208G (1.1%, 208G)
nhammen: 100G (0.5%, 9,901G)
getthemoneyz: 10G (0.1%, 1,329,709G)
