High Risers:
1. Lolthsmeat: +8,183G
2. thunderducker: +3,706G
3. Zachara: +2,500G
4. Thyrandaal: +2,495G
5. russell2x: +1,917G
6. Rytor: +1,416G
7. HaplessOne: +1,315G
8. DavenIII: +713G
9. xsifthewolf: +546G
10. PuzzleSecretary: +533G
11. mindblownnnn: +524G
12. tinytittyfiend: +418G
13. gongonono: +275G
14. ar_tactic: +254G
15. LDSkinny: +213G
16. AltimaMantoid: +100G
17. ser_pyrro: +28G
18. reddwind_: -46G
19. Girfred: -49G
20. 2b_yorha_b: -87G
21. Bongomon7: -100G
22. nifboy: -100G
23. ruebyy: -200G
24. ayeayex3: -200G
25. Jeeboheebo: -200G
26. just_here2: -300G
27. nok____: -300G
28. powergems: -300G
29. run_with_stone_GUNs: -300G
30. ColetteMSLP: -300G
31. dogsandcatsand: -300G
32. silentkaster: -400G
33. CosmicTactician: -438G
34. Mushufasa_: -467G
35. SephDarkheart: -488G
36. Error72: -574G
37. lwtest: -688G
38. Bryon_W: -900G
39. skipsandwiches: -1,000G
40. VolgraTheMoose: -1,000G
41. Zagorsek: -1,000G
42. khelor_: -1,000G
43. superdevon1: -1,000G
44. MemoriesofFinal: -1,000G
45. Forkmore: -1,061G
46. Lord_Burrah: -1,112G
47. Lord_Gwarth: -1,506G
48. sireaulou: -1,592G
49. LuckyLuckLuc2: -2,035G
50. E_Ballard: -2,596G
51. latebit: -2,738G
52. Riley331: -5,507G
