Final Bets: red - 10 bets for 4,361G (42.0%, x1.38); blue - 11 bets for 6,017G (58.0%, x0.72)

red bets:
LuckyLuckLuc2: 1,311G (30.1%, 11,829G)
SephDarkheart: 924G (21.2%, 924G)
getthemoneyz: 810G (18.6%, 2,109,720G)
2b_yorha_b: 303G (6.9%, 303G)
AbandonedHall: 244G (5.6%, 244G)
PuzzleSecretary: 216G (5.0%, 216G)
datadrivenbot: 200G (4.6%, 82,018G)
Girfred: 153G (3.5%, 153G)
Bongomon7: 100G (2.3%, 3,711G)
lwtest: 100G (2.3%, 11,053G)

blue bets:
Error72: 1,001G (16.6%, 13,193G)
DavenIII: 984G (16.4%, 984G)
Riley331: 927G (15.4%, 4,639G)
HaplessOne: 646G (10.7%, 646G)
CosmicTactician: 500G (8.3%, 41,380G)
BirbBrainsBot: 435G (7.2%, 93,356G)
ar_tactic: 350G (5.8%, 75,533G)
Lord_Gwarth: 350G (5.8%, 4,411G)
Forkmore: 324G (5.4%, 4,087G)
AltimaMantoid: 300G (5.0%, 18,600G)
AllInBot: 200G (3.3%, 200G)
