Final Bets: red - 11 bets for 7,000G (53.6%, x0.87); blue - 14 bets for 6,070G (46.4%, x1.15)

red bets:
WireLord: 2,000G (28.6%, 12,511G)
PatSouI: 1,000G (14.3%, 16,339G)
PotionDweller: 1,000G (14.3%, 4,419G)
BirbBrainsBot: 1,000G (14.3%, 22,760G)
ItsMyCoolName: 649G (9.3%, 649G)
LivingHitokiri: 500G (7.1%, 3,644G)
Chuckolator: 360G (5.1%, 31,465G)
leakimiko: 191G (2.7%, 2,396G)
Chompie: 100G (1.4%, 7,785G)
HorusTaurus: 100G (1.4%, 236G)
notazzie: 100G (1.4%, 100G)

blue bets:
RongRongArts: 2,000G (32.9%, 474,229G)
Zachara: 1,000G (16.5%, 57,000G)
ungabunga_bot: 1,000G (16.5%, 269,784G)
GenieMilenko: 400G (6.6%, 3,424G)
mesmaster: 300G (4.9%, 3,488G)
Jaritras: 270G (4.4%, 270G)
WrathfulRemy: 200G (3.3%, 987G)
DrAntiSocial: 200G (3.3%, 21,840G)
TheRylander: 200G (3.3%, 832G)
twelfthrootoftwo: 100G (1.6%, 1,438G)
Reductions: 100G (1.6%, 100G)
datadrivenbot: 100G (1.6%, 3,394G)
catfeath3r: 100G (1.6%, 2,277G)
museofdoom: 100G (1.6%, 212G)
