Final Bets: yellow - 15 bets for 8,237G (70.8%, x0.41); purple - 10 bets for 3,398G (29.2%, x2.42)

yellow bets:
SkylerBunny: 2,000G (24.3%, 306,434G)
latebit: 1,073G (13.0%, 2,104G)
dogsandcatsand: 973G (11.8%, 973G)
Nizaha: 692G (8.4%, 21,057G)
killth3kid: 640G (7.8%, 640G)
Lifevirus: 533G (6.5%, 3,555G)
fenaen: 504G (6.1%, 5,677G)
Shalloween: 500G (6.1%, 17,121G)
amsans1247: 500G (6.1%, 6,203G)
AllInBot: 200G (2.4%, 200G)
DesertWooder: 200G (2.4%, 1,631G)
Drusiform: 200G (2.4%, 5,397G)
BirbBrainsBot: 90G (1.1%, 45,716G)
getthemoneyz: 84G (1.0%, 1,555,364G)
ArlanKels: 48G (0.6%, 4,815G)

purple bets:
DeathTaxesAndAnime: 1,304G (38.4%, 2,558G)
R3V_Mario: 500G (14.7%, 3,801G)
SephDarkheart: 488G (14.4%, 34,579G)
Lord_Gwarth: 284G (8.4%, 3,440G)
PantherIscariot: 222G (6.5%, 5,351G)
rednecknazgul: 200G (5.9%, 1,286G)
Firesheath: 100G (2.9%, 23,745G)
DouglasDragonThePoet: 100G (2.9%, 1,532G)
Error72: 100G (2.9%, 2,373G)
cho_pin: 100G (2.9%, 474G)
