Final Bets: blue - 27 bets for 20,423G (80.0%, x0.25); green - 15 bets for 5,095G (20.0%, x4.01)

blue bets:
MoonSlayerRS: 7,799G (38.2%, 7,799G)
ungabunga_bot: 1,000G (4.9%, 113,121G)
Lord_Burrah: 1,000G (4.9%, 91,610G)
BirbBrainsBot: 1,000G (4.9%, 77,710G)
Sairentozon7: 776G (3.8%, 776G)
HASTERIOUS: 696G (3.4%, 696G)
datadrivenbot: 677G (3.3%, 22,412G)
CorpusCav: 649G (3.2%, 13,649G)
getthemoneyz: 646G (3.2%, 479,766G)
mirapoix: 560G (2.7%, 560G)
Jordache7K: 555G (2.7%, 21,603G)
b0shii: 555G (2.7%, 1,038G)
DejaPoo21: 526G (2.6%, 526G)
NovaKnight21: 500G (2.4%, 5,279G)
ko2q: 500G (2.4%, 3,990G)
luminarii: 483G (2.4%, 13,631G)
ZephyrTempest: 396G (1.9%, 52,589G)
DudeMonkey77: 352G (1.7%, 352G)
AllInBot: 328G (1.6%, 328G)
CapnChaos12: 300G (1.5%, 2,203G)
Conome: 244G (1.2%, 244G)
wabicajo: 200G (1.0%, 854G)
jhaller2: 200G (1.0%, 1,512G)
edgehead62888: 181G (0.9%, 181G)
uncharreted: 100G (0.5%, 1,659G)
Langrisser: 100G (0.5%, 2,638G)
RughSontos: 100G (0.5%, 1,874G)

green bets:
Dothan89: 1,000G (19.6%, 28,231G)
Baron_von_Scrub: 634G (12.4%, 634G)
Shakarak: 604G (11.9%, 604G)
Lanshaft: 600G (11.8%, 2,368G)
Laserman1000: 517G (10.1%, 18,217G)
DeathTaxesAndAnime: 400G (7.9%, 400G)
SWATb1gdog: 240G (4.7%, 240G)
hutna: 200G (3.9%, 3,222G)
ArdentDrops: 200G (3.9%, 1,121G)
Theseawolf1: 200G (3.9%, 7,166G)
maakur_: 100G (2.0%, 2,214G)
DrAntiSocial: 100G (2.0%, 1,935G)
Kellios11: 100G (2.0%, 10,422G)
alrightbye: 100G (2.0%, 7,227G)
BlinkFS: 100G (2.0%, 15,097G)
