Final Bets: red - 14 bets for 16,369G (65.7%, x0.52); blue - 13 bets for 8,553G (34.3%, x1.91)

red bets:
toka222: 5,009G (30.6%, 63,420G)
douchetron: 3,101G (18.9%, 3,101G)
dogsandcatsand: 1,727G (10.6%, 3,388G)
DustBirdEX: 1,402G (8.6%, 2,804G)
windsah: 1,000G (6.1%, 10,245G)
Forkmore: 1,000G (6.1%, 4,142G)
killth3kid: 684G (4.2%, 39,513G)
Nizaha: 620G (3.8%, 11,316G)
LAGBOT30000: 500G (3.1%, 6,142G)
OtherBrand: 500G (3.1%, 29,497G)
CapnChaos12: 300G (1.8%, 11,715G)
getthemoneyz: 226G (1.4%, 1,616,959G)
datadrivenbot: 200G (1.2%, 61,625G)
ArrenJevleth: 100G (0.6%, 2,683G)

blue bets:
latebit: 2,000G (23.4%, 15,014G)
Zwirrfinst_: 1,000G (11.7%, 17,031G)
BirbBrainsBot: 1,000G (11.7%, 65,729G)
DarrenDinosaurs: 829G (9.7%, 829G)
JumbocactuarX27: 604G (7.1%, 604G)
coralreeferz: 596G (7.0%, 20,298G)
fenaen: 524G (6.1%, 7,043G)
Nickyfive: 500G (5.8%, 40,177G)
pplvee1: 484G (5.7%, 484G)
AllInBot: 358G (4.2%, 358G)
Skjodo: 334G (3.9%, 334G)
Tarheels218: 224G (2.6%, 15,370G)
MinBetBot: 100G (1.2%, 1,617G)
