Final Bets: red - 12 bets for 3,588G (32.2%, x2.11); green - 11 bets for 7,562G (67.8%, x0.47)

red bets:
Nizaha: 720G (20.1%, 12,774G)
DavenIII: 457G (12.7%, 915G)
BirbBrainsBot: 423G (11.8%, 64,833G)
CapnChaos12: 300G (8.4%, 12,344G)
arctodus13: 300G (8.4%, 2,072G)
skipsandwiches: 296G (8.2%, 296G)
xBizzy: 270G (7.5%, 531G)
AllInBot: 200G (5.6%, 200G)
datadrivenbot: 200G (5.6%, 61,810G)
ArrenJevleth: 200G (5.6%, 2,528G)
getthemoneyz: 122G (3.4%, 1,617,250G)
MinBetBot: 100G (2.8%, 1,334G)

green bets:
toka222: 2,500G (33.1%, 70,259G)
coralreeferz: 1,000G (13.2%, 15,537G)
latebit: 1,000G (13.2%, 13,269G)
HSPsychoZA: 750G (9.9%, 9,204G)
LAGBOT30000: 500G (6.6%, 7,191G)
thaetreis: 500G (6.6%, 54,523G)
DustBirdEX: 483G (6.4%, 9,678G)
windsah: 320G (4.2%, 320G)
Rinhander: 272G (3.6%, 272G)
Lord_Gwarth: 137G (1.8%, 2,599G)
CosmicTactician: 100G (1.3%, 12,103G)
