Final Bets: black - 15 bets for 10,231G (67.7%, x0.48); brown - 9 bets for 4,875G (32.3%, x2.10)

black bets:
DustBirdEX: 2,298G (22.5%, 9,195G)
toka222: 1,500G (14.7%, 67,759G)
KeienSlayer: 1,000G (9.8%, 5,563G)
skipsandwiches: 920G (9.0%, 920G)
Nizaha: 720G (7.0%, 14,291G)
DarrenDinosaurs: 704G (6.9%, 704G)
killth3kid: 684G (6.7%, 39,823G)
coralreeferz: 596G (5.8%, 14,537G)
LAGBOT30000: 500G (4.9%, 6,691G)
Rytor: 436G (4.3%, 436G)
CapnChaos12: 300G (2.9%, 12,976G)
datadrivenbot: 200G (2.0%, 62,232G)
BirbBrainsBot: 173G (1.7%, 65,725G)
HSPsychoZA: 100G (1.0%, 8,454G)
ArrenJevleth: 100G (1.0%, 2,950G)

brown bets:
Zwirrfinst_: 2,000G (41.0%, 15,331G)
AllInBot: 622G (12.8%, 622G)
xBizzy: 561G (11.5%, 1,100G)
getthemoneyz: 488G (10.0%, 1,617,507G)
windsah: 320G (6.6%, 320G)
OtherBrand: 312G (6.4%, 29,758G)
Rinhander: 272G (5.6%, 272G)
arctodus13: 200G (4.1%, 2,704G)
MinBetBot: 100G (2.1%, 1,545G)
