High Risers:
1. HaplessOne: +8,956G
2. Mushufasa_: +4,169G
3. upvla: +2,137G
4. Genkidou: +1,431G
5. Leonidusx: +525G
6. ColetteMSLP: +480G
7. Giganticdwarves: +350G
8. VolgraTheMoose: +156G
9. xsifthewolf: +105G
10. MemoriesofFinal: -14G
11. Ruvelia_BibeI: -72G
12. Lolthsmeat: -119G
13. Smashy: -200G
14. nok____: -300G
15. CassiePhoenix: -396G
16. NovaKnight21: -400G
17. reddwind_: -400G
18. readdesert: -476G
19. Sharosa: -488G
20. skipsandwiches: -500G
21. Tithonus: -593G
22. TheSabretoothe: -645G
23. ayeCoop: -658G
24. Zachara: -1,000G
25. Error72: -1,000G
26. SephDarkheart: -1,000G
27. lijarkh: -1,000G
28. ar_tactic: -1,029G
29. SeniorBunk: -1,039G
30. just_here2: -1,300G
31. ALY327: -1,300G
32. DeathTaxesAndAnime: -1,400G
33. Willjin: -1,700G
34. DavenIII: -3,117G
35. 3ngag3: -3,522G
36. dogsandcatsand: -4,261G
37. iBardic: -7,574G
