Final Bets: green - 14 bets for 9,977G (58.4%, x0.71); yellow - 12 bets for 7,120G (41.6%, x1.40)

green bets:
AllInBot: 2,676G (26.8%, 2,676G)
dogsandcatsand: 1,202G (12.0%, 2,358G)
EnemyController: 1,111G (11.1%, 1,563,775G)
HaateXIII: 1,081G (10.8%, 1,081G)
BirbBrainsBot: 1,000G (10.0%, 44,130G)
getthemoneyz: 738G (7.4%, 1,609,514G)
coralreeferz: 588G (5.9%, 23,945G)
Lillifen: 416G (4.2%, 416G)
Aldrammech: 321G (3.2%, 3,216G)
resjudicata3: 292G (2.9%, 292G)
nhammen: 275G (2.8%, 5,508G)
Gunz232323: 132G (1.3%, 132G)
RunicMagus: 100G (1.0%, 4,672G)
GGDeeOfficial: 45G (0.5%, 1,386G)

yellow bets:
DeathTaxesAndAnime: 1,555G (21.8%, 1,555G)
KasugaiRoastedPeas: 1,293G (18.2%, 1,293G)
NIghtdew14: 1,000G (14.0%, 21,953G)
Nizaha: 716G (10.1%, 18,063G)
DarrenDinosaurs: 596G (8.4%, 596G)
Lanshaft: 572G (8.0%, 12,723G)
sinnyil2: 500G (7.0%, 13,875G)
neocarbuncle: 268G (3.8%, 268G)
MonchoStrife: 204G (2.9%, 204G)
datadrivenbot: 200G (2.8%, 56,421G)
Tarheels218: 116G (1.6%, 116G)
MinBetBot: 100G (1.4%, 24,227G)
