Final Bets: red - 14 bets for 12,787G (49.3%, x1.03); blue - 17 bets for 13,175G (50.7%, x0.97)

red bets:
sinnyil2: 5,633G (44.1%, 11,267G)
CorpusCav: 1,001G (7.8%, 23,729G)
Aldrammech: 1,000G (7.8%, 16,067G)
Deathmaker06: 1,000G (7.8%, 6,007G)
thefyeman: 1,000G (7.8%, 65,546G)
Estan_AD: 736G (5.8%, 1,473G)
Laserman1000: 697G (5.5%, 6,097G)
Evewho: 416G (3.3%, 416G)
genericco: 363G (2.8%, 363G)
solomongrundy85: 300G (2.3%, 1,856G)
Seawalker777: 300G (2.3%, 1,099G)
orlandu_lv: 240G (1.9%, 240G)
Firesheath: 100G (0.8%, 950G)
serperemagus: 1G (0.0%, 4,051G)

blue bets:
Baron_von_Scrub: 2,690G (20.4%, 2,690G)
TheUnforgivenRage: 2,386G (18.1%, 2,386G)
Mesmaster: 2,000G (15.2%, 70,633G)
NovaKnight21: 1,667G (12.7%, 3,334G)
BirbBrainsBot: 1,000G (7.6%, 110,150G)
NicoSavoy: 1,000G (7.6%, 54,826G)
getthemoneyz: 858G (6.5%, 698,016G)
CapnChaos12: 300G (2.3%, 2,725G)
josephiroth_143: 256G (1.9%, 256G)
kaidykat: 200G (1.5%, 3,186G)
argentbast: 200G (1.5%, 1,258G)
krasny1944: 121G (0.9%, 121G)
neocarbuncle: 120G (0.9%, 1,436G)
OneHundredFists: 100G (0.8%, 2,422G)
datadrivenbot: 100G (0.8%, 22,918G)
skillomono: 100G (0.8%, 7,084G)
Ross_from_Cali: 77G (0.6%, 591G)
