Final Bets: blue - 10 bets for 4,050G (18.2%, x4.48); green - 16 bets for 18,143G (81.8%, x0.22)

blue bets:
CorpusCav: 800G (19.8%, 25,468G)
Estan_AD: 509G (12.6%, 509G)
argentbast: 500G (12.3%, 1,255G)
krasny1944: 488G (12.0%, 488G)
Baron_von_Scrub: 474G (11.7%, 6,075G)
neocarbuncle: 459G (11.3%, 459G)
Evewho: 416G (10.3%, 416G)
Digitalsocrates: 300G (7.4%, 990G)
datadrivenbot: 100G (2.5%, 23,097G)
serperemagus: 4G (0.1%, 3,234G)

green bets:
TheUnforgivenRage: 7,482G (41.2%, 7,482G)
Mesmaster: 2,000G (11.0%, 72,084G)
sinnyil2: 1,768G (9.7%, 3,536G)
Sairentozon7: 1,329G (7.3%, 1,329G)
BirbBrainsBot: 1,000G (5.5%, 109,570G)
NicoSavoy: 1,000G (5.5%, 57,171G)
Firesheath: 935G (5.2%, 935G)
getthemoneyz: 530G (2.9%, 698,486G)
skillomono: 400G (2.2%, 7,207G)
HASTERIOUS: 395G (2.2%, 776G)
genericco: 312G (1.7%, 312G)
mistblade: 272G (1.5%, 272G)
josephiroth_143: 220G (1.2%, 220G)
kaidykat: 200G (1.1%, 2,780G)
TheMM42: 200G (1.1%, 1,298G)
Kyune: 100G (0.6%, 19,371G)
