Final Bets: red - 15 bets for 6,200G (29.2%, x2.43); blue - 13 bets for 15,037G (70.8%, x0.41)

red bets:
pandasforsale: 1,846G (29.8%, 1,846G)
leakimiko: 676G (10.9%, 13,534G)
Shakarak: 600G (9.7%, 600G)
sukotsuto: 500G (8.1%, 6,311G)
Wesablo: 500G (8.1%, 1,905G)
HaplessOne: 500G (8.1%, 117,602G)
Slowbrofist: 372G (6.0%, 372G)
getthemoneyz: 256G (4.1%, 545,531G)
NoNotBees: 250G (4.0%, 5,792G)
twelfthrootoftwo: 200G (3.2%, 5,631G)
uncharreted: 100G (1.6%, 2,668G)
pLifer: 100G (1.6%, 1,000G)
datadrivenbot: 100G (1.6%, 810G)
Lali_Lulelo: 100G (1.6%, 20,340G)
Evewho: 100G (1.6%, 2,342G)

blue bets:
aStatue: 3,959G (26.3%, 3,959G)
GreatRedDragon: 1,500G (10.0%, 15,276G)
Ethquan: 1,500G (10.0%, 2,704G)
R_Raynos: 1,436G (9.5%, 1,436G)
sinnyil2: 1,345G (8.9%, 98,437G)
rocl: 1,000G (6.7%, 54,714G)
manc0_: 1,000G (6.7%, 3,852G)
ColetteMSLP: 1,000G (6.7%, 38,964G)
helpimabug: 829G (5.5%, 1,658G)
BirbBrainsBot: 685G (4.6%, 83,066G)
NovaKnight21: 344G (2.3%, 344G)
ungabunga_bot: 243G (1.6%, 210,176G)
AllInBot: 196G (1.3%, 196G)
