Final Bets: green - 11 bets for 6,388G (39.3%, x1.54); yellow - 9 bets for 9,860G (60.7%, x0.65)

green bets:
Smashy: 1,492G (23.4%, 2,984G)
ShadowNinja25: 1,311G (20.5%, 1,311G)
AniZero: 1,000G (15.7%, 33,425G)
krombobreaker: 500G (7.8%, 3,594G)
Zerguzen: 500G (7.8%, 15,101G)
AllInBot: 429G (6.7%, 429G)
SephDarkheart: 364G (5.7%, 36,051G)
ValensEXP_: 348G (5.4%, 4,451G)
datadrivenbot: 200G (3.1%, 71,014G)
madming25: 144G (2.3%, 144G)
latebit: 100G (1.6%, 6,328G)

yellow bets:
Shalloween: 2,109G (21.4%, 4,219G)
OneHundredFists: 1,496G (15.2%, 1,496G)
mindblownnnn: 1,327G (13.5%, 2,654G)
DarrenDinosaurs: 1,286G (13.0%, 1,286G)
BirbBrainsBot: 1,000G (10.1%, 146,234G)
loveyouallfriends: 1,000G (10.1%, 42,092G)
SkylerBunny: 716G (7.3%, 716G)
Spartan_Paladin: 600G (6.1%, 7,101G)
getthemoneyz: 326G (3.3%, 1,991,012G)
