Final Bets: green - 15 bets for 12,604G (77.4%, x0.29); yellow - 11 bets for 3,680G (22.6%, x3.42)

green bets:
coralreeferz: 3,500G (27.8%, 16,577G)
toka222: 1,650G (13.1%, 92,096G)
sinnyil2: 1,200G (9.5%, 12,098G)
thaetreis: 1,200G (9.5%, 56,498G)
Nizaha: 720G (5.7%, 12,127G)
Error72: 559G (4.4%, 559G)
SephDarkheart: 552G (4.4%, 100,496G)
fenaen: 524G (4.2%, 6,916G)
windsah: 509G (4.0%, 509G)
JonnyCue: 500G (4.0%, 10,469G)
CosmicTactician: 500G (4.0%, 12,489G)
skipsandwiches: 475G (3.8%, 475G)
AllInBot: 395G (3.1%, 395G)
datadrivenbot: 200G (1.6%, 62,571G)
northkoreancleetus: 120G (1.0%, 120G)

yellow bets:
BirbBrainsBot: 1,000G (27.2%, 61,891G)
latebit: 600G (16.3%, 13,055G)
getthemoneyz: 460G (12.5%, 1,618,315G)
brokenknight201: 400G (10.9%, 8,404G)
Lord_Gwarth: 337G (9.2%, 2,447G)
Chuckolator: 313G (8.5%, 313G)
Tarheels218: 224G (6.1%, 13,934G)
maddrave09: 136G (3.7%, 239G)
MinBetBot: 100G (2.7%, 1,868G)
ArrenJevleth: 100G (2.7%, 4,057G)
nhammen: 10G (0.3%, 5,728G)
