Final Bets: green - 7 bets for 2,323G (37.6%, x1.66); yellow - 9 bets for 3,861G (62.4%, x0.60)

green bets:
Digitalsocrates: 1,000G (43.0%, 57,149G)
Evewho: 453G (19.5%, 453G)
KyleWonToLiveForever: 276G (11.9%, 276G)
AltimaMantoid: 220G (9.5%, 220G)
amiture: 200G (8.6%, 4,152G)
red_celt: 100G (4.3%, 961G)
getthemoneyz: 74G (3.2%, 966,784G)

yellow bets:
Draconis345: 1,000G (25.9%, 65,551G)
nifboy: 774G (20.0%, 774G)
BirbBrainsBot: 682G (17.7%, 62,975G)
CassiePhoenix: 404G (10.5%, 404G)
gorgewall: 401G (10.4%, 21,510G)
reddwind_: 300G (7.8%, 1,705G)
AllInBot: 100G (2.6%, 100G)
serperemagus: 100G (2.6%, 6,546G)
datadrivenbot: 100G (2.6%, 42,220G)
