Final Bets: blue - 6 bets for 1,394G (29.6%, x2.38); white - 7 bets for 3,316G (70.4%, x0.42)

blue bets:
HASTERIOUS: 434G (31.1%, 43,484G)
AllInBot: 216G (15.5%, 216G)
getthemoneyz: 208G (14.9%, 966,268G)
TeaTime29: 200G (14.3%, 15,023G)
reddwind_: 200G (14.3%, 1,085G)
BirbBrainsBot: 136G (9.8%, 63,978G)

white bets:
BlackFireUK: 1,000G (30.2%, 13,389G)
CassiePhoenix: 872G (26.3%, 872G)
AltimaMantoid: 475G (14.3%, 475G)
Evewho: 448G (13.5%, 448G)
gorgewall: 301G (9.1%, 22,711G)
Lydian_C: 120G (3.6%, 13,591G)
datadrivenbot: 100G (3.0%, 42,297G)
