Final Bets: blue - 20 bets for 17,552G (52.1%, x0.92); yellow - 5 bets for 16,128G (47.9%, x1.09)

blue bets:
BoneMiser: 6,070G (34.6%, 6,070G)
HaplessOne: 1,500G (8.5%, 67,191G)
mirapoix: 1,001G (5.7%, 2,002G)
ungabunga_bot: 1,000G (5.7%, 124,753G)
BirbBrainsBot: 1,000G (5.7%, 112,161G)
waterwatereverywhere: 1,000G (5.7%, 17,585G)
WireLord: 1,000G (5.7%, 8,076G)
Nocturnal_Perspective: 750G (4.3%, 10,139G)
leakimiko: 600G (3.4%, 600G)
thevilmen: 600G (3.4%, 1,815G)
datadrivenbot: 536G (3.1%, 11,197G)
rocl: 500G (2.8%, 68,464G)
deenglow: 500G (2.8%, 26,734G)
JIDkomu: 500G (2.8%, 6,140G)
Chuckolator: 311G (1.8%, 7,029G)
CapnChaos12: 300G (1.7%, 1,868G)
getthemoneyz: 134G (0.8%, 485,231G)
twelfthrootoftwo: 100G (0.6%, 5,129G)
ko2q: 100G (0.6%, 8,611G)
potgodtopdog: 50G (0.3%, 1,342G)

yellow bets:
AllInBot: 13,653G (84.7%, 13,653G)
reinoe: 1,000G (6.2%, 19,573G)
superdevon1: 775G (4.8%, 3,876G)
YaBoy125: 600G (3.7%, 600G)
Lythe_Caraker: 100G (0.6%, 98,524G)
