Final Bets: black - 15 bets for 6,858G (49.6%, x1.02); brown - 9 bets for 6,962G (50.4%, x0.99)

black bets:
BirbBrainsBot: 1,000G (14.6%, 113,080G)
thevilmen: 1,000G (14.6%, 2,366G)
HaplessOne: 1,000G (14.6%, 68,569G)
NoNotBees: 660G (9.6%, 660G)
superdevon1: 620G (9.0%, 3,101G)
deenglow: 500G (7.3%, 27,193G)
JIDkomu: 500G (7.3%, 6,599G)
rocl: 500G (7.3%, 68,923G)
CapnChaos12: 300G (4.4%, 2,148G)
Chuckolator: 276G (4.0%, 7,315G)
getthemoneyz: 102G (1.5%, 485,354G)
AllInBot: 100G (1.5%, 100G)
twelfthrootoftwo: 100G (1.5%, 5,221G)
Lythe_Caraker: 100G (1.5%, 98,424G)
PatSouI: 100G (1.5%, 7,869G)

brown bets:
mirapoix: 1,461G (21.0%, 2,922G)
leakimiko: 1,151G (16.5%, 1,151G)
reinoe: 1,000G (14.4%, 18,573G)
ungabunga_bot: 1,000G (14.4%, 125,672G)
datadrivenbot: 750G (10.8%, 11,690G)
BoneMiser: 500G (7.2%, 11,648G)
Combusted99: 500G (7.2%, 1,000G)
Wesablo: 500G (7.2%, 3,984G)
ko2q: 100G (1.4%, 8,703G)
