Final Bets: purple - 16 bets for 9,732G (60.2%, x0.66); brown - 7 bets for 6,430G (39.8%, x1.51)

purple bets:
reinoe: 3,000G (30.8%, 115,680G)
JumbocactuarX27: 1,000G (10.3%, 23,755G)
Draconis345: 1,000G (10.3%, 46,029G)
BirbBrainsBot: 1,000G (10.3%, 62,329G)
ruleof5: 500G (5.1%, 13,845G)
windsah: 500G (5.1%, 14,790G)
fluffskull: 492G (5.1%, 492G)
maximumcrit: 436G (4.5%, 436G)
getthemoneyz: 384G (3.9%, 1,451,660G)
ShintaroNayaka: 304G (3.1%, 304G)
EmmaEnema: 300G (3.1%, 300G)
latebit: 216G (2.2%, 216G)
AllInBot: 200G (2.1%, 200G)
datadrivenbot: 200G (2.1%, 45,297G)
holdenmagronik: 100G (1.0%, 1,425G)
Verathis: 100G (1.0%, 100G)

brown bets:
E_Ballard: 3,787G (58.9%, 3,787G)
NIghtdew14: 1,031G (16.0%, 4,126G)
sukotsuto: 600G (9.3%, 7,544G)
douchetron: 444G (6.9%, 444G)
BoneMiser: 368G (5.7%, 368G)
CosmicTactician: 100G (1.6%, 26,649G)
ArashiKurobara: 100G (1.6%, 8,694G)
