Final Bets: black - 9 bets for 6,683G (21.0%, x3.76); brown - 20 bets for 25,155G (79.0%, x0.27)

black bets:
Smokegiant: 2,000G (29.9%, 75,778G)
BirbBrainsBot: 1,000G (15.0%, 37,067G)
evdoggity: 1,000G (15.0%, 88,494G)
gorgewall: 778G (11.6%, 778G)
Evewho: 732G (11.0%, 732G)
moonliquor: 708G (10.6%, 708G)
Forkmore: 288G (4.3%, 1,901G)
TasisSai: 152G (2.3%, 299G)
captainmilestw: 25G (0.4%, 1,113G)

brown bets:
HaateXIII: 5,999G (23.8%, 11,999G)
DavenIII: 4,768G (19.0%, 7,336G)
Rytor: 3,000G (11.9%, 16,060G)
neerrm: 1,568G (6.2%, 1,568G)
SephDarkheart: 1,485G (5.9%, 1,485G)
randgridr: 1,342G (5.3%, 2,685G)
DeathTaxesAndAnime: 1,202G (4.8%, 2,357G)
fenaen: 1,200G (4.8%, 37,632G)
cam_ATS: 999G (4.0%, 47,692G)
FriendSquirrel: 814G (3.2%, 814G)
upvla: 789G (3.1%, 11,171G)
Snowfats: 500G (2.0%, 4,175G)
fluffskull: 388G (1.5%, 388G)
Shalloween: 300G (1.2%, 53,592G)
sososteve: 300G (1.2%, 3,752G)
datadrivenbot: 200G (0.8%, 62,718G)
nhammen: 100G (0.4%, 2,314G)
nifboy: 100G (0.4%, 7,580G)
CosmicTactician: 100G (0.4%, 43,481G)
hiros13gts: 1G (0.0%, 3,265G)
