Final Bets: red - 19 bets for 10,116G (13.4%, x6.47); champion - 13 bets for 65,462G (86.6%, x0.15)

red bets:
killth3kid: 2,500G (24.7%, 14,148G)
dogsandcatsand: 1,559G (15.4%, 3,057G)
Narcius: 1,000G (9.9%, 300,631G)
BirbBrainsBot: 1,000G (9.9%, 52,430G)
SkylerBunny: 500G (4.9%, 500G)
Rytor: 448G (4.4%, 448G)
CapnChaos12: 412G (4.1%, 412G)
lowlf: 352G (3.5%, 352G)
Drusiform: 344G (3.4%, 344G)
resjudicata3: 300G (3.0%, 6,581G)
rNdOrchestra: 240G (2.4%, 2,835G)
JCBooBot: 231G (2.3%, 826G)
oldmanbody: 224G (2.2%, 224G)
getthemoneyz: 206G (2.0%, 1,686,865G)
datadrivenbot: 200G (2.0%, 62,735G)
JCBoorgo: 200G (2.0%, 3,414G)
peanutvendor: 200G (2.0%, 3,641G)
Aldrammech: 100G (1.0%, 65,319G)
nhammen: 100G (1.0%, 88,416G)

champion bets:
toka222: 25,000G (38.2%, 168,069G)
douchetron: 12,130G (18.5%, 12,130G)
Raixelol: 8,795G (13.4%, 8,795G)
DavenIII: 6,385G (9.8%, 91,385G)
pplvee1: 6,191G (9.5%, 6,191G)
timthehoodie: 1,500G (2.3%, 2,562G)
latebit: 1,481G (2.3%, 2,904G)
DustBirdEX: 1,120G (1.7%, 1,120G)
DLJuggernaut: 1,000G (1.5%, 23,838G)
Thyrandaal: 1,000G (1.5%, 480,157G)
CosmicTactician: 500G (0.8%, 32,582G)
xBizzy: 260G (0.4%, 5,841G)
AllInBot: 100G (0.2%, 100G)
