Final Bets: green - 19 bets for 45,375G (86.4%, x0.16); yellow - 12 bets for 7,149G (13.6%, x6.35)

green bets:
toka222: 25,000G (55.1%, 432,292G)
thunderducker: 6,000G (13.2%, 22,172G)
cho_pin: 3,077G (6.8%, 3,077G)
nhammen: 3,000G (6.6%, 376,689G)
Zbgs: 1,500G (3.3%, 19,759G)
EnemyController: 1,234G (2.7%, 1,691,184G)
BirbBrainsBot: 1,000G (2.2%, 145,745G)
Nizaha: 784G (1.7%, 94,732G)
killth3kid: 556G (1.2%, 5,110G)
resjudicata3: 554G (1.2%, 554G)
technominari: 500G (1.1%, 77,713G)
Zeroroute: 500G (1.1%, 500G)
Greggernaut: 441G (1.0%, 441G)
CT_5_Holy: 424G (0.9%, 8,497G)
AbandonedHall: 208G (0.5%, 208G)
Vahn_Blade: 200G (0.4%, 18,553G)
AllInBot: 153G (0.3%, 153G)
holandrix: 144G (0.3%, 144G)
Sans_from_Snowdin: 100G (0.2%, 22,118G)

yellow bets:
kliffw: 1,736G (24.3%, 1,736G)
bruubarg: 1,500G (21.0%, 17,570G)
dogsandcatsand: 1,000G (14.0%, 23,604G)
Dasutin23: 1,000G (14.0%, 35,184G)
poorest_hobo: 542G (7.6%, 208,572G)
krombobreaker: 500G (7.0%, 2,970G)
Mudrockk: 333G (4.7%, 15,667G)
datadrivenbot: 200G (2.8%, 58,139G)
Absalom_20: 120G (1.7%, 12,086G)
ko2q: 100G (1.4%, 3,000G)
mrfripps: 100G (1.4%, 5,603G)
getthemoneyz: 18G (0.3%, 1,780,066G)
