Final Bets: purple - 11 bets for 7,796G (48.8%, x1.05); brown - 16 bets for 8,188G (51.2%, x0.95)

purple bets:
toka222: 3,500G (44.9%, 82,991G)
coralreeferz: 1,500G (19.2%, 14,425G)
dogsandcatsand: 872G (11.2%, 872G)
fenaen: 524G (6.7%, 6,666G)
SeniorBunk: 444G (5.7%, 444G)
skipsandwiches: 300G (3.8%, 300G)
AllInBot: 200G (2.6%, 200G)
maddrave09: 136G (1.7%, 438G)
Skjodo: 120G (1.5%, 120G)
MinBetBot: 100G (1.3%, 1,700G)
ArrenJevleth: 100G (1.3%, 4,617G)

brown bets:
windsah: 948G (11.6%, 948G)
BirbBrainsBot: 788G (9.6%, 62,495G)
Nizaha: 720G (8.8%, 12,733G)
WoooBlaaa: 664G (8.1%, 664G)
vorap: 646G (7.9%, 646G)
JumbocactuarX27: 608G (7.4%, 608G)
xBizzy: 602G (7.4%, 1,182G)
SephDarkheart: 548G (6.7%, 98,682G)
JonnyCue: 500G (6.1%, 14,956G)
HaateXIII: 500G (6.1%, 2,562G)
getthemoneyz: 440G (5.4%, 1,619,038G)
Gunz232323: 393G (4.8%, 393G)
Chuckolator: 348G (4.3%, 348G)
datadrivenbot: 200G (2.4%, 62,784G)
Zwirrfinst_: 183G (2.2%, 183G)
silverChangeling: 100G (1.2%, 7,936G)
