Final Bets: red - 19 bets for 15,908G (85.4%, x0.17); green - 12 bets for 2,711G (14.6%, x5.87)

red bets:
toka222: 2,500G (15.7%, 86,667G)
Forkmore: 2,206G (13.9%, 4,412G)
HaateXIII: 2,062G (13.0%, 2,062G)
dogsandcatsand: 1,788G (11.2%, 1,788G)
coralreeferz: 1,250G (7.9%, 16,000G)
SephDarkheart: 1,000G (6.3%, 98,134G)
BirbBrainsBot: 1,000G (6.3%, 61,707G)
Nizaha: 720G (4.5%, 12,013G)
killth3kid: 688G (4.3%, 43,866G)
skipsandwiches: 615G (3.9%, 615G)
JonnyCue: 500G (3.1%, 13,456G)
AllInBot: 410G (2.6%, 410G)
windsah: 320G (2.0%, 320G)
datadrivenbot: 200G (1.3%, 62,584G)
Drusiform: 200G (1.3%, 5,030G)
Gunz232323: 132G (0.8%, 132G)
Zwirrfinst_: 116G (0.7%, 116G)
ANFz: 101G (0.6%, 11,252G)
fasc_: 100G (0.6%, 1,185G)

green bets:
DarrenDinosaurs: 600G (22.1%, 600G)
ArrenJevleth: 500G (18.4%, 4,722G)
Chuckolator: 348G (12.8%, 348G)
resjudicata3: 300G (11.1%, 300G)
Skjodo: 246G (9.1%, 246G)
Lord_Gwarth: 137G (5.1%, 2,462G)
maddrave09: 136G (5.0%, 567G)
northkoreancleetus: 120G (4.4%, 120G)
MinBetBot: 100G (3.7%, 1,805G)
CosmicTactician: 100G (3.7%, 12,361G)
getthemoneyz: 74G (2.7%, 1,618,598G)
Kaynin_Shadowwalker: 50G (1.8%, 2,875G)
