Final Bets: green - 11 bets for 8,947G (33.6%, x1.97); white - 21 bets for 17,659G (66.4%, x0.51)

green bets:
Zeroroute: 2,450G (27.4%, 2,450G)
DeathTaxesAndAnime: 1,974G (22.1%, 1,974G)
fenaen: 1,200G (13.4%, 44,427G)
LDSkinny: 1,000G (11.2%, 48,607G)
omegasuspekt: 555G (6.2%, 20,606G)
maakur_: 508G (5.7%, 508G)
Lanshaft: 460G (5.1%, 1,828G)
brokenknight201: 300G (3.4%, 2,041G)
Rytor: 200G (2.2%, 14,999G)
redrhinofever: 200G (2.2%, 562G)
ANFz: 100G (1.1%, 25,631G)

white bets:
DudeMonkey77: 5,857G (33.2%, 5,857G)
skipsandwiches: 1,568G (8.9%, 1,568G)
toka222: 1,500G (8.5%, 105,751G)
roqqqpsi: 1,327G (7.5%, 132,725G)
TheChainNerd: 1,232G (7.0%, 6,812G)
DustBirdEX: 1,068G (6.0%, 1,068G)
sinnyil2: 888G (5.0%, 888G)
ThreeMileIsland: 522G (3.0%, 522G)
amiture: 500G (2.8%, 1,044G)
HaateXIII: 500G (2.8%, 6,011G)
BirbBrainsBot: 460G (2.6%, 17,814G)
roofiepops: 444G (2.5%, 3,312G)
Sairentozon7: 432G (2.4%, 432G)
CosmicTactician: 300G (1.7%, 47,684G)
ArashiKurobara: 264G (1.5%, 11,688G)
gorgewall: 201G (1.1%, 3,066G)
Grandlanzer: 200G (1.1%, 48,771G)
Hattoriisan: 152G (0.9%, 152G)
nhammen: 100G (0.6%, 11,342G)
nifboy: 100G (0.6%, 13,264G)
getthemoneyz: 44G (0.2%, 1,180,672G)
