Final Bets: white - 18 bets for 13,620G (66.7%, x0.50); black - 13 bets for 6,810G (33.3%, x2.00)

white bets:
sinnyil2: 2,500G (18.4%, 97,493G)
roqqqpsi: 1,906G (14.0%, 8,668G)
volgrathemoose: 1,001G (7.3%, 7,172G)
ungabunga_bot: 1,000G (7.3%, 262,990G)
BirbBrainsBot: 1,000G (7.3%, 190,732G)
edgehead62888: 1,000G (7.3%, 10,370G)
Lionhermit: 1,000G (7.3%, 18,415G)
Zachara: 1,000G (7.3%, 61,000G)
mirapoix: 912G (6.7%, 912G)
sukotsuto: 500G (3.7%, 1,972G)
pandasforsale: 333G (2.4%, 18,685G)
getthemoneyz: 308G (2.3%, 582,636G)
jethrothrul: 304G (2.2%, 304G)
Estan_AD: 300G (2.2%, 300G)
HeroponThrawn: 255G (1.9%, 3,914G)
ZephyrTempest: 101G (0.7%, 188,710G)
JohnDuggins: 100G (0.7%, 5,597G)
datadrivenbot: 100G (0.7%, 1,509G)

black bets:
regios91: 1,540G (22.6%, 1,540G)
MrFlabyo: 1,000G (14.7%, 74,752G)
Odin007_88: 953G (14.0%, 953G)
FoeSquirrel: 638G (9.4%, 1,276G)
aStatue: 600G (8.8%, 600G)
catfashions: 500G (7.3%, 5,371G)
deenglow: 500G (7.3%, 38,662G)
MirtaiAtana: 284G (4.2%, 284G)
CassiePhoenix: 284G (4.2%, 284G)
perce90: 219G (3.2%, 219G)
FriendSquirrel: 100G (1.5%, 36,029G)
twelfthrootoftwo: 100G (1.5%, 4,510G)
jtbirdACC: 92G (1.4%, 1,592G)
