Final Bets: yellow - 19 bets for 12,173G (33.6%, x1.98); brown - 13 bets for 24,102G (66.4%, x0.51)

yellow bets:
MrFlabyo: 2,000G (16.4%, 75,139G)
roqqqpsi: 1,625G (13.3%, 7,387G)
volgrathemoose: 1,001G (8.2%, 8,812G)
reinoe: 1,000G (8.2%, 7,486G)
BirbBrainsBot: 1,000G (8.2%, 188,931G)
J2DaBibbles: 1,000G (8.2%, 22,642G)
ungabunga_bot: 857G (7.0%, 263,730G)
MirtaiAtana: 652G (5.4%, 652G)
deenglow: 500G (4.1%, 38,655G)
Breakdown777: 500G (4.1%, 28,669G)
sukotsuto: 400G (3.3%, 858G)
CassiePhoenix: 288G (2.4%, 288G)
tmo50x: 250G (2.1%, 7,812G)
catfashions: 250G (2.1%, 5,539G)
Odin007_88: 228G (1.9%, 228G)
getthemoneyz: 220G (1.8%, 582,200G)
FoeSquirrel: 202G (1.7%, 405G)
lastly: 100G (0.8%, 5,821G)
datadrivenbot: 100G (0.8%, 1,693G)

brown bets:
loveyouallfriends: 13,000G (53.9%, 43,007G)
sinnyil2: 3,500G (14.5%, 98,706G)
itzover9001: 2,000G (8.3%, 60,332G)
Lordminsc: 1,205G (5.0%, 46,672G)
leakimiko: 1,037G (4.3%, 12,965G)
Hamborn: 1,000G (4.1%, 54,441G)
mirapoix: 802G (3.3%, 802G)
Lionhermit: 500G (2.1%, 18,312G)
Estan_AD: 457G (1.9%, 457G)
ewan_e: 300G (1.2%, 10,132G)
ZephyrTempest: 101G (0.4%, 188,740G)
FriendSquirrel: 100G (0.4%, 35,829G)
smurphy000000: 100G (0.4%, 1,429G)
