High Risers:
1. Lifebregin: +4,306G
2. Superdevon1: +3,489G
3. Friendlyskeleton: +2,010G
4. Greggernaut: +1,438G
5. Chuckolator: +1,414G
6. Madsupervillain: +1,096G
7. Seaweed_b: +939G
8. Windsah: +787G
9. Themurkgnome: +556G
10. Bigbongsmoker: +266G
11. Hawkjohnson: +231G
12. Valcrist91: +217G
13. Hisnameszoo: +181G
14. Khelor_: +99G
15. Mushufasa_: +76G
16. Chloromaster: +72G
17. Macradarkstar: +5G
18. Sairentozon7: +4G
19. Victoriolue: -5G
20. Arcblazer23: -164G
21. Puzzlesecretary: -172G
22. Pantheriscariot: -200G
23. Pepperbuster: -200G
24. 0v3rr8d: -300G
25. Fattunaking: -313G
26. Memoriesoffinal: -427G
27. Whelming_wave: -500G
28. Deathtaxesandanime: -661G
29. Nicosavoy: -827G
30. Laserman1000: -853G
31. Ct_5_holy: -883G
32. Zachara: -1,000G
33. Ibardic: -1,000G
34. Gorgewall: -1,461G
35. Altimamantoid: -1,550G
36. Sinnyil2: -2,056G
37. Baronhaynes: -2,404G
38. Mesmaster: -3,396G
