Final Bets: purple - 11 bets for 4,131G (53.0%, x0.89); brown - 10 bets for 3,666G (47.0%, x1.13)

purple bets:
superdevon1: 855G (20.7%, 85,574G)
MemoriesofFinal: 500G (12.1%, 7,316G)
FriendlySkeleton: 500G (12.1%, 4,665G)
hisnameszoo: 500G (12.1%, 773G)
HAWKjohnson: 500G (12.1%, 823G)
fattunaking: 444G (10.7%, 444G)
bigbongsmoker: 250G (6.1%, 2,183G)
datadrivenbot: 200G (4.8%, 65,004G)
MADSUPERVILLAIN: 181G (4.4%, 181G)
gorgewall: 101G (2.4%, 3,696G)
khelor_: 100G (2.4%, 1,574G)

brown bets:
BirbBrainsBot: 1,000G (27.3%, 71,750G)
Zachara: 700G (19.1%, 142,700G)
TheMurkGnome: 500G (13.6%, 10,480G)
BaronHaynes: 500G (13.6%, 60,135G)
neerrm: 456G (12.4%, 456G)
macradarkstar: 200G (5.5%, 924G)
pepperbuster: 100G (2.7%, 2,400G)
windsah: 100G (2.7%, 3,151G)
DeathTaxesAndAnime: 100G (2.7%, 8,436G)
getthemoneyz: 10G (0.3%, 1,816,401G)
