Final Bets: black - 15 bets for 7,290G (37.1%, x1.69); purple - 15 bets for 12,355G (62.9%, x0.59)

black bets:
vorap: 1,000G (13.7%, 79,072G)
BirbBrainsBot: 1,000G (13.7%, 123,567G)
UmaiJam: 1,000G (13.7%, 4,232G)
Candina: 999G (13.7%, 19,129G)
ANFz: 757G (10.4%, 757G)
ShintaroNayaka: 601G (8.2%, 601G)
killth3kid: 500G (6.9%, 13,081G)
d4rr1n: 374G (5.1%, 374G)
megakim: 265G (3.6%, 265G)
getthemoneyz: 222G (3.0%, 702,327G)
krasny1944: 172G (2.4%, 5,172G)
CorpusCav: 100G (1.4%, 21,730G)
maakur_: 100G (1.4%, 6,018G)
datadrivenbot: 100G (1.4%, 22,467G)
letdowncity: 100G (1.4%, 3,404G)

purple bets:
volgrathemoose: 6,970G (56.4%, 13,940G)
mpghappiness: 1,001G (8.1%, 22,895G)
DeathTaxesAndAnime: 600G (4.9%, 2,978G)
passermine: 520G (4.2%, 2,083G)
TheGuesty: 500G (4.0%, 38,046G)
nifboy: 500G (4.0%, 7,632G)
ZZ_Yoshi: 500G (4.0%, 23,143G)
luminarii: 450G (3.6%, 21,241G)
kintaru_oe: 400G (3.2%, 2,033G)
twelfthrootoftwo: 300G (2.4%, 34,024G)
CandyTamer: 240G (1.9%, 1,301G)
serperemagus: 124G (1.0%, 124G)
AllInBot: 100G (0.8%, 100G)
FoeSquirrel: 100G (0.8%, 2,383G)
aeonicvector: 50G (0.4%, 1,336G)
