Final Bets: purple - 13 bets for 8,404G (54.3%, x0.84); brown - 22 bets for 7,085G (45.7%, x1.19)

purple bets:
kai_shee: 2,000G (23.8%, 138,290G)
BirbBrainsBot: 1,000G (11.9%, 136,069G)
getthemoneyz: 1,000G (11.9%, 554,692G)
Anomandaris__: 1,000G (11.9%, 8,027G)
Snowfats: 867G (10.3%, 867G)
leakimiko: 532G (6.3%, 2,128G)
CapnChaos12: 500G (5.9%, 50,241G)
toka222: 500G (5.9%, 5,443G)
portmanteur: 296G (3.5%, 2,966G)
PetitFoulard: 228G (2.7%, 228G)
old_overholt_: 200G (2.4%, 2,330G)
carsenhk: 150G (1.8%, 10,143G)
ungabunga_bot: 131G (1.6%, 212,212G)

brown bets:
JumbocactuarX27: 1,000G (14.1%, 11,069G)
LDSkinny: 1,000G (14.1%, 5,705G)
lunchboxtac: 500G (7.1%, 10,694G)
Ethquan: 500G (7.1%, 7,002G)
SerumD: 500G (7.1%, 1,592G)
braumbles: 500G (7.1%, 69,082G)
marin1987: 500G (7.1%, 2,058G)
EnemyController: 500G (7.1%, 76,018G)
GrandmasterFrankerZ: 429G (6.1%, 7,853G)
DLJuggernaut: 300G (4.2%, 18,709G)
xYungAnarchyx: 272G (3.8%, 272G)
Lavatis: 150G (2.1%, 4,000G)
AllInBot: 140G (2.0%, 140G)
nifboy: 130G (1.8%, 3,262G)
trigger15: 100G (1.4%, 100G)
DeathTaxesAndAnime: 100G (1.4%, 12,789G)
Heroebal: 100G (1.4%, 5,627G)
Sentwist: 100G (1.4%, 519G)
Sans_from_Snowdin: 100G (1.4%, 4,488G)
IndecisiveNinja: 100G (1.4%, 89,601G)
DrAntiSocial: 50G (0.7%, 22,318G)
roqqqpsi: 14G (0.2%, 725G)
