Final Bets: green - 21 bets for 9,318G (48.9%, x1.04); white - 14 bets for 9,722G (51.1%, x0.96)

green bets:
alrightbye: 1,333G (14.3%, 44,447G)
Baron_von_Scrub: 1,111G (11.9%, 117,078G)
ungabunga_bot: 1,000G (10.7%, 212,166G)
TheChainNerd: 959G (10.3%, 959G)
AllInBot: 918G (9.9%, 918G)
xYungAnarchyx: 606G (6.5%, 606G)
DavenIII: 550G (5.9%, 3,925G)
old_overholt_: 500G (5.4%, 2,361G)
EnemyController: 440G (4.7%, 76,449G)
killth3kid: 300G (3.2%, 11,710G)
ANFz: 250G (2.7%, 19,868G)
trigger15: 220G (2.4%, 220G)
CapnSauce420: 200G (2.1%, 1,087G)
roqqqpsi: 163G (1.7%, 742G)
docmitchphd: 150G (1.6%, 294G)
nifboy: 133G (1.4%, 3,340G)
b0shii: 123G (1.3%, 5,213G)
DeathTaxesAndAnime: 100G (1.1%, 12,854G)
electric_glass: 100G (1.1%, 1,998G)
Heroebal: 100G (1.1%, 5,751G)
getthemoneyz: 62G (0.7%, 554,422G)

white bets:
kai_shee: 2,000G (20.6%, 136,401G)
fenaen: 1,001G (10.3%, 32,817G)
Pie108: 1,000G (10.3%, 72,537G)
marin1987: 1,000G (10.3%, 2,351G)
BirbBrainsBot: 1,000G (10.3%, 136,252G)
JumbocactuarX27: 1,000G (10.3%, 11,717G)
Meta_Five: 1,000G (10.3%, 8,548G)
Spartan_Paladin: 500G (5.1%, 48,001G)
GrandmasterFrankerZ: 420G (4.3%, 8,805G)
portmanteur: 251G (2.6%, 2,514G)
SerumD: 250G (2.6%, 2,837G)
Jerboj: 100G (1.0%, 49,960G)
RunicMagus: 100G (1.0%, 32,727G)
Sans_from_Snowdin: 100G (1.0%, 4,407G)
