Final Bets: white - 18 bets for 23,408G (82.8%, x0.21); black - 14 bets for 4,855G (17.2%, x4.82)

white bets:
theatheologist: 15,000G (64.1%, 66,841G)
UmaiJam: 1,363G (5.8%, 13,632G)
sinnyil2: 1,200G (5.1%, 13,098G)
mirapoix: 1,171G (5.0%, 2,343G)
getthemoneyz: 784G (3.3%, 417,568G)
YaBoy125: 580G (2.5%, 580G)
Phytik: 500G (2.1%, 5,152G)
ungabunga_bot: 450G (1.9%, 10,040G)
ApplesauceBoss: 396G (1.7%, 396G)
Goust18: 332G (1.4%, 332G)
Treapvort: 320G (1.4%, 320G)
herrshaun: 300G (1.3%, 3,127G)
mayormcfunbags: 260G (1.1%, 260G)
Sitiran: 240G (1.0%, 2,406G)
ugoplatamia: 200G (0.9%, 12,824G)
lavian94: 112G (0.5%, 112G)
AllInBot: 100G (0.4%, 100G)
datadrivenbot: 100G (0.4%, 15,916G)

black bets:
Shakarak: 2,000G (41.2%, 46,110G)
kingchadking: 613G (12.6%, 613G)
bad1dea: 400G (8.2%, 374,377G)
upvla: 360G (7.4%, 23,381G)
BirbBrainsBot: 319G (6.6%, 163,632G)
sonata_of_senpai: 265G (5.5%, 265G)
KasugaiRoastedPeas: 200G (4.1%, 24,301G)
yure1x: 168G (3.5%, 168G)
Slowbrofist: 116G (2.4%, 116G)
Rexamajinx: 100G (2.1%, 4,456G)
1fancyhatcat: 100G (2.1%, 100G)
Nocturnal_Perspective: 100G (2.1%, 100G)
EbonHawk7x: 100G (2.1%, 6,421G)
JackOnFire1: 14G (0.3%, 184G)
