Final Bets: purple - 17 bets for 6,159G (31.6%, x2.16); brown - 17 bets for 13,321G (68.4%, x0.46)

purple bets:
mirapoix: 1,293G (21.0%, 2,586G)
sinnyil2: 1,200G (19.5%, 13,347G)
rubenflonne: 500G (8.1%, 7,758G)
waterwatereverywhere: 400G (6.5%, 4,281G)
bad1dea: 400G (6.5%, 373,977G)
Treapvort: 386G (6.3%, 386G)
kingchadking: 376G (6.1%, 376G)
BirbBrainsBot: 309G (5.0%, 163,313G)
ugoplatamia: 200G (3.2%, 12,865G)
KasugaiRoastedPeas: 200G (3.2%, 24,101G)
herrshaun: 200G (3.2%, 3,189G)
JackOnFire1: 170G (2.8%, 170G)
AllInBot: 121G (2.0%, 121G)
Phytik: 104G (1.7%, 5,256G)
chronoxtrigger: 100G (1.6%, 3,827G)
lijarkh: 100G (1.6%, 7,636G)
1fancyhatcat: 100G (1.6%, 100G)

brown bets:
Shakarak: 5,000G (37.5%, 44,110G)
theatheologist: 3,214G (24.1%, 69,952G)
Jeeboheebo: 1,002G (7.5%, 6,941G)
ungabunga_bot: 700G (5.3%, 10,133G)
YaBoy125: 700G (5.3%, 700G)
ApplesauceBoss: 478G (3.6%, 478G)
Goust18: 401G (3.0%, 401G)
mayormcfunbags: 314G (2.4%, 314G)
Maeveen: 304G (2.3%, 304G)
EbonHawk7x: 300G (2.3%, 6,321G)
Sitiran: 245G (1.8%, 2,456G)
lavian94: 135G (1.0%, 135G)
Slowbrofist: 116G (0.9%, 116G)
yure1x: 108G (0.8%, 108G)
getthemoneyz: 104G (0.8%, 417,731G)
Lythe_Caraker: 100G (0.8%, 47,115G)
datadrivenbot: 100G (0.8%, 15,937G)
