Final Bets: green - 10 bets for 3,928G (14.5%, x5.90); yellow - 24 bets for 23,164G (85.5%, x0.17)

green bets:
CorpusCav: 1,200G (30.5%, 54,526G)
JonnyCue: 500G (12.7%, 17,443G)
Deathmaker06: 500G (12.7%, 35,701G)
HorusTaurus: 396G (10.1%, 396G)
QuestMoreLand: 372G (9.5%, 372G)
AbandonedHall: 240G (6.1%, 240G)
regios91: 220G (5.6%, 369G)
datadrivenbot: 200G (5.1%, 84,955G)
Meta_Five: 200G (5.1%, 1,572G)
babiefaye: 100G (2.5%, 2,266G)

yellow bets:
acid_flashback: 5,000G (21.6%, 36,977G)
Shalloween: 3,000G (13.0%, 26,907G)
old_overholt_: 2,000G (8.6%, 62,672G)
Nizaha: 1,709G (7.4%, 6,836G)
roofiepops: 1,230G (5.3%, 3,559G)
RunicMagus: 1,020G (4.4%, 63,883G)
BirbBrainsBot: 1,000G (4.3%, 102,228G)
Lord_Gwarth: 1,000G (4.3%, 16,554G)
nhammen: 1,000G (4.3%, 69,170G)
getthemoneyz: 944G (4.1%, 2,172,057G)
killth3kid: 820G (3.5%, 38,257G)
fenaen: 668G (2.9%, 23,337G)
lowlf: 656G (2.8%, 9,652G)
resjudicata3: 572G (2.5%, 572G)
ExplanationMarkWow: 500G (2.2%, 45,271G)
Snowfats: 500G (2.2%, 28,019G)
2b_yorha_b: 400G (1.7%, 19,013G)
heropong: 340G (1.5%, 340G)
AllInBot: 200G (0.9%, 200G)
yagyuudarkness: 165G (0.7%, 165G)
SnarkMage: 136G (0.6%, 1,097G)
murderclan: 104G (0.4%, 104G)
moonliquor: 100G (0.4%, 66,486G)
maakur_: 100G (0.4%, 5,450G)
