Final Bets: yellow - 14 bets for 12,450G (55.3%, x0.81); purple - 17 bets for 10,065G (44.7%, x1.24)

yellow bets:
nifboy: 6,143G (49.3%, 12,287G)
Baron_von_Scrub: 1,111G (8.9%, 40,880G)
BirbBrainsBot: 1,000G (8.0%, 181,598G)
HASTERIOUS: 816G (6.6%, 16,338G)
HaateXIII: 760G (6.1%, 760G)
TheChainNerd: 700G (5.6%, 700G)
getthemoneyz: 644G (5.2%, 934,694G)
Sairentozon7: 352G (2.8%, 352G)
Aldrammech: 324G (2.6%, 324G)
MiseryKoss: 200G (1.6%, 353G)
AllInBot: 100G (0.8%, 100G)
Ring_Wyrm: 100G (0.8%, 2,564G)
fluffskull: 100G (0.8%, 1,357G)
Grandlanzer: 100G (0.8%, 6,491G)

purple bets:
Evewho: 3,593G (35.7%, 7,046G)
alterworlds: 1,073G (10.7%, 1,073G)
Rislyeu: 750G (7.5%, 57,814G)
Thyrandaal: 563G (5.6%, 563G)
YaBoy125: 552G (5.5%, 552G)
neocarbuncle: 534G (5.3%, 534G)
brewerspackers98: 500G (5.0%, 1,905G)
OneHundredFists: 500G (5.0%, 32,795G)
EnemyController: 500G (5.0%, 581,550G)
ColetteMSLP: 300G (3.0%, 1,930G)
GladiatorLupe: 300G (3.0%, 3,792G)
letdowncity: 300G (3.0%, 15,657G)
NightwolfXVI: 200G (2.0%, 1,077G)
E_Ballard: 100G (1.0%, 5,697G)
Nohurty: 100G (1.0%, 1,905G)
lastly: 100G (1.0%, 24,531G)
datadrivenbot: 100G (1.0%, 38,093G)
