Final Bets: green - 19 bets for 9,192G (44.4%, x1.25); yellow - 16 bets for 11,522G (55.6%, x0.80)

green bets:
fenaen: 2,097G (22.8%, 4,195G)
JackOnFire1: 1,883G (20.5%, 1,883G)
Bryon_W: 884G (9.6%, 884G)
getthemoneyz: 810G (8.8%, 508,735G)
tinyjeans: 566G (6.2%, 566G)
NovaKnight21: 430G (4.7%, 430G)
nedryerson01: 400G (4.4%, 4,351G)
YaBoy125: 300G (3.3%, 300G)
flowinprose: 288G (3.1%, 288G)
Jeeboheebo: 250G (2.7%, 250G)
datadrivenbot: 232G (2.5%, 293G)
TrueRhyme: 200G (2.2%, 2,675G)
KasugaiRoastedPeas: 200G (2.2%, 3,652G)
Sitiran: 163G (1.8%, 1,636G)
SwaffleWaffles: 153G (1.7%, 3,846G)
Ross_from_Cali: 116G (1.3%, 116G)
AlenaZarek: 100G (1.1%, 2,669G)
ohumbasa: 100G (1.1%, 1,000G)
braumbles: 20G (0.2%, 202G)

yellow bets:
volgrathemoose: 2,000G (17.4%, 13,600G)
PatSouI: 1,416G (12.3%, 1,416G)
TheChainNerd: 1,236G (10.7%, 1,236G)
edgehead62888: 1,000G (8.7%, 7,622G)
Zetchryn: 1,000G (8.7%, 28,325G)
ungabunga_bot: 1,000G (8.7%, 170,983G)
BirbBrainsBot: 1,000G (8.7%, 223,578G)
mexskacin: 541G (4.7%, 541G)
TheGuesty: 500G (4.3%, 3,555G)
Draconis345: 500G (4.3%, 2,186G)
arch8000: 399G (3.5%, 13,305G)
JIDkomu: 308G (2.7%, 308G)
dictatorhowells: 200G (1.7%, 946G)
Kurtis_E_Flush_: 200G (1.7%, 4,736G)
DrAntiSocial: 200G (1.7%, 2,610G)
roqqqpsi: 22G (0.2%, 1,100G)
