Final Bets: black - 15 bets for 5,348G (19.0%, x4.27); champion - 31 bets for 22,819G (81.0%, x0.23)

black bets:
TheChainNerd: 1,000G (18.7%, 16,509G)
BirbBrainsBot: 1,000G (18.7%, 221,114G)
roqqqpsi: 670G (12.5%, 670G)
NovaKnight21: 537G (10.0%, 537G)
Aldrammech: 500G (9.3%, 10,762G)
Zachara: 250G (4.7%, 36,250G)
Webb_MD: 228G (4.3%, 228G)
Jeeboheebo: 212G (4.0%, 212G)
KasugaiRoastedPeas: 200G (3.7%, 3,592G)
nedryerson01: 200G (3.7%, 3,976G)
SwaffleWaffles: 148G (2.8%, 3,721G)
Carledo: 103G (1.9%, 3,858G)
Lodrak: 100G (1.9%, 4,442G)
OrganicArtist: 100G (1.9%, 2,204G)
IamInfamous: 100G (1.9%, 940G)

champion bets:
edgehead62888: 2,905G (12.7%, 2,905G)
RongRongArts: 2,636G (11.6%, 5,272G)
Mtueni: 2,000G (8.8%, 194,440G)
TheGuesty: 1,500G (6.6%, 4,868G)
fenaen: 1,106G (4.8%, 1,106G)
dictatorhowells: 1,006G (4.4%, 1,006G)
volgrathemoose: 1,001G (4.4%, 15,000G)
AlenaZarek: 1,000G (4.4%, 2,000G)
Lavatis: 1,000G (4.4%, 2,051G)
MrFlabyo: 998G (4.4%, 10,998G)
itzover9001: 979G (4.3%, 979G)
JackOnFire1: 772G (3.4%, 772G)
Nizaha: 693G (3.0%, 693G)
Zeroroute: 600G (2.6%, 600G)
GingerDynomite: 500G (2.2%, 1,201G)
HaateXIII: 500G (2.2%, 2,738G)
reinoe: 500G (2.2%, 13,265G)
flowinprose: 489G (2.1%, 489G)
jhazor: 482G (2.1%, 2,410G)
arch8000: 393G (1.7%, 13,112G)
JIDkomu: 308G (1.3%, 308G)
braumbles: 215G (0.9%, 215G)
tinyjeans: 204G (0.9%, 204G)
Realitydown: 200G (0.9%, 1,499G)
Kurtis_E_Flush_: 200G (0.9%, 3,292G)
ungabunga_bot: 133G (0.6%, 170,930G)
BroHamma: 100G (0.4%, 100G)
LazarusAjin: 100G (0.4%, 4,569G)
TimeJannies: 100G (0.4%, 2,726G)
DrAntiSocial: 100G (0.4%, 3,245G)
datadrivenbot: 99G (0.4%, 100G)
