Final Bets: white - 6 bets for 4,201G (59.6%, x0.68); brown - 5 bets for 2,853G (40.4%, x1.47)

white bets:
NicoSavoy: 1,112G (26.5%, 111,289G)
BirbBrainsBot: 1,000G (23.8%, 179,523G)
douchetron: 996G (23.7%, 996G)
AllInBot: 383G (9.1%, 383G)
fattunaking: 372G (8.9%, 372G)
getthemoneyz: 338G (8.0%, 1,493,908G)

brown bets:
gorgewall: 1,337G (46.9%, 1,337G)
Mesmaster: 1,000G (35.1%, 18,412G)
AugnosMusic: 212G (7.4%, 212G)
datadrivenbot: 200G (7.0%, 46,943G)
Azzy_Omega: 104G (3.6%, 104G)
