Final Bets: red - 8 bets for 8,857G (75.2%, x0.33); brown - 3 bets for 2,926G (24.8%, x3.03)

red bets:
helpimabug: 4,215G (47.6%, 8,431G)
Mesmaster: 2,000G (22.6%, 19,884G)
rednecknazgul: 1,000G (11.3%, 9,001G)
BirbBrainsBot: 1,000G (11.3%, 178,523G)
AllInBot: 200G (2.3%, 200G)
datadrivenbot: 200G (2.3%, 47,237G)
AugnosMusic: 200G (2.3%, 524G)
getthemoneyz: 42G (0.5%, 1,493,570G)

brown bets:
gorgewall: 2,306G (78.8%, 2,306G)
douchetron: 520G (17.8%, 520G)
CT_5_Holy: 100G (3.4%, 5,713G)
