Final Bets: blue - 12 bets for 118,229G (73.4%, x0.36); champion - 42 bets for 42,781G (26.6%, x2.76)

blue bets:
Pie108: 100,000G (84.6%, 307,917G)
MaouDono: 10,760G (9.1%, 10,760G)
MagicBottle: 3,619G (3.1%, 72,389G)
Aldrammech: 1,000G (0.8%, 16,056G)
Laserman1000: 900G (0.8%, 65,300G)
ANFz: 500G (0.4%, 19,401G)
LivingHitokiri: 500G (0.4%, 8,365G)
electric_glass: 250G (0.2%, 3,772G)
zzaanexx: 200G (0.2%, 258G)
b_bot: 200G (0.2%, 6,205G)
Primeval_33: 200G (0.2%, 1,893G)
Rislyeu: 100G (0.1%, 100G)

champion bets:
museofdoom: 7,097G (16.6%, 7,097G)
AmewTheFox: 6,742G (15.8%, 6,742G)
GreatRedDragon: 5,296G (12.4%, 5,296G)
HaplessOne: 2,222G (5.2%, 12,306G)
Zeroroute: 1,273G (3.0%, 1,273G)
richardserious: 1,198G (2.8%, 1,198G)
ACSpree: 1,102G (2.6%, 1,102G)
Cataphract116: 1,000G (2.3%, 16,059G)
Dymntd: 1,000G (2.3%, 10,016G)
BirbBrainsBot: 1,000G (2.3%, 100,906G)
ungabunga_bot: 1,000G (2.3%, 274,624G)
killth3kid: 1,000G (2.3%, 40,319G)
edgehead62888: 1,000G (2.3%, 4,477G)
coralreeferz: 1,000G (2.3%, 7,663G)
wackyzachyy: 1,000G (2.3%, 15,993G)
ewan_e: 1,000G (2.3%, 8,890G)
Jaritras: 898G (2.1%, 898G)
EnemyController: 858G (2.0%, 158,356G)
getthemoneyz: 664G (1.6%, 601,968G)
DeathTaxesAndAnime: 592G (1.4%, 592G)
Billybones5150: 500G (1.2%, 22,644G)
Estan_AD: 500G (1.2%, 1,894G)
HaateXIII: 500G (1.2%, 36,255G)
evdoggity: 500G (1.2%, 3,821G)
roofiepops: 444G (1.0%, 5,884G)
ZephyrTempest: 400G (0.9%, 2,727G)
twelfthrootoftwo: 300G (0.7%, 2,531G)
jhaller2: 300G (0.7%, 2,890G)
CoderCalamity: 300G (0.7%, 1,000G)
Sans_from_Snowdin: 295G (0.7%, 295G)
FoxtrotNovemberCharlie: 272G (0.6%, 272G)
Dexsana: 250G (0.6%, 5,403G)
midori_ribbon: 228G (0.5%, 228G)
gggamezzz: 200G (0.5%, 1,954G)
Bioticism: 200G (0.5%, 200G)
AllInBot: 100G (0.2%, 100G)
maakur_: 100G (0.2%, 111,218G)
Tougou: 100G (0.2%, 12,127G)
Evewho: 100G (0.2%, 9,656G)
datadrivenbot: 100G (0.2%, 8,065G)
cougboi: 100G (0.2%, 19,346G)
DrAntiSocial: 50G (0.1%, 6,938G)
