Final Bets: red - 21 bets for 22,200G (79.9%, x0.25); blue - 13 bets for 5,578G (20.1%, x3.98)

red bets:
NovaKnight21: 4,743G (21.4%, 4,743G)
toka222: 4,000G (18.0%, 29,760G)
HaplessOne: 2,500G (11.3%, 49,209G)
Nizaha: 2,001G (9.0%, 4,924G)
DavenIII: 1,000G (4.5%, 31,472G)
BirbBrainsBot: 1,000G (4.5%, 50,595G)
ungabunga_bot: 1,000G (4.5%, 497,457G)
Draconis345: 1,000G (4.5%, 73,084G)
Hamborn: 1,000G (4.5%, 53,483G)
DustBirdEX: 645G (2.9%, 9,032G)
volgrathemoose: 553G (2.5%, 553G)
SaintOmerville: 527G (2.4%, 527G)
DudeMonkey77: 500G (2.3%, 11,246G)
FriendSquirrel: 381G (1.7%, 381G)
ACSpree: 300G (1.4%, 11,080G)
Zeroroute: 300G (1.4%, 4,850G)
Miyokari: 250G (1.1%, 15,723G)
BlackfyreRoy: 200G (0.9%, 3,186G)
AUrato: 100G (0.5%, 1,768G)
datadrivenbot: 100G (0.5%, 16,412G)
Tougou: 100G (0.5%, 7,768G)

blue bets:
TheChainNerd: 1,000G (17.9%, 5,099G)
JumbocactuarX27: 950G (17.0%, 950G)
Cryptopsy70: 726G (13.0%, 726G)
E_Ballard: 600G (10.8%, 600G)
TheKillerNacho: 384G (6.9%, 384G)
Baron_von_Scrub: 353G (6.3%, 2,163G)
Rislyeu: 324G (5.8%, 324G)
TehDonut: 300G (5.4%, 1,982G)
richardserious: 267G (4.8%, 267G)
nifboy: 250G (4.5%, 5,175G)
TheFALLofLindsay: 224G (4.0%, 224G)
lastly: 100G (1.8%, 13,418G)
Evewho: 100G (1.8%, 13,521G)
