Final Bets: purple - 10 bets for 3,709G (9.7%, x9.30); brown - 25 bets for 34,497G (90.3%, x0.11)

purple bets:
LeoNightFury: 1,000G (27.0%, 3,046G)
E_Ballard: 600G (16.2%, 600G)
Rislyeu: 561G (15.1%, 1,122G)
richardserious: 500G (13.5%, 2,013G)
QaizerArt: 394G (10.6%, 394G)
getthemoneyz: 254G (6.8%, 675,878G)
Evewho: 100G (2.7%, 14,963G)
DudeMonkey77: 100G (2.7%, 11,872G)
Mtueni: 100G (2.7%, 4,393G)
AUrato: 100G (2.7%, 1,695G)

brown bets:
toka222: 7,500G (21.7%, 34,277G)
holyonline: 6,870G (19.9%, 6,870G)
Zeroroute: 2,008G (5.8%, 4,925G)
Nizaha: 2,001G (5.8%, 6,789G)
volgrathemoose: 1,511G (4.4%, 3,022G)
Lionhermit: 1,500G (4.3%, 47,747G)
HaplessOne: 1,500G (4.3%, 50,241G)
DavenIII: 1,400G (4.1%, 33,479G)
TheChainNerd: 1,107G (3.2%, 4,599G)
UmaiJam: 1,000G (2.9%, 30,713G)
ungabunga_bot: 1,000G (2.9%, 498,987G)
BirbBrainsBot: 1,000G (2.9%, 52,228G)
DustBirdEX: 987G (2.9%, 9,585G)
Kyune: 936G (2.7%, 936G)
roofiepops: 755G (2.2%, 29,188G)
ShintaroNayaka: 746G (2.2%, 746G)
JumbocactuarX27: 730G (2.1%, 730G)
potgodtopdog: 444G (1.3%, 36,656G)
Baron_von_Scrub: 440G (1.3%, 440G)
SaintOmerville: 296G (0.9%, 296G)
nifboy: 250G (0.7%, 5,770G)
Drusic: 216G (0.6%, 216G)
datadrivenbot: 100G (0.3%, 16,373G)
RunicMagus: 100G (0.3%, 41,053G)
BlackfyreRoy: 100G (0.3%, 3,397G)
