Final Bets: purple - 18 bets for 11,067G (19.6%, x4.09); brown - 19 bets for 45,254G (80.4%, x0.24)

purple bets:
Thyrandaal: 3,309G (29.9%, 3,309G)
CorpusCav: 1,200G (10.8%, 47,254G)
reinoe: 1,000G (9.0%, 10,433G)
BirbBrainsBot: 1,000G (9.0%, 187,686G)
killth3kid: 848G (7.7%, 43,908G)
lowlf: 688G (6.2%, 2,309G)
Evewho: 500G (4.5%, 23,227G)
ForagerCats: 500G (4.5%, 2,133G)
2b_yorha_b: 500G (4.5%, 35,651G)
Lord_Gwarth: 350G (3.2%, 8,241G)
highelectricaltemperature: 244G (2.2%, 244G)
Demon_Lord_Josh: 232G (2.1%, 232G)
MelTorefas: 200G (1.8%, 986G)
getthemoneyz: 126G (1.1%, 2,206,044G)
murderclan: 112G (1.0%, 112G)
YowaneHaku: 108G (1.0%, 108G)
farside00831: 100G (0.9%, 540G)
smallboops: 50G (0.5%, 2,183G)

brown bets:
Zagorsek: 16,168G (35.7%, 16,168G)
HorusTaurus: 9,355G (20.7%, 9,355G)
Virilikus: 5,000G (11.0%, 136,922G)
E_Ballard: 4,781G (10.6%, 4,781G)
CosmicTactician: 2,382G (5.3%, 4,765G)
Mushufasa_: 1,234G (2.7%, 22,410G)
latebit: 1,199G (2.6%, 9,414G)
Snowfats: 1,000G (2.2%, 57,948G)
gorgewall: 960G (2.1%, 960G)
AbandonedHall: 680G (1.5%, 680G)
silentkaster: 500G (1.1%, 31,958G)
roofiepops: 474G (1.0%, 3,436G)
tripaplex: 467G (1.0%, 467G)
diyahressem: 300G (0.7%, 4,491G)
AllInBot: 200G (0.4%, 200G)
datadrivenbot: 200G (0.4%, 82,261G)
resjudicata3: 200G (0.4%, 12,799G)
verythinice: 104G (0.2%, 524G)
king_smashington: 50G (0.1%, 3,435G)
