High Risers:
1. DeathTaxesAndAnime: +15,262G
2. CorpusCav: +12,140G
3. Nickyfive: +7,657G
4. RunicMagus: +6,619G
5. ko2q: +3,118G
6. Jehudy7: +3,054G
7. WireLord: +2,944G
8. Evewho: +2,707G
9. DLJuggernaut: +2,583G
10. DrAntiSocial: +2,367G
11. king_smashington: +2,219G
12. duckfacebro: +1,819G
13. coralreeferz: +1,666G
14. scsuperstar: +1,630G
15. gorgewall: +1,537G
16. ValensEXP_: +1,528G
17. MrJamDango: +1,444G
18. NicoSavoy: +1,348G
19. khelor_: +1,294G
20. ForagerCats: +1,288G
21. AbandonedHall: +1,158G
22. Lythe_Caraker: +1,106G
23. squideater_: +1,046G
24. SeniorBunk: +1,000G
25. chaosdesigned: +1,000G
26. lijarkh: +1,000G
27. otterhugs: +1,000G
28. Lord_Gwarth: +983G
29. ruleof5: +700G
30. lyonslegacy: +669G
31. nifboy: +663G
32. FE34923: +651G
33. BuffaloCrunch: +600G
34. krombobreaker: +549G
35. redmage4evah: +500G
36. silentkaster: +500G
37. tripaplex: +500G
38. galkife: +500G
39. run_with_stone_GUNs: +500G
40. NovaKnight21: +500G
41. FatTunaKing: +500G
42. Smashy: +500G
43. reddwind_: +500G
44. VolgraTheMoose: +500G
45. vorap: +500G
46. dogsandcatsand: +500G
47. mirapoix: +500G
48. lowlf: +500G
49. TheSabretoothe: +500G
50. ChiChiRodriguez: +500G
51. Phi_Sig: +500G
52. MelTorefas: +500G
53. Snowfats: +428G
54. almost__sane: +428G
55. JonnyCue: +419G
56. TheBrett: +362G
57. latebit: +262G
58. SensualOnix: +225G
59. just_here2: +200G
60. old_overholt_: +200G
61. Lionhermit: +106G
62. Treafa: +100G
63. Ogema_theDream: +4G
64. Rytor: -54G
65. maakur_: -100G
66. Laserman1000: -200G
67. Chuckolator: -203G
68. daveb_: -222G
69. seppu777: -333G
70. superdevon1: -405G
71. nhammen: -500G
72. Kronikle: -500G
73. Zbgs: -500G
74. Legionx13: -500G
75. MemoriesofFinal: -631G
76. Spartan_Paladin: -654G
77. b0lt: -700G
78. fenaen: -904G
79. GenZealot: -956G
80. ar_tactic: -1,000G
81. Nizaha: -1,000G
82. Thyrandaal: -1,037G
83. Jabuamba: -1,534G
84. technominari: -1,900G
85. murderclan: -1,939G
86. sinnyil2: -2,400G
87. Grayv87: -2,538G
88. YowaneHaku: -2,660G
89. DavenIII: -2,800G
90. killth3kid: -3,084G
91. SephDarkheart: -3,345G
92. Breakdown777: -3,547G
93. HorusTaurus: -4,552G
94. reinoe: -4,823G
95. Forkmore: -6,854G
96. Sairentozon7: -12,506G
