Final Bets: red - 19 bets for 37,795G (63.7%, x0.57); blue - 24 bets for 21,538G (36.3%, x1.75)

red bets:
Sairentozon7: 14,754G (39.0%, 14,754G)
Forkmore: 7,346G (19.4%, 7,346G)
killth3kid: 2,000G (5.3%, 27,945G)
Evewho: 2,000G (5.3%, 33,294G)
MemoriesofFinal: 2,000G (5.3%, 9,240G)
YowaneHaku: 2,000G (5.3%, 3,154G)
latebit: 1,415G (3.7%, 1,415G)
BirbBrainsBot: 1,000G (2.6%, 91,465G)
Zbgs: 1,000G (2.6%, 14,996G)
TheBrett: 730G (1.9%, 730G)
Rytor: 626G (1.7%, 626G)
thunderducker: 600G (1.6%, 600G)
Breakdown777: 500G (1.3%, 2,823G)
Treafa: 400G (1.1%, 5,065G)
superdevon1: 396G (1.0%, 2,189G)
king_smashington: 324G (0.9%, 324G)
Ogema_theDream: 256G (0.7%, 256G)
PopsLIVE: 248G (0.7%, 248G)
AllInBot: 200G (0.5%, 200G)

blue bets:
DeathTaxesAndAnime: 7,544G (35.0%, 14,793G)
CorpusCav: 2,000G (9.3%, 98,043G)
RunicMagus: 1,545G (7.2%, 1,545G)
nifboy: 1,109G (5.1%, 1,109G)
WireLord: 1,000G (4.6%, 13,221G)
getthemoneyz: 1,000G (4.6%, 2,212,532G)
DLJuggernaut: 918G (4.3%, 1,800G)
coralreeferz: 750G (3.5%, 3,650G)
resjudicata3: 652G (3.0%, 652G)
scsuperstar: 609G (2.8%, 609G)
Zagorsek: 512G (2.4%, 512G)
krombobreaker: 500G (2.3%, 37,100G)
ForagerCats: 500G (2.3%, 4,240G)
Jehudy7: 500G (2.3%, 4,868G)
khelor_: 500G (2.3%, 6,126G)
Spartan_Paladin: 300G (1.4%, 16,306G)
AbandonedHall: 284G (1.3%, 284G)
almost__sane: 244G (1.1%, 244G)
gorgewall: 201G (0.9%, 8,038G)
datadrivenbot: 200G (0.9%, 84,842G)
ValensEXP_: 200G (0.9%, 22,438G)
FE34923: 200G (0.9%, 2,570G)
Chuckolator: 170G (0.8%, 1,331G)
squideater_: 100G (0.5%, 4,935G)
