Final Bets: green - 22 bets for 18,630G (54.2%, x0.84); yellow - 16 bets for 15,732G (45.8%, x1.18)

green bets:
Evewho: 2,000G (10.7%, 31,294G)
WireLord: 2,000G (10.7%, 14,976G)
CorpusCav: 2,000G (10.7%, 101,553G)
Spartan_Paladin: 1,800G (9.7%, 16,832G)
resjudicata3: 1,796G (9.6%, 1,796G)
DLJuggernaut: 1,739G (9.3%, 3,411G)
GenZealot: 1,000G (5.4%, 33,178G)
getthemoneyz: 1,000G (5.4%, 2,214,287G)
AbandonedHall: 782G (4.2%, 782G)
krombobreaker: 500G (2.7%, 37,977G)
khelor_: 500G (2.7%, 7,003G)
Breakdown777: 500G (2.7%, 2,323G)
Grayv87: 500G (2.7%, 2,638G)
JonnyCue: 496G (2.7%, 6,009G)
superdevon1: 396G (2.1%, 1,793G)
DrAntiSocial: 396G (2.1%, 396G)
king_smashington: 324G (1.7%, 324G)
gorgewall: 201G (1.1%, 8,391G)
datadrivenbot: 200G (1.1%, 85,193G)
NicoSavoy: 200G (1.1%, 220,901G)
lyonslegacy: 200G (1.1%, 8,635G)
RunicMagus: 100G (0.5%, 4,256G)

yellow bets:
SephDarkheart: 4,533G (28.8%, 4,533G)
DavenIII: 3,000G (19.1%, 18,685G)
Zagorsek: 1,410G (9.0%, 1,410G)
YowaneHaku: 1,154G (7.3%, 1,154G)
BirbBrainsBot: 1,000G (6.4%, 90,465G)
killth3kid: 868G (5.5%, 25,945G)
Sairentozon7: 700G (4.4%, 700G)
scsuperstar: 678G (4.3%, 678G)
Rytor: 572G (3.6%, 572G)
latebit: 480G (3.1%, 480G)
Forkmore: 388G (2.5%, 388G)
Jehudy7: 300G (1.9%, 4,745G)
PopsLIVE: 248G (1.6%, 248G)
AllInBot: 200G (1.3%, 200G)
FE34923: 200G (1.3%, 2,921G)
Chuckolator: 1G (0.0%, 1,629G)
