Final Bets: green - 18 bets for 11,149G (51.5%, x0.94); yellow - 11 bets for 10,509G (48.5%, x1.06)

green bets:
Eyepoor_: 1,385G (12.4%, 1,385G)
sinnyil2: 1,200G (10.8%, 10,022G)
LDSkinny: 1,000G (9.0%, 36,567G)
Draconis345: 1,000G (9.0%, 87,995G)
Mesmaster: 1,000G (9.0%, 27,100G)
HaplessOne: 999G (9.0%, 31,508G)
nifboy: 941G (8.4%, 941G)
FNCardascia_: 822G (7.4%, 1,645G)
BirbBrainsBot: 585G (5.2%, 122,262G)
RaneofSoTN: 500G (4.5%, 3,963G)
LivingHitokiri: 500G (4.5%, 8,552G)
ZephyrTempest: 456G (4.1%, 2,524G)
Miyokari: 250G (2.2%, 2,265G)
GrayGhostGaming: 150G (1.3%, 751G)
FriendSquirrel: 101G (0.9%, 25,629G)
datadrivenbot: 100G (0.9%, 13,431G)
CustomGameMaster: 100G (0.9%, 100G)
bahamutlagooon: 60G (0.5%, 2,378G)

yellow bets:
catfashions: 5,000G (47.6%, 22,388G)
Dymntd: 2,583G (24.6%, 2,583G)
Rislyeu: 1,000G (9.5%, 2,037G)
ungabunga_bot: 524G (5.0%, 422,186G)
TheChainNerd: 444G (4.2%, 444G)
ItsMyCoolName: 300G (2.9%, 1,546G)
ThePineappleSalesman: 200G (1.9%, 27,986G)
Hoffrandexpress: 200G (1.9%, 1,541G)
maakur_: 100G (1.0%, 120,161G)
Practice_Pad: 100G (1.0%, 711G)
getthemoneyz: 58G (0.6%, 646,520G)
