Final Bets: yellow - 10 bets for 6,999G (38.3%, x1.61); brown - 22 bets for 11,259G (61.7%, x0.62)

yellow bets:
Rislyeu: 2,490G (35.6%, 4,981G)
HaplessOne: 1,500G (21.4%, 33,919G)
nifboy: 1,441G (20.6%, 1,441G)
EnemyController: 500G (7.1%, 206,419G)
ZephyrTempest: 360G (5.1%, 2,405G)
Hoffrandexpress: 200G (2.9%, 1,002G)
LivingHitokiri: 200G (2.9%, 7,002G)
JarlBrolaf: 108G (1.5%, 108G)
mannequ1n: 100G (1.4%, 2,208G)
CustomGameMaster: 100G (1.4%, 100G)

brown bets:
sinnyil2: 3,011G (26.7%, 6,022G)
Mesmaster: 1,000G (8.9%, 26,809G)
Lionhermit: 1,000G (8.9%, 42,649G)
BirbBrainsBot: 1,000G (8.9%, 123,270G)
catfashions: 1,000G (8.9%, 33,444G)
ungabunga_bot: 535G (4.8%, 424,885G)
Practice_Pad: 511G (4.5%, 511G)
FriendSquirrel: 500G (4.4%, 26,779G)
Dymntd: 500G (4.4%, 8,373G)
TheChainNerd: 448G (4.0%, 448G)
Eyepoor_: 264G (2.3%, 264G)
Miyokari: 250G (2.2%, 1,465G)
cam_ATS: 250G (2.2%, 1,067G)
CapnSauce420: 212G (1.9%, 212G)
eudes89: 124G (1.1%, 124G)
marrrrrrrrrrrrrrrrrrrr: 112G (1.0%, 112G)
GrayGhostGaming: 100G (0.9%, 437G)
maakur_: 100G (0.9%, 120,426G)
bahamutlagooon: 100G (0.9%, 2,407G)
datadrivenbot: 100G (0.9%, 13,219G)
getthemoneyz: 92G (0.8%, 644,922G)
DrAntiSocial: 50G (0.4%, 10,180G)
