Final Bets: brown - 17 bets for 8,647G (47.2%, x1.12); champion - 17 bets for 9,665G (52.8%, x0.89)

brown bets:
coralreeferz: 1,500G (17.3%, 9,254G)
HaateXIII: 1,174G (13.6%, 2,303G)
Lionhermit: 1,000G (11.6%, 43,271G)
TheChainNerd: 726G (8.4%, 726G)
JumbocactuarX27: 700G (8.1%, 18,487G)
BirbBrainsBot: 630G (7.3%, 123,892G)
nifboy: 532G (6.2%, 532G)
FriendSquirrel: 500G (5.8%, 27,090G)
Dymntd: 500G (5.8%, 9,684G)
CapnSauce420: 344G (4.0%, 344G)
Miyokari: 250G (2.9%, 1,620G)
eudes89: 201G (2.3%, 201G)
marrrrrrrrrrrrrrrrrrrr: 182G (2.1%, 182G)
JarlBrolaf: 108G (1.2%, 108G)
run_with_STONE_GUNS: 100G (1.2%, 3,457G)
mannequ1n: 100G (1.2%, 2,108G)
datadrivenbot: 100G (1.2%, 13,281G)

champion bets:
sinnyil2: 1,200G (12.4%, 7,894G)
HaplessOne: 1,111G (11.5%, 32,419G)
LivingHitokiri: 1,000G (10.3%, 6,802G)
EnemyController: 1,000G (10.3%, 205,919G)
catfashions: 1,000G (10.3%, 34,066G)
leakimiko: 906G (9.4%, 6,045G)
getthemoneyz: 798G (8.3%, 644,979G)
ungabunga_bot: 493G (5.1%, 425,218G)
ZephyrTempest: 456G (4.7%, 2,045G)
Eyepoor_: 428G (4.4%, 428G)
Hoffrandexpress: 400G (4.1%, 802G)
ItsMyCoolName: 300G (3.1%, 1,706G)
Practice_Pad: 150G (1.6%, 829G)
GrayGhostGaming: 149G (1.5%, 499G)
FNCardascia_: 124G (1.3%, 248G)
maakur_: 100G (1.0%, 120,488G)
bahamutlagooon: 50G (0.5%, 2,469G)
