Final Bets: red - 22 bets for 11,615G (39.2%, x1.55); blue - 24 bets for 17,980G (60.8%, x0.65)

red bets:
Gelwain: 2,312G (19.9%, 2,312G)
markese: 1,224G (10.5%, 1,224G)
fenaen: 1,001G (8.6%, 56,089G)
braumbles: 1,000G (8.6%, 88,851G)
superdevon1: 990G (8.5%, 990G)
roofiepops: 885G (7.6%, 27,612G)
ko2q: 819G (7.1%, 819G)
Oreo_Pizza: 500G (4.3%, 7,338G)
TheGuesty: 500G (4.3%, 22,600G)
gooseyourself: 500G (4.3%, 2,536G)
EnemyController: 400G (3.4%, 81,170G)
ewan_e: 300G (2.6%, 1,753G)
benticore: 200G (1.7%, 2,774G)
marin1987: 200G (1.7%, 13,264G)
Lavatis: 200G (1.7%, 7,080G)
ungabunga_bot: 108G (0.9%, 219,333G)
AllInBot: 100G (0.9%, 100G)
TimeJannies: 100G (0.9%, 18,372G)
datadrivenbot: 100G (0.9%, 1,381G)
jtbirdACC: 100G (0.9%, 3,651G)
DrAntiSocial: 50G (0.4%, 23,927G)
roqqqpsi: 26G (0.2%, 1,328G)

blue bets:
sinnyil2: 4,500G (25.0%, 90,955G)
HASTERIOUS: 2,279G (12.7%, 15,194G)
Pie108: 2,000G (11.1%, 88,803G)
Nizaha: 1,001G (5.6%, 14,726G)
BirbBrainsBot: 1,000G (5.6%, 154,689G)
animefan112233: 1,000G (5.6%, 5,542G)
JumbocactuarX27: 1,000G (5.6%, 7,422G)
DustBirdEX: 584G (3.2%, 2,000G)
TheChainNerd: 500G (2.8%, 1,771G)
EvilLego6: 500G (2.8%, 2,677G)
Arunic: 500G (2.8%, 6,087G)
alrightbye: 480G (2.7%, 48,020G)
gorgewall: 400G (2.2%, 7,561G)
Lanshaft: 364G (2.0%, 941G)
Chuckolator: 325G (1.8%, 29,261G)
nifboy: 269G (1.5%, 6,734G)
xYungAnarchyx: 250G (1.4%, 779G)
Estan_AD: 250G (1.4%, 1,086G)
Rivonus: 200G (1.1%, 4,167G)
KasugaiRoastedPeas: 200G (1.1%, 13,943G)
ZephyrTempest: 101G (0.6%, 181,415G)
ApplesauceBoss: 100G (0.6%, 9,936G)
Firesheath: 100G (0.6%, 10,504G)
Ross_from_Cali: 77G (0.4%, 8,199G)
