Final Bets: purple - 12 bets for 4,978G (46.6%, x1.15); champion - 12 bets for 5,703G (53.4%, x0.87)

purple bets:
TheChainNerd: 1,000G (20.1%, 11,848G)
DavenIII: 1,000G (20.1%, 3,377G)
metagameface: 577G (11.6%, 577G)
Anomandaris__: 500G (10.0%, 2,067G)
Mtueni: 400G (8.0%, 14,805G)
DudeMonkey77: 333G (6.7%, 12,076G)
HaplessOne: 333G (6.7%, 37,489G)
AmaninAmide: 300G (6.0%, 2,460G)
Nizaha: 201G (4.0%, 17,471G)
cloud92684: 200G (4.0%, 7,061G)
E_Ballard: 100G (2.0%, 6,863G)
getthemoneyz: 34G (0.7%, 684,835G)

champion bets:
roqqqpsi: 1,614G (28.3%, 14,680G)
BirbBrainsBot: 1,000G (17.5%, 195,166G)
Candina: 666G (11.7%, 4,661G)
JumbocactuarX27: 588G (10.3%, 588G)
LordSDB: 500G (8.8%, 2,473G)
skillomono: 385G (6.8%, 385G)
benticore: 250G (4.4%, 6,496G)
run_with_stone_GUNs: 200G (3.5%, 4,535G)
LeoNightFury: 200G (3.5%, 463G)
CosmicTactician: 100G (1.8%, 11,960G)
rjA0zcOQ96: 100G (1.8%, 2,417G)
datadrivenbot: 100G (1.8%, 21,861G)
