Final Bets: purple - 7 bets for 5,132G (52.0%, x0.92); brown - 13 bets for 4,736G (48.0%, x1.08)

purple bets:
pandasforsale: 3,012G (58.7%, 3,012G)
getthemoneyz: 500G (9.7%, 820,077G)
I_nod_my_head_when_I_lose: 500G (9.7%, 49,550G)
BirbBrainsBot: 437G (8.5%, 69,314G)
byrdturbo: 333G (6.5%, 19,877G)
Lythe_Caraker: 250G (4.9%, 119,869G)
OneHundredFists: 100G (1.9%, 746G)

brown bets:
gorgewall: 1,040G (22.0%, 1,040G)
NovaKnight21: 680G (14.4%, 680G)
Sairentozon7: 548G (11.6%, 548G)
Digitalsocrates: 500G (10.6%, 1,609G)
ChronoG: 464G (9.8%, 464G)
mechoking: 400G (8.4%, 2,152G)
RaIshtar: 304G (6.4%, 304G)
ConRar: 236G (5.0%, 236G)
DAC169: 164G (3.5%, 164G)
Dymntd: 100G (2.1%, 38,198G)
red_celt: 100G (2.1%, 1,074G)
datadrivenbot: 100G (2.1%, 33,665G)
Ring_Wyrm: 100G (2.1%, 1,344G)
