Final Bets: red - 5 bets for 2,519G (24.1%, x3.14); blue - 14 bets for 7,920G (75.9%, x0.32)

red bets:
AllInBot: 693G (27.5%, 693G)
bruubarg: 690G (27.4%, 690G)
Raixelol: 600G (23.8%, 600G)
3ngag3: 336G (13.3%, 15,538G)
Leonidusx: 200G (7.9%, 73,743G)

blue bets:
skipsandwiches: 2,002G (25.3%, 14,894G)
getthemoneyz: 780G (9.8%, 1,947,792G)
VolgraTheMoose: 780G (9.8%, 780G)
brenogarwin: 761G (9.6%, 761G)
BirbBrainsBot: 674G (8.5%, 674G)
khelor_: 500G (6.3%, 3,038G)
LivingHitokiri: 500G (6.3%, 6,793G)
resjudicata3: 459G (5.8%, 459G)
Mushufasa_: 385G (4.9%, 385G)
hotpocketsofficial: 379G (4.8%, 379G)
Awakeninfinity: 200G (2.5%, 3,247G)
datadrivenbot: 200G (2.5%, 63,114G)
MemoriesofFinal: 200G (2.5%, 21,538G)
BartTradingCompany: 100G (1.3%, 9,972G)
