High Risers:
1. Panushenko: +5,514G
2. Reinoe: +5,400G
3. Baronhaynes: +4,276G
4. Haatexiii: +3,608G
5. Douchetron: +3,543G
6. Volgrathemoose: +3,528G
7. Firesheath: +3,447G
8. Upvla: +2,075G
9. Corpuscav: +1,897G
10. Jaritras: +1,813G
11. Skipsandwiches: +1,634G
12. Colettemslp: +1,529G
13. Cryptopsy70: +1,383G
14. Run_with_stone_guns: +1,230G
15. Onehundredfists: +1,066G
16. Leonidusx: +1,064G
17. Zagorsek: +1,000G
18. Antarddzero: +1,000G
19. Willjin: +998G
20. Nickolaytheninja: +900G
21. Reddwind_: +837G
22. J_52: +733G
23. Farseli_: +728G
24. Yagyuudarkness: +685G
25. Hasterious: +504G
26. Nifboy: +504G
27. Ar_tactic: +500G
28. Galkife: +500G
29. Just_here2: +500G
30. Actual_jp: +500G
31. E_ballard: +500G
32. Friendsquirrel: +500G
33. Gelwain: +500G
34. Call__me__sean: +500G
35. Powergems: +500G
36. Thesabretoothe: +500G
37. Lord_gwarth: +500G
38. Brenogarwin: +500G
39. Bongomon7: +500G
40. Daget91: +500G
41. Skylerbunny: +500G
42. Twisted_nutsatchel: +500G
43. Lowlf: +484G
44. Chihuahua_charity: +427G
45. Gorgewall: +405G
46. Maakur_: +368G
47. Snarkmage: +345G
48. Dac169: +309G
49. Memoriesoffinal: +300G
50. Chichirodriguez: +230G
51. Cosmictactician: +200G
52. Chilltron: +191G
53. Deathtaxesandanime: +182G
54. Formerlydrdong: +176G
55. Pplvee1: +171G
56. Xenocalypse: +155G
57. Yangusburger: +53G
58. Resjudicata3: +4G
59. Capnchaos12: +1G
60. Evontno: -60G
61. Daveb_: -144G
62. Sephdarkheart: -196G
63. Dhaveword: -199G
64. Widewalk: -200G
65. Seppu777: -277G
66. King_smashington: -379G
67. Error72: -497G
68. Runeseeker22: -500G
69. Robespyah: -500G
70. Wildetrys: -514G
71. Silentkaster: -725G
72. Phi_sig: -851G
73. Kronikle: -900G
74. Greggernaut: -1,000G
75. Latebit: -1,000G
76. Gobizku: -1,000G
77. Saintomerville: -1,000G
78. Kellios11: -1,000G
79. Jumbocactuarx27: -1,000G
80. Aldrammech: -1,000G
81. Hojimitsu: -1,000G
82. Johannjfs: -1,000G
83. Escobro: -1,192G
84. Tripaplex: -1,197G
85. Nizaha: -1,389G
86. Laserman1000: -1,400G
87. Killth3kid: -1,508G
88. Valensexp_: -1,640G
89. Smashy: -1,774G
90. Abandonedhall: -2,155G
91. Old_overholt_: -2,319G
92. Nhammen: -5,320G
93. Thyrandaal: -6,696G
94. Dogsandcatsand: -7,226G
95. Mesmaster: -36,413G
