Final Bets: red - 21 bets for 17,849G (79.0%, x0.27); blue - 10 bets for 4,732G (21.0%, x3.77)

red bets:
dogsandcatsand: 2,500G (14.0%, 31,471G)
VolgraTheMoose: 2,473G (13.9%, 2,473G)
AbandonedHall: 1,828G (10.2%, 1,828G)
CorpusCav: 1,300G (7.3%, 40,103G)
DeathTaxesAndAnime: 1,221G (6.8%, 1,221G)
hojimitsu: 1,000G (5.6%, 1,168G)
BirbBrainsBot: 1,000G (5.6%, 5,322G)
Thyrandaal: 1,000G (5.6%, 66,724G)
HaateXIII: 980G (5.5%, 980G)
pplvee1: 705G (3.9%, 705G)
escobro: 700G (3.9%, 1,729G)
Phi_Sig: 555G (3.1%, 20,597G)
formerlydrdong: 542G (3.0%, 542G)
roofiepops: 428G (2.4%, 428G)
ColetteMSLP: 400G (2.2%, 8,920G)
Jaritras: 368G (2.1%, 368G)
SephDarkheart: 348G (1.9%, 28,805G)
AllInBot: 200G (1.1%, 200G)
gorgewall: 101G (0.6%, 2,918G)
BartTradingCompany: 100G (0.6%, 11,237G)
nhammen: 100G (0.6%, 307,411G)

blue bets:
Firesheath: 1,049G (22.2%, 1,049G)
BaronHaynes: 1,001G (21.2%, 34,343G)
Nizaha: 848G (17.9%, 77,275G)
getthemoneyz: 492G (10.4%, 1,958,279G)
douchetron: 352G (7.4%, 352G)
biske13: 332G (7.0%, 332G)
resjudicata3: 308G (6.5%, 308G)
OneHundredFists: 150G (3.2%, 1,319G)
DHaveWord: 100G (2.1%, 7,959G)
J_52: 100G (2.1%, 792G)
