Final Bets: white - 18 bets for 15,320G (55.7%, x0.80); black - 16 bets for 12,192G (44.3%, x1.26)

white bets:
dogsandcatsand: 2,500G (16.3%, 30,881G)
DeathTaxesAndAnime: 2,327G (15.2%, 2,327G)
biske13: 2,084G (13.6%, 2,084G)
VolgraTheMoose: 1,726G (11.3%, 1,726G)
CorpusCav: 1,500G (9.8%, 38,535G)
escobro: 1,029G (6.7%, 1,029G)
Jaritras: 868G (5.7%, 868G)
Nizaha: 848G (5.5%, 80,126G)
roofiepops: 428G (2.8%, 428G)
skipsandwiches: 416G (2.7%, 20,174G)
ColetteMSLP: 400G (2.6%, 9,520G)
king_smashington: 300G (2.0%, 870G)
killth3kid: 250G (1.6%, 10,942G)
getthemoneyz: 244G (1.6%, 1,960,216G)
Firesheath: 100G (0.7%, 5,906G)
DAC169: 100G (0.7%, 2,159G)
J_52: 100G (0.7%, 1,725G)
nickolaytheninja: 100G (0.7%, 1,000G)

black bets:
Panushenko: 3,990G (32.7%, 3,990G)
HaateXIII: 2,033G (16.7%, 2,033G)
Thyrandaal: 2,000G (16.4%, 67,852G)
BirbBrainsBot: 1,000G (8.2%, 4,886G)
formerlydrdong: 728G (6.0%, 728G)
DHaveWord: 408G (3.3%, 7,928G)
Cryptopsy70: 372G (3.1%, 1,570G)
ChiChiRodriguez: 332G (2.7%, 332G)
old_overholt_: 300G (2.5%, 29,577G)
AbandonedHall: 224G (1.8%, 224G)
xenocalypse: 204G (1.7%, 204G)
AllInBot: 200G (1.6%, 200G)
gorgewall: 101G (0.8%, 3,116G)
BartTradingCompany: 100G (0.8%, 11,037G)
nhammen: 100G (0.8%, 307,867G)
maakur_: 100G (0.8%, 4,110G)
