Final Bets: blue - 15 bets for 7,360G (47.1%, x1.13); green - 17 bets for 8,282G (52.9%, x0.89)

blue bets:
cgMcWhiskers: 1,679G (22.8%, 1,679G)
RyuTsuno: 1,365G (18.5%, 2,731G)
Lionhermit: 1,000G (13.6%, 32,214G)
pandasforsale: 666G (9.0%, 42,102G)
Eyepoor_: 626G (8.5%, 626G)
ZephyrTempest: 419G (5.7%, 8,396G)
Squatting_Bear: 300G (4.1%, 3,516G)
RestIessNight: 300G (4.1%, 3,393G)
ACSpree: 272G (3.7%, 272G)
byrdturbo: 222G (3.0%, 11,473G)
ANFz: 111G (1.5%, 30,082G)
nifboy: 100G (1.4%, 5,514G)
XelonYara: 100G (1.4%, 400G)
OneHundredFists: 100G (1.4%, 3,455G)
datadrivenbot: 100G (1.4%, 11,780G)

green bets:
sinnyil2: 1,200G (14.5%, 3,177G)
ungabunga_bot: 1,000G (12.1%, 323,687G)
BirbBrainsBot: 1,000G (12.1%, 180,952G)
jakeduhhsnake: 1,000G (12.1%, 75,373G)
Estan_AD: 1,000G (12.1%, 6,440G)
superdevon1: 626G (7.6%, 6,267G)
getthemoneyz: 482G (5.8%, 605,250G)
corpus11: 400G (4.8%, 649G)
Kyune: 322G (3.9%, 322G)
Bioticism: 274G (3.3%, 274G)
Arlum: 212G (2.6%, 212G)
FNCardascia_: 204G (2.5%, 204G)
astrozin11: 131G (1.6%, 8,131G)
bairen0: 123G (1.5%, 962G)
tsdZero: 108G (1.3%, 108G)
Rislyeu: 100G (1.2%, 7,327G)
linkblood4: 100G (1.2%, 2,049G)
