Final Bets: purple - 11 bets for 7,572G (49.7%, x1.01); brown - 4 bets for 7,674G (50.3%, x0.99)

purple bets:
Digitalsocrates: 3,000G (39.6%, 18,246G)
VolgraTheMoose: 1,001G (13.2%, 11,942G)
BirbBrainsBot: 1,000G (13.2%, 55,670G)
BlackFireUK: 1,000G (13.2%, 30,111G)
gorgewall: 401G (5.3%, 18,160G)
getthemoneyz: 362G (4.8%, 1,017,192G)
ColetteMSLP: 300G (4.0%, 691G)
twelfthrootoftwo: 200G (2.6%, 6,614G)
pancake11112: 108G (1.4%, 108G)
E_Ballard: 100G (1.3%, 17,029G)
datadrivenbot: 100G (1.3%, 44,765G)

brown bets:
serperemagus: 4,263G (55.6%, 4,263G)
Evewho: 1,862G (24.3%, 1,862G)
YaBoy125: 1,349G (17.6%, 44,998G)
CT_5_Holy: 200G (2.6%, 2,314G)
