Final Bets: blue - 10 bets for 3,464G (26.2%, x2.82); yellow - 14 bets for 9,767G (73.8%, x0.35)

blue bets:
BirbBrainsBot: 1,000G (28.9%, 58,977G)
EnemyController: 888G (25.6%, 1,402,375G)
killth3kid: 692G (20.0%, 65,621G)
Forkmore: 300G (8.7%, 300G)
Firesheath: 100G (2.9%, 2,689G)
SephDarkheart: 100G (2.9%, 25,256G)
DeathTaxesAndAnime: 100G (2.9%, 14,669G)
peeronid: 100G (2.9%, 7,202G)
nifboy: 100G (2.9%, 9,343G)
getthemoneyz: 84G (2.4%, 1,268,143G)

yellow bets:
ShintaroNayaka: 3,000G (30.7%, 14,274G)
E_Ballard: 1,987G (20.3%, 1,987G)
mpghappiness: 1,074G (11.0%, 1,074G)
Treafa: 541G (5.5%, 1,083G)
maakur_: 532G (5.4%, 532G)
yeepeekayeahmf: 500G (5.1%, 3,405G)
roofiepops: 448G (4.6%, 448G)
ACSpree: 380G (3.9%, 380G)
mrfripps: 300G (3.1%, 6,588G)
TasisSai: 300G (3.1%, 5,015G)
HappyCrabCo: 204G (2.1%, 204G)
gorgewall: 201G (2.1%, 6,524G)
datadrivenbot: 200G (2.0%, 62,934G)
Ring_Wyrm: 100G (1.0%, 15,948G)
