Final Bets: blue - 10 bets for 4,179G (40.6%, x1.46); black - 17 bets for 6,117G (59.4%, x0.68)

blue bets:
BirbBrainsBot: 1,000G (23.9%, 62,489G)
ACSpree: 816G (19.5%, 816G)
killth3kid: 692G (16.6%, 68,367G)
EnemyController: 555G (13.3%, 1,404,324G)
TasisSai: 300G (7.2%, 4,415G)
E_Ballard: 284G (6.8%, 1,092G)
MMagnetMan: 200G (4.8%, 1,319G)
getthemoneyz: 132G (3.2%, 1,268,374G)
DeathTaxesAndAnime: 100G (2.4%, 15,066G)
SephDarkheart: 100G (2.4%, 24,438G)

black bets:
mpghappiness: 1,195G (19.5%, 1,195G)
Forkmore: 1,146G (18.7%, 1,146G)
dogsandcatsand: 508G (8.3%, 16,123G)
amiture: 500G (8.2%, 8,532G)
roofiepops: 448G (7.3%, 448G)
Grandlanzer: 400G (6.5%, 73,627G)
Breakdown777: 316G (5.2%, 316G)
Treafa: 271G (4.4%, 271G)
HyC81: 248G (4.1%, 248G)
HappyCrabCo: 204G (3.3%, 204G)
gorgewall: 201G (3.3%, 6,122G)
datadrivenbot: 200G (3.3%, 62,534G)
Ring_Wyrm: 100G (1.6%, 15,848G)
dtrain332: 100G (1.6%, 114G)
peeronid: 100G (1.6%, 7,484G)
CosmicTactician: 100G (1.6%, 43,539G)
fluffskull: 80G (1.3%, 3,780G)
