Final Bets: red - 9 bets for 6,451G (39.9%, x1.51); blue - 17 bets for 9,716G (60.1%, x0.66)

red bets:
killth3kid: 2,000G (31.0%, 40,164G)
J2DaBibbles: 2,000G (31.0%, 27,347G)
volgrathemoose: 1,001G (15.5%, 9,481G)
Baron_von_Scrub: 474G (7.3%, 12,847G)
Cataphract116: 300G (4.7%, 16,221G)
edgehead62888: 280G (4.3%, 280G)
HaychDub: 250G (3.9%, 6,948G)
Squatting_Bear: 100G (1.6%, 1,814G)
roqqqpsi: 46G (0.7%, 4,613G)

blue bets:
hydroshade: 1,100G (11.3%, 23,350G)
Mudrockk: 1,000G (10.3%, 7,450G)
cupholderr: 1,000G (10.3%, 37,657G)
BirbBrainsBot: 1,000G (10.3%, 160,484G)
ungabunga_bot: 1,000G (10.3%, 430,054G)
Lionhermit: 1,000G (10.3%, 31,816G)
nifboy: 739G (7.6%, 739G)
bahamutlagooon: 561G (5.8%, 561G)
TrueRhyme: 500G (5.1%, 4,924G)
Estan_AD: 424G (4.4%, 424G)
Realitydown: 384G (4.0%, 384G)
LordSDB: 308G (3.2%, 308G)
bobc777: 200G (2.1%, 200G)
Practice_Pad: 160G (1.6%, 160G)
foofermoofer: 140G (1.4%, 140G)
datadrivenbot: 100G (1.0%, 11,180G)
E_Ballard: 100G (1.0%, 5,622G)
