Final Bets: purple - 17 bets for 11,187G (50.0%, x1.00); brown - 11 bets for 11,193G (50.0%, x1.00)

purple bets:
theNGUYENNER: 2,000G (17.9%, 48,731G)
LazarusAjin: 1,241G (11.1%, 24,829G)
Baron_von_Scrub: 1,111G (9.9%, 13,045G)
edgehead62888: 1,078G (9.6%, 1,078G)
volgrathemoose: 1,001G (8.9%, 13,025G)
cupholderr: 1,000G (8.9%, 30,657G)
Mudrockk: 616G (5.5%, 7,616G)
DustBirdEX: 545G (4.9%, 1,737G)
TrueRhyme: 500G (4.5%, 3,951G)
beowulfrulez: 471G (4.2%, 471G)
HaychDub: 400G (3.6%, 7,075G)
LordSDB: 308G (2.8%, 308G)
Oobs56: 300G (2.7%, 3,335G)
bahamutlagooon: 232G (2.1%, 232G)
ungabunga_bot: 222G (2.0%, 432,585G)
datadrivenbot: 100G (0.9%, 11,034G)
roqqqpsi: 62G (0.6%, 6,255G)

brown bets:
hydroshade: 2,500G (22.3%, 22,250G)
killth3kid: 2,000G (17.9%, 47,166G)
reinoe: 2,000G (17.9%, 23,436G)
BirbBrainsBot: 1,000G (8.9%, 159,020G)
getthemoneyz: 1,000G (8.9%, 653,739G)
Lionhermit: 1,000G (8.9%, 30,352G)
OverlordCuddles: 943G (8.4%, 943G)
Smashy: 300G (2.7%, 2,551G)
Error72: 250G (2.2%, 2,445G)
E_Ballard: 100G (0.9%, 5,322G)
foofermoofer: 100G (0.9%, 663G)
