Final Bets: purple - 24 bets for 7,838G (32.8%, x2.04); champion - 19 bets for 16,027G (67.2%, x0.49)

purple bets:
OmnibotGamma: 1,000G (12.8%, 10,592G)
Zhyyn: 700G (8.9%, 10,795G)
Avin_Chaos: 638G (8.1%, 638G)
reverv: 587G (7.5%, 1,174G)
Bulleta: 500G (6.4%, 5,720G)
Viola03773: 500G (6.4%, 1,918G)
UmaiJam: 440G (5.6%, 440G)
Lydian_C: 420G (5.4%, 3,280G)
rubenflonne: 394G (5.0%, 2,533G)
Humble_Fabio: 333G (4.2%, 4,915G)
SpaZmodeus: 333G (4.2%, 2,282G)
Maeveen: 300G (3.8%, 9,868G)
Jeardra: 262G (3.3%, 262G)
Rexamajinx: 220G (2.8%, 220G)
Treapvort: 200G (2.6%, 5,853G)
KasugaiRoastedPeas: 200G (2.6%, 33,297G)
ungabunga_bot: 161G (2.1%, 2,402G)
mirapoix: 150G (1.9%, 4,933G)
ApplesauceBoss: 100G (1.3%, 11,406G)
datadrivenbot: 100G (1.3%, 14,904G)
MillionGhosts: 100G (1.3%, 676G)
Oathkeeper89: 100G (1.3%, 100G)
WinnerBit: 50G (0.6%, 1,018G)
thejoden: 50G (0.6%, 1,091G)

champion bets:
sinnyil2: 2,500G (15.6%, 39,271G)
PotionDweller: 2,500G (15.6%, 32,049G)
HASTERIOUS: 2,500G (15.6%, 59,347G)
HaplessOne: 1,500G (9.4%, 30,084G)
RongRongArts: 1,100G (6.9%, 40,011G)
BirbBrainsBot: 1,000G (6.2%, 193,937G)
bad1dea: 1,000G (6.2%, 185,666G)
WireLord: 951G (5.9%, 951G)
ugoplatamia: 848G (5.3%, 4,240G)
leakimiko: 597G (3.7%, 11,950G)
DeathTaxesAndAnime: 400G (2.5%, 400G)
EODTex: 271G (1.7%, 271G)
lijarkh: 260G (1.6%, 260G)
AllInBot: 100G (0.6%, 100G)
BadBlanket: 100G (0.6%, 2,442G)
victoriolue: 100G (0.6%, 4,394G)
chronoxtrigger: 100G (0.6%, 5,203G)
7Cerulean7: 100G (0.6%, 2,613G)
BuffaloCrunch: 100G (0.6%, 16,167G)
