Final Bets: red - 21 bets for 7,658G (37.0%, x1.70); blue - 10 bets for 13,048G (63.0%, x0.59)

red bets:
roofiepops: 1,400G (18.3%, 15,084G)
BirbBrainsBot: 1,000G (13.1%, 96,372G)
getthemoneyz: 1,000G (13.1%, 771,169G)
DudeMonkey77: 500G (6.5%, 6,593G)
reinoe: 500G (6.5%, 70,114G)
letdowncity: 500G (6.5%, 9,658G)
Qaz12301: 445G (5.8%, 4,454G)
E_Ballard: 434G (5.7%, 434G)
Lionhermit: 364G (4.8%, 364G)
pplvee1: 311G (4.1%, 311G)
Flameatron: 200G (2.6%, 5,545G)
volgrathemoose: 200G (2.6%, 2,860G)
Mr_Greed029: 141G (1.8%, 141G)
ApplesauceBoss: 100G (1.3%, 5,806G)
FoeSquirrel: 100G (1.3%, 4,050G)
maakur_: 100G (1.3%, 5,972G)
datadrivenbot: 100G (1.3%, 29,423G)
CorpusCav: 100G (1.3%, 11,631G)
Klednar21: 100G (1.3%, 842G)
b0shii: 50G (0.7%, 12,520G)
aeonicvector: 13G (0.2%, 1,369G)

blue bets:
DeathTaxesAndAnime: 7,369G (56.5%, 14,450G)
ko2q: 1,498G (11.5%, 1,498G)
Rislyeu: 1,000G (7.7%, 8,338G)
SkylerBunny: 1,000G (7.7%, 81,652G)
OneHundredFists: 580G (4.4%, 580G)
Laserman1000: 500G (3.8%, 23,200G)
MADTheta: 500G (3.8%, 8,296G)
HaychDub: 300G (2.3%, 6,099G)
gorgewall: 201G (1.5%, 20,467G)
maleblackfiora: 100G (0.8%, 910G)
