Final Bets: green - 11 bets for 8,605G (45.6%, x1.19); yellow - 19 bets for 10,270G (54.4%, x0.84)

green bets:
Rislyeu: 3,669G (42.6%, 7,338G)
twelfthrootoftwo: 2,000G (23.2%, 41,788G)
reinoe: 1,000G (11.6%, 70,966G)
MADTheta: 500G (5.8%, 7,796G)
DAC169: 400G (4.6%, 624G)
gorgewall: 301G (3.5%, 20,266G)
HaychDub: 300G (3.5%, 5,799G)
MiseryKoss: 200G (2.3%, 3,982G)
maakur_: 100G (1.2%, 6,142G)
CorpusCav: 100G (1.2%, 11,801G)
aeonicvector: 35G (0.4%, 1,391G)

yellow bets:
DeathTaxesAndAnime: 3,611G (35.2%, 7,081G)
cloud92684: 1,000G (9.7%, 3,224G)
BirbBrainsBot: 1,000G (9.7%, 98,076G)
SkylerBunny: 1,000G (9.7%, 80,652G)
LightSCT: 700G (6.8%, 2,284G)
letdowncity: 500G (4.9%, 10,510G)
sSwing: 500G (4.9%, 5,253G)
pplvee1: 350G (3.4%, 841G)
cogniv0r3: 327G (3.2%, 327G)
Qaz12301: 200G (1.9%, 5,212G)
Klednar21: 200G (1.9%, 1,012G)
getthemoneyz: 182G (1.8%, 772,873G)
ApplesauceBoss: 100G (1.0%, 5,976G)
Mr_Greed029: 100G (1.0%, 381G)
CosmicTactician: 100G (1.0%, 2,535G)
datadrivenbot: 100G (1.0%, 29,593G)
maleblackfiora: 100G (1.0%, 810G)
FoeSquirrel: 100G (1.0%, 4,220G)
Tougou: 100G (1.0%, 2,669G)
