Final Bets: white - 16 bets for 10,152G (59.3%, x0.69); black - 20 bets for 6,973G (40.7%, x1.46)

white bets:
EnemyController: 2,222G (21.9%, 1,730,377G)
dogsandcatsand: 2,141G (21.1%, 4,199G)
DarrenDinosaurs: 1,000G (9.9%, 17,916G)
BirbBrainsBot: 1,000G (9.9%, 175,427G)
latebit: 656G (6.5%, 656G)
Wonser: 648G (6.4%, 648G)
Lifebregin: 500G (4.9%, 20,098G)
lowlf: 488G (4.8%, 7,751G)
pplvee1: 390G (3.8%, 390G)
bigbongsmoker: 296G (2.9%, 1,610G)
Blaster_Bomb: 200G (2.0%, 3,515G)
Lushifah: 200G (2.0%, 2,923G)
resjudicata3: 200G (2.0%, 11,741G)
gorgewall: 101G (1.0%, 6,487G)
readdesert: 100G (1.0%, 2,501G)
BartTradingCompany: 10G (0.1%, 103G)

black bets:
Thyrandaal: 2,335G (33.5%, 2,335G)
Zagorsek: 684G (9.8%, 684G)
Dasutin23: 464G (6.7%, 9,670G)
holdenmagronik: 408G (5.9%, 5,941G)
rocl: 388G (5.6%, 966G)
FoeSquirrel: 355G (5.1%, 711G)
Snowfats: 320G (4.6%, 320G)
ValensEXP_: 240G (3.4%, 1,920G)
macradarkstar: 228G (3.3%, 228G)
TheSabretoothe: 219G (3.1%, 219G)
datadrivenbot: 200G (2.9%, 59,476G)
aceof86: 200G (2.9%, 1,021G)
AllInBot: 182G (2.6%, 182G)
getthemoneyz: 140G (2.0%, 1,898,925G)
acid_flashback: 110G (1.6%, 3,677G)
nhammen: 100G (1.4%, 398,539G)
RunicMagus: 100G (1.4%, 8,697G)
velvet_muffins: 100G (1.4%, 2,434G)
Sietaha: 100G (1.4%, 7,199G)
CosmicTactician: 100G (1.4%, 31,413G)
