Final Bets: red - 21 bets for 21,018G (77.0%, x0.30); purple - 19 bets for 6,282G (23.0%, x3.35)

red bets:
Willjin: 4,000G (19.0%, 95,138G)
Mesmaster: 3,000G (14.3%, 204,073G)
Thyrandaal: 2,560G (12.2%, 5,021G)
bruubarg: 2,477G (11.8%, 2,477G)
latebit: 1,100G (5.2%, 1,100G)
DarrenDinosaurs: 1,000G (4.8%, 18,481G)
old_overholt_: 1,000G (4.8%, 25,221G)
Laserman1000: 877G (4.2%, 4,077G)
BirbBrainsBot: 719G (3.4%, 175,787G)
Lord_Gwarth: 512G (2.4%, 512G)
Lushifah: 500G (2.4%, 3,375G)
CapnChaos12: 500G (2.4%, 500G)
RobotOcelot: 500G (2.4%, 5,829G)
holdenmagronik: 408G (1.9%, 5,125G)
rocl: 388G (1.8%, 388G)
Snowfats: 320G (1.5%, 320G)
CosmicTactician: 300G (1.4%, 31,134G)
bigbongsmoker: 296G (1.4%, 1,405G)
CorpusCav: 261G (1.2%, 29,261G)
datadrivenbot: 200G (1.0%, 58,925G)
nhammen: 100G (0.5%, 394,402G)

purple bets:
macradarkstar: 935G (14.9%, 935G)
AllInBot: 833G (13.3%, 833G)
Zagorsek: 684G (10.9%, 684G)
EnemyController: 666G (10.6%, 1,734,865G)
Raixelol: 576G (9.2%, 30,251G)
krombobreaker: 500G (8.0%, 1,426G)
acid_flashback: 500G (8.0%, 3,464G)
pplvee1: 308G (4.9%, 308G)
mindblownnnn: 300G (4.8%, 2,435G)
Blaster_Bomb: 250G (4.0%, 4,618G)
khelor_: 200G (3.2%, 2,907G)
gorgewall: 101G (1.6%, 6,354G)
DouglasDragonThePoet: 100G (1.6%, 1,056G)
Sietaha: 100G (1.6%, 6,813G)
velvet_muffins: 100G (1.6%, 2,183G)
nok____: 100G (1.6%, 2,100G)
getthemoneyz: 18G (0.3%, 1,898,519G)
BartTradingCompany: 10G (0.2%, 108G)
Chuckolator: 1G (0.0%, 25,080G)
