Final Bets: green - 16 bets for 17,809G (63.6%, x0.57); yellow - 14 bets for 10,201G (36.4%, x1.75)

green bets:
LDSkinny: 5,000G (28.1%, 44,032G)
reinoe: 2,000G (11.2%, 16,816G)
YaBoy125: 1,857G (10.4%, 37,146G)
ShintaroNayaka: 1,732G (9.7%, 1,732G)
TheChainNerd: 1,648G (9.3%, 1,648G)
joewcarson: 1,548G (8.7%, 1,548G)
sinnyil2: 864G (4.9%, 864G)
Belkra: 690G (3.9%, 690G)
E_Ballard: 636G (3.6%, 636G)
BoneMiser: 500G (2.8%, 500G)
killth3kid: 500G (2.8%, 3,700G)
CapnChaos12: 300G (1.7%, 3,212G)
DustBirdEX: 234G (1.3%, 2,535G)
Quadh0nk: 100G (0.6%, 3,681G)
datadrivenbot: 100G (0.6%, 48,922G)
CosmicTactician: 100G (0.6%, 20,968G)

yellow bets:
neerrm: 4,266G (41.8%, 4,266G)
BirbBrainsBot: 1,000G (9.8%, 170,372G)
CaptainGarlock: 1,000G (9.8%, 12,559G)
NovaKnight21: 701G (6.9%, 701G)
amiture: 500G (4.9%, 10,662G)
Chronolynx42: 500G (4.9%, 48,279G)
AniZero: 492G (4.8%, 492G)
holyonline: 468G (4.6%, 468G)
getthemoneyz: 370G (3.6%, 1,036,555G)
GatsbysGhost: 284G (2.8%, 284G)
docmitchphd: 220G (2.2%, 220G)
maldis40: 200G (2.0%, 459G)
Firesheath: 100G (1.0%, 3,562G)
actual_JP: 100G (1.0%, 7,300G)
