Final Bets: white - 17 bets for 11,939G (58.7%, x0.70); black - 14 bets for 8,386G (41.3%, x1.42)

white bets:
neerrm: 2,000G (16.8%, 11,718G)
reinoe: 2,000G (16.8%, 14,816G)
NovaKnight21: 1,925G (16.1%, 1,925G)
YaBoy125: 1,764G (14.8%, 35,289G)
Nickyfive: 1,500G (12.6%, 19,876G)
maldis40: 600G (5.0%, 808G)
ShintaroNayaka: 544G (4.6%, 544G)
BoneMiser: 500G (4.2%, 500G)
RageImmortaI: 206G (1.7%, 206G)
Rytor: 200G (1.7%, 4,216G)
nifboy: 100G (0.8%, 1,828G)
ApplesauceBoss: 100G (0.8%, 5,094G)
chaoskl21: 100G (0.8%, 100G)
actual_JP: 100G (0.8%, 7,475G)
CosmicTactician: 100G (0.8%, 20,868G)
Quadh0nk: 100G (0.8%, 3,581G)
datadrivenbot: 100G (0.8%, 48,822G)

black bets:
holyonline: 1,285G (15.3%, 1,285G)
getthemoneyz: 1,000G (11.9%, 1,037,201G)
BirbBrainsBot: 1,000G (11.9%, 172,118G)
LDSkinny: 1,000G (11.9%, 39,032G)
GatsbysGhost: 780G (9.3%, 780G)
TheChainNerd: 512G (6.1%, 512G)
baconbacon1207: 500G (6.0%, 6,857G)
run_with_stone_GUNs: 500G (6.0%, 29,025G)
CaptainGarlock: 500G (6.0%, 14,305G)
amiture: 500G (6.0%, 11,535G)
Zagorsek: 308G (3.7%, 308G)
gorgewall: 201G (2.4%, 8,013G)
Grandlanzer: 200G (2.4%, 14,640G)
Firesheath: 100G (1.2%, 3,737G)
