Final Bets: red - 12 bets for 11,271G (47.2%, x1.12); champion - 9 bets for 12,583G (52.8%, x0.90)

red bets:
YaBoy125: 3,769G (33.4%, 4,769G)
superdevon1: 3,078G (27.3%, 6,156G)
J2DaBibbles: 1,000G (8.9%, 4,788G)
datadrivenbot: 814G (7.2%, 25,132G)
Treapvort: 638G (5.7%, 638G)
fenixcrest: 560G (5.0%, 5,600G)
ColetteMSLP: 500G (4.4%, 20,704G)
Anomandaris__: 300G (2.7%, 2,272G)
HeroponThrawn: 208G (1.8%, 208G)
DrAntiSocial: 200G (1.8%, 548G)
Kojigawatz: 104G (0.9%, 104G)
Tithin: 100G (0.9%, 100G)

champion bets:
AllInBot: 7,392G (58.7%, 7,392G)
Jeeboheebo: 1,420G (11.3%, 1,420G)
kai_shee: 1,001G (8.0%, 120,759G)
BirbBrainsBot: 1,000G (7.9%, 72,796G)
MoonSlayerRS: 739G (5.9%, 739G)
JumbocactuarX27: 324G (2.6%, 324G)
HASTERIOUS: 324G (2.6%, 324G)
SeniorBunk: 272G (2.2%, 272G)
ungabunga_bot: 111G (0.9%, 116,561G)
