Final Bets: green - 19 bets for 11,031G (42.7%, x1.34); yellow - 27 bets for 14,822G (57.3%, x0.74)

green bets:
Goust18: 2,450G (22.2%, 2,450G)
Lodrak: 1,423G (12.9%, 2,846G)
DustBirdEX: 1,366G (12.4%, 1,366G)
Dothan89: 892G (8.1%, 1,750G)
BirbBrainsBot: 826G (7.5%, 131,530G)
bad1dea: 800G (7.3%, 346,052G)
Lanshaft: 695G (6.3%, 1,390G)
Laserman1000: 681G (6.2%, 6,481G)
GingerDynomite: 500G (4.5%, 2,209G)
Rastanar: 252G (2.3%, 252G)
LAGBOT30000: 250G (2.3%, 5,016G)
ZephyrTempest: 223G (2.0%, 17,453G)
The8thZodiac: 156G (1.4%, 156G)
riesenreturn: 116G (1.1%, 116G)
AllInBot: 100G (0.9%, 100G)
yure1x: 100G (0.9%, 104G)
halnco: 100G (0.9%, 928G)
JumbocactuarX27: 100G (0.9%, 2,543G)
daveb_: 1G (0.0%, 1,074G)

yellow bets:
SkylerBunny: 2,279G (15.4%, 2,279G)
fenaen: 1,960G (13.2%, 1,960G)
Zachara: 1,646G (11.1%, 39,646G)
Shalloween: 1,200G (8.1%, 60,491G)
TheOneRanger: 1,000G (6.7%, 13,813G)
ANFz: 813G (5.5%, 1,627G)
old_overholt_: 812G (5.5%, 812G)
NovaKnight21: 527G (3.6%, 1,055G)
ko2q: 525G (3.5%, 525G)
reinoe: 500G (3.4%, 16,589G)
Firesheath: 379G (2.6%, 758G)
Bryon_W: 332G (2.2%, 332G)
Slowbrofist: 328G (2.2%, 328G)
Aeolus_000: 300G (2.0%, 5,894G)
DLJuggernaut: 300G (2.0%, 6,398G)
mpghappiness: 264G (1.8%, 264G)
Pie108: 256G (1.7%, 1,308G)
EnemyController: 248G (1.7%, 248G)
getthemoneyz: 204G (1.4%, 404,384G)
Kosaku_Zephyr: 177G (1.2%, 177G)
pedrossj: 172G (1.2%, 172G)
Nizaha: 100G (0.7%, 13,304G)
maakur_: 100G (0.7%, 5,053G)
BadBlanket: 100G (0.7%, 2,902G)
Tougou: 100G (0.7%, 3,046G)
datadrivenbot: 100G (0.7%, 14,844G)
dreadnxught: 100G (0.7%, 2,732G)
