Final Bets: yellow - 22 bets for 18,383G (47.4%, x1.11); champion - 28 bets for 20,373G (52.6%, x0.90)

yellow bets:
Zachara: 5,902G (32.1%, 45,902G)
technominari: 4,000G (21.8%, 83,999G)
ANFz: 1,518G (8.3%, 3,037G)
DudeMonkey77: 1,000G (5.4%, 26,345G)
Pie108: 893G (4.9%, 893G)
oogthecaveman: 868G (4.7%, 1,737G)
Laserman1000: 600G (3.3%, 5,800G)
JumbocactuarX27: 483G (2.6%, 483G)
mpghappiness: 456G (2.5%, 456G)
EnemyController: 428G (2.3%, 428G)
Bryon_W: 332G (1.8%, 332G)
Aeolus_000: 300G (1.6%, 4,817G)
holyonline: 300G (1.6%, 8,326G)
Firesheath: 262G (1.4%, 524G)
cucas: 250G (1.4%, 899G)
Cataphract116: 200G (1.1%, 2,954G)
Slowbrofist: 186G (1.0%, 186G)
PlatinumPlume: 100G (0.5%, 9,478G)
Jahshine: 100G (0.5%, 100G)
maakur_: 100G (0.5%, 4,900G)
Djorama: 100G (0.5%, 5,758G)
ko2q: 5G (0.0%, 1,675G)

champion bets:
Mtueni: 5,000G (24.5%, 89,637G)
powergems: 1,500G (7.4%, 8,670G)
sinnyil2: 1,500G (7.4%, 59,648G)
DeathTaxesAndAnime: 1,410G (6.9%, 2,765G)
Nizaha: 1,001G (4.9%, 16,783G)
volgrathemoose: 1,001G (4.9%, 15,337G)
kai_shee: 1,000G (4.9%, 30,292G)
ShintaroNayaka: 1,000G (4.9%, 4,832G)
BirbBrainsBot: 1,000G (4.9%, 135,294G)
bad1dea: 1,000G (4.9%, 349,842G)
Lodrak: 748G (3.7%, 748G)
DustBirdEX: 601G (2.9%, 601G)
Lanshaft: 600G (2.9%, 1,036G)
DLJuggernaut: 500G (2.5%, 7,854G)
DrAntiSocial: 400G (2.0%, 477G)
ZephyrTempest: 308G (1.5%, 18,644G)
KasugaiRoastedPeas: 300G (1.5%, 25,574G)
Who_lio42: 250G (1.2%, 387G)
Nova_riety: 240G (1.2%, 240G)
Kellios11: 200G (1.0%, 5,342G)
AllInBot: 173G (0.8%, 173G)
klonoa331: 136G (0.7%, 136G)
yure1x: 104G (0.5%, 104G)
BadBlanket: 100G (0.5%, 2,772G)
halnco: 100G (0.5%, 937G)
datadrivenbot: 100G (0.5%, 14,787G)
KaLam1ty: 100G (0.5%, 4,364G)
daveb_: 1G (0.0%, 1,073G)
