Final Bets: yellow - 26 bets for 25,516G (69.4%, x0.44); purple - 17 bets for 11,240G (30.6%, x2.27)

yellow bets:
TheKoiBoy: 6,163G (24.2%, 6,163G)
Lydian_C: 4,200G (16.5%, 142,110G)
HaplessOne: 2,500G (9.8%, 103,149G)
HASTERIOUS: 2,145G (8.4%, 21,451G)
reinoe: 2,000G (7.8%, 17,184G)
AllInBot: 1,304G (5.1%, 1,304G)
Lordminsc: 1,205G (4.7%, 43,884G)
TheMM42: 1,000G (3.9%, 25,266G)
Laserman1000: 700G (2.7%, 31,600G)
victoriolue: 580G (2.3%, 580G)
cougboi: 500G (2.0%, 16,615G)
luminarii: 492G (1.9%, 22,438G)
EnemyController: 406G (1.6%, 66,406G)
ungabunga_bot: 362G (1.4%, 176,489G)
MirtaiAtana: 276G (1.1%, 276G)
NoNotBees: 264G (1.0%, 264G)
Faplo: 252G (1.0%, 252G)
ericzubat: 216G (0.8%, 216G)
mastershango: 200G (0.8%, 1,454G)
carsenhk: 150G (0.6%, 5,228G)
ZephyrTempest: 101G (0.4%, 164,299G)
ANFz: 100G (0.4%, 10,159G)
ApplesauceBoss: 100G (0.4%, 7,950G)
FrozenFelid: 100G (0.4%, 7,834G)
gorgewall: 100G (0.4%, 1,811G)
DeathTaxesAndAnime: 100G (0.4%, 12,909G)

purple bets:
Fenrislfr: 2,179G (19.4%, 21,798G)
sinnyil2: 1,350G (12.0%, 76,128G)
exaltedhamster: 1,000G (8.9%, 24,599G)
BirbBrainsBot: 1,000G (8.9%, 26,363G)
DustBirdEX: 1,000G (8.9%, 13,000G)
pandasforsale: 999G (8.9%, 999G)
animefan112233: 500G (4.4%, 8,509G)
Anox_Skell: 500G (4.4%, 3,505G)
flowinprose: 500G (4.4%, 79,055G)
roofiepops: 444G (4.0%, 444G)
GingerDynomite: 420G (3.7%, 2,204G)
electric_glass: 333G (3.0%, 2,803G)
kaidykat: 300G (2.7%, 1,182G)
waterwatereverywhere: 300G (2.7%, 2,031G)
getthemoneyz: 196G (1.7%, 520,937G)
byrdturbo: 169G (1.5%, 5,069G)
OperatorTheory: 50G (0.4%, 420G)
