Final Bets: green - 20 bets for 25,231G (68.6%, x0.46); yellow - 20 bets for 11,571G (31.4%, x2.18)

green bets:
kaelsun: 11,495G (45.6%, 11,495G)
reinoe: 3,000G (11.9%, 32,964G)
Mokura3rd: 2,608G (10.3%, 2,608G)
volgrathemoose: 1,160G (4.6%, 1,160G)
Aldrammech: 1,000G (4.0%, 41,886G)
Mesmaster: 1,000G (4.0%, 102,952G)
KyleWonToLiveForever: 1,000G (4.0%, 2,999G)
richardserious: 863G (3.4%, 863G)
HungryHungryHippoman: 606G (2.4%, 606G)
Rislyeu: 500G (2.0%, 1,294G)
bruubarg: 348G (1.4%, 2,348G)
gorgewall: 301G (1.2%, 20,655G)
Grandlanzer: 300G (1.2%, 8,797G)
daveb_: 300G (1.2%, 3,627G)
nifboy: 250G (1.0%, 14,597G)
KasugaiRoastedPeas: 200G (0.8%, 1,047G)
datadrivenbot: 100G (0.4%, 26,679G)
DAC169: 100G (0.4%, 1,426G)
b0shii: 50G (0.2%, 9,027G)
DrAntiSocial: 50G (0.2%, 300G)

yellow bets:
roofiepops: 1,400G (12.1%, 14,477G)
E_Ballard: 1,344G (11.6%, 1,344G)
lowlf: 1,201G (10.4%, 7,292G)
OmnibotGamma: 1,000G (8.6%, 6,604G)
cloud92684: 1,000G (8.6%, 14,080G)
Vex_Novisk: 1,000G (8.6%, 19,349G)
BirbBrainsBot: 1,000G (8.6%, 23,251G)
HASTERIOUS: 529G (4.6%, 10,599G)
poulol: 500G (4.3%, 6,996G)
Baron_von_Scrub: 474G (4.1%, 12,346G)
StealthModeLocke: 439G (3.8%, 439G)
getthemoneyz: 330G (2.9%, 746,765G)
Meta_Five: 300G (2.6%, 21,440G)
GeeGXP: 272G (2.4%, 272G)
Oobs56: 250G (2.2%, 6,550G)
TinchoT: 132G (1.1%, 132G)
AllInBot: 100G (0.9%, 100G)
lastly: 100G (0.9%, 13,690G)
Kyune: 100G (0.9%, 30,779G)
bokurakira: 100G (0.9%, 244G)
