Final Bets: purple - 14 bets for 11,105G (53.9%, x0.86); brown - 13 bets for 9,516G (46.1%, x1.17)

purple bets:
E_Ballard: 1,934G (17.4%, 1,934G)
BirbBrainsBot: 1,000G (9.0%, 165,384G)
ExplanationMarkWow: 1,000G (9.0%, 35,576G)
JumbocactuarX27: 1,000G (9.0%, 3,583G)
Tithonus: 986G (8.9%, 986G)
Laserman1000: 800G (7.2%, 8,800G)
resjudicata3: 691G (6.2%, 691G)
lowlf: 676G (6.1%, 2,776G)
AllInBot: 658G (5.9%, 658G)
SephDarkheart: 584G (5.3%, 21,532G)
2b_yorha_b: 500G (4.5%, 40,178G)
technominari: 500G (4.5%, 84,944G)
FriendSquirrel: 412G (3.7%, 412G)
DrAntiSocial: 364G (3.3%, 364G)

brown bets:
HorusTaurus: 2,000G (21.0%, 15,615G)
CorpusCav: 1,500G (15.8%, 42,495G)
dogsandcatsand: 1,288G (13.5%, 1,288G)
Mushufasa_: 1,234G (13.0%, 19,684G)
Thyrandaal: 922G (9.7%, 922G)
randgridr: 660G (6.9%, 660G)
demidusk: 500G (5.3%, 1,497G)
JonnyCue: 480G (5.0%, 10,462G)
KGenjy: 350G (3.7%, 6,643G)
datadrivenbot: 200G (2.1%, 80,725G)
getthemoneyz: 182G (1.9%, 2,203,113G)
Sharosa: 100G (1.1%, 1,066G)
heropong: 100G (1.1%, 2,111G)
