Final Bets: green - 26 bets for 13,377G (52.5%, x0.90); yellow - 14 bets for 12,087G (47.5%, x1.11)

green bets:
arch8000: 2,204G (16.5%, 2,204G)
LDSkinny: 1,000G (7.5%, 23,436G)
BirbBrainsBot: 1,000G (7.5%, 86,077G)
mpghappiness: 1,000G (7.5%, 15,868G)
Mesmaster: 1,000G (7.5%, 13,774G)
Laserman1000: 934G (7.0%, 1,869G)
DustBirdEX: 756G (5.7%, 11,915G)
TheChainNerd: 576G (4.3%, 576G)
EnemyController: 500G (3.7%, 193,476G)
GnielKnows: 500G (3.7%, 14,518G)
metagameface: 500G (3.7%, 1,474G)
proper__noun__: 400G (3.0%, 13,569G)
Grimmace45: 344G (2.6%, 3,446G)
benticore: 300G (2.2%, 375G)
bahamutlagooon: 300G (2.2%, 5,260G)
beowulfrulez: 264G (2.0%, 264G)
Eyepoor_: 250G (1.9%, 2,824G)
astrozin11: 211G (1.6%, 2,811G)
turquoise_mage: 204G (1.5%, 204G)
jwchapm: 200G (1.5%, 1,058G)
mannequ1n: 200G (1.5%, 1,787G)
Practice_Pad: 200G (1.5%, 896G)
Kyune: 200G (1.5%, 1,943G)
imafella: 168G (1.3%, 168G)
datadrivenbot: 100G (0.7%, 12,544G)
getthemoneyz: 66G (0.5%, 640,918G)

yellow bets:
Shalloween: 2,650G (21.9%, 5,197G)
FNCardascia_: 2,236G (18.5%, 2,236G)
killth3kid: 2,000G (16.5%, 60,475G)
Mtueni: 1,000G (8.3%, 243,592G)
Lionhermit: 1,000G (8.3%, 31,856G)
Rytor: 736G (6.1%, 736G)
nifboy: 520G (4.3%, 520G)
joewcarson: 500G (4.1%, 5,271G)
CorpusCav: 500G (4.1%, 41,367G)
FoeSquirrel: 356G (2.9%, 356G)
superdevon1: 334G (2.8%, 3,345G)
ungabunga_bot: 121G (1.0%, 407,975G)
maakur_: 100G (0.8%, 119,976G)
ZephyrTempest: 34G (0.3%, 698G)
