Final Bets: red - 11 bets for 15,915G (57.9%, x0.73); blue - 14 bets for 11,568G (42.1%, x1.38)

red bets:
CapitalistPigSA: 11,407G (71.7%, 11,407G)
Blastinus: 1,645G (10.3%, 1,645G)
douchetron: 1,066G (6.7%, 1,066G)
roofiepops: 445G (2.8%, 5,857G)
JonnyCue: 280G (1.8%, 280G)
Gunz232323: 252G (1.6%, 252G)
holandrix: 212G (1.3%, 212G)
roqqqpsi: 207G (1.3%, 10,371G)
datadrivenbot: 200G (1.3%, 68,379G)
gorgewall: 101G (0.6%, 6,024G)
MinBetBot: 100G (0.6%, 7,897G)

blue bets:
nhammen: 3,000G (25.9%, 54,449G)
Zeroroute: 1,555G (13.4%, 1,555G)
helpimabug: 1,040G (9.0%, 1,040G)
BirbBrainsBot: 1,000G (8.6%, 41,246G)
Drusiform: 1,000G (8.6%, 10,232G)
DeathTaxesAndAnime: 912G (7.9%, 912G)
dogsandcatsand: 740G (6.4%, 740G)
KasugaiRoastedPeas: 684G (5.9%, 684G)
getthemoneyz: 492G (4.3%, 1,661,609G)
Laserman1000: 411G (3.6%, 2,111G)
CapnChaos12: 300G (2.6%, 13,460G)
xBizzy: 256G (2.2%, 5,058G)
AllInBot: 177G (1.5%, 177G)
SephDarkheart: 1G (0.0%, 112,719G)
