Final Bets: black - 8 bets for 8,594G (39.8%, x1.51); champion - 20 bets for 13,000G (60.2%, x0.66)

black bets:
Zeroroute: 2,392G (27.8%, 6,465G)
douchetron: 1,403G (16.3%, 1,403G)
AllInBot: 1,335G (15.5%, 1,335G)
KasugaiRoastedPeas: 1,111G (12.9%, 3,315G)
ColetteMSLP: 1,000G (11.6%, 24,017G)
killth3kid: 752G (8.8%, 22,356G)
VolgraTheMoose: 501G (5.8%, 4,672G)
MinBetBot: 100G (1.2%, 7,799G)

champion bets:
LanseDM: 3,500G (26.9%, 14,783G)
Mesmaster: 2,000G (15.4%, 19,703G)
Panushenko: 1,342G (10.3%, 1,342G)
BirbBrainsBot: 1,000G (7.7%, 41,752G)
SkylerBunny: 764G (5.9%, 764G)
MagicBottle: 596G (4.6%, 596G)
Amorial: 561G (4.3%, 561G)
Laserman1000: 500G (3.8%, 5,000G)
butterbelljedi: 500G (3.8%, 4,983G)
holandrix: 496G (3.8%, 496G)
CapnChaos12: 300G (2.3%, 14,073G)
JonnyCue: 280G (2.2%, 280G)
getthemoneyz: 232G (1.8%, 1,662,600G)
dark_god_Uthuru: 200G (1.5%, 200G)
datadrivenbot: 200G (1.5%, 67,245G)
Skjodo: 128G (1.0%, 128G)
gorgewall: 101G (0.8%, 5,429G)
mirapoix: 100G (0.8%, 2,655G)
FFMaster: 100G (0.8%, 100G)
Thyrandaal: 100G (0.8%, 360,057G)
