Final Bets: blue - 25 bets for 23,339G (74.0%, x0.35); yellow - 20 bets for 8,213G (26.0%, x2.84)

blue bets:
HASTERIOUS: 4,949G (21.2%, 152,541G)
omegasuspekt: 4,886G (20.9%, 9,773G)
BenYuPoker: 2,947G (12.6%, 5,894G)
SkylerBunny: 2,021G (8.7%, 2,021G)
sinnyil2: 1,200G (5.1%, 46,252G)
BirbBrainsBot: 1,000G (4.3%, 246,150G)
bad1dea: 1,000G (4.3%, 59,412G)
OneHundredFists: 854G (3.7%, 854G)
Laserman1000: 586G (2.5%, 586G)
roofiepops: 550G (2.4%, 5,639G)
RunicMagus: 450G (1.9%, 39,501G)
getthemoneyz: 440G (1.9%, 439,254G)
NovaKnight21: 400G (1.7%, 4,293G)
ko2q: 356G (1.5%, 356G)
SerumD: 350G (1.5%, 9,669G)
ZephyrTempest: 343G (1.5%, 23,734G)
DudeMonkey77: 304G (1.3%, 304G)
maakur_: 200G (0.9%, 2,903G)
Tithonus: 100G (0.4%, 6,366G)
ApplesauceBoss: 100G (0.4%, 3,473G)
zepi_zza: 100G (0.4%, 2,755G)
datadrivenbot: 100G (0.4%, 20,408G)
ungabunga_bot: 52G (0.2%, 48,051G)
bigbaddru: 50G (0.2%, 100G)
maichenambrai: 1G (0.0%, 3,319G)

yellow bets:
reinoe: 1,033G (12.6%, 1,033G)
TheChainNerd: 1,000G (12.2%, 4,467G)
Shalloween: 1,000G (12.2%, 3,617G)
Conome: 1,000G (12.2%, 1,000G)
Lanshaft: 600G (7.3%, 4,717G)
JIDkomu: 550G (6.7%, 550G)
EnemyController: 500G (6.1%, 17,635G)
b0shii: 400G (4.9%, 933G)
ShintaroNayaka: 300G (3.7%, 3,284G)
LordSDB: 300G (3.7%, 2,516G)
galkife: 250G (3.0%, 78,168G)
Slowbrofist: 240G (2.9%, 240G)
ugoplatamia: 200G (2.4%, 3,035G)
ThePineappleSalesman: 200G (2.4%, 2,756G)
FoxtrotNovemberCharlie: 140G (1.7%, 140G)
AllInBot: 100G (1.2%, 100G)
Bahamut64: 100G (1.2%, 6,767G)
carchan131: 100G (1.2%, 5,046G)
urieltheflameofgod: 100G (1.2%, 875G)
ANFz: 100G (1.2%, 1,836G)
