Final Bets: green - 10 bets for 3,503G (31.5%, x2.18); yellow - 10 bets for 7,625G (68.5%, x0.46)

green bets:
helpimabug: 1,001G (28.6%, 3,990G)
E_Ballard: 527G (15.0%, 527G)
BlackFireUK: 500G (14.3%, 7,787G)
loveyouallfriends: 373G (10.6%, 373G)
Ross_from_Cali: 362G (10.3%, 362G)
Belkra: 244G (7.0%, 244G)
thaetreis: 196G (5.6%, 196G)
Celdia: 100G (2.9%, 2,814G)
datadrivenbot: 100G (2.9%, 35,205G)
HV5H: 100G (2.9%, 1,204G)

yellow bets:
Mesmaster: 2,000G (26.2%, 6,829G)
VolgraTheMoose: 1,001G (13.1%, 12,827G)
getthemoneyz: 1,000G (13.1%, 856,905G)
BirbBrainsBot: 1,000G (13.1%, 194,582G)
Rislyeu: 982G (12.9%, 982G)
HaychDub: 750G (9.8%, 7,669G)
cam_ATS: 500G (6.6%, 3,467G)
rednecknazgul: 192G (2.5%, 192G)
lastly: 100G (1.3%, 12,514G)
Quadh0nk: 100G (1.3%, 271G)
