Final Bets: green - 18 bets for 96,428G (92.1%, x0.09); yellow - 20 bets for 8,301G (7.9%, x11.62)

green bets:
Mesmaster: 63,539G (65.9%, 63,539G)
douchetron: 16,078G (16.7%, 31,526G)
killth3kid: 3,300G (3.4%, 3,300G)
NicoSavoy: 2,599G (2.7%, 129,998G)
dogsandcatsand: 2,000G (2.1%, 96,152G)
Rislyeu: 1,500G (1.6%, 5,060G)
HaateXIII: 1,404G (1.5%, 1,404G)
Lydian_C: 1,200G (1.2%, 9,027G)
amiture: 1,000G (1.0%, 53,089G)
DeathTaxesAndAnime: 868G (0.9%, 868G)
NIghtdew14: 600G (0.6%, 600G)
helpimabug: 588G (0.6%, 588G)
ko2q: 546G (0.6%, 1,092G)
Zagorsek: 544G (0.6%, 544G)
braveboyblue: 212G (0.2%, 1,045G)
AllInBot: 200G (0.2%, 200G)
ArlanKels: 150G (0.2%, 2,505G)
DHaveWord: 100G (0.1%, 2,108G)

yellow bets:
superdevon1: 1,480G (17.8%, 37,008G)
VolgraTheMoose: 687G (8.3%, 687G)
Xoomwaffle: 629G (7.6%, 629G)
randgridr: 600G (7.2%, 600G)
Lanshaft: 552G (6.6%, 16,381G)
reinoe: 500G (6.0%, 79,585G)
Seaweed_B: 500G (6.0%, 30,992G)
Zbgs: 476G (5.7%, 476G)
pandasforsale: 444G (5.3%, 444G)
getthemoneyz: 442G (5.3%, 1,504,103G)
RiffRoff: 300G (3.6%, 5,978G)
LDHaten: 272G (3.3%, 272G)
Calajo: 260G (3.1%, 1,600G)
Salvasti: 244G (2.9%, 244G)
gorgewall: 201G (2.4%, 5,452G)
datadrivenbot: 200G (2.4%, 46,684G)
prince_rogers_nelson_: 199G (2.4%, 7,935G)
BirbBrainsBot: 115G (1.4%, 185,442G)
terminusterminal: 100G (1.2%, 11,941G)
Wooplestein: 100G (1.2%, 1,053G)
