Final Bets: white - 16 bets for 10,249G (41.8%, x1.39); black - 20 bets for 14,252G (58.2%, x0.72)

white bets:
killth3kid: 2,000G (19.5%, 20,770G)
Lord_Burrah: 1,361G (13.3%, 101,361G)
volgrathemoose: 1,001G (9.8%, 9,652G)
BirbBrainsBot: 1,000G (9.8%, 12,332G)
NicoSavoy: 1,000G (9.8%, 11,206G)
Lionhermit: 1,000G (9.8%, 46,362G)
twelfthrootoftwo: 800G (7.8%, 6,271G)
gorgewall: 301G (2.9%, 8,197G)
CapnChaos12: 300G (2.9%, 7,845G)
CorpusCav: 300G (2.9%, 14,998G)
nifboy: 250G (2.4%, 3,557G)
getthemoneyz: 236G (2.3%, 673,059G)
TheJonTerp: 200G (2.0%, 3,727G)
otakutaylor: 200G (2.0%, 3,637G)
KonzeraLive: 200G (2.0%, 13,673G)
CosmicTactician: 100G (1.0%, 11,556G)

black bets:
HaateXIII: 2,308G (16.2%, 4,526G)
ACSpree: 2,141G (15.0%, 4,282G)
Digitalsocrates: 1,581G (11.1%, 3,163G)
Lordminsc: 1,500G (10.5%, 39,160G)
Evewho: 1,096G (7.7%, 1,096G)
sinnyil2: 699G (4.9%, 58,798G)
HaplessOne: 666G (4.7%, 24,230G)
Vilarus: 653G (4.6%, 653G)
ungabunga_bot: 570G (4.0%, 472,495G)
DustBirdEX: 543G (3.8%, 14,528G)
Laserman1000: 500G (3.5%, 21,800G)
luminarii: 500G (3.5%, 12,511G)
DaveStrider55: 500G (3.5%, 2,536G)
turquoise_mage: 300G (2.1%, 2,021G)
CustomGameMaster: 150G (1.1%, 3,567G)
daveb_: 145G (1.0%, 3,594G)
mannequ1n: 100G (0.7%, 8,544G)
Jampck: 100G (0.7%, 612G)
E_Ballard: 100G (0.7%, 2,070G)
pstud: 100G (0.7%, 5,336G)
