Final Bets: red - 14 bets for 34,088G (62.4%, x0.60); yellow - 24 bets for 20,569G (37.6%, x1.66)

red bets:
Lordminsc: 23,114G (67.8%, 46,229G)
HaateXIII: 3,633G (10.7%, 7,125G)
sinnyil2: 2,500G (7.3%, 59,301G)
Draconis345: 1,000G (2.9%, 76,233G)
Estan_AD: 972G (2.9%, 972G)
Evewho: 924G (2.7%, 924G)
YaBoy125: 912G (2.7%, 912G)
potgodtopdog: 333G (1.0%, 31,542G)
daveb_: 200G (0.6%, 3,758G)
pstud: 100G (0.3%, 5,438G)
theNGUYENNER: 100G (0.3%, 13,823G)
Kyune: 100G (0.3%, 3,456G)
ungabunga_bot: 100G (0.3%, 473,203G)
CorpusCav: 100G (0.3%, 14,698G)

yellow bets:
NicoSavoy: 5,549G (27.0%, 11,099G)
HaplessOne: 2,222G (10.8%, 24,154G)
Baron_von_Scrub: 1,111G (5.4%, 32,317G)
E_Ballard: 1,086G (5.3%, 2,172G)
volgrathemoose: 1,001G (4.9%, 6,650G)
EnemyController: 1,000G (4.9%, 232,460G)
BirbBrainsBot: 1,000G (4.9%, 11,630G)
ACSpree: 1,000G (4.9%, 7,555G)
twelfthrootoftwo: 1,000G (4.9%, 4,471G)
Lionhermit: 1,000G (4.9%, 45,362G)
DustBirdEX: 765G (3.7%, 15,140G)
ShintaroNayaka: 639G (3.1%, 639G)
getthemoneyz: 594G (2.9%, 672,886G)
CapnChaos12: 500G (2.4%, 7,245G)
CustomGameMaster: 500G (2.4%, 3,375G)
gorgewall: 301G (1.5%, 9,194G)
Vilarus: 300G (1.5%, 1,023G)
TheJonTerp: 200G (1.0%, 3,327G)
otakutaylor: 200G (1.0%, 3,037G)
mikesk1: 200G (1.0%, 4,556G)
mannequ1n: 200G (1.0%, 8,116G)
Jampck: 100G (0.5%, 634G)
sSwing: 100G (0.5%, 4,000G)
FaytKion: 1G (0.0%, 688G)
