Final Bets: black - 14 bets for 7,709G (59.3%, x0.69); purple - 8 bets for 5,292G (40.7%, x1.46)

black bets:
SkylerBunny: 1,400G (18.2%, 40,041G)
getthemoneyz: 1,000G (13.0%, 1,302,419G)
BirbBrainsBot: 1,000G (13.0%, 25,126G)
dantayystv: 1,000G (13.0%, 21,462G)
bahamutlagooon: 739G (9.6%, 14,790G)
superdevon1: 519G (6.7%, 12,978G)
Treafa: 500G (6.5%, 1,385G)
UnderOneLight: 300G (3.9%, 1,217G)
benticore: 250G (3.2%, 19,552G)
gorgewall: 201G (2.6%, 9,831G)
AllInBot: 200G (2.6%, 200G)
ivellioz: 200G (2.6%, 7,640G)
Evewho: 200G (2.6%, 5,332G)
datadrivenbot: 200G (2.6%, 29,838G)

purple bets:
Lydian_C: 2,400G (45.4%, 75,292G)
twelfthrootoftwo: 1,253G (23.7%, 2,457G)
auntievaxxer: 952G (18.0%, 952G)
zah69: 287G (5.4%, 287G)
CT_5_Holy: 100G (1.9%, 7,552G)
Heroebal: 100G (1.9%, 4,522G)
TasisSai: 100G (1.9%, 10,043G)
Firesheath: 100G (1.9%, 12,258G)
