Final Bets: white - 14 bets for 9,274G (39.1%, x1.56); brown - 14 bets for 14,446G (60.9%, x0.64)

white bets:
awokenshard: 2,500G (27.0%, 15,662G)
maicovisky: 2,000G (21.6%, 49,502G)
ninjapenguim: 1,000G (10.8%, 2,305G)
ccordc: 794G (8.6%, 794G)
clesseses: 700G (7.5%, 2,432G)
Lydian_C: 600G (6.5%, 600G)
crimson_hellkite: 500G (5.4%, 14,606G)
twelfthrootoftwo: 452G (4.9%, 452G)
Odin007_88: 232G (2.5%, 232G)
RestIessNight: 112G (1.2%, 112G)
byrdturbo: 111G (1.2%, 9,355G)
volgrathemoose: 101G (1.1%, 7,893G)
datadrivenbot: 100G (1.1%, 10,417G)
getthemoneyz: 72G (0.8%, 612,600G)

brown bets:
R_Raynos: 6,602G (45.7%, 12,947G)
Mesmaster: 3,000G (20.8%, 51,862G)
ewan_e: 1,000G (6.9%, 11,946G)
BirbBrainsBot: 1,000G (6.9%, 168,468G)
superdevon1: 600G (4.2%, 600G)
UmbraKnights: 500G (3.5%, 6,975G)
datkins728: 441G (3.1%, 441G)
ungabunga_bot: 295G (2.0%, 292,108G)
FoxtrotNovemberCharlie: 288G (2.0%, 288G)
RubenFlonne: 200G (1.4%, 11,735G)
80S1X: 200G (1.4%, 1,545G)
Chompie: 120G (0.8%, 7,109G)
Arkreaver: 100G (0.7%, 10,910G)
pLifer: 100G (0.7%, 206G)
