Final Bets: blue - 14 bets for 24,434G (68.3%, x0.46); champion - 16 bets for 11,321G (31.7%, x2.16)

blue bets:
R_Raynos: 17,185G (70.3%, 17,185G)
awokenshard: 1,300G (5.3%, 13,162G)
maicovisky: 1,000G (4.1%, 48,966G)
ColetteMSLP: 1,000G (4.1%, 36,158G)
Jaritras: 903G (3.7%, 1,807G)
ccordc: 801G (3.3%, 801G)
superdevon1: 600G (2.5%, 600G)
Lydian_C: 600G (2.5%, 600G)
byrdturbo: 333G (1.4%, 10,219G)
santoramon: 200G (0.8%, 874G)
ar_tactic: 200G (0.8%, 31,931G)
datkins728: 112G (0.5%, 112G)
datadrivenbot: 100G (0.4%, 10,610G)
ungabunga_bot: 100G (0.4%, 294,760G)

champion bets:
crimson_hellkite: 2,000G (17.7%, 15,570G)
Mtueni: 2,000G (17.7%, 245,120G)
HaplessOne: 1,111G (9.8%, 22,979G)
BirbBrainsBot: 1,000G (8.8%, 168,110G)
ewan_e: 1,000G (8.8%, 11,588G)
Mesmaster: 1,000G (8.8%, 51,788G)
getthemoneyz: 814G (7.2%, 612,340G)
twelfthrootoftwo: 775G (6.8%, 775G)
ninjapenguim: 500G (4.4%, 1,055G)
FoxtrotNovemberCharlie: 288G (2.5%, 288G)
midori_ribbon: 252G (2.2%, 252G)
80S1X: 173G (1.5%, 173G)
alberto08bernard: 108G (1.0%, 108G)
Evewho: 100G (0.9%, 18,853G)
pLifer: 100G (0.9%, 563G)
Chompie: 100G (0.9%, 6,886G)
