Final Bets: red - 9 bets for 6,461G (33.0%, x2.03); yellow - 17 bets for 13,111G (67.0%, x0.49)

red bets:
Narcius: 3,400G (52.6%, 334,678G)
Aldrammech: 1,000G (15.5%, 10,454G)
JonnyCue: 690G (10.7%, 690G)
Absalom_20: 400G (6.2%, 6,736G)
foxfaeez: 321G (5.0%, 321G)
Raixelol: 250G (3.9%, 13,351G)
datadrivenbot: 200G (3.1%, 62,699G)
ravingsockmonkey: 100G (1.5%, 4,780G)
iieunueii: 100G (1.5%, 535G)

yellow bets:
DavenIII: 2,500G (19.1%, 64,788G)
TasisSai: 1,474G (11.2%, 2,891G)
thunderducker: 1,384G (10.6%, 1,384G)
EnemyController: 1,234G (9.4%, 1,584,632G)
Lord_Gwarth: 1,191G (9.1%, 1,191G)
BirbBrainsBot: 1,000G (7.6%, 32,870G)
Theseawolf1: 1,000G (7.6%, 7,368G)
E_Ballard: 752G (5.7%, 57,776G)
Laserman1000: 602G (4.6%, 24,502G)
getthemoneyz: 476G (3.6%, 1,736,281G)
bruubarg: 452G (3.4%, 452G)
acid_flashback: 299G (2.3%, 299G)
douchetron: 224G (1.7%, 224G)
itsonlyspencer: 200G (1.5%, 4,838G)
Lydian_C: 123G (0.9%, 12,129G)
AllInBot: 100G (0.8%, 100G)
captainmilestw: 100G (0.8%, 890G)
