Final Bets: green - 18 bets for 7,565G (46.7%, x1.14); yellow - 15 bets for 8,634G (53.3%, x0.88)

green bets:
sinnyil2: 1,225G (16.2%, 1,225G)
Lydian_C: 1,200G (15.9%, 23,690G)
BirbBrainsBot: 1,000G (13.2%, 86,054G)
Cyril_Jay: 921G (12.2%, 921G)
DeathTaxesAndAnime: 784G (10.4%, 784G)
killth3kid: 512G (6.8%, 512G)
Xoomwaffle: 328G (4.3%, 2,627G)
getthemoneyz: 268G (3.5%, 1,389,306G)
Hirameki85: 228G (3.0%, 228G)
TasisSai: 200G (2.6%, 2,177G)
datadrivenbot: 200G (2.6%, 40,750G)
Chaerie: 200G (2.6%, 700G)
Zakanakai: 104G (1.4%, 104G)
douchetron: 101G (1.3%, 1,951G)
ANFz: 100G (1.3%, 57,864G)
Gawyel95: 100G (1.3%, 300G)
triniculo: 69G (0.9%, 1,354G)
nhammen: 25G (0.3%, 16,801G)

yellow bets:
coralreeferz: 2,500G (29.0%, 42,861G)
ColetteMSLP: 1,000G (11.6%, 32,851G)
nifboy: 1,000G (11.6%, 25,158G)
dogsandcatsand: 1,000G (11.6%, 10,121G)
ShintaroNayaka: 600G (6.9%, 600G)
benticore: 500G (5.8%, 44,886G)
resjudicata3: 400G (4.6%, 1,228G)
SephDarkheart: 380G (4.4%, 380G)
flacococo: 284G (3.3%, 284G)
gorgewall: 201G (2.3%, 9,586G)
AllInBot: 200G (2.3%, 200G)
chapchansan: 200G (2.3%, 1,706G)
ArlanKels: 159G (1.8%, 5,326G)
neocarbuncle: 110G (1.3%, 962G)
Miku_Shikhu: 100G (1.2%, 951G)
