Final Bets: red - 22 bets for 13,965G (68.8%, x0.45); green - 15 bets for 6,341G (31.2%, x2.20)

red bets:
NicoSavoy: 2,000G (14.3%, 325,980G)
Scurg: 2,000G (14.3%, 9,437G)
resjudicata3: 1,248G (8.9%, 1,248G)
BirbBrainsBot: 1,000G (7.2%, 86,492G)
reinoe: 1,000G (7.2%, 145,095G)
KyleWonToLiveForever: 1,000G (7.2%, 2,285G)
coralreeferz: 850G (6.1%, 39,786G)
Laserman1000: 678G (4.9%, 3,778G)
Xoomwaffle: 657G (4.7%, 2,673G)
twelfthrootoftwo: 656G (4.7%, 656G)
maakur_: 592G (4.2%, 592G)
Zakanakai: 390G (2.8%, 390G)
nekojin: 372G (2.7%, 10,135G)
Gawyel95: 266G (1.9%, 526G)
rabbitlogik: 244G (1.7%, 244G)
Cyril_Jay: 200G (1.4%, 2,508G)
datadrivenbot: 200G (1.4%, 40,928G)
chapchansan: 200G (1.4%, 1,761G)
neocarbuncle: 110G (0.8%, 914G)
getthemoneyz: 102G (0.7%, 1,389,444G)
ANFz: 100G (0.7%, 57,953G)
Thyrandaal: 100G (0.7%, 167,102G)

green bets:
Lydian_C: 1,200G (18.9%, 25,296G)
ColetteMSLP: 1,000G (15.8%, 31,851G)
DeathTaxesAndAnime: 784G (12.4%, 784G)
victoriolue: 600G (9.5%, 600G)
Lanshaft: 512G (8.1%, 21,043G)
SephDarkheart: 380G (6.0%, 380G)
DamnThatShark: 348G (5.5%, 348G)
Seaweed_B: 337G (5.3%, 337G)
ruleof5: 300G (4.7%, 15,233G)
Hirameki85: 228G (3.6%, 228G)
gorgewall: 201G (3.2%, 9,083G)
AllInBot: 200G (3.2%, 200G)
douchetron: 101G (1.6%, 1,864G)
Chaerie: 100G (1.6%, 100G)
triniculo: 50G (0.8%, 1,385G)
