Final Bets: green - 18 bets for 9,665G (64.9%, x0.54); yellow - 16 bets for 5,235G (35.1%, x1.85)

green bets:
Sairentozon7: 1,623G (16.8%, 1,623G)
EnemyController: 1,500G (15.5%, 554,646G)
reinoe: 1,500G (15.5%, 1,500G)
Rislyeu: 1,000G (10.3%, 8,808G)
kaelsun: 805G (8.3%, 805G)
NovaKnight21: 676G (7.0%, 676G)
turbn: 500G (5.2%, 11,991G)
NeoKevlar: 400G (4.1%, 2,067G)
metagameface: 340G (3.5%, 340G)
maleblackfiora: 300G (3.1%, 1,606G)
GladiatorLupe: 200G (2.1%, 2,989G)
DAC169: 160G (1.7%, 160G)
TinchoT: 160G (1.7%, 160G)
gorgewall: 101G (1.0%, 1,799G)
Angelomortis: 100G (1.0%, 830G)
datadrivenbot: 100G (1.0%, 33,154G)
Grandlanzer: 100G (1.0%, 2,783G)
outer_monologue: 100G (1.0%, 736G)

yellow bets:
Thyrandaal: 1,000G (19.1%, 21,514G)
Einhanderz: 650G (12.4%, 650G)
HaateXIII: 632G (12.1%, 632G)
BirbBrainsBot: 576G (11.0%, 69,162G)
Digitalsocrates: 384G (7.3%, 384G)
Kalabain: 325G (6.2%, 325G)
InkyLink: 300G (5.7%, 12,746G)
getthemoneyz: 294G (5.6%, 820,823G)
L2_Sentinel: 200G (3.8%, 32,710G)
kaidykat: 200G (3.8%, 1,976G)
DeathTaxesAndAnime: 200G (3.8%, 29,118G)
ChronoG: 120G (2.3%, 120G)
Spuzzmocker: 104G (2.0%, 104G)
ArchaicHerald: 100G (1.9%, 397G)
Evewho: 100G (1.9%, 4,002G)
cougboi: 50G (1.0%, 11,661G)
