Final Bets: green - 10 bets for 5,358G (37.5%, x1.66); yellow - 11 bets for 8,918G (62.5%, x0.60)

green bets:
Reamplify: 1,573G (29.4%, 1,573G)
Wooplestein: 1,043G (19.5%, 1,043G)
superdevon1: 798G (14.9%, 39,903G)
NovaKnight21: 508G (9.5%, 508G)
EmmaEnema: 500G (9.3%, 2,158G)
getthemoneyz: 376G (7.0%, 1,449,985G)
datadrivenbot: 200G (3.7%, 45,762G)
porkchop5158: 160G (3.0%, 160G)
Chompie: 100G (1.9%, 9,503G)
CT_5_Holy: 100G (1.9%, 4,000G)

yellow bets:
Mesmaster: 2,000G (22.4%, 54,182G)
HaateXIII: 1,624G (18.2%, 1,624G)
ColetteMSLP: 1,000G (11.2%, 24,826G)
BirbBrainsBot: 1,000G (11.2%, 62,502G)
josephiroth_143: 1,000G (11.2%, 6,805G)
prince_rogers_nelson_: 696G (7.8%, 696G)
randgridr: 564G (6.3%, 564G)
gorgewall: 512G (5.7%, 512G)
douchetron: 222G (2.5%, 436G)
AllInBot: 200G (2.2%, 200G)
Arkreaver: 100G (1.1%, 18,926G)
