Final Bets: white - 16 bets for 13,677G (73.9%, x0.35); black - 7 bets for 4,824G (26.1%, x2.84)

white bets:
poGpopE: 5,000G (36.6%, 60,113G)
Mesmaster: 2,000G (14.6%, 55,384G)
CassiePhoenix: 1,089G (8.0%, 1,089G)
ColetteMSLP: 1,000G (7.3%, 25,427G)
BirbBrainsBot: 1,000G (7.3%, 63,103G)
randgridr: 903G (6.6%, 903G)
gorgewall: 820G (6.0%, 820G)
NovaKnight21: 508G (3.7%, 508G)
WitchHunterIX: 360G (2.6%, 360G)
readdesert: 249G (1.8%, 498G)
Wooplestein: 220G (1.6%, 220G)
datadrivenbot: 200G (1.5%, 45,562G)
Chompie: 100G (0.7%, 9,403G)
Arkreaver: 100G (0.7%, 18,986G)
getthemoneyz: 84G (0.6%, 1,449,609G)
dtrain332: 44G (0.3%, 4,499G)

black bets:
EmmaEnema: 1,658G (34.4%, 1,658G)
prince_rogers_nelson_: 1,114G (23.1%, 1,114G)
superdevon1: 782G (16.2%, 39,105G)
josephiroth_143: 500G (10.4%, 7,406G)
AllInBot: 320G (6.6%, 320G)
douchetron: 290G (6.0%, 569G)
porkchop5158: 160G (3.3%, 160G)
