Final Bets: red - 7 bets for 3,891G (66.1%, x0.51); black - 2 bets for 1,993G (33.9%, x1.95)

red bets:
BlackFireUK: 1,500G (38.6%, 4,224G)
BirbBrainsBot: 1,000G (25.7%, 11,476G)
prince_rogers_nelson_: 496G (12.7%, 496G)
gorgewall: 401G (10.3%, 21,257G)
Evewho: 200G (5.1%, 13,664G)
getthemoneyz: 194G (5.0%, 952,428G)
datadrivenbot: 100G (2.6%, 38,754G)

black bets:
AllInBot: 1,969G (98.8%, 1,969G)
roqqqpsi: 24G (1.2%, 2,491G)
