Final Bets: purple - 20 bets for 11,654G (19.9%, x4.02); brown - 15 bets for 46,871G (80.1%, x0.25)

purple bets:
Zeroroute: 2,697G (23.1%, 5,135G)
dogsandcatsand: 1,756G (15.1%, 1,756G)
killth3kid: 1,116G (9.6%, 1,116G)
VolgraTheMoose: 1,001G (8.6%, 12,798G)
BirbBrainsBot: 1,000G (8.6%, 137,437G)
Thyrandaal: 800G (6.9%, 5,323G)
benticore: 500G (4.3%, 25,022G)
coralreeferz: 450G (3.9%, 10,146G)
Cryptopsy70: 316G (2.7%, 469G)
CapnChaos12: 300G (2.6%, 7,092G)
getthemoneyz: 224G (1.9%, 1,330,727G)
Scurg: 200G (1.7%, 200G)
Miku_Shikhu: 200G (1.7%, 15,526G)
silentkaster: 200G (1.7%, 12,450G)
datadrivenbot: 200G (1.7%, 33,644G)
MattMan119: 200G (1.7%, 4,904G)
fenaen: 200G (1.7%, 1,352G)
ohhinm: 123G (1.1%, 4,618G)
Lydian_C: 121G (1.0%, 75,715G)
DouglasDragonThePoet: 50G (0.4%, 977G)

brown bets:
BoneMiser: 23,660G (50.5%, 23,660G)
helpimabug: 8,672G (18.5%, 17,344G)
RaIshtar: 5,000G (10.7%, 82,206G)
JumbocactuarX27: 2,715G (5.8%, 42,715G)
Zetchryn: 2,500G (5.3%, 7,330G)
Lord_Burrah: 1,733G (3.7%, 81,733G)
turbn: 699G (1.5%, 699G)
randgridr: 436G (0.9%, 9,949G)
SephDarkheart: 332G (0.7%, 55,661G)
Xoomwaffle: 284G (0.6%, 284G)
SUGRboi: 216G (0.5%, 216G)
AllInBot: 200G (0.4%, 200G)
holdenmagronik: 200G (0.4%, 1,730G)
flacococo: 124G (0.3%, 124G)
nhammen: 100G (0.2%, 12,501G)
