Final Bets: green - 8 bets for 2,423G (16.5%, x5.06); yellow - 23 bets for 12,260G (83.5%, x0.20)

green bets:
Shalloween: 832G (34.3%, 832G)
AllInBot: 613G (25.3%, 613G)
getthemoneyz: 274G (11.3%, 1,923,632G)
PuzzleSecretary: 204G (8.4%, 204G)
ArrenJevleth: 200G (8.3%, 11,524G)
BartTradingCompany: 100G (4.1%, 7,454G)
J_MacC1991: 100G (4.1%, 2,579G)
heyBtw: 100G (4.1%, 3,139G)

yellow bets:
idioSyncr4zy: 1,833G (15.0%, 7,334G)
Oreo_Pizza: 1,000G (8.2%, 239,291G)
snkey: 1,000G (8.2%, 6,921G)
BirbBrainsBot: 1,000G (8.2%, 88,219G)
loveyouallfriends: 1,000G (8.2%, 32,119G)
ANFz: 931G (7.6%, 931G)
SephDarkheart: 742G (6.1%, 742G)
Rytor: 703G (5.7%, 703G)
roofiepops: 557G (4.5%, 557G)
krombobreaker: 500G (4.1%, 13,598G)
latebit: 416G (3.4%, 416G)
Zagorsek: 412G (3.4%, 412G)
ShadowNinja25: 400G (3.3%, 2,483G)
ValensEXP_: 280G (2.3%, 280G)
Smugzug: 264G (2.2%, 2,246G)
Zerguzen: 232G (1.9%, 232G)
MemoriesofFinal: 200G (1.6%, 7,677G)
datadrivenbot: 200G (1.6%, 61,911G)
DAC169: 200G (1.6%, 2,034G)
gingerfoo69: 100G (0.8%, 358G)
douchetron: 100G (0.8%, 12,113G)
Thyrandaal: 100G (0.8%, 1,502G)
7Cerulean7: 90G (0.7%, 4,567G)
