Final Bets: green - 15 bets for 8,222G (46.0%, x1.17); yellow - 16 bets for 9,643G (54.0%, x0.85)

green bets:
DavenIII: 1,500G (18.2%, 30,227G)
HaplessOne: 1,500G (18.2%, 37,089G)
LeoNightFury: 1,000G (12.2%, 2,854G)
getthemoneyz: 1,000G (12.2%, 677,300G)
Lionhermit: 1,000G (12.2%, 45,770G)
rechaun: 726G (8.8%, 726G)
run_with_stone_GUNs: 500G (6.1%, 9,041G)
nifboy: 250G (3.0%, 7,954G)
TheUnforgivenRage: 188G (2.3%, 188G)
imafella: 108G (1.3%, 108G)
CosmicTactician: 100G (1.2%, 12,134G)
iparaduck: 100G (1.2%, 100G)
datadrivenbot: 100G (1.2%, 16,447G)
Lyner87: 100G (1.2%, 64,737G)
tmo50x: 50G (0.6%, 8,436G)

yellow bets:
Baron_von_Scrub: 1,111G (11.5%, 4,601G)
volgrathemoose: 1,067G (11.1%, 2,135G)
LDSkinny: 1,000G (10.4%, 58,747G)
megaman2202: 1,000G (10.4%, 4,675G)
Evewho: 1,000G (10.4%, 17,743G)
Hamborn: 1,000G (10.4%, 51,584G)
Arkreaver: 1,000G (10.4%, 12,465G)
BirbBrainsBot: 922G (9.6%, 52,795G)
Estan_AD: 771G (8.0%, 771G)
jwchapm: 236G (2.4%, 236G)
rjA0zcOQ96: 100G (1.0%, 9,463G)
ko2q: 100G (1.0%, 2,569G)
BlackfyreRoy: 100G (1.0%, 2,020G)
lastly: 100G (1.0%, 12,229G)
AUrato: 100G (1.0%, 870G)
roqqqpsi: 36G (0.4%, 3,631G)
