Final Bets: purple - 17 bets for 11,531G (57.7%, x0.73); brown - 16 bets for 8,437G (42.3%, x1.37)

purple bets:
rechaun: 2,727G (23.6%, 2,727G)
TheChainNerd: 1,000G (8.7%, 2,579G)
BirbBrainsBot: 1,000G (8.7%, 52,602G)
LDSkinny: 1,000G (8.7%, 58,476G)
HaplessOne: 1,000G (8.7%, 37,737G)
AUrato: 670G (5.8%, 670G)
Zeroroute: 600G (5.2%, 600G)
volgrathemoose: 540G (4.7%, 540G)
JumbocactuarX27: 532G (4.6%, 532G)
megaman2202: 500G (4.3%, 4,039G)
Anomandaris__: 500G (4.3%, 4,598G)
getthemoneyz: 488G (4.2%, 678,549G)
Baron_von_Scrub: 474G (4.1%, 3,490G)
MirtaiAtana: 200G (1.7%, 6,369G)
Tougou: 100G (0.9%, 7,681G)
ko2q: 100G (0.9%, 3,198G)
LeoNightFury: 100G (0.9%, 3,027G)

brown bets:
maakur_: 2,220G (26.3%, 2,220G)
nifboy: 1,000G (11.9%, 8,429G)
Lionhermit: 1,000G (11.9%, 47,676G)
Hamborn: 1,000G (11.9%, 51,317G)
TheUnforgivenRage: 705G (8.4%, 705G)
Estan_AD: 504G (6.0%, 504G)
Phytik: 320G (3.8%, 320G)
twelfthrootoftwo: 300G (3.6%, 9,813G)
Cataphract116: 300G (3.6%, 19,445G)
jwchapm: 236G (2.8%, 236G)
iparaduck: 217G (2.6%, 217G)
run_with_stone_GUNs: 200G (2.4%, 9,999G)
BlackfyreRoy: 200G (2.4%, 1,820G)
lastly: 100G (1.2%, 12,202G)
datadrivenbot: 100G (1.2%, 16,637G)
roqqqpsi: 35G (0.4%, 3,560G)
