Final Bets: red - 10 bets for 6,203G (48.1%, x1.08); blue - 7 bets for 6,680G (51.9%, x0.93)

red bets:
ColetteMSLP: 1,000G (16.1%, 35,860G)
Aldrammech: 1,000G (16.1%, 22,321G)
amiture: 1,000G (16.1%, 41,261G)
getthemoneyz: 848G (13.7%, 1,516,020G)
Laserman1000: 671G (10.8%, 6,371G)
Nizaha: 668G (10.8%, 23,633G)
killth3kid: 616G (9.9%, 3,603G)
datadrivenbot: 200G (3.2%, 49,075G)
Twisted_Nutsatchel: 100G (1.6%, 13,420G)
Firesheath: 100G (1.6%, 5,487G)

blue bets:
dogsandcatsand: 2,000G (29.9%, 102,508G)
nifboy: 1,575G (23.6%, 1,575G)
DeathTaxesAndAnime: 1,301G (19.5%, 2,552G)
BirbBrainsBot: 1,000G (15.0%, 23,516G)
TasisSai: 500G (7.5%, 18,888G)
AllInBot: 200G (3.0%, 200G)
JonnyCue: 104G (1.6%, 104G)
