Final Bets: green - 12 bets for 12,408G (51.6%, x0.94); yellow - 11 bets for 11,634G (48.4%, x1.07)

green bets:
HaateXIII: 8,454G (68.1%, 8,454G)
superdevon1: 1,102G (8.9%, 18,373G)
RaIshtar: 1,000G (8.1%, 6,418G)
Zagorsek: 452G (3.6%, 904G)
Treafa: 250G (2.0%, 1,098G)
resjudicata3: 234G (1.9%, 234G)
mrpickins: 200G (1.6%, 1,283G)
datadrivenbot: 200G (1.6%, 40,919G)
getthemoneyz: 192G (1.5%, 1,375,419G)
holdenmagronik: 124G (1.0%, 1,961G)
Vultuous: 100G (0.8%, 993G)
ribbiks: 100G (0.8%, 3,890G)

yellow bets:
NIghtdew14: 4,000G (34.4%, 18,698G)
SkylerBunny: 2,000G (17.2%, 45,699G)
AllInBot: 1,359G (11.7%, 1,359G)
VolgraTheMoose: 1,324G (11.4%, 1,324G)
BirbBrainsBot: 1,000G (8.6%, 46,860G)
E_Ballard: 616G (5.3%, 616G)
douchetron: 413G (3.5%, 810G)
fluffskull: 400G (3.4%, 1,755G)
SephDarkheart: 372G (3.2%, 372G)
mirapoix: 100G (0.9%, 2,499G)
ArlanKels: 50G (0.4%, 374G)
