Final Bets: black - 12 bets for 7,448G (40.3%, x1.48); champion - 13 bets for 11,018G (59.7%, x0.68)

black bets:
Digitalsocrates: 2,080G (27.9%, 2,080G)
EnemyController: 1,234G (16.6%, 1,261,713G)
Evewho: 1,000G (13.4%, 7,181G)
BirbBrainsBot: 1,000G (13.4%, 187,262G)
HaateXIII: 500G (6.7%, 3,996G)
sparker9: 400G (5.4%, 16,099G)
RageImmortaI: 300G (4.0%, 4,273G)
Zeroroute: 300G (4.0%, 10,732G)
DustBirdEX: 234G (3.1%, 2,958G)
twelfthrootoftwo: 200G (2.7%, 4,386G)
ANFz: 100G (1.3%, 1,196G)
CosmicTactician: 100G (1.3%, 21,051G)

champion bets:
OneHundredFists: 4,739G (43.0%, 9,293G)
Shakarak: 2,000G (18.2%, 148,098G)
serperemagus: 1,036G (9.4%, 1,036G)
Zetchryn: 1,000G (9.1%, 7,843G)
Laserman1000: 600G (5.4%, 7,200G)
Meanderandreturn: 500G (4.5%, 1,670G)
Zagorsek: 312G (2.8%, 312G)
DLJuggernaut: 304G (2.8%, 304G)
gorgewall: 201G (1.8%, 8,283G)
getthemoneyz: 116G (1.1%, 1,039,017G)
Spuzzmocker: 100G (0.9%, 1,612G)
datadrivenbot: 100G (0.9%, 48,853G)
nhammen: 10G (0.1%, 1,215G)
