Final Bets: white - 8 bets for 3,739G (36.5%, x1.74); black - 16 bets for 6,501G (63.5%, x0.58)

white bets:
Lionhermit: 1,000G (26.7%, 39,030G)
BirbBrainsBot: 555G (14.8%, 196,612G)
nifboy: 500G (13.4%, 29,735G)
LazarusAjin: 500G (13.4%, 20,166G)
coralreeferz: 450G (12.0%, 14,764G)
sukotsuto: 300G (8.0%, 5,067G)
Miyokari: 220G (5.9%, 11,573G)
getthemoneyz: 214G (5.7%, 664,895G)

black bets:
E_Ballard: 1,520G (23.4%, 1,520G)
Nickyfive: 1,472G (22.6%, 1,472G)
HaplessOne: 1,111G (17.1%, 2,017G)
ungabunga_bot: 514G (7.9%, 461,663G)
Nizaha: 501G (7.7%, 9,226G)
bahamutlagooon: 236G (3.6%, 236G)
jwchapm: 228G (3.5%, 228G)
gggamezzz: 155G (2.4%, 155G)
eudes89: 128G (2.0%, 128G)
Tekigi: 120G (1.8%, 2,403G)
JumbocactuarX27: 100G (1.5%, 18,968G)
mannequ1n: 100G (1.5%, 2,639G)
EnemyController: 100G (1.5%, 228,395G)
datadrivenbot: 100G (1.5%, 11,486G)
ko2q: 100G (1.5%, 1,388G)
roqqqpsi: 16G (0.2%, 1,612G)
