Final Bets: red - 4 bets for 2,808G (23.7%, x3.22); blue - 10 bets for 9,031G (76.3%, x0.31)

red bets:
getthemoneyz: 1,000G (35.6%, 1,052,673G)
BirbBrainsBot: 1,000G (35.6%, 1,434G)
prince_rogers_nelson_: 500G (17.8%, 19,318G)
KyleWonToLiveForever: 308G (11.0%, 308G)

blue bets:
Mesmaster: 2,000G (22.1%, 87,897G)
nifboy: 1,721G (19.1%, 1,721G)
arcadiues: 1,594G (17.7%, 1,594G)
SkyridgeZero: 1,500G (16.6%, 45,184G)
YaBoy125: 640G (7.1%, 6,405G)
serperemagus: 540G (6.0%, 540G)
Zetchryn: 408G (4.5%, 408G)
CrownOfHorns: 328G (3.6%, 328G)
Evewho: 200G (2.2%, 7,003G)
datadrivenbot: 100G (1.1%, 49,238G)
