Final Bets: red - 18 bets for 24,289G (81.4%, x0.23); yellow - 12 bets for 5,535G (18.6%, x4.39)

red bets:
HaplessOne: 14,330G (59.0%, 17,913G)
killth3kid: 2,000G (8.2%, 41,075G)
NicoSavoy: 2,000G (8.2%, 9,233G)
Evewho: 1,513G (6.2%, 1,513G)
Mesmaster: 1,000G (4.1%, 83,185G)
Dexsana: 600G (2.5%, 5,494G)
thunderducker: 501G (2.1%, 15,179G)
King_Harb: 400G (1.6%, 2,139G)
ungabunga_bot: 384G (1.6%, 430,030G)
OverlordCuddles: 300G (1.2%, 11,056G)
benticore: 260G (1.1%, 2,608G)
gorgewall: 201G (0.8%, 7,125G)
sukotsuto: 200G (0.8%, 6,715G)
grayeternity: 200G (0.8%, 1,463G)
rjA0zcOQ96: 100G (0.4%, 8,953G)
Kyune: 100G (0.4%, 1,457G)
datadrivenbot: 100G (0.4%, 12,605G)
Lythe_Caraker: 100G (0.4%, 116,609G)

yellow bets:
SeniorBunk: 1,753G (31.7%, 1,753G)
HaateXIII: 1,416G (25.6%, 2,777G)
nifboy: 568G (10.3%, 568G)
theNGUYENNER: 500G (9.0%, 10,322G)
HawkSick: 500G (9.0%, 4,759G)
rico_flex: 213G (3.8%, 31,766G)
BirbBrainsBot: 142G (2.6%, 160,056G)
CapnChaos12: 100G (1.8%, 2,591G)
cupholderr: 100G (1.8%, 3,671G)
Onemancrowd: 100G (1.8%, 1,175G)
getthemoneyz: 88G (1.6%, 655,452G)
CorpusCav: 55G (1.0%, 4,075G)
