Final Bets: purple - 10 bets for 6,970G (35.9%, x1.78); brown - 15 bets for 12,437G (64.1%, x0.56)

purple bets:
Zeroroute: 1,561G (22.4%, 4,625G)
DLJuggernaut: 1,280G (18.4%, 2,510G)
E_Ballard: 1,061G (15.2%, 1,061G)
BirbBrainsBot: 1,000G (14.3%, 145,795G)
TheChainNerd: 504G (7.2%, 504G)
killth3kid: 500G (7.2%, 6,197G)
amiture: 500G (7.2%, 7,595G)
evontno: 300G (4.3%, 4,704G)
TheBigSalarius: 200G (2.9%, 2,077G)
getthemoneyz: 64G (0.9%, 1,022,321G)

brown bets:
eudes89: 2,448G (19.7%, 2,448G)
DavenIII: 2,000G (16.1%, 22,060G)
Rilgon: 1,618G (13.0%, 8,093G)
Sairentozon7: 1,335G (10.7%, 1,335G)
nifboy: 1,000G (8.0%, 3,332G)
sinnyil2: 856G (6.9%, 856G)
Laserman1000: 802G (6.4%, 4,002G)
Shalloween: 700G (5.6%, 45,158G)
rechaun: 528G (4.2%, 528G)
gooseyourself: 435G (3.5%, 435G)
RunicMagus: 300G (2.4%, 43,351G)
arcadiues: 115G (0.9%, 115G)
thewondertrickster: 100G (0.8%, 647G)
datadrivenbot: 100G (0.8%, 48,065G)
CosmicTactician: 100G (0.8%, 15,097G)
