Final Bets: white - 11 bets for 19,192G (69.0%, x0.45); black - 11 bets for 8,639G (31.0%, x2.22)

white bets:
Aldrammech: 14,040G (73.2%, 14,040G)
sinnyil2: 1,125G (5.9%, 1,125G)
bruubarg: 800G (4.2%, 35,136G)
Nizaha: 772G (4.0%, 23,000G)
Who_lio42: 600G (3.1%, 34,354G)
latebit: 512G (2.7%, 512G)
Kellios11: 442G (2.3%, 442G)
CosmicTactician: 300G (1.6%, 45,225G)
Lord_Gwarth: 300G (1.6%, 3,094G)
datadrivenbot: 200G (1.0%, 58,139G)
gorgewall: 101G (0.5%, 9,418G)

black bets:
Thyrandaal: 2,000G (23.2%, 136,582G)
DavenIII: 1,724G (20.0%, 3,448G)
BirbBrainsBot: 1,000G (11.6%, 133,219G)
skipsandwiches: 974G (11.3%, 974G)
AllInBot: 731G (8.5%, 731G)
getthemoneyz: 680G (7.9%, 1,774,532G)
poorest_hobo: 543G (6.3%, 107,593G)
roqqqpsi: 415G (4.8%, 420G)
MemoriesofFinal: 272G (3.1%, 272G)
gongonono: 200G (2.3%, 5,726G)
ko2q: 100G (1.2%, 10,599G)
