Final Bets: red - 12 bets for 11,147G (80.5%, x0.24); blue - 5 bets for 2,707G (19.5%, x4.12)

red bets:
Willjin: 3,949G (35.4%, 3,949G)
leakimiko: 1,656G (14.9%, 33,138G)
ungabunga_bot: 1,000G (9.0%, 101,418G)
BirbBrainsBot: 1,000G (9.0%, 71,661G)
YaBoy125: 938G (8.4%, 4,538G)
datadrivenbot: 560G (5.0%, 17,646G)
Aldrammech: 500G (4.5%, 19,824G)
getthemoneyz: 470G (4.2%, 479,986G)
z32o: 456G (4.1%, 456G)
Part_Ways: 318G (2.9%, 318G)
Ramza_Chan: 200G (1.8%, 200G)
BlinkFS: 100G (0.9%, 14,663G)

blue bets:
Jerboj: 1,000G (36.9%, 32,092G)
waterwatereverywhere: 967G (35.7%, 967G)
roqqqpsi: 440G (16.3%, 440G)
mayormcfunbags: 200G (7.4%, 200G)
AllInBot: 100G (3.7%, 100G)
