Final Bets: white - 14 bets for 5,416G (33.9%, x1.95); brown - 23 bets for 10,553G (66.1%, x0.51)

white bets:
TheChainNerd: 1,000G (18.5%, 5,818G)
sinnyil2: 700G (12.9%, 2,126G)
J2DaBibbles: 666G (12.3%, 6,051G)
KupoKel: 600G (11.1%, 600G)
ShintaroNayaka: 500G (9.2%, 7,284G)
babieapple: 412G (7.6%, 412G)
ColetteMSLP: 300G (5.5%, 6,771G)
Aeolus_000: 300G (5.5%, 1,312G)
lifeguard_dan: 261G (4.8%, 261G)
SomeCallMeGON: 244G (4.5%, 244G)
ugoplatamia: 200G (3.7%, 6,799G)
lastly: 132G (2.4%, 132G)
volgrathemoose: 100G (1.8%, 2,634G)
daveb_: 1G (0.0%, 2,116G)

brown bets:
maakur_: 2,257G (21.4%, 4,514G)
hkbadboy: 2,000G (19.0%, 15,758G)
Lord_Burrah: 1,200G (11.4%, 92,698G)
kai_shee: 1,000G (9.5%, 44,051G)
Laserman1000: 654G (6.2%, 6,154G)
Zeroroute: 500G (4.7%, 500G)
HaplessOne: 500G (4.7%, 19,553G)
bad1dea: 400G (3.8%, 302,911G)
ZephyrTempest: 284G (2.7%, 15,861G)
BirbBrainsBot: 229G (2.2%, 77,118G)
ensiron: 220G (2.1%, 220G)
gum44: 200G (1.9%, 2,538G)
getthemoneyz: 184G (1.7%, 408,972G)
mexskacin: 170G (1.6%, 170G)
GrayGhostGaming: 100G (0.9%, 564G)
DeathTaxesAndAnime: 100G (0.9%, 1,530G)
SpaZmodeus: 100G (0.9%, 2,144G)
Oshimi12: 100G (0.9%, 2,598G)
Tithonus: 100G (0.9%, 7,828G)
datadrivenbot: 100G (0.9%, 17,458G)
Axelrod: 100G (0.9%, 38,943G)
silentperogy: 50G (0.5%, 9,202G)
ko2q: 5G (0.0%, 1,424G)
