Final Bets: brown - 23 bets for 11,314G (35.6%, x1.81); champion - 25 bets for 20,499G (64.4%, x0.55)

brown bets:
Zeroroute: 2,268G (20.0%, 2,268G)
sinnyil2: 2,136G (18.9%, 4,272G)
Lord_Burrah: 1,000G (8.8%, 93,314G)
LASERJESUS1337: 1,000G (8.8%, 40,605G)
greghatch: 800G (7.1%, 1,742G)
Laserman1000: 600G (5.3%, 5,300G)
HaplessOne: 500G (4.4%, 19,310G)
bad1dea: 400G (3.5%, 305,112G)
lastly: 395G (3.5%, 395G)
ColetteMSLP: 300G (2.7%, 6,171G)
ricky_ortease: 300G (2.7%, 13,879G)
MattMan119: 250G (2.2%, 6,083G)
ensiron: 220G (1.9%, 220G)
JumbocactuarX27: 200G (1.8%, 5,659G)
SeniorBunk: 200G (1.8%, 10,626G)
ZephyrTempest: 178G (1.6%, 16,576G)
lifeguard_dan: 160G (1.4%, 160G)
Oshimi12: 100G (0.9%, 2,549G)
Tithonus: 100G (0.9%, 8,079G)
mexskacin: 100G (0.9%, 770G)
babieapple: 100G (0.9%, 100G)
BirbBrainsBot: 6G (0.1%, 79,232G)
daveb_: 1G (0.0%, 2,114G)

champion bets:
hkbadboy: 5,000G (24.4%, 16,284G)
ShintaroNayaka: 1,932G (9.4%, 6,384G)
KupoKel: 1,797G (8.8%, 1,797G)
ugoplatamia: 1,399G (6.8%, 6,998G)
Winterharte: 1,268G (6.2%, 2,488G)
TheChainNerd: 1,000G (4.9%, 3,818G)
Skarthe: 1,000G (4.9%, 4,412G)
kai_shee: 1,000G (4.9%, 43,564G)
gum44: 1,000G (4.9%, 2,641G)
SkylerBunny: 819G (4.0%, 819G)
HaychDub: 750G (3.7%, 7,615G)
volgrathemoose: 509G (2.5%, 2,034G)
SleepyBenzo: 500G (2.4%, 5,678G)
Lionhermit: 500G (2.4%, 8,250G)
Cataphract116: 400G (2.0%, 1,095G)
fenaen: 352G (1.7%, 352G)
SpaZmodeus: 333G (1.6%, 1,529G)
fenixcrest: 230G (1.1%, 4,616G)
DeathTaxesAndAnime: 205G (1.0%, 1,581G)
GrayGhostGaming: 100G (0.5%, 615G)
Phi_Sig: 100G (0.5%, 45,764G)
datadrivenbot: 100G (0.5%, 17,409G)
wizblizz: 100G (0.5%, 2,416G)
maakur_: 100G (0.5%, 5,572G)
ko2q: 5G (0.0%, 1,437G)
