Final Bets: purple - 18 bets for 10,849G (57.9%, x0.73); brown - 16 bets for 7,896G (42.1%, x1.37)

purple bets:
DeathTaxesAndAnime: 1,502G (13.8%, 2,946G)
LeepingJJ: 1,447G (13.3%, 1,447G)
roofiepops: 1,400G (12.9%, 9,667G)
Rislyeu: 1,258G (11.6%, 1,258G)
CorpusCav: 1,007G (9.3%, 8,665G)
volgrathemoose: 1,001G (9.2%, 2,732G)
BirbBrainsBot: 1,000G (9.2%, 64,815G)
E_Ballard: 627G (5.8%, 627G)
Mokura3rd: 303G (2.8%, 303G)
metagameface: 300G (2.8%, 300G)
coralreeferz: 250G (2.3%, 2,500G)
letdowncity: 250G (2.3%, 10,515G)
maakur_: 100G (0.9%, 7,805G)
datadrivenbot: 100G (0.9%, 29,973G)
MiseryKoss: 100G (0.9%, 657G)
Sharosa: 100G (0.9%, 149G)
Evewho: 100G (0.9%, 5,352G)
daveb_: 4G (0.0%, 979G)

brown bets:
LivingHitokiri: 2,450G (31.0%, 2,450G)
MagicBottle: 1,156G (14.6%, 1,156G)
nifboy: 1,000G (12.7%, 10,777G)
flowinprose: 1,000G (12.7%, 128,192G)
getthemoneyz: 802G (10.2%, 761,271G)
RaIshtar: 256G (3.2%, 256G)
GladiatorLupe: 200G (2.5%, 3,544G)
rico_flex: 200G (2.5%, 24,161G)
KyleWonToLiveForever: 120G (1.5%, 120G)
potgodtopdog: 111G (1.4%, 37,277G)
Firesheath: 101G (1.3%, 1,832G)
Flameatron: 100G (1.3%, 1,188G)
Grandlanzer: 100G (1.3%, 999G)
CosmicTactician: 100G (1.3%, 4,603G)
mrfripps: 100G (1.3%, 2,216G)
cloud92684: 100G (1.3%, 16,358G)
