Final Bets: blue - 17 bets for 10,414G (49.3%, x1.03); yellow - 18 bets for 10,717G (50.7%, x0.97)

blue bets:
flowinprose: 3,000G (28.8%, 127,192G)
roofiepops: 1,400G (13.4%, 10,686G)
E_Ballard: 1,083G (10.4%, 1,083G)
mpghappiness: 1,001G (9.6%, 19,857G)
BirbBrainsBot: 1,000G (9.6%, 65,543G)
volgrathemoose: 500G (4.8%, 3,461G)
potgodtopdog: 444G (4.3%, 37,166G)
getthemoneyz: 420G (4.0%, 760,469G)
LivingHitokiri: 384G (3.7%, 384G)
MagicBottle: 380G (3.6%, 380G)
benticore: 250G (2.4%, 2,023G)
MiseryKoss: 150G (1.4%, 730G)
Firesheath: 101G (1.0%, 1,731G)
mrfripps: 100G (1.0%, 2,116G)
FoeSquirrel: 100G (1.0%, 1,206G)
Shalloween: 100G (1.0%, 1,785G)
daveb_: 1G (0.0%, 982G)

yellow bets:
LeepingJJ: 2,500G (23.3%, 2,500G)
DeathTaxesAndAnime: 2,059G (19.2%, 4,039G)
TinchoT: 1,451G (13.5%, 1,451G)
Jeeboheebo: 1,091G (10.2%, 1,091G)
Mesmaster: 1,000G (9.3%, 104,708G)
metagameface: 518G (4.8%, 518G)
CorpusCav: 500G (4.7%, 9,398G)
Lionhermit: 356G (3.3%, 356G)
HASTERIOUS: 260G (2.4%, 5,206G)
RaIshtar: 256G (2.4%, 256G)
KyleWonToLiveForever: 120G (1.1%, 120G)
gorgewall: 101G (0.9%, 15,745G)
ApplesauceBoss: 100G (0.9%, 3,973G)
maakur_: 100G (0.9%, 7,878G)
Flameatron: 100G (0.9%, 1,088G)
datadrivenbot: 100G (0.9%, 30,046G)
run_with_stone_GUNs: 100G (0.9%, 7,156G)
moonliquor: 5G (0.0%, 1,224G)
