Final Bets: white - 19 bets for 14,128G (58.9%, x0.70); purple - 16 bets for 9,877G (41.1%, x1.43)

white bets:
DeathTaxesAndAnime: 3,080G (21.8%, 6,040G)
mpghappiness: 2,323G (16.4%, 18,856G)
Jeeboheebo: 2,151G (15.2%, 2,151G)
metagameface: 1,021G (7.2%, 1,021G)
MADTheta: 1,000G (7.1%, 12,258G)
Mesmaster: 1,000G (7.1%, 105,680G)
JLinkletter: 896G (6.3%, 896G)
potgodtopdog: 555G (3.9%, 36,722G)
Cryptopsy70: 468G (3.3%, 3,782G)
LivingHitokiri: 384G (2.7%, 384G)
coralreeferz: 251G (1.8%, 2,682G)
kaelsun: 248G (1.8%, 248G)
Shalloween: 150G (1.1%, 1,685G)
gorgewall: 101G (0.7%, 15,843G)
moonliquor: 100G (0.7%, 1,229G)
Sharosa: 100G (0.7%, 222G)
cloud92684: 100G (0.7%, 16,258G)
Flameatron: 100G (0.7%, 1,185G)
datadrivenbot: 100G (0.7%, 30,143G)

purple bets:
sinnyil2: 3,229G (32.7%, 6,458G)
flowinprose: 2,000G (20.2%, 124,192G)
BirbBrainsBot: 1,000G (10.1%, 64,543G)
Lionhermit: 702G (7.1%, 702G)
Maldoree: 680G (6.9%, 680G)
Mokura3rd: 524G (5.3%, 524G)
CorpusCav: 484G (4.9%, 9,884G)
E_Ballard: 312G (3.2%, 312G)
GladiatorLupe: 200G (2.0%, 3,344G)
getthemoneyz: 146G (1.5%, 760,049G)
Evewho: 100G (1.0%, 5,425G)
maakur_: 100G (1.0%, 7,975G)
moocaotao: 100G (1.0%, 2,015G)
ApplesauceBoss: 100G (1.0%, 4,070G)
MiseryKoss: 100G (1.0%, 580G)
maleblackfiora: 100G (1.0%, 697G)
