Final Bets: red - 25 bets for 17,659G (69.8%, x0.43); blue - 16 bets for 7,641G (30.2%, x2.31)

red bets:
thefyeman: 5,000G (28.3%, 74,125G)
passermine: 1,628G (9.2%, 6,515G)
Laserman1000: 1,556G (8.8%, 3,051G)
fenaen: 1,200G (6.8%, 2,942G)
FoeSquirrel: 1,196G (6.8%, 1,196G)
BirbBrainsBot: 1,000G (5.7%, 121,200G)
alecttox: 1,000G (5.7%, 5,000G)
Tetsuwan_Melty: 763G (4.3%, 763G)
EnemyController: 500G (2.8%, 319,199G)
mannequ1n: 493G (2.8%, 493G)
Baron_von_Scrub: 474G (2.7%, 9,125G)
KonzeraLive: 400G (2.3%, 9,659G)
bruubarg: 400G (2.3%, 2,367G)
DeathTaxesAndAnime: 300G (1.7%, 1,498G)
Lordminsc: 300G (1.7%, 3,148G)
FlohIristhrae: 208G (1.2%, 208G)
cloud92684: 201G (1.1%, 201G)
Mushufasa_: 200G (1.1%, 1,132G)
GladiatorLupe: 200G (1.1%, 2,599G)
foofermoofer: 140G (0.8%, 140G)
AllInBot: 100G (0.6%, 100G)
ravingsockmonkey: 100G (0.6%, 1,125G)
datadrivenbot: 100G (0.6%, 22,807G)
travis_butters: 100G (0.6%, 816G)
CorpusCav: 100G (0.6%, 22,300G)

blue bets:
chaotic_prodigy: 2,071G (27.1%, 2,071G)
mpghappiness: 1,001G (13.1%, 26,532G)
Candina: 999G (13.1%, 14,035G)
Wargles: 801G (10.5%, 801G)
volgrathemoose: 501G (6.6%, 5,307G)
JimmyKetz: 500G (6.5%, 1,380G)
Lanshaft: 404G (5.3%, 2,192G)
krasny1944: 300G (3.9%, 1,313G)
benticore: 280G (3.7%, 280G)
nekojin: 232G (3.0%, 232G)
zepharoth89: 102G (1.3%, 1,904G)
maakur_: 100G (1.3%, 4,669G)
Lawndough: 100G (1.3%, 1,929G)
ArchaicHerald: 100G (1.3%, 143G)
nifboy: 100G (1.3%, 3,455G)
DrAntiSocial: 50G (0.7%, 18,550G)
