Final Bets: red - 22 bets for 20,497G (65.8%, x0.52); white - 17 bets for 10,665G (34.2%, x1.92)

red bets:
ExecutedGiraffe: 4,000G (19.5%, 14,807G)
Zbgs: 3,500G (17.1%, 54,873G)
volgrathemoose: 2,019G (9.9%, 4,039G)
passermine: 1,956G (9.5%, 7,827G)
bruubarg: 1,400G (6.8%, 4,400G)
mpghappiness: 1,112G (5.4%, 30,273G)
nightjews: 897G (4.4%, 897G)
Mudrockk: 800G (3.9%, 5,096G)
ColetteMSLP: 800G (3.9%, 60,706G)
Laserman1000: 658G (3.2%, 2,958G)
StealthModeLocke: 549G (2.7%, 549G)
chaotic_prodigy: 501G (2.4%, 501G)
travis_butters: 500G (2.4%, 1,213G)
Lanshaft: 404G (2.0%, 404G)
skillomono: 400G (2.0%, 8,162G)
aeonicvector: 300G (1.5%, 398G)
gorgewall: 201G (1.0%, 12,359G)
ravingsockmonkey: 100G (0.5%, 1,167G)
FoeSquirrel: 100G (0.5%, 1,779G)
datadrivenbot: 100G (0.5%, 22,756G)
zepharoth89: 100G (0.5%, 2,100G)
foofermoofer: 100G (0.5%, 344G)

white bets:
thefyeman: 5,000G (46.9%, 74,581G)
Baron_von_Scrub: 1,111G (10.4%, 12,302G)
BirbBrainsBot: 1,000G (9.4%, 121,236G)
Candina: 999G (9.4%, 14,295G)
krasny1944: 336G (3.2%, 1,336G)
ThePineappleSalesman: 324G (3.0%, 324G)
LionelParks: 314G (2.9%, 314G)
Wargles: 284G (2.7%, 284G)
AsceticGamer: 200G (1.9%, 200G)
Breakdown777: 200G (1.9%, 3,383G)
JLinkletter: 193G (1.8%, 193G)
AllInBot: 171G (1.6%, 171G)
evanuelday: 123G (1.2%, 123G)
getthemoneyz: 110G (1.0%, 701,622G)
CorpusCav: 100G (0.9%, 22,579G)
victoriolue: 100G (0.9%, 6,219G)
nifboy: 100G (0.9%, 3,514G)
