Final Bets: green - 18 bets for 16,433G (71.7%, x0.40); yellow - 9 bets for 6,494G (28.3%, x2.53)

green bets:
VolgraTheMoose: 2,501G (15.2%, 118,603G)
Zbgs: 2,500G (15.2%, 25,319G)
Panushenko: 1,631G (9.9%, 1,631G)
fattunaking: 1,000G (6.1%, 2,812G)
Dasutin23: 1,000G (6.1%, 10,018G)
Thyrandaal: 1,000G (6.1%, 104,234G)
AniZero: 1,000G (6.1%, 24,528G)
BirbBrainsBot: 913G (5.6%, 183,550G)
reinoe: 885G (5.4%, 885G)
Zagorsek: 731G (4.4%, 731G)
E_Ballard: 600G (3.7%, 1,812G)
CorpusCav: 500G (3.0%, 9,547G)
krombobreaker: 500G (3.0%, 2,999G)
Runeseeker22: 488G (3.0%, 488G)
thunderducker: 444G (2.7%, 3,239G)
KasugaiRoastedPeas: 340G (2.1%, 3,507G)
khelor_: 200G (1.2%, 1,106G)
datadrivenbot: 200G (1.2%, 54,159G)

yellow bets:
Raixelol: 3,555G (54.7%, 3,555G)
technominari: 800G (12.3%, 85,398G)
KingofTricksters: 530G (8.2%, 530G)
BartTradingCompany: 465G (7.2%, 4,652G)
getthemoneyz: 422G (6.5%, 1,834,613G)
upvla: 322G (5.0%, 6,777G)
Demonic_Vortex_SanOni: 200G (3.1%, 1,063G)
Miku_Shikhu: 100G (1.5%, 4,809G)
arumz: 100G (1.5%, 24,850G)
