Final Bets: green - 18 bets for 12,603G (38.6%, x1.59); yellow - 13 bets for 20,033G (61.4%, x0.63)

green bets:
SkylerBunny: 2,500G (19.8%, 470,396G)
DudeMonkey77: 1,700G (13.5%, 1,700G)
DeathTaxesAndAnime: 1,403G (11.1%, 1,403G)
Lord_Burrah: 1,124G (8.9%, 86,124G)
CosmicTactician: 1,000G (7.9%, 30,272G)
BirbBrainsBot: 820G (6.5%, 820G)
Chuckolator: 654G (5.2%, 99,048G)
evontno: 520G (4.1%, 520G)
Moshyhero: 500G (4.0%, 12,757G)
Magicandy: 400G (3.2%, 30,690G)
Oobs56: 400G (3.2%, 43,356G)
KyleWonToLiveForever: 328G (2.6%, 328G)
getthemoneyz: 300G (2.4%, 1,112,690G)
HaychDub: 300G (2.4%, 2,377G)
Snowfats: 250G (2.0%, 5,445G)
Mathlexis: 204G (1.6%, 204G)
Quadh0nk: 100G (0.8%, 4,364G)
ruqa7557: 100G (0.8%, 233G)

yellow bets:
Nizaha: 8,357G (41.7%, 16,715G)
sinnyil2: 4,707G (23.5%, 4,707G)
prince_rogers_nelson_: 3,000G (15.0%, 11,893G)
Firesheath: 1,254G (6.3%, 1,254G)
Forkmore: 750G (3.7%, 44,323G)
turbn: 500G (2.5%, 4,271G)
safira125: 500G (2.5%, 4,469G)
neocarbuncle: 244G (1.2%, 244G)
alekzanndrr: 200G (1.0%, 200G)
silentkaster: 200G (1.0%, 7,790G)
Lydian_C: 121G (0.6%, 174,460G)
DuneMeta: 100G (0.5%, 2,237G)
datadrivenbot: 100G (0.5%, 48,528G)
