Final Bets: purple - 22 bets for 13,077G (62.2%, x0.61); brown - 14 bets for 7,943G (37.8%, x1.65)

purple bets:
exaltedhamster: 2,000G (15.3%, 4,467G)
HaateXIII: 1,166G (8.9%, 1,166G)
astrozin11: 1,045G (8.0%, 1,045G)
Kronikle: 1,000G (7.6%, 5,335G)
ungabunga_bot: 1,000G (7.6%, 138,377G)
BirbBrainsBot: 1,000G (7.6%, 138,362G)
getthemoneyz: 1,000G (7.6%, 492,003G)
Lanshaft: 899G (6.9%, 1,798G)
Nizaha: 656G (5.0%, 656G)
Zeroroute: 600G (4.6%, 600G)
AlenaZarek: 424G (3.2%, 424G)
ZephyrTempest: 359G (2.7%, 57,774G)
CapnChaos12: 300G (2.3%, 2,829G)
datadrivenbot: 280G (2.1%, 862G)
killth3kid: 244G (1.9%, 2,260G)
RionDoesThings: 204G (1.6%, 204G)
daveb_: 200G (1.5%, 3,831G)
nedryerson01: 200G (1.5%, 1,020G)
jame3200: 200G (1.5%, 1,749G)
AerodyneX: 100G (0.8%, 123G)
Firesheath: 100G (0.8%, 942G)
Chompie: 100G (0.8%, 3,268G)

brown bets:
mirapoix: 3,513G (44.2%, 7,027G)
kai_shee: 1,001G (12.6%, 140,274G)
roqqqpsi: 621G (7.8%, 2,824G)
metagameface: 555G (7.0%, 555G)
fenaen: 480G (6.0%, 480G)
0v3rr8d: 437G (5.5%, 437G)
rico_flex: 300G (3.8%, 5,436G)
Courtesy_F1ush_: 236G (3.0%, 236G)
KasugaiRoastedPeas: 200G (2.5%, 4,830G)
OmnibotGamma: 200G (2.5%, 2,068G)
AllInBot: 100G (1.3%, 100G)
MeleeWizard: 100G (1.3%, 810G)
ApplesauceBoss: 100G (1.3%, 7,466G)
ko2q: 100G (1.3%, 8,805G)
