Final Bets: red - 10 bets for 7,293G (35.7%, x1.80); yellow - 28 bets for 13,141G (64.3%, x0.55)

red bets:
OmnibotGamma: 1,868G (25.6%, 1,868G)
Lanshaft: 1,172G (16.1%, 2,344G)
leakimiko: 1,009G (13.8%, 1,009G)
TheChainNerd: 1,000G (13.7%, 18,789G)
Zeroroute: 964G (13.2%, 964G)
FACADE8634: 500G (6.9%, 1,278G)
fenaen: 480G (6.6%, 480G)
ApplesauceBoss: 100G (1.4%, 7,366G)
AlenaZarek: 100G (1.4%, 682G)
Tougou: 100G (1.4%, 3,526G)

yellow bets:
mirapoix: 1,757G (13.4%, 3,514G)
Nickyfive: 1,128G (8.6%, 11,288G)
Nizaha: 1,054G (8.0%, 1,054G)
kai_shee: 1,001G (7.6%, 139,273G)
ungabunga_bot: 1,000G (7.6%, 138,984G)
BirbBrainsBot: 1,000G (7.6%, 138,969G)
Shalloween: 800G (6.1%, 37,431G)
MeleeWizard: 710G (5.4%, 710G)
datadrivenbot: 542G (4.1%, 1,032G)
volgrathemoose: 501G (3.8%, 3,159G)
luminarii: 500G (3.8%, 14,033G)
JumbocactuarX27: 340G (2.6%, 340G)
ZephyrTempest: 327G (2.5%, 57,992G)
jame3200: 300G (2.3%, 1,870G)
joewcarson: 300G (2.3%, 8,613G)
0v3rr8d: 260G (2.0%, 260G)
astrozin11: 250G (1.9%, 1,680G)
killth3kid: 244G (1.9%, 2,408G)
getthemoneyz: 200G (1.5%, 492,610G)
nedryerson01: 200G (1.5%, 1,141G)
metagameface: 104G (0.8%, 104G)
AllInBot: 100G (0.8%, 100G)
Firesheath: 100G (0.8%, 1,003G)
Chompie: 100G (0.8%, 3,329G)
AerodyneX: 100G (0.8%, 184G)
rico_flex: 100G (0.8%, 5,136G)
daveb_: 99G (0.8%, 3,952G)
roqqqpsi: 24G (0.2%, 1,203G)
