Final Bets: red - 18 bets for 7,316G (55.1%, x0.81); blue - 8 bets for 5,950G (44.9%, x1.23)

red bets:
Panushenko: 1,451G (19.8%, 2,846G)
MrFlabyo: 1,000G (13.7%, 99,184G)
latebit: 1,000G (13.7%, 60,101G)
Nizaha: 796G (10.9%, 88,495G)
JustDoomathon: 554G (7.6%, 1,108G)
Aldrammech: 500G (6.8%, 16,800G)
SephDarkheart: 316G (4.3%, 316G)
CapnChaos12: 300G (4.1%, 2,732G)
killth3kid: 250G (3.4%, 7,902G)
Blaster_Bomb: 200G (2.7%, 2,263G)
datadrivenbot: 200G (2.7%, 64,822G)
holandrix: 148G (2.0%, 148G)
gorgewall: 101G (1.4%, 5,480G)
FoeSquirrel: 100G (1.4%, 3,266G)
HS39: 100G (1.4%, 1,951G)
Thyrandaal: 100G (1.4%, 59,087G)
rottings0ul: 100G (1.4%, 1,507G)
macradarkstar: 100G (1.4%, 718G)

blue bets:
Mesmaster: 3,000G (50.4%, 87,226G)
BirbBrainsBot: 1,000G (16.8%, 66,597G)
E_Ballard: 836G (14.1%, 112,515G)
bigbongsmoker: 500G (8.4%, 3,371G)
getthemoneyz: 314G (5.3%, 1,817,215G)
DeathTaxesAndAnime: 100G (1.7%, 3,423G)
Yangusburger: 100G (1.7%, 1,304G)
MemoriesofFinal: 100G (1.7%, 1,216G)
