Final Bets: purple - 30 bets for 15,733G (64.3%, x0.56); brown - 15 bets for 8,742G (35.7%, x1.80)

purple bets:
dogsandcatsand: 2,000G (12.7%, 11,540G)
metagameface: 1,859G (11.8%, 1,859G)
Aldrammech: 1,596G (10.1%, 1,596G)
reinoe: 1,158G (7.4%, 1,158G)
sinnyil2: 1,111G (7.1%, 2,222G)
BirbBrainsBot: 1,000G (6.4%, 45,958G)
Thyrandaal: 1,000G (6.4%, 8,218G)
Sairentozon7: 540G (3.4%, 540G)
Coolguye: 530G (3.4%, 530G)
EnemyController: 500G (3.2%, 544,342G)
TheAbandonedShoji: 480G (3.1%, 480G)
cam_ATS: 455G (2.9%, 455G)
DLJuggernaut: 350G (2.2%, 4,732G)
getthemoneyz: 304G (1.9%, 812,695G)
joewcarson: 300G (1.9%, 15,938G)
wyonearth: 300G (1.9%, 5,056G)
benticore: 300G (1.9%, 2,952G)
outer_monologue: 239G (1.5%, 239G)
KasugaiRoastedPeas: 200G (1.3%, 941G)
Saldarin: 200G (1.3%, 1,767G)
Flameatron: 200G (1.3%, 4,328G)
Kronikle: 200G (1.3%, 20,654G)
Angelomortis: 200G (1.3%, 320G)
potgodtopdog: 111G (0.7%, 40,789G)
nifboy: 100G (0.6%, 4,477G)
HASTERIOUS: 100G (0.6%, 2,013G)
CosmicTactician: 100G (0.6%, 14,896G)
E_Ballard: 100G (0.6%, 1,894G)
datadrivenbot: 100G (0.6%, 33,165G)
tom392: 100G (0.6%, 404G)

brown bets:
DeathTaxesAndAnime: 1,441G (16.5%, 1,441G)
Evewho: 1,154G (13.2%, 1,154G)
Grandlanzer: 1,000G (11.4%, 3,638G)
MaimTrain: 1,000G (11.4%, 1,671G)
ValtonZenola: 900G (10.3%, 900G)
Firesheath: 648G (7.4%, 648G)
HaateXIII: 624G (7.1%, 624G)
DustBirdEX: 456G (5.2%, 6,255G)
DAC169: 301G (3.4%, 301G)
Xcessive30: 224G (2.6%, 224G)
Nohurty: 220G (2.5%, 220G)
Rytor: 200G (2.3%, 22,185G)
Xeldena: 200G (2.3%, 204G)
KyleWonToLiveForever: 197G (2.3%, 197G)
roqqqpsi: 177G (2.0%, 17,773G)
