Final Bets: purple - 21 bets for 10,827G (70.5%, x0.42); brown - 6 bets for 4,522G (29.5%, x2.39)

purple bets:
Lydian_C: 4,200G (38.8%, 151,306G)
twelfthrootoftwo: 1,000G (9.2%, 6,213G)
DeathTaxesAndAnime: 852G (7.9%, 852G)
DLJuggernaut: 750G (6.9%, 2,272G)
Laserman1000: 500G (4.6%, 22,000G)
winteriscorning: 453G (4.2%, 453G)
rockmem21: 400G (3.7%, 9,613G)
phrossi_v: 360G (3.3%, 3,128G)
Digitalsocrates: 356G (3.3%, 356G)
livvexx: 300G (2.8%, 5,053G)
ZCKaiser: 300G (2.8%, 6,342G)
cam_ATS: 234G (2.2%, 32,894G)
gorgewall: 201G (1.9%, 2,252G)
datadrivenbot: 200G (1.8%, 55,609G)
SephDarkheart: 128G (1.2%, 128G)
BirbBrainsBot: 117G (1.1%, 65,713G)
fluffskull: 100G (0.9%, 4,607G)
IDruggedShamu: 100G (0.9%, 1,000G)
nifboy: 100G (0.9%, 15,299G)
Grandlanzer: 100G (0.9%, 57,785G)
getthemoneyz: 76G (0.7%, 1,198,444G)

brown bets:
sukotsuto: 3,000G (66.3%, 30,874G)
NIghtdew14: 750G (16.6%, 9,408G)
redrhinofever: 272G (6.0%, 3,940G)
Evewho: 200G (4.4%, 12,692G)
GRRR12: 200G (4.4%, 719G)
Ring_Wyrm: 100G (2.2%, 7,379G)
