Final Bets: red - 18 bets for 9,604G (63.9%, x0.57); yellow - 17 bets for 5,430G (36.1%, x1.77)

red bets:
Lydian_C: 1,211G (12.6%, 153,064G)
killth3kid: 1,000G (10.4%, 111,238G)
sukotsuto: 1,000G (10.4%, 27,874G)
Evewho: 1,000G (10.4%, 12,492G)
NIghtdew14: 1,000G (10.4%, 8,658G)
rockmem21: 600G (6.2%, 9,780G)
Nizaha: 524G (5.5%, 11,066G)
GRRR12: 500G (5.2%, 519G)
MagicBottle: 496G (5.2%, 13,701G)
Aldrammech: 404G (4.2%, 404G)
phrossi_v: 360G (3.7%, 3,278G)
BirbBrainsBot: 306G (3.2%, 65,762G)
Shalloween: 300G (3.1%, 62,052G)
redrhinofever: 272G (2.8%, 3,668G)
Nymissa: 200G (2.1%, 1,606G)
SephDarkheart: 181G (1.9%, 181G)
lastly: 150G (1.6%, 37,735G)
fluffskull: 100G (1.0%, 4,649G)

yellow bets:
DeathTaxesAndAnime: 1,208G (22.2%, 1,208G)
Laserman1000: 513G (9.4%, 22,213G)
DLJuggernaut: 500G (9.2%, 2,585G)
twelfthrootoftwo: 500G (9.2%, 6,631G)
getthemoneyz: 434G (8.0%, 1,198,476G)
beowulfrulez: 316G (5.8%, 316G)
ZCKaiser: 300G (5.5%, 6,467G)
superdevon1: 258G (4.8%, 2,587G)
gorgewall: 201G (3.7%, 2,336G)
livvexx: 200G (3.7%, 5,178G)
regios91: 200G (3.7%, 4,171G)
cam_ATS: 200G (3.7%, 32,992G)
winteriscorning: 200G (3.7%, 642G)
Ring_Wyrm: 100G (1.8%, 7,279G)
nifboy: 100G (1.8%, 15,341G)
Grandlanzer: 100G (1.8%, 57,827G)
IDruggedShamu: 100G (1.8%, 1,042G)
