Final Bets: black - 25 bets for 17,469G (76.4%, x0.31); brown - 7 bets for 5,402G (23.6%, x3.23)

black bets:
docmitchphd: 2,609G (14.9%, 2,609G)
Rytor: 1,600G (9.2%, 1,600G)
Nickyfive: 1,500G (8.6%, 3,283G)
Error72: 1,333G (7.6%, 2,614G)
helpimabug: 1,232G (7.1%, 1,232G)
RaIshtar: 1,000G (5.7%, 25,006G)
BirbBrainsBot: 1,000G (5.7%, 146,513G)
benticore: 976G (5.6%, 19,531G)
fenaen: 830G (4.8%, 830G)
killth3kid: 700G (4.0%, 105,749G)
DavenIII: 545G (3.1%, 1,091G)
maakur_: 544G (3.1%, 544G)
randgridr: 500G (2.9%, 17,559G)
Aldrammech: 448G (2.6%, 448G)
gabrieldusk: 401G (2.3%, 401G)
furrytomahawkk: 348G (2.0%, 348G)
ArashiKurobara: 328G (1.9%, 5,094G)
joewcarson: 300G (1.7%, 34,951G)
Othatmattkid: 250G (1.4%, 1,656G)
BlueAbs: 208G (1.2%, 208G)
gorgewall: 201G (1.2%, 2,565G)
nsm013: 200G (1.1%, 15,003G)
datadrivenbot: 200G (1.1%, 60,106G)
Xoomwaffle: 116G (0.7%, 116G)
Grandlanzer: 100G (0.6%, 75,541G)

brown bets:
Shalloween: 1,600G (29.6%, 40,546G)
Cryptopsy70: 1,457G (27.0%, 48,576G)
TheChainNerd: 1,000G (18.5%, 24,233G)
E_Ballard: 765G (14.2%, 765G)
CapnChaos12: 300G (5.6%, 6,205G)
Mysteriousdewd: 200G (3.7%, 6,799G)
getthemoneyz: 80G (1.5%, 1,273,118G)
