Final Bets: white - 10 bets for 7,881G (42.6%, x1.35); brown - 18 bets for 10,638G (57.4%, x0.74)

white bets:
TheMurkGnome: 3,000G (38.1%, 33,552G)
NicoSavoy: 2,034G (25.8%, 50,868G)
DeathTaxesAndAnime: 1,127G (14.3%, 1,127G)
randgridr: 600G (7.6%, 7,732G)
AllInBot: 588G (7.5%, 588G)
getthemoneyz: 210G (2.7%, 1,559,463G)
nifboy: 100G (1.3%, 5,488G)
Firesheath: 100G (1.3%, 22,076G)
Laserman1000: 100G (1.3%, 1,244G)
Rook512: 22G (0.3%, 450G)

brown bets:
SkylerBunny: 2,500G (23.5%, 231,959G)
reinoe: 2,000G (18.8%, 171,532G)
superdevon1: 1,007G (9.5%, 50,381G)
BirbBrainsBot: 1,000G (9.4%, 135,618G)
silverChangeling: 684G (6.4%, 1,342G)
Mesmaster: 668G (6.3%, 668G)
Draconis345: 500G (4.7%, 6,910G)
zenlion: 500G (4.7%, 4,774G)
Drusiform: 300G (2.8%, 1,908G)
itskage: 276G (2.6%, 2,767G)
silentperogy: 200G (1.9%, 29,776G)
Amorial: 200G (1.9%, 2,311G)
datadrivenbot: 200G (1.9%, 48,813G)
latebit: 180G (1.7%, 4,940G)
Skjodo: 118G (1.1%, 118G)
MonchoStrife: 104G (1.0%, 104G)
gorgewall: 101G (0.9%, 5,351G)
MinBetBot: 100G (0.9%, 16,437G)
