Final Bets: green - 13 bets for 6,553G (32.5%, x2.08); black - 7 bets for 13,638G (67.5%, x0.48)

green bets:
toka222: 1,250G (19.1%, 247,111G)
latebit: 1,100G (16.8%, 10,529G)
killth3kid: 1,037G (15.8%, 1,037G)
E_Ballard: 748G (11.4%, 55,697G)
WhiteTigress: 500G (7.6%, 20,879G)
NIghtdew14: 388G (5.9%, 388G)
Absalom_20: 350G (5.3%, 6,253G)
JonnyCue: 300G (4.6%, 300G)
Raixelol: 250G (3.8%, 7,764G)
datadrivenbot: 200G (3.1%, 63,924G)
nok____: 198G (3.0%, 4,098G)
AllInBot: 132G (2.0%, 132G)
ravingsockmonkey: 100G (1.5%, 5,984G)

black bets:
DavenIII: 10,000G (73.3%, 101,828G)
kliffw: 1,000G (7.3%, 19,045G)
BirbBrainsBot: 1,000G (7.3%, 36,361G)
getthemoneyz: 664G (4.9%, 1,737,134G)
roofiepops: 474G (3.5%, 3,626G)
lord_merlin_11: 300G (2.2%, 2,230G)
captainmilestw: 200G (1.5%, 1,114G)
