Final Bets: black - 24 bets for 10,876G (50.5%, x0.98); purple - 14 bets for 10,648G (49.5%, x1.02)

black bets:
Fenrislfr: 1,959G (18.0%, 19,595G)
Aldrammech: 1,000G (9.2%, 50,735G)
Pie108: 1,000G (9.2%, 41,124G)
SkylerBunny: 1,000G (9.2%, 60,955G)
MirtaiAtana: 939G (8.6%, 1,879G)
elkydeluxe: 800G (7.4%, 14,749G)
Breakdown777: 500G (4.6%, 31,442G)
rico_flex: 500G (4.6%, 19,769G)
TheMM42: 500G (4.6%, 17,535G)
madming25: 400G (3.7%, 1,981G)
Cryptopsy70: 364G (3.3%, 18,589G)
TheGuesty: 300G (2.8%, 15,700G)
Lavatis: 300G (2.8%, 9,342G)
SeniorBunk: 200G (1.8%, 5,821G)
SwaffleWaffles: 159G (1.5%, 15,996G)
nifboy: 152G (1.4%, 3,046G)
Irondynamics: 150G (1.4%, 2,488G)
ungabunga_bot: 103G (0.9%, 182,230G)
Tougou: 100G (0.9%, 42,593G)
FriendSquirrel: 100G (0.9%, 20,880G)
ko2q: 100G (0.9%, 32,407G)
RunicMagus: 100G (0.9%, 41,578G)
datadrivenbot: 100G (0.9%, 213G)
LordMaxoss: 50G (0.5%, 705G)

purple bets:
leakimiko: 3,452G (32.4%, 23,016G)
VySaika: 2,000G (18.8%, 17,504G)
Baron_von_Scrub: 1,111G (10.4%, 106,122G)
HASTERIOUS: 781G (7.3%, 15,635G)
BirbBrainsBot: 743G (7.0%, 743G)
Laserman1000: 600G (5.6%, 24,900G)
gooseyourself: 500G (4.7%, 9,011G)
ZephyrTempest: 369G (3.5%, 156,949G)
Eficent: 300G (2.8%, 300G)
KasugaiRoastedPeas: 200G (1.9%, 32,544G)
flowinprose: 200G (1.9%, 68,051G)
mastershango: 150G (1.4%, 2,486G)
getthemoneyz: 142G (1.3%, 515,835G)
timthehoodie: 100G (0.9%, 6,327G)
