Final Bets: black - 11 bets for 6,926G (39.2%, x1.55); champion - 12 bets for 10,744G (60.8%, x0.64)

black bets:
DeathTaxesAndAnime: 4,770G (68.9%, 9,353G)
douchetron: 597G (8.6%, 1,172G)
BirbBrainsBot: 538G (7.8%, 98,887G)
Axciom: 309G (4.5%, 309G)
datadrivenbot: 200G (2.9%, 43,509G)
TimeJannies: 161G (2.3%, 773G)
Firesheath: 100G (1.4%, 5,080G)
CT_5_Holy: 100G (1.4%, 1,929G)
AuraMoom: 100G (1.4%, 343G)
dtrain332: 46G (0.7%, 4,653G)
Hasterious: 5G (0.1%, 500G)

champion bets:
SkylerBunny: 3,000G (27.9%, 84,698G)
AllInBot: 2,838G (26.4%, 2,838G)
Chambs12: 1,628G (15.2%, 3,257G)
silverChangeling: 1,000G (9.3%, 3,981G)
superdevon1: 607G (5.6%, 30,361G)
getthemoneyz: 510G (4.7%, 1,460,584G)
pandasforsale: 436G (4.1%, 436G)
blorpy_: 284G (2.6%, 3,553G)
holdenmagronik: 120G (1.1%, 2,806G)
gooblz: 120G (1.1%, 412G)
gorgewall: 101G (0.9%, 17,338G)
EmmaEnema: 100G (0.9%, 943G)
