Final Bets: green - 6 bets for 19,446G (74.5%, x0.34); yellow - 16 bets for 6,666G (25.5%, x2.92)

green bets:
OneHundredFists: 10,981G (56.5%, 21,532G)
Vivithegr8: 4,531G (23.3%, 8,239G)
Firesheath: 1,535G (7.9%, 1,535G)
Chuckolator: 1,179G (6.1%, 29,269G)
Creggers: 1,000G (5.1%, 20,828G)
Ruvelia_BibeI: 220G (1.1%, 220G)

yellow bets:
BirbBrainsBot: 1,000G (15.0%, 118,975G)
DuraiPapers: 1,000G (15.0%, 24,328G)
getthemoneyz: 910G (13.7%, 1,007,986G)
prince_rogers_nelson_: 600G (9.0%, 600G)
Evewho: 500G (7.5%, 2,729G)
HaateXIII: 500G (7.5%, 8,805G)
itsadud: 500G (7.5%, 12,845G)
HaychDub: 400G (6.0%, 2,293G)
LAGBOT30000: 300G (4.5%, 3,831G)
CITOtheMOSQUITO: 250G (3.8%, 3,125G)
SuzakuReii: 236G (3.5%, 236G)
Lydian_C: 120G (1.8%, 174,478G)
datadrivenbot: 100G (1.5%, 48,244G)
BlackfyreRoy: 100G (1.5%, 3,314G)
a_mo22: 100G (1.5%, 4,335G)
cougboi: 50G (0.8%, 11,171G)
