Final Bets: white - 16 bets for 11,445G (67.1%, x0.49); brown - 6 bets for 5,610G (32.9%, x2.04)

white bets:
Lydian_C: 2,400G (21.0%, 169,388G)
sinnyil2: 2,364G (20.7%, 2,364G)
Arcblazer23: 1,371G (12.0%, 1,371G)
CITOtheMOSQUITO: 1,000G (8.7%, 4,027G)
Creggers: 1,000G (8.7%, 14,202G)
Evewho: 1,000G (8.7%, 4,144G)
nekojin: 500G (4.4%, 3,828G)
HaychDub: 350G (3.1%, 2,905G)
CT_5_Holy: 328G (2.9%, 328G)
WitchHunterIX: 312G (2.7%, 312G)
Ruvelia_BibeI: 220G (1.9%, 220G)
Magicandy: 200G (1.7%, 6,618G)
Firesheath: 100G (0.9%, 2,678G)
BlackfyreRoy: 100G (0.9%, 3,506G)
datadrivenbot: 100G (0.9%, 48,373G)
PotionDweller: 100G (0.9%, 1,213G)

brown bets:
reinoe: 2,000G (35.7%, 42,011G)
prince_rogers_nelson_: 1,668G (29.7%, 1,668G)
Chuckolator: 659G (11.7%, 28,005G)
getthemoneyz: 622G (11.1%, 1,012,631G)
BirbBrainsBot: 561G (10.0%, 123,238G)
Klednar21: 100G (1.8%, 262G)
