Final Bets: red - 11 bets for 5,702G (48.9%, x1.05); white - 11 bets for 5,966G (51.1%, x0.96)

red bets:
Aldrammech: 1,000G (17.5%, 84,129G)
BirbBrainsBot: 1,000G (17.5%, 75,979G)
JonnyCue: 1,000G (17.5%, 32,015G)
CT_5_Holy: 772G (13.5%, 772G)
aStatue: 600G (10.5%, 600G)
HaateXIII: 500G (8.8%, 69,707G)
Chuckolator: 304G (5.3%, 23,391G)
astrozin11: 250G (4.4%, 3,044G)
Reductions: 116G (2.0%, 116G)
Firesheath: 100G (1.8%, 10,550G)
getthemoneyz: 60G (1.1%, 600,415G)

white bets:
volgrathemoose: 1,001G (16.8%, 11,788G)
RunicMagus: 1,000G (16.8%, 52,527G)
Mtueni: 1,000G (16.8%, 268,337G)
ungabunga_bot: 981G (16.4%, 277,435G)
Laserman1000: 700G (11.7%, 55,500G)
roofiepops: 444G (7.4%, 7,156G)
DrAntiSocial: 420G (7.0%, 19,993G)
ThePineappleSalesman: 200G (3.4%, 18,979G)
nifboy: 100G (1.7%, 5,479G)
datadrivenbot: 100G (1.7%, 5,239G)
duskps: 20G (0.3%, 399G)
