Final Bets: white - 10 bets for 4,531G (46.1%, x1.17); purple - 11 bets for 5,301G (53.9%, x0.85)

white bets:
Alness49: 1,607G (35.5%, 6,431G)
helpimabug: 963G (21.3%, 1,926G)
BirbBrainsBot: 602G (13.3%, 65,254G)
Digitalsocrates: 356G (7.9%, 356G)
KyleWonToLiveForever: 348G (7.7%, 348G)
Shalloween: 200G (4.4%, 59,734G)
getthemoneyz: 134G (3.0%, 1,197,443G)
Lydian_C: 121G (2.7%, 152,027G)
nhammen: 100G (2.2%, 13,696G)
RageImmortaI: 100G (2.2%, 3,041G)

purple bets:
ArashiKurobara: 1,000G (18.9%, 10,921G)
Breakdown777: 774G (14.6%, 1,549G)
Mesmaster: 580G (10.9%, 580G)
DamnThatShark: 500G (9.4%, 1,406G)
Evewho: 500G (9.4%, 14,329G)
Firesheath: 420G (7.9%, 420G)
ShintaroNayaka: 400G (7.5%, 4,765G)
Hattoriisan: 368G (6.9%, 368G)
superdevon1: 358G (6.8%, 3,580G)
gorgewall: 201G (3.8%, 4,201G)
datadrivenbot: 200G (3.8%, 55,680G)
