Final Bets: blue - 11 bets for 13,847G (67.8%, x0.47); yellow - 9 bets for 6,575G (32.2%, x2.11)

blue bets:
NovaKnight21: 6,334G (45.7%, 12,668G)
CorpusCav: 2,500G (18.1%, 35,524G)
CassiePhoenix: 2,402G (17.3%, 2,402G)
rechaun: 1,000G (7.2%, 4,386G)
ShintaroNayaka: 544G (3.9%, 544G)
gorgewall: 301G (2.2%, 6,524G)
Klednar21: 300G (2.2%, 600G)
ar_tactic: 200G (1.4%, 56,741G)
getthemoneyz: 108G (0.8%, 798,525G)
datadrivenbot: 100G (0.7%, 31,723G)
HASTERIOUS: 58G (0.4%, 1,165G)

yellow bets:
Jeeboheebo: 1,000G (15.2%, 17,901G)
twelfthrootoftwo: 1,000G (15.2%, 18,393G)
BirbBrainsBot: 1,000G (15.2%, 180,204G)
UmaiJam: 1,000G (15.2%, 17,848G)
gogofromtogo: 947G (14.4%, 947G)
Ring_Wyrm: 790G (12.0%, 790G)
Rislyeu: 400G (6.1%, 13,805G)
CT_5_Holy: 284G (4.3%, 284G)
DISTROlD: 154G (2.3%, 154G)
