Final Bets: green - 11 bets for 5,361G (39.0%, x1.56); yellow - 16 bets for 8,379G (61.0%, x0.64)

green bets:
CorpusCav: 1,001G (18.7%, 28,705G)
CosmicTactician: 1,000G (18.7%, 37,994G)
BirbBrainsBot: 1,000G (18.7%, 121,520G)
Mudrockk: 750G (14.0%, 24,102G)
krombobreaker: 500G (9.3%, 20,744G)
TurtleFactz: 300G (5.6%, 3,377G)
ExplanationMarkWow: 243G (4.5%, 18,243G)
AllInBot: 200G (3.7%, 200G)
getthemoneyz: 166G (3.1%, 2,125,188G)
gorgewall: 101G (1.9%, 12,444G)
Sharosa: 100G (1.9%, 1,834G)

yellow bets:
NicoSavoy: 2,011G (24.0%, 2,011G)
thunderducker: 1,333G (15.9%, 3,541G)
Shalloween: 1,210G (14.4%, 1,210G)
TrogdorTheMemeinator: 800G (9.5%, 800G)
RikiNom: 500G (6.0%, 926G)
nok____: 500G (6.0%, 16,314G)
3ngag3: 424G (5.1%, 8,801G)
lotharek: 300G (3.6%, 6,542G)
ValensEXP_: 250G (3.0%, 3,887G)
TheBrett: 240G (2.9%, 6,790G)
VynxYukida: 200G (2.4%, 1,996G)
Reddash9: 200G (2.4%, 854G)
LuckyLuckLuc2: 111G (1.3%, 6,988G)
Evewho: 100G (1.2%, 3,854G)
EmperorBeef: 100G (1.2%, 184,744G)
DuPlatypus: 100G (1.2%, 892G)
