Final Bets: purple - 9 bets for 3,068G (19.9%, x4.02); brown - 11 bets for 12,345G (80.1%, x0.25)

purple bets:
ColetteMSLP: 1,000G (32.6%, 32,142G)
killth3kid: 568G (18.5%, 7,589G)
douchetron: 428G (14.0%, 428G)
kahjeethaswares: 244G (8.0%, 244G)
rednecknazgul: 228G (7.4%, 228G)
datadrivenbot: 200G (6.5%, 46,836G)
TheseJeans: 200G (6.5%, 1,392G)
ANFz: 100G (3.3%, 59,734G)
nifboy: 100G (3.3%, 1,359G)

brown bets:
Mesmaster: 5,000G (40.5%, 29,806G)
gorgewall: 2,212G (17.9%, 2,212G)
NicoSavoy: 2,000G (16.2%, 341,600G)
BirbBrainsBot: 1,000G (8.1%, 53,452G)
AllInBot: 710G (5.8%, 710G)
coralreeferz: 425G (3.4%, 1,829G)
dogsandcatsand: 404G (3.3%, 404G)
Chambs12: 244G (2.0%, 1,880G)
TasisSai: 200G (1.6%, 12,303G)
Firesheath: 100G (0.8%, 6,774G)
getthemoneyz: 50G (0.4%, 1,447,955G)
