Final Bets: red - 17 bets for 11,035G (53.3%, x0.88); blue - 17 bets for 9,672G (46.7%, x1.14)

red bets:
nhammen: 2,000G (18.1%, 417,242G)
holdenmagronik: 1,955G (17.7%, 1,955G)
EnemyController: 1,111G (10.1%, 1,721,444G)
bruubarg: 1,000G (9.1%, 22,114G)
BirbBrainsBot: 1,000G (9.1%, 132,326G)
nekojin: 690G (6.3%, 690G)
SkylerBunny: 656G (5.9%, 656G)
dogsandcatsand: 576G (5.2%, 576G)
krombobreaker: 500G (4.5%, 8,917G)
Dasutin23: 460G (4.2%, 12,517G)
pplvee1: 300G (2.7%, 300G)
RobotOcelot: 260G (2.4%, 260G)
resjudicata3: 200G (1.8%, 31,710G)
CosmicTactician: 200G (1.8%, 31,082G)
getthemoneyz: 112G (1.0%, 1,875,642G)
BartTradingCompany: 10G (0.1%, 100G)
moonliquor: 5G (0.0%, 54,621G)

blue bets:
Sietaha: 4,176G (43.2%, 8,353G)
AllInBot: 926G (9.6%, 926G)
MrUbiq: 600G (6.2%, 8,997G)
Raixelol: 560G (5.8%, 26,643G)
SeniorBunk: 504G (5.2%, 504G)
old_overholt_: 400G (4.1%, 14,693G)
SephDarkheart: 380G (3.9%, 1,878G)
thunderducker: 300G (3.1%, 6,788G)
bigbongsmoker: 288G (3.0%, 1,231G)
ValensEXP_: 232G (2.4%, 1,365G)
akash7: 216G (2.2%, 216G)
datadrivenbot: 200G (2.1%, 58,996G)
khelor_: 200G (2.1%, 3,920G)
Bryon_W: 200G (2.1%, 1,557G)
macradarkstar: 200G (2.1%, 3,175G)
heyBtw: 190G (2.0%, 953G)
Thyrandaal: 100G (1.0%, 4,843G)
