Final Bets: white - 11 bets for 7,885G (59.4%, x0.68); champion - 10 bets for 5,385G (40.6%, x1.46)

white bets:
SkyridgeZero: 1,500G (19.0%, 40,630G)
NicoSavoy: 1,000G (12.7%, 93,940G)
DaveStrider55: 1,000G (12.7%, 3,399G)
bruubarg: 980G (12.4%, 2,980G)
hotpocketsofficial: 975G (12.4%, 975G)
Rune339: 934G (11.8%, 3,737G)
AltimaMantoid: 580G (7.4%, 7,180G)
rocl: 416G (5.3%, 689G)
ColetteMSLP: 300G (3.8%, 484G)
MemoriesofFinal: 100G (1.3%, 16,959G)
gingerfoo69: 100G (1.3%, 1,461G)

champion bets:
Mesmaster: 2,000G (37.1%, 204,264G)
DeathTaxesAndAnime: 1,001G (18.6%, 87,014G)
BirbBrainsBot: 1,000G (18.6%, 167,970G)
getthemoneyz: 500G (9.3%, 1,947,859G)
datadrivenbot: 200G (3.7%, 60,200G)
Leonidusx: 200G (3.7%, 34,827G)
khelor_: 184G (3.4%, 184G)
AllInBot: 100G (1.9%, 100G)
BartTradingCompany: 100G (1.9%, 9,713G)
lijarkh: 100G (1.9%, 1,269G)
