Final Bets: green - 12 bets for 5,381G (16.2%, x5.18); yellow - 14 bets for 27,860G (83.8%, x0.19)

green bets:
eudes89: 1,310G (24.3%, 1,310G)
DavenIII: 1,100G (20.4%, 1,100G)
serperemagus: 864G (16.1%, 864G)
TheChainNerd: 700G (13.0%, 700G)
getthemoneyz: 256G (4.8%, 932,349G)
RunicMagus: 250G (4.6%, 49,241G)
gorgewall: 201G (3.7%, 17,758G)
Anasetsuken: 200G (3.7%, 8,719G)
brokenknight201: 200G (3.7%, 3,091G)
actual_JP: 100G (1.9%, 5,325G)
datadrivenbot: 100G (1.9%, 36,613G)
E_Ballard: 100G (1.9%, 6,553G)

yellow bets:
AllInBot: 12,171G (43.7%, 12,171G)
shannahan45: 6,610G (23.7%, 6,610G)
Mesmaster: 2,000G (7.2%, 76,453G)
BoneMiser: 1,779G (6.4%, 1,779G)
prince_rogers_nelson_: 1,000G (3.6%, 23,482G)
BirbBrainsBot: 1,000G (3.6%, 161,899G)
JumbocactuarX27: 1,000G (3.6%, 2,301G)
Oobs56: 1,000G (3.6%, 4,185G)
joewcarson: 400G (1.4%, 25,689G)
ShintaroNayaka: 400G (1.4%, 10,735G)
tom392: 200G (0.7%, 954G)
lastly: 100G (0.4%, 21,409G)
Bongomon7: 100G (0.4%, 7,553G)
velvetnightmarex: 100G (0.4%, 1,686G)
