Final Bets: black - 5 bets for 33,191G (47.5%, x1.10); brown - 33 bets for 36,674G (52.5%, x0.91)

black bets:
AllInBot: 32,314G (97.4%, 32,314G)
NovaKnight21: 529G (1.6%, 529G)
deepsynch: 148G (0.4%, 148G)
Bongomon7: 100G (0.3%, 8,666G)
Saouri: 100G (0.3%, 2,593G)

brown bets:
pplvee1: 7,500G (20.5%, 24,143G)
prince_rogers_nelson_: 5,000G (13.6%, 22,979G)
ExecutedGiraffe: 4,000G (10.9%, 5,751G)
LDSkinny: 2,000G (5.5%, 4,685G)
shannahan45: 2,000G (5.5%, 8,870G)
eudes89: 1,159G (3.2%, 1,159G)
run_with_stone_GUNs: 1,000G (2.7%, 16,522G)
CosmicTactician: 1,000G (2.7%, 27,961G)
RunicMagus: 1,000G (2.7%, 49,535G)
Mesmaster: 1,000G (2.7%, 76,142G)
BirbBrainsBot: 1,000G (2.7%, 160,591G)
actual_JP: 1,000G (2.7%, 4,625G)
twelfthrootoftwo: 1,000G (2.7%, 2,908G)
JumbocactuarX27: 1,000G (2.7%, 3,937G)
ShintaroNayaka: 1,000G (2.7%, 11,532G)
TheChainNerd: 700G (1.9%, 700G)
DavenIII: 600G (1.6%, 600G)
getthemoneyz: 564G (1.5%, 931,175G)
BoneMiser: 500G (1.4%, 500G)
joewcarson: 500G (1.4%, 26,644G)
d4rr1n: 500G (1.4%, 5,373G)
TeaTime29: 500G (1.4%, 9,133G)
just_here2: 422G (1.2%, 1,689G)
tom392: 300G (0.8%, 493G)
brokenknight201: 300G (0.8%, 3,191G)
VagabondAzulien: 229G (0.6%, 229G)
Anasetsuken: 200G (0.5%, 8,569G)
reddwind_: 200G (0.5%, 2,168G)
velvetnightmarex: 100G (0.3%, 1,905G)
serperemagus: 100G (0.3%, 969G)
E_Ballard: 100G (0.3%, 6,403G)
datadrivenbot: 100G (0.3%, 36,325G)
SuppleThink: 100G (0.3%, 1,189G)
