Final Bets: purple - 20 bets for 16,466G (57.7%, x0.73); champion - 13 bets for 12,081G (42.3%, x1.36)

purple bets:
maddrave09: 3,776G (22.9%, 26,776G)
Nickyfive: 2,000G (12.1%, 22,052G)
upvla: 1,219G (7.4%, 8,955G)
killth3kid: 1,000G (6.1%, 86,329G)
Forkmore: 1,000G (6.1%, 3,066G)
BirbBrainsBot: 1,000G (6.1%, 45,926G)
Draconis345: 1,000G (6.1%, 68,299G)
Cryptopsy70: 868G (5.3%, 28,939G)
Evewho: 736G (4.5%, 736G)
Laserman1000: 667G (4.1%, 26,267G)
DLJuggernaut: 500G (3.0%, 6,040G)
RaIshtar: 500G (3.0%, 20,252G)
serperemagus: 494G (3.0%, 494G)
Shalloween: 400G (2.4%, 57,454G)
CapnChaos12: 300G (1.8%, 6,020G)
ColetteMSLP: 300G (1.8%, 4,791G)
benticore: 250G (1.5%, 10,832G)
getthemoneyz: 232G (1.4%, 1,260,314G)
Lydian_C: 123G (0.7%, 121,119G)
gorgewall: 101G (0.6%, 8,631G)

champion bets:
BoneMiser: 4,567G (37.8%, 4,567G)
Zeroroute: 2,785G (23.1%, 2,785G)
reinoe: 796G (6.6%, 796G)
HaateXIII: 700G (5.8%, 700G)
KyleWonToLiveForever: 564G (4.7%, 564G)
VolgraTheMoose: 501G (4.1%, 10,636G)
amiture: 500G (4.1%, 6,421G)
ValtonZenola: 468G (3.9%, 468G)
ACSpree: 400G (3.3%, 1,236G)
arcana31: 300G (2.5%, 867G)
Jeras01: 200G (1.7%, 2,888G)
datadrivenbot: 200G (1.7%, 63,673G)
Aquios_: 100G (0.8%, 275G)
