Final Bets: green - 13 bets for 12,546G (60.7%, x0.65); yellow - 13 bets for 8,124G (39.3%, x1.54)

green bets:
Theseawolf1: 6,561G (52.3%, 13,123G)
dogsandcatsand: 1,981G (15.8%, 1,981G)
Rytor: 1,093G (8.7%, 1,093G)
DeathTaxesAndAnime: 716G (5.7%, 716G)
killth3kid: 428G (3.4%, 1,257G)
RyanTheRebs: 400G (3.2%, 3,269G)
Treafa: 248G (2.0%, 3,715G)
RedRiderAyame: 230G (1.8%, 6,010G)
AllInBot: 200G (1.6%, 200G)
datadrivenbot: 200G (1.6%, 32,963G)
boosted420: 200G (1.6%, 958G)
roqqqpsi: 189G (1.5%, 18,904G)
DouglasDragonThePoet: 100G (0.8%, 409G)

yellow bets:
HaateXIII: 2,280G (28.1%, 2,280G)
Error72: 1,075G (13.2%, 1,075G)
BirbBrainsBot: 1,000G (12.3%, 25,921G)
SkylerBunny: 1,000G (12.3%, 50,290G)
getthemoneyz: 1,000G (12.3%, 1,304,060G)
Thyrandaal: 600G (7.4%, 600G)
ValtonZenola: 484G (6.0%, 484G)
RunicMagus: 200G (2.5%, 2,187G)
TasisSai: 185G (2.3%, 364G)
nhammen: 100G (1.2%, 9,155G)
Vultuous: 100G (1.2%, 5,804G)
Legionx13: 50G (0.6%, 719G)
lyonslegacy: 50G (0.6%, 200G)
