Final Bets: purple - 11 bets for 13,533G (48.1%, x1.08); brown - 16 bets for 14,609G (51.9%, x0.93)

purple bets:
nhammen: 4,605G (34.0%, 9,209G)
Thyrandaal: 3,079G (22.8%, 3,079G)
Error72: 1,341G (9.9%, 1,341G)
SkylerBunny: 1,200G (8.9%, 53,862G)
BirbBrainsBot: 1,000G (7.4%, 26,465G)
DeathTaxesAndAnime: 720G (5.3%, 720G)
Nizaha: 552G (4.1%, 16,684G)
benticore: 500G (3.7%, 18,896G)
getthemoneyz: 286G (2.1%, 1,306,001G)
boosted420: 200G (1.5%, 758G)
lyonslegacy: 50G (0.4%, 305G)

brown bets:
sinnyil2: 5,177G (35.4%, 10,354G)
roqqqpsi: 4,117G (28.2%, 18,715G)
VolgraTheMoose: 1,005G (6.9%, 9,458G)
HaateXIII: 776G (5.3%, 776G)
Rytor: 749G (5.1%, 749G)
Oreo_Pizza: 500G (3.4%, 32,152G)
AllInBot: 403G (2.8%, 403G)
CapnChaos12: 300G (2.1%, 6,676G)
furrytomahawkk: 300G (2.1%, 4,550G)
Lemonjohns: 272G (1.9%, 272G)
DouglasDragonThePoet: 209G (1.4%, 209G)
gorgewall: 201G (1.4%, 10,102G)
RunicMagus: 200G (1.4%, 2,296G)
datadrivenbot: 200G (1.4%, 32,563G)
Vultuous: 100G (0.7%, 5,858G)
Chompie: 100G (0.7%, 9,580G)
