Final Bets: yellow - 13 bets for 6,878G (14.0%, x6.14); champion - 30 bets for 42,235G (86.0%, x0.16)

yellow bets:
TheChainNerd: 1,917G (27.9%, 2,917G)
Sairentozon7: 1,000G (14.5%, 11,227G)
dogsandcatsand: 983G (14.3%, 983G)
DeathTaxesAndAnime: 720G (10.5%, 720G)
Zeroroute: 500G (7.3%, 500G)
killth3kid: 428G (6.2%, 3,036G)
randgridr: 384G (5.6%, 3,256G)
ZCKaiser: 270G (3.9%, 14,640G)
Treafa: 248G (3.6%, 3,068G)
getthemoneyz: 178G (2.6%, 1,307,516G)
Vultuous: 100G (1.5%, 5,799G)
nifboy: 100G (1.5%, 10,561G)
Othatmattkid: 50G (0.7%, 1,238G)

champion bets:
Oreo_Pizza: 15,808G (37.4%, 15,808G)
bahamutlagooon: 5,000G (11.8%, 14,509G)
sinnyil2: 4,690G (11.1%, 9,380G)
butterbelljedi: 1,752G (4.1%, 1,752G)
NIghtdew14: 1,506G (3.6%, 6,024G)
roqqqpsi: 1,386G (3.3%, 12,607G)
roofiepops: 1,225G (2.9%, 3,927G)
Lemonjohns: 1,049G (2.5%, 1,049G)
VolgraTheMoose: 1,001G (2.4%, 7,083G)
BirbBrainsBot: 1,000G (2.4%, 30,945G)
Creggers: 1,000G (2.4%, 45,541G)
HaateXIII: 776G (1.8%, 776G)
TasisSai: 667G (1.6%, 667G)
LanseDM: 600G (1.4%, 600G)
lyonslegacy: 598G (1.4%, 598G)
Nizaha: 552G (1.3%, 19,157G)
furrytomahawkk: 500G (1.2%, 6,018G)
Legionx13: 400G (0.9%, 1,537G)
ShintaroNayaka: 400G (0.9%, 11,632G)
Error72: 324G (0.8%, 324G)
CapnChaos12: 300G (0.7%, 9,198G)
dem0nj0ns: 300G (0.7%, 4,215G)
gorgewall: 201G (0.5%, 9,685G)
AllInBot: 200G (0.5%, 200G)
dtrain332: 200G (0.5%, 244G)
datadrivenbot: 200G (0.5%, 32,782G)
DeiNomine: 200G (0.5%, 200G)
Evewho: 200G (0.5%, 3,377G)
lastly: 100G (0.2%, 31,366G)
Miku_Shikhu: 100G (0.2%, 18,151G)
