Final Bets: white - 9 bets for 5,360G (4.3%, x22.43); champion - 21 bets for 120,213G (95.7%, x0.04)

white bets:
Belkra: 1,000G (18.7%, 14,085G)
ColetteMSLP: 1,000G (18.7%, 38,716G)
InOzWeTrust: 1,000G (18.7%, 13,030G)
prince_rogers_nelson_: 636G (11.9%, 636G)
Aldrammech: 528G (9.9%, 528G)
benticore: 500G (9.3%, 45,093G)
ThreeMileIsland: 250G (4.7%, 10,357G)
mrpickins: 232G (4.3%, 4,755G)
getthemoneyz: 214G (4.0%, 1,427,576G)

champion bets:
NicoSavoy: 99,454G (82.7%, 284,155G)
E_Ballard: 6,375G (5.3%, 6,375G)
sinnyil2: 4,211G (3.5%, 8,423G)
grininda: 2,000G (1.7%, 15,866G)
Chambs12: 1,698G (1.4%, 3,396G)
BirbBrainsBot: 1,000G (0.8%, 194,573G)
iBardic: 771G (0.6%, 771G)
twelfthrootoftwo: 688G (0.6%, 688G)
AllInBot: 649G (0.5%, 649G)
HaateXIII: 608G (0.5%, 608G)
ribbiks: 500G (0.4%, 8,841G)
Kronikle: 464G (0.4%, 4,134G)
douchetron: 384G (0.3%, 384G)
Hirameki85: 256G (0.2%, 12,750G)
Treafa: 250G (0.2%, 1,328G)
poGpopE: 224G (0.2%, 224G)
gorgewall: 201G (0.2%, 7,264G)
datadrivenbot: 200G (0.2%, 44,114G)
slotheye17: 132G (0.1%, 132G)
Firesheath: 100G (0.1%, 8,469G)
Hasterious: 48G (0.0%, 4,875G)
