Final Bets: red - 14 bets for 6,389G (46.4%, x1.16); green - 10 bets for 7,383G (53.6%, x0.87)

red bets:
BirbBrainsBot: 1,000G (15.7%, 169,685G)
UmaiJam: 1,000G (15.7%, 18,724G)
BoneMiser: 765G (12.0%, 765G)
E_Ballard: 636G (10.0%, 636G)
NovaKnight21: 540G (8.5%, 540G)
CosmicTactician: 500G (7.8%, 20,544G)
getthemoneyz: 438G (6.9%, 1,036,332G)
dogsandcatsand: 412G (6.4%, 412G)
Phytik: 348G (5.4%, 348G)
powergems: 250G (3.9%, 21,960G)
docmitchphd: 200G (3.1%, 497G)
RunicMagus: 100G (1.6%, 56,106G)
maakur_: 100G (1.6%, 75,322G)
datadrivenbot: 100G (1.6%, 48,925G)

green bets:
DavenIII: 2,500G (33.9%, 17,169G)
loveyouallfriends: 1,342G (18.2%, 1,342G)
Baron_von_Scrub: 1,111G (15.0%, 25,742G)
ShintaroNayaka: 977G (13.2%, 9,771G)
Chronolynx42: 500G (6.8%, 51,256G)
joewcarson: 332G (4.5%, 332G)
TheChainNerd: 271G (3.7%, 2,783G)
ar_tactic: 150G (2.0%, 53,791G)
Kellios11: 100G (1.4%, 56,106G)
TheBigSalarius: 100G (1.4%, 100G)
