Final Bets: green - 11 bets for 8,097G (55.6%, x0.80); black - 9 bets for 6,464G (44.4%, x1.25)

green bets:
Thyrandaal: 3,000G (37.1%, 5,903G)
Evewho: 1,072G (13.2%, 2,103G)
killth3kid: 1,000G (12.4%, 107,562G)
BirbBrainsBot: 1,000G (12.4%, 120,833G)
byrdturbo: 555G (6.9%, 16,034G)
MagicBottle: 508G (6.3%, 16,039G)
getthemoneyz: 446G (5.5%, 1,215,407G)
DaKoopa49: 200G (2.5%, 1,953G)
superdevon1: 116G (1.4%, 3,892G)
Firesheath: 100G (1.2%, 1,977G)
nifboy: 100G (1.2%, 19,927G)

black bets:
DarrenDinosaurs: 2,000G (30.9%, 8,114G)
ValtonZenola: 1,094G (16.9%, 10,948G)
electric_algus: 800G (12.4%, 37,348G)
ThreeMileIsland: 724G (11.2%, 724G)
benticore: 538G (8.3%, 10,771G)
HaateXIII: 500G (7.7%, 3,958G)
hiros13gts: 376G (5.8%, 376G)
cbergs: 232G (3.6%, 232G)
datadrivenbot: 200G (3.1%, 56,036G)
