Final Bets: green - 6 bets for 4,884G (40.9%, x1.44); champion - 15 bets for 7,050G (59.1%, x0.69)

green bets:
Evewho: 1,509G (30.9%, 2,959G)
killth3kid: 1,000G (20.5%, 108,360G)
DaKoopa49: 1,000G (20.5%, 2,113G)
byrdturbo: 555G (11.4%, 16,477G)
MagicBottle: 508G (10.4%, 16,445G)
enkikavlar: 312G (6.4%, 312G)

champion bets:
helpimabug: 1,737G (24.6%, 3,475G)
BirbBrainsBot: 1,000G (14.2%, 121,631G)
Thyrandaal: 1,000G (14.2%, 8,298G)
Gelwain: 600G (8.5%, 8,491G)
Grandlanzer: 500G (7.1%, 61,753G)
klefelix: 500G (7.1%, 1,615G)
redrhinofever: 276G (3.9%, 276G)
Lythe_Caraker: 250G (3.5%, 150,992G)
cbergs: 232G (3.3%, 232G)
ThreeMileIsland: 224G (3.2%, 224G)
getthemoneyz: 204G (2.9%, 1,215,763G)
datadrivenbot: 200G (2.8%, 55,836G)
superdevon1: 119G (1.7%, 3,985G)
hiros13gts: 108G (1.5%, 108G)
Firesheath: 100G (1.4%, 2,057G)
