Final Bets: red - 26 bets for 21,030G (66.1%, x0.51); blue - 19 bets for 10,775G (33.9%, x1.95)

red bets:
EmperorBeef: 5,000G (23.8%, 26,143G)
LAGBOT30000: 2,883G (13.7%, 57,674G)
HASTERIOUS: 2,761G (13.1%, 5,414G)
EnemyController: 2,000G (9.5%, 74,469G)
Arunic: 1,000G (4.8%, 5,971G)
roofiepops: 1,000G (4.8%, 12,927G)
Lord_Burrah: 1,000G (4.8%, 86,782G)
Laserman1000: 851G (4.0%, 34,551G)
ko2q: 580G (2.8%, 580G)
Aldrammech: 500G (2.4%, 14,666G)
MalakoFox: 500G (2.4%, 44,065G)
hales_bopp_it: 500G (2.4%, 5,236G)
Jeeboheebo: 360G (1.7%, 360G)
killth3kid: 300G (1.4%, 10,884G)
Mikumari12: 271G (1.3%, 271G)
WoooBlaaa: 266G (1.3%, 266G)
AllInBot: 224G (1.1%, 224G)
roqqqpsi: 201G (1.0%, 916G)
ungabunga_bot: 133G (0.6%, 217,417G)
Firesheath: 100G (0.5%, 8,100G)
placeholdercats: 100G (0.5%, 2,088G)
readdesert: 100G (0.5%, 3,956G)
twelfthrootoftwo: 100G (0.5%, 7,406G)
datadrivenbot: 100G (0.5%, 853G)
smurphy000000: 100G (0.5%, 233G)
Lythe_Caraker: 100G (0.5%, 108,593G)

blue bets:
kai_shee: 2,000G (18.6%, 135,175G)
Lordminsc: 1,205G (11.2%, 50,800G)
sinnyil2: 1,200G (11.1%, 130,281G)
fenaen: 1,001G (9.3%, 41,062G)
BirbBrainsBot: 1,000G (9.3%, 133,642G)
Pie108: 1,000G (9.3%, 69,569G)
upvla: 567G (5.3%, 21,551G)
OmnibotGamma: 500G (4.6%, 5,128G)
sukotsuto: 500G (4.6%, 1,998G)
waterwatereverywhere: 427G (4.0%, 427G)
Meta_Five: 400G (3.7%, 13,157G)
volgrathemoose: 316G (2.9%, 316G)
lijarkh: 200G (1.9%, 15,303G)
Sans_from_Snowdin: 156G (1.4%, 156G)
Tougou: 100G (0.9%, 8,195G)
portmanteur: 71G (0.7%, 1,779G)
marin1987: 50G (0.5%, 2,197G)
DrAntiSocial: 50G (0.5%, 21,273G)
getthemoneyz: 32G (0.3%, 556,944G)
