Final Bets: black - 18 bets for 9,940G (54.8%, x0.83); brown - 15 bets for 8,203G (45.2%, x1.21)

black bets:
sinnyil2: 1,200G (12.1%, 133,382G)
WoooBlaaa: 1,035G (10.4%, 1,035G)
fenaen: 1,001G (10.1%, 39,542G)
ungabunga_bot: 1,000G (10.1%, 217,027G)
BirbBrainsBot: 1,000G (10.1%, 134,201G)
marin1987: 1,000G (10.1%, 3,086G)
roofiepops: 800G (8.0%, 12,889G)
ko2q: 560G (5.6%, 560G)
Firesheath: 400G (4.0%, 8,229G)
Evewho: 376G (3.8%, 376G)
Lanshaft: 360G (3.6%, 364G)
mirapoix: 308G (3.1%, 308G)
killth3kid: 300G (3.0%, 10,521G)
lijarkh: 200G (2.0%, 15,301G)
AllInBot: 100G (1.0%, 100G)
twelfthrootoftwo: 100G (1.0%, 7,157G)
readdesert: 100G (1.0%, 3,835G)
datadrivenbot: 100G (1.0%, 632G)

brown bets:
LAGBOT30000: 3,065G (37.4%, 61,312G)
Rinhander: 1,347G (16.4%, 1,347G)
Lordminsc: 1,205G (14.7%, 47,800G)
OmnibotGamma: 500G (6.1%, 5,578G)
volgrathemoose: 316G (3.9%, 316G)
MalakoFox: 300G (3.7%, 45,598G)
Lythe_Caraker: 250G (3.0%, 108,764G)
Mikumari12: 212G (2.6%, 212G)
HASTERIOUS: 206G (2.5%, 6,889G)
EnemyController: 200G (2.4%, 76,108G)
roqqqpsi: 174G (2.1%, 795G)
evontno: 150G (1.8%, 3,357G)
Heroebal: 100G (1.2%, 5,381G)
placeholdercats: 100G (1.2%, 2,274G)
getthemoneyz: 78G (1.0%, 556,274G)
