Final Bets: green - 15 bets for 8,795G (62.2%, x0.61); yellow - 10 bets for 5,354G (37.8%, x1.64)

green bets:
toka222: 1,500G (17.1%, 101,688G)
BirbBrainsBot: 1,000G (11.4%, 153,008G)
Sairentozon7: 1,000G (11.4%, 19,231G)
nhammen: 1,000G (11.4%, 23,155G)
Nizaha: 744G (8.5%, 9,817G)
killth3kid: 720G (8.2%, 37,737G)
FriendSquirrel: 651G (7.4%, 651G)
E_Ballard: 608G (6.9%, 5,181G)
Willjin: 500G (5.7%, 17,575G)
Shalloween: 500G (5.7%, 20,465G)
datadrivenbot: 200G (2.3%, 65,735G)
Valgram: 154G (1.8%, 154G)
MinBetBot: 100G (1.1%, 7,244G)
GrayGhostGaming: 100G (1.1%, 39,785G)
getthemoneyz: 18G (0.2%, 1,636,027G)

yellow bets:
Zagorsek: 2,071G (38.7%, 2,071G)
SkylerBunny: 1,003G (18.7%, 1,003G)
dogsandcatsand: 720G (13.4%, 1,413G)
letdowncity: 524G (9.8%, 28,632G)
Tarheels218: 436G (8.1%, 436G)
Aestheta: 200G (3.7%, 1,333G)
AllInBot: 100G (1.9%, 100G)
ko2q: 100G (1.9%, 3,689G)
koeeh: 100G (1.9%, 501G)
itskage: 100G (1.9%, 526G)
