Final Bets: white - 17 bets for 12,520G (65.3%, x0.53); black - 15 bets for 6,647G (34.7%, x1.88)

white bets:
snkey: 2,307G (18.4%, 23,070G)
Zeroroute: 2,208G (17.6%, 7,889G)
Greggernaut: 2,000G (16.0%, 42,585G)
BirbBrainsBot: 1,000G (8.0%, 67,849G)
Dasutin23: 1,000G (8.0%, 16,677G)
Thyrandaal: 1,000G (8.0%, 143,140G)
douchetron: 663G (5.3%, 663G)
Laserman1000: 615G (4.9%, 3,215G)
reinoe: 568G (4.5%, 568G)
krombobreaker: 332G (2.7%, 332G)
ArrenJevleth: 200G (1.6%, 4,495G)
brodeity: 200G (1.6%, 7,635G)
khelor_: 116G (0.9%, 116G)
gorgewall: 101G (0.8%, 3,208G)
AllInBot: 100G (0.8%, 100G)
killth3kid: 100G (0.8%, 22,077G)
nhammen: 10G (0.1%, 419,394G)

black bets:
blorpy_: 1,161G (17.5%, 7,744G)
getthemoneyz: 932G (14.0%, 1,862,595G)
OneHundredFists: 915G (13.8%, 915G)
nifboy: 720G (10.8%, 720G)
minorfffanatic1: 498G (7.5%, 498G)
roofiepops: 474G (7.1%, 2,735G)
DejaPoo21: 452G (6.8%, 452G)
BartTradingCompany: 446G (6.7%, 4,460G)
silentkaster: 250G (3.8%, 2,371G)
ValensEXP_: 204G (3.1%, 204G)
datadrivenbot: 200G (3.0%, 54,944G)
farside00831: 100G (1.5%, 1,002G)
CosmicTactician: 100G (1.5%, 32,087G)
akash7: 100G (1.5%, 100G)
acid_flashback: 95G (1.4%, 2,383G)
