Final Bets: red - 11 bets for 4,834G (23.5%, x3.26); blue - 14 bets for 15,772G (76.5%, x0.31)

red bets:
HaplessOne: 2,000G (41.4%, 75,201G)
AllInBot: 714G (14.8%, 714G)
DustyRelic: 500G (10.3%, 18,003G)
BirbBrainsBot: 433G (9.0%, 178,237G)
getthemoneyz: 310G (6.4%, 501,617G)
ShintaroNayaka: 300G (6.2%, 13,908G)
404namesnotfound: 200G (4.1%, 1,117G)
maakur_: 100G (2.1%, 3,008G)
Tithonus: 100G (2.1%, 11,636G)
nedryerson01: 100G (2.1%, 100G)
daveb_: 77G (1.6%, 2,593G)

blue bets:
reinoe: 5,000G (31.7%, 16,758G)
J2DaBibbles: 2,477G (15.7%, 4,858G)
waterwatereverywhere: 1,600G (10.1%, 3,139G)
deenglow: 1,500G (9.5%, 26,698G)
ColetteMSLP: 1,000G (6.3%, 22,363G)
datadrivenbot: 967G (6.1%, 2,423G)
Lanshaft: 661G (4.2%, 1,322G)
YaBoy125: 600G (3.8%, 600G)
leakimiko: 600G (3.8%, 600G)
Slowbrofist: 378G (2.4%, 378G)
ungabunga_bot: 349G (2.2%, 141,510G)
JumbocactuarX27: 340G (2.2%, 340G)
SaintOmerville: 200G (1.3%, 2,326G)
Boultson1337: 100G (0.6%, 100G)
