Final Bets: green - 17 bets for 11,381G (77.6%, x0.29); yellow - 8 bets for 3,289G (22.4%, x3.46)

green bets:
HaplessOne: 2,000G (17.6%, 73,201G)
jhazor: 1,117G (9.8%, 2,234G)
Mtueni: 1,000G (8.8%, 173,284G)
BirbBrainsBot: 1,000G (8.8%, 177,804G)
ColetteMSLP: 1,000G (8.8%, 22,669G)
reinoe: 1,000G (8.8%, 18,290G)
Lanshaft: 762G (6.7%, 1,525G)
datadrivenbot: 559G (4.9%, 2,719G)
deenglow: 500G (4.4%, 27,158G)
SkyridgeZero: 500G (4.4%, 12,192G)
Slowbrofist: 494G (4.3%, 494G)
ungabunga_bot: 475G (4.2%, 141,617G)
JumbocactuarX27: 444G (3.9%, 444G)
KasugaiRoastedPeas: 200G (1.8%, 4,018G)
Boultson1337: 130G (1.1%, 131G)
maakur_: 100G (0.9%, 2,908G)
nedryerson01: 100G (0.9%, 100G)

yellow bets:
ShintaroNayaka: 1,000G (30.4%, 13,608G)
DustyRelic: 599G (18.2%, 17,503G)
Jeeboheebo: 550G (16.7%, 1,079G)
skysa250: 500G (15.2%, 24,201G)
waterwatereverywhere: 300G (9.1%, 3,629G)
getthemoneyz: 140G (4.3%, 501,307G)
AllInBot: 100G (3.0%, 100G)
Tithonus: 100G (3.0%, 11,536G)
