Final Bets: blue - 6 bets for 1,301G (72.2%, x0.38); yellow - 3 bets for 500G (27.8%, x2.60)

blue bets:
AllInBot: 311G (23.9%, 311G)
BirbBrainsBot: 258G (19.8%, 23,750G)
Chihuahua_Charity: 224G (17.2%, 224G)
Kyton786: 208G (16.0%, 208G)
datadrivenbot: 200G (15.4%, 66,025G)
AStrayCat: 100G (7.7%, 4,046G)

yellow bets:
Cryptopsy70: 328G (65.6%, 328G)
getthemoneyz: 124G (24.8%, 1,735,831G)
FFTBattleground: 48G (9.6%, 500G)
