Final Bets: blue - 5 bets for 1,966G (32.3%, x2.09); champion - 7 bets for 4,116G (67.7%, x0.48)

blue bets:
Seaweed_B: 1,000G (50.9%, 46,246G)
Chihuahua_Charity: 438G (22.3%, 438G)
Cryptopsy70: 328G (16.7%, 328G)
AllInBot: 100G (5.1%, 100G)
AStrayCat: 100G (5.1%, 3,784G)

champion bets:
NovaKnight21: 1,317G (32.0%, 1,317G)
BirbBrainsBot: 1,000G (24.3%, 24,502G)
getthemoneyz: 526G (12.8%, 1,736,188G)
Lythe_Caraker: 500G (12.1%, 158,424G)
Kyton786: 473G (11.5%, 946G)
datadrivenbot: 200G (4.9%, 66,093G)
nerivalara: 100G (2.4%, 390G)
