Player: !Green
Team: Green Team
Palettes: Green/White



Zagorsek
Monster
Pisces
61
52
Mindflayer










HaateXIII
Monster
Aquarius
75
77
Explosive










LordMaxoss
Monster
Capricorn
75
53
Taiju










Phi Sig
Female
Taurus
55
63
Thief
Punch Art
PA Save
Equip Sword
Waterwalking

Long Sword

Feather Hat
Adaman Vest
Spike Shoes

Steal Helmet, Steal Shield, Arm Aim
Wave Fist, Revive
