Final Bets: white - 19 bets for 11,472G (38.3%, x1.61); black - 6 bets for 18,459G (61.7%, x0.62)

white bets:
Shalloween: 3,198G (27.9%, 6,396G)
BirbBrainsBot: 1,000G (8.7%, 140,743G)
amiture: 1,000G (8.7%, 11,182G)
Thyrandaal: 1,000G (8.7%, 5,231G)
HaateXIII: 892G (7.8%, 892G)
TheChainNerd: 788G (6.9%, 788G)
E_Ballard: 672G (5.9%, 672G)
Nizaha: 596G (5.2%, 15,669G)
Lanshaft: 524G (4.6%, 16,568G)
getthemoneyz: 400G (3.5%, 1,410,826G)
RunicMagus: 250G (2.2%, 2,498G)
roqqqpsi: 226G (2.0%, 411G)
TasisSai: 200G (1.7%, 1,198G)
datadrivenbot: 200G (1.7%, 45,495G)
ArlanKels: 126G (1.1%, 1,268G)
RuneS_77: 100G (0.9%, 12,622G)
LordMaxoss: 100G (0.9%, 6,685G)
CT_5_Holy: 100G (0.9%, 1,864G)
RaIshtar: 100G (0.9%, 7,073G)

black bets:
VolgraTheMoose: 13,470G (73.0%, 26,940G)
NicoSavoy: 3,516G (19.0%, 351,699G)
AllInBot: 889G (4.8%, 889G)
nekojin: 384G (2.1%, 23,711G)
douchetron: 100G (0.5%, 1,916G)
Twisted_Nutsatchel: 100G (0.5%, 13,152G)
