Final Bets: blue - 9 bets for 4,998G (28.7%, x2.49); green - 19 bets for 12,441G (71.3%, x0.40)

blue bets:
DavenIII: 3,000G (60.0%, 17,931G)
Lionhermit: 1,000G (20.0%, 51,517G)
nifboy: 308G (6.2%, 308G)
Lokenwow: 174G (3.5%, 174G)
foofermoofer: 116G (2.3%, 116G)
run_with_stone_GUNs: 100G (2.0%, 10,692G)
ko2q: 100G (2.0%, 7,676G)
Ironzombie8: 100G (2.0%, 100G)
lastly: 100G (2.0%, 6,346G)

green bets:
HaateXIII: 2,104G (16.9%, 2,104G)
killth3kid: 2,000G (16.1%, 49,984G)
MirtaiAtana: 1,139G (9.2%, 2,278G)
BirbBrainsBot: 1,000G (8.0%, 12,031G)
ungabunga_bot: 1,000G (8.0%, 470,834G)
getthemoneyz: 1,000G (8.0%, 674,535G)
Lord_Burrah: 1,000G (8.0%, 105,417G)
coralreeferz: 550G (4.4%, 13,773G)
RoboticNomad: 500G (4.0%, 7,268G)
joewcarson: 300G (2.4%, 6,647G)
SQUiDSQUARKLIN: 300G (2.4%, 8,396G)
ACSpree: 296G (2.4%, 296G)
Miyokari: 250G (2.0%, 2,871G)
metagameface: 232G (1.9%, 232G)
sSwing: 220G (1.8%, 220G)
Kyune: 200G (1.6%, 1,987G)
gggamezzz: 150G (1.2%, 2,814G)
mannequ1n: 100G (0.8%, 4,517G)
E_Ballard: 100G (0.8%, 2,326G)
