Final Bets: green - 24 bets for 14,023G (65.0%, x0.54); yellow - 12 bets for 7,535G (35.0%, x1.86)

green bets:
dogsandcatsand: 2,496G (17.8%, 2,496G)
AllInBot: 1,666G (11.9%, 1,666G)
Lord_Burrah: 1,500G (10.7%, 82,000G)
Creggers: 1,000G (7.1%, 60,427G)
Error72: 833G (5.9%, 833G)
DarrenDinosaurs: 735G (5.2%, 735G)
VolgraTheMoose: 501G (3.6%, 16,254G)
Zeroroute: 500G (3.6%, 500G)
vorap: 500G (3.6%, 122,173G)
Rytor: 500G (3.6%, 8,172G)
Aldrammech: 472G (3.4%, 472G)
killth3kid: 416G (3.0%, 869G)
RedRiderAyame: 400G (2.9%, 8,129G)
randgridr: 364G (2.6%, 7,171G)
Cryptopsy70: 308G (2.2%, 1,866G)
DeathTaxesAndAnime: 300G (2.1%, 3,055G)
Treafa: 240G (1.7%, 240G)
Patreseus: 208G (1.5%, 208G)
Miku_Shikhu: 200G (1.4%, 16,637G)
DAC169: 200G (1.4%, 5,040G)
datadrivenbot: 200G (1.4%, 30,572G)
Lemonjohns: 200G (1.4%, 1,682G)
dtrain332: 184G (1.3%, 368G)
TasisSai: 100G (0.7%, 8,273G)

yellow bets:
reinoe: 1,000G (13.3%, 64,214G)
BirbBrainsBot: 1,000G (13.3%, 1,166G)
NIghtdew14: 1,000G (13.3%, 10,825G)
benticore: 898G (11.9%, 17,967G)
Xoomwaffle: 822G (10.9%, 1,645G)
HaateXIII: 760G (10.1%, 760G)
furrytomahawkk: 747G (9.9%, 747G)
solomongrundy85: 600G (8.0%, 600G)
getthemoneyz: 262G (3.5%, 1,304,421G)
serperemagus: 212G (2.8%, 212G)
gorgewall: 201G (2.7%, 9,289G)
daveb_: 33G (0.4%, 1,674G)
