Final Bets: white - 14 bets for 24,692G (87.8%, x0.14); purple - 9 bets for 3,444G (12.2%, x7.17)

white bets:
Mesmaster: 6,755G (27.4%, 6,755G)
DustBirdEX: 5,335G (21.6%, 10,671G)
Aldrammech: 3,423G (13.9%, 3,423G)
NicoSavoy: 2,086G (8.4%, 52,151G)
Drusiform: 2,000G (8.1%, 21,633G)
Zeroroute: 1,542G (6.2%, 3,330G)
Nizaha: 708G (2.9%, 13,016G)
AllInBot: 683G (2.8%, 683G)
ko2q: 530G (2.1%, 530G)
VolgraTheMoose: 501G (2.0%, 7,569G)
muffin_money: 500G (2.0%, 3,653G)
Gunz232323: 329G (1.3%, 329G)
datadrivenbot: 200G (0.8%, 59,739G)
MinBetBot: 100G (0.4%, 22,245G)

purple bets:
thaetreis: 1,100G (31.9%, 45,875G)
BirbBrainsBot: 1,000G (29.0%, 186,557G)
randgridr: 403G (11.7%, 403G)
Rurk: 312G (9.1%, 312G)
Cyrus_Cross: 200G (5.8%, 377G)
getthemoneyz: 178G (5.2%, 1,591,834G)
gorgewall: 101G (2.9%, 4,865G)
mirapoix: 100G (2.9%, 1,315G)
nhammen: 50G (1.5%, 5,180G)
