Final Bets: blue - 11 bets for 3,809G (82.5%, x0.21); yellow - 4 bets for 810G (17.5%, x4.70)

blue bets:
superdevon1: 1,232G (32.3%, 61,608G)
blorpy_: 534G (14.0%, 6,676G)
sinnyil2: 500G (13.1%, 14,462G)
AllInBot: 372G (9.8%, 372G)
WhiteTigress: 300G (7.9%, 5,731G)
DesertWooder: 250G (6.6%, 1,505G)
datadrivenbot: 200G (5.3%, 58,711G)
neocarbuncle: 120G (3.2%, 1,251G)
gorgewall: 101G (2.7%, 4,124G)
MinBetBot: 100G (2.6%, 22,051G)
ko2q: 100G (2.6%, 2,071G)

yellow bets:
getthemoneyz: 588G (72.6%, 1,617,860G)
Lydian_C: 123G (15.2%, 9,309G)
Drusiform: 50G (6.2%, 6,538G)
BirbBrainsBot: 49G (6.0%, 48,154G)
