Final Bets: red - 26 bets for 19,949G (77.7%, x0.29); blue - 13 bets for 5,712G (22.3%, x3.49)

red bets:
sinnyil2: 4,500G (22.6%, 100,731G)
alecttox: 3,701G (18.6%, 3,701G)
LAGBOT30000: 1,949G (9.8%, 38,990G)
Shalloween: 1,500G (7.5%, 42,270G)
leakimiko: 1,379G (6.9%, 1,379G)
Andrain: 1,220G (6.1%, 1,220G)
Dexsana: 1,000G (5.0%, 10,618G)
BirbBrainsBot: 1,000G (5.0%, 151,021G)
EnemyController: 500G (2.5%, 102,876G)
ewan_e: 400G (2.0%, 1,442G)
jecra: 304G (1.5%, 304G)
sukotsuto: 300G (1.5%, 1,640G)
mastershango: 300G (1.5%, 7,322G)
Ethquan: 300G (1.5%, 6,107G)
The8thZodiac: 268G (1.3%, 268G)
vorap: 204G (1.0%, 204G)
Wolfaronie: 180G (0.9%, 180G)
Sovattaro: 128G (0.6%, 128G)
trigger15: 112G (0.6%, 112G)
aznwanderor: 104G (0.5%, 104G)
whiteonrice: 100G (0.5%, 2,769G)
datadrivenbot: 100G (0.5%, 1,898G)
placeholdercats: 100G (0.5%, 684G)
Evewho: 100G (0.5%, 4,122G)
Bojanges: 100G (0.5%, 1,311G)
mirapoix: 100G (0.5%, 4,569G)

blue bets:
Lydian_C: 1,200G (21.0%, 70,395G)
Laserman1000: 699G (12.2%, 48,499G)
DontBackseatGame: 661G (11.6%, 661G)
Jerboj: 500G (8.8%, 52,293G)
Anethum: 400G (7.0%, 2,260G)
ungabunga_bot: 333G (5.8%, 217,957G)
nifboy: 330G (5.8%, 6,618G)
Chuckolator: 323G (5.7%, 26,792G)
TheRylander: 300G (5.3%, 729G)
CapnChaos12: 300G (5.3%, 49,135G)
Estan_AD: 250G (4.4%, 2,122G)
itsonlyspencer: 216G (3.8%, 216G)
gorgewall: 200G (3.5%, 9,722G)
