Final Bets: white - 14 bets for 4,627G (23.2%, x3.31); purple - 21 bets for 15,298G (76.8%, x0.30)

white bets:
BirbBrainsBot: 834G (18.0%, 152,096G)
whiteonrice: 500G (10.8%, 3,585G)
Jerboj: 500G (10.8%, 51,780G)
KaLam1ty: 500G (10.8%, 20,033G)
GarbagePhoenix: 400G (8.6%, 2,818G)
sukotsuto: 300G (6.5%, 1,913G)
Dexsana: 300G (6.5%, 10,754G)
nifboy: 271G (5.9%, 6,799G)
The8thZodiac: 268G (5.8%, 268G)
perce90: 250G (5.4%, 1,011G)
getthemoneyz: 200G (4.3%, 568,713G)
aznwanderor: 104G (2.2%, 104G)
vorap: 100G (2.2%, 619G)
ko2q: 100G (2.2%, 9,569G)

purple bets:
sinnyil2: 2,500G (16.3%, 103,816G)
Lydian_C: 2,400G (15.7%, 66,830G)
LAGBOT30000: 1,867G (12.2%, 37,357G)
upvla: 1,567G (10.2%, 2,100G)
Shakarak: 1,200G (7.8%, 34,801G)
lijarkh: 1,000G (6.5%, 12,150G)
leakimiko: 999G (6.5%, 999G)
Jahshine: 500G (3.3%, 6,957G)
CapnChaos12: 500G (3.3%, 48,255G)
HaateXIII: 500G (3.3%, 48,229G)
EnemyController: 500G (3.3%, 103,763G)
Ethquan: 300G (2.0%, 6,075G)
Zachara: 264G (1.7%, 63,064G)
TheRylander: 200G (1.3%, 200G)
gorgewall: 200G (1.3%, 9,666G)
Bojanges: 200G (1.3%, 1,422G)
Anethum: 200G (1.3%, 2,018G)
ungabunga_bot: 101G (0.7%, 218,695G)
museofdoom: 100G (0.7%, 974G)
datadrivenbot: 100G (0.7%, 1,830G)
Firesheath: 100G (0.7%, 12,310G)
