High Risers:
1. Mushufasa_: +4,685G
2. YowaneHaku: +2,851G
3. Evewho: +2,347G
4. verythinice: +2,240G
5. superdevon1: +1,574G
6. krombobreaker: +1,353G
7. ExplanationMarkWow: +1,350G
8. frosty_fields: +1,318G
9. Lydian_C: +1,170G
10. seppu777: +830G
11. thunderducker: +651G
12. JonnyCue: +605G
13. b0lt: +395G
14. LASERJESUS1337: +326G
15. DeathTaxesAndAnime: +310G
16. Deeps_one: +137G
17. sinnyil2: +86G
18. KaLam1ty: +4G
19. Humble_Fabio: +4G
20. smallboops: -100G
21. heropong: -161G
22. latebit: -300G
23. ANFz: -300G
24. JethroThrul: -300G
25. TheBrett: -338G
26. CapnChaos12: -400G
27. resjudicata3: -502G
28. 3ngag3: -522G
29. DustBirdEX: -852G
30. Zachara: -964G
31. lowlf: -968G
32. Chuckolator: -1,000G
33. ValensEXP_: -1,162G
34. NicoSavoy: -1,200G
35. scsuperstar: -1,203G
36. Lolthsmeat: -1,291G
37. bigbongsmoker: -1,383G
38. AnthroMetal: -1,500G
39. Rhyser76: -1,884G
40. OneHundredFists: -2,478G
41. Jehudy7: -2,495G
42. gorgewall: -5,004G
43. SeniorBunk: -9,465G
