Final Bets: blue - 11 bets for 7,493G (29.5%, x2.39); green - 11 bets for 17,944G (70.5%, x0.42)

blue bets:
Rhyser76: 2,112G (28.2%, 2,112G)
BirbBrainsBot: 1,000G (13.3%, 20,661G)
3ngag3: 1,000G (13.3%, 14,478G)
bigbongsmoker: 912G (12.2%, 912G)
ExplanationMarkWow: 763G (10.2%, 3,053G)
Humble_Fabio: 520G (6.9%, 520G)
Jehudy7: 500G (6.7%, 2,790G)
Zachara: 250G (3.3%, 2,250G)
NicoSavoy: 200G (2.7%, 135,744G)
getthemoneyz: 136G (1.8%, 2,207,890G)
JethroThrul: 100G (1.3%, 1,473G)

green bets:
gorgewall: 4,548G (25.3%, 4,548G)
OneHundredFists: 4,069G (22.7%, 61,766G)
DeathTaxesAndAnime: 3,929G (21.9%, 7,704G)
SeniorBunk: 2,000G (11.1%, 124,561G)
Mushufasa_: 1,234G (6.9%, 64,742G)
heropong: 680G (3.8%, 680G)
krombobreaker: 500G (2.8%, 29,063G)
superdevon1: 384G (2.1%, 869G)
AllInBot: 200G (1.1%, 200G)
ValensEXP_: 200G (1.1%, 28,299G)
datadrivenbot: 200G (1.1%, 83,800G)
