High Risers:
1. Raixelol: +9,589G
2. Hasterious: +9,381G
3. Leonidusx: +9,202G
4. Skipsandwiches: +7,154G
5. Seppu777: +6,476G
6. Prince_rogers_nelson_: +6,174G
7. Altimamantoid: +4,978G
8. Novaknight21: +3,255G
9. Worldly_unbrain: +3,219G
10. Brenogarwin: +2,497G
11. Memoriesoffinal: +1,740G
12. Valensexp_: +1,710G
13. Nifboy: +1,237G
14. Rune339: +1,108G
15. 77summer: +1,000G
16. Dreygyron: +727G
17. Hotpocketsofficial: +677G
18. Lijarkh: +473G
19. Ser_pyrro: +221G
20. Gingerfoo69: +78G
21. Khelor_: +48G
22. Immortalmage: -21G
23. Cassiephoenix: -67G
24. 7cerulean7: -89G
25. Mindblownnnn: -100G
26. Bruubarg: -100G
27. Go2sleeptv: -200G
28. Colettemslp: -205G
29. Aly327: -300G
30. Jeeboheebo: -300G
31. Mesmaster: -400G
32. Whitetigress: -400G
33. Reddwind_: -400G
34. Nok____: -500G
35. Rocl: -557G
36. Volgrathemoose: -753G
37. 3ngag3: -1,764G
38. Davestrider55: -1,934G
39. Nicosavoy: -6,669G
40. Deathtaxesandanime: -70,056G
