Final Bets: red - 17 bets for 8,100G (79.1%, x0.26); black - 6 bets for 2,134G (20.9%, x3.80)

red bets:
NicoSavoy: 2,000G (24.7%, 87,431G)
DaveStrider55: 1,000G (12.3%, 1,885G)
AltimaMantoid: 693G (8.6%, 8,493G)
HASTERIOUS: 607G (7.5%, 12,142G)
Raixelol: 600G (7.4%, 10,631G)
seppu777: 555G (6.9%, 5,447G)
MemoriesofFinal: 500G (6.2%, 17,006G)
worldly_unbrain: 500G (6.2%, 7,409G)
brenogarwin: 300G (3.7%, 300G)
Rune339: 300G (3.7%, 3,775G)
gingerfoo69: 250G (3.1%, 1,541G)
datadrivenbot: 200G (2.5%, 60,302G)
khelor_: 184G (2.3%, 184G)
Dreygyron: 111G (1.4%, 938G)
AllInBot: 100G (1.2%, 100G)
DeathTaxesAndAnime: 100G (1.2%, 85,931G)
VolgraTheMoose: 100G (1.2%, 7,606G)

black bets:
skipsandwiches: 1,001G (46.9%, 10,876G)
getthemoneyz: 608G (28.5%, 1,946,470G)
ValensEXP_: 308G (14.4%, 932G)
BartTradingCompany: 100G (4.7%, 9,596G)
7Cerulean7: 60G (2.8%, 5,187G)
BirbBrainsBot: 57G (2.7%, 162,653G)
