Final Bets: red - 12 bets for 6,347G (32.1%, x2.12); blue - 9 bets for 13,428G (67.9%, x0.47)

red bets:
BirbBrainsBot: 1,000G (15.8%, 84,632G)
latebit: 1,000G (15.8%, 44,505G)
TheMurkGnome: 687G (10.8%, 68,219G)
Nizaha: 680G (10.7%, 20,353G)
killth3kid: 628G (9.9%, 628G)
getthemoneyz: 604G (9.5%, 1,530,405G)
E_Ballard: 528G (8.3%, 1,434G)
Rook512: 442G (7.0%, 442G)
Lord_Gwarth: 280G (4.4%, 280G)
datadrivenbot: 200G (3.2%, 50,857G)
Gunz232323: 198G (3.1%, 198G)
PoroTact: 100G (1.6%, 6,420G)

blue bets:
douchetron: 5,535G (41.2%, 10,853G)
SkylerBunny: 5,000G (37.2%, 189,113G)
gorgewall: 812G (6.0%, 812G)
VolgraTheMoose: 640G (4.8%, 640G)
fenaen: 500G (3.7%, 630G)
actual_JP: 491G (3.7%, 491G)
AllInBot: 200G (1.5%, 200G)
holdenmagronik: 150G (1.1%, 1,660G)
arkivegoof: 100G (0.7%, 1,215G)
