Final Bets: blue - 11 bets for 5,921G (51.6%, x0.94); green - 11 bets for 5,559G (48.4%, x1.07)

blue bets:
Zagorsek: 1,112G (18.8%, 1,112G)
BirbBrainsBot: 1,000G (16.9%, 84,911G)
TheMurkGnome: 1,000G (16.9%, 43,532G)
latebit: 1,000G (16.9%, 44,404G)
E_Ballard: 528G (8.9%, 1,996G)
SephDarkheart: 472G (8.0%, 472G)
Cryptopsy70: 328G (5.5%, 328G)
AllInBot: 200G (3.4%, 200G)
holdenmagronik: 150G (2.5%, 1,498G)
arkivegoof: 100G (1.7%, 1,344G)
dtrain332: 31G (0.5%, 3,175G)

green bets:
sinnyil2: 1,715G (30.9%, 1,715G)
brenogarwin: 932G (16.8%, 932G)
JonnyCue: 722G (13.0%, 7,722G)
Nizaha: 680G (12.2%, 19,925G)
powergems: 500G (9.0%, 1,953G)
Lord_Gwarth: 280G (5.0%, 280G)
CosmicTactician: 200G (3.6%, 4,013G)
datadrivenbot: 200G (3.6%, 50,836G)
getthemoneyz: 130G (2.3%, 1,530,099G)
Rook512: 100G (1.8%, 100G)
amsans1247: 100G (1.8%, 4,793G)
