Final Bets: green - 14 bets for 11,590G (60.0%, x0.67); yellow - 9 bets for 7,739G (40.0%, x1.50)

green bets:
Mesmaster: 3,000G (25.9%, 19,104G)
DustBirdEX: 1,689G (14.6%, 1,689G)
GladiatorLupe: 1,000G (8.6%, 3,016G)
NovaKnight21: 1,000G (8.6%, 6,303G)
BirbBrainsBot: 1,000G (8.6%, 17,416G)
corysteam: 1,000G (8.6%, 3,986G)
skillomono: 945G (8.2%, 945G)
Smashy: 500G (4.3%, 4,068G)
lowlf: 392G (3.4%, 12,898G)
Belkra: 352G (3.0%, 352G)
iBardic: 312G (2.7%, 312G)
datadrivenbot: 200G (1.7%, 67,348G)
AllInBot: 100G (0.9%, 100G)
RonaldoTheGypsy: 100G (0.9%, 699G)

yellow bets:
latebit: 3,997G (51.6%, 7,839G)
Firesheath: 1,337G (17.3%, 1,337G)
resjudicata3: 789G (10.2%, 789G)
thunderducker: 619G (8.0%, 619G)
getthemoneyz: 276G (3.6%, 1,735,331G)
douchetron: 221G (2.9%, 221G)
MDMAyylmao: 200G (2.6%, 406G)
itsonlyspencer: 200G (2.6%, 3,447G)
nerivalara: 100G (1.3%, 1,336G)
