Final Bets: red - 11 bets for 6,986G (24.3%, x3.12); purple - 11 bets for 21,775G (75.7%, x0.32)

red bets:
Mesmaster: 2,000G (28.6%, 21,162G)
BirbBrainsBot: 1,000G (14.3%, 15,035G)
Firesheath: 744G (10.6%, 744G)
sinnyil2: 695G (9.9%, 1,390G)
Mushufasa_: 658G (9.4%, 658G)
NovaKnight21: 500G (7.2%, 4,661G)
corysteam: 486G (7.0%, 486G)
pandasforsale: 476G (6.8%, 476G)
resjudicata3: 200G (2.9%, 4,288G)
getthemoneyz: 114G (1.6%, 1,735,326G)
AllInBot: 113G (1.6%, 113G)

purple bets:
reinoe: 10,000G (45.9%, 87,078G)
Smashy: 3,169G (14.6%, 3,169G)
nekojin: 2,522G (11.6%, 4,947G)
thunderducker: 2,444G (11.2%, 2,444G)
douchetron: 931G (4.3%, 931G)
DustBirdEX: 784G (3.6%, 784G)
Laserman1000: 662G (3.0%, 26,662G)
iBardic: 559G (2.6%, 559G)
RonaldoTheGypsy: 300G (1.4%, 604G)
MDMAyylmao: 204G (0.9%, 204G)
datadrivenbot: 200G (0.9%, 67,164G)
