Final Bets: white - 16 bets for 11,362G (32.0%, x2.13); champion - 35 bets for 24,147G (68.0%, x0.47)

white bets:
itzover9001: 5,000G (44.0%, 81,592G)
nikolasbgoodrich: 1,500G (13.2%, 7,038G)
Snowfats: 687G (6.0%, 687G)
HASTERIOUS: 673G (5.9%, 13,475G)
Realitydown: 627G (5.5%, 627G)
Anox_Skell: 500G (4.4%, 3,991G)
DustBirdEX: 420G (3.7%, 420G)
Cryptopsy70: 380G (3.3%, 30,759G)
killth3kid: 320G (2.8%, 27,350G)
sect_cor: 300G (2.6%, 26,538G)
Sovattaro: 288G (2.5%, 288G)
TheRylander: 212G (1.9%, 212G)
ungabunga_bot: 154G (1.4%, 238,558G)
ZephyrTempest: 101G (0.9%, 186,196G)
FriendSquirrel: 100G (0.9%, 35,040G)
FoeSquirrel: 100G (0.9%, 650G)

champion bets:
JackOnFire1: 3,186G (13.2%, 3,186G)
HaplessOne: 2,793G (11.6%, 142,793G)
Pie108: 2,000G (8.3%, 103,031G)
ko2q: 1,995G (8.3%, 1,995G)
SquidgyXom: 1,591G (6.6%, 2,122G)
volgrathemoose: 1,501G (6.2%, 6,522G)
braumbles: 1,000G (4.1%, 101,511G)
Conome: 1,000G (4.1%, 6,114G)
BirbBrainsBot: 1,000G (4.1%, 160,749G)
EnemyController: 1,000G (4.1%, 106,583G)
nifboy: 814G (3.4%, 814G)
Laserman1000: 772G (3.2%, 54,072G)
getthemoneyz: 532G (2.2%, 574,181G)
kai_shee: 531G (2.2%, 5,311G)
Nizaha: 501G (2.1%, 15,622G)
SQUiDSQUARKLIN: 500G (2.1%, 7,020G)
carsenhk: 500G (2.1%, 15,681G)
TheMurkGnome: 365G (1.5%, 3,245G)
gorgewall: 300G (1.2%, 4,171G)
Estan_AD: 268G (1.1%, 268G)
ProdigyAzn: 204G (0.8%, 204G)
mirapoix: 200G (0.8%, 3,678G)
GarbagePhoenix: 200G (0.8%, 878G)
Primeval_33: 200G (0.8%, 4,079G)
HeroponThrawn: 200G (0.8%, 3,820G)
LivingHitokiri: 140G (0.6%, 140G)
perce90: 112G (0.5%, 112G)
Tougou: 100G (0.4%, 16,466G)
RunicMagus: 100G (0.4%, 34,330G)
skuldar: 100G (0.4%, 100G)
twelfthrootoftwo: 100G (0.4%, 9,076G)
DeathTaxesAndAnime: 100G (0.4%, 4,575G)
datadrivenbot: 100G (0.4%, 1,363G)
Sairentozon7: 92G (0.4%, 6,520G)
b0shii: 50G (0.2%, 5,083G)
