Final Bets: red - 20 bets for 9,125G (31.7%, x2.16); green - 17 bets for 19,666G (68.3%, x0.46)

red bets:
lijarkh: 1,711G (18.8%, 1,711G)
sinnyil2: 1,200G (13.2%, 141,201G)
BirbBrainsBot: 1,000G (11.0%, 266,204G)
Aldrammech: 997G (10.9%, 9,979G)
RunicMagus: 500G (5.5%, 34,998G)
I_nod_my_head_when_I_lose: 500G (5.5%, 15,664G)
roofiepops: 360G (3.9%, 360G)
Baron_von_Scrub: 353G (3.9%, 4,595G)
OmnibotGamma: 352G (3.9%, 352G)
DrAntiSocial: 335G (3.7%, 335G)
moonliquor: 324G (3.6%, 324G)
Wizard_01: 300G (3.3%, 17,290G)
getthemoneyz: 280G (3.1%, 442,744G)
ZephyrTempest: 258G (2.8%, 24,093G)
GingerDynomite: 250G (2.7%, 2,123G)
Lythe_Caraker: 100G (1.1%, 48,646G)
rjA0zcOQ96: 100G (1.1%, 5,661G)
Ausuri: 100G (1.1%, 2,963G)
Tougou: 100G (1.1%, 6,366G)
ko2q: 5G (0.1%, 1,866G)

green bets:
DeathTaxesAndAnime: 9,002G (45.8%, 17,652G)
BenYuPoker: 3,520G (17.9%, 7,040G)
HaplessOne: 1,500G (7.6%, 111,396G)
mirapoix: 1,492G (7.6%, 2,985G)
Virilikus: 1,000G (5.1%, 28,950G)
Lanshaft: 600G (3.1%, 6,676G)
Goust18: 600G (3.1%, 17,851G)
blastizard: 500G (2.5%, 1,885G)
arch8000: 280G (1.4%, 5,601G)
Slowbrofist: 272G (1.4%, 272G)
KasugaiRoastedPeas: 200G (1.0%, 12,566G)
Meanderandreturn: 200G (1.0%, 5,177G)
AllInBot: 100G (0.5%, 100G)
Aneyus: 100G (0.5%, 8,887G)
maakur_: 100G (0.5%, 2,931G)
ungabunga_bot: 100G (0.5%, 67,624G)
datadrivenbot: 100G (0.5%, 25,245G)
