Final Bets: green - 16 bets for 10,110G (27.0%, x2.70); brown - 17 bets for 27,311G (73.0%, x0.37)

green bets:
sinnyil2: 5,571G (55.1%, 11,142G)
ACSpree: 783G (7.7%, 1,566G)
E_Ballard: 672G (6.6%, 672G)
Nizaha: 596G (5.9%, 22,798G)
Aldrammech: 520G (5.1%, 520G)
superdevon1: 362G (3.6%, 36,288G)
getthemoneyz: 236G (2.3%, 1,421,444G)
roqqqpsi: 220G (2.2%, 232G)
AllInBot: 200G (2.0%, 200G)
TasisSai: 200G (2.0%, 1,694G)
resjudicata3: 200G (2.0%, 723G)
ScottyDeluxe: 150G (1.5%, 347G)
LordMaxoss: 100G (1.0%, 7,068G)
Chompie: 100G (1.0%, 8,974G)
PoroTact: 100G (1.0%, 7,034G)
itsonlyspencer: 100G (1.0%, 874G)

brown bets:
Thyrandaal: 10,688G (39.1%, 10,688G)
VolgraTheMoose: 4,254G (15.6%, 8,508G)
Shalloween: 2,578G (9.4%, 5,156G)
reinoe: 2,000G (7.3%, 151,349G)
Hirameki85: 2,000G (7.3%, 6,928G)
twelfthrootoftwo: 1,966G (7.2%, 3,855G)
amiture: 1,000G (3.7%, 17,850G)
BirbBrainsBot: 1,000G (3.7%, 146,818G)
Treafa: 582G (2.1%, 582G)
thehotrefrigerator: 444G (1.6%, 444G)
datadrivenbot: 200G (0.7%, 46,645G)
roofiepops: 123G (0.5%, 1,491G)
Chambs12: 104G (0.4%, 104G)
Firesheath: 100G (0.4%, 10,219G)
Twisted_Nutsatchel: 100G (0.4%, 13,256G)
lastly: 100G (0.4%, 33,563G)
ArlanKels: 72G (0.3%, 1,444G)
