Final Bets: brown - 15 bets for 21,082G (62.5%, x0.60); champion - 17 bets for 12,656G (37.5%, x1.67)

brown bets:
VolgraTheMoose: 5,041G (23.9%, 10,083G)
Webb_MD: 4,263G (20.2%, 4,263G)
NicoSavoy: 3,538G (16.8%, 353,809G)
amiture: 3,000G (14.2%, 18,220G)
BirbBrainsBot: 1,000G (4.7%, 147,188G)
evdoggity: 1,000G (4.7%, 242,185G)
thehotrefrigerator: 608G (2.9%, 608G)
Nizaha: 596G (2.8%, 22,202G)
Lanshaft: 524G (2.5%, 16,082G)
getthemoneyz: 514G (2.4%, 1,421,208G)
Treafa: 398G (1.9%, 797G)
AllInBot: 200G (0.9%, 200G)
TasisSai: 200G (0.9%, 1,494G)
lastly: 100G (0.5%, 33,600G)
Firesheath: 100G (0.5%, 10,256G)

champion bets:
Shalloween: 3,055G (24.1%, 6,110G)
RaIshtar: 2,468G (19.5%, 12,619G)
twelfthrootoftwo: 2,337G (18.5%, 4,583G)
reinoe: 1,500G (11.9%, 151,989G)
itsonlyspencer: 774G (6.1%, 774G)
resjudicata3: 523G (4.1%, 523G)
SephDarkheart: 408G (3.2%, 408G)
superdevon1: 359G (2.8%, 35,926G)
roqqqpsi: 220G (1.7%, 232G)
datadrivenbot: 200G (1.6%, 46,719G)
ArlanKels: 147G (1.2%, 1,471G)
Chambs12: 142G (1.1%, 142G)
roofiepops: 123G (1.0%, 1,537G)
LordMaxoss: 100G (0.8%, 6,968G)
Chompie: 100G (0.8%, 8,874G)
Twisted_Nutsatchel: 100G (0.8%, 13,293G)
captainmilestw: 100G (0.8%, 2,162G)
