Final Bets: white - 23 bets for 15,295G (42.2%, x1.37); brown - 25 bets for 20,962G (57.8%, x0.73)

white bets:
Virilikus: 3,000G (19.6%, 154,563G)
ACSpree: 2,000G (13.1%, 32,390G)
FriendSquirrel: 1,203G (7.9%, 22,747G)
cgMcWhiskers: 1,087G (7.1%, 1,087G)
Lordminsc: 1,020G (6.7%, 2,041G)
BirbBrainsBot: 1,000G (6.5%, 142,773G)
ewan_e: 1,000G (6.5%, 5,513G)
TheGuesty: 600G (3.9%, 30,100G)
Aldrammech: 600G (3.9%, 600G)
floopinthepig: 500G (3.3%, 1,663G)
ZephyrTempest: 456G (3.0%, 1,250G)
getthemoneyz: 452G (3.0%, 608,755G)
fenaen: 403G (2.6%, 403G)
sukotsuto: 345G (2.3%, 345G)
vorap: 300G (2.0%, 25,655G)
SarrgeQc: 300G (2.0%, 2,468G)
Sans_from_Snowdin: 229G (1.5%, 229G)
gameman733: 200G (1.3%, 2,944G)
twelfthrootoftwo: 200G (1.3%, 3,326G)
FoeSquirrel: 100G (0.7%, 4,612G)
ANFz: 100G (0.7%, 23,214G)
zunath: 100G (0.7%, 10,759G)
mirapoix: 100G (0.7%, 4,499G)

brown bets:
DeathTaxesAndAnime: 2,599G (12.4%, 5,097G)
Grimmace45: 2,398G (11.4%, 4,796G)
Pie108: 2,000G (9.5%, 170,550G)
HaateXIII: 1,500G (7.2%, 28,689G)
Shakarak: 1,200G (5.7%, 19,935G)
sinnyil2: 1,200G (5.7%, 6,332G)
DrAntiSocial: 1,161G (5.5%, 1,161G)
Baron_von_Scrub: 1,111G (5.3%, 85,498G)
HaplessOne: 1,111G (5.3%, 18,398G)
volgrathemoose: 1,001G (4.8%, 13,531G)
ko2q: 1,000G (4.8%, 10,037G)
ungabunga_bot: 1,000G (4.8%, 285,311G)
uwuslayer15: 931G (4.4%, 931G)
gorgewall: 500G (2.4%, 15,767G)
CoderCalamity: 300G (1.4%, 834G)
nedryerson01: 300G (1.4%, 1,882G)
Mirrorclaw: 288G (1.4%, 288G)
jhaller2: 250G (1.2%, 4,900G)
Estan_AD: 250G (1.2%, 3,000G)
itsdigitalbro: 212G (1.0%, 212G)
Nizaha: 201G (1.0%, 14,871G)
TheUnforgivenRage: 176G (0.8%, 176G)
b0shii: 123G (0.6%, 1,300G)
datadrivenbot: 100G (0.5%, 11,144G)
Rislyeu: 50G (0.2%, 672G)
