Final Bets: green - 18 bets for 12,932G (41.9%, x1.39); yellow - 28 bets for 17,963G (58.1%, x0.72)

green bets:
Zeroroute: 1,787G (13.8%, 1,787G)
mirapoix: 1,619G (12.5%, 1,619G)
Shalloween: 1,500G (11.6%, 108,101G)
sinnyil2: 1,200G (9.3%, 5,439G)
kai_shee: 1,001G (7.7%, 108,072G)
BirbBrainsBot: 1,000G (7.7%, 209,954G)
bad1dea: 1,000G (7.7%, 29,318G)
getthemoneyz: 802G (6.2%, 433,716G)
Laserman1000: 755G (5.8%, 7,155G)
CCRUNNER149UWP: 555G (4.3%, 2,794G)
soapydragonfly: 500G (3.9%, 6,268G)
Arunic: 400G (3.1%, 11,981G)
robespyah: 298G (2.3%, 298G)
ZephyrTempest: 270G (2.1%, 19,179G)
joewcarson: 120G (0.9%, 120G)
ApplesauceBoss: 100G (0.8%, 2,196G)
DrAntiSocial: 20G (0.2%, 1,675G)
ko2q: 5G (0.0%, 1,915G)

yellow bets:
Shakarak: 5,000G (27.8%, 31,344G)
GreatRedDragon: 1,600G (8.9%, 8,867G)
BenYuPoker: 1,232G (6.9%, 2,464G)
belphepeppers: 1,137G (6.3%, 1,137G)
volgrathemoose: 1,001G (5.6%, 12,105G)
Ungaiii: 1,000G (5.6%, 1,000G)
catfashions: 1,000G (5.6%, 11,551G)
J2DaBibbles: 1,000G (5.6%, 7,514G)
Lanshaft: 600G (3.3%, 3,133G)
alecttox: 500G (2.8%, 33,448G)
ANFz: 416G (2.3%, 416G)
yure1x: 373G (2.1%, 373G)
TheGuesty: 350G (1.9%, 4,797G)
SerumD: 300G (1.7%, 15,797G)
Tyerenex: 300G (1.7%, 5,041G)
AllInBot: 298G (1.7%, 298G)
ungabunga_bot: 200G (1.1%, 22,477G)
ugoplatamia: 200G (1.1%, 12,049G)
ThePineappleSalesman: 200G (1.1%, 5,185G)
b0shii: 200G (1.1%, 923G)
Anomandaris__: 200G (1.1%, 1,955G)
ig_ats: 200G (1.1%, 13,060G)
JIDkomu: 156G (0.9%, 156G)
Conome: 100G (0.6%, 955G)
roofiepops: 100G (0.6%, 3,603G)
datadrivenbot: 100G (0.6%, 16,919G)
loveyouallfriends: 100G (0.6%, 18,412G)
victoriolue: 100G (0.6%, 4,524G)
