Final Bets: purple - 9 bets for 4,406G (49.6%, x1.02); brown - 12 bets for 4,477G (50.4%, x0.98)

purple bets:
VolgraTheMoose: 1,422G (32.3%, 8,422G)
Thyrandaal: 792G (18.0%, 792G)
Nwalme583: 677G (15.4%, 677G)
E_Ballard: 664G (15.1%, 664G)
pplvee1: 340G (7.7%, 15,247G)
AllInBot: 210G (4.8%, 210G)
gorgewall: 101G (2.3%, 7,682G)
grishhammer: 100G (2.3%, 1,271G)
Legenver: 100G (2.3%, 1,061G)

brown bets:
BirbBrainsBot: 1,000G (22.3%, 82,082G)
skipsandwiches: 805G (18.0%, 805G)
Zachara: 700G (15.6%, 133,200G)
Raixelol: 600G (13.4%, 600G)
getthemoneyz: 364G (8.1%, 1,917,442G)
gongonono: 200G (4.5%, 4,260G)
datadrivenbot: 200G (4.5%, 59,032G)
Leonidusx: 200G (4.5%, 6,748G)
Rune339: 108G (2.4%, 108G)
BartTradingCompany: 100G (2.2%, 5,573G)
MemoriesofFinal: 100G (2.2%, 6,825G)
maakur_: 100G (2.2%, 5,395G)
