Final Bets: white - 16 bets for 9,771G (64.3%, x0.55); black - 12 bets for 5,418G (35.7%, x1.80)

white bets:
Shakarak: 1,500G (15.4%, 27,088G)
sinnyil2: 1,200G (12.3%, 21,350G)
proper__noun__: 1,062G (10.9%, 1,062G)
ungabunga_bot: 1,000G (10.2%, 114,188G)
BirbBrainsBot: 1,000G (10.2%, 72,067G)
datadrivenbot: 612G (6.3%, 20,947G)
Laserman1000: 577G (5.9%, 5,077G)
Vyroxe: 538G (5.5%, 538G)
gooseyourself: 412G (4.2%, 808G)
Shalloween: 400G (4.1%, 25,615G)
Kronikle: 328G (3.4%, 328G)
HASTERIOUS: 320G (3.3%, 320G)
organizing_secrets: 304G (3.1%, 304G)
ZephyrTempest: 276G (2.8%, 50,863G)
getthemoneyz: 142G (1.5%, 473,166G)
AllInBot: 100G (1.0%, 100G)

black bets:
Baron_von_Scrub: 1,234G (22.8%, 13,549G)
SacrificialToast: 1,000G (18.5%, 14,996G)
DrAntiSocial: 582G (10.7%, 582G)
RughSontos: 512G (9.4%, 512G)
KaLam1ty: 500G (9.2%, 15,146G)
SolarisFall: 360G (6.6%, 360G)
waterwatereverywhere: 336G (6.2%, 336G)
TheMurkGnome: 300G (5.5%, 3,440G)
HaateXIII: 250G (4.6%, 925G)
InOzWeTrust: 144G (2.7%, 144G)
moonliquor: 100G (1.8%, 1,165G)
urieltheflameofgod: 100G (1.8%, 10,444G)
