Final Bets: white - 13 bets for 6,039G (36.0%, x1.77); brown - 16 bets for 10,719G (64.0%, x0.56)

white bets:
Shakarak: 1,200G (19.9%, 31,005G)
DaMadPanda182: 667G (11.0%, 2,677G)
Lodrak: 666G (11.0%, 666G)
datadrivenbot: 553G (9.2%, 20,760G)
SacrificialToast: 500G (8.3%, 12,996G)
Willjin: 412G (6.8%, 412G)
Dymntd: 407G (6.7%, 407G)
SkylerBunny: 368G (6.1%, 368G)
Kronikle: 328G (5.4%, 328G)
SolarisFall: 324G (5.4%, 324G)
AllInBot: 314G (5.2%, 314G)
DeathTaxesAndAnime: 200G (3.3%, 1,307G)
organizing_secrets: 100G (1.7%, 984G)

brown bets:
sinnyil2: 2,500G (23.3%, 21,558G)
Shalloween: 1,500G (14.0%, 26,056G)
HaateXIII: 1,093G (10.2%, 1,093G)
BirbBrainsBot: 1,000G (9.3%, 74,342G)
RughSontos: 604G (5.6%, 604G)
Zeroroute: 600G (5.6%, 600G)
waterwatereverywhere: 544G (5.1%, 544G)
Laserman1000: 500G (4.7%, 5,200G)
TheMurkGnome: 500G (4.7%, 2,844G)
ungabunga_bot: 437G (4.1%, 114,473G)
OneHundredFists: 384G (3.6%, 384G)
ZephyrTempest: 375G (3.5%, 51,679G)
proper__noun__: 264G (2.5%, 264G)
urieltheflameofgod: 200G (1.9%, 10,430G)
getthemoneyz: 118G (1.1%, 473,627G)
IndecisiveNinja: 100G (0.9%, 1,913G)
