Final Bets: yellow - 11 bets for 8,965G (45.1%, x1.22); brown - 17 bets for 10,916G (54.9%, x0.82)

yellow bets:
Shakarak: 3,000G (33.5%, 29,805G)
MantisFinch: 2,500G (27.9%, 20,438G)
RughSontos: 944G (10.5%, 944G)
organizing_secrets: 884G (9.9%, 884G)
HASTERIOUS: 497G (5.5%, 497G)
Willjin: 412G (4.6%, 412G)
Kronikle: 328G (3.7%, 328G)
AllInBot: 100G (1.1%, 100G)
IndecisiveNinja: 100G (1.1%, 1,969G)
marresil: 100G (1.1%, 100G)
Dymntd: 100G (1.1%, 100G)

brown bets:
sinnyil2: 1,200G (11.0%, 22,966G)
DeathTaxesAndAnime: 1,107G (10.1%, 1,107G)
ungabunga_bot: 1,000G (9.2%, 114,719G)
BirbBrainsBot: 1,000G (9.2%, 74,905G)
DarrenDinosaurs: 993G (9.1%, 993G)
Zeroroute: 938G (8.6%, 938G)
OneHundredFists: 600G (5.5%, 600G)
Shalloween: 600G (5.5%, 26,901G)
Laserman1000: 582G (5.3%, 5,482G)
TheMurkGnome: 500G (4.6%, 3,126G)
SacrificialToast: 500G (4.6%, 12,496G)
fenaen: 468G (4.3%, 468G)
proper__noun__: 413G (3.8%, 413G)
SkylerBunny: 368G (3.4%, 368G)
ZephyrTempest: 319G (2.9%, 51,890G)
datadrivenbot: 282G (2.6%, 20,207G)
getthemoneyz: 46G (0.4%, 473,693G)
