Final Bets: green - 26 bets for 11,270G (55.3%, x0.81); yellow - 10 bets for 9,098G (44.7%, x1.24)

green bets:
theNGUYENNER: 1,058G (9.4%, 1,058G)
BirbBrainsBot: 1,000G (8.9%, 152,935G)
Mtueni: 1,000G (8.9%, 229,240G)
RestIessNight: 948G (8.4%, 948G)
maakur_: 847G (7.5%, 847G)
Estan_AD: 500G (4.4%, 5,950G)
CapnChaos12: 500G (4.4%, 2,095G)
Breakdown777: 500G (4.4%, 14,357G)
metagameface: 500G (4.4%, 1,103G)
Baron_von_Scrub: 474G (4.2%, 18,864G)
happyfundude: 448G (4.0%, 448G)
Cryptopsy70: 408G (3.6%, 408G)
dogsandcatsand: 392G (3.5%, 392G)
YaBoy125: 376G (3.3%, 376G)
WrathfulRemy: 300G (2.7%, 2,140G)
Dustmasc: 240G (2.1%, 240G)
Luna_XIV: 236G (2.1%, 236G)
jwchapm: 200G (1.8%, 1,288G)
AmaninAmide: 200G (1.8%, 2,604G)
Eyepoor_: 200G (1.8%, 3,304G)
sir_sugarboogerz: 200G (1.8%, 1,819G)
Rislyeu: 200G (1.8%, 2,314G)
getthemoneyz: 174G (1.5%, 650,971G)
byrdturbo: 169G (1.5%, 1,930G)
SuicideKing_XIX: 100G (0.9%, 1,538G)
datadrivenbot: 100G (0.9%, 12,585G)

yellow bets:
Lordminsc: 2,753G (30.3%, 5,506G)
E_Ballard: 1,610G (17.7%, 1,610G)
Lali_Lulelo: 1,598G (17.6%, 1,598G)
nifboy: 1,140G (12.5%, 1,140G)
volgrathemoose: 501G (5.5%, 20,107G)
vorap: 500G (5.5%, 31,622G)
Anethum: 468G (5.1%, 468G)
Hypez_nova1: 301G (3.3%, 301G)
ungabunga_bot: 200G (2.2%, 419,424G)
roqqqpsi: 27G (0.3%, 1,384G)
