Final Bets: purple - 19 bets for 21,073G (79.0%, x0.27); brown - 11 bets for 5,608G (21.0%, x3.76)

purple bets:
toka222: 10,000G (47.5%, 94,849G)
DeathTaxesAndAnime: 1,973G (9.4%, 3,869G)
theshinyakuma: 1,736G (8.2%, 1,736G)
TheChainNerd: 1,500G (7.1%, 27,146G)
Sairentozon7: 1,103G (5.2%, 1,103G)
EnemyController: 1,000G (4.7%, 529,607G)
RaIshtar: 774G (3.7%, 774G)
moonliquor: 500G (2.4%, 3,414G)
Angelomortis: 435G (2.1%, 435G)
serperemagus: 435G (2.1%, 435G)
killth3kid: 312G (1.5%, 1,712G)
ColetteMSLP: 300G (1.4%, 2,126G)
CT_5_Holy: 284G (1.3%, 284G)
Belkra: 185G (0.9%, 371G)
ruleof5: 132G (0.6%, 132G)
the_leezy: 104G (0.5%, 104G)
CosmicTactician: 100G (0.5%, 16,610G)
Flameatron: 100G (0.5%, 3,037G)
datadrivenbot: 100G (0.5%, 33,047G)

brown bets:
LDSkinny: 1,738G (31.0%, 3,476G)
DLJuggernaut: 731G (13.0%, 2,924G)
getthemoneyz: 622G (11.1%, 802,157G)
BirbBrainsBot: 531G (9.5%, 531G)
fenaen: 500G (8.9%, 17,168G)
HASTERIOUS: 416G (7.4%, 416G)
BlackFireUK: 272G (4.9%, 272G)
s_o_b_e_q: 250G (4.5%, 8,673G)
pplvee1: 240G (4.3%, 240G)
benticore: 200G (3.6%, 4,793G)
mrfripps: 108G (1.9%, 108G)
