Final Bets: yellow - 17 bets for 8,288G (32.3%, x2.09); purple - 16 bets for 17,362G (67.7%, x0.48)

yellow bets:
zepharoth89: 1,879G (22.7%, 1,879G)
DeathTaxesAndAnime: 1,601G (19.3%, 3,141G)
fenaen: 600G (7.2%, 17,832G)
BirbBrainsBot: 588G (7.1%, 588G)
Nizaha: 501G (6.0%, 15,778G)
moonliquor: 500G (6.0%, 3,492G)
RaIshtar: 500G (6.0%, 2,443G)
getthemoneyz: 486G (5.9%, 802,019G)
Nohurty: 304G (3.7%, 609G)
CT_5_Holy: 284G (3.4%, 284G)
aznwanderor: 244G (2.9%, 244G)
Grandlanzer: 200G (2.4%, 14,218G)
reddwind_: 200G (2.4%, 4,519G)
Firesheath: 101G (1.2%, 5,259G)
s_o_b_e_q: 100G (1.2%, 7,603G)
ruleof5: 100G (1.2%, 511G)
ivellioz: 100G (1.2%, 200G)

purple bets:
toka222: 10,000G (57.6%, 97,510G)
Sairentozon7: 1,553G (8.9%, 1,553G)
alterworlds: 967G (5.6%, 967G)
Laserman1000: 800G (4.6%, 34,000G)
the_leezy: 738G (4.3%, 738G)
CelestialLancer: 500G (2.9%, 9,039G)
EnemyController: 500G (2.9%, 531,293G)
theshinyakuma: 500G (2.9%, 2,766G)
DLJuggernaut: 396G (2.3%, 1,587G)
cam_ATS: 392G (2.3%, 392G)
ColetteMSLP: 300G (1.7%, 2,488G)
Angelomortis: 208G (1.2%, 208G)
serperemagus: 208G (1.2%, 208G)
CosmicTactician: 100G (0.6%, 16,437G)
mrfripps: 100G (0.6%, 306G)
datadrivenbot: 100G (0.6%, 32,874G)
