Final Bets: green - 32 bets for 14,047G (64.3%, x0.56); yellow - 20 bets for 7,815G (35.7%, x1.80)

green bets:
KupoKel: 1,500G (10.7%, 11,809G)
BenYuPoker: 1,231G (8.8%, 2,463G)
leakimiko: 1,220G (8.7%, 24,405G)
Nizaha: 1,001G (7.1%, 24,317G)
TheChainNerd: 1,000G (7.1%, 3,197G)
Gelwain: 1,000G (7.1%, 7,316G)
waterwatereverywhere: 560G (4.0%, 560G)
urieltheflameofgod: 560G (4.0%, 1,120G)
SerumD: 500G (3.6%, 10,627G)
Mrasin: 500G (3.6%, 4,681G)
exaltedhamster: 500G (3.6%, 6,494G)
EnemyController: 500G (3.6%, 26,152G)
JackOnFire1: 436G (3.1%, 8,727G)
Baron_von_Scrub: 314G (2.2%, 13,674G)
rechaun: 312G (2.2%, 312G)
regios91: 308G (2.2%, 308G)
maichenambrai: 300G (2.1%, 5,432G)
Slowbrofist: 244G (1.7%, 244G)
DrAntiSocial: 240G (1.7%, 248G)
ugoplatamia: 200G (1.4%, 17,324G)
Ausuri: 200G (1.4%, 855G)
ShintaroNayaka: 200G (1.4%, 9,162G)
gikokiko: 193G (1.4%, 193G)
ungabunga_bot: 178G (1.3%, 51,632G)
SeniorBunk: 150G (1.1%, 1,739G)
SeedSC: 100G (0.7%, 142,340G)
maakur_: 100G (0.7%, 1,524G)
Jonusfatson: 100G (0.7%, 100G)
GrayGhostGaming: 100G (0.7%, 1,406G)
datadrivenbot: 100G (0.7%, 21,824G)
Heroebal: 100G (0.7%, 2,913G)
TinhShu: 100G (0.7%, 2,235G)

yellow bets:
AllInBot: 1,374G (17.6%, 1,374G)
BirbBrainsBot: 1,000G (12.8%, 244,421G)
bad1dea: 1,000G (12.8%, 33,172G)
Laserman1000: 700G (9.0%, 7,600G)
Lanshaft: 600G (7.7%, 5,821G)
jethrothrul: 580G (7.4%, 580G)
Shalloween: 312G (4.0%, 312G)
Firesheath: 308G (3.9%, 308G)
Pie108: 256G (3.3%, 10,879G)
JustSuperish: 248G (3.2%, 248G)
ZephyrTempest: 240G (3.1%, 26,484G)
CamelCash007: 224G (2.9%, 224G)
Meanderandreturn: 200G (2.6%, 641G)
arch8000: 200G (2.6%, 12,245G)
mivvim: 140G (1.8%, 140G)
joewcarson: 128G (1.6%, 128G)
Lodrak: 100G (1.3%, 4,984G)
getthemoneyz: 100G (1.3%, 438,685G)
2sexy4u: 100G (1.3%, 1,866G)
ko2q: 5G (0.1%, 1,706G)
