Final Bets: green - 10 bets for 7,443G (51.4%, x0.95); yellow - 10 bets for 7,046G (48.6%, x1.06)

green bets:
nifboy: 2,398G (32.2%, 4,796G)
amiture: 1,840G (24.7%, 1,840G)
HaateXIII: 808G (10.9%, 808G)
superdevon1: 465G (6.2%, 4,650G)
Chuckolator: 417G (5.6%, 8,885G)
pLifer: 414G (5.6%, 414G)
iBardic: 400G (5.4%, 4,834G)
ColetteMSLP: 300G (4.0%, 2,298G)
gorgewall: 201G (2.7%, 7,203G)
datadrivenbot: 200G (2.7%, 33,333G)

yellow bets:
TheMurkGnome: 1,350G (19.2%, 1,350G)
BirbBrainsBot: 1,000G (14.2%, 138,286G)
getthemoneyz: 1,000G (14.2%, 1,330,747G)
Sairentozon7: 1,000G (14.2%, 22,160G)
Firesheath: 875G (12.4%, 875G)
DeathTaxesAndAnime: 744G (10.6%, 744G)
BoneMiser: 500G (7.1%, 25,460G)
dem0nj0ns: 256G (3.6%, 256G)
AllInBot: 200G (2.8%, 200G)
Lydian_C: 121G (1.7%, 85,090G)
