High Risers:
1. Resjudicata3: +7,545G
2. Nhammen: +3,695G
3. Shalloween: +2,885G
4. Zbgs: +2,376G
5. Velvet_muffins: +1,367G
6. Raixelol: +1,321G
7. Reinoe: +1,214G
8. Nicosavoy: +1,041G
9. Mochaghostreiko: +1,000G
10. Robotocelot: +969G
11. Lowlf: +445G
12. Laserman1000: +410G
13. Yangusburger: +388G
14. Riley331: +280G
15. Sairentozon7: +198G
16. Ibardic: +177G
17. Dem0nj0ns: +140G
18. Lijarkh: +136G
19. Brodeity: +123G
20. Ldskinny: +4G
21. Dasutin23: +4G
22. Silentkaster: -2G
23. Flavafraze: -22G
24. Khelor_: -40G
25. Arcblazer23: -100G
26. Fenaen: -200G
27. Foamsoldier: -200G
28. Mindblownnnn: -237G
29. Wildvol: -260G
30. Brokenknight201: -300G
31. Reddwind_: -300G
32. Dljuggernaut: -348G
33. Ar_tactic: -368G
34. Escobro: -379G
35. Farside00831: -468G
36. Anfz: -500G
37. Sinistereleven: -500G
38. Latebit: -512G
39. Rndorchestra: -657G
40. Corpuscav: -841G
41. Greggernaut: -1,000G
42. Smashy: -1,000G
43. Akash7: -1,000G
44. Skillomono: -1,039G
45. Krombobreaker: -1,066G
46. Seppu777: -1,076G
47. Cosmictactician: -1,115G
48. Notazzie: -1,228G
49. Haatexiii: -1,273G
50. Wonser: -1,348G
51. Valensexp_: -1,434G
52. Thyrandaal: -1,466G
53. Lord_gwarth: -1,556G
54. Nekojin: -1,560G
55. Minorfffanatic1: -1,568G
56. Deathtaxesandanime: -1,581G
57. Technominari: -1,614G
58. Killth3kid: -1,776G
59. Sinnyil2: -2,626G
60. Skylerbunny: -3,935G
61. Roofiepops: -5,123G
