Final Bets: purple - 12 bets for 5,486G (14.3%, x5.98); brown - 19 bets for 32,804G (85.7%, x0.17)

purple bets:
DLJuggernaut: 1,378G (25.1%, 1,378G)
Lord_Gwarth: 1,252G (22.8%, 1,252G)
BirbBrainsBot: 1,000G (18.2%, 109,034G)
DaveStrider55: 348G (6.3%, 348G)
latebit: 340G (6.2%, 3,181G)
killth3kid: 300G (5.5%, 49,270G)
brodeity: 292G (5.3%, 292G)
WildVol: 200G (3.6%, 1,936G)
AllInBot: 100G (1.8%, 100G)
farside00831: 100G (1.8%, 2,118G)
velvet_muffins: 100G (1.8%, 689G)
getthemoneyz: 76G (1.4%, 1,875,724G)

brown bets:
krombobreaker: 5,112G (15.6%, 10,025G)
resjudicata3: 5,000G (15.2%, 28,593G)
nhammen: 5,000G (15.2%, 418,349G)
reinoe: 4,829G (14.7%, 9,658G)
Shalloween: 4,297G (13.1%, 8,594G)
Raixelol: 2,000G (6.1%, 20,722G)
SkylerBunny: 1,500G (4.6%, 5,034G)
DeathTaxesAndAnime: 1,173G (3.6%, 1,173G)
HaateXIII: 924G (2.8%, 924G)
seppu777: 555G (1.7%, 11,313G)
skillomono: 547G (1.7%, 547G)
iBardic: 422G (1.3%, 422G)
CorpusCav: 405G (1.2%, 23,857G)
rNdOrchestra: 260G (0.8%, 2,500G)
khelor_: 242G (0.7%, 242G)
datadrivenbot: 200G (0.6%, 57,157G)
silentkaster: 185G (0.6%, 1,345G)
Riley331: 100G (0.3%, 100G)
BartTradingCompany: 53G (0.2%, 532G)
