Final Bets: white - 17 bets for 21,584G (87.8%, x0.14); black - 8 bets for 3,001G (12.2%, x7.19)

white bets:
Thyrandaal: 10,132G (46.9%, 19,867G)
CorpusCav: 2,000G (9.3%, 66,814G)
reinoe: 2,000G (9.3%, 11,920G)
E_Ballard: 1,190G (5.5%, 1,190G)
NicoSavoy: 1,072G (5.0%, 1,072G)
JonnyCue: 1,000G (4.6%, 11,300G)
BirbBrainsBot: 767G (3.6%, 111,681G)
h00z0r: 620G (2.9%, 620G)
Laserman1000: 500G (2.3%, 11,400G)
AltimaMantoid: 500G (2.3%, 12,000G)
2b_yorha_b: 400G (1.9%, 20,149G)
FuzzyTigers: 384G (1.8%, 384G)
ApplesNP: 380G (1.8%, 380G)
AllInBot: 329G (1.5%, 329G)
datadrivenbot: 200G (0.9%, 87,417G)
Firesheath: 100G (0.5%, 2,389G)
nhammen: 10G (0.0%, 38,467G)

black bets:
killth3kid: 832G (27.7%, 29,364G)
lowlf: 664G (22.1%, 664G)
holdenmagronik: 500G (16.7%, 4,285G)
LASERJESUS1337: 304G (10.1%, 304G)
KGenjy: 285G (9.5%, 285G)
tripaplex: 200G (6.7%, 9,201G)
getthemoneyz: 116G (3.9%, 2,183,236G)
Lord_Gwarth: 100G (3.3%, 7,824G)
