Final Bets: purple - 16 bets for 7,725G (30.5%, x2.27); brown - 14 bets for 17,566G (69.5%, x0.44)

purple bets:
Laserman1000: 1,250G (16.2%, 2,500G)
prince_rogers_nelson_: 1,045G (13.5%, 1,045G)
Digitalsocrates: 1,000G (12.9%, 57,964G)
dogsandcatsand: 1,000G (12.9%, 6,422G)
BirbBrainsBot: 1,000G (12.9%, 56,422G)
Anasetsuken: 500G (6.5%, 16,736G)
killth3kid: 450G (5.8%, 4,656G)
MattMan119: 300G (3.9%, 2,390G)
d4rr1n: 300G (3.9%, 6,443G)
O_Heyno: 200G (2.6%, 1,745G)
getthemoneyz: 180G (2.3%, 964,903G)
AllInBot: 100G (1.3%, 100G)
lastly: 100G (1.3%, 27,792G)
marin1987: 100G (1.3%, 1,610G)
datadrivenbot: 100G (1.3%, 43,505G)
MechMantis: 100G (1.3%, 119G)

brown bets:
BoneMiser: 8,772G (49.9%, 8,772G)
joewcarson: 2,000G (11.4%, 45,406G)
autnagrag: 1,222G (7.0%, 2,268G)
DuraiPapers: 1,075G (6.1%, 1,075G)
Thyrandaal: 1,000G (5.7%, 71,758G)
CosmicTactician: 1,000G (5.7%, 7,686G)
TheChainNerd: 838G (4.8%, 838G)
pancake11112: 500G (2.8%, 855G)
ShintaroNayaka: 500G (2.8%, 6,772G)
Nizaha: 201G (1.1%, 34,539G)
ZCKaiser: 200G (1.1%, 734G)
DusterW: 108G (0.6%, 108G)
Lordminsc: 100G (0.6%, 4,178G)
oops25: 50G (0.3%, 504G)
