Final Bets: purple - 20 bets for 12,506G (29.6%, x2.38); champion - 13 bets for 29,814G (70.4%, x0.42)

purple bets:
BoneMiser: 2,645G (21.1%, 2,645G)
RabidHampsters: 2,000G (16.0%, 16,531G)
Akrae: 1,000G (8.0%, 8,538G)
Digitalsocrates: 1,000G (8.0%, 59,616G)
BirbBrainsBot: 1,000G (8.0%, 59,402G)
fenaen: 700G (5.6%, 38,755G)
Laserman1000: 612G (4.9%, 6,412G)
Cryptopsy70: 556G (4.4%, 21,266G)
reinoe: 500G (4.0%, 21,088G)
TheChainNerd: 444G (3.6%, 444G)
getthemoneyz: 410G (3.3%, 965,923G)
ZCKaiser: 289G (2.3%, 579G)
autnagrag: 222G (1.8%, 2,108G)
TeaTime29: 200G (1.6%, 11,948G)
d4rr1n: 200G (1.6%, 7,125G)
nekojin: 200G (1.6%, 1,298G)
oops25: 178G (1.4%, 478G)
DuraiPapers: 150G (1.2%, 800G)
Kronikle: 100G (0.8%, 16,579G)
datadrivenbot: 100G (0.8%, 43,892G)

champion bets:
toka222: 10,000G (33.5%, 46,734G)
actual_JP: 5,593G (18.8%, 5,593G)
Thyrandaal: 5,000G (16.8%, 71,464G)
ShintaroNayaka: 4,567G (15.3%, 6,067G)
joewcarson: 2,000G (6.7%, 37,406G)
BlackFireUK: 1,000G (3.4%, 19,689G)
AltimaMantoid: 532G (1.8%, 532G)
Phi_Sig: 502G (1.7%, 502G)
CapnChaos12: 300G (1.0%, 13,255G)
AllInBot: 100G (0.3%, 100G)
Lordminsc: 100G (0.3%, 3,878G)
pancake11112: 100G (0.3%, 100G)
IphoneDarkness: 20G (0.1%, 4,287G)
