Final Bets: purple - 9 bets for 5,748G (41.6%, x1.40); brown - 17 bets for 8,061G (58.4%, x0.71)

purple bets:
ACSpree: 1,006G (17.5%, 1,006G)
BirbBrainsBot: 1,000G (17.4%, 74,454G)
JumbocactuarX27: 1,000G (17.4%, 12,158G)
Mesmaster: 1,000G (17.4%, 16,887G)
nifboy: 416G (7.2%, 416G)
ZephyrTempest: 400G (7.0%, 1,714G)
getthemoneyz: 326G (5.7%, 604,213G)
SomeCallMeGON: 300G (5.2%, 8,387G)
ShintaroNayaka: 300G (5.2%, 11,533G)

brown bets:
deenglow: 2,000G (24.8%, 51,605G)
Shakarak: 2,000G (24.8%, 9,816G)
TheChainNerd: 1,000G (12.4%, 7,963G)
HaplessOne: 777G (9.6%, 10,604G)
FreefallSirius: 400G (5.0%, 422G)
ko2q: 319G (4.0%, 319G)
Pink_LuigiX: 264G (3.3%, 264G)
roqqqpsi: 210G (2.6%, 957G)
TheUnforgivenRage: 176G (2.2%, 176G)
AllInBot: 156G (1.9%, 156G)
gggamezzz: 152G (1.9%, 652G)
GenieMilenko: 104G (1.3%, 104G)
ungabunga_bot: 103G (1.3%, 282,670G)
DrAntiSocial: 100G (1.2%, 2,842G)
katgreen: 100G (1.2%, 1,481G)
CosmicTactician: 100G (1.2%, 3,827G)
FoeSquirrel: 100G (1.2%, 2,913G)
