Final Bets: green - 20 bets for 10,017G (70.5%, x0.42); yellow - 12 bets for 4,192G (29.5%, x2.39)

green bets:
dogsandcatsand: 2,187G (21.8%, 4,289G)
YoungSax: 1,000G (10.0%, 3,880G)
gorgewall: 730G (7.3%, 730G)
fluffskull: 619G (6.2%, 619G)
Shalloween: 600G (6.0%, 65,590G)
KyleWonToLiveForever: 597G (6.0%, 597G)
Ring_Wyrm: 556G (5.6%, 556G)
Breakdown777: 487G (4.9%, 487G)
flacococo: 478G (4.8%, 478G)
roofiepops: 474G (4.7%, 2,396G)
cougboi: 376G (3.8%, 376G)
randgridr: 371G (3.7%, 371G)
TasisSai: 370G (3.7%, 727G)
Mysteriousdewd: 364G (3.6%, 364G)
sososteve: 200G (2.0%, 1,463G)
datadrivenbot: 200G (2.0%, 61,158G)
furrytomahawkk: 108G (1.1%, 108G)
RunicMagus: 100G (1.0%, 4,142G)
DeathTaxesAndAnime: 100G (1.0%, 5,678G)
Grandlanzer: 100G (1.0%, 71,158G)

yellow bets:
BirbBrainsBot: 1,000G (23.9%, 65,732G)
getthemoneyz: 512G (12.2%, 1,265,850G)
NIghtdew14: 500G (11.9%, 6,303G)
NicoSavoy: 500G (11.9%, 177,683G)
pandasforsale: 333G (7.9%, 33,513G)
dantayystv: 300G (7.2%, 2,381G)
nekojin: 250G (6.0%, 3,357G)
benticore: 250G (6.0%, 11,950G)
superdevon1: 178G (4.2%, 3,564G)
byrdturbo: 169G (4.0%, 24,219G)
Rikrizen: 100G (2.4%, 6,347G)
CosmicTactician: 100G (2.4%, 44,574G)
