Final Bets: black - 29 bets for 17,415G (60.3%, x0.66); brown - 20 bets for 11,449G (39.7%, x1.52)

black bets:
Lydian_C: 2,300G (13.2%, 71,227G)
SkylerBunny: 1,943G (11.2%, 1,943G)
OmnibotGamma: 1,740G (10.0%, 3,413G)
Numbersborne: 1,500G (8.6%, 7,646G)
Lord_Burrah: 1,010G (5.8%, 92,010G)
BenYuPoker: 915G (5.3%, 915G)
Aldrammech: 851G (4.9%, 8,511G)
fenixcrest: 796G (4.6%, 7,965G)
JackOnFire1: 664G (3.8%, 664G)
Dothan89: 631G (3.6%, 631G)
Lanshaft: 600G (3.4%, 12,049G)
catfashions: 476G (2.7%, 476G)
kingchadking: 412G (2.4%, 412G)
RunicMagus: 400G (2.3%, 39,995G)
fenaen: 400G (2.3%, 400G)
MoonSlayerRS: 388G (2.2%, 388G)
ko2q: 352G (2.0%, 352G)
TheGuesty: 350G (2.0%, 4,884G)
urieltheflameofgod: 324G (1.9%, 324G)
b0shii: 250G (1.4%, 1,699G)
AlenaZarek: 244G (1.4%, 244G)
ShintaroNayaka: 200G (1.1%, 3,007G)
getthemoneyz: 116G (0.7%, 441,719G)
AllInBot: 100G (0.6%, 100G)
zepi_zza: 100G (0.6%, 985G)
DeathTaxesAndAnime: 100G (0.6%, 4,203G)
SeedSC: 100G (0.6%, 140,699G)
datadrivenbot: 100G (0.6%, 19,782G)
ungabunga_bot: 53G (0.3%, 41,852G)

brown bets:
soapydragonfly: 2,000G (17.5%, 15,932G)
Shalloween: 1,400G (12.2%, 105,229G)
BirbBrainsBot: 1,000G (8.7%, 236,092G)
bad1dea: 1,000G (8.7%, 54,892G)
Laserman1000: 890G (7.8%, 4,990G)
WoooBlaaa: 683G (6.0%, 683G)
jethrothrul: 572G (5.0%, 572G)
volgrathemoose: 532G (4.6%, 532G)
Adam1949: 500G (4.4%, 6,508G)
lunaticruin: 436G (3.8%, 436G)
ApplesauceBoss: 432G (3.8%, 432G)
ANFz: 424G (3.7%, 424G)
haaaaaank: 316G (2.8%, 316G)
lezprobe: 301G (2.6%, 301G)
ZephyrTempest: 273G (2.4%, 21,887G)
rNdOrchestra: 200G (1.7%, 3,170G)
Aka_Gilly: 200G (1.7%, 9,174G)
Lordminsc: 100G (0.9%, 14,320G)
maichenambrai: 100G (0.9%, 2,580G)
JudgeSkrapz: 90G (0.8%, 1,948G)
