Final Bets: black - 25 bets for 13,304G (70.5%, x0.42); purple - 9 bets for 5,572G (29.5%, x2.39)

black bets:
Mesmaster: 1,507G (11.3%, 1,507G)
Zachara: 1,109G (8.3%, 122,609G)
ko2q: 1,015G (7.6%, 2,030G)
BirbBrainsBot: 1,000G (7.5%, 45,382G)
Sairentozon7: 1,000G (7.5%, 78,185G)
TheBrett: 1,000G (7.5%, 8,537G)
AltimaMantoid: 753G (5.7%, 12,753G)
fenaen: 664G (5.0%, 20,290G)
lowlf: 644G (4.8%, 2,726G)
Jacecore: 612G (4.6%, 612G)
Snowfats: 500G (3.8%, 25,830G)
krombobreaker: 500G (3.8%, 32,146G)
roofiepops: 474G (3.6%, 3,658G)
Mushufasa_: 388G (2.9%, 388G)
cloudycube: 322G (2.4%, 322G)
KasugaiRoastedPeas: 300G (2.3%, 3,438G)
AbandonedHall: 293G (2.2%, 587G)
CorpusCav: 222G (1.7%, 36,574G)
Leonidusx: 200G (1.5%, 456,991G)
datadrivenbot: 200G (1.5%, 82,479G)
2b_yorha_b: 200G (1.5%, 3,906G)
gorgewall: 101G (0.8%, 7,161G)
Tithonus: 100G (0.8%, 3,959G)
DouglasDragonThePoet: 100G (0.8%, 6,281G)
heropong: 100G (0.8%, 3,355G)

purple bets:
ApplesNP: 2,000G (35.9%, 77,439G)
DHaveWord: 1,412G (25.3%, 2,825G)
VolgraTheMoose: 936G (16.8%, 40,507G)
Twisted_Nutsatchel: 290G (5.2%, 290G)
getthemoneyz: 268G (4.8%, 2,159,507G)
AllInBot: 243G (4.4%, 243G)
Demon_Lord_Josh: 200G (3.6%, 1,016G)
Lydian_C: 123G (2.2%, 7,478G)
CosmicTactician: 100G (1.8%, 3,280G)
