Final Bets: blue - 16 bets for 27,669G (69.2%, x0.44); black - 18 bets for 12,287G (30.8%, x2.25)

blue bets:
ApplesNP: 20,000G (72.3%, 75,439G)
ko2q: 1,227G (4.4%, 2,455G)
upvla: 1,159G (4.2%, 1,159G)
maakur_: 830G (3.0%, 830G)
Thyrandaal: 797G (2.9%, 1,564G)
DHaveWord: 706G (2.6%, 1,413G)
lowlf: 644G (2.3%, 2,996G)
krombobreaker: 500G (1.8%, 32,355G)
Lord_Gwarth: 500G (1.8%, 16,535G)
ShadowNinja25: 472G (1.7%, 472G)
CorpusCav: 233G (0.8%, 36,667G)
datadrivenbot: 200G (0.7%, 82,563G)
gorgewall: 101G (0.4%, 7,203G)
DouglasDragonThePoet: 100G (0.4%, 6,323G)
Tithonus: 100G (0.4%, 4,001G)
cloudycube: 100G (0.4%, 457G)

black bets:
Mesmaster: 2,138G (17.4%, 2,138G)
Shalloween: 1,400G (11.4%, 12,841G)
Zachara: 1,077G (8.8%, 123,077G)
BirbBrainsBot: 1,000G (8.1%, 45,801G)
Snowfats: 1,000G (8.1%, 26,039G)
Sairentozon7: 1,000G (8.1%, 78,604G)
VolgraTheMoose: 936G (7.6%, 39,571G)
Demon_Lord_Josh: 816G (6.6%, 816G)
Mushufasa_: 551G (4.5%, 551G)
TheBrett: 500G (4.1%, 8,956G)
roofiepops: 474G (3.9%, 3,857G)
KasugaiRoastedPeas: 400G (3.3%, 3,564G)
AllInBot: 200G (1.6%, 200G)
CosmicTactician: 200G (1.6%, 3,180G)
2b_yorha_b: 200G (1.6%, 3,990G)
Twisted_Nutsatchel: 176G (1.4%, 176G)
Lydian_C: 123G (1.0%, 7,355G)
getthemoneyz: 96G (0.8%, 2,159,239G)
