Final Bets: white - 18 bets for 12,354G (26.4%, x2.78); black - 6 bets for 34,389G (73.6%, x0.36)

white bets:
NicoSavoy: 2,000G (16.2%, 8,230G)
perkisle: 2,000G (16.2%, 6,534G)
CosmicTactician: 2,000G (16.2%, 35,462G)
Smokegiant: 1,000G (8.1%, 5,868G)
getthemoneyz: 1,000G (8.1%, 1,114,788G)
BirbBrainsBot: 1,000G (8.1%, 8,964G)
prince_rogers_nelson_: 600G (4.9%, 600G)
notsashasia: 500G (4.0%, 3,952G)
NovaKnight21: 500G (4.0%, 6,786G)
killth3kid: 444G (3.6%, 15,569G)
neocarbuncle: 410G (3.3%, 1,524G)
LAGBOT30000: 300G (2.4%, 4,122G)
Alanaire: 100G (0.8%, 22,833G)
davian_ff: 100G (0.8%, 448G)
GrandmasterFrankerZ: 100G (0.8%, 4,404G)
datadrivenbot: 100G (0.8%, 48,900G)
SuzakuReii: 100G (0.8%, 1,217G)
serperemagus: 100G (0.8%, 23,246G)

black bets:
SkylerBunny: 31,752G (92.3%, 453,600G)
Laserman1000: 900G (2.6%, 9,500G)
alekzanndrr: 897G (2.6%, 897G)
YaBoy125: 640G (1.9%, 640G)
Quadh0nk: 100G (0.3%, 4,642G)
RasenRendan: 100G (0.3%, 100G)
