Final Bets: purple - 15 bets for 12,551G (42.9%, x1.33); champion - 14 bets for 16,719G (57.1%, x0.75)

purple bets:
Smokegiant: 5,000G (39.8%, 73,503G)
7Cerulean7: 2,100G (16.7%, 4,923G)
lowlf: 1,111G (8.9%, 95,561G)
Laserman1000: 874G (7.0%, 16,974G)
alekzanndrr: 830G (6.6%, 830G)
notsashasia: 500G (4.0%, 14,327G)
killth3kid: 444G (3.5%, 74,028G)
Cypruss904: 420G (3.3%, 1,406G)
evontno: 338G (2.7%, 15,338G)
ColetteMSLP: 300G (2.4%, 8,160G)
Kronikle: 200G (1.6%, 18,773G)
getthemoneyz: 126G (1.0%, 1,124,675G)
ChaoreLance: 108G (0.9%, 108G)
Grandlanzer: 100G (0.8%, 41,228G)
datadrivenbot: 100G (0.8%, 49,921G)

champion bets:
Forkmore: 5,000G (29.9%, 50,433G)
Lydian_C: 4,200G (25.1%, 179,009G)
SkylerBunny: 1,632G (9.8%, 1,632G)
NicoSavoy: 1,000G (6.0%, 108,683G)
oooSancheZooo: 1,000G (6.0%, 5,202G)
Chuckolator: 868G (5.2%, 88,676G)
BirbBrainsBot: 801G (4.8%, 20,810G)
DamnThatShark: 500G (3.0%, 2,784G)
DLJuggernaut: 500G (3.0%, 807G)
reddwind_: 500G (3.0%, 9,550G)
neocarbuncle: 210G (1.3%, 6,235G)
CITOtheMOSQUITO: 208G (1.2%, 208G)
Evewho: 200G (1.2%, 16,835G)
Yiroep2: 100G (0.6%, 6,421G)
