Final Bets: red - 19 bets for 7,778G (54.4%, x0.84); blue - 12 bets for 6,523G (45.6%, x1.19)

red bets:
SkylerBunny: 1,000G (12.9%, 8,786G)
ayeayex3: 800G (10.3%, 800G)
NIghtdew14: 750G (9.6%, 13,133G)
killth3kid: 717G (9.2%, 71,771G)
Aldrammech: 680G (8.7%, 680G)
pandasforsale: 555G (7.1%, 32,078G)
dogsandcatsand: 508G (6.5%, 16,521G)
TasisSai: 504G (6.5%, 989G)
amiture: 500G (6.4%, 11,198G)
Blastinus: 395G (5.1%, 395G)
triniculo: 276G (3.5%, 276G)
gorgewall: 201G (2.6%, 4,324G)
datadrivenbot: 200G (2.6%, 61,251G)
Nymissa: 150G (1.9%, 150G)
DustBirdEX: 142G (1.8%, 1,518G)
nhammen: 100G (1.3%, 10,252G)
Ring_Wyrm: 100G (1.3%, 16,046G)
SephDarkheart: 100G (1.3%, 21,075G)
regios91: 100G (1.3%, 1,914G)

blue bets:
KyleWonToLiveForever: 2,069G (31.7%, 2,069G)
BirbBrainsBot: 1,000G (15.3%, 66,697G)
Laserman1000: 752G (11.5%, 31,452G)
alterworlds: 465G (7.1%, 465G)
Breakdown777: 445G (6.8%, 445G)
Digitalsocrates: 412G (6.3%, 9,815G)
roofiepops: 333G (5.1%, 4,000G)
Forkmore: 300G (4.6%, 300G)
RageImmortaI: 288G (4.4%, 4,112G)
getthemoneyz: 236G (3.6%, 1,269,442G)
Lydian_C: 123G (1.9%, 105,108G)
nifboy: 100G (1.5%, 8,579G)
