Final Bets: red - 6 bets for 1,312G (45.0%, x1.22); yellow - 4 bets for 1,601G (55.0%, x0.82)

red bets:
BlackFireUK: 504G (38.4%, 504G)
Magicandy: 300G (22.9%, 31,639G)
Lythe_Caraker: 250G (19.1%, 144,269G)
E_Ballard: 100G (7.6%, 5,303G)
datadrivenbot: 100G (7.6%, 50,059G)
getthemoneyz: 58G (4.4%, 1,131,518G)

yellow bets:
BirbBrainsBot: 1,000G (62.5%, 34,355G)
RaIshtar: 300G (18.7%, 9,338G)
prince_rogers_nelson_: 200G (12.5%, 7,195G)
gorgewall: 101G (6.3%, 1,187G)
