Final Bets: blue - 19 bets for 13,107G (60.2%, x0.66); black - 11 bets for 8,648G (39.8%, x1.52)

blue bets:
resjudicata3: 2,743G (20.9%, 5,379G)
old_overholt_: 2,000G (15.3%, 53,043G)
CorpusCav: 1,900G (14.5%, 28,902G)
Thyrandaal: 1,000G (7.6%, 181,791G)
AbandonedHall: 824G (6.3%, 824G)
dogsandcatsand: 780G (6.0%, 27,942G)
Nizaha: 624G (4.8%, 2,519G)
Einswolf: 500G (3.8%, 3,785G)
krombobreaker: 500G (3.8%, 13,915G)
DaveStrider55: 400G (3.1%, 400G)
CapnChaos12: 300G (2.3%, 4,569G)
tripaplex: 264G (2.0%, 264G)
argentbast: 248G (1.9%, 248G)
TheBrett: 224G (1.7%, 224G)
AllInBot: 200G (1.5%, 200G)
PancakeHero: 200G (1.5%, 1,326G)
datadrivenbot: 200G (1.5%, 79,146G)
maakur_: 100G (0.8%, 1,611G)
Firesheath: 100G (0.8%, 3,692G)

black bets:
Mesmaster: 3,000G (34.7%, 38,921G)
JonnyCue: 1,463G (16.9%, 2,926G)
BirbBrainsBot: 1,000G (11.6%, 92,241G)
VolgraTheMoose: 900G (10.4%, 21,364G)
lube_squid: 600G (6.9%, 11,057G)
DuPlatypus: 567G (6.6%, 567G)
Riley331: 457G (5.3%, 457G)
getthemoneyz: 230G (2.7%, 2,112,869G)
Widewalk: 227G (2.6%, 227G)
yagyuudarkness: 104G (1.2%, 104G)
ghazzzzzz: 100G (1.2%, 1,527G)
