Final Bets: green - 12 bets for 7,217G (23.3%, x3.29); champion - 21 bets for 23,732G (76.7%, x0.30)

green bets:
Anethum: 1,093G (15.1%, 1,093G)
HASTERIOUS: 1,000G (13.9%, 76,283G)
reverv: 1,000G (13.9%, 7,808G)
BirbBrainsBot: 1,000G (13.9%, 192,168G)
bad1dea: 1,000G (13.9%, 183,185G)
spit8866: 604G (8.4%, 604G)
Draconis345: 500G (6.9%, 2,915G)
UmaiJam: 444G (6.2%, 444G)
kingchadking: 276G (3.8%, 276G)
BuffaloCrunch: 100G (1.4%, 15,103G)
mega_goopta: 100G (1.4%, 850G)
SeedSC: 100G (1.4%, 94,537G)

champion bets:
sinnyil2: 6,993G (29.5%, 13,986G)
PotionDweller: 5,000G (21.1%, 29,592G)
AllInBot: 3,354G (14.1%, 3,354G)
thaetreis: 2,394G (10.1%, 2,394G)
thejoden: 1,324G (5.6%, 1,324G)
Avin_Chaos: 1,050G (4.4%, 2,100G)
SpaZmodeus: 666G (2.8%, 2,930G)
Lydian_C: 560G (2.4%, 2,304G)
R_Raynos: 340G (1.4%, 340G)
Humble_Fabio: 333G (1.4%, 5,025G)
WireLord: 324G (1.4%, 324G)
ar_tactic: 220G (0.9%, 23,698G)
Treapvort: 200G (0.8%, 6,471G)
mirapoix: 200G (0.8%, 5,777G)
rubenflonne: 200G (0.8%, 2,684G)
ungabunga_bot: 147G (0.6%, 3,167G)
Aneyus: 100G (0.4%, 12,909G)
Alc_Trinity: 100G (0.4%, 22,849G)
datadrivenbot: 100G (0.4%, 14,796G)
twelfthrootoftwo: 100G (0.4%, 3,595G)
WinnerBit: 27G (0.1%, 1,159G)
