Final Bets: red - 15 bets for 5,979G (34.7%, x1.88); yellow - 12 bets for 11,249G (65.3%, x0.53)

red bets:
BirbBrainsBot: 1,000G (16.7%, 162,054G)
theNGUYENNER: 1,000G (16.7%, 50,120G)
Draconis345: 1,000G (16.7%, 87,705G)
cam_ATS: 1,000G (16.7%, 4,270G)
maakur_: 420G (7.0%, 420G)
DustBirdEX: 342G (5.7%, 1,416G)
Smashy: 300G (5.0%, 3,670G)
getthemoneyz: 230G (3.8%, 655,403G)
Miyokari: 120G (2.0%, 5,319G)
potgodtopdog: 111G (1.9%, 18,573G)
rjA0zcOQ96: 100G (1.7%, 12,922G)
gggamezzz: 100G (1.7%, 235G)
Error72: 100G (1.7%, 1,754G)
Sykper: 100G (1.7%, 339G)
roqqqpsi: 56G (0.9%, 5,680G)

yellow bets:
cupholderr: 5,000G (44.4%, 34,037G)
killth3kid: 2,000G (17.8%, 42,123G)
HaplessOne: 1,234G (11.0%, 15,876G)
E_Ballard: 1,000G (8.9%, 5,775G)
OrganicArtist: 555G (4.9%, 1,100G)
Baron_von_Scrub: 474G (4.2%, 8,307G)
Eyepoor_: 288G (2.6%, 288G)
GrandmasterFrankerZ: 200G (1.8%, 1,594G)
Oobs56: 150G (1.3%, 3,291G)
ungabunga_bot: 148G (1.3%, 432,877G)
ko2q: 100G (0.9%, 1,764G)
datadrivenbot: 100G (0.9%, 11,227G)
