Final Bets: yellow - 13 bets for 12,236G (45.2%, x1.21); white - 13 bets for 14,846G (54.8%, x0.82)

yellow bets:
ACSpree: 3,000G (24.5%, 18,692G)
Draconis345: 3,000G (24.5%, 84,705G)
killth3kid: 2,000G (16.3%, 43,732G)
DustBirdEX: 1,371G (11.2%, 1,371G)
Baron_von_Scrub: 1,111G (9.1%, 8,688G)
OrganicArtist: 654G (5.3%, 1,284G)
Smashy: 300G (2.5%, 3,452G)
Miyokari: 200G (1.6%, 5,199G)
WillFitzgerald: 200G (1.6%, 2,158G)
ko2q: 100G (0.8%, 1,844G)
datadrivenbot: 100G (0.8%, 11,307G)
gggamezzz: 100G (0.8%, 172G)
GrandmasterFrankerZ: 100G (0.8%, 1,700G)

white bets:
theNGUYENNER: 5,000G (33.7%, 49,666G)
cupholderr: 5,000G (33.7%, 36,195G)
BirbBrainsBot: 1,000G (6.7%, 161,222G)
ungabunga_bot: 903G (6.1%, 432,983G)
HaplessOne: 777G (5.2%, 16,532G)
roqqqpsi: 637G (4.3%, 5,793G)
dogsandcatsand: 467G (3.1%, 467G)
getthemoneyz: 374G (2.5%, 655,101G)
Eyepoor_: 288G (1.9%, 288G)
Squatting_Bear: 100G (0.7%, 1,946G)
RunicMagus: 100G (0.7%, 47,178G)
E_Ballard: 100G (0.7%, 8,029G)
foofermoofer: 100G (0.7%, 892G)
