Final Bets: red - 13 bets for 7,523G (49.0%, x1.04); blue - 18 bets for 7,819G (51.0%, x0.96)

red bets:
volgrathemoose: 2,396G (31.8%, 4,792G)
JumbocactuarX27: 1,690G (22.5%, 1,690G)
toka222: 1,300G (17.3%, 33,569G)
ShintaroNayaka: 412G (5.5%, 412G)
Baron_von_Scrub: 353G (4.7%, 10,013G)
AUrato: 300G (4.0%, 8,797G)
skillomono: 300G (4.0%, 3,296G)
LordSDB: 250G (3.3%, 2,258G)
AmaninAmide: 200G (2.7%, 6,625G)
Jeeboheebo: 100G (1.3%, 4,170G)
asherban: 100G (1.3%, 2,299G)
Dellusionsx: 100G (1.3%, 5,548G)
MalakiGenesys: 22G (0.3%, 224G)

blue bets:
dogsandcatsand: 2,183G (27.9%, 10,917G)
E_Ballard: 1,100G (14.1%, 1,100G)
BirbBrainsBot: 1,000G (12.8%, 159,527G)
HaateXIII: 671G (8.6%, 671G)
Firesheath: 588G (7.5%, 588G)
MohawkBigNOS: 500G (6.4%, 7,523G)
ungabunga_bot: 460G (5.9%, 519,396G)
rjA0zcOQ96: 350G (4.5%, 350G)
nifboy: 250G (3.2%, 3,811G)
getthemoneyz: 138G (1.8%, 683,131G)
RunicMagus: 100G (1.3%, 33,726G)
brokenknight201: 100G (1.3%, 958G)
ko2q: 100G (1.3%, 6,517G)
datadrivenbot: 100G (1.3%, 18,591G)
Ross_from_Cali: 77G (1.0%, 1,607G)
DrAntiSocial: 50G (0.6%, 17,414G)
FriendSquirrel: 50G (0.6%, 1,319G)
daveb_: 2G (0.0%, 1,829G)
