Final Bets: red - 23 bets for 19,599G (59.3%, x0.69); champion - 14 bets for 13,463G (40.7%, x1.46)

red bets:
Thyrandaal: 3,333G (17.0%, 257,131G)
latebit: 2,500G (12.8%, 27,640G)
Forkmore: 2,202G (11.2%, 2,202G)
nhammen: 1,385G (7.1%, 4,618G)
TheMurkGnome: 1,373G (7.0%, 11,829G)
Valgram: 1,000G (5.1%, 2,520G)
BirbBrainsBot: 1,000G (5.1%, 81,510G)
skipsandwiches: 1,000G (5.1%, 8,514G)
killth3kid: 696G (3.6%, 37,872G)
SkylerBunny: 688G (3.5%, 688G)
dogsandcatsand: 661G (3.4%, 661G)
DarrenDinosaurs: 600G (3.1%, 600G)
oldmanbody: 531G (2.7%, 531G)
Laserman1000: 523G (2.7%, 5,623G)
SeniorBunk: 444G (2.3%, 444G)
AllInBot: 409G (2.1%, 409G)
Mesmaster: 408G (2.1%, 408G)
Skjodo: 254G (1.3%, 254G)
JonnyCue: 252G (1.3%, 252G)
MinBetBot: 100G (0.5%, 4,763G)
cho_pin: 100G (0.5%, 764G)
CosmicTactician: 100G (0.5%, 16,760G)
getthemoneyz: 40G (0.2%, 1,613,811G)

champion bets:
DavenIII: 2,648G (19.7%, 17,648G)
Tarheels218: 2,000G (14.9%, 13,093G)
Error72: 1,980G (14.7%, 3,960G)
JumbocactuarX27: 1,244G (9.2%, 1,244G)
powergems: 1,234G (9.2%, 2,974G)
Scurg: 1,181G (8.8%, 1,181G)
Krinku: 1,000G (7.4%, 2,492G)
nekojin: 500G (3.7%, 12,867G)
pplvee1: 488G (3.6%, 3,615G)
thaetreis: 368G (2.7%, 39,240G)
MonchoStrife: 338G (2.5%, 338G)
datadrivenbot: 200G (1.5%, 62,707G)
holdenmagronik: 150G (1.1%, 1,454G)
northkoreancleetus: 132G (1.0%, 132G)
