Final Bets: red - 9 bets for 17,098G (81.0%, x0.24); blue - 11 bets for 4,023G (19.0%, x4.25)

red bets:
gilgamensche: 8,352G (48.8%, 8,352G)
AllInBot: 2,964G (17.3%, 2,964G)
OneHundredFists: 1,728G (10.1%, 3,390G)
CorpusCav: 1,007G (5.9%, 9,120G)
DeathTaxesAndAnime: 820G (4.8%, 820G)
upvla: 800G (4.7%, 3,335G)
Forkmore: 777G (4.5%, 91,004G)
Raixelol: 600G (3.5%, 12,724G)
genkidou: 50G (0.3%, 521G)

blue bets:
BirbBrainsBot: 1,000G (24.9%, 190,917G)
nifboy: 800G (19.9%, 4,824G)
getthemoneyz: 562G (14.0%, 2,023,935G)
3ngag3: 502G (12.5%, 502G)
Zachara: 250G (6.2%, 143,450G)
khelor_: 200G (5.0%, 5,832G)
datadrivenbot: 200G (5.0%, 71,735G)
Astroblitz: 186G (4.6%, 186G)
Lydian_C: 123G (3.1%, 4,395G)
MemoriesofFinal: 100G (2.5%, 30,035G)
Spideycloned: 100G (2.5%, 2,679G)
