Final Bets: green - 26 bets for 21,364G (70.6%, x0.42); yellow - 19 bets for 8,915G (29.4%, x2.40)

green bets:
metagameface: 3,801G (17.8%, 3,801G)
dogsandcatsand: 3,586G (16.8%, 4,886G)
Rislyeu: 1,922G (9.0%, 3,845G)
TheGuesty: 1,500G (7.0%, 39,500G)
Lord_Burrah: 1,443G (6.8%, 97,443G)
StealthModeLocke: 1,149G (5.4%, 1,149G)
gooseyourself: 1,000G (4.7%, 7,867G)
RaIshtar: 1,000G (4.7%, 7,139G)
Aldrammech: 1,000G (4.7%, 7,680G)
volgrathemoose: 806G (3.8%, 806G)
Nizaha: 501G (2.3%, 9,610G)
moonliquor: 500G (2.3%, 3,173G)
sSwing: 494G (2.3%, 494G)
FriendSquirrel: 424G (2.0%, 424G)
kaidykat: 367G (1.7%, 7,350G)
CapnChaos12: 300G (1.4%, 16,040G)
Digitalsocrates: 300G (1.4%, 879G)
Grandlanzer: 220G (1.0%, 220G)
gorgewall: 201G (0.9%, 16,699G)
zanderriv: 200G (0.9%, 1,047G)
MiseryKoss: 150G (0.7%, 1,952G)
ApplesauceBoss: 100G (0.5%, 5,556G)
CorpusCav: 100G (0.5%, 11,043G)
E_Ballard: 100G (0.5%, 2,382G)
CosmicTactician: 100G (0.5%, 4,373G)
datadrivenbot: 100G (0.5%, 29,969G)

yellow bets:
gogofromtogo: 1,404G (15.7%, 1,404G)
lowlf: 1,201G (13.5%, 25,964G)
MADTheta: 1,000G (11.2%, 10,813G)
BirbBrainsBot: 1,000G (11.2%, 66,704G)
Mesmaster: 1,000G (11.2%, 112,532G)
DLJuggernaut: 600G (6.7%, 4,117G)
evdoggity: 300G (3.4%, 5,875G)
benticore: 300G (3.4%, 3,140G)
getthemoneyz: 282G (3.2%, 759,884G)
CandyTamer: 252G (2.8%, 434G)
Lythe_Caraker: 250G (2.8%, 118,862G)
HaateXIII: 250G (2.8%, 11,170G)
rico_flex: 250G (2.8%, 25,108G)
kaelsun: 248G (2.8%, 248G)
Stealthtoucan: 178G (2.0%, 3,575G)
maakur_: 100G (1.1%, 8,318G)
Powerpinch: 100G (1.1%, 100G)
ZombiFrancis: 100G (1.1%, 100G)
d4rr1n: 100G (1.1%, 6,725G)
