Final Bets: blue - 16 bets for 21,575G (78.5%, x0.27); yellow - 15 bets for 5,924G (21.5%, x3.64)

blue bets:
TheGuesty: 13,431G (62.3%, 40,703G)
gooseyourself: 1,984G (9.2%, 3,969G)
dogsandcatsand: 1,705G (7.9%, 1,705G)
Aldrammech: 1,000G (4.6%, 7,592G)
Lionhermit: 1,000G (4.6%, 5,758G)
DeathTaxesAndAnime: 640G (3.0%, 640G)
kaelsun: 330G (1.5%, 330G)
metagameface: 304G (1.4%, 304G)
Digitalsocrates: 300G (1.4%, 1,200G)
gorgewall: 201G (0.9%, 16,332G)
Stealthtoucan: 180G (0.8%, 3,612G)
Flameatron: 100G (0.5%, 1,061G)
datadrivenbot: 100G (0.5%, 29,991G)
Evewho: 100G (0.5%, 7,259G)
kaidykat: 100G (0.5%, 6,983G)
MiseryKoss: 100G (0.5%, 1,733G)

yellow bets:
lowlf: 1,205G (20.3%, 29,941G)
DLJuggernaut: 1,000G (16.9%, 5,205G)
BirbBrainsBot: 1,000G (16.9%, 69,012G)
HASTERIOUS: 392G (6.6%, 7,858G)
StealthModeLocke: 376G (6.3%, 376G)
CorpusCav: 300G (5.1%, 11,417G)
gary_corson: 277G (4.7%, 5,547G)
Lythe_Caraker: 250G (4.2%, 119,111G)
gogofromtogo: 240G (4.1%, 240G)
getthemoneyz: 218G (3.7%, 760,439G)
Xcessive30: 216G (3.6%, 216G)
benticore: 200G (3.4%, 3,733G)
E_Ballard: 100G (1.7%, 1,273G)
CosmicTactician: 100G (1.7%, 4,173G)
moonliquor: 50G (0.8%, 3,569G)
