High Risers:
1. Biske13: +33,097G
2. Douchetron: +2,620G
3. Zbgs: +2,571G
4. Laserman1000: +1,407G
5. Nifboy: +1,311G
6. Swish604: +879G
7. Shalloween: +690G
8. Zerguzen: +635G
9. Novaknight21: +552G
10. Upvla: +515G
11. Skillomono: +377G
12. Leonidusx: +369G
13. Chubbybrocast: +306G
14. Firesheath: +156G
15. Mushufasa_: +114G
16. Kainplaysgames: +45G
17. Giganticdwarves: -28G
18. Wrath189: -48G
19. Resjudicata3: -57G
20. Davestrider55: -80G
21. J_52: -100G
22. Gorgewall: -116G
23. Pathogen7: -127G
24. Chuckolator: -200G
25. Memoriesoffinal: -225G
26. Jabuamba: -298G
27. Sietaha: -300G
28. 0v3rr8d: -300G
29. Powergems: -300G
30. Wildetrys: -303G
31. Lythe_caraker: -375G
32. Tithonus: -478G
33. Victoriolue: -500G
34. Ribbiks: -500G
35. Mesmaster: -658G
36. 3ngag3: -980G
37. Lowlf: -1,204G
38. Ruleof5: -1,400G
39. Raixelol: -1,439G
40. Krombobreaker: -1,573G
41. Deathtaxesandanime: -1,883G
42. Error72: -1,901G
43. Musashi45: -2,017G
44. Thyrandaal: -3,000G
45. Reinoe: -3,897G
46. Ct_5_holy: -4,327G
47. Corpuscav: -4,882G
48. Nicosavoy: -5,352G
49. Fattunaking: -5,900G
50. Onehundredfists: -6,440G
