Final Bets: green - 14 bets for 8,925G (69.2%, x0.45); yellow - 11 bets for 3,978G (30.8%, x2.24)

green bets:
CorpusCav: 1,344G (15.1%, 48,413G)
Tithonus: 1,171G (13.1%, 1,171G)
biske13: 1,111G (12.4%, 7,850G)
DeathTaxesAndAnime: 1,002G (11.2%, 19,041G)
BirbBrainsBot: 1,000G (11.2%, 2,916G)
ChubbyBroCast: 686G (7.7%, 686G)
krombobreaker: 500G (5.6%, 1,785G)
DaveStrider55: 471G (5.3%, 471G)
AllInBot: 456G (5.1%, 456G)
prince_rogers_nelson_: 428G (4.8%, 428G)
douchetron: 356G (4.0%, 356G)
datadrivenbot: 200G (2.2%, 64,376G)
pathogen7: 100G (1.1%, 494G)
kainplaysgames: 100G (1.1%, 4,259G)

yellow bets:
Musashi45: 1,000G (25.1%, 12,540G)
resjudicata3: 850G (21.4%, 850G)
lowlf: 540G (13.6%, 14,301G)
Wrath189: 501G (12.6%, 501G)
3ngag3: 340G (8.5%, 14,230G)
QuestMoreLand: 200G (5.0%, 538G)
getthemoneyz: 146G (3.7%, 1,962,226G)
gorgewall: 101G (2.5%, 4,712G)
BartTradingCompany: 100G (2.5%, 10,413G)
MemoriesofFinal: 100G (2.5%, 22,598G)
Firesheath: 100G (2.5%, 4,217G)
