Final Bets: green - 19 bets for 19,090G (53.5%, x0.87); yellow - 18 bets for 16,579G (46.5%, x1.15)

green bets:
EnemyController: 3,500G (18.3%, 1,837,936G)
DavenIII: 3,334G (17.5%, 16,672G)
Zagorsek: 2,204G (11.5%, 2,204G)
Musashi45: 2,093G (11.0%, 2,093G)
Mushufasa_: 1,234G (6.5%, 35,877G)
BirbBrainsBot: 1,000G (5.2%, 186,445G)
E_Ballard: 956G (5.0%, 956G)
AllInBot: 755G (4.0%, 755G)
FriendSquirrel: 614G (3.2%, 614G)
nifboy: 608G (3.2%, 608G)
technominari: 500G (2.6%, 91,617G)
2b_yorha_b: 500G (2.6%, 28,885G)
Lord_Gwarth: 500G (2.6%, 3,622G)
JonnyCue: 488G (2.6%, 11,830G)
Lushifah: 300G (1.6%, 13,071G)
Finewax: 200G (1.0%, 5,205G)
verythinice: 104G (0.5%, 604G)
heropong: 100G (0.5%, 2,670G)
FuzzyTigers: 100G (0.5%, 399G)

yellow bets:
OneHundredFists: 4,069G (24.5%, 94,956G)
maakur_: 2,642G (15.9%, 2,642G)
holdenmagronik: 1,972G (11.9%, 1,972G)
CorpusCav: 1,200G (7.2%, 54,520G)
DeathTaxesAndAnime: 1,106G (6.7%, 1,106G)
killth3kid: 856G (5.2%, 54,397G)
Sairentozon7: 668G (4.0%, 668G)
getthemoneyz: 640G (3.9%, 2,202,816G)
SephDarkheart: 592G (3.6%, 8,116G)
krombobreaker: 500G (3.0%, 38,535G)
Spartan_Paladin: 500G (3.0%, 3,573G)
lowlf: 400G (2.4%, 400G)
DrAntiSocial: 384G (2.3%, 384G)
mizzmoonshine: 349G (2.1%, 349G)
gorgewall: 201G (1.2%, 4,079G)
resjudicata3: 200G (1.2%, 9,848G)
datadrivenbot: 200G (1.2%, 83,701G)
CosmicTactician: 100G (0.6%, 936G)
