Final Bets: green - 10 bets for 8,288G (27.8%, x2.59); white - 20 bets for 21,505G (72.2%, x0.39)

green bets:
Musashi45: 2,536G (30.6%, 5,073G)
Smokegiant: 1,071G (12.9%, 1,071G)
tinytittyfiend: 1,017G (12.3%, 1,017G)
killth3kid: 856G (10.3%, 53,294G)
maakur_: 700G (8.4%, 700G)
holdenmagronik: 508G (6.1%, 508G)
technominari: 500G (6.0%, 91,594G)
krombobreaker: 500G (6.0%, 39,337G)
Mushufasa_: 500G (6.0%, 40,162G)
Firesheath: 100G (1.2%, 2,994G)

white bets:
DavenIII: 5,674G (26.4%, 19,567G)
EnemyController: 2,222G (10.3%, 1,843,012G)
nhammen: 2,000G (9.3%, 31,293G)
old_overholt_: 2,000G (9.3%, 33,451G)
Nizaha: 1,430G (6.6%, 5,721G)
Spartan_Paladin: 1,200G (5.6%, 3,281G)
DeathTaxesAndAnime: 1,008G (4.7%, 1,008G)
CorpusCav: 1,002G (4.7%, 53,820G)
ruleof5: 1,000G (4.7%, 1,913G)
BirbBrainsBot: 1,000G (4.7%, 188,229G)
Zagorsek: 588G (2.7%, 588G)
Bongomon7: 504G (2.3%, 1,039G)
2b_yorha_b: 500G (2.3%, 29,778G)
Lord_Gwarth: 500G (2.3%, 4,323G)
roofiepops: 222G (1.0%, 4,598G)
AllInBot: 200G (0.9%, 200G)
datadrivenbot: 200G (0.9%, 83,637G)
gorgewall: 101G (0.5%, 3,957G)
FuzzyTigers: 100G (0.5%, 678G)
getthemoneyz: 54G (0.3%, 2,201,951G)
