Final Bets: black - 17 bets for 8,213G (48.8%, x1.05); champion - 13 bets for 8,630G (51.2%, x0.95)

black bets:
Nizaha: 1,001G (12.2%, 12,192G)
GladiatorLupe: 1,000G (12.2%, 10,376G)
BirbBrainsBot: 1,000G (12.2%, 100,103G)
sinnyil2: 650G (7.9%, 24,179G)
getthemoneyz: 620G (7.5%, 989,159G)
Cryptopsy70: 568G (6.9%, 18,490G)
TheChainNerd: 536G (6.5%, 7,016G)
Oobs56: 534G (6.5%, 1,069G)
CorpusCav: 440G (5.4%, 440G)
MagicBottle: 416G (5.1%, 416G)
eudes89: 372G (4.5%, 372G)
sososteve: 250G (3.0%, 2,074G)
killth3kid: 234G (2.8%, 2,340G)
Meta_Five: 200G (2.4%, 36,310G)
fluffskull: 192G (2.3%, 1,876G)
CosmicTactician: 100G (1.2%, 6,667G)
maakur_: 100G (1.2%, 24,401G)

champion bets:
toka222: 2,500G (29.0%, 42,460G)
Zetchryn: 1,000G (11.6%, 2,527G)
LDSkinny: 1,000G (11.6%, 7,663G)
benticore: 674G (7.8%, 674G)
Laserman1000: 642G (7.4%, 3,742G)
fenaen: 600G (7.0%, 37,242G)
Kronikle: 500G (5.8%, 14,247G)
evdoggity: 500G (5.8%, 14,749G)
Baron_von_Scrub: 440G (5.1%, 440G)
skillomono: 300G (3.5%, 1,384G)
Lythe_Caraker: 250G (2.9%, 109,192G)
ericzubat: 124G (1.4%, 124G)
nifboy: 100G (1.2%, 4,986G)
