High Risers:
1. Sairentozon7: +33,572G
2. Lolthsmeat: +29,613G
3. Laserman1000: +7,692G
4. DeathTaxesAndAnime: +5,304G
5. E_Ballard: +3,623G
6. RunicMagus: +2,559G
7. HorusTaurus: +2,293G
8. Zbgs: +1,859G
9. Evewho: +1,856G
10. squideater_: +1,725G
11. CorpusCav: +1,641G
12. Nickyfive: +1,293G
13. FE34923: +1,158G
14. Zagorsek: +1,110G
15. ValensEXP_: +1,051G
16. DLJuggernaut: +858G
17. Jehudy7: +651G
18. superdevon1: +560G
19. YowaneHaku: +555G
20. dogsandcatsand: +458G
21. mirapoix: +202G
22. Thyrandaal: +142G
23. recneps567: +89G
24. resjudicata3: +89G
25. MrJamDango: +78G
26. highelectricaltemperature: +73G
27. lowlf: +4G
28. rjA0zcOQ96: -55G
29. duckfacebro: -99G
30. victoriolue: -100G
31. galkife: -100G
32. Therealelmdor: -100G
33. lijarkh: -100G
34. roofiepops: -182G
35. JethroThrul: -200G
36. Grayv87: -200G
37. nifboy: -210G
38. krombobreaker: -280G
39. escobro: -284G
40. Lydian_C: -292G
41. DavenIII: -300G
42. chaosdesigned: -300G
43. reddwind_: -300G
44. Phi_Sig: -300G
45. VolgraTheMoose: -326G
46. JonnyCue: -496G
47. technominari: -500G
48. lygg_mubblez: -514G
49. daveb_: -533G
50. SeniorBunk: -556G
51. old_overholt_: -600G
52. gorgewall: -625G
53. coralreeferz: -698G
54. Meanderandreturn: -700G
55. WireLord: -996G
56. HuffFlex: -1,000G
57. Runeseeker22: -1,000G
58. king_smashington: -1,000G
59. DarrenDinosaurs: -1,400G
60. SephDarkheart: -1,408G
61. tripaplex: -2,300G
62. FatTunaKing: -2,400G
63. pplvee1: -2,418G
64. b0lt: -3,000G
65. murderclan: -3,283G
66. helpimabug: -3,654G
67. Breakdown777: -3,741G
68. Mushufasa_: -4,584G
69. Forkmore: -4,643G
70. Demon_Lord_Josh: -6,062G
71. TheBrett: -9,555G
72. NicoSavoy: -11,141G
73. thebluesman: -11,384G
