Final Bets: red - 11 bets for 10,268G (40.4%, x1.47); blue - 15 bets for 15,141G (59.6%, x0.68)

red bets:
Aldrammech: 5,000G (48.7%, 45,264G)
DeathTaxesAndAnime: 1,242G (12.1%, 2,436G)
VolgraTheMoose: 1,105G (10.8%, 2,211G)
mpghappiness: 1,001G (9.7%, 3,635G)
letdowncity: 476G (4.6%, 15,942G)
WoooBlaaa: 444G (4.3%, 444G)
Smashy: 300G (2.9%, 8,543G)
brokenknight201: 300G (2.9%, 1,354G)
datadrivenbot: 200G (1.9%, 44,437G)
CosmicTactician: 100G (1.0%, 25,038G)
AlenaZarek: 100G (1.0%, 46,659G)

blue bets:
dogsandcatsand: 3,185G (21.0%, 9,653G)
reinoe: 3,000G (19.8%, 76,707G)
SkylerBunny: 2,000G (13.2%, 82,811G)
Zagorsek: 1,381G (9.1%, 2,762G)
BirbBrainsBot: 1,000G (6.6%, 119,055G)
getthemoneyz: 1,000G (6.6%, 1,459,314G)
Shalloween: 1,000G (6.6%, 16,414G)
Forkmore: 713G (4.7%, 713G)
GoatShow2: 630G (4.2%, 630G)
maximumcrit: 300G (2.0%, 10,501G)
Chambs12: 264G (1.7%, 516G)
AllInBot: 200G (1.3%, 200G)
TasisSai: 200G (1.3%, 14,260G)
silentkaster: 168G (1.1%, 3,168G)
WillFitzgerald: 100G (0.7%, 10,297G)
