Final Bets: blue - 9 bets for 14,783G (32.0%, x2.12); champion - 21 bets for 31,361G (68.0%, x0.47)

blue bets:
GoatShow2: 8,212G (55.6%, 8,212G)
Zagorsek: 2,513G (17.0%, 5,026G)
pandasforsale: 1,618G (10.9%, 1,618G)
roqqqpsi: 684G (4.6%, 1,053G)
killth3kid: 584G (4.0%, 13,111G)
douchetron: 472G (3.2%, 472G)
TheRealRiggz: 400G (2.7%, 1,907G)
AllInBot: 200G (1.4%, 200G)
mirapoix: 100G (0.7%, 4,266G)

champion bets:
Thyrandaal: 4,500G (14.3%, 131,057G)
dogsandcatsand: 3,273G (10.4%, 13,094G)
evdoggity: 3,000G (9.6%, 253,201G)
reinoe: 3,000G (9.6%, 82,424G)
toka222: 2,700G (8.6%, 91,055G)
Shalloween: 2,300G (7.3%, 16,880G)
maximumcrit: 2,000G (6.4%, 9,676G)
SkylerBunny: 2,000G (6.4%, 85,832G)
DeathTaxesAndAnime: 1,983G (6.3%, 1,983G)
BirbBrainsBot: 1,000G (3.2%, 117,916G)
AlenaZarek: 1,000G (3.2%, 45,216G)
HaateXIII: 907G (2.9%, 907G)
VolgraTheMoose: 884G (2.8%, 884G)
mpghappiness: 600G (1.9%, 600G)
Hasterious: 500G (1.6%, 500G)
nekojin: 500G (1.6%, 10,192G)
Chambs12: 300G (1.0%, 1,899G)
Smashy: 300G (1.0%, 8,743G)
brokenknight201: 300G (1.0%, 1,258G)
datadrivenbot: 200G (0.6%, 44,598G)
getthemoneyz: 114G (0.4%, 1,460,246G)
