Final Bets: white - 12 bets for 8,402G (33.5%, x1.98); black - 16 bets for 16,675G (66.5%, x0.50)

white bets:
PatSouI: 3,000G (35.7%, 26,255G)
Slowbrofist: 2,000G (23.8%, 2,000G)
ungabunga_bot: 1,000G (11.9%, 146,935G)
getthemoneyz: 778G (9.3%, 497,449G)
leakimiko: 600G (7.1%, 600G)
DrAntiSocial: 344G (4.1%, 344G)
DaMadPanda182: 200G (2.4%, 313G)
GrandmasterFrankerZ: 150G (1.8%, 2,550G)
ThePuss: 128G (1.5%, 128G)
jame3200: 112G (1.3%, 112G)
GingerDynomite: 50G (0.6%, 2,976G)
potgodtopdog: 40G (0.5%, 2,828G)

black bets:
HASTERIOUS: 3,250G (19.5%, 6,374G)
helpimabug: 2,921G (17.5%, 5,843G)
sinnyil2: 2,500G (15.0%, 36,575G)
reinoe: 2,000G (12.0%, 14,181G)
MirtaiAtana: 1,071G (6.4%, 1,071G)
ko2q: 1,000G (6.0%, 15,429G)
kekkerscrew: 1,000G (6.0%, 16,675G)
BirbBrainsBot: 1,000G (6.0%, 197,731G)
Maeveen: 585G (3.5%, 585G)
ZephyrTempest: 342G (2.1%, 73,963G)
Reiniku: 300G (1.8%, 1,658G)
KasugaiRoastedPeas: 200G (1.2%, 4,869G)
datadrivenbot: 156G (0.9%, 157G)
DeathTaxesAndAnime: 150G (0.9%, 1,835G)
twelfthrootoftwo: 100G (0.6%, 2,495G)
HashtagRob_: 100G (0.6%, 1,843G)
