Final Bets: yellow - 22 bets for 30,487G (68.2%, x0.47); white - 22 bets for 14,236G (31.8%, x2.14)

yellow bets:
rednecknazgul: 17,127G (56.2%, 17,127G)
Aldrammech: 3,412G (11.2%, 3,412G)
Evewho: 1,028G (3.4%, 1,028G)
TheMurkGnome: 1,000G (3.3%, 10,464G)
amiture: 1,000G (3.3%, 11,595G)
loveyouallfriends: 934G (3.1%, 1,868G)
Kronikle: 800G (2.6%, 4,245G)
Firesheath: 752G (2.5%, 752G)
killth3kid: 700G (2.3%, 94,171G)
escobro: 500G (1.6%, 6,811G)
reinoe: 500G (1.6%, 39,068G)
electric_algus: 500G (1.6%, 45,112G)
TasisSai: 300G (1.0%, 7,318G)
Lemonjohns: 300G (1.0%, 4,580G)
cougboi: 300G (1.0%, 2,235G)
furrytomahawkk: 298G (1.0%, 298G)
Treafa: 250G (0.8%, 1,481G)
datadrivenbot: 200G (0.7%, 60,164G)
dtrain332: 195G (0.6%, 195G)
roofiepops: 191G (0.6%, 1,851G)
Miku_Shikhu: 100G (0.3%, 5,319G)
OhEnou: 100G (0.3%, 100G)

white bets:
DeathTaxesAndAnime: 3,246G (22.8%, 6,366G)
NicoSavoy: 2,000G (14.0%, 176,671G)
EnemyController: 1,111G (7.8%, 1,413,459G)
twelfthrootoftwo: 1,019G (7.2%, 1,019G)
UmaiJam: 1,000G (7.0%, 54,172G)
BirbBrainsBot: 1,000G (7.0%, 103,367G)
gorgewall: 875G (6.1%, 875G)
pallidsable: 472G (3.3%, 472G)
Mushufasa_: 400G (2.8%, 1,934G)
Rislyeu: 360G (2.5%, 360G)
Powermhero: 333G (2.3%, 24,000G)
fluffskull: 300G (2.1%, 3,022G)
dantayystv: 300G (2.1%, 21,386G)
richardserious: 288G (2.0%, 288G)
galkife: 250G (1.8%, 64,137G)
ThreeMileIsland: 244G (1.7%, 244G)
dem0nj0ns: 224G (1.6%, 224G)
BlueAbs: 204G (1.4%, 204G)
Mysteriousdewd: 200G (1.4%, 9,050G)
just_here2: 200G (1.4%, 3,686G)
getthemoneyz: 110G (0.8%, 1,277,004G)
letdowncity: 100G (0.7%, 4,750G)
