Final Bets: red - 15 bets for 4,431G (24.4%, x3.09); black - 22 bets for 13,697G (75.6%, x0.32)

red bets:
mirapoix: 1,026G (23.2%, 2,052G)
BirbBrainsBot: 1,000G (22.6%, 199,672G)
ForestMagi: 419G (9.5%, 419G)
sixstop: 335G (7.6%, 335G)
ZephyrTempest: 233G (5.3%, 86,480G)
itzover9001: 228G (5.1%, 228G)
Chuckolator: 218G (4.9%, 6,966G)
FoxfireSyrus: 200G (4.5%, 1,523G)
mastershango: 200G (4.5%, 785G)
Anox_Skell: 200G (4.5%, 442G)
getthemoneyz: 112G (2.5%, 500,726G)
ANFz: 100G (2.3%, 7,898G)
Conome: 100G (2.3%, 666G)
madman66666: 50G (1.1%, 184G)
HoopyFreud: 10G (0.2%, 3,207G)

black bets:
Lydian_C: 2,400G (17.5%, 94,715G)
HaplessOne: 2,000G (14.6%, 84,922G)
sinnyil2: 1,200G (8.8%, 28,976G)
Shakarak: 1,102G (8.0%, 1,102G)
WireLord: 1,000G (7.3%, 3,631G)
Humble_Fabio: 966G (7.1%, 966G)
pandasforsale: 777G (5.7%, 6,506G)
HASTERIOUS: 656G (4.8%, 5,470G)
HaateXIII: 600G (4.4%, 2,906G)
Laserman1000: 500G (3.7%, 21,700G)
Oreo_Pizza: 500G (3.7%, 12,274G)
LAGBOT30000: 451G (3.3%, 9,026G)
JackOnFire1: 288G (2.1%, 10,288G)
ungabunga_bot: 224G (1.6%, 167,856G)
ll_aja_ll: 200G (1.5%, 2,700G)
L2_Sentinel: 200G (1.5%, 22,850G)
Estan_AD: 167G (1.2%, 167G)
datadrivenbot: 146G (1.1%, 147G)
gorgewall: 100G (0.7%, 3,985G)
jjones032109: 100G (0.7%, 645G)
CapnChaos12: 100G (0.7%, 2,747G)
LordMaxoss: 20G (0.1%, 224G)
