Final Bets: yellow - 18 bets for 9,710G (64.7%, x0.55); black - 15 bets for 5,306G (35.3%, x1.83)

yellow bets:
toka222: 2,000G (20.6%, 104,952G)
E_Ballard: 1,092G (11.2%, 1,092G)
BirbBrainsBot: 1,000G (10.3%, 73,121G)
NicoSavoy: 1,000G (10.3%, 29,042G)
getthemoneyz: 762G (7.8%, 762,411G)
richardserious: 598G (6.2%, 598G)
old_overholt_: 500G (5.1%, 14,808G)
rico_flex: 500G (5.1%, 17,571G)
benticore: 400G (4.1%, 4,516G)
coralreeferz: 380G (3.9%, 380G)
skillomono: 300G (3.1%, 2,820G)
CapnChaos12: 300G (3.1%, 16,172G)
kaelsun: 244G (2.5%, 244G)
Stealthtoucan: 219G (2.3%, 4,384G)
tk0002: 116G (1.2%, 116G)
cloud92684: 100G (1.0%, 16,479G)
foofermoofer: 100G (1.0%, 4,497G)
pplvee1: 99G (1.0%, 2,791G)

black bets:
Firesheath: 1,040G (19.6%, 1,040G)
Laserman1000: 686G (12.9%, 24,586G)
sukotsuto: 500G (9.4%, 17,837G)
HaateXIII: 500G (9.4%, 17,883G)
nifboy: 500G (9.4%, 14,152G)
bruubarg: 500G (9.4%, 2,875G)
ShintaroNayaka: 388G (7.3%, 388G)
Mokura3rd: 300G (5.7%, 648G)
beowulfrulez: 288G (5.4%, 288G)
chickenchallenge: 104G (2.0%, 104G)
AllInBot: 100G (1.9%, 100G)
CosmicTactician: 100G (1.9%, 6,053G)
Kellios11: 100G (1.9%, 9,194G)
datadrivenbot: 100G (1.9%, 28,916G)
maleblackfiora: 100G (1.9%, 1,888G)
