Final Bets: white - 11 bets for 3,516G (14.1%, x6.09); black - 23 bets for 21,406G (85.9%, x0.16)

white bets:
ShadowNinja25: 800G (22.8%, 7,723G)
fenaen: 512G (14.6%, 14,591G)
technominari: 500G (14.2%, 78,035G)
ribbiks: 458G (13.0%, 458G)
scsuperstar: 343G (9.8%, 343G)
powergems: 333G (9.5%, 4,969G)
Musashi45: 248G (7.1%, 248G)
OneHundredFists: 100G (2.8%, 1,513G)
J_52: 100G (2.8%, 1,950G)
MemoriesofFinal: 100G (2.8%, 40,812G)
getthemoneyz: 22G (0.6%, 2,041,218G)

black bets:
Mesmaster: 5,000G (23.4%, 63,769G)
Virilikus: 5,000G (23.4%, 206,335G)
upvla: 2,718G (12.7%, 2,718G)
latebit: 1,111G (5.2%, 12,684G)
silentkaster: 1,000G (4.7%, 1,000G)
BirbBrainsBot: 1,000G (4.7%, 45,474G)
Smashy: 788G (3.7%, 788G)
krombobreaker: 700G (3.3%, 8,000G)
Spartan_Paladin: 517G (2.4%, 2,069G)
Lyner87: 500G (2.3%, 109,330G)
ericzubat: 500G (2.3%, 35,447G)
Twisted_Nutsatchel: 500G (2.3%, 6,015G)
roofiepops: 468G (2.2%, 468G)
resjudicata3: 392G (1.8%, 392G)
AllInBot: 200G (0.9%, 200G)
datadrivenbot: 200G (0.9%, 71,521G)
khelor_: 200G (0.9%, 3,004G)
NicoSavoy: 111G (0.5%, 121,563G)
gorgewall: 101G (0.5%, 3,764G)
RunicMagus: 100G (0.5%, 5,404G)
Thyrandaal: 100G (0.5%, 97,459G)
hecsec: 100G (0.5%, 100G)
tripaplex: 100G (0.5%, 2,602G)
