Final Bets: red - 13 bets for 6,871G (60.5%, x0.65); blue - 7 bets for 4,489G (39.5%, x1.53)

red bets:
alrightbye: 2,136G (31.1%, 35,601G)
sinnyil2: 1,200G (17.5%, 60,756G)
lijarkh: 1,000G (14.6%, 3,869G)
HaplessOne: 919G (13.4%, 919G)
getthemoneyz: 480G (7.0%, 588,115G)
mesmaster: 200G (2.9%, 1,778G)
FattyBearsteak: 200G (2.9%, 1,481G)
TheRylander: 200G (2.9%, 2,181G)
nifboy: 136G (2.0%, 3,412G)
placeholdercats: 100G (1.5%, 1,167G)
Escorian: 100G (1.5%, 8,852G)
datadrivenbot: 100G (1.5%, 2,770G)
L_M_D: 100G (1.5%, 100G)

blue bets:
Odin007_88: 1,197G (26.7%, 2,197G)
ungabunga_bot: 1,000G (22.3%, 267,496G)
BirbBrainsBot: 907G (20.2%, 13,983G)
EnemyController: 500G (11.1%, 147,233G)
ZephyrTempest: 400G (8.9%, 3,571G)
Aneyus: 333G (7.4%, 33,301G)
LivingHitokiri: 152G (3.4%, 152G)
