Final Bets: white - 11 bets for 5,050G (59.2%, x0.69); black - 10 bets for 3,485G (40.8%, x1.45)

white bets:
HASTERIOUS: 1,598G (31.6%, 31,960G)
BirbBrainsBot: 1,000G (19.8%, 14,371G)
ZephyrTempest: 643G (12.7%, 4,293G)
Dexsana: 500G (9.9%, 13,754G)
HaplessOne: 353G (7.0%, 353G)
TheRylander: 300G (5.9%, 1,069G)
EnemyController: 200G (4.0%, 148,173G)
LivingHitokiri: 152G (3.0%, 152G)
L_M_D: 104G (2.1%, 104G)
Firesheath: 100G (2.0%, 12,746G)
Evewho: 100G (2.0%, 19,282G)

black bets:
getthemoneyz: 770G (22.1%, 587,499G)
jakeduhhsnake: 646G (18.5%, 646G)
alrightbye: 500G (14.3%, 33,465G)
Odin007_88: 500G (14.3%, 4,029G)
ungabunga_bot: 265G (7.6%, 269,202G)
placeholdercats: 248G (7.1%, 1,242G)
mesmaster: 200G (5.7%, 1,378G)
Fenrislfr: 156G (4.5%, 156G)
OneHundredFists: 100G (2.9%, 4,457G)
datadrivenbot: 100G (2.9%, 2,688G)
