Final Bets: red - 35 bets for 22,676G (58.5%, x0.71); yellow - 13 bets for 16,117G (41.5%, x1.41)

red bets:
YaBoy125: 4,614G (20.3%, 4,614G)
HaateXIII: 1,579G (7.0%, 1,579G)
sinnyil2: 1,492G (6.6%, 2,985G)
OmnibotGamma: 1,247G (5.5%, 1,247G)
Lord_Burrah: 1,200G (5.3%, 99,694G)
Aldrammech: 1,172G (5.2%, 1,172G)
kingchadking: 1,167G (5.1%, 1,167G)
SeedSC: 1,000G (4.4%, 181,949G)
Baron_von_Scrub: 953G (4.2%, 953G)
Lanshaft: 886G (3.9%, 886G)
waterwatereverywhere: 880G (3.9%, 880G)
fallendj77: 819G (3.6%, 819G)
OneHundredFists: 636G (2.8%, 636G)
maakur_: 626G (2.8%, 626G)
BenYuPoker: 590G (2.6%, 590G)
luminarii: 572G (2.5%, 13,324G)
Pie108: 500G (2.2%, 9,526G)
RunicMagus: 388G (1.7%, 388G)
mexskacin: 319G (1.4%, 319G)
Jonusfatson: 300G (1.3%, 1,731G)
Break3r: 280G (1.2%, 280G)
evdoggity: 252G (1.1%, 252G)
roqqqpsi: 222G (1.0%, 2,009G)
arch8000: 200G (0.9%, 4,773G)
AllInBot: 100G (0.4%, 100G)
IndecisiveNinja: 100G (0.4%, 4,790G)
ApplesauceBoss: 100G (0.4%, 5,435G)
moonliquor: 100G (0.4%, 621G)
datadrivenbot: 100G (0.4%, 26,007G)
BlinkFS: 100G (0.4%, 3,521G)
Firesheath: 100G (0.4%, 1,436G)
cougboi: 50G (0.2%, 5,009G)
getthemoneyz: 26G (0.1%, 446,356G)
ko2q: 5G (0.0%, 2,927G)
daveb_: 1G (0.0%, 1,798G)

yellow bets:
Nizaha: 6,638G (41.2%, 13,277G)
HASTERIOUS: 2,539G (15.8%, 2,539G)
Shalloween: 1,400G (8.7%, 10,760G)
catfashions: 1,069G (6.6%, 1,069G)
Orerries: 1,021G (6.3%, 1,021G)
MantisFinch: 1,000G (6.2%, 9,546G)
BirbBrainsBot: 1,000G (6.2%, 289,162G)
Zeroroute: 600G (3.7%, 600G)
TheGuesty: 350G (2.2%, 2,826G)
JustSuperish: 200G (1.2%, 4,816G)
Lodrak: 100G (0.6%, 2,789G)
ZephyrTempest: 100G (0.6%, 38,567G)
SaintOmerville: 100G (0.6%, 385G)
