Final Bets: blue - 19 bets for 6,466G (46.8%, x1.14); yellow - 13 bets for 7,365G (53.2%, x0.88)

blue bets:
CapnChaos12: 1,236G (19.1%, 1,236G)
HaateXIII: 787G (12.2%, 787G)
rico_flex: 723G (11.2%, 723G)
ungabunga_bot: 658G (10.2%, 153,876G)
leakimiko: 600G (9.3%, 600G)
Meta_Five: 400G (6.2%, 8,605G)
arch8000: 392G (6.1%, 13,097G)
Slowbrofist: 344G (5.3%, 344G)
catfashions: 250G (3.9%, 6,018G)
newbie404: 224G (3.5%, 224G)
lifeguard_dan: 200G (3.1%, 729G)
404namesnotfound: 120G (1.9%, 120G)
LazarusAjin: 112G (1.7%, 112G)
SwaffleWaffles: 110G (1.7%, 1,109G)
Lodrak: 100G (1.5%, 4,769G)
Tacobowl8: 100G (1.5%, 2,753G)
daveb_: 55G (0.9%, 1,929G)
DrAntiSocial: 50G (0.8%, 1,375G)
BirbBrainsBot: 5G (0.1%, 186,003G)

yellow bets:
maakur_: 2,476G (33.6%, 2,476G)
roofiepops: 1,717G (23.3%, 1,717G)
fenaen: 700G (9.5%, 13,752G)
ShintaroNayaka: 500G (6.8%, 27,282G)
FoeSquirrel: 443G (6.0%, 443G)
OmnibotGamma: 404G (5.5%, 404G)
holyonline: 328G (4.5%, 328G)
old_overholt_: 300G (4.1%, 6,331G)
commandlistfgc: 112G (1.5%, 112G)
guering: 108G (1.5%, 108G)
lohakilo: 100G (1.4%, 100G)
ko2q: 100G (1.4%, 6,118G)
datadrivenbot: 77G (1.0%, 100G)
