Final Bets: blue - 4 bets for 22,098G (46.4%, x1.16); yellow - 19 bets for 25,563G (53.6%, x0.86)

blue bets:
Zetchryn: 17,742G (80.3%, 17,742G)
Zerguzen: 3,826G (17.3%, 3,826G)
Galeronis: 280G (1.3%, 963G)
ValensEXP_: 250G (1.1%, 22,756G)

yellow bets:
b0lt: 10,000G (39.1%, 25,082G)
TheBrett: 5,000G (19.6%, 24,113G)
HaplessOne: 2,063G (8.1%, 2,063G)
MemoriesofFinal: 2,000G (7.8%, 6,039G)
CosmicTactician: 1,179G (4.6%, 1,179G)
BirbBrainsBot: 1,000G (3.9%, 33,562G)
Lolthsmeat: 1,000G (3.9%, 16,731G)
DavenIII: 1,000G (3.9%, 18,484G)
Wrath189: 591G (2.3%, 591G)
squideater_: 344G (1.3%, 344G)
AllInBot: 200G (0.8%, 200G)
datadrivenbot: 200G (0.8%, 83,281G)
VynxYukida: 200G (0.8%, 985G)
gamesage53: 192G (0.8%, 192G)
NightwolfXVI: 160G (0.6%, 160G)
getthemoneyz: 134G (0.5%, 2,210,108G)
DouglasDragonThePoet: 100G (0.4%, 2,463G)
maakur_: 100G (0.4%, 3,939G)
FuzzyTigers: 100G (0.4%, 774G)
