Final Bets: black - 17 bets for 21,640G (80.1%, x0.25); purple - 9 bets for 5,376G (19.9%, x4.03)

black bets:
HaateXIII: 7,757G (35.8%, 7,757G)
Thyrandaal: 5,000G (23.1%, 68,832G)
resjudicata3: 2,198G (10.2%, 4,310G)
CorpusCav: 2,000G (9.2%, 45,247G)
BirbBrainsBot: 1,000G (4.6%, 1,801G)
Nizaha: 844G (3.9%, 75,343G)
Raixelol: 600G (2.8%, 12,454G)
upvla: 500G (2.3%, 2,158G)
Wonser: 384G (1.8%, 384G)
ValensEXP_: 320G (1.5%, 5,417G)
Smugzug: 287G (1.3%, 5,746G)
Lyner87: 200G (0.9%, 107,534G)
datadrivenbot: 200G (0.9%, 65,341G)
BartTradingCompany: 100G (0.5%, 10,900G)
grishhammer: 100G (0.5%, 1,510G)
Jabuamba: 100G (0.5%, 833G)
BaconLovingInfidel: 50G (0.2%, 499G)

purple bets:
reinoe: 2,000G (37.2%, 16,738G)
PoroTact: 1,397G (26.0%, 1,397G)
AllInBot: 819G (15.2%, 819G)
lowlf: 536G (10.0%, 13,518G)
getthemoneyz: 224G (4.2%, 1,955,884G)
nhammen: 100G (1.9%, 362,782G)
OneHundredFists: 100G (1.9%, 1,789G)
Bongomon7: 100G (1.9%, 1,629G)
RunicMagus: 100G (1.9%, 8,822G)
