Final Bets: red - 8 bets for 2,395G (6.7%, x13.85); yellow - 21 bets for 33,171G (93.3%, x0.07)

red bets:
vorap: 700G (29.2%, 700G)
XalSmellsBad: 500G (20.9%, 6,000G)
getthemoneyz: 408G (17.0%, 555,865G)
KasugaiRoastedPeas: 200G (8.4%, 8,930G)
Dexsana: 200G (8.4%, 3,445G)
perce90: 187G (7.8%, 187G)
AllInBot: 100G (4.2%, 100G)
WireLord: 100G (4.2%, 54,214G)

yellow bets:
upvla: 13,034G (39.3%, 13,720G)
JackOnFire1: 6,870G (20.7%, 6,870G)
Lydian_C: 4,500G (13.6%, 119,340G)
HaplessOne: 2,222G (6.7%, 133,478G)
Jerboj: 1,000G (3.0%, 55,486G)
BirbBrainsBot: 1,000G (3.0%, 140,552G)
aStatue: 936G (2.8%, 936G)
leakimiko: 635G (1.9%, 4,234G)
Tithonus: 562G (1.7%, 562G)
zmoses: 500G (1.5%, 6,184G)
Mikumari12: 400G (1.2%, 2,713G)
mr_schwifty: 300G (0.9%, 1,988G)
Zachara: 250G (0.8%, 59,000G)
gorgewall: 200G (0.6%, 5,044G)
ewan_e: 200G (0.6%, 200G)
Jahshine: 104G (0.3%, 104G)
Carledo: 103G (0.3%, 23,472G)
twelfthrootoftwo: 100G (0.3%, 5,871G)
ungabunga_bot: 100G (0.3%, 218,383G)
datadrivenbot: 100G (0.3%, 213G)
daveb_: 55G (0.2%, 1,876G)
