Final Bets: white - 23 bets for 19,088G (79.1%, x0.26); black - 10 bets for 5,052G (20.9%, x3.78)

white bets:
Zeroroute: 3,816G (20.0%, 8,864G)
killth3kid: 2,000G (10.5%, 81,757G)
Mesmaster: 2,000G (10.5%, 143,879G)
E_Ballard: 1,782G (9.3%, 1,782G)
cupholderr: 1,000G (5.2%, 47,954G)
BirbBrainsBot: 1,000G (5.2%, 191,594G)
Mtueni: 1,000G (5.2%, 220,164G)
ko2q: 889G (4.7%, 889G)
getthemoneyz: 768G (4.0%, 668,175G)
joewcarson: 703G (3.7%, 703G)
DavenIII: 700G (3.7%, 10,320G)
HaplessOne: 666G (3.5%, 2,568G)
Nizaha: 501G (2.6%, 5,949G)
ungabunga_bot: 439G (2.3%, 455,621G)
Cryptopsy70: 408G (2.1%, 408G)
mpghappiness: 324G (1.7%, 324G)
ApplesauceBoss: 300G (1.6%, 300G)
CustomGameMaster: 212G (1.1%, 212G)
Runai: 164G (0.9%, 164G)
foofermoofer: 116G (0.6%, 116G)
TheSKMDC: 100G (0.5%, 100G)
datadrivenbot: 100G (0.5%, 11,974G)
JIDkomu: 100G (0.5%, 5,638G)

black bets:
HaateXIII: 2,302G (45.6%, 4,515G)
TheChainNerd: 1,000G (19.8%, 1,980G)
nifboy: 1,000G (19.8%, 8,729G)
vorap: 200G (4.0%, 37,423G)
EnemyController: 100G (2.0%, 226,951G)
gggamezzz: 100G (2.0%, 1,151G)
CosmicTactician: 100G (2.0%, 11,521G)
rjA0zcOQ96: 100G (2.0%, 13,468G)
mannequ1n: 100G (2.0%, 2,172G)
moonliquor: 50G (1.0%, 13,850G)
