Final Bets: red - 18 bets for 10,151G (37.2%, x1.69); white - 15 bets for 17,129G (62.8%, x0.59)

red bets:
Lali_Lulelo: 2,422G (23.9%, 2,422G)
Zeroroute: 2,203G (21.7%, 5,160G)
BirbBrainsBot: 1,000G (9.9%, 190,552G)
TheChainNerd: 980G (9.7%, 980G)
E_Ballard: 600G (5.9%, 600G)
DavenIII: 550G (5.4%, 16,163G)
Who_lio42: 500G (4.9%, 21,113G)
HaplessOne: 472G (4.6%, 472G)
CorpusCav: 250G (2.5%, 5,073G)
Nizaha: 201G (2.0%, 4,880G)
nok____: 193G (1.9%, 8,624G)
gggamezzz: 140G (1.4%, 2,140G)
getthemoneyz: 140G (1.4%, 670,004G)
mannequ1n: 100G (1.0%, 2,499G)
ko2q: 100G (1.0%, 1,197G)
Practice_Pad: 100G (1.0%, 934G)
datadrivenbot: 100G (1.0%, 12,427G)
Firesheath: 100G (1.0%, 18,134G)

white bets:
Estan_AD: 4,809G (28.1%, 9,618G)
sinnyil2: 2,500G (14.6%, 16,673G)
Mesmaster: 2,000G (11.7%, 144,037G)
nifboy: 1,000G (5.8%, 5,729G)
cupholderr: 1,000G (5.8%, 48,735G)
old_overholt_: 1,000G (5.8%, 4,707G)
proper__noun__: 1,000G (5.8%, 5,767G)
ApplesauceBoss: 793G (4.6%, 793G)
benticore: 740G (4.3%, 740G)
Laserman1000: 671G (3.9%, 3,571G)
roofiepops: 576G (3.4%, 576G)
moonliquor: 500G (2.9%, 15,937G)
mpghappiness: 324G (1.9%, 324G)
foofermoofer: 116G (0.7%, 116G)
ungabunga_bot: 100G (0.6%, 454,830G)
