Final Bets: red - 17 bets for 13,170G (56.9%, x0.76); black - 8 bets for 9,989G (43.1%, x1.32)

red bets:
Mushufasa_: 3,389G (25.7%, 3,389G)
resjudicata3: 2,986G (22.7%, 5,972G)
CorpusCav: 1,400G (10.6%, 69,530G)
NicoSavoy: 1,293G (9.8%, 1,293G)
DeathTaxesAndAnime: 948G (7.2%, 948G)
Laserman1000: 600G (4.6%, 12,600G)
Aaron2Nerdy: 399G (3.0%, 399G)
getthemoneyz: 394G (3.0%, 2,176,685G)
Lolthsmeat: 340G (2.6%, 340G)
Rune339: 272G (2.1%, 272G)
QuestMoreLand: 240G (1.8%, 1,335G)
AllInBot: 200G (1.5%, 200G)
datadrivenbot: 200G (1.5%, 87,882G)
ValensEXP_: 200G (1.5%, 5,569G)
FuzzyTigers: 108G (0.8%, 108G)
gorgewall: 101G (0.8%, 7,027G)
watchmikegame: 100G (0.8%, 756G)

black bets:
Ruvelia_BibeI: 4,274G (42.8%, 4,274G)
SeniorBunk: 1,994G (20.0%, 1,994G)
Rhyser76: 1,105G (11.1%, 1,105G)
BirbBrainsBot: 1,000G (10.0%, 101,157G)
lowlf: 664G (6.6%, 3,959G)
old_overholt_: 500G (5.0%, 56,494G)
Zachara: 250G (2.5%, 112,000G)
Chuckolator: 202G (2.0%, 1,134G)
