High Risers:
1. Novaknight21: +13,455G
2. Skylerbunny: +9,658G
3. Dogsandcatsand: +4,059G
4. Reinoe: +3,939G
5. Wonser: +3,824G
6. Leonidusx: +3,722G
7. Nhammen: +1,961G
8. Resjudicata3: +1,910G
9. Seniorbunk: +1,438G
10. Stealthmodelocke: +1,004G
11. Huffflex: +1,004G
12. Silentkaster: +955G
13. Krombobreaker: +789G
14. Technominari: +662G
15. Just_here2: +500G
16. Laserman1000: +500G
17. Onehundredfists: +426G
18. Volgrathemoose: +319G
19. Actual_jp: +300G
20. Mirapoix: +285G
21. E_ballard: +200G
22. Deathtaxesandanime: +200G
23. Sinnyil2: +132G
24. Thyrandaal: +100G
25. Solomongrundy85: +100G
26. Lijarkh: +95G
27. Acrusade: +76G
28. Gilgamensche: -19G
29. Gorgewall: -180G
30. Forkmore: -192G
31. 0v3rr8d: -200G
32. Daveb_: -200G
33. Hasterious: -400G
34. Brokenknight201: -400G
35. Shalloween: -410G
36. Valensexp_: -421G
37. Killth3kid: -571G
38. Cosmictactician: -600G
39. Memoriesoffinal: -657G
40. Gooseyourself: -1,000G
41. Sairentozon7: -1,000G
42. Pplvee1: -1,000G
43. Corpuscav: -1,000G
44. Tripaplex: -1,362G
45. Biske13: -2,000G
46. Nizaha: -2,128G
47. Seppu777: -2,212G
48. Runeseeker22: -7,592G
49. Latebit: -17,890G
50. Rytor: -26,425G
