Final Bets: purple - 18 bets for 11,136G (40.9%, x1.44); brown - 26 bets for 16,067G (59.1%, x0.69)

purple bets:
itzover9001: 2,000G (18.0%, 6,419G)
ACSpree: 2,000G (18.0%, 26,562G)
MaouDono: 1,421G (12.8%, 1,421G)
YaBoy125: 678G (6.1%, 678G)
saucy_wings: 612G (5.5%, 612G)
Aldrammech: 600G (5.4%, 600G)
Shalloween: 600G (5.4%, 17,672G)
volgrathemoose: 501G (4.5%, 18,633G)
Majatok: 500G (4.5%, 1,149G)
coralreeferz: 400G (3.6%, 728G)
Jeeboheebo: 392G (3.5%, 392G)
Realitydown: 332G (3.0%, 332G)
old_overholt_: 300G (2.7%, 2,096G)
trigger15: 200G (1.8%, 3,861G)
KasugaiRoastedPeas: 200G (1.8%, 5,840G)
midori_ribbon: 200G (1.8%, 3,972G)
ANFz: 100G (0.9%, 23,472G)
XtezGaming: 100G (0.9%, 1,087G)

brown bets:
gooseyourself: 2,000G (12.4%, 21,558G)
DrAntiSocial: 1,619G (10.1%, 1,619G)
sinnyil2: 1,407G (8.8%, 1,407G)
Chrysaors: 1,209G (7.5%, 24,195G)
ungabunga_bot: 1,000G (6.2%, 285,680G)
BirbBrainsBot: 1,000G (6.2%, 140,126G)
haigy: 1,000G (6.2%, 5,578G)
genericco: 957G (6.0%, 957G)
aStatue: 862G (5.4%, 862G)
getthemoneyz: 720G (4.5%, 609,019G)
Estan_AD: 552G (3.4%, 552G)
Nizaha: 501G (3.1%, 14,189G)
vorap: 500G (3.1%, 25,186G)
Bioticism: 500G (3.1%, 3,408G)
ewan_e: 500G (3.1%, 9,554G)
ZephyrTempest: 456G (2.8%, 3,787G)
cgMcWhiskers: 300G (1.9%, 885G)
Heroebal: 200G (1.2%, 4,420G)
Rislyeu: 161G (1.0%, 161G)
roofiepops: 122G (0.8%, 8,725G)
nifboy: 100G (0.6%, 6,436G)
ko2q: 100G (0.6%, 5,788G)
Antipathics: 100G (0.6%, 1,619G)
datadrivenbot: 100G (0.6%, 11,084G)
Evewho: 100G (0.6%, 12,634G)
daveb_: 1G (0.0%, 958G)
