Final Bets: green - 13 bets for 7,810G (39.1%, x1.56); yellow - 12 bets for 12,156G (60.9%, x0.64)

green bets:
leakimiko: 1,600G (20.5%, 45,073G)
jwchapm: 1,049G (13.4%, 1,049G)
megaman2202: 1,024G (13.1%, 1,024G)
DavenIII: 1,000G (12.8%, 10,440G)
HaplessOne: 777G (9.9%, 59,421G)
rottings0ul: 500G (6.4%, 2,640G)
edgehead62888: 500G (6.4%, 5,130G)
rechaun: 472G (6.0%, 472G)
Aneyus: 328G (4.2%, 32,869G)
Aestheta: 200G (2.6%, 913G)
GrandmasterFrankerZ: 200G (2.6%, 1,289G)
datadrivenbot: 100G (1.3%, 19,125G)
getthemoneyz: 60G (0.8%, 668,220G)

yellow bets:
JumbocactuarX27: 2,433G (20.0%, 2,433G)
Anomandaris__: 2,000G (16.5%, 5,456G)
rocl: 1,000G (8.2%, 50,592G)
BirbBrainsBot: 1,000G (8.2%, 69,949G)
Lionhermit: 1,000G (8.2%, 45,275G)
E_Ballard: 1,000G (8.2%, 4,860G)
ShintaroNayaka: 987G (8.1%, 987G)
DustBirdEX: 879G (7.2%, 1,759G)
ungabunga_bot: 669G (5.5%, 492,238G)
milk_tea9919: 600G (4.9%, 891G)
shs_: 500G (4.1%, 9,307G)
roqqqpsi: 88G (0.7%, 8,856G)
