Final Bets: green - 15 bets for 8,141G (46.8%, x1.14); brown - 13 bets for 9,254G (53.2%, x0.88)

green bets:
BlueAbs: 1,013G (12.4%, 1,013G)
BirbBrainsBot: 1,000G (12.3%, 151,063G)
RaIshtar: 1,000G (12.3%, 33,325G)
Nizaha: 906G (11.1%, 906G)
DustBirdEX: 880G (10.8%, 880G)
getthemoneyz: 602G (7.4%, 1,275,145G)
Laserman1000: 600G (7.4%, 27,000G)
AllInBot: 506G (6.2%, 506G)
Aldrammech: 452G (5.6%, 452G)
ArashiKurobara: 332G (4.1%, 5,294G)
benticore: 250G (3.1%, 20,346G)
furrytomahawkk: 200G (2.5%, 643G)
Othatmattkid: 200G (2.5%, 1,745G)
Firesheath: 100G (1.2%, 2,079G)
bringmoreknives: 100G (1.2%, 13,850G)

brown bets:
flacococo: 2,329G (25.2%, 2,329G)
Creggers: 2,000G (21.6%, 15,789G)
toka222: 1,500G (16.2%, 67,488G)
Rytor: 593G (6.4%, 593G)
TasisSai: 519G (5.6%, 519G)
ShintaroNayaka: 500G (5.4%, 21,751G)
randgridr: 500G (5.4%, 11,941G)
datadrivenbot: 312G (3.4%, 57,856G)
CapnChaos12: 300G (3.2%, 6,117G)
gorgewall: 201G (2.2%, 2,033G)
Mysteriousdewd: 200G (2.2%, 6,555G)
nsm013: 200G (2.2%, 20,288G)
SephDarkheart: 100G (1.1%, 25,833G)
