Final Bets: white - 14 bets for 7,538G (21.3%, x3.70); black - 33 bets for 27,884G (78.7%, x0.27)

white bets:
Mtueni: 3,500G (46.4%, 93,276G)
ApplesauceBoss: 970G (12.9%, 970G)
SkylerBunny: 596G (7.9%, 596G)
Shakarak: 576G (7.6%, 576G)
reinoe: 500G (6.6%, 18,350G)
ko2q: 324G (4.3%, 324G)
tinytittyfiend: 296G (3.9%, 296G)
Cataphract116: 200G (2.7%, 1,881G)
Spartan_Paladin: 200G (2.7%, 14,007G)
NUMBER1DB: 104G (1.4%, 104G)
maakur_: 100G (1.3%, 4,793G)
snygnyx: 100G (1.3%, 100G)
yure1x: 50G (0.7%, 640G)
getthemoneyz: 22G (0.3%, 407,324G)

black bets:
Lodrak: 4,515G (16.2%, 9,031G)
Rastanar: 4,280G (15.3%, 4,280G)
Shalloween: 2,000G (7.2%, 70,306G)
misterprmiller: 1,613G (5.8%, 1,613G)
leakimiko: 1,193G (4.3%, 23,875G)
Nizaha: 1,001G (3.6%, 15,682G)
TheChainNerd: 1,000G (3.6%, 43,704G)
BirbBrainsBot: 1,000G (3.6%, 135,291G)
EnemyController: 1,000G (3.6%, 4,124G)
bad1dea: 1,000G (3.6%, 350,697G)
red__lancer: 1,000G (3.6%, 18,672G)
eltejongrande: 728G (2.6%, 728G)
roofiepops: 665G (2.4%, 4,815G)
ANFz: 604G (2.2%, 1,209G)
Lanshaft: 600G (2.2%, 2,341G)
Maeveen: 600G (2.2%, 600G)
DeathTaxesAndAnime: 536G (1.9%, 536G)
HaateXIII: 500G (1.8%, 8,882G)
Zeroroute: 500G (1.8%, 500G)
HaplessOne: 500G (1.8%, 31,207G)
luminarii: 470G (1.7%, 11,614G)
Arunic: 400G (1.4%, 6,797G)
ZephyrTempest: 369G (1.3%, 18,150G)
joewcarson: 300G (1.1%, 4,190G)
lunaticruin: 256G (0.9%, 256G)
Wonser: 230G (0.8%, 230G)
old_overholt_: 212G (0.8%, 212G)
KasugaiRoastedPeas: 200G (0.7%, 25,585G)
SeniorBunk: 200G (0.7%, 4,255G)
Slowbrofist: 112G (0.4%, 112G)
AllInBot: 100G (0.4%, 100G)
BadBlanket: 100G (0.4%, 3,217G)
datadrivenbot: 100G (0.4%, 15,693G)
