Final Bets: red - 17 bets for 19,709G (77.5%, x0.29); blue - 7 bets for 5,712G (22.5%, x3.45)

red bets:
gorgewall: 7,483G (38.0%, 7,483G)
randgridr: 3,584G (18.2%, 3,584G)
Mushufasa_: 1,234G (6.3%, 20,824G)
technominari: 1,000G (5.1%, 83,865G)
BirbBrainsBot: 1,000G (5.1%, 140,159G)
ExplanationMarkWow: 1,000G (5.1%, 34,907G)
Arcblazer23: 723G (3.7%, 723G)
CT_5_Holy: 600G (3.0%, 600G)
ColetteMSLP: 508G (2.6%, 10,604G)
khelor_: 500G (2.5%, 10,180G)
2b_yorha_b: 500G (2.5%, 33,572G)
3ngag3: 448G (2.3%, 17,271G)
AllInBot: 379G (1.9%, 379G)
KGenjy: 300G (1.5%, 6,489G)
datadrivenbot: 200G (1.0%, 83,741G)
ValensEXP_: 200G (1.0%, 5,906G)
FuzzyTigers: 50G (0.3%, 921G)

blue bets:
RunicMagus: 2,000G (35.0%, 159,160G)
DeathTaxesAndAnime: 1,530G (26.8%, 3,000G)
ko2q: 952G (16.7%, 1,905G)
Mesmaster: 580G (10.2%, 580G)
nekojin: 308G (5.4%, 823G)
CorpusCav: 200G (3.5%, 47,269G)
getthemoneyz: 142G (2.5%, 2,190,462G)
