Final Bets: white - 13 bets for 5,881G (34.0%, x1.94); black - 15 bets for 11,418G (66.0%, x0.52)

white bets:
helpimabug: 1,501G (25.5%, 9,397G)
dliv2341: 1,382G (23.5%, 1,382G)
HASTERIOUS: 1,203G (20.5%, 8,021G)
reinoe: 500G (8.5%, 12,047G)
haplo064: 454G (7.7%, 1,378G)
Chuckolator: 212G (3.6%, 5,165G)
lijarkh: 200G (3.4%, 1,349G)
datadrivenbot: 128G (2.2%, 129G)
TheMM42: 100G (1.7%, 1,910G)
gorgewall: 65G (1.1%, 565G)
getthemoneyz: 64G (1.1%, 498,066G)
potgodtopdog: 47G (0.8%, 5,047G)
Scotty297: 25G (0.4%, 273G)

black bets:
Treapvort: 1,880G (16.5%, 1,880G)
HaplessOne: 1,500G (13.1%, 85,573G)
waterwatereverywhere: 1,444G (12.6%, 1,444G)
sinnyil2: 1,200G (10.5%, 24,446G)
BirbBrainsBot: 1,000G (8.8%, 197,922G)
Sairentozon7: 956G (8.4%, 5,248G)
ungabunga_bot: 895G (7.8%, 148,172G)
Phytik: 842G (7.4%, 4,002G)
thevilmen: 500G (4.4%, 1,902G)
Dexsana: 400G (3.5%, 1,539G)
CapnChaos12: 300G (2.6%, 1,950G)
KasugaiRoastedPeas: 200G (1.8%, 7,026G)
jjones032109: 101G (0.9%, 301G)
Tithonus: 100G (0.9%, 6,827G)
lastly: 100G (0.9%, 12,770G)
