Final Bets: white - 15 bets for 7,809G (15.2%, x5.58); purple - 34 bets for 43,578G (84.8%, x0.18)

white bets:
fenaen: 1,500G (19.2%, 67,410G)
ACSpree: 1,000G (12.8%, 1,118G)
ungabunga_bot: 1,000G (12.8%, 280,245G)
Laserman1000: 820G (10.5%, 59,420G)
ShintaroNayaka: 564G (7.2%, 564G)
killth3kid: 500G (6.4%, 43,090G)
HaateXIII: 500G (6.4%, 37,381G)
old_overholt_: 500G (6.4%, 1,628G)
Draconis345: 500G (6.4%, 79,900G)
ZephyrTempest: 400G (5.1%, 825G)
skuldar: 200G (2.6%, 1,743G)
AllInBot: 100G (1.3%, 100G)
lastly: 100G (1.3%, 1,801G)
nifboy: 100G (1.3%, 2,618G)
GingerDynomite: 25G (0.3%, 6,318G)

purple bets:
LDSkinny: 6,439G (14.8%, 25,756G)
Mesmaster: 5,000G (11.5%, 25,221G)
sinnyil2: 3,958G (9.1%, 7,917G)
Baron_von_Scrub: 2,500G (5.7%, 67,530G)
Nickyfive: 2,004G (4.6%, 4,009G)
Nizaha: 2,001G (4.6%, 7,483G)
Shalloween: 2,000G (4.6%, 32,719G)
Pie108: 2,000G (4.6%, 293,719G)
DavenIII: 2,000G (4.6%, 16,824G)
jakeduhhsnake: 2,000G (4.6%, 23,667G)
DeathTaxesAndAnime: 1,769G (4.1%, 3,470G)
Chrysaors: 1,541G (3.5%, 38,547G)
edgehead62888: 1,500G (3.4%, 11,046G)
roofiepops: 1,212G (2.8%, 3,048G)
catfashions: 1,000G (2.3%, 7,578G)
BirbBrainsBot: 1,000G (2.3%, 76,539G)
JonnyCue: 1,000G (2.3%, 29,824G)
TheChainNerd: 734G (1.7%, 734G)
Bongomon7: 712G (1.6%, 712G)
ANFz: 500G (1.1%, 10,252G)
cgMcWhiskers: 500G (1.1%, 2,827G)
Cataphract116: 500G (1.1%, 22,407G)
Lavatis: 300G (0.7%, 2,186G)
richardserious: 200G (0.5%, 561G)
KasugaiRoastedPeas: 200G (0.5%, 1,516G)
trigger15: 200G (0.5%, 478G)
gggamezzz: 108G (0.2%, 108G)
FriendSquirrel: 100G (0.2%, 25,807G)
volgrathemoose: 100G (0.2%, 11,586G)
Firesheath: 100G (0.2%, 7,680G)
DrAntiSocial: 100G (0.2%, 4,613G)
Malcreos: 100G (0.2%, 100G)
datadrivenbot: 100G (0.2%, 8,505G)
getthemoneyz: 100G (0.2%, 602,363G)
