Final Bets: green - 16 bets for 12,846G (43.4%, x1.30); yellow - 7 bets for 16,737G (56.6%, x0.77)

green bets:
MagicBottle: 2,946G (22.9%, 2,946G)
red__lancer: 2,500G (19.5%, 96,778G)
nifboy: 1,000G (7.8%, 4,899G)
BirbBrainsBot: 1,000G (7.8%, 99,303G)
getthemoneyz: 1,000G (7.8%, 1,100,241G)
bruubarg: 820G (6.4%, 820G)
prince_rogers_nelson_: 763G (5.9%, 763G)
Lanshaft: 735G (5.7%, 735G)
Yiroep2: 533G (4.1%, 533G)
killth3kid: 500G (3.9%, 5,619G)
sparker9: 400G (3.1%, 3,464G)
Forkmore: 212G (1.7%, 212G)
ArashiKurobara: 132G (1.0%, 132G)
nok____: 104G (0.8%, 3,104G)
Baron_von_Scrub: 101G (0.8%, 24,741G)
datadrivenbot: 100G (0.8%, 46,564G)

yellow bets:
Breakdown777: 14,803G (88.4%, 29,606G)
mpghappiness: 524G (3.1%, 524G)
Shalloween: 400G (2.4%, 72,001G)
DuraiPapers: 364G (2.2%, 364G)
DustBirdEX: 345G (2.1%, 4,853G)
gorgewall: 201G (1.2%, 28,971G)
Kellios11: 100G (0.6%, 47,890G)
