Final Bets: white - 14 bets for 17,707G (73.4%, x0.36); black - 12 bets for 6,427G (26.6%, x2.76)

white bets:
Breakdown777: 7,401G (41.8%, 14,803G)
maicovisky: 2,000G (11.3%, 69,000G)
bruubarg: 1,888G (10.7%, 1,888G)
prince_rogers_nelson_: 1,757G (9.9%, 1,757G)
MagicBottle: 1,000G (5.6%, 6,784G)
Chronolynx42: 1,000G (5.6%, 41,610G)
E_Ballard: 696G (3.9%, 696G)
killth3kid: 500G (2.8%, 6,270G)
DustBirdEX: 456G (2.6%, 4,508G)
DuraiPapers: 364G (2.1%, 364G)
nok____: 240G (1.4%, 3,240G)
gorgewall: 201G (1.1%, 28,770G)
ArashiKurobara: 104G (0.6%, 304G)
datadrivenbot: 100G (0.6%, 46,694G)

black bets:
Lanshaft: 1,693G (26.3%, 1,693G)
GatsbysGhost: 1,000G (15.6%, 2,117G)
getthemoneyz: 1,000G (15.6%, 1,101,544G)
BirbBrainsBot: 1,000G (15.6%, 100,606G)
mpghappiness: 524G (8.2%, 524G)
Shalloween: 400G (6.2%, 71,601G)
benticore: 250G (3.9%, 5,161G)
lifeguard_dan: 200G (3.1%, 1,464G)
Baron_von_Scrub: 101G (1.6%, 24,873G)
nifboy: 100G (1.6%, 6,202G)
Forkmore: 100G (1.6%, 488G)
Yiroep2: 59G (0.9%, 1,227G)
