Final Bets: black - 13 bets for 10,648G (55.6%, x0.80); purple - 14 bets for 8,490G (44.4%, x1.25)

black bets:
HuffFlex: 3,101G (29.1%, 3,101G)
Breakdown777: 2,341G (22.0%, 4,683G)
mpghappiness: 1,161G (10.9%, 1,161G)
MagicBottle: 1,000G (9.4%, 6,915G)
GatsbysGhost: 1,000G (9.4%, 5,372G)
killth3kid: 500G (4.7%, 6,836G)
Shalloween: 400G (3.8%, 73,371G)
DustBirdEX: 345G (3.2%, 4,195G)
ArashiKurobara: 298G (2.8%, 298G)
gorgewall: 201G (1.9%, 29,418G)
Baron_von_Scrub: 101G (0.9%, 25,651G)
datadrivenbot: 100G (0.9%, 46,534G)
SuzakuReii: 100G (0.9%, 5,371G)

purple bets:
Lanshaft: 2,033G (23.9%, 3,988G)
BlackFireUK: 1,000G (11.8%, 12,190G)
Chronolynx42: 1,000G (11.8%, 41,509G)
E_Ballard: 1,000G (11.8%, 1,000G)
BirbBrainsBot: 1,000G (11.8%, 104,097G)
Yiroep2: 744G (8.8%, 744G)
getthemoneyz: 482G (5.7%, 1,103,531G)
Oreo_Pizza: 364G (4.3%, 364G)
Forkmore: 212G (2.5%, 212G)
reinoe: 200G (2.4%, 2,774G)
nok____: 155G (1.8%, 3,555G)
nifboy: 100G (1.2%, 6,378G)
Kellios11: 100G (1.2%, 48,637G)
Thyrandaal: 100G (1.2%, 9,357G)
