Final Bets: white - 15 bets for 7,062G (32.1%, x2.11); black - 25 bets for 14,933G (67.9%, x0.47)

white bets:
volgrathemoose: 1,001G (14.2%, 20,016G)
AniZero: 1,000G (14.2%, 59,680G)
BirbBrainsBot: 731G (10.4%, 187,868G)
bad1dea: 700G (9.9%, 5,364G)
mirapoix: 672G (9.5%, 672G)
getthemoneyz: 570G (8.1%, 428,345G)
Jordache7K: 555G (7.9%, 17,488G)
Baron_von_Scrub: 314G (4.4%, 11,039G)
TheMurkGnome: 300G (4.2%, 300G)
ShintaroNayaka: 300G (4.2%, 23,895G)
b0shii: 289G (4.1%, 289G)
DrAntiSocial: 230G (3.3%, 871G)
HaateXIII: 200G (2.8%, 15,058G)
IroncladWarbear: 100G (1.4%, 331G)
silentperogy: 100G (1.4%, 7,577G)

black bets:
UmaiJam: 1,539G (10.3%, 15,396G)
Shalloween: 1,400G (9.4%, 77,377G)
upvla: 1,219G (8.2%, 5,505G)
Lord_Burrah: 1,200G (8.0%, 93,821G)
LuckyLuckLuc2: 1,111G (7.4%, 14,184G)
Nizaha: 1,001G (6.7%, 16,938G)
ungabunga_bot: 1,000G (6.7%, 18,810G)
Shakarak: 1,000G (6.7%, 28,739G)
DudeMonkey77: 769G (5.1%, 769G)
roofiepops: 766G (5.1%, 766G)
Lodrak: 501G (3.4%, 26,755G)
kingdelas2: 500G (3.3%, 1,500G)
fenixcrest: 492G (3.3%, 492G)
shs_: 452G (3.0%, 452G)
ko2q: 336G (2.3%, 336G)
ColetteMSLP: 300G (2.0%, 8,855G)
regios91: 299G (2.0%, 299G)
ugoplatamia: 200G (1.3%, 34,214G)
V3rdeni: 200G (1.3%, 1,432G)
AllInBot: 142G (1.0%, 142G)
joewcarson: 116G (0.8%, 116G)
ApplesauceBoss: 100G (0.7%, 4,232G)
Lali_Lulelo: 100G (0.7%, 4,846G)
datadrivenbot: 100G (0.7%, 17,343G)
Aldrammech: 90G (0.6%, 909G)
