Final Bets: white - 13 bets for 23,988G (80.9%, x0.24); black - 9 bets for 5,663G (19.1%, x4.24)

white bets:
Gelwain: 14,485G (60.4%, 14,485G)
YaBoy125: 2,615G (10.9%, 87,172G)
HaateXIII: 1,818G (7.6%, 1,818G)
Sairentozon7: 1,022G (4.3%, 1,022G)
Draconis345: 1,000G (4.2%, 53,536G)
mirapoix: 948G (4.0%, 948G)
josephiroth_143: 761G (3.2%, 761G)
mr_kindaro: 500G (2.1%, 9,500G)
ValtonZenola: 500G (2.1%, 4,315G)
Lydian_C: 120G (0.5%, 18,630G)
fluffskull: 100G (0.4%, 629G)
datadrivenbot: 100G (0.4%, 40,258G)
BirbBrainsBot: 19G (0.1%, 31,636G)

black bets:
AllInBot: 2,494G (44.0%, 2,494G)
serperemagus: 826G (14.6%, 826G)
OppressivelyMinty: 500G (8.8%, 8,142G)
sinnyil2: 500G (8.8%, 25,349G)
HaychDub: 350G (6.2%, 39,583G)
getthemoneyz: 344G (6.1%, 955,866G)
gorgewall: 301G (5.3%, 20,961G)
DamnThatShark: 248G (4.4%, 248G)
Firesheath: 100G (1.8%, 12,171G)
