Final Bets: white - 12 bets for 14,841G (47.0%, x1.13); champion - 14 bets for 16,731G (53.0%, x0.89)

white bets:
BoneMiser: 6,221G (41.9%, 6,221G)
sinnyil2: 2,500G (16.8%, 24,849G)
AllInBot: 1,072G (7.2%, 1,072G)
Digitalsocrates: 1,000G (6.7%, 49,044G)
reinoe: 1,000G (6.7%, 13,751G)
BirbBrainsBot: 1,000G (6.7%, 28,966G)
Draconis345: 1,000G (6.7%, 54,404G)
OppressivelyMinty: 300G (2.0%, 4,855G)
Spuzzmocker: 248G (1.7%, 248G)
TeaTime29: 200G (1.3%, 13,537G)
Evewho: 200G (1.3%, 5,137G)
fluffskull: 100G (0.7%, 816G)

champion bets:
YaBoy125: 9,700G (58.0%, 97,006G)
thaetreis: 2,268G (13.6%, 2,268G)
Lydian_C: 1,200G (7.2%, 17,321G)
serperemagus: 520G (3.1%, 520G)
prince_rogers_nelson_: 500G (3.0%, 10,744G)
HASTERIOUS: 454G (2.7%, 45,415G)
getthemoneyz: 414G (2.5%, 953,622G)
gorgewall: 401G (2.4%, 20,337G)
ar_tactic: 350G (2.1%, 70,217G)
WhiteDog420: 300G (1.8%, 305G)
DamnThatShark: 208G (1.2%, 208G)
porkchop5158: 208G (1.2%, 208G)
MadnessR: 108G (0.6%, 108G)
datadrivenbot: 100G (0.6%, 40,071G)
