Final Bets: red - 27 bets for 25,264G (83.7%, x0.19); blue - 13 bets for 4,916G (16.3%, x5.14)

red bets:
HaateXIII: 8,670G (34.3%, 8,670G)
dogsandcatsand: 2,618G (10.4%, 2,618G)
Sairentozon7: 2,524G (10.0%, 2,524G)
reinoe: 1,924G (7.6%, 1,924G)
Aldrammech: 1,000G (4.0%, 29,640G)
BlackFireUK: 1,000G (4.0%, 7,635G)
BirbBrainsBot: 1,000G (4.0%, 114,464G)
Rytor: 1,000G (4.0%, 11,318G)
E_Ballard: 574G (2.3%, 574G)
HaychDub: 532G (2.1%, 532G)
OneHundredFists: 527G (2.1%, 527G)
VolgraTheMoose: 500G (2.0%, 7,804G)
rockmem21: 500G (2.0%, 5,606G)
IphoneDarkness: 500G (2.0%, 1,580G)
killth3kid: 500G (2.0%, 14,762G)
getthemoneyz: 392G (1.6%, 828,728G)
Almacia: 227G (0.9%, 227G)
Celdia: 204G (0.8%, 204G)
reddwind_: 200G (0.8%, 8,034G)
ivellioz: 150G (0.6%, 632G)
Lydian_C: 120G (0.5%, 9,516G)
Firesheath: 101G (0.4%, 4,672G)
gorgewall: 101G (0.4%, 602G)
Tougou: 100G (0.4%, 3,012G)
datadrivenbot: 100G (0.4%, 34,717G)
regios91: 100G (0.4%, 2,470G)
ANFz: 100G (0.4%, 4,588G)

blue bets:
DeathTaxesAndAnime: 1,543G (31.4%, 1,543G)
mpghappiness: 985G (20.0%, 985G)
Phi_Sig: 555G (11.3%, 154,370G)
Seef2208: 444G (9.0%, 4,321G)
Grandlanzer: 304G (6.2%, 304G)
benticore: 285G (5.8%, 5,718G)
dinin991: 176G (3.6%, 176G)
Geffro1908: 112G (2.3%, 112G)
mrfripps: 112G (2.3%, 112G)
Evewho: 100G (2.0%, 11,943G)
cogniv0r3: 100G (2.0%, 4,727G)
Miku_Shikhu: 100G (2.0%, 1,433G)
moocaotao: 100G (2.0%, 1,665G)
