Final Bets: red - 26 bets for 26,539G (61.5%, x0.63); green - 9 bets for 16,593G (38.5%, x1.60)

red bets:
HaateXIII: 6,528G (24.6%, 13,057G)
HASTERIOUS: 2,283G (8.6%, 2,283G)
sinnyil2: 2,103G (7.9%, 2,103G)
Sairentozon7: 1,498G (5.6%, 1,498G)
TinchoT: 1,467G (5.5%, 1,467G)
DeathTaxesAndAnime: 1,214G (4.6%, 1,214G)
Grandlanzer: 1,047G (3.9%, 1,047G)
Aldrammech: 1,000G (3.8%, 30,728G)
BlackFireUK: 1,000G (3.8%, 8,723G)
nifboy: 1,000G (3.8%, 43,214G)
Evewho: 1,000G (3.8%, 11,993G)
BirbBrainsBot: 1,000G (3.8%, 113,907G)
IphoneDarkness: 977G (3.7%, 977G)
getthemoneyz: 870G (3.3%, 827,877G)
ivellioz: 716G (2.7%, 716G)
HaychDub: 532G (2.0%, 532G)
Nohurty: 397G (1.5%, 794G)
OneHundredFists: 360G (1.4%, 360G)
wyonearth: 300G (1.1%, 1,068G)
regios91: 289G (1.1%, 2,289G)
benticore: 288G (1.1%, 5,771G)
Celdia: 225G (0.8%, 225G)
Thyrandaal: 144G (0.5%, 144G)
Firesheath: 101G (0.4%, 4,616G)
Milkman153: 100G (0.4%, 1,862G)
datadrivenbot: 100G (0.4%, 34,661G)

green bets:
maakur_: 8,732G (52.6%, 8,732G)
Rytor: 3,000G (18.1%, 10,331G)
argentbast: 3,000G (18.1%, 9,435G)
UmaiJam: 1,220G (7.4%, 1,220G)
gorgewall: 201G (1.2%, 992G)
dinin991: 120G (0.7%, 120G)
Geffro1908: 116G (0.7%, 116G)
Almacia: 104G (0.6%, 104G)
cogniv0r3: 100G (0.6%, 4,680G)
