Final Bets: white - 14 bets for 18,206G (72.2%, x0.38); purple - 14 bets for 7,009G (27.8%, x2.60)

white bets:
ruleof5: 5,000G (27.5%, 10,064G)
Thyrandaal: 4,183G (23.0%, 4,183G)
Willjin: 3,000G (16.5%, 12,556G)
BirbBrainsBot: 1,000G (5.5%, 166,189G)
SkylerBunny: 999G (5.5%, 999G)
killth3kid: 796G (4.4%, 50,612G)
E_Ballard: 728G (4.0%, 52,821G)
douchetron: 576G (3.2%, 576G)
maximumcrit: 500G (2.7%, 6,084G)
Snowfats: 500G (2.7%, 20,897G)
nifboy: 500G (2.7%, 9,237G)
datadrivenbot: 200G (1.1%, 67,590G)
Rytor: 124G (0.7%, 6,229G)
cloudycube: 100G (0.5%, 836G)

purple bets:
roqqqpsi: 1,316G (18.8%, 2,686G)
getthemoneyz: 928G (13.2%, 1,734,158G)
PhaseLoss: 708G (10.1%, 708G)
DustBirdEX: 640G (9.1%, 640G)
Lanshaft: 620G (8.8%, 23,971G)
Forkmore: 600G (8.6%, 600G)
BoneMiser: 585G (8.3%, 585G)
Lydian_C: 420G (6.0%, 4,224G)
Lord_Gwarth: 247G (3.5%, 494G)
vorap: 212G (3.0%, 212G)
regios91: 200G (2.9%, 11,829G)
Omally_: 200G (2.9%, 204G)
NewbGaming: 200G (2.9%, 2,768G)
AllInBot: 133G (1.9%, 133G)
