Final Bets: red - 15 bets for 9,776G (37.7%, x1.65); blue - 18 bets for 16,142G (62.3%, x0.61)

red bets:
joewcarson: 1,517G (15.5%, 1,517G)
KasugaiRoastedPeas: 1,155G (11.8%, 1,155G)
Zeroroute: 1,152G (11.8%, 1,152G)
SkylerBunny: 1,000G (10.2%, 97,919G)
HaateXIII: 892G (9.1%, 892G)
getthemoneyz: 834G (8.5%, 1,813,966G)
DaveStrider55: 656G (6.7%, 656G)
Zagorsek: 620G (6.3%, 620G)
JonnyCue: 500G (5.1%, 14,241G)
WhiteTigress: 500G (5.1%, 18,864G)
Shalloween: 400G (4.1%, 15,422G)
CosmicTactician: 200G (2.0%, 46,302G)
RobotOcelot: 150G (1.5%, 4,521G)
HS39: 100G (1.0%, 2,212G)
Blackpapalink: 100G (1.0%, 885G)

blue bets:
Thyrandaal: 5,000G (31.0%, 59,315G)
Mesmaster: 2,000G (12.4%, 130,182G)
VolgraTheMoose: 1,001G (6.2%, 148,027G)
bigbongsmoker: 1,000G (6.2%, 6,464G)
pepperbuster: 1,000G (6.2%, 3,000G)
BirbBrainsBot: 1,000G (6.2%, 81,172G)
arumz: 1,000G (6.2%, 7,771G)
dogsandcatsand: 995G (6.2%, 995G)
E_Ballard: 848G (5.3%, 105,197G)
RunicMagus: 576G (3.6%, 576G)
rocl: 481G (3.0%, 481G)
DHaveWord: 296G (1.8%, 582G)
lwtest: 244G (1.5%, 244G)
captainmilestw: 200G (1.2%, 1,375G)
datadrivenbot: 200G (1.2%, 65,678G)
gorgewall: 101G (0.6%, 2,400G)
Kellios11: 100G (0.6%, 4,572G)
Miku_Shikhu: 100G (0.6%, 4,304G)
