Final Bets: red - 11 bets for 6,313G (19.2%, x4.22); blue - 18 bets for 26,648G (80.8%, x0.24)

red bets:
SeniorBunk: 1,801G (28.5%, 1,801G)
sinnyil2: 1,495G (23.7%, 1,495G)
BirbBrainsBot: 1,000G (15.8%, 73,930G)
witchlight: 654G (10.4%, 654G)
RestIessNight: 335G (5.3%, 335G)
getthemoneyz: 264G (4.2%, 636,598G)
ZZ_Yoshi: 250G (4.0%, 4,295G)
GnielKnows: 200G (3.2%, 10,311G)
Chuckolator: 114G (1.8%, 8,003G)
Firesheath: 100G (1.6%, 10,706G)
Kyune: 100G (1.6%, 2,175G)

blue bets:
Shalloween: 8,515G (32.0%, 16,697G)
alecttox: 8,308G (31.2%, 8,308G)
HorusTaurus: 5,000G (18.8%, 8,949G)
Fenrislfr: 1,000G (3.8%, 6,293G)
Eyepoor_: 699G (2.6%, 699G)
CapnChaos12: 500G (1.9%, 49,701G)
Laserman1000: 457G (1.7%, 457G)
Dexsana: 388G (1.5%, 388G)
victoriolue: 319G (1.2%, 639G)
mannequ1n: 300G (1.1%, 1,218G)
Estan_AD: 300G (1.1%, 3,040G)
LAGBOT30000: 262G (1.0%, 26,240G)
gorgewall: 100G (0.4%, 6,832G)
pLifer: 100G (0.4%, 1,604G)
turquoise_mage: 100G (0.4%, 200G)
ungabunga_bot: 100G (0.4%, 391,571G)
OneHundredFists: 100G (0.4%, 1,177G)
datadrivenbot: 100G (0.4%, 12,392G)
