Final Bets: white - 19 bets for 7,462G (75.7%, x0.32); black - 10 bets for 2,398G (24.3%, x3.11)

white bets:
HaplessOne: 1,234G (16.5%, 29,851G)
Laserman1000: 1,009G (13.5%, 1,009G)
BirbBrainsBot: 1,000G (13.4%, 71,930G)
Fenrislfr: 1,000G (13.4%, 5,530G)
sinnyil2: 668G (9.0%, 668G)
mannequ1n: 322G (4.3%, 645G)
LAGBOT30000: 263G (3.5%, 25,302G)
getthemoneyz: 252G (3.4%, 635,334G)
Eyepoor_: 248G (3.3%, 248G)
witchlight: 212G (2.8%, 212G)
victoriolue: 206G (2.8%, 412G)
Miyokari: 200G (2.7%, 879G)
ZZ_Yoshi: 200G (2.7%, 4,202G)
genericco: 152G (2.0%, 152G)
RestIessNight: 136G (1.8%, 136G)
Arkreaver: 100G (1.3%, 12,862G)
turquoise_mage: 100G (1.3%, 200G)
Kyune: 100G (1.3%, 2,401G)
Meowyster_: 60G (0.8%, 565G)

black bets:
Evewho: 903G (37.7%, 903G)
GnielKnows: 400G (16.7%, 8,190G)
HorusTaurus: 222G (9.3%, 10,920G)
gorgewall: 200G (8.3%, 7,013G)
Chuckolator: 171G (7.1%, 7,997G)
ungabunga_bot: 102G (4.3%, 391,678G)
pLifer: 100G (4.2%, 1,707G)
Firesheath: 100G (4.2%, 10,685G)
datadrivenbot: 100G (4.2%, 12,495G)
itsToxic: 100G (4.2%, 1,000G)
