Final Bets: purple - 7 bets for 4,308G (42.7%, x1.34); brown - 7 bets for 5,780G (57.3%, x0.75)

purple bets:
BirbBrainsBot: 1,000G (23.2%, 50,585G)
killth3kid: 1,000G (23.2%, 102,697G)
getthemoneyz: 608G (14.1%, 1,186,688G)
toka222: 600G (13.9%, 101,403G)
athros13: 500G (11.6%, 20,050G)
Oreo_Pizza: 500G (11.6%, 1,532G)
mpghappiness: 100G (2.3%, 9,747G)

brown bets:
Breakdown777: 4,577G (79.2%, 9,154G)
ShintaroNayaka: 400G (6.9%, 4,709G)
ArashiKurobara: 268G (4.6%, 9,514G)
ACSpree: 250G (4.3%, 5,500G)
ar_tactic: 150G (2.6%, 65,621G)
nhammen: 100G (1.7%, 12,783G)
danielrogercardoso: 35G (0.6%, 201G)
