Final Bets: red - 12 bets for 7,756G (45.1%, x1.22); purple - 18 bets for 9,454G (54.9%, x0.82)

red bets:
roqqqpsi: 1,820G (23.5%, 45,522G)
Aldrammech: 1,294G (16.7%, 1,294G)
killth3kid: 1,000G (12.9%, 80,600G)
Laserman1000: 733G (9.5%, 31,333G)
Blastinus: 585G (7.5%, 585G)
getthemoneyz: 502G (6.5%, 1,241,480G)
ArashiKurobara: 489G (6.3%, 5,789G)
BirbBrainsBot: 381G (4.9%, 381G)
CapnChaos12: 300G (3.9%, 6,405G)
randgridr: 240G (3.1%, 3,316G)
winteriscorning: 212G (2.7%, 212G)
Lemonjohns: 200G (2.6%, 1,584G)

purple bets:
Evewho: 1,358G (14.4%, 2,663G)
Who_lio42: 1,080G (11.4%, 24,178G)
TheChainNerd: 1,000G (10.6%, 23,467G)
dantayystv: 1,000G (10.6%, 2,775G)
pplvee1: 914G (9.7%, 914G)
escobro: 800G (8.5%, 8,861G)
midnight_blues3: 700G (7.4%, 6,651G)
TasisSai: 500G (5.3%, 2,897G)
brokenknight201: 477G (5.0%, 477G)
furrytomahawkk: 426G (4.5%, 426G)
gorgewall: 201G (2.1%, 11,706G)
ChaoreLance: 200G (2.1%, 1,031G)
datadrivenbot: 200G (2.1%, 63,273G)
Finewax: 198G (2.1%, 198G)
CosmicTactician: 100G (1.1%, 45,458G)
SephDarkheart: 100G (1.1%, 7,845G)
raenrond: 100G (1.1%, 2,968G)
Vultuous: 100G (1.1%, 4,942G)
