Final Bets: black - 19 bets for 20,552G (59.3%, x0.69); purple - 7 bets for 14,105G (40.7%, x1.46)

black bets:
E_Ballard: 6,750G (32.8%, 6,750G)
LordSDB: 2,500G (12.2%, 60,909G)
Shalloween: 2,122G (10.3%, 4,244G)
Hirameki85: 1,834G (8.9%, 1,834G)
prince_rogers_nelson_: 1,108G (5.4%, 1,108G)
BirbBrainsBot: 1,000G (4.9%, 138,104G)
ArlanKels: 901G (4.4%, 901G)
VolgraTheMoose: 820G (4.0%, 820G)
resjudicata3: 557G (2.7%, 557G)
killth3kid: 536G (2.6%, 11,172G)
roofiepops: 516G (2.5%, 516G)
rabbitlogik: 500G (2.4%, 3,387G)
SephDarkheart: 408G (2.0%, 15,933G)
Miku_Shikhu: 300G (1.5%, 7,028G)
ravingsockmonkey: 200G (1.0%, 709G)
datadrivenbot: 200G (1.0%, 46,652G)
douchetron: 100G (0.5%, 2,240G)
CosmicTactician: 100G (0.5%, 37,691G)
holdenmagronik: 100G (0.5%, 326G)

purple bets:
twelfthrootoftwo: 12,765G (90.5%, 25,031G)
Nizaha: 596G (4.2%, 19,920G)
Beastmages: 228G (1.6%, 228G)
AllInBot: 200G (1.4%, 200G)
getthemoneyz: 116G (0.8%, 1,419,592G)
PoroTact: 100G (0.7%, 7,526G)
Treafa: 100G (0.7%, 1,032G)
