Player: !Black
Team: Black Team
Palettes: Black/Red



SephDarkheart
Male
Aquarius
49
69
Wizard
Draw Out
PA Save
Maintenance
Waterwalking

Thunder Rod

Flash Hat
Black Robe
Elf Mantle

Fire 2, Fire 3, Fire 4, Bolt 2, Bolt 4, Ice 2, Ice 3, Frog, Death
Koutetsu, Bizen Boat, Heaven's Cloud



Letdowncity
Monster
Pisces
66
60
Blue Dragon










WhiteTigress
Monster
Taurus
43
71
Serpentarius










Lube Squid
Monster
Virgo
41
50
Byblos







