Final Bets: red - 14 bets for 30,168G (81.5%, x0.23); blue - 9 bets for 6,865G (18.5%, x4.39)

red bets:
dogsandcatsand: 12,299G (40.8%, 24,117G)
Drusiform: 8,762G (29.0%, 8,762G)
skillomono: 2,299G (7.6%, 2,299G)
Zbgs: 1,000G (3.3%, 2,879G)
ColetteMSLP: 1,000G (3.3%, 26,597G)
BirbBrainsBot: 1,000G (3.3%, 166,338G)
Forkmore: 975G (3.2%, 975G)
skipsandwiches: 939G (3.1%, 939G)
SeniorBunk: 800G (2.7%, 3,303G)
Rikrizen: 361G (1.2%, 7,234G)
resjudicata3: 332G (1.1%, 332G)
Omally_: 200G (0.7%, 200G)
gorgewall: 101G (0.3%, 6,034G)
douchetron: 100G (0.3%, 3,371G)

blue bets:
AllInBot: 1,226G (17.9%, 1,226G)
fattunaking: 1,000G (14.6%, 6,807G)
reinoe: 1,000G (14.6%, 207,045G)
BevBear: 927G (13.5%, 6,181G)
getthemoneyz: 828G (12.1%, 1,658,264G)
SkylerBunny: 732G (10.7%, 732G)
letdowncity: 532G (7.7%, 24,164G)
ANFz: 420G (6.1%, 420G)
WhiteTigress: 200G (2.9%, 2,228G)
