Final Bets: red - 14 bets for 13,876G (51.1%, x0.96); blue - 19 bets for 13,258G (48.9%, x1.05)

red bets:
snkey: 4,900G (35.3%, 98,950G)
AllInBot: 2,048G (14.8%, 2,048G)
SkylerBunny: 1,357G (9.8%, 1,357G)
brodeity: 1,199G (8.6%, 1,199G)
holdenmagronik: 1,061G (7.6%, 1,061G)
KasugaiRoastedPeas: 928G (6.7%, 928G)
lijarkh: 709G (5.1%, 709G)
CosmicTactician: 500G (3.6%, 32,902G)
OneHundredFists: 416G (3.0%, 416G)
Thyrandaal: 365G (2.6%, 716G)
macradarkstar: 200G (1.4%, 997G)
Lushifah: 100G (0.7%, 817G)
getthemoneyz: 92G (0.7%, 1,878,409G)
Chuckolator: 1G (0.0%, 22,898G)

blue bets:
DeathTaxesAndAnime: 3,357G (25.3%, 6,584G)
CapnChaos12: 1,357G (10.2%, 1,357G)
pplvee1: 1,305G (9.8%, 1,305G)
VolgraTheMoose: 1,001G (7.6%, 107,249G)
BirbBrainsBot: 1,000G (7.5%, 134,508G)
thunderducker: 985G (7.4%, 985G)
dogsandcatsand: 958G (7.2%, 958G)
run_with_stone_GUNs: 624G (4.7%, 25,461G)
krombobreaker: 500G (3.8%, 5,385G)
Dasutin23: 460G (3.5%, 12,022G)
ColetteMSLP: 400G (3.0%, 5,178G)
Ogema_theDream: 350G (2.6%, 765G)
CorpusCav: 300G (2.3%, 24,608G)
datadrivenbot: 200G (1.5%, 58,654G)
heyBtw: 150G (1.1%, 1,502G)
Miku_Shikhu: 100G (0.8%, 7,547G)
Tougou: 100G (0.8%, 7,565G)
chavalyco: 100G (0.8%, 1,000G)
BartTradingCompany: 11G (0.1%, 118G)
