Final Bets: white - 16 bets for 84,283G (91.9%, x0.09); black - 14 bets for 7,441G (8.1%, x11.33)

white bets:
snkey: 45,225G (53.7%, 90,450G)
Mesmaster: 20,000G (23.7%, 214,729G)
nekojin: 9,740G (11.6%, 19,099G)
reinoe: 2,592G (3.1%, 2,592G)
DeathTaxesAndAnime: 2,523G (3.0%, 4,948G)
VolgraTheMoose: 1,001G (1.2%, 107,296G)
thunderducker: 888G (1.1%, 2,016G)
Morsigil: 789G (0.9%, 789G)
ColetteMSLP: 400G (0.5%, 5,197G)
chavalyco: 400G (0.5%, 1,105G)
datadrivenbot: 200G (0.2%, 59,074G)
heyBtw: 165G (0.2%, 1,659G)
Lushifah: 150G (0.2%, 823G)
Miku_Shikhu: 100G (0.1%, 7,552G)
formerlydrdong: 100G (0.1%, 2,037G)
nhammen: 10G (0.0%, 402,340G)

black bets:
DavenIII: 1,681G (22.6%, 3,362G)
Thyrandaal: 1,455G (19.6%, 1,455G)
SkylerBunny: 1,356G (18.2%, 1,356G)
BirbBrainsBot: 1,000G (13.4%, 136,610G)
brodeity: 530G (7.1%, 530G)
SephDarkheart: 288G (3.9%, 288G)
CorpusCav: 222G (3.0%, 25,186G)
AllInBot: 206G (2.8%, 206G)
RobotOcelot: 200G (2.7%, 7,158G)
getthemoneyz: 188G (2.5%, 1,878,612G)
gorgewall: 101G (1.4%, 2,882G)
maakur_: 100G (1.3%, 6,655G)
Yangusburger: 100G (1.3%, 8,159G)
BartTradingCompany: 14G (0.2%, 144G)
