Final Bets: blue - 15 bets for 15,316G (45.0%, x1.22); green - 13 bets for 18,740G (55.0%, x0.82)

blue bets:
nekojin: 5,489G (35.8%, 21,959G)
snkey: 3,700G (24.2%, 94,443G)
DeathTaxesAndAnime: 2,901G (18.9%, 5,689G)
Wonser: 763G (5.0%, 763G)
Thyrandaal: 708G (4.6%, 708G)
SephDarkheart: 345G (2.3%, 345G)
brodeity: 260G (1.7%, 260G)
Miku_Shikhu: 250G (1.6%, 7,461G)
resjudicata3: 200G (1.3%, 7,868G)
datadrivenbot: 200G (1.3%, 59,131G)
AllInBot: 100G (0.7%, 100G)
Lushifah: 100G (0.7%, 856G)
Sietaha: 100G (0.7%, 5,746G)
Yangusburger: 100G (0.7%, 7,959G)
Morsigil: 100G (0.7%, 809G)

green bets:
Mesmaster: 10,000G (53.4%, 217,478G)
thunderducker: 2,181G (11.6%, 2,181G)
NicoSavoy: 2,000G (10.7%, 18,721G)
Lord_Gwarth: 1,238G (6.6%, 1,238G)
BirbBrainsBot: 1,000G (5.3%, 134,610G)
SkylerBunny: 660G (3.5%, 660G)
lowlf: 484G (2.6%, 484G)
holdenmagronik: 400G (2.1%, 400G)
getthemoneyz: 314G (1.7%, 1,878,160G)
pepperbuster: 200G (1.1%, 1,000G)
heyBtw: 170G (0.9%, 1,707G)
formerlydrdong: 80G (0.4%, 2,046G)
BartTradingCompany: 13G (0.1%, 133G)
