Final Bets: purple - 21 bets for 22,346G (68.9%, x0.45); brown - 18 bets for 10,066G (31.1%, x2.22)

purple bets:
volgrathemoose: 11,891G (53.2%, 23,783G)
Mesmaster: 3,000G (13.4%, 97,453G)
nifboy: 1,000G (4.5%, 10,713G)
Panushenko: 1,000G (4.5%, 4,384G)
HaateXIII: 943G (4.2%, 943G)
joewcarson: 605G (2.7%, 605G)
ColetteMSLP: 500G (2.2%, 31,748G)
NovaKnight21: 484G (2.2%, 484G)
Baron_von_Scrub: 474G (2.1%, 9,421G)
OneHundredFists: 468G (2.1%, 468G)
RoboticNomad: 300G (1.3%, 2,964G)
Jaritras: 292G (1.3%, 292G)
ZZ_Yoshi: 250G (1.1%, 7,268G)
cam_ATS: 204G (0.9%, 204G)
turquoise_mage: 200G (0.9%, 1,145G)
TheUnforgivenRage: 184G (0.8%, 184G)
ferroniss: 151G (0.7%, 151G)
Lionheart817: 100G (0.4%, 100G)
moonliquor: 100G (0.4%, 19,191G)
datadrivenbot: 100G (0.4%, 11,414G)
Kyune: 100G (0.4%, 1,910G)

brown bets:
UmbraKnights: 2,258G (22.4%, 2,258G)
Evewho: 2,192G (21.8%, 2,192G)
ungabunga_bot: 1,000G (9.9%, 439,948G)
thefyeman: 1,000G (9.9%, 23,745G)
rico_flex: 1,000G (9.9%, 25,903G)
maakur_: 617G (6.1%, 617G)
vorap: 300G (3.0%, 41,729G)
byrdturbo: 269G (2.7%, 4,539G)
mannequ1n: 244G (2.4%, 244G)
NicoSavoy: 244G (2.4%, 244G)
SamaelMerihem: 212G (2.1%, 212G)
cupholderr: 200G (2.0%, 36,152G)
rjA0zcOQ96: 101G (1.0%, 12,879G)
CosmicTactician: 100G (1.0%, 12,547G)
Tougou: 100G (1.0%, 10,764G)
Lokenwow: 100G (1.0%, 100G)
BirbBrainsBot: 93G (0.9%, 159,145G)
getthemoneyz: 36G (0.4%, 653,286G)
