Final Bets: red - 19 bets for 10,343G (49.3%, x1.03); blue - 23 bets for 10,641G (50.7%, x0.97)

red bets:
ko2q: 4,267G (41.3%, 8,368G)
roqqqpsi: 1,032G (10.0%, 1,032G)
TheChainNerd: 739G (7.1%, 739G)
WoooBlaaa: 687G (6.6%, 1,145G)
Nizaha: 501G (4.8%, 5,980G)
Wolvaroo: 501G (4.8%, 501G)
Aldrammech: 500G (4.8%, 14,290G)
FoeSquirrel: 400G (3.9%, 800G)
killth3kid: 300G (2.9%, 11,277G)
xYungAnarchyx: 266G (2.6%, 266G)
placeholdercats: 222G (2.1%, 222G)
nifboy: 189G (1.8%, 4,733G)
ungabunga_bot: 139G (1.3%, 211,620G)
AllInBot: 100G (1.0%, 100G)
ApplesauceBoss: 100G (1.0%, 9,522G)
Tougou: 100G (1.0%, 8,652G)
FriendSquirrel: 100G (1.0%, 33,836G)
carsenhk: 100G (1.0%, 10,537G)
Lythe_Caraker: 100G (1.0%, 109,854G)

blue bets:
Lordminsc: 1,205G (11.3%, 46,938G)
Pie108: 1,000G (9.4%, 67,887G)
BirbBrainsBot: 1,000G (9.4%, 130,478G)
JumbocactuarX27: 1,000G (9.4%, 7,942G)
OneHundredFists: 934G (8.8%, 934G)
evontno: 869G (8.2%, 869G)
b0shii: 555G (5.2%, 3,840G)
HaateXIII: 500G (4.7%, 22,878G)
luminarii: 404G (3.8%, 22,120G)
OverlordAnon: 400G (3.8%, 400G)
Lanshaft: 352G (3.3%, 995G)
joewcarson: 300G (2.8%, 1,870G)
The8thZodiac: 268G (2.5%, 268G)
SQUiDSQUARKLIN: 258G (2.4%, 258G)
SerumD: 250G (2.3%, 994G)
Sans_from_Snowdin: 242G (2.3%, 242G)
PetitFoulard: 228G (2.1%, 228G)
sukotsuto: 223G (2.1%, 446G)
marin1987: 200G (1.9%, 2,245G)
getthemoneyz: 148G (1.4%, 554,165G)
CapnSauce420: 105G (1.0%, 307G)
trigger15: 100G (0.9%, 104G)
datadrivenbot: 100G (0.9%, 222G)
