Final Bets: blue - 23 bets for 11,985G (50.5%, x0.98); green - 19 bets for 11,770G (49.5%, x1.02)

blue bets:
LAGBOT30000: 2,863G (23.9%, 57,272G)
kai_shee: 2,000G (16.7%, 135,243G)
Lordminsc: 1,205G (10.1%, 50,178G)
marin1987: 1,000G (8.3%, 2,597G)
ko2q: 528G (4.4%, 528G)
Aldrammech: 500G (4.2%, 14,453G)
EnemyController: 500G (4.2%, 76,568G)
luminarii: 488G (4.1%, 22,936G)
waterwatereverywhere: 388G (3.2%, 388G)
xYungAnarchyx: 367G (3.1%, 367G)
DLJuggernaut: 300G (2.5%, 17,427G)
killth3kid: 300G (2.5%, 11,061G)
The8thZodiac: 268G (2.2%, 268G)
WoooBlaaa: 244G (2.0%, 244G)
PetitFoulard: 228G (1.9%, 228G)
AllInBot: 183G (1.5%, 183G)
b0shii: 123G (1.0%, 4,329G)
FriendSquirrel: 100G (0.8%, 33,436G)
DeathTaxesAndAnime: 100G (0.8%, 12,362G)
smurphy000000: 100G (0.8%, 100G)
datadrivenbot: 100G (0.8%, 308G)
elicsgo_: 50G (0.4%, 100G)
LordMaxoss: 50G (0.4%, 1,790G)

green bets:
HaateXIII: 1,500G (12.7%, 24,222G)
OverlordAnon: 1,307G (11.1%, 1,307G)
LanseDM: 1,200G (10.2%, 5,384G)
Pie108: 1,000G (8.5%, 67,694G)
ungabunga_bot: 1,000G (8.5%, 211,706G)
BirbBrainsBot: 1,000G (8.5%, 133,167G)
getthemoneyz: 1,000G (8.5%, 555,101G)
JumbocactuarX27: 1,000G (8.5%, 11,077G)
Dymntd: 608G (5.2%, 608G)
evontno: 500G (4.2%, 3,060G)
Lanshaft: 360G (3.1%, 777G)
sukotsuto: 345G (2.9%, 690G)
placeholdercats: 183G (1.6%, 183G)
trigger15: 162G (1.4%, 162G)
Sans_from_Snowdin: 156G (1.3%, 156G)
carsenhk: 150G (1.3%, 10,504G)
FoeSquirrel: 149G (1.3%, 298G)
IndecisiveNinja: 100G (0.8%, 89,503G)
DrAntiSocial: 50G (0.4%, 22,327G)
