Final Bets: white - 15 bets for 6,293G (51.2%, x0.95); black - 10 bets for 5,998G (48.8%, x1.05)

white bets:
Nickyfive: 1,434G (22.8%, 2,868G)
killth3kid: 1,000G (15.9%, 103,013G)
Zeroroute: 600G (9.5%, 600G)
MagicBottle: 500G (7.9%, 14,943G)
TasisSai: 500G (7.9%, 633G)
HaateXIII: 500G (7.9%, 4,247G)
alterworlds: 489G (7.8%, 489G)
xLilAsia: 237G (3.8%, 475G)
gorgewall: 201G (3.2%, 28,749G)
Lyner87: 200G (3.2%, 50,964G)
datadrivenbot: 200G (3.2%, 57,308G)
SephDarkheart: 132G (2.1%, 16,136G)
nifboy: 100G (1.6%, 15,331G)
nhammen: 100G (1.6%, 12,530G)
IDruggedShamu: 100G (1.6%, 100G)

black bets:
OneHundredFists: 1,442G (24.0%, 1,442G)
fenaen: 1,200G (20.0%, 24,291G)
BirbBrainsBot: 1,000G (16.7%, 87,178G)
pplvee1: 1,000G (16.7%, 27,881G)
Shalloween: 400G (6.7%, 64,035G)
DavenIII: 400G (6.7%, 745G)
ThreeMileIsland: 200G (3.3%, 789G)
CosmicTactician: 200G (3.3%, 44,352G)
getthemoneyz: 106G (1.8%, 1,205,408G)
raenrond: 50G (0.8%, 1,566G)
