Final Bets: white - 14 bets for 12,191G (76.1%, x0.31); black - 6 bets for 3,823G (23.9%, x3.19)

white bets:
MemoriesofFinal: 3,000G (24.6%, 11,519G)
DavenIII: 1,454G (11.9%, 7,274G)
Error72: 1,430G (11.7%, 1,430G)
latebit: 1,166G (9.6%, 1,166G)
VolgraTheMoose: 1,012G (8.3%, 1,012G)
Lolthsmeat: 1,000G (8.2%, 52,520G)
dogsandcatsand: 739G (6.1%, 739G)
Smashy: 500G (4.1%, 4,436G)
ForagerCats: 500G (4.1%, 6,528G)
shs_: 500G (4.1%, 16,132G)
YowaneHaku: 250G (2.1%, 9,918G)
Smugzug: 240G (2.0%, 12,465G)
AllInBot: 200G (1.6%, 200G)
datadrivenbot: 200G (1.6%, 87,975G)

black bets:
getthemoneyz: 1,000G (26.2%, 2,228,080G)
BirbBrainsBot: 1,000G (26.2%, 116,244G)
HeroponThrawn: 719G (18.8%, 719G)
khelor_: 500G (13.1%, 9,335G)
superdevon1: 404G (10.6%, 6,796G)
ValensEXP_: 200G (5.2%, 23,585G)
