Final Bets: black - 11 bets for 2,496G (7.0%, x13.23); purple - 19 bets for 33,028G (93.0%, x0.08)

black bets:
otakutaylor: 538G (21.6%, 538G)
getthemoneyz: 426G (17.1%, 673,305G)
YaBoy125: 420G (16.8%, 5,091G)
utopia_games: 300G (12.0%, 4,039G)
thethorndog1: 212G (8.5%, 212G)
Lawndough: 100G (4.0%, 1,658G)
Phillippus: 100G (4.0%, 1,459G)
Kyune: 100G (4.0%, 3,492G)
Strifu: 100G (4.0%, 1,341G)
BlackfyreRoy: 100G (4.0%, 814G)
Digitalsocrates: 100G (4.0%, 2,355G)

purple bets:
NicoSavoy: 11,463G (34.7%, 22,926G)
Mesmaster: 5,000G (15.1%, 33,995G)
alecttox: 3,532G (10.7%, 3,532G)
ko2q: 2,314G (7.0%, 4,628G)
CrownOfHorns: 2,203G (6.7%, 2,203G)
reinoe: 2,000G (6.1%, 30,357G)
sinnyil2: 1,200G (3.6%, 8,610G)
BirbBrainsBot: 1,000G (3.0%, 48,112G)
Evewho: 1,000G (3.0%, 23,160G)
ColetteMSLP: 800G (2.4%, 47,282G)
NovaKnight21: 504G (1.5%, 504G)
Estan_AD: 504G (1.5%, 504G)
CorpusCav: 450G (1.4%, 15,450G)
Lolprinze: 373G (1.1%, 373G)
twelfthrootoftwo: 200G (0.6%, 8,991G)
daveb_: 177G (0.5%, 3,788G)
Arcblazer23: 108G (0.3%, 108G)
victoriolue: 100G (0.3%, 4,165G)
datadrivenbot: 100G (0.3%, 16,174G)
