Final Bets: green - 10 bets for 3,625G (12.8%, x6.81); yellow - 31 bets for 24,690G (87.2%, x0.15)

green bets:
DarrenDinosaurs: 1,000G (27.6%, 11,667G)
z32o: 822G (22.7%, 822G)
rubenflonne: 352G (9.7%, 352G)
DHaveWord: 340G (9.4%, 340G)
Treapvort: 336G (9.3%, 336G)
0utlier: 220G (6.1%, 220G)
ugoplatamia: 200G (5.5%, 4,488G)
electric_glass: 150G (4.1%, 2,131G)
BurlapChampion: 105G (2.9%, 559G)
Maowiwowi: 100G (2.8%, 100G)

yellow bets:
LuckyLuckLuc2: 4,444G (18.0%, 18,750G)
JackOnFire1: 3,400G (13.8%, 3,400G)
Shalloween: 2,000G (8.1%, 94,936G)
RongRongArts: 1,855G (7.5%, 1,855G)
Laserman1000: 1,353G (5.5%, 1,353G)
sinnyil2: 1,200G (4.9%, 32,616G)
reinoe: 1,000G (4.1%, 32,821G)
BirbBrainsBot: 1,000G (4.1%, 212,876G)
bad1dea: 1,000G (4.1%, 30,706G)
HaplessOne: 1,000G (4.1%, 97,710G)
alecttox: 800G (3.2%, 32,885G)
pandasforsale: 666G (2.7%, 19,181G)
superdevon1: 631G (2.6%, 6,317G)
Oreo_Pizza: 500G (2.0%, 11,620G)
TrogdorTheMemeinator: 430G (1.7%, 430G)
ZephyrTempest: 400G (1.6%, 20,352G)
KasugaiRoastedPeas: 400G (1.6%, 25,753G)
OverlordCuddles: 392G (1.6%, 392G)
SkylerBunny: 320G (1.3%, 320G)
lijarkh: 300G (1.2%, 8,567G)
Slowbrofist: 289G (1.2%, 289G)
herrshaun: 220G (0.9%, 220G)
alrightbye: 200G (0.8%, 1,571G)
getthemoneyz: 166G (0.7%, 436,649G)
Spirit_NB: 124G (0.5%, 124G)
AllInBot: 100G (0.4%, 100G)
ALY327: 100G (0.4%, 1,367G)
DeathTaxesAndAnime: 100G (0.4%, 5,584G)
datadrivenbot: 100G (0.4%, 17,619G)
Kronikle: 100G (0.4%, 6,165G)
HashtagRob_: 100G (0.4%, 2,147G)
