Final Bets: blue - 9 bets for 4,876G (33.1%, x2.02); green - 14 bets for 9,869G (66.9%, x0.49)

blue bets:
Mushufasa_: 1,000G (20.5%, 95,825G)
BirbBrainsBot: 1,000G (20.5%, 90,268G)
Firesheath: 608G (12.5%, 608G)
Raixelol: 600G (12.3%, 13,668G)
LivingHitokiri: 500G (10.3%, 80,780G)
rocl: 424G (8.7%, 7,470G)
3ngag3: 380G (7.8%, 13,256G)
Zachara: 253G (5.2%, 142,453G)
NicoSavoy: 111G (2.3%, 142,900G)

green bets:
mindblownnnn: 3,000G (30.4%, 12,224G)
ser_pyrro: 1,506G (15.3%, 1,506G)
XerxesMindbreaker: 1,392G (14.1%, 1,392G)
helpimabug: 539G (5.5%, 539G)
resjudicata3: 510G (5.2%, 510G)
CorpusCav: 500G (5.1%, 12,964G)
Morsigil: 500G (5.1%, 5,742G)
upvla: 500G (5.1%, 2,900G)
getthemoneyz: 466G (4.7%, 2,047,377G)
otakutaylor: 300G (3.0%, 1,619G)
Grasnikk: 250G (2.5%, 2,259G)
Jabuamba: 183G (1.9%, 183G)
Lydian_C: 123G (1.2%, 2,153G)
MemoriesofFinal: 100G (1.0%, 40,048G)
