Final Bets: red - 11 bets for 5,739G (23.1%, x3.33); blue - 18 bets for 19,099G (76.9%, x0.30)

red bets:
AllInBot: 1,283G (22.4%, 1,283G)
upvla: 1,200G (20.9%, 18,540G)
bruubarg: 862G (15.0%, 862G)
CorpusCav: 500G (8.7%, 14,258G)
DHaveWord: 448G (7.8%, 9,301G)
Zachara: 350G (6.1%, 145,700G)
thebluesman: 300G (5.2%, 1,385G)
getthemoneyz: 296G (5.2%, 2,100,708G)
HaplessOne: 250G (4.4%, 1,434G)
DouglasDragonThePoet: 150G (2.6%, 3,706G)
CassiePhoenix: 100G (1.7%, 1,602G)

blue bets:
iBluntDouble: 5,000G (26.2%, 20,455G)
OneHundredFists: 2,234G (11.7%, 2,234G)
xsifthewolf: 1,933G (10.1%, 1,933G)
E_Ballard: 1,276G (6.7%, 1,276G)
lijarkh: 1,174G (6.1%, 1,174G)
Chihuahua_Charity: 1,000G (5.2%, 3,603G)
BirbBrainsBot: 1,000G (5.2%, 21,315G)
Mister_Quof: 957G (5.0%, 957G)
mindblownnnn: 879G (4.6%, 879G)
3ngag3: 806G (4.2%, 806G)
Mesmaster: 788G (4.1%, 788G)
LivingHitokiri: 500G (2.6%, 182,170G)
Genkidou: 400G (2.1%, 719G)
VynxYukida: 400G (2.1%, 886G)
ayeCoop: 284G (1.5%, 284G)
datadrivenbot: 200G (1.0%, 77,792G)
WhattayaBrian: 152G (0.8%, 152G)
ZephyrBurst83: 116G (0.6%, 116G)
