Final Bets: red - 8 bets for 4,750G (35.8%, x1.80); blue - 19 bets for 8,527G (64.2%, x0.56)

red bets:
BirbBrainsBot: 1,000G (21.1%, 98,636G)
Zeroroute: 793G (16.7%, 793G)
Aldrammech: 700G (14.7%, 700G)
Laserman1000: 600G (12.6%, 12,200G)
poorest_hobo: 576G (12.1%, 101,459G)
lowlf: 541G (11.4%, 541G)
getthemoneyz: 440G (9.3%, 1,767,820G)
Leonidusx: 100G (2.1%, 1,158G)

blue bets:
Thyrandaal: 1,000G (11.7%, 138,008G)
gorgewall: 997G (11.7%, 997G)
SkylerBunny: 855G (10.0%, 855G)
WesSideVandal: 659G (7.7%, 2,297G)
letdowncity: 544G (6.4%, 23,239G)
Vahn_Blade: 500G (5.9%, 9,951G)
technominari: 500G (5.9%, 74,388G)
roofiepops: 474G (5.6%, 1,820G)
MemoriesofFinal: 402G (4.7%, 402G)
Runeseeker22: 400G (4.7%, 1,891G)
DaveStrider55: 308G (3.6%, 308G)
Mushufasa_: 300G (3.5%, 6,509G)
krombobreaker: 300G (3.5%, 3,465G)
reddwind_: 300G (3.5%, 4,693G)
Rilgon: 288G (3.4%, 3,115G)
DeathTaxesAndAnime: 200G (2.3%, 1,986G)
datadrivenbot: 200G (2.3%, 59,768G)
douchetron: 200G (2.3%, 1,231G)
AllInBot: 100G (1.2%, 100G)
