Final Bets: green - 6 bets for 3,500G (16.4%, x5.10); yellow - 22 bets for 17,836G (83.6%, x0.20)

green bets:
Aldrammech: 1,457G (41.6%, 1,457G)
SkylerBunny: 1,096G (31.3%, 1,096G)
3ngag3: 300G (8.6%, 14,800G)
Mushufasa_: 300G (8.6%, 6,709G)
Runeseeker22: 224G (6.4%, 1,491G)
roofiepops: 123G (3.5%, 2,346G)

yellow bets:
Thyrandaal: 2,345G (13.1%, 137,508G)
NicoSavoy: 2,000G (11.2%, 74,665G)
Mudrockk: 1,272G (7.1%, 2,544G)
thunderducker: 1,187G (6.7%, 7,916G)
lowlf: 1,012G (5.7%, 1,012G)
Zeroroute: 1,005G (5.6%, 2,717G)
BirbBrainsBot: 1,000G (5.6%, 100,431G)
poorest_hobo: 894G (5.0%, 102,993G)
butterbelljedi: 852G (4.8%, 852G)
getthemoneyz: 848G (4.8%, 1,768,610G)
MemoriesofFinal: 764G (4.3%, 764G)
Laserman1000: 677G (3.8%, 13,777G)
Rilgon: 665G (3.7%, 3,327G)
gorgewall: 652G (3.7%, 652G)
letdowncity: 544G (3.1%, 22,695G)
WesSideVandal: 534G (3.0%, 2,138G)
Leonidusx: 500G (2.8%, 1,838G)
krombobreaker: 500G (2.8%, 3,665G)
SoLiDsmoke: 284G (1.6%, 1,422G)
datadrivenbot: 200G (1.1%, 59,568G)
AllInBot: 100G (0.6%, 100G)
Chuckolator: 1G (0.0%, 11,698G)
