Final Bets: red - 17 bets for 13,447G (59.8%, x0.67); green - 10 bets for 9,033G (40.2%, x1.49)

red bets:
flowinprose: 3,000G (22.3%, 129,699G)
sinnyil2: 1,884G (14.0%, 3,769G)
OneHundredFists: 1,329G (9.9%, 1,329G)
BoneMiser: 1,100G (8.2%, 1,100G)
killth3kid: 1,000G (7.4%, 32,110G)
bahamutlagooon: 1,000G (7.4%, 10,520G)
Digitalsocrates: 856G (6.4%, 856G)
Laserman1000: 630G (4.7%, 24,030G)
CorpusCav: 500G (3.7%, 19,199G)
Evewho: 500G (3.7%, 5,071G)
Valentine009: 400G (3.0%, 700G)
evontno: 300G (2.2%, 8,089G)
benticore: 250G (1.9%, 1,198G)
HaateXIII: 250G (1.9%, 12,996G)
getthemoneyz: 248G (1.8%, 779,975G)
Flameatron: 100G (0.7%, 724G)
datadrivenbot: 100G (0.7%, 29,476G)

green bets:
Grandlanzer: 2,587G (28.6%, 2,587G)
YaBoy125: 2,087G (23.1%, 2,087G)
kaelsun: 1,264G (14.0%, 1,264G)
soren_of_tyto: 1,128G (12.5%, 1,128G)
gogofromtogo: 764G (8.5%, 764G)
Qaz12301: 500G (5.5%, 2,202G)
BirbBrainsBot: 303G (3.4%, 107,841G)
KasugaiRoastedPeas: 200G (2.2%, 3,938G)
cogniv0r3: 100G (1.1%, 2,839G)
ApplesauceBoss: 100G (1.1%, 5,697G)
