Final Bets: white - 14 bets for 7,819G (58.3%, x0.71); black - 13 bets for 5,586G (41.7%, x1.40)

white bets:
MagicBottle: 2,617G (33.5%, 2,617G)
Shalloween: 1,000G (12.8%, 67,713G)
CelestialLancer: 1,000G (12.8%, 50,003G)
Nizaha: 501G (6.4%, 7,913G)
gorgewall: 501G (6.4%, 8,446G)
HaateXIII: 500G (6.4%, 12,918G)
Laserman1000: 500G (6.4%, 10,700G)
killth3kid: 480G (6.1%, 10,306G)
Magicandy: 300G (3.8%, 7,108G)
elnobueno: 100G (1.3%, 100G)
biffcake01: 100G (1.3%, 3,712G)
JumbocactuarX27: 100G (1.3%, 8,928G)
datadrivenbot: 100G (1.3%, 46,308G)
getthemoneyz: 20G (0.3%, 1,014,179G)

black bets:
mirapoix: 1,136G (20.3%, 1,136G)
BirbBrainsBot: 1,000G (17.9%, 80,561G)
red__lancer: 1,000G (17.9%, 97,354G)
Nickyfive: 600G (10.7%, 600G)
BoneMiser: 500G (9.0%, 500G)
Evewho: 200G (3.6%, 6,956G)
redrhinofever: 200G (3.6%, 2,222G)
actual_JP: 200G (3.6%, 4,151G)
Grandlanzer: 200G (3.6%, 10,556G)
extinctrational: 200G (3.6%, 1,561G)
RunicMagus: 150G (2.7%, 39,328G)
Firesheath: 100G (1.8%, 2,713G)
IphoneDarkness: 100G (1.8%, 5,746G)
