Final Bets: red - 30 bets for 17,343G (76.5%, x0.31); blue - 11 bets for 5,333G (23.5%, x3.25)

red bets:
twelfthrootoftwo: 1,625G (9.4%, 3,187G)
dogsandcatsand: 1,535G (8.9%, 13,535G)
SkylerBunny: 1,500G (8.6%, 21,493G)
roofiepops: 1,400G (8.1%, 6,494G)
Rislyeu: 1,000G (5.8%, 10,436G)
artahc: 1,000G (5.8%, 2,341G)
killth3kid: 1,000G (5.8%, 77,661G)
BirbBrainsBot: 923G (5.3%, 44,317G)
Laserman1000: 794G (4.6%, 31,894G)
upvla: 789G (4.5%, 9,451G)
HaateXIII: 704G (4.1%, 704G)
maakur_: 637G (3.7%, 637G)
ThreeMileIsland: 500G (2.9%, 2,598G)
DLJuggernaut: 500G (2.9%, 2,946G)
CosmicTactician: 500G (2.9%, 43,893G)
DamnThatShark: 492G (2.8%, 492G)
Aldrammech: 432G (2.5%, 432G)
dantayystv: 300G (1.7%, 583G)
dem0nj0ns: 300G (1.7%, 966G)
gorgewall: 201G (1.2%, 7,353G)
datadrivenbot: 200G (1.2%, 62,946G)
upidstupid: 200G (1.2%, 6,651G)
RunicMagus: 111G (0.6%, 1,384G)
ANFz: 100G (0.6%, 42,240G)
nhammen: 100G (0.6%, 2,964G)
Conome: 100G (0.6%, 4,311G)
loveyouallfriends: 100G (0.6%, 10,931G)
lijerrr: 100G (0.6%, 188G)
nifboy: 100G (0.6%, 7,731G)
Lemonjohns: 100G (0.6%, 613G)

blue bets:
TasisSai: 1,277G (23.9%, 2,505G)
Evewho: 1,000G (18.8%, 8,157G)
docmitchphd: 686G (12.9%, 686G)
HuffFlex: 500G (9.4%, 14,824G)
Lanshaft: 476G (8.9%, 10,188G)
Mudrockk: 400G (7.5%, 5,207G)
SephDarkheart: 280G (5.3%, 280G)
randgridr: 264G (5.0%, 1,392G)
getthemoneyz: 250G (4.7%, 1,259,963G)
rednecknazgul: 100G (1.9%, 1,304G)
Aquios_: 100G (1.9%, 2,113G)
