Final Bets: blue - 10 bets for 4,253G (36.2%, x1.76); green - 11 bets for 7,495G (63.8%, x0.57)

blue bets:
Xoomwaffle: 1,588G (37.3%, 1,588G)
BirbBrainsBot: 1,000G (23.5%, 195,537G)
getthemoneyz: 452G (10.6%, 1,305,521G)
run_with_stone_GUNs: 344G (8.1%, 8,405G)
DouglasDragonThePoet: 200G (4.7%, 217G)
TasisSai: 173G (4.1%, 340G)
boosted420: 172G (4.0%, 172G)
skipsandwiches: 124G (2.9%, 124G)
nifboy: 100G (2.4%, 4,239G)
Error72: 100G (2.4%, 1,227G)

green bets:
dogsandcatsand: 2,057G (27.4%, 4,035G)
LDSkinny: 1,000G (13.3%, 27,950G)
Draconis345: 1,000G (13.3%, 61,203G)
twelfthrootoftwo: 954G (12.7%, 1,872G)
FriendSquirrel: 568G (7.6%, 568G)
NIghtdew14: 500G (6.7%, 1,956G)
RedRiderAyame: 500G (6.7%, 14,561G)
SephDarkheart: 312G (4.2%, 29,065G)
JLinkletter: 204G (2.7%, 204G)
AllInBot: 200G (2.7%, 200G)
datadrivenbot: 200G (2.7%, 28,173G)
