Final Bets: red - 19 bets for 11,836G (53.7%, x0.86); green - 12 bets for 10,192G (46.3%, x1.16)

red bets:
thunderducker: 2,224G (18.8%, 2,224G)
holdenmagronik: 1,955G (16.5%, 3,834G)
EnemyController: 1,111G (9.4%, 1,722,355G)
BirbBrainsBot: 1,000G (8.4%, 129,065G)
Zagorsek: 676G (5.7%, 676G)
Riley331: 626G (5.3%, 6,263G)
reinoe: 584G (4.9%, 584G)
Sietaha: 553G (4.7%, 1,106G)
krombobreaker: 500G (4.2%, 6,483G)
lowlf: 484G (4.1%, 1,496G)
rocl: 458G (3.9%, 916G)
bigbongsmoker: 398G (3.4%, 398G)
WhiteTigress: 300G (2.5%, 27,145G)
Skincrawler: 250G (2.1%, 5,631G)
khelor_: 200G (1.7%, 3,331G)
getthemoneyz: 168G (1.4%, 1,874,392G)
heyBtw: 138G (1.2%, 138G)
Chuckolator: 111G (0.9%, 14,564G)
nhammen: 100G (0.8%, 407,178G)

green bets:
snkey: 4,000G (39.2%, 79,379G)
AllInBot: 1,603G (15.7%, 1,603G)
Thyrandaal: 1,091G (10.7%, 1,091G)
pplvee1: 945G (9.3%, 945G)
Kronikle: 644G (6.3%, 41,489G)
Raixelol: 560G (5.5%, 27,517G)
moonliquor: 500G (4.9%, 60,963G)
farside00831: 220G (2.2%, 220G)
akash7: 216G (2.1%, 216G)
datadrivenbot: 200G (2.0%, 59,527G)
CosmicTactician: 200G (2.0%, 33,489G)
BartTradingCompany: 13G (0.1%, 138G)
