Final Bets: red - 9 bets for 11,739G (42.9%, x1.33); champion - 21 bets for 15,613G (57.1%, x0.75)

red bets:
Chihuahua_Charity: 5,000G (42.6%, 26,822G)
SeniorBunk: 3,000G (25.6%, 105,856G)
GenZealot: 1,000G (8.5%, 26,582G)
BirbBrainsBot: 683G (5.8%, 59,045G)
Shalloween: 600G (5.1%, 89,054G)
tinytittyfiend: 500G (4.3%, 4,116G)
FriendSquirrel: 416G (3.5%, 416G)
otakutaylor: 340G (2.9%, 340G)
AllInBot: 200G (1.7%, 200G)

champion bets:
DeathTaxesAndAnime: 2,222G (14.2%, 34,110G)
CorpusCav: 2,000G (12.8%, 99,026G)
Demon_Lord_Josh: 1,793G (11.5%, 1,793G)
ko2q: 1,736G (11.1%, 3,473G)
Craymel_Mage: 1,500G (9.6%, 5,325G)
Sairentozon7: 1,394G (8.9%, 1,394G)
Laserman1000: 736G (4.7%, 7,436G)
FuzzyTigers: 640G (4.1%, 640G)
seppu777: 555G (3.6%, 2,547G)
krombobreaker: 500G (3.2%, 34,101G)
Breakdown777: 500G (3.2%, 3,062G)
technominari: 500G (3.2%, 102,906G)
xXTysongXx: 324G (2.1%, 324G)
ExplanationMarkWow: 250G (1.6%, 8,073G)
gorgewall: 201G (1.3%, 8,050G)
datadrivenbot: 200G (1.3%, 85,335G)
getthemoneyz: 142G (0.9%, 2,213,660G)
murderclan: 120G (0.8%, 120G)
ANFz: 100G (0.6%, 6,117G)
king_smashington: 100G (0.6%, 2,911G)
DrAntiSocial: 100G (0.6%, 2,003G)
