Final Bets: red - 5 bets for 1,810G (11.0%, x8.05); purple - 18 bets for 14,572G (89.0%, x0.12)

red bets:
BirbBrainsBot: 1,000G (55.2%, 169,100G)
getthemoneyz: 326G (18.0%, 1,947,763G)
projekt_mike: 200G (11.0%, 14,154G)
Dreygyron: 184G (10.2%, 184G)
BartTradingCompany: 100G (5.5%, 10,657G)

purple bets:
dogsandcatsand: 5,000G (34.3%, 43,766G)
Runeseeker22: 1,109G (7.6%, 11,092G)
DeathTaxesAndAnime: 1,001G (6.9%, 19,523G)
Error72: 1,001G (6.9%, 54,202G)
Leonidusx: 1,000G (6.9%, 41,946G)
MemoriesofFinal: 1,000G (6.9%, 20,360G)
Bryon_W: 743G (5.1%, 743G)
Willjin: 588G (4.0%, 588G)
silentkaster: 564G (3.9%, 564G)
krombobreaker: 500G (3.4%, 3,563G)
ColetteMSLP: 400G (2.7%, 6,912G)
khelor_: 400G (2.7%, 1,154G)
SephDarkheart: 336G (2.3%, 27,690G)
AltimaMantoid: 321G (2.2%, 12,321G)
ValensEXP_: 308G (2.1%, 1,833G)
datadrivenbot: 200G (1.4%, 62,900G)
AllInBot: 100G (0.7%, 100G)
latebit: 1G (0.0%, 3,385G)
