Final Bets: white - 29 bets for 24,148G (68.8%, x0.45); black - 10 bets for 10,963G (31.2%, x2.20)

white bets:
Mesmaster: 5,000G (20.7%, 16,643G)
latebit: 3,000G (12.4%, 17,753G)
RunicMagus: 2,200G (9.1%, 92,859G)
DeathTaxesAndAnime: 1,519G (6.3%, 2,980G)
Mushufasa_: 1,234G (5.1%, 19,354G)
BirbBrainsBot: 1,000G (4.1%, 131,649G)
getthemoneyz: 1,000G (4.1%, 2,188,475G)
ExplanationMarkWow: 1,000G (4.1%, 29,076G)
Lord_Gwarth: 1,000G (4.1%, 6,061G)
Sairentozon7: 1,000G (4.1%, 82,666G)
dogsandcatsand: 548G (2.3%, 548G)
krombobreaker: 500G (2.1%, 42,032G)
EvilLego6: 500G (2.1%, 29,460G)
2b_yorha_b: 500G (2.1%, 28,710G)
roofiepops: 474G (2.0%, 9,375G)
Smashy: 424G (1.8%, 2,558G)
AltimaMantoid: 410G (1.7%, 16,410G)
CosmicTactician: 400G (1.7%, 619G)
DHaveWord: 347G (1.4%, 347G)
macal0ser: 327G (1.4%, 327G)
KGenjy: 300G (1.2%, 6,294G)
Twisted_Nutsatchel: 300G (1.2%, 15,854G)
gorgewall: 201G (0.8%, 5,138G)
AllInBot: 200G (0.8%, 200G)
Evewho: 200G (0.8%, 6,127G)
datadrivenbot: 200G (0.8%, 85,870G)
FuzzyTigers: 196G (0.8%, 196G)
SRG_Chugganomics: 167G (0.7%, 167G)
MoonSugarFiend: 1G (0.0%, 49,028G)

black bets:
MelloHeart: 3,000G (27.4%, 7,977G)
CorpusCav: 2,000G (18.2%, 56,910G)
mirapoix: 1,836G (16.7%, 1,836G)
ANFz: 1,403G (12.8%, 1,403G)
SkylerBunny: 724G (6.6%, 724G)
lowlf: 668G (6.1%, 2,394G)
DustBirdEX: 432G (3.9%, 432G)
Forkmore: 360G (3.3%, 360G)
Neech: 340G (3.1%, 340G)
ribbiks: 200G (1.8%, 1,454G)
