Final Bets: green - 13 bets for 5,295G (44.9%, x1.23); yellow - 8 bets for 6,493G (55.1%, x0.82)

green bets:
BirbBrainsBot: 1,000G (18.9%, 140,065G)
LivingHitokiri: 690G (13.0%, 690G)
HorusTaurus: 588G (11.1%, 588G)
Evewho: 544G (10.3%, 544G)
volgrathemoose: 501G (9.5%, 12,125G)
sinnyil2: 500G (9.4%, 15,587G)
DustBirdEX: 342G (6.5%, 3,450G)
Dexef: 312G (5.9%, 312G)
Miyokari: 300G (5.7%, 2,690G)
Eyepoor_: 200G (3.8%, 1,763G)
getthemoneyz: 118G (2.2%, 651,508G)
datadrivenbot: 100G (1.9%, 13,843G)
CosmicTactician: 100G (1.9%, 16,183G)

yellow bets:
rocl: 3,226G (49.7%, 32,264G)
theNGUYENNER: 1,000G (15.4%, 6,047G)
cupholderr: 1,000G (15.4%, 45,216G)
ko2q: 506G (7.8%, 506G)
ungabunga_bot: 248G (3.8%, 422,924G)
foofermoofer: 213G (3.3%, 213G)
ThePineappleSalesman: 200G (3.1%, 26,308G)
E_Ballard: 100G (1.5%, 10,435G)
