Final Bets: purple - 11 bets for 8,200G (55.2%, x0.81); brown - 10 bets for 6,643G (44.8%, x1.23)

purple bets:
volgrathemoose: 2,500G (30.5%, 10,623G)
J2DaBibbles: 1,250G (15.2%, 21,089G)
sinnyil2: 1,200G (14.6%, 14,487G)
Evewho: 835G (10.2%, 835G)
maakur_: 709G (8.6%, 709G)
HorusTaurus: 428G (5.2%, 428G)
Arkreaver: 416G (5.1%, 416G)
Miyokari: 350G (4.3%, 2,394G)
Dexef: 312G (3.8%, 312G)
E_Ballard: 100G (1.2%, 10,571G)
datadrivenbot: 100G (1.2%, 13,797G)

brown bets:
Eyepoor_: 1,200G (18.1%, 1,363G)
ungabunga_bot: 1,000G (15.1%, 423,647G)
BirbBrainsBot: 1,000G (15.1%, 139,600G)
theNGUYENNER: 1,000G (15.1%, 7,397G)
cupholderr: 1,000G (15.1%, 46,303G)
getthemoneyz: 498G (7.5%, 651,204G)
LivingHitokiri: 324G (4.9%, 324G)
DustBirdEX: 321G (4.8%, 2,784G)
ThePineappleSalesman: 200G (3.0%, 26,471G)
foofermoofer: 100G (1.5%, 441G)
