Final Bets: blue - 8 bets for 14,386G (39.0%, x1.57); purple - 17 bets for 22,541G (61.0%, x0.64)

blue bets:
E_Ballard: 10,754G (74.8%, 10,754G)
DustBirdEX: 1,511G (10.5%, 2,519G)
Dexef: 565G (3.9%, 565G)
ForagerCats: 500G (3.5%, 15,549G)
Realitydown: 380G (2.6%, 380G)
Mudrockk: 300G (2.1%, 8,997G)
Eyepoor_: 276G (1.9%, 276G)
foofermoofer: 100G (0.7%, 547G)

purple bets:
volgrathemoose: 5,617G (24.9%, 15,617G)
theNGUYENNER: 4,397G (19.5%, 4,397G)
cupholderr: 2,000G (8.9%, 45,327G)
HorusTaurus: 1,842G (8.2%, 1,842G)
maakur_: 1,676G (7.4%, 1,676G)
Arkreaver: 1,532G (6.8%, 1,532G)
J2DaBibbles: 1,200G (5.3%, 23,382G)
BirbBrainsBot: 1,000G (4.4%, 136,600G)
ShintaroNayaka: 879G (3.9%, 879G)
LivingHitokiri: 656G (2.9%, 656G)
ungabunga_bot: 656G (2.9%, 420,647G)
potgodtopdog: 444G (2.0%, 14,515G)
Miyokari: 250G (1.1%, 2,535G)
bahamutlagooon: 150G (0.7%, 1,381G)
lastly: 100G (0.4%, 2,461G)
datadrivenbot: 100G (0.4%, 13,809G)
getthemoneyz: 42G (0.2%, 650,242G)
