Final Bets: green - 11 bets for 4,007G (14.7%, x5.82); yellow - 29 bets for 23,317G (85.3%, x0.17)

green bets:
lotharek: 1,119G (27.9%, 1,119G)
FatTunaKing: 700G (17.5%, 700G)
JonnyCue: 500G (12.5%, 12,879G)
getthemoneyz: 456G (11.4%, 2,135,666G)
CapnChaos12: 300G (7.5%, 5,054G)
Rhyser76: 291G (7.3%, 291G)
CorpusCav: 200G (5.0%, 30,498G)
BirbBrainsBot: 155G (3.9%, 160,586G)
Riley331: 136G (3.4%, 136G)
GeNoFPaniC: 100G (2.5%, 2,768G)
king_smashington: 50G (1.2%, 1,008G)

yellow bets:
DLJuggernaut: 2,651G (11.4%, 2,651G)
Mesmaster: 2,516G (10.8%, 2,516G)
thunderducker: 2,417G (10.4%, 2,417G)
Craymel_Mage: 1,659G (7.1%, 1,659G)
latebit: 1,347G (5.8%, 1,347G)
CosmicTactician: 1,153G (4.9%, 2,306G)
E_Ballard: 1,124G (4.8%, 1,124G)
RunicMagus: 1,020G (4.4%, 28,976G)
Evewho: 1,000G (4.3%, 9,622G)
dogsandcatsand: 1,000G (4.3%, 8,644G)
VolgraTheMoose: 912G (3.9%, 24,284G)
Nizaha: 644G (2.8%, 12,774G)
resjudicata3: 540G (2.3%, 540G)
MemoriesofFinal: 501G (2.1%, 501G)
ExplanationMarkWow: 500G (2.1%, 19,173G)
krombobreaker: 500G (2.1%, 25,417G)
Lord_Gwarth: 500G (2.1%, 2,879G)
HorusTaurus: 490G (2.1%, 490G)
pplvee1: 456G (2.0%, 456G)
Wonser: 408G (1.7%, 1,780G)
old_overholt_: 400G (1.7%, 63,171G)
ribbiks: 388G (1.7%, 388G)
TheBrett: 334G (1.4%, 334G)
AllInBot: 200G (0.9%, 200G)
datadrivenbot: 200G (0.9%, 80,559G)
Aaron2Nerdy: 156G (0.7%, 156G)
gorgewall: 101G (0.4%, 11,536G)
maakur_: 100G (0.4%, 4,110G)
heropong: 100G (0.4%, 2,827G)
