Final Bets: white - 14 bets for 5,210G (44.4%, x1.25); brown - 8 bets for 6,528G (55.6%, x0.80)

white bets:
Rytor: 1,354G (26.0%, 1,354G)
Bryon_W: 912G (17.5%, 912G)
DavenIII: 608G (11.7%, 608G)
JumbocactuarX27: 424G (8.1%, 424G)
AltimaMantoid: 355G (6.8%, 6,055G)
dem0nj0ns: 296G (5.7%, 296G)
Leonidusx: 292G (5.6%, 292G)
DracoknightZero: 248G (4.8%, 3,961G)
aceof86: 200G (3.8%, 2,478G)
datadrivenbot: 200G (3.8%, 58,599G)
gorgewall: 101G (1.9%, 2,402G)
AllInBot: 100G (1.9%, 100G)
Lushifah: 100G (1.9%, 1,148G)
BartTradingCompany: 20G (0.4%, 200G)

brown bets:
Thyrandaal: 2,021G (31.0%, 2,021G)
snkey: 1,002G (15.3%, 7,404G)
Error72: 1,001G (15.3%, 69,178G)
BirbBrainsBot: 1,000G (15.3%, 162,070G)
getthemoneyz: 648G (9.9%, 1,892,670G)
latebit: 356G (5.5%, 356G)
CosmicTactician: 300G (4.6%, 31,646G)
gongonono: 200G (3.1%, 5,172G)
