Final Bets: black - 16 bets for 5,491G (32.2%, x2.10); brown - 17 bets for 11,543G (67.8%, x0.48)

black bets:
skillomono: 976G (17.8%, 976G)
BirbBrainsBot: 746G (13.6%, 177,121G)
dogsandcatsand: 729G (13.3%, 729G)
Rislyeu: 500G (9.1%, 8,573G)
Baron_von_Scrub: 474G (8.6%, 38,465G)
Ring_Wyrm: 340G (6.2%, 340G)
argentbast: 320G (5.8%, 320G)
getthemoneyz: 236G (4.3%, 841,035G)
maleblackfiora: 224G (4.1%, 3,779G)
potgodtopdog: 222G (4.0%, 41,491G)
HASTERIOUS: 157G (2.9%, 3,150G)
benticore: 139G (2.5%, 2,796G)
VulcanPanderp: 128G (2.3%, 128G)
E_Ballard: 100G (1.8%, 5,965G)
DeathTaxesAndAnime: 100G (1.8%, 16,415G)
Kellios11: 100G (1.8%, 9,593G)

brown bets:
Thyrandaal: 5,000G (43.3%, 12,481G)
VolgraTheMoose: 2,001G (17.3%, 16,460G)
cam_ATS: 710G (6.2%, 710G)
TheChainNerd: 702G (6.1%, 702G)
nifboy: 612G (5.3%, 612G)
Sairentozon7: 596G (5.2%, 596G)
twelfthrootoftwo: 300G (2.6%, 916G)
CrownOfHorns: 272G (2.4%, 272G)
ivellioz: 250G (2.2%, 2,723G)
Angelomortis: 240G (2.1%, 240G)
Grandlanzer: 200G (1.7%, 5,451G)
CaptainGarlock: 200G (1.7%, 651G)
Celdia: 100G (0.9%, 2,370G)
BruddaShrine: 100G (0.9%, 597G)
datadrivenbot: 100G (0.9%, 35,269G)
cogniv0r3: 100G (0.9%, 2,002G)
IphoneDarkness: 60G (0.5%, 1,792G)
