Final Bets: green - 13 bets for 9,384G (58.6%, x0.71); black - 12 bets for 6,628G (41.4%, x1.42)

green bets:
YaBoy125: 3,676G (39.2%, 3,676G)
PotionDweller: 1,200G (12.8%, 1,936G)
CapnChaos12: 1,026G (10.9%, 1,026G)
SkyridgeZero: 1,000G (10.7%, 21,651G)
BirbBrainsBot: 1,000G (10.7%, 81,839G)
Digitalsocrates: 444G (4.7%, 1,481G)
Lawndough: 235G (2.5%, 235G)
getthemoneyz: 204G (2.2%, 687,643G)
KasugaiRoastedPeas: 200G (2.1%, 2,059G)
Syrokko: 108G (1.2%, 108G)
nifboy: 100G (1.1%, 2,861G)
datadrivenbot: 100G (1.1%, 22,768G)
MalakiGenesys: 91G (1.0%, 917G)

black bets:
CorpusCav: 1,000G (15.1%, 5,363G)
Mesmaster: 1,000G (15.1%, 84,472G)
GnielKnows: 998G (15.1%, 3,993G)
RaIshtar: 828G (12.5%, 828G)
HASTERIOUS: 728G (11.0%, 14,562G)
lowlf: 564G (8.5%, 564G)
mannequ1n: 502G (7.6%, 502G)
TheMM42: 470G (7.1%, 470G)
kaidykat: 200G (3.0%, 2,993G)
Coyote81_G: 163G (2.5%, 163G)
dowdlron: 125G (1.9%, 251G)
Estan_AD: 50G (0.8%, 1,496G)
