Final Bets: green - 9 bets for 6,832G (41.7%, x1.40); yellow - 19 bets for 9,561G (58.3%, x0.71)

green bets:
UmaiJam: 1,800G (26.3%, 86,337G)
LDSkinny: 1,000G (14.6%, 60,279G)
getthemoneyz: 1,000G (14.6%, 1,163,047G)
BirbBrainsBot: 1,000G (14.6%, 143,283G)
mpghappiness: 536G (7.8%, 536G)
FriendSquirrel: 512G (7.5%, 512G)
MagicBottle: 484G (7.1%, 17,217G)
Shalloween: 400G (5.9%, 67,395G)
nhammen: 100G (1.5%, 10,501G)

yellow bets:
EnemyController: 1,111G (11.6%, 1,348,120G)
reinoe: 1,000G (10.5%, 40,919G)
notsashasia: 1,000G (10.5%, 8,184G)
DeathTaxesAndAnime: 796G (8.3%, 796G)
casteia: 775G (8.1%, 775G)
Cryptopsy70: 624G (6.5%, 16,579G)
nifboy: 588G (6.1%, 588G)
Nizaha: 508G (5.3%, 5,800G)
safira125: 503G (5.3%, 503G)
ArashiKurobara: 500G (5.2%, 14,949G)
RampagingRobot: 500G (5.2%, 6,500G)
Zagorsek: 411G (4.3%, 411G)
HaateXIII: 250G (2.6%, 4,247G)
Lythe_Caraker: 250G (2.6%, 145,813G)
SephDarkheart: 218G (2.3%, 218G)
ChaoreLance: 200G (2.1%, 2,312G)
datadrivenbot: 200G (2.1%, 51,070G)
CosmicTactician: 100G (1.0%, 50,061G)
phoenix6107: 27G (0.3%, 108G)
