Final Bets: white - 12 bets for 8,130G (48.2%, x1.08); black - 16 bets for 8,746G (51.8%, x0.93)

white bets:
UmaiJam: 1,800G (22.1%, 84,537G)
EnemyController: 1,234G (15.2%, 1,348,914G)
notsashasia: 1,000G (12.3%, 8,899G)
BirbBrainsBot: 1,000G (12.3%, 142,283G)
getthemoneyz: 980G (12.1%, 1,162,047G)
Zagorsek: 705G (8.7%, 705G)
MagicBottle: 484G (6.0%, 16,733G)
ShintaroNayaka: 400G (4.9%, 9,540G)
ArashiKurobara: 200G (2.5%, 15,306G)
ZCKaiser: 127G (1.6%, 1,276G)
E_Ballard: 100G (1.2%, 1,744G)
nhammen: 100G (1.2%, 10,401G)

black bets:
DeathTaxesAndAnime: 1,365G (15.6%, 1,365G)
reinoe: 1,000G (11.4%, 41,634G)
safira125: 862G (9.9%, 862G)
RampagingRobot: 857G (9.8%, 6,857G)
DudeMonkey77: 700G (8.0%, 700G)
mpghappiness: 536G (6.1%, 536G)
FriendSquirrel: 512G (5.9%, 512G)
Nizaha: 508G (5.8%, 6,163G)
roofiepops: 497G (5.7%, 497G)
gorgewall: 420G (4.8%, 420G)
Shalloween: 400G (4.6%, 66,995G)
SephDarkheart: 374G (4.3%, 374G)
placidphoenix: 252G (2.9%, 252G)
datadrivenbot: 200G (2.3%, 51,213G)
casteia: 200G (2.3%, 1,329G)
phoenix6107: 63G (0.7%, 127G)
