Final Bets: red - 10 bets for 5,311G (36.7%, x1.73); blue - 15 bets for 9,165G (63.3%, x0.58)

red bets:
RunicMagus: 1,520G (28.6%, 25,857G)
FatTunaKing: 680G (12.8%, 680G)
Willjin: 600G (11.3%, 28,353G)
skipsandwiches: 508G (9.6%, 71,371G)
Lord_Gwarth: 505G (9.5%, 7,016G)
krombobreaker: 500G (9.4%, 25,835G)
Phi_Sig: 424G (8.0%, 424G)
AllInBot: 374G (7.0%, 374G)
DirkC_Fenrir84: 100G (1.9%, 100G)
wizzo66: 100G (1.9%, 835G)

blue bets:
mindblownnnn: 2,500G (27.3%, 12,921G)
dogsandcatsand: 1,234G (13.5%, 23,484G)
mirapoix: 966G (10.5%, 966G)
killth3kid: 804G (8.8%, 33,413G)
king_smashington: 535G (5.8%, 535G)
AnthroMetal: 500G (5.5%, 2,770G)
Lythe_Caraker: 500G (5.5%, 3,958G)
TheBrett: 487G (5.3%, 487G)
acid_flashback: 300G (3.3%, 4,879G)
Widewalk: 300G (3.3%, 2,743G)
CorpusCav: 300G (3.3%, 30,126G)
yagyuudarkness: 266G (2.9%, 266G)
KGenjy: 250G (2.7%, 3,729G)
LuckyLuckLuc2: 122G (1.3%, 8,361G)
gorgewall: 101G (1.1%, 8,931G)
