Final Bets: green - 15 bets for 12,698G (75.0%, x0.33); yellow - 11 bets for 4,224G (25.0%, x3.01)

green bets:
Mesmaster: 3,000G (23.6%, 141,196G)
reinoe: 2,156G (17.0%, 2,156G)
R_Raynos: 2,000G (15.8%, 38,267G)
sinnyil2: 1,200G (9.5%, 16,829G)
getthemoneyz: 1,000G (7.9%, 660,187G)
BirbBrainsBot: 1,000G (7.9%, 183,762G)
waterwatereverywhere: 440G (3.5%, 440G)
Estan_AD: 440G (3.5%, 440G)
twelfthrootoftwo: 300G (2.4%, 2,243G)
ApplesauceBoss: 300G (2.4%, 300G)
HorusTaurus: 288G (2.3%, 288G)
Tekigi: 204G (1.6%, 204G)
ar_tactic: 150G (1.2%, 37,960G)
Tekenu: 120G (0.9%, 120G)
datadrivenbot: 100G (0.8%, 12,202G)

yellow bets:
Shakarak: 1,200G (28.4%, 16,560G)
ungabunga_bot: 1,000G (23.7%, 448,608G)
DeathTaxesAndAnime: 512G (12.1%, 512G)
Luna_XIV: 455G (10.8%, 455G)
Eyepoor_: 250G (5.9%, 2,756G)
CustomGameMaster: 205G (4.9%, 205G)
CT_5_Holy: 200G (4.7%, 872G)
ko2q: 199G (4.7%, 1,363G)
Dymntd: 100G (2.4%, 16,987G)
Lokenwow: 53G (1.3%, 105G)
T8T3R: 50G (1.2%, 290G)
