Final Bets: red - 20 bets for 13,550G (66.8%, x0.50); blue - 12 bets for 6,739G (33.2%, x2.01)

red bets:
SeedSC: 2,000G (14.8%, 128,695G)
Shakarak: 1,500G (11.1%, 31,412G)
sinnyil2: 1,200G (8.9%, 20,781G)
mayormcfunbags: 1,083G (8.0%, 1,083G)
BirbBrainsBot: 1,000G (7.4%, 208,549G)
bad1dea: 1,000G (7.4%, 25,899G)
lunatickzero: 1,000G (7.4%, 13,644G)
reinoe: 1,000G (7.4%, 10,262G)
pandasforsale: 666G (4.9%, 22,142G)
Goust18: 600G (4.4%, 6,411G)
Rethera_: 579G (4.3%, 579G)
Numbersborne: 500G (3.7%, 1,347G)
upvla: 322G (2.4%, 8,874G)
R_Raynos: 272G (2.0%, 272G)
ugoplatamia: 200G (1.5%, 16,190G)
V3rdeni: 200G (1.5%, 1,009G)
IroncladWarbear: 128G (0.9%, 128G)
herrshaun: 100G (0.7%, 1,022G)
BuffaloCrunch: 100G (0.7%, 17,235G)
datadrivenbot: 100G (0.7%, 18,663G)

blue bets:
mirapoix: 1,238G (18.4%, 1,238G)
Evewho: 1,039G (15.4%, 2,078G)
getthemoneyz: 1,000G (14.8%, 434,227G)
hzor: 858G (12.7%, 858G)
ungabunga_bot: 850G (12.6%, 19,492G)
lavian94: 400G (5.9%, 1,852G)
WireLord: 388G (5.8%, 388G)
superdevon1: 355G (5.3%, 3,557G)
KasugaiRoastedPeas: 200G (3.0%, 18,006G)
Chompie: 200G (3.0%, 6,012G)
LuckyLuckLuc2: 111G (1.6%, 19,528G)
AllInBot: 100G (1.5%, 100G)
