Final Bets: red - 5 bets for 9,278G (30.4%, x2.29); yellow - 29 bets for 21,285G (69.6%, x0.44)

red bets:
YaBoy125: 7,486G (80.7%, 7,486G)
Rethera_: 867G (9.3%, 867G)
WireLord: 388G (4.2%, 388G)
AllInBot: 337G (3.6%, 337G)
ugoplatamia: 200G (2.2%, 16,279G)

yellow bets:
sinnyil2: 10,233G (48.1%, 20,467G)
Shakarak: 2,500G (11.7%, 35,302G)
BirbBrainsBot: 1,000G (4.7%, 208,193G)
bad1dea: 1,000G (4.7%, 25,333G)
ungabunga_bot: 700G (3.3%, 18,020G)
lavian94: 600G (2.8%, 2,600G)
jethrothrul: 548G (2.6%, 548G)
LAGBOT30000: 495G (2.3%, 9,902G)
OverlordCuddles: 428G (2.0%, 428G)
hannapiana: 400G (1.9%, 1,288G)
kingchadking: 392G (1.8%, 392G)
getthemoneyz: 354G (1.7%, 432,559G)
TinhShu: 300G (1.4%, 1,384G)
superdevon1: 274G (1.3%, 2,748G)
Pie108: 256G (1.2%, 3,470G)
V3rdeni: 200G (0.9%, 1,098G)
Treapvort: 200G (0.9%, 2,313G)
JackOnFire1: 188G (0.9%, 2,818G)
amadmet: 150G (0.7%, 4,841G)
InOzWeTrust: 128G (0.6%, 128G)
Slowbrofist: 128G (0.6%, 128G)
TheOneRanger: 111G (0.5%, 1,532G)
ApplesauceBoss: 100G (0.5%, 1,866G)
Lali_Lulelo: 100G (0.5%, 4,065G)
SeedSC: 100G (0.5%, 130,185G)
herrshaun: 100G (0.5%, 1,560G)
Alc_Trinity: 100G (0.5%, 37,997G)
BuffaloCrunch: 100G (0.5%, 16,942G)
datadrivenbot: 100G (0.5%, 18,696G)
