Final Bets: purple - 9 bets for 4,300G (27.9%, x2.58); brown - 20 bets for 11,114G (72.1%, x0.39)

purple bets:
roofiepops: 1,515G (35.2%, 5,989G)
HaplessOne: 666G (15.5%, 17,642G)
hydroshade: 525G (12.2%, 2,101G)
Nova_riety: 500G (11.6%, 3,928G)
ZephyrTempest: 456G (10.6%, 894G)
elelor: 388G (9.0%, 388G)
bringmoreknives: 100G (2.3%, 7,024G)
Dexsana: 100G (2.3%, 1,861G)
tmo50x: 50G (1.2%, 8,361G)

brown bets:
Mesmaster: 3,000G (27.0%, 12,298G)
PatSouI: 1,000G (9.0%, 40,730G)
BirbBrainsBot: 1,000G (9.0%, 75,905G)
Lionhermit: 1,000G (9.0%, 19,222G)
JumbocactuarX27: 1,000G (9.0%, 7,932G)
getthemoneyz: 704G (6.3%, 633,174G)
DavenIII: 700G (6.3%, 2,891G)
Eyepoor_: 500G (4.5%, 6,360G)
TheChainNerd: 420G (3.8%, 420G)
belife42: 364G (3.3%, 3,064G)
Rislyeu: 288G (2.6%, 288G)
TheUnforgivenRage: 223G (2.0%, 223G)
ungabunga_bot: 153G (1.4%, 364,177G)
Fanduscus: 150G (1.3%, 345G)
bahamutlagooon: 138G (1.2%, 138G)
Blakelmenakle: 124G (1.1%, 124G)
maakur_: 100G (0.9%, 125,791G)
datadrivenbot: 100G (0.9%, 11,909G)
jwchapm: 100G (0.9%, 442G)
DrAntiSocial: 50G (0.4%, 7,681G)
