Final Bets: purple - 15 bets for 8,516G (53.8%, x0.86); brown - 16 bets for 7,314G (46.2%, x1.16)

purple bets:
Mesmaster: 1,739G (20.4%, 1,739G)
Zeroroute: 1,694G (19.9%, 1,694G)
rockmem21: 1,000G (11.7%, 6,667G)
NicoSavoy: 1,000G (11.7%, 6,279G)
DLJuggernaut: 791G (9.3%, 3,165G)
superdevon1: 771G (9.1%, 7,713G)
Laserman1000: 535G (6.3%, 22,435G)
TheChainNerd: 250G (2.9%, 5,000G)
roqqqpsi: 135G (1.6%, 13,594G)
Firesheath: 101G (1.2%, 1,655G)
ko2q: 100G (1.2%, 5,326G)
cogniv0r3: 100G (1.2%, 1,845G)
Evewho: 100G (1.2%, 4,149G)
DAC169: 100G (1.2%, 1,065G)
outer_monologue: 100G (1.2%, 3,416G)

brown bets:
RaIshtar: 1,800G (24.6%, 16,774G)
Rislyeu: 1,000G (13.7%, 9,617G)
getthemoneyz: 1,000G (13.7%, 869,364G)
metagameface: 1,000G (13.7%, 6,828G)
BirbBrainsBot: 623G (8.5%, 31,190G)
cam_ATS: 500G (6.8%, 2,513G)
bruubarg: 400G (5.5%, 7,741G)
CaptainGarlock: 200G (2.7%, 2,278G)
Coolguye: 150G (2.1%, 3,160G)
gorgewall: 101G (1.4%, 2,745G)
Grandlanzer: 100G (1.4%, 9,301G)
Celdia: 100G (1.4%, 606G)
Quadh0nk: 100G (1.4%, 1,390G)
nsm013: 100G (1.4%, 2,223G)
dinin991: 100G (1.4%, 332G)
IphoneDarkness: 40G (0.5%, 2,410G)
