Final Bets: red - 9 bets for 4,420G (32.7%, x2.06); blue - 18 bets for 9,108G (67.3%, x0.49)

red bets:
JCBooBot: 1,000G (22.6%, 25,425G)
PuzzleSecretary: 700G (15.8%, 1,325G)
thunderducker: 600G (13.6%, 5,830G)
SephDarkheart: 600G (13.6%, 168,961G)
SkylerBunny: 584G (13.2%, 584G)
Lord_Gwarth: 408G (9.2%, 408G)
JonnyCue: 328G (7.4%, 328G)
AllInBot: 100G (2.3%, 100G)
Thyrandaal: 100G (2.3%, 94,717G)

blue bets:
Forkmore: 1,000G (11.0%, 3,145G)
BirbBrainsBot: 1,000G (11.0%, 84,664G)
WitchHunterIX: 1,000G (11.0%, 2,058G)
DeathTaxesAndAnime: 897G (9.8%, 897G)
HaateXIII: 832G (9.1%, 832G)
getthemoneyz: 620G (6.8%, 1,765,796G)
dogsandcatsand: 592G (6.5%, 592G)
moonliquor: 500G (5.5%, 60,206G)
old_overholt_: 500G (5.5%, 6,105G)
CorpusCav: 400G (4.4%, 2,922G)
porkchop5158: 359G (3.9%, 359G)
Mushufasa_: 306G (3.4%, 306G)
Runeseeker22: 280G (3.1%, 280G)
SWATb1gdog: 222G (2.4%, 222G)
datadrivenbot: 200G (2.2%, 63,802G)
ArrenJevleth: 200G (2.2%, 2,488G)
ko2q: 100G (1.1%, 14,362G)
ravingsockmonkey: 100G (1.1%, 4,480G)
