Final Bets: white - 11 bets for 4,656G (31.6%, x2.16); black - 16 bets for 10,067G (68.4%, x0.46)

white bets:
sinnyil2: 1,124G (24.1%, 2,249G)
JCBooBot: 1,000G (21.5%, 24,765G)
Aldrammech: 700G (15.0%, 700G)
Mushufasa_: 608G (13.1%, 608G)
Runeseeker22: 316G (6.8%, 316G)
Rilgon: 284G (6.1%, 2,232G)
getthemoneyz: 224G (4.8%, 1,765,707G)
Kellios11: 100G (2.1%, 441G)
FriendSquirrel: 100G (2.1%, 5,575G)
Thyrandaal: 100G (2.1%, 94,617G)
onehitslay: 100G (2.1%, 247G)

black bets:
thunderducker: 2,092G (20.8%, 5,230G)
DeathTaxesAndAnime: 1,790G (17.8%, 1,790G)
astrozin11: 1,500G (14.9%, 7,052G)
BirbBrainsBot: 1,000G (9.9%, 84,492G)
E_Ballard: 780G (7.7%, 60,406G)
ColetteMSLP: 738G (7.3%, 738G)
old_overholt_: 500G (5.0%, 6,416G)
Lord_Gwarth: 408G (4.1%, 408G)
CorpusCav: 300G (3.0%, 2,866G)
PuzzleSecretary: 275G (2.7%, 275G)
datadrivenbot: 200G (2.0%, 63,967G)
AllInBot: 134G (1.3%, 134G)
nifboy: 100G (1.0%, 4,633G)
ko2q: 100G (1.0%, 14,445G)
ravingsockmonkey: 100G (1.0%, 4,429G)
moonliquor: 50G (0.5%, 60,619G)
