Final Bets: blue - 14 bets for 8,159G (31.5%, x2.17); yellow - 11 bets for 17,729G (68.5%, x0.46)

blue bets:
Rilgon: 1,851G (22.7%, 1,851G)
Aldrammech: 1,279G (15.7%, 1,279G)
KasugaiRoastedPeas: 956G (11.7%, 956G)
pandasforsale: 866G (10.6%, 866G)
getthemoneyz: 510G (6.3%, 1,765,359G)
Snowfats: 500G (6.1%, 15,742G)
ColetteMSLP: 500G (6.1%, 1,965G)
Runeseeker22: 386G (4.7%, 386G)
PuzzleSecretary: 350G (4.3%, 607G)
thunderducker: 325G (4.0%, 6,936G)
Mushufasa_: 236G (2.9%, 236G)
datadrivenbot: 200G (2.5%, 64,224G)
ko2q: 100G (1.2%, 14,573G)
ravingsockmonkey: 100G (1.2%, 4,375G)

yellow bets:
IndecisiveNinja: 10,004G (56.4%, 10,004G)
Shalloween: 2,400G (13.5%, 30,872G)
JCBooBot: 1,000G (5.6%, 24,586G)
BirbBrainsBot: 1,000G (5.6%, 83,955G)
astrozin11: 1,000G (5.6%, 7,446G)
CapnChaos12: 827G (4.7%, 827G)
Lord_Gwarth: 408G (2.3%, 408G)
AllInBot: 357G (2.0%, 357G)
CorpusCav: 333G (1.9%, 2,705G)
old_overholt_: 300G (1.7%, 6,811G)
Thyrandaal: 100G (0.6%, 94,517G)
