Final Bets: red - 15 bets for 13,191G (61.3%, x0.63); blue - 12 bets for 8,320G (38.7%, x1.59)

red bets:
DeathTaxesAndAnime: 4,082G (30.9%, 8,005G)
KasugaiRoastedPeas: 2,222G (16.8%, 17,070G)
timthehoodie: 1,557G (11.8%, 1,557G)
Forkmore: 1,000G (7.6%, 10,827G)
Firesheath: 875G (6.6%, 875G)
Laserman1000: 700G (5.3%, 31,100G)
Breakdown777: 639G (4.8%, 639G)
roofiepops: 444G (3.4%, 3,388G)
KSops: 374G (2.8%, 374G)
TasisSai: 300G (2.3%, 12,799G)
Treafa: 266G (2.0%, 266G)
Seaweed_B: 232G (1.8%, 832G)
Mysteriousdewd: 200G (1.5%, 7,195G)
datadrivenbot: 200G (1.5%, 62,970G)
nhammen: 100G (0.8%, 5,123G)

blue bets:
NovaKnight21: 2,000G (24.0%, 22,855G)
dogsandcatsand: 1,385G (16.6%, 2,716G)
BirbBrainsBot: 1,000G (12.0%, 83,890G)
Rislyeu: 1,000G (12.0%, 3,971G)
NIghtdew14: 557G (6.7%, 557G)
omegasuspekt: 555G (6.7%, 19,328G)
amiture: 500G (6.0%, 19,719G)
reinoe: 500G (6.0%, 39,445G)
Skincrawler: 300G (3.6%, 2,045G)
furrytomahawkk: 216G (2.6%, 216G)
BlueAbs: 191G (2.3%, 191G)
getthemoneyz: 116G (1.4%, 1,271,105G)
