Final Bets: black - 10 bets for 16,506G (72.7%, x0.37); brown - 10 bets for 6,189G (27.3%, x2.67)

black bets:
douchetron: 11,357G (68.8%, 11,357G)
dogsandcatsand: 1,846G (11.2%, 3,621G)
Shalloween: 600G (3.6%, 19,691G)
AllInBot: 595G (3.6%, 595G)
Lanshaft: 588G (3.6%, 10,496G)
TasisSai: 536G (3.2%, 536G)
nekojin: 484G (2.9%, 14,336G)
Aestheta: 200G (1.2%, 4,919G)
datadrivenbot: 200G (1.2%, 65,434G)
ANFz: 100G (0.6%, 2,746G)

brown bets:
toka222: 1,509G (24.4%, 89,788G)
BirbBrainsBot: 1,000G (16.2%, 155,020G)
nhammen: 1,000G (16.2%, 26,953G)
Sairentozon7: 1,000G (16.2%, 6,416G)
Zagorsek: 584G (9.4%, 584G)
itskage: 500G (8.1%, 577G)
getthemoneyz: 264G (4.3%, 1,638,154G)
GoatShow2: 132G (2.1%, 132G)
MinBetBot: 100G (1.6%, 6,973G)
ljkio: 100G (1.6%, 1,495G)
