Final Bets: green - 11 bets for 9,082G (65.8%, x0.52); brown - 9 bets for 4,714G (34.2%, x1.93)

green bets:
reinoe: 3,000G (33.0%, 211,212G)
Zagorsek: 2,142G (23.6%, 2,142G)
Sairentozon7: 1,000G (11.0%, 9,083G)
Aldrammech: 670G (7.4%, 6,708G)
Lanshaft: 588G (6.5%, 9,908G)
TasisSai: 536G (5.9%, 536G)
GoatShow2: 484G (5.3%, 484G)
Aestheta: 300G (3.3%, 4,719G)
datadrivenbot: 200G (2.2%, 65,234G)
AllInBot: 100G (1.1%, 100G)
Chuckolator: 62G (0.7%, 2,438G)

brown bets:
DLJuggernaut: 1,241G (26.3%, 2,434G)
BirbBrainsBot: 1,000G (21.2%, 157,687G)
nhammen: 1,000G (21.2%, 29,620G)
douchetron: 604G (12.8%, 604G)
roqqqpsi: 281G (6.0%, 4,625G)
itskage: 191G (4.1%, 1,910G)
getthemoneyz: 164G (3.5%, 1,638,858G)
daveb_: 133G (2.8%, 2,669G)
MinBetBot: 100G (2.1%, 7,240G)
