Final Bets: white - 23 bets for 12,587G (31.3%, x2.20); brown - 42 bets for 27,675G (68.7%, x0.45)

white bets:
Zeroroute: 2,380G (18.9%, 4,140G)
Lydian_C: 1,400G (11.1%, 30,546G)
mirapoix: 1,205G (9.6%, 1,205G)
DudeMonkey77: 1,000G (7.9%, 46,629G)
OmnibotGamma: 1,000G (7.9%, 9,446G)
Bahamut64: 847G (6.7%, 8,475G)
sinnyil2: 800G (6.4%, 18,293G)
helpimabug: 792G (6.3%, 792G)
typicalfanboy: 500G (4.0%, 500G)
HaateXIII: 437G (3.5%, 7,161G)
Humble_Fabio: 333G (2.6%, 2,009G)
slatios: 300G (2.4%, 6,623G)
PotionDweller: 250G (2.0%, 16,853G)
ugoplatamia: 200G (1.6%, 6,995G)
Happybobby1623: 200G (1.6%, 1,541G)
MrDiggs49: 200G (1.6%, 2,701G)
AllInBot: 176G (1.4%, 176G)
moonliquor: 109G (0.9%, 109G)
most_shameful: 108G (0.9%, 108G)
Nanovolt: 100G (0.8%, 100G)
ricky_ortease: 100G (0.8%, 529G)
Tougou: 100G (0.8%, 6,394G)
dreadnxught: 50G (0.4%, 2,209G)

brown bets:
KasugaiRoastedPeas: 3,000G (10.8%, 30,378G)
Lodrak: 1,952G (7.1%, 3,904G)
MantisFinch: 1,604G (5.8%, 1,604G)
RurouniGeo: 1,500G (5.4%, 7,003G)
nomoment: 1,357G (4.9%, 1,357G)
ctharvey: 1,283G (4.6%, 1,283G)
roofiepops: 1,007G (3.6%, 1,007G)
Shalloween: 1,000G (3.6%, 34,765G)
JustSuperish: 1,000G (3.6%, 4,649G)
BirbBrainsBot: 1,000G (3.6%, 191,203G)
bad1dea: 1,000G (3.6%, 180,314G)
Lazerkick: 1,000G (3.6%, 9,932G)
ValtonZenola: 937G (3.4%, 937G)
SolarisFall: 924G (3.3%, 924G)
kingchadking: 772G (2.8%, 772G)
TheOneRanger: 772G (2.8%, 772G)
NovaKnight21: 698G (2.5%, 698G)
SpaZmodeus: 666G (2.4%, 2,252G)
alithesillybird: 640G (2.3%, 640G)
wackyzachyy: 608G (2.2%, 608G)
rubenflonne: 597G (2.2%, 2,377G)
getthemoneyz: 534G (1.9%, 354,654G)
BenYuPoker: 500G (1.8%, 2,166G)
SeedSC: 420G (1.5%, 82,897G)
Oshimi12: 400G (1.4%, 3,203G)
evdoggity: 300G (1.1%, 840G)
Kyton786: 204G (0.7%, 204G)
Maeveen: 200G (0.7%, 6,701G)
Billybones5150: 200G (0.7%, 951G)
SeraphPDH: 200G (0.7%, 9,596G)
RongRongArts: 200G (0.7%, 41,760G)
ELzukkor: 200G (0.7%, 2,024G)
ungabunga_bot: 100G (0.4%, 1,669G)
ApplesauceBoss: 100G (0.4%, 11,310G)
chronoxtrigger: 100G (0.4%, 3,364G)
Rexamajinx: 100G (0.4%, 2,365G)
OneHundredFists: 100G (0.4%, 9,425G)
anthrax85: 100G (0.4%, 100G)
Basmal: 100G (0.4%, 4,553G)
ANFz: 100G (0.4%, 23,924G)
datadrivenbot: 100G (0.4%, 13,984G)
denamda: 100G (0.4%, 19,145G)
