Final Bets: red - 16 bets for 5,784G (42.3%, x1.36); blue - 17 bets for 7,886G (57.7%, x0.73)

red bets:
TrogdorTheMemeinator: 2,500G (43.2%, 6,520G)
thunderducker: 555G (9.6%, 8,306G)
OneHundredFists: 406G (7.0%, 406G)
ArrenJevleth: 300G (5.2%, 5,791G)
Neech: 300G (5.2%, 2,742G)
Runeseeker22: 280G (4.8%, 280G)
bigbongsmoker: 260G (4.5%, 1,331G)
CorpusCav: 200G (3.5%, 27,959G)
khelor_: 200G (3.5%, 2,377G)
datadrivenbot: 200G (3.5%, 55,847G)
velvet_muffins: 120G (2.1%, 120G)
Chuckolator: 103G (1.8%, 9,872G)
DeathTaxesAndAnime: 100G (1.7%, 8,084G)
AbandonedHall: 100G (1.7%, 3,348G)
formerlydrdong: 100G (1.7%, 1,526G)
getthemoneyz: 60G (1.0%, 1,865,549G)

blue bets:
brodeity: 1,000G (12.7%, 20,239G)
Greggernaut: 1,000G (12.7%, 39,285G)
reinoe: 1,000G (12.7%, 5,249G)
resjudicata3: 703G (8.9%, 703G)
Raixelol: 536G (6.8%, 536G)
krombobreaker: 484G (6.1%, 484G)
Laserman1000: 476G (6.0%, 2,176G)
lijarkh: 359G (4.6%, 359G)
3ngag3: 331G (4.2%, 16,831G)
BartTradingCompany: 325G (4.1%, 3,258G)
latebit: 324G (4.1%, 9,588G)
ValensEXP_: 300G (3.8%, 300G)
danielnoye: 300G (3.8%, 2,525G)
BirbBrainsBot: 248G (3.1%, 75,145G)
Sietaha: 200G (2.5%, 8,104G)
nok____: 200G (2.5%, 6,800G)
AllInBot: 100G (1.3%, 100G)
