Final Bets: white - 8 bets for 2,976G (23.9%, x3.18); black - 16 bets for 9,473G (76.1%, x0.31)

white bets:
brodeity: 1,000G (33.6%, 19,609G)
Raixelol: 734G (24.7%, 734G)
BartTradingCompany: 264G (8.9%, 2,640G)
bigbongsmoker: 260G (8.7%, 1,685G)
getthemoneyz: 218G (7.3%, 1,864,983G)
khelor_: 200G (6.7%, 2,728G)
CorpusCav: 200G (6.7%, 28,306G)
DeathTaxesAndAnime: 100G (3.4%, 8,120G)

black bets:
thunderducker: 1,650G (17.4%, 9,063G)
latebit: 1,200G (12.7%, 8,940G)
EnemyController: 1,111G (11.7%, 1,730,380G)
Snowfats: 1,098G (11.6%, 1,098G)
Sietaha: 1,000G (10.6%, 8,052G)
BirbBrainsBot: 1,000G (10.6%, 74,926G)
seppu777: 666G (7.0%, 2,414G)
krombobreaker: 460G (4.9%, 460G)
OneHundredFists: 300G (3.2%, 1,315G)
Runeseeker22: 280G (3.0%, 907G)
datadrivenbot: 200G (2.1%, 56,194G)
ar_tactic: 150G (1.6%, 98,355G)
AllInBot: 137G (1.4%, 137G)
formerlydrdong: 120G (1.3%, 1,699G)
technominari: 100G (1.1%, 78,658G)
Chuckolator: 1G (0.0%, 10,012G)
