Final Bets: yellow - 10 bets for 8,574G (41.4%, x1.41); purple - 19 bets for 12,115G (58.6%, x0.71)

yellow bets:
brodeity: 5,000G (58.3%, 24,815G)
krombobreaker: 702G (8.2%, 702G)
Raixelol: 540G (6.3%, 540G)
khelor_: 500G (5.8%, 3,272G)
AltimaMantoid: 494G (5.8%, 5,494G)
BirbBrainsBot: 431G (5.0%, 74,855G)
Chuckolator: 321G (3.7%, 9,767G)
velvet_muffins: 284G (3.3%, 284G)
getthemoneyz: 202G (2.4%, 1,863,900G)
AllInBot: 100G (1.2%, 100G)

purple bets:
latebit: 2,500G (20.6%, 9,207G)
Runeseeker22: 2,340G (19.3%, 4,681G)
thunderducker: 1,500G (12.4%, 9,917G)
MrUbiq: 1,000G (8.3%, 8,390G)
OneHundredFists: 505G (4.2%, 1,409G)
Neech: 500G (4.1%, 4,188G)
Sietaha: 500G (4.1%, 3,883G)
seppu777: 444G (3.7%, 2,889G)
danielnoye: 400G (3.3%, 2,352G)
reddwind_: 388G (3.2%, 542G)
BartTradingCompany: 330G (2.7%, 3,302G)
Snowfats: 320G (2.6%, 320G)
lijarkh: 320G (2.6%, 320G)
bigbongsmoker: 260G (2.1%, 1,448G)
ValensEXP_: 208G (1.7%, 208G)
datadrivenbot: 200G (1.7%, 56,434G)
CorpusCav: 200G (1.7%, 27,924G)
DeathTaxesAndAnime: 100G (0.8%, 7,981G)
Miku_Shikhu: 100G (0.8%, 6,539G)
