Final Bets: green - 13 bets for 10,469G (30.6%, x2.27); champion - 27 bets for 23,745G (69.4%, x0.44)

green bets:
manc0_: 2,000G (19.1%, 36,405G)
sinnyil2: 1,449G (13.8%, 2,899G)
serperemagus: 1,186G (11.3%, 1,186G)
Aldrammech: 1,000G (9.6%, 7,239G)
LDSkinny: 1,000G (9.6%, 6,395G)
EmperorBeef: 1,000G (9.6%, 254,900G)
Mesmaster: 1,000G (9.6%, 75,429G)
E_Ballard: 600G (5.7%, 600G)
MagicBottle: 360G (3.4%, 360G)
old_overholt_: 300G (2.9%, 7,909G)
richardserious: 244G (2.3%, 244G)
AsceticGamer: 200G (1.9%, 200G)
Digitalsocrates: 130G (1.2%, 596G)

champion bets:
jakeduhhsnake: 5,960G (25.1%, 5,960G)
mardokttv: 2,490G (10.5%, 2,490G)
powergems: 1,941G (8.2%, 1,941G)
CapnChaos12: 1,545G (6.5%, 1,545G)
Candina: 1,300G (5.5%, 11,398G)
moonliquor: 1,039G (4.4%, 1,039G)
BirbBrainsBot: 1,000G (4.2%, 115,930G)
Dymntd: 1,000G (4.2%, 6,562G)
TheGuesty: 996G (4.2%, 37,996G)
Who_lio42: 996G (4.2%, 11,704G)
Laserman1000: 600G (2.5%, 6,200G)
gooseyourself: 524G (2.2%, 524G)
Baron_von_Scrub: 512G (2.2%, 512G)
volgrathemoose: 501G (2.1%, 4,132G)
Vex_Novisk: 500G (2.1%, 18,224G)
killth3kid: 500G (2.1%, 12,856G)
Lythe_Caraker: 500G (2.1%, 123,995G)
Seawalker777: 409G (1.7%, 409G)
HorusTaurus: 312G (1.3%, 312G)
nifboy: 250G (1.1%, 5,036G)
GnielKnows: 236G (1.0%, 236G)
getthemoneyz: 134G (0.6%, 697,460G)
Jeeboheebo: 100G (0.4%, 3,594G)
CosmicTactician: 100G (0.4%, 16,319G)
GladiatorLupe: 100G (0.4%, 4,043G)
krasny1944: 100G (0.4%, 100G)
datadrivenbot: 100G (0.4%, 22,319G)
