Final Bets: purple - 16 bets for 20,070G (78.3%, x0.28); brown - 14 bets for 5,556G (21.7%, x3.61)

purple bets:
Thyrandaal: 5,000G (24.9%, 312,627G)
sinnyil2: 3,237G (16.1%, 6,475G)
Mesmaster: 3,000G (14.9%, 32,986G)
Laserman1000: 1,358G (6.8%, 1,358G)
VolgraTheMoose: 1,001G (5.0%, 7,530G)
Aldrammech: 1,000G (5.0%, 68,023G)
Draconis345: 1,000G (5.0%, 12,251G)
reinoe: 1,000G (5.0%, 202,865G)
Drusiform: 610G (3.0%, 610G)
douchetron: 600G (3.0%, 600G)
HaateXIII: 500G (2.5%, 4,438G)
roofiepops: 454G (2.3%, 3,049G)
JonnyCue: 422G (2.1%, 422G)
NewbGaming: 388G (1.9%, 388G)
JCBoorgo: 300G (1.5%, 1,477G)
datadrivenbot: 200G (1.0%, 67,697G)

brown bets:
Chuckolator: 861G (15.5%, 861G)
DeathTaxesAndAnime: 820G (14.8%, 820G)
dogsandcatsand: 632G (11.4%, 632G)
SephDarkheart: 600G (10.8%, 102,162G)
letdowncity: 532G (9.6%, 21,826G)
powergems: 492G (8.9%, 492G)
Treafa: 368G (6.6%, 952G)
resjudicata3: 340G (6.1%, 340G)
getthemoneyz: 254G (4.6%, 1,657,409G)
BirbBrainsBot: 253G (4.6%, 14,247G)
Lifebregin: 104G (1.9%, 2,504G)
MinBetBot: 100G (1.8%, 6,562G)
AllInBot: 100G (1.8%, 100G)
CosmicTactician: 100G (1.8%, 23,156G)
