Final Bets: white - 19 bets for 15,360G (83.5%, x0.20); black - 7 bets for 3,045G (16.5%, x5.04)

white bets:
SkylerBunny: 3,500G (22.8%, 293,092G)
reinoe: 3,000G (19.5%, 143,241G)
DustBirdEX: 1,648G (10.7%, 3,297G)
DeathTaxesAndAnime: 1,210G (7.9%, 2,374G)
Aldrammech: 1,000G (6.5%, 9,161G)
gorgewall: 959G (6.2%, 959G)
Laserman1000: 708G (4.6%, 708G)
douchetron: 600G (3.9%, 600G)
TasisSai: 500G (3.3%, 17,289G)
SephDarkheart: 496G (3.2%, 13,417G)
resjudicata3: 280G (1.8%, 280G)
vorap: 272G (1.8%, 272G)
Drusiform: 232G (1.5%, 232G)
Ayntlerz: 228G (1.5%, 228G)
PantherIscariot: 222G (1.4%, 3,689G)
AllInBot: 200G (1.3%, 200G)
northkoreancleetus: 104G (0.7%, 104G)
ANFz: 101G (0.7%, 46,203G)
MinBetBot: 100G (0.7%, 17,201G)

black bets:
superdevon1: 1,143G (37.5%, 38,107G)
ko2q: 1,000G (32.8%, 41,588G)
Amorial: 288G (9.5%, 288G)
getthemoneyz: 284G (9.3%, 1,556,489G)
Lemonjohns: 200G (6.6%, 6,567G)
Pbjellytimez: 116G (3.8%, 116G)
BirbBrainsBot: 14G (0.5%, 95,839G)
