Final Bets: purple - 16 bets for 11,147G (48.6%, x1.06); brown - 16 bets for 11,773G (51.4%, x0.95)

purple bets:
SkylerBunny: 3,000G (26.9%, 293,786G)
gorgewall: 1,149G (10.3%, 1,149G)
Aldrammech: 1,000G (9.0%, 9,359G)
BirbBrainsBot: 1,000G (9.0%, 95,825G)
ko2q: 1,000G (9.0%, 40,588G)
Laserman1000: 848G (7.6%, 848G)
douchetron: 719G (6.5%, 719G)
E_Ballard: 548G (4.9%, 548G)
TasisSai: 500G (4.5%, 17,388G)
vorap: 326G (2.9%, 326G)
Lumberinjack: 300G (2.7%, 2,355G)
AllInBot: 240G (2.2%, 240G)
Amorial: 216G (1.9%, 216G)
ANFz: 101G (0.9%, 46,223G)
MinBetBot: 100G (0.9%, 17,221G)
RunicMagus: 100G (0.9%, 1,322G)

brown bets:
loveyouallfriends: 5,000G (42.5%, 43,148G)
DeathTaxesAndAnime: 1,333G (11.3%, 2,614G)
Forkmore: 1,000G (8.5%, 4,995G)
Miku_Shikhu: 753G (6.4%, 753G)
superdevon1: 739G (6.3%, 36,964G)
SephDarkheart: 496G (4.2%, 13,515G)
Lifevirus: 420G (3.6%, 1,681G)
DustBirdEX: 400G (3.4%, 3,624G)
getthemoneyz: 310G (2.6%, 1,556,205G)
Drusiform: 278G (2.4%, 278G)
Ayntlerz: 273G (2.3%, 273G)
PantherIscariot: 222G (1.9%, 3,733G)
foxfaeez: 208G (1.8%, 208G)
northkoreancleetus: 125G (1.1%, 125G)
Pbjellytimez: 116G (1.0%, 116G)
Brainstew29: 100G (0.8%, 38,714G)
