Final Bets: blue - 13 bets for 10,532G (50.5%, x0.98); green - 14 bets for 10,308G (49.5%, x1.02)

blue bets:
DustBirdEX: 1,612G (15.3%, 3,224G)
douchetron: 1,478G (14.0%, 1,478G)
latebit: 1,172G (11.1%, 1,172G)
E_Ballard: 1,127G (10.7%, 1,127G)
Aldrammech: 1,000G (9.5%, 10,419G)
ko2q: 1,000G (9.5%, 41,644G)
loveyouallfriends: 1,000G (9.5%, 38,148G)
reinoe: 1,000G (9.5%, 143,836G)
resjudicata3: 336G (3.2%, 336G)
Lifevirus: 315G (3.0%, 1,261G)
Drusiform: 232G (2.2%, 232G)
foxfaeez: 208G (2.0%, 208G)
getthemoneyz: 52G (0.5%, 1,555,895G)

green bets:
SkylerBunny: 3,000G (29.1%, 296,958G)
gorgewall: 2,363G (22.9%, 2,363G)
DeathTaxesAndAnime: 1,281G (12.4%, 1,281G)
BirbBrainsBot: 885G (8.6%, 96,881G)
nekojin: 500G (4.9%, 37,425G)
TasisSai: 500G (4.9%, 17,916G)
AllInBot: 493G (4.8%, 493G)
Amorial: 444G (4.3%, 444G)
PantherIscariot: 222G (2.2%, 3,511G)
datadrivenbot: 200G (1.9%, 50,718G)
Pbjellytimez: 116G (1.1%, 116G)
northkoreancleetus: 104G (1.0%, 104G)
MinBetBot: 100G (1.0%, 17,327G)
Skjodo: 100G (1.0%, 100G)
