Final Bets: black - 14 bets for 6,654G (23.2%, x3.31); brown - 16 bets for 22,056G (76.8%, x0.30)

black bets:
DavenIII: 1,400G (21.0%, 3,563G)
TheChainNerd: 1,000G (15.0%, 12,758G)
d4rr1n: 890G (13.4%, 890G)
MattMan119: 664G (10.0%, 664G)
shs_: 600G (9.0%, 9,873G)
nifboy: 424G (6.4%, 424G)
Reltz_: 400G (6.0%, 10,270G)
Aerochris121: 300G (4.5%, 2,575G)
getthemoneyz: 276G (4.1%, 687,358G)
Meta_Five: 200G (3.0%, 14,983G)
Zoomopie: 200G (3.0%, 1,207G)
maakur_: 100G (1.5%, 4,013G)
datadrivenbot: 100G (1.5%, 23,651G)
marin1987: 100G (1.5%, 11,023G)

brown bets:
sinnyil2: 11,793G (53.5%, 23,586G)
HaplessOne: 1,500G (6.8%, 164,880G)
ShintaroNayaka: 1,133G (5.1%, 1,133G)
BirbBrainsBot: 1,000G (4.5%, 51,449G)
JumbocactuarX27: 1,000G (4.5%, 4,201G)
Creggers: 1,000G (4.5%, 14,598G)
Zetchryn: 852G (3.9%, 852G)
ThePineappleSalesman: 840G (3.8%, 840G)
Jeeboheebo: 656G (3.0%, 656G)
DLJuggernaut: 600G (2.7%, 2,213G)
EnemyController: 500G (2.3%, 270,521G)
josephiroth_143: 398G (1.8%, 398G)
eudes89: 280G (1.3%, 280G)
skillomono: 200G (0.9%, 2,122G)
asherban: 200G (0.9%, 1,088G)
cloud92684: 104G (0.5%, 104G)
