Final Bets: yellow - 16 bets for 20,976G (67.7%, x0.48); brown - 14 bets for 9,987G (32.3%, x2.10)

yellow bets:
sinnyil2: 13,572G (64.7%, 27,144G)
roqqqpsi: 1,338G (6.4%, 12,168G)
HaplessOne: 1,111G (5.3%, 165,333G)
TheChainNerd: 1,000G (4.8%, 11,758G)
EnemyController: 1,000G (4.8%, 270,672G)
shs_: 600G (2.9%, 9,273G)
asherban: 574G (2.7%, 1,148G)
josephiroth_143: 518G (2.5%, 518G)
eudes89: 364G (1.7%, 364G)
d4rr1n: 204G (1.0%, 204G)
MattMan119: 164G (0.8%, 164G)
ShintaroNayaka: 131G (0.6%, 1,475G)
maakur_: 100G (0.5%, 3,913G)
Estan_AD: 100G (0.5%, 3,942G)
datadrivenbot: 100G (0.5%, 23,551G)
ASimpleSpaceBee: 100G (0.5%, 127G)

brown bets:
marin1987: 2,000G (20.0%, 10,923G)
Zetchryn: 1,109G (11.1%, 1,109G)
E_Ballard: 1,100G (11.0%, 1,100G)
BirbBrainsBot: 1,000G (10.0%, 51,751G)
Creggers: 1,000G (10.0%, 14,904G)
JumbocactuarX27: 1,000G (10.0%, 4,503G)
reinoe: 600G (6.0%, 600G)
OneHundredFists: 532G (5.3%, 532G)
DLJuggernaut: 500G (5.0%, 2,394G)
nifboy: 424G (4.2%, 424G)
skillomono: 300G (3.0%, 2,182G)
getthemoneyz: 222G (2.2%, 687,082G)
CosmicTactician: 100G (1.0%, 23,436G)
Kyune: 100G (1.0%, 14,960G)
