Final Bets: white - 23 bets for 12,459G (54.7%, x0.83); black - 16 bets for 10,333G (45.3%, x1.21)

white bets:
metagameface: 1,800G (14.4%, 1,800G)
Belkra: 1,640G (13.2%, 1,640G)
Digitalsocrates: 1,167G (9.4%, 1,167G)
mpghappiness: 1,001G (8.0%, 10,734G)
s_o_b_e_q: 1,000G (8.0%, 2,266G)
reinoe: 1,000G (8.0%, 7,946G)
DeathTaxesAndAnime: 847G (6.8%, 1,661G)
LeoNightFury: 738G (5.9%, 738G)
Laserman1000: 618G (5.0%, 27,018G)
Dymntd: 500G (4.0%, 40,905G)
Ungaiii: 345G (2.8%, 345G)
ExecutedGiraffe: 304G (2.4%, 304G)
twelfthrootoftwo: 300G (2.4%, 2,415G)
Anak761: 250G (2.0%, 4,469G)
cogniv0r3: 144G (1.2%, 2,885G)
Kalabain: 104G (0.8%, 104G)
gorgewall: 101G (0.8%, 921G)
TheMM42: 100G (0.8%, 2,620G)
Spuzzmocker: 100G (0.8%, 868G)
kaidykat: 100G (0.8%, 1,973G)
brewerspackers98: 100G (0.8%, 137G)
datadrivenbot: 100G (0.8%, 32,947G)
nifboy: 100G (0.8%, 3,699G)

black bets:
SkylerBunny: 2,500G (24.2%, 113,378G)
cloud92684: 1,000G (9.7%, 7,712G)
BirbBrainsBot: 1,000G (9.7%, 66,254G)
getthemoneyz: 1,000G (9.7%, 820,041G)
Thyrandaal: 1,000G (9.7%, 22,989G)
Bilabrin: 657G (6.4%, 1,315G)
Coolguye: 611G (5.9%, 611G)
Powerpinch: 500G (4.8%, 1,192G)
ninjasteepler: 442G (4.3%, 442G)
Randy_Crackstick: 400G (3.9%, 1,892G)
ivellioz: 323G (3.1%, 323G)
CapnChaos12: 300G (2.9%, 24,689G)
gogofromtogo: 200G (1.9%, 5,243G)
tehjam: 200G (1.9%, 3,664G)
witchlight: 100G (1.0%, 9,676G)
Evewho: 100G (1.0%, 2,785G)
