Final Bets: purple - 7 bets for 3,220G (26.8%, x2.74); brown - 14 bets for 8,816G (73.2%, x0.37)

purple bets:
AllInBot: 782G (24.3%, 782G)
killth3kid: 672G (20.9%, 30,105G)
MagicBottle: 556G (17.3%, 9,407G)
LDSkinny: 532G (16.5%, 532G)
Tarheels218: 328G (10.2%, 328G)
datadrivenbot: 200G (6.2%, 59,130G)
holdenmagronik: 150G (4.7%, 1,870G)

brown bets:
pplvee1: 2,500G (28.4%, 11,886G)
Lillifen: 1,125G (12.8%, 1,125G)
BirbBrainsBot: 1,000G (11.3%, 26,624G)
douchetron: 816G (9.3%, 816G)
Wooplestein: 773G (8.8%, 773G)
coralreeferz: 580G (6.6%, 31,626G)
getthemoneyz: 516G (5.9%, 1,607,379G)
arctodus13: 474G (5.4%, 474G)
xBizzy: 228G (2.6%, 1,094G)
latebit: 204G (2.3%, 19,030G)
Rytor: 200G (2.3%, 11,732G)
nok____: 200G (2.3%, 2,932G)
MinBetBot: 100G (1.1%, 23,898G)
PastelChum: 100G (1.1%, 600G)
