Final Bets: white - 16 bets for 5,919G (38.6%, x1.59); black - 14 bets for 9,411G (61.4%, x0.63)

white bets:
SkylerBunny: 2,100G (35.5%, 54,566G)
getthemoneyz: 648G (10.9%, 1,337,075G)
Nohurty: 608G (10.3%, 608G)
Oreo_Pizza: 500G (8.4%, 26,259G)
CallMeTripsG: 252G (4.3%, 252G)
JiroDoge: 250G (4.2%, 5,364G)
iBardic: 204G (3.4%, 204G)
braveboyblue: 204G (3.4%, 204G)
BirbBrainsBot: 203G (3.4%, 129,840G)
AllInBot: 200G (3.4%, 200G)
datadrivenbot: 200G (3.4%, 33,532G)
triniculo: 200G (3.4%, 1,067G)
ANFz: 100G (1.7%, 44,205G)
Legionx13: 100G (1.7%, 4,644G)
nhammen: 100G (1.7%, 5,722G)
DouglasDragonThePoet: 50G (0.8%, 1,493G)

black bets:
fenaen: 1,634G (17.4%, 1,634G)
neerrm: 1,212G (12.9%, 28,604G)
Thyrandaal: 1,004G (10.7%, 1,004G)
dogsandcatsand: 1,000G (10.6%, 28,358G)
NicoSavoy: 1,000G (10.6%, 236,376G)
HaateXIII: 796G (8.5%, 796G)
DeathTaxesAndAnime: 736G (7.8%, 736G)
rockmem21: 723G (7.7%, 14,467G)
nekojin: 500G (5.3%, 4,261G)
VolgraTheMoose: 205G (2.2%, 9,136G)
gorgewall: 201G (2.1%, 6,331G)
ohhinm: 200G (2.1%, 1,720G)
Miku_Shikhu: 100G (1.1%, 15,700G)
nifboy: 100G (1.1%, 12,293G)
