Final Bets: green - 20 bets for 23,179G (71.4%, x0.40); black - 13 bets for 9,302G (28.6%, x2.49)

green bets:
RaIshtar: 3,001G (12.9%, 76,004G)
rockmem21: 3,000G (12.9%, 10,922G)
Virilikus: 3,000G (12.9%, 211,886G)
nhammen: 2,761G (11.9%, 5,522G)
NicoSavoy: 2,000G (8.6%, 236,428G)
fenaen: 1,450G (6.3%, 2,901G)
RainbowHeavy: 1,100G (4.7%, 1,100G)
BirbBrainsBot: 1,000G (4.3%, 130,006G)
KyleWonToLiveForever: 1,000G (4.3%, 2,505G)
Thyrandaal: 1,000G (4.3%, 4,943G)
iBardic: 906G (3.9%, 906G)
readdesert: 682G (2.9%, 682G)
Chuckolator: 578G (2.5%, 10,852G)
Xoomwaffle: 500G (2.2%, 3,170G)
Oreo_Pizza: 500G (2.2%, 22,259G)
gorgewall: 201G (0.9%, 6,055G)
datadrivenbot: 200G (0.9%, 33,241G)
Twisted_Nutsatchel: 100G (0.4%, 11,290G)
ANFz: 100G (0.4%, 44,059G)
NovaKnight21: 100G (0.4%, 8,230G)

black bets:
JiroDoge: 4,214G (45.3%, 4,214G)
mpghappiness: 1,496G (16.1%, 1,496G)
TasisSai: 708G (7.6%, 708G)
AllInBot: 509G (5.5%, 509G)
nekojin: 500G (5.4%, 4,886G)
ohhinm: 500G (5.4%, 2,268G)
pplvee1: 372G (4.0%, 372G)
SephDarkheart: 328G (3.5%, 61,040G)
VolgraTheMoose: 205G (2.2%, 8,263G)
getthemoneyz: 188G (2.0%, 1,335,313G)
Royal_Ruckus: 132G (1.4%, 132G)
Legionx13: 100G (1.1%, 4,344G)
DouglasDragonThePoet: 50G (0.5%, 1,355G)
