Final Bets: red - 20 bets for 18,804G (67.6%, x0.48); blue - 8 bets for 9,019G (32.4%, x2.08)

red bets:
reinoe: 10,000G (53.2%, 31,168G)
DeathTaxesAndAnime: 1,500G (8.0%, 89,672G)
dogsandcatsand: 1,330G (7.1%, 2,608G)
BirbBrainsBot: 773G (4.1%, 167,991G)
RobotOcelot: 759G (4.0%, 759G)
RunicMagus: 564G (3.0%, 564G)
technominari: 500G (2.7%, 82,775G)
Vahn_Blade: 500G (2.7%, 21,644G)
DLJuggernaut: 500G (2.7%, 3,244G)
3ngag3: 500G (2.7%, 17,000G)
holdenmagronik: 368G (2.0%, 1,403G)
douchetron: 252G (1.3%, 252G)
resjudicata3: 200G (1.1%, 18,845G)
krombobreaker: 200G (1.1%, 1,323G)
datadrivenbot: 200G (1.1%, 64,677G)
Leonidusx: 200G (1.1%, 9,883G)
getthemoneyz: 124G (0.7%, 1,784,253G)
Lydian_C: 123G (0.7%, 36,167G)
PantherIscariot: 111G (0.6%, 5,001G)
Legionx13: 100G (0.5%, 7,687G)

blue bets:
Thyrandaal: 4,000G (44.4%, 6,958G)
HaateXIII: 2,349G (26.0%, 2,349G)
NovaKnight21: 1,000G (11.1%, 6,916G)
Greggernaut: 577G (6.4%, 577G)
thunderducker: 444G (4.9%, 3,028G)
lijarkh: 300G (3.3%, 4,398G)
Mushufasa_: 248G (2.7%, 248G)
gorgewall: 101G (1.1%, 2,887G)
