Final Bets: white - 18 bets for 11,234G (42.8%, x1.33); black - 18 bets for 14,992G (57.2%, x0.75)

white bets:
evontno: 2,800G (24.9%, 11,856G)
gooseyourself: 2,000G (17.8%, 7,283G)
Eyepoor_: 1,633G (14.5%, 3,267G)
Master_Metroid: 1,000G (8.9%, 12,969G)
pandasforsale: 666G (5.9%, 26,919G)
genericco: 622G (5.5%, 1,220G)
TheMM42: 500G (4.5%, 8,500G)
ACSpree: 300G (2.7%, 30,421G)
rico_flex: 300G (2.7%, 45,178G)
Dymntd: 284G (2.5%, 284G)
getthemoneyz: 226G (2.0%, 630,789G)
gorgewall: 200G (1.8%, 5,843G)
twelfthrootoftwo: 200G (1.8%, 1,338G)
ungabunga_bot: 163G (1.5%, 352,291G)
datadrivenbot: 100G (0.9%, 11,806G)
mannequ1n: 100G (0.9%, 561G)
vampyreinabox: 100G (0.9%, 255G)
ZephyrTempest: 40G (0.4%, 809G)

black bets:
Shalloween: 2,054G (13.7%, 4,028G)
killth3kid: 2,000G (13.3%, 75,200G)
Theseawolf1: 2,000G (13.3%, 4,087G)
jakeduhhsnake: 2,000G (13.3%, 59,034G)
BirbBrainsBot: 1,000G (6.7%, 69,115G)
Lionhermit: 1,000G (6.7%, 21,492G)
Mesmaster: 1,000G (6.7%, 48,680G)
OneHundredFists: 557G (3.7%, 557G)
ZZ_Yoshi: 543G (3.6%, 1,087G)
shs_: 500G (3.3%, 6,733G)
OmnibotGamma: 500G (3.3%, 10,134G)
RestIessNight: 500G (3.3%, 1,873G)
Breakdown777: 500G (3.3%, 14,628G)
YaBoy125: 371G (2.5%, 2,331G)
alphara2: 167G (1.1%, 167G)
nifboy: 100G (0.7%, 8,699G)
Kyune: 100G (0.7%, 6,030G)
Sungazes: 100G (0.7%, 159G)
