Final Bets: black - 14 bets for 10,192G (48.3%, x1.07); brown - 18 bets for 10,920G (51.7%, x0.93)

black bets:
Dymntd: 2,060G (20.2%, 2,060G)
OneHundredFists: 1,829G (17.9%, 1,829G)
Theseawolf1: 1,000G (9.8%, 6,125G)
BirbBrainsBot: 1,000G (9.8%, 67,864G)
Lionhermit: 1,000G (9.8%, 21,741G)
gooseyourself: 1,000G (9.8%, 6,635G)
ZZ_Yoshi: 500G (4.9%, 1,494G)
rico_flex: 500G (4.9%, 44,379G)
RestIessNight: 400G (3.9%, 2,742G)
servii: 400G (3.9%, 2,319G)
Sungazes: 200G (2.0%, 766G)
electric_glass: 150G (1.5%, 3,027G)
ANFz: 111G (1.1%, 31,285G)
ZephyrTempest: 42G (0.4%, 854G)

brown bets:
killth3kid: 2,500G (22.9%, 77,203G)
Mesmaster: 2,000G (18.3%, 45,929G)
ungabunga_bot: 1,000G (9.2%, 351,765G)
jakeduhhsnake: 1,000G (9.2%, 60,611G)
genericco: 784G (7.2%, 784G)
sinnyil2: 656G (6.0%, 656G)
Breakdown777: 500G (4.6%, 16,542G)
gorgewall: 500G (4.6%, 5,643G)
shs_: 500G (4.6%, 7,608G)
mannequ1n: 300G (2.7%, 558G)
Fenrislfr: 284G (2.6%, 284G)
Eyepoor_: 236G (2.2%, 236G)
twelfthrootoftwo: 200G (1.8%, 1,769G)
vampyreinabox: 150G (1.4%, 672G)
alphara2: 104G (1.0%, 104G)
datadrivenbot: 100G (0.9%, 11,714G)
caprinovoa: 100G (0.9%, 280G)
getthemoneyz: 6G (0.1%, 630,220G)
