Final Bets: green - 17 bets for 14,480G (73.0%, x0.37); yellow - 11 bets for 5,366G (27.0%, x2.70)

green bets:
Lydian_C: 4,200G (29.0%, 114,702G)
ShintaroNayaka: 2,000G (13.8%, 11,599G)
Aldrammech: 1,000G (6.9%, 11,152G)
killth3kid: 1,000G (6.9%, 97,882G)
twelfthrootoftwo: 965G (6.7%, 965G)
roqqqpsi: 943G (6.5%, 47,151G)
DeathTaxesAndAnime: 904G (6.2%, 904G)
Laserman1000: 787G (5.4%, 29,087G)
Shalloween: 700G (4.8%, 58,312G)
Gelwain: 604G (4.2%, 604G)
Lanshaft: 472G (3.3%, 10,000G)
joewcarson: 300G (2.1%, 16,720G)
gorgewall: 201G (1.4%, 15,324G)
datadrivenbot: 200G (1.4%, 60,870G)
nhammen: 100G (0.7%, 9,843G)
raenrond: 100G (0.7%, 1,661G)
ChubbyBroCast: 4G (0.0%, 111G)

yellow bets:
Zeroroute: 2,092G (39.0%, 2,092G)
BirbBrainsBot: 1,000G (18.6%, 154,069G)
Cryptopsy70: 600G (11.2%, 18,972G)
letdowncity: 376G (7.0%, 4,017G)
getthemoneyz: 278G (5.2%, 1,227,016G)
Seaweed_B: 220G (4.1%, 9,538G)
chaos_sux_unless_its_ds: 200G (3.7%, 3,647G)
SkylerBunny: 200G (3.7%, 2,473G)
brokenknight201: 200G (3.7%, 563G)
fluffskull: 100G (1.9%, 1,876G)
HappyCrabCo: 100G (1.9%, 204G)
