Final Bets: purple - 12 bets for 16,896G (68.3%, x0.46); brown - 12 bets for 7,851G (31.7%, x2.15)

purple bets:
Aldrammech: 9,152G (54.2%, 9,152G)
pplvee1: 3,504G (20.7%, 3,504G)
killth3kid: 1,000G (5.9%, 96,382G)
roqqqpsi: 943G (5.6%, 47,199G)
Laserman1000: 700G (4.1%, 28,100G)
ColetteMSLP: 400G (2.4%, 4,384G)
winteriscorning: 395G (2.3%, 1,580G)
alekzanndrr: 300G (1.8%, 7,755G)
gorgewall: 201G (1.2%, 15,623G)
HappyCrabCo: 200G (1.2%, 374G)
upidstupid: 100G (0.6%, 2,922G)
ChubbyBroCast: 1G (0.0%, 104G)

brown bets:
Zeroroute: 2,198G (28.0%, 2,198G)
ACSpree: 1,500G (19.1%, 7,942G)
Evewho: 1,000G (12.7%, 29,178G)
BirbBrainsBot: 1,000G (12.7%, 157,298G)
joewcarson: 400G (5.1%, 18,482G)
letdowncity: 376G (4.8%, 5,732G)
getthemoneyz: 306G (3.9%, 1,228,045G)
chaos_sux_unless_its_ds: 300G (3.8%, 4,187G)
benticore: 250G (3.2%, 4,473G)
Shalloween: 200G (2.5%, 57,412G)
datadrivenbot: 200G (2.5%, 60,470G)
Lydian_C: 121G (1.5%, 111,066G)
