Final Bets: green - 6 bets for 9,239G (47.5%, x1.10); yellow - 16 bets for 10,198G (52.5%, x0.91)

green bets:
Evewho: 6,932G (75.0%, 13,864G)
nifboy: 1,635G (17.7%, 3,206G)
SQUiDSQUARKLIN: 272G (2.9%, 272G)
caprinovoa: 200G (2.2%, 555G)
benticore: 100G (1.1%, 689G)
bahamutlagooon: 100G (1.1%, 2,654G)

yellow bets:
ItsMyCoolName: 1,021G (10.0%, 1,021G)
Pie108: 1,001G (9.8%, 133,787G)
ungabunga_bot: 1,000G (9.8%, 378,644G)
BirbBrainsBot: 1,000G (9.8%, 70,201G)
EnemyController: 1,000G (9.8%, 187,379G)
Lionhermit: 1,000G (9.8%, 16,790G)
Mesmaster: 1,000G (9.8%, 15,173G)
Grimmace45: 733G (7.2%, 7,337G)
OmnibotGamma: 472G (4.6%, 472G)
ZephyrTempest: 456G (4.5%, 707G)
Cataphract116: 400G (3.9%, 21,100G)
Cryptopsy70: 400G (3.9%, 16,198G)
mannequ1n: 259G (2.5%, 259G)
getthemoneyz: 256G (2.5%, 632,529G)
VeolaDrum: 100G (1.0%, 100G)
datadrivenbot: 100G (1.0%, 11,732G)
