Final Bets: purple - 14 bets for 21,329G (53.6%, x0.87); brown - 9 bets for 18,465G (46.4%, x1.16)

purple bets:
Mesmaster: 10,000G (46.9%, 255,064G)
resjudicata3: 3,000G (14.1%, 45,445G)
DeathTaxesAndAnime: 2,094G (9.8%, 4,106G)
CorpusCav: 1,400G (6.6%, 22,949G)
getthemoneyz: 1,000G (4.7%, 1,940,053G)
BirbBrainsBot: 1,000G (4.7%, 182,920G)
douchetron: 655G (3.1%, 655G)
Raixelol: 600G (2.8%, 600G)
ColetteMSLP: 400G (1.9%, 2,762G)
lijarkh: 360G (1.7%, 360G)
LivingHitokiri: 320G (1.5%, 320G)
hotpocketsofficial: 300G (1.4%, 3,542G)
AllInBot: 100G (0.5%, 100G)
xsifthewolf: 100G (0.5%, 100G)

brown bets:
ZPawZ: 10,000G (54.2%, 42,375G)
biske13: 5,041G (27.3%, 5,041G)
gingerfoo69: 1,984G (10.7%, 1,984G)
Arcblazer23: 424G (2.3%, 424G)
ValensEXP_: 316G (1.7%, 7,223G)
khelor_: 200G (1.1%, 2,221G)
MemoriesofFinal: 200G (1.1%, 21,039G)
datadrivenbot: 200G (1.1%, 63,103G)
BartTradingCompany: 100G (0.5%, 9,026G)
