Final Bets: green - 21 bets for 12,436G (51.5%, x0.94); yellow - 27 bets for 11,701G (48.5%, x1.06)

green bets:
TheChainNerd: 3,054G (24.6%, 15,274G)
MoonSlayerRS: 1,157G (9.3%, 1,157G)
BenYuPoker: 1,011G (8.1%, 1,011G)
ungabunga_bot: 1,000G (8.0%, 67,991G)
BirbBrainsBot: 1,000G (8.0%, 268,531G)
lunaticruin: 864G (6.9%, 864G)
Lanshaft: 600G (4.8%, 6,337G)
Zeroroute: 600G (4.8%, 600G)
moonliquor: 502G (4.0%, 1,004G)
Adam1949: 500G (4.0%, 5,116G)
Baron_von_Scrub: 353G (2.8%, 10,519G)
ZephyrTempest: 314G (2.5%, 23,383G)
CamelCash007: 224G (1.8%, 224G)
ugoplatamia: 200G (1.6%, 29,562G)
MrFlabyo: 200G (1.6%, 13,830G)
Ausuri: 200G (1.6%, 1,707G)
yure1x: 188G (1.5%, 188G)
gikokiko: 169G (1.4%, 169G)
Heroebal: 100G (0.8%, 1,738G)
GingerDynomite: 100G (0.8%, 100G)
friendsquirrel: 100G (0.8%, 6,380G)

yellow bets:
kingchadking: 2,068G (17.7%, 2,068G)
reinoe: 1,396G (11.9%, 1,396G)
DeathTaxesAndAnime: 911G (7.8%, 1,787G)
Nizaha: 896G (7.7%, 896G)
DrAntiSocial: 648G (5.5%, 648G)
DudeMonkey77: 576G (4.9%, 576G)
rubenflonne: 558G (4.8%, 558G)
HaateXIII: 513G (4.4%, 513G)
Club_Sodar: 500G (4.3%, 977G)
b_bot: 500G (4.3%, 3,980G)
urieltheflameofgod: 300G (2.6%, 2,520G)
DustBirdEX: 300G (2.6%, 5,568G)
EnemyController: 300G (2.6%, 31,339G)
catfashions: 288G (2.5%, 288G)
joewcarson: 282G (2.4%, 282G)
getthemoneyz: 264G (2.3%, 442,190G)
Shalloween: 200G (1.7%, 1,828G)
0utlier: 200G (1.7%, 1,569G)
AllInBot: 151G (1.3%, 151G)
rico_flex: 150G (1.3%, 528G)
ApplesauceBoss: 100G (0.9%, 3,615G)
Firesheath: 100G (0.9%, 4,521G)
Lythe_Caraker: 100G (0.9%, 47,983G)
maakur_: 100G (0.9%, 3,339G)
SeedSC: 100G (0.9%, 143,025G)
datadrivenbot: 100G (0.9%, 23,828G)
Cha0sRuler: 100G (0.9%, 100G)
