Final Bets: red - 8 bets for 6,445G (52.4%, x0.91); blue - 13 bets for 5,859G (47.6%, x1.10)

red bets:
bruubarg: 1,949G (30.2%, 11,949G)
DavenIII: 1,779G (27.6%, 3,559G)
ShintaroNayaka: 1,253G (19.4%, 1,253G)
E_Ballard: 608G (9.4%, 608G)
dogsandcatsand: 556G (8.6%, 5,403G)
Ogema_theDream: 100G (1.6%, 7,081G)
rottings0ul: 100G (1.6%, 1,554G)
DeathTaxesAndAnime: 100G (1.6%, 7,860G)

blue bets:
SephDarkheart: 1,164G (19.9%, 1,164G)
VolgraTheMoose: 1,001G (17.1%, 139,800G)
BirbBrainsBot: 1,000G (17.1%, 15,377G)
Raixelol: 528G (9.0%, 5,842G)
getthemoneyz: 346G (5.9%, 1,849,764G)
AltimaMantoid: 300G (5.1%, 4,800G)
Sietaha: 300G (5.1%, 4,439G)
BartTradingCompany: 263G (4.5%, 2,634G)
cho_pin: 256G (4.4%, 256G)
Mushufasa_: 200G (3.4%, 3,683G)
gongonono: 200G (3.4%, 3,855G)
Leonidusx: 200G (3.4%, 14,765G)
gorgewall: 101G (1.7%, 4,302G)
