Final Bets: green - 12 bets for 7,404G (45.1%, x1.22); yellow - 12 bets for 9,003G (54.9%, x0.82)

green bets:
DavenIII: 1,250G (16.9%, 4,320G)
BirbBrainsBot: 1,000G (13.5%, 72,138G)
Thyrandaal: 1,000G (13.5%, 40,968G)
Lord_Burrah: 981G (13.2%, 124,981G)
3ngag3: 658G (8.9%, 1,658G)
letdowncity: 548G (7.4%, 36,289G)
VolgraTheMoose: 501G (6.8%, 134,397G)
old_overholt_: 500G (6.8%, 10,712G)
getthemoneyz: 366G (4.9%, 1,811,020G)
silentkaster: 300G (4.1%, 2,455G)
Twisted_Nutsatchel: 200G (2.7%, 18,918G)
CosmicTactician: 100G (1.4%, 46,818G)

yellow bets:
SephDarkheart: 2,098G (23.3%, 2,098G)
highelectricaltemperature: 1,928G (21.4%, 3,781G)
Spartan_Paladin: 1,600G (17.8%, 19,673G)
lijarkh: 1,000G (11.1%, 13,119G)
Nizaha: 808G (9.0%, 89,280G)
Tarheels218: 364G (4.0%, 2,134G)
formerlydrdong: 300G (3.3%, 2,990G)
krombobreaker: 268G (3.0%, 5,807G)
douchetron: 264G (2.9%, 264G)
RobotOcelot: 150G (1.7%, 6,850G)
Lydian_C: 123G (1.4%, 21,580G)
RunicMagus: 100G (1.1%, 9,189G)
