Final Bets: green - 32 bets for 63,461G (48.0%, x1.08); champion - 21 bets for 68,654G (52.0%, x0.92)

green bets:
SeedSC: 20,000G (31.5%, 69,330G)
Axelrod: 9,254G (14.6%, 9,254G)
dhekix: 7,788G (12.3%, 7,788G)
Lydian_C: 7,600G (12.0%, 37,291G)
ValtonZenola: 3,774G (5.9%, 3,774G)
sinnyil2: 2,200G (3.5%, 25,171G)
DeliciousSub: 2,000G (3.2%, 13,921G)
Bulleta: 1,000G (1.6%, 7,083G)
OmnibotGamma: 1,000G (1.6%, 13,026G)
RongRongArts: 1,000G (1.6%, 40,435G)
DeathTaxesAndAnime: 900G (1.4%, 1,772G)
icy_blue20: 759G (1.2%, 759G)
UmaiJam: 711G (1.1%, 711G)
electric_glass: 600G (0.9%, 2,259G)
cougboi: 560G (0.9%, 560G)
bannana_slug_: 501G (0.8%, 1,282G)
Shifty_Jim: 500G (0.8%, 1,234G)
reinoe: 460G (0.7%, 460G)
Tithonus: 444G (0.7%, 444G)
WireLord: 320G (0.5%, 320G)
BadBlanket: 300G (0.5%, 1,356G)
denamda: 300G (0.5%, 19,381G)
DaveStrider55: 300G (0.5%, 2,767G)
alithesillybird: 200G (0.3%, 2,029G)
KasugaiRoastedPeas: 200G (0.3%, 33,501G)
rubenflonne: 178G (0.3%, 2,462G)
Zmanwise: 112G (0.2%, 112G)
Nizaha: 100G (0.2%, 17,002G)
Maeveen: 100G (0.2%, 7,621G)
mirapoix: 100G (0.2%, 2,538G)
Treapvort: 100G (0.2%, 2,993G)
datadrivenbot: 100G (0.2%, 13,746G)

champion bets:
kingchadking: 45,818G (66.7%, 45,818G)
AllInBot: 7,087G (10.3%, 7,087G)
PotionDweller: 2,500G (3.6%, 27,857G)
EunosXX: 2,215G (3.2%, 44,304G)
HaplessOne: 2,000G (2.9%, 30,084G)
Humble_Fabio: 1,987G (2.9%, 3,975G)
SkylerBunny: 1,500G (2.2%, 71,927G)
ugoplatamia: 1,268G (1.8%, 6,343G)
BirbBrainsBot: 1,000G (1.5%, 189,343G)
bad1dea: 1,000G (1.5%, 180,456G)
oodlesonoodles11: 500G (0.7%, 5,405G)
typicalfanboy: 500G (0.7%, 500G)
thunderducker: 300G (0.4%, 3,488G)
Go2sleepTV: 268G (0.4%, 268G)
ungabunga_bot: 161G (0.2%, 1,606G)
Basmal: 100G (0.1%, 5,041G)
ApplesauceBoss: 100G (0.1%, 11,265G)
RughSontos: 100G (0.1%, 2,363G)
BuffaloCrunch: 100G (0.1%, 16,632G)
astrozin11: 100G (0.1%, 7,500G)
WinnerBit: 50G (0.1%, 1,822G)
