Final Bets: green - 21 bets for 18,332G (56.9%, x0.76); yellow - 17 bets for 13,895G (43.1%, x1.32)

green bets:
HaateXIII: 5,773G (31.5%, 11,547G)
upvla: 3,000G (16.4%, 3,659G)
Evewho: 1,814G (9.9%, 1,814G)
coralreeferz: 1,500G (8.2%, 34,343G)
kahjeethaswares: 732G (4.0%, 732G)
Vultuous: 693G (3.8%, 693G)
oldmanbody: 683G (3.7%, 683G)
Zeroroute: 600G (3.3%, 600G)
TasisSai: 595G (3.2%, 595G)
Practice_Pad: 500G (2.7%, 2,606G)
killth3kid: 464G (2.5%, 2,380G)
SephDarkheart: 336G (1.8%, 46,238G)
Chihuahua_Charity: 300G (1.6%, 930G)
athros13: 272G (1.5%, 10,937G)
skipsandwiches: 256G (1.4%, 256G)
Othatmattkid: 250G (1.4%, 3,006G)
AllInBot: 200G (1.1%, 200G)
datadrivenbot: 200G (1.1%, 35,750G)
ohhinm: 100G (0.5%, 4,716G)
silverelmdor: 50G (0.3%, 2,002G)
getthemoneyz: 14G (0.1%, 1,328,559G)

yellow bets:
helpimabug: 3,050G (22.0%, 6,100G)
Thyrandaal: 2,025G (14.6%, 2,025G)
NicoSavoy: 2,000G (14.4%, 251,556G)
dogsandcatsand: 1,000G (7.2%, 1,000G)
BirbBrainsBot: 1,000G (7.2%, 125,858G)
ColetteMSLP: 927G (6.7%, 927G)
Error72: 787G (5.7%, 1,544G)
Nizaha: 556G (4.0%, 14,296G)
fenaen: 518G (3.7%, 518G)
Rytor: 376G (2.7%, 376G)
DLJuggernaut: 372G (2.7%, 372G)
Chuckolator: 335G (2.4%, 12,021G)
CapnChaos12: 300G (2.2%, 4,987G)
pLifer: 256G (1.8%, 256G)
roqqqpsi: 193G (1.4%, 204G)
Twisted_Nutsatchel: 100G (0.7%, 12,050G)
dinin991: 100G (0.7%, 1,823G)
