Final Bets: yellow - 18 bets for 14,530G (77.8%, x0.28); purple - 13 bets for 4,141G (22.2%, x3.51)

yellow bets:
nhammen: 3,997G (27.5%, 7,994G)
Evewho: 2,073G (14.3%, 2,073G)
NicoSavoy: 2,000G (13.8%, 256,739G)
BirbBrainsBot: 1,000G (6.9%, 127,123G)
HaateXIII: 923G (6.4%, 923G)
upvla: 600G (4.1%, 600G)
Nizaha: 556G (3.8%, 15,349G)
Rytor: 469G (3.2%, 469G)
killth3kid: 464G (3.2%, 524G)
DudeMonkey77: 420G (2.9%, 4,101G)
roqqqpsi: 400G (2.8%, 422G)
pplvee1: 380G (2.6%, 380G)
SephDarkheart: 336G (2.3%, 45,900G)
CapnChaos12: 300G (2.1%, 5,385G)
AllInBot: 200G (1.4%, 200G)
datadrivenbot: 200G (1.4%, 35,539G)
oldmanbody: 112G (0.8%, 112G)
Twisted_Nutsatchel: 100G (0.7%, 12,158G)

purple bets:
ColetteMSLP: 1,153G (27.8%, 1,153G)
DLJuggernaut: 853G (20.6%, 1,673G)
Laserman1000: 552G (13.3%, 5,752G)
dogsandcatsand: 300G (7.2%, 2,076G)
Othatmattkid: 300G (7.2%, 2,645G)
Practice_Pad: 200G (4.8%, 2,098G)
Treafa: 150G (3.6%, 926G)
Vultuous: 136G (3.3%, 136G)
ohhinm: 123G (3.0%, 3,626G)
Sykper: 100G (2.4%, 2,882G)
Error72: 100G (2.4%, 3,573G)
Legitimized: 100G (2.4%, 6,941G)
getthemoneyz: 74G (1.8%, 1,329,043G)
