Final Bets: blue - 9 bets for 7,688G (42.4%, x1.36); yellow - 13 bets for 10,464G (57.6%, x0.73)

blue bets:
reinoe: 3,000G (39.0%, 68,375G)
douchetron: 2,252G (29.3%, 4,416G)
E_Ballard: 772G (10.0%, 772G)
killth3kid: 592G (7.7%, 10,243G)
Aldrammech: 568G (7.4%, 568G)
skipsandwiches: 284G (3.7%, 284G)
EmmaEnema: 100G (1.3%, 452G)
GoatShow2: 100G (1.3%, 883G)
wkhumes: 20G (0.3%, 1,005G)

yellow bets:
Thyrandaal: 4,444G (42.5%, 68,015G)
RaIshtar: 1,001G (9.6%, 3,056G)
maximumcrit: 1,000G (9.6%, 9,511G)
NIghtdew14: 1,000G (9.6%, 20,569G)
BirbBrainsBot: 1,000G (9.6%, 143,945G)
AllInBot: 358G (3.4%, 358G)
silentkaster: 358G (3.4%, 21,358G)
brokenknight201: 300G (2.9%, 1,069G)
nok____: 296G (2.8%, 296G)
getthemoneyz: 206G (2.0%, 1,478,288G)
rNdOrchestra: 200G (1.9%, 2,560G)
datadrivenbot: 200G (1.9%, 49,388G)
loveyouallfriends: 101G (1.0%, 15,789G)
