Final Bets: blue - 13 bets for 6,521G (30.2%, x2.31); yellow - 17 bets for 15,046G (69.8%, x0.43)

blue bets:
killth3kid: 1,000G (15.3%, 104,767G)
BirbBrainsBot: 1,000G (15.3%, 110,292G)
NicoSavoy: 1,000G (15.3%, 126,078G)
Creggers: 1,000G (15.3%, 17,952G)
Zeroroute: 600G (9.2%, 600G)
Nizaha: 528G (8.1%, 4,365G)
MagicBottle: 504G (7.7%, 13,225G)
Shalloween: 400G (6.1%, 64,968G)
GRRR12: 204G (3.1%, 204G)
MrMarkPolo: 101G (1.5%, 3,732G)
AND4H: 100G (1.5%, 3,535G)
SephDarkheart: 50G (0.8%, 25,615G)
ChubbyBroCast: 34G (0.5%, 340G)

yellow bets:
DudeMonkey77: 5,123G (34.0%, 5,123G)
Evewho: 1,757G (11.7%, 3,446G)
cam_ATS: 1,678G (11.2%, 47,213G)
roqqqpsi: 1,297G (8.6%, 64,853G)
VolgraTheMoose: 1,001G (6.7%, 3,097G)
DeathTaxesAndAnime: 864G (5.7%, 864G)
HaateXIII: 668G (4.4%, 668G)
Lanshaft: 468G (3.1%, 10,939G)
DustBirdEX: 456G (3.0%, 456G)
getthemoneyz: 378G (2.5%, 1,210,803G)
CosmicTactician: 300G (2.0%, 42,670G)
CapnChaos12: 300G (2.0%, 7,115G)
alterworlds: 256G (1.7%, 256G)
datadrivenbot: 200G (1.3%, 55,861G)
TasisSai: 100G (0.7%, 416G)
CT_5_Holy: 100G (0.7%, 3,877G)
danielrogercardoso: 100G (0.7%, 100G)
