Final Bets: white - 15 bets for 10,006G (70.2%, x0.42); purple - 13 bets for 4,240G (29.8%, x2.36)

white bets:
Evewho: 2,145G (21.4%, 4,207G)
DeathTaxesAndAnime: 1,238G (12.4%, 1,238G)
fenaen: 1,200G (12.0%, 30,784G)
killth3kid: 1,000G (10.0%, 103,767G)
DudeMonkey77: 700G (7.0%, 7,343G)
SkylerBunny: 690G (6.9%, 690G)
roqqqpsi: 654G (6.5%, 65,415G)
Zeroroute: 600G (6.0%, 600G)
TasisSai: 459G (4.6%, 459G)
Shalloween: 400G (4.0%, 64,568G)
ZCKaiser: 320G (3.2%, 4,924G)
BoneMiser: 200G (2.0%, 3,284G)
datadrivenbot: 200G (2.0%, 55,948G)
superdevon1: 100G (1.0%, 5,678G)
enkikavlar: 100G (1.0%, 7,240G)

purple bets:
BirbBrainsBot: 1,000G (23.6%, 109,292G)
DustBirdEX: 654G (15.4%, 654G)
dogsandcatsand: 531G (12.5%, 2,657G)
Nizaha: 528G (12.5%, 3,837G)
alterworlds: 367G (8.7%, 367G)
OtherBrand: 245G (5.8%, 272G)
xLilAsia: 216G (5.1%, 216G)
GRRR12: 204G (4.8%, 204G)
MrMarkPolo: 125G (2.9%, 3,631G)
getthemoneyz: 120G (2.8%, 1,210,967G)
Thyrandaal: 100G (2.4%, 5,927G)
danielrogercardoso: 100G (2.4%, 143G)
SephDarkheart: 50G (1.2%, 25,565G)
