Final Bets: purple - 23 bets for 8,945G (33.1%, x2.02); brown - 36 bets for 18,063G (66.9%, x0.50)

purple bets:
Nickyfive: 1,000G (11.2%, 35,114G)
BirbBrainsBot: 1,000G (11.2%, 198,957G)
bad1dea: 1,000G (11.2%, 188,886G)
kai_shee: 1,000G (11.2%, 37,280G)
typicalfanboy: 724G (8.1%, 724G)
Lodrak: 636G (7.1%, 636G)
Lanshaft: 560G (6.3%, 19,943G)
Axelrod: 426G (4.8%, 8,531G)
jigglefluffenstuff: 372G (4.2%, 372G)
Pie108: 240G (2.7%, 3,069G)
athros13: 224G (2.5%, 224G)
PetitFoulard: 212G (2.4%, 212G)
Aldrammech: 209G (2.3%, 2,093G)
Aeolus_000: 200G (2.2%, 200G)
ZephyrTempest: 178G (2.0%, 10,062G)
Chuckolator: 178G (2.0%, 7,254G)
Davarian: 172G (1.9%, 172G)
getthemoneyz: 114G (1.3%, 354,652G)
wackyzachyy: 100G (1.1%, 100G)
BadBlanket: 100G (1.1%, 1,797G)
g00gly: 100G (1.1%, 2,527G)
reverv: 100G (1.1%, 204G)
joeycastaldo: 100G (1.1%, 11,547G)

brown bets:
Mtueni: 5,000G (27.7%, 112,145G)
rechaun: 1,000G (5.5%, 9,979G)
TheChainNerd: 1,000G (5.5%, 5,592G)
DudeMonkey77: 1,000G (5.5%, 43,121G)
IcePattern: 1,000G (5.5%, 22,908G)
Rastanar: 1,000G (5.5%, 9,390G)
OmnibotGamma: 869G (4.8%, 869G)
Nizaha: 707G (3.9%, 707G)
NovaKnight21: 573G (3.2%, 573G)
Dexef: 566G (3.1%, 4,175G)
PlatinumPlume: 554G (3.1%, 2,109G)
genoguy: 500G (2.8%, 2,046G)
powergems: 400G (2.2%, 1,367G)
tevoul: 330G (1.8%, 6,614G)
Skarthe: 300G (1.7%, 5,524G)
DustBirdEX: 300G (1.7%, 8,357G)
ctharvey: 272G (1.5%, 272G)
ra1kia: 264G (1.5%, 264G)
HRak050: 200G (1.1%, 4,952G)
Oshimi12: 200G (1.1%, 2,482G)
SeraphPDH: 200G (1.1%, 6,544G)
silentperogy: 200G (1.1%, 5,957G)
UmaiJam: 192G (1.1%, 1,923G)
LDSkinny: 165G (0.9%, 1,658G)
lifeguard_dan: 156G (0.9%, 156G)
halnco: 150G (0.8%, 831G)
MrDiggs49: 112G (0.6%, 112G)
ApplesauceBoss: 100G (0.6%, 8,626G)
inquisitor_kadan: 100G (0.6%, 450G)
JumbocactuarX27: 100G (0.6%, 4,061G)
maakur_: 100G (0.6%, 55,741G)
Bongomon7: 100G (0.6%, 2,965G)
rjA0zcOQ96: 100G (0.6%, 1,780G)
mirapoix: 100G (0.6%, 3,321G)
datadrivenbot: 100G (0.6%, 13,403G)
Avin_Chaos: 53G (0.3%, 533G)
