High Risers:
1. Loveyouallfriends: +9,580G
2. Moshyhero: +7,748G
3. Latebit: +5,593G
4. Gooseyourself: +4,282G
5. Laserman1000: +3,481G
6. Dljuggernaut: +3,204G
7. Lythe_caraker: +2,663G
8. Sietaha: +2,660G
9. Dasutin23: +2,359G
10. Huffflex: +2,004G
11. Phi_sig: +2,000G
12. Smashy: +2,000G
13. Sinnyil2: +1,812G
14. Krombobreaker: +1,674G
15. Seppu777: +1,370G
16. Mindblownnnn: +1,292G
17. Resjudicata3: +1,125G
18. Leonidusx: +1,020G
19. The_fryman: +916G
20. Khelor_: +871G
21. Firesheath: +786G
22. Escobro: +601G
23. Kronikle: +447G
24. Threedope: +215G
25. Reddwind_: +193G
26. Corpuscav: +182G
27. Hojimitsu: +160G
28. Ibardic: +69G
29. Galkife: +4G
30. Lube_squid: -50G
31. Heybtw: -78G
32. Victoriolue: -100G
33. Douchetron: -100G
34. Dhaveword: -100G
35. Foamsoldier: -111G
36. Formerlydrdong: -120G
37. Brokenknight201: -200G
38. Cosmictactician: -200G
39. Chuckolator: -200G
40. Chichirodriguez: -200G
41. Thyrandaal: -217G
42. Anfz: -400G
43. Technominari: -500G
44. Valensexp_: -510G
45. Upvla: -515G
46. Killth3kid: -766G
47. Deathtaxesandanime: -859G
48. Mesmaster: -888G
49. Raixelol: -990G
50. Silentkaster: -1,134G
51. Superdevon1: -1,341G
52. Seaweed_b: -1,400G
53. Lowlf: -1,800G
54. Skillomono: -1,865G
55. Fattunaking: -2,000G
56. Nhammen: -2,076G
57. Nicosavoy: -2,719G
58. Thehunterlb: -3,106G
59. Thunderducker: -3,833G
60. Oreo_pizza: -5,666G
61. Shalloween: -9,858G
