Final Bets: blue - 16 bets for 9,633G (45.6%, x1.19); yellow - 17 bets for 11,510G (54.4%, x0.84)

blue bets:
leakimiko: 1,844G (19.1%, 13,175G)
RyuTsuno: 1,250G (13.0%, 6,724G)
noodlebaka: 1,170G (12.1%, 1,170G)
reinoe: 1,046G (10.9%, 1,046G)
BirbBrainsBot: 1,000G (10.4%, 69,051G)
DeathTaxesAndAnime: 767G (8.0%, 767G)
ColetteMSLP: 550G (5.7%, 21,890G)
Dexsana: 500G (5.2%, 4,334G)
midori_ribbon: 450G (4.7%, 1,733G)
FoxtrotNovemberCharlie: 268G (2.8%, 268G)
lijarkh: 200G (2.1%, 2,891G)
Anethum: 200G (2.1%, 1,942G)
AllInBot: 100G (1.0%, 100G)
electric_glass: 100G (1.0%, 5,079G)
Evewho: 100G (1.0%, 7,579G)
getthemoneyz: 88G (0.9%, 603,270G)

yellow bets:
ko2q: 1,999G (17.4%, 1,999G)
Chrysaors: 1,872G (16.3%, 31,210G)
Reductions: 1,568G (13.6%, 3,922G)
Lydian_C: 1,200G (10.4%, 50,111G)
Mesmaster: 1,000G (8.7%, 11,522G)
Mirrorclaw: 915G (7.9%, 915G)
RionDoesThings: 853G (7.4%, 853G)
fd3sihk: 619G (5.4%, 619G)
PotionDweller: 316G (2.7%, 316G)
LivingHitokiri: 284G (2.5%, 284G)
Pink_LuigiX: 256G (2.2%, 256G)
passingthedays: 112G (1.0%, 112G)
ungabunga_bot: 108G (0.9%, 279,903G)
RyanTheRebs: 108G (0.9%, 108G)
xslki: 100G (0.9%, 100G)
datadrivenbot: 100G (0.9%, 6,900G)
cougboi: 100G (0.9%, 18,919G)
