Final Bets: white - 22 bets for 13,593G (55.5%, x0.80); purple - 13 bets for 10,892G (44.5%, x1.25)

white bets:
Shakarak: 3,000G (22.1%, 22,289G)
fd3sihk: 1,137G (8.4%, 1,137G)
cgMcWhiskers: 1,000G (7.4%, 3,337G)
Mesmaster: 1,000G (7.4%, 12,359G)
ungabunga_bot: 1,000G (7.4%, 279,993G)
BirbBrainsBot: 1,000G (7.4%, 68,051G)
Mirrorclaw: 681G (5.0%, 681G)
DeathTaxesAndAnime: 576G (4.2%, 576G)
ColetteMSLP: 550G (4.0%, 21,340G)
LivingHitokiri: 522G (3.8%, 522G)
Pink_LuigiX: 470G (3.5%, 470G)
midori_ribbon: 400G (2.9%, 1,283G)
Anethum: 400G (2.9%, 1,742G)
electric_glass: 333G (2.4%, 4,979G)
Chrysaors: 327G (2.4%, 32,777G)
FoxtrotNovemberCharlie: 268G (2.0%, 268G)
astrozin11: 223G (1.6%, 5,775G)
passingthedays: 206G (1.5%, 206G)
RionDoesThings: 200G (1.5%, 1,567G)
Realitydown: 100G (0.7%, 3,656G)
noodlebaka: 100G (0.7%, 100G)
datadrivenbot: 100G (0.7%, 6,984G)

purple bets:
Dexsana: 3,834G (35.2%, 3,834G)
Reductions: 2,093G (19.2%, 5,234G)
ko2q: 1,836G (16.9%, 3,672G)
leakimiko: 906G (8.3%, 11,331G)
reinoe: 600G (5.5%, 600G)
PotionDweller: 580G (5.3%, 580G)
Jaritras: 303G (2.8%, 1,303G)
xslki: 184G (1.7%, 184G)
UnparalleledDev: 172G (1.6%, 172G)
getthemoneyz: 134G (1.2%, 603,182G)
AllInBot: 100G (0.9%, 100G)
Evewho: 100G (0.9%, 7,479G)
cougboi: 50G (0.5%, 19,003G)
