Final Bets: purple - 11 bets for 15,182G (34.0%, x1.94); champion - 17 bets for 29,474G (66.0%, x0.52)

purple bets:
Seaweed_B: 10,000G (65.9%, 80,059G)
KasugaiRoastedPeas: 1,221G (8.0%, 1,221G)
TrueRWB: 1,000G (6.6%, 1,000G)
soren_of_tyto: 748G (4.9%, 748G)
SkylerBunny: 676G (4.5%, 676G)
killth3kid: 672G (4.4%, 10,174G)
Forkmore: 448G (3.0%, 8,515G)
datadrivenbot: 200G (1.3%, 57,887G)
MinBetBot: 100G (0.7%, 22,920G)
nifboy: 100G (0.7%, 3,832G)
dtrain332: 17G (0.1%, 1,767G)

champion bets:
Sairentozon7: 10,000G (33.9%, 106,368G)
Drusiform: 6,682G (22.7%, 13,365G)
evdoggity: 3,000G (10.2%, 243,255G)
EnemyController: 2,222G (7.5%, 1,548,002G)
nhammen: 2,000G (6.8%, 5,368G)
CosmicTactician: 1,000G (3.4%, 4,071G)
Brainstew29: 1,000G (3.4%, 37,932G)
BirbBrainsBot: 1,000G (3.4%, 196,486G)
getthemoneyz: 608G (2.1%, 1,594,172G)
ko2q: 404G (1.4%, 404G)
silentperogy: 400G (1.4%, 31,440G)
resjudicata3: 288G (1.0%, 288G)
Galeronis: 244G (0.8%, 244G)
xBizzy: 228G (0.8%, 626G)
AllInBot: 200G (0.7%, 200G)
Heroebal: 100G (0.3%, 3,192G)
DeathTaxesAndAnime: 98G (0.3%, 1,442G)
