Final Bets: green - 31 bets for 27,348G (44.4%, x1.25); champion - 24 bets for 34,199G (55.6%, x0.80)

green bets:
hydroshade: 4,076G (14.9%, 4,076G)
KasugaiRoastedPeas: 3,055G (11.2%, 3,055G)
killth3kid: 2,000G (7.3%, 49,907G)
jakeduhhsnake: 2,000G (7.3%, 83,912G)
Baron_von_Scrub: 1,469G (5.4%, 1,469G)
gooseyourself: 1,250G (4.6%, 1,250G)
Lionhermit: 1,000G (3.7%, 35,170G)
Zetchryn: 1,000G (3.7%, 5,731G)
ACSpree: 1,000G (3.7%, 49,539G)
BirbBrainsBot: 1,000G (3.7%, 2,988G)
ungabunga_bot: 1,000G (3.7%, 328,002G)
TrueRhyme: 1,000G (3.7%, 4,379G)
TheMurkGnome: 1,000G (3.7%, 6,920G)
JumbocactuarX27: 1,000G (3.7%, 14,412G)
InOzWeTrust: 807G (3.0%, 807G)
Laserman1000: 800G (2.9%, 87,400G)
genericco: 688G (2.5%, 688G)
Zeroroute: 600G (2.2%, 600G)
EnemyController: 500G (1.8%, 171,215G)
DLJuggernaut: 500G (1.8%, 10,518G)
redrhinofever: 250G (0.9%, 4,354G)
SarrgeQc: 240G (0.9%, 688G)
Master_Metroid: 212G (0.8%, 212G)
brokenknight201: 200G (0.7%, 690G)
ANFz: 111G (0.4%, 29,670G)
Firesheath: 100G (0.4%, 12,965G)
itsadud: 100G (0.4%, 100G)
Setdevildog: 100G (0.4%, 100G)
Realitydown: 100G (0.4%, 2,166G)
maakur_: 100G (0.4%, 120,389G)
getthemoneyz: 90G (0.3%, 611,068G)

champion bets:
HaplessOne: 15,264G (44.6%, 15,264G)
sinnyil2: 4,061G (11.9%, 8,122G)
Mtueni: 4,000G (11.7%, 228,852G)
DeathTaxesAndAnime: 2,734G (8.0%, 5,362G)
HorusTaurus: 1,560G (4.6%, 1,560G)
Rislyeu: 1,141G (3.3%, 5,709G)
Dexsana: 1,044G (3.1%, 1,044G)
Bloody_Nips: 596G (1.7%, 596G)
DHaveWord: 504G (1.5%, 504G)
catfashions: 500G (1.5%, 17,425G)
Oreo_Pizza: 500G (1.5%, 9,918G)
twelfthrootoftwo: 500G (1.5%, 1,353G)
GrandmasterFrankerZ: 320G (0.9%, 320G)
Kooks_R_Us: 300G (0.9%, 541G)
Squatting_Bear: 200G (0.6%, 1,252G)
FoeSquirrel: 162G (0.5%, 324G)
Kyune: 124G (0.4%, 124G)
b0shii: 123G (0.4%, 11,961G)
OrganicArtist: 111G (0.3%, 1,713G)
Evewho: 100G (0.3%, 8,943G)
nifboy: 100G (0.3%, 5,551G)
XshieselX: 100G (0.3%, 354G)
datadrivenbot: 100G (0.3%, 12,477G)
DrAntiSocial: 55G (0.2%, 9,158G)
