Final Bets: red - 13 bets for 4,533G (19.3%, x4.19); blue - 20 bets for 18,987G (80.7%, x0.24)

red bets:
zmoses: 1,000G (22.1%, 10,791G)
BirbBrainsBot: 1,000G (22.1%, 104,823G)
RaIshtar: 800G (17.6%, 3,345G)
DuraiPapers: 300G (6.6%, 50,560G)
dogsandcatsand: 243G (5.4%, 5,243G)
getthemoneyz: 230G (5.1%, 1,008,563G)
GladiatorLupe: 200G (4.4%, 11,199G)
KasugaiRoastedPeas: 200G (4.4%, 15,527G)
Pyre_Pyre: 160G (3.5%, 160G)
Firesheath: 100G (2.2%, 3,862G)
RunicMagus: 100G (2.2%, 44,143G)
Zalerah: 100G (2.2%, 4,577G)
hilcray: 100G (2.2%, 1,278G)

blue bets:
ShintaroNayaka: 5,092G (26.8%, 12,731G)
AniZero: 2,382G (12.5%, 2,382G)
Nickyfive: 2,000G (10.5%, 28,401G)
Laserman1000: 1,472G (7.8%, 1,472G)
SkylerBunny: 1,400G (7.4%, 573,403G)
serperemagus: 1,317G (6.9%, 1,317G)
DLJuggernaut: 932G (4.9%, 932G)
fenaen: 780G (4.1%, 16,790G)
Nizaha: 744G (3.9%, 744G)
sinnyil2: 509G (2.7%, 29,558G)
Shalloween: 500G (2.6%, 49,518G)
JethroThrul: 491G (2.6%, 491G)
Chuckolator: 343G (1.8%, 37,711G)
gorgewall: 301G (1.6%, 5,651G)
Evewho: 200G (1.1%, 3,723G)
just_here2: 150G (0.8%, 9,870G)
lastly: 100G (0.5%, 30,590G)
datadrivenbot: 100G (0.5%, 48,662G)
Kellios11: 100G (0.5%, 58,130G)
Rilgon: 74G (0.4%, 149G)
