Final Bets: purple - 18 bets for 14,149G (54.0%, x0.85); brown - 12 bets for 12,073G (46.0%, x1.17)

purple bets:
serperemagus: 4,249G (30.0%, 4,249G)
Nizaha: 1,655G (11.7%, 3,311G)
SkyridgeZero: 1,500G (10.6%, 49,568G)
DuraiPapers: 1,000G (7.1%, 49,517G)
Nickyfive: 1,000G (7.1%, 29,635G)
getthemoneyz: 1,000G (7.1%, 1,008,067G)
Chuckolator: 639G (4.5%, 37,604G)
RaIshtar: 500G (3.5%, 6,634G)
AniZero: 488G (3.4%, 488G)
killth3kid: 480G (3.4%, 11,573G)
JumbocactuarX27: 412G (2.9%, 412G)
joewcarson: 316G (2.2%, 316G)
ZCKaiser: 310G (2.2%, 310G)
Evewho: 200G (1.4%, 3,771G)
datadrivenbot: 100G (0.7%, 48,624G)
RunicMagus: 100G (0.7%, 43,843G)
Grandlanzer: 100G (0.7%, 10,615G)
Zalerah: 100G (0.7%, 4,676G)

brown bets:
SkylerBunny: 5,000G (41.4%, 574,267G)
LionelParks: 1,740G (14.4%, 1,740G)
fenaen: 1,200G (9.9%, 16,976G)
metagameface: 1,063G (8.8%, 1,063G)
BirbBrainsBot: 1,000G (8.3%, 101,823G)
Phi_Sig: 555G (4.6%, 5,324G)
holyonline: 464G (3.8%, 464G)
Pyre_Pyre: 417G (3.5%, 417G)
benticore: 221G (1.8%, 4,430G)
JethroThrul: 213G (1.8%, 419G)
Firesheath: 100G (0.8%, 3,562G)
hilcray: 100G (0.8%, 1,078G)
