Final Bets: blue - 14 bets for 20,540G (56.5%, x0.77); champion - 18 bets for 15,812G (43.5%, x1.30)

blue bets:
sinnyil2: 12,000G (58.4%, 157,542G)
DeathTaxesAndAnime: 1,192G (5.8%, 14,340G)
latebit: 1,111G (5.4%, 14,042G)
BirbBrainsBot: 1,000G (4.9%, 77,438G)
Sairentozon7: 1,000G (4.9%, 31,972G)
RuneS_77: 1,000G (4.9%, 20,527G)
Nizaha: 852G (4.1%, 69,515G)
douchetron: 515G (2.5%, 515G)
ericzubat: 500G (2.4%, 5,019G)
Lord_Gwarth: 500G (2.4%, 11,360G)
getthemoneyz: 470G (2.3%, 1,980,783G)
CosmicTactician: 200G (1.0%, 28,752G)
MemoriesofFinal: 100G (0.5%, 37,006G)
gingerfoo69: 100G (0.5%, 5,418G)

champion bets:
NicoSavoy: 5,000G (31.6%, 133,430G)
Dodecadeath: 1,644G (10.4%, 1,644G)
evontno: 1,352G (8.6%, 1,352G)
PoroTact: 1,064G (6.7%, 1,064G)
Laserman1000: 819G (5.2%, 4,019G)
ShadowNinja25: 800G (5.1%, 1,417G)
RagequitSA: 775G (4.9%, 775G)
resjudicata3: 766G (4.8%, 766G)
Smugzug: 576G (3.6%, 703G)
moonliquor: 500G (3.2%, 75,447G)
krombobreaker: 500G (3.2%, 8,904G)
CorpusCav: 500G (3.2%, 3,562G)
BoneMiser: 464G (2.9%, 464G)
AllInBot: 451G (2.9%, 451G)
datadrivenbot: 200G (1.3%, 68,776G)
Yangusburger: 200G (1.3%, 15,044G)
gorgewall: 101G (0.6%, 13,891G)
yagyuudarkness: 100G (0.6%, 100G)
