Final Bets: blue - 9 bets for 7,179G (48.3%, x1.07); yellow - 10 bets for 7,686G (51.7%, x0.93)

blue bets:
SkylerBunny: 1,200G (16.7%, 592,270G)
joewcarson: 1,135G (15.8%, 1,135G)
Aldrammech: 1,022G (14.2%, 1,022G)
extinctrational: 1,000G (13.9%, 4,089G)
BirbBrainsBot: 1,000G (13.9%, 81,557G)
Evewho: 800G (11.1%, 2,188G)
Zbgs: 412G (5.7%, 412G)
roofiepops: 360G (5.0%, 360G)
Lythe_Caraker: 250G (3.5%, 105,785G)

yellow bets:
Breakdown777: 2,244G (29.2%, 4,489G)
RaIshtar: 1,403G (18.3%, 1,403G)
Nizaha: 1,001G (13.0%, 18,218G)
DuraiPapers: 868G (11.3%, 868G)
DeathTaxesAndAnime: 750G (9.8%, 3,459G)
getthemoneyz: 640G (8.3%, 1,020,398G)
gorgewall: 301G (3.9%, 13,667G)
the_jester87: 279G (3.6%, 279G)
E_Ballard: 100G (1.3%, 22,697G)
datadrivenbot: 100G (1.3%, 45,571G)
