Final Bets: green - 14 bets for 6,691G (25.3%, x2.95); yellow - 23 bets for 19,743G (74.7%, x0.34)

green bets:
Raixelol: 3,253G (48.6%, 3,253G)
Laserman1000: 752G (11.2%, 752G)
nekojin: 669G (10.0%, 669G)
Leonidusx: 256G (3.8%, 256G)
killth3kid: 250G (3.7%, 16,696G)
Smugzug: 223G (3.3%, 1,610G)
projekt_mike: 200G (3.0%, 1,357G)
KasugaiRoastedPeas: 200G (3.0%, 2,251G)
datadrivenbot: 200G (3.0%, 62,242G)
TheSabretoothe: 200G (3.0%, 1,500G)
getthemoneyz: 136G (2.0%, 1,814,241G)
bigbongsmoker: 132G (2.0%, 3,910G)
Zerguzen: 120G (1.8%, 120G)
FlavaFraze: 100G (1.5%, 100G)

yellow bets:
Zbgs: 3,000G (15.2%, 17,971G)
reinoe: 3,000G (15.2%, 28,697G)
Error72: 2,001G (10.1%, 60,921G)
acid_flashback: 1,348G (6.8%, 1,348G)
acrusade: 1,091G (5.5%, 1,091G)
VolgraTheMoose: 1,001G (5.1%, 124,712G)
BirbBrainsBot: 1,000G (5.1%, 114,711G)
Thyrandaal: 1,000G (5.1%, 18,122G)
E_Ballard: 884G (4.5%, 136,406G)
Nizaha: 820G (4.2%, 80,583G)
Runeseeker22: 767G (3.9%, 767G)
run_with_stone_GUNs: 536G (2.7%, 32,297G)
CorpusCav: 500G (2.5%, 5,728G)
Mushufasa_: 500G (2.5%, 35,919G)
JumbocactuarX27: 420G (2.1%, 420G)
holdenmagronik: 384G (1.9%, 4,851G)
krombobreaker: 292G (1.5%, 6,552G)
FoeSquirrel: 278G (1.4%, 556G)
douchetron: 276G (1.4%, 276G)
FUong: 200G (1.0%, 663G)
CosmicTactician: 200G (1.0%, 45,534G)
formerlydrdong: 145G (0.7%, 3,018G)
arumz: 100G (0.5%, 20,074G)
