Final Bets: red - 11 bets for 7,158G (23.5%, x3.26); blue - 22 bets for 23,310G (76.5%, x0.31)

red bets:
NIghtdew14: 2,000G (27.9%, 16,532G)
Shalloween: 1,500G (21.0%, 15,819G)
KasugaiRoastedPeas: 1,052G (14.7%, 1,052G)
Firesheath: 793G (11.1%, 793G)
dogsandcatsand: 604G (8.4%, 604G)
Forkmore: 520G (7.3%, 520G)
readdesert: 200G (2.8%, 1,106G)
Esdega: 150G (2.1%, 1,529G)
AllInBot: 138G (1.9%, 138G)
gorgewall: 101G (1.4%, 4,066G)
LordMaxoss: 100G (1.4%, 5,463G)

blue bets:
douchetron: 6,815G (29.2%, 6,815G)
Drusiform: 4,111G (17.6%, 4,111G)
blorpy_: 1,600G (6.9%, 20,009G)
SkylerBunny: 1,531G (6.6%, 3,002G)
DeathTaxesAndAnime: 1,526G (6.5%, 1,526G)
DavenIII: 1,000G (4.3%, 11,812G)
BirbBrainsBot: 1,000G (4.3%, 166,627G)
MonchoStrife: 988G (4.2%, 988G)
Lord_Burrah: 736G (3.2%, 76,736G)
Laserman1000: 700G (3.0%, 7,000G)
SephDarkheart: 588G (2.5%, 119,657G)
getthemoneyz: 578G (2.5%, 1,649,788G)
CosmicTactician: 500G (2.1%, 23,013G)
neocarbuncle: 285G (1.2%, 285G)
3ngag3: 250G (1.1%, 2,000G)
wildetrys: 215G (0.9%, 430G)
whelming_wave: 200G (0.9%, 200G)
datadrivenbot: 200G (0.9%, 63,881G)
Tarheels218: 200G (0.9%, 4,725G)
arctodus13: 124G (0.5%, 124G)
Thyrandaal: 100G (0.4%, 256,894G)
theBinklive: 63G (0.3%, 252G)
