Final Bets: green - 12 bets for 6,275G (41.8%, x1.39); yellow - 11 bets for 8,732G (58.2%, x0.72)

green bets:
bruubarg: 1,213G (19.3%, 1,213G)
DeathTaxesAndAnime: 1,171G (18.7%, 2,297G)
ANFz: 1,000G (15.9%, 28,411G)
killth3kid: 1,000G (15.9%, 101,954G)
TheMurkGnome: 336G (5.4%, 336G)
Breakdown777: 304G (4.8%, 304G)
gorgewall: 301G (4.8%, 2,337G)
Nohurty: 300G (4.8%, 300G)
HaateXIII: 250G (4.0%, 7,116G)
datadrivenbot: 200G (3.2%, 55,654G)
E_Ballard: 100G (1.6%, 2,860G)
fluffskull: 100G (1.6%, 4,628G)

yellow bets:
NovaKnight21: 4,000G (45.8%, 42,859G)
BirbBrainsBot: 1,000G (11.5%, 63,928G)
getthemoneyz: 1,000G (11.5%, 1,191,305G)
Stallions_McPanther: 1,000G (11.5%, 33,033G)
DLJuggernaut: 500G (5.7%, 4,782G)
benticore: 301G (3.4%, 6,034G)
Grandlanzer: 300G (3.4%, 57,259G)
SephDarkheart: 288G (3.3%, 288G)
mrmaniac_: 242G (2.8%, 242G)
Alness49: 100G (1.1%, 1,458G)
cam_ATS: 1G (0.0%, 32,130G)
