Final Bets: red - 17 bets for 9,122G (44.6%, x1.24); champion - 12 bets for 11,345G (55.4%, x0.80)

red bets:
thewondertrickster: 2,748G (30.1%, 2,748G)
DeathTaxesAndAnime: 1,453G (15.9%, 2,850G)
killth3kid: 1,000G (11.0%, 106,589G)
prince_rogers_nelson_: 959G (10.5%, 959G)
BoneMiser: 500G (5.5%, 500G)
Shalloween: 400G (4.4%, 59,234G)
Digitalsocrates: 356G (3.9%, 356G)
benticore: 286G (3.1%, 5,733G)
ArashiKurobara: 276G (3.0%, 10,312G)
gorgewall: 201G (2.2%, 3,655G)
grimm_noir: 200G (2.2%, 5,694G)
datadrivenbot: 200G (2.2%, 55,735G)
GRRR12: 200G (2.2%, 1,769G)
Alness49: 152G (1.7%, 152G)
silentkaster: 100G (1.1%, 16,634G)
danielrogercardoso: 90G (1.0%, 190G)
cam_ATS: 1G (0.0%, 34,822G)

champion bets:
Shakarak: 3,000G (26.4%, 69,597G)
KasugaiRoastedPeas: 2,000G (17.6%, 8,255G)
bruubarg: 1,678G (14.8%, 1,678G)
dogsandcatsand: 1,020G (9.0%, 2,040G)
BirbBrainsBot: 1,000G (8.8%, 64,780G)
Breakdown777: 810G (7.1%, 1,620G)
DLJuggernaut: 500G (4.4%, 8,079G)
Seaweed_B: 500G (4.4%, 6,190G)
CrownOfHorns: 348G (3.1%, 348G)
RageImmortaI: 280G (2.5%, 4,749G)
SephDarkheart: 155G (1.4%, 155G)
getthemoneyz: 54G (0.5%, 1,192,315G)
