Final Bets: red - 24 bets for 13,529G (56.9%, x0.76); yellow - 18 bets for 10,256G (43.1%, x1.32)

red bets:
Nickyfive: 4,387G (32.4%, 4,387G)
volgrathemoose: 913G (6.7%, 913G)
FriendSquirrel: 882G (6.5%, 882G)
mannequ1n: 781G (5.8%, 781G)
Laserman1000: 700G (5.2%, 7,100G)
tronfonne: 599G (4.4%, 599G)
Firesheath: 592G (4.4%, 592G)
killth3kid: 576G (4.3%, 5,519G)
JumbocactuarX27: 568G (4.2%, 568G)
vorap: 500G (3.7%, 58,052G)
silentperogy: 500G (3.7%, 24,910G)
WunUP: 486G (3.6%, 486G)
ShintaroNayaka: 400G (3.0%, 4,944G)
otakutaylor: 300G (2.2%, 2,475G)
eudes89: 260G (1.9%, 260G)
Lythe_Caraker: 250G (1.8%, 120,779G)
GladiatorLupe: 200G (1.5%, 9,891G)
nekojin: 150G (1.1%, 1,008G)
rjA0zcOQ96: 100G (0.7%, 2,073G)
Soozaphone: 100G (0.7%, 263G)
soren_of_tyto: 100G (0.7%, 100G)
datadrivenbot: 100G (0.7%, 18,529G)
letdowncity: 75G (0.6%, 1,468G)
roqqqpsi: 10G (0.1%, 1,091G)

yellow bets:
HaplessOne: 2,118G (20.7%, 2,118G)
richardserious: 1,152G (11.2%, 1,152G)
ungabunga_bot: 1,000G (9.8%, 509,398G)
BirbBrainsBot: 1,000G (9.8%, 170,360G)
E_Ballard: 1,000G (9.8%, 10,259G)
zeando: 900G (8.8%, 1,000G)
Sitiran: 803G (7.8%, 8,037G)
namamu: 420G (4.1%, 14,860G)
CapnChaos12: 364G (3.5%, 364G)
sukotsuto: 300G (2.9%, 15,540G)
getthemoneyz: 274G (2.7%, 684,054G)
HaateXIII: 250G (2.4%, 872G)
Tsuike: 250G (2.4%, 1,828G)
hoochMonger: 100G (1.0%, 597G)
bringmoreknives: 100G (1.0%, 1,555G)
AUrato: 100G (1.0%, 5,841G)
asherban: 100G (1.0%, 100G)
Reltz_: 25G (0.2%, 525G)
