Final Bets: green - 8 bets for 7,654G (47.5%, x1.10); yellow - 15 bets for 8,444G (52.5%, x0.91)

green bets:
reinoe: 5,266G (68.8%, 5,266G)
UmaiJam: 1,000G (13.1%, 12,522G)
ShintaroNayaka: 400G (5.2%, 7,637G)
ColetteMSLP: 352G (4.6%, 352G)
eudes89: 336G (4.4%, 336G)
AllInBot: 100G (1.3%, 100G)
datadrivenbot: 100G (1.3%, 36,464G)
actual_jp: 100G (1.3%, 6,643G)

yellow bets:
gorgewall: 1,001G (11.9%, 16,195G)
BirbBrainsBot: 1,000G (11.8%, 167,615G)
Sairentozon7: 923G (10.9%, 923G)
RaIshtar: 750G (8.9%, 2,654G)
Evewho: 672G (8.0%, 672G)
mikendo: 511G (6.1%, 511G)
HASTERIOUS: 504G (6.0%, 504G)
TeaTime29: 500G (5.9%, 10,611G)
d4rr1n: 500G (5.9%, 4,404G)
NovaKnight21: 444G (5.3%, 444G)
CT_5_Holy: 398G (4.7%, 398G)
thaetreis: 396G (4.7%, 396G)
getthemoneyz: 384G (4.5%, 931,110G)
DAC169: 361G (4.3%, 361G)
E_Ballard: 100G (1.2%, 6,314G)
