Final Bets: white - 9 bets for 12,616G (66.4%, x0.51); brown - 12 bets for 6,390G (33.6%, x1.97)

white bets:
reinoe: 5,000G (39.6%, 59,337G)
amiture: 2,000G (15.9%, 19,078G)
Mesmaster: 2,000G (15.9%, 76,969G)
gorgewall: 1,736G (13.8%, 1,736G)
BaronHaynes: 1,100G (8.7%, 61,772G)
Raixelol: 320G (2.5%, 20,773G)
datadrivenbot: 200G (1.6%, 63,800G)
PuzzleSecretary: 160G (1.3%, 1,526G)
ko2q: 100G (0.8%, 14,159G)

brown bets:
NicoSavoy: 2,000G (31.3%, 49,661G)
JCBooBot: 1,000G (15.6%, 52,444G)
BirbBrainsBot: 1,000G (15.6%, 87,505G)
Zenmaza: 500G (7.8%, 6,312G)
iBardic: 397G (6.2%, 397G)
Lifebregin: 367G (5.7%, 5,867G)
lyonslegacy: 300G (4.7%, 18,622G)
thunderducker: 250G (3.9%, 1,873G)
InOzWeTrust: 204G (3.2%, 204G)
getthemoneyz: 164G (2.6%, 1,759,928G)
AltimaMantoid: 108G (1.7%, 1,008G)
AllInBot: 100G (1.6%, 100G)
