High Risers:
1. Nicosavoy: +34,937G
2. Notsashasia: +26,464G
3. Sinnyil2: +24,083G
4. Virilikus: +22,899G
5. Segomod: +13,630G
6. Deathtaxesandanime: +8,413G
7. Thyrandaal: +7,740G
8. Pepperbuster: +7,043G
9. Huffflex: +5,679G
10. Anfz: +5,679G
11. W0rldend: +5,629G
12. Akash7: +5,327G
13. Lord_gwarth: +4,028G
14. Reinoe: +4,003G
15. Corpuscav: +3,969G
16. Old_overholt_: +3,764G
17. Pplvee1: +3,677G
18. Bigbongsmoker: +3,425G
19. Smashy: +2,756G
20. E_ballard: +2,702G
21. Lowlf: +2,512G
22. Mindblownnnn: +2,317G
23. Davestrider55: +1,272G
24. Nhammen: +1,104G
25. Pukinggoombas: +1,038G
26. Lushifah: +1,011G
27. Gorgewall: +894G
28. Blastinus: +723G
29. Poorest_hobo: +693G
30. Wonser: +200G
31. Macradarkstar: +128G
32. Yangusburger: +62G
33. Lyner87: +4G
34. Gelwain: +4G
35. Holdenmagronik: -48G
36. Miku_shikhu: -100G
37. Ayntlerz: -100G
38. Dogsandcatsand: -105G
39. Mrfripps: -117G
40. Sephdarkheart: -142G
41. Chavalyco: -150G
42. Kellios11: -196G
43. Killth3kid: -300G
44. Arumz: -300G
45. Capnchaos12: -300G
46. Aceof86: -300G
47. Morsigil: -300G
48. Ribbiks: -333G
49. Dasutin23: -347G
50. Cryptopsy70: -352G
51. Phi_sig: -400G
52. Maakur_: -400G
53. Hasterious: -400G
54. Colettemslp: -400G
55. Genzealot: -411G
56. Heybtw: -422G
57. 3ngag3: -582G
58. Seppu777: -755G
59. Skylerbunny: -927G
60. Just_here2: -1,000G
61. Meta_five: -1,000G
62. Douchetron: -1,000G
63. Khelor_: -1,000G
64. Thesabretoothe: -1,000G
65. Roofiepops: -1,058G
66. Blaster_bomb: -1,200G
67. Hotpocketsofficial: -1,500G
68. Thunderducker: -1,518G
69. Krombobreaker: -1,700G
70. Formerlydrdong: -1,891G
71. Threedope: -2,166G
72. Trogdorthememeinator: -2,200G
73. J2dabibbles: -2,400G
74. Lydian_c: -3,690G
75. Resjudicata3: -4,141G
76. Upvla: -12,666G
77. Mesmaster: -18,975G
78. Volgrathemoose: -52,669G
79. Snkey: -111,725G
