Final Bets: purple - 14 bets for 25,471G (60.7%, x0.65); brown - 15 bets for 16,475G (39.3%, x1.55)

purple bets:
Mesmaster: 10,000G (39.3%, 229,301G)
NicoSavoy: 6,000G (23.6%, 22,088G)
snkey: 3,900G (15.3%, 110,045G)
VolgraTheMoose: 1,001G (3.9%, 105,021G)
BirbBrainsBot: 1,000G (3.9%, 133,292G)
thunderducker: 951G (3.7%, 3,170G)
dogsandcatsand: 580G (2.3%, 580G)
seppu777: 555G (2.2%, 7,420G)
Lord_Gwarth: 500G (2.0%, 504G)
killth3kid: 300G (1.2%, 45,760G)
pepperbuster: 281G (1.1%, 281G)
resjudicata3: 200G (0.8%, 9,457G)
heyBtw: 193G (0.8%, 1,933G)
BartTradingCompany: 10G (0.0%, 102G)

brown bets:
Virilikus: 5,000G (30.3%, 223,153G)
old_overholt_: 2,000G (12.1%, 13,983G)
pplvee1: 1,671G (10.1%, 1,671G)
sinnyil2: 1,500G (9.1%, 32,254G)
SkylerBunny: 1,259G (7.6%, 1,259G)
DeathTaxesAndAnime: 1,032G (6.3%, 1,032G)
getthemoneyz: 1,000G (6.1%, 1,877,462G)
Thyrandaal: 802G (4.9%, 802G)
upvla: 789G (4.8%, 44,343G)
SephDarkheart: 730G (4.4%, 730G)
datadrivenbot: 200G (1.2%, 58,945G)
threedope: 169G (1.0%, 1,105G)
Lydian_C: 123G (0.7%, 6,963G)
AllInBot: 100G (0.6%, 100G)
CorpusCav: 100G (0.6%, 23,256G)
