Final Bets: white - 12 bets for 11,322G (53.9%, x0.86); purple - 17 bets for 9,689G (46.1%, x1.17)

white bets:
butterbelljedi: 2,557G (22.6%, 2,557G)
Virilikus: 2,000G (17.7%, 159,118G)
OneHundredFists: 1,912G (16.9%, 3,750G)
pplvee1: 1,133G (10.0%, 1,133G)
MagicBottle: 1,000G (8.8%, 23,758G)
killth3kid: 940G (8.3%, 940G)
Cryptopsy70: 552G (4.9%, 21,956G)
TheChainNerd: 500G (4.4%, 2,149G)
Aldrammech: 336G (3.0%, 336G)
HawkSick: 192G (1.7%, 192G)
datadrivenbot: 100G (0.9%, 43,287G)
ANFz: 100G (0.9%, 3,108G)

purple bets:
Thyrandaal: 3,000G (31.0%, 49,478G)
gooseyourself: 1,539G (15.9%, 3,079G)
KittymanAdvance: 1,223G (12.6%, 1,223G)
BirbBrainsBot: 998G (10.3%, 48,847G)
Laserman1000: 737G (7.6%, 7,537G)
EnemyController: 500G (5.2%, 602,682G)
MadnessR: 300G (3.1%, 6,317G)
Nizaha: 201G (2.1%, 34,188G)
Grandlanzer: 200G (2.1%, 8,019G)
getthemoneyz: 190G (2.0%, 958,696G)
benticore: 184G (1.9%, 3,696G)
AllInBot: 158G (1.6%, 158G)
maakur_: 100G (1.0%, 23,714G)
Evewho: 100G (1.0%, 4,826G)
dinin991: 100G (1.0%, 2,336G)
CosmicTactician: 100G (1.0%, 7,020G)
IphoneDarkness: 59G (0.6%, 4,251G)
