Final Bets: purple - 17 bets for 14,876G (45.2%, x1.21); champion - 14 bets for 18,017G (54.8%, x0.83)

purple bets:
KittymanAdvance: 4,832G (32.5%, 4,832G)
Thyrandaal: 2,670G (17.9%, 50,637G)
gooseyourself: 2,438G (16.4%, 4,877G)
Nizaha: 1,001G (6.7%, 34,757G)
MagicBottle: 1,000G (6.7%, 21,758G)
killth3kid: 440G (3.0%, 440G)
Baron_von_Scrub: 416G (2.8%, 416G)
gorgewall: 401G (2.7%, 21,744G)
CorpusCav: 400G (2.7%, 1,836G)
getthemoneyz: 396G (2.7%, 959,257G)
Flameatron: 220G (1.5%, 12,088G)
butterbelljedi: 212G (1.4%, 212G)
AllInBot: 100G (0.7%, 100G)
Grandlanzer: 100G (0.7%, 8,053G)
CosmicTactician: 100G (0.7%, 7,037G)
datadrivenbot: 100G (0.7%, 43,087G)
IphoneDarkness: 50G (0.3%, 4,220G)

champion bets:
cam_ATS: 3,001G (16.7%, 20,294G)
Virilikus: 3,000G (16.7%, 154,118G)
OneHundredFists: 2,478G (13.8%, 4,860G)
ko2q: 2,188G (12.1%, 2,188G)
skillomono: 2,000G (11.1%, 6,514G)
EnemyController: 1,500G (8.3%, 603,759G)
BirbBrainsBot: 1,000G (5.6%, 49,836G)
fenaen: 899G (5.0%, 39,448G)
Laserman1000: 700G (3.9%, 7,500G)
Cryptopsy70: 552G (3.1%, 21,404G)
twelfthrootoftwo: 300G (1.7%, 3,062G)
ZCKaiser: 200G (1.1%, 1,291G)
maakur_: 100G (0.6%, 23,995G)
TheChainNerd: 99G (0.5%, 1,835G)
