Final Bets: purple - 23 bets for 11,565G (58.4%, x0.71); brown - 15 bets for 8,250G (41.6%, x1.40)

purple bets:
Theseawolf1: 1,895G (16.4%, 1,895G)
TheChainNerd: 1,000G (8.6%, 5,170G)
Bryon_W: 1,000G (8.6%, 6,917G)
holyonline: 827G (7.2%, 827G)
HaateXIII: 750G (6.5%, 1,666G)
Pie108: 700G (6.1%, 25,053G)
Laserman1000: 649G (5.6%, 3,349G)
leakimiko: 600G (5.2%, 600G)
volgrathemoose: 501G (4.3%, 6,500G)
commandlistfgc: 500G (4.3%, 1,418G)
fenaen: 500G (4.3%, 16,561G)
datadrivenbot: 465G (4.0%, 506G)
Slowbrofist: 344G (3.0%, 344G)
CapnChaos12: 300G (2.6%, 2,256G)
mpghappiness: 280G (2.4%, 280G)
robespyah: 264G (2.3%, 264G)
killth3kid: 260G (2.2%, 11,922G)
HeroponThrawn: 250G (2.2%, 1,222G)
daveb_: 122G (1.1%, 3,065G)
Tekenu: 108G (0.9%, 108G)
Lodrak: 100G (0.9%, 5,208G)
ApplesauceBoss: 100G (0.9%, 5,274G)
LordMaxoss: 50G (0.4%, 1,601G)

brown bets:
sinnyil2: 1,200G (14.5%, 35,792G)
kai_shee: 1,001G (12.1%, 145,428G)
ShintaroNayaka: 1,000G (12.1%, 22,578G)
ungabunga_bot: 1,000G (12.1%, 152,877G)
BirbBrainsBot: 1,000G (12.1%, 183,737G)
maakur_: 512G (6.2%, 512G)
catfashions: 500G (6.1%, 5,315G)
Shalloween: 500G (6.1%, 31,948G)
nifboy: 475G (5.8%, 4,754G)
alrightbye: 260G (3.2%, 3,930G)
rico_flex: 248G (3.0%, 248G)
GrandmasterFrankerZ: 200G (2.4%, 3,379G)
getthemoneyz: 162G (2.0%, 501,640G)
Zachara: 142G (1.7%, 36,142G)
tmo50x: 50G (0.6%, 3,403G)
