Final Bets: purple - 12 bets for 9,202G (35.8%, x1.80); brown - 17 bets for 16,528G (64.2%, x0.56)

purple bets:
HeroponThrawn: 2,076G (22.6%, 2,076G)
deenglow: 1,500G (16.3%, 33,168G)
ColetteMSLP: 1,200G (13.0%, 18,910G)
AllInBot: 1,098G (11.9%, 1,098G)
ungabunga_bot: 1,000G (10.9%, 147,625G)
BirbBrainsBot: 1,000G (10.9%, 175,784G)
reinoe: 600G (6.5%, 600G)
jhazor: 228G (2.5%, 228G)
Cataphract116: 200G (2.2%, 5,252G)
loveyouallfriends: 100G (1.1%, 35,748G)
godkone: 100G (1.1%, 100G)
gdreaper1: 100G (1.1%, 1,431G)

brown bets:
PatSouI: 5,000G (30.3%, 17,424G)
YaBoy125: 3,701G (22.4%, 3,701G)
HaplessOne: 2,000G (12.1%, 72,175G)
ShintaroNayaka: 1,000G (6.1%, 16,843G)
DustyRelic: 1,000G (6.1%, 27,864G)
getthemoneyz: 824G (5.0%, 502,372G)
Lanshaft: 600G (3.6%, 600G)
Laserman1000: 600G (3.6%, 3,600G)
leakimiko: 600G (3.6%, 600G)
KasugaiRoastedPeas: 200G (1.2%, 6,301G)
Jeeboheebo: 200G (1.2%, 200G)
nedryerson01: 200G (1.2%, 1,615G)
Maeveen: 200G (1.2%, 2,340G)
Carledo: 103G (0.6%, 6,666G)
DrAntiSocial: 100G (0.6%, 3,077G)
maakur_: 100G (0.6%, 2,818G)
datadrivenbot: 100G (0.6%, 100G)
