Final Bets: red - 14 bets for 9,392G (51.4%, x0.95); green - 15 bets for 8,891G (48.6%, x1.06)

red bets:
Nickyfive: 2,232G (23.8%, 2,232G)
deenglow: 1,500G (16.0%, 31,668G)
BirbBrainsBot: 1,000G (10.6%, 174,784G)
YaBoy125: 1,000G (10.6%, 5,762G)
HaplessOne: 1,000G (10.6%, 73,289G)
Lanshaft: 934G (9.9%, 934G)
powergems: 300G (3.2%, 5,555G)
nedryerson01: 300G (3.2%, 1,726G)
Cataphract116: 300G (3.2%, 5,052G)
jhazor: 228G (2.4%, 228G)
KasugaiRoastedPeas: 200G (2.1%, 6,412G)
getthemoneyz: 170G (1.8%, 502,831G)
HeroponThrawn: 128G (1.4%, 128G)
godkone: 100G (1.1%, 100G)

green bets:
Bryon_W: 1,500G (16.9%, 8,792G)
loveyouallfriends: 1,500G (16.9%, 35,648G)
JumbocactuarX27: 1,000G (11.2%, 3,739G)
ColetteMSLP: 1,000G (11.2%, 17,710G)
waterwatereverywhere: 1,000G (11.2%, 2,166G)
leakimiko: 934G (10.5%, 934G)
reinoe: 600G (6.7%, 600G)
Jeeboheebo: 311G (3.5%, 311G)
Maeveen: 200G (2.2%, 2,451G)
gdreaper1: 200G (2.2%, 1,331G)
ungabunga_bot: 190G (2.1%, 146,625G)
datadrivenbot: 156G (1.8%, 156G)
AllInBot: 100G (1.1%, 100G)
maakur_: 100G (1.1%, 2,874G)
twelfthrootoftwo: 100G (1.1%, 5,147G)
