Final Bets: purple - 13 bets for 6,394G (47.0%, x1.13); brown - 9 bets for 7,217G (53.0%, x0.89)

purple bets:
Seaweed_B: 2,000G (31.3%, 32,514G)
braveboyblue: 1,500G (23.5%, 8,870G)
AllInBot: 852G (13.3%, 852G)
nifboy: 524G (8.2%, 524G)
Calajo: 275G (4.3%, 2,751G)
Lumberinjack: 208G (3.3%, 208G)
gorgewall: 201G (3.1%, 5,671G)
datadrivenbot: 200G (3.1%, 48,083G)
DesertWooder: 200G (3.1%, 3,681G)
Lydian_C: 123G (1.9%, 5,172G)
douchetron: 111G (1.7%, 7,859G)
DeathTaxesAndAnime: 100G (1.6%, 2,352G)
Wooplestein: 100G (1.6%, 1,260G)

brown bets:
Mesmaster: 1,623G (22.5%, 1,623G)
Evewho: 1,108G (15.4%, 1,108G)
BirbBrainsBot: 1,000G (13.9%, 198,001G)
ColetteMSLP: 1,000G (13.9%, 16,971G)
amiture: 1,000G (13.9%, 33,111G)
ShanksMcShiv: 628G (8.7%, 628G)
getthemoneyz: 502G (7.0%, 1,507,047G)
Aeriyah: 256G (3.5%, 1,056G)
gooblz: 100G (1.4%, 4,373G)
