Final Bets: blue - 18 bets for 9,785G (60.3%, x0.66); yellow - 11 bets for 6,444G (39.7%, x1.52)

blue bets:
Lydian_C: 1,200G (12.3%, 5,049G)
ShanksMcShiv: 1,184G (12.1%, 1,184G)
ColetteMSLP: 1,000G (10.2%, 17,857G)
BirbBrainsBot: 1,000G (10.2%, 198,887G)
nekojin: 1,000G (10.2%, 13,651G)
Mesmaster: 1,000G (10.2%, 3,061G)
getthemoneyz: 626G (6.4%, 1,507,492G)
pandasforsale: 548G (5.6%, 548G)
Aeriyah: 500G (5.1%, 1,283G)
UnderOneLight: 415G (4.2%, 415G)
DesertWooder: 300G (3.1%, 3,481G)
gorgewall: 201G (2.1%, 5,470G)
AllInBot: 200G (2.0%, 200G)
datadrivenbot: 200G (2.0%, 47,883G)
douchetron: 111G (1.1%, 7,748G)
TheseJeans: 100G (1.0%, 1,792G)
ANFz: 100G (1.0%, 56,366G)
terminusterminal: 100G (1.0%, 11,236G)

yellow bets:
amiture: 2,000G (31.0%, 33,997G)
Seaweed_B: 2,000G (31.0%, 30,514G)
blorpy_: 739G (11.5%, 9,241G)
OperatorTheory: 500G (7.8%, 17,974G)
Lythe_Caraker: 250G (3.9%, 175,704G)
Calajo: 247G (3.8%, 2,476G)
Evewho: 200G (3.1%, 2,090G)
reddwind_: 200G (3.1%, 6,795G)
Lumberinjack: 108G (1.7%, 108G)
Wooplestein: 100G (1.6%, 1,160G)
gooblz: 100G (1.6%, 4,462G)
