Final Bets: red - 28 bets for 19,536G (72.1%, x0.39); blue - 20 bets for 7,564G (27.9%, x2.58)

red bets:
DudeMonkey77: 4,964G (25.4%, 49,644G)
OmnibotGamma: 2,789G (14.3%, 2,789G)
Lord_Burrah: 2,000G (10.2%, 90,000G)
old_overholt_: 1,288G (6.6%, 1,288G)
kai_shee: 1,000G (5.1%, 39,970G)
TheRobbieRobster: 969G (5.0%, 969G)
UmaiJam: 962G (4.9%, 9,624G)
EnemyController: 750G (3.8%, 11,468G)
ApplesauceBoss: 624G (3.2%, 624G)
robespyah: 597G (3.1%, 597G)
nomoment: 500G (2.6%, 24,562G)
WireLord: 452G (2.3%, 452G)
gum44: 400G (2.0%, 2,204G)
fenixcrest: 356G (1.8%, 3,569G)
luminarii: 335G (1.7%, 6,941G)
TheGuesty: 300G (1.5%, 1,600G)
ugoplatamia: 200G (1.0%, 11,195G)
Anomandaris__: 138G (0.7%, 138G)
Jordache7K: 111G (0.6%, 14,771G)
greghatch: 100G (0.5%, 862G)
Nizaha: 100G (0.5%, 8,082G)
DeathTaxesAndAnime: 100G (0.5%, 10,425G)
Tougou: 100G (0.5%, 2,499G)
ANFz: 100G (0.5%, 22,291G)
datadrivenbot: 100G (0.5%, 16,498G)
maakur_: 100G (0.5%, 3,423G)
Maeveen: 100G (0.5%, 6,602G)
daveb_: 1G (0.0%, 1,522G)

blue bets:
BirbBrainsBot: 1,000G (13.2%, 94,717G)
bad1dea: 1,000G (13.2%, 309,242G)
Aldrammech: 881G (11.6%, 8,811G)
ko2q: 617G (8.2%, 617G)
lijarkh: 545G (7.2%, 545G)
nerdynel17: 510G (6.7%, 510G)
getthemoneyz: 438G (5.8%, 402,982G)
YaBoy125: 300G (4.0%, 3,544G)
mirapoix: 300G (4.0%, 1,748G)
Baron_von_Scrub: 252G (3.3%, 3,594G)
SeedSC: 250G (3.3%, 72,717G)
Pah_J: 228G (3.0%, 228G)
ZephyrTempest: 203G (2.7%, 16,866G)
Evewho: 200G (2.6%, 1,139G)
darnitkevin: 200G (2.6%, 200G)
V3rdeni: 200G (2.6%, 542G)
helpimabug: 140G (1.9%, 2,540G)
portmanteur: 100G (1.3%, 100G)
kingchadking: 100G (1.3%, 24,310G)
bpc2163: 100G (1.3%, 5,619G)
