Final Bets: red - 25 bets for 26,928G (69.9%, x0.43); blue - 18 bets for 11,612G (30.1%, x2.32)

red bets:
Rytor: 5,308G (19.7%, 10,409G)
HaateXIII: 3,203G (11.9%, 6,406G)
poorest_hobo: 2,680G (10.0%, 2,680G)
CosmicTactician: 2,000G (7.4%, 50,166G)
Virilikus: 2,000G (7.4%, 226,236G)
LeoNightFury: 1,595G (5.9%, 1,595G)
KasugaiRoastedPeas: 1,111G (4.1%, 5,464G)
resjudicata3: 1,000G (3.7%, 12,745G)
latebit: 1,000G (3.7%, 45,115G)
Greggernaut: 1,000G (3.7%, 7,020G)
E_Ballard: 840G (3.1%, 112,447G)
Spartan_Paladin: 700G (2.6%, 20,261G)
Zagorsek: 616G (2.3%, 616G)
highelectricaltemperature: 600G (2.2%, 4,701G)
Shalloween: 500G (1.9%, 19,444G)
thebluesman: 500G (1.9%, 7,463G)
Smashy: 500G (1.9%, 6,745G)
douchetron: 384G (1.4%, 384G)
Snowfats: 308G (1.1%, 308G)
krombobreaker: 260G (1.0%, 7,841G)
killth3kid: 250G (0.9%, 6,143G)
datadrivenbot: 200G (0.7%, 65,235G)
muffin_money: 150G (0.6%, 5,437G)
Lydian_C: 123G (0.5%, 25,580G)
Blackpapalink: 100G (0.4%, 345G)

blue bets:
Thyrandaal: 5,000G (43.1%, 43,272G)
sinnyil2: 1,084G (9.3%, 1,084G)
BirbBrainsBot: 1,000G (8.6%, 65,400G)
getthemoneyz: 1,000G (8.6%, 1,815,387G)
Lord_Gwarth: 777G (6.7%, 3,212G)
nekojin: 528G (4.5%, 528G)
technominari: 500G (4.3%, 83,655G)
Laserman1000: 406G (3.5%, 1,606G)
arumz: 250G (2.2%, 4,992G)
Twisted_Nutsatchel: 200G (1.7%, 20,318G)
3ngag3: 159G (1.4%, 1,159G)
Yangusburger: 108G (0.9%, 108G)
HS39: 100G (0.9%, 2,338G)
ZPawZ: 100G (0.9%, 100G)
pepperbuster: 100G (0.9%, 463G)
RobotOcelot: 100G (0.9%, 1,410G)
skillomono: 100G (0.9%, 3,610G)
DHaveWord: 100G (0.9%, 1,899G)
