Final Bets: white - 25 bets for 34,430G (53.5%, x0.87); champion - 13 bets for 29,929G (46.5%, x1.15)

white bets:
Thyrandaal: 7,000G (20.3%, 48,362G)
Mesmaster: 5,000G (14.5%, 112,680G)
Zagorsek: 3,199G (9.3%, 3,199G)
BaronHaynes: 3,000G (8.7%, 56,036G)
Lemonjohns: 2,686G (7.8%, 2,686G)
Rytor: 2,500G (7.3%, 14,558G)
latebit: 1,500G (4.4%, 43,307G)
sinnyil2: 1,476G (4.3%, 2,952G)
Aldrammech: 1,000G (2.9%, 20,454G)
BirbBrainsBot: 1,000G (2.9%, 68,497G)
KasugaiRoastedPeas: 891G (2.6%, 891G)
E_Ballard: 840G (2.4%, 110,984G)
Wonser: 624G (1.8%, 624G)
omegasuspekt: 578G (1.7%, 1,157G)
Spartan_Paladin: 500G (1.5%, 22,022G)
Blackpapalink: 500G (1.5%, 1,146G)
Shalloween: 500G (1.5%, 20,708G)
Greggernaut: 400G (1.2%, 4,899G)
arumz: 300G (0.9%, 5,771G)
krombobreaker: 260G (0.8%, 8,680G)
CosmicTactician: 200G (0.6%, 51,032G)
datadrivenbot: 200G (0.6%, 64,866G)
RobotOcelot: 120G (0.3%, 120G)
Yangusburger: 108G (0.3%, 108G)
getthemoneyz: 48G (0.1%, 1,814,354G)

champion bets:
Virilikus: 15,000G (50.1%, 215,098G)
Forkmore: 7,777G (26.0%, 51,801G)
bigbongsmoker: 3,085G (10.3%, 3,085G)
Firesheath: 928G (3.1%, 928G)
thebluesman: 645G (2.2%, 9,645G)
Snowfats: 535G (1.8%, 535G)
poorest_hobo: 532G (1.8%, 532G)
Laserman1000: 484G (1.6%, 2,384G)
Lord_Gwarth: 337G (1.1%, 1,657G)
JherrichoWulf: 200G (0.7%, 200G)
resjudicata3: 200G (0.7%, 11,724G)
Chuckolator: 106G (0.4%, 6,908G)
RunicMagus: 100G (0.3%, 3,498G)
