Final Bets: red - 39 bets for 23,485G (72.8%, x0.37); blue - 19 bets for 8,759G (27.2%, x2.68)

red bets:
greghatch: 4,000G (17.0%, 10,262G)
Nickyfive: 1,562G (6.7%, 1,562G)
Tithonus: 1,326G (5.6%, 1,326G)
Lodrak: 1,319G (5.6%, 2,638G)
DavenIII: 1,125G (4.8%, 1,125G)
kai_shee: 1,000G (4.3%, 45,407G)
maakur_: 1,000G (4.3%, 57,593G)
BirbBrainsBot: 1,000G (4.3%, 194,207G)
bad1dea: 1,000G (4.3%, 186,565G)
Vampire_Killer: 1,000G (4.3%, 16,529G)
red__lancer: 1,000G (4.3%, 10,913G)
ra1kia: 750G (3.2%, 2,403G)
getthemoneyz: 652G (2.8%, 356,253G)
Shalloween: 600G (2.6%, 32,663G)
friendsquirrel: 516G (2.2%, 516G)
Bryon_W: 510G (2.2%, 510G)
NewbGaming: 500G (2.1%, 3,893G)
Goust18: 500G (2.1%, 17,721G)
Lazerkick: 500G (2.1%, 12,566G)
fenaen: 460G (2.0%, 460G)
ricky_ortease: 300G (1.3%, 1,168G)
gameman733: 300G (1.3%, 2,247G)
luminarii: 300G (1.3%, 9,100G)
ZephyrTempest: 279G (1.2%, 2,548G)
rechaun: 272G (1.2%, 272G)
JumbocactuarX27: 271G (1.2%, 271G)
ugoplatamia: 200G (0.9%, 3,528G)
ko2q: 183G (0.8%, 183G)
ketabrakbemos: 129G (0.5%, 863G)
ungabunga_bot: 114G (0.5%, 3,243G)
wackyzachyy: 112G (0.5%, 112G)
boggart742: 104G (0.4%, 104G)
AllInBot: 100G (0.4%, 100G)
Heroebal: 100G (0.4%, 3,741G)
Tougou: 100G (0.4%, 7,244G)
RuneS_77: 100G (0.4%, 4,909G)
Nizaha: 100G (0.4%, 9,113G)
datadrivenbot: 100G (0.4%, 15,685G)
daveb_: 1G (0.0%, 2,144G)

blue bets:
RyuTsuno: 1,962G (22.4%, 1,962G)
typicalfanboy: 1,846G (21.1%, 1,846G)
TheChainNerd: 1,000G (11.4%, 12,594G)
inzo_bettingbot: 703G (8.0%, 3,519G)
Axelrod: 660G (7.5%, 22,032G)
Dothan89: 400G (4.6%, 1,515G)
LDSkinny: 380G (4.3%, 380G)
Baron_von_Scrub: 366G (4.2%, 366G)
genoguy: 304G (3.5%, 304G)
roqqqpsi: 222G (2.5%, 1,765G)
Bushdog9029: 116G (1.3%, 116G)
Verxl: 100G (1.1%, 4,274G)
carchan131: 100G (1.1%, 3,833G)
rubenflonne: 100G (1.1%, 4,825G)
Nerdy1: 100G (1.1%, 100G)
Aislingeach: 100G (1.1%, 6,449G)
BadBlanket: 100G (1.1%, 2,425G)
negativedivide: 100G (1.1%, 604G)
Oshimi12: 100G (1.1%, 1,593G)
