Final Bets: green - 36 bets for 18,614G (37.7%, x1.65); purple - 21 bets for 30,738G (62.3%, x0.61)

green bets:
Aislingeach: 3,585G (19.3%, 4,861G)
Zbgs: 1,500G (8.1%, 34,278G)
negativedivide: 1,023G (5.5%, 1,023G)
DudeMonkey77: 1,000G (5.4%, 47,185G)
Soltaker21: 1,000G (5.4%, 9,836G)
BirbBrainsBot: 1,000G (5.4%, 194,227G)
bad1dea: 1,000G (5.4%, 186,585G)
Winterharte: 1,000G (5.4%, 9,184G)
greghatch: 942G (5.1%, 1,070G)
Lodrak: 660G (3.5%, 660G)
DavenIII: 512G (2.8%, 512G)
juno_vivi: 500G (2.7%, 2,206G)
SeriousFaceFace: 500G (2.7%, 11,323G)
Axelrod: 480G (2.6%, 24,035G)
luminarii: 362G (1.9%, 8,302G)
Bryon_W: 324G (1.7%, 324G)
genoguy: 304G (1.6%, 304G)
fenaen: 296G (1.6%, 296G)
ra1kia: 250G (1.3%, 1,637G)
JumbocactuarX27: 236G (1.3%, 236G)
CamelCash007: 212G (1.1%, 212G)
ZephyrTempest: 210G (1.1%, 2,726G)
ugoplatamia: 200G (1.1%, 4,026G)
ricky_ortease: 200G (1.1%, 2,433G)
Athropos1: 200G (1.1%, 1,391G)
getthemoneyz: 152G (0.8%, 356,131G)
ko2q: 116G (0.6%, 116G)
AllInBot: 100G (0.5%, 100G)
Nizaha: 100G (0.5%, 4,352G)
TheFallenMagi: 100G (0.5%, 100G)
Aeolus_000: 100G (0.5%, 3,461G)
Lythe_Caraker: 100G (0.5%, 45,298G)
deesignal: 100G (0.5%, 4,427G)
boggart742: 100G (0.5%, 1,484G)
SeedSC: 100G (0.5%, 94,730G)
silentperogy: 50G (0.3%, 8,374G)

purple bets:
typicalfanboy: 13,627G (44.3%, 13,627G)
Nickyfive: 4,884G (15.9%, 4,884G)
rechaun: 2,643G (8.6%, 2,643G)
omegasuspekt: 2,611G (8.5%, 5,223G)
Shalloween: 2,000G (6.5%, 29,879G)
inzo_bettingbot: 1,000G (3.3%, 9,424G)
TheChainNerd: 1,000G (3.3%, 16,972G)
HaateXIII: 596G (1.9%, 5,820G)
reinoe: 460G (1.5%, 460G)
RyuTsuno: 300G (1.0%, 6,929G)
tone_t: 219G (0.7%, 219G)
PetitFoulard: 212G (0.7%, 212G)
Verxl: 200G (0.7%, 5,180G)
ungabunga_bot: 195G (0.6%, 3,649G)
Oshimi12: 191G (0.6%, 382G)
Tougou: 100G (0.3%, 7,371G)
BadBlanket: 100G (0.3%, 2,537G)
mirapoix: 100G (0.3%, 3,227G)
Nerdy1: 100G (0.3%, 100G)
RughSontos: 100G (0.3%, 1,570G)
datadrivenbot: 100G (0.3%, 15,478G)
