Final Bets: purple - 28 bets for 41,427G (71.3%, x0.40); champion - 33 bets for 16,716G (28.7%, x2.48)

purple bets:
typicalfanboy: 21,879G (52.8%, 21,879G)
rechaun: 4,244G (10.2%, 4,244G)
omegasuspekt: 3,404G (8.2%, 6,808G)
Athropos1: 1,191G (2.9%, 1,191G)
Axelrod: 1,177G (2.8%, 23,555G)
TheChainNerd: 1,000G (2.4%, 17,578G)
inzo_bettingbot: 1,000G (2.4%, 10,030G)
Shalloween: 1,000G (2.4%, 31,090G)
DudeMonkey77: 1,000G (2.4%, 46,185G)
SeriousFaceFace: 1,000G (2.4%, 10,823G)
HaateXIII: 757G (1.8%, 6,181G)
reinoe: 739G (1.8%, 739G)
PetitFoulard: 340G (0.8%, 340G)
luminarii: 324G (0.8%, 7,940G)
genoguy: 304G (0.7%, 304G)
ricky_ortease: 300G (0.7%, 2,213G)
CamelCash007: 212G (0.5%, 212G)
Verxl: 200G (0.5%, 5,301G)
SeedSC: 200G (0.5%, 94,630G)
DaveStrider55: 200G (0.5%, 2,196G)
Nerdy1: 161G (0.4%, 161G)
HRak050: 152G (0.4%, 152G)
ungabunga_bot: 143G (0.3%, 3,767G)
PlatinumPlume: 100G (0.2%, 6,858G)
Nizaha: 100G (0.2%, 4,252G)
Tougou: 100G (0.2%, 7,432G)
Lythe_Caraker: 100G (0.2%, 45,198G)
BadBlanket: 100G (0.2%, 2,598G)

champion bets:
Soltaker21: 4,455G (26.7%, 8,736G)
leakimiko: 2,005G (12.0%, 13,370G)
Aislingeach: 1,276G (7.6%, 1,276G)
BirbBrainsBot: 1,000G (6.0%, 193,227G)
bad1dea: 1,000G (6.0%, 185,585G)
ugoplatamia: 765G (4.6%, 3,826G)
coralreeferz: 750G (4.5%, 16,439G)
Lodrak: 660G (3.9%, 660G)
DavenIII: 512G (3.1%, 512G)
Oshimi12: 498G (3.0%, 498G)
Aeolus_000: 400G (2.4%, 3,361G)
ketabrakbemos: 300G (1.8%, 2,494G)
silentperogy: 300G (1.8%, 8,324G)
fenaen: 296G (1.8%, 296G)
roofiepops: 288G (1.7%, 288G)
ZephyrTempest: 212G (1.3%, 1,516G)
negativedivide: 204G (1.2%, 204G)
RyuTsuno: 200G (1.2%, 7,111G)
Winterharte: 200G (1.2%, 8,184G)
ar_tactic: 150G (0.9%, 23,765G)
greghatch: 128G (0.8%, 128G)
ko2q: 116G (0.7%, 116G)
AllInBot: 100G (0.6%, 100G)
Kellios11: 100G (0.6%, 7,951G)
TheFallenMagi: 100G (0.6%, 100G)
boggart742: 100G (0.6%, 1,384G)
RunicMagus: 100G (0.6%, 17,409G)
rubenflonne: 100G (0.6%, 3,393G)
datadrivenbot: 100G (0.6%, 15,539G)
Mechapope1: 100G (0.6%, 4,762G)
deesignal: 100G (0.6%, 4,327G)
inzo24: 100G (0.6%, 1,494G)
daveb_: 1G (0.0%, 2,143G)
