Final Bets: black - 12 bets for 4,368G (18.9%, x4.29); purple - 15 bets for 18,727G (81.1%, x0.23)

black bets:
toka222: 1,000G (22.9%, 67,031G)
datadrivenbot: 972G (22.3%, 57,325G)
Creggers: 500G (11.4%, 19,962G)
Firesheath: 476G (10.9%, 476G)
randgridr: 320G (7.3%, 11,528G)
getthemoneyz: 286G (6.5%, 1,272,744G)
dem0nj0ns: 232G (5.3%, 232G)
BlueAbs: 212G (4.9%, 212G)
skipsandwiches: 116G (2.7%, 7,030G)
Skincrawler: 104G (2.4%, 104G)
lyans00: 100G (2.3%, 2,897G)
Othatmattkid: 50G (1.1%, 1,858G)

purple bets:
RaIshtar: 5,000G (26.7%, 36,845G)
Shalloween: 5,000G (26.7%, 47,193G)
LDSkinny: 2,000G (10.7%, 21,732G)
AllInBot: 1,583G (8.5%, 1,583G)
TheChainNerd: 1,000G (5.3%, 34,933G)
BirbBrainsBot: 1,000G (5.3%, 148,986G)
Laserman1000: 687G (3.7%, 26,687G)
Nizaha: 544G (2.9%, 5,787G)
joewcarson: 500G (2.7%, 35,318G)
furrytomahawkk: 400G (2.1%, 1,354G)
DustBirdEX: 312G (1.7%, 1,192G)
gorgewall: 201G (1.1%, 1,837G)
Mysteriousdewd: 200G (1.1%, 6,710G)
Rytor: 200G (1.1%, 1,649G)
fluffskull: 100G (0.5%, 3,382G)
