Final Bets: green - 10 bets for 15,291G (59.0%, x0.69); yellow - 17 bets for 10,620G (41.0%, x1.44)

green bets:
CorpusCav: 11,000G (71.9%, 21,507G)
UmaiJam: 1,353G (8.8%, 1,353G)
twelfthrootoftwo: 1,000G (6.5%, 13,874G)
BirbBrainsBot: 1,000G (6.5%, 138,955G)
getthemoneyz: 388G (2.5%, 788,288G)
Meta_Five: 200G (1.3%, 13,820G)
ApplesauceBoss: 100G (0.7%, 3,016G)
Flameatron: 100G (0.7%, 3,236G)
Evewho: 100G (0.7%, 4,474G)
Nohurty: 50G (0.3%, 2,561G)

yellow bets:
DeathTaxesAndAnime: 1,525G (14.4%, 1,525G)
toka222: 1,200G (11.3%, 120,645G)
volgrathemoose: 1,138G (10.7%, 1,138G)
Baron_von_Scrub: 1,111G (10.5%, 25,787G)
reinoe: 1,000G (9.4%, 52,211G)
Vagrance: 936G (8.8%, 3,123G)
Laserman1000: 715G (6.7%, 31,915G)
roofiepops: 669G (6.3%, 669G)
nifboy: 500G (4.7%, 8,481G)
theshinyakuma: 368G (3.5%, 368G)
Ring_Wyrm: 361G (3.4%, 361G)
Saldarin: 308G (2.9%, 308G)
HaateXIII: 250G (2.4%, 3,237G)
the_leezy: 239G (2.3%, 239G)
OneHundredFists: 100G (0.9%, 1,428G)
Grandlanzer: 100G (0.9%, 3,016G)
datadrivenbot: 100G (0.9%, 29,236G)
