Final Bets: brown - 12 bets for 5,938G (43.4%, x1.31); champion - 23 bets for 7,753G (56.6%, x0.77)

brown bets:
sinnyil2: 1,248G (21.0%, 1,248G)
BirbBrainsBot: 1,000G (16.8%, 142,668G)
Laserman1000: 956G (16.1%, 36,956G)
gorgewall: 690G (11.6%, 1,353G)
Baron_von_Scrub: 474G (8.0%, 28,047G)
benticore: 400G (6.7%, 4,285G)
the_leezy: 316G (5.3%, 316G)
OneHundredFists: 300G (5.1%, 300G)
HaateXIII: 250G (4.2%, 5,389G)
Huriel_Iskander: 200G (3.4%, 636G)
CosmicTactician: 100G (1.7%, 1,892G)
getthemoneyz: 4G (0.1%, 789,331G)

champion bets:
TheChainNerd: 1,500G (19.3%, 35,000G)
twelfthrootoftwo: 1,000G (12.9%, 9,514G)
Nizaha: 501G (6.5%, 9,977G)
volgrathemoose: 500G (6.4%, 2,287G)
CT_5_Holy: 490G (6.3%, 490G)
potgodtopdog: 444G (5.7%, 40,394G)
roofiepops: 440G (5.7%, 3,112G)
mattcorn7: 316G (4.1%, 316G)
d4rr1n: 300G (3.9%, 3,854G)
CapnChaos12: 300G (3.9%, 14,208G)
Flameatron: 300G (3.9%, 3,672G)
Polygamic: 254G (3.3%, 254G)
Evewho: 200G (2.6%, 4,874G)
ar_tactic: 200G (2.6%, 53,293G)
L2_Sentinel: 200G (2.6%, 36,330G)
theshinyakuma: 108G (1.4%, 108G)
ApplesauceBoss: 100G (1.3%, 3,629G)
DeathTaxesAndAnime: 100G (1.3%, 2,414G)
TinchoT: 100G (1.3%, 10,033G)
Ring_Wyrm: 100G (1.3%, 830G)
datadrivenbot: 100G (1.3%, 29,353G)
CorpusCav: 100G (1.3%, 5,736G)
fluffskull: 100G (1.3%, 788G)
