Final Bets: yellow - 18 bets for 15,255G (69.6%, x0.44); white - 16 bets for 6,670G (30.4%, x2.29)

yellow bets:
Virilikus: 5,000G (32.8%, 197,165G)
mindblownnnn: 2,000G (13.1%, 10,676G)
latebit: 1,540G (10.1%, 1,540G)
SkylerBunny: 1,200G (7.9%, 16,188G)
nekojin: 1,083G (7.1%, 1,083G)
Mushufasa_: 1,000G (6.6%, 97,360G)
SephDarkheart: 710G (4.7%, 710G)
Runeseeker22: 629G (4.1%, 629G)
ValensEXP_: 376G (2.5%, 4,826G)
Lord_Gwarth: 337G (2.2%, 3,796G)
Zerguzen: 280G (1.8%, 280G)
killabandaid: 200G (1.3%, 1,063G)
ribbiks: 200G (1.3%, 4,311G)
resjudicata3: 200G (1.3%, 4,337G)
datadrivenbot: 200G (1.3%, 76,707G)
MemoriesofFinal: 100G (0.7%, 40,423G)
SirNotEdu: 100G (0.7%, 433G)
ShadowNinja25: 100G (0.7%, 2,668G)

white bets:
ApplesNP: 1,000G (15.0%, 12,082G)
BirbBrainsBot: 1,000G (15.0%, 87,770G)
krombobreaker: 700G (10.5%, 11,056G)
LDSkinny: 680G (10.2%, 680G)
Shalloween: 648G (9.7%, 648G)
CorpusCav: 400G (6.0%, 7,337G)
Genkidou: 400G (6.0%, 2,057G)
AllInBot: 366G (5.5%, 366G)
Smashy: 352G (5.3%, 2,048G)
getthemoneyz: 300G (4.5%, 2,046,183G)
LuckyLuckLuc2: 222G (3.3%, 4,454G)
silentkaster: 201G (3.0%, 2,732G)
gorgewall: 101G (1.5%, 3,343G)
nhammen: 100G (1.5%, 280,623G)
galkife: 100G (1.5%, 80,026G)
GiggleStik: 100G (1.5%, 4,969G)
