Final Bets: black - 7 bets for 3,675G (64.3%, x0.56); purple - 2 bets for 2,040G (35.7%, x1.80)

black bets:
UmaiJam: 1,700G (46.3%, 75,601G)
BirbBrainsBot: 1,000G (27.2%, 80,240G)
getthemoneyz: 404G (11.0%, 1,206,422G)
DustBirdEX: 234G (6.4%, 2,855G)
datadrivenbot: 200G (5.4%, 55,773G)
martymcfly2021: 136G (3.7%, 136G)
reddwind_: 1G (0.0%, 49,959G)

purple bets:
DeathTaxesAndAnime: 1,540G (75.5%, 3,021G)
opHendoslice: 500G (24.5%, 2,378G)
