Final Bets: red - 8 bets for 3,993G (52.6%, x0.90); purple - 2 bets for 3,603G (47.4%, x1.11)

red bets:
UmaiJam: 1,700G (42.6%, 73,901G)
opHendoslice: 1,000G (25.0%, 3,279G)
RaIshtar: 500G (12.5%, 6,442G)
DustBirdEX: 234G (5.9%, 2,621G)
datadrivenbot: 200G (5.0%, 55,573G)
getthemoneyz: 190G (4.8%, 1,206,018G)
martymcfly2021: 136G (3.4%, 136G)
BirbBrainsBot: 33G (0.8%, 79,240G)

purple bets:
DeathTaxesAndAnime: 2,955G (82.0%, 5,795G)
Evewho: 648G (18.0%, 648G)
