Final Bets: red - 15 bets for 8,572G (34.8%, x1.87); champion - 16 bets for 16,027G (65.2%, x0.53)

red bets:
Zeroroute: 2,331G (27.2%, 2,331G)
SkylerBunny: 1,836G (21.4%, 3,600G)
BirbBrainsBot: 1,000G (11.7%, 33,268G)
Lord_Gwarth: 1,000G (11.7%, 4,685G)
JumbocactuarX27: 628G (7.3%, 628G)
SephDarkheart: 600G (7.0%, 110,330G)
lowlf: 328G (3.8%, 7,344G)
WhiteTigress: 200G (2.3%, 6,210G)
getthemoneyz: 148G (1.7%, 1,659,379G)
MinBetBot: 100G (1.2%, 8,056G)
AllInBot: 100G (1.2%, 100G)
Raixelol: 100G (1.2%, 8,036G)
mirapoix: 100G (1.2%, 2,775G)
brenogarwin: 100G (1.2%, 1,852G)
neerrm: 1G (0.0%, 16,467G)

champion bets:
xBizzy: 3,939G (24.6%, 7,724G)
JonnyCue: 2,529G (15.8%, 2,529G)
E_Ballard: 1,848G (11.5%, 1,848G)
dogsandcatsand: 1,820G (11.4%, 3,569G)
douchetron: 1,795G (11.2%, 1,795G)
Sairentozon7: 1,000G (6.2%, 26,073G)
MagicBottle: 592G (3.7%, 592G)
DLJuggernaut: 500G (3.1%, 3,282G)
braveboyblue: 500G (3.1%, 11,482G)
Armorgames1: 419G (2.6%, 4,192G)
skipsandwiches: 336G (2.1%, 1,434G)
CapnChaos12: 300G (1.9%, 13,353G)
datadrivenbot: 200G (1.2%, 70,826G)
ff7g00ru: 148G (0.9%, 148G)
Valgram: 100G (0.6%, 1,489G)
Chuckolator: 1G (0.0%, 2,933G)
