Final Bets: black - 4 bets for 18,600G (48.4%, x1.07); champion - 19 bets for 19,862G (51.6%, x0.94)

black bets:
KyleWonToLiveForever: 8,733G (47.0%, 8,733G)
E_Ballard: 8,267G (44.4%, 8,267G)
SkylerBunny: 1,400G (7.5%, 594,583G)
dinin991: 200G (1.1%, 972G)

champion bets:
conradharlock: 4,230G (21.3%, 4,230G)
EnemyController: 2,000G (10.1%, 1,235,694G)
extinctrational: 2,000G (10.1%, 10,463G)
gooseyourself: 1,533G (7.7%, 1,533G)
HaateXIII: 1,500G (7.6%, 18,114G)
Nizaha: 1,001G (5.0%, 14,473G)
Evewho: 1,000G (5.0%, 7,389G)
Digitalsocrates: 1,000G (5.0%, 27,902G)
twelfthrootoftwo: 1,000G (5.0%, 8,255G)
BirbBrainsBot: 1,000G (5.0%, 86,330G)
getthemoneyz: 756G (3.8%, 1,022,764G)
prince_rogers_nelson_: 600G (3.0%, 600G)
DavenIII: 600G (3.0%, 600G)
just_here2: 500G (2.5%, 9,164G)
VolgraTheMoose: 400G (2.0%, 1,613G)
soren_of_tyto: 292G (1.5%, 292G)
silentkaster: 200G (1.0%, 8,300G)
ar_tactic: 150G (0.8%, 54,864G)
datadrivenbot: 100G (0.5%, 45,272G)
