Final Bets: blue - 11 bets for 6,599G (38.7%, x1.58); black - 16 bets for 10,437G (61.3%, x0.63)

blue bets:
Sairentozon7: 2,024G (30.7%, 2,024G)
TheChainNerd: 1,500G (22.7%, 21,914G)
DeathTaxesAndAnime: 1,248G (18.9%, 2,448G)
Nickyfive: 600G (9.1%, 600G)
DLJuggernaut: 420G (6.4%, 420G)
pplvee1: 236G (3.6%, 236G)
zepharoth89: 170G (2.6%, 1,706G)
Firesheath: 101G (1.5%, 2,377G)
nifboy: 100G (1.5%, 6,312G)
Tougou: 100G (1.5%, 2,623G)
Vics: 100G (1.5%, 2,283G)

black bets:
toka222: 5,000G (47.9%, 115,969G)
gogofromtogo: 1,000G (9.6%, 5,837G)
vorap: 900G (8.6%, 117,104G)
Angelomortis: 750G (7.2%, 750G)
EnemyController: 500G (4.8%, 530,109G)
fenaen: 400G (3.8%, 16,911G)
BirbBrainsBot: 391G (3.7%, 391G)
CapnChaos12: 300G (2.9%, 29,212G)
wyonearth: 300G (2.9%, 3,294G)
Lythe_Caraker: 250G (2.4%, 121,800G)
brokenknight201: 200G (1.9%, 890G)
lastly: 100G (1.0%, 15,965G)
s_o_b_e_q: 100G (1.0%, 4,815G)
datadrivenbot: 100G (1.0%, 32,881G)
E_Ballard: 100G (1.0%, 2,585G)
getthemoneyz: 46G (0.4%, 801,406G)
