Final Bets: green - 12 bets for 5,561G (29.0%, x2.45); yellow - 3 bets for 13,644G (71.0%, x0.41)

green bets:
UmaiJam: 1,600G (28.8%, 65,073G)
BirbBrainsBot: 1,000G (18.0%, 64,711G)
Chihuahua_Charity: 596G (10.7%, 596G)
getthemoneyz: 586G (10.5%, 1,384,350G)
Vaxaldan: 500G (9.0%, 14,618G)
douchetron: 292G (5.3%, 292G)
Hirameki85: 224G (4.0%, 224G)
NeonTarget: 212G (3.8%, 212G)
gorgewall: 201G (3.6%, 11,769G)
datadrivenbot: 200G (3.6%, 41,358G)
AugnosMusic: 100G (1.8%, 100G)
renkei_fukai: 50G (0.9%, 100G)

yellow bets:
evontno: 10,000G (73.3%, 18,288G)
AllInBot: 2,605G (19.1%, 2,605G)
superdevon1: 1,039G (7.6%, 34,662G)
