Final Bets: blue - 19 bets for 11,681G (47.2%, x1.12); yellow - 19 bets for 13,062G (52.8%, x0.89)

blue bets:
DeathTaxesAndAnime: 1,847G (15.8%, 3,623G)
SkylerBunny: 1,400G (12.0%, 512,398G)
UmaiJam: 1,200G (10.3%, 28,521G)
BirbBrainsBot: 1,000G (8.6%, 112,277G)
Zbgs: 1,000G (8.6%, 11,771G)
MagicBottle: 954G (8.2%, 954G)
DLJuggernaut: 751G (6.4%, 1,473G)
casteia: 500G (4.3%, 2,447G)
sososteve: 500G (4.3%, 3,009G)
killth3kid: 444G (3.8%, 1,998G)
Lemonjohns: 435G (3.7%, 435G)
sparker9: 400G (3.4%, 5,550G)
twelfthrootoftwo: 300G (2.6%, 10,899G)
escobro: 250G (2.1%, 695G)
KasugaiRoastedPeas: 200G (1.7%, 17,173G)
Evewho: 200G (1.7%, 8,523G)
ANFz: 100G (0.9%, 5,105G)
Firesheath: 100G (0.9%, 16,729G)
Thyrandaal: 100G (0.9%, 10,042G)

yellow bets:
reinoe: 3,741G (28.6%, 3,741G)
sukotsuto: 2,000G (15.3%, 27,197G)
Breakdown777: 1,032G (7.9%, 2,065G)
Mesmaster: 1,000G (7.7%, 113,612G)
Seaweed_B: 933G (7.1%, 933G)
neerrm: 888G (6.8%, 49,168G)
DaKoopa49: 600G (4.6%, 2,018G)
RampagingRobot: 500G (3.8%, 1,117G)
Mudrockk: 500G (3.8%, 1,894G)
Tithonus: 340G (2.6%, 340G)
NightwolfXVI: 324G (2.5%, 324G)
ArashiKurobara: 216G (1.7%, 216G)
GladiatorLupe: 200G (1.5%, 8,610G)
CosmicTactician: 200G (1.5%, 22,294G)
dem0nj0ns: 200G (1.5%, 200G)
superdevon1: 166G (1.3%, 1,661G)
datadrivenbot: 100G (0.8%, 47,576G)
Quadh0nk: 100G (0.8%, 5,360G)
getthemoneyz: 22G (0.2%, 1,105,976G)
