Final Bets: purple - 18 bets for 6,214G (60.3%, x0.66); brown - 7 bets for 4,098G (39.7%, x1.52)

purple bets:
BirbBrainsBot: 1,000G (16.1%, 164,171G)
Draconis345: 1,000G (16.1%, 51,013G)
powergems: 979G (15.8%, 979G)
fenaen: 600G (9.7%, 25,678G)
Spuzzmocker: 596G (9.6%, 596G)
Sans_from_Snowdin: 264G (4.2%, 264G)
Anak761: 250G (4.0%, 9,204G)
Aldrammech: 200G (3.2%, 883G)
reddwind_: 200G (3.2%, 4,103G)
KasugaiRoastedPeas: 200G (3.2%, 2,356G)
getthemoneyz: 172G (2.8%, 843,454G)
Thyrandaal: 152G (2.4%, 152G)
DejaPoo21: 150G (2.4%, 8,242G)
gorgewall: 101G (1.6%, 989G)
Celdia: 100G (1.6%, 4,862G)
datadrivenbot: 100G (1.6%, 35,671G)
DudeMonkey77: 100G (1.6%, 4,532G)
IphoneDarkness: 50G (0.8%, 1,726G)

brown bets:
BoneMiser: 1,094G (26.7%, 1,094G)
ThePineappleSalesman: 783G (19.1%, 783G)
superdevon1: 625G (15.3%, 6,255G)
letdowncity: 500G (12.2%, 19,333G)
joewcarson: 500G (12.2%, 31,807G)
Meta_Five: 396G (9.7%, 396G)
prince_rogers_nelson_: 200G (4.9%, 2,300G)
