Final Bets: black - 12 bets for 7,799G (37.8%, x1.64); purple - 16 bets for 12,823G (62.2%, x0.61)

black bets:
Evewho: 1,738G (22.3%, 3,408G)
Grimmace45: 1,389G (17.8%, 27,797G)
ACSpree: 1,272G (16.3%, 1,272G)
metagameface: 1,000G (12.8%, 5,251G)
FaytKion: 718G (9.2%, 718G)
nifboy: 500G (6.4%, 2,094G)
DustBirdEX: 432G (5.5%, 12,991G)
volgrathemoose: 400G (5.1%, 5,210G)
MaverickUmbracato: 100G (1.3%, 100G)
Firesheath: 100G (1.3%, 24,792G)
Lali_Lulelo: 100G (1.3%, 2,550G)
ihavenoideawhatname: 50G (0.6%, 516G)

purple bets:
NicoSavoy: 2,000G (15.6%, 9,910G)
fenaen: 1,407G (11.0%, 1,407G)
E_Ballard: 1,335G (10.4%, 1,335G)
HaateXIII: 1,101G (8.6%, 1,101G)
ungabunga_bot: 1,000G (7.8%, 475,071G)
BirbBrainsBot: 1,000G (7.8%, 17,080G)
getthemoneyz: 1,000G (7.8%, 674,962G)
Lionhermit: 1,000G (7.8%, 51,472G)
Estan_AD: 972G (7.6%, 972G)
CorpusCav: 500G (3.9%, 10,791G)
CapnChaos12: 300G (2.3%, 8,806G)
otakutaylor: 300G (2.3%, 6,083G)
7Cerulean7: 300G (2.3%, 16,615G)
eudes89: 300G (2.3%, 2,934G)
KasugaiRoastedPeas: 200G (1.6%, 1,363G)
Lokenwow: 108G (0.8%, 108G)
