Final Bets: blue - 12 bets for 15,377G (63.4%, x0.58); yellow - 19 bets for 8,879G (36.6%, x1.73)

blue bets:
toka222: 6,500G (42.3%, 367,018G)
helpimabug: 2,177G (14.2%, 4,355G)
SeniorBunk: 2,000G (13.0%, 10,854G)
Thyrandaal: 1,234G (8.0%, 11,948G)
CorpusCav: 1,200G (7.8%, 7,144G)
BirbBrainsBot: 1,000G (6.5%, 91,439G)
thunderducker: 700G (4.6%, 4,205G)
getthemoneyz: 166G (1.1%, 1,921,178G)
Neinhartx: 100G (0.7%, 100G)
twsbpro: 100G (0.7%, 100G)
DHaveWord: 100G (0.7%, 6,813G)
TheDapperChangeling: 100G (0.7%, 7,856G)

yellow bets:
ser_pyrro: 1,336G (15.0%, 1,336G)
Afro_Gundam: 1,000G (11.3%, 5,521G)
BaconLovingInfidel: 1,000G (11.3%, 2,429G)
bruubarg: 1,000G (11.3%, 3,540G)
resjudicata3: 908G (10.2%, 1,782G)
Raixelol: 600G (6.8%, 10,559G)
J_MacC1991: 570G (6.4%, 2,570G)
krombobreaker: 500G (5.6%, 12,329G)
SephDarkheart: 320G (3.6%, 320G)
J_52: 300G (3.4%, 1,052G)
ValensEXP_: 280G (3.2%, 280G)
datadrivenbot: 200G (2.3%, 60,691G)
ArrenJevleth: 200G (2.3%, 9,022G)
Smugzug: 164G (1.8%, 1,748G)
gorgewall: 101G (1.1%, 9,416G)
BartTradingCompany: 100G (1.1%, 6,164G)
AllInBot: 100G (1.1%, 100G)
latebit: 100G (1.1%, 7,449G)
Yangusburger: 100G (1.1%, 5,198G)
