Final Bets: red - 9 bets for 4,261G (61.0%, x0.64); blue - 6 bets for 2,721G (39.0%, x1.57)

red bets:
BaronHaynes: 2,000G (46.9%, 3,938G)
Zeera98: 867G (20.3%, 867G)
douchetron: 600G (14.1%, 600G)
AllInBot: 200G (4.7%, 200G)
datadrivenbot: 200G (4.7%, 58,368G)
Lydian_C: 123G (2.9%, 9,934G)
PantherIscariot: 111G (2.6%, 4,906G)
shadricklul: 100G (2.3%, 100G)
srdonko2098: 60G (1.4%, 1,032G)

blue bets:
DeathTaxesAndAnime: 1,071G (39.4%, 1,071G)
BirbBrainsBot: 1,000G (36.8%, 11,627G)
LAGBOT30000: 322G (11.8%, 3,222G)
maddrave09: 128G (4.7%, 128G)
MinBetBot: 100G (3.7%, 22,808G)
ko2q: 100G (3.7%, 2,391G)
