Final Bets: white - 12 bets for 7,279G (43.7%, x1.29); black - 12 bets for 9,359G (56.3%, x0.78)

white bets:
prince_rogers_nelson_: 2,431G (33.4%, 2,431G)
E_Ballard: 1,622G (22.3%, 1,622G)
BirbBrainsBot: 1,000G (13.7%, 125,853G)
BlackFireUK: 488G (6.7%, 488G)
joewcarson: 400G (5.5%, 1,993G)
Chronolynx42: 361G (5.0%, 36,105G)
SuzakuReii: 256G (3.5%, 256G)
casteia: 200G (2.7%, 2,317G)
Forkmore: 200G (2.7%, 6,320G)
Lydian_C: 121G (1.7%, 182,156G)
datadrivenbot: 100G (1.4%, 47,260G)
blastty: 100G (1.4%, 4,887G)

black bets:
serperemagus: 2,014G (21.5%, 2,014G)
JLinkletter: 1,875G (20.0%, 1,875G)
YaBoy125: 1,447G (15.5%, 2,894G)
gooseyourself: 1,166G (12.5%, 1,166G)
TheChainNerd: 732G (7.8%, 7,328G)
DudeMonkey77: 688G (7.4%, 688G)
ShintaroNayaka: 572G (6.1%, 572G)
Rytor: 304G (3.2%, 304G)
ArashiKurobara: 220G (2.4%, 220G)
getthemoneyz: 140G (1.5%, 1,111,023G)
Baron_von_Scrub: 101G (1.1%, 15,957G)
Sans_from_Snowdin: 100G (1.1%, 25,873G)
