Final Bets: white - 14 bets for 6,047G (26.5%, x2.77); purple - 23 bets for 16,735G (73.5%, x0.36)

white bets:
Aldrammech: 1,000G (16.5%, 16,989G)
BirbBrainsBot: 1,000G (16.5%, 56,894G)
twelfthrootoftwo: 589G (9.7%, 589G)
FoeSquirrel: 547G (9.0%, 1,094G)
VySaika: 500G (8.3%, 8,686G)
reinoe: 500G (8.3%, 9,333G)
ZephyrTempest: 456G (7.5%, 2,119G)
Baron_von_Scrub: 352G (5.8%, 352G)
Belivalan: 280G (4.6%, 280G)
Lythe_Caraker: 250G (4.1%, 116,781G)
RestIessNight: 200G (3.3%, 1,657G)
Kyune: 144G (2.4%, 144G)
gggamezzz: 129G (2.1%, 258G)
maakur_: 100G (1.7%, 125,377G)

purple bets:
ACSpree: 3,000G (17.9%, 23,811G)
Mesmaster: 3,000G (17.9%, 76,507G)
killth3kid: 2,000G (12.0%, 47,425G)
rico_flex: 1,200G (7.2%, 41,312G)
Laserman1000: 1,000G (6.0%, 102,400G)
mpghappiness: 820G (4.9%, 1,608G)
DeathTaxesAndAnime: 740G (4.4%, 740G)
Zeroroute: 600G (3.6%, 600G)
Meta_Five: 600G (3.6%, 3,638G)
HaateXIII: 584G (3.5%, 584G)
volgrathemoose: 501G (3.0%, 4,875G)
OmnibotGamma: 500G (3.0%, 3,354G)
getthemoneyz: 358G (2.1%, 630,264G)
gorgewall: 336G (2.0%, 336G)
RunicMagus: 300G (1.8%, 50,156G)
ar_tactic: 300G (1.8%, 32,183G)
dorman_777: 200G (1.2%, 3,128G)
KasugaiRoastedPeas: 200G (1.2%, 10,966G)
ungabunga_bot: 185G (1.1%, 359,243G)
lastly: 100G (0.6%, 2,007G)
Linkn: 100G (0.6%, 2,531G)
datadrivenbot: 100G (0.6%, 12,051G)
daveb_: 11G (0.1%, 1,024G)
