Final Bets: purple - 27 bets for 13,244G (57.5%, x0.74); brown - 18 bets for 9,774G (42.5%, x1.36)

purple bets:
Mesmaster: 2,000G (15.1%, 80,390G)
Laserman1000: 1,168G (8.8%, 1,168G)
ANFz: 1,036G (7.8%, 1,036G)
BirbBrainsBot: 1,000G (7.6%, 167,767G)
NicoSavoy: 1,000G (7.6%, 35,777G)
sinnyil2: 816G (6.2%, 816G)
ColetteMSLP: 800G (6.0%, 67,211G)
killth3kid: 600G (4.5%, 13,556G)
beneeto: 520G (3.9%, 1,041G)
gooseyourself: 508G (3.8%, 508G)
TheTemperedChocobo: 500G (3.8%, 1,128G)
EnemyController: 500G (3.8%, 282,110G)
HASTERIOUS: 425G (3.2%, 8,502G)
x_NiGhtMaRE_x: 300G (2.3%, 905G)
vampyreinabox: 300G (2.3%, 2,574G)
ninjasteepler: 259G (2.0%, 259G)
Nizaha: 201G (1.5%, 16,887G)
KasugaiRoastedPeas: 200G (1.5%, 2,418G)
otakutaylor: 200G (1.5%, 1,678G)
GnielKnows: 200G (1.5%, 3,541G)
CorpusCav: 111G (0.8%, 5,551G)
StealthModeLocke: 100G (0.8%, 42,046G)
CosmicTactician: 100G (0.8%, 9,094G)
moocaotao: 100G (0.8%, 427G)
datadrivenbot: 100G (0.8%, 21,275G)
TheMM42: 100G (0.8%, 1,066G)
Tougou: 100G (0.8%, 5,054G)

brown bets:
Zbgs: 2,000G (20.5%, 42,914G)
Vampire_Killer: 1,000G (10.2%, 11,527G)
Virilikus: 1,000G (10.2%, 174,262G)
marin1987: 973G (10.0%, 4,973G)
Reltz_: 700G (7.2%, 8,631G)
E_Ballard: 600G (6.1%, 600G)
LeoNightFury: 500G (5.1%, 4,934G)
DustBirdEX: 456G (4.7%, 15,020G)
AUrato: 441G (4.5%, 11,029G)
Lolprinze: 432G (4.4%, 432G)
Estan_AD: 304G (3.1%, 304G)
CapnChaos12: 300G (3.1%, 1,322G)
eudes89: 300G (3.1%, 4,377G)
jakeduhhsnake: 250G (2.6%, 2,631G)
JLinkletter: 200G (2.0%, 1,253G)
getthemoneyz: 118G (1.2%, 678,353G)
Heroebal: 100G (1.0%, 7,147G)
AmaninAmide: 100G (1.0%, 1,573G)
