Final Bets: red - 21 bets for 16,108G (64.1%, x0.56); purple - 24 bets for 9,011G (35.9%, x1.79)

red bets:
E_Ballard: 3,205G (19.9%, 6,411G)
Virilikus: 3,000G (18.6%, 166,762G)
evontno: 2,001G (12.4%, 14,175G)
EnemyController: 1,000G (6.2%, 284,058G)
Laserman1000: 960G (6.0%, 960G)
sinnyil2: 816G (5.1%, 816G)
electric_glass: 800G (5.0%, 12,224G)
killth3kid: 600G (3.7%, 15,194G)
Nizaha: 501G (3.1%, 19,174G)
ANFz: 500G (3.1%, 3,033G)
AUrato: 410G (2.5%, 10,259G)
GnielKnows: 400G (2.5%, 3,189G)
DustBirdEX: 345G (2.1%, 17,046G)
CapnChaos12: 300G (1.9%, 4,427G)
twelfthrootoftwo: 300G (1.9%, 19,223G)
beneeto: 250G (1.6%, 2,383G)
skillomono: 220G (1.4%, 220G)
TheMM42: 200G (1.2%, 2,240G)
datadrivenbot: 100G (0.6%, 21,417G)
otakutaylor: 100G (0.6%, 3,461G)
Kyune: 100G (0.6%, 11,187G)

purple bets:
BirbBrainsBot: 1,000G (11.1%, 172,340G)
Reltz_: 1,000G (11.1%, 6,631G)
MrDiggs49: 803G (8.9%, 803G)
ColetteMSLP: 800G (8.9%, 68,343G)
gooseyourself: 508G (5.6%, 508G)
TheTemperedChocobo: 500G (5.5%, 1,929G)
benticore: 500G (5.5%, 6,182G)
Deathmaker06: 500G (5.5%, 11,311G)
x_NiGhtMaRE_x: 500G (5.5%, 2,829G)
HASTERIOUS: 468G (5.2%, 9,376G)
ninjasteepler: 450G (5.0%, 450G)
vampyreinabox: 350G (3.9%, 4,630G)
jakeduhhsnake: 250G (2.8%, 3,554G)
KasugaiRoastedPeas: 200G (2.2%, 2,998G)
JLinkletter: 200G (2.2%, 653G)
eudes89: 200G (2.2%, 5,156G)
Kalpho: 168G (1.9%, 168G)
CosmicTactician: 100G (1.1%, 10,840G)
AmaninAmide: 100G (1.1%, 2,541G)
Evewho: 100G (1.1%, 7,877G)
moocaotao: 100G (1.1%, 2,140G)
Kezia444: 100G (1.1%, 328G)
Heroebal: 100G (1.1%, 7,847G)
getthemoneyz: 14G (0.2%, 678,252G)
