Final Bets: red - 20 bets for 15,703G (66.2%, x0.51); blue - 13 bets for 8,025G (33.8%, x1.96)

red bets:
E_Ballard: 5,205G (33.1%, 5,205G)
ShintaroNayaka: 1,336G (8.5%, 1,336G)
LDSkinny: 1,199G (7.6%, 1,199G)
Lolprinze: 1,001G (6.4%, 16,940G)
BirbBrainsBot: 1,000G (6.4%, 15,230G)
NicoSavoy: 1,000G (6.4%, 42,716G)
JumbocactuarX27: 574G (3.7%, 1,148G)
EnemyController: 500G (3.2%, 281,959G)
holyonline: 500G (3.2%, 8,387G)
cloud92684: 500G (3.2%, 5,353G)
HaateXIII: 472G (3.0%, 472G)
DustBirdEX: 456G (2.9%, 30,651G)
joewcarson: 364G (2.3%, 364G)
AUrato: 338G (2.2%, 8,463G)
CapnChaos12: 300G (1.9%, 1,397G)
SQUiDSQUARKLIN: 300G (1.9%, 3,023G)
TheKillerNacho: 288G (1.8%, 388G)
nifboy: 170G (1.1%, 1,670G)
Dymntd: 100G (0.6%, 7,159G)
datadrivenbot: 100G (0.6%, 21,394G)

blue bets:
Tsuike: 2,319G (28.9%, 4,639G)
Laserman1000: 1,417G (17.7%, 1,417G)
TheChainNerd: 1,000G (12.5%, 15,678G)
wooyuji: 500G (6.2%, 2,621G)
Candina: 500G (6.2%, 20,034G)
Cryptopsy70: 444G (5.5%, 3,661G)
bruubarg: 427G (5.3%, 427G)
DLJuggernaut: 350G (4.4%, 4,180G)
DudeMonkey77: 333G (4.1%, 8,835G)
Wargles: 307G (3.8%, 3,061G)
skillomono: 200G (2.5%, 1,537G)
AmaninAmide: 128G (1.6%, 128G)
RunicMagus: 100G (1.2%, 31,682G)
