Final Bets: purple - 17 bets for 17,686G (76.1%, x0.31); brown - 11 bets for 5,569G (23.9%, x3.18)

purple bets:
Tsuike: 6,230G (35.2%, 12,460G)
DudeMonkey77: 3,000G (17.0%, 9,487G)
NicoSavoy: 2,000G (11.3%, 41,716G)
Creggers: 1,373G (7.8%, 1,373G)
JumbocactuarX27: 1,047G (5.9%, 1,047G)
ValtonZenola: 500G (2.8%, 3,708G)
wooyuji: 500G (2.8%, 4,521G)
holyonline: 500G (2.8%, 9,441G)
EnemyController: 500G (2.8%, 282,515G)
DustBirdEX: 456G (2.6%, 29,861G)
joewcarson: 364G (2.1%, 364G)
DLJuggernaut: 350G (2.0%, 4,673G)
ShintaroNayaka: 340G (1.9%, 340G)
fenaen: 300G (1.7%, 2,521G)
datadrivenbot: 100G (0.6%, 21,360G)
xxbronamastexx: 100G (0.6%, 131G)
getthemoneyz: 26G (0.1%, 684,988G)

brown bets:
TheChainNerd: 1,000G (18.0%, 16,903G)
Lolprinze: 1,000G (18.0%, 14,739G)
E_Ballard: 837G (15.0%, 837G)
BirbBrainsBot: 655G (11.8%, 13,498G)
HaateXIII: 472G (8.5%, 472G)
Cryptopsy70: 444G (8.0%, 4,530G)
AUrato: 333G (6.0%, 8,341G)
SQUiDSQUARKLIN: 300G (5.4%, 2,922G)
old_overholt_: 300G (5.4%, 3,344G)
AmaninAmide: 128G (2.3%, 128G)
RunicMagus: 100G (1.8%, 31,278G)
