Final Bets: blue - 21 bets for 14,973G (62.7%, x0.59); brown - 16 bets for 8,899G (37.3%, x1.68)

blue bets:
Tsuike: 3,365G (22.5%, 6,730G)
BoneMiser: 1,594G (10.6%, 1,594G)
JumbocactuarX27: 1,442G (9.6%, 2,884G)
wooyuji: 1,021G (6.8%, 1,021G)
J2DaBibbles: 1,000G (6.7%, 17,285G)
Deathmaker06: 1,000G (6.7%, 9,207G)
EnemyController: 1,000G (6.7%, 281,015G)
Laserman1000: 600G (4.0%, 4,400G)
killth3kid: 600G (4.0%, 7,024G)
LDSkinny: 500G (3.3%, 1,316G)
HaateXIII: 472G (3.2%, 472G)
DustBirdEX: 456G (3.0%, 29,646G)
marin1987: 401G (2.7%, 401G)
Creggers: 372G (2.5%, 372G)
AUrato: 366G (2.4%, 9,164G)
vorap: 300G (2.0%, 71,654G)
cloud92684: 104G (0.7%, 104G)
E_Ballard: 100G (0.7%, 14,582G)
datadrivenbot: 100G (0.7%, 21,060G)
AmaninAmide: 100G (0.7%, 1,353G)
DeathTaxesAndAnime: 80G (0.5%, 3,648G)

brown bets:
StealthModeLocke: 1,039G (11.7%, 1,039G)
TheChainNerd: 1,000G (11.2%, 21,107G)
BirbBrainsBot: 1,000G (11.2%, 15,171G)
NicoSavoy: 1,000G (11.2%, 39,120G)
Lolprinze: 1,000G (11.2%, 19,943G)
CapnChaos12: 884G (9.9%, 884G)
ShintaroNayaka: 840G (9.4%, 840G)
DudeMonkey77: 500G (5.6%, 6,987G)
bruubarg: 400G (4.5%, 1,517G)
benticore: 328G (3.7%, 6,569G)
old_overholt_: 300G (3.4%, 5,756G)
nifboy: 250G (2.8%, 2,033G)
zeando: 108G (1.2%, 108G)
Dellusionsx: 100G (1.1%, 8,132G)
a_mo22: 100G (1.1%, 830G)
getthemoneyz: 50G (0.6%, 684,268G)
