Final Bets: red - 12 bets for 5,356G (51.7%, x0.93); blue - 9 bets for 4,998G (48.3%, x1.07)

red bets:
Sairentozon7: 1,000G (18.7%, 5,428G)
BirbBrainsBot: 1,000G (18.7%, 177,552G)
DeathTaxesAndAnime: 913G (17.0%, 913G)
VolgraTheMoose: 501G (9.4%, 11,288G)
amiture: 500G (9.3%, 2,369G)
Digitalsocrates: 384G (7.2%, 2,864G)
Songdeh: 244G (4.6%, 244G)
dem0nj0ns: 208G (3.9%, 208G)
datadrivenbot: 200G (3.7%, 63,400G)
Lemonjohns: 200G (3.7%, 1,009G)
getthemoneyz: 106G (2.0%, 1,232,600G)
Quadh0nk: 100G (1.9%, 3,124G)

blue bets:
hiros13gts: 1,414G (28.3%, 1,414G)
NovaKnight21: 1,000G (20.0%, 20,524G)
randgridr: 960G (19.2%, 960G)
Evewho: 708G (14.2%, 708G)
ColetteMSLP: 300G (6.0%, 2,074G)
prince_rogers_nelson_: 200G (4.0%, 3,289G)
Mysteriousdewd: 200G (4.0%, 10,668G)
CT_5_Holy: 116G (2.3%, 2,331G)
fluffskull: 100G (2.0%, 4,557G)
