Final Bets: purple - 7 bets for 3,911G (23.0%, x3.34); brown - 17 bets for 13,073G (77.0%, x0.30)

purple bets:
reinoe: 1,000G (25.6%, 19,159G)
getthemoneyz: 1,000G (25.6%, 2,004,510G)
Willjin: 1,000G (25.6%, 43,915G)
AllInBot: 499G (12.8%, 499G)
roofiepops: 212G (5.4%, 1,515G)
markese: 100G (2.6%, 5,089G)
ArcFox4: 100G (2.6%, 1,797G)

brown bets:
NicoSavoy: 2,000G (15.3%, 99,367G)
loveyouallfriends: 2,000G (15.3%, 35,744G)
Zbgs: 1,500G (11.5%, 9,063G)
latebit: 1,306G (10.0%, 1,306G)
skillomono: 1,266G (9.7%, 1,266G)
CorpusCav: 1,009G (7.7%, 4,123G)
BirbBrainsBot: 1,000G (7.6%, 153,218G)
Laserman1000: 500G (3.8%, 10,200G)
technominari: 500G (3.8%, 73,752G)
JonnyCue: 500G (3.8%, 7,272G)
Wonser: 392G (3.0%, 6,333G)
ar_tactic: 300G (2.3%, 97,832G)
gilgamensche: 300G (2.3%, 491G)
datadrivenbot: 200G (1.5%, 73,649G)
scsuperstar: 100G (0.8%, 100G)
RunicMagus: 100G (0.8%, 12,331G)
genkidou: 100G (0.8%, 616G)
