Final Bets: white - 17 bets for 15,995G (63.9%, x0.57); purple - 16 bets for 9,046G (36.1%, x1.77)

white bets:
reinoe: 5,000G (31.3%, 66,645G)
NicoSavoy: 2,000G (12.5%, 254,823G)
NIghtdew14: 1,500G (9.4%, 16,839G)
BirbBrainsBot: 1,000G (6.3%, 157,655G)
fluffskull: 1,000G (6.3%, 5,449G)
Laserman1000: 1,000G (6.3%, 1,000G)
Virilikus: 1,000G (6.3%, 217,684G)
HaateXIII: 832G (5.2%, 832G)
killth3kid: 600G (3.8%, 600G)
Seaweed_B: 500G (3.1%, 4,968G)
PastelChum: 300G (1.9%, 582G)
ThreeMileIsland: 268G (1.7%, 268G)
Rilgon: 264G (1.7%, 541G)
holandrix: 226G (1.4%, 226G)
poGpopE: 204G (1.3%, 204G)
gorgewall: 201G (1.3%, 15,838G)
Miku_Shikhu: 100G (0.6%, 13,152G)

purple bets:
pplvee1: 1,360G (15.0%, 1,360G)
ruleof5: 1,000G (11.1%, 5,208G)
Thyrandaal: 1,000G (11.1%, 15,542G)
JumbocactuarX27: 768G (8.5%, 768G)
Lord_Gwarth: 646G (7.1%, 646G)
EnemyController: 555G (6.1%, 1,468,555G)
ColetteMSLP: 548G (6.1%, 548G)
nekojin: 500G (5.5%, 2,486G)
evontno: 500G (5.5%, 35,320G)
neocarbuncle: 441G (4.9%, 441G)
AllInBot: 410G (4.5%, 410G)
getthemoneyz: 364G (4.0%, 1,337,880G)
SephDarkheart: 348G (3.8%, 54,839G)
ohhinm: 222G (2.5%, 5,093G)
datadrivenbot: 200G (2.2%, 30,036G)
JDogg2K4: 184G (2.0%, 184G)
