Final Bets: red - 12 bets for 4,425G (24.1%, x3.14); blue - 29 bets for 13,912G (75.9%, x0.32)

red bets:
Aldrammech: 1,473G (33.3%, 1,473G)
Shalloween: 600G (13.6%, 43,017G)
Baron_von_Scrub: 574G (13.0%, 4,838G)
DeathTaxesAndAnime: 456G (10.3%, 456G)
getthemoneyz: 326G (7.4%, 498,992G)
Kobold_Jager: 248G (5.6%, 248G)
Chuckolator: 216G (4.9%, 3,843G)
ThePineappleSalesman: 200G (4.5%, 4,357G)
Lissona: 104G (2.4%, 104G)
RunicMagus: 100G (2.3%, 577G)
rjA0zcOQ96: 100G (2.3%, 8,482G)
roqqqpsi: 28G (0.6%, 1,403G)

blue bets:
HaateXIII: 1,041G (7.5%, 1,041G)
BirbBrainsBot: 1,000G (7.2%, 201,644G)
ungabunga_bot: 1,000G (7.2%, 140,341G)
nifboy: 860G (6.2%, 860G)
mirapoix: 843G (6.1%, 843G)
DarrenDinosaurs: 827G (5.9%, 827G)
joewcarson: 772G (5.5%, 772G)
Faplo: 748G (5.4%, 748G)
Pie108: 700G (5.0%, 25,785G)
Slowbrofist: 655G (4.7%, 655G)
astrozin11: 587G (4.2%, 587G)
luminarii: 521G (3.7%, 15,587G)
catfashions: 500G (3.6%, 6,629G)
Bulleta: 500G (3.6%, 1,228G)
HASTERIOUS: 423G (3.0%, 423G)
datadrivenbot: 351G (2.5%, 620G)
SGFTI: 347G (2.5%, 347G)
ZephyrTempest: 341G (2.5%, 74,025G)
Laserman1000: 332G (2.4%, 332G)
UmbraKnights: 300G (2.2%, 1,560G)
WoooBlaaa: 273G (2.0%, 273G)
The8thZodiac: 205G (1.5%, 1,469G)
FoeSquirrel: 204G (1.5%, 204G)
ThePuss: 120G (0.9%, 120G)
CandyTamer: 112G (0.8%, 215G)
ApplesauceBoss: 100G (0.7%, 4,835G)
ko2q: 100G (0.7%, 19,270G)
Lythe_Caraker: 100G (0.7%, 100,291G)
cougboi: 50G (0.4%, 12,945G)
