Final Bets: white - 12 bets for 4,780G (22.3%, x3.48); black - 27 bets for 16,652G (77.7%, x0.29)

white bets:
Mesmaster: 1,000G (20.9%, 63,595G)
volgrathemoose: 686G (14.4%, 1,373G)
FoeSquirrel: 572G (12.0%, 572G)
Jeeboheebo: 468G (9.8%, 468G)
getthemoneyz: 464G (9.7%, 721,679G)
Lanshaft: 424G (8.9%, 1,673G)
Digitalsocrates: 296G (6.2%, 296G)
nifboy: 250G (5.2%, 11,612G)
Banzem: 220G (4.6%, 220G)
Anomandaris__: 200G (4.2%, 592G)
E_Ballard: 100G (2.1%, 9,974G)
Devrology101: 100G (2.1%, 2,064G)

black bets:
SkylerBunny: 3,000G (18.0%, 69,559G)
thefyeman: 2,000G (12.0%, 57,634G)
EnemyController: 2,000G (12.0%, 327,022G)
Evewho: 1,692G (10.2%, 1,692G)
BirbBrainsBot: 1,000G (6.0%, 165,442G)
namamu: 666G (4.0%, 23,956G)
Who_lio42: 600G (3.6%, 11,874G)
powergems: 500G (3.0%, 6,521G)
cloud92684: 500G (3.0%, 3,139G)
Pie108: 500G (3.0%, 10,077G)
serperemagus: 485G (2.9%, 485G)
HASTERIOUS: 473G (2.8%, 9,472G)
fenaen: 456G (2.7%, 456G)
luminarii: 450G (2.7%, 22,252G)
Rislyeu: 408G (2.5%, 408G)
Breakdown777: 300G (1.8%, 3,663G)
lastly: 250G (1.5%, 12,149G)
HaateXIII: 250G (1.5%, 8,562G)
krasny1944: 240G (1.4%, 240G)
Sairentozon7: 232G (1.4%, 464G)
AllInBot: 100G (0.6%, 100G)
aeonicvector: 100G (0.6%, 1,144G)
maakur_: 100G (0.6%, 2,347G)
datadrivenbot: 100G (0.6%, 20,070G)
foofermoofer: 100G (0.6%, 3,409G)
AlenaZarek: 100G (0.6%, 44,461G)
zepharoth89: 50G (0.3%, 751G)
