Final Bets: purple - 12 bets for 12,336G (38.8%, x1.58); champion - 27 bets for 19,482G (61.2%, x0.63)

purple bets:
Shalloween: 6,672G (54.1%, 13,083G)
Mesmaster: 1,000G (8.1%, 59,394G)
flowinprose: 1,000G (8.1%, 83,575G)
SkylerBunny: 1,000G (8.1%, 66,224G)
Candina: 999G (8.1%, 22,793G)
fenaen: 500G (4.1%, 2,714G)
Jeeboheebo: 468G (3.8%, 468G)
Devrology101: 200G (1.6%, 2,748G)
aeonicvector: 197G (1.6%, 1,745G)
maakur_: 100G (0.8%, 2,276G)
lastly: 100G (0.8%, 11,221G)
foofermoofer: 100G (0.8%, 4,441G)

champion bets:
AlenaZarek: 3,000G (15.4%, 43,888G)
roqqqpsi: 2,386G (12.2%, 21,695G)
Evewho: 1,825G (9.4%, 3,580G)
FoeSquirrel: 1,218G (6.3%, 1,218G)
BirbBrainsBot: 1,000G (5.1%, 166,422G)
EnemyController: 1,000G (5.1%, 327,295G)
RaIshtar: 1,000G (5.1%, 5,136G)
Anomandaris__: 876G (4.5%, 876G)
powergems: 700G (3.6%, 5,665G)
Laserman1000: 616G (3.2%, 616G)
getthemoneyz: 546G (2.8%, 723,356G)
benticore: 500G (2.6%, 828G)
Digitalsocrates: 500G (2.6%, 1,407G)
evontno: 500G (2.6%, 5,084G)
Sairentozon7: 464G (2.4%, 464G)
luminarii: 450G (2.3%, 21,749G)
Lanshaft: 424G (2.2%, 2,015G)
CapnChaos12: 416G (2.1%, 416G)
Rislyeu: 408G (2.1%, 408G)
volgrathemoose: 408G (2.1%, 408G)
Breakdown777: 300G (1.5%, 2,849G)
Milkman153: 244G (1.3%, 244G)
kaelsun: 201G (1.0%, 201G)
zepharoth89: 200G (1.0%, 560G)
AllInBot: 100G (0.5%, 100G)
rjA0zcOQ96: 100G (0.5%, 3,385G)
datadrivenbot: 100G (0.5%, 20,148G)
