Final Bets: black - 8 bets for 3,128G (26.1%, x2.82); purple - 10 bets for 8,835G (73.9%, x0.35)

black bets:
BirbBrainsBot: 1,000G (32.0%, 32,317G)
Mesmaster: 664G (21.2%, 664G)
VolgraTheMoose: 516G (16.5%, 2,364G)
Zeera98: 300G (9.6%, 2,786G)
gargola2498: 300G (9.6%, 4,066G)
getthemoneyz: 218G (7.0%, 1,550,336G)
ArlanKels: 80G (2.6%, 4,211G)
srdonko2098: 50G (1.6%, 2,088G)

purple bets:
InOzWeTrust: 3,213G (36.4%, 3,213G)
xBizzy: 1,192G (13.5%, 1,192G)
ColetteMSLP: 1,000G (11.3%, 33,645G)
AllInBot: 876G (9.9%, 876G)
gorgewall: 836G (9.5%, 836G)
E_Ballard: 536G (6.1%, 1,524G)
letdowncity: 504G (5.7%, 20,945G)
DesertWooder: 250G (2.8%, 1,377G)
Aestheta: 228G (2.6%, 228G)
Pbjellytimez: 200G (2.3%, 1,963G)
