Final Bets: white - 8 bets for 2,810G (56.8%, x0.76); purple - 7 bets for 2,139G (43.2%, x1.31)

white bets:
NIghtdew14: 729G (25.9%, 729G)
twelfthrootoftwo: 552G (19.6%, 552G)
DustBirdEX: 369G (13.1%, 4,461G)
randgridr: 356G (12.7%, 356G)
Error72: 304G (10.8%, 304G)
AllInBot: 200G (7.1%, 200G)
datadrivenbot: 200G (7.1%, 28,988G)
DouglasDragonThePoet: 100G (3.6%, 434G)

purple bets:
Xoomwaffle: 587G (27.4%, 587G)
superdevon1: 487G (22.8%, 9,752G)
getthemoneyz: 322G (15.1%, 1,304,970G)
chaos_sux_unless_its_ds: 300G (14.0%, 3,517G)
BirbBrainsBot: 222G (10.4%, 194,348G)
VolgraTheMoose: 121G (5.7%, 4,530G)
TimeJannies: 100G (4.7%, 3,796G)
