Final Bets: black - 105 bets for 1,507,007G (79.9%, x0.25); champion - 48 bets for 379,693G (20.1%, x3.97)

black bets:
EnemyController: 200,001G (13.3%, 1,591,947G)
toka222: 200,000G (13.3%, 324,723G)
Oreo_Pizza: 157,865G (10.5%, 157,865G)
E_Ballard: 62,047G (4.1%, 62,047G)
SkylerBunny: 62,022G (4.1%, 77,528G)
nosablake: 50,000G (3.3%, 269,549G)
VolgraTheMoose: 49,080G (3.3%, 98,161G)
Forkmore: 46,493G (3.1%, 46,493G)
Powermhero: 42,005G (2.8%, 42,005G)
nhammen: 40,000G (2.7%, 356,880G)
Chaerie: 30,377G (2.0%, 60,755G)
Error72: 30,224G (2.0%, 30,224G)
actual_JP: 30,000G (2.0%, 39,233G)
DarrenDinosaurs: 28,172G (1.9%, 28,172G)
Lord_Burrah: 25,822G (1.7%, 103,290G)
letdowncity: 24,148G (1.6%, 24,148G)
poorest_hobo: 21,220G (1.4%, 205,454G)
Thyrandaal: 20,852G (1.4%, 20,852G)
Sans_from_Snowdin: 20,063G (1.3%, 20,063G)
SephDarkheart: 20,000G (1.3%, 164,598G)
baconbacon1207: 20,000G (1.3%, 39,490G)
Willjin: 20,000G (1.3%, 103,701G)
TasisSai: 18,255G (1.2%, 18,255G)
Kronikle: 16,795G (1.1%, 33,590G)
ruleof5: 16,000G (1.1%, 27,331G)
dogsandcatsand: 15,000G (1.0%, 16,836G)
AlenaZarek: 15,000G (1.0%, 48,026G)
ar_tactic: 15,000G (1.0%, 88,487G)
sinnyil2: 11,847G (0.8%, 23,694G)
ForagerCats: 11,112G (0.7%, 11,112G)
Nizaha: 10,001G (0.7%, 85,118G)
MMagnetMan: 10,000G (0.7%, 75,445G)
LDSkinny: 10,000G (0.7%, 19,943G)
Leonidusx: 10,000G (0.7%, 20,205G)
thunderducker: 7,000G (0.5%, 26,713G)
Absalom_20: 6,300G (0.4%, 6,300G)
Phi_Sig: 5,555G (0.4%, 110,621G)
DavenIII: 5,478G (0.4%, 5,478G)
cho_pin: 5,358G (0.4%, 5,358G)
lyonslegacy: 5,000G (0.3%, 23,382G)
CosmicTactician: 5,000G (0.3%, 45,231G)
ALY327: 5,000G (0.3%, 22,876G)
latebit: 4,988G (0.3%, 4,988G)
Lord_Gwarth: 4,936G (0.3%, 4,936G)
CapnChaos12: 4,484G (0.3%, 4,484G)
WhiteTigress: 4,484G (0.3%, 4,484G)
Sairentozon7: 4,366G (0.3%, 4,366G)
maakur_: 4,274G (0.3%, 6,998G)
lowlf: 4,176G (0.3%, 4,176G)
WitchHunterIX: 3,480G (0.2%, 3,480G)
Gobizku: 3,472G (0.2%, 3,472G)
reddwind_: 3,362G (0.2%, 3,362G)
Starfire6789: 3,162G (0.2%, 3,162G)
Joaneyy: 3,000G (0.2%, 14,770G)
Xoomwaffle: 3,000G (0.2%, 13,610G)
Panushenko: 2,603G (0.2%, 2,603G)
helpimabug: 2,570G (0.2%, 5,140G)
HaychDub: 2,517G (0.2%, 5,034G)
Scurg: 2,280G (0.2%, 2,280G)
powergems: 2,222G (0.1%, 10,237G)
nekojin: 2,142G (0.1%, 2,142G)
ArashiKurobara: 2,112G (0.1%, 2,112G)
NicoSavoy: 2,112G (0.1%, 2,112G)
technominari: 2,000G (0.1%, 70,560G)
xendriick: 2,000G (0.1%, 4,218G)
BaronHaynes: 2,000G (0.1%, 74,972G)
DeathTaxesAndAnime: 1,884G (0.1%, 1,884G)
Spartan_Paladin: 1,500G (0.1%, 23,559G)
JumbocactuarX27: 1,494G (0.1%, 1,494G)
Laserman1000: 1,478G (0.1%, 1,478G)
rocl: 1,298G (0.1%, 1,298G)
Creggers: 1,056G (0.1%, 1,056G)
Smashy: 1,022G (0.1%, 1,022G)
DLJuggernaut: 1,014G (0.1%, 1,014G)
AllInBot: 1,000G (0.1%, 1,101G)
TheMM42: 1,000G (0.1%, 14,207G)
BirbBrainsBot: 1,000G (0.1%, 141,508G)
Twisted_Nutsatchel: 1,000G (0.1%, 22,756G)
GrayGhostGaming: 1,000G (0.1%, 40,049G)
moocaotao: 873G (0.1%, 1,746G)
getthemoneyz: 828G (0.1%, 1,774,865G)
Aldrammech: 700G (0.0%, 700G)
randgridr: 672G (0.0%, 672G)
Jeeboheebo: 636G (0.0%, 636G)
roofiepops: 632G (0.0%, 632G)
holandrix: 607G (0.0%, 607G)
MemoriesofFinal: 582G (0.0%, 582G)
killth3kid: 556G (0.0%, 6,870G)
mirapoix: 500G (0.0%, 9,781G)
llamacatbutt: 500G (0.0%, 10,022G)
Verathis: 451G (0.0%, 451G)
AbandonedHall: 440G (0.0%, 440G)
roqqqpsi: 419G (0.0%, 424G)
DustBirdEX: 416G (0.0%, 416G)
omegasuspekt: 400G (0.0%, 400G)
NIghtdew14: 396G (0.0%, 396G)
Breakdown777: 386G (0.0%, 386G)
Miku_Shikhu: 350G (0.0%, 1,665G)
Soy_Soda_Pop: 255G (0.0%, 5,118G)
formerlydrdong: 200G (0.0%, 200G)
datadrivenbot: 200G (0.0%, 60,139G)
SummonerPrestyn: 128G (0.0%, 128G)
nifboy: 100G (0.0%, 6,381G)
hutna: 100G (0.0%, 1,978G)
Tougou: 100G (0.0%, 4,680G)

champion bets:
MrFlabyo: 112,280G (29.6%, 224,560G)
evdoggity: 92,190G (24.3%, 92,190G)
Carledo: 54,207G (14.3%, 225,866G)
kaidykat: 23,995G (6.3%, 239,952G)
Who_lio42: 10,000G (2.6%, 42,497G)
Virilikus: 10,000G (2.6%, 240,093G)
reinoe: 10,000G (2.6%, 88,234G)
bruubarg: 8,571G (2.3%, 8,571G)
ko2q: 6,260G (1.6%, 6,260G)
run_with_stone_GUNs: 5,915G (1.6%, 11,831G)
Zachara: 4,000G (1.1%, 137,000G)
FoeSquirrel: 3,818G (1.0%, 3,818G)
soren_of_tyto: 3,788G (1.0%, 3,788G)
Kellios11: 3,477G (0.9%, 17,385G)
HaateXIII: 3,154G (0.8%, 3,154G)
Shalloween: 3,000G (0.8%, 53,765G)
resjudicata3: 2,980G (0.8%, 2,980G)
ShintaroNayaka: 2,804G (0.7%, 4,248G)
Chuckolator: 2,262G (0.6%, 6,938G)
Firesheath: 1,646G (0.4%, 1,646G)
astrozin11: 1,222G (0.3%, 5,222G)
CorpusCav: 1,188G (0.3%, 1,188G)
Tomion: 1,000G (0.3%, 2,712G)
Dasutin23: 1,000G (0.3%, 45,385G)
amiture: 1,000G (0.3%, 38,907G)
ColetteMSLP: 900G (0.2%, 2,842G)
MagicBottle: 702G (0.2%, 702G)
Zagorsek: 600G (0.2%, 600G)
Meta_Five: 600G (0.2%, 3,192G)
muffin_money: 550G (0.1%, 4,992G)
Lydian_C: 548G (0.1%, 548G)
ZCKaiser: 520G (0.1%, 9,881G)
Zeroroute: 500G (0.1%, 500G)
RunicMagus: 500G (0.1%, 5,372G)
Runeseeker22: 490G (0.1%, 490G)
KasugaiRoastedPeas: 468G (0.1%, 468G)
FriendSquirrel: 444G (0.1%, 4,790G)
fattunaking: 436G (0.1%, 436G)
HS39: 430G (0.1%, 430G)
skipsandwiches: 384G (0.1%, 384G)
ruebyy: 300G (0.1%, 9,028G)
Mushufasa_: 248G (0.1%, 248G)
ribbiks: 240G (0.1%, 240G)
kliffw: 236G (0.1%, 236G)
CapnSauce420: 224G (0.1%, 224G)
n2ash: 216G (0.1%, 216G)
krombobreaker: 200G (0.1%, 2,326G)
Bioticism: 200G (0.1%, 17,712G)
