Player: !Green
Team: Green Team
Palettes: Green/White



Trainer Nhammen
Male
Cancer
60
41
Chemist
Basic Skill
Auto Potion
Beastmaster
Ignore Height

Cute Bag

Leather Hat
Wizard Outfit
Feather Boots

Maiden's Kiss, Phoenix Down
Accumulate, Dash, Heal, Tickle, Yell, Wish



Error72
Monster
Aquarius
76
69
Wyvern










ALY327
Monster
Gemini
53
71
Goblin










RunicMagus
Monster
Capricorn
53
61
Great Malboro







