Final Bets: black - 13 bets for 9,670G (55.9%, x0.79); champion - 11 bets for 7,619G (44.1%, x1.27)

black bets:
Bryon_W: 4,742G (49.0%, 4,742G)
SWATb1gdog: 1,157G (12.0%, 1,157G)
ArashiKurobara: 1,000G (10.3%, 4,375G)
Smashy: 500G (5.2%, 14,712G)
run_with_stone_GUNs: 496G (5.1%, 8,686G)
GreenAmbler: 400G (4.1%, 4,446G)
Raixelol: 324G (3.4%, 18,723G)
ar_tactic: 300G (3.1%, 79,538G)
DavenIII: 250G (2.6%, 1,116G)
datadrivenbot: 200G (2.1%, 60,839G)
gorgewall: 101G (1.0%, 4,430G)
Aldrammech: 100G (1.0%, 36,165G)
Leonidusx: 100G (1.0%, 912G)

champion bets:
ItsMyCoolName: 2,876G (37.7%, 2,876G)
AllInBot: 1,274G (16.7%, 1,274G)
JCBooBot: 1,000G (13.1%, 54,205G)
E_Ballard: 784G (10.3%, 72,825G)
ColetteMSLP: 400G (5.3%, 4,348G)
Lord_Gwarth: 337G (4.4%, 1,412G)
DaveStrider55: 304G (4.0%, 304G)
Mushufasa_: 240G (3.2%, 240G)
CosmicTactician: 200G (2.6%, 41,774G)
BirbBrainsBot: 104G (1.4%, 87,278G)
mirapoix: 100G (1.3%, 11,955G)
