Final Bets: white - 7 bets for 6,306G (42.5%, x1.35); black - 11 bets for 8,539G (57.5%, x0.74)

white bets:
AllInBot: 2,283G (36.2%, 2,283G)
Leonidusx: 1,000G (15.9%, 78,744G)
PoroTact: 872G (13.8%, 2,144G)
JDuBz2008: 851G (13.5%, 1,851G)
Raixelol: 600G (9.5%, 7,457G)
Lord_Gwarth: 500G (7.9%, 8,028G)
gongonono: 200G (3.2%, 2,157G)

black bets:
Runeseeker22: 1,611G (18.9%, 10,744G)
VolgraTheMoose: 1,190G (13.9%, 1,190G)
Sairentozon7: 1,000G (11.7%, 30,503G)
BirbBrainsBot: 1,000G (11.7%, 99,203G)
getthemoneyz: 870G (10.2%, 1,982,084G)
Nizaha: 860G (10.1%, 73,827G)
nifboy: 780G (9.1%, 8,762G)
skillomono: 508G (5.9%, 508G)
AltimaMantoid: 420G (4.9%, 23,920G)
datadrivenbot: 200G (2.3%, 71,924G)
maakur_: 100G (1.2%, 2,417G)
