Final Bets: brown - 8 bets for 3,848G (12.3%, x7.14); champion - 17 bets for 27,457G (87.7%, x0.14)

brown bets:
Zachara: 1,128G (29.3%, 146,628G)
reinoe: 676G (17.6%, 676G)
dogsandcatsand: 668G (17.4%, 45,364G)
Leonidusx: 500G (13.0%, 80,735G)
getthemoneyz: 376G (9.8%, 1,983,892G)
Rytor: 200G (5.2%, 31,765G)
ericzubat: 200G (5.2%, 10,996G)
maakur_: 100G (2.6%, 2,491G)

champion bets:
Zerguzen: 10,000G (36.4%, 16,850G)
Runeseeker22: 8,280G (30.2%, 8,280G)
thunderducker: 1,675G (6.1%, 1,675G)
VolgraTheMoose: 1,001G (3.6%, 4,751G)
Sairentozon7: 1,000G (3.6%, 27,241G)
BirbBrainsBot: 1,000G (3.6%, 98,938G)
Nizaha: 860G (3.1%, 78,298G)
nifboy: 780G (2.8%, 9,276G)
Lord_Burrah: 681G (2.5%, 94,681G)
Raixelol: 600G (2.2%, 7,741G)
AltimaMantoid: 500G (1.8%, 24,500G)
ser_pyrro: 280G (1.0%, 280G)
AllInBot: 200G (0.7%, 200G)
khelor_: 200G (0.7%, 3,183G)
datadrivenbot: 200G (0.7%, 71,783G)
nhammen: 100G (0.4%, 242,039G)
genkidou: 100G (0.4%, 388G)
