Final Bets: white - 17 bets for 7,626G (48.8%, x1.05); brown - 15 bets for 8,014G (51.2%, x0.95)

white bets:
coralreeferz: 1,250G (16.4%, 34,369G)
Xoomwaffle: 962G (12.6%, 962G)
nofreewill: 849G (11.1%, 849G)
HaateXIII: 840G (11.0%, 840G)
TheChainNerd: 736G (9.7%, 736G)
killth3kid: 480G (6.3%, 1,560G)
Bongomon7: 376G (4.9%, 6,418G)
thehotrefrigerator: 333G (4.4%, 333G)
Miku_Shikhu: 304G (4.0%, 304G)
Treafa: 284G (3.7%, 1,780G)
holdenmagronik: 208G (2.7%, 1,427G)
MLWebz0r: 204G (2.7%, 204G)
AllInBot: 200G (2.6%, 200G)
datadrivenbot: 200G (2.6%, 33,838G)
Lord_Gwarth: 200G (2.6%, 2,622G)
nhammen: 100G (1.3%, 4,999G)
Bioticism: 100G (1.3%, 20,359G)

brown bets:
Lord_Burrah: 1,217G (15.2%, 91,217G)
DustBirdEX: 1,200G (15.0%, 11,170G)
Nizaha: 911G (11.4%, 911G)
TasisSai: 883G (11.0%, 883G)
BirbBrainsBot: 748G (9.3%, 183,110G)
Oreo_Pizza: 500G (6.2%, 30,662G)
reinoe: 500G (6.2%, 74,968G)
ShintaroNayaka: 500G (6.2%, 8,731G)
DamnThatShark: 340G (4.2%, 340G)
ruleof5: 300G (3.7%, 5,955G)
MMagnetMan: 224G (2.8%, 224G)
gorgewall: 201G (2.5%, 14,871G)
i2inchtomahawk: 200G (2.5%, 4,611G)
rycross: 150G (1.9%, 2,819G)
Vultuous: 140G (1.7%, 140G)
