Final Bets: green - 21 bets for 29,123G (72.3%, x0.38); black - 25 bets for 11,136G (27.7%, x2.62)

green bets:
Baron_von_Scrub: 6,630G (22.8%, 13,260G)
Virilikus: 5,000G (17.2%, 29,836G)
helpimabug: 3,594G (12.3%, 7,189G)
HaplessOne: 2,000G (6.9%, 87,593G)
sinnyil2: 1,200G (4.1%, 52,215G)
roofiepops: 1,139G (3.9%, 1,139G)
JumbocactuarX27: 1,133G (3.9%, 1,133G)
kai_shee: 1,001G (3.4%, 134,838G)
MantisFinch: 1,000G (3.4%, 18,785G)
ko2q: 1,000G (3.4%, 18,068G)
datadrivenbot: 1,000G (3.4%, 1,402G)
moonliquor: 839G (2.9%, 839G)
ThePuss: 665G (2.3%, 1,331G)
alecttox: 500G (1.7%, 71,794G)
mrfistoroboto: 500G (1.7%, 2,769G)
metagameface: 471G (1.6%, 471G)
FoeSquirrel: 455G (1.6%, 455G)
arch8000: 408G (1.4%, 13,603G)
EpicRogue91: 327G (1.1%, 1,327G)
ungabunga_bot: 161G (0.6%, 146,961G)
ThePanda1016: 100G (0.3%, 5,152G)

black bets:
reinoe: 2,000G (18.0%, 20,011G)
fenaen: 1,001G (9.0%, 14,831G)
BirbBrainsBot: 1,000G (9.0%, 209,745G)
FriendSquirrel: 963G (8.6%, 963G)
HaateXIII: 848G (7.6%, 848G)
itzover9001: 844G (7.6%, 844G)
b0shii: 645G (5.8%, 645G)
Zeroroute: 600G (5.4%, 600G)
RubenFlonne: 408G (3.7%, 408G)
getthemoneyz: 368G (3.3%, 499,701G)
electric_glass: 333G (3.0%, 3,029G)
Cataphract116: 300G (2.7%, 4,483G)
Aka_Gilly: 300G (2.7%, 15,041G)
UmbraKnights: 280G (2.5%, 280G)
ZephyrTempest: 263G (2.4%, 75,978G)
sect_cor: 150G (1.3%, 19,988G)
ApplesauceBoss: 100G (0.9%, 5,512G)
GrandmasterFrankerZ: 100G (0.9%, 100G)
rjA0zcOQ96: 100G (0.9%, 8,711G)
RunicMagus: 100G (0.9%, 1,295G)
Lordminsc: 100G (0.9%, 2,195G)
ANFz: 100G (0.9%, 6,089G)
Evewho: 100G (0.9%, 5,040G)
Slowbrofist: 100G (0.9%, 2,115G)
daveb_: 33G (0.3%, 3,307G)
