Final Bets: red - 28 bets for 19,529G (68.0%, x0.47); blue - 8 bets for 9,179G (32.0%, x2.13)

red bets:
cowlander: 2,433G (12.5%, 2,433G)
nifboy: 2,042G (10.5%, 4,085G)
roofiepops: 1,871G (9.6%, 1,871G)
furrytomahawkk: 1,671G (8.6%, 1,671G)
TheChainNerd: 1,500G (7.7%, 40,043G)
JumbocactuarX27: 1,000G (5.1%, 45,315G)
boosted420: 1,000G (5.1%, 2,000G)
BirbBrainsBot: 1,000G (5.1%, 24,403G)
Sairentozon7: 1,000G (5.1%, 10,597G)
ShintaroNayaka: 800G (4.1%, 7,678G)
NIghtdew14: 750G (3.8%, 9,923G)
getthemoneyz: 548G (2.8%, 1,302,211G)
flacococo: 489G (2.5%, 489G)
killth3kid: 424G (2.2%, 1,338G)
RagequitSA: 336G (1.7%, 336G)
SephDarkheart: 320G (1.6%, 57,207G)
Cryptopsy70: 308G (1.6%, 308G)
ericzubat: 307G (1.6%, 307G)
CapnChaos12: 300G (1.5%, 8,400G)
AllInBot: 280G (1.4%, 280G)
RedRiderAyame: 200G (1.0%, 6,009G)
RyanTheRebs: 200G (1.0%, 5,000G)
datadrivenbot: 200G (1.0%, 33,038G)
muffin_money: 150G (0.8%, 7,525G)
nhammen: 100G (0.5%, 14,057G)
CT_5_Holy: 100G (0.5%, 8,993G)
TasisSai: 100G (0.5%, 8,152G)
Firesheath: 100G (0.5%, 12,071G)

blue bets:
HaateXIII: 5,512G (60.1%, 11,024G)
Laserman1000: 821G (8.9%, 34,821G)
Xoomwaffle: 750G (8.2%, 4,665G)
DeathTaxesAndAnime: 716G (7.8%, 716G)
evontno: 556G (6.1%, 556G)
mirapoix: 500G (5.4%, 5,033G)
BlueAbs: 224G (2.4%, 224G)
SeniorBunk: 100G (1.1%, 2,884G)
