Final Bets: green - 17 bets for 19,063G (60.7%, x0.65); yellow - 5 bets for 12,336G (39.3%, x1.55)

green bets:
DudeMonkey77: 11,723G (61.5%, 11,723G)
Draconis345: 1,000G (5.2%, 45,961G)
BirbBrainsBot: 1,000G (5.2%, 164,825G)
TheChainNerd: 830G (4.4%, 8,308G)
DeathTaxesAndAnime: 800G (4.2%, 800G)
Zeroroute: 600G (3.1%, 600G)
VolgraTheMoose: 572G (3.0%, 572G)
dogsandcatsand: 540G (2.8%, 1,080G)
getthemoneyz: 450G (2.4%, 1,167,840G)
prince_rogers_nelson_: 304G (1.6%, 304G)
twelfthrootoftwo: 300G (1.6%, 6,702G)
NightwolfXVI: 300G (1.6%, 4,050G)
datadrivenbot: 200G (1.0%, 55,488G)
GBZero: 188G (1.0%, 188G)
nhammen: 100G (0.5%, 8,717G)
enkikavlar: 100G (0.5%, 1,676G)
SephDarkheart: 56G (0.3%, 5,678G)

yellow bets:
Baron_von_Scrub: 7,593G (61.6%, 15,186G)
maicovisky: 2,345G (19.0%, 59,429G)
skipsandwiches: 1,000G (8.1%, 1,000G)
Breakdown777: 886G (7.2%, 1,773G)
BlackFireUK: 512G (4.2%, 512G)
