Final Bets: black - 12 bets for 19,819G (74.1%, x0.35); champion - 15 bets for 6,932G (25.9%, x2.86)

black bets:
bruubarg: 10,000G (50.5%, 21,000G)
Thyrandaal: 3,333G (16.8%, 66,910G)
JumbocactuarX27: 2,322G (11.7%, 2,322G)
ShintaroNayaka: 1,258G (6.3%, 2,746G)
BlackFireUK: 1,000G (5.0%, 17,895G)
twelfthrootoftwo: 500G (2.5%, 2,742G)
DustBirdEX: 456G (2.3%, 6,352G)
d4rr1n: 300G (1.5%, 6,923G)
TheChainNerd: 250G (1.3%, 2,440G)
actual_JP: 200G (1.0%, 5,761G)
AllInBot: 100G (0.5%, 100G)
datadrivenbot: 100G (0.5%, 42,622G)

champion bets:
JethroThrul: 1,094G (15.8%, 1,094G)
BirbBrainsBot: 1,000G (14.4%, 66,690G)
Error72: 1,000G (14.4%, 11,441G)
getthemoneyz: 676G (9.8%, 969,407G)
prince_rogers_nelson_: 644G (9.3%, 644G)
roofiepops: 496G (7.2%, 496G)
Evewho: 448G (6.5%, 448G)
TeaTime29: 300G (4.3%, 14,048G)
RunicMagus: 250G (3.6%, 65,543G)
AltimaMantoid: 224G (3.2%, 224G)
ZCKaiser: 200G (2.9%, 1,483G)
brokenknight201: 200G (2.9%, 1,712G)
docmitchphd: 200G (2.9%, 996G)
serperemagus: 100G (1.4%, 6,092G)
CosmicTactician: 100G (1.4%, 7,761G)
