Final Bets: blue - 10 bets for 4,822G (65.2%, x0.53); brown - 11 bets for 2,579G (34.8%, x1.87)

blue bets:
prince_rogers_nelson_: 2,000G (41.5%, 7,066G)
genericco: 920G (19.1%, 1,805G)
helpimabug: 438G (9.1%, 438G)
reddwind_: 299G (6.2%, 4,968G)
Monopool: 284G (5.9%, 284G)
ColetteMSLP: 228G (4.7%, 228G)
gorgewall: 201G (4.2%, 6,117G)
DAC169: 180G (3.7%, 180G)
foofermoofer: 172G (3.6%, 172G)
datadrivenbot: 100G (2.1%, 35,512G)

brown bets:
rednecknazgul: 563G (21.8%, 563G)
RaIshtar: 500G (19.4%, 10,009G)
waterwatereverywhere: 400G (15.5%, 8,316G)
BirbBrainsBot: 376G (14.6%, 188,110G)
KasugaiRoastedPeas: 200G (7.8%, 3,528G)
getthemoneyz: 128G (5.0%, 851,716G)
Celdia: 100G (3.9%, 3,360G)
trinitis: 100G (3.9%, 100G)
Avin_Chaos: 100G (3.9%, 14,517G)
ar_tactic: 100G (3.9%, 62,326G)
wollip: 12G (0.5%, 257G)
