Final Bets: red - 19 bets for 17,388G (68.4%, x0.46); green - 11 bets for 8,015G (31.6%, x2.17)

red bets:
NicoSavoy: 3,747G (21.5%, 3,747G)
latebit: 2,940G (16.9%, 58,806G)
bigbongsmoker: 2,484G (14.3%, 24,843G)
gorgewall: 1,312G (7.5%, 1,312G)
ko2q: 1,263G (7.3%, 1,263G)
holdenmagronik: 800G (4.6%, 800G)
AbandonedHall: 744G (4.3%, 744G)
moonliquor: 500G (2.9%, 68,859G)
kononeko: 500G (2.9%, 2,726G)
resjudicata3: 488G (2.8%, 488G)
SephDarkheart: 432G (2.5%, 5,270G)
CorpusCav: 400G (2.3%, 27,121G)
AllInBot: 351G (2.0%, 351G)
BirbBrainsBot: 307G (1.8%, 46,951G)
CapnChaos12: 300G (1.7%, 6,964G)
Riley331: 220G (1.3%, 220G)
TheBrett: 200G (1.2%, 1,032G)
datadrivenbot: 200G (1.2%, 79,794G)
2b_yorha_b: 200G (1.2%, 498G)

green bets:
E_Ballard: 2,886G (36.0%, 2,886G)
Zachara: 1,364G (17.0%, 141,364G)
LDSkinny: 1,000G (12.5%, 16,520G)
vikiz889: 1,000G (12.5%, 3,475G)
SkylerBunny: 724G (9.0%, 724G)
JonnyCue: 500G (6.2%, 7,223G)
baumgrattler: 200G (2.5%, 3,447G)
Smugzug: 107G (1.3%, 824G)
maakur_: 100G (1.2%, 9,218G)
skipsandwiches: 100G (1.2%, 159,248G)
getthemoneyz: 34G (0.4%, 2,093,425G)
