Final Bets: red - 18 bets for 17,571G (52.3%, x0.91); purple - 20 bets for 16,042G (47.7%, x1.10)

red bets:
moonliquor: 5,000G (28.5%, 69,089G)
DLJuggernaut: 2,925G (16.6%, 2,925G)
bigbongsmoker: 2,745G (15.6%, 27,459G)
kononeko: 956G (5.4%, 956G)
ko2q: 927G (5.3%, 927G)
E_Ballard: 792G (4.5%, 792G)
dogsandcatsand: 756G (4.3%, 5,818G)
CorpusCav: 700G (4.0%, 27,644G)
Nizaha: 612G (3.5%, 10,451G)
thunderducker: 500G (2.8%, 2,178G)
Cryptopsy70: 396G (2.3%, 1,694G)
CapnChaos12: 300G (1.7%, 6,802G)
getthemoneyz: 290G (1.7%, 2,093,442G)
Rytor: 200G (1.1%, 42,320G)
bufuman: 200G (1.1%, 5,034G)
maakur_: 100G (0.6%, 9,018G)
baumgrattler: 100G (0.6%, 2,247G)
Smugzug: 72G (0.4%, 802G)

purple bets:
LDSkinny: 7,760G (48.4%, 15,520G)
latebit: 3,092G (19.3%, 61,859G)
gorgewall: 812G (5.1%, 812G)
AllInBot: 803G (5.0%, 803G)
Riley331: 502G (3.1%, 502G)
old_overholt_: 500G (3.1%, 38,418G)
lube_squid: 500G (3.1%, 11,215G)
SephDarkheart: 432G (2.7%, 5,469G)
iBluntDouble: 220G (1.4%, 220G)
retrozu: 200G (1.2%, 200G)
TheBrett: 200G (1.2%, 1,124G)
datadrivenbot: 200G (1.2%, 79,686G)
2b_yorha_b: 200G (1.2%, 703G)
nhammen: 100G (0.6%, 41,074G)
AbandonedHall: 100G (0.6%, 1,701G)
RunicMagus: 100G (0.6%, 29,290G)
skipsandwiches: 100G (0.6%, 159,148G)
skillomono: 100G (0.6%, 1,145G)
Lord_Gwarth: 100G (0.6%, 2,459G)
BirbBrainsBot: 21G (0.1%, 47,658G)
