Final Bets: red - 25 bets for 26,734G (62.1%, x0.61); champion - 17 bets for 16,320G (37.9%, x1.64)

red bets:
NicoSavoy: 5,474G (20.5%, 5,474G)
bigbongsmoker: 2,996G (11.2%, 29,965G)
latebit: 2,938G (11.0%, 58,767G)
DLJuggernaut: 2,853G (10.7%, 5,595G)
Nizaha: 2,000G (7.5%, 11,010G)
E_Ballard: 1,515G (5.7%, 1,515G)
CorpusCav: 1,200G (4.5%, 28,283G)
old_overholt_: 1,000G (3.7%, 37,918G)
BirbBrainsBot: 1,000G (3.7%, 47,637G)
nhammen: 1,000G (3.7%, 40,974G)
gorgewall: 812G (3.0%, 812G)
dogsandcatsand: 756G (2.8%, 6,508G)
bufuman: 500G (1.9%, 5,217G)
reddwind_: 480G (1.8%, 2,659G)
getthemoneyz: 418G (1.6%, 2,093,707G)
CapnChaos12: 300G (1.1%, 7,076G)
2b_yorha_b: 300G (1.1%, 503G)
AllInBot: 200G (0.7%, 200G)
AbandonedHall: 200G (0.7%, 1,601G)
datadrivenbot: 200G (0.7%, 79,486G)
Smugzug: 164G (0.6%, 868G)
Riley331: 128G (0.5%, 128G)
maakur_: 100G (0.4%, 9,109G)
skillomono: 100G (0.4%, 1,045G)
moonliquor: 100G (0.4%, 73,654G)

champion bets:
Thyrandaal: 5,000G (30.6%, 228,266G)
LDSkinny: 3,880G (23.8%, 7,760G)
evontno: 1,200G (7.4%, 9,086G)
kononeko: 914G (5.6%, 1,829G)
Laserman1000: 900G (5.5%, 9,200G)
thunderducker: 700G (4.3%, 2,634G)
mindblownnnn: 700G (4.3%, 9,728G)
TheBrett: 600G (3.7%, 924G)
run_with_stone_GUNs: 472G (2.9%, 8,874G)
SephDarkheart: 432G (2.6%, 5,037G)
Lolthsmeat: 422G (2.6%, 422G)
baumgrattler: 400G (2.5%, 2,338G)
retrozu: 200G (1.2%, 200G)
Rytor: 200G (1.2%, 42,507G)
RunicMagus: 100G (0.6%, 29,190G)
xGlaive: 100G (0.6%, 104G)
Lord_Gwarth: 100G (0.6%, 2,359G)
