Final Bets: black - 16 bets for 8,764G (30.7%, x2.26); champion - 16 bets for 19,793G (69.3%, x0.44)

black bets:
Lydian_C: 2,400G (27.4%, 146,771G)
NoNotBees: 1,121G (12.8%, 1,121G)
ungabunga_bot: 1,000G (11.4%, 209,205G)
reinoe: 600G (6.8%, 600G)
CapnChaos12: 500G (5.7%, 48,547G)
superdevon1: 500G (5.7%, 3,775G)
rocl: 500G (5.7%, 53,285G)
mirapoix: 400G (4.6%, 400G)
byrdturbo: 333G (3.8%, 8,431G)
R_Raynos: 324G (3.7%, 324G)
uncharreted: 300G (3.4%, 2,056G)
Estan_AD: 250G (2.9%, 7,142G)
helpimabug: 236G (2.7%, 236G)
AllInBot: 100G (1.1%, 100G)
Lali_Lulelo: 100G (1.1%, 19,566G)
datadrivenbot: 100G (1.1%, 230G)

champion bets:
HaplessOne: 5,000G (25.3%, 118,172G)
sinnyil2: 3,500G (17.7%, 101,305G)
aStatue: 2,091G (10.6%, 2,091G)
WireLord: 2,000G (10.1%, 55,077G)
leakimiko: 1,384G (7.0%, 17,312G)
Shakarak: 1,060G (5.4%, 1,060G)
Faplo: 1,000G (5.1%, 2,226G)
BirbBrainsBot: 1,000G (5.1%, 82,481G)
Wesablo: 1,000G (5.1%, 2,495G)
reverv: 500G (2.5%, 10,583G)
Ethquan: 500G (2.5%, 2,739G)
ZZ_Yoshi: 250G (1.3%, 68,222G)
Mikumari12: 208G (1.1%, 208G)
Evewho: 100G (0.5%, 1,856G)
DeathTaxesAndAnime: 100G (0.5%, 10,512G)
twelfthrootoftwo: 100G (0.5%, 6,685G)
