Final Bets: white - 10 bets for 5,549G (51.2%, x0.95); black - 5 bets for 5,289G (48.8%, x1.05)

white bets:
genericco: 1,260G (22.7%, 1,260G)
BirbBrainsBot: 1,000G (18.0%, 92,079G)
bruubarg: 1,000G (18.0%, 23,860G)
getthemoneyz: 542G (9.8%, 984,985G)
BStarTV: 500G (9.0%, 10,506G)
Spuzzmocker: 467G (8.4%, 467G)
Sairentozon7: 376G (6.8%, 376G)
kilrazin: 200G (3.6%, 466G)
ThisGuyLovesMath: 104G (1.9%, 104G)
Evewho: 100G (1.8%, 10,256G)

black bets:
reinoe: 2,000G (37.8%, 18,483G)
YaBoy125: 1,625G (30.7%, 54,180G)
Lydian_C: 1,200G (22.7%, 23,035G)
AltimaMantoid: 264G (5.0%, 1,664G)
pancake11112: 200G (3.8%, 604G)
