Final Bets: purple - 10 bets for 8,001G (64.1%, x0.56); brown - 8 bets for 4,474G (35.9%, x1.79)

purple bets:
YaBoy125: 5,588G (69.8%, 55,885G)
nekojin: 748G (9.3%, 748G)
solomongrundy85: 600G (7.5%, 5,209G)
AltimaMantoid: 341G (4.3%, 1,941G)
KasugaiRoastedPeas: 200G (2.5%, 19,239G)
Lydian_C: 120G (1.5%, 24,294G)
ThisGuyLovesMath: 104G (1.3%, 104G)
Evewho: 100G (1.2%, 10,156G)
kilrazin: 100G (1.2%, 266G)
pancake11112: 100G (1.2%, 814G)

brown bets:
reinoe: 1,000G (22.4%, 20,581G)
BirbBrainsBot: 1,000G (22.4%, 91,079G)
NicoSavoy: 1,000G (22.4%, 11,410G)
getthemoneyz: 582G (13.0%, 984,443G)
TeaTime29: 300G (6.7%, 12,197G)
Spuzzmocker: 256G (5.7%, 256G)
genericco: 236G (5.3%, 236G)
slickdang: 100G (2.2%, 987G)
