Final Bets: black - 8 bets for 4,396G (39.1%, x1.56); brown - 10 bets for 6,848G (60.9%, x0.64)

black bets:
Lydian_C: 1,200G (27.3%, 24,054G)
sinnyil2: 1,200G (27.3%, 19,236G)
pancake11112: 765G (17.4%, 765G)
BStarTV: 700G (15.9%, 10,006G)
AltimaMantoid: 227G (5.2%, 1,727G)
ThisGuyLovesMath: 104G (2.4%, 104G)
Evewho: 100G (2.3%, 10,056G)
Miku_Shikhu: 100G (2.3%, 16,482G)

brown bets:
YaBoy125: 1,463G (21.4%, 48,789G)
reinoe: 1,000G (14.6%, 23,384G)
BirbBrainsBot: 1,000G (14.6%, 93,375G)
NicoSavoy: 1,000G (14.6%, 13,710G)
Spuzzmocker: 714G (10.4%, 714G)
genericco: 658G (9.6%, 658G)
nekojin: 398G (5.8%, 398G)
gorgewall: 301G (4.4%, 14,963G)
getthemoneyz: 214G (3.1%, 985,793G)
slickdang: 100G (1.5%, 1,087G)
