Final Bets: red - 10 bets for 5,245G (49.9%, x1.00); blue - 7 bets for 5,266G (50.1%, x1.00)

red bets:
upvla: 2,000G (38.1%, 28,625G)
twelfthrootoftwo: 1,262G (24.1%, 1,262G)
DeathTaxesAndAnime: 708G (13.5%, 708G)
AllInBot: 308G (5.9%, 308G)
Lythe_Caraker: 250G (4.8%, 142,216G)
datadrivenbot: 200G (3.8%, 30,276G)
JLinkletter: 196G (3.7%, 196G)
Lydian_C: 121G (2.3%, 72,420G)
boosted420: 100G (1.9%, 100G)
DHaveWord: 100G (1.9%, 9,798G)

blue bets:
superdevon1: 1,145G (21.7%, 11,455G)
BirbBrainsBot: 1,000G (19.0%, 187,723G)
WitchHunterIX: 1,000G (19.0%, 18,145G)
getthemoneyz: 722G (13.7%, 1,303,577G)
porkchop5158: 550G (10.4%, 34,659G)
Coolguye: 497G (9.4%, 4,978G)
randgridr: 352G (6.7%, 2,722G)
