Final Bets: white - 7 bets for 4,393G (41.8%, x1.39); purple - 7 bets for 6,124G (58.2%, x0.72)

white bets:
EnemyController: 1,111G (25.3%, 1,451,466G)
WitchHunterIX: 1,000G (22.8%, 20,826G)
BirbBrainsBot: 1,000G (22.8%, 190,227G)
superdevon1: 674G (15.3%, 13,496G)
getthemoneyz: 408G (9.3%, 1,304,917G)
DHaveWord: 100G (2.3%, 9,576G)
boosted420: 100G (2.3%, 100G)

purple bets:
Lydian_C: 4,200G (68.6%, 76,130G)
twelfthrootoftwo: 544G (8.9%, 544G)
prince_rogers_nelson_: 428G (7.0%, 428G)
randgridr: 352G (5.7%, 352G)
AllInBot: 200G (3.3%, 200G)
JLinkletter: 200G (3.3%, 200G)
datadrivenbot: 200G (3.3%, 30,374G)
