Final Bets: blue - 11 bets for 6,162G (50.5%, x0.98); purple - 4 bets for 6,046G (49.5%, x1.02)

blue bets:
superdevon1: 1,282G (20.8%, 12,822G)
BirbBrainsBot: 1,000G (16.2%, 189,227G)
Sairentozon7: 1,000G (16.2%, 20,144G)
WitchHunterIX: 1,000G (16.2%, 19,826G)
porkchop5158: 500G (8.1%, 35,515G)
getthemoneyz: 380G (6.2%, 1,304,509G)
AllInBot: 343G (5.6%, 343G)
Furgers: 257G (4.2%, 257G)
datadrivenbot: 200G (3.2%, 30,517G)
DHaveWord: 100G (1.6%, 9,476G)
boosted420: 100G (1.6%, 100G)

purple bets:
Lydian_C: 4,200G (69.5%, 79,143G)
twelfthrootoftwo: 934G (15.4%, 934G)
BoneMiser: 569G (9.4%, 569G)
JLinkletter: 343G (5.7%, 343G)
