Final Bets: red - 16 bets for 8,949G (63.9%, x0.57); blue - 15 bets for 5,063G (36.1%, x1.77)

red bets:
SkylerBunny: 2,000G (22.3%, 314,828G)
DeathTaxesAndAnime: 1,785G (19.9%, 1,785G)
Zeroroute: 1,376G (15.4%, 3,263G)
Spartan_Paladin: 800G (8.9%, 43,306G)
Zagorsek: 568G (6.3%, 568G)
Lumberinjack: 500G (5.6%, 5,219G)
HaateXIII: 500G (5.6%, 2,280G)
Smashy: 300G (3.4%, 6,083G)
twelfthrootoftwo: 300G (3.4%, 2,221G)
AllInBot: 200G (2.2%, 200G)
datadrivenbot: 200G (2.2%, 50,425G)
coralreeferz: 140G (1.6%, 26,974G)
ANFz: 101G (1.1%, 54,999G)
gorgewall: 101G (1.1%, 1,344G)
tanarusasamiya: 53G (0.6%, 1,353G)
murdecat: 25G (0.3%, 100G)

blue bets:
douchetron: 1,518G (30.0%, 1,518G)
ko2q: 864G (17.1%, 1,729G)
getthemoneyz: 400G (7.9%, 1,536,519G)
Shalloween: 400G (7.9%, 17,114G)
fattunaking: 380G (7.5%, 380G)
GladiatorLupe: 316G (6.2%, 316G)
zenlion: 216G (4.3%, 216G)
BirbBrainsBot: 200G (4.0%, 200G)
Lydian_C: 123G (2.4%, 7,025G)
ohhinm: 123G (2.4%, 1,969G)
daveb_: 122G (2.4%, 2,629G)
DLJuggernaut: 101G (2.0%, 1,101G)
RunicMagus: 100G (2.0%, 3,629G)
CosmicTactician: 100G (2.0%, 2,901G)
Peluroma: 100G (2.0%, 691G)
