Final Bets: white - 12 bets for 28,647G (79.7%, x0.25); purple - 15 bets for 7,303G (20.3%, x3.92)

white bets:
KasugaiRoastedPeas: 20,000G (69.8%, 22,159G)
Zeroroute: 2,179G (7.6%, 2,179G)
resjudicata3: 2,000G (7.0%, 5,027G)
pplvee1: 1,479G (5.2%, 2,900G)
killth3kid: 632G (2.2%, 5,016G)
douchetron: 600G (2.1%, 600G)
Spartan_Paladin: 500G (1.7%, 43,506G)
Smashy: 500G (1.7%, 8,275G)
ohhinm: 234G (0.8%, 3,749G)
PantherIscariot: 222G (0.8%, 1,563G)
datadrivenbot: 200G (0.7%, 49,821G)
ANFz: 101G (0.4%, 50,641G)

purple bets:
Lydian_C: 1,200G (16.4%, 9,835G)
ko2q: 1,000G (13.7%, 10,637G)
BirbBrainsBot: 1,000G (13.7%, 4,818G)
nhammen: 1,000G (13.7%, 189,510G)
DeathTaxesAndAnime: 940G (12.9%, 940G)
Shalloween: 500G (6.8%, 18,909G)
Laserman1000: 436G (6.0%, 2,436G)
CorpusCav: 300G (4.1%, 1,888G)
AllInBot: 200G (2.7%, 200G)
twelfthrootoftwo: 200G (2.7%, 4,005G)
getthemoneyz: 126G (1.7%, 1,539,858G)
gorgewall: 101G (1.4%, 1,839G)
tohim: 100G (1.4%, 100G)
RunicMagus: 100G (1.4%, 4,706G)
murdecat: 100G (1.4%, 332G)
