Final Bets: white - 15 bets for 15,092G (56.7%, x0.76); black - 10 bets for 11,516G (43.3%, x1.31)

white bets:
reinoe: 3,000G (19.9%, 13,539G)
Mesmaster: 2,000G (13.3%, 154,967G)
nifboy: 1,856G (12.3%, 3,712G)
SkylerBunny: 1,800G (11.9%, 558,255G)
sinnyil2: 1,741G (11.5%, 3,483G)
Dasutin23: 1,000G (6.6%, 31,633G)
foofermoofer: 912G (6.0%, 912G)
Shalloween: 700G (4.6%, 46,978G)
SamaelMerihem: 626G (4.1%, 626G)
prince_rogers_nelson_: 600G (4.0%, 600G)
killth3kid: 500G (3.3%, 2,346G)
Ring_Wyrm: 100G (0.7%, 1,525G)
datadrivenbot: 100G (0.7%, 48,605G)
flacococo: 100G (0.7%, 1,796G)
silentkaster: 57G (0.4%, 11,257G)

black bets:
OneHundredFists: 6,869G (59.6%, 13,470G)
BirbBrainsBot: 1,000G (8.7%, 139,834G)
DamnThatShark: 846G (7.3%, 846G)
victoriolue: 556G (4.8%, 556G)
DuraiPapers: 500G (4.3%, 22,541G)
Creggers: 500G (4.3%, 19,490G)
DAC169: 465G (4.0%, 465G)
getthemoneyz: 348G (3.0%, 1,025,808G)
Kronikle: 332G (2.9%, 332G)
maldis40: 100G (0.9%, 1,072G)
