Final Bets: purple - 15 bets for 19,413G (62.8%, x0.59); brown - 13 bets for 11,482G (37.2%, x1.69)

purple bets:
OneHundredFists: 6,601G (34.0%, 6,601G)
reinoe: 3,000G (15.5%, 15,828G)
SkylerBunny: 2,500G (12.9%, 559,628G)
sinnyil2: 2,405G (12.4%, 4,811G)
DuraiPapers: 1,500G (7.7%, 22,041G)
DLJuggernaut: 1,207G (6.2%, 1,207G)
HaateXIII: 400G (2.1%, 5,980G)
Ring_Wyrm: 400G (2.1%, 1,601G)
DeathTaxesAndAnime: 300G (1.5%, 5,782G)
flacococo: 300G (1.5%, 1,872G)
Nohurty: 200G (1.0%, 910G)
RunicMagus: 200G (1.0%, 55,791G)
maldis40: 200G (1.0%, 972G)
nifboy: 100G (0.5%, 5,128G)
datadrivenbot: 100G (0.5%, 48,681G)

brown bets:
Mesmaster: 5,000G (43.5%, 156,493G)
BirbBrainsBot: 1,000G (8.7%, 138,834G)
Digitalsocrates: 1,000G (8.7%, 25,956G)
Dasutin23: 1,000G (8.7%, 32,396G)
prince_rogers_nelson_: 952G (8.3%, 952G)
victoriolue: 556G (4.8%, 556G)
Shalloween: 400G (3.5%, 47,512G)
marin1987: 400G (3.5%, 9,564G)
roofiepops: 380G (3.3%, 380G)
Kronikle: 332G (2.9%, 332G)
getthemoneyz: 262G (2.3%, 1,025,460G)
silentkaster: 100G (0.9%, 11,300G)
Evewho: 100G (0.9%, 2,534G)
