Final Bets: white - 21 bets for 13,943G (42.9%, x1.33); purple - 20 bets for 18,560G (57.1%, x0.75)

white bets:
Shakarak: 2,000G (14.3%, 9,551G)
Grimmace45: 1,713G (12.3%, 3,426G)
eudes89: 1,700G (12.2%, 1,700G)
aStatue: 1,100G (7.9%, 1,100G)
Chrysaors: 1,063G (7.6%, 26,596G)
ungabunga_bot: 1,000G (7.2%, 288,014G)
BirbBrainsBot: 1,000G (7.2%, 134,988G)
nifboy: 936G (6.7%, 936G)
FoxtrotNovemberCharlie: 780G (5.6%, 780G)
Aldrammech: 600G (4.3%, 600G)
volgrathemoose: 501G (3.6%, 18,479G)
TheRylander: 404G (2.9%, 404G)
astrozin11: 356G (2.6%, 356G)
hydroshade: 150G (1.1%, 1,013G)
Jerboj: 100G (0.7%, 59,043G)
tmo50x: 100G (0.7%, 9,125G)
bairen0: 100G (0.7%, 600G)
datadrivenbot: 100G (0.7%, 10,750G)
ANFz: 100G (0.7%, 22,548G)
getthemoneyz: 90G (0.6%, 612,236G)
Bioticism: 50G (0.4%, 3,495G)

purple bets:
Lordminsc: 6,145G (33.1%, 6,145G)
Zeroroute: 3,247G (17.5%, 8,051G)
Pie108: 2,000G (10.8%, 185,151G)
coralreeferz: 1,471G (7.9%, 1,471G)
itsdigitalbro: 1,159G (6.2%, 1,159G)
fenaen: 804G (4.3%, 804G)
ACSpree: 732G (3.9%, 732G)
Shalloween: 500G (2.7%, 29,741G)
Billybones5150: 500G (2.7%, 27,734G)
DustBirdEX: 444G (2.4%, 3,026G)
ZephyrTempest: 400G (2.2%, 617G)
AmewTheFox: 200G (1.1%, 12,747G)
run_with_STONE_GUNS: 200G (1.1%, 3,884G)
ko2q: 199G (1.1%, 2,268G)
moonliquor: 100G (0.5%, 590G)
FriendSquirrel: 100G (0.5%, 23,025G)
mirapoix: 100G (0.5%, 5,508G)
DrAntiSocial: 100G (0.5%, 3,729G)
WrathfulRemy: 100G (0.5%, 1,504G)
Nova_riety: 59G (0.3%, 1,307G)
