Final Bets: red - 27 bets for 25,630G (78.5%, x0.27); yellow - 21 bets for 7,035G (21.5%, x3.64)

red bets:
nifboy: 9,901G (38.6%, 19,802G)
OneHundredFists: 5,000G (19.5%, 41,003G)
reinoe: 2,100G (8.2%, 18,670G)
mpghappiness: 1,314G (5.1%, 1,314G)
prince_rogers_nelson_: 1,000G (3.9%, 33,556G)
metagameface: 1,000G (3.9%, 23,389G)
neocarbuncle: 724G (2.8%, 724G)
RunicMagus: 600G (2.3%, 59,786G)
DivineApocalypse: 495G (1.9%, 495G)
getthemoneyz: 338G (1.3%, 931,866G)
Miku_Shikhu: 300G (1.2%, 7,979G)
CosmicTactician: 300G (1.2%, 1,542G)
fox_mulder23: 300G (1.2%, 805G)
NightwolfXVI: 280G (1.1%, 280G)
Error72: 250G (1.0%, 12,241G)
DAC169: 220G (0.9%, 220G)
Evewho: 200G (0.8%, 17,253G)
Monopool: 200G (0.8%, 1,750G)
Flameatron: 200G (0.8%, 2,939G)
Belted_Kingfisher: 188G (0.7%, 188G)
DeadGirlzREasy: 112G (0.4%, 112G)
acid_flashback: 108G (0.4%, 108G)
AllInBot: 100G (0.4%, 100G)
alithesillybird: 100G (0.4%, 945G)
deepsynch: 100G (0.4%, 100G)
NeoKevlar: 100G (0.4%, 4,193G)
datadrivenbot: 100G (0.4%, 38,176G)

yellow bets:
Thyrandaal: 1,180G (16.8%, 2,315G)
BirbBrainsBot: 1,000G (14.2%, 172,882G)
Rislyeu: 1,000G (14.2%, 42,594G)
electric_algus: 500G (7.1%, 14,694G)
WitchHunterIX: 500G (7.1%, 1,120G)
Shalloween: 464G (6.6%, 464G)
kaelsun: 300G (4.3%, 300G)
pplvee1: 276G (3.9%, 276G)
VagabondAzulien: 212G (3.0%, 212G)
gorgewall: 201G (2.9%, 20,401G)
skillomono: 200G (2.8%, 3,501G)
Meta_Five: 200G (2.8%, 14,846G)
benticore: 151G (2.1%, 3,037G)
autnagrag: 122G (1.7%, 5,177G)
Lydian_C: 120G (1.7%, 4,088G)
silentkaster: 108G (1.5%, 808G)
LAGBOT30000: 101G (1.4%, 1,012G)
Quadh0nk: 100G (1.4%, 515G)
KittymanAdvance: 100G (1.4%, 100G)
Azelgrim: 100G (1.4%, 100G)
Mosses76: 100G (1.4%, 33,130G)
