Final Bets: blue - 35 bets for 23,313G (61.1%, x0.64); white - 28 bets for 14,862G (38.9%, x1.57)

blue bets:
DeathTaxesAndAnime: 3,600G (15.4%, 28,689G)
HaplessOne: 3,000G (12.9%, 36,051G)
Lord_Burrah: 1,200G (5.1%, 87,697G)
fenaen: 1,047G (4.5%, 1,047G)
sinnyil2: 1,008G (4.3%, 1,008G)
WalkerNash: 1,001G (4.3%, 18,600G)
TheChainNerd: 1,000G (4.3%, 4,915G)
BirbBrainsBot: 1,000G (4.3%, 6,574G)
perkisle: 1,000G (4.3%, 6,140G)
bad1dea: 1,000G (4.3%, 252,055G)
Masta_Glenn: 1,000G (4.3%, 2,232G)
fenixcrest: 959G (4.1%, 9,590G)
Baron_von_Scrub: 850G (3.6%, 850G)
Goust18: 700G (3.0%, 21,087G)
Lanshaft: 580G (2.5%, 6,312G)
SerumD: 500G (2.1%, 4,681G)
red__lancer: 400G (1.7%, 14,620G)
IndecisiveNinja: 352G (1.5%, 352G)
Chuckolator: 339G (1.5%, 5,862G)
buddychrist10: 304G (1.3%, 304G)
ZephyrTempest: 302G (1.3%, 3,437G)
MattMan119: 300G (1.3%, 4,764G)
JumbocactuarX27: 256G (1.1%, 256G)
Spartan_Paladin: 244G (1.0%, 12,644G)
sect_cor: 200G (0.9%, 22,166G)
reinoe: 200G (0.9%, 3,089G)
ratchety: 148G (0.6%, 740G)
PlatinumPlume: 123G (0.5%, 7,986G)
CorpusCav: 100G (0.4%, 5,012G)
ko2q: 100G (0.4%, 1,160G)
Chao_Garden: 100G (0.4%, 3,562G)
maakur_: 100G (0.4%, 7,001G)
Reiniku: 100G (0.4%, 100G)
powergems: 100G (0.4%, 5,677G)
Aislingeach: 100G (0.4%, 7,742G)

white bets:
Winterharte: 1,801G (12.1%, 4,801G)
Zeroroute: 1,611G (10.8%, 4,340G)
urieltheflameofgod: 1,264G (8.5%, 2,529G)
CapnChaos12: 1,124G (7.6%, 1,124G)
roofiepops: 1,097G (7.4%, 1,097G)
Lazerkick: 1,000G (6.7%, 15,174G)
Vampire_Killer: 1,000G (6.7%, 15,393G)
Lodrak: 704G (4.7%, 704G)
BadBlanket: 500G (3.4%, 5,548G)
Fallenmagi: 500G (3.4%, 2,301G)
EnemyController: 500G (3.4%, 19,135G)
cheezybuda: 336G (2.3%, 336G)
SpaZmodeus: 333G (2.2%, 4,315G)
genoguy: 320G (2.2%, 320G)
LDSkinny: 312G (2.1%, 312G)
Cataphract116: 300G (2.0%, 1,807G)
LASERJESUS1337: 300G (2.0%, 5,061G)
MrDiggs49: 300G (2.0%, 5,926G)
theallmightyensiron: 208G (1.4%, 208G)
GrayGhostGaming: 202G (1.4%, 202G)
ELzukkor: 200G (1.3%, 7,341G)
Oshimi12: 200G (1.3%, 2,464G)
WoooBlaaa: 200G (1.3%, 827G)
Verxl: 200G (1.3%, 1,499G)
MajikNinja44: 100G (0.7%, 886G)
HaychDub: 100G (0.7%, 25,446G)
domeil: 100G (0.7%, 657G)
getthemoneyz: 50G (0.3%, 390,365G)
