Final Bets: green - 21 bets for 7,585G (43.9%, x1.28); yellow - 16 bets for 9,696G (56.1%, x0.78)

green bets:
TheGuesty: 2,771G (36.5%, 29,771G)
maakur_: 760G (10.0%, 760G)
ungabunga_bot: 611G (8.1%, 482,318G)
Strifu: 570G (7.5%, 570G)
HaateXIII: 400G (5.3%, 400G)
luminarii: 350G (4.6%, 14,181G)
twelfthrootoftwo: 300G (4.0%, 9,899G)
Nizaha: 201G (2.6%, 5,682G)
otakutaylor: 200G (2.6%, 1,207G)
guering: 200G (2.6%, 3,971G)
TheUnforgivenRage: 188G (2.5%, 188G)
sSwing: 150G (2.0%, 5,750G)
nifboy: 100G (1.3%, 2,009G)
rjA0zcOQ96: 100G (1.3%, 10,269G)
BlackfyreRoy: 100G (1.3%, 2,204G)
aeonicvector: 100G (1.3%, 845G)
thethorndog1: 100G (1.3%, 1,101G)
Evewho: 100G (1.3%, 17,694G)
datadrivenbot: 100G (1.3%, 15,614G)
Corky_McCorkscrew: 100G (1.3%, 100G)
getthemoneyz: 84G (1.1%, 673,729G)

yellow bets:
Baron_von_Scrub: 2,500G (25.8%, 20,990G)
sinnyil2: 1,200G (12.4%, 60,270G)
BirbBrainsBot: 1,000G (10.3%, 26,133G)
Mesmaster: 1,000G (10.3%, 61,712G)
ApplesauceBoss: 614G (6.3%, 1,946G)
Laserman1000: 540G (5.6%, 22,040G)
killth3kid: 500G (5.2%, 849G)
CorpusCav: 470G (4.8%, 14,470G)
metagameface: 424G (4.4%, 424G)
juggalettefurbaby420: 420G (4.3%, 23,171G)
ACSpree: 312G (3.2%, 312G)
gorgewall: 301G (3.1%, 7,634G)
bradsmr: 165G (1.7%, 1,652G)
Firesheath: 100G (1.0%, 26,180G)
Lolprinze: 100G (1.0%, 1,000G)
DrAntiSocial: 50G (0.5%, 14,035G)
