Final Bets: green - 15 bets for 12,335G (51.1%, x0.96); yellow - 12 bets for 11,818G (48.9%, x1.04)

green bets:
gorgewall: 2,700G (21.9%, 2,700G)
ko2q: 1,525G (12.4%, 3,051G)
DeathTaxesAndAnime: 1,497G (12.1%, 2,936G)
AllInBot: 1,005G (8.1%, 1,005G)
BirbBrainsBot: 1,000G (8.1%, 141,268G)
ExplanationMarkWow: 1,000G (8.1%, 34,725G)
MemoriesofFinal: 1,000G (8.1%, 24,288G)
lowlf: 672G (5.4%, 1,549G)
khelor_: 500G (4.1%, 9,324G)
old_overholt_: 500G (4.1%, 65,989G)
ribbiks: 296G (2.4%, 296G)
Evewho: 200G (1.6%, 10,258G)
ValensEXP_: 200G (1.6%, 5,189G)
datadrivenbot: 200G (1.6%, 84,042G)
getthemoneyz: 40G (0.3%, 2,189,251G)

yellow bets:
Mesmaster: 5,000G (42.3%, 14,196G)
reinoe: 2,000G (16.9%, 11,781G)
Mushufasa_: 1,234G (10.4%, 22,206G)
ruleof5: 1,000G (8.5%, 49,036G)
OneHundredFists: 664G (5.6%, 664G)
technominari: 500G (4.2%, 81,965G)
evontno: 500G (4.2%, 3,911G)
KGenjy: 300G (2.5%, 6,705G)
Rhyser76: 220G (1.9%, 220G)
NicoSavoy: 200G (1.7%, 737G)
DragonLord_Carter: 100G (0.8%, 630G)
cloudycube: 100G (0.8%, 397G)
