Final Bets: red - 13 bets for 22,298G (80.5%, x0.24); yellow - 12 bets for 5,418G (19.5%, x4.12)

red bets:
ruleof5: 10,000G (44.8%, 50,080G)
gorgewall: 2,130G (9.6%, 2,130G)
DeathTaxesAndAnime: 1,562G (7.0%, 1,562G)
ko2q: 1,414G (6.3%, 2,829G)
Firesheath: 1,065G (4.8%, 1,065G)
Rhyser76: 1,032G (4.6%, 1,032G)
old_overholt_: 1,000G (4.5%, 65,289G)
technominari: 1,000G (4.5%, 82,195G)
Evewho: 1,000G (4.5%, 9,358G)
MemoriesofFinal: 1,000G (4.5%, 22,988G)
NicoSavoy: 572G (2.6%, 572G)
AllInBot: 323G (1.4%, 323G)
datadrivenbot: 200G (0.9%, 83,765G)

yellow bets:
BirbBrainsBot: 1,000G (18.5%, 139,521G)
ExplanationMarkWow: 1,000G (18.5%, 33,141G)
Morsigil: 700G (12.9%, 5,207G)
lowlf: 672G (12.4%, 877G)
Mushufasa_: 500G (9.2%, 23,751G)
ValensEXP_: 476G (8.8%, 4,789G)
getthemoneyz: 256G (4.7%, 2,189,259G)
PopsLIVE: 244G (4.5%, 4,223G)
baumgrattler: 220G (4.1%, 720G)
resjudicata3: 200G (3.7%, 3,441G)
DragonLord_Carter: 100G (1.8%, 837G)
FuzzyTigers: 50G (0.9%, 908G)
