Final Bets: black - 13 bets for 7,239G (34.5%, x1.90); brown - 16 bets for 13,749G (65.5%, x0.53)

black bets:
superdevon1: 2,360G (32.6%, 11,801G)
MaouDono: 1,000G (13.8%, 21,714G)
BirbBrainsBot: 1,000G (13.8%, 192,977G)
getthemoneyz: 560G (7.7%, 604,551G)
Rislyeu: 500G (6.9%, 1,082G)
CorpusCav: 500G (6.9%, 21,784G)
twelfthrootoftwo: 300G (4.1%, 1,371G)
InOzWeTrust: 256G (3.5%, 256G)
Jahshine: 248G (3.4%, 248G)
madman66666: 200G (2.8%, 1,628G)
ANFz: 111G (1.5%, 32,172G)
goro_0924: 104G (1.4%, 104G)
Firesheath: 100G (1.4%, 9,773G)

brown bets:
Dexsana: 5,000G (36.4%, 17,842G)
pandasforsale: 2,222G (16.2%, 39,336G)
Wonser: 1,341G (9.8%, 1,341G)
Deathmaker06: 1,000G (7.3%, 11,895G)
R_Raynos: 976G (7.1%, 976G)
HaplessOne: 888G (6.5%, 3,583G)
sinnyil2: 709G (5.2%, 14,256G)
mistblade: 500G (3.6%, 16,281G)
ungabunga_bot: 217G (1.6%, 327,131G)
Bioticism: 200G (1.5%, 1,084G)
byrdturbo: 169G (1.2%, 11,848G)
witchlight: 127G (0.9%, 127G)
OneHundredFists: 100G (0.7%, 3,127G)
josephiroth_143: 100G (0.7%, 100G)
datadrivenbot: 100G (0.7%, 11,897G)
Eyepoor_: 100G (0.7%, 341G)
