High Risers:
1. Zeroroute: +8,541G
2. Gooseyourself: +7,822G
3. Dogsandcatsand: +2,155G
4. Upvla: +2,071G
5. Zpawz: +655G
6. Acid_flashback: +653G
7. Thyrandaal: +593G
8. E_ballard: +441G
9. Aceof86: +369G
10. Latebit: +354G
11. Nok____: +333G
12. Ser_pyrro: +272G
13. Zachara: +241G
14. Gingerfoo69: +107G
15. Mrfripps: +49G
16. Runicmagus: +12G
17. Brenogarwin: +11G
18. Memoriesoffinal: -17G
19. Gorgewall: -43G
20. Maakur_: -54G
21. Nhammen: -83G
22. Arumz: -92G
23. Baronhaynes: -100G
24. Friendsquirrel: -100G
25. Grishhammer: -147G
26. Actual_jp: -200G
27. Nwalme583: -233G
28. Valensexp_: -261G
29. Leonidusx: -400G
30. Khelor_: -400G
31. Zerguzen: -401G
32. Cosmictactician: -489G
33. Raixelol: -830G
34. Deathtaxesandanime: -900G
35. Rytor: -912G
36. Greggernaut: -1,000G
37. Pplvee1: -1,000G
38. Prince_rogers_nelson_: -1,000G
39. Sairentozon7: -1,225G
40. Brokenknight201: -1,296G
41. Ribbiks: -1,347G
42. Phi_sig: -1,400G
43. Lazarusajin: -1,469G
44. Daveniii: -1,647G
45. Reinoe: -2,000G
46. Shalloween: -2,108G
47. Error72: -2,902G
48. Volgrathemoose: -2,903G
49. Willjin: -3,377G
