Final Bets: red - 20 bets for 25,794G (85.2%, x0.17); green - 11 bets for 4,484G (14.8%, x5.75)

red bets:
NicoSavoy: 12,000G (46.5%, 75,905G)
iBluntDouble: 2,961G (11.5%, 2,961G)
resjudicata3: 1,514G (5.9%, 1,514G)
Mushufasa_: 1,500G (5.8%, 117,355G)
latebit: 1,282G (5.0%, 1,282G)
CorpusCav: 1,200G (4.7%, 16,536G)
dogsandcatsand: 1,000G (3.9%, 15,008G)
Willjin: 700G (2.7%, 27,914G)
killabandaid: 518G (2.0%, 518G)
krombobreaker: 500G (1.9%, 32,843G)
khelor_: 500G (1.9%, 5,456G)
ValensEXP_: 400G (1.6%, 983G)
DustBirdEX: 352G (1.4%, 2,180G)
bufuman: 329G (1.3%, 329G)
GatrDntPlayNoSht: 204G (0.8%, 204G)
AllInBot: 200G (0.8%, 200G)
DeathTaxesAndAnime: 200G (0.8%, 3,026G)
datadrivenbot: 200G (0.8%, 77,087G)
ShreddySpaghetti: 130G (0.5%, 130G)
ayeCoop: 104G (0.4%, 104G)

green bets:
Perfect_Patrick: 1,000G (22.3%, 10,382G)
getthemoneyz: 732G (16.3%, 2,102,580G)
fattunaking: 673G (15.0%, 673G)
Oreo_Pizza: 500G (11.2%, 255,395G)
Mudrockk: 500G (11.2%, 19,401G)
nhammen: 300G (6.7%, 17,711G)
hecsec: 244G (5.4%, 244G)
BirbBrainsBot: 189G (4.2%, 12,169G)
Jabuamba: 146G (3.3%, 146G)
lotharek: 100G (2.2%, 100G)
BlizzWulf: 100G (2.2%, 1,531G)
