Final Bets: red - 20 bets for 23,207G (77.1%, x0.30); white - 14 bets for 6,898G (22.9%, x3.36)

red bets:
NicoSavoy: 10,000G (43.1%, 77,991G)
latebit: 3,254G (14.0%, 3,254G)
Mushufasa_: 1,500G (6.5%, 119,359G)
Willjin: 1,500G (6.5%, 28,617G)
sinnyil2: 1,200G (5.2%, 186,402G)
DeathTaxesAndAnime: 800G (3.4%, 3,065G)
dogsandcatsand: 744G (3.2%, 15,182G)
DustBirdEX: 600G (2.6%, 2,028G)
bufuman: 502G (2.2%, 502G)
khelor_: 500G (2.2%, 6,124G)
fattunaking: 492G (2.1%, 492G)
resjudicata3: 472G (2.0%, 472G)
gorgewall: 301G (1.3%, 5,264G)
silentkaster: 250G (1.1%, 26,314G)
hecsec: 234G (1.0%, 234G)
GatrDntPlayNoSht: 204G (0.9%, 204G)
AllInBot: 200G (0.9%, 200G)
datadrivenbot: 200G (0.9%, 76,922G)
BlizzWulf: 150G (0.6%, 1,181G)
ShreddySpaghetti: 104G (0.4%, 104G)

white bets:
nhammen: 2,000G (29.0%, 22,059G)
iBluntDouble: 1,000G (14.5%, 4,057G)
BirbBrainsBot: 1,000G (14.5%, 13,142G)
CorpusCav: 600G (8.7%, 16,445G)
krombobreaker: 500G (7.2%, 33,511G)
Shalloween: 400G (5.8%, 10,480G)
Mudrockk: 333G (4.8%, 17,901G)
getthemoneyz: 286G (4.1%, 2,101,985G)
Jabuamba: 251G (3.6%, 251G)
Lolthsmeat: 124G (1.8%, 124G)
ayeCoop: 104G (1.5%, 104G)
lotharek: 100G (1.4%, 100G)
crazyguy1588: 100G (1.4%, 480G)
Perfect_Patrick: 100G (1.4%, 100G)
