Final Bets: white - 10 bets for 55,061G (79.7%, x0.25); brown - 19 bets for 14,003G (20.3%, x3.93)

white bets:
Thyrandaal: 50,000G (90.8%, 402,224G)
BirbBrainsBot: 1,000G (1.8%, 177,563G)
Forkmore: 1,000G (1.8%, 1,889G)
douchetron: 941G (1.7%, 941G)
ko2q: 696G (1.3%, 696G)
E_Ballard: 568G (1.0%, 14,513G)
dogsandcatsand: 516G (0.9%, 516G)
getthemoneyz: 140G (0.3%, 1,584,965G)
MinBetBot: 100G (0.2%, 23,082G)
WillFitzgerald: 100G (0.2%, 5,648G)

brown bets:
Sairentozon7: 5,000G (35.7%, 55,418G)
NIghtdew14: 2,260G (16.1%, 4,521G)
randgridr: 1,000G (7.1%, 11,513G)
LDSkinny: 1,000G (7.1%, 1,968G)
sinnyil2: 800G (5.7%, 9,708G)
SephDarkheart: 520G (3.7%, 56,227G)
Draconis345: 500G (3.6%, 9,950G)
RunicMagus: 500G (3.6%, 4,909G)
Chuckolator: 451G (3.2%, 15,663G)
nhammen: 300G (2.1%, 300G)
Miku_Shikhu: 300G (2.1%, 8,331G)
Rilgon: 272G (1.9%, 1,665G)
AllInBot: 200G (1.4%, 200G)
maximumcrit: 200G (1.4%, 5,446G)
datadrivenbot: 200G (1.4%, 56,644G)
latebit: 188G (1.3%, 3,996G)
xBizzy: 112G (0.8%, 220G)
Lillifen: 100G (0.7%, 100G)
DeathTaxesAndAnime: 100G (0.7%, 1,686G)
