Final Bets: yellow - 17 bets for 15,381G (70.0%, x0.43); brown - 12 bets for 6,597G (30.0%, x2.33)

yellow bets:
peeronid: 3,240G (21.1%, 15,795G)
SephDarkheart: 2,913G (18.9%, 58,272G)
latebit: 2,414G (15.7%, 4,735G)
BirbBrainsBot: 1,000G (6.5%, 176,563G)
randgridr: 1,000G (6.5%, 15,445G)
AllInBot: 986G (6.4%, 986G)
ko2q: 696G (4.5%, 696G)
douchetron: 600G (3.9%, 600G)
E_Ballard: 568G (3.7%, 13,945G)
dogsandcatsand: 516G (3.4%, 516G)
nhammen: 300G (2.0%, 1,480G)
ohhinm: 280G (1.8%, 280G)
Rilgon: 272G (1.8%, 2,735G)
RunicMagus: 250G (1.6%, 6,875G)
Galeronis: 240G (1.6%, 240G)
Thyrandaal: 100G (0.7%, 352,224G)
getthemoneyz: 6G (0.0%, 1,584,825G)

brown bets:
NIghtdew14: 2,011G (30.5%, 13,408G)
LDSkinny: 1,000G (15.2%, 5,900G)
Forkmore: 889G (13.5%, 889G)
maximumcrit: 500G (7.6%, 6,232G)
Draconis345: 500G (7.6%, 11,916G)
Lillifen: 493G (7.5%, 493G)
xBizzy: 336G (5.1%, 660G)
soren_of_tyto: 248G (3.8%, 248G)
foxfaeez: 220G (3.3%, 220G)
datadrivenbot: 200G (3.0%, 57,430G)
MinBetBot: 100G (1.5%, 22,982G)
WillFitzgerald: 100G (1.5%, 5,548G)
