Final Bets: blue - 21 bets for 10,937G (42.5%, x1.35); green - 25 bets for 14,777G (57.5%, x0.74)

blue bets:
HASTERIOUS: 3,500G (32.0%, 70,319G)
DHaveWord: 1,105G (10.1%, 1,105G)
DeathTaxesAndAnime: 1,019G (9.3%, 1,019G)
Nizaha: 1,001G (9.2%, 15,407G)
ValtonZenola: 980G (9.0%, 980G)
jethrothrul: 544G (5.0%, 544G)
JustSuperish: 500G (4.6%, 1,989G)
kingchadking: 384G (3.5%, 384G)
EnemyController: 300G (2.7%, 12,297G)
CorpusCav: 265G (2.4%, 2,659G)
Wizzlesparklefuge: 250G (2.3%, 2,761G)
ugoplatamia: 200G (1.8%, 30,576G)
old_overholt_: 200G (1.8%, 776G)
Slowbrofist: 124G (1.1%, 124G)
AllInBot: 100G (0.9%, 100G)
Alc_Trinity: 100G (0.9%, 34,158G)
SeedSC: 100G (0.9%, 133,569G)
Rogueain: 100G (0.9%, 2,217G)
Phi_Sig: 100G (0.9%, 45,867G)
getthemoneyz: 64G (0.6%, 427,202G)
daveb_: 1G (0.0%, 775G)

green bets:
Zeroroute: 1,907G (12.9%, 3,474G)
holyonline: 1,772G (12.0%, 11,819G)
Nickyfive: 1,616G (10.9%, 1,616G)
Shalloween: 1,400G (9.5%, 77,979G)
Boojob: 1,000G (6.8%, 9,824G)
BirbBrainsBot: 1,000G (6.8%, 182,357G)
bad1dea: 1,000G (6.8%, 2,136G)
ungabunga_bot: 600G (4.1%, 12,492G)
Lanshaft: 600G (4.1%, 600G)
Laserman1000: 600G (4.1%, 3,300G)
Jeeboheebo: 440G (3.0%, 440G)
ANFz: 404G (2.7%, 404G)
DustBirdEX: 400G (2.7%, 1,944G)
MoonSlayerRS: 376G (2.5%, 376G)
ZephyrTempest: 307G (2.1%, 20,045G)
DrAntiSocial: 220G (1.5%, 2,852G)
MrFlabyo: 200G (1.4%, 15,295G)
AM3P_Batman: 200G (1.4%, 12,151G)
Neminem1203: 150G (1.0%, 930G)
JIDkomu: 148G (1.0%, 148G)
mivvim: 136G (0.9%, 136G)
Kellios11: 100G (0.7%, 6,236G)
yure1x: 100G (0.7%, 2,381G)
datadrivenbot: 100G (0.7%, 16,334G)
ko2q: 1G (0.0%, 1,344G)
