Final Bets: green - 8 bets for 4,880G (43.9%, x1.28); yellow - 12 bets for 6,245G (56.1%, x0.78)

green bets:
boxyID: 2,000G (41.0%, 47,630G)
fenaen: 980G (20.1%, 980G)
Shalloween: 600G (12.3%, 19,936G)
rabbitlogik: 500G (10.2%, 3,230G)
holdenmagronik: 319G (6.5%, 319G)
AllInBot: 200G (4.1%, 200G)
maximumcrit: 181G (3.7%, 181G)
PoroTact: 100G (2.0%, 5,858G)

yellow bets:
toka222: 1,650G (26.4%, 77,527G)
BirbBrainsBot: 885G (14.2%, 61,866G)
pplvee1: 700G (11.2%, 700G)
nifboy: 504G (8.1%, 504G)
josephiroth_143: 500G (8.0%, 7,155G)
Lord_Gwarth: 400G (6.4%, 1,728G)
Forkmore: 367G (5.9%, 367G)
ArashiKurobara: 352G (5.6%, 7,380G)
DavenIII: 345G (5.5%, 842G)
getthemoneyz: 242G (3.9%, 1,450,322G)
datadrivenbot: 200G (3.2%, 45,067G)
super_robo_mg: 100G (1.6%, 1,060G)
