Final Bets: white - 20 bets for 14,701G (55.1%, x0.81); black - 12 bets for 11,976G (44.9%, x1.23)

white bets:
fenixcrest: 2,951G (20.1%, 5,902G)
lifeguard_dan: 1,551G (10.6%, 1,551G)
DavenIII: 1,400G (9.5%, 4,836G)
Draconis345: 1,000G (6.8%, 84,256G)
ColetteMSLP: 1,000G (6.8%, 30,879G)
ungabunga_bot: 1,000G (6.8%, 207,958G)
aStatue: 853G (5.8%, 853G)
rechaun: 694G (4.7%, 694G)
ShintaroNayaka: 600G (4.1%, 19,678G)
nifboy: 599G (4.1%, 11,994G)
Cataphract116: 500G (3.4%, 32,831G)
Dexsana: 500G (3.4%, 2,886G)
CassiePhoenix: 457G (3.1%, 457G)
PetitFoulard: 375G (2.6%, 375G)
getthemoneyz: 324G (2.2%, 545,300G)
Dexef: 284G (1.9%, 3,043G)
perce90: 213G (1.4%, 213G)
athros13: 200G (1.4%, 37,828G)
twelfthrootoftwo: 100G (0.7%, 5,143G)
datadrivenbot: 100G (0.7%, 605G)

black bets:
Zeroroute: 3,197G (26.7%, 5,199G)
AllInBot: 2,240G (18.7%, 2,240G)
upvla: 1,234G (10.3%, 36,507G)
Baron_von_Scrub: 1,111G (9.3%, 101,733G)
loveyouallfriends: 1,000G (8.4%, 36,024G)
BirbBrainsBot: 1,000G (8.4%, 89,931G)
LDSkinny: 1,000G (8.4%, 10,598G)
JumbocactuarX27: 500G (4.2%, 11,083G)
Justice0320: 299G (2.5%, 2,998G)
Zachara: 194G (1.6%, 70,194G)
ZephyrTempest: 101G (0.8%, 165,744G)
bahumat989: 100G (0.8%, 3,363G)
