Final Bets: red - 15 bets for 8,301G (31.5%, x2.17); green - 15 bets for 18,024G (68.5%, x0.46)

red bets:
upvla: 1,234G (14.9%, 35,273G)
ColetteMSLP: 1,000G (12.0%, 30,494G)
Draconis345: 1,000G (12.0%, 84,071G)
BirbBrainsBot: 1,000G (12.0%, 88,448G)
leakimiko: 913G (11.0%, 15,223G)
ShintaroNayaka: 600G (7.2%, 20,476G)
SomeCallMeGON: 500G (6.0%, 11,658G)
LDSkinny: 500G (6.0%, 9,598G)
JumbocactuarX27: 500G (6.0%, 10,483G)
nedryerson01: 300G (3.6%, 4,156G)
SpookyCookieMonster: 200G (2.4%, 805G)
getthemoneyz: 192G (2.3%, 544,872G)
AllInBot: 162G (2.0%, 162G)
PinKPonG: 100G (1.2%, 1,000G)
fredxcracklin: 100G (1.2%, 1,892G)

green bets:
Zachara: 5,000G (27.7%, 70,000G)
loveyouallfriends: 4,000G (22.2%, 34,924G)
Dexef: 2,990G (16.6%, 2,990G)
Zeroroute: 1,991G (11.0%, 3,238G)
PetitFoulard: 1,100G (6.1%, 1,100G)
Laserman1000: 608G (3.4%, 24,408G)
nifboy: 592G (3.3%, 11,858G)
fenaen: 500G (2.8%, 38,790G)
DavenIII: 500G (2.8%, 7,821G)
ungabunga_bot: 242G (1.3%, 208,853G)
ZephyrTempest: 101G (0.6%, 165,705G)
lifeguard_dan: 100G (0.6%, 2,877G)
twelfthrootoftwo: 100G (0.6%, 5,286G)
bahumat989: 100G (0.6%, 3,325G)
datadrivenbot: 100G (0.6%, 748G)
