Final Bets: purple - 16 bets for 5,434G (19.6%, x4.11); brown - 17 bets for 22,309G (80.4%, x0.24)

purple bets:
Bryon_W: 1,000G (18.4%, 7,053G)
BirbBrainsBot: 1,000G (18.4%, 201,072G)
Pie108: 700G (12.9%, 22,109G)
MrFlabyo: 500G (9.2%, 9,579G)
friendsquirrel: 428G (7.9%, 428G)
MagicBottle: 324G (6.0%, 324G)
ZephyrTempest: 278G (5.1%, 71,918G)
HaateXIII: 250G (4.6%, 1,281G)
KasugaiRoastedPeas: 200G (3.7%, 7,232G)
catfashions: 200G (3.7%, 1,037G)
karmakamikaze: 104G (1.9%, 104G)
maakur_: 100G (1.8%, 2,020G)
ApplesauceBoss: 100G (1.8%, 3,359G)
ko2q: 100G (1.8%, 17,641G)
cloudycube: 100G (1.8%, 1,457G)
GingerDynomite: 50G (0.9%, 5,063G)

brown bets:
toka222: 10,000G (44.8%, 550,943G)
DejaPoo21: 2,500G (11.2%, 5,002G)
nedryerson01: 2,000G (9.0%, 10,055G)
Nizaha: 1,145G (5.1%, 1,145G)
TheChainNerd: 1,000G (4.5%, 5,171G)
DavenIII: 1,000G (4.5%, 13,712G)
Mtueni: 1,000G (4.5%, 178,355G)
datadrivenbot: 730G (3.3%, 867G)
fenaen: 700G (3.1%, 14,898G)
getthemoneyz: 626G (2.8%, 502,866G)
V3rdeni: 500G (2.2%, 2,035G)
ungabunga_bot: 471G (2.1%, 142,537G)
Jeeboheebo: 204G (0.9%, 204G)
AllInBot: 171G (0.8%, 171G)
Sauroc: 112G (0.5%, 112G)
NewVanguard: 100G (0.4%, 10,039G)
godkone: 50G (0.2%, 315G)
