Final Bets: white - 19 bets for 17,959G (59.2%, x0.69); black - 14 bets for 12,361G (40.8%, x1.45)

white bets:
bigbongsmoker: 2,591G (14.4%, 25,913G)
Deathmaker06: 2,000G (11.1%, 28,049G)
dogsandcatsand: 1,709G (9.5%, 1,709G)
RedRiderAyame: 1,500G (8.4%, 6,012G)
Shalloween: 1,500G (8.4%, 8,214G)
sireaulou: 1,000G (5.6%, 7,294G)
LDSkinny: 1,000G (5.6%, 16,234G)
BirbBrainsBot: 1,000G (5.6%, 39,864G)
nhammen: 1,000G (5.6%, 30,019G)
E_Ballard: 788G (4.4%, 788G)
killth3kid: 768G (4.3%, 34,634G)
fenaen: 632G (3.5%, 12,424G)
Nizaha: 612G (3.4%, 12,048G)
JonnyCue: 500G (2.8%, 4,010G)
resjudicata3: 484G (2.7%, 484G)
holdenmagronik: 468G (2.6%, 1,670G)
datadrivenbot: 200G (1.1%, 80,025G)
Smugzug: 107G (0.6%, 632G)
tripaplex: 100G (0.6%, 2,233G)

black bets:
Thyrandaal: 5,000G (40.4%, 219,980G)
HaateXIII: 2,573G (20.8%, 2,573G)
ko2q: 1,334G (10.8%, 2,669G)
RunicMagus: 1,020G (8.3%, 30,184G)
Willjin: 600G (4.9%, 38,780G)
Lolthsmeat: 380G (3.1%, 380G)
Lord_Gwarth: 360G (2.9%, 360G)
AltimaMantoid: 332G (2.7%, 16,732G)
AllInBot: 200G (1.6%, 200G)
lotharek: 200G (1.6%, 14,030G)
maakur_: 100G (0.8%, 7,560G)
baumgrattler: 100G (0.8%, 726G)
hossbossington: 100G (0.8%, 951G)
getthemoneyz: 62G (0.5%, 2,094,137G)
