Final Bets: red - 14 bets for 9,249G (60.6%, x0.65); green - 13 bets for 6,009G (39.4%, x1.54)

red bets:
bigbongsmoker: 2,967G (32.1%, 29,673G)
BirbBrainsBot: 1,000G (10.8%, 39,552G)
Lyner87: 965G (10.4%, 965G)
E_Ballard: 788G (8.5%, 788G)
killth3kid: 768G (8.3%, 34,395G)
dogsandcatsand: 756G (8.2%, 3,425G)
JonnyCue: 500G (5.4%, 4,711G)
getthemoneyz: 454G (4.9%, 2,093,075G)
SephDarkheart: 428G (4.6%, 4,865G)
daveb_: 222G (2.4%, 3,500G)
AllInBot: 200G (2.2%, 200G)
Girfred: 100G (1.1%, 100G)
baumgrattler: 100G (1.1%, 697G)
latebit: 1G (0.0%, 57,313G)

green bets:
RunicMagus: 1,520G (25.3%, 28,144G)
Deathmaker06: 1,000G (16.6%, 30,144G)
Nizaha: 612G (10.2%, 11,857G)
tripaplex: 500G (8.3%, 1,802G)
holdenmagronik: 468G (7.8%, 1,992G)
Lolthsmeat: 432G (7.2%, 432G)
Lord_Gwarth: 360G (6.0%, 360G)
ko2q: 334G (5.6%, 668G)
lotharek: 300G (5.0%, 13,830G)
datadrivenbot: 200G (3.3%, 80,306G)
OneHundredFists: 100G (1.7%, 29,981G)
AbandonedHall: 100G (1.7%, 5,700G)
Smugzug: 83G (1.4%, 761G)
