Final Bets: purple - 28 bets for 11,911G (52.3%, x0.91); brown - 23 bets for 10,850G (47.7%, x1.10)

purple bets:
Shakarak: 2,198G (18.5%, 2,198G)
DeathTaxesAndAnime: 1,395G (11.7%, 1,395G)
kai_shee: 1,001G (8.4%, 94,315G)
OneHundredFists: 634G (5.3%, 634G)
Lanshaft: 600G (5.0%, 6,353G)
Nova_riety: 563G (4.7%, 1,126G)
roofiepops: 527G (4.4%, 527G)
reinoe: 500G (4.2%, 3,057G)
DarrenDinosaurs: 500G (4.2%, 5,809G)
DudeMonkey77: 478G (4.0%, 478G)
kekkerscrew: 400G (3.4%, 4,306G)
luminarii: 383G (3.2%, 9,809G)
CapnChaos12: 300G (2.5%, 2,307G)
Wizard_01: 300G (2.5%, 18,490G)
MaouDono: 281G (2.4%, 281G)
moonliquor: 267G (2.2%, 267G)
ugoplatamia: 200G (1.7%, 9,027G)
mexskacin: 200G (1.7%, 1,224G)
gikokiko: 194G (1.6%, 194G)
getthemoneyz: 164G (1.4%, 441,366G)
ungabunga_bot: 122G (1.0%, 53,162G)
Jonusfatson: 104G (0.9%, 104G)
SeedSC: 100G (0.8%, 140,883G)
urieltheflameofgod: 100G (0.8%, 1,196G)
rjA0zcOQ96: 100G (0.8%, 5,575G)
MattMan119: 100G (0.8%, 19,249G)
datadrivenbot: 100G (0.8%, 22,605G)
Bongomon7: 100G (0.8%, 1,802G)

brown bets:
Nizaha: 1,001G (9.2%, 20,558G)
TheChainNerd: 1,000G (9.2%, 9,316G)
BirbBrainsBot: 1,000G (9.2%, 251,985G)
bad1dea: 1,000G (9.2%, 40,071G)
kingchadking: 792G (7.3%, 792G)
Firesheath: 757G (7.0%, 757G)
joewcarson: 573G (5.3%, 573G)
soapydragonfly: 534G (4.9%, 534G)
Lodrak: 500G (4.6%, 500G)
rubenflonne: 500G (4.6%, 2,991G)
AlenaZarek: 436G (4.0%, 436G)
ThePineappleSalesman: 428G (3.9%, 428G)
fenaen: 400G (3.7%, 6,515G)
Meanderandreturn: 374G (3.4%, 374G)
action_otter: 300G (2.8%, 964G)
ZephyrTempest: 284G (2.6%, 25,223G)
DrAntiSocial: 248G (2.3%, 248G)
KasugaiRoastedPeas: 200G (1.8%, 16,713G)
AllInBot: 123G (1.1%, 123G)
carchan131: 100G (0.9%, 6,137G)
Cataphract116: 100G (0.9%, 4,946G)
Tougou: 100G (0.9%, 5,411G)
Ausuri: 100G (0.9%, 2,596G)
