Final Bets: blue - 31 bets for 14,403G (62.3%, x0.60); brown - 18 bets for 8,711G (37.7%, x1.65)

blue bets:
bad1dea: 2,000G (13.9%, 39,169G)
upvla: 1,219G (8.5%, 131,153G)
kai_shee: 1,001G (6.9%, 93,904G)
ungabunga_bot: 1,000G (6.9%, 53,137G)
BirbBrainsBot: 1,000G (6.9%, 251,083G)
OneHundredFists: 843G (5.9%, 843G)
EnemyController: 800G (5.6%, 26,904G)
DeathTaxesAndAnime: 596G (4.1%, 596G)
luminarii: 532G (3.7%, 9,760G)
Lodrak: 504G (3.5%, 504G)
DarrenDinosaurs: 500G (3.5%, 5,104G)
LavyWays: 500G (3.5%, 24,104G)
gikokiko: 409G (2.8%, 409G)
ZephyrTempest: 312G (2.2%, 24,908G)
CapnChaos12: 300G (2.1%, 2,184G)
urieltheflameofgod: 300G (2.1%, 1,642G)
JumbocactuarX27: 292G (2.0%, 292G)
mpghappiness: 268G (1.9%, 268G)
DrAntiSocial: 248G (1.7%, 248G)
MrDiggs49: 244G (1.7%, 244G)
moonliquor: 216G (1.5%, 216G)
YaBoy125: 214G (1.5%, 21,455G)
KasugaiRoastedPeas: 200G (1.4%, 16,533G)
Cataphract116: 200G (1.4%, 4,974G)
maichenambrai: 200G (1.4%, 5,239G)
Jonusfatson: 104G (0.7%, 104G)
maakur_: 100G (0.7%, 1,468G)
AlenaZarek: 100G (0.7%, 2,939G)
datadrivenbot: 100G (0.7%, 22,464G)
getthemoneyz: 96G (0.7%, 441,010G)
ko2q: 5G (0.0%, 2,340G)

brown bets:
soapydragonfly: 1,608G (18.5%, 3,217G)
AllInBot: 1,017G (11.7%, 1,017G)
Lord_Burrah: 1,000G (11.5%, 90,469G)
TheChainNerd: 1,000G (11.5%, 12,484G)
Nova_riety: 783G (9.0%, 979G)
Lanshaft: 600G (6.9%, 5,153G)
rubenflonne: 500G (5.7%, 4,398G)
mirapoix: 479G (5.5%, 958G)
DudeMonkey77: 316G (3.6%, 316G)
joewcarson: 300G (3.4%, 1,202G)
ugoplatamia: 200G (2.3%, 8,923G)
action_otter: 200G (2.3%, 1,470G)
NickLoire: 158G (1.8%, 158G)
Meanderandreturn: 150G (1.7%, 992G)
Error72: 100G (1.1%, 6,553G)
rjA0zcOQ96: 100G (1.1%, 5,623G)
Bongomon7: 100G (1.1%, 2,446G)
Tougou: 100G (1.1%, 5,421G)
