Final Bets: green - 19 bets for 18,659G (40.3%, x1.48); yellow - 18 bets for 27,605G (59.7%, x0.68)

green bets:
KasugaiRoastedPeas: 3,200G (17.1%, 20,684G)
butterbelljedi: 2,727G (14.6%, 2,727G)
SkylerBunny: 2,000G (10.7%, 208,616G)
NovaKnight21: 1,476G (7.9%, 1,476G)
VolgraTheMoose: 1,299G (7.0%, 2,598G)
maximumcrit: 1,000G (5.4%, 19,090G)
LDHaten: 1,000G (5.4%, 20,077G)
Aldrammech: 1,000G (5.4%, 4,921G)
DeathTaxesAndAnime: 844G (4.5%, 844G)
RyanTheRebs: 597G (3.2%, 597G)
killth3kid: 596G (3.2%, 10,666G)
coralreeferz: 532G (2.9%, 1,906G)
getthemoneyz: 504G (2.7%, 1,482,509G)
reinoe: 500G (2.7%, 59,737G)
evontno: 500G (2.7%, 10,089G)
Forkmore: 384G (2.1%, 384G)
mrfripps: 200G (1.1%, 2,787G)
datadrivenbot: 200G (1.1%, 48,096G)
ANFz: 100G (0.5%, 57,727G)

yellow bets:
E_Ballard: 16,281G (59.0%, 16,281G)
randgridr: 2,908G (10.5%, 5,817G)
Thyrandaal: 2,000G (7.2%, 98,339G)
Nizaha: 1,300G (4.7%, 9,569G)
BirbBrainsBot: 1,000G (3.6%, 158,437G)
HaateXIII: 824G (3.0%, 824G)
rednecknazgul: 544G (2.0%, 544G)
Lanshaft: 544G (2.0%, 17,832G)
TasisSai: 500G (1.8%, 13,930G)
Oreo_Pizza: 500G (1.8%, 52,355G)
Shalloween: 300G (1.1%, 38,621G)
AllInBot: 200G (0.7%, 200G)
twelfthrootoftwo: 200G (0.7%, 999G)
muffin_money: 150G (0.5%, 2,211G)
ammobox69: 104G (0.4%, 104G)
ArlanKels: 100G (0.4%, 1,407G)
Firesheath: 100G (0.4%, 3,997G)
Drusiform: 50G (0.2%, 659G)
