Final Bets: green - 16 bets for 55,487G (89.0%, x0.12); black - 15 bets for 6,859G (11.0%, x8.09)

green bets:
Thyrandaal: 22,222G (40.0%, 477,412G)
HASTERIOUS: 17,869G (32.2%, 17,869G)
Mesmaster: 3,376G (6.1%, 3,376G)
ThreeMileIsland: 2,657G (4.8%, 2,657G)
E_Ballard: 1,928G (3.5%, 3,856G)
roofiepops: 1,124G (2.0%, 1,124G)
CapnChaos12: 1,077G (1.9%, 1,077G)
SkylerBunny: 1,073G (1.9%, 1,073G)
BevBear: 1,005G (1.8%, 10,051G)
DejaPoo21: 1,000G (1.8%, 12,527G)
DLJuggernaut: 674G (1.2%, 1,323G)
CosmicTactician: 500G (0.9%, 30,724G)
lowlf: 382G (0.7%, 382G)
MagicBottle: 300G (0.5%, 300G)
datadrivenbot: 200G (0.4%, 64,024G)
loveyouallfriends: 100G (0.2%, 44,911G)

black bets:
Shalloween: 1,000G (14.6%, 13,251G)
BirbBrainsBot: 1,000G (14.6%, 43,798G)
AllInBot: 874G (12.7%, 874G)
BoneMiser: 800G (11.7%, 29,802G)
Drusiform: 768G (11.2%, 768G)
RedGrinGrumbl3: 500G (7.3%, 30,780G)
Smashy: 500G (7.3%, 10,493G)
reinoe: 404G (5.9%, 404G)
getthemoneyz: 268G (3.9%, 1,677,066G)
timthehoodie: 250G (3.6%, 1,565G)
PuzzleSecretary: 170G (2.5%, 170G)
brenogarwin: 100G (1.5%, 3,031G)
Creggers: 100G (1.5%, 11,000G)
nhammen: 100G (1.5%, 79,213G)
Chuckolator: 25G (0.4%, 11,396G)
