Final Bets: red - 12 bets for 7,840G (31.9%, x2.14); blue - 24 bets for 16,752G (68.1%, x0.47)

red bets:
DeathTaxesAndAnime: 1,614G (20.6%, 1,614G)
Eyepoor_: 1,285G (16.4%, 1,285G)
ungabunga_bot: 1,000G (12.8%, 353,067G)
Master_Metroid: 1,000G (12.8%, 8,153G)
MirtaiAtana: 938G (12.0%, 1,877G)
servii: 800G (10.2%, 2,403G)
Oreo_Pizza: 500G (6.4%, 12,600G)
Webb_MD: 236G (3.0%, 236G)
VeryVert: 156G (2.0%, 156G)
ANFz: 111G (1.4%, 30,974G)
gorgewall: 100G (1.3%, 6,289G)
electric_glass: 100G (1.3%, 2,277G)

blue bets:
Shalloween: 3,952G (23.6%, 7,750G)
Mesmaster: 3,000G (17.9%, 39,796G)
Kronikle: 1,389G (8.3%, 1,389G)
BirbBrainsBot: 1,000G (6.0%, 66,548G)
jakeduhhsnake: 1,000G (6.0%, 62,279G)
Lionhermit: 1,000G (6.0%, 21,429G)
OneHundredFists: 770G (4.6%, 770G)
leakimiko: 702G (4.2%, 2,809G)
sinnyil2: 656G (3.9%, 656G)
twelfthrootoftwo: 630G (3.8%, 630G)
NovaKnight21: 568G (3.4%, 568G)
ZephyrTempest: 456G (2.7%, 1,079G)
RestIessNight: 400G (2.4%, 1,942G)
Theseawolf1: 200G (1.2%, 5,172G)
getthemoneyz: 148G (0.9%, 629,825G)
alphara2: 104G (0.6%, 104G)
mannequ1n: 100G (0.6%, 100G)
vampyreinabox: 100G (0.6%, 780G)
datadrivenbot: 100G (0.6%, 11,942G)
a_mo22: 100G (0.6%, 2,579G)
Kyune: 100G (0.6%, 6,113G)
Lythe_Caraker: 100G (0.6%, 116,081G)
caprinovoa: 100G (0.6%, 643G)
Ross_from_Cali: 77G (0.5%, 7,241G)
