Final Bets: green - 10 bets for 6,188G (18.5%, x4.40); champion - 23 bets for 27,232G (81.5%, x0.23)

green bets:
upvla: 2,400G (38.8%, 11,274G)
SeedSC: 1,000G (16.2%, 129,695G)
pandasforsale: 666G (10.8%, 22,808G)
PatSouI: 500G (8.1%, 8,697G)
superdevon1: 484G (7.8%, 4,841G)
LAGBOT30000: 483G (7.8%, 9,661G)
KasugaiRoastedPeas: 200G (3.2%, 18,206G)
Pah_J: 200G (3.2%, 7,458G)
AllInBot: 155G (2.5%, 155G)
ApplesauceBoss: 100G (1.6%, 2,142G)

champion bets:
sinnyil2: 9,600G (35.3%, 19,200G)
NytFantom: 3,372G (12.4%, 3,372G)
ugoplatamia: 3,097G (11.4%, 15,486G)
Evewho: 1,693G (6.2%, 1,693G)
Shakarak: 1,500G (5.5%, 31,071G)
reinoe: 1,000G (3.7%, 10,035G)
BirbBrainsBot: 1,000G (3.7%, 208,322G)
bad1dea: 1,000G (3.7%, 25,672G)
ungabunga_bot: 950G (3.5%, 19,276G)
herrshaun: 833G (3.1%, 833G)
Treapvort: 695G (2.6%, 1,391G)
Maeveen: 543G (2.0%, 2,259G)
lavian94: 287G (1.1%, 2,787G)
perkisle: 204G (0.7%, 204G)
OverlordCuddles: 204G (0.7%, 204G)
V3rdeni: 200G (0.7%, 964G)
lijarkh: 200G (0.7%, 6,233G)
hannapiana: 200G (0.7%, 1,000G)
TinhShu: 200G (0.7%, 1,268G)
maichenambrai: 200G (0.7%, 638G)
IroncladWarbear: 104G (0.4%, 104G)
datadrivenbot: 100G (0.4%, 18,640G)
JackOnFire1: 50G (0.2%, 2,831G)
