Final Bets: green - 18 bets for 21,898G (49.6%, x1.02); yellow - 8 bets for 22,257G (50.4%, x0.98)

green bets:
SephDarkheart: 7,164G (32.7%, 14,328G)
E_Ballard: 4,777G (21.8%, 4,777G)
Lolthsmeat: 1,329G (6.1%, 1,329G)
Mushufasa_: 1,234G (5.6%, 64,369G)
HaplessOne: 1,111G (5.1%, 26,495G)
BirbBrainsBot: 1,000G (4.6%, 31,085G)
b0lt: 1,000G (4.6%, 17,386G)
getthemoneyz: 944G (4.3%, 2,208,403G)
AllInBot: 700G (3.2%, 700G)
Sharosa: 600G (2.7%, 600G)
JonnyCue: 488G (2.2%, 15,298G)
TheBrett: 320G (1.5%, 27,914G)
Musashi45: 308G (1.4%, 308G)
YowaneHaku: 232G (1.1%, 232G)
resjudicata3: 200G (0.9%, 4,761G)
datadrivenbot: 200G (0.9%, 82,265G)
FuzzyTigers: 190G (0.9%, 380G)
gorgewall: 101G (0.5%, 7,986G)

yellow bets:
Chihuahua_Charity: 20,000G (89.9%, 46,822G)
Netmonmatt: 959G (4.3%, 959G)
DouglasDragonThePoet: 420G (1.9%, 420G)
ValensEXP_: 300G (1.3%, 24,434G)
Zerguzen: 296G (1.3%, 296G)
Deeps_one: 132G (0.6%, 132G)
heropong: 100G (0.4%, 2,710G)
squideater_: 50G (0.2%, 100G)
