Final Bets: white - 12 bets for 7,129G (54.5%, x0.83); black - 9 bets for 5,948G (45.5%, x1.20)

white bets:
VolgraTheMoose: 2,501G (35.1%, 17,618G)
amiture: 1,000G (14.0%, 24,722G)
Laserman1000: 940G (13.2%, 9,940G)
ZCKaiser: 754G (10.6%, 6,544G)
CosmicTactician: 500G (7.0%, 20,685G)
Lemonjohns: 429G (6.0%, 429G)
DamnThatShark: 382G (5.4%, 382G)
LionelParks: 300G (4.2%, 7,408G)
Lydian_C: 121G (1.7%, 173,840G)
Miku_Shikhu: 100G (1.4%, 10,012G)
datadrivenbot: 100G (1.4%, 48,064G)
getthemoneyz: 2G (0.0%, 1,111,908G)

black bets:
SkylerBunny: 2,600G (43.7%, 486,711G)
BirbBrainsBot: 1,000G (16.8%, 163,517G)
DudeMonkey77: 1,000G (16.8%, 14,316G)
Firesheath: 668G (11.2%, 668G)
TsukikageRyu: 250G (4.2%, 6,186G)
Snoopiku: 200G (3.4%, 34,034G)
tanarusasamiya: 120G (2.0%, 120G)
E_Ballard: 100G (1.7%, 9,143G)
Bilabrin: 10G (0.2%, 1,011G)
