Final Bets: black - 3 bets for 1,232G (31.1%, x2.21); brown - 6 bets for 2,724G (68.9%, x0.45)

black bets:
prince_rogers_nelson_: 600G (48.7%, 600G)
serperemagus: 532G (43.2%, 532G)
nhammen: 100G (8.1%, 1,316G)

brown bets:
BirbBrainsBot: 1,000G (36.7%, 159,761G)
ShintaroNayaka: 671G (24.6%, 671G)
CT_5_Holy: 332G (12.2%, 332G)
getthemoneyz: 320G (11.7%, 1,033,785G)
gorgewall: 301G (11.0%, 8,500G)
datadrivenbot: 100G (3.7%, 49,442G)
