Final Bets: red - 7 bets for 7,197G (48.3%, x1.07); blue - 15 bets for 7,695G (51.7%, x0.94)

red bets:
douchetron: 2,051G (28.5%, 4,022G)
MrFlabyo: 2,000G (27.8%, 282,218G)
DeathTaxesAndAnime: 1,254G (17.4%, 1,254G)
Nizaha: 672G (9.3%, 23,508G)
E_Ballard: 520G (7.2%, 520G)
TasisSai: 500G (6.9%, 13,908G)
AllInBot: 200G (2.8%, 200G)

blue bets:
UmaiJam: 2,000G (26.0%, 35,117G)
BirbBrainsBot: 1,000G (13.0%, 49,474G)
KasugaiRoastedPeas: 660G (8.6%, 660G)
LordTomS: 554G (7.2%, 554G)
getthemoneyz: 554G (7.2%, 1,518,816G)
Laserman1000: 553G (7.2%, 5,353G)
DesertWooder: 500G (6.5%, 11,650G)
DLJuggernaut: 400G (5.2%, 400G)
VolgraTheMoose: 301G (3.9%, 1,535G)
CapnChaos12: 300G (3.9%, 16,158G)
Gunz232323: 250G (3.2%, 2,526G)
Miku_Shikhu: 200G (2.6%, 1,194G)
datadrivenbot: 200G (2.6%, 49,290G)
holdenmagronik: 150G (1.9%, 2,534G)
Drusiform: 73G (0.9%, 1,463G)
