High Risers:
1. MoonSugarFiend: +4,887G
2. gorgewall: +4,368G
3. Deeps_one: +4,054G
4. verythinice: +3,283G
5. TheBrett: +2,708G
6. DLJuggernaut: +1,690G
7. ValensEXP_: +1,643G
8. NicoSavoy: +1,069G
9. Firesheath: +917G
10. Laserman1000: +610G
11. WireLord: +460G
12. b0lt: +417G
13. Sharosa: +411G
14. lowlf: +316G
15. Zerguzen: +254G
16. technominari: +231G
17. QuestMoreLand: +137G
18. chrisk103: +113G
19. MrJamDango: +113G
20. AbandonedHall: +75G
21. heropong: +62G
22. Mhorzak: +4G
23. XerxesMindbreaker: +4G
24. CorpusCav: -100G
25. rNdOrchestra: -100G
26. cloudycube: -122G
27. DustBirdEX: -187G
28. Gelwain: -200G
29. Arcblazer23: -223G
30. Zachara: -250G
31. old_overholt_: -300G
32. ruleof5: -300G
33. ALY327: -300G
34. JonnyCue: -480G
35. king_smashington: -481G
36. HorusTaurus: -492G
37. shinji202: -500G
38. FuzzyTigers: -522G
39. Rune339: -541G
40. upvla: -710G
41. superdevon1: -858G
42. Leonidusx: -904G
43. DeathTaxesAndAnime: -1,094G
44. Evewho: -1,292G
45. YowaneHaku: -1,825G
46. resjudicata3: -2,825G
47. OneHundredFists: -6,682G
