Final Bets: blue - 18 bets for 16,493G (69.0%, x0.45); yellow - 6 bets for 7,400G (31.0%, x2.23)

blue bets:
DeathTaxesAndAnime: 2,657G (16.1%, 5,211G)
dogsandcatsand: 2,038G (12.4%, 2,647G)
reinoe: 2,000G (12.1%, 176,726G)
ko2q: 1,573G (9.5%, 1,573G)
TheDeeyo: 1,379G (8.4%, 1,379G)
thaetreis: 1,200G (7.3%, 59,243G)
Aldrammech: 1,040G (6.3%, 1,040G)
TheMurkGnome: 1,000G (6.1%, 40,556G)
BirbBrainsBot: 1,000G (6.1%, 137,960G)
twelfthrootoftwo: 813G (4.9%, 813G)
SephDarkheart: 512G (3.1%, 52,233G)
Drusiform: 500G (3.0%, 3,032G)
AllInBot: 200G (1.2%, 200G)
latebit: 184G (1.1%, 184G)
gorgewall: 101G (0.6%, 3,314G)
MinBetBot: 100G (0.6%, 20,062G)
Firesheath: 100G (0.6%, 26,910G)
getthemoneyz: 96G (0.6%, 1,568,156G)

yellow bets:
SkylerBunny: 5,000G (67.6%, 219,852G)
Seaweed_B: 1,000G (13.5%, 49,603G)
Zeroroute: 600G (8.1%, 600G)
ANFz: 500G (6.8%, 44,673G)
Kellios11: 200G (2.7%, 21,681G)
Gyrolin: 100G (1.4%, 1,054G)
