Final Bets: white - 15 bets for 11,194G (60.8%, x0.64); purple - 10 bets for 7,208G (39.2%, x1.55)

white bets:
Mesmaster: 2,675G (23.9%, 2,675G)
reinoe: 2,000G (17.9%, 17,234G)
evontno: 1,001G (8.9%, 4,605G)
resjudicata3: 1,000G (8.9%, 2,806G)
SkylerBunny: 938G (8.4%, 938G)
douchetron: 600G (5.4%, 600G)
absalom_20: 600G (5.4%, 700G)
HaateXIII: 500G (4.5%, 3,740G)
peanutvendor: 500G (4.5%, 10,396G)
AllInBot: 490G (4.4%, 490G)
MagicBottle: 304G (2.7%, 304G)
CosmicTactician: 200G (1.8%, 31,127G)
datadrivenbot: 200G (1.8%, 62,912G)
gorgewall: 101G (0.9%, 6,159G)
3ngag3: 85G (0.8%, 1,285G)

purple bets:
sinnyil2: 1,062G (14.7%, 1,062G)
BirbBrainsBot: 1,000G (13.9%, 68,047G)
Sairentozon7: 1,000G (13.9%, 6,534G)
nhammen: 1,000G (13.9%, 111,893G)
Nizaha: 752G (10.4%, 15,569G)
Amorial: 598G (8.3%, 598G)
JCBooBot: 532G (7.4%, 2,805G)
getthemoneyz: 514G (7.1%, 1,690,983G)
Lord_Gwarth: 500G (6.9%, 3,719G)
VolgraTheMoose: 250G (3.5%, 10,479G)
