Final Bets: red - 12 bets for 12,022G (60.4%, x0.65); yellow - 9 bets for 7,872G (39.6%, x1.53)

red bets:
Error72: 8,589G (71.4%, 17,179G)
dogsandcatsand: 959G (8.0%, 959G)
biffcake01: 505G (4.2%, 505G)
ArashiKurobara: 500G (4.2%, 12,179G)
AND4H: 500G (4.2%, 3,168G)
IDruggedShamu: 252G (2.1%, 252G)
xLilAsia: 212G (1.8%, 212G)
datadrivenbot: 200G (1.7%, 56,942G)
hiros13gts: 104G (0.9%, 104G)
nhammen: 100G (0.8%, 12,313G)
enkikavlar: 100G (0.8%, 4,738G)
mpghappiness: 1G (0.0%, 16,956G)

yellow bets:
reinoe: 3,000G (38.1%, 53,149G)
E_Ballard: 1,094G (13.9%, 1,094G)
BirbBrainsBot: 1,000G (12.7%, 84,877G)
Nickyfive: 1,000G (12.7%, 11,182G)
pyrelli: 700G (8.9%, 700G)
ShintaroNayaka: 628G (8.0%, 628G)
gorgewall: 201G (2.6%, 5,297G)
SephDarkheart: 199G (2.5%, 199G)
getthemoneyz: 50G (0.6%, 1,203,373G)
