Final Bets: red - 12 bets for 5,320G (49.8%, x1.01); brown - 12 bets for 5,369G (50.2%, x0.99)

red bets:
upidstupid: 1,000G (18.8%, 1,000G)
BirbBrainsBot: 1,000G (18.8%, 82,877G)
ShintaroNayaka: 628G (11.8%, 628G)
ArashiKurobara: 500G (9.4%, 12,226G)
reinoe: 500G (9.4%, 49,649G)
brokenknight201: 500G (9.4%, 2,597G)
dogsandcatsand: 460G (8.6%, 1,127G)
alterworlds: 252G (4.7%, 252G)
xLilAsia: 212G (4.0%, 212G)
Blastinus: 100G (1.9%, 1,069G)
IDruggedShamu: 100G (1.9%, 100G)
getthemoneyz: 68G (1.3%, 1,204,017G)

brown bets:
SkylerBunny: 1,236G (23.0%, 1,236G)
Nickyfive: 1,000G (18.6%, 10,182G)
Error72: 1,000G (18.6%, 21,803G)
Cryptopsy70: 628G (11.7%, 21,677G)
neerrm: 400G (7.5%, 22,871G)
gorgewall: 201G (3.7%, 5,580G)
silverelmdor: 200G (3.7%, 1,714G)
biffcake01: 200G (3.7%, 2,849G)
datadrivenbot: 200G (3.7%, 57,555G)
hiros13gts: 104G (1.9%, 104G)
enkikavlar: 100G (1.9%, 5,044G)
nhammen: 100G (1.9%, 12,378G)
