Final Bets: white - 10 bets for 11,625G (36.8%, x1.71); black - 19 bets for 19,922G (63.2%, x0.58)

white bets:
Zeroroute: 2,385G (20.5%, 13,254G)
latebit: 2,170G (18.7%, 43,407G)
Mesmaster: 2,000G (17.2%, 105,146G)
Wonser: 1,770G (15.2%, 1,770G)
sinnyil2: 1,133G (9.7%, 2,266G)
HaateXIII: 892G (7.7%, 892G)
E_Ballard: 840G (7.2%, 108,536G)
getthemoneyz: 290G (2.5%, 1,816,210G)
windsah: 100G (0.9%, 1,455G)
greengreenss: 45G (0.4%, 900G)

black bets:
Phi_Sig: 5,555G (27.9%, 50,472G)
EnemyController: 3,333G (16.7%, 1,683,056G)
arumz: 2,000G (10.0%, 7,117G)
RobotOcelot: 1,754G (8.8%, 1,754G)
Shalloween: 1,500G (7.5%, 20,943G)
nhammen: 1,000G (5.0%, 442,554G)
Greggernaut: 782G (3.9%, 782G)
silentkaster: 779G (3.9%, 3,779G)
CorpusCav: 500G (2.5%, 3,430G)
Yangusburger: 500G (2.5%, 1,645G)
BirbBrainsBot: 370G (1.9%, 66,824G)
MemoriesofFinal: 312G (1.6%, 312G)
iBardic: 300G (1.5%, 48,309G)
krombobreaker: 264G (1.3%, 9,079G)
AltimaMantoid: 250G (1.3%, 6,750G)
datadrivenbot: 200G (1.0%, 65,019G)
macradarkstar: 200G (1.0%, 916G)
Seeingeye24: 200G (1.0%, 795G)
Lydian_C: 123G (0.6%, 24,525G)
