Final Bets: red - 17 bets for 7,812G (27.2%, x2.68); champion - 29 bets for 20,917G (72.8%, x0.37)

red bets:
toka222: 1,200G (15.4%, 115,334G)
CorpusCav: 1,020G (13.1%, 13,906G)
BirbBrainsBot: 1,000G (12.8%, 153,762G)
gorgewall: 592G (7.6%, 592G)
DrPoopersMD: 500G (6.4%, 3,094G)
AlenaZarek: 500G (6.4%, 32,597G)
Lionhermit: 500G (6.4%, 6,219G)
YaBoy125: 492G (6.3%, 492G)
ThePineappleSalesman: 372G (4.8%, 372G)
wyonearth: 300G (3.8%, 3,063G)
Polygamic: 272G (3.5%, 272G)
HaateXIII: 250G (3.2%, 6,253G)
Powerpinch: 220G (2.8%, 220G)
gogofromtogo: 200G (2.6%, 2,977G)
Primeval_33: 200G (2.6%, 16,889G)
mrfripps: 100G (1.3%, 618G)
getthemoneyz: 94G (1.2%, 800,548G)

champion bets:
reinoe: 2,387G (11.4%, 2,387G)
UmaiJam: 2,000G (9.6%, 13,625G)
volgrathemoose: 1,524G (7.3%, 1,524G)
EnemyController: 1,500G (7.2%, 480,862G)
Sairentozon7: 1,365G (6.5%, 1,365G)
outer_monologue: 1,058G (5.1%, 1,058G)
mpghappiness: 1,001G (4.8%, 5,989G)
s_o_b_e_q: 1,000G (4.8%, 2,946G)
RuneS_77: 1,000G (4.8%, 7,621G)
LordTomS: 800G (3.8%, 2,888G)
beowulfrulez: 796G (3.8%, 796G)
Laserman1000: 700G (3.3%, 30,900G)
nhammen: 665G (3.2%, 1,330G)
Creggers: 645G (3.1%, 645G)
Nickyfive: 596G (2.8%, 596G)
Phi_Sig: 555G (2.7%, 145,243G)
Flameatron: 500G (2.4%, 3,724G)
solomongrundy85: 500G (2.4%, 4,347G)
conradharlock: 462G (2.2%, 462G)
Error72: 380G (1.8%, 380G)
zepharoth89: 260G (1.2%, 260G)
roqqqpsi: 206G (1.0%, 20,672G)
Grandlanzer: 200G (1.0%, 11,120G)
WitchHunterIX: 184G (0.9%, 184G)
foofermoofer: 168G (0.8%, 168G)
neerrm: 164G (0.8%, 164G)
Firesheath: 101G (0.5%, 2,170G)
datadrivenbot: 100G (0.5%, 32,437G)
DeathTaxesAndAnime: 100G (0.5%, 1,217G)
