Final Bets: red - 14 bets for 10,600G (48.8%, x1.05); brown - 22 bets for 11,117G (51.2%, x0.95)

red bets:
Shakarak: 3,000G (28.3%, 31,483G)
SkylerBunny: 1,291G (12.2%, 2,583G)
DrAntiSocial: 1,154G (10.9%, 1,154G)
kai_shee: 1,001G (9.4%, 120,466G)
Blain_Cooper: 1,000G (9.4%, 9,707G)
datadrivenbot: 600G (5.7%, 20,928G)
ColetteMSLP: 500G (4.7%, 19,792G)
ShintaroNayaka: 499G (4.7%, 12,736G)
DeathTaxesAndAnime: 416G (3.9%, 416G)
SolarisFall: 324G (3.1%, 324G)
Cataphract116: 284G (2.7%, 284G)
killth3kid: 240G (2.3%, 2,925G)
AllInBot: 214G (2.0%, 214G)
Ross_from_Cali: 77G (0.7%, 782G)

brown bets:
mayfu: 1,200G (10.8%, 41,491G)
ArcticXC: 1,000G (9.0%, 57,642G)
reinoe: 1,000G (9.0%, 15,964G)
BirbBrainsBot: 1,000G (9.0%, 70,496G)
Arunic: 1,000G (9.0%, 14,073G)
volgrathemoose: 803G (7.2%, 2,803G)
Laserman1000: 800G (7.2%, 4,200G)
ungabunga_bot: 517G (4.7%, 114,040G)
Snowfats: 500G (4.5%, 2,884G)
0v3rr8d: 500G (4.5%, 2,736G)
ZephyrTempest: 408G (3.7%, 50,427G)
madming25: 349G (3.1%, 349G)
TheMurkGnome: 343G (3.1%, 3,283G)
getthemoneyz: 318G (2.9%, 473,997G)
luminarii: 300G (2.7%, 15,032G)
MrDiggs49: 256G (2.3%, 256G)
KasugaiRoastedPeas: 200G (1.8%, 10,612G)
rico_flex: 200G (1.8%, 631G)
b0shii: 123G (1.1%, 1,288G)
RunicMagus: 100G (0.9%, 1,564G)
rjA0zcOQ96: 100G (0.9%, 8,066G)
moonliquor: 100G (0.9%, 1,067G)
