Final Bets: green - 10 bets for 13,190G (75.1%, x0.33); yellow - 12 bets for 4,362G (24.9%, x3.02)

green bets:
holyonline: 4,693G (35.6%, 4,693G)
prince_rogers_nelson_: 3,517G (26.7%, 3,517G)
E_Ballard: 1,829G (13.9%, 1,829G)
BirbBrainsBot: 1,000G (7.6%, 85,505G)
Nickyfive: 1,000G (7.6%, 11,906G)
killth3kid: 480G (3.6%, 10,197G)
benticore: 369G (2.8%, 7,398G)
Rytor: 200G (1.5%, 4,725G)
nifboy: 100G (0.8%, 3,351G)
getthemoneyz: 2G (0.0%, 1,015,395G)

yellow bets:
joewcarson: 804G (18.4%, 804G)
coralreeferz: 650G (14.9%, 4,549G)
Alaquane: 635G (14.6%, 635G)
fenaen: 596G (13.7%, 596G)
Cryptopsy70: 576G (13.2%, 23,437G)
run_with_stone_GUNs: 250G (5.7%, 33,220G)
Nizaha: 201G (4.6%, 8,110G)
Magicandy: 200G (4.6%, 3,487G)
RunicMagus: 150G (3.4%, 31,521G)
serperemagus: 100G (2.3%, 17,218G)
datadrivenbot: 100G (2.3%, 46,052G)
Kellios11: 100G (2.3%, 58,258G)
