Final Bets: black - 27 bets for 16,066G (54.0%, x0.85); purple - 8 bets for 13,704G (46.0%, x1.17)

black bets:
Forkmore: 2,000G (12.4%, 30,745G)
UmaiJam: 1,800G (11.2%, 81,335G)
DLJuggernaut: 1,350G (8.4%, 1,700G)
DavenIII: 1,147G (7.1%, 1,147G)
Firesheath: 1,000G (6.2%, 75,742G)
SkylerBunny: 1,000G (6.2%, 7,895G)
BirbBrainsBot: 1,000G (6.2%, 115,699G)
getthemoneyz: 1,000G (6.2%, 1,158,718G)
TheChainNerd: 552G (3.4%, 5,529G)
powergems: 540G (3.4%, 540G)
Nizaha: 500G (3.1%, 500G)
ArashiKurobara: 500G (3.1%, 26,433G)
Error72: 500G (3.1%, 2,830G)
MagicBottle: 480G (3.0%, 23,303G)
killth3kid: 444G (2.8%, 132,274G)
RampagingRobot: 355G (2.2%, 17,855G)
O_Heyno: 328G (2.0%, 328G)
HuffFlex: 300G (1.9%, 10,071G)
Mathlexis: 250G (1.6%, 3,930G)
safira125: 220G (1.4%, 220G)
DaKoopa49: 200G (1.2%, 1,167G)
E_Ballard: 100G (0.6%, 2,624G)
nhammen: 100G (0.6%, 8,376G)
nsm013: 100G (0.6%, 9,764G)
datadrivenbot: 100G (0.6%, 51,736G)
ChaoreLance: 100G (0.6%, 1,657G)
BaronHaynes: 100G (0.6%, 16,727G)

purple bets:
FriendSquirrel: 8,414G (61.4%, 8,414G)
Lydian_C: 2,400G (17.5%, 146,978G)
ValtonZenola: 1,000G (7.3%, 11,541G)
Laserman1000: 789G (5.8%, 14,589G)
DudeMonkey77: 700G (5.1%, 700G)
KasugaiRoastedPeas: 200G (1.5%, 16,927G)
Baron_von_Scrub: 101G (0.7%, 19,778G)
Miku_Shikhu: 100G (0.7%, 22,134G)
