Final Bets: purple - 25 bets for 8,778G (30.5%, x2.28); brown - 37 bets for 19,987G (69.5%, x0.44)

purple bets:
BirbBrainsBot: 1,000G (11.4%, 193,803G)
bad1dea: 1,000G (11.4%, 182,477G)
Hirine: 990G (11.3%, 990G)
urieltheflameofgod: 934G (10.6%, 934G)
rockmem21: 506G (5.8%, 506G)
gooseyourself: 500G (5.7%, 2,377G)
getthemoneyz: 448G (5.1%, 356,229G)
VySaika: 362G (4.1%, 725G)
Humble_Fabio: 333G (3.8%, 1,655G)
ll_aja_ll: 300G (3.4%, 3,819G)
sinnyil2: 300G (3.4%, 2,710G)
helpimabug: 288G (3.3%, 288G)
Winnosh: 220G (2.5%, 220G)
ZephyrTempest: 208G (2.4%, 5,088G)
AllInBot: 200G (2.3%, 200G)
loveyouallfriends: 200G (2.3%, 10,850G)
HaychDub: 200G (2.3%, 8,606G)
ra1kia: 158G (1.8%, 158G)
boggart742: 104G (1.2%, 104G)
DaKoopa49: 104G (1.2%, 104G)
spit8866: 104G (1.2%, 104G)
Zagorsek: 100G (1.1%, 281,770G)
mpghappiness: 100G (1.1%, 5,123G)
Aislingeach: 69G (0.8%, 4,324G)
Cataphract116: 50G (0.6%, 1,226G)

brown bets:
AniZero: 5,000G (25.0%, 11,674G)
AdmiralPikachu: 3,000G (15.0%, 28,308G)
Riot_Jayway: 1,111G (5.6%, 186,891G)
DudeMonkey77: 1,000G (5.0%, 46,604G)
OneHundredFists: 1,000G (5.0%, 16,248G)
MrDiggs49: 746G (3.7%, 746G)
Lionhermit: 700G (3.5%, 700G)
Lodrak: 700G (3.5%, 1,448G)
DeathTaxesAndAnime: 672G (3.4%, 672G)
DejaPoo21: 500G (2.5%, 21,347G)
EunosXX: 500G (2.5%, 40,726G)
fenaen: 499G (2.5%, 499G)
Lazerkick: 400G (2.0%, 12,913G)
RyuTsuno: 326G (1.6%, 326G)
Skarthe: 300G (1.5%, 9,064G)
Oshimi12: 300G (1.5%, 5,339G)
ungabunga_bot: 292G (1.5%, 1,602G)
Lythe_Caraker: 250G (1.3%, 44,429G)
Tyerenex: 228G (1.1%, 228G)
KasugaiRoastedPeas: 200G (1.0%, 30,498G)
ricky_ortease: 200G (1.0%, 1,505G)
ugoplatamia: 200G (1.0%, 5,381G)
jaykaye: 200G (1.0%, 973G)
Aeolus_000: 200G (1.0%, 531G)
nerdynel17: 176G (0.9%, 176G)
chronoxtrigger: 155G (0.8%, 1,191G)
DonCardenio: 116G (0.6%, 116G)
Conome: 112G (0.6%, 112G)
wackyzachyy: 104G (0.5%, 104G)
maakur_: 100G (0.5%, 58,058G)
ApplesauceBoss: 100G (0.5%, 9,858G)
SpaZmodeus: 100G (0.5%, 2,140G)
AM3P_Batman: 100G (0.5%, 22,199G)
BadBlanket: 100G (0.5%, 3,395G)
datadrivenbot: 100G (0.5%, 14,082G)
Avin_Chaos: 100G (0.5%, 1,433G)
Viola03773: 100G (0.5%, 1,188G)
