Final Bets: purple - 13 bets for 7,792G (57.1%, x0.75); brown - 16 bets for 5,850G (42.9%, x1.33)

purple bets:
PatSouI: 2,677G (34.4%, 2,677G)
UmaiJam: 1,198G (15.4%, 1,198G)
volgrathemoose: 884G (11.3%, 884G)
superdevon1: 721G (9.3%, 2,887G)
McGooferson: 541G (6.9%, 541G)
kingchadking: 344G (4.4%, 344G)
Skarthe: 300G (3.9%, 1,895G)
SeedSC: 250G (3.2%, 104,725G)
roqqqpsi: 222G (2.8%, 737G)
ugoplatamia: 200G (2.6%, 11,777G)
lijarkh: 200G (2.6%, 2,124G)
lastly: 136G (1.7%, 136G)
SkeletorRS: 119G (1.5%, 2,382G)

brown bets:
BirbBrainsBot: 1,000G (17.1%, 118,659G)
DaveStrider55: 764G (13.1%, 764G)
CaptainAdmiralSPATULA: 594G (10.2%, 594G)
rechaun: 542G (9.3%, 542G)
jethrothrul: 508G (8.7%, 508G)
alecttox: 500G (8.5%, 24,582G)
NovaKnight21: 464G (7.9%, 464G)
WireLord: 360G (6.2%, 360G)
maakur_: 344G (5.9%, 344G)
Zeyl: 200G (3.4%, 703G)
Tithonus: 100G (1.7%, 7,997G)
DeathTaxesAndAnime: 100G (1.7%, 1,190G)
herrshaun: 100G (1.7%, 4,333G)
datadrivenbot: 100G (1.7%, 15,673G)
jhazor: 100G (1.7%, 2,602G)
getthemoneyz: 74G (1.3%, 401,965G)
