Final Bets: black - 9 bets for 4,582G (23.0%, x3.35); champion - 21 bets for 15,332G (77.0%, x0.30)

black bets:
BirbBrainsBot: 1,000G (21.8%, 118,549G)
bad1dea: 1,000G (21.8%, 330,606G)
inzo_bettingbot: 1,000G (21.8%, 56,104G)
DeathTaxesAndAnime: 492G (10.7%, 492G)
MoonSlayerRS: 368G (8.0%, 368G)
roqqqpsi: 222G (4.8%, 867G)
Treapvort: 200G (4.4%, 23,530G)
CaptainAdmiralSPATULA: 200G (4.4%, 955G)
lijarkh: 100G (2.2%, 2,024G)

champion bets:
kingchadking: 3,631G (23.7%, 3,631G)
ugoplatamia: 2,460G (16.0%, 12,302G)
superdevon1: 1,447G (9.4%, 1,447G)
InOzWeTrust: 1,256G (8.2%, 1,256G)
volgrathemoose: 1,018G (6.6%, 2,036G)
RongRongArts: 1,000G (6.5%, 11,531G)
WireLord: 672G (4.4%, 672G)
ko2q: 649G (4.2%, 649G)
jethrothrul: 508G (3.3%, 508G)
Skarthe: 500G (3.3%, 2,215G)
NovaKnight21: 469G (3.1%, 469G)
maakur_: 344G (2.2%, 344G)
herrshaun: 300G (2.0%, 4,320G)
SeedSC: 250G (1.6%, 104,663G)
Cataphract116: 200G (1.3%, 1,161G)
kami_39: 116G (0.8%, 116G)
Zeyl: 112G (0.7%, 112G)
Tithonus: 100G (0.7%, 7,986G)
McGooferson: 100G (0.7%, 949G)
datadrivenbot: 100G (0.7%, 15,773G)
jhazor: 100G (0.7%, 2,434G)
