High Risers:
1. Evdoggity: +9,917G
2. Nok____: +2,675G
3. Reddwind_: +1,711G
4. Ser_pyrro: +1,520G
5. Thyrandaal: +1,500G
6. Vultuous: +1,500G
7. Peeronid: +1,450G
8. Volgrathemoose: +1,100G
9. Mushufasa_: +1,065G
10. Mesmaster: +1,004G
11. Carsenhk: +1,000G
12. Helpimabug: +1,000G
13. Prince_rogers_nelson_: +916G
14. Smashy: +800G
15. Mirapoix: +700G
16. Rune339: +696G
17. Xsifthewolf: +641G
18. 0v3rr8d: +604G
19. Cassiephoenix: +604G
20. Hasterious: +600G
21. Memoriesoffinal: +567G
22. Gigglestik: +500G
23. Mazairasama: +500G
24. Rocl: +493G
25. Neech: +434G
26. Davestrider55: +370G
27. 3ngag3: +345G
28. Formerlydrdong: +40G
29. Songdeh: -213G
30. Puzzlesecretary: -218G
31. Immortalmage: -229G
32. Lijarkh: -282G
33. Seppu777: -468G
34. Thesabretoothe: -500G
35. Escobro: -500G
36. Baronhaynes: -1,000G
37. Aly327: -1,000G
38. Panushenko: -1,000G
39. Colettemslp: -1,000G
40. Bruubarg: -2,900G
41. Raixelol: -2,958G
