Final Bets: red - 12 bets for 4,700G (37.3%, x1.68); blue - 9 bets for 7,898G (62.7%, x0.60)

red bets:
dogsandcatsand: 1,070G (22.8%, 1,070G)
BirbBrainsBot: 1,000G (21.3%, 70,475G)
JumbocactuarX27: 498G (10.6%, 498G)
Vultuous: 381G (8.1%, 381G)
Raixelol: 360G (7.7%, 1,255G)
rocl: 340G (7.2%, 340G)
AltimaMantoid: 250G (5.3%, 6,250G)
FriendlySkeleton: 200G (4.3%, 1,439G)
gongonono: 200G (4.3%, 7,919G)
datadrivenbot: 200G (4.3%, 66,407G)
gorgewall: 101G (2.1%, 2,419G)
pepperbuster: 100G (2.1%, 4,807G)

blue bets:
Willjin: 4,000G (50.6%, 92,269G)
sinnyil2: 1,104G (14.0%, 1,104G)
E_Ballard: 844G (10.7%, 104,470G)
run_with_stone_GUNs: 520G (6.6%, 33,763G)
CosmicTactician: 500G (6.3%, 48,646G)
Belkra: 444G (5.6%, 444G)
helpimabug: 256G (3.2%, 256G)
bigbongsmoker: 200G (2.5%, 2,692G)
getthemoneyz: 30G (0.4%, 1,809,398G)
