Final Bets: red - 8 bets for 8,325G (32.4%, x2.09); blue - 16 bets for 17,398G (67.6%, x0.48)

red bets:
SkylerBunny: 4,000G (48.0%, 18,183G)
AllInBot: 1,434G (17.2%, 1,434G)
nekojin: 1,043G (12.5%, 2,086G)
killth3kid: 760G (9.1%, 13,645G)
Lord_Gwarth: 408G (4.9%, 408G)
athros13: 280G (3.4%, 1,483G)
peanutvendor: 200G (2.4%, 951G)
CosmicTactician: 200G (2.4%, 31,029G)

blue bets:
DavenIII: 4,601G (26.4%, 92,035G)
Narcius: 3,600G (20.7%, 320,414G)
resjudicata3: 1,551G (8.9%, 1,551G)
toka222: 1,500G (8.6%, 152,795G)
BirbBrainsBot: 1,000G (5.7%, 49,410G)
CapnChaos12: 936G (5.4%, 936G)
DLJuggernaut: 818G (4.7%, 818G)
Nizaha: 748G (4.3%, 7,719G)
E_Ballard: 680G (3.9%, 680G)
getthemoneyz: 518G (3.0%, 1,682,680G)
JCBoorgo: 321G (1.8%, 804G)
MagicBottle: 300G (1.7%, 300G)
JCBooBot: 256G (1.5%, 676G)
itsonlyspencer: 240G (1.4%, 4,311G)
datadrivenbot: 200G (1.1%, 62,186G)
theBinklive: 129G (0.7%, 517G)
