Final Bets: red - 11 bets for 3,333G (15.6%, x5.41); blue - 20 bets for 18,048G (84.4%, x0.18)

red bets:
BirbBrainsBot: 1,000G (30.0%, 177,983G)
LivingHitokiri: 500G (15.0%, 13,155G)
Ungaiii: 408G (12.2%, 408G)
Rislyeu: 400G (12.0%, 2,079G)
gorgewall: 301G (9.0%, 11,306G)
bummer91: 200G (6.0%, 822G)
Tekenu: 124G (3.7%, 124G)
Lawndough: 100G (3.0%, 1,014G)
TeaTime29: 100G (3.0%, 100G)
TheMM42: 100G (3.0%, 21,294G)
moocaotao: 100G (3.0%, 1,041G)

blue bets:
sinnyil2: 5,876G (32.6%, 11,753G)
NicoSavoy: 2,000G (11.1%, 48,879G)
Mesmaster: 2,000G (11.1%, 71,500G)
CorpusCav: 1,008G (5.6%, 9,500G)
Evewho: 1,000G (5.5%, 7,487G)
Phytik: 720G (4.0%, 720G)
HaplessOne: 666G (3.7%, 276,057G)
HASTERIOUS: 653G (3.6%, 13,060G)
BoneMiser: 600G (3.3%, 600G)
helpimabug: 517G (2.9%, 1,035G)
Klednar21: 500G (2.8%, 1,402G)
Jeeboheebo: 468G (2.6%, 468G)
Kyune: 420G (2.3%, 420G)
YaBoy125: 420G (2.3%, 3,227G)
otakutaylor: 400G (2.2%, 2,749G)
Digitalsocrates: 400G (2.2%, 3,751G)
AllInBot: 100G (0.6%, 100G)
DeathTaxesAndAnime: 100G (0.6%, 5,541G)
datadrivenbot: 100G (0.6%, 19,454G)
rednecknazgul: 100G (0.6%, 613G)
