Final Bets: green - 15 bets for 8,332G (49.0%, x1.04); yellow - 18 bets for 8,659G (51.0%, x0.96)

green bets:
sinnyil2: 1,755G (21.1%, 1,755G)
Error72: 1,500G (18.0%, 5,202G)
ANFz: 1,072G (12.9%, 1,072G)
BirbBrainsBot: 1,000G (12.0%, 139,807G)
getthemoneyz: 634G (7.6%, 678,591G)
DustBirdEX: 456G (5.5%, 14,114G)
Rislyeu: 390G (4.7%, 390G)
AsceticGamer: 300G (3.6%, 1,384G)
Kezia444: 272G (3.3%, 272G)
KasugaiRoastedPeas: 200G (2.4%, 568G)
Tsuike: 200G (2.4%, 1,060G)
skillomono: 200G (2.4%, 1,037G)
neocarbuncle: 138G (1.7%, 138G)
nekojin: 115G (1.4%, 115G)
AUrato: 100G (1.2%, 3,851G)

yellow bets:
volgrathemoose: 1,259G (14.5%, 1,259G)
DeathTaxesAndAnime: 1,050G (12.1%, 1,050G)
tronfonne: 700G (8.1%, 871G)
nifboy: 630G (7.3%, 630G)
killth3kid: 600G (6.9%, 3,008G)
E_Ballard: 600G (6.9%, 600G)
Estan_AD: 574G (6.6%, 574G)
CorpusCav: 573G (6.6%, 1,146G)
Lionhermit: 485G (5.6%, 485G)
Arbitae: 440G (5.1%, 440G)
Lanshaft: 384G (4.4%, 384G)
fire_________________: 292G (3.4%, 292G)
ungabunga_bot: 277G (3.2%, 531,256G)
Kyune: 250G (2.9%, 2,371G)
bahamutlagooon: 245G (2.8%, 12,251G)
Lolprinze: 100G (1.2%, 2,276G)
datadrivenbot: 100G (1.2%, 18,939G)
Dellusionsx: 100G (1.2%, 4,417G)
