Final Bets: blue - 23 bets for 14,513G (82.7%, x0.21); yellow - 13 bets for 3,034G (17.3%, x4.78)

blue bets:
Mesmaster: 3,000G (20.7%, 55,955G)
red__lancer: 2,000G (13.8%, 55,942G)
BirbBrainsBot: 1,000G (6.9%, 139,080G)
bahamutlagooon: 1,000G (6.9%, 11,363G)
Dellusionsx: 800G (5.5%, 4,513G)
ANFz: 625G (4.3%, 625G)
killth3kid: 600G (4.1%, 2,385G)
tronfonne: 600G (4.1%, 2,040G)
Estan_AD: 568G (3.9%, 568G)
Lanshaft: 541G (3.7%, 541G)
EnemyController: 500G (3.4%, 243,839G)
AmaninAmide: 500G (3.4%, 2,951G)
luminarii: 450G (3.1%, 14,615G)
gorgewall: 412G (2.8%, 412G)
FriendSquirrel: 332G (2.3%, 332G)
fire_________________: 329G (2.3%, 329G)
itsZaes: 305G (2.1%, 305G)
AUrato: 300G (2.1%, 3,021G)
Strifu: 200G (1.4%, 936G)
Reltz_: 196G (1.4%, 196G)
ungabunga_bot: 105G (0.7%, 530,970G)
datadrivenbot: 100G (0.7%, 19,170G)
DoublePrizes: 50G (0.3%, 774G)

yellow bets:
twelfthrootoftwo: 500G (16.5%, 14,291G)
Maldoree: 372G (12.3%, 372G)
DustBirdEX: 345G (11.4%, 13,517G)
LottieStarlight: 300G (9.9%, 1,492G)
neocarbuncle: 297G (9.8%, 297G)
skillomono: 200G (6.6%, 2,306G)
CorpusCav: 200G (6.6%, 1,000G)
Arbitae: 198G (6.5%, 998G)
Kezia444: 190G (6.3%, 190G)
a_mo22: 120G (4.0%, 1,013G)
getthemoneyz: 112G (3.7%, 677,227G)
Lolprinze: 100G (3.3%, 2,408G)
Lionhermit: 100G (3.3%, 1,472G)
