Final Bets: black - 15 bets for 7,207G (33.4%, x2.00); purple - 26 bets for 14,388G (66.6%, x0.50)

black bets:
volgrathemoose: 2,194G (30.4%, 4,388G)
ANFz: 756G (10.5%, 756G)
KasugaiRoastedPeas: 701G (9.7%, 701G)
Estan_AD: 687G (9.5%, 687G)
EnemyController: 500G (6.9%, 243,944G)
Lordminsc: 400G (5.6%, 3,608G)
Maldoree: 372G (5.2%, 372G)
GrandmasterFrankerZ: 356G (4.9%, 356G)
DustBirdEX: 345G (4.8%, 13,172G)
twelfthrootoftwo: 300G (4.2%, 13,791G)
getthemoneyz: 188G (2.6%, 677,115G)
neocarbuncle: 108G (1.5%, 108G)
OneHundredFists: 100G (1.4%, 1,245G)
AmaninAmide: 100G (1.4%, 3,056G)
Jeeboheebo: 100G (1.4%, 4,267G)

purple bets:
Mesmaster: 2,000G (13.9%, 56,582G)
E_Ballard: 1,177G (8.2%, 1,177G)
mpghappiness: 1,001G (7.0%, 19,170G)
BirbBrainsBot: 1,000G (7.0%, 139,289G)
skillomono: 1,000G (7.0%, 2,106G)
red__lancer: 1,000G (7.0%, 56,360G)
Strifu: 978G (6.8%, 978G)
CorpusCav: 800G (5.6%, 800G)
tronfonne: 777G (5.4%, 2,165G)
Lanshaft: 654G (4.5%, 654G)
killth3kid: 600G (4.2%, 2,510G)
Rislyeu: 521G (3.6%, 521G)
DeathTaxesAndAnime: 500G (3.5%, 2,060G)
luminarii: 450G (3.1%, 14,709G)
Fenrislfr: 304G (2.1%, 304G)
AUrato: 300G (2.1%, 3,084G)
ungabunga_bot: 282G (2.0%, 530,992G)
alecttox: 244G (1.7%, 244G)
Lolprinze: 150G (1.0%, 2,308G)
Tougou: 100G (0.7%, 4,716G)
Arbitae: 100G (0.7%, 800G)
Lionhermit: 100G (0.7%, 1,372G)
itsZaes: 100G (0.7%, 373G)
datadrivenbot: 100G (0.7%, 19,191G)
Evewho: 100G (0.7%, 2,685G)
Reltz_: 50G (0.3%, 237G)
