Final Bets: white - 13 bets for 8,653G (70.5%, x0.42); purple - 5 bets for 3,615G (29.5%, x2.39)

white bets:
NIghtdew14: 3,205G (37.0%, 16,025G)
HaateXIII: 1,920G (22.2%, 1,920G)
killth3kid: 1,000G (11.6%, 106,575G)
MagicBottle: 508G (5.9%, 16,139G)
ACSpree: 500G (5.8%, 4,773G)
serperemagus: 500G (5.8%, 6,017G)
gorgewall: 301G (3.5%, 24,141G)
datadrivenbot: 200G (2.3%, 55,460G)
DaKoopa49: 114G (1.3%, 838G)
superdevon1: 105G (1.2%, 5,263G)
Jumza: 100G (1.2%, 100G)
mpghappiness: 100G (1.2%, 26,821G)
nhammen: 100G (1.2%, 11,550G)

purple bets:
Evewho: 1,473G (40.7%, 1,473G)
opHendoslice: 1,000G (27.7%, 2,538G)
BirbBrainsBot: 606G (16.8%, 122,507G)
enkikavlar: 312G (8.6%, 312G)
getthemoneyz: 224G (6.2%, 1,215,052G)
