Final Bets: blue - 13 bets for 8,757G (52.3%, x0.91); green - 8 bets for 7,991G (47.7%, x1.10)

blue bets:
JumbocactuarX27: 2,977G (34.0%, 2,977G)
WhiteTigress: 1,500G (17.1%, 19,244G)
dogsandcatsand: 1,000G (11.4%, 13,782G)
E_Ballard: 752G (8.6%, 59,857G)
fenaen: 548G (6.3%, 858G)
killth3kid: 512G (5.8%, 3,490G)
Smashy: 500G (5.7%, 1,396G)
kliffw: 236G (2.7%, 19,665G)
chronicdeath: 232G (2.6%, 232G)
datadrivenbot: 200G (2.3%, 62,461G)
AllInBot: 100G (1.1%, 100G)
Aldrammech: 100G (1.1%, 50,948G)
Thyrandaal: 100G (1.1%, 49,782G)

green bets:
WesSideVandal: 2,000G (25.0%, 7,974G)
JonnyCue: 1,800G (22.5%, 1,800G)
getthemoneyz: 1,000G (12.5%, 1,740,754G)
BirbBrainsBot: 1,000G (12.5%, 40,500G)
Lord_Gwarth: 907G (11.4%, 1,814G)
SkylerBunny: 560G (7.0%, 560G)
Bongomon7: 444G (5.6%, 444G)
Rilgon: 280G (3.5%, 280G)
