Final Bets: black - 21 bets for 11,045G (28.6%, x2.49); champion - 25 bets for 27,532G (71.4%, x0.40)

black bets:
Aldrammech: 3,380G (30.6%, 33,806G)
Shakarak: 1,000G (9.1%, 7,523G)
arch8000: 1,000G (9.1%, 6,245G)
BirbBrainsBot: 1,000G (9.1%, 71,012G)
waterwatereverywhere: 678G (6.1%, 678G)
Lanshaft: 600G (5.4%, 8,339G)
SWATb1gdog: 400G (3.6%, 5,366G)
Baron_von_Scrub: 380G (3.4%, 380G)
MagicBottle: 316G (2.9%, 316G)
BlinkFS: 300G (2.7%, 24,067G)
AnthraX85: 271G (2.5%, 542G)
dennarai: 250G (2.3%, 986G)
Chuckolator: 227G (2.1%, 5,492G)
ZephyrTempest: 213G (1.9%, 51,650G)
Jerboj: 200G (1.8%, 36,531G)
SeniorBunk: 200G (1.8%, 1,585G)
KasugaiRoastedPeas: 200G (1.8%, 3,983G)
DrAntiSocial: 130G (1.2%, 1,943G)
Lodrak: 100G (0.9%, 4,310G)
ko2q: 100G (0.9%, 4,913G)
oogthecaveman: 100G (0.9%, 5,733G)

champion bets:
ArdentDrops: 7,968G (28.9%, 7,968G)
jhaller2: 2,682G (9.7%, 2,782G)
edgehead62888: 2,515G (9.1%, 2,515G)
volgrathemoose: 2,000G (7.3%, 8,000G)
SkepticalMinotaur: 1,619G (5.9%, 1,619G)
b0shii: 1,424G (5.2%, 1,424G)
rockmem21: 1,205G (4.4%, 1,205G)
sinnyil2: 1,200G (4.4%, 5,115G)
omegasuspekt: 1,062G (3.9%, 1,062G)
z32o: 865G (3.1%, 865G)
datadrivenbot: 857G (3.1%, 22,536G)
DejaPoo21: 713G (2.6%, 713G)
Laserman1000: 600G (2.2%, 12,600G)
Goust18: 600G (2.2%, 9,295G)
uncharreted: 350G (1.3%, 3,343G)
DudeMonkey77: 333G (1.2%, 1,437G)
Vampire_Killer: 320G (1.2%, 2,250G)
Kronikle: 300G (1.1%, 5,034G)
AllInBot: 190G (0.7%, 190G)
TheGuesty: 159G (0.6%, 1,459G)
joewcarson: 156G (0.6%, 156G)
Pochitchi: 108G (0.4%, 108G)
ungabunga_bot: 106G (0.4%, 112,932G)
nifboy: 100G (0.4%, 2,800G)
RughSontos: 100G (0.4%, 2,314G)
