Final Bets: green - 5 bets for 8,243G (70.6%, x0.42); yellow - 8 bets for 3,435G (29.4%, x2.40)

green bets:
AllInBot: 4,801G (58.2%, 4,801G)
Seaweed_B: 2,000G (24.3%, 108,836G)
CT_5_Holy: 1,056G (12.8%, 1,056G)
brando84back: 200G (2.4%, 2,136G)
ArfArfArfArfArfArfArfArf: 186G (2.3%, 186G)

yellow bets:
BirbBrainsBot: 1,000G (29.1%, 182,563G)
WhiteTigress: 918G (26.7%, 918G)
getthemoneyz: 470G (13.7%, 1,656,557G)
lowlf: 312G (9.1%, 5,067G)
iBardic: 272G (7.9%, 272G)
datadrivenbot: 200G (5.8%, 69,198G)
3ngag3: 163G (4.7%, 2,263G)
ko2q: 100G (2.9%, 856G)
