Final Bets: white - 7 bets for 3,214G (22.0%, x3.55); black - 9 bets for 11,424G (78.0%, x0.28)

white bets:
BirbBrainsBot: 1,000G (31.1%, 181,563G)
sinnyil2: 940G (29.2%, 940G)
WhiteTigress: 368G (11.4%, 368G)
iBardic: 276G (8.6%, 276G)
getthemoneyz: 230G (7.2%, 1,656,087G)
datadrivenbot: 200G (6.2%, 68,998G)
brando84back: 200G (6.2%, 2,219G)

black bets:
AllInBot: 6,802G (59.5%, 6,802G)
Seaweed_B: 2,000G (17.5%, 109,669G)
Helwithe: 889G (7.8%, 889G)
ko2q: 756G (6.6%, 756G)
lowlf: 312G (2.7%, 4,755G)
ArfArfArfArfArfArfArfArf: 264G (2.3%, 264G)
shadricklul: 200G (1.8%, 774G)
gorgewall: 101G (0.9%, 6,684G)
3ngag3: 100G (0.9%, 2,100G)
