Final Bets: blue - 11 bets for 10,677G (54.0%, x0.85); brown - 20 bets for 9,077G (46.0%, x1.18)

blue bets:
DavenIII: 3,000G (28.1%, 6,012G)
nifboy: 1,791G (16.8%, 1,791G)
dogsandcatsand: 1,662G (15.6%, 3,324G)
SkyridgeZero: 1,000G (9.4%, 34,927G)
Oreo_Pizza: 1,000G (9.4%, 20,592G)
killth3kid: 884G (8.3%, 8,847G)
OppressivelyMinty: 716G (6.7%, 716G)
ZCKaiser: 224G (2.1%, 224G)
Rytor: 200G (1.9%, 3,612G)
RuneS_77: 100G (0.9%, 8,848G)
username123132: 100G (0.9%, 100G)

brown bets:
JumbocactuarX27: 1,384G (15.2%, 1,384G)
DLJuggernaut: 1,000G (11.0%, 25,912G)
LDSkinny: 1,000G (11.0%, 4,099G)
Thyrandaal: 1,000G (11.0%, 38,284G)
HaateXIII: 780G (8.6%, 780G)
Kronikle: 500G (5.5%, 18,077G)
EnemyController: 500G (5.5%, 593,295G)
benticore: 416G (4.6%, 8,322G)
Anasetsuken: 400G (4.4%, 12,081G)
ShintaroNayaka: 400G (4.4%, 7,917G)
coralreeferz: 350G (3.9%, 4,566G)
AllInBot: 235G (2.6%, 235G)
Nizaha: 201G (2.2%, 20,866G)
reddwind_: 200G (2.2%, 2,240G)
getthemoneyz: 188G (2.1%, 959,995G)
TheChainNerd: 123G (1.4%, 4,123G)
CosmicTactician: 100G (1.1%, 6,390G)
Grandlanzer: 100G (1.1%, 2,652G)
datadrivenbot: 100G (1.1%, 41,825G)
Alanaire: 100G (1.1%, 13,534G)
