Final Bets: white - 20 bets for 16,477G (67.0%, x0.49); black - 12 bets for 8,111G (33.0%, x2.03)

white bets:
coralreeferz: 4,270G (25.9%, 4,270G)
skillomono: 3,542G (21.5%, 3,542G)
rechaun: 1,452G (8.8%, 1,452G)
rednecknazgul: 1,000G (6.1%, 44,207G)
Sharosa: 1,000G (6.1%, 3,749G)
Aldrammech: 1,000G (6.1%, 10,509G)
getthemoneyz: 878G (5.3%, 748,550G)
VynxYukida: 800G (4.9%, 11,452G)
YaBoy125: 448G (2.7%, 448G)
AllInBot: 418G (2.5%, 418G)
GeeGXP: 264G (1.6%, 8,264G)
nifboy: 250G (1.5%, 10,839G)
serperemagus: 250G (1.5%, 1,954G)
TeaTime29: 200G (1.2%, 1,863G)
KyleWonToLiveForever: 149G (0.9%, 149G)
Nelrith: 139G (0.8%, 139G)
zepharoth89: 117G (0.7%, 917G)
CosmicTactician: 100G (0.6%, 9,075G)
danteangel7psn: 100G (0.6%, 100G)
datadrivenbot: 100G (0.6%, 25,469G)

black bets:
LeoNightFury: 1,768G (21.8%, 1,768G)
E_Ballard: 1,525G (18.8%, 1,525G)
maakur_: 1,309G (16.1%, 1,309G)
BirbBrainsBot: 1,000G (12.3%, 11,818G)
StealthModeLocke: 595G (7.3%, 595G)
ibrakadabra_legend: 500G (6.2%, 13,872G)
cloud92684: 410G (5.1%, 410G)
letdowncity: 300G (3.7%, 9,164G)
docmitchphd: 292G (3.6%, 292G)
gogofromtogo: 212G (2.6%, 212G)
RunicMagus: 100G (1.2%, 32,341G)
smegma_sorcerer: 100G (1.2%, 5,987G)
