Final Bets: white - 14 bets for 3,966G (17.3%, x4.77); black - 26 bets for 18,906G (82.7%, x0.21)

white bets:
volgrathemoose: 620G (15.6%, 620G)
killth3kid: 576G (14.5%, 5,083G)
ThePineappleSalesman: 500G (12.6%, 15,467G)
namamu: 500G (12.6%, 17,814G)
joewcarson: 300G (7.6%, 1,863G)
skillomono: 300G (7.6%, 2,301G)
nifboy: 250G (6.3%, 2,261G)
Tsuike: 250G (6.3%, 2,343G)
eudes89: 200G (5.0%, 1,108G)
getthemoneyz: 170G (4.3%, 683,854G)
hoochMonger: 100G (2.5%, 384G)
maakur_: 100G (2.5%, 3,693G)
letdowncity: 50G (1.3%, 1,465G)
super_robo_mg: 50G (1.3%, 252G)

black bets:
Scotobot: 4,000G (21.2%, 35,805G)
JumbocactuarX27: 1,850G (9.8%, 1,850G)
Kyune: 1,666G (8.8%, 1,666G)
DeathTaxesAndAnime: 1,142G (6.0%, 1,142G)
Firesheath: 1,112G (5.9%, 1,112G)
Nizaha: 1,001G (5.3%, 11,698G)
ungabunga_bot: 1,000G (5.3%, 509,237G)
E_Ballard: 1,000G (5.3%, 10,929G)
dodgeroll: 915G (4.8%, 4,579G)
BirbBrainsBot: 607G (3.2%, 172,076G)
Nickyfive: 564G (3.0%, 564G)
Laserman1000: 550G (2.9%, 5,950G)
gabbagooluigi: 537G (2.8%, 537G)
Dymntd: 500G (2.6%, 1,838G)
EnemyController: 500G (2.6%, 249,822G)
FriendSquirrel: 340G (1.8%, 340G)
AmaninAmide: 300G (1.6%, 3,152G)
SQUiDSQUARKLIN: 300G (1.6%, 3,600G)
evdoggity: 288G (1.5%, 288G)
GladiatorLupe: 200G (1.1%, 9,422G)
O_Heyno: 150G (0.8%, 1,255G)
CrownOfHorns: 120G (0.6%, 120G)
RunicMagus: 100G (0.5%, 32,174G)
datadrivenbot: 100G (0.5%, 18,394G)
Reltz_: 50G (0.3%, 678G)
roqqqpsi: 14G (0.1%, 1,453G)
