Final Bets: red - 11 bets for 6,767G (71.5%, x0.40); champion - 10 bets for 2,697G (28.5%, x2.51)

red bets:
3ngag3: 1,500G (22.2%, 23,500G)
BirbBrainsBot: 1,000G (14.8%, 11,569G)
NicoSavoy: 1,000G (14.8%, 11,703G)
SephDarkheart: 857G (12.7%, 857G)
Raixelol: 528G (7.8%, 4,196G)
FFMaster: 494G (7.3%, 494G)
Sietaha: 400G (5.9%, 6,106G)
lijarkh: 316G (4.7%, 316G)
ColetteMSLP: 300G (4.4%, 4,752G)
rottings0ul: 200G (3.0%, 1,705G)
iBardic: 172G (2.5%, 732G)

champion bets:
ValensEXP_: 674G (25.0%, 674G)
Mushufasa_: 500G (18.5%, 1,490G)
roqqqpsi: 435G (16.1%, 440G)
dem0nj0ns: 284G (10.5%, 284G)
VMuliadi: 250G (9.3%, 1,179G)
Leonidusx: 200G (7.4%, 16,306G)
TheSabretoothe: 104G (3.9%, 104G)
gorgewall: 101G (3.7%, 4,418G)
BartTradingCompany: 85G (3.2%, 855G)
getthemoneyz: 64G (2.4%, 1,844,075G)
