Final Bets: white - 15 bets for 10,722G (64.6%, x0.55); black - 14 bets for 5,868G (35.4%, x1.83)

white bets:
RaIshtar: 3,058G (28.5%, 3,058G)
twelfthrootoftwo: 2,000G (18.7%, 41,123G)
NIghtdew14: 1,349G (12.6%, 1,349G)
cloud92684: 1,000G (9.3%, 10,751G)
superdevon1: 777G (7.2%, 3,885G)
TheGuesty: 659G (6.1%, 50,159G)
killth3kid: 500G (4.7%, 21,554G)
Digitalsocrates: 328G (3.1%, 3,284G)
d4rr1n: 300G (2.8%, 5,933G)
roqqqpsi: 183G (1.7%, 18,349G)
Lawndough: 168G (1.6%, 168G)
ApplesauceBoss: 100G (0.9%, 6,086G)
Qaz12301: 100G (0.9%, 8,846G)
datadrivenbot: 100G (0.9%, 30,462G)
lastly: 100G (0.9%, 11,280G)

black bets:
BirbBrainsBot: 1,000G (17.0%, 92,955G)
getthemoneyz: 1,000G (17.0%, 765,318G)
Mesmaster: 1,000G (17.0%, 151,075G)
bruubarg: 500G (8.5%, 4,516G)
volgrathemoose: 472G (8.0%, 472G)
Lydian_C: 340G (5.8%, 5,441G)
SeniorBunk: 300G (5.1%, 10,444G)
LeoNightFury: 264G (4.5%, 264G)
josephiroth_143: 252G (4.3%, 252G)
brokenknight201: 240G (4.1%, 240G)
gogofromtogo: 200G (3.4%, 2,057G)
maakur_: 100G (1.7%, 6,984G)
CosmicTactician: 100G (1.7%, 3,437G)
Evewho: 100G (1.7%, 3,972G)
