Final Bets: blue - 13 bets for 5,486G (35.2%, x1.84); black - 9 bets for 10,094G (64.8%, x0.54)

blue bets:
catfashions: 1,166G (21.3%, 21,166G)
red__lancer: 1,000G (18.2%, 76,303G)
Laserman1000: 814G (14.8%, 4,114G)
BirbBrainsBot: 762G (13.9%, 164,920G)
gooseyourself: 402G (7.3%, 805G)
skillomono: 300G (5.5%, 16,981G)
getthemoneyz: 294G (5.4%, 718,944G)
HaateXIII: 250G (4.6%, 6,559G)
AllInBot: 100G (1.8%, 100G)
maakur_: 100G (1.8%, 3,889G)
Mtueni: 100G (1.8%, 14,130G)
letdowncity: 100G (1.8%, 3,206G)
zepharoth89: 98G (1.8%, 748G)

black bets:
Kyune: 4,384G (43.4%, 4,384G)
TheMM42: 2,000G (19.8%, 17,244G)
Zeroroute: 1,175G (11.6%, 1,175G)
powergems: 1,115G (11.0%, 1,115G)
Shalloween: 500G (5.0%, 3,090G)
Lanshaft: 420G (4.2%, 2,376G)
danteangel7psn: 350G (3.5%, 1,347G)
datadrivenbot: 100G (1.0%, 19,948G)
DrAntiSocial: 50G (0.5%, 20,247G)
