Final Bets: black - 13 bets for 7,040G (39.5%, x1.53); champion - 20 bets for 10,804G (60.5%, x0.65)

black bets:
Shalloween: 1,714G (24.3%, 3,362G)
baconbacon1207: 1,000G (14.2%, 8,912G)
TheMM42: 1,000G (14.2%, 18,331G)
danteangel7psn: 1,000G (14.2%, 1,537G)
killth3kid: 500G (7.1%, 20,112G)
ibrakadabra_legend: 500G (7.1%, 15,500G)
Lanshaft: 420G (6.0%, 2,604G)
Saldarin: 284G (4.0%, 284G)
gooseyourself: 272G (3.9%, 544G)
AllInBot: 100G (1.4%, 100G)
E_Ballard: 100G (1.4%, 10,377G)
datadrivenbot: 100G (1.4%, 20,002G)
DrAntiSocial: 50G (0.7%, 20,274G)

champion bets:
Zeroroute: 1,814G (16.8%, 1,814G)
catfashions: 1,000G (9.3%, 20,000G)
BirbBrainsBot: 1,000G (9.3%, 164,158G)
UmaiJam: 1,000G (9.3%, 6,865G)
Error72: 1,000G (9.3%, 8,087G)
NicoSavoy: 1,000G (9.3%, 84,131G)
fenaen: 800G (7.4%, 2,142G)
getthemoneyz: 758G (7.0%, 718,650G)
Laserman1000: 600G (5.6%, 3,300G)
Breakdown777: 500G (4.6%, 1,646G)
kaidykat: 300G (2.8%, 4,884G)
HaateXIII: 250G (2.3%, 6,309G)
powergems: 200G (1.9%, 1,721G)
cloud92684: 128G (1.2%, 128G)
Heroebal: 100G (0.9%, 7,122G)
CosmicTactician: 100G (0.9%, 18,109G)
Kyune: 100G (0.9%, 6,767G)
letdowncity: 100G (0.9%, 3,106G)
l0rdspug: 50G (0.5%, 2,643G)
daveb_: 4G (0.0%, 2,587G)
