Final Bets: green - 16 bets for 8,820G (65.1%, x0.54); yellow - 12 bets for 4,734G (34.9%, x1.86)

green bets:
OneHundredFists: 1,129G (12.8%, 1,129G)
BirbBrainsBot: 1,000G (11.3%, 166,419G)
LivingHitokiri: 1,000G (11.3%, 176,364G)
MemoriesofFinal: 975G (11.1%, 975G)
resjudicata3: 848G (9.6%, 848G)
Shalloween: 660G (7.5%, 660G)
Evewho: 500G (5.7%, 2,049G)
CosmicTactician: 500G (5.7%, 28,840G)
JonnyCue: 432G (4.9%, 432G)
SephDarkheart: 408G (4.6%, 408G)
FriendSquirrel: 404G (4.6%, 404G)
Kellios11: 300G (3.4%, 3,425G)
Genkidou: 240G (2.7%, 1,504G)
Lord_Gwarth: 200G (2.3%, 3,140G)
PopsLIVE: 120G (1.4%, 120G)
DocSTN: 104G (1.2%, 104G)

yellow bets:
HorusTaurus: 1,000G (21.1%, 8,167G)
dogsandcatsand: 732G (15.5%, 732G)
Smugzug: 614G (13.0%, 7,685G)
Nizaha: 604G (12.8%, 16,993G)
krombobreaker: 500G (10.6%, 16,252G)
lijarkh: 388G (8.2%, 388G)
AllInBot: 353G (7.5%, 353G)
datadrivenbot: 200G (4.2%, 76,189G)
MoonSugarFiend: 108G (2.3%, 108G)
gorgewall: 101G (2.1%, 2,891G)
galkife: 100G (2.1%, 85,425G)
getthemoneyz: 34G (0.7%, 2,086,093G)
