Final Bets: purple - 17 bets for 16,846G (73.3%, x0.36); brown - 9 bets for 6,130G (26.7%, x2.75)

purple bets:
LivingHitokiri: 5,000G (29.7%, 176,401G)
Kronikle: 4,158G (24.7%, 20,791G)
Shalloween: 1,352G (8.0%, 1,352G)
dogsandcatsand: 976G (5.8%, 976G)
SephDarkheart: 836G (5.0%, 836G)
killth3kid: 752G (4.5%, 20,993G)
MemoriesofFinal: 664G (3.9%, 664G)
resjudicata3: 639G (3.8%, 639G)
Nizaha: 604G (3.6%, 16,590G)
krombobreaker: 500G (3.0%, 15,918G)
Lord_Gwarth: 500G (3.0%, 3,413G)
AllInBot: 200G (1.2%, 200G)
datadrivenbot: 200G (1.2%, 76,056G)
FoeSquirrel: 152G (0.9%, 304G)
MoonSugarFiend: 108G (0.6%, 108G)
DocSTN: 104G (0.6%, 104G)
gorgewall: 101G (0.6%, 2,790G)

brown bets:
latebit: 1,404G (22.9%, 1,404G)
Sairentozon7: 1,000G (16.3%, 29,965G)
Leonidusx: 1,000G (16.3%, 210,822G)
DeathTaxesAndAnime: 852G (13.9%, 852G)
BirbBrainsBot: 785G (12.8%, 167,289G)
VolgraTheMoose: 501G (8.2%, 14,160G)
getthemoneyz: 364G (5.9%, 2,086,392G)
PopsLIVE: 124G (2.0%, 124G)
OneHundredFists: 100G (1.6%, 1,635G)
