Final Bets: green - 11 bets for 10,518G (37.2%, x1.69); yellow - 13 bets for 17,749G (62.8%, x0.59)

green bets:
pplvee1: 2,500G (23.8%, 22,465G)
latebit: 1,626G (15.5%, 81,319G)
maakur_: 1,200G (11.4%, 1,200G)
BirbBrainsBot: 1,000G (9.5%, 136,916G)
Lord_Gwarth: 1,000G (9.5%, 6,020G)
LivingHitokiri: 1,000G (9.5%, 157,044G)
E_Ballard: 828G (7.9%, 828G)
getthemoneyz: 472G (4.5%, 2,128,040G)
HorusTaurus: 356G (3.4%, 356G)
TheSabretoothe: 300G (2.9%, 1,718G)
Forkmore: 236G (2.2%, 236G)

yellow bets:
SephDarkheart: 7,324G (41.3%, 14,362G)
upvla: 3,391G (19.1%, 3,391G)
dogsandcatsand: 1,737G (9.8%, 3,407G)
scsuperstar: 1,440G (8.1%, 1,440G)
LeoNightFury: 1,208G (6.8%, 1,208G)
nifboy: 872G (4.9%, 1,398G)
2b_yorha_b: 500G (2.8%, 2,038G)
AltimaMantoid: 300G (1.7%, 14,900G)
sireaulou: 224G (1.3%, 224G)
grimthegameking: 201G (1.1%, 201G)
AllInBot: 200G (1.1%, 200G)
datadrivenbot: 200G (1.1%, 81,502G)
Sharosa: 152G (0.9%, 152G)
