Final Bets: white - 30 bets for 20,327G (36.5%, x1.74); black - 48 bets for 35,296G (63.5%, x0.58)

white bets:
KupoKel: 6,713G (33.0%, 6,713G)
LuckyLuckLuc2: 2,399G (11.8%, 7,501G)
sinnyil2: 1,200G (5.9%, 17,575G)
Lodrak: 1,001G (4.9%, 14,466G)
DudeMonkey77: 1,000G (4.9%, 29,679G)
LanseDM: 1,000G (4.9%, 22,349G)
Tithonus: 950G (4.7%, 950G)
ELzukkor: 858G (4.2%, 858G)
omegasuspekt: 818G (4.0%, 1,637G)
roffgar: 786G (3.9%, 786G)
ra1kia: 750G (3.7%, 2,128G)
Lazerkick: 350G (1.7%, 14,492G)
Humble_Fabio: 333G (1.6%, 4,815G)
tone_t: 300G (1.5%, 8,702G)
roofiepops: 292G (1.4%, 292G)
Faplo: 208G (1.0%, 208G)
LDSkinny: 200G (1.0%, 1,099G)
DeliciousSub: 200G (1.0%, 15,947G)
GeekDadMan: 108G (0.5%, 1,331G)
AllInBot: 100G (0.5%, 100G)
ungabunga_bot: 100G (0.5%, 4,401G)
carchan131: 100G (0.5%, 4,001G)
Zmanwise: 100G (0.5%, 1,040G)
MajikNinja44: 100G (0.5%, 750G)
Basmal: 100G (0.5%, 3,753G)
Lythe_Caraker: 100G (0.5%, 45,600G)
OneHundredFists: 100G (0.5%, 9,134G)
silentperogy: 50G (0.2%, 9,556G)
nofreewill: 10G (0.0%, 412G)
daveb_: 1G (0.0%, 1,449G)

black bets:
bryan792: 10,815G (30.6%, 220,815G)
Virilikus: 2,000G (5.7%, 15,862G)
rockmem21: 1,852G (5.2%, 18,521G)
SolarisFall: 1,526G (4.3%, 10,176G)
Shalloween: 1,000G (2.8%, 28,592G)
BirbBrainsBot: 1,000G (2.8%, 204,097G)
bad1dea: 1,000G (2.8%, 195,217G)
Vampire_Killer: 1,000G (2.8%, 17,473G)
lijarkh: 968G (2.7%, 968G)
killth3kid: 945G (2.7%, 945G)
leakimiko: 886G (2.5%, 17,738G)
coralreeferz: 850G (2.4%, 15,935G)
NovaKnight21: 770G (2.2%, 1,541G)
CorpusCav: 604G (1.7%, 6,040G)
DeathTaxesAndAnime: 600G (1.7%, 1,183G)
Lanshaft: 568G (1.6%, 11,478G)
BadBlanket: 559G (1.6%, 559G)
Zeroroute: 504G (1.4%, 504G)
Orerries: 500G (1.4%, 6,204G)
proper__noun__: 500G (1.4%, 8,273G)
loveyouallfriends: 500G (1.4%, 8,204G)
amiture: 500G (1.4%, 1,862G)
rnark: 420G (1.2%, 1,544G)
SeraphPDH: 400G (1.1%, 8,863G)
inzo_bettingbot: 400G (1.1%, 16,802G)
L2_Sentinel: 400G (1.1%, 8,891G)
getthemoneyz: 356G (1.0%, 351,578G)
TheGuesty: 350G (1.0%, 11,350G)
ZephyrTempest: 304G (0.9%, 2,453G)
fenaen: 300G (0.8%, 2,569G)
most_shameful: 262G (0.7%, 262G)
Oshimi12: 232G (0.7%, 232G)
HighJayster: 224G (0.6%, 224G)
KasugaiRoastedPeas: 201G (0.6%, 33,513G)
ugoplatamia: 200G (0.6%, 1,141G)
mpghappiness: 200G (0.6%, 6,037G)
Fallenmagi: 200G (0.6%, 200G)
samtimemc: 200G (0.6%, 7,524G)
smegma_sorcerer: 200G (0.6%, 4,588G)
Hirine: 200G (0.6%, 3,264G)
Snowfats: 150G (0.4%, 4,607G)
Tougou: 100G (0.3%, 4,963G)
SpaZmodeus: 100G (0.3%, 2,908G)
ANFz: 100G (0.3%, 24,460G)
Aislingeach: 100G (0.3%, 1,800G)
datadrivenbot: 100G (0.3%, 15,978G)
action_otter: 100G (0.3%, 100G)
dreadnxught: 50G (0.1%, 3,773G)
