Final Bets: white - 10 bets for 16,569G (57.5%, x0.74); black - 17 bets for 12,260G (42.5%, x1.35)

white bets:
Aldrammech: 8,668G (52.3%, 34,673G)
Narcius: 3,600G (21.7%, 310,767G)
BirbBrainsBot: 1,000G (6.0%, 61,062G)
Error72: 818G (4.9%, 818G)
E_Ballard: 807G (4.9%, 807G)
killth3kid: 760G (4.6%, 27,846G)
Sairentozon7: 616G (3.7%, 1,232G)
AllInBot: 100G (0.6%, 100G)
Thyrandaal: 100G (0.6%, 478,875G)
Drusiform: 100G (0.6%, 962G)

black bets:
DavenIII: 5,000G (40.8%, 88,773G)
MagicBottle: 1,152G (9.4%, 1,152G)
DLJuggernaut: 1,000G (8.2%, 21,567G)
NIghtdew14: 750G (6.1%, 7,396G)
DustBirdEX: 624G (5.1%, 624G)
reinoe: 517G (4.2%, 517G)
KasugaiRoastedPeas: 500G (4.1%, 1,548G)
lowlf: 500G (4.1%, 2,921G)
Draconis345: 500G (4.1%, 16,280G)
LDSkinny: 500G (4.1%, 1,897G)
rNdOrchestra: 288G (2.3%, 288G)
VolgraTheMoose: 250G (2.0%, 12,105G)
getthemoneyz: 230G (1.9%, 1,688,283G)
datadrivenbot: 200G (1.6%, 63,976G)
captainmilestw: 100G (0.8%, 2,677G)
mirapoix: 100G (0.8%, 2,401G)
JCBooBot: 49G (0.4%, 2,476G)
