Final Bets: purple - 15 bets for 27,354G (85.0%, x0.18); champion - 13 bets for 4,844G (15.0%, x5.65)

purple bets:
HASTERIOUS: 5,001G (18.3%, 18,248G)
DavenIII: 5,000G (18.3%, 95,505G)
bruubarg: 3,848G (14.1%, 3,848G)
DustBirdEX: 3,179G (11.6%, 6,358G)
Error72: 2,224G (8.1%, 2,224G)
J2DaBibbles: 2,000G (7.3%, 20,146G)
E_Ballard: 1,149G (4.2%, 1,149G)
Sairentozon7: 896G (3.3%, 896G)
killth3kid: 764G (2.8%, 27,090G)
Aldrammech: 700G (2.6%, 700G)
dogsandcatsand: 668G (2.4%, 668G)
BirbBrainsBot: 581G (2.1%, 62,477G)
TasisSai: 544G (2.0%, 544G)
peanutvendor: 500G (1.8%, 8,173G)
KasugaiRoastedPeas: 300G (1.1%, 2,278G)

champion bets:
maximumcrit: 1,517G (31.3%, 1,517G)
JCBooBot: 584G (12.1%, 1,949G)
Draconis345: 500G (10.3%, 16,456G)
rNdOrchestra: 417G (8.6%, 417G)
lowlf: 352G (7.3%, 3,730G)
Tarheels218: 308G (6.4%, 3,479G)
getthemoneyz: 284G (5.9%, 1,688,979G)
xBizzy: 260G (5.4%, 4,321G)
datadrivenbot: 200G (4.1%, 64,384G)
daveb_: 122G (2.5%, 7,435G)
AllInBot: 100G (2.1%, 100G)
DragonLord_Carter: 100G (2.1%, 575G)
Thyrandaal: 100G (2.1%, 478,575G)
