Final Bets: white - 17 bets for 13,846G (80.5%, x0.24); purple - 11 bets for 3,359G (19.5%, x4.12)

white bets:
Kurtis_E_Flush_: 4,231G (30.6%, 4,231G)
PatSouI: 1,703G (12.3%, 1,703G)
leakimiko: 1,433G (10.3%, 1,433G)
Baron_von_Scrub: 1,221G (8.8%, 28,337G)
JackOnFire1: 1,175G (8.5%, 1,175G)
BirbBrainsBot: 1,000G (7.2%, 223,352G)
ungabunga_bot: 569G (4.1%, 170,948G)
fenaen: 524G (3.8%, 524G)
nedryerson01: 500G (3.6%, 4,250G)
NovaKnight21: 456G (3.3%, 456G)
Jeeboheebo: 378G (2.7%, 378G)
KasugaiRoastedPeas: 200G (1.4%, 3,271G)
getthemoneyz: 126G (0.9%, 509,520G)
datadrivenbot: 103G (0.7%, 149G)
AlenaZarek: 100G (0.7%, 2,382G)
Ross_from_Cali: 77G (0.6%, 983G)
GingerDynomite: 50G (0.4%, 1,289G)

purple bets:
ColetteMSLP: 1,000G (29.8%, 42,733G)
JIDkomu: 549G (16.3%, 549G)
volgrathemoose: 501G (14.9%, 13,150G)
tinyjeans: 500G (14.9%, 1,175G)
TheGuesty: 343G (10.2%, 4,343G)
twelfthrootoftwo: 100G (3.0%, 2,202G)
lastly: 100G (3.0%, 5,953G)
dictatorhowells: 100G (3.0%, 2,046G)
TimeJannies: 100G (3.0%, 2,768G)
braumbles: 44G (1.3%, 892G)
roqqqpsi: 22G (0.7%, 1,119G)
