High Risers:
1. Demon_Lord_Josh: +9,689G
2. Lolthsmeat: +8,928G
3. Spartan_Paladin: +8,400G
4. SeniorBunk: +5,357G
5. seppu777: +4,948G
6. YowaneHaku: +2,738G
7. Laserman1000: +2,605G
8. murderclan: +2,371G
9. Smashy: +2,286G
10. CosmicTactician: +2,207G
11. DeathTaxesAndAnime: +1,984G
12. Leonidusx: +1,968G
13. ko2q: +1,716G
14. tinytittyfiend: +1,623G
15. tripaplex: +1,491G
16. Runeseeker22: +1,030G
17. StealthModeLocke: +1,000G
18. TheBrett: +957G
19. EvilLego6: +893G
20. fenaen: +878G
21. ColetteMSLP: +818G
22. AbandonedHall: +715G
23. squideater_: +526G
24. sinnyil2: +500G
25. AniZero: +500G
26. Willjin: +500G
27. run_with_stone_GUNs: +500G
28. Forkmore: +500G
29. HASTERIOUS: +500G
30. Chuckolator: +500G
31. Sam82314: +500G
32. Firesheath: +500G
33. Thyrandaal: +500G
34. VolgraTheMoose: +500G
35. reddwind_: +500G
36. DrAntiSocial: +500G
37. FriendSquirrel: +500G
38. reinoe: +466G
39. galkife: +400G
40. ANFz: +304G
41. ruleof5: +304G
42. JayceXIV: +271G
43. krombobreaker: +250G
44. ExplanationMarkWow: +250G
45. gorgewall: +234G
46. Sairentozon7: +201G
47. ar_tactic: +200G
48. Gelwain: +200G
49. NovaKnight21: +200G
50. goth_Applebees_hostess: +200G
51. verythinice: +175G
52. MemoriesofFinal: +111G
53. Lord_Gwarth: +100G
54. Zagorsek: +4G
55. DarrenDinosaurs: -200G
56. Rikrizen: -208G
57. nhammen: -300G
58. TheSabretoothe: -356G
59. SealPoulpe: -358G
60. brokenknight201: -500G
61. dire_drenz: -679G
62. MelTorefas: -800G
63. escobro: -840G
64. JonnyCue: -984G
65. Kronikle: -1,696G
66. Evewho: -3,272G
67. Mushufasa_: -3,519G
68. RunicMagus: -5,434G
69. Craymel_Mage: -5,471G
70. acid_flashback: -15,032G
71. HorusTaurus: -19,299G
