Final Bets: blue - 13 bets for 27,167G (71.7%, x0.39); black - 8 bets for 10,708G (28.3%, x2.54)

blue bets:
HorusTaurus: 11,866G (43.7%, 23,733G)
Runeseeker22: 5,324G (19.6%, 35,494G)
acid_flashback: 3,000G (11.0%, 42,536G)
RunicMagus: 2,000G (7.4%, 159,622G)
Mushufasa_: 1,234G (4.5%, 60,115G)
BirbBrainsBot: 1,000G (3.7%, 65,645G)
Kronikle: 700G (2.6%, 30,171G)
krombobreaker: 500G (1.8%, 35,845G)
Evewho: 500G (1.8%, 64,654G)
AllInBot: 347G (1.3%, 347G)
verythinice: 300G (1.1%, 5,833G)
datadrivenbot: 200G (0.7%, 85,389G)
getthemoneyz: 196G (0.7%, 2,219,023G)

black bets:
Zagorsek: 5,502G (51.4%, 5,502G)
Craymel_Mage: 1,640G (15.3%, 1,640G)
Spartan_Paladin: 1,600G (14.9%, 11,606G)
seppu777: 777G (7.3%, 6,000G)
ColetteMSLP: 532G (5.0%, 12,635G)
TheSabretoothe: 356G (3.3%, 356G)
gorgewall: 201G (1.9%, 7,387G)
TheBrett: 100G (0.9%, 37,615G)
