Final Bets: blue - 21 bets for 32,383G (72.4%, x0.38); purple - 10 bets for 12,369G (27.6%, x2.62)

blue bets:
OneHundredFists: 8,839G (27.3%, 17,333G)
TheBrett: 5,000G (15.4%, 14,975G)
acid_flashback: 5,000G (15.4%, 49,225G)
Deeps_one: 3,558G (11.0%, 3,558G)
DeathTaxesAndAnime: 2,080G (6.4%, 4,079G)
CorpusCav: 1,500G (4.6%, 52,415G)
BirbBrainsBot: 1,000G (3.1%, 83,757G)
MemoriesofFinal: 1,000G (3.1%, 18,445G)
scsuperstar: 738G (2.3%, 738G)
YaBoy125: 621G (1.9%, 6,214G)
AbandonedHall: 508G (1.6%, 508G)
3ngag3: 436G (1.3%, 8,147G)
Chuckolator: 424G (1.3%, 424G)
Rune339: 272G (0.8%, 272G)
2b_yorha_b: 250G (0.8%, 11,557G)
b0lt: 208G (0.6%, 208G)
ValensEXP_: 200G (0.6%, 6,134G)
FuzzyTigers: 200G (0.6%, 1,525G)
datadrivenbot: 200G (0.6%, 83,962G)
dfunk3d: 200G (0.6%, 2,501G)
WireLord: 149G (0.5%, 1,221G)

purple bets:
AllInBot: 4,634G (37.5%, 4,634G)
old_overholt_: 2,000G (16.2%, 62,106G)
Evewho: 2,000G (16.2%, 9,959G)
ruleof5: 1,000G (8.1%, 52,832G)
reinoe: 917G (7.4%, 917G)
lowlf: 656G (5.3%, 8,444G)
NicoSavoy: 552G (4.5%, 552G)
FE34923: 400G (3.2%, 1,946G)
getthemoneyz: 110G (0.9%, 2,170,233G)
goth_Applebees_hostess: 100G (0.8%, 2,235G)
