Final Bets: purple - 24 bets for 22,901G (77.8%, x0.28); brown - 8 bets for 6,521G (22.2%, x3.51)

purple bets:
reinoe: 7,092G (31.0%, 7,092G)
sinnyil2: 2,230G (9.7%, 2,230G)
z32o: 1,744G (7.6%, 1,744G)
lijarkh: 1,000G (4.4%, 19,308G)
ungabunga_bot: 1,000G (4.4%, 359,426G)
BirbBrainsBot: 1,000G (4.4%, 61,259G)
getthemoneyz: 1,000G (4.4%, 629,220G)
Laserman1000: 1,000G (4.4%, 114,800G)
Lionhermit: 1,000G (4.4%, 15,085G)
roofiepops: 1,000G (4.4%, 12,884G)
DeathTaxesAndAnime: 880G (3.8%, 880G)
Estan_AD: 864G (3.8%, 864G)
itsdigitalbro: 800G (3.5%, 5,280G)
mirapoix: 480G (2.1%, 480G)
midori_ribbon: 325G (1.4%, 325G)
vorap: 300G (1.3%, 30,537G)
twelfthrootoftwo: 300G (1.3%, 2,300G)
electric_glass: 200G (0.9%, 2,533G)
DaMadPanda182: 200G (0.9%, 18,262G)
Practice_Pad: 136G (0.6%, 136G)
Kyune: 100G (0.4%, 6,061G)
datadrivenbot: 100G (0.4%, 12,474G)
Arkreaver: 100G (0.4%, 12,640G)
cougboi: 50G (0.2%, 16,042G)

brown bets:
TheMM42: 2,039G (31.3%, 2,039G)
R_Raynos: 2,000G (30.7%, 20,874G)
Basmal: 1,000G (15.3%, 52,017G)
superdevon1: 500G (7.7%, 4,223G)
ko2q: 344G (5.3%, 344G)
Eyepoor_: 250G (3.8%, 5,546G)
KasugaiRoastedPeas: 240G (3.7%, 3,634G)
Sinikt: 148G (2.3%, 148G)
