Final Bets: white - 13 bets for 7,039G (12.3%, x7.14); champion - 15 bets for 50,254G (87.7%, x0.14)

white bets:
sinnyil2: 1,873G (26.6%, 1,873G)
Lionhermit: 1,000G (14.2%, 12,970G)
BirbBrainsBot: 1,000G (14.2%, 60,938G)
mirapoix: 888G (12.6%, 888G)
CapnChaos12: 500G (7.1%, 45,004G)
Cataphract116: 400G (5.7%, 20,882G)
Sairentozon7: 372G (5.3%, 372G)
Estan_AD: 300G (4.3%, 1,675G)
lijarkh: 200G (2.8%, 20,675G)
getthemoneyz: 170G (2.4%, 629,553G)
Practice_Pad: 136G (1.9%, 136G)
Eyepoor_: 100G (1.4%, 5,316G)
Kyune: 100G (1.4%, 5,775G)

champion bets:
R_Raynos: 20,000G (39.8%, 21,896G)
cougboi: 8,317G (16.5%, 16,308G)
lobsterlobster: 6,666G (13.3%, 25,661G)
reinoe: 4,055G (8.1%, 8,111G)
electric_glass: 3,266G (6.5%, 3,266G)
itsdigitalbro: 1,500G (3.0%, 5,518G)
vorap: 1,200G (2.4%, 30,622G)
roofiepops: 1,200G (2.4%, 13,897G)
ccordc: 955G (1.9%, 955G)
DeathTaxesAndAnime: 905G (1.8%, 1,776G)
ko2q: 821G (1.6%, 821G)
twelfthrootoftwo: 666G (1.3%, 2,109G)
superdevon1: 500G (1.0%, 2,984G)
ungabunga_bot: 103G (0.2%, 360,574G)
datadrivenbot: 100G (0.2%, 12,653G)
