Final Bets: blue - 19 bets for 14,025G (42.8%, x1.33); yellow - 25 bets for 18,721G (57.2%, x0.75)

blue bets:
DLJuggernaut: 3,300G (23.5%, 6,471G)
DeathTaxesAndAnime: 3,171G (22.6%, 6,218G)
projekt_mike: 2,022G (14.4%, 2,022G)
hotpocketsofficial: 970G (6.9%, 970G)
Rurk: 666G (4.7%, 666G)
upvla: 500G (3.6%, 500G)
krombobreaker: 500G (3.6%, 5,834G)
TheMurkGnome: 500G (3.6%, 2,488G)
silentkaster: 376G (2.7%, 376G)
latebit: 368G (2.6%, 368G)
Snowfats: 324G (2.3%, 324G)
bigbongsmoker: 304G (2.2%, 5,133G)
AllInBot: 211G (1.5%, 211G)
datadrivenbot: 200G (1.4%, 56,823G)
Leonidusx: 200G (1.4%, 13,829G)
acid_flashback: 192G (1.4%, 3,200G)
Rune339: 108G (0.8%, 108G)
ANFz: 100G (0.7%, 8,304G)
BartTradingCompany: 13G (0.1%, 139G)

yellow bets:
Virilikus: 5,000G (26.7%, 249,437G)
SkylerBunny: 2,000G (10.7%, 14,465G)
Greggernaut: 2,000G (10.7%, 52,547G)
Thyrandaal: 1,596G (8.5%, 1,596G)
BirbBrainsBot: 1,000G (5.3%, 176,576G)
farside00831: 805G (4.3%, 805G)
roofiepops: 684G (3.7%, 684G)
run_with_stone_GUNs: 652G (3.5%, 24,406G)
mindblownnnn: 600G (3.2%, 4,278G)
ribbiks: 531G (2.8%, 531G)
Yangusburger: 500G (2.7%, 7,887G)
reinoe: 500G (2.7%, 11,611G)
loveyouallfriends: 396G (2.1%, 396G)
Wonser: 360G (1.9%, 360G)
Giganticdwarves: 323G (1.7%, 323G)
MochaGhostReiko: 300G (1.6%, 1,943G)
CorpusCav: 290G (1.5%, 30,406G)
brodeity: 264G (1.4%, 264G)
getthemoneyz: 210G (1.1%, 1,902,915G)
thunderducker: 200G (1.1%, 2,459G)
Twisted_Nutsatchel: 160G (0.9%, 160G)
RunicMagus: 100G (0.5%, 7,861G)
CosmicTactician: 100G (0.5%, 30,331G)
RobotOcelot: 100G (0.5%, 5,256G)
J_MacC1991: 50G (0.3%, 4,097G)
