Final Bets: green - 16 bets for 8,780G (75.0%, x0.33); yellow - 10 bets for 2,929G (25.0%, x3.00)

green bets:
CorpusCav: 1,500G (17.1%, 55,755G)
krombobreaker: 1,139G (13.0%, 1,139G)
tripaplex: 1,015G (11.6%, 1,015G)
biske13: 1,000G (11.4%, 191,640G)
JonnyCue: 963G (11.0%, 963G)
dogsandcatsand: 648G (7.4%, 29,736G)
AllInBot: 491G (5.6%, 491G)
ericzubat: 363G (4.1%, 363G)
3ngag3: 344G (3.9%, 16,262G)
resjudicata3: 316G (3.6%, 316G)
old_overholt_: 300G (3.4%, 15,561G)
MemoriesofFinal: 200G (2.3%, 26,239G)
datadrivenbot: 200G (2.3%, 60,732G)
gorgewall: 101G (1.2%, 4,458G)
gilgamensche: 100G (1.1%, 246G)
dinin991: 100G (1.1%, 1,439G)

yellow bets:
BirbBrainsBot: 1,000G (34.1%, 34,719G)
getthemoneyz: 510G (17.4%, 1,968,048G)
formerlydrdong: 397G (13.6%, 397G)
VolgraTheMoose: 250G (8.5%, 3,409G)
Craymel_Mage: 224G (7.6%, 224G)
Riley331: 148G (5.1%, 148G)
RunicMagus: 100G (3.4%, 11,820G)
king_smashington: 100G (3.4%, 1,638G)
RagequitSA: 100G (3.4%, 1,644G)
peeronid: 100G (3.4%, 689G)
