Final Bets: yellow - 13 bets for 4,761G (26.4%, x2.78); black - 14 bets for 13,244G (73.6%, x0.36)

yellow bets:
Aldrammech: 1,370G (28.8%, 1,370G)
BirbBrainsBot: 954G (20.0%, 152,112G)
killth3kid: 564G (11.8%, 2,231G)
thunderducker: 400G (8.4%, 10,191G)
WhiteTigress: 300G (6.3%, 6,384G)
Runeseeker22: 240G (5.0%, 1,893G)
resjudicata3: 200G (4.2%, 9,842G)
Thyrandaal: 200G (4.2%, 15,234G)
Lydian_C: 123G (2.6%, 17,335G)
getthemoneyz: 110G (2.3%, 1,786,255G)
gorgewall: 101G (2.1%, 2,880G)
ko2q: 100G (2.1%, 4,102G)
BartTradingCompany: 99G (2.1%, 995G)

black bets:
Zeroroute: 2,820G (21.3%, 10,847G)
DavenIII: 2,000G (15.1%, 61,177G)
Lord_Burrah: 1,915G (14.5%, 114,915G)
Greggernaut: 1,555G (11.7%, 1,555G)
Dasutin23: 1,000G (7.6%, 36,195G)
E_Ballard: 816G (6.2%, 100,167G)
Tsuike: 500G (3.8%, 5,565G)
krombobreaker: 500G (3.8%, 3,706G)
Leonidusx: 500G (3.8%, 6,881G)
bruubarg: 500G (3.8%, 18,844G)
arumz: 438G (3.3%, 438G)
douchetron: 252G (1.9%, 252G)
Lumberinjack: 248G (1.9%, 248G)
datadrivenbot: 200G (1.5%, 64,991G)
