Final Bets: green - 15 bets for 5,880G (38.8%, x1.57); yellow - 26 bets for 9,257G (61.2%, x0.64)

green bets:
Baron_von_Scrub: 1,111G (18.9%, 16,212G)
reinoe: 1,000G (17.0%, 16,727G)
StealthModeLocke: 752G (12.8%, 752G)
skillomono: 600G (10.2%, 7,562G)
Digitalsocrates: 500G (8.5%, 2,668G)
Estan_AD: 349G (5.9%, 349G)
BirbBrainsBot: 320G (5.4%, 123,204G)
AsceticGamer: 300G (5.1%, 995G)
Wargles: 300G (5.1%, 1,601G)
serperemagus: 124G (2.1%, 124G)
slash_kamei: 124G (2.1%, 124G)
AllInBot: 100G (1.7%, 100G)
CorpusCav: 100G (1.7%, 22,876G)
maakur_: 100G (1.7%, 4,641G)
dinin991: 100G (1.7%, 864G)

yellow bets:
ExecutedGiraffe: 1,851G (20.0%, 1,851G)
red__lancer: 1,000G (10.8%, 69,725G)
JimmyKetz: 891G (9.6%, 891G)
ColetteMSLP: 800G (8.6%, 59,106G)
tronfonne: 507G (5.5%, 507G)
Rislyeu: 500G (5.4%, 5,676G)
GladiatorLupe: 500G (5.4%, 3,009G)
bruubarg: 500G (5.4%, 1,147G)
LionelParks: 400G (4.3%, 884G)
krasny1944: 356G (3.8%, 2,856G)
aeonicvector: 225G (2.4%, 536G)
chaotic_prodigy: 208G (2.2%, 208G)
JLinkletter: 200G (2.2%, 1,154G)
CrownOfHorns: 200G (2.2%, 2,543G)
getthemoneyz: 190G (2.1%, 702,785G)
IanTheWoodchuck: 104G (1.1%, 104G)
E_Ballard: 100G (1.1%, 7,319G)
lastly: 100G (1.1%, 13,472G)
FoeSquirrel: 100G (1.1%, 1,583G)
ravingsockmonkey: 100G (1.1%, 100G)
nifboy: 100G (1.1%, 2,835G)
datadrivenbot: 100G (1.1%, 22,661G)
nightjews: 75G (0.8%, 170G)
DrAntiSocial: 50G (0.5%, 18,672G)
MasterDana: 50G (0.5%, 1,131G)
zepharoth89: 50G (0.5%, 1,000G)
