Final Bets: purple - 18 bets for 6,968G (47.7%, x1.10); brown - 14 bets for 7,640G (52.3%, x0.91)

purple bets:
bruubarg: 1,055G (15.1%, 1,055G)
elelor: 1,000G (14.4%, 5,627G)
red__lancer: 1,000G (14.4%, 69,356G)
AsceticGamer: 700G (10.0%, 1,467G)
serperemagus: 520G (7.5%, 520G)
krasny1944: 500G (7.2%, 2,000G)
ExecutedGiraffe: 456G (6.5%, 457G)
Estan_AD: 449G (6.4%, 449G)
AllInBot: 419G (6.0%, 419G)
IanTheWoodchuck: 104G (1.5%, 104G)
lastly: 100G (1.4%, 13,272G)
nifboy: 100G (1.4%, 2,735G)
ravingsockmonkey: 100G (1.4%, 100G)
maakur_: 100G (1.4%, 4,861G)
dinin991: 100G (1.4%, 921G)
datadrivenbot: 100G (1.4%, 22,624G)
Heroebal: 100G (1.4%, 7,873G)
zepharoth89: 65G (0.9%, 1,265G)

brown bets:
sinnyil2: 1,390G (18.2%, 2,781G)
HaplessOne: 1,234G (16.2%, 230,675G)
BirbBrainsBot: 1,000G (13.1%, 122,708G)
Digitalsocrates: 1,000G (13.1%, 3,770G)
ThePineappleSalesman: 951G (12.4%, 951G)
Rislyeu: 500G (6.5%, 4,676G)
Baron_von_Scrub: 474G (6.2%, 18,260G)
aeonicvector: 250G (3.3%, 507G)
slash_kamei: 224G (2.9%, 224G)
gorgewall: 201G (2.6%, 11,756G)
getthemoneyz: 116G (1.5%, 702,211G)
E_Ballard: 100G (1.3%, 7,282G)
nightjews: 100G (1.3%, 100G)
MasterDana: 100G (1.3%, 1,113G)
