Final Bets: brown - 12 bets for 21,721G (55.7%, x0.80); champion - 14 bets for 17,290G (44.3%, x1.26)

brown bets:
Aldrammech: 8,854G (40.8%, 8,854G)
reinoe: 5,282G (24.3%, 56,175G)
twelfthrootoftwo: 3,679G (16.9%, 7,215G)
killth3kid: 1,000G (4.6%, 95,006G)
loveyouallfriends: 1,000G (4.6%, 12,904G)
Cryptopsy70: 600G (2.8%, 23,809G)
winteriscorning: 473G (2.2%, 1,895G)
ThreeMileIsland: 232G (1.1%, 232G)
gorgewall: 201G (0.9%, 14,867G)
datadrivenbot: 200G (0.9%, 61,778G)
TasisSai: 100G (0.5%, 1,926G)
slickdang: 100G (0.5%, 1,217G)

champion bets:
NicoSavoy: 6,000G (34.7%, 148,204G)
DeathTaxesAndAnime: 3,474G (20.1%, 6,813G)
EnemyController: 2,222G (12.9%, 1,391,200G)
KyleWonToLiveForever: 1,360G (7.9%, 1,360G)
getthemoneyz: 1,000G (5.8%, 1,227,403G)
BirbBrainsBot: 1,000G (5.8%, 163,226G)
Lythe_Caraker: 500G (2.9%, 147,564G)
Firesheath: 432G (2.5%, 432G)
SkylerBunny: 424G (2.5%, 424G)
neerrm: 335G (1.9%, 17,387G)
furrytomahawkk: 300G (1.7%, 1,135G)
nhammen: 100G (0.6%, 9,354G)
Aquios_: 100G (0.6%, 3,919G)
Hasterious: 43G (0.2%, 4,309G)
