Final Bets: purple - 26 bets for 12,047G (23.1%, x3.32); brown - 25 bets for 40,043G (76.9%, x0.30)

purple bets:
LASERJESUS1337: 2,000G (16.6%, 45,940G)
BirbBrainsBot: 1,000G (8.3%, 80,557G)
Lionhermit: 1,000G (8.3%, 31,213G)
Laserman1000: 753G (6.3%, 7,553G)
coralreeferz: 650G (5.4%, 7,786G)
superdevon1: 615G (5.1%, 2,462G)
HaateXIII: 596G (4.9%, 596G)
FNCardascia_: 528G (4.4%, 528G)
GnielKnows: 500G (4.2%, 13,539G)
reinoe: 500G (4.2%, 21,716G)
getthemoneyz: 496G (4.1%, 638,605G)
ZephyrTempest: 456G (3.8%, 1,438G)
TheChainNerd: 440G (3.7%, 440G)
Cryptopsy70: 400G (3.3%, 8,565G)
HaychDub: 350G (2.9%, 4,062G)
RestIessNight: 304G (2.5%, 304G)
ig_ats: 250G (2.1%, 15,042G)
ThePineappleSalesman: 200G (1.7%, 20,477G)
SerumD: 200G (1.7%, 3,414G)
Meta_Five: 150G (1.2%, 3,971G)
Practice_Pad: 148G (1.2%, 148G)
byrdturbo: 111G (0.9%, 4,000G)
GrayGhostGaming: 100G (0.8%, 1,986G)
benticore: 100G (0.8%, 1,568G)
maakur_: 100G (0.8%, 119,628G)
duckfist: 100G (0.8%, 2,626G)

brown bets:
Shalloween: 10,417G (26.0%, 20,427G)
bahamutlagooon: 5,000G (12.5%, 6,553G)
Mesmaster: 5,000G (12.5%, 15,547G)
HorusTaurus: 4,680G (11.7%, 4,680G)
nifboy: 2,919G (7.3%, 2,919G)
killth3kid: 2,000G (5.0%, 57,025G)
Grimmace45: 1,356G (3.4%, 5,424G)
CorpusCav: 1,244G (3.1%, 44,244G)
JIDkomu: 1,000G (2.5%, 6,639G)
ungabunga_bot: 1,000G (2.5%, 405,821G)
Vampire_Killer: 1,000G (2.5%, 19,254G)
Kyune: 591G (1.5%, 591G)
DudeMonkey77: 500G (1.2%, 10,322G)
CosmicTactician: 500G (1.2%, 21,045G)
luminarii: 500G (1.2%, 15,358G)
JumbocactuarX27: 480G (1.2%, 480G)
DustBirdEX: 456G (1.1%, 10,895G)
ShintaroNayaka: 400G (1.0%, 14,320G)
mannequ1n: 300G (0.7%, 1,929G)
Heroebal: 200G (0.5%, 7,036G)
Firesheath: 100G (0.2%, 9,639G)
carsenhk: 100G (0.2%, 18,415G)
datadrivenbot: 100G (0.2%, 12,792G)
OrganicArtist: 100G (0.2%, 1,595G)
Estan_AD: 100G (0.2%, 2,297G)
