Final Bets: yellow - 35 bets for 19,132G (9.5%, x9.54); champion - 34 bets for 182,455G (90.5%, x0.10)

yellow bets:
RongRongArts: 2,000G (10.5%, 351,903G)
LASERJESUS1337: 2,000G (10.5%, 48,588G)
AlenaZarek: 2,000G (10.5%, 34,207G)
Hattoriisan: 1,670G (8.7%, 1,670G)
TheChainNerd: 1,071G (5.6%, 2,143G)
DudeMonkey77: 1,000G (5.2%, 8,822G)
ungabunga_bot: 1,000G (5.2%, 405,784G)
BirbBrainsBot: 1,000G (5.2%, 85,701G)
Mesmaster: 1,000G (5.2%, 11,661G)
CorpusCav: 666G (3.5%, 41,136G)
coralreeferz: 650G (3.4%, 10,678G)
Kyune: 511G (2.7%, 511G)
Squasian: 500G (2.6%, 8,577G)
CaptainAdmiralSPATULA: 500G (2.6%, 2,524G)
AeglosCrescens: 350G (1.8%, 350G)
elelor: 320G (1.7%, 320G)
old_overholt_: 300G (1.6%, 1,654G)
FNCardascia_: 296G (1.5%, 296G)
xxnamexx: 264G (1.4%, 264G)
getthemoneyz: 218G (1.1%, 640,393G)
HaateXIII: 200G (1.0%, 3,719G)
mannequ1n: 200G (1.0%, 1,555G)
Practice_Pad: 194G (1.0%, 194G)
OrganicArtist: 111G (0.6%, 1,720G)
byrdturbo: 111G (0.6%, 4,200G)
GrayGhostGaming: 100G (0.5%, 1,400G)
brokenknight201: 100G (0.5%, 891G)
SerumD: 100G (0.5%, 3,854G)
benticore: 100G (0.5%, 1,904G)
RestIessNight: 100G (0.5%, 1,214G)
belife42: 100G (0.5%, 4,946G)
JIDkomu: 100G (0.5%, 5,312G)
run_with_STONE_GUNS: 100G (0.5%, 4,767G)
Fathuran: 100G (0.5%, 100G)
Estan_AD: 100G (0.5%, 2,187G)

champion bets:
reinoe: 25,451G (13.9%, 25,451G)
Epicureial: 23,341G (12.8%, 23,341G)
LDSkinny: 22,983G (12.6%, 22,983G)
ThePineappleSalesman: 21,142G (11.6%, 21,142G)
carsenhk: 18,417G (10.1%, 18,417G)
Lionhermit: 15,000G (8.2%, 36,610G)
Firesheath: 9,971G (5.5%, 9,971G)
Laserman1000: 7,477G (4.1%, 7,477G)
proper__noun__: 6,669G (3.7%, 6,669G)
Shalloween: 4,905G (2.7%, 4,905G)
HaychDub: 4,582G (2.5%, 4,582G)
Kronikle: 3,434G (1.9%, 3,434G)
DustBirdEX: 2,824G (1.5%, 9,416G)
DavenIII: 2,500G (1.4%, 5,962G)
JumbocactuarX27: 1,889G (1.0%, 1,889G)
Grimmace45: 1,694G (0.9%, 3,389G)
bahamutlagooon: 1,350G (0.7%, 2,336G)
Sairentozon7: 1,070G (0.6%, 1,070G)
Pie108: 1,000G (0.5%, 130,380G)
ShintaroNayaka: 1,000G (0.5%, 14,029G)
duckfist: 1,000G (0.5%, 3,431G)
DeathTaxesAndAnime: 772G (0.4%, 772G)
Baron_von_Scrub: 601G (0.3%, 601G)
nifboy: 524G (0.3%, 524G)
CapnChaos12: 500G (0.3%, 51,330G)
luminarii: 479G (0.3%, 13,757G)
ZephyrTempest: 456G (0.2%, 2,512G)
superdevon1: 402G (0.2%, 4,024G)
jwchapm: 300G (0.2%, 1,126G)
daveb_: 222G (0.1%, 1,326G)
Davarian: 200G (0.1%, 930G)
maakur_: 100G (0.1%, 119,940G)
Heroebal: 100G (0.1%, 6,536G)
datadrivenbot: 100G (0.1%, 12,517G)
