Player: !Yellow
Team: Yellow Team
Palettes: Yellow/Black



Byrdturbo
Monster
Taurus
73
68
Archaic Demon










JIDkomu
Monster
Taurus
73
68
Archaic Demon










Coralreeferz
Monster
Taurus
73
68
Archaic Demon










Galkife
Monster
Taurus
73
68
Archaic Demon







