High Risers:
1. 3ngag3: +11,282G
2. Sinnyil2: +4,350G
3. Thyrandaal: +3,431G
4. Seppu777: +2,153G
5. Ruleof5: +1,839G
6. Farside00831: +1,796G
7. Mindblownnnn: +1,429G
8. Valensexp_: +1,361G
9. Rikrizen: +1,264G
10. Willjin: +1,233G
11. Lowlf: +1,169G
12. Sietaha: +1,155G
13. Chuckolator: +1,043G
14. Lydian_c: +884G
15. Kasugairoastedpeas: +782G
16. Resjudicata3: +747G
17. Krombobreaker: +644G
18. Killth3kid: +641G
19. Lijarkh: +634G
20. Roofiepops: +609G
21. Ibardic: +550G
22. Khelor_: +349G
23. Neech: +344G
24. Upvla: +308G
25. Dasutin23: +283G
26. Bappletrees: +222G
27. Bonemiser: +201G
28. Targaso: +180G
29. Thesabretoothe: +178G
30. Dem0nj0ns: +177G
31. Old_overholt_: +123G
32. Powergems: +121G
33. Corpuscav: +70G
34. Zenlion: +4G
35. Laserman1000: -47G
36. Macradarkstar: -82G
37. Nhammen: -108G
38. Tarheels218: -118G
39. Nifboy: -200G
40. Thunderducker: -289G
41. Meta_five: -296G
42. Grininda: -300G
43. Thedeeyo: -300G
44. Wonser: -340G
45. Loveyouallfriends: -360G
46. W0rldend: -396G
47. Novaknight21: -400G
48. Hasterious: -400G
49. Zeroroute: -454G
50. Nicosavoy: -543G
51. Silentkaster: -680G
52. Dogsandcatsand: -682G
53. Latebit: -730G
54. Davestrider55: -800G
55. Ct_5_holy: -1,000G
56. Superdevon1: -1,000G
57. Foamsoldier: -1,200G
58. Kronikle: -1,544G
59. Raixelol: -1,993G
60. Gooseyourself: -2,000G
61. Deathtaxesandanime: -3,176G
62. Skylerbunny: -4,888G
63. Mesmaster: -18,716G
