Final Bets: white - 9 bets for 9,251G (41.7%, x1.40); black - 13 bets for 12,953G (58.3%, x0.71)

white bets:
E_Ballard: 2,645G (28.6%, 2,645G)
LivingHitokiri: 2,000G (21.6%, 118,549G)
DLJuggernaut: 1,240G (13.4%, 2,432G)
AnthroMetal: 1,000G (10.8%, 8,272G)
Lord_Gwarth: 720G (7.8%, 720G)
roofiepops: 666G (7.2%, 2,477G)
SephDarkheart: 396G (4.3%, 2,699G)
ValensEXP_: 384G (4.2%, 12,241G)
AllInBot: 200G (2.2%, 200G)

black bets:
toka222: 5,000G (38.6%, 365,492G)
CorpusCav: 1,200G (9.3%, 12,610G)
BirbBrainsBot: 1,000G (7.7%, 115,699G)
Sairentozon7: 1,000G (7.7%, 18,272G)
Lolthsmeat: 1,000G (7.7%, 1,475G)
Nizaha: 888G (6.9%, 58,651G)
resjudicata3: 828G (6.4%, 828G)
Dasutin23: 548G (4.2%, 10,685G)
holdenmagronik: 464G (3.6%, 4,149G)
getthemoneyz: 430G (3.3%, 2,054,555G)
AltimaMantoid: 419G (3.2%, 24,619G)
gorgewall: 101G (0.8%, 4,571G)
Smugzug: 75G (0.6%, 959G)
