Final Bets: purple - 16 bets for 21,596G (84.0%, x0.19); brown - 11 bets for 4,105G (16.0%, x5.26)

purple bets:
toka222: 10,000G (46.3%, 369,063G)
LivingHitokiri: 5,000G (23.2%, 116,549G)
BirbBrainsBot: 1,000G (4.6%, 116,413G)
KinniQuacks: 1,000G (4.6%, 17,041G)
Nizaha: 888G (4.1%, 59,285G)
killth3kid: 640G (3.0%, 24,409G)
DLJuggernaut: 607G (2.8%, 1,192G)
fenaen: 520G (2.4%, 9,558G)
CorpusCav: 500G (2.3%, 13,467G)
HorusTaurus: 400G (1.9%, 1,076G)
wyonearth: 300G (1.4%, 5,264G)
roofiepops: 220G (1.0%, 1,811G)
AllInBot: 200G (0.9%, 200G)
resjudicata3: 200G (0.9%, 1,419G)
gorgewall: 101G (0.5%, 4,643G)
SirNotEdu: 20G (0.1%, 105G)

brown bets:
pplvee1: 853G (20.8%, 853G)
AnthroMetal: 500G (12.2%, 7,272G)
Lolthsmeat: 500G (12.2%, 2,189G)
holdenmagronik: 464G (11.3%, 4,480G)
SephDarkheart: 396G (9.6%, 2,303G)
Cryptopsy70: 388G (9.5%, 500G)
getthemoneyz: 364G (8.9%, 2,054,862G)
Lord_Gwarth: 312G (7.6%, 312G)
SnarkMage: 128G (3.1%, 128G)
galkife: 100G (2.4%, 81,664G)
maakur_: 100G (2.4%, 6,172G)
