Final Bets: red - 12 bets for 6,926G (27.8%, x2.60); blue - 23 bets for 18,027G (72.2%, x0.38)

red bets:
leakimiko: 3,281G (47.4%, 32,810G)
Jeeboheebo: 1,104G (15.9%, 1,104G)
Boojob: 722G (10.4%, 722G)
Laserman1000: 500G (7.2%, 10,800G)
Lydian_C: 420G (6.1%, 1,576G)
Eyepoor_: 288G (4.2%, 288G)
ANFz: 111G (1.6%, 33,923G)
floopinthepig: 100G (1.4%, 778G)
Beeefcake1000: 100G (1.4%, 339G)
maakur_: 100G (1.4%, 420G)
ko2q: 100G (1.4%, 660G)
Jampck: 100G (1.4%, 881G)

blue bets:
E_Ballard: 6,402G (35.5%, 6,402G)
RunicMagus: 2,000G (11.1%, 55,987G)
Phytik: 1,724G (9.6%, 21,032G)
volgrathemoose: 1,001G (5.6%, 9,610G)
getthemoneyz: 1,000G (5.5%, 654,321G)
Ross_from_Cali: 873G (4.8%, 873G)
BirbBrainsBot: 727G (4.0%, 157,939G)
Mudrockk: 700G (3.9%, 7,658G)
HaateXIII: 644G (3.6%, 644G)
Breakdown777: 500G (2.8%, 7,154G)
CassiePhoenix: 469G (2.6%, 469G)
TheChainNerd: 456G (2.5%, 456G)
ungabunga_bot: 369G (2.0%, 433,903G)
CorpusCav: 300G (1.7%, 6,345G)
foofermoofer: 112G (0.6%, 112G)
Lionheart817: 100G (0.6%, 198G)
tabletz21: 100G (0.6%, 1,649G)
MontelWilliamz: 100G (0.6%, 100G)
timthehoodie: 100G (0.6%, 1,160G)
lastly: 100G (0.6%, 3,064G)
datadrivenbot: 100G (0.6%, 11,823G)
Dymntd: 100G (0.6%, 14,264G)
DrAntiSocial: 50G (0.3%, 13,776G)
