Final Bets: green - 20 bets for 25,828G (85.7%, x0.17); yellow - 10 bets for 4,323G (14.3%, x5.97)

green bets:
DustBirdEX: 8,912G (34.5%, 35,650G)
SkylerBunny: 2,700G (10.5%, 205,965G)
randgridr: 2,503G (9.7%, 5,007G)
VolgraTheMoose: 2,250G (8.7%, 4,501G)
sinnyil2: 1,498G (5.8%, 1,498G)
Nizaha: 1,300G (5.0%, 14,565G)
g1nger4le: 1,000G (3.9%, 5,475G)
Billybones5150: 1,000G (3.9%, 20,680G)
Thyrandaal: 1,000G (3.9%, 98,499G)
ko2q: 919G (3.6%, 1,838G)
killth3kid: 600G (2.3%, 7,042G)
coralreeferz: 536G (2.1%, 536G)
NovaKnight21: 524G (2.0%, 524G)
Drusiform: 300G (1.2%, 3,737G)
gorgewall: 201G (0.8%, 3,844G)
datadrivenbot: 200G (0.8%, 47,650G)
silverChangeling: 143G (0.6%, 281G)
ammobox69: 104G (0.4%, 104G)
DAC169: 100G (0.4%, 961G)
ArlanKels: 38G (0.1%, 1,279G)

yellow bets:
Rytor: 1,417G (32.8%, 2,780G)
douchetron: 831G (19.2%, 1,631G)
NIghtdew14: 750G (17.3%, 18,910G)
Lumberinjack: 300G (6.9%, 3,429G)
BirbBrainsBot: 249G (5.8%, 164,699G)
iBardic: 248G (5.7%, 248G)
AllInBot: 200G (4.6%, 200G)
getthemoneyz: 128G (3.0%, 1,483,833G)
nifboy: 100G (2.3%, 3,288G)
CosmicTactician: 100G (2.3%, 2,697G)
