Final Bets: black - 11 bets for 13,307G (61.3%, x0.63); champion - 21 bets for 8,410G (38.7%, x1.58)

black bets:
SkylerBunny: 6,000G (45.1%, 202,497G)
NicoSavoy: 2,235G (16.8%, 111,770G)
randgridr: 2,220G (16.7%, 4,441G)
BirbBrainsBot: 1,000G (7.5%, 168,576G)
Nizaha: 652G (4.9%, 14,450G)
killth3kid: 600G (4.5%, 6,755G)
silentperogy: 250G (1.9%, 28,931G)
Firesheath: 100G (0.8%, 4,955G)
Digitalsocrates: 100G (0.8%, 2,370G)
CosmicTactician: 100G (0.8%, 2,012G)
TheseJeans: 50G (0.4%, 607G)

champion bets:
NIghtdew14: 1,500G (17.8%, 14,199G)
DustBirdEX: 1,233G (14.7%, 24,675G)
Laserman1000: 667G (7.9%, 3,167G)
AllInBot: 546G (6.5%, 546G)
coralreeferz: 536G (6.4%, 536G)
NovaKnight21: 528G (6.3%, 528G)
douchetron: 512G (6.1%, 512G)
ar_tactic: 500G (5.9%, 82,286G)
Blaster_Bomb: 461G (5.5%, 461G)
Drusiform: 400G (4.8%, 4,384G)
butterbelljedi: 276G (3.3%, 276G)
holandrix: 204G (2.4%, 204G)
gorgewall: 201G (2.4%, 3,507G)
datadrivenbot: 200G (2.4%, 46,914G)
silverChangeling: 108G (1.3%, 108G)
daveb_: 100G (1.2%, 3,679G)
ko2q: 100G (1.2%, 2,247G)
DeathTaxesAndAnime: 100G (1.2%, 3,189G)
rNdOrchestra: 100G (1.2%, 2,527G)
Salvasti: 100G (1.2%, 899G)
getthemoneyz: 38G (0.5%, 1,484,658G)
