Final Bets: red - 12 bets for 4,184G (37.5%, x1.66); blue - 13 bets for 6,960G (62.5%, x0.60)

red bets:
maakur_: 1,091G (26.1%, 1,091G)
neerrm: 610G (14.6%, 610G)
DeadGirlzREasy: 524G (12.5%, 524G)
TheChainNerd: 500G (12.0%, 5,500G)
serperemagus: 400G (9.6%, 400G)
Zachara: 239G (5.7%, 103,259G)
AltimaMantoid: 204G (4.9%, 204G)
DeathTaxesAndAnime: 200G (4.8%, 4,088G)
Azelgrim: 108G (2.6%, 108G)
KittymanAdvance: 108G (2.6%, 108G)
datadrivenbot: 100G (2.4%, 41,007G)
CosmicTactician: 100G (2.4%, 5,165G)

blue bets:
nifboy: 1,900G (27.3%, 1,900G)
Bryon_W: 1,129G (16.2%, 1,129G)
BirbBrainsBot: 891G (12.8%, 50,077G)
DustBirdEX: 558G (8.0%, 558G)
JumbocactuarX27: 557G (8.0%, 557G)
OppressivelyMinty: 500G (7.2%, 3,457G)
Rytor: 272G (3.9%, 272G)
AllInBot: 257G (3.7%, 257G)
Anak761: 250G (3.6%, 8,692G)
cam_ATS: 234G (3.4%, 22,763G)
silentkaster: 212G (3.0%, 212G)
lastly: 100G (1.4%, 25,024G)
RunicMagus: 100G (1.4%, 50,861G)
