Final Bets: purple - 16 bets for 8,061G (56.7%, x0.76); brown - 7 bets for 6,156G (43.3%, x1.31)

purple bets:
OppressivelyMinty: 2,058G (25.5%, 2,058G)
DavenIII: 1,545G (19.2%, 1,545G)
BirbBrainsBot: 1,000G (12.4%, 52,211G)
TheChainNerd: 500G (6.2%, 4,561G)
prince_rogers_nelson_: 500G (6.2%, 11,306G)
actual_JP: 440G (5.5%, 440G)
serperemagus: 400G (5.0%, 400G)
neerrm: 310G (3.8%, 310G)
Bryon_W: 300G (3.7%, 2,030G)
getthemoneyz: 236G (2.9%, 959,555G)
DeadGirlzREasy: 220G (2.7%, 220G)
Azelgrim: 121G (1.5%, 121G)
AllInBot: 112G (1.4%, 112G)
KittymanAdvance: 112G (1.4%, 112G)
silentkaster: 107G (1.3%, 907G)
datadrivenbot: 100G (1.2%, 40,819G)

brown bets:
YaBoy125: 2,662G (43.2%, 88,762G)
maakur_: 1,792G (29.1%, 1,792G)
JumbocactuarX27: 418G (6.8%, 418G)
nifboy: 412G (6.7%, 412G)
RunicMagus: 400G (6.5%, 51,600G)
DustBirdEX: 372G (6.0%, 372G)
CosmicTactician: 100G (1.6%, 4,977G)
