Final Bets: red - 14 bets for 5,224G (35.7%, x1.80); yellow - 14 bets for 9,405G (64.3%, x0.56)

red bets:
BirbBrainsBot: 1,000G (19.1%, 122,519G)
Lodrak: 749G (14.3%, 749G)
sinnyil2: 600G (11.5%, 54,544G)
TheChainNerd: 576G (11.0%, 576G)
MoonSlayerRS: 448G (8.6%, 448G)
arch8000: 427G (8.2%, 14,265G)
jame3200: 400G (7.7%, 400G)
getthemoneyz: 288G (5.5%, 483,194G)
athros13: 200G (3.8%, 5,292G)
Andrain: 116G (2.2%, 116G)
DrakeFS: 112G (2.1%, 112G)
Kojigawatz: 108G (2.1%, 108G)
DrAntiSocial: 100G (1.9%, 2,191G)
maakur_: 100G (1.9%, 1,060G)

yellow bets:
volgrathemoose: 1,448G (15.4%, 1,448G)
JumbocactuarX27: 1,150G (12.2%, 1,150G)
kai_shee: 1,001G (10.6%, 144,109G)
Bryon_W: 1,000G (10.6%, 12,604G)
ShintaroNayaka: 800G (8.5%, 22,323G)
datadrivenbot: 756G (8.0%, 5,575G)
J2DaBibbles: 666G (7.1%, 4,504G)
nifboy: 610G (6.5%, 610G)
Lanshaft: 600G (6.4%, 6,947G)
deenglow: 500G (5.3%, 21,998G)
Draconis345: 340G (3.6%, 340G)
ungabunga_bot: 267G (2.8%, 131,152G)
AllInBot: 167G (1.8%, 167G)
RunicMagus: 100G (1.1%, 838G)
