Final Bets: green - 10 bets for 4,595G (16.7%, x4.99); yellow - 20 bets for 22,918G (83.3%, x0.20)

green bets:
SkylerBunny: 1,500G (32.6%, 112,155G)
sinnyil2: 712G (15.5%, 712G)
killth3kid: 500G (10.9%, 17,859G)
TheChainNerd: 500G (10.9%, 5,674G)
Theseawolf1: 500G (10.9%, 35,976G)
DustBirdEX: 324G (7.1%, 324G)
getthemoneyz: 238G (5.2%, 831,211G)
Lydian_C: 120G (2.6%, 8,607G)
Firesheath: 101G (2.2%, 3,961G)
moocaotao: 100G (2.2%, 933G)

yellow bets:
flowinprose: 10,000G (43.6%, 112,616G)
Sairentozon7: 2,276G (9.9%, 2,276G)
NovaKnight21: 1,332G (5.8%, 1,332G)
E_Ballard: 1,176G (5.1%, 1,176G)
Jeeboheebo: 1,000G (4.4%, 9,665G)
nifboy: 1,000G (4.4%, 41,514G)
BirbBrainsBot: 1,000G (4.4%, 117,480G)
Kalabain: 968G (4.2%, 968G)
swellgourd: 949G (4.1%, 949G)
pplvee1: 614G (2.7%, 614G)
Saldarin: 456G (2.0%, 2,281G)
Ring_Wyrm: 332G (1.4%, 332G)
ColetteMSLP: 300G (1.3%, 1,020G)
reddwind_: 300G (1.3%, 3,905G)
Thyrandaal: 269G (1.2%, 269G)
cam_ATS: 252G (1.1%, 252G)
gogofromtogo: 200G (0.9%, 3,443G)
CT_5_Holy: 200G (0.9%, 1,292G)
almontys: 194G (0.8%, 194G)
datadrivenbot: 100G (0.4%, 34,250G)
