Final Bets: white - 9 bets for 4,439G (41.3%, x1.42); brown - 13 bets for 6,313G (58.7%, x0.70)

white bets:
Riot_Jayway: 1,111G (25.0%, 205,049G)
nifboy: 1,000G (22.5%, 43,155G)
TheChainNerd: 750G (16.9%, 6,070G)
killth3kid: 500G (11.3%, 18,259G)
almontys: 434G (9.8%, 434G)
getthemoneyz: 208G (4.7%, 831,340G)
TheMM42: 200G (4.5%, 8,424G)
Lydian_C: 120G (2.7%, 10,238G)
Kalabain: 116G (2.6%, 116G)

brown bets:
SkylerBunny: 2,000G (31.7%, 114,392G)
red__lancer: 1,000G (15.8%, 87,163G)
sinnyil2: 712G (11.3%, 712G)
DustBirdEX: 567G (9.0%, 1,334G)
BirbBrainsBot: 441G (7.0%, 118,219G)
NovaKnight21: 400G (6.3%, 400G)
Ring_Wyrm: 332G (5.3%, 332G)
pplvee1: 260G (4.1%, 260G)
gogofromtogo: 200G (3.2%, 3,318G)
Firesheath: 101G (1.6%, 3,996G)
victoriolue: 100G (1.6%, 7,741G)
moocaotao: 100G (1.6%, 777G)
datadrivenbot: 100G (1.6%, 33,970G)
