Final Bets: white - 27 bets for 16,849G (71.6%, x0.40); brown - 16 bets for 6,678G (28.4%, x2.52)

white bets:
Shalloween: 2,001G (11.9%, 57,311G)
DeathTaxesAndAnime: 2,000G (11.9%, 34,197G)
ELzukkor: 2,000G (11.9%, 8,699G)
TheChainNerd: 1,933G (11.5%, 1,933G)
sinnyil2: 1,728G (10.3%, 1,728G)
Zeroroute: 1,291G (7.7%, 3,335G)
Aeolus_000: 500G (3.0%, 1,162G)
HaplessOne: 500G (3.0%, 39,868G)
genoguy: 492G (2.9%, 492G)
Hirine: 400G (2.4%, 5,690G)
bad1dea: 400G (2.4%, 245,371G)
red__lancer: 400G (2.4%, 13,719G)
defaultlybrave: 392G (2.3%, 392G)
theallmightyensiron: 324G (1.9%, 324G)
ZephyrTempest: 313G (1.9%, 1,756G)
BirbBrainsBot: 311G (1.8%, 311G)
Verxl: 300G (1.8%, 5,169G)
domeil: 240G (1.4%, 240G)
ko2q: 236G (1.4%, 236G)
HighJayster: 228G (1.4%, 228G)
Chao_Garden: 200G (1.2%, 3,491G)
ShanksMcShiv: 160G (0.9%, 358G)
evolvingdev: 100G (0.6%, 843G)
maakur_: 100G (0.6%, 7,605G)
Avin_Chaos: 100G (0.6%, 5,239G)
BadBlanket: 100G (0.6%, 4,429G)
Axelrod: 100G (0.6%, 30,294G)

brown bets:
KupoKel: 1,500G (22.5%, 17,485G)
ricky_ortease: 1,177G (17.6%, 1,177G)
Lanshaft: 580G (8.7%, 3,604G)
IndecisiveNinja: 548G (8.2%, 548G)
rechaun: 500G (7.5%, 1,455G)
WoooBlaaa: 475G (7.1%, 475G)
Tithonus: 448G (6.7%, 448G)
fenixcrest: 383G (5.7%, 7,669G)
MoonSlayerRS: 340G (5.1%, 340G)
tone_t: 200G (3.0%, 8,386G)
Kraisor: 156G (2.3%, 156G)
Triyaden: 104G (1.6%, 104G)
0utlier: 100G (1.5%, 1,946G)
Fallenmagi: 83G (1.2%, 2,295G)
getthemoneyz: 82G (1.2%, 389,308G)
daveb_: 2G (0.0%, 1,743G)
