Final Bets: green - 21 bets for 12,766G (56.8%, x0.76); yellow - 17 bets for 9,728G (43.2%, x1.31)

green bets:
Fenrislfr: 1,612G (12.6%, 16,122G)
DustBirdEX: 1,512G (11.8%, 17,512G)
alrightbye: 1,225G (9.6%, 45,715G)
Baron_von_Scrub: 1,111G (8.7%, 75,770G)
Aldrammech: 1,000G (7.8%, 63,703G)
jaykaye: 1,000G (7.8%, 2,667G)
mirapoix: 668G (5.2%, 668G)
Shalloween: 600G (4.7%, 58,660G)
Breakdown777: 500G (3.9%, 40,839G)
reinoe: 500G (3.9%, 13,046G)
HaateXIII: 500G (3.9%, 8,104G)
MoonSlayerRS: 468G (3.7%, 468G)
Nizaha: 428G (3.4%, 428G)
rockmem21: 328G (2.6%, 328G)
DLJuggernaut: 300G (2.3%, 5,376G)
StormSquad: 254G (2.0%, 254G)
VySaika: 250G (2.0%, 10,457G)
Anox_Skell: 200G (1.6%, 1,850G)
EnemyController: 110G (0.9%, 65,250G)
mexskacin: 100G (0.8%, 6,066G)
datadrivenbot: 100G (0.8%, 1,726G)

yellow bets:
roofiepops: 1,675G (17.2%, 13,108G)
GreatRedDragon: 1,667G (17.1%, 12,943G)
Lordminsc: 1,205G (12.4%, 27,500G)
BirbBrainsBot: 1,000G (10.3%, 8,474G)
ungabunga_bot: 817G (8.4%, 176,017G)
TheGuesty: 587G (6.0%, 18,587G)
CapnChaos12: 500G (5.1%, 34,868G)
Dexsana: 400G (4.1%, 14,538G)
moonliquor: 307G (3.2%, 615G)
TheChainNerd: 304G (3.1%, 304G)
Tougou: 304G (3.1%, 304G)
IamInfamous: 300G (3.1%, 2,503G)
AllInBot: 233G (2.4%, 233G)
getthemoneyz: 128G (1.3%, 517,673G)
ZephyrTempest: 101G (1.0%, 160,004G)
Jeeboheebo: 100G (1.0%, 3,388G)
DHaveWord: 100G (1.0%, 1,744G)
