Final Bets: green - 25 bets for 22,763G (75.1%, x0.33); yellow - 13 bets for 7,535G (24.9%, x3.02)

green bets:
Shalloween: 4,000G (17.6%, 47,639G)
VolgraTheMoose: 3,964G (17.4%, 7,929G)
CorpusCav: 1,800G (7.9%, 40,589G)
dogsandcatsand: 1,557G (6.8%, 1,557G)
old_overholt_: 1,000G (4.4%, 47,238G)
Spartan_Paladin: 1,000G (4.4%, 7,010G)
BirbBrainsBot: 1,000G (4.4%, 166,344G)
ExplanationMarkWow: 1,000G (4.4%, 38,441G)
ko2q: 939G (4.1%, 939G)
Lord_Gwarth: 876G (3.8%, 1,168G)
Forkmore: 859G (3.8%, 859G)
Thyrandaal: 804G (3.5%, 804G)
Nizaha: 676G (3.0%, 8,685G)
lowlf: 676G (3.0%, 676G)
technominari: 500G (2.2%, 88,807G)
2b_yorha_b: 500G (2.2%, 41,152G)
rocl: 328G (1.4%, 2,060G)
CapnChaos12: 300G (1.3%, 11,569G)
TheBrett: 296G (1.3%, 18,340G)
DustBirdEX: 286G (1.3%, 1,722G)
datadrivenbot: 200G (0.9%, 80,889G)
maakur_: 100G (0.4%, 4,543G)
Sharosa: 100G (0.4%, 1,605G)
MoonSugarFiend: 1G (0.0%, 47,602G)
nhammen: 1G (0.0%, 3,493G)

yellow bets:
CosmicTactician: 1,042G (13.8%, 1,042G)
escobro: 1,000G (13.3%, 6,658G)
DeathTaxesAndAnime: 976G (13.0%, 976G)
DouglasDragonThePoet: 812G (10.8%, 812G)
Tithonus: 592G (7.9%, 592G)
Zagorsek: 564G (7.5%, 564G)
run_with_stone_GUNs: 516G (6.8%, 18,591G)
Lolthsmeat: 401G (5.3%, 401G)
KGenjy: 400G (5.3%, 8,425G)
coralreeferz: 350G (4.6%, 1,967G)
getthemoneyz: 342G (4.5%, 2,206,123G)
AllInBot: 340G (4.5%, 340G)
Evewho: 200G (2.7%, 4,784G)
