Final Bets: red - 15 bets for 4,904G (61.1%, x0.64); blue - 11 bets for 3,126G (38.9%, x1.57)

red bets:
Nickyfive: 1,045G (21.3%, 1,045G)
SolarisFall: 737G (15.0%, 737G)
TheChainNerd: 500G (10.2%, 46,130G)
bad1dea: 500G (10.2%, 346,558G)
BirbBrainsBot: 480G (9.8%, 130,271G)
coralreeferz: 350G (7.1%, 7,874G)
Cataphract116: 300G (6.1%, 4,683G)
ZephyrTempest: 247G (5.0%, 16,932G)
getthemoneyz: 240G (4.9%, 401,750G)
Slowbrofist: 104G (2.1%, 104G)
AllInBot: 100G (2.0%, 100G)
Thed63: 100G (2.0%, 100G)
datadrivenbot: 100G (2.0%, 14,257G)
yure1x: 100G (2.0%, 100G)
daveb_: 1G (0.0%, 1,269G)

blue bets:
Treapvort: 531G (17.0%, 531G)
soapydragonfly: 500G (16.0%, 2,939G)
z32o: 420G (13.4%, 4,228G)
waterwatereverywhere: 400G (12.8%, 3,314G)
WireLord: 376G (12.0%, 376G)
maakur_: 372G (11.9%, 372G)
roqqqpsi: 222G (7.1%, 624G)
JumbocactuarX27: 100G (3.2%, 2,242G)
lavian94: 100G (3.2%, 423G)
Alc_Trinity: 100G (3.2%, 33,273G)
ko2q: 5G (0.2%, 1,525G)
