Final Bets: purple - 22 bets for 8,577G (63.8%, x0.57); brown - 10 bets for 4,869G (36.2%, x1.76)

purple bets:
LASERJESUS1337: 2,000G (23.3%, 62,121G)
BirbBrainsBot: 1,000G (11.7%, 130,992G)
bad1dea: 1,000G (11.7%, 346,922G)
roqqqpsi: 554G (6.5%, 554G)
ShintaroNayaka: 500G (5.8%, 2,900G)
Draconis345: 498G (5.8%, 498G)
SolarisFall: 492G (5.7%, 492G)
ColetteMSLP: 300G (3.5%, 7,324G)
Slowbrofist: 265G (3.1%, 265G)
ZephyrTempest: 257G (3.0%, 16,880G)
Rastanar: 252G (2.9%, 252G)
ig_ats: 244G (2.8%, 244G)
stalskegg: 208G (2.4%, 208G)
Cataphract116: 200G (2.3%, 4,885G)
powergems: 200G (2.3%, 3,142G)
Anomandaris__: 200G (2.3%, 1,074G)
AllInBot: 100G (1.2%, 100G)
datadrivenbot: 100G (1.2%, 14,277G)
JumbocactuarX27: 100G (1.2%, 2,472G)
yure1x: 100G (1.2%, 1,067G)
ko2q: 5G (0.1%, 1,520G)
daveb_: 2G (0.0%, 1,270G)

brown bets:
Nickyfive: 1,418G (29.1%, 7,093G)
Lodrak: 1,371G (28.2%, 1,371G)
DrAntiSocial: 420G (8.6%, 841G)
waterwatereverywhere: 400G (8.2%, 2,736G)
maakur_: 372G (7.6%, 372G)
Treapvort: 316G (6.5%, 316G)
getthemoneyz: 200G (4.1%, 402,620G)
lavian94: 168G (3.5%, 168G)
HeroponThrawn: 104G (2.1%, 104G)
Tithonus: 100G (2.1%, 7,051G)
