Final Bets: purple - 20 bets for 12,362G (42.0%, x1.38); brown - 28 bets for 17,061G (58.0%, x0.72)

purple bets:
roofiepops: 6,299G (51.0%, 6,299G)
Lordminsc: 1,205G (9.7%, 36,473G)
FriendSquirrel: 797G (6.4%, 28,273G)
Anox_Skell: 600G (4.9%, 2,505G)
moonliquor: 526G (4.3%, 1,052G)
DarrenDinosaurs: 432G (3.5%, 432G)
TheMurkGnome: 365G (3.0%, 7,417G)
itsonlyspencer: 300G (2.4%, 11,152G)
ericzubat: 300G (2.4%, 3,591G)
GingerDynomite: 250G (2.0%, 848G)
SwaffleWaffles: 210G (1.7%, 21,009G)
TheMM42: 200G (1.6%, 25,780G)
rico_flex: 200G (1.6%, 11,987G)
ZephyrTempest: 101G (0.8%, 161,892G)
Tougou: 100G (0.8%, 979G)
ANFz: 100G (0.8%, 11,455G)
RunicMagus: 100G (0.8%, 37,967G)
Viola03773: 100G (0.8%, 10,080G)
Langrisser: 100G (0.8%, 6,619G)
Ross_from_Cali: 77G (0.6%, 2,030G)

brown bets:
R_Raynos: 2,000G (11.7%, 17,564G)
HaateXIII: 1,500G (8.8%, 6,419G)
SkylerBunny: 1,500G (8.8%, 61,201G)
sinnyil2: 1,200G (7.0%, 75,329G)
animefan112233: 1,000G (5.9%, 11,214G)
ungabunga_bot: 1,000G (5.9%, 177,847G)
BirbBrainsBot: 1,000G (5.9%, 24,190G)
volgrathemoose: 1,000G (5.9%, 145,000G)
TheGuesty: 900G (5.3%, 18,900G)
Fenrislfr: 883G (5.2%, 8,835G)
MagicBottle: 738G (4.3%, 73,848G)
pandasforsale: 512G (3.0%, 512G)
Breakdown777: 500G (2.9%, 40,797G)
potgodtopdog: 500G (2.9%, 8,231G)
OneHundredFists: 500G (2.9%, 9,320G)
I_nod_my_head_when_I_lose: 500G (2.9%, 44,135G)
Nizaha: 432G (2.5%, 432G)
Dexsana: 400G (2.3%, 18,561G)
Zxpr0jk: 200G (1.2%, 200G)
tanarusasamiya: 112G (0.7%, 112G)
SQUiDSQUARKLIN: 104G (0.6%, 104G)
AllInBot: 100G (0.6%, 100G)
FoeSquirrel: 100G (0.6%, 4,593G)
mexskacin: 100G (0.6%, 6,272G)
ko2q: 100G (0.6%, 26,161G)
kaidykat: 100G (0.6%, 974G)
DrAntiSocial: 50G (0.3%, 14,731G)
getthemoneyz: 30G (0.2%, 520,307G)
