Final Bets: blue - 20 bets for 21,574G (60.6%, x0.65); yellow - 25 bets for 14,026G (39.4%, x1.54)

blue bets:
R_Raynos: 5,000G (23.2%, 15,564G)
OneHundredFists: 3,001G (13.9%, 8,820G)
roofiepops: 3,000G (13.9%, 14,996G)
sinnyil2: 1,200G (5.6%, 74,129G)
DarrenDinosaurs: 1,028G (4.8%, 1,028G)
I_nod_my_head_when_I_lose: 1,000G (4.6%, 43,635G)
BoneMiser: 1,000G (4.6%, 16,028G)
HaateXIII: 1,000G (4.6%, 4,919G)
StormSquad: 872G (4.0%, 872G)
Fenrislfr: 795G (3.7%, 7,952G)
Ross_from_Cali: 777G (3.6%, 2,136G)
Dexsana: 700G (3.2%, 18,161G)
Tougou: 500G (2.3%, 1,117G)
ericzubat: 500G (2.3%, 4,005G)
Anox_Skell: 400G (1.9%, 3,333G)
DeathTaxesAndAnime: 300G (1.4%, 13,287G)
itsonlyspencer: 200G (0.9%, 11,566G)
ZephyrTempest: 101G (0.5%, 162,031G)
ANFz: 100G (0.5%, 11,593G)
RunicMagus: 100G (0.5%, 38,105G)

yellow bets:
moonliquor: 1,778G (12.7%, 1,778G)
volgrathemoose: 1,500G (10.7%, 144,000G)
Lordminsc: 1,205G (8.6%, 38,140G)
Baron_von_Scrub: 1,111G (7.9%, 77,519G)
animefan112233: 1,000G (7.1%, 10,214G)
ungabunga_bot: 1,000G (7.1%, 176,847G)
BirbBrainsBot: 1,000G (7.1%, 23,190G)
getthemoneyz: 552G (3.9%, 520,277G)
pandasforsale: 512G (3.7%, 512G)
TheMM42: 500G (3.6%, 26,056G)
CapnChaos12: 500G (3.6%, 36,148G)
potgodtopdog: 500G (3.6%, 7,731G)
Breakdown777: 500G (3.6%, 40,297G)
rico_flex: 500G (3.6%, 12,263G)
Nizaha: 432G (3.1%, 432G)
TheGuesty: 350G (2.5%, 18,000G)
nedryerson01: 224G (1.6%, 224G)
Zxpr0jk: 200G (1.4%, 200G)
tanarusasamiya: 112G (0.8%, 112G)
AllInBot: 100G (0.7%, 100G)
FoeSquirrel: 100G (0.7%, 4,493G)
FriendSquirrel: 100G (0.7%, 29,373G)
mexskacin: 100G (0.7%, 6,172G)
kaidykat: 100G (0.7%, 874G)
DrAntiSocial: 50G (0.4%, 14,681G)
