Final Bets: red - 16 bets for 10,213G (56.8%, x0.76); blue - 12 bets for 7,770G (43.2%, x1.31)

red bets:
coralreeferz: 2,181G (21.4%, 2,181G)
dogsandcatsand: 2,000G (19.6%, 135,876G)
VolgraTheMoose: 1,704G (16.7%, 1,704G)
R3V_Mario: 1,071G (10.5%, 1,071G)
Forkmore: 777G (7.6%, 8,313G)
CosmicTactician: 500G (4.9%, 2,959G)
DavenIII: 380G (3.7%, 380G)
ArashiKurobara: 364G (3.6%, 7,696G)
DesertWooder: 200G (2.0%, 7,920G)
datadrivenbot: 200G (2.0%, 52,074G)
ShintaroNayaka: 200G (2.0%, 1,779G)
Klednar21: 200G (2.0%, 5,320G)
getthemoneyz: 136G (1.3%, 1,528,101G)
mrfripps: 100G (1.0%, 2,411G)
LordMaxoss: 100G (1.0%, 6,024G)
Kellios11: 100G (1.0%, 25,050G)

blue bets:
TheKillerNacho: 2,176G (28.0%, 2,176G)
latebit: 1,500G (19.3%, 9,719G)
BirbBrainsBot: 1,000G (12.9%, 76,874G)
Rytor: 616G (7.9%, 3,083G)
E_Ballard: 528G (6.8%, 2,468G)
TheChainNerd: 504G (6.5%, 504G)
ko2q: 456G (5.9%, 912G)
actual_JP: 404G (5.2%, 404G)
AllInBot: 200G (2.6%, 200G)
DouglasDragonThePoet: 180G (2.3%, 3,000G)
EmmaEnema: 150G (1.9%, 6,490G)
dtrain332: 56G (0.7%, 5,657G)
