Final Bets: purple - 10 bets for 5,091G (43.1%, x1.32); brown - 12 bets for 6,729G (56.9%, x0.76)

purple bets:
AllInBot: 1,115G (21.9%, 1,115G)
Lord_Gwarth: 940G (18.5%, 940G)
BirbBrainsBot: 938G (18.4%, 78,681G)
getthemoneyz: 800G (15.7%, 1,528,092G)
JonnyCue: 500G (9.8%, 6,329G)
ArashiKurobara: 364G (7.1%, 7,245G)
ShintaroNayaka: 200G (3.9%, 1,631G)
douchetron: 100G (2.0%, 19,029G)
xBizzy: 78G (1.5%, 1,575G)
dtrain332: 56G (1.1%, 5,601G)

brown bets:
DeathTaxesAndAnime: 1,254G (18.6%, 2,459G)
latebit: 1,010G (15.0%, 11,534G)
VolgraTheMoose: 1,001G (14.9%, 3,370G)
dogsandcatsand: 1,000G (14.9%, 137,398G)
ko2q: 588G (8.7%, 588G)
TheChainNerd: 504G (7.5%, 504G)
SephDarkheart: 472G (7.0%, 472G)
coralreeferz: 350G (5.2%, 5,925G)
datadrivenbot: 200G (3.0%, 52,075G)
Zeera98: 150G (2.2%, 191G)
PoroTact: 100G (1.5%, 6,507G)
DouglasDragonThePoet: 100G (1.5%, 2,720G)
