Final Bets: purple - 22 bets for 11,134G (23.9%, x3.18); champion - 26 bets for 35,407G (76.1%, x0.31)

purple bets:
snakeddL: 2,841G (25.5%, 2,841G)
superdevon1: 1,500G (13.5%, 22,229G)
ColetteMSLP: 1,000G (9.0%, 47,832G)
Fakebadstone: 904G (8.1%, 904G)
GenieMilenko: 699G (6.3%, 699G)
DeathTaxesAndAnime: 616G (5.5%, 616G)
sinnyil2: 500G (4.5%, 8,288G)
basquiat89: 400G (3.6%, 1,174G)
byrdturbo: 333G (3.0%, 6,672G)
itzover9001: 328G (2.9%, 328G)
Mesmaster: 300G (2.7%, 42,988G)
moonliquor: 276G (2.5%, 276G)
NovaKnight21: 251G (2.3%, 1,663G)
midori_ribbon: 240G (2.2%, 240G)
Rislyeu: 200G (1.8%, 751G)
Meta_Five: 200G (1.8%, 970G)
getthemoneyz: 132G (1.2%, 612,730G)
jpTawok: 113G (1.0%, 2,265G)
Evewho: 100G (0.9%, 9,606G)
Firesheath: 100G (0.9%, 12,567G)
alithesillybird: 100G (0.9%, 2,567G)
daveb_: 1G (0.0%, 770G)

champion bets:
HaplessOne: 7,214G (20.4%, 9,619G)
ZZ_Yoshi: 5,000G (14.1%, 68,512G)
killth3kid: 5,000G (14.1%, 60,235G)
ewan_e: 3,000G (8.5%, 6,884G)
Billybones5150: 2,500G (7.1%, 27,521G)
Dymntd: 2,273G (6.4%, 2,273G)
Vampire_Killer: 1,500G (4.2%, 20,651G)
astrozin11: 1,245G (3.5%, 1,245G)
SarrgeQc: 1,001G (2.8%, 11,714G)
Who_lio42: 1,000G (2.8%, 3,397G)
ungabunga_bot: 890G (2.5%, 289,708G)
roofiepops: 520G (1.5%, 520G)
twelfthrootoftwo: 500G (1.4%, 3,227G)
Bioticism: 500G (1.4%, 2,007G)
ZephyrTempest: 456G (1.3%, 1,871G)
Jaritras: 423G (1.2%, 423G)
BirbBrainsBot: 422G (1.2%, 152,311G)
trigger15: 350G (1.0%, 4,618G)
CorpusCav: 338G (1.0%, 13,576G)
Mirrorclaw: 325G (0.9%, 325G)
gorgewall: 300G (0.8%, 17,303G)
jhaller2: 250G (0.7%, 4,500G)
ko2q: 100G (0.3%, 2,879G)
ANFz: 100G (0.3%, 23,161G)
datadrivenbot: 100G (0.3%, 10,996G)
CosmicTactician: 100G (0.3%, 9,876G)
