Final Bets: red - 16 bets for 29,451G (84.6%, x0.18); blue - 13 bets for 5,341G (15.4%, x5.51)

red bets:
sinnyil2: 15,927G (54.1%, 31,855G)
YaBoy125: 4,962G (16.8%, 4,962G)
DeathTaxesAndAnime: 1,957G (6.6%, 1,957G)
BirbBrainsBot: 1,000G (3.4%, 129,782G)
Basmal: 1,000G (3.4%, 54,364G)
bad1dea: 1,000G (3.4%, 352,081G)
WireLord: 1,000G (3.4%, 9,759G)
superdevon1: 733G (2.5%, 7,337G)
mirapoix: 456G (1.5%, 456G)
Phytik: 300G (1.0%, 2,948G)
R_Raynos: 256G (0.9%, 256G)
evdoggity: 248G (0.8%, 248G)
Numbersborne: 212G (0.7%, 212G)
ugoplatamia: 200G (0.7%, 34,769G)
BadBlanket: 100G (0.3%, 2,226G)
madman_clinton: 100G (0.3%, 558G)

blue bets:
HASTERIOUS: 1,500G (28.1%, 74,084G)
Go2sleepTV: 788G (14.8%, 788G)
Maeveen: 600G (11.2%, 600G)
misterprmiller: 500G (9.4%, 10,686G)
Blain_Cooper: 500G (9.4%, 3,183G)
getthemoneyz: 426G (8.0%, 405,036G)
Treapvort: 407G (7.6%, 407G)
GrayGhostGaming: 120G (2.2%, 120G)
AllInBot: 100G (1.9%, 100G)
victoriolue: 100G (1.9%, 4,587G)
Conome: 100G (1.9%, 2,681G)
datadrivenbot: 100G (1.9%, 13,438G)
lijarkh: 100G (1.9%, 3,438G)
