Final Bets: purple - 9 bets for 9,712G (38.4%, x1.60); brown - 13 bets for 15,576G (61.6%, x0.62)

purple bets:
Thyrandaal: 3,000G (30.9%, 224,117G)
SkylerBunny: 2,000G (20.6%, 300,763G)
Wooplestein: 1,453G (15.0%, 1,453G)
BirbBrainsBot: 1,000G (10.3%, 60,688G)
superdevon1: 971G (10.0%, 32,380G)
killth3kid: 648G (6.7%, 10,048G)
getthemoneyz: 340G (3.5%, 1,558,139G)
AllInBot: 200G (2.1%, 200G)
Rook512: 100G (1.0%, 100G)

brown bets:
ko2q: 3,509G (22.5%, 7,018G)
DeathTaxesAndAnime: 3,390G (21.8%, 6,649G)
NicoSavoy: 2,494G (16.0%, 124,724G)
evontno: 2,426G (15.6%, 2,426G)
TheMurkGnome: 1,048G (6.7%, 1,048G)
Rislyeu: 1,000G (6.4%, 4,444G)
letdowncity: 508G (3.3%, 27,382G)
Gyrolin: 500G (3.2%, 2,258G)
gorgewall: 301G (1.9%, 5,480G)
MinBetBot: 100G (0.6%, 17,878G)
nifboy: 100G (0.6%, 1,779G)
CosmicTactician: 100G (0.6%, 7,428G)
itskage: 100G (0.6%, 1,000G)
