Final Bets: green - 11 bets for 7,430G (56.4%, x0.77); yellow - 14 bets for 5,749G (43.6%, x1.29)

green bets:
HaateXIII: 1,568G (21.1%, 1,568G)
Nizaha: 1,400G (18.8%, 16,463G)
Aldrammech: 1,140G (15.3%, 1,140G)
BirbBrainsBot: 1,000G (13.5%, 42,878G)
killth3kid: 676G (9.1%, 25,735G)
E_Ballard: 576G (7.8%, 576G)
AllInBot: 349G (4.7%, 349G)
VolgraTheMoose: 300G (4.0%, 3,503G)
northkoreancleetus: 209G (2.8%, 209G)
Tarheels218: 112G (1.5%, 112G)
getthemoneyz: 100G (1.3%, 1,609,598G)

yellow bets:
LDSkinny: 1,000G (17.4%, 4,572G)
resjudicata3: 1,000G (17.4%, 2,450G)
BoneMiser: 715G (12.4%, 715G)
Lanshaft: 572G (9.9%, 13,874G)
Zagorsek: 572G (9.9%, 572G)
SephDarkheart: 536G (9.3%, 78,785G)
letdowncity: 516G (9.0%, 24,616G)
datadrivenbot: 200G (3.5%, 56,780G)
Scurg: 150G (2.6%, 914G)
daveb_: 122G (2.1%, 4,151G)
richardserious: 121G (2.1%, 2,437G)
MinBetBot: 100G (1.7%, 24,192G)
CosmicTactician: 100G (1.7%, 6,428G)
GGDeeOfficial: 45G (0.8%, 450G)
