Final Bets: green - 18 bets for 25,379G (70.0%, x0.43); yellow - 15 bets for 10,897G (30.0%, x2.33)

green bets:
Zeroroute: 8,315G (32.8%, 31,981G)
Forkmore: 2,500G (9.9%, 39,528G)
Thyrandaal: 2,000G (7.9%, 42,242G)
NicoSavoy: 2,000G (7.9%, 10,225G)
reinoe: 2,000G (7.9%, 20,294G)
LeoNightFury: 1,819G (7.2%, 3,639G)
EnemyController: 1,111G (4.4%, 1,680,585G)
BirbBrainsBot: 1,000G (3.9%, 67,058G)
getthemoneyz: 1,000G (3.9%, 1,817,280G)
Lord_Gwarth: 1,000G (3.9%, 5,616G)
Snowfats: 500G (2.0%, 5,651G)
roofiepops: 474G (1.9%, 2,857G)
RunicMagus: 400G (1.6%, 4,025G)
butterbelljedi: 400G (1.6%, 3,595G)
krombobreaker: 260G (1.0%, 7,838G)
Yangusburger: 200G (0.8%, 802G)
pepperbuster: 200G (0.8%, 925G)
datadrivenbot: 200G (0.8%, 65,031G)

yellow bets:
DeathTaxesAndAnime: 2,174G (20.0%, 4,263G)
Mesmaster: 2,000G (18.4%, 114,115G)
Virilikus: 1,000G (9.2%, 216,745G)
E_Ballard: 836G (7.7%, 108,261G)
solomongrundy85: 770G (7.1%, 770G)
Blastinus: 633G (5.8%, 633G)
Zagorsek: 616G (5.7%, 616G)
thebluesman: 600G (5.5%, 4,718G)
Smashy: 508G (4.7%, 508G)
technominari: 500G (4.6%, 80,369G)
highelectricaltemperature: 400G (3.7%, 2,613G)
SephDarkheart: 320G (2.9%, 4,738G)
poorest_hobo: 240G (2.2%, 240G)
Vahn_Blade: 200G (1.8%, 21,162G)
HS39: 100G (0.9%, 2,450G)
