Final Bets: white - 10 bets for 2,790G (18.5%, x4.41); black - 6 bets for 12,295G (81.5%, x0.23)

white bets:
getthemoneyz: 1,000G (35.8%, 1,181,238G)
BirbBrainsBot: 485G (17.4%, 8,935G)
ShintaroNayaka: 400G (14.3%, 6,071G)
letdowncity: 360G (12.9%, 13,308G)
ACSpree: 200G (7.2%, 4,455G)
skipsandwiches: 143G (5.1%, 143G)
Quadh0nk: 100G (3.6%, 4,105G)
livvexx: 100G (3.6%, 3,019G)
E_Ballard: 1G (0.0%, 4,233G)
cam_ATS: 1G (0.0%, 31,310G)

black bets:
Baron_von_Scrub: 4,333G (35.2%, 8,667G)
bruubarg: 3,314G (27.0%, 3,314G)
reinoe: 2,000G (16.3%, 56,277G)
fenaen: 1,200G (9.8%, 40,513G)
maakur_: 1,147G (9.3%, 1,147G)
gorgewall: 301G (2.4%, 1,080G)
