Final Bets: white - 18 bets for 8,053G (48.8%, x1.05); purple - 10 bets for 8,453G (51.2%, x0.95)

white bets:
opHendoslice: 1,500G (18.6%, 5,882G)
BirbBrainsBot: 1,000G (12.4%, 75,696G)
serperemagus: 974G (12.1%, 974G)
sinnyil2: 871G (10.8%, 871G)
nifboy: 865G (10.7%, 865G)
NWOW_44: 500G (6.2%, 9,607G)
josephiroth_143: 485G (6.0%, 485G)
gorgewall: 401G (5.0%, 19,981G)
ZCKaiser: 269G (3.3%, 538G)
AltimaMantoid: 228G (2.8%, 228G)
Thyrandaal: 200G (2.5%, 58,248G)
regios91: 200G (2.5%, 3,270G)
pancake11112: 100G (1.2%, 100G)
E_Ballard: 100G (1.2%, 8,101G)
CosmicTactician: 100G (1.2%, 6,199G)
datadrivenbot: 100G (1.2%, 44,266G)
Meta_Five: 100G (1.2%, 34,831G)
getthemoneyz: 60G (0.7%, 972,395G)

purple bets:
joewcarson: 2,000G (23.7%, 42,291G)
Magicandy: 2,000G (23.7%, 4,137G)
DLJuggernaut: 1,767G (20.9%, 3,535G)
NovaKnight21: 975G (11.5%, 975G)
actual_JP: 601G (7.1%, 601G)
TheChainNerd: 464G (5.5%, 464G)
reddwind_: 348G (4.1%, 348G)
AllInBot: 197G (2.3%, 197G)
ApplesauceBoss: 100G (1.2%, 13,376G)
cam_ATS: 1G (0.0%, 32,219G)
