Final Bets: yellow - 11 bets for 8,972G (37.6%, x1.66); champion - 18 bets for 14,914G (62.4%, x0.60)

yellow bets:
Magicandy: 2,048G (22.8%, 4,096G)
DLJuggernaut: 1,695G (18.9%, 3,390G)
NovaKnight21: 1,406G (15.7%, 1,406G)
pancake11112: 1,081G (12.0%, 1,081G)
NWOW_44: 1,000G (11.1%, 10,136G)
serperemagus: 996G (11.1%, 996G)
Thyrandaal: 200G (2.2%, 58,825G)
getthemoneyz: 178G (2.0%, 974,292G)
josephiroth_143: 168G (1.9%, 168G)
E_Ballard: 100G (1.1%, 9,206G)
datadrivenbot: 100G (1.1%, 44,271G)

champion bets:
sinnyil2: 2,785G (18.7%, 2,785G)
JumbocactuarX27: 2,041G (13.7%, 2,041G)
joewcarson: 2,000G (13.4%, 38,291G)
cam_ATS: 1,400G (9.4%, 32,720G)
actual_JP: 1,304G (8.7%, 1,304G)
opHendoslice: 1,000G (6.7%, 5,957G)
BirbBrainsBot: 1,000G (6.7%, 75,746G)
TheChainNerd: 815G (5.5%, 815G)
TeaTime29: 500G (3.4%, 11,453G)
nifboy: 444G (3.0%, 444G)
reddwind_: 424G (2.8%, 848G)
gorgewall: 401G (2.7%, 20,501G)
ZCKaiser: 200G (1.3%, 620G)
Rytor: 200G (1.3%, 1,280G)
AllInBot: 100G (0.7%, 100G)
CosmicTactician: 100G (0.7%, 6,104G)
Grandlanzer: 100G (0.7%, 9,744G)
Kellios11: 100G (0.7%, 9,227G)
