Final Bets: purple - 7 bets for 3,283G (7.2%, x12.92); champion - 14 bets for 42,404G (92.8%, x0.08)

purple bets:
UmaiJam: 1,000G (30.5%, 62,321G)
josephiroth_143: 500G (15.2%, 8,045G)
boosted420: 500G (15.2%, 3,421G)
prince_rogers_nelson_: 488G (14.9%, 488G)
Lemonjohns: 420G (12.8%, 2,074G)
VolgraTheMoose: 355G (10.8%, 17,982G)
DouglasDragonThePoet: 20G (0.6%, 484G)

champion bets:
reinoe: 20,000G (47.2%, 87,019G)
unclebearboy: 9,713G (22.9%, 9,713G)
Lydian_C: 5,600G (13.2%, 35,278G)
NIghtdew14: 1,000G (2.4%, 15,601G)
BirbBrainsBot: 1,000G (2.4%, 111,804G)
roqqqpsi: 990G (2.3%, 1,000G)
BoneMiser: 928G (2.2%, 928G)
twelfthrootoftwo: 879G (2.1%, 1,725G)
dem0nj0ns: 756G (1.8%, 756G)
getthemoneyz: 534G (1.3%, 1,336,449G)
SephDarkheart: 328G (0.8%, 58,793G)
AllInBot: 299G (0.7%, 299G)
datadrivenbot: 200G (0.5%, 33,674G)
Modoh: 177G (0.4%, 177G)
