High Risers:
1. CorpusCav: +7,998G
2. Mudrockk: +6,189G
3. MuffinMaesterRiri: +5,945G
4. HaateXIII: +5,107G
5. Musashi45: +4,553G
6. DLJuggernaut: +4,517G
7. SephDarkheart: +3,942G
8. lijarkh: +3,761G
9. HorusTaurus: +3,493G
10. Tarheels218: +2,653G
11. coralreeferz: +2,162G
12. Evewho: +2,145G
13. resjudicata3: +2,044G
14. Reddash9: +1,975G
15. MickeyKatana: +1,760G
16. seppu777: +1,315G
17. Demon_Lord_Josh: +1,061G
18. murderclan: +868G
19. Shalloween: +803G
20. Laserman1000: +764G
21. gorgewall: +706G
22. superdevon1: +677G
23. AltimaMantoid: +600G
24. troublesometree: +489G
25. randgridr: +464G
26. DAC169: +241G
27. fenaen: +200G
28. WASD_Buttons: +183G
29. ValensEXP_: +114G
30. Widewalk: +78G
31. maakur_: +27G
32. king_smashington: -22G
33. Firesheath: -35G
34. Tougou: -100G
35. readdesert: -127G
36. DarrenDinosaurs: -134G
37. skipsandwiches: -200G
38. tripaplex: -200G
39. silentkaster: -254G
40. latebit: -298G
41. just_here2: -300G
42. krombobreaker: -363G
43. pplvee1: -379G
44. Smashy: -400G
45. SRG_Chugganomics: -401G
46. ColetteMSLP: -500G
47. madming25: -500G
48. Chuckolator: -539G
49. bigbongsmoker: -616G
50. macal0ser: -636G
51. lowlf: -664G
52. AbandonedHall: -700G
53. Mesmaster: -896G
54. DHaveWord: -951G
55. VolgraTheMoose: -956G
56. ExplanationMarkWow: -1,000G
57. mindblownnnn: -1,000G
58. MemoriesofFinal: -1,000G
59. khelor_: -1,000G
60. reinoe: -1,000G
61. TheSabretoothe: -1,000G
62. dogsandcatsand: -1,000G
63. Belkra: -1,000G
64. BoneMiser: -1,219G
65. 2b_yorha_b: -1,338G
66. Pyrotyk: -1,379G
67. Nizaha: -1,664G
68. Lydian_C: -2,038G
69. killth3kid: -3,361G
70. TheBrett: -3,869G
71. nhammen: -6,198G
72. Thyrandaal: -8,811G
73. acid_flashback: -24,000G
