Final Bets: white - 22 bets for 16,363G (45.9%, x1.18); black - 13 bets for 19,289G (54.1%, x0.85)

white bets:
killth3kid: 4,312G (26.4%, 34,312G)
acid_flashback: 3,000G (18.3%, 68,352G)
Shalloween: 1,300G (7.9%, 49,619G)
BirbBrainsBot: 1,000G (6.1%, 104,297G)
reinoe: 1,000G (6.1%, 10,636G)
TheBrett: 1,000G (6.1%, 27,783G)
Chuckolator: 748G (4.6%, 748G)
Pyrotyk: 679G (4.1%, 679G)
DHaveWord: 502G (3.1%, 1,005G)
Demon_Lord_Josh: 500G (3.1%, 5,144G)
2b_yorha_b: 400G (2.4%, 19,837G)
getthemoneyz: 358G (2.2%, 2,175,277G)
heropong: 321G (2.0%, 321G)
theQueenfuta: 208G (1.3%, 208G)
AllInBot: 200G (1.2%, 200G)
ValensEXP_: 200G (1.2%, 5,272G)
Lydian_C: 123G (0.8%, 10,616G)
murderclan: 108G (0.7%, 108G)
iongrav: 104G (0.6%, 104G)
readdesert: 100G (0.6%, 1,211G)
MuffinMaesterRiri: 100G (0.6%, 834G)
SRG_Chugganomics: 100G (0.6%, 100G)

black bets:
Musashi45: 13,262G (68.8%, 15,554G)
lijarkh: 1,000G (5.2%, 6,002G)
HorusTaurus: 1,000G (5.2%, 2,771G)
fenaen: 672G (3.5%, 26,389G)
Reddash9: 635G (3.3%, 635G)
SephDarkheart: 576G (3.0%, 21,885G)
Evewho: 500G (2.6%, 9,668G)
Mudrockk: 500G (2.6%, 26,513G)
superdevon1: 360G (1.9%, 360G)
king_smashington: 284G (1.5%, 284G)
resjudicata3: 200G (1.0%, 1,675G)
datadrivenbot: 200G (1.0%, 86,290G)
nhammen: 100G (0.5%, 72,502G)
