Final Bets: purple - 17 bets for 7,358G (29.3%, x2.41); brown - 20 bets for 17,756G (70.7%, x0.41)

purple bets:
Mudrockk: 2,000G (27.2%, 26,941G)
MuffinMaesterRiri: 734G (10.0%, 734G)
fenaen: 672G (9.1%, 26,959G)
superdevon1: 665G (9.0%, 665G)
SephDarkheart: 576G (7.8%, 22,374G)
DHaveWord: 503G (6.8%, 503G)
Demon_Lord_Josh: 500G (6.8%, 4,644G)
Musashi45: 292G (4.0%, 26,804G)
theQueenfuta: 208G (2.8%, 208G)
Evewho: 200G (2.7%, 10,092G)
ValensEXP_: 200G (2.7%, 5,072G)
datadrivenbot: 200G (2.7%, 86,460G)
resjudicata3: 200G (2.7%, 1,845G)
murderclan: 108G (1.5%, 108G)
SRG_Chugganomics: 100G (1.4%, 100G)
DAC169: 100G (1.4%, 4,863G)
Reddash9: 100G (1.4%, 1,174G)

brown bets:
nhammen: 5,000G (28.2%, 71,587G)
acid_flashback: 3,000G (16.9%, 65,352G)
TheBrett: 2,000G (11.3%, 26,783G)
Shalloween: 1,000G (5.6%, 48,319G)
BirbBrainsBot: 1,000G (5.6%, 103,297G)
HorusTaurus: 1,000G (5.6%, 3,619G)
killth3kid: 824G (4.6%, 30,000G)
king_smashington: 529G (3.0%, 529G)
Chuckolator: 432G (2.4%, 432G)
rkane398: 416G (2.3%, 416G)
2b_yorha_b: 400G (2.3%, 19,437G)
Aaron2Nerdy: 388G (2.2%, 388G)
coralreeferz: 350G (2.0%, 2,426G)
bigbongsmoker: 316G (1.8%, 5,084G)
AltimaMantoid: 300G (1.7%, 12,700G)
gorgewall: 201G (1.1%, 7,654G)
AllInBot: 200G (1.1%, 200G)
getthemoneyz: 200G (1.1%, 2,174,919G)
readdesert: 100G (0.6%, 1,111G)
Firesheath: 100G (0.6%, 2,949G)
