Final Bets: red - 19 bets for 12,884G (64.9%, x0.54); blue - 12 bets for 6,971G (35.1%, x1.85)

red bets:
JumbocactuarX27: 3,204G (24.9%, 3,204G)
Nickyfive: 1,797G (13.9%, 3,595G)
nifboy: 1,607G (12.5%, 1,607G)
latebit: 1,100G (8.5%, 32,548G)
BirbBrainsBot: 1,000G (7.8%, 183,423G)
DavenIII: 858G (6.7%, 858G)
killth3kid: 664G (5.2%, 11,138G)
SephDarkheart: 524G (4.1%, 59,235G)
fenaen: 508G (3.9%, 3,862G)
getthemoneyz: 256G (2.0%, 1,585,706G)
TheArcanum: 208G (1.6%, 479G)
Essonix: 208G (1.6%, 208G)
CosmicTactician: 200G (1.6%, 5,585G)
datadrivenbot: 200G (1.6%, 57,524G)
holdenmagronik: 150G (1.2%, 2,186G)
Chuckolator: 100G (0.8%, 18,430G)
DarrenDinosaurs: 100G (0.8%, 3,358G)
nhammen: 100G (0.8%, 5,003G)
Wooplestein: 100G (0.8%, 2,479G)

blue bets:
AllInBot: 2,238G (32.1%, 2,238G)
Lillifen: 1,000G (14.3%, 3,513G)
LDSkinny: 1,000G (14.3%, 5,937G)
Nizaha: 700G (10.0%, 13,438G)
ko2q: 531G (7.6%, 531G)
Forkmore: 444G (6.4%, 9,145G)
randgridr: 300G (4.3%, 300G)
Lord_Gwarth: 296G (4.2%, 3,029G)
Tarheels218: 162G (2.3%, 162G)
MinBetBot: 100G (1.4%, 22,588G)
neerrm: 100G (1.4%, 10,693G)
RuneS_77: 100G (1.4%, 15,709G)
