Final Bets: red - 16 bets for 12,359G (47.7%, x1.10); green - 5 bets for 13,575G (52.3%, x0.91)

red bets:
latebit: 6,000G (48.5%, 33,637G)
Raixelol: 1,076G (8.7%, 1,076G)
BirbBrainsBot: 1,000G (8.1%, 183,403G)
ko2q: 976G (7.9%, 976G)
killth3kid: 664G (5.4%, 11,588G)
nhammen: 500G (4.0%, 4,201G)
TheDeeyo: 400G (3.2%, 4,700G)
randgridr: 300G (2.4%, 300G)
Lord_Gwarth: 296G (2.4%, 2,437G)
TheArcanum: 208G (1.7%, 713G)
AllInBot: 200G (1.6%, 200G)
datadrivenbot: 200G (1.6%, 58,147G)
getthemoneyz: 184G (1.5%, 1,585,299G)
holdenmagronik: 150G (1.2%, 2,050G)
Chuckolator: 105G (0.8%, 17,484G)
Zephyrik: 100G (0.8%, 10,405G)

green bets:
JumbocactuarX27: 9,979G (73.5%, 9,979G)
douchetron: 2,696G (19.9%, 5,393G)
Nizaha: 700G (5.2%, 11,738G)
MinBetBot: 100G (0.7%, 22,501G)
RuneS_77: 100G (0.7%, 15,866G)
