Final Bets: purple - 11 bets for 3,390G (9.7%, x9.34); brown - 20 bets for 31,657G (90.3%, x0.11)

purple bets:
HaateXIII: 668G (19.7%, 668G)
VolgraTheMoose: 501G (14.8%, 5,369G)
Lanshaft: 468G (13.8%, 8,485G)
getthemoneyz: 452G (13.3%, 1,210,093G)
benticore: 432G (12.7%, 8,652G)
BirbBrainsBot: 334G (9.9%, 104,998G)
DustBirdEX: 234G (6.9%, 2,803G)
superdevon1: 100G (2.9%, 6,375G)
CosmicTactician: 100G (2.9%, 42,870G)
nifboy: 100G (2.9%, 14,810G)
cam_ATS: 1G (0.0%, 47,770G)

brown bets:
SephDarkheart: 18,696G (59.1%, 18,696G)
DeathTaxesAndAnime: 1,583G (5.0%, 1,583G)
roqqqpsi: 1,540G (4.9%, 77,036G)
Zeroroute: 1,458G (4.6%, 2,582G)
ThreeMileIsland: 1,291G (4.1%, 1,291G)
Evewho: 1,195G (3.8%, 1,195G)
Nizaha: 1,001G (3.2%, 4,011G)
Laserman1000: 707G (2.2%, 28,307G)
Shalloween: 700G (2.2%, 65,279G)
Digitalsocrates: 667G (2.1%, 667G)
galkife: 500G (1.6%, 54,272G)
RampagingRobot: 443G (1.4%, 10,643G)
bruubarg: 344G (1.1%, 344G)
gorgewall: 301G (1.0%, 27,487G)
TasisSai: 300G (0.9%, 1,982G)
CapnChaos12: 300G (0.9%, 6,945G)
maleblackfiora: 224G (0.7%, 2,168G)
datadrivenbot: 200G (0.6%, 56,095G)
xLilAsia: 107G (0.3%, 1,136G)
upidstupid: 100G (0.3%, 100G)
