Final Bets: blue - 13 bets for 9,097G (21.8%, x3.59); champion - 18 bets for 32,684G (78.2%, x0.28)

blue bets:
Zeroroute: 2,930G (32.2%, 2,930G)
xLilAsia: 1,253G (13.8%, 2,507G)
killth3kid: 1,000G (11.0%, 104,002G)
upidstupid: 905G (9.9%, 905G)
VolgraTheMoose: 501G (5.5%, 4,850G)
evdoggity: 500G (5.5%, 95,579G)
beefstax: 475G (5.2%, 475G)
ZombiFrancis: 417G (4.6%, 8,342G)
Digitalsocrates: 364G (4.0%, 364G)
Shalloween: 300G (3.3%, 66,368G)
TasisSai: 200G (2.2%, 614G)
getthemoneyz: 152G (1.7%, 1,209,390G)
superdevon1: 100G (1.1%, 6,480G)

champion bets:
SephDarkheart: 19,883G (60.8%, 19,883G)
Sans_from_Snowdin: 3,000G (9.2%, 25,991G)
Nizaha: 1,893G (5.8%, 3,786G)
roqqqpsi: 1,541G (4.7%, 77,079G)
Evewho: 1,346G (4.1%, 2,641G)
ThreeMileIsland: 1,079G (3.3%, 1,079G)
dogsandcatsand: 826G (2.5%, 826G)
Laserman1000: 700G (2.1%, 28,400G)
HaateXIII: 668G (2.0%, 668G)
BirbBrainsBot: 372G (1.1%, 102,899G)
CosmicTactician: 300G (0.9%, 42,852G)
CapnChaos12: 300G (0.9%, 6,681G)
DustBirdEX: 234G (0.7%, 3,599G)
datadrivenbot: 200G (0.6%, 56,127G)
maleblackfiora: 144G (0.4%, 166G)
enkikavlar: 100G (0.3%, 7,612G)
Hasterious: 64G (0.2%, 6,401G)
ChubbyBroCast: 34G (0.1%, 682G)
