Final Bets: green - 28 bets for 14,188G (45.0%, x1.22); yellow - 15 bets for 17,324G (55.0%, x0.82)

green bets:
Arunic: 2,865G (20.2%, 2,865G)
leakimiko: 1,249G (8.8%, 24,991G)
BirbBrainsBot: 1,000G (7.0%, 110,089G)
getthemoneyz: 1,000G (7.0%, 403,641G)
bad1dea: 1,000G (7.0%, 322,471G)
Axelrod: 1,000G (7.0%, 44,396G)
Legitamte: 733G (5.2%, 733G)
regios91: 665G (4.7%, 1,331G)
urieltheflameofgod: 657G (4.6%, 3,287G)
SerumD: 500G (3.5%, 14,704G)
galkife: 500G (3.5%, 63,707G)
maakur_: 487G (3.4%, 487G)
EnemyController: 300G (2.1%, 2,319G)
ZephyrTempest: 298G (2.1%, 19,999G)
JumbocactuarX27: 272G (1.9%, 272G)
ForagerCats: 268G (1.9%, 268G)
ensiron: 224G (1.6%, 224G)
ugoplatamia: 200G (1.4%, 22,124G)
KaLam1ty: 200G (1.4%, 4,917G)
friendsquirrel: 100G (0.7%, 1,336G)
Nizaha: 100G (0.7%, 12,687G)
datadrivenbot: 100G (0.7%, 15,352G)
richardserious: 100G (0.7%, 396G)
TheOneRanger: 100G (0.7%, 9,405G)
Legendaryax4: 100G (0.7%, 983G)
Lythe_Caraker: 100G (0.7%, 47,718G)
snoochums: 69G (0.5%, 734G)
daveb_: 1G (0.0%, 1,137G)

yellow bets:
sinnyil2: 4,322G (24.9%, 8,644G)
DudeMonkey77: 3,486G (20.1%, 34,861G)
Rytor: 3,000G (17.3%, 9,159G)
ko2q: 1,027G (5.9%, 1,027G)
volgrathemoose: 1,001G (5.8%, 12,746G)
inzo_bettingbot: 1,000G (5.8%, 48,479G)
Goust18: 1,000G (5.8%, 4,713G)
Skarthe: 500G (2.9%, 2,879G)
reinoe: 500G (2.9%, 2,494G)
Laserman1000: 350G (2.0%, 1,799G)
0utlier: 300G (1.7%, 6,880G)
FattyBearsteak: 300G (1.7%, 7,686G)
lijarkh: 200G (1.2%, 1,824G)
DejaPoo21: 200G (1.2%, 26,344G)
AllInBot: 138G (0.8%, 138G)
