Final Bets: purple - 16 bets for 7,035G (19.5%, x4.14); brown - 15 bets for 29,109G (80.5%, x0.24)

purple bets:
loveyouallfriends: 2,000G (28.4%, 29,858G)
ColetteMSLP: 1,000G (14.2%, 26,370G)
Zetchryn: 1,000G (14.2%, 24,588G)
powergems: 500G (7.1%, 5,927G)
OrgasmicToast: 500G (7.1%, 3,802G)
JumbocactuarX27: 356G (5.1%, 356G)
Lanshaft: 304G (4.3%, 2,879G)
Dexsana: 300G (4.3%, 1,674G)
HeroponThrawn: 240G (3.4%, 240G)
Mandoragan: 200G (2.8%, 2,529G)
regios91: 168G (2.4%, 168G)
lastly: 100G (1.4%, 2,074G)
Cervani: 100G (1.4%, 3,875G)
Evewho: 100G (1.4%, 2,816G)
ericzubat: 100G (1.4%, 606G)
SwaffleWaffles: 67G (1.0%, 1,350G)

brown bets:
sinnyil2: 15,672G (53.8%, 31,344G)
Bryon_W: 3,000G (10.3%, 12,144G)
HaplessOne: 2,000G (6.9%, 63,432G)
joewcarson: 1,933G (6.6%, 1,933G)
braumbles: 1,550G (5.3%, 3,100G)
NovaKnight21: 1,272G (4.4%, 1,272G)
BirbBrainsBot: 1,000G (3.4%, 194,288G)
ForagerCats: 1,000G (3.4%, 13,154G)
YaBoy125: 777G (2.7%, 11,927G)
LDHaten: 256G (0.9%, 256G)
Aneyus: 212G (0.7%, 21,289G)
getthemoneyz: 208G (0.7%, 498,954G)
ungabunga_bot: 129G (0.4%, 163,976G)
tmo50x: 50G (0.2%, 3,123G)
datadrivenbot: 50G (0.2%, 100G)
