Final Bets: green - 26 bets for 10,920G (26.8%, x2.73); yellow - 30 bets for 29,761G (73.2%, x0.37)

green bets:
sinnyil2: 1,200G (11.0%, 15,417G)
Jeeboheebo: 1,065G (9.8%, 1,065G)
Lanshaft: 1,035G (9.5%, 1,035G)
Axelrod: 1,000G (9.2%, 50,036G)
jethrothrul: 905G (8.3%, 905G)
Lodrak: 736G (6.7%, 736G)
rechaun: 518G (4.7%, 518G)
JustSuperish: 500G (4.6%, 3,439G)
0utlier: 420G (3.8%, 6,927G)
4funguto: 420G (3.8%, 1,000G)
Shalloween: 400G (3.7%, 50,579G)
OmnibotGamma: 332G (3.0%, 332G)
Treapvort: 304G (2.8%, 304G)
Aeolus_000: 300G (2.7%, 3,388G)
RezzaDV: 254G (2.3%, 254G)
Rastanar: 248G (2.3%, 248G)
ensiron: 228G (2.1%, 228G)
ugoplatamia: 200G (1.8%, 22,603G)
Runai: 164G (1.5%, 164G)
play_puyopuyo: 141G (1.3%, 141G)
AllInBot: 100G (0.9%, 100G)
BadBlanket: 100G (0.9%, 3,065G)
maakur_: 100G (0.9%, 3,361G)
Alc_Trinity: 100G (0.9%, 30,908G)
DeathTaxesAndAnime: 100G (0.9%, 10,284G)
silentperogy: 50G (0.5%, 3,674G)

yellow bets:
AniZero: 10,000G (33.6%, 50,248G)
DudeMonkey77: 3,372G (11.3%, 33,726G)
TheChainNerd: 3,279G (11.0%, 32,798G)
Lydian_C: 1,200G (4.0%, 14,059G)
Nizaha: 1,001G (3.4%, 16,949G)
Ficklebeast: 1,000G (3.4%, 6,218G)
BirbBrainsBot: 1,000G (3.4%, 129,926G)
bad1dea: 1,000G (3.4%, 344,128G)
Deathmaker06: 1,000G (3.4%, 30,851G)
Dothan89: 749G (2.5%, 749G)
Herecomedeth: 700G (2.4%, 33,881G)
getthemoneyz: 614G (2.1%, 400,959G)
Bryon_W: 562G (1.9%, 562G)
volgrathemoose: 501G (1.7%, 3,357G)
LDSkinny: 500G (1.7%, 2,846G)
EnemyController: 411G (1.4%, 411G)
friendsquirrel: 356G (1.2%, 356G)
megaman2202: 322G (1.1%, 644G)
broomstar: 300G (1.0%, 3,019G)
Cataphract116: 300G (1.0%, 907G)
Baron_von_Scrub: 292G (1.0%, 292G)
Nova_riety: 240G (0.8%, 240G)
holyonline: 200G (0.7%, 8,107G)
cloudycube: 184G (0.6%, 184G)
FattyBearsteak: 178G (0.6%, 178G)
glastonberry48: 100G (0.3%, 1,278G)
datadrivenbot: 100G (0.3%, 14,329G)
ZephyrTempest: 100G (0.3%, 20,942G)
Slowbrofist: 100G (0.3%, 100G)
ko2q: 100G (0.3%, 1,289G)
