Final Bets: brown - 27 bets for 13,669G (17.0%, x4.87); champion - 37 bets for 66,634G (83.0%, x0.21)

brown bets:
Axelrod: 5,000G (36.6%, 36,536G)
0utlier: 1,337G (9.8%, 6,448G)
rechaun: 804G (5.9%, 804G)
hales_bopp_it: 768G (5.6%, 768G)
Nova_riety: 666G (4.9%, 666G)
FattyBearsteak: 604G (4.4%, 604G)
HaateXIII: 500G (3.7%, 5,659G)
Shalloween: 500G (3.7%, 52,644G)
Maldoree: 438G (3.2%, 438G)
megaman2202: 376G (2.8%, 376G)
AllInBot: 327G (2.4%, 327G)
ColetteMSLP: 300G (2.2%, 10,446G)
OneHundredFists: 298G (2.2%, 298G)
Cataphract116: 200G (1.5%, 2,999G)
Theseawolf1: 200G (1.5%, 4,997G)
old_overholt_: 200G (1.5%, 1,232G)
powergems: 200G (1.5%, 2,572G)
richardserious: 196G (1.4%, 196G)
joewcarson: 104G (0.8%, 104G)
ApplesauceBoss: 100G (0.7%, 4,136G)
Mechapope1: 100G (0.7%, 3,204G)
McGooferson: 100G (0.7%, 1,278G)
ThanatosXRagnarok: 100G (0.7%, 12,540G)
HaychDub: 100G (0.7%, 2,579G)
mr_reech: 100G (0.7%, 919G)
silentperogy: 50G (0.4%, 3,614G)
RughSontos: 1G (0.0%, 1,967G)

champion bets:
Lydian_C: 14,252G (21.4%, 27,947G)
sinnyil2: 8,887G (13.3%, 17,775G)
DeathTaxesAndAnime: 5,040G (7.6%, 10,584G)
ugoplatamia: 4,678G (7.0%, 23,391G)
Lord_Burrah: 4,450G (6.7%, 89,005G)
reinoe: 3,131G (4.7%, 3,131G)
LDSkinny: 3,029G (4.5%, 3,029G)
JustSuperish: 1,939G (2.9%, 1,939G)
volgrathemoose: 1,930G (2.9%, 3,860G)
SkylerBunny: 1,663G (2.5%, 1,663G)
EnemyController: 1,600G (2.4%, 1,600G)
leakimiko: 1,566G (2.4%, 31,322G)
Laserman1000: 1,500G (2.3%, 8,100G)
GrayGhostGaming: 1,348G (2.0%, 1,348G)
jethrothrul: 1,028G (1.5%, 1,028G)
galkife: 1,000G (1.5%, 68,423G)
BirbBrainsBot: 1,000G (1.5%, 130,080G)
bad1dea: 1,000G (1.5%, 352,074G)
groovybeard: 1,000G (1.5%, 1,000G)
Rogueain: 832G (1.2%, 832G)
Bryon_W: 832G (1.2%, 832G)
Baron_von_Scrub: 792G (1.2%, 792G)
Rastanar: 748G (1.1%, 748G)
cloudycube: 684G (1.0%, 684G)
daveb_: 550G (0.8%, 550G)
Treapvort: 503G (0.8%, 503G)
Ficklebeast: 300G (0.5%, 5,969G)
Aeolus_000: 300G (0.5%, 3,081G)
rrazzoug: 252G (0.4%, 252G)
maakur_: 100G (0.2%, 4,039G)
Tougou: 100G (0.2%, 4,100G)
Lythe_Caraker: 100G (0.2%, 47,185G)
Alc_Trinity: 100G (0.2%, 31,506G)
BadBlanket: 100G (0.2%, 3,513G)
RunicMagus: 100G (0.2%, 23,667G)
datadrivenbot: 100G (0.2%, 14,030G)
ZephyrTempest: 100G (0.2%, 19,958G)
