Final Bets: yellow - 18 bets for 17,413G (45.7%, x1.19); champion - 21 bets for 20,652G (54.3%, x0.84)

yellow bets:
AllInBot: 6,216G (35.7%, 6,216G)
OneHundredFists: 4,000G (23.0%, 14,064G)
DamnThatShark: 2,000G (11.5%, 5,235G)
sir_uther115: 1,000G (5.7%, 4,534G)
Lydian_C: 560G (3.2%, 9,422G)
Rurk: 500G (2.9%, 5,005G)
electric_algus: 500G (2.9%, 17,712G)
Aka_Gilly: 500G (2.9%, 58,342G)
KonzeraLive: 400G (2.3%, 1,291G)
ColetteMSLP: 300G (1.7%, 1,253G)
NightwolfXVI: 279G (1.6%, 279G)
Yiroep2: 220G (1.3%, 220G)
gorgewall: 201G (1.2%, 15,422G)
Meta_Five: 200G (1.1%, 14,374G)
adrammallech: 172G (1.0%, 172G)
MadnessR: 165G (0.9%, 165G)
Firesheath: 100G (0.6%, 2,892G)
diyahressem: 100G (0.6%, 681G)

champion bets:
Zbgs: 5,818G (28.2%, 5,818G)
IphoneDarkness: 2,023G (9.8%, 4,046G)
Evewho: 2,000G (9.7%, 6,336G)
Breakdown777: 1,500G (7.3%, 68,306G)
TheChainNerd: 1,000G (4.8%, 14,000G)
TheGuesty: 1,000G (4.8%, 72,000G)
prince_rogers_nelson_: 1,000G (4.8%, 28,699G)
Thyrandaal: 1,000G (4.8%, 3,504G)
BirbBrainsBot: 1,000G (4.8%, 182,158G)
dogsandcatsand: 848G (4.1%, 848G)
Laserman1000: 761G (3.7%, 29,761G)
HASTERIOUS: 680G (3.3%, 13,603G)
maleblackfiora: 400G (1.9%, 10,092G)
getthemoneyz: 376G (1.8%, 936,783G)
CosmicTactician: 300G (1.5%, 2,990G)
DustBirdEX: 234G (1.1%, 1,788G)
ko2q: 200G (1.0%, 8,954G)
mrfripps: 200G (1.0%, 3,959G)
Milkman153: 111G (0.5%, 3,201G)
Baron_von_Scrub: 101G (0.5%, 30,145G)
livvexx: 100G (0.5%, 1,612G)
