Final Bets: red - 8 bets for 4,257G (29.6%, x2.37); yellow - 14 bets for 10,105G (70.4%, x0.42)

red bets:
Phytik: 1,247G (29.3%, 13,551G)
madman66666: 1,000G (23.5%, 2,645G)
Lali_Lulelo: 576G (13.5%, 576G)
NovaKnight21: 464G (10.9%, 464G)
Eyepoor_: 300G (7.0%, 2,279G)
bahamutlagooon: 300G (7.0%, 340G)
Miyokari: 250G (5.9%, 1,235G)
7Cerulean7: 120G (2.8%, 6,739G)

yellow bets:
HaplessOne: 2,500G (24.7%, 23,029G)
superdevon1: 1,309G (13.0%, 13,095G)
Evewho: 1,107G (11.0%, 1,107G)
BirbBrainsBot: 1,000G (9.9%, 112,917G)
ungabunga_bot: 1,000G (9.9%, 417,700G)
katgreen: 1,000G (9.9%, 2,273G)
twelfthrootoftwo: 500G (4.9%, 2,319G)
ko2q: 407G (4.0%, 407G)
Who_lio42: 400G (4.0%, 10,937G)
crimson_hellkite: 304G (3.0%, 3,304G)
gorgewall: 300G (3.0%, 5,663G)
Realitydown: 100G (1.0%, 4,973G)
datadrivenbot: 100G (1.0%, 13,171G)
getthemoneyz: 78G (0.8%, 646,539G)
