Final Bets: white - 9 bets for 5,299G (36.7%, x1.73); purple - 14 bets for 9,150G (63.3%, x0.58)

white bets:
NovaKnight21: 1,565G (29.5%, 1,565G)
BirbBrainsBot: 1,000G (18.9%, 111,917G)
Evewho: 524G (9.9%, 524G)
crimson_hellkite: 500G (9.4%, 3,000G)
Eyepoor_: 500G (9.4%, 2,991G)
solomongrundy85: 500G (9.4%, 19,243G)
ko2q: 348G (6.6%, 348G)
Miyokari: 300G (5.7%, 1,828G)
getthemoneyz: 62G (1.2%, 646,461G)

purple bets:
Lali_Lulelo: 1,943G (21.2%, 1,943G)
Phytik: 1,207G (13.2%, 16,511G)
HaplessOne: 1,111G (12.1%, 20,529G)
katgreen: 1,000G (10.9%, 1,273G)
leakimiko: 866G (9.5%, 5,775G)
superdevon1: 589G (6.4%, 11,786G)
Dexsana: 519G (5.7%, 519G)
volgrathemoose: 501G (5.5%, 2,602G)
Who_lio42: 500G (5.5%, 10,537G)
twelfthrootoftwo: 300G (3.3%, 1,819G)
ungabunga_bot: 264G (2.9%, 416,700G)
7Cerulean7: 150G (1.6%, 7,024G)
madman66666: 100G (1.1%, 5,019G)
datadrivenbot: 100G (1.1%, 13,071G)
