Final Bets: red - 10 bets for 7,285G (54.2%, x0.85); white - 10 bets for 6,158G (45.8%, x1.18)

red bets:
skipsandwiches: 1,893G (26.0%, 1,893G)
Willjin: 1,500G (20.6%, 21,727G)
BirbBrainsBot: 1,000G (13.7%, 171,109G)
CassiePhoenix: 1,000G (13.7%, 5,675G)
WhattayaBrian: 644G (8.8%, 644G)
Mister_Quof: 624G (8.6%, 624G)
WhiteTigress: 300G (4.1%, 2,934G)
datadrivenbot: 200G (2.7%, 66,147G)
ZephyrBurst83: 112G (1.5%, 112G)
getthemoneyz: 12G (0.2%, 1,659,023G)

white bets:
E_Ballard: 2,027G (32.9%, 2,027G)
Mesmaster: 1,000G (16.2%, 8,316G)
Tarheels218: 764G (12.4%, 764G)
AllInBot: 717G (11.6%, 717G)
SephDarkheart: 588G (9.5%, 120,069G)
roqqqpsi: 561G (9.1%, 4,316G)
gongonono: 150G (2.4%, 1,716G)
arctodus13: 128G (2.1%, 128G)
Lydian_C: 123G (2.0%, 12,646G)
ko2q: 100G (1.6%, 2,096G)
