Final Bets: black - 8 bets for 9,144G (37.7%, x1.65); brown - 21 bets for 15,113G (62.3%, x0.61)

black bets:
evontno: 3,000G (32.8%, 42,341G)
mpghappiness: 1,646G (18.0%, 1,646G)
DeathTaxesAndAnime: 1,603G (17.5%, 1,603G)
Zeroroute: 1,237G (13.5%, 1,237G)
Evewho: 1,197G (13.1%, 2,349G)
VolgraTheMoose: 201G (2.2%, 14,198G)
getthemoneyz: 160G (1.7%, 1,331,715G)
ohhinm: 100G (1.1%, 792G)

brown bets:
iBardic: 3,000G (19.9%, 3,325G)
NeonTarget: 2,202G (14.6%, 2,202G)
HaateXIII: 1,296G (8.6%, 1,296G)
twelfthrootoftwo: 1,078G (7.1%, 2,114G)
Thyrandaal: 1,000G (6.6%, 4,109G)
Xoomwaffle: 917G (6.1%, 917G)
red_celt: 796G (5.3%, 796G)
Monopool: 716G (4.7%, 716G)
Nizaha: 556G (3.7%, 23,924G)
TasisSai: 553G (3.7%, 1,085G)
reinoe: 500G (3.3%, 73,307G)
BirbBrainsBot: 472G (3.1%, 130,252G)
Kronikle: 424G (2.8%, 15,240G)
SephDarkheart: 332G (2.2%, 58,284G)
ZicaX: 321G (2.1%, 321G)
Treafa: 250G (1.7%, 395G)
AllInBot: 200G (1.3%, 200G)
datadrivenbot: 200G (1.3%, 34,035G)
nhammen: 100G (0.7%, 8,586G)
Heroebal: 100G (0.7%, 7,588G)
lyonslegacy: 100G (0.7%, 1,039G)
