Final Bets: white - 5 bets for 25,787G (65.9%, x0.52); black - 19 bets for 13,341G (34.1%, x1.93)

white bets:
ruleof5: 23,627G (91.6%, 47,255G)
Thyrandaal: 1,430G (5.5%, 1,430G)
Runeseeker22: 564G (2.2%, 564G)
Widewalk: 116G (0.4%, 116G)
king_smashington: 50G (0.2%, 754G)

black bets:
VolgraTheMoose: 1,869G (14.0%, 1,869G)
CosmicTactician: 1,203G (9.0%, 1,203G)
getthemoneyz: 1,000G (7.5%, 2,211,522G)
BirbBrainsBot: 1,000G (7.5%, 167,729G)
ExplanationMarkWow: 1,000G (7.5%, 34,858G)
TheBrett: 1,000G (7.5%, 17,233G)
DeathTaxesAndAnime: 984G (7.4%, 984G)
E_Ballard: 932G (7.0%, 932G)
krombobreaker: 500G (3.7%, 42,929G)
2b_yorha_b: 500G (3.7%, 36,166G)
ForagerCats: 500G (3.7%, 3,257G)
Lord_Gwarth: 500G (3.7%, 4,565G)
nhammen: 500G (3.7%, 500G)
ValensEXP_: 484G (3.6%, 484G)
DHaveWord: 472G (3.5%, 472G)
fistfulofbees13: 300G (2.2%, 531G)
AllInBot: 297G (2.2%, 297G)
datadrivenbot: 200G (1.5%, 80,317G)
Romebot: 100G (0.7%, 100G)
