Final Bets: red - 16 bets for 16,225G (49.3%, x1.03); blue - 28 bets for 16,656G (50.7%, x0.97)

red bets:
Nizaha: 6,812G (42.0%, 13,624G)
Aldrammech: 3,734G (23.0%, 3,734G)
TheChainNerd: 1,411G (8.7%, 7,056G)
kai_shee: 1,001G (6.2%, 146,938G)
ungabunga_bot: 1,000G (6.2%, 163,827G)
nifboy: 521G (3.2%, 521G)
fenaen: 500G (3.1%, 8,963G)
MattMan119: 300G (1.8%, 9,099G)
LazarusAjin: 207G (1.3%, 207G)
old_overholt_: 200G (1.2%, 6,110G)
commandlistfgc: 112G (0.7%, 112G)
SquidgyXom: 100G (0.6%, 4,908G)
SeniorBunk: 100G (0.6%, 3,926G)
Jerboj: 100G (0.6%, 42,352G)
SwaffleWaffles: 85G (0.5%, 2,859G)
getthemoneyz: 42G (0.3%, 498,618G)

blue bets:
ko2q: 4,440G (26.7%, 8,881G)
lohakilo: 1,278G (7.7%, 1,278G)
joewcarson: 1,001G (6.0%, 15,054G)
Mtueni: 1,000G (6.0%, 193,852G)
BirbBrainsBot: 1,000G (6.0%, 192,368G)
Lord_Burrah: 1,000G (6.0%, 95,953G)
ThePuss: 1,000G (6.0%, 2,686G)
DeathTaxesAndAnime: 901G (5.4%, 901G)
Laserman1000: 570G (3.4%, 20,070G)
OmnibotGamma: 500G (3.0%, 9,674G)
MalakoFox: 500G (3.0%, 19,321G)
fenixcrest: 490G (2.9%, 4,909G)
Baron_von_Scrub: 476G (2.9%, 20,268G)
HaateXIII: 396G (2.4%, 396G)
ZephyrTempest: 327G (2.0%, 80,053G)
astrozin11: 300G (1.8%, 4,300G)
moonliquor: 256G (1.5%, 256G)
GargantuaCat: 246G (1.5%, 246G)
Chuckolator: 223G (1.3%, 10,616G)
Mandoragan: 112G (0.7%, 112G)
SpookyCookieMonster: 108G (0.6%, 108G)
Lavatis: 104G (0.6%, 104G)
Tacobowl8: 104G (0.6%, 104G)
ApplesauceBoss: 100G (0.6%, 3,454G)
rNdOrchestra: 100G (0.6%, 1,252G)
datadrivenbot: 98G (0.6%, 100G)
DrAntiSocial: 25G (0.2%, 3,931G)
LordMaxoss: 1G (0.0%, 481G)
