Final Bets: green - 6 bets for 4,028G (26.9%, x2.72); yellow - 17 bets for 10,949G (73.1%, x0.37)

green bets:
NovaKnight21: 2,000G (49.7%, 7,458G)
getthemoneyz: 1,000G (24.8%, 2,083,880G)
fattunaking: 488G (12.1%, 488G)
killabandaid: 240G (6.0%, 240G)
Moshyhero: 200G (5.0%, 2,263G)
formalhault_: 100G (2.5%, 100G)

yellow bets:
Leonidusx: 2,000G (18.3%, 241,269G)
DeathTaxesAndAnime: 1,342G (12.3%, 1,342G)
BirbBrainsBot: 1,000G (9.1%, 163,984G)
latebit: 977G (8.9%, 977G)
MemoriesofFinal: 930G (8.5%, 930G)
seppu777: 911G (8.3%, 911G)
escobro: 667G (6.1%, 667G)
Laserman1000: 578G (5.3%, 10,878G)
krombobreaker: 500G (4.6%, 21,819G)
resjudicata3: 452G (4.1%, 452G)
3ngag3: 392G (3.6%, 392G)
TsukiNoHanaCh: 300G (2.7%, 1,349G)
AllInBot: 200G (1.8%, 200G)
Evewho: 200G (1.8%, 3,655G)
datadrivenbot: 200G (1.8%, 75,613G)
DocSTN: 200G (1.8%, 1,271G)
ayeCoop: 100G (0.9%, 269G)
