Final Bets: white - 8 bets for 2,836G (23.7%, x3.22); black - 13 bets for 9,131G (76.3%, x0.31)

white bets:
BirbBrainsBot: 1,000G (35.3%, 164,352G)
getthemoneyz: 426G (15.0%, 2,082,880G)
ValensEXP_: 396G (14.0%, 1,682G)
AllInBot: 274G (9.7%, 274G)
killabandaid: 240G (8.5%, 240G)
Moshyhero: 200G (7.1%, 2,063G)
Evewho: 200G (7.1%, 2,729G)
OneHundredFists: 100G (3.5%, 7,017G)

black bets:
NovaKnight21: 2,000G (21.9%, 5,458G)
latebit: 1,336G (14.6%, 1,336G)
sinnyil2: 1,200G (13.1%, 189,166G)
iBluntDouble: 1,102G (12.1%, 1,102G)
resjudicata3: 618G (6.8%, 618G)
Laserman1000: 591G (6.5%, 11,091G)
3ngag3: 536G (5.9%, 536G)
krombobreaker: 500G (5.5%, 22,003G)
bigbongsmoker: 348G (3.8%, 9,318G)
TsukiNoHanaCh: 300G (3.3%, 1,459G)
datadrivenbot: 200G (2.2%, 75,687G)
DocSTN: 200G (2.2%, 1,345G)
ayeCoop: 200G (2.2%, 306G)
