Final Bets: yellow - 8 bets for 6,672G (42.5%, x1.35); champion - 17 bets for 9,031G (57.5%, x0.74)

yellow bets:
OneHundredFists: 3,527G (52.9%, 6,917G)
latebit: 1,120G (16.8%, 1,120G)
Leonidusx: 1,000G (15.0%, 242,370G)
krombobreaker: 500G (7.5%, 21,958G)
escobro: 248G (3.7%, 1,989G)
scsuperstar: 100G (1.5%, 1,824G)
Bluebirdzontwitch: 100G (1.5%, 1,735G)
seppu777: 77G (1.2%, 1,078G)

champion bets:
TsukiNoHanaCh: 1,759G (19.5%, 1,759G)
Moshyhero: 1,500G (16.6%, 1,663G)
BirbBrainsBot: 1,000G (11.1%, 164,824G)
resjudicata3: 720G (8.0%, 1,413G)
getthemoneyz: 668G (7.4%, 2,081,946G)
Laserman1000: 590G (6.5%, 11,990G)
ser_pyrro: 550G (6.1%, 1,443G)
ValensEXP_: 396G (4.4%, 1,056G)
lijarkh: 388G (4.3%, 388G)
bigbongsmoker: 348G (3.9%, 8,753G)
iBluntDouble: 204G (2.3%, 204G)
AllInBot: 200G (2.2%, 200G)
DocSTN: 200G (2.2%, 1,265G)
datadrivenbot: 200G (2.2%, 75,669G)
ghazzzzzz: 108G (1.2%, 108G)
thunderducker: 100G (1.1%, 1,871G)
ayeCoop: 100G (1.1%, 168G)
