Final Bets: purple - 12 bets for 25,810G (89.4%, x0.12); brown - 7 bets for 3,056G (10.6%, x8.45)

purple bets:
upvla: 20,000G (77.5%, 45,131G)
DeathTaxesAndAnime: 1,528G (5.9%, 1,528G)
AllInBot: 1,180G (4.6%, 1,180G)
NicoSavoy: 1,000G (3.9%, 15,531G)
BirbBrainsBot: 640G (2.5%, 118,923G)
farside00831: 455G (1.8%, 455G)
bigbongsmoker: 284G (1.1%, 3,535G)
brodeity: 252G (1.0%, 252G)
datadrivenbot: 200G (0.8%, 56,977G)
khelor_: 136G (0.5%, 136G)
velvet_muffins: 100G (0.4%, 2,489G)
BartTradingCompany: 35G (0.1%, 356G)

brown bets:
getthemoneyz: 876G (28.7%, 1,875,763G)
Raixelol: 552G (18.1%, 29,091G)
ApplesNP: 500G (16.4%, 1,958G)
lowlf: 480G (15.7%, 3,941G)
helpimabug: 244G (8.0%, 244G)
iieunueii: 204G (6.7%, 204G)
Yangusburger: 200G (6.5%, 8,198G)
