Final Bets: purple - 13 bets for 10,711G (34.8%, x1.87); brown - 16 bets for 20,072G (65.2%, x0.53)

purple bets:
AllInBot: 2,240G (20.9%, 2,240G)
DarrenDinosaurs: 1,538G (14.4%, 1,538G)
Lord_Gwarth: 1,500G (14.0%, 9,224G)
dogsandcatsand: 1,025G (9.6%, 1,025G)
BirbBrainsBot: 1,000G (9.3%, 139,425G)
amiture: 1,000G (9.3%, 9,047G)
Shalloween: 788G (7.4%, 788G)
Lanshaft: 520G (4.9%, 11,577G)
ruleof5: 300G (2.8%, 10,580G)
reddwind_: 300G (2.8%, 31,991G)
ArlanKels: 224G (2.1%, 224G)
getthemoneyz: 176G (1.6%, 1,411,318G)
holdenmagronik: 100G (0.9%, 1,742G)

brown bets:
HaateXIII: 6,838G (34.1%, 6,838G)
E_Ballard: 2,768G (13.8%, 2,768G)
Shakarak: 2,000G (10.0%, 59,966G)
TheChainNerd: 1,913G (9.5%, 1,913G)
brokenknight201: 1,656G (8.3%, 1,656G)
SephDarkheart: 1,134G (5.6%, 1,134G)
DudeMonkey77: 1,046G (5.2%, 1,046G)
Nizaha: 592G (2.9%, 23,925G)
Firesheath: 564G (2.8%, 564G)
MLWebz0r: 500G (2.5%, 8,262G)
Hirameki85: 244G (1.2%, 7,959G)
thehotrefrigerator: 216G (1.1%, 216G)
datadrivenbot: 200G (1.0%, 45,635G)
Brainstew29: 200G (1.0%, 2,417G)
gorgewall: 101G (0.5%, 6,118G)
RuneS_77: 100G (0.5%, 12,069G)
