Final Bets: green - 13 bets for 6,151G (38.1%, x1.62); yellow - 16 bets for 9,994G (61.9%, x0.62)

green bets:
YaBoy125: 1,591G (25.9%, 53,063G)
BirbBrainsBot: 1,000G (16.3%, 71,217G)
OneHundredFists: 888G (14.4%, 888G)
Evewho: 456G (7.4%, 456G)
Humble_Fabio: 333G (5.4%, 1,321G)
kaelsun: 324G (5.3%, 324G)
GladiatorLupe: 300G (4.9%, 4,184G)
ColetteMSLP: 300G (4.9%, 1,119G)
getthemoneyz: 278G (4.5%, 971,347G)
Kyune: 250G (4.1%, 10,398G)
genericco: 232G (3.8%, 232G)
ANFz: 100G (1.6%, 1,290G)
CorpusCav: 99G (1.6%, 1,329G)

yellow bets:
DuraiPapers: 2,367G (23.7%, 2,367G)
DeathTaxesAndAnime: 1,225G (12.3%, 1,225G)
serperemagus: 1,000G (10.0%, 7,259G)
Monopool: 857G (8.6%, 857G)
Laserman1000: 850G (8.5%, 850G)
Cryptopsy70: 560G (5.6%, 16,373G)
prince_rogers_nelson_: 560G (5.6%, 560G)
Bilabrin: 413G (4.1%, 413G)
gorgewall: 401G (4.0%, 18,661G)
HaateXIII: 400G (4.0%, 1,754G)
foofermoofer: 361G (3.6%, 361G)
sososteve: 300G (3.0%, 4,457G)
JLinkletter: 300G (3.0%, 2,760G)
twelfthrootoftwo: 200G (2.0%, 590G)
AllInBot: 100G (1.0%, 100G)
datadrivenbot: 100G (1.0%, 44,371G)
