Final Bets: white - 17 bets for 12,440G (64.0%, x0.56); black - 11 bets for 6,998G (36.0%, x1.78)

white bets:
YaBoy125: 2,807G (22.6%, 56,148G)
Mesmaster: 2,000G (16.1%, 100,887G)
kaelsun: 1,350G (10.9%, 1,350G)
CorpusCav: 990G (8.0%, 990G)
Monopool: 808G (6.5%, 808G)
DuraiPapers: 744G (6.0%, 744G)
foofermoofer: 680G (5.5%, 680G)
Cryptopsy70: 560G (4.5%, 15,813G)
OneHundredFists: 500G (4.0%, 2,831G)
serperemagus: 500G (4.0%, 7,259G)
gorgewall: 401G (3.2%, 18,760G)
sososteve: 350G (2.8%, 4,157G)
Kyune: 250G (2.0%, 11,304G)
JLinkletter: 200G (1.6%, 2,460G)
ANFz: 100G (0.8%, 1,952G)
datadrivenbot: 100G (0.8%, 44,271G)
ko2q: 100G (0.8%, 9,107G)

black bets:
Evewho: 1,697G (24.2%, 1,697G)
genericco: 1,109G (15.8%, 1,109G)
BirbBrainsBot: 1,000G (14.3%, 72,842G)
Bilabrin: 744G (10.6%, 744G)
DeathTaxesAndAnime: 652G (9.3%, 652G)
Laserman1000: 528G (7.5%, 528G)
getthemoneyz: 518G (7.4%, 971,799G)
Lythe_Caraker: 250G (3.6%, 109,684G)
GladiatorLupe: 200G (2.9%, 5,675G)
twelfthrootoftwo: 200G (2.9%, 1,394G)
AllInBot: 100G (1.4%, 100G)
