Final Bets: red - 17 bets for 6,526G (48.6%, x1.06); green - 10 bets for 6,900G (51.4%, x0.95)

red bets:
Evewho: 1,000G (15.3%, 5,514G)
Bilabrin: 1,000G (15.3%, 7,051G)
OneHundredFists: 524G (8.0%, 524G)
MadnessR: 500G (7.7%, 10,769G)
genericco: 500G (7.7%, 3,876G)
moonliquor: 388G (5.9%, 388G)
roofiepops: 351G (5.4%, 351G)
kaelsun: 324G (5.0%, 324G)
Monopool: 308G (4.7%, 308G)
gorgewall: 301G (4.6%, 17,558G)
butterbelljedi: 300G (4.6%, 7,905G)
twelfthrootoftwo: 300G (4.6%, 1,950G)
sososteve: 250G (3.8%, 3,507G)
foofermoofer: 180G (2.8%, 180G)
AllInBot: 100G (1.5%, 100G)
serperemagus: 100G (1.5%, 7,518G)
datadrivenbot: 100G (1.5%, 44,071G)

green bets:
Mesmaster: 2,000G (29.0%, 102,480G)
YaBoy125: 1,724G (25.0%, 57,489G)
BirbBrainsBot: 1,000G (14.5%, 73,720G)
Kyune: 500G (7.2%, 11,304G)
getthemoneyz: 428G (6.2%, 973,638G)
Grandlanzer: 400G (5.8%, 8,386G)
ColetteMSLP: 300G (4.3%, 2,106G)
DuraiPapers: 248G (3.6%, 248G)
alithesillybird: 200G (2.9%, 4,401G)
CT_5_Holy: 100G (1.4%, 1,382G)
