Final Bets: green - 24 bets for 16,236G (40.6%, x1.47); yellow - 14 bets for 23,796G (59.4%, x0.68)

green bets:
E_Ballard: 3,394G (20.9%, 3,394G)
lowlf: 2,002G (12.3%, 31,005G)
SeedSC: 1,234G (7.6%, 227,186G)
rico_flex: 1,100G (6.8%, 23,628G)
cupholderr: 1,000G (6.2%, 59,718G)
ungabunga_bot: 1,000G (6.2%, 475,203G)
BirbBrainsBot: 1,000G (6.2%, 14,861G)
getthemoneyz: 1,000G (6.2%, 675,287G)
Lionhermit: 1,000G (6.2%, 48,955G)
CorpusCav: 888G (5.5%, 16,981G)
theNGUYENNER: 500G (3.1%, 16,091G)
Powermhero: 338G (2.1%, 4,138G)
Kyune: 316G (1.9%, 316G)
jtrap666: 273G (1.7%, 273G)
4shcrows: 208G (1.3%, 208G)
cougboi: 200G (1.2%, 11,169G)
monsturmilk: 100G (0.6%, 100G)
RunicMagus: 100G (0.6%, 46,981G)
vampyreinabox: 100G (0.6%, 1,061G)
Firesheath: 100G (0.6%, 24,804G)
datadrivenbot: 100G (0.6%, 13,114G)
Evewho: 100G (0.6%, 2,062G)
Antipathics: 100G (0.6%, 2,479G)
Jaritras: 83G (0.5%, 591G)

yellow bets:
Ungaiii: 14,445G (60.7%, 14,445G)
Virilikus: 5,000G (21.0%, 139,004G)
Zeroroute: 1,136G (4.8%, 1,136G)
Baron_von_Scrub: 535G (2.2%, 27,310G)
Drusic: 500G (2.1%, 16,080G)
EnemyController: 500G (2.1%, 233,138G)
eudes89: 500G (2.1%, 6,178G)
nifboy: 320G (1.3%, 320G)
metagameface: 244G (1.0%, 244G)
Ironzombie8: 200G (0.8%, 1,006G)
otakutaylor: 112G (0.5%, 112G)
FaytKion: 104G (0.4%, 104G)
Realitydown: 100G (0.4%, 4,833G)
rjA0zcOQ96: 100G (0.4%, 21,015G)
