Final Bets: blue - 25 bets for 16,157G (54.5%, x0.83); yellow - 14 bets for 13,477G (45.5%, x1.20)

blue bets:
lowlf: 2,002G (12.4%, 27,877G)
LASERJESUS1337: 2,000G (12.4%, 75,454G)
Lionhermit: 1,500G (9.3%, 47,427G)
SeedSC: 1,234G (7.6%, 225,952G)
Lali_Lulelo: 1,071G (6.6%, 1,071G)
EnemyController: 1,000G (6.2%, 233,417G)
BirbBrainsBot: 1,000G (6.2%, 12,870G)
NicoSavoy: 1,000G (6.2%, 8,540G)
ungabunga_bot: 719G (4.5%, 474,462G)
Laserman1000: 700G (4.3%, 27,000G)
nifboy: 538G (3.3%, 538G)
Drusic: 500G (3.1%, 16,359G)
cupholderr: 500G (3.1%, 58,318G)
eudes89: 500G (3.1%, 5,519G)
electric_glass: 400G (2.5%, 9,415G)
theNGUYENNER: 300G (1.9%, 15,391G)
4shcrows: 208G (1.3%, 208G)
KasugaiRoastedPeas: 200G (1.2%, 1,756G)
grayeternity: 200G (1.2%, 7,917G)
otakutaylor: 165G (1.0%, 165G)
RunicMagus: 100G (0.6%, 46,925G)
Antipathics: 100G (0.6%, 2,323G)
datadrivenbot: 100G (0.6%, 13,105G)
getthemoneyz: 70G (0.4%, 673,765G)
cougboi: 50G (0.3%, 11,050G)

yellow bets:
Virilikus: 5,000G (37.1%, 143,762G)
Ungaiii: 2,000G (14.8%, 25,176G)
sinnyil2: 1,200G (8.9%, 39,870G)
SkylerBunny: 1,000G (7.4%, 54,070G)
Rislyeu: 943G (7.0%, 943G)
metagameface: 867G (6.4%, 867G)
ApplesauceBoss: 677G (5.0%, 677G)
Zeroroute: 600G (4.5%, 600G)
bahamutlagooon: 326G (2.4%, 6,525G)
Kyune: 316G (2.3%, 316G)
AUrato: 200G (1.5%, 2,074G)
monsturmilk: 144G (1.1%, 144G)
FaytKion: 104G (0.8%, 104G)
rjA0zcOQ96: 100G (0.7%, 11,174G)
