Final Bets: green - 13 bets for 9,508G (19.5%, x4.14); champion - 9 bets for 39,324G (80.5%, x0.24)

green bets:
VolgraTheMoose: 2,001G (21.0%, 30,915G)
Skyridge0: 1,500G (15.8%, 48,173G)
Mushufasa_: 1,234G (13.0%, 144,246G)
helpimabug: 1,001G (10.5%, 5,663G)
BirbBrainsBot: 1,000G (10.5%, 166,976G)
Evewho: 644G (6.8%, 644G)
MemoriesofFinal: 550G (5.8%, 550G)
ColetteMSLP: 484G (5.1%, 8,918G)
Genkidou: 300G (3.2%, 2,406G)
getthemoneyz: 266G (2.8%, 2,128,682G)
datadrivenbot: 200G (2.1%, 81,800G)
TheSabretoothe: 200G (2.1%, 643G)
VynxYukida: 128G (1.3%, 128G)

champion bets:
OneHundredFists: 33,323G (84.7%, 65,340G)
2b_yorha_b: 1,796G (4.6%, 1,796G)
TheBrett: 1,207G (3.1%, 1,207G)
HorusTaurus: 1,000G (2.5%, 6,233G)
E_Ballard: 840G (2.1%, 840G)
FatTunaKing: 528G (1.3%, 528G)
Sharosa: 226G (0.6%, 226G)
b0lt: 204G (0.5%, 204G)
AllInBot: 200G (0.5%, 200G)
