Final Bets: white - 10 bets for 261,871G (86.2%, x0.16); purple - 42 bets for 41,807G (13.8%, x6.26)

white bets:
AllInBot: 253,933G (97.0%, 253,933G)
0v3rr8d: 5,214G (2.0%, 5,214G)
reinoe: 1,000G (0.4%, 20,772G)
WireLord: 492G (0.2%, 492G)
DustBirdEX: 400G (0.2%, 4,668G)
fallendj77: 248G (0.1%, 248G)
Sairentozon7: 200G (0.1%, 1,480G)
RainbowHeavy: 183G (0.1%, 183G)
ungabunga_bot: 101G (0.0%, 107,913G)
Aneyus: 100G (0.0%, 10,177G)

purple bets:
alecttox: 4,000G (9.6%, 40,000G)
alrightbye: 3,214G (7.7%, 3,214G)
KaLam1ty: 3,000G (7.2%, 10,651G)
PatSouI: 2,827G (6.8%, 2,827G)
HaplessOne: 2,500G (6.0%, 126,866G)
pandasforsale: 2,277G (5.4%, 2,277G)
stukerk: 2,254G (5.4%, 2,254G)
ll_aja_ll: 2,000G (4.8%, 5,159G)
bpc2163: 2,000G (4.8%, 6,554G)
PotionDweller: 2,000G (4.8%, 6,165G)
OneHundredFists: 1,707G (4.1%, 1,707G)
lijarkh: 1,000G (2.4%, 2,525G)
waterwatereverywhere: 1,000G (2.4%, 6,409G)
BirbBrainsBot: 1,000G (2.4%, 60,939G)
DarrenDinosaurs: 770G (1.8%, 770G)
Arkreaver: 687G (1.6%, 687G)
leakimiko: 600G (1.4%, 600G)
V3rdeni: 600G (1.4%, 2,848G)
UmaiJam: 592G (1.4%, 592G)
mirapoix: 572G (1.4%, 572G)
sinnyil2: 568G (1.4%, 568G)
BoneMiser: 560G (1.3%, 560G)
ZZ_Yoshi: 500G (1.2%, 2,995G)
Gelwain: 492G (1.2%, 492G)
datadrivenbot: 477G (1.1%, 20,040G)
Lali_Lulelo: 444G (1.1%, 444G)
DeathTaxesAndAnime: 420G (1.0%, 420G)
Willjin: 416G (1.0%, 416G)
DejaPoo21: 384G (0.9%, 384G)
DHaveWord: 364G (0.9%, 364G)
HaateXIII: 352G (0.8%, 352G)
TheOneRanger: 316G (0.8%, 316G)
CapnChaos12: 300G (0.7%, 4,359G)
Conome: 256G (0.6%, 256G)
JackOnFire1: 256G (0.6%, 256G)
Pah_J: 252G (0.6%, 252G)
NoNotBees: 228G (0.5%, 228G)
getthemoneyz: 178G (0.4%, 469,513G)
NytFantom: 132G (0.3%, 132G)
pedrossj: 112G (0.3%, 112G)
lawnboxer: 100G (0.2%, 18,532G)
Heroebal: 100G (0.2%, 2,882G)
