Final Bets: white - 12 bets for 8,301G (57.3%, x0.74); black - 9 bets for 6,177G (42.7%, x1.34)

white bets:
ColetteMSLP: 1,537G (18.5%, 1,537G)
BirbBrainsBot: 1,000G (12.0%, 138,431G)
Lythe_Caraker: 1,000G (12.0%, 156,957G)
Laserman1000: 834G (10.0%, 2,934G)
HaateXIII: 808G (9.7%, 808G)
getthemoneyz: 612G (7.4%, 1,329,910G)
dtrain332: 559G (6.7%, 559G)
pLifer: 517G (6.2%, 517G)
iBardic: 500G (6.0%, 1,901G)
randgridr: 428G (5.2%, 8,463G)
twelfthrootoftwo: 306G (3.7%, 600G)
datadrivenbot: 200G (2.4%, 33,327G)

black bets:
TheMurkGnome: 1,076G (17.4%, 1,076G)
nifboy: 1,000G (16.2%, 8,097G)
Smokegiant: 1,000G (16.2%, 6,368G)
DamnThatShark: 1,000G (16.2%, 2,420G)
amiture: 1,000G (16.2%, 4,580G)
CT_5_Holy: 500G (8.1%, 2,153G)
gorgewall: 201G (3.3%, 6,635G)
AllInBot: 200G (3.2%, 200G)
JLinkletter: 200G (3.2%, 2,826G)
