Final Bets: brown - 11 bets for 8,036G (24.2%, x3.13); champion - 13 bets for 25,155G (75.8%, x0.32)

brown bets:
SkyridgeZero: 1,500G (18.7%, 39,884G)
JLinkletter: 1,202G (15.0%, 2,357G)
BirbBrainsBot: 1,000G (12.4%, 137,512G)
iBardic: 1,000G (12.4%, 2,445G)
pandasforsale: 777G (9.7%, 17,516G)
dtrain332: 558G (6.9%, 558G)
getthemoneyz: 546G (6.8%, 1,330,342G)
superdevon1: 471G (5.9%, 3,142G)
randgridr: 432G (5.4%, 7,891G)
ColetteMSLP: 400G (5.0%, 1,857G)
ar_tactic: 150G (1.9%, 79,999G)

champion bets:
nifboy: 5,507G (21.9%, 11,015G)
AllInBot: 4,688G (18.6%, 4,688G)
Firesheath: 4,108G (16.3%, 4,108G)
pLifer: 3,734G (14.8%, 3,734G)
amiture: 2,981G (11.9%, 2,981G)
twelfthrootoftwo: 1,250G (5.0%, 1,250G)
Zachara: 1,142G (4.5%, 137,142G)
HaateXIII: 808G (3.2%, 808G)
chloromaster: 236G (0.9%, 236G)
gorgewall: 201G (0.8%, 6,488G)
datadrivenbot: 200G (0.8%, 33,529G)
nok____: 200G (0.8%, 5,460G)
CT_5_Holy: 100G (0.4%, 1,557G)
