Final Bets: black - 24 bets for 13,383G (68.1%, x0.47); brown - 10 bets for 6,273G (31.9%, x2.13)

black bets:
PatSouI: 2,868G (21.4%, 2,868G)
Etce: 1,438G (10.7%, 1,438G)
Goust18: 1,000G (7.5%, 14,259G)
KingGoldenPanda: 1,000G (7.5%, 8,932G)
BirbBrainsBot: 1,000G (7.5%, 80,278G)
bad1dea: 1,000G (7.5%, 305,071G)
UmaiJam: 838G (6.3%, 8,385G)
ko2q: 716G (5.4%, 716G)
ensiron: 553G (4.1%, 553G)
waterwatereverywhere: 516G (3.9%, 516G)
megaman2202: 368G (2.7%, 368G)
SpaZmodeus: 333G (2.5%, 2,196G)
rechaun: 288G (2.2%, 288G)
ZephyrTempest: 238G (1.8%, 15,187G)
volgrathemoose: 223G (1.7%, 1,187G)
Jadistk: 208G (1.6%, 208G)
Treapvort: 200G (1.5%, 13,183G)
Cataphract116: 200G (1.5%, 691G)
Oshimi12: 100G (0.7%, 1,803G)
PlatinumPlume: 100G (0.7%, 11,561G)
wizblizz: 100G (0.7%, 1,451G)
getthemoneyz: 68G (0.5%, 409,126G)
jhazor: 27G (0.2%, 559G)
daveb_: 1G (0.0%, 1,809G)

brown bets:
DeathTaxesAndAnime: 1,750G (27.9%, 3,488G)
Eldente: 1,547G (24.7%, 77,395G)
Laserman1000: 735G (11.7%, 7,335G)
JustSuperish: 500G (8.0%, 3,811G)
HaplessOne: 500G (8.0%, 15,926G)
FoxtrotNovemberCharlie: 348G (5.5%, 348G)
Jordache7K: 333G (5.3%, 17,312G)
JumbocactuarX27: 260G (4.1%, 260G)
ugoplatamia: 200G (3.2%, 4,275G)
McGooferson: 100G (1.6%, 815G)
