Final Bets: red - 8 bets for 1,368G (13.9%, x6.17); yellow - 14 bets for 8,444G (86.1%, x0.16)

red bets:
Zagorsek: 508G (37.1%, 508G)
butterbelljedi: 200G (14.6%, 3,012G)
getthemoneyz: 160G (11.7%, 1,445,149G)
jeffersonsa: 100G (7.3%, 1,099G)
Firesheath: 100G (7.3%, 3,694G)
gooblz: 100G (7.3%, 1,416G)
resjudicata3: 100G (7.3%, 1,571G)
Calajo: 100G (7.3%, 1,796G)

yellow bets:
Shalloween: 1,400G (16.6%, 20,090G)
BirbBrainsBot: 1,000G (11.8%, 33,064G)
reinoe: 1,000G (11.8%, 146,025G)
NIghtdew14: 929G (11.0%, 3,717G)
VolgraTheMoose: 838G (9.9%, 1,676G)
acid_flashback: 784G (9.3%, 15,698G)
Nizaha: 612G (7.2%, 9,475G)
Laserman1000: 530G (6.3%, 10,530G)
AllInBot: 505G (6.0%, 505G)
Chambs12: 314G (3.7%, 314G)
datadrivenbot: 200G (2.4%, 48,631G)
slotheye17: 132G (1.6%, 132G)
HolyDragoonXIV: 100G (1.2%, 1,392G)
Thyrandaal: 100G (1.2%, 30,046G)
