Final Bets: red - 16 bets for 9,355G (53.6%, x0.87); blue - 16 bets for 8,112G (46.4%, x1.15)

red bets:
NovaKnight21: 2,000G (21.4%, 23,736G)
Aldrammech: 1,657G (17.7%, 1,657G)
LDSkinny: 1,000G (10.7%, 25,986G)
killth3kid: 716G (7.7%, 71,606G)
mpghappiness: 560G (6.0%, 4,942G)
dogsandcatsand: 508G (5.4%, 19,187G)
RaIshtar: 500G (5.3%, 35,522G)
TheMurkGnome: 437G (4.7%, 437G)
Digitalsocrates: 412G (4.4%, 3,172G)
Shalloween: 400G (4.3%, 60,063G)
TasisSai: 365G (3.9%, 365G)
dantayystv: 300G (3.2%, 4,294G)
datadrivenbot: 200G (2.1%, 60,482G)
Ring_Wyrm: 100G (1.1%, 14,856G)
nhammen: 100G (1.1%, 10,065G)
KSops: 100G (1.1%, 544G)

blue bets:
DeathTaxesAndAnime: 1,790G (22.1%, 1,790G)
BirbBrainsBot: 1,000G (12.3%, 67,401G)
HaateXIII: 908G (11.2%, 908G)
prince_rogers_nelson_: 832G (10.3%, 832G)
gorgewall: 636G (7.8%, 636G)
Ross_from_Cali: 619G (7.6%, 619G)
Breakdown777: 500G (6.2%, 3,665G)
serperemagus: 439G (5.4%, 439G)
randgridr: 276G (3.4%, 276G)
benticore: 250G (3.1%, 12,700G)
sososteve: 200G (2.5%, 2,481G)
Grandlanzer: 200G (2.5%, 72,394G)
Vacillents: 150G (1.8%, 4,054G)
Lydian_C: 121G (1.5%, 96,958G)
Powermhero: 107G (1.3%, 26,187G)
getthemoneyz: 84G (1.0%, 1,267,529G)
