Final Bets: red - 9 bets for 6,503G (26.8%, x2.73); yellow - 15 bets for 17,722G (73.2%, x0.37)

red bets:
Thyrandaal: 2,000G (30.8%, 88,129G)
thunderducker: 1,229G (18.9%, 2,458G)
BirbBrainsBot: 1,000G (15.4%, 91,074G)
NicoSavoy: 1,000G (15.4%, 30,731G)
Smashy: 500G (7.7%, 10,471G)
AllInBot: 428G (6.6%, 428G)
douchetron: 236G (3.6%, 236G)
krombobreaker: 100G (1.5%, 1,338G)
Aldrammech: 10G (0.2%, 35,632G)

yellow bets:
Virilikus: 10,000G (56.4%, 232,637G)
SkylerBunny: 1,400G (7.9%, 11,516G)
JCBooBot: 1,000G (5.6%, 34,262G)
Leonidusx: 1,000G (5.6%, 2,071G)
Lord_Gwarth: 1,000G (5.6%, 3,548G)
BaronHaynes: 500G (2.8%, 27,915G)
latebit: 496G (2.8%, 496G)
run_with_stone_GUNs: 492G (2.8%, 6,152G)
MemoriesofFinal: 486G (2.7%, 486G)
getthemoneyz: 340G (1.9%, 1,765,948G)
Starfire6789: 288G (1.6%, 288G)
JherrichoWulf: 240G (1.4%, 240G)
Twisted_Nutsatchel: 200G (1.1%, 24,160G)
PuzzleSecretary: 160G (0.9%, 2,265G)
WesSideVandal: 120G (0.7%, 120G)
