Final Bets: black - 16 bets for 23,730G (79.3%, x0.26); brown - 12 bets for 6,176G (20.7%, x3.84)

black bets:
NicoSavoy: 14,865G (62.6%, 29,731G)
SkylerBunny: 2,000G (8.4%, 12,030G)
ANFz: 1,320G (5.6%, 1,320G)
BirbBrainsBot: 1,000G (4.2%, 90,074G)
BaronHaynes: 1,000G (4.2%, 28,098G)
MemoriesofFinal: 668G (2.8%, 668G)
Smashy: 500G (2.1%, 9,971G)
Shalloween: 500G (2.1%, 36,186G)
poorest_hobo: 437G (1.8%, 43,933G)
CorpusCav: 400G (1.7%, 4,453G)
Starfire6789: 394G (1.7%, 394G)
douchetron: 236G (1.0%, 236G)
onehitslay: 200G (0.8%, 1,821G)
WesSideVandal: 164G (0.7%, 164G)
getthemoneyz: 36G (0.2%, 1,766,073G)
Aldrammech: 10G (0.0%, 35,622G)

brown bets:
Virilikus: 2,000G (32.4%, 236,306G)
JCBooBot: 1,000G (16.2%, 34,629G)
Wrath189: 1,000G (16.2%, 11,196G)
latebit: 678G (11.0%, 678G)
Lord_Gwarth: 337G (5.5%, 3,915G)
gorgewall: 301G (4.9%, 1,599G)
astrozin11: 300G (4.9%, 2,572G)
PuzzleSecretary: 160G (2.6%, 2,324G)
AllInBot: 100G (1.6%, 100G)
RunicMagus: 100G (1.6%, 2,452G)
krombobreaker: 100G (1.6%, 1,238G)
Leonidusx: 100G (1.6%, 2,438G)
