Final Bets: red - 13 bets for 11,438G (55.9%, x0.79); blue - 20 bets for 9,023G (44.1%, x1.27)

red bets:
HASTERIOUS: 5,594G (48.9%, 42,070G)
BirbBrainsBot: 1,000G (8.7%, 117,293G)
inzo_bettingbot: 1,000G (8.7%, 57,100G)
bad1dea: 1,000G (8.7%, 327,061G)
SkylerBunny: 994G (8.7%, 994G)
getthemoneyz: 540G (4.7%, 404,907G)
Lionhermit: 500G (4.4%, 520G)
alecttox: 300G (2.6%, 17,850G)
TheRobbieRobster: 160G (1.4%, 160G)
BadBlanket: 100G (0.9%, 1,717G)
RezzaDV: 100G (0.9%, 451G)
Staldus: 100G (0.9%, 1,342G)
sixstop: 50G (0.4%, 1,806G)

blue bets:
jethrothrul: 1,255G (13.9%, 1,255G)
sinnyil2: 1,200G (13.3%, 37,495G)
RongRongArts: 1,000G (11.1%, 8,087G)
UmaiJam: 854G (9.5%, 8,540G)
SleepyBenzo: 720G (8.0%, 720G)
waterwatereverywhere: 520G (5.8%, 520G)
LanseDM: 508G (5.6%, 508G)
Treapvort: 500G (5.5%, 22,547G)
NovaKnight21: 460G (5.1%, 460G)
ZZ_Yoshi: 422G (4.7%, 422G)
Yasmosis: 232G (2.6%, 232G)
ugoplatamia: 200G (2.2%, 17,263G)
KasugaiRoastedPeas: 200G (2.2%, 28,536G)
mirapoix: 200G (2.2%, 895G)
Reiniku: 200G (2.2%, 200G)
InOzWeTrust: 152G (1.7%, 152G)
Spirit_NB: 100G (1.1%, 1,438G)
Basmal: 100G (1.1%, 37,127G)
Lythe_Caraker: 100G (1.1%, 44,706G)
datadrivenbot: 100G (1.1%, 16,641G)
