Final Bets: yellow - 19 bets for 13,314G (64.5%, x0.55); black - 14 bets for 7,337G (35.5%, x1.81)

yellow bets:
alecttox: 5,000G (37.6%, 17,851G)
Basmal: 1,000G (7.5%, 40,826G)
RongRongArts: 1,000G (7.5%, 9,883G)
BirbBrainsBot: 1,000G (7.5%, 116,550G)
inzo_bettingbot: 1,000G (7.5%, 58,357G)
bad1dea: 1,000G (7.5%, 326,318G)
NovaKnight21: 730G (5.5%, 1,460G)
demi_fiend_: 300G (2.3%, 700G)
ColetteMSLP: 300G (2.3%, 6,139G)
getthemoneyz: 258G (1.9%, 405,437G)
Lythe_Caraker: 250G (1.9%, 46,845G)
SeedSC: 250G (1.9%, 61,020G)
jhazor: 216G (1.6%, 216G)
Adam1949: 210G (1.6%, 210G)
ugoplatamia: 200G (1.5%, 17,304G)
KasugaiRoastedPeas: 200G (1.5%, 29,747G)
Evewho: 200G (1.5%, 4,664G)
Treapvort: 100G (0.8%, 23,033G)
kingchadking: 100G (0.8%, 45,855G)

black bets:
LanseDM: 2,000G (27.3%, 12,596G)
sinnyil2: 1,200G (16.4%, 36,021G)
OmnibotGamma: 1,000G (13.6%, 9,808G)
UmaiJam: 767G (10.5%, 7,678G)
I_nod_my_head_when_I_lose: 750G (10.2%, 10,346G)
Shalloween: 400G (5.5%, 44,341G)
Staldus: 300G (4.1%, 1,521G)
evdoggity: 200G (2.7%, 2,201G)
liiun: 200G (2.7%, 281G)
InOzWeTrust: 120G (1.6%, 120G)
BadBlanket: 100G (1.4%, 3,397G)
RezzaDV: 100G (1.4%, 658G)
Spirit_NB: 100G (1.4%, 1,238G)
datadrivenbot: 100G (1.4%, 16,196G)
