Final Bets: red - 5 bets for 4,728G (23.8%, x3.19); champion - 19 bets for 15,097G (76.2%, x0.31)

red bets:
superdevon1: 3,369G (71.3%, 11,233G)
Willjin: 659G (13.9%, 659G)
Tithonus: 300G (6.3%, 15,527G)
DaveStrider55: 300G (6.3%, 3,171G)
AlysSariel: 100G (2.1%, 1,522G)

champion bets:
WireLord: 2,000G (13.2%, 28,646G)
sinnyil2: 1,596G (10.6%, 3,193G)
leakimiko: 1,537G (10.2%, 30,743G)
reinoe: 1,500G (9.9%, 13,301G)
HASTERIOUS: 1,334G (8.8%, 1,334G)
ungabunga_bot: 1,000G (6.6%, 97,028G)
BirbBrainsBot: 1,000G (6.6%, 58,473G)
OneHundredFists: 1,000G (6.6%, 2,351G)
datadrivenbot: 866G (5.7%, 21,288G)
Treapvort: 829G (5.5%, 829G)
V3rdeni: 800G (5.3%, 3,104G)
CapnChaos12: 416G (2.8%, 416G)
ZephyrTempest: 355G (2.4%, 50,670G)
BlinkFS: 200G (1.3%, 6,473G)
Sairentozon7: 200G (1.3%, 3,472G)
Part_Ways: 164G (1.1%, 164G)
AllInBot: 100G (0.7%, 100G)
Firesheath: 100G (0.7%, 888G)
michio_plays: 100G (0.7%, 100G)
