Final Bets: purple - 22 bets for 13,294G (66.0%, x0.52); brown - 11 bets for 6,856G (34.0%, x1.94)

purple bets:
HaateXIII: 4,121G (31.0%, 8,243G)
TheChainNerd: 1,991G (15.0%, 11,991G)
DLJuggernaut: 1,000G (7.5%, 16,188G)
CaptainGarlock: 1,000G (7.5%, 27,349G)
Laserman1000: 900G (6.8%, 19,900G)
JumbocactuarX27: 501G (3.8%, 501G)
Soltaker21: 500G (3.8%, 2,467G)
letdowncity: 500G (3.8%, 15,440G)
Thyrandaal: 409G (3.1%, 409G)
joewcarson: 400G (3.0%, 60,730G)
ShintaroNayaka: 400G (3.0%, 10,023G)
Bilabrin: 344G (2.6%, 344G)
CosmicTactician: 300G (2.3%, 23,231G)
theshinyakuma: 128G (1.0%, 128G)
AllInBot: 100G (0.8%, 100G)
E_Ballard: 100G (0.8%, 6,082G)
kablooadoo: 100G (0.8%, 100G)
RuneS_77: 100G (0.8%, 10,699G)
Quadh0nk: 100G (0.8%, 418G)
datadrivenbot: 100G (0.8%, 35,489G)
Miku_Shikhu: 100G (0.8%, 15,982G)
cogniv0r3: 100G (0.8%, 540G)

brown bets:
prince_rogers_nelson_: 1,368G (20.0%, 1,368G)
BirbBrainsBot: 1,000G (14.6%, 114,663G)
metagameface: 1,000G (14.6%, 6,098G)
superdevon1: 929G (13.6%, 929G)
Anasetsuken: 688G (10.0%, 1,376G)
killth3kid: 507G (7.4%, 507G)
getthemoneyz: 496G (7.2%, 913,453G)
DustBirdEX: 352G (5.1%, 352G)
Meta_Five: 200G (2.9%, 4,639G)
KasugaiRoastedPeas: 200G (2.9%, 1,932G)
jame3200: 116G (1.7%, 116G)
