Player: !Green
Team: Green Team
Palettes: Green/White



Just Here2
Monster
Aries
47
66
Chocobo










SephDarkheart
Monster
Gemini
58
65
Revenant










Bongomon7
Monster
Scorpio
61
78
Black Chocobo










Grininda
Male
Aquarius
43
76
Ninja
Jump
Meatbone Slash
Short Status
Move+3

Assassin Dagger
Flame Whip
Triangle Hat
Clothes
Germinas Boots

Shuriken, Knife
Level Jump8, Vertical Jump4
