Final Bets: purple - 11 bets for 10,861G (52.3%, x0.91); brown - 20 bets for 9,892G (47.7%, x1.10)

purple bets:
DarrenDinosaurs: 4,097G (37.7%, 4,097G)
SkylerBunny: 1,500G (13.8%, 515,921G)
RampagingRobot: 1,469G (13.5%, 1,469G)
MagicBottle: 1,371G (12.6%, 1,371G)
superdevon1: 804G (7.4%, 804G)
prince_rogers_nelson_: 726G (6.7%, 726G)
killth3kid: 444G (4.1%, 3,399G)
ar_tactic: 150G (1.4%, 60,258G)
thewondertrickster: 100G (0.9%, 1,713G)
Thyrandaal: 100G (0.9%, 11,244G)
Sans_from_Snowdin: 100G (0.9%, 20,545G)

brown bets:
UmaiJam: 1,300G (13.1%, 31,322G)
helpimabug: 1,001G (10.1%, 2,493G)
electric_algus: 1,000G (10.1%, 23,878G)
Mudrockk: 1,000G (10.1%, 2,829G)
BirbBrainsBot: 1,000G (10.1%, 114,389G)
getthemoneyz: 732G (7.4%, 1,106,560G)
reinoe: 728G (7.4%, 1,457G)
gamesage53: 541G (5.5%, 541G)
twelfthrootoftwo: 500G (5.1%, 11,872G)
HaateXIII: 500G (5.1%, 2,959G)
sososteve: 350G (3.5%, 4,794G)
Tithonus: 340G (3.4%, 340G)
CosmicTactician: 200G (2.0%, 21,153G)
Firesheath: 100G (1.0%, 16,162G)
DAC169: 100G (1.0%, 929G)
nifboy: 100G (1.0%, 3,416G)
Ring_Wyrm: 100G (1.0%, 1,065G)
Neo_Exodus: 100G (1.0%, 2,788G)
tacodevourer: 100G (1.0%, 493G)
datadrivenbot: 100G (1.0%, 47,669G)
