Final Bets: purple - 21 bets for 8,769G (50.2%, x0.99); brown - 22 bets for 8,716G (49.8%, x1.01)

purple bets:
BirbBrainsBot: 1,000G (11.4%, 186,495G)
Jerboj: 1,000G (11.4%, 42,412G)
reinoe: 1,000G (11.4%, 18,463G)
maakur_: 512G (5.8%, 512G)
old_overholt_: 500G (5.7%, 5,531G)
MrFlabyo: 500G (5.7%, 11,513G)
ShintaroNayaka: 500G (5.7%, 24,081G)
Shalloween: 500G (5.7%, 32,900G)
getthemoneyz: 486G (5.5%, 502,347G)
DeathTaxesAndAnime: 456G (5.2%, 456G)
OmnibotGamma: 404G (4.6%, 404G)
LazarusAjin: 387G (4.4%, 387G)
Skarthe: 300G (3.4%, 1,778G)
Chuckolator: 264G (3.0%, 4,244G)
0utlier: 236G (2.7%, 236G)
newbie404: 224G (2.6%, 224G)
ApplesauceBoss: 100G (1.1%, 3,713G)
Tougou: 100G (1.1%, 5,343G)
ANFz: 100G (1.1%, 5,385G)
GrandmasterFrankerZ: 100G (1.1%, 1,254G)
Tacobowl8: 100G (1.1%, 3,364G)

brown bets:
sinnyil2: 1,209G (13.9%, 40,574G)
TheChainNerd: 1,000G (11.5%, 5,130G)
fenaen: 700G (8.0%, 11,609G)
KasugaiRoastedPeas: 700G (8.0%, 5,244G)
Pie108: 700G (8.0%, 24,506G)
waterwatereverywhere: 553G (6.3%, 553G)
JumbocactuarX27: 500G (5.7%, 1,808G)
catfashions: 500G (5.7%, 4,924G)
arch8000: 378G (4.3%, 12,611G)
DrAntiSocial: 348G (4.0%, 348G)
Slowbrofist: 344G (3.9%, 344G)
rechaun: 332G (3.8%, 332G)
holyonline: 328G (3.8%, 328G)
ungabunga_bot: 296G (3.4%, 153,809G)
nifboy: 209G (2.4%, 2,099G)
Slider1012: 100G (1.1%, 359G)
Jordache7K: 100G (1.1%, 24,467G)
LordHalfrican: 100G (1.1%, 100G)
lohakilo: 100G (1.1%, 345G)
glastonberry48: 100G (1.1%, 2,363G)
datadrivenbot: 64G (0.7%, 100G)
daveb_: 55G (0.6%, 1,998G)
