Final Bets: red - 19 bets for 16,065G (70.8%, x0.41); white - 14 bets for 6,639G (29.2%, x2.42)

red bets:
reinoe: 4,010G (25.0%, 8,020G)
HaateXIII: 2,412G (15.0%, 2,412G)
killth3kid: 2,000G (12.4%, 85,230G)
Dexsana: 1,530G (9.5%, 1,530G)
Lydian_C: 1,200G (7.5%, 4,210G)
Aldrammech: 1,000G (6.2%, 12,996G)
mpghappiness: 1,000G (6.2%, 9,355G)
DustBirdEX: 573G (3.6%, 9,806G)
HaplessOne: 526G (3.3%, 4,526G)
ScootyPff: 405G (2.5%, 405G)
vorap: 300G (1.9%, 39,997G)
grayeternity: 300G (1.9%, 870G)
Velixtra: 188G (1.2%, 2,188G)
ANFz: 121G (0.8%, 51,048G)
Dymntd: 100G (0.6%, 13,326G)
DHaveWord: 100G (0.6%, 2,879G)
run_with_stone_GUNs: 100G (0.6%, 8,033G)
datadrivenbot: 100G (0.6%, 12,991G)
Arkreaver: 100G (0.6%, 11,562G)

white bets:
nifboy: 1,139G (17.2%, 1,139G)
ungabunga_bot: 1,000G (15.1%, 467,210G)
Lionhermit: 1,000G (15.1%, 42,071G)
DLJuggernaut: 750G (11.3%, 7,970G)
eudes89: 500G (7.5%, 4,511G)
dogsandcatsand: 500G (7.5%, 6,875G)
Billybones5150: 500G (7.5%, 27,521G)
genericco: 280G (4.2%, 280G)
getthemoneyz: 262G (3.9%, 673,555G)
theanonymouslurker: 208G (3.1%, 208G)
BirbBrainsBot: 200G (3.0%, 200G)
daveb_: 100G (1.5%, 2,995G)
Kronikle: 100G (1.5%, 2,559G)
rjA0zcOQ96: 100G (1.5%, 12,914G)
