Final Bets: white - 14 bets for 12,493G (65.8%, x0.52); purple - 14 bets for 6,484G (34.2%, x1.93)

white bets:
DavenIII: 3,000G (24.0%, 10,224G)
joewcarson: 2,000G (16.0%, 45,662G)
OneHundredFists: 1,624G (13.0%, 3,185G)
toka222: 1,500G (12.0%, 37,915G)
NovaKnight21: 1,410G (11.3%, 1,410G)
BirbBrainsBot: 1,000G (8.0%, 61,438G)
JumbocactuarX27: 1,000G (8.0%, 4,552G)
CapnChaos12: 300G (2.4%, 15,699G)
TheChainNerd: 200G (1.6%, 2,044G)
DusterW: 108G (0.9%, 108G)
silentkaster: 105G (0.8%, 8,105G)
mrfripps: 100G (0.8%, 6,030G)
datadrivenbot: 100G (0.8%, 44,633G)
getthemoneyz: 46G (0.4%, 967,310G)

purple bets:
nifboy: 1,327G (20.5%, 1,327G)
dodgeroll: 1,036G (16.0%, 5,183G)
Spartan_Paladin: 600G (9.3%, 59,103G)
Laserman1000: 562G (8.7%, 5,862G)
Cryptopsy70: 556G (8.6%, 20,923G)
ivellioz: 500G (7.7%, 6,594G)
HaateXIII: 500G (7.7%, 2,385G)
EnemyController: 500G (7.7%, 603,695G)
ZCKaiser: 200G (3.1%, 893G)
nekojin: 200G (3.1%, 2,073G)
oops25: 153G (2.4%, 1,553G)
DuraiPapers: 150G (2.3%, 586G)
AllInBot: 100G (1.5%, 100G)
CosmicTactician: 100G (1.5%, 8,093G)
