Final Bets: red - 10 bets for 6,347G (45.0%, x1.22); yellow - 13 bets for 7,746G (55.0%, x0.82)

red bets:
evdoggity: 2,000G (31.5%, 90,764G)
Nickyfive: 1,500G (23.6%, 11,479G)
pplvee1: 1,163G (18.3%, 1,163G)
joewcarson: 500G (7.9%, 31,358G)
getthemoneyz: 364G (5.7%, 1,275,221G)
furrytomahawkk: 228G (3.6%, 228G)
Othatmattkid: 173G (2.7%, 173G)
TasisSai: 169G (2.7%, 332G)
Wonser: 150G (2.4%, 1,146G)
SephDarkheart: 100G (1.6%, 23,160G)

yellow bets:
Zagorsek: 1,154G (14.9%, 1,154G)
fenaen: 1,115G (14.4%, 1,115G)
EnemyController: 1,111G (14.3%, 1,419,942G)
BirbBrainsBot: 1,000G (12.9%, 128,403G)
JumbocactuarX27: 1,000G (12.9%, 26,285G)
E_Ballard: 841G (10.9%, 841G)
ArashiKurobara: 320G (4.1%, 6,492G)
randgridr: 304G (3.9%, 2,975G)
gorgewall: 201G (2.6%, 2,281G)
Mysteriousdewd: 200G (2.6%, 4,772G)
datadrivenbot: 200G (2.6%, 57,043G)
turbn: 200G (2.6%, 1,393G)
Kronikle: 100G (1.3%, 3,963G)
