High Risers:
1. Snowfats: +4,316G
2. HorusTaurus: +2,325G
3. dem0nj0ns: +2,126G
4. Mushufasa_: +1,599G
5. upvla: +1,415G
6. TheSabretoothe: +1,153G
7. mirapoix: +971G
8. Ruvelia_BibeI: +905G
9. MoonSugarFiend: +755G
10. Tithonus: +697G
11. MemoriesofFinal: +601G
12. goth_Applebees_hostess: +310G
13. Sharosa: +277G
14. scsuperstar: +111G
15. Deeps_one: +55G
16. ammobox69: +45G
17. almost__sane: +4G
18. DeathTaxesAndAnime: -46G
19. bdb_goldenleo: -133G
20. PopsLIVE: -173G
21. Blaster_Bomb: -200G
22. ruleof5: -300G
23. byrdturbo: -300G
24. CassiePhoenix: -396G
25. FatTunaKing: -397G
26. gorgewall: -399G
27. bigbongsmoker: -400G
28. 3ngag3: -436G
29. Lolthsmeat: -521G
30. Evewho: -637G
31. CorpusCav: -1,018G
32. lijarkh: -1,300G
33. JayceXIV: -1,327G
34. seppu777: -1,405G
35. WireLord: -1,913G
36. theQueenfuta: -1,924G
37. HASTERIOUS: -3,511G
38. VynxYukida: -4,141G
