Final Bets: red - 17 bets for 24,808G (76.4%, x0.31); blue - 11 bets for 7,653G (23.6%, x3.24)

red bets:
Shalloween: 11,449G (46.2%, 22,898G)
dogsandcatsand: 3,000G (12.1%, 23,192G)
Nizaha: 2,169G (8.7%, 4,338G)
kahjeethaswares: 1,256G (5.1%, 1,256G)
richardserious: 1,216G (4.9%, 1,216G)
getthemoneyz: 1,000G (4.0%, 1,465,983G)
BirbBrainsBot: 1,000G (4.0%, 135,084G)
coralreeferz: 850G (3.4%, 3,524G)
sinnyil2: 500G (2.0%, 3,440G)
cuatro1915: 453G (1.8%, 453G)
SephDarkheart: 436G (1.8%, 5,840G)
KyleWonToLiveForever: 416G (1.7%, 416G)
Drusiform: 300G (1.2%, 300G)
neocarbuncle: 263G (1.1%, 263G)
datadrivenbot: 200G (0.8%, 42,929G)
reddwind_: 200G (0.8%, 10,794G)
super_robo_mg: 100G (0.4%, 2,021G)

blue bets:
SkylerBunny: 2,300G (30.1%, 80,498G)
DeathTaxesAndAnime: 1,718G (22.4%, 3,369G)
Laserman1000: 1,256G (16.4%, 1,256G)
E_Ballard: 760G (9.9%, 760G)
douchetron: 476G (6.2%, 476G)
maximumcrit: 300G (3.9%, 6,568G)
SeniorBunk: 300G (3.9%, 9,997G)
AllInBot: 200G (2.6%, 200G)
Lydian_C: 123G (1.6%, 1,424G)
GoatShow2: 120G (1.6%, 120G)
victoriolue: 100G (1.3%, 18,205G)
