Final Bets: purple - 21 bets for 19,801G (80.6%, x0.24); brown - 12 bets for 4,760G (19.4%, x4.16)

purple bets:
reinoe: 5,000G (25.3%, 66,666G)
fenaen: 2,119G (10.7%, 4,238G)
randgridr: 2,014G (10.2%, 2,014G)
maximumcrit: 2,000G (10.1%, 4,036G)
Nizaha: 1,300G (6.6%, 14,262G)
Laserman1000: 1,214G (6.1%, 1,214G)
JumbocactuarX27: 1,000G (5.1%, 27,278G)
BirbBrainsBot: 1,000G (5.1%, 181,151G)
killth3kid: 604G (3.1%, 3,818G)
nifboy: 520G (2.6%, 520G)
JonnyCue: 500G (2.5%, 7,029G)
E_Ballard: 500G (2.5%, 500G)
SephDarkheart: 444G (2.2%, 8,587G)
DavenIII: 368G (1.9%, 368G)
AllInBot: 290G (1.5%, 290G)
braveboyblue: 208G (1.1%, 208G)
EmmaEnema: 203G (1.0%, 3,903G)
Treafa: 200G (1.0%, 2,958G)
datadrivenbot: 200G (1.0%, 48,499G)
Bongomon7: 100G (0.5%, 3,009G)
ArlanKels: 17G (0.1%, 1,741G)

brown bets:
Scurg: 1,000G (21.0%, 14,067G)
latebit: 653G (13.7%, 653G)
DarrenDinosaurs: 580G (12.2%, 580G)
superdevon1: 575G (12.1%, 28,797G)
TasisSai: 500G (10.5%, 22,660G)
ruleof5: 500G (10.5%, 9,088G)
Lord_Gwarth: 340G (7.1%, 2,252G)
TheArcanum: 335G (7.0%, 335G)
Firesheath: 100G (2.1%, 2,661G)
getthemoneyz: 72G (1.5%, 1,502,108G)
dtrain332: 55G (1.2%, 5,504G)
Drusiform: 50G (1.1%, 4,271G)
