Final Bets: blue - 14 bets for 13,717G (65.7%, x0.52); green - 9 bets for 7,159G (34.3%, x1.92)

blue bets:
Zagorsek: 4,015G (29.3%, 8,031G)
randgridr: 2,498G (18.2%, 2,498G)
reinoe: 2,000G (14.6%, 67,868G)
Wooplestein: 865G (6.3%, 865G)
nifboy: 645G (4.7%, 645G)
DarrenDinosaurs: 580G (4.2%, 580G)
upvla: 567G (4.1%, 1,162G)
superdevon1: 564G (4.1%, 28,222G)
JonnyCue: 500G (3.6%, 7,149G)
DavenIII: 456G (3.3%, 456G)
Lord_Gwarth: 350G (2.6%, 1,912G)
BirbBrainsBot: 257G (1.9%, 181,391G)
latebit: 220G (1.6%, 220G)
datadrivenbot: 200G (1.5%, 48,547G)

green bets:
maximumcrit: 4,517G (63.1%, 4,517G)
LDSkinny: 1,000G (14.0%, 3,423G)
TasisSai: 500G (7.0%, 22,160G)
AllInBot: 360G (5.0%, 360G)
Scurg: 300G (4.2%, 13,067G)
getthemoneyz: 228G (3.2%, 1,502,036G)
EmmaEnema: 100G (1.4%, 3,952G)
TheArcanum: 100G (1.4%, 100G)
dtrain332: 54G (0.8%, 5,449G)
