Final Bets: white - 13 bets for 9,757G (66.1%, x0.51); black - 10 bets for 5,012G (33.9%, x1.95)

white bets:
Thyrandaal: 2,000G (20.5%, 23,014G)
DavenIII: 2,000G (20.5%, 113,622G)
Meta_Five: 1,000G (10.2%, 22,606G)
BirbBrainsBot: 1,000G (10.2%, 123,886G)
Lydian_C: 924G (9.5%, 924G)
triniculo: 840G (8.6%, 840G)
Shalloween: 500G (5.1%, 19,075G)
Lord_Gwarth: 500G (5.1%, 1,974G)
AllInBot: 300G (3.1%, 300G)
CosmicTactician: 200G (2.0%, 35,010G)
WillFitzgerald: 200G (2.0%, 5,084G)
getthemoneyz: 178G (1.8%, 1,703,797G)
roqqqpsi: 115G (1.2%, 5,773G)

black bets:
TasisSai: 1,028G (20.5%, 2,016G)
Panushenko: 1,008G (20.1%, 1,008G)
douchetron: 900G (18.0%, 900G)
nifboy: 804G (16.0%, 804G)
MagicBottle: 322G (6.4%, 1,638G)
maximumcrit: 300G (6.0%, 4,850G)
gongonono: 200G (4.0%, 4,286G)
datadrivenbot: 200G (4.0%, 63,282G)
muffin_money: 150G (3.0%, 12,020G)
ko2q: 100G (2.0%, 2,411G)
