Final Bets: red - 14 bets for 25,993G (46.3%, x1.16); brown - 7 bets for 30,102G (53.7%, x0.86)

red bets:
josephiroth_143: 10,131G (39.0%, 10,131G)
NicoSavoy: 6,587G (25.3%, 329,397G)
UmaiJam: 2,000G (7.7%, 55,018G)
ColetteMSLP: 1,500G (5.8%, 45,462G)
BirbBrainsBot: 1,000G (3.8%, 155,770G)
NIghtdew14: 1,000G (3.8%, 55,409G)
ruleof5: 1,000G (3.8%, 11,269G)
twelfthrootoftwo: 883G (3.4%, 1,732G)
SeniorBunk: 412G (1.6%, 412G)
Error72: 380G (1.5%, 380G)
getthemoneyz: 318G (1.2%, 1,420,324G)
dtrain332: 308G (1.2%, 308G)
Chambs12: 274G (1.1%, 274G)
datadrivenbot: 200G (0.8%, 45,444G)

brown bets:
nifboy: 28,061G (93.2%, 56,122G)
prince_rogers_nelson_: 624G (2.1%, 624G)
douchetron: 567G (1.9%, 567G)
randgridr: 500G (1.7%, 14,508G)
AllInBot: 200G (0.7%, 200G)
Sykper: 100G (0.3%, 116G)
DouglasDragonThePoet: 50G (0.2%, 2,179G)
