Final Bets: brown - 2 bets for 40,960G (65.8%, x0.52); champion - 17 bets for 21,316G (34.2%, x1.92)

brown bets:
nifboy: 40,176G (98.1%, 80,353G)
NovaKnight21: 784G (1.9%, 784G)

champion bets:
NicoSavoy: 6,456G (30.3%, 322,810G)
NIghtdew14: 4,000G (18.8%, 54,409G)
nok____: 2,300G (10.8%, 2,300G)
ColetteMSLP: 2,000G (9.4%, 43,962G)
prince_rogers_nelson_: 1,163G (5.5%, 1,163G)
BirbBrainsBot: 1,000G (4.7%, 154,770G)
twelfthrootoftwo: 849G (4.0%, 849G)
douchetron: 539G (2.5%, 1,057G)
randgridr: 500G (2.3%, 14,940G)
Artea_: 500G (2.3%, 5,413G)
Error72: 380G (1.8%, 380G)
AllInBot: 373G (1.7%, 373G)
josephiroth_143: 324G (1.5%, 324G)
getthemoneyz: 316G (1.5%, 1,420,006G)
dtrain332: 308G (1.4%, 308G)
datadrivenbot: 200G (0.9%, 45,244G)
Chambs12: 108G (0.5%, 108G)
