Final Bets: white - 15 bets for 11,855G (67.3%, x0.49); brown - 12 bets for 5,763G (32.7%, x2.06)

white bets:
Smashy: 3,082G (26.0%, 6,164G)
DeathTaxesAndAnime: 2,119G (17.9%, 2,119G)
CorpusCav: 1,500G (12.7%, 20,147G)
seppu777: 666G (5.6%, 6,118G)
resjudicata3: 576G (4.9%, 576G)
nekojin: 572G (4.8%, 572G)
Lord_Gwarth: 540G (4.6%, 540G)
khelor_: 500G (4.2%, 856G)
Laserman1000: 500G (4.2%, 11,100G)
krombobreaker: 500G (4.2%, 4,831G)
CrazyLou64: 500G (4.2%, 2,517G)
DHaveWord: 400G (3.4%, 7,730G)
datadrivenbot: 200G (1.7%, 61,316G)
AllInBot: 100G (0.8%, 100G)
latebit: 100G (0.8%, 6,209G)

brown bets:
Zeroroute: 1,116G (19.4%, 1,116G)
BirbBrainsBot: 1,000G (17.4%, 170,134G)
Leonidusx: 1,000G (17.4%, 33,327G)
hotpocketsofficial: 733G (12.7%, 733G)
technominari: 500G (8.7%, 80,138G)
ValensEXP_: 304G (5.3%, 1,991G)
getthemoneyz: 286G (5.0%, 1,953,843G)
Xeiphyer: 224G (3.9%, 224G)
Lyner87: 200G (3.5%, 102,870G)
tripaplex: 200G (3.5%, 1,430G)
BartTradingCompany: 100G (1.7%, 9,560G)
gingerfoo69: 100G (1.7%, 1,022G)
