Final Bets: red - 13 bets for 8,204G (65.0%, x0.54); blue - 12 bets for 4,409G (35.0%, x1.86)

red bets:
BoneMiser: 2,272G (27.7%, 2,272G)
Djorama: 1,000G (12.2%, 8,438G)
RongRongArts: 1,000G (12.2%, 322,427G)
volgrathemoose: 916G (11.2%, 1,832G)
E_Ballard: 839G (10.2%, 839G)
MalakiGenesys: 519G (6.3%, 519G)
BuffaloCrunch: 476G (5.8%, 476G)
ApplesauceBoss: 376G (4.6%, 376G)
HorusTaurus: 300G (3.7%, 300G)
BirbBrainsBot: 206G (2.5%, 136,221G)
ko2q: 100G (1.2%, 7,232G)
datadrivenbot: 100G (1.2%, 18,926G)
Dellusionsx: 100G (1.2%, 728G)

blue bets:
HASTERIOUS: 1,070G (24.3%, 21,403G)
ungabunga_bot: 1,000G (22.7%, 521,277G)
Zachara: 700G (15.9%, 85,200G)
zmoses: 500G (11.3%, 14,462G)
twelfthrootoftwo: 300G (6.8%, 15,621G)
wooyuji: 220G (5.0%, 220G)
LordSDB: 212G (4.8%, 212G)
Arbitae: 100G (2.3%, 300G)
Lawndough: 100G (2.3%, 4,015G)
Antipathics: 100G (2.3%, 2,631G)
Ross_from_Cali: 77G (1.7%, 2,808G)
roqqqpsi: 30G (0.7%, 3,044G)
