Final Bets: yellow - 14 bets for 11,111G (68.8%, x0.45); white - 10 bets for 5,045G (31.2%, x2.20)

yellow bets:
Shakarak: 3,833G (34.5%, 3,833G)
aStatue: 2,928G (26.4%, 2,928G)
Lydian_C: 1,200G (10.8%, 46,493G)
roqqqpsi: 886G (8.0%, 4,029G)
volgrathemoose: 501G (4.5%, 2,257G)
troublesometree: 497G (4.5%, 497G)
potgodtopdog: 333G (3.0%, 13,484G)
Flox_silverbow: 300G (2.7%, 817G)
OverlordCuddles: 216G (1.9%, 216G)
Odin007_88: 112G (1.0%, 112G)
Reductions: 104G (0.9%, 104G)
twelfthrootoftwo: 100G (0.9%, 2,027G)
datadrivenbot: 100G (0.9%, 2,865G)
PatSouI: 1G (0.0%, 17,906G)

white bets:
mesmaster: 1,323G (26.2%, 1,323G)
BirbBrainsBot: 1,000G (19.8%, 33,028G)
Dexsana: 600G (11.9%, 8,959G)
RubenFlonne: 500G (9.9%, 20,883G)
getthemoneyz: 492G (9.8%, 586,995G)
ungabunga_bot: 359G (7.1%, 270,726G)
summmmmmmmmm: 273G (5.4%, 273G)
L_M_D: 254G (5.0%, 254G)
FoxtrotNovemberCharlie: 144G (2.9%, 144G)
HorusTaurus: 100G (2.0%, 380G)
