Final Bets: green - 10 bets for 8,905G (21.0%, x3.77); champion - 26 bets for 33,549G (79.0%, x0.27)

green bets:
SkylerBunny: 5,000G (56.1%, 208,553G)
superdevon1: 743G (8.3%, 37,197G)
Nizaha: 700G (7.9%, 15,301G)
HaateXIII: 692G (7.8%, 692G)
killth3kid: 652G (7.3%, 652G)
benticore: 500G (5.6%, 45,100G)
itskage: 218G (2.4%, 2,181G)
Rytor: 200G (2.2%, 9,398G)
MinBetBot: 100G (1.1%, 16,257G)
randgridr: 100G (1.1%, 6,586G)

champion bets:
Thyrandaal: 14,444G (43.1%, 219,061G)
NicoSavoy: 2,171G (6.5%, 108,588G)
silentperogy: 2,000G (6.0%, 30,261G)
latebit: 1,981G (5.9%, 1,981G)
silverChangeling: 1,954G (5.8%, 1,954G)
DeathTaxesAndAnime: 1,871G (5.6%, 3,670G)
sinnyil2: 1,027G (3.1%, 2,096G)
Smashy: 1,000G (3.0%, 3,307G)
BirbBrainsBot: 1,000G (3.0%, 127,810G)
zenlion: 1,000G (3.0%, 5,869G)
josephiroth_143: 806G (2.4%, 806G)
AllInBot: 722G (2.2%, 722G)
Mesmaster: 668G (2.0%, 668G)
muffin_money: 550G (1.6%, 4,666G)
Amorial: 534G (1.6%, 534G)
Lemonjohns: 420G (1.3%, 7,593G)
Skjodo: 375G (1.1%, 375G)
butterbelljedi: 304G (0.9%, 304G)
datadrivenbot: 200G (0.6%, 49,425G)
gorgewall: 101G (0.3%, 7,039G)
RunicMagus: 100G (0.3%, 2,932G)
CosmicTactician: 100G (0.3%, 7,123G)
Hasterious: 72G (0.2%, 2,417G)
getthemoneyz: 66G (0.2%, 1,556,561G)
pidgelol: 50G (0.1%, 100G)
Rook512: 33G (0.1%, 666G)
