Final Bets: purple - 12 bets for 10,402G (58.9%, x0.70); brown - 12 bets for 7,270G (41.1%, x1.43)

purple bets:
Aldrammech: 2,536G (24.4%, 2,536G)
reinoe: 2,000G (19.2%, 37,715G)
dogsandcatsand: 1,367G (13.1%, 2,681G)
Draconis345: 1,000G (9.6%, 58,851G)
Nizaha: 974G (9.4%, 974G)
NIghtdew14: 800G (7.7%, 1,600G)
DaKoopa49: 500G (4.8%, 966G)
Creggers: 500G (4.8%, 25,469G)
Treafa: 225G (2.2%, 451G)
AllInBot: 200G (1.9%, 200G)
Evewho: 200G (1.9%, 15,623G)
furrytomahawkk: 100G (1.0%, 1,994G)

brown bets:
Lord_Burrah: 1,220G (16.8%, 86,220G)
BirbBrainsBot: 1,000G (13.8%, 154,093G)
E_Ballard: 1,000G (13.8%, 3,871G)
toka222: 1,000G (13.8%, 67,278G)
datadrivenbot: 928G (12.8%, 52,277G)
VolgraTheMoose: 501G (6.9%, 4,303G)
KyleWonToLiveForever: 384G (5.3%, 384G)
Oreo_Pizza: 380G (5.2%, 380G)
getthemoneyz: 336G (4.6%, 1,274,075G)
joewcarson: 300G (4.1%, 33,933G)
Xoomwaffle: 120G (1.7%, 120G)
gorgewall: 101G (1.4%, 1,405G)
