Final Bets: purple - 11 bets for 19,771G (46.6%, x1.14); brown - 22 bets for 22,630G (53.4%, x0.87)

purple bets:
jethrothrul: 14,050G (71.1%, 14,050G)
kingchadking: 1,631G (8.2%, 1,631G)
kai_shee: 1,001G (5.1%, 95,877G)
TheChainNerd: 1,000G (5.1%, 13,750G)
Lodrak: 508G (2.6%, 508G)
Draconis345: 500G (2.5%, 1,906G)
ColetteMSLP: 300G (1.5%, 14,139G)
lifeguard_dan: 264G (1.3%, 264G)
JustSuperish: 248G (1.3%, 248G)
gikokiko: 219G (1.1%, 219G)
tmo50x: 50G (0.3%, 1,072G)

brown bets:
upvla: 11,163G (49.3%, 22,326G)
Laserman1000: 1,500G (6.6%, 10,000G)
Lord_Burrah: 1,500G (6.6%, 86,000G)
ungabunga_bot: 1,000G (4.4%, 69,455G)
BirbBrainsBot: 1,000G (4.4%, 276,655G)
getthemoneyz: 1,000G (4.4%, 444,290G)
bad1dea: 1,000G (4.4%, 60,573G)
goro_0924: 866G (3.8%, 866G)
SomeCallMeGON: 500G (2.2%, 9,707G)
nifboy: 500G (2.2%, 13,025G)
hales_bopp_it: 500G (2.2%, 4,920G)
LAGBOT30000: 451G (2.0%, 9,029G)
ZephyrTempest: 412G (1.8%, 27,208G)
mivvim: 222G (1.0%, 222G)
ugoplatamia: 200G (0.9%, 28,287G)
TinhShu: 200G (0.9%, 2,967G)
joewcarson: 132G (0.6%, 132G)
AllInBot: 100G (0.4%, 100G)
SeedSC: 100G (0.4%, 142,015G)
datadrivenbot: 100G (0.4%, 23,467G)
Sungazes: 100G (0.4%, 990G)
DrAntiSocial: 84G (0.4%, 1,363G)
