Final Bets: purple - 16 bets for 17,931G (77.4%, x0.29); brown - 12 bets for 5,231G (22.6%, x3.43)

purple bets:
EnemyController: 4,444G (24.8%, 1,720,623G)
Phi_Sig: 3,333G (18.6%, 32,707G)
DeathTaxesAndAnime: 2,513G (14.0%, 2,513G)
Thyrandaal: 2,012G (11.2%, 3,947G)
NicoSavoy: 2,000G (11.2%, 13,230G)
BirbBrainsBot: 1,000G (5.6%, 131,331G)
E_Ballard: 636G (3.5%, 636G)
thunderducker: 600G (3.3%, 1,975G)
Wonser: 348G (1.9%, 5,545G)
lijarkh: 341G (1.9%, 341G)
DracoknightZero: 244G (1.4%, 6,845G)
pathogen7: 150G (0.8%, 220G)
AllInBot: 100G (0.6%, 100G)
nhammen: 100G (0.6%, 406,607G)
zeridoz: 100G (0.6%, 100G)
BartTradingCompany: 10G (0.1%, 100G)

brown bets:
lowlf: 1,032G (19.7%, 1,032G)
Zagorsek: 680G (13.0%, 680G)
akash7: 600G (11.5%, 600G)
krombobreaker: 500G (9.6%, 3,225G)
hotpocketsofficial: 500G (9.6%, 17,921G)
CorpusCav: 481G (9.2%, 24,481G)
getthemoneyz: 382G (7.3%, 1,877,473G)
Sietaha: 236G (4.5%, 236G)
farside00831: 220G (4.2%, 220G)
Kellios11: 200G (3.8%, 2,154G)
datadrivenbot: 200G (3.8%, 58,738G)
CosmicTactician: 200G (3.8%, 36,614G)
