Final Bets: purple - 19 bets for 15,982G (65.7%, x0.52); champion - 9 bets for 8,344G (34.3%, x1.92)

purple bets:
Thyrandaal: 4,444G (27.8%, 236,066G)
Zbgs: 2,713G (17.0%, 2,713G)
TheDeeyo: 2,000G (12.5%, 11,766G)
ColetteMSLP: 1,000G (6.3%, 29,675G)
Meta_Five: 1,000G (6.3%, 19,758G)
skillomono: 1,000G (6.3%, 2,796G)
Drusiform: 1,000G (6.3%, 18,617G)
ko2q: 479G (3.0%, 479G)
randgridr: 365G (2.3%, 365G)
Lillifen: 332G (2.1%, 332G)
BirbBrainsBot: 243G (1.5%, 194,112G)
Galeronis: 240G (1.5%, 240G)
AllInBot: 237G (1.5%, 237G)
zenlion: 228G (1.4%, 5,689G)
CosmicTactician: 200G (1.3%, 6,013G)
datadrivenbot: 200G (1.3%, 58,463G)
ANFz: 101G (0.6%, 42,835G)
MinBetBot: 100G (0.6%, 23,079G)
nhammen: 100G (0.6%, 5,611G)

champion bets:
SkylerBunny: 3,077G (36.9%, 3,077G)
latebit: 1,100G (13.2%, 15,866G)
evdoggity: 1,000G (12.0%, 241,540G)
Mesmaster: 1,000G (12.0%, 23,452G)
Rikrizen: 703G (8.4%, 7,034G)
getthemoneyz: 558G (6.7%, 1,592,851G)
EnemyController: 555G (6.7%, 1,548,980G)
RunicMagus: 250G (3.0%, 5,378G)
gorgewall: 101G (1.2%, 4,799G)
