Final Bets: yellow - 17 bets for 26,353G (68.6%, x0.46); champion - 7 bets for 12,064G (31.4%, x2.18)

yellow bets:
upvla: 10,000G (37.9%, 29,440G)
Lythe_Caraker: 5,953G (22.6%, 5,953G)
OneHundredFists: 3,261G (12.4%, 6,395G)
Lolthsmeat: 1,943G (7.4%, 1,943G)
xsifthewolf: 1,000G (3.8%, 2,933G)
BirbBrainsBot: 1,000G (3.8%, 22,315G)
Mesmaster: 788G (3.0%, 788G)
WhattayaBrian: 538G (2.0%, 538G)
CorpusCav: 500G (1.9%, 15,758G)
lijarkh: 396G (1.5%, 1,670G)
datadrivenbot: 200G (0.8%, 77,992G)
VynxYukida: 200G (0.8%, 1,086G)
Mister_Quof: 150G (0.6%, 1,107G)
ZephyrBurst83: 116G (0.4%, 116G)
getthemoneyz: 108G (0.4%, 2,100,816G)
DHaveWord: 100G (0.4%, 9,401G)
DouglasDragonThePoet: 100G (0.4%, 4,006G)

champion bets:
LivingHitokiri: 5,000G (41.4%, 171,248G)
iBluntDouble: 5,000G (41.4%, 9,533G)
HaplessOne: 576G (4.8%, 576G)
DeathTaxesAndAnime: 450G (3.7%, 2,622G)
thebluesman: 435G (3.6%, 435G)
AllInBot: 403G (3.3%, 403G)
Genkidou: 200G (1.7%, 482G)
