Final Bets: white - 16 bets for 12,111G (63.6%, x0.57); brown - 13 bets for 6,946G (36.4%, x1.74)

white bets:
leakimiko: 3,983G (32.9%, 22,132G)
upvla: 3,222G (26.6%, 119,092G)
BenYuPoker: 1,375G (11.4%, 1,375G)
rechaun: 924G (7.6%, 1,848G)
Wesablo: 453G (3.7%, 453G)
Numbersborne: 449G (3.7%, 449G)
kingchadking: 420G (3.5%, 420G)
noriko87: 300G (2.5%, 2,019G)
JackOnFire1: 250G (2.1%, 7,250G)
McGooferson: 185G (1.5%, 185G)
AllInBot: 100G (0.8%, 100G)
herrshaun: 100G (0.8%, 3,692G)
SeedSC: 100G (0.8%, 142,003G)
datadrivenbot: 100G (0.8%, 21,794G)
DaveStrider55: 100G (0.8%, 2,730G)
ungabunga_bot: 50G (0.4%, 46,409G)

brown bets:
WireLord: 1,477G (21.3%, 1,477G)
waterwatereverywhere: 1,205G (17.3%, 2,363G)
BirbBrainsBot: 1,000G (14.4%, 242,117G)
bad1dea: 1,000G (14.4%, 39,997G)
JustSuperish: 392G (5.6%, 392G)
DHaveWord: 348G (5.0%, 348G)
unclebearboy: 300G (4.3%, 2,739G)
SeniorBunk: 256G (3.7%, 256G)
Slowbrofist: 240G (3.5%, 240G)
ugoplatamia: 200G (2.9%, 14,938G)
KasugaiRoastedPeas: 200G (2.9%, 17,025G)
L2_Sentinel: 200G (2.9%, 14,570G)
getthemoneyz: 128G (1.8%, 440,970G)
