Final Bets: purple - 8 bets for 51,593G (84.2%, x0.19); brown - 20 bets for 9,664G (15.8%, x5.34)

purple bets:
TheKillerNacho: 42,888G (83.1%, 42,888G)
nifboy: 5,744G (11.1%, 11,488G)
Baron_von_Scrub: 1,111G (2.2%, 59,055G)
metagameface: 1,000G (1.9%, 20,658G)
Alaquane: 350G (0.7%, 1,155G)
old_overholt_: 300G (0.6%, 29,827G)
lastly: 100G (0.2%, 23,072G)
RuneS_77: 100G (0.2%, 8,801G)

brown bets:
DeathTaxesAndAnime: 1,665G (17.2%, 1,665G)
BirbBrainsBot: 1,000G (10.3%, 156,005G)
Laserman1000: 975G (10.1%, 18,775G)
TheChainNerd: 949G (9.8%, 949G)
HaateXIII: 740G (7.7%, 740G)
DLJuggernaut: 600G (6.2%, 9,810G)
DavenIII: 600G (6.2%, 600G)
Thyrandaal: 557G (5.8%, 557G)
Cryptopsy70: 532G (5.5%, 11,010G)
Firesheath: 508G (5.3%, 508G)
Anasetsuken: 300G (3.1%, 4,828G)
CosmicTactician: 200G (2.1%, 3,310G)
Meta_Five: 200G (2.1%, 7,403G)
run_with_stone_GUNs: 200G (2.1%, 24,782G)
getthemoneyz: 138G (1.4%, 938,570G)
AllInBot: 100G (1.0%, 100G)
Grandlanzer: 100G (1.0%, 7,398G)
autnagrag: 100G (1.0%, 349G)
datadrivenbot: 100G (1.0%, 36,658G)
mrfripps: 100G (1.0%, 2,336G)
