Final Bets: purple - 17 bets for 7,339G (42.8%, x1.34); brown - 14 bets for 9,823G (57.2%, x0.75)

purple bets:
BirbBrainsBot: 1,000G (13.6%, 127,001G)
bad1dea: 1,000G (13.6%, 349,296G)
WireLord: 1,000G (13.6%, 7,978G)
superdevon1: 836G (11.4%, 8,365G)
PatSouI: 631G (8.6%, 631G)
R_Raynos: 539G (7.3%, 539G)
DeathTaxesAndAnime: 528G (7.2%, 528G)
AllInBot: 400G (5.5%, 400G)
ForestMagi: 244G (3.3%, 244G)
JustSuperish: 228G (3.1%, 228G)
getthemoneyz: 216G (2.9%, 404,989G)
ugoplatamia: 200G (2.7%, 33,047G)
CorpusCav: 187G (2.5%, 1,874G)
BadBlanket: 100G (1.4%, 2,522G)
Basmal: 100G (1.4%, 55,011G)
datadrivenbot: 100G (1.4%, 13,544G)
WinnerBit: 30G (0.4%, 1,197G)

brown bets:
mirapoix: 2,684G (27.3%, 5,368G)
Elerrosse: 1,700G (17.3%, 1,835G)
sinnyil2: 1,200G (12.2%, 26,807G)
misterprmiller: 1,000G (10.2%, 7,520G)
ins4n1ty87: 1,000G (10.2%, 4,280G)
Treapvort: 616G (6.3%, 1,232G)
Maeveen: 600G (6.1%, 600G)
madman_clinton: 271G (2.8%, 543G)
Sairentozon7: 252G (2.6%, 252G)
lijarkh: 100G (1.0%, 3,363G)
victoriolue: 100G (1.0%, 4,828G)
SeedSC: 100G (1.0%, 133,776G)
herrshaun: 100G (1.0%, 3,315G)
Conome: 100G (1.0%, 2,451G)
