Final Bets: red - 19 bets for 9,379G (49.5%, x1.02); brown - 18 bets for 9,558G (50.5%, x0.98)

red bets:
Phytik: 1,648G (17.6%, 1,648G)
NoNotBees: 1,000G (10.7%, 3,534G)
BirbBrainsBot: 1,000G (10.7%, 128,455G)
bad1dea: 1,000G (10.7%, 350,754G)
WireLord: 1,000G (10.7%, 9,432G)
superdevon1: 739G (7.9%, 7,399G)
ll_aja_ll: 500G (5.3%, 2,000G)
herrshaun: 500G (5.3%, 3,090G)
madman_clinton: 368G (3.9%, 737G)
daftbird: 264G (2.8%, 264G)
R_Raynos: 256G (2.7%, 256G)
Sairentozon7: 252G (2.7%, 252G)
evdoggity: 248G (2.6%, 248G)
getthemoneyz: 144G (1.5%, 404,889G)
GrayGhostGaming: 120G (1.3%, 120G)
ForestMagi: 120G (1.3%, 120G)
datadrivenbot: 100G (1.1%, 13,436G)
Conome: 100G (1.1%, 2,679G)
WinnerBit: 20G (0.2%, 1,167G)

brown bets:
RongRongArts: 2,087G (21.8%, 2,087G)
misterprmiller: 1,000G (10.5%, 10,261G)
HASTERIOUS: 1,000G (10.5%, 75,484G)
mirapoix: 922G (9.6%, 1,844G)
ins4n1ty87: 750G (7.8%, 5,031G)
Maeveen: 600G (6.3%, 600G)
Elerrosse: 500G (5.2%, 2,905G)
AllInBot: 487G (5.1%, 487G)
JustSuperish: 438G (4.6%, 438G)
rjA0zcOQ96: 416G (4.4%, 416G)
UmaiJam: 350G (3.7%, 3,502G)
Treapvort: 308G (3.2%, 308G)
ugoplatamia: 200G (2.1%, 32,954G)
Basmal: 100G (1.0%, 54,964G)
DeathTaxesAndAnime: 100G (1.0%, 2,570G)
victoriolue: 100G (1.0%, 5,056G)
SeedSC: 100G (1.0%, 133,843G)
reinoe: 100G (1.0%, 17,168G)
