Final Bets: red - 26 bets for 22,378G (66.7%, x0.50); blue - 25 bets for 11,182G (33.3%, x2.00)

red bets:
Jeeboheebo: 7,860G (35.1%, 15,412G)
mirapoix: 2,921G (13.1%, 5,843G)
Laserman1000: 2,300G (10.3%, 2,300G)
fenaen: 2,000G (8.9%, 7,249G)
TheChainNerd: 1,000G (4.5%, 4,958G)
DudeMonkey77: 701G (3.1%, 701G)
fenixcrest: 698G (3.1%, 6,981G)
waterwatereverywhere: 560G (2.5%, 560G)
SacrificialToast: 500G (2.2%, 14,607G)
ApplesauceBoss: 456G (2.0%, 456G)
kingchadking: 424G (1.9%, 424G)
joewcarson: 382G (1.7%, 382G)
friendsquirrel: 372G (1.7%, 372G)
urieltheflameofgod: 340G (1.5%, 340G)
Arunic: 300G (1.3%, 5,955G)
luminarii: 300G (1.3%, 10,269G)
Slowbrofist: 248G (1.1%, 248G)
ugoplatamia: 200G (0.9%, 11,162G)
AlenaZarek: 200G (0.9%, 950G)
ungabunga_bot: 111G (0.5%, 52,754G)
Lodrak: 100G (0.4%, 1,999G)
SeedSC: 100G (0.4%, 142,683G)
datadrivenbot: 100G (0.4%, 22,389G)
ANFz: 100G (0.4%, 1,940G)
Ausuri: 100G (0.4%, 2,499G)
ko2q: 5G (0.0%, 2,354G)

blue bets:
Thyrial: 1,583G (14.2%, 1,583G)
toka222: 1,500G (13.4%, 521,556G)
Timesout4u: 1,000G (8.9%, 1,384G)
BirbBrainsBot: 1,000G (8.9%, 249,808G)
bad1dea: 1,000G (8.9%, 37,554G)
DrAntiSocial: 619G (5.5%, 619G)
Lanshaft: 600G (5.4%, 9,826G)
SeniorBunk: 507G (4.5%, 507G)
Nizaha: 501G (4.5%, 24,470G)
Shalloween: 400G (3.6%, 1,434G)
Baron_von_Scrub: 314G (2.8%, 12,265G)
MattMan119: 300G (2.7%, 17,459G)
ZephyrTempest: 249G (2.2%, 25,709G)
Evewho: 200G (1.8%, 5,083G)
V3rdeni: 200G (1.8%, 1,860G)
EnemyController: 200G (1.8%, 25,592G)
getthemoneyz: 198G (1.8%, 439,681G)
JackOnFire1: 153G (1.4%, 15,153G)
gikokiko: 104G (0.9%, 104G)
Maowiwowi: 104G (0.9%, 104G)
AllInBot: 100G (0.9%, 100G)
lijarkh: 100G (0.9%, 5,055G)
Jonusfatson: 100G (0.9%, 314G)
Bongomon7: 100G (0.9%, 2,302G)
Aremath: 50G (0.4%, 6,687G)
