Final Bets: yellow - 21 bets for 9,141G (36.7%, x1.72); brown - 28 bets for 15,760G (63.3%, x0.58)

yellow bets:
Nizaha: 1,001G (11.0%, 24,776G)
kai_shee: 1,001G (11.0%, 98,085G)
BirbBrainsBot: 1,000G (10.9%, 250,574G)
bad1dea: 1,000G (10.9%, 38,660G)
getthemoneyz: 640G (7.0%, 440,674G)
ungabunga_bot: 623G (6.8%, 53,964G)
jethrothrul: 584G (6.4%, 584G)
Laserman1000: 505G (5.5%, 5,305G)
Evewho: 500G (5.5%, 4,480G)
JackOnFire1: 500G (5.5%, 17,000G)
DudeMonkey77: 316G (3.5%, 316G)
ZephyrTempest: 284G (3.1%, 26,612G)
SeniorBunk: 260G (2.8%, 260G)
ugoplatamia: 200G (2.2%, 11,855G)
Nova_riety: 123G (1.3%, 619G)
Jonusfatson: 104G (1.1%, 104G)
Lodrak: 100G (1.1%, 1,978G)
ApplesauceBoss: 100G (1.1%, 2,439G)
rjA0zcOQ96: 100G (1.1%, 5,296G)
maichenambrai: 100G (1.1%, 5,672G)
maakur_: 100G (1.1%, 1,662G)

brown bets:
proper__noun__: 2,000G (12.7%, 19,338G)
HaateXIII: 1,500G (9.5%, 9,718G)
mirapoix: 1,135G (7.2%, 2,270G)
TheChainNerd: 1,000G (6.3%, 5,838G)
EnemyController: 1,000G (6.3%, 25,080G)
Mtueni: 1,000G (6.3%, 114,893G)
roofiepops: 980G (6.2%, 980G)
Meanderandreturn: 892G (5.7%, 892G)
Arunic: 800G (5.1%, 7,096G)
Lanshaft: 600G (3.8%, 8,205G)
DeathTaxesAndAnime: 596G (3.8%, 596G)
AlenaZarek: 561G (3.6%, 1,122G)
luminarii: 504G (3.2%, 9,888G)
DarrenDinosaurs: 500G (3.2%, 5,449G)
LavyWays: 500G (3.2%, 21,637G)
friendsquirrel: 372G (2.4%, 372G)
MynenARS: 284G (1.8%, 284G)
Pie108: 258G (1.6%, 9,057G)
Cataphract116: 200G (1.3%, 4,845G)
rubenflonne: 200G (1.3%, 3,151G)
urieltheflameofgod: 200G (1.3%, 2,287G)
AllInBot: 173G (1.1%, 173G)
gikokiko: 104G (0.7%, 104G)
Kronikle: 100G (0.6%, 7,437G)
datadrivenbot: 100G (0.6%, 22,511G)
NickLoire: 100G (0.6%, 100G)
SeedSC: 100G (0.6%, 142,697G)
daveb_: 1G (0.0%, 1,715G)
