Final Bets: red - 6 bets for 8,931G (49.2%, x1.03); champion - 15 bets for 9,239G (50.8%, x0.97)

red bets:
LordSDB: 5,000G (56.0%, 54,702G)
Moshyhero: 2,000G (22.4%, 12,125G)
joewcarson: 638G (7.1%, 638G)
VolgraTheMoose: 555G (6.2%, 21,808G)
ArashiKurobara: 438G (4.9%, 877G)
Magicandy: 300G (3.4%, 27,512G)

champion bets:
pplvee1: 2,500G (27.1%, 40,979G)
ShintaroNayaka: 1,087G (11.8%, 1,087G)
BirbBrainsBot: 1,000G (10.8%, 166,559G)
JumbocactuarX27: 1,000G (10.8%, 11,013G)
getthemoneyz: 728G (7.9%, 1,113,164G)
run_with_stone_GUNs: 666G (7.2%, 25,946G)
CosmicTactician: 500G (5.4%, 22,075G)
E_Ballard: 420G (4.5%, 420G)
DuneMeta: 387G (4.2%, 387G)
Dexsana: 300G (3.2%, 3,210G)
gorgewall: 201G (2.2%, 27,574G)
ar_tactic: 150G (1.6%, 62,529G)
maakur_: 100G (1.1%, 74,361G)
nifboy: 100G (1.1%, 2,539G)
datadrivenbot: 100G (1.1%, 47,153G)
