Final Bets: white - 17 bets for 8,770G (35.7%, x1.80); black - 33 bets for 15,788G (64.3%, x0.56)

white bets:
Lanshaft: 2,200G (25.1%, 4,401G)
DeathTaxesAndAnime: 1,991G (22.7%, 3,904G)
Rytor: 1,000G (11.4%, 7,470G)
BoneMiser: 556G (6.3%, 556G)
Aldrammech: 500G (5.7%, 500G)
Jeeboheebo: 456G (5.2%, 456G)
Humble_Fabio: 333G (3.8%, 3,551G)
Slowbrofist: 268G (3.1%, 268G)
Nova_riety: 244G (2.8%, 244G)
roqqqpsi: 222G (2.5%, 778G)
Tithonus: 200G (2.3%, 12,200G)
ANFz: 200G (2.3%, 3,281G)
Evewho: 200G (2.3%, 2,805G)
BadBlanket: 100G (1.1%, 1,918G)
Lodrak: 100G (1.1%, 3,869G)
SeedSC: 100G (1.1%, 136,543G)
GingerDynomite: 100G (1.1%, 257G)

black bets:
sinnyil2: 1,300G (8.2%, 113,531G)
upvla: 1,219G (7.7%, 37,626G)
volgrathemoose: 1,001G (6.3%, 6,335G)
BirbBrainsBot: 1,000G (6.3%, 265,034G)
getthemoneyz: 1,000G (6.3%, 440,489G)
Shalloween: 876G (5.5%, 876G)
BenYuPoker: 672G (4.3%, 672G)
MoonSlayerRS: 621G (3.9%, 621G)
Nizaha: 600G (3.8%, 600G)
Zeroroute: 600G (3.8%, 600G)
OneHundredFists: 588G (3.7%, 588G)
JackOnFire1: 567G (3.6%, 7,067G)
LanseDM: 528G (3.3%, 528G)
fenixcrest: 516G (3.3%, 516G)
Pie108: 500G (3.2%, 4,782G)
TheGuesty: 500G (3.2%, 5,499G)
DrAntiSocial: 395G (2.5%, 395G)
luminarii: 374G (2.4%, 10,822G)
fenaen: 300G (1.9%, 6,449G)
EnemyController: 300G (1.9%, 31,800G)
mirapoix: 254G (1.6%, 508G)
HaateXIII: 250G (1.6%, 456G)
rNdOrchestra: 200G (1.3%, 845G)
Anomandaris__: 200G (1.3%, 966G)
KasugaiRoastedPeas: 200G (1.3%, 12,037G)
V3rdeni: 200G (1.3%, 1,935G)
proper__noun__: 200G (1.3%, 846G)
Meanderandreturn: 200G (1.3%, 3,078G)
mexskacin: 175G (1.1%, 175G)
AllInBot: 152G (1.0%, 152G)
Tougou: 100G (0.6%, 6,652G)
datadrivenbot: 100G (0.6%, 24,221G)
moonliquor: 100G (0.6%, 1,211G)
