Final Bets: blue - 24 bets for 13,725G (50.3%, x0.99); green - 11 bets for 13,572G (49.7%, x1.01)

blue bets:
HaplessOne: 1,500G (10.9%, 14,640G)
reinoe: 1,369G (10.0%, 1,369G)
Lydian_C: 1,200G (8.7%, 18,858G)
JustSuperish: 977G (7.1%, 977G)
RongRongArts: 965G (7.0%, 965G)
leakimiko: 852G (6.2%, 28,400G)
JumbocactuarX27: 704G (5.1%, 704G)
maakur_: 646G (4.7%, 646G)
slatios: 643G (4.7%, 1,286G)
UmaiJam: 637G (4.6%, 6,370G)
Laserman1000: 576G (4.2%, 5,176G)
lijarkh: 564G (4.1%, 564G)
ko2q: 544G (4.0%, 544G)
rubenflonne: 500G (3.6%, 5,324G)
Treapvort: 500G (3.6%, 13,667G)
SpaZmodeus: 333G (2.4%, 1,713G)
PatSouI: 312G (2.3%, 312G)
fenixcrest: 203G (1.5%, 4,071G)
ugoplatamia: 200G (1.5%, 2,855G)
McGooferson: 100G (0.7%, 632G)
DeathTaxesAndAnime: 100G (0.7%, 1,704G)
Oshimi12: 100G (0.7%, 2,082G)
volgrathemoose: 100G (0.7%, 964G)
Aislingeach: 100G (0.7%, 5,892G)

green bets:
perkisle: 9,712G (71.6%, 9,712G)
BirbBrainsBot: 1,000G (7.4%, 82,448G)
bad1dea: 1,000G (7.4%, 307,271G)
Cataphract116: 720G (5.3%, 720G)
Bryon_W: 500G (3.7%, 1,891G)
getthemoneyz: 248G (1.8%, 410,196G)
FoxtrotNovemberCharlie: 136G (1.0%, 136G)
InOzWeTrust: 100G (0.7%, 183G)
SeedSC: 100G (0.7%, 72,226G)
jhazor: 34G (0.3%, 691G)
roqqqpsi: 22G (0.2%, 657G)
