Final Bets: yellow - 9 bets for 8,726G (18.1%, x4.52); purple - 12 bets for 39,414G (81.9%, x0.22)

yellow bets:
resjudicata3: 2,880G (33.0%, 5,649G)
reinoe: 2,000G (22.9%, 45,843G)
BoneMiser: 1,937G (22.2%, 1,937G)
lowlf: 624G (7.2%, 16,929G)
bigbongsmoker: 396G (4.5%, 4,483G)
HaplessOne: 333G (3.8%, 15,408G)
Lolthsmeat: 292G (3.3%, 737G)
Genkidou: 164G (1.9%, 3,164G)
grimthegameking: 100G (1.1%, 100G)

purple bets:
Sairentozon7: 32,058G (81.3%, 32,058G)
Zachara: 2,400G (6.1%, 137,400G)
BirbBrainsBot: 1,000G (2.5%, 130,267G)
LivingHitokiri: 1,000G (2.5%, 166,025G)
CorpusCav: 732G (1.9%, 29,532G)
MemoriesofFinal: 718G (1.8%, 718G)
ValensEXP_: 436G (1.1%, 8,980G)
Arcblazer23: 352G (0.9%, 352G)
AllInBot: 276G (0.7%, 276G)
datadrivenbot: 200G (0.5%, 78,606G)
elimit404: 124G (0.3%, 124G)
getthemoneyz: 118G (0.3%, 2,129,802G)
