Final Bets: blue - 12 bets for 3,705G (29.9%, x2.35); champion - 11 bets for 8,705G (70.1%, x0.43)

blue bets:
roqqqpsi: 1,990G (53.7%, 18,098G)
LeoNightFury: 288G (7.8%, 288G)
marin1987: 268G (7.2%, 268G)
ACSpree: 240G (6.5%, 240G)
serperemagus: 224G (6.0%, 224G)
loveyouallfriends: 208G (5.6%, 208G)
Celdia: 100G (2.7%, 2,531G)
CosmicTactician: 100G (2.7%, 15,648G)
DeathTaxesAndAnime: 100G (2.7%, 2,643G)
datadrivenbot: 100G (2.7%, 35,576G)
prince_rogers_nelson_: 77G (2.1%, 853G)
nhammen: 10G (0.3%, 1,445G)

champion bets:
Mesmaster: 2,000G (23.0%, 6,546G)
Rislyeu: 1,186G (13.6%, 1,186G)
VolgraTheMoose: 1,001G (11.5%, 11,160G)
BlackFireUK: 1,000G (11.5%, 5,394G)
BirbBrainsBot: 1,000G (11.5%, 165,693G)
Lali_Lulelo: 806G (9.3%, 806G)
getthemoneyz: 626G (7.2%, 843,759G)
IphoneDarkness: 410G (4.7%, 410G)
gorgewall: 376G (4.3%, 376G)
cam_ATS: 200G (2.3%, 2,142G)
jonassimple: 100G (1.1%, 100G)
