Final Bets: red - 11 bets for 11,073G (58.3%, x0.72); blue - 12 bets for 7,921G (41.7%, x1.40)

red bets:
Mesmaster: 5,000G (45.2%, 145,073G)
VolgraTheMoose: 2,001G (18.1%, 129,600G)
HaateXIII: 1,396G (12.6%, 1,396G)
BirbBrainsBot: 1,000G (9.0%, 79,615G)
JonnyCue: 500G (4.5%, 9,757G)
SephDarkheart: 324G (2.9%, 7,160G)
CosmicTactician: 300G (2.7%, 48,733G)
killth3kid: 250G (2.3%, 3,375G)
muffin_money: 150G (1.4%, 4,989G)
DeathTaxesAndAnime: 100G (0.9%, 19,735G)
getthemoneyz: 52G (0.5%, 1,815,045G)

blue bets:
Shalloween: 2,000G (25.2%, 13,120G)
E_Ballard: 852G (10.8%, 116,883G)
Nizaha: 808G (10.2%, 88,058G)
JumbocactuarX27: 780G (9.8%, 780G)
Zagorsek: 628G (7.9%, 628G)
Forkmore: 600G (7.6%, 37,939G)
letdowncity: 548G (6.9%, 37,820G)
nekojin: 528G (6.7%, 528G)
Lord_Gwarth: 477G (6.0%, 477G)
Tsuike: 300G (3.8%, 2,920G)
CorpusCav: 200G (2.5%, 4,000G)
datadrivenbot: 200G (2.5%, 65,735G)
