Final Bets: purple - 15 bets for 6,999G (39.9%, x1.51); brown - 17 bets for 10,551G (60.1%, x0.66)

purple bets:
Deathmaker06: 1,382G (19.7%, 1,382G)
BirbBrainsBot: 1,000G (14.3%, 30,022G)
Mesmaster: 1,000G (14.3%, 100,807G)
CorpusCav: 600G (8.6%, 11,600G)
ColetteMSLP: 600G (8.6%, 44,951G)
Klednar21: 500G (7.1%, 3,563G)
gorgewall: 401G (5.7%, 21,194G)
CapnChaos12: 300G (4.3%, 19,226G)
TheMM42: 290G (4.1%, 2,253G)
getthemoneyz: 266G (3.8%, 751,811G)
itsdigitalbro: 248G (3.5%, 248G)
KasugaiRoastedPeas: 200G (2.9%, 2,748G)
KyleWonToLiveForever: 108G (1.5%, 108G)
AllInBot: 100G (1.4%, 100G)
alecttox: 4G (0.1%, 14,304G)

brown bets:
HorusTaurus: 3,000G (28.4%, 17,968G)
CT_5_Holy: 1,000G (9.5%, 2,600G)
Sungazes: 1,000G (9.5%, 4,631G)
Digitalsocrates: 1,000G (9.5%, 6,510G)
HASTERIOUS: 599G (5.7%, 11,985G)
lowlf: 588G (5.6%, 588G)
Bulleta: 581G (5.5%, 581G)
VynxYukida: 520G (4.9%, 520G)
evontno: 500G (4.7%, 7,182G)
Rislyeu: 428G (4.1%, 428G)
AmaninAmide: 400G (3.8%, 2,020G)
kaidykat: 372G (3.5%, 7,446G)
NeoKevlar: 200G (1.9%, 3,475G)
Sairentozon7: 200G (1.9%, 1,903G)
datadrivenbot: 100G (0.9%, 27,874G)
Cuchulame: 42G (0.4%, 1,111G)
aeonicvector: 21G (0.2%, 1,523G)
