Final Bets: blue - 14 bets for 16,143G (43.7%, x1.29); champion - 16 bets for 20,829G (56.3%, x0.78)

blue bets:
Virilikus: 5,000G (31.0%, 256,458G)
Clancyism: 2,765G (17.1%, 2,765G)
chronicdeath: 2,686G (16.6%, 5,372G)
VolgraTheMoose: 1,001G (6.2%, 71,426G)
3ngag3: 1,000G (6.2%, 15,000G)
BaronHaynes: 1,000G (6.2%, 23,944G)
SephDarkheart: 600G (3.7%, 177,824G)
Phi_Sig: 555G (3.4%, 90,205G)
Runeseeker22: 491G (3.0%, 491G)
Lord_Gwarth: 337G (2.1%, 2,735G)
Omally_: 200G (1.2%, 394G)
datadrivenbot: 200G (1.2%, 65,119G)
PuzzleSecretary: 196G (1.2%, 196G)
WesSideVandal: 112G (0.7%, 112G)

champion bets:
Mesmaster: 10,000G (48.0%, 52,367G)
Thyrandaal: 5,000G (24.0%, 87,975G)
BirbBrainsBot: 1,000G (4.8%, 46,437G)
Zeroroute: 920G (4.4%, 3,175G)
DustBirdEX: 692G (3.3%, 692G)
CapnChaos12: 500G (2.4%, 4,431G)
CorpusCav: 500G (2.4%, 2,073G)
SkylerBunny: 476G (2.3%, 476G)
thunderducker: 432G (2.1%, 432G)
twelfthrootoftwo: 300G (1.4%, 2,998G)
old_overholt_: 300G (1.4%, 5,936G)
iieunueii: 200G (1.0%, 200G)
Twisted_Nutsatchel: 200G (1.0%, 23,639G)
AllInBot: 136G (0.7%, 136G)
gorgewall: 101G (0.5%, 4,347G)
getthemoneyz: 72G (0.3%, 1,748,394G)
