Final Bets: purple - 64 bets for 193,008G (17.5%, x4.72); champion - 6 bets for 911,214G (82.5%, x0.21)

purple bets:
Leonidusx: 50,000G (25.9%, 318,801G)
Virilikus: 20,000G (10.4%, 120,244G)
NicoSavoy: 17,430G (9.0%, 17,430G)
CorpusCav: 15,000G (7.8%, 45,436G)
SeniorBunk: 15,000G (7.8%, 60,411G)
technominari: 11,000G (5.7%, 50,544G)
victoriolue: 10,000G (5.2%, 93,566G)
shineeyo: 5,000G (2.6%, 20,095G)
Evewho: 4,000G (2.1%, 8,195G)
Dodecadeath: 3,984G (2.1%, 3,984G)
Thyrandaal: 3,176G (1.6%, 3,176G)
krombobreaker: 3,000G (1.6%, 18,580G)
just_here2: 2,529G (1.3%, 5,058G)
ColetteMSLP: 2,000G (1.0%, 4,859G)
reinoe: 1,914G (1.0%, 3,829G)
E_Ballard: 1,784G (0.9%, 1,784G)
Miku_Shikhu: 1,500G (0.8%, 3,572G)
Zerguzen: 1,452G (0.8%, 1,452G)
Xenomorith: 1,221G (0.6%, 1,221G)
DeathTaxesAndAnime: 1,012G (0.5%, 1,012G)
Finewax: 1,000G (0.5%, 2,476G)
ValensEXP_: 1,000G (0.5%, 21,562G)
TheBrett: 1,000G (0.5%, 11,296G)
VolgraTheMoose: 984G (0.5%, 984G)
gorgewall: 980G (0.5%, 980G)
killth3kid: 860G (0.4%, 860G)
getthemoneyz: 748G (0.4%, 2,197,242G)
PoroTact: 720G (0.4%, 720G)
Spartan_Paladin: 700G (0.4%, 4,201G)
Nizaha: 684G (0.4%, 684G)
Sairentozon7: 672G (0.3%, 672G)
SephDarkheart: 666G (0.3%, 666G)
old_overholt_: 600G (0.3%, 600G)
brokenknight201: 600G (0.3%, 2,797G)
ruleof5: 576G (0.3%, 576G)
CosmicTactician: 572G (0.3%, 572G)
KasugaiRoastedPeas: 560G (0.3%, 560G)
roofiepops: 556G (0.3%, 556G)
mirapoix: 544G (0.3%, 544G)
seppu777: 520G (0.3%, 520G)
MagicBottle: 486G (0.3%, 486G)
Lord_Gwarth: 480G (0.2%, 480G)
Chuckolator: 472G (0.2%, 472G)
Phi_Sig: 460G (0.2%, 460G)
MemoriesofFinal: 456G (0.2%, 456G)
rocl: 439G (0.2%, 439G)
DustBirdEX: 436G (0.2%, 436G)
Runeseeker22: 388G (0.2%, 388G)
ApplesNP: 380G (0.2%, 380G)
randgridr: 380G (0.2%, 380G)
Lolthsmeat: 368G (0.2%, 368G)
Mudrockk: 332G (0.2%, 332G)
mindblownnnn: 316G (0.2%, 316G)
king_smashington: 308G (0.2%, 308G)
ExplanationMarkWow: 296G (0.2%, 296G)
AllInBot: 223G (0.1%, 223G)
DHaveWord: 220G (0.1%, 220G)
theQueenfuta: 208G (0.1%, 208G)
datadrivenbot: 200G (0.1%, 81,959G)
escobro: 176G (0.1%, 176G)
YowaneHaku: 120G (0.1%, 120G)
DirkC_Fenrir84: 116G (0.1%, 116G)
verythinice: 104G (0.1%, 104G)
fistfulofbees13: 100G (0.1%, 100G)

champion bets:
BirbBrainsBot: 899,856G (98.8%, 899,856G)
Laserman1000: 8,428G (0.9%, 16,857G)
MelTorefas: 1,344G (0.1%, 1,344G)
Smashy: 610G (0.1%, 610G)
2b_yorha_b: 500G (0.1%, 34,521G)
Zetchryn: 476G (0.1%, 476G)
