Final Bets: red - 21 bets for 10,265G (35.6%, x1.81); blue - 9 bets for 18,594G (64.4%, x0.55)

red bets:
AllInBot: 1,180G (11.5%, 1,180G)
DarrenDinosaurs: 1,118G (10.9%, 1,118G)
BirbBrainsBot: 1,000G (9.7%, 79,669G)
dogsandcatsand: 1,000G (9.7%, 15,874G)
SkylerBunny: 941G (9.2%, 1,846G)
Nizaha: 732G (7.1%, 14,884G)
killth3kid: 696G (6.8%, 38,324G)
thaetreis: 600G (5.8%, 37,372G)
SephDarkheart: 564G (5.5%, 101,594G)
getthemoneyz: 382G (3.7%, 1,615,002G)
latebit: 328G (3.2%, 30,813G)
resjudicata3: 320G (3.1%, 320G)
daveb_: 200G (1.9%, 3,207G)
datadrivenbot: 200G (1.9%, 64,657G)
ArrenJevleth: 200G (1.9%, 3,488G)
Gunz232323: 196G (1.9%, 196G)
maddrave09: 158G (1.5%, 158G)
muffin_money: 150G (1.5%, 12,566G)
MinBetBot: 100G (1.0%, 4,931G)
RunicMagus: 100G (1.0%, 4,100G)
Valgram: 100G (1.0%, 100G)

blue bets:
DustBirdEX: 6,177G (33.2%, 12,355G)
Forkmore: 4,235G (22.8%, 8,304G)
KasugaiRoastedPeas: 2,333G (12.5%, 7,442G)
Tarheels218: 2,000G (10.8%, 12,735G)
Mesmaster: 1,128G (6.1%, 1,128G)
VolgraTheMoose: 1,006G (5.4%, 1,006G)
CT_5_Holy: 715G (3.8%, 715G)
Laserman1000: 500G (2.7%, 5,400G)
Oreo_Pizza: 500G (2.7%, 63,321G)
