Final Bets: purple - 12 bets for 7,150G (28.2%, x2.55); brown - 27 bets for 18,215G (71.8%, x0.39)

purple bets:
fenaen: 1,368G (19.1%, 1,368G)
Mtueni: 1,000G (14.0%, 237,859G)
ungabunga_bot: 1,000G (14.0%, 291,716G)
BirbBrainsBot: 1,000G (14.0%, 173,230G)
DavenIII: 500G (7.0%, 1,019G)
HaateXIII: 500G (7.0%, 3,761G)
deenglow: 500G (7.0%, 65,902G)
LDSkinny: 420G (5.9%, 420G)
getthemoneyz: 312G (4.4%, 613,704G)
SoIidSmok3: 300G (4.2%, 1,214G)
vampyreinabox: 150G (2.1%, 1,736G)
ANFz: 100G (1.4%, 24,502G)

brown bets:
GreatRedDragon: 3,202G (17.6%, 36,506G)
aStatue: 2,158G (11.8%, 2,158G)
gooseyourself: 2,000G (11.0%, 19,258G)
ACSpree: 1,033G (5.7%, 1,033G)
TheChainNerd: 1,000G (5.5%, 3,283G)
DeathTaxesAndAnime: 986G (5.4%, 1,935G)
Master_Metroid: 960G (5.3%, 960G)
Shalloween: 923G (5.1%, 923G)
dodgeroll: 566G (3.1%, 2,831G)
Grimmace45: 521G (2.9%, 521G)
luminarii: 508G (2.8%, 18,120G)
BadErosion: 500G (2.7%, 9,667G)
CorpusCav: 500G (2.7%, 15,068G)
ZephyrTempest: 456G (2.5%, 766G)
roofiepops: 444G (2.4%, 11,455G)
Cryptopsy70: 388G (2.1%, 38,053G)
Arunic: 380G (2.1%, 380G)
ko2q: 336G (1.8%, 336G)
catfashions: 300G (1.6%, 2,833G)
SaintOmerville: 256G (1.4%, 256G)
HorusTaurus: 200G (1.1%, 333G)
nifboy: 100G (0.5%, 5,283G)
Wonser: 100G (0.5%, 1,363G)
maakur_: 100G (0.5%, 115,858G)
Bioticism: 100G (0.5%, 8,899G)
datadrivenbot: 100G (0.5%, 11,763G)
ferroniss: 98G (0.5%, 1,098G)
