Final Bets: blue - 11 bets for 3,886G (20.8%, x3.80); white - 28 bets for 14,774G (79.2%, x0.26)

blue bets:
TheChainNerd: 1,000G (25.7%, 5,599G)
DeathTaxesAndAnime: 648G (16.7%, 648G)
Zachara: 514G (13.2%, 50,514G)
proper__noun__: 500G (12.9%, 4,823G)
ko2q: 336G (8.6%, 336G)
fenaen: 320G (8.2%, 320G)
getthemoneyz: 168G (4.3%, 613,428G)
nifboy: 100G (2.6%, 5,365G)
ANFz: 100G (2.6%, 24,687G)
Bioticism: 100G (2.6%, 9,508G)
OneHundredFists: 100G (2.6%, 3,375G)

white bets:
DavenIII: 2,452G (16.6%, 4,905G)
deenglow: 2,000G (13.5%, 71,106G)
ShintaroNayaka: 1,300G (8.8%, 2,884G)
SoIidSmok3: 1,004G (6.8%, 1,004G)
Odin007_88: 819G (5.5%, 819G)
ACSpree: 621G (4.2%, 621G)
coralreeferz: 550G (3.7%, 10,855G)
aStatue: 500G (3.4%, 7,962G)
reinoe: 500G (3.4%, 1,949G)
Dymntd: 500G (3.4%, 31,195G)
luminarii: 450G (3.0%, 18,461G)
roofiepops: 444G (3.0%, 11,185G)
joewcarson: 384G (2.6%, 384G)
YaBoy125: 356G (2.4%, 356G)
Grimmace45: 304G (2.1%, 304G)
FoxtrotNovemberCharlie: 296G (2.0%, 296G)
BirbBrainsBot: 284G (1.9%, 170,230G)
SQUiDSQUARKLIN: 260G (1.8%, 260G)
SaintOmerville: 256G (1.7%, 256G)
HaateXIII: 250G (1.7%, 2,765G)
ungabunga_bot: 216G (1.5%, 290,354G)
vampyreinabox: 200G (1.4%, 1,600G)
Master_Metroid: 200G (1.4%, 200G)
HorusTaurus: 200G (1.4%, 252G)
ZephyrTempest: 128G (0.9%, 854G)
maakur_: 100G (0.7%, 115,697G)
CosmicTactician: 100G (0.7%, 15,225G)
datadrivenbot: 100G (0.7%, 11,845G)
