Final Bets: green - 13 bets for 6,562G (50.6%, x0.98); yellow - 12 bets for 6,417G (49.4%, x1.02)

green bets:
Laserman1000: 1,305G (19.9%, 1,305G)
Lord_Burrah: 1,164G (17.7%, 100,164G)
TheChainNerd: 1,000G (15.2%, 9,366G)
mannequ1n: 604G (9.2%, 604G)
JumbocactuarX27: 576G (8.8%, 576G)
DLJuggernaut: 500G (7.6%, 3,360G)
eudes89: 500G (7.6%, 2,239G)
LeoNightFury: 300G (4.6%, 4,243G)
ChrisWado: 212G (3.2%, 212G)
ungabunga_bot: 101G (1.5%, 509,944G)
E_Ballard: 100G (1.5%, 2,369G)
datadrivenbot: 100G (1.5%, 17,924G)
gggamezzz: 100G (1.5%, 4,061G)

yellow bets:
NIghtdew14: 1,500G (23.4%, 12,710G)
BirbBrainsBot: 1,000G (15.6%, 171,805G)
toka222: 800G (12.5%, 43,664G)
DeathTaxesAndAnime: 552G (8.6%, 552G)
EnemyController: 500G (7.8%, 277,213G)
HaateXIII: 456G (7.1%, 456G)
marin1987: 419G (6.5%, 419G)
getthemoneyz: 366G (5.7%, 684,717G)
gabbagooluigi: 324G (5.0%, 324G)
skillomono: 300G (4.7%, 2,378G)
Evewho: 100G (1.6%, 5,313G)
Tougou: 100G (1.6%, 1,909G)
