Final Bets: red - 11 bets for 10,061G (58.4%, x0.71); green - 18 bets for 7,156G (41.6%, x1.41)

red bets:
toka222: 4,000G (39.8%, 46,462G)
HaplessOne: 2,222G (22.1%, 8,523G)
TheChainNerd: 1,000G (9.9%, 9,604G)
BirbBrainsBot: 1,000G (9.9%, 170,640G)
LeoNightFury: 500G (5.0%, 4,466G)
ungabunga_bot: 473G (4.7%, 510,935G)
joewcarson: 300G (3.0%, 3,097G)
EnemyController: 300G (3.0%, 277,566G)
Arcblazer23: 128G (1.3%, 128G)
E_Ballard: 100G (1.0%, 2,367G)
getthemoneyz: 38G (0.4%, 684,753G)

green bets:
Laserman1000: 813G (11.4%, 1,626G)
ChrisWado: 769G (10.7%, 769G)
DavenIII: 700G (9.8%, 1,782G)
fenaen: 671G (9.4%, 671G)
BoneMiser: 600G (8.4%, 600G)
JumbocactuarX27: 576G (8.0%, 576G)
HaateXIII: 574G (8.0%, 574G)
FriendSquirrel: 352G (4.9%, 352G)
SQUiDSQUARKLIN: 301G (4.2%, 2,243G)
skillomono: 300G (4.2%, 2,513G)
midori_ribbon: 288G (4.0%, 288G)
gggamezzz: 250G (3.5%, 4,004G)
benticore: 250G (3.5%, 6,162G)
marin1987: 248G (3.5%, 248G)
WunUP: 164G (2.3%, 164G)
Tougou: 100G (1.4%, 1,918G)
datadrivenbot: 100G (1.4%, 18,131G)
StealthModeLocke: 100G (1.4%, 40,861G)
