Final Bets: blue - 13 bets for 12,530G (59.8%, x0.67); green - 14 bets for 8,415G (40.2%, x1.49)

blue bets:
TheUnforgivenRage: 3,811G (30.4%, 3,811G)
toka222: 2,750G (21.9%, 123,608G)
rockmem21: 1,788G (14.3%, 11,922G)
nhammen: 1,000G (8.0%, 26,995G)
silentkaster: 750G (6.0%, 4,253G)
Rytor: 589G (4.7%, 589G)
Zagorsek: 588G (4.7%, 588G)
silentperogy: 500G (4.0%, 42,205G)
Tarheels218: 250G (2.0%, 1,239G)
datadrivenbot: 200G (1.6%, 66,681G)
PuzzleSecretary: 104G (0.8%, 104G)
AllInBot: 100G (0.8%, 100G)
Wooplestein: 100G (0.8%, 2,378G)

green bets:
UmaiJam: 2,000G (23.8%, 4,145G)
Thyrandaal: 1,000G (11.9%, 271,456G)
BirbBrainsBot: 1,000G (11.9%, 170,226G)
whelming_wave: 847G (10.1%, 847G)
DeathTaxesAndAnime: 812G (9.6%, 812G)
letdowncity: 528G (6.3%, 28,584G)
HaateXIII: 500G (5.9%, 7,243G)
getthemoneyz: 472G (5.6%, 1,663,892G)
SeniorBunk: 456G (5.4%, 456G)
Shalloween: 400G (4.8%, 13,201G)
Error72: 100G (1.2%, 2,362G)
Raixelol: 100G (1.2%, 2,453G)
Valgram: 100G (1.2%, 1,567G)
wildetrys: 100G (1.2%, 604G)
