Final Bets: red - 15 bets for 12,105G (62.2%, x0.61); blue - 11 bets for 7,357G (37.8%, x1.65)

red bets:
latebit: 3,563G (29.4%, 6,988G)
DavenIII: 2,500G (20.7%, 111,779G)
dogsandcatsand: 1,103G (9.1%, 1,103G)
BirbBrainsBot: 1,000G (8.3%, 100,097G)
nhammen: 1,000G (8.3%, 134,344G)
Willjin: 1,000G (8.3%, 11,203G)
Zeroroute: 500G (4.1%, 500G)
Tarheels218: 312G (2.6%, 312G)
reddwind_: 308G (2.5%, 308G)
maximumcrit: 300G (2.5%, 4,207G)
AllInBot: 141G (1.2%, 141G)
gongonono: 120G (1.0%, 120G)
Chihuahua_Charity: 108G (0.9%, 108G)
Scurg: 100G (0.8%, 2,745G)
captainmilestw: 50G (0.4%, 1,312G)

blue bets:
LDSkinny: 1,612G (21.9%, 1,612G)
Lord_Burrah: 1,389G (18.9%, 88,389G)
powergems: 1,234G (16.8%, 4,896G)
FriendSquirrel: 652G (8.9%, 652G)
ShintaroNayaka: 620G (8.4%, 620G)
ko2q: 545G (7.4%, 545G)
CosmicTactician: 500G (6.8%, 34,463G)
rocl: 404G (5.5%, 3,047G)
datadrivenbot: 200G (2.7%, 63,295G)
gorgewall: 101G (1.4%, 2,433G)
Thyrandaal: 100G (1.4%, 3,634G)
