Final Bets: yellow - 12 bets for 12,450G (14.5%, x5.91); champion - 23 bets for 73,639G (85.5%, x0.17)

yellow bets:
waterwatereverywhere: 4,326G (34.7%, 8,483G)
kingchadking: 2,803G (22.5%, 2,803G)
TheChainNerd: 1,784G (14.3%, 8,920G)
volgrathemoose: 1,001G (8.0%, 7,737G)
z32o: 694G (5.6%, 2,670G)
Bryon_W: 500G (4.0%, 39,105G)
MoonSlayerRS: 392G (3.1%, 392G)
SeniorBunk: 256G (2.1%, 256G)
JustSuperish: 244G (2.0%, 244G)
SerumD: 200G (1.6%, 8,835G)
ZephyrTempest: 150G (1.2%, 28,217G)
SeedSC: 100G (0.8%, 141,975G)

champion bets:
sinnyil2: 40,160G (54.5%, 80,321G)
Raixelol: 11,213G (15.2%, 11,213G)
upvla: 5,283G (7.2%, 121,046G)
ugoplatamia: 3,191G (4.3%, 15,956G)
Extinctosaurus: 3,000G (4.1%, 4,715G)
herrshaun: 1,951G (2.6%, 3,902G)
leakimiko: 1,093G (1.5%, 21,860G)
BenYuPoker: 1,022G (1.4%, 1,022G)
BirbBrainsBot: 1,000G (1.4%, 247,558G)
bad1dea: 1,000G (1.4%, 41,342G)
ungabunga_bot: 945G (1.3%, 47,916G)
jethrothrul: 925G (1.3%, 925G)
UmaiJam: 609G (0.8%, 6,092G)
fenixcrest: 504G (0.7%, 10,082G)
JumbocactuarX27: 500G (0.7%, 2,017G)
ko2q: 360G (0.5%, 360G)
DrAntiSocial: 283G (0.4%, 1,929G)
AllInBot: 100G (0.1%, 100G)
maakur_: 100G (0.1%, 2,577G)
rjA0zcOQ96: 100G (0.1%, 5,076G)
Incognito122: 100G (0.1%, 100G)
ALY327: 100G (0.1%, 1,897G)
datadrivenbot: 100G (0.1%, 21,663G)
