Final Bets: purple - 20 bets for 12,489G (48.7%, x1.05); brown - 12 bets for 13,172G (51.3%, x0.95)

purple bets:
HaplessOne: 2,222G (17.8%, 111,997G)
leakimiko: 1,358G (10.9%, 2,663G)
superdevon1: 1,100G (8.8%, 1,100G)
BirbBrainsBot: 1,000G (8.0%, 135,562G)
Pie108: 1,000G (8.0%, 68,790G)
DontBackseatGame: 824G (6.6%, 824G)
ungabunga_bot: 796G (6.4%, 216,959G)
SQUiDSQUARKLIN: 620G (5.0%, 620G)
reinoe: 600G (4.8%, 600G)
gorgewall: 500G (4.0%, 6,745G)
getthemoneyz: 456G (3.7%, 556,818G)
Kothn: 400G (3.2%, 11,690G)
Chuckolator: 351G (2.8%, 22,998G)
joewcarson: 300G (2.4%, 4,725G)
benticore: 200G (1.6%, 2,237G)
smurphy000000: 200G (1.6%, 973G)
Mikumari12: 200G (1.6%, 656G)
trigger15: 150G (1.2%, 2,358G)
nifboy: 112G (0.9%, 2,810G)
datadrivenbot: 100G (0.8%, 100G)

brown bets:
itzover9001: 7,777G (59.0%, 59,107G)
sinnyil2: 1,709G (13.0%, 145,068G)
OneHundredFists: 920G (7.0%, 920G)
Estan_AD: 752G (5.7%, 752G)
HASTERIOUS: 493G (3.7%, 4,936G)
Ross_from_Cali: 411G (3.1%, 8,733G)
SquidgyXom: 400G (3.0%, 1,643G)
HaateXIII: 250G (1.9%, 26,045G)
feDoran: 200G (1.5%, 6,224G)
marin1987: 150G (1.1%, 624G)
AllInBot: 100G (0.8%, 100G)
ZZ_Yoshi: 10G (0.1%, 70,456G)
