Final Bets: red - 20 bets for 9,164G (47.1%, x1.12); blue - 13 bets for 10,288G (52.9%, x0.89)

red bets:
Evewho: 1,400G (15.3%, 1,400G)
BirbBrainsBot: 1,000G (10.9%, 52,642G)
DeathTaxesAndAnime: 969G (10.6%, 969G)
Sairentozon7: 864G (9.4%, 864G)
Laserman1000: 617G (6.7%, 3,017G)
fenaen: 600G (6.5%, 39,500G)
opHendoslice: 500G (5.5%, 4,356G)
DudeMonkey77: 500G (5.5%, 25,040G)
Spuzzmocker: 478G (5.2%, 478G)
roqqqpsi: 417G (4.6%, 1,897G)
CorpusCav: 416G (4.5%, 416G)
Flameatron: 300G (3.3%, 6,461G)
muffin_money: 250G (2.7%, 2,622G)
CosmicTactician: 200G (2.2%, 6,820G)
getthemoneyz: 142G (1.5%, 960,717G)
autnagrag: 111G (1.2%, 3,164G)
Akrae: 100G (1.1%, 1,776G)
BStarTV: 100G (1.1%, 100G)
dodgeroll: 100G (1.1%, 3,636G)
reinoe: 100G (1.1%, 9,296G)

blue bets:
OneHundredFists: 5,341G (51.9%, 10,473G)
TheChainNerd: 1,400G (13.6%, 1,400G)
Digitalsocrates: 1,000G (9.7%, 63,820G)
Anasetsuken: 500G (4.9%, 18,700G)
Error72: 500G (4.9%, 9,910G)
AllInBot: 324G (3.1%, 324G)
CapnChaos12: 300G (2.9%, 9,006G)
Nizaha: 201G (2.0%, 28,142G)
RunicMagus: 200G (1.9%, 57,386G)
silentkaster: 200G (1.9%, 2,600G)
daveb_: 122G (1.2%, 4,007G)
RuneS_77: 100G (1.0%, 8,724G)
serperemagus: 100G (1.0%, 3,338G)
