Final Bets: white - 6 bets for 3,205G (18.9%, x4.29); black - 21 bets for 13,735G (81.1%, x0.23)

white bets:
ValtonZenola: 1,500G (46.8%, 3,682G)
twelfthrootoftwo: 843G (26.3%, 1,654G)
Arcblazer23: 364G (11.4%, 364G)
randgridr: 308G (9.6%, 391G)
fluffskull: 100G (3.1%, 2,901G)
getthemoneyz: 90G (2.8%, 1,278,772G)

black bets:
reinoe: 3,000G (21.8%, 33,953G)
SkylerBunny: 1,500G (10.9%, 52,021G)
BirbBrainsBot: 1,000G (7.3%, 137,766G)
NicoSavoy: 1,000G (7.3%, 181,871G)
dantayystv: 1,000G (7.3%, 39,430G)
josephiroth_143: 965G (7.0%, 965G)
Evewho: 796G (5.8%, 796G)
pandasforsale: 777G (5.7%, 31,202G)
flacococo: 674G (4.9%, 674G)
LAGBOT30000: 455G (3.3%, 9,112G)
Lemonjohns: 400G (2.9%, 3,408G)
dtrain332: 356G (2.6%, 712G)
superdevon1: 340G (2.5%, 6,807G)
furrytomahawkk: 240G (1.7%, 240G)
dem0nj0ns: 232G (1.7%, 232G)
datadrivenbot: 200G (1.5%, 56,155G)
ayeayex3: 200G (1.5%, 560G)
Treafa: 200G (1.5%, 1,099G)
lijerrr: 200G (1.5%, 1,328G)
Ring_Wyrm: 100G (0.7%, 17,983G)
ANFz: 100G (0.7%, 45,529G)
