Final Bets: white - 25 bets for 13,451G (53.9%, x0.85); black - 20 bets for 11,493G (46.1%, x1.17)

white bets:
Nizaha: 3,418G (25.4%, 6,837G)
CapnChaos12: 1,042G (7.7%, 1,042G)
Mtueni: 1,000G (7.4%, 199,166G)
Aldrammech: 852G (6.3%, 852G)
HaateXIII: 844G (6.3%, 844G)
fallendj77: 778G (5.8%, 778G)
rNdOrchestra: 630G (4.7%, 630G)
roofiepops: 618G (4.6%, 618G)
NoNotBees: 600G (4.5%, 10,627G)
Laserman1000: 577G (4.3%, 20,877G)
OmnibotGamma: 500G (3.7%, 8,801G)
elkydeluxe: 440G (3.3%, 440G)
datadrivenbot: 378G (2.8%, 533G)
GreatRedDragon: 268G (2.0%, 268G)
madming25: 212G (1.6%, 212G)
Lavatis: 200G (1.5%, 1,730G)
LazarusAjin: 150G (1.1%, 663G)
carsenhk: 150G (1.1%, 2,407G)
ManaSphere: 142G (1.1%, 142G)
Snowfats: 136G (1.0%, 136G)
CandyTamer: 116G (0.9%, 1,590G)
FoeSquirrel: 100G (0.7%, 216G)
lastly: 100G (0.7%, 4,324G)
sukotsuto: 100G (0.7%, 100G)
ericzubat: 100G (0.7%, 100G)

black bets:
Nickyfive: 1,500G (13.1%, 24,681G)
HaplessOne: 1,500G (13.1%, 80,849G)
SquidgyXom: 1,019G (8.9%, 1,019G)
MantisFinch: 1,000G (8.7%, 28,768G)
ungabunga_bot: 1,000G (8.7%, 161,860G)
BirbBrainsBot: 1,000G (8.7%, 200,930G)
HASTERIOUS: 826G (7.2%, 826G)
ShintaroNayaka: 800G (7.0%, 18,202G)
helpimabug: 500G (4.4%, 1,606G)
nifboy: 363G (3.2%, 7,266G)
Evewho: 340G (3.0%, 340G)
Dexsana: 280G (2.4%, 280G)
moonliquor: 274G (2.4%, 548G)
ZephyrTempest: 261G (2.3%, 82,673G)
getthemoneyz: 236G (2.1%, 500,271G)
HawkSick: 172G (1.5%, 172G)
SwaffleWaffles: 131G (1.1%, 3,281G)
braumbles: 128G (1.1%, 1,286G)
ANFz: 100G (0.9%, 5,696G)
roqqqpsi: 63G (0.5%, 3,154G)
