Final Bets: red - 22 bets for 17,829G (55.1%, x0.81); yellow - 11 bets for 14,505G (44.9%, x1.23)

red bets:
marin1987: 4,000G (22.4%, 7,861G)
EnemyController: 2,000G (11.2%, 1,266,210G)
Mesmaster: 2,000G (11.2%, 35,859G)
VolgraTheMoose: 1,102G (6.2%, 2,205G)
UmaiJam: 1,000G (5.6%, 20,820G)
BirbBrainsBot: 1,000G (5.6%, 184,562G)
Zbgs: 1,000G (5.6%, 7,154G)
getthemoneyz: 712G (4.0%, 1,038,206G)
Laserman1000: 600G (3.4%, 6,800G)
Zeroroute: 600G (3.4%, 600G)
serperemagus: 536G (3.0%, 536G)
Chuckolator: 534G (3.0%, 26,243G)
killth3kid: 500G (2.8%, 2,797G)
HaateXIII: 500G (2.8%, 3,464G)
sparker9: 500G (2.8%, 15,391G)
DustBirdEX: 345G (1.9%, 1,769G)
Shalloween: 300G (1.7%, 42,891G)
Magicandy: 200G (1.1%, 8,793G)
ANFz: 100G (0.6%, 2,115G)
maakur_: 100G (0.6%, 76,642G)
ryan77467: 100G (0.6%, 178G)
datadrivenbot: 100G (0.6%, 49,035G)

yellow bets:
VulcanPanderp: 8,319G (57.4%, 8,319G)
Tyerenex: 1,000G (6.9%, 29,224G)
Virilikus: 1,000G (6.9%, 206,189G)
SkylerBunny: 1,000G (6.9%, 548,586G)
Zagorsek: 991G (6.8%, 991G)
E_Ballard: 648G (4.5%, 648G)
Cryptopsy70: 596G (4.1%, 31,931G)
Rislyeu: 500G (3.4%, 5,649G)
twelfthrootoftwo: 300G (2.1%, 5,355G)
Baron_von_Scrub: 101G (0.7%, 19,337G)
oops25: 50G (0.3%, 2,509G)
