Final Bets: yellow - 18 bets for 22,516G (59.4%, x0.68); brown - 12 bets for 15,368G (40.6%, x1.47)

yellow bets:
Mysteriousdewd: 9,293G (41.3%, 9,293G)
RunicMagus: 2,358G (10.5%, 2,358G)
WitchHunterIX: 2,000G (8.9%, 22,359G)
randgridr: 2,000G (8.9%, 8,068G)
NIghtdew14: 1,500G (6.7%, 9,035G)
Creggers: 1,000G (4.4%, 32,747G)
E_Ballard: 678G (3.0%, 678G)
superdevon1: 605G (2.7%, 6,055G)
Treafa: 500G (2.2%, 1,678G)
TasisSai: 411G (1.8%, 806G)
skillomono: 384G (1.7%, 384G)
datadrivenbot: 301G (1.3%, 42,289G)
DeathTaxesAndAnime: 300G (1.3%, 1,909G)
furrytomahawkk: 300G (1.3%, 1,705G)
AND4H: 300G (1.3%, 7,062G)
kahjeethaswares: 285G (1.3%, 285G)
gorgewall: 201G (0.9%, 5,244G)
nhammen: 100G (0.4%, 10,426G)

brown bets:
mpghappiness: 9,028G (58.7%, 17,702G)
letdowncity: 1,459G (9.5%, 1,459G)
BirbBrainsBot: 1,000G (6.5%, 157,244G)
porkchop5158: 1,000G (6.5%, 21,441G)
BlueAbs: 701G (4.6%, 701G)
Laserman1000: 659G (4.3%, 26,959G)
Zeroroute: 578G (3.8%, 578G)
Shalloween: 500G (3.3%, 63,261G)
AllInBot: 231G (1.5%, 231G)
fluffskull: 100G (0.7%, 3,273G)
getthemoneyz: 62G (0.4%, 1,274,659G)
Othatmattkid: 50G (0.3%, 2,548G)
