Final Bets: red - 10 bets for 5,703G (29.9%, x2.34); blue - 12 bets for 13,368G (70.1%, x0.43)

red bets:
YaBoy125: 2,613G (45.8%, 87,129G)
Digitalsocrates: 1,000G (17.5%, 55,566G)
BirbBrainsBot: 1,000G (17.5%, 31,532G)
getthemoneyz: 318G (5.6%, 954,062G)
Spuzzmocker: 252G (4.4%, 252G)
Lydian_C: 120G (2.1%, 14,185G)
AllInBot: 100G (1.8%, 100G)
Evewho: 100G (1.8%, 4,611G)
freethought78: 100G (1.8%, 1,833G)
porkchop5158: 100G (1.8%, 1,042G)

blue bets:
WitchHunterIX: 5,000G (37.4%, 19,520G)
serperemagus: 3,714G (27.8%, 3,714G)
OppressivelyMinty: 1,500G (11.2%, 5,250G)
superdevon1: 778G (5.8%, 7,781G)
fluffskull: 671G (5.0%, 671G)
prince_rogers_nelson_: 500G (3.7%, 13,416G)
gorgewall: 401G (3.0%, 22,899G)
placidphoenix: 204G (1.5%, 204G)
AltimaMantoid: 200G (1.5%, 200G)
ar_tactic: 200G (1.5%, 70,551G)
Ring_Wyrm: 100G (0.7%, 5,161G)
datadrivenbot: 100G (0.7%, 40,836G)
