Final Bets: green - 11 bets for 7,808G (63.6%, x0.57); yellow - 11 bets for 4,465G (36.4%, x1.75)

green bets:
YaBoy125: 2,797G (35.8%, 93,254G)
HaychDub: 2,500G (32.0%, 38,833G)
reinoe: 1,000G (12.8%, 10,529G)
gorgewall: 301G (3.9%, 22,498G)
ColetteMSLP: 300G (3.8%, 2,086G)
fluffskull: 260G (3.3%, 260G)
DAC169: 200G (2.6%, 1,735G)
ar_tactic: 150G (1.9%, 70,351G)
freethought78: 100G (1.3%, 2,067G)
Ring_Wyrm: 100G (1.3%, 5,061G)
datadrivenbot: 100G (1.3%, 40,736G)

yellow bets:
Digitalsocrates: 1,000G (22.4%, 57,910G)
WitchHunterIX: 1,000G (22.4%, 14,520G)
superdevon1: 700G (15.7%, 7,003G)
OppressivelyMinty: 500G (11.2%, 3,750G)
AllInBot: 334G (7.5%, 334G)
placidphoenix: 204G (4.6%, 204G)
AltimaMantoid: 200G (4.5%, 200G)
getthemoneyz: 160G (3.6%, 954,807G)
BirbBrainsBot: 147G (3.3%, 33,876G)
Lydian_C: 120G (2.7%, 14,466G)
porkchop5158: 100G (2.2%, 1,276G)
