Final Bets: red - 9 bets for 6,671G (52.7%, x0.90); yellow - 12 bets for 5,978G (47.3%, x1.12)

red bets:
YaBoy125: 2,779G (41.7%, 92,655G)
serperemagus: 1,113G (16.7%, 1,113G)
SkyridgeZero: 1,000G (15.0%, 37,815G)
superdevon1: 707G (10.6%, 7,859G)
BirbBrainsBot: 300G (4.5%, 33,675G)
fluffskull: 260G (3.9%, 260G)
Evewho: 200G (3.0%, 3,845G)
BoneMiser: 200G (3.0%, 905G)
porkchop5158: 112G (1.7%, 112G)

yellow bets:
Digitalsocrates: 1,000G (16.7%, 60,469G)
WitchHunterIX: 1,000G (16.7%, 17,079G)
reinoe: 1,000G (16.7%, 9,635G)
placidphoenix: 771G (12.9%, 771G)
HaychDub: 550G (9.2%, 35,333G)
OppressivelyMinty: 500G (8.4%, 4,367G)
gorgewall: 401G (6.7%, 22,769G)
AltimaMantoid: 400G (6.7%, 400G)
Lydian_C: 120G (2.0%, 15,714G)
AllInBot: 100G (1.7%, 100G)
datadrivenbot: 100G (1.7%, 40,591G)
getthemoneyz: 36G (0.6%, 954,723G)
