Final Bets: brown - 9 bets for 2,559G (13.3%, x6.52); champion - 12 bets for 16,678G (86.7%, x0.15)

brown bets:
BirbBrainsBot: 1,000G (39.1%, 184,955G)
YaBoy125: 526G (20.6%, 3,126G)
ColetteMSLP: 500G (19.5%, 30,476G)
Maeveen: 100G (3.9%, 3,632G)
Treapvort: 100G (3.9%, 3,006G)
DustyRelic: 100G (3.9%, 28,360G)
Dexsana: 100G (3.9%, 2,616G)
WireLord: 100G (3.9%, 2,006G)
daveb_: 33G (1.3%, 3,102G)

champion bets:
HaplessOne: 5,000G (30.0%, 78,226G)
sinnyil2: 4,509G (27.0%, 38,671G)
Lanshaft: 1,716G (10.3%, 3,433G)
upvla: 1,234G (7.4%, 39,505G)
volgrathemoose: 1,000G (6.0%, 6,277G)
HASTERIOUS: 868G (5.2%, 868G)
gorgewall: 604G (3.6%, 604G)
rocl: 500G (3.0%, 69,189G)
Anomandaris__: 500G (3.0%, 7,963G)
datadrivenbot: 347G (2.1%, 392G)
ShintaroNayaka: 300G (1.8%, 15,433G)
Tithonus: 100G (0.6%, 7,035G)
