Final Bets: yellow - 12 bets for 14,292G (49.0%, x1.04); champion - 20 bets for 14,884G (51.0%, x0.96)

yellow bets:
mayfu: 8,000G (56.0%, 63,393G)
blorpy_: 1,546G (10.8%, 1,546G)
Baron_von_Scrub: 1,111G (7.8%, 22,429G)
amiture: 1,000G (7.0%, 15,963G)
DuraiPapers: 750G (5.2%, 10,320G)
getthemoneyz: 528G (3.7%, 1,102,058G)
sparker9: 500G (3.5%, 4,691G)
Zagorsek: 336G (2.4%, 336G)
WillFitzgerald: 200G (1.4%, 2,151G)
Lydian_C: 121G (0.8%, 172,823G)
Blakelmenakle: 100G (0.7%, 1,955G)
Neo_Exodus: 100G (0.7%, 3,070G)

champion bets:
KasugaiRoastedPeas: 2,400G (16.1%, 15,455G)
SkylerBunny: 2,000G (13.4%, 520,590G)
ShintaroNayaka: 1,509G (10.1%, 12,578G)
E_Ballard: 1,383G (9.3%, 1,383G)
Lord_Burrah: 1,005G (6.8%, 84,005G)
Forkmore: 1,000G (6.7%, 3,860G)
CT_5_Holy: 1,000G (6.7%, 2,011G)
BirbBrainsBot: 1,000G (6.7%, 108,453G)
twelfthrootoftwo: 1,000G (6.7%, 11,848G)
Laserman1000: 500G (3.4%, 20,500G)
Lanshaft: 358G (2.4%, 702G)
reinoe: 316G (2.1%, 316G)
benticore: 250G (1.7%, 4,577G)
ArashiKurobara: 212G (1.4%, 212G)
gorgewall: 201G (1.4%, 29,633G)
DeathTaxesAndAnime: 200G (1.3%, 1,859G)
Evewho: 200G (1.3%, 11,251G)
ar_tactic: 150G (1.0%, 57,541G)
nhammen: 100G (0.7%, 4,086G)
datadrivenbot: 100G (0.7%, 47,183G)
