Final Bets: purple - 14 bets for 13,236G (72.5%, x0.38); champion - 13 bets for 5,010G (27.5%, x2.64)

purple bets:
Thyrandaal: 4,000G (30.2%, 255,380G)
SkylerBunny: 2,250G (17.0%, 2,250G)
DavenIII: 1,000G (7.6%, 11,633G)
resjudicata3: 984G (7.4%, 984G)
readdesert: 875G (6.6%, 875G)
KasugaiRoastedPeas: 763G (5.8%, 763G)
Firesheath: 720G (5.4%, 720G)
killth3kid: 720G (5.4%, 32,477G)
Aldrammech: 684G (5.2%, 684G)
douchetron: 500G (3.8%, 6,826G)
wildetrys: 312G (2.4%, 312G)
HASTERIOUS: 228G (1.7%, 4,568G)
AllInBot: 100G (0.8%, 100G)
CosmicTactician: 100G (0.8%, 22,975G)

champion bets:
whelming_wave: 1,429G (28.5%, 1,429G)
BirbBrainsBot: 1,000G (20.0%, 167,627G)
SephDarkheart: 588G (11.7%, 120,245G)
Forkmore: 520G (10.4%, 520G)
lowlf: 300G (6.0%, 1,435G)
arctodus13: 234G (4.7%, 234G)
getthemoneyz: 228G (4.6%, 1,650,016G)
datadrivenbot: 200G (4.0%, 64,081G)
neocarbuncle: 110G (2.2%, 2,195G)
gorgewall: 101G (2.0%, 4,367G)
LordMaxoss: 100G (2.0%, 5,563G)
ko2q: 100G (2.0%, 2,853G)
nhammen: 100G (2.0%, 32,323G)
