Final Bets: green - 19 bets for 7,412G (37.9%, x1.64); yellow - 14 bets for 12,152G (62.1%, x0.61)

green bets:
LordSDB: 2,000G (27.0%, 74,909G)
LDSkinny: 1,000G (13.5%, 29,786G)
RunicMagus: 722G (9.7%, 722G)
killth3kid: 680G (9.2%, 73,021G)
Mudrockk: 500G (6.7%, 5,797G)
winteriscorning: 486G (6.6%, 486G)
loveyouallfriends: 336G (4.5%, 336G)
dantayystv: 300G (4.0%, 2,772G)
datadrivenbot: 200G (2.7%, 63,238G)
DustBirdEX: 190G (2.6%, 4,458G)
Treafa: 149G (2.0%, 149G)
TasisSai: 128G (1.7%, 252G)
Lydian_C: 123G (1.7%, 114,964G)
ANFz: 100G (1.3%, 42,005G)
nhammen: 100G (1.3%, 4,979G)
nifboy: 100G (1.3%, 7,102G)
moocaotao: 100G (1.3%, 5,065G)
Grandlanzer: 100G (1.3%, 73,337G)
getthemoneyz: 98G (1.3%, 1,261,029G)

yellow bets:
KyleWonToLiveForever: 3,400G (28.0%, 3,400G)
Evewho: 2,152G (17.7%, 2,152G)
TheMurkGnome: 1,000G (8.2%, 3,048G)
BirbBrainsBot: 1,000G (8.2%, 47,707G)
Forkmore: 1,000G (8.2%, 4,135G)
NicoSavoy: 1,000G (8.2%, 192,836G)
oooSancheZooo: 500G (4.1%, 2,469G)
Firesheath: 444G (3.7%, 444G)
Digitalsocrates: 400G (3.3%, 1,677G)
evontno: 400G (3.3%, 16,084G)
RageImmortaI: 284G (2.3%, 1,245G)
superdevon1: 272G (2.2%, 1,362G)
Lemonjohns: 200G (1.6%, 930G)
Cypruss904: 100G (0.8%, 1,665G)
