Final Bets: purple - 13 bets for 13,710G (35.3%, x1.84); brown - 17 bets for 25,183G (64.7%, x0.54)

purple bets:
Mesmaster: 5,000G (36.5%, 283,030G)
SkylerBunny: 2,000G (14.6%, 584,741G)
BirbBrainsBot: 1,000G (7.3%, 94,186G)
Evewho: 1,000G (7.3%, 6,890G)
EnemyController: 1,000G (7.3%, 1,240,377G)
ruebyy: 544G (4.0%, 544G)
josephiroth_143: 507G (3.7%, 507G)
DuraiPapers: 500G (3.6%, 14,212G)
Seaweed_B: 500G (3.6%, 4,940G)
Mermydon: 500G (3.6%, 2,388G)
killth3kid: 480G (3.5%, 8,099G)
benticore: 393G (2.9%, 7,875G)
getthemoneyz: 286G (2.1%, 1,020,452G)

brown bets:
reddwind_: 10,000G (39.7%, 11,581G)
prince_rogers_nelson_: 9,068G (36.0%, 18,136G)
OneHundredFists: 1,928G (7.7%, 3,781G)
Digitalsocrates: 1,000G (4.0%, 23,785G)
twelfthrootoftwo: 500G (2.0%, 5,106G)
HaateXIII: 500G (2.0%, 11,235G)
most_shameful: 498G (2.0%, 997G)
gorgewall: 401G (1.6%, 12,334G)
DeathTaxesAndAnime: 300G (1.2%, 1,812G)
Ring_Wyrm: 250G (1.0%, 1,175G)
Nizaha: 201G (0.8%, 9,523G)
CosmicTactician: 100G (0.4%, 10,864G)
Grandlanzer: 100G (0.4%, 10,319G)
datadrivenbot: 100G (0.4%, 45,307G)
JethroThrul: 100G (0.4%, 1,463G)
silentkaster: 87G (0.3%, 9,387G)
moonliquor: 50G (0.2%, 6,165G)
