Final Bets: black - 12 bets for 6,154G (28.3%, x2.53); purple - 14 bets for 15,600G (71.7%, x0.39)

black bets:
AllInBot: 1,114G (18.1%, 1,114G)
Songdeh: 1,000G (16.2%, 2,317G)
Dodecadeath: 1,000G (16.2%, 4,625G)
Lythe_Caraker: 500G (8.1%, 150,641G)
CT_5_Holy: 500G (8.1%, 500G)
fattunaking: 480G (7.8%, 480G)
Afro_Gundam: 464G (7.5%, 464G)
3ngag3: 348G (5.7%, 15,641G)
ValensEXP_: 340G (5.5%, 6,348G)
getthemoneyz: 208G (3.4%, 1,983,278G)
MemoriesofFinal: 100G (1.6%, 33,582G)
gingerfoo69: 100G (1.6%, 5,234G)

purple bets:
latebit: 3,333G (21.4%, 14,027G)
NicoSavoy: 2,000G (12.8%, 133,495G)
Leonidusx: 2,000G (12.8%, 74,015G)
resjudicata3: 1,946G (12.5%, 3,817G)
sinnyil2: 1,200G (7.7%, 172,615G)
BirbBrainsBot: 1,000G (6.4%, 87,190G)
gorgewall: 956G (6.1%, 956G)
reinoe: 672G (4.3%, 672G)
Raixelol: 600G (3.8%, 1,365G)
krombobreaker: 500G (3.2%, 10,943G)
CorpusCav: 500G (3.2%, 5,571G)
MoonSugarFiend: 429G (2.8%, 429G)
helpimabug: 264G (1.7%, 264G)
datadrivenbot: 200G (1.3%, 71,341G)
