Final Bets: white - 16 bets for 8,042G (40.2%, x1.49); black - 11 bets for 11,947G (59.8%, x0.67)

white bets:
reinoe: 1,500G (18.7%, 41,333G)
VolgraTheMoose: 1,001G (12.4%, 58,697G)
BirbBrainsBot: 1,000G (12.4%, 165,200G)
Thyrandaal: 780G (9.7%, 780G)
Sairentozon7: 716G (8.9%, 716G)
douchetron: 558G (6.9%, 558G)
Chuckolator: 456G (5.7%, 456G)
getthemoneyz: 452G (5.6%, 1,732,953G)
maximumcrit: 300G (3.7%, 4,177G)
Luna_XIV: 244G (3.0%, 244G)
cho_pin: 244G (3.0%, 3,688G)
datadrivenbot: 200G (2.5%, 66,888G)
MagikarpPKMN: 200G (2.5%, 744G)
AllInBot: 179G (2.2%, 179G)
Docrad_: 112G (1.4%, 112G)
Aldrammech: 100G (1.2%, 25,888G)

black bets:
artysayres: 3,880G (32.5%, 3,880G)
sinnyil2: 1,911G (16.0%, 3,822G)
NovaKnight21: 1,494G (12.5%, 1,494G)
dogsandcatsand: 1,245G (10.4%, 1,245G)
foxfaeez: 746G (6.2%, 1,492G)
E_Ballard: 728G (6.1%, 48,585G)
Zeroroute: 700G (5.9%, 3,185G)
Forkmore: 600G (5.0%, 600G)
timthehoodie: 300G (2.5%, 2,472G)
Raixelol: 250G (2.1%, 8,918G)
roqqqpsi: 93G (0.8%, 1,037G)
