Final Bets: purple - 13 bets for 10,235G (24.8%, x3.03); brown - 18 bets for 31,039G (75.2%, x0.33)

purple bets:
Mesmaster: 2,000G (19.5%, 235,357G)
Thyrandaal: 1,987G (19.4%, 1,987G)
PoroTact: 1,345G (13.1%, 1,345G)
snkey: 1,332G (13.0%, 13,319G)
BirbBrainsBot: 1,000G (9.8%, 55,948G)
getthemoneyz: 728G (7.1%, 1,918,515G)
EnemyController: 555G (5.4%, 1,745,217G)
Cryptopsy70: 360G (3.5%, 1,502G)
ValensEXP_: 268G (2.6%, 1,938G)
DracoknightZero: 260G (2.5%, 260G)
SingingPepe: 200G (2.0%, 1,616G)
AllInBot: 100G (1.0%, 100G)
maakur_: 100G (1.0%, 6,255G)

brown bets:
Nickyfive: 10,000G (32.2%, 61,787G)
nifboy: 7,685G (24.8%, 7,685G)
reinoe: 5,000G (16.1%, 54,638G)
upvla: 2,222G (7.2%, 14,177G)
BaronHaynes: 1,000G (3.2%, 33,103G)
Sairentozon7: 1,000G (3.2%, 7,799G)
Leonidusx: 1,000G (3.2%, 12,153G)
CorpusCav: 927G (3.0%, 1,818G)
Raixelol: 600G (1.9%, 16,095G)
brokenknight201: 300G (1.0%, 35,292G)
nok____: 300G (1.0%, 2,800G)
tacobouteverything: 204G (0.7%, 1,503G)
khelor_: 200G (0.6%, 992G)
datadrivenbot: 200G (0.6%, 58,026G)
gorgewall: 101G (0.3%, 8,518G)
BartTradingCompany: 100G (0.3%, 4,533G)
heyBtw: 100G (0.3%, 1,461G)
RunicMagus: 100G (0.3%, 8,581G)
