Final Bets: red - 20 bets for 24,221G (77.2%, x0.29); white - 11 bets for 7,138G (22.8%, x3.39)

red bets:
Willjin: 6,000G (24.8%, 73,329G)
EnemyController: 5,555G (22.9%, 1,758,349G)
Leonidusx: 2,483G (10.3%, 2,483G)
upvla: 1,564G (6.5%, 1,564G)
snkey: 1,292G (5.3%, 12,923G)
CorpusCav: 1,010G (4.2%, 2,240G)
BaronHaynes: 1,000G (4.1%, 31,933G)
Smashy: 1,000G (4.1%, 7,546G)
nekojin: 1,000G (4.1%, 36,172G)
khelor_: 662G (2.7%, 662G)
Raixelol: 600G (2.5%, 16,970G)
old_overholt_: 500G (2.1%, 27,695G)
nok____: 322G (1.3%, 3,322G)
ValensEXP_: 268G (1.1%, 1,764G)
DracoknightZero: 260G (1.1%, 260G)
tacobouteverything: 204G (0.8%, 204G)
datadrivenbot: 200G (0.8%, 58,162G)
gorgewall: 101G (0.4%, 8,586G)
AllInBot: 100G (0.4%, 100G)
heyBtw: 100G (0.4%, 1,842G)

white bets:
Thyrandaal: 2,877G (40.3%, 5,643G)
PoroTact: 1,627G (22.8%, 1,627G)
brokenknight201: 900G (12.6%, 35,091G)
hotpocketsofficial: 500G (7.0%, 2,462G)
BirbBrainsBot: 440G (6.2%, 55,298G)
projekt_mike: 250G (3.5%, 14,590G)
getthemoneyz: 144G (2.0%, 1,917,812G)
BartTradingCompany: 100G (1.4%, 4,366G)
maakur_: 100G (1.4%, 6,055G)
J_MacC1991: 100G (1.4%, 1,085G)
grishhammer: 100G (1.4%, 170G)
