Final Bets: green - 21 bets for 12,464G (43.8%, x1.28); yellow - 16 bets for 15,966G (56.2%, x0.78)

green bets:
Rislyeu: 1,634G (13.1%, 3,269G)
Thyrandaal: 1,234G (9.9%, 28,223G)
lowlf: 1,111G (8.9%, 34,781G)
BirbBrainsBot: 1,000G (8.0%, 95,134G)
CaptainGarlock: 1,000G (8.0%, 15,890G)
OneHundredFists: 1,000G (8.0%, 50,460G)
benticore: 820G (6.6%, 820G)
Laserman1000: 500G (4.0%, 21,300G)
Oobs56: 456G (3.7%, 912G)
ANFz: 436G (3.5%, 436G)
twelfthrootoftwo: 403G (3.2%, 403G)
gorgewall: 401G (3.2%, 8,556G)
killth3kid: 376G (3.0%, 376G)
Bilabrin: 344G (2.8%, 344G)
ExecutedGiraffe: 336G (2.7%, 336G)
fluffskull: 300G (2.4%, 667G)
Ring_Wyrm: 300G (2.4%, 993G)
AllInBot: 279G (2.2%, 279G)
Quadh0nk: 232G (1.9%, 232G)
DAC169: 208G (1.7%, 208G)
Aldrammech: 94G (0.8%, 945G)

yellow bets:
DeathTaxesAndAnime: 4,878G (30.6%, 4,878G)
prince_rogers_nelson_: 2,881G (18.0%, 5,763G)
pplvee1: 1,250G (7.8%, 29,474G)
DLJuggernaut: 1,205G (7.5%, 2,411G)
Breakdown777: 1,200G (7.5%, 23,608G)
Snoopiku: 1,000G (6.3%, 6,072G)
reinoe: 1,000G (6.3%, 23,875G)
Nizaha: 501G (3.1%, 19,225G)
Lydian_C: 392G (2.5%, 392G)
Sairentozon7: 328G (2.1%, 328G)
ColetteMSLP: 300G (1.9%, 1,051G)
Monopool: 288G (1.8%, 288G)
CosmicTactician: 200G (1.3%, 27,058G)
getthemoneyz: 200G (1.3%, 900,184G)
Arcblazer23: 176G (1.1%, 176G)
HASTERIOUS: 167G (1.0%, 3,342G)
