Final Bets: white - 17 bets for 12,783G (53.0%, x0.89); black - 14 bets for 11,332G (47.0%, x1.13)

white bets:
SkylerBunny: 3,000G (23.5%, 91,588G)
Deathmaker06: 1,000G (7.8%, 7,141G)
BirbBrainsBot: 1,000G (7.8%, 96,415G)
CaptainGarlock: 1,000G (7.8%, 17,171G)
killth3kid: 858G (6.7%, 858G)
Bilabrin: 785G (6.1%, 785G)
ExecutedGiraffe: 766G (6.0%, 766G)
DLJuggernaut: 603G (4.7%, 1,206G)
Quadh0nk: 529G (4.1%, 529G)
CosmicTactician: 500G (3.9%, 26,858G)
Grandlanzer: 500G (3.9%, 6,015G)
OneHundredFists: 500G (3.9%, 51,741G)
Oobs56: 496G (3.9%, 496G)
DjTbone79: 458G (3.6%, 458G)
ColetteMSLP: 300G (2.3%, 751G)
Monopool: 288G (2.3%, 288G)
JoeykinsGaming: 200G (1.6%, 17,569G)

black bets:
pplvee1: 3,000G (26.5%, 28,224G)
NicoSavoy: 2,000G (17.6%, 6,168G)
prince_rogers_nelson_: 1,441G (12.7%, 2,882G)
reinoe: 1,000G (8.8%, 22,875G)
DeathTaxesAndAnime: 896G (7.9%, 896G)
AllInBot: 636G (5.6%, 636G)
Nizaha: 501G (4.4%, 18,724G)
DAC169: 474G (4.2%, 474G)
Lydian_C: 392G (3.5%, 392G)
Ring_Wyrm: 377G (3.3%, 377G)
gorgewall: 201G (1.8%, 9,070G)
fluffskull: 200G (1.8%, 1,051G)
Arcblazer23: 176G (1.6%, 176G)
getthemoneyz: 38G (0.3%, 899,984G)
