High Risers:
1. Thyrandaal: +17,033G
2. Nhammen: +9,999G
3. Latebit: +6,295G
4. Bigbongsmoker: +2,135G
5. Mmagnetman: +1,207G
6. Runeseeker22: +1,186G
7. Timthehoodie: +1,036G
8. Stockyjohnson: +1,000G
9. Kasugairoastedpeas: +863G
10. Robotocelot: +561G
11. Goth_applebees_hostess: +449G
12. Dogsandcatsand: +381G
13. Mushufasa_: +333G
14. Corpuscav: +294G
15. Friendlyskeleton: +293G
16. Enemycontroller: +258G
17. Thunderducker: +246G
18. Lythe_caraker: +189G
19. Zpawz: +117G
20. Twisted_nutsatchel: +36G
21. Formerlydrdong: +28G
22. Runicmagus: +12G
23. Douchetron: +4G
24. Rune339: +4G
25. Arumz: -32G
26. Killth3kid: -82G
27. Sinnyil2: -82G
28. Victoriolue: -100G
29. Lyonslegacy: -100G
30. Rabbitlogik: -100G
31. Lydian_c: -123G
32. Nok____: -200G
33. Reddwind_: -200G
34. Daveb_: -200G
35. Friendsquirrel: -200G
36. Firesheath: -269G
37. Krombobreaker: -276G
38. Phi_sig: -300G
39. Cosmictactician: -300G
40. Grininda: -300G
41. Raixelol: -361G
42. Forkmore: -400G
43. Greggernaut: -400G
44. Whitetigress: -400G
45. Foamsoldier: -700G
46. Thebluesman: -1,000G
47. Vorap: -1,000G
48. Laserman1000: -1,000G
49. Lijarkh: -1,000G
50. Lowlf: -1,000G
51. Technominari: -1,058G
52. Baronhaynes: -1,339G
53. Leonidusx: -1,508G
54. Nicosavoy: -1,528G
55. Skylerbunny: -1,996G
56. Altimamantoid: -2,057G
57. Smashy: -2,345G
58. Snkey: -3,444G
59. Dljuggernaut: -6,543G
60. Shalloween: -22,009G
