Final Bets: green - 13 bets for 5,663G (47.1%, x1.12); yellow - 17 bets for 6,354G (52.9%, x0.89)

green bets:
BirbBrainsBot: 1,000G (17.7%, 66,265G)
E_Ballard: 1,000G (17.7%, 1,166G)
Zeroroute: 722G (12.7%, 722G)
killth3kid: 701G (12.4%, 70,185G)
Lanshaft: 480G (8.5%, 14,823G)
DamnThatShark: 471G (8.3%, 471G)
TasisSai: 300G (5.3%, 2,708G)
nhammen: 300G (5.3%, 10,077G)
KasugaiRoastedPeas: 200G (3.5%, 15,328G)
reinoe: 200G (3.5%, 8,626G)
Powermhero: 101G (1.8%, 24,100G)
CosmicTactician: 100G (1.8%, 44,008G)
getthemoneyz: 88G (1.6%, 1,268,318G)

yellow bets:
SkylerBunny: 1,000G (15.7%, 12,786G)
Sairentozon7: 1,000G (15.7%, 8,532G)
Breakdown777: 515G (8.1%, 515G)
dogsandcatsand: 508G (8.0%, 14,733G)
moonliquor: 500G (7.9%, 2,956G)
ACSpree: 384G (6.0%, 384G)
HyC81: 358G (5.6%, 358G)
dem0nj0ns: 300G (4.7%, 1,033G)
alterworlds: 264G (4.2%, 264G)
ayeayex3: 250G (3.9%, 610G)
Treafa: 250G (3.9%, 1,742G)
Blastinus: 224G (3.5%, 224G)
gorgewall: 201G (3.2%, 5,628G)
datadrivenbot: 200G (3.1%, 61,589G)
Lemonjohns: 200G (3.1%, 2,615G)
DeathTaxesAndAnime: 100G (1.6%, 7,627G)
thephunbaba: 100G (1.6%, 108G)
