Final Bets: blue - 23 bets for 19,381G (79.1%, x0.26); white - 16 bets for 5,121G (20.9%, x3.78)

blue bets:
WoooBlaaa: 8,015G (41.4%, 8,015G)
regios91: 1,085G (5.6%, 2,171G)
BirbBrainsBot: 1,000G (5.2%, 68,697G)
CosmicTactician: 1,000G (5.2%, 44,197G)
E_Ballard: 1,000G (5.2%, 1,671G)
Sairentozon7: 1,000G (5.2%, 5,536G)
serperemagus: 906G (4.7%, 906G)
DamnThatShark: 897G (4.6%, 897G)
upvla: 800G (4.1%, 3,229G)
Breakdown777: 500G (2.6%, 1,445G)
Zeroroute: 500G (2.6%, 500G)
flacococo: 360G (1.9%, 360G)
HyC81: 343G (1.8%, 343G)
TasisSai: 300G (1.5%, 1,861G)
Forkmore: 300G (1.5%, 671G)
lastly: 250G (1.3%, 31,411G)
Blastinus: 224G (1.2%, 224G)
gorgewall: 201G (1.0%, 5,126G)
datadrivenbot: 200G (1.0%, 61,298G)
reinoe: 200G (1.0%, 8,850G)
DeathTaxesAndAnime: 100G (0.5%, 7,465G)
Kellios11: 100G (0.5%, 34,521G)
SephDarkheart: 100G (0.5%, 21,099G)

white bets:
amiture: 1,000G (19.5%, 6,650G)
NIghtdew14: 1,000G (19.5%, 8,776G)
dogsandcatsand: 508G (9.9%, 14,798G)
Lanshaft: 480G (9.4%, 15,359G)
roofiepops: 333G (6.5%, 2,401G)
dem0nj0ns: 300G (5.9%, 948G)
triniculo: 276G (5.4%, 276G)
Moshyhero: 240G (4.7%, 240G)
RageImmortaI: 200G (3.9%, 3,435G)
Lemonjohns: 200G (3.9%, 2,538G)
nifboy: 100G (2.0%, 8,301G)
Firesheath: 100G (2.0%, 1,971G)
Ring_Wyrm: 100G (2.0%, 15,764G)
fluffskull: 100G (2.0%, 2,504G)
getthemoneyz: 98G (1.9%, 1,269,321G)
Powermhero: 86G (1.7%, 24,386G)
