Final Bets: white - 16 bets for 15,838G (73.8%, x0.35); brown - 12 bets for 5,611G (26.2%, x2.82)

white bets:
Aldrammech: 8,352G (52.7%, 8,352G)
resjudicata3: 3,000G (18.9%, 9,031G)
douchetron: 1,547G (9.8%, 3,034G)
killth3kid: 504G (3.2%, 2,712G)
Lanshaft: 500G (3.2%, 19,722G)
scottydeluxe: 308G (1.9%, 308G)
Seaweed_B: 256G (1.6%, 13,416G)
JLinkletter: 220G (1.4%, 220G)
gorgewall: 201G (1.3%, 16,976G)
AllInBot: 200G (1.3%, 200G)
datadrivenbot: 200G (1.3%, 39,306G)
kahjeethaswares: 200G (1.3%, 6,409G)
Zakanakai: 100G (0.6%, 687G)
mrpickins: 100G (0.6%, 800G)
Thyrandaal: 100G (0.6%, 75,733G)
nhammen: 50G (0.3%, 6,148G)

brown bets:
NIghtdew14: 1,000G (17.8%, 30,132G)
BirbBrainsBot: 1,000G (17.8%, 49,949G)
dogsandcatsand: 935G (16.7%, 935G)
getthemoneyz: 738G (13.2%, 1,376,904G)
E_Ballard: 620G (11.0%, 620G)
BoneMiser: 348G (6.2%, 348G)
Treafa: 300G (5.3%, 607G)
latebit: 216G (3.8%, 216G)
Miku_Shikhu: 150G (2.7%, 790G)
ArlanKels: 104G (1.9%, 104G)
mirapoix: 100G (1.8%, 1,198G)
poGpopE: 100G (1.8%, 1,091G)
