Final Bets: red - 16 bets for 7,827G (20.9%, x3.79); blue - 19 bets for 29,669G (79.1%, x0.26)

red bets:
Thyrandaal: 2,000G (25.6%, 41,235G)
Jeeboheebo: 1,000G (12.8%, 4,150G)
CapnChaos12: 1,000G (12.8%, 13,609G)
Aldrammech: 713G (9.1%, 713G)
Kalabain: 500G (6.4%, 13,509G)
metagameface: 500G (6.4%, 5,418G)
letdowncity: 400G (5.1%, 11,741G)
DLJuggernaut: 400G (5.1%, 3,260G)
ExecutedGiraffe: 328G (4.2%, 328G)
DAC169: 322G (4.1%, 322G)
Rislyeu: 200G (2.6%, 20,536G)
nhammen: 120G (1.5%, 120G)
Alanaire: 100G (1.3%, 6,426G)
datadrivenbot: 100G (1.3%, 38,508G)
CosmicTactician: 100G (1.3%, 23,812G)
daveb_: 44G (0.6%, 2,219G)

blue bets:
OneHundredFists: 8,245G (27.8%, 8,245G)
Mesmaster: 6,545G (22.1%, 6,545G)
VolgraTheMoose: 5,000G (16.9%, 22,848G)
roqqqpsi: 1,296G (4.4%, 11,784G)
HaateXIII: 1,222G (4.1%, 1,222G)
gooseyourself: 1,035G (3.5%, 1,035G)
AllInBot: 1,014G (3.4%, 1,014G)
Error72: 1,000G (3.4%, 12,998G)
BirbBrainsBot: 1,000G (3.4%, 43,082G)
edgehead62888: 1,000G (3.4%, 37,551G)
DeathTaxesAndAnime: 860G (2.9%, 860G)
Laserman1000: 652G (2.2%, 24,352G)
cam_ATS: 250G (0.8%, 5,020G)
Luizsanq: 124G (0.4%, 124G)
Firesheath: 101G (0.3%, 6,845G)
gorgewall: 101G (0.3%, 1,976G)
acid_flashback: 100G (0.3%, 2,892G)
nifboy: 100G (0.3%, 4,481G)
getthemoneyz: 24G (0.1%, 878,908G)
