Final Bets: purple - 19 bets for 11,641G (54.4%, x0.84); brown - 16 bets for 9,749G (45.6%, x1.19)

purple bets:
VolgraTheMoose: 4,001G (34.4%, 28,515G)
DeathTaxesAndAnime: 1,542G (13.2%, 3,024G)
gorgewall: 1,107G (9.5%, 1,107G)
ExecutedGiraffe: 912G (7.8%, 912G)
ColetteMSLP: 646G (5.5%, 646G)
Evewho: 612G (5.3%, 612G)
reinoe: 600G (5.2%, 600G)
Oobs56: 509G (4.4%, 509G)
Kalabain: 500G (4.3%, 14,001G)
CaptainGarlock: 236G (2.0%, 1,236G)
BigGlorious: 200G (1.7%, 3,845G)
Firesheath: 101G (0.9%, 7,372G)
E_Ballard: 100G (0.9%, 4,409G)
Grandlanzer: 100G (0.9%, 9,676G)
Miku_Shikhu: 100G (0.9%, 15,768G)
CosmicTactician: 100G (0.9%, 24,599G)
nifboy: 100G (0.9%, 4,506G)
datadrivenbot: 100G (0.9%, 38,547G)
acid_flashback: 75G (0.6%, 3,057G)

brown bets:
DavenIII: 1,500G (15.4%, 8,081G)
roqqqpsi: 1,191G (12.2%, 10,835G)
BirbBrainsBot: 1,000G (10.3%, 43,333G)
metagameface: 1,000G (10.3%, 7,105G)
Pyre_Pyre: 1,000G (10.3%, 5,040G)
Rislyeu: 1,000G (10.3%, 19,823G)
Nohurty: 545G (5.6%, 1,090G)
Laserman1000: 500G (5.1%, 23,400G)
cam_ATS: 500G (5.1%, 4,686G)
letdowncity: 400G (4.1%, 10,941G)
theshinyakuma: 300G (3.1%, 2,567G)
Lythe_Caraker: 250G (2.6%, 117,783G)
AllInBot: 199G (2.0%, 199G)
soren_of_tyto: 140G (1.4%, 140G)
getthemoneyz: 124G (1.3%, 879,580G)
Alanaire: 100G (1.0%, 6,326G)
