Final Bets: red - 16 bets for 15,874G (81.9%, x0.22); green - 9 bets for 3,518G (18.1%, x4.51)

red bets:
Mesmaster: 4,000G (25.2%, 44,635G)
reinoe: 2,922G (18.4%, 2,922G)
ko2q: 2,441G (15.4%, 2,441G)
R_Raynos: 1,274G (8.0%, 1,274G)
sinnyil2: 1,200G (7.6%, 50,151G)
NovaKnight21: 1,000G (6.3%, 6,866G)
Dexsana: 654G (4.1%, 654G)
Laserman1000: 605G (3.8%, 25,405G)
twelfthrootoftwo: 500G (3.1%, 7,469G)
wooyuji: 468G (2.9%, 468G)
ungabunga_bot: 238G (1.5%, 501,297G)
MalakiGenesys: 202G (1.3%, 405G)
Firesheath: 100G (0.6%, 26,438G)
datadrivenbot: 100G (0.6%, 17,848G)
ALY327: 100G (0.6%, 41,873G)
maleblackfiora: 70G (0.4%, 340G)

green bets:
otakutaylor: 1,083G (30.8%, 1,083G)
BirbBrainsBot: 704G (20.0%, 74,873G)
CorpusCav: 367G (10.4%, 7,567G)
AmaninAmide: 300G (8.5%, 4,416G)
getthemoneyz: 264G (7.5%, 680,726G)
TheMM42: 200G (5.7%, 2,877G)
kaidykat: 200G (5.7%, 1,437G)
MibudemoneyeKyo: 200G (5.7%, 1,114G)
KasugaiRoastedPeas: 200G (5.7%, 348G)
