Final Bets: white - 9 bets for 7,372G (37.1%, x1.70); black - 16 bets for 12,512G (62.9%, x0.59)

white bets:
AllInBot: 2,821G (38.3%, 2,821G)
Aldrammech: 1,000G (13.6%, 61,446G)
douchetron: 835G (11.3%, 1,639G)
Firesheath: 755G (10.2%, 755G)
superdevon1: 661G (9.0%, 33,074G)
ThreeMileIsland: 500G (6.8%, 10,096G)
fluffskull: 400G (5.4%, 2,733G)
Laserman1000: 300G (4.1%, 9,700G)
holdenmagronik: 100G (1.4%, 1,506G)

black bets:
fattunaking: 2,000G (16.0%, 9,521G)
Sairentozon7: 2,000G (16.0%, 124,262G)
sinnyil2: 1,068G (8.5%, 1,068G)
ANFz: 1,000G (8.0%, 60,190G)
NicoSavoy: 1,000G (8.0%, 343,038G)
BirbBrainsBot: 1,000G (8.0%, 26,347G)
amiture: 1,000G (8.0%, 38,084G)
pandasforsale: 777G (6.2%, 5,065G)
mirapoix: 624G (5.0%, 624G)
HaateXIII: 500G (4.0%, 2,646G)
DAC169: 420G (3.4%, 420G)
BaronHaynes: 400G (3.2%, 5,979G)
getthemoneyz: 222G (1.8%, 1,439,491G)
datadrivenbot: 200G (1.6%, 47,328G)
twelfthrootoftwo: 200G (1.6%, 1,880G)
mrpickins: 101G (0.8%, 4,633G)
