Final Bets: white - 16 bets for 15,387G (38.2%, x1.62); brown - 8 bets for 24,920G (61.8%, x0.62)

white bets:
amiture: 5,000G (32.5%, 34,084G)
Sairentozon7: 2,500G (16.2%, 122,262G)
NicoSavoy: 2,000G (13.0%, 344,071G)
douchetron: 1,005G (6.5%, 1,971G)
ANFz: 1,000G (6.5%, 60,206G)
BirbBrainsBot: 1,000G (6.5%, 25,061G)
superdevon1: 678G (4.4%, 33,927G)
Laserman1000: 557G (3.6%, 10,057G)
nekojin: 500G (3.2%, 18,516G)
Wooplestein: 500G (3.2%, 2,059G)
datadrivenbot: 200G (1.3%, 47,007G)
maximumcrit: 104G (0.7%, 104G)
mrpickins: 101G (0.7%, 4,181G)
holdenmagronik: 100G (0.6%, 1,638G)
BaronHaynes: 100G (0.6%, 6,468G)
getthemoneyz: 42G (0.3%, 1,439,798G)

brown bets:
AllInBot: 17,213G (69.1%, 17,213G)
SkylerBunny: 3,000G (12.0%, 108,857G)
EnemyController: 2,222G (8.9%, 1,515,716G)
gorgewall: 1,101G (4.4%, 1,101G)
Firesheath: 588G (2.4%, 588G)
amhamor: 496G (2.0%, 496G)
twelfthrootoftwo: 200G (0.8%, 1,821G)
CT_5_Holy: 100G (0.4%, 6,680G)
