Final Bets: green - 22 bets for 21,512G (37.8%, x1.65); brown - 7 bets for 35,389G (62.2%, x0.61)

green bets:
Sairentozon7: 2,500G (11.6%, 119,762G)
fluffskull: 2,206G (10.3%, 4,326G)
SkylerBunny: 2,000G (9.3%, 110,709G)
amiture: 2,000G (9.3%, 29,084G)
NicoSavoy: 2,000G (9.3%, 342,071G)
gorgewall: 1,781G (8.3%, 1,781G)
ANFz: 1,000G (4.6%, 59,206G)
BirbBrainsBot: 1,000G (4.6%, 24,061G)
douchetron: 966G (4.5%, 966G)
Firesheath: 951G (4.4%, 951G)
amhamor: 802G (3.7%, 802G)
superdevon1: 664G (3.1%, 33,249G)
prince_rogers_nelson_: 664G (3.1%, 664G)
mirapoix: 624G (2.9%, 624G)
DAC169: 587G (2.7%, 587G)
nekojin: 500G (2.3%, 18,016G)
ThreeMileIsland: 500G (2.3%, 9,445G)
holdenmagronik: 200G (0.9%, 1,538G)
datadrivenbot: 200G (0.9%, 46,807G)
twelfthrootoftwo: 200G (0.9%, 1,944G)
mrpickins: 101G (0.5%, 3,080G)
getthemoneyz: 66G (0.3%, 1,439,756G)

brown bets:
AllInBot: 27,841G (78.7%, 27,841G)
nickelbank: 3,556G (10.0%, 17,782G)
EnemyController: 2,222G (6.3%, 1,517,088G)
sinnyil2: 1,072G (3.0%, 1,072G)
pandasforsale: 444G (1.3%, 4,288G)
BaronHaynes: 150G (0.4%, 6,368G)
maximumcrit: 104G (0.3%, 104G)
