Final Bets: red - 22 bets for 12,485G (67.8%, x0.47); blue - 10 bets for 5,919G (32.2%, x2.11)

red bets:
DeathTaxesAndAnime: 1,792G (14.4%, 1,792G)
Laserman1000: 1,195G (9.6%, 2,390G)
CapnChaos12: 1,130G (9.1%, 1,130G)
Meta_Five: 1,000G (8.0%, 17,120G)
dogsandcatsand: 1,000G (8.0%, 16,188G)
getthemoneyz: 1,000G (8.0%, 725,253G)
ZZ_Yoshi: 1,000G (8.0%, 23,040G)
pandasforsale: 733G (5.9%, 733G)
Kyune: 500G (4.0%, 7,435G)
solomongrundy85: 500G (4.0%, 4,248G)
Baron_von_Scrub: 474G (3.8%, 7,302G)
StealthModeLocke: 425G (3.4%, 425G)
Estan_AD: 368G (2.9%, 368G)
Breakdown777: 300G (2.4%, 1,660G)
HorusTaurus: 220G (1.8%, 220G)
NeoKevlar: 200G (1.6%, 1,927G)
serperemagus: 148G (1.2%, 148G)
AllInBot: 100G (0.8%, 100G)
CorpusCav: 100G (0.8%, 7,100G)
datadrivenbot: 100G (0.8%, 19,394G)
zepharoth89: 100G (0.8%, 747G)
E_Ballard: 100G (0.8%, 6,608G)

blue bets:
HaplessOne: 1,111G (18.8%, 275,851G)
BirbBrainsBot: 1,000G (16.9%, 181,160G)
Shalloween: 950G (16.1%, 950G)
Evewho: 714G (12.1%, 714G)
HASTERIOUS: 572G (9.7%, 11,441G)
HaateXIII: 532G (9.0%, 532G)
LeoNightFury: 500G (8.4%, 4,065G)
CandyTamer: 240G (4.1%, 1,569G)
LivingHitokiri: 200G (3.4%, 7,403G)
letdowncity: 100G (1.7%, 3,011G)
