Final Bets: red - 11 bets for 3,785G (42.2%, x1.37); yellow - 14 bets for 5,181G (57.8%, x0.73)

red bets:
WitchHunterIX: 1,000G (26.4%, 2,983G)
Thyrandaal: 1,000G (26.4%, 16,021G)
brosauce: 500G (13.2%, 1,723G)
DustBirdEX: 345G (9.1%, 1,846G)
prince_rogers_nelson_: 200G (5.3%, 7,146G)
rednecknazgul: 184G (4.9%, 184G)
Coolguye: 150G (4.0%, 2,048G)
DivineApocalypse: 104G (2.7%, 104G)
Firesheath: 101G (2.7%, 3,076G)
gorgewall: 101G (2.7%, 5,477G)
datadrivenbot: 100G (2.6%, 35,762G)

yellow bets:
BirbBrainsBot: 1,000G (19.3%, 177,832G)
DeathTaxesAndAnime: 824G (15.9%, 824G)
EnemyController: 500G (9.7%, 559,571G)
sinnyil2: 500G (9.7%, 4,627G)
reinoe: 500G (9.7%, 15,656G)
NovaKnight21: 412G (8.0%, 412G)
OneHundredFists: 376G (7.3%, 376G)
wollip: 250G (4.8%, 2,056G)
HASTERIOUS: 223G (4.3%, 4,478G)
Kalabain: 200G (3.9%, 2,950G)
DeadGirlzREasy: 150G (2.9%, 1,910G)
Celdia: 100G (1.9%, 2,941G)
Quadh0nk: 100G (1.9%, 1,031G)
getthemoneyz: 46G (0.9%, 848,985G)
