Final Bets: red - 16 bets for 8,258G (74.0%, x0.35); purple - 9 bets for 2,905G (26.0%, x2.84)

red bets:
DeathTaxesAndAnime: 2,522G (30.5%, 2,522G)
brosauce: 1,907G (23.1%, 1,907G)
WitchHunterIX: 1,000G (12.1%, 3,352G)
Laserman1000: 500G (6.1%, 22,800G)
EnemyController: 500G (6.1%, 559,071G)
Spuzzmocker: 389G (4.7%, 389G)
DustBirdEX: 234G (2.8%, 1,855G)
HASTERIOUS: 202G (2.4%, 4,043G)
rednecknazgul: 188G (2.3%, 188G)
Arcblazer23: 164G (2.0%, 164G)
Coolguye: 150G (1.8%, 2,253G)
Firesheath: 101G (1.2%, 3,426G)
gorgewall: 101G (1.2%, 5,514G)
wollip: 100G (1.2%, 100G)
Quadh0nk: 100G (1.2%, 931G)
datadrivenbot: 100G (1.2%, 35,799G)

purple bets:
BirbBrainsBot: 794G (27.3%, 178,893G)
sinnyil2: 600G (20.7%, 4,127G)
Kalabain: 555G (19.1%, 3,368G)
silentperogy: 300G (10.3%, 29,660G)
prince_rogers_nelson_: 200G (6.9%, 8,038G)
DeadGirlzREasy: 150G (5.2%, 1,560G)
getthemoneyz: 106G (3.6%, 849,545G)
Celdia: 100G (3.4%, 2,741G)
Evewho: 100G (3.4%, 7,821G)
