Final Bets: black - 14 bets for 8,102G (39.5%, x1.53); brown - 16 bets for 12,404G (60.5%, x0.65)

black bets:
fenaen: 1,279G (15.8%, 1,279G)
Thyrandaal: 1,222G (15.1%, 35,683G)
neerrm: 1,000G (12.3%, 22,421G)
lastly: 1,000G (12.3%, 33,826G)
LazyFury47: 800G (9.9%, 4,290G)
TheChainNerd: 732G (9.0%, 732G)
killth3kid: 480G (5.9%, 980G)
TasisSai: 408G (5.0%, 408G)
RageImmortaI: 304G (3.8%, 614G)
ohhinm: 234G (2.9%, 3,021G)
OrganicArtist: 222G (2.7%, 2,350G)
AllInBot: 200G (2.5%, 200G)
Lydian_C: 121G (1.5%, 83,357G)
i2inchtomahawk: 100G (1.2%, 6,674G)

brown bets:
thehotrefrigerator: 4,674G (37.7%, 4,674G)
Lord_Burrah: 1,914G (15.4%, 89,914G)
DLJuggernaut: 1,144G (9.2%, 1,144G)
EvilJMcNasty: 1,000G (8.1%, 103,544G)
BirbBrainsBot: 638G (5.1%, 184,431G)
Laserman1000: 636G (5.1%, 636G)
mpghappiness: 600G (4.8%, 600G)
Grandlanzer: 400G (3.2%, 101,523G)
ArashiKurobara: 340G (2.7%, 2,209G)
Lord_Gwarth: 208G (1.7%, 208G)
datadrivenbot: 200G (1.6%, 33,527G)
DeathTaxesAndAnime: 200G (1.6%, 3,326G)
holdenmagronik: 150G (1.2%, 1,102G)
captainmilestw: 100G (0.8%, 1,164G)
Bongomon7: 100G (0.8%, 7,469G)
actual_JP: 100G (0.8%, 22,895G)
