Final Bets: red - 12 bets for 6,962G (32.9%, x2.04); brown - 19 bets for 14,205G (67.1%, x0.49)

red bets:
mpghappiness: 1,492G (21.4%, 1,492G)
TheChainNerd: 1,232G (17.7%, 1,232G)
neerrm: 888G (12.8%, 22,421G)
Lord_Gwarth: 844G (12.1%, 844G)
LazyFury47: 500G (7.2%, 3,994G)
JumbocactuarX27: 500G (7.2%, 26,094G)
killth3kid: 480G (6.9%, 500G)
Treafa: 426G (6.1%, 426G)
brokenknight201: 300G (4.3%, 3,080G)
Error72: 100G (1.4%, 5,072G)
i2inchtomahawk: 100G (1.4%, 6,574G)
smiggenator: 100G (1.4%, 3,212G)

brown bets:
thehotrefrigerator: 7,727G (54.4%, 7,727G)
Laserman1000: 1,551G (10.9%, 1,551G)
ohhinm: 555G (3.9%, 2,787G)
RaIshtar: 504G (3.5%, 504G)
BirbBrainsBot: 500G (3.5%, 184,848G)
DLJuggernaut: 500G (3.5%, 1,891G)
TasisSai: 408G (2.9%, 408G)
ArashiKurobara: 340G (2.4%, 2,931G)
RageImmortaI: 304G (2.1%, 810G)
CapnChaos12: 300G (2.1%, 8,129G)
nok____: 212G (1.5%, 3,712G)
holdenmagronik: 204G (1.4%, 1,200G)
AllInBot: 200G (1.4%, 200G)
ribbiks: 200G (1.4%, 2,064G)
datadrivenbot: 200G (1.4%, 33,658G)
MattMan119: 200G (1.4%, 10,644G)
actual_JP: 100G (0.7%, 23,460G)
mirapoix: 100G (0.7%, 2,362G)
Bongomon7: 100G (0.7%, 8,034G)
