Final Bets: red - 26 bets for 16,372G (62.2%, x0.61); blue - 18 bets for 9,944G (37.8%, x1.65)

red bets:
evontno: 2,367G (14.5%, 2,367G)
Sairentozon7: 1,520G (9.3%, 1,520G)
NovaKnight21: 1,223G (7.5%, 2,447G)
TheChainNerd: 1,184G (7.2%, 1,184G)
Riot_Jayway: 1,111G (6.8%, 228,158G)
Breakdown777: 1,001G (6.1%, 11,277G)
Aldrammech: 1,000G (6.1%, 5,503G)
SkylerBunny: 1,000G (6.1%, 112,262G)
cogniv0r3: 999G (6.1%, 999G)
Bilabrin: 795G (4.9%, 884G)
E_Ballard: 774G (4.7%, 774G)
YaBoy125: 516G (3.2%, 516G)
CorpusCav: 404G (2.5%, 404G)
IphoneDarkness: 366G (2.2%, 733G)
wyonearth: 300G (1.8%, 3,087G)
Digitalsocrates: 300G (1.8%, 15,714G)
Milkman153: 300G (1.8%, 1,425G)
Sans_from_Snowdin: 264G (1.6%, 264G)
ColetteMSLP: 228G (1.4%, 228G)
Lydian_C: 120G (0.7%, 12,516G)
ANFz: 100G (0.6%, 2,678G)
Ring_Wyrm: 100G (0.6%, 1,079G)
datadrivenbot: 100G (0.6%, 35,396G)
Grandlanzer: 100G (0.6%, 3,516G)
fluffskull: 100G (0.6%, 274G)
BruddaShrine: 100G (0.6%, 100G)

blue bets:
dogsandcatsand: 1,644G (16.5%, 1,644G)
DeathTaxesAndAnime: 1,264G (12.7%, 1,264G)
BlackFireUK: 1,000G (10.1%, 12,374G)
BirbBrainsBot: 1,000G (10.1%, 173,217G)
CCRUNNER149UWP: 1,000G (10.1%, 7,989G)
Thyrandaal: 1,000G (10.1%, 6,368G)
Laserman1000: 500G (5.0%, 22,000G)
RageImmortaI: 400G (4.0%, 2,247G)
OneHundredFists: 368G (3.7%, 368G)
coralreeferz: 350G (3.5%, 3,356G)
getthemoneyz: 342G (3.4%, 841,561G)
hot_momba: 207G (2.1%, 207G)
Davarian: 204G (2.1%, 204G)
prince_rogers_nelson_: 200G (2.0%, 3,858G)
benticore: 165G (1.7%, 3,316G)
moocaotao: 100G (1.0%, 1,065G)
brokenknight201: 100G (1.0%, 970G)
infectum: 100G (1.0%, 1,268G)
