Final Bets: blue - 12 bets for 5,808G (60.2%, x0.66); green - 9 bets for 3,838G (39.8%, x1.51)

blue bets:
Raixelol: 1,818G (31.3%, 1,818G)
VolgraTheMoose: 1,001G (17.2%, 120,680G)
BirbBrainsBot: 1,000G (17.2%, 86,920G)
Tarheels218: 376G (6.5%, 3,620G)
getthemoneyz: 362G (6.2%, 1,869,198G)
bigbongsmoker: 268G (4.6%, 268G)
ValensEXP_: 216G (3.7%, 1,121G)
CosmicTactician: 200G (3.4%, 31,200G)
datadrivenbot: 200G (3.4%, 57,577G)
roqqqpsi: 167G (2.9%, 882G)
SingingPepe: 100G (1.7%, 924G)
gongonono: 100G (1.7%, 3,427G)

green bets:
gorgewall: 796G (20.7%, 796G)
AllInBot: 779G (20.3%, 779G)
rocl: 520G (13.5%, 520G)
brodeity: 368G (9.6%, 368G)
BartTradingCompany: 355G (9.2%, 3,552G)
lijarkh: 320G (8.3%, 393G)
Omally_: 300G (7.8%, 409G)
PuzzleSecretary: 250G (6.5%, 481G)
Sietaha: 150G (3.9%, 1,419G)
