Final Bets: purple - 12 bets for 6,879G (59.6%, x0.68); brown - 12 bets for 4,660G (40.4%, x1.48)

purple bets:
NIghtdew14: 2,000G (29.1%, 59,896G)
brokenknight201: 999G (14.5%, 1,998G)
twelfthrootoftwo: 913G (13.3%, 913G)
roqqqpsi: 784G (11.4%, 826G)
killth3kid: 520G (7.6%, 5,039G)
ruleof5: 500G (7.3%, 10,168G)
Netmonmatt: 300G (4.4%, 4,423G)
AllInBot: 275G (4.0%, 275G)
datadrivenbot: 200G (2.9%, 41,136G)
Gawyel95: 187G (2.7%, 187G)
douchetron: 101G (1.5%, 2,857G)
dinin991: 100G (1.5%, 708G)

brown bets:
bruubarg: 1,000G (21.5%, 14,515G)
E_Ballard: 648G (13.9%, 648G)
BirbBrainsBot: 627G (13.5%, 113,897G)
sinnyil2: 510G (10.9%, 1,020G)
Sykper: 500G (10.7%, 2,888G)
getthemoneyz: 426G (9.1%, 1,406,172G)
josephiroth_143: 415G (8.9%, 415G)
boosted420: 232G (5.0%, 232G)
cho_pin: 112G (2.4%, 112G)
LordMaxoss: 100G (2.1%, 5,798G)
DouglasDragonThePoet: 50G (1.1%, 1,925G)
Miku_Shikhu: 40G (0.9%, 1,626G)
