Final Bets: blue - 10 bets for 6,129G (56.5%, x0.77); yellow - 10 bets for 4,714G (43.5%, x1.30)

blue bets:
twelfthrootoftwo: 1,531G (25.0%, 1,531G)
brokenknight201: 1,337G (21.8%, 2,675G)
BirbBrainsBot: 1,000G (16.3%, 113,270G)
NIghtdew14: 1,000G (16.3%, 61,251G)
AllInBot: 461G (7.5%, 461G)
josephiroth_143: 316G (5.2%, 316G)
dinin991: 200G (3.3%, 780G)
getthemoneyz: 122G (2.0%, 1,405,746G)
cho_pin: 112G (1.8%, 112G)
DouglasDragonThePoet: 50G (0.8%, 1,875G)

yellow bets:
RedRiderAyame: 1,500G (31.8%, 12,784G)
Zagorsek: 1,334G (28.3%, 2,669G)
E_Ballard: 648G (13.7%, 648G)
Netmonmatt: 400G (8.5%, 4,626G)
Gawyel95: 250G (5.3%, 314G)
datadrivenbot: 200G (4.2%, 41,271G)
ArlanKels: 114G (2.4%, 3,825G)
douchetron: 101G (2.1%, 2,925G)
LordMaxoss: 100G (2.1%, 5,698G)
roqqqpsi: 67G (1.4%, 1,357G)
