Final Bets: purple - 15 bets for 10,228G (47.2%, x1.12); brown - 17 bets for 11,444G (52.8%, x0.89)

purple bets:
aStatue: 2,336G (22.8%, 2,336G)
toka222: 1,760G (17.2%, 1,760G)
Baron_von_Scrub: 1,111G (10.9%, 81,751G)
Phytik: 1,106G (10.8%, 1,106G)
PetitFoulard: 840G (8.2%, 840G)
ungabunga_bot: 801G (7.8%, 287,198G)
superdevon1: 536G (5.2%, 33,847G)
ZephyrTempest: 400G (3.9%, 1,448G)
Jeeboheebo: 388G (3.8%, 388G)
ThePineappleSalesman: 200G (2.0%, 19,026G)
BadErosion: 200G (2.0%, 9,392G)
Anethum: 200G (2.0%, 2,064G)
ar_tactic: 150G (1.5%, 30,523G)
Jahshine: 100G (1.0%, 4,067G)
CosmicTactician: 100G (1.0%, 6,651G)

brown bets:
fenaen: 2,000G (17.5%, 74,593G)
Mesmaster: 2,000G (17.5%, 19,331G)
BirbBrainsBot: 1,000G (8.7%, 117,274G)
getthemoneyz: 1,000G (8.7%, 609,553G)
JumbocactuarX27: 1,000G (8.7%, 12,833G)
DavenIII: 770G (6.7%, 2,987G)
DustyRelic: 500G (4.4%, 16,130G)
edgehead62888: 500G (4.4%, 4,715G)
nuka1120: 500G (4.4%, 3,011G)
Estan_AD: 500G (4.4%, 2,258G)
leakimiko: 436G (3.8%, 436G)
Cataphract116: 400G (3.5%, 19,350G)
twelfthrootoftwo: 300G (2.6%, 3,465G)
Banzem: 205G (1.8%, 205G)
AllInBot: 183G (1.6%, 183G)
datadrivenbot: 100G (0.9%, 10,700G)
DrAntiSocial: 50G (0.4%, 6,242G)
