Final Bets: blue - 11 bets for 8,830G (52.7%, x0.90); black - 11 bets for 7,926G (47.3%, x1.11)

blue bets:
Lolthsmeat: 3,200G (36.2%, 65,328G)
CorpusCav: 3,000G (34.0%, 93,269G)
ko2q: 1,010G (11.4%, 1,010G)
Genkidou: 288G (3.3%, 1,000G)
YowaneHaku: 280G (3.2%, 280G)
skinny666: 212G (2.4%, 212G)
Magicandy: 201G (2.3%, 17,222G)
datadrivenbot: 200G (2.3%, 84,979G)
Leonidusx: 200G (2.3%, 538,725G)
verythinice: 128G (1.4%, 2,404G)
LuckyLuckLuc2: 111G (1.3%, 1,480G)

black bets:
MoonSugarFiend: 2,000G (25.2%, 8,098G)
ruleof5: 1,000G (12.6%, 5,164G)
squideater_: 1,000G (12.6%, 19,491G)
BirbBrainsBot: 1,000G (12.6%, 149,324G)
TheBrett: 1,000G (12.6%, 17,166G)
khelor_: 500G (6.3%, 11,787G)
superdevon1: 404G (5.1%, 6,948G)
getthemoneyz: 296G (3.7%, 2,238,084G)
AllInBot: 256G (3.2%, 256G)
Zachara: 250G (3.2%, 4,000G)
TimeJannies: 220G (2.8%, 220G)
