Final Bets: blue - 11 bets for 10,875G (37.4%, x1.67); champion - 15 bets for 18,208G (62.6%, x0.60)

blue bets:
Lolthsmeat: 3,500G (32.2%, 69,000G)
Deeps_one: 2,040G (18.8%, 2,040G)
Mushufasa_: 1,234G (11.3%, 34,473G)
BirbBrainsBot: 1,000G (9.2%, 148,324G)
CorpusCav: 1,000G (9.2%, 95,962G)
squideater_: 1,000G (9.2%, 18,391G)
YowaneHaku: 531G (4.9%, 531G)
TimeJannies: 220G (2.0%, 220G)
Genkidou: 150G (1.4%, 1,259G)
ko2q: 100G (0.9%, 1,917G)
TheBrett: 100G (0.9%, 16,166G)

champion bets:
NicoSavoy: 10,000G (54.9%, 168,913G)
Leonidusx: 2,000G (11.0%, 538,905G)
Gilghana: 1,946G (10.7%, 4,865G)
verythinice: 1,284G (7.1%, 2,519G)
getthemoneyz: 524G (2.9%, 2,237,788G)
JonnyCue: 496G (2.7%, 3,212G)
superdevon1: 404G (2.2%, 6,544G)
skinny666: 402G (2.2%, 402G)
Zachara: 250G (1.4%, 3,750G)
gorgewall: 201G (1.1%, 5,832G)
AllInBot: 200G (1.1%, 200G)
datadrivenbot: 200G (1.1%, 85,159G)
Magicandy: 200G (1.1%, 17,402G)
king_smashington: 100G (0.5%, 1,660G)
Chuckolator: 1G (0.0%, 3,808G)
