Final Bets: red - 9 bets for 3,198G (33.0%, x2.03); blue - 16 bets for 6,507G (67.0%, x0.49)

red bets:
BirbBrainsBot: 1,000G (31.3%, 89,394G)
conradharlock: 500G (15.6%, 8,317G)
coralreeferz: 450G (14.1%, 4,108G)
getthemoneyz: 408G (12.8%, 826,680G)
RaIshtar: 312G (9.8%, 312G)
gogofromtogo: 200G (6.3%, 3,661G)
outer_monologue: 128G (4.0%, 128G)
CosmicTactician: 100G (3.1%, 15,525G)
Flameatron: 100G (3.1%, 5,079G)

blue bets:
beowulfrulez: 1,123G (17.3%, 1,123G)
Jeeboheebo: 1,000G (15.4%, 11,802G)
JarlBrolaf: 658G (10.1%, 658G)
maakur_: 636G (9.8%, 636G)
TheChainNerd: 533G (8.2%, 2,666G)
Error72: 500G (7.7%, 9,381G)
potgodtopdog: 444G (6.8%, 39,907G)
DustBirdEX: 379G (5.8%, 379G)
dogsandcatsand: 300G (4.6%, 8,260G)
Angelomortis: 228G (3.5%, 228G)
cam_ATS: 200G (3.1%, 3,386G)
Lydian_C: 120G (1.8%, 10,989G)
nifboy: 100G (1.5%, 3,321G)
GrayGhostGaming: 100G (1.5%, 7,171G)
datadrivenbot: 100G (1.5%, 32,671G)
Stealthtoucan: 86G (1.3%, 1,725G)
