Final Bets: green - 17 bets for 8,727G (66.6%, x0.50); yellow - 10 bets for 4,370G (33.4%, x2.00)

green bets:
ThePineappleSalesman: 1,692G (19.4%, 1,692G)
RaIshtar: 1,447G (16.6%, 1,447G)
NovaKnight21: 1,184G (13.6%, 1,184G)
BirbBrainsBot: 1,000G (11.5%, 91,429G)
Thyrandaal: 1,000G (11.5%, 19,852G)
JarlBrolaf: 716G (8.2%, 716G)
killth3kid: 328G (3.8%, 6,529G)
coralreeferz: 250G (2.9%, 6,028G)
gogofromtogo: 200G (2.3%, 4,568G)
getthemoneyz: 190G (2.2%, 827,510G)
Lydian_C: 120G (1.4%, 11,369G)
brewerspackers98: 100G (1.1%, 104G)
Miku_Shikhu: 100G (1.1%, 2,484G)
CosmicTactician: 100G (1.1%, 16,728G)
datadrivenbot: 100G (1.1%, 32,571G)
GrayGhostGaming: 100G (1.1%, 7,071G)
Flameatron: 100G (1.1%, 5,782G)

yellow bets:
Angelomortis: 728G (16.7%, 728G)
TheChainNerd: 526G (12.0%, 2,633G)
Cryptopsy70: 500G (11.4%, 1,013G)
nifboy: 500G (11.4%, 3,721G)
conradharlock: 500G (11.4%, 10,338G)
volgrathemoose: 500G (11.4%, 4,026G)
DustBirdEX: 316G (7.2%, 316G)
CapnChaos12: 300G (6.9%, 23,295G)
Brojimbo: 300G (6.9%, 2,276G)
Chao_Garden: 200G (4.6%, 7,501G)
