Final Bets: black - 10 bets for 2,901G (31.5%, x2.17); brown - 11 bets for 6,296G (68.5%, x0.46)

black bets:
getthemoneyz: 636G (21.9%, 827,743G)
volgrathemoose: 501G (17.3%, 5,025G)
pplvee1: 328G (11.3%, 328G)
DustBirdEX: 316G (10.9%, 316G)
joewcarson: 300G (10.3%, 29,148G)
CapnChaos12: 300G (10.3%, 23,894G)
Flameatron: 200G (6.9%, 4,974G)
Lydian_C: 120G (4.1%, 11,122G)
CosmicTactician: 100G (3.4%, 16,630G)
datadrivenbot: 100G (3.4%, 32,473G)

brown bets:
Brojimbo: 2,000G (31.8%, 5,575G)
TheChainNerd: 801G (12.7%, 4,006G)
ThePineappleSalesman: 745G (11.8%, 745G)
fenaen: 600G (9.5%, 25,396G)
dogsandcatsand: 500G (7.9%, 7,127G)
DudeMonkey77: 500G (7.9%, 2,470G)
mechoking: 400G (6.4%, 2,770G)
mistermastergreg: 350G (5.6%, 1,880G)
gogofromtogo: 200G (3.2%, 4,356G)
neohwarp: 100G (1.6%, 150G)
raventwynn: 100G (1.6%, 2,520G)
