Final Bets: purple - 17 bets for 22,506G (45.0%, x1.22); brown - 12 bets for 27,517G (55.0%, x0.82)

purple bets:
kingchadking: 10,666G (47.4%, 10,666G)
SkylerBunny: 3,000G (13.3%, 53,180G)
BadBlanket: 1,231G (5.5%, 1,231G)
Lydian_C: 1,034G (4.6%, 2,029G)
BirbBrainsBot: 1,000G (4.4%, 8,607G)
inzo_bettingbot: 1,000G (4.4%, 26,564G)
bad1dea: 1,000G (4.4%, 236,389G)
KupoKel: 1,000G (4.4%, 25,000G)
getthemoneyz: 570G (2.5%, 401,164G)
hkbadboy: 500G (2.2%, 16,748G)
KasugaiRoastedPeas: 400G (1.8%, 30,298G)
Orerries: 383G (1.7%, 383G)
byrdturbo: 222G (1.0%, 3,120G)
Treapvort: 200G (0.9%, 17,051G)
b_bot: 100G (0.4%, 100G)
InOzWeTrust: 100G (0.4%, 4,740G)
cougboi: 100G (0.4%, 3,595G)

brown bets:
SeedSC: 20,000G (72.7%, 110,066G)
leakimiko: 1,737G (6.3%, 34,759G)
UmaiJam: 963G (3.5%, 9,636G)
helpimabug: 914G (3.3%, 914G)
Laserman1000: 805G (2.9%, 4,405G)
rjA0zcOQ96: 737G (2.7%, 737G)
Creggers: 609G (2.2%, 609G)
TheRobbieRobster: 500G (1.8%, 2,368G)
CorpusCav: 500G (1.8%, 10,706G)
Dothan89: 352G (1.3%, 352G)
Bulleta: 300G (1.1%, 8,833G)
datadrivenbot: 100G (0.4%, 18,266G)
