Final Bets: red - 19 bets for 16,192G (87.8%, x0.14); yellow - 9 bets for 2,257G (12.2%, x7.17)

red bets:
Bryon_W: 3,043G (18.8%, 3,043G)
sinnyil2: 2,500G (15.4%, 132,796G)
HaplessOne: 2,222G (13.7%, 127,665G)
DavenIII: 1,000G (6.2%, 5,459G)
ungabunga_bot: 1,000G (6.2%, 219,194G)
BirbBrainsBot: 1,000G (6.2%, 137,572G)
JumbocactuarX27: 1,000G (6.2%, 6,942G)
ForagerCats: 1,000G (6.2%, 40,374G)
toka222: 600G (3.7%, 5,016G)
Jahshine: 500G (3.1%, 8,706G)
aStatue: 500G (3.1%, 500G)
getthemoneyz: 426G (2.6%, 558,915G)
MirtaiAtana: 418G (2.6%, 418G)
UmbraKnights: 284G (1.8%, 284G)
CassiePhoenix: 276G (1.7%, 276G)
daveb_: 122G (0.8%, 3,285G)
ZephyrTempest: 101G (0.6%, 174,672G)
Tougou: 100G (0.6%, 7,699G)
datadrivenbot: 100G (0.6%, 628G)

yellow bets:
Laserman1000: 546G (24.2%, 43,246G)
ShintaroNayaka: 500G (22.2%, 20,227G)
Slowbrofist: 380G (16.8%, 380G)
Estan_AD: 256G (11.3%, 256G)
perce90: 200G (8.9%, 607G)
xYungAnarchyx: 125G (5.5%, 1,320G)
AllInBot: 100G (4.4%, 100G)
IndecisiveNinja: 100G (4.4%, 89,877G)
DrAntiSocial: 50G (2.2%, 20,822G)
