Final Bets: green - 15 bets for 14,655G (48.9%, x1.04); champion - 16 bets for 15,284G (51.1%, x0.96)

green bets:
Nizaha: 2,753G (18.8%, 5,506G)
YowaneHaku: 2,683G (18.3%, 2,683G)
CorpusCav: 2,000G (13.6%, 95,336G)
coralreeferz: 1,250G (8.5%, 3,045G)
BirbBrainsBot: 1,000G (6.8%, 133,991G)
AllInBot: 898G (6.1%, 898G)
Widewalk: 632G (4.3%, 632G)
dogsandcatsand: 592G (4.0%, 592G)
skinny666: 510G (3.5%, 510G)
SeniorBunk: 500G (3.4%, 107,005G)
old_overholt_: 500G (3.4%, 5,915G)
Lord_Gwarth: 500G (3.4%, 9,497G)
getthemoneyz: 366G (2.5%, 2,229,537G)
Mrasin: 255G (1.7%, 255G)
mizzmoonshine: 216G (1.5%, 216G)

champion bets:
3ngag3: 3,000G (19.6%, 28,000G)
VolgraTheMoose: 2,270G (14.9%, 4,541G)
Evewho: 2,000G (13.1%, 29,878G)
Leonidusx: 2,000G (13.1%, 542,473G)
Zetchryn: 1,579G (10.3%, 1,579G)
Laserman1000: 900G (5.9%, 19,700G)
HorusTaurus: 784G (5.1%, 784G)
lygg_mubblez: 577G (3.8%, 577G)
krombobreaker: 500G (3.3%, 47,041G)
TheBrett: 352G (2.3%, 352G)
seppu777: 333G (2.2%, 9,640G)
Breakdown777: 284G (1.9%, 284G)
Grayv87: 204G (1.3%, 204G)
gorgewall: 201G (1.3%, 8,216G)
datadrivenbot: 200G (1.3%, 85,414G)
king_smashington: 100G (0.7%, 5,041G)
