Final Bets: purple - 14 bets for 9,146G (57.7%, x0.73); brown - 8 bets for 6,700G (42.3%, x1.37)

purple bets:
prince_rogers_nelson_: 2,000G (21.9%, 10,249G)
SkylerBunny: 1,535G (16.8%, 1,535G)
safira125: 1,000G (10.9%, 5,637G)
reinoe: 1,000G (10.9%, 8,672G)
Smokegiant: 1,000G (10.9%, 86,719G)
fluffskull: 800G (8.7%, 2,180G)
killth3kid: 444G (4.9%, 77,518G)
ColetteMSLP: 400G (4.4%, 6,360G)
alekzanndrr: 300G (3.3%, 783G)
KasugaiRoastedPeas: 200G (2.2%, 15,848G)
letdowncity: 200G (2.2%, 11,294G)
Ring_Wyrm: 100G (1.1%, 5,674G)
datadrivenbot: 100G (1.1%, 50,138G)
silentkaster: 67G (0.7%, 13,267G)

brown bets:
Forkmore: 2,400G (35.8%, 44,133G)
UmaiJam: 1,800G (26.9%, 85,098G)
BirbBrainsBot: 1,000G (14.9%, 24,447G)
YaBoy125: 640G (9.6%, 640G)
getthemoneyz: 450G (6.7%, 1,124,063G)
neocarbuncle: 210G (3.1%, 9,699G)
nhammen: 100G (1.5%, 8,248G)
Grandlanzer: 100G (1.5%, 41,265G)
