Final Bets: green - 25 bets for 15,302G (56.0%, x0.79); yellow - 19 bets for 12,039G (44.0%, x1.27)

green bets:
megaman2202: 1,257G (8.2%, 1,257G)
Lodrak: 1,001G (6.5%, 10,689G)
Vampire_Killer: 1,000G (6.5%, 17,414G)
inzo_bettingbot: 1,000G (6.5%, 11,495G)
darkp_ramza: 1,000G (6.5%, 10,762G)
Lord_Burrah: 1,000G (6.5%, 90,465G)
Winterharte: 969G (6.3%, 969G)
getthemoneyz: 960G (6.3%, 385,884G)
volgrathemoose: 919G (6.0%, 919G)
typicalfanboy: 784G (5.1%, 784G)
DavenIII: 700G (4.6%, 6,136G)
Baron_von_Scrub: 549G (3.6%, 549G)
JumbocactuarX27: 500G (3.3%, 13,865G)
gum44: 500G (3.3%, 1,017G)
maakur_: 500G (3.3%, 9,940G)
Shalloween: 500G (3.3%, 54,116G)
genoguy: 500G (3.3%, 1,527G)
ricky_ortease: 300G (2.0%, 3,002G)
wackyzachyy: 266G (1.7%, 266G)
Cataphract116: 250G (1.6%, 2,018G)
z32o: 236G (1.5%, 23,613G)
SomeCallMeGON: 200G (1.3%, 1,716G)
silentperogy: 200G (1.3%, 7,756G)
Jordache7K: 111G (0.7%, 12,595G)
ko2q: 100G (0.7%, 2,282G)

yellow bets:
Zeroroute: 2,478G (20.6%, 4,180G)
Jeeboheebo: 2,001G (16.6%, 8,005G)
SkylerBunny: 1,500G (12.5%, 75,079G)
sinnyil2: 1,192G (9.9%, 1,192G)
MoonSlayerRS: 1,123G (9.3%, 1,123G)
Lanshaft: 580G (4.8%, 580G)
GeekDadMan: 500G (4.2%, 1,366G)
TheChainNerd: 464G (3.9%, 464G)
NovaKnight21: 420G (3.5%, 420G)
DustBirdEX: 400G (3.3%, 7,198G)
Draconis345: 308G (2.6%, 308G)
Wargles: 268G (2.2%, 268G)
Oshimi12: 248G (2.1%, 248G)
killth3kid: 236G (2.0%, 2,939G)
oogthecaveman: 100G (0.8%, 4,167G)
AdmiralPikachu: 100G (0.8%, 21,116G)
Treapvort: 100G (0.8%, 23,679G)
noztril: 20G (0.2%, 1,000G)
daveb_: 1G (0.0%, 2,141G)
