Final Bets: purple - 19 bets for 6,687G (32.0%, x2.13); brown - 17 bets for 14,218G (68.0%, x0.47)

purple bets:
sinnyil2: 750G (11.2%, 3,201G)
typicalfanboy: 683G (10.2%, 683G)
ricky_ortease: 600G (9.0%, 2,885G)
Lanshaft: 580G (8.7%, 741G)
JumbocactuarX27: 500G (7.5%, 13,548G)
Draconis345: 500G (7.5%, 954G)
MoonSlayerRS: 500G (7.5%, 2,116G)
Winterharte: 452G (6.8%, 452G)
Shalloween: 400G (6.0%, 54,711G)
athros13: 369G (5.5%, 369G)
gum44: 259G (3.9%, 259G)
getthemoneyz: 254G (3.8%, 384,258G)
jaykaye: 250G (3.7%, 2,311G)
Lazerkick: 200G (3.0%, 17,720G)
wackyzachyy: 169G (2.5%, 169G)
Treapvort: 100G (1.5%, 23,806G)
ultraballer2000: 100G (1.5%, 1,500G)
noztril: 20G (0.3%, 1,032G)
RughSontos: 1G (0.0%, 2,977G)

brown bets:
leakimiko: 3,630G (25.5%, 24,206G)
Dothan89: 1,584G (11.1%, 1,584G)
Lodrak: 1,001G (7.0%, 10,053G)
JonnyCue: 1,000G (7.0%, 43,084G)
rechaun: 1,000G (7.0%, 11,421G)
Vampire_Killer: 1,000G (7.0%, 16,414G)
Oshimi12: 773G (5.4%, 773G)
TheChainNerd: 721G (5.1%, 1,443G)
volgrathemoose: 595G (4.2%, 595G)
DavenIII: 550G (3.9%, 4,936G)
genoguy: 500G (3.5%, 1,402G)
silentperogy: 500G (3.5%, 7,556G)
DustBirdEX: 500G (3.5%, 7,925G)
megaman2202: 364G (2.6%, 364G)
SomeCallMeGON: 300G (2.1%, 1,589G)
coaks388: 100G (0.7%, 7,653G)
tmo50x: 100G (0.7%, 1,073G)
