Final Bets: red - 10 bets for 4,797G (52.8%, x0.89); yellow - 8 bets for 4,290G (47.2%, x1.12)

red bets:
Rislyeu: 1,000G (20.8%, 6,896G)
sinnyil2: 700G (14.6%, 23,101G)
HaplessOne: 666G (13.9%, 39,464G)
lijarkh: 500G (10.4%, 23,269G)
R_Raynos: 496G (10.3%, 496G)
Mudrockk: 400G (8.3%, 6,932G)
ungabunga_bot: 385G (8.0%, 334,628G)
ccordc: 300G (6.3%, 1,642G)
Estan_AD: 250G (5.2%, 5,040G)
datadrivenbot: 100G (2.1%, 14,190G)

yellow bets:
thaetreis: 1,018G (23.7%, 1,018G)
BirbBrainsBot: 1,000G (23.3%, 24,836G)
Kyune: 833G (19.4%, 833G)
LordSDB: 700G (16.3%, 1,914G)
getthemoneyz: 386G (9.0%, 616,626G)
amiture: 203G (4.7%, 203G)
OneHundredFists: 100G (2.3%, 1,340G)
cougboi: 50G (1.2%, 16,191G)
