Final Bets: red - 12 bets for 6,192G (46.3%, x1.16); white - 7 bets for 7,196G (53.7%, x0.86)

red bets:
DeathTaxesAndAnime: 1,205G (19.5%, 2,364G)
ungabunga_bot: 1,000G (16.1%, 334,488G)
BirbBrainsBot: 1,000G (16.1%, 26,825G)
Mesmaster: 1,000G (16.1%, 82,507G)
Kyune: 559G (9.0%, 559G)
lijarkh: 500G (8.1%, 23,720G)
Estan_AD: 250G (4.0%, 6,011G)
twelfthrootoftwo: 200G (3.2%, 2,264G)
getthemoneyz: 150G (2.4%, 616,724G)
amiture: 128G (2.1%, 128G)
datadrivenbot: 100G (1.6%, 14,179G)
Evewho: 100G (1.6%, 3,223G)

white bets:
R_Raynos: 3,750G (52.1%, 3,750G)
sinnyil2: 1,200G (16.7%, 22,387G)
Mudrockk: 1,000G (13.9%, 10,279G)
LordSDB: 550G (7.6%, 1,214G)
leakimiko: 496G (6.9%, 496G)
OneHundredFists: 100G (1.4%, 1,539G)
cougboi: 100G (1.4%, 16,589G)
