High Risers:
1. Novaknight21: +11,222G
2. Evewho: +2,506G
3. Zachara: +2,396G
4. Douglasdragonthepoet: +1,357G
5. Russell2x: +1,302G
6. Thesabretoothe: +1,216G
7. Gorgewall: +955G
8. Ruleof5: +704G
9. Jermzzzzzz: +578G
10. Deathtaxesandanime: +504G
11. Aly327: +500G
12. Dhaveword: +448G
13. Horustaurus: +446G
14. Ruebyy: +400G
15. Colettemslp: +304G
16. Lwtest: +300G
17. Go2sleeptv: +300G
18. Hasterious: +100G
19. Cassiephoenix: +100G
20. Lolthsmeat: +70G
21. Upvla: +56G
22. Memoriesoffinal: -96G
23. Jeeboheebo: -300G
24. Popslive: -354G
25. Reddwind_: -400G
26. Ar_tactic: -800G
27. Seniorbunk: -836G
28. Gamesage53: -1,000G
29. Seppu777: -1,232G
30. Bigbongsmoker: -1,259G
31. Skipsandwiches: -1,277G
32. 3ngag3: -1,341G
33. Onehundredfists: -2,900G
34. Resjudicata3: -7,514G
