Final Bets: red - 6 bets for 3,055G (24.5%, x3.07); blue - 13 bets for 9,394G (75.5%, x0.33)

red bets:
Evewho: 1,326G (43.4%, 1,326G)
NovaKnight21: 948G (31.0%, 948G)
AllInBot: 279G (9.1%, 279G)
JermZzZzZz: 202G (6.6%, 202G)
Zachara: 200G (6.5%, 151,200G)
DouglasDragonThePoet: 100G (3.3%, 3,306G)

blue bets:
resjudicata3: 3,587G (38.2%, 7,174G)
OneHundredFists: 2,000G (21.3%, 18,363G)
BirbBrainsBot: 1,000G (10.6%, 167,309G)
skipsandwiches: 476G (5.1%, 121,804G)
DHaveWord: 440G (4.7%, 440G)
HorusTaurus: 352G (3.7%, 352G)
MemoriesofFinal: 308G (3.3%, 308G)
gorgewall: 301G (3.2%, 2,133G)
getthemoneyz: 246G (2.6%, 2,082,020G)
seppu777: 222G (2.4%, 1,510G)
datadrivenbot: 200G (2.1%, 76,657G)
Lolthsmeat: 162G (1.7%, 162G)
lwtest: 100G (1.1%, 9,934G)
