2020-02-26 08:54:43.608 AUTODETECT: !fixstream
2020-02-26 09:49:00.566 AUTODETECT: !fixstream
2020-02-26 09:51:06.2 AUTODETECT: !fixstream
2020-02-26 12:43:13.278 AUTODETECT: !fixstream
2020-02-26 13:06:00.105 AUTODETECT: !fixstream
2020-02-26 13:39:43.01 Bot reconnecting after disconnect.
2020-02-26 14:57:20.988 Bot reconnecting after disconnect.
2020-02-26 14:57:25.995 Bot reconnecting after disconnect.
2020-02-26 14:57:31.001 Bot reconnecting after disconnect.
2020-02-26 14:57:36.007 Bot reconnecting after disconnect.
2020-02-26 14:57:41.013 Bot reconnecting after disconnect.
2020-02-26 14:57:46.019 Bot reconnecting after disconnect.
2020-02-26 14:57:51.025 Bot reconnecting after disconnect.
2020-02-26 14:57:56.031 Bot reconnecting after disconnect.
2020-02-26 14:58:01.037 Bot reconnecting after disconnect.
2020-02-26 14:58:06.043 Bot reconnecting after disconnect.
2020-02-26 14:58:11.05 Bot reconnecting after disconnect.
2020-02-26 14:58:16.056 Bot reconnecting after disconnect.
2020-02-26 14:58:21.062 Bot reconnecting after disconnect.
2020-02-26 14:58:26.068 Bot reconnecting after disconnect.
2020-02-26 14:58:31.073 Bot reconnecting after disconnect.
2020-02-26 14:58:36.08 Bot reconnecting after disconnect.
2020-02-26 14:58:41.085 Bot reconnecting after disconnect.
2020-02-26 14:58:46.092 Bot reconnecting after disconnect.
2020-02-26 14:58:51.098 Bot reconnecting after disconnect.
