2020-05-01 15:28:17.389 AUTODETECT: !fixstream
2020-05-01 15:59:29.31 AUTODETECT: !fixstream
2020-05-01 16:18:29.819 Bot reconnecting after disconnect.
2020-05-01 16:18:45.179 Bot reconnecting after disconnect.
2020-05-01 19:40:37.843 Bot reconnecting after disconnect.
2020-05-01 20:27:40.576 Bot reconnecting after disconnect.
2020-05-01 20:27:55.93 Bot reconnecting after disconnect.
2020-05-01 20:28:11.26 Bot reconnecting after disconnect.
2020-05-01 23:03:20.846 Bot reconnecting after disconnect.
2020-05-01 23:03:36.197 Bot reconnecting after disconnect.
2020-05-01 23:03:51.558 Bot reconnecting after disconnect.
2020-05-01 23:04:06.907 Bot reconnecting after disconnect.
2020-05-01 23:04:22.247 Bot reconnecting after disconnect.
2020-05-01 23:04:37.602 Bot reconnecting after disconnect.
2020-05-01 23:04:52.957 Bot reconnecting after disconnect.
2020-05-01 23:05:08.326 Bot reconnecting after disconnect.
2020-05-01 23:52:02.776 Bot reconnecting after disconnect.
