2020-03-28 10:43:14.985 Bot reconnecting after disconnect.
2020-03-28 10:43:30.491 Bot reconnecting after disconnect.
2020-03-28 10:43:45.996 Bot reconnecting after disconnect.
2020-03-28 10:44:01.482 Bot reconnecting after disconnect.
2020-03-28 10:44:16.965 Bot reconnecting after disconnect.
2020-03-28 11:34:48.533 TheKillerNacho: !fixstream bot
2020-03-28 11:34:49.646 Bot reconnecting after disconnect.
2020-03-28 11:58:11.332 TheKillerNacho: !fixstream bot
2020-03-28 11:58:16.268 Bot reconnecting after disconnect.
2020-03-28 20:23:36.394 AUTODETECT: !fixstream
