2020-03-03 00:25:09.9 AUTODETECT: !fixstream
2020-03-03 05:13:29.19 AUTODETECT: !fixstream
2020-03-03 07:40:24.813 AUTODETECT: !fixstream
2020-03-03 16:45:15.338 AUTODETECT: !fixstream
2020-03-03 16:46:14.767 AUTODETECT: !fixstream
2020-03-03 16:52:08.31 AUTODETECT: !fixstream
2020-03-03 18:00:22.386 AUTODETECT: !fixstream
2020-03-03 19:35:52.388 AUTODETECT: !fixstream
2020-03-03 21:54:57.817 AUTODETECT: !fixstream
