2020-03-22 02:20:46.196 AUTODETECT: !fixstream
2020-03-22 07:46:58.915 AUTODETECT: !fixstream
2020-03-22 09:08:12.368 Bot reconnecting after disconnect.
2020-03-22 11:16:09.562 AUTODETECT: !fixstream
2020-03-22 11:20:58.429 KitchTowel: !fixstream OBS
2020-03-22 11:47:57.788 AUTODETECT: !fixstream
2020-03-22 11:54:11.315 TheKillerNacho: !fixstream obs
2020-03-22 12:13:33.801 AUTODETECT: !fixstream
2020-03-22 14:27:23.784 AUTODETECT: !fixstream
2020-03-22 16:47:49.397 AUTODETECT: !fixstream
2020-03-22 17:06:20.041 AUTODETECT: !fixstream
2020-03-22 17:08:18.363 sinnyil2: !fixstream obs
2020-03-22 17:21:40.706 sinnyil2: !fixstream
2020-03-22 17:41:08.687 AUTODETECT: !fixstream
2020-03-22 17:48:30.11 TheKillerNacho: !fixstream obs
2020-03-22 18:44:12.796 AUTODETECT: !fixstream
2020-03-22 20:09:10.474 AUTODETECT: !fixstream
2020-03-22 20:48:22.284 AUTODETECT: !fixstream
2020-03-22 21:40:55.028 AUTODETECT: !fixstream
