Final Bets: black - 13 bets for 10,824G (85.3%, x0.17); purple - 7 bets for 1,864G (14.7%, x5.81)

black bets:
soren_of_tyto: 4,630G (42.8%, 4,630G)
Bryon_W: 2,500G (23.1%, 12,237G)
BirbBrainsBot: 1,000G (9.2%, 25,547G)
Absalom_20: 500G (4.6%, 3,825G)
Smashy: 456G (4.2%, 456G)
ArashiKurobara: 380G (3.5%, 5,139G)
MemoriesofFinal: 300G (2.8%, 762G)
TheDeeyo: 300G (2.8%, 4,853G)
Raixelol: 250G (2.3%, 7,580G)
datadrivenbot: 200G (1.8%, 64,114G)
FoxMime: 108G (1.0%, 108G)
AllInBot: 100G (0.9%, 100G)
ko2q: 100G (0.9%, 3,655G)

purple bets:
skipsandwiches: 368G (19.7%, 368G)
SeniorBunk: 300G (16.1%, 30,258G)
DogeeCream: 300G (16.1%, 1,169G)
gongonono: 300G (16.1%, 8,109G)
getthemoneyz: 296G (15.9%, 1,732,707G)
ravingsockmonkey: 200G (10.7%, 1,758G)
Runeseeker22: 100G (5.4%, 1,348G)
