High Risers:
1. Pplvee1: +6,926G
2. Leonidusx: +5,268G
3. Zpawz: +3,248G
4. Sinnyil2: +2,344G
5. Shalloween: +1,767G
6. Skipsandwiches: +1,443G
7. Snkey: +1,213G
8. Valen614: +1,213G
9. Run_with_stone_guns: +1,114G
10. Upvla: +972G
11. Prince_rogers_nelson_: +896G
12. Just_here2: +800G
13. Runicmagus: +682G
14. Livinghitokiri: +620G
15. Exigency_44: +504G
16. Chichirodriguez: +504G
17. Lokenwow: +500G
18. Bigbongsmoker: +500G
19. Thesabretoothe: +500G
20. Mrfripps: +333G
21. Valensexp_: +332G
22. Nhammen: +300G
23. Vixacious: +229G
24. Lifebregin: +191G
25. Seniorbunk: +113G
26. King_smashington: +56G
27. Ninjaboy3234: -88G
28. Bruubarg: -103G
29. Aceof86: -125G
30. Maakur_: -200G
31. Gorgewall: -452G
32. Raixelol: -469G
33. Aly327: -500G
34. Zerguzen: -500G
35. Silentkaster: -650G
36. Error72: -780G
37. Volgrathemoose: -808G
38. Ser_pyrro: -985G
39. Zagorsek: -1,000G
40. Baronhaynes: -1,123G
41. Brokenknight201: -1,267G
42. Dogsandcatsand: -1,400G
43. Projekt_mike: -1,500G
44. Thyrandaal: -1,500G
45. Goatshow2: -1,511G
46. Fenaen: -1,592G
47. Smugzug: -1,899G
48. Nifboy: -2,209G
49. Panushenko: -4,017G
