Final Bets: white - 19 bets for 13,759G (75.1%, x0.33); black - 16 bets for 4,556G (24.9%, x3.02)

white bets:
Lanshaft: 3,863G (28.1%, 3,863G)
lohakilo: 1,658G (12.1%, 1,658G)
CCRUNNER149UWP: 1,356G (9.9%, 1,356G)
volgrathemoose: 1,001G (7.3%, 6,325G)
TheOneRanger: 1,000G (7.3%, 5,514G)
ungabunga_bot: 1,000G (7.3%, 153,973G)
BirbBrainsBot: 1,000G (7.3%, 186,142G)
fenaen: 600G (4.4%, 11,575G)
luminarii: 416G (3.0%, 21,432G)
CapnChaos12: 300G (2.2%, 1,629G)
nifboy: 281G (2.0%, 2,816G)
MrDiggs49: 260G (1.9%, 260G)
catfashions: 250G (1.8%, 7,000G)
Aurilliux: 250G (1.8%, 11,555G)
commandlistfgc: 112G (0.8%, 112G)
LazarusAjin: 112G (0.8%, 112G)
ApplesauceBoss: 100G (0.7%, 4,478G)
SaintOmerville: 100G (0.7%, 2,762G)
Jerboj: 100G (0.7%, 33,171G)

black bets:
TheChainNerd: 1,000G (21.9%, 9,170G)
Slowbrofist: 763G (16.7%, 763G)
OmnibotGamma: 500G (11.0%, 4,877G)
waterwatereverywhere: 360G (7.9%, 360G)
DeathTaxesAndAnime: 300G (6.6%, 3,825G)
mivvim: 260G (5.7%, 260G)
killth3kid: 260G (5.7%, 13,053G)
KasugaiRoastedPeas: 200G (4.4%, 7,749G)
ko2q: 199G (4.4%, 7,501G)
GrandmasterFrankerZ: 144G (3.2%, 1,440G)
getthemoneyz: 108G (2.4%, 502,725G)
gorgewall: 104G (2.3%, 104G)
ANFz: 100G (2.2%, 8,011G)
lifeguard_dan: 100G (2.2%, 1,003G)
DejaPoo21: 100G (2.2%, 12,180G)
datadrivenbot: 58G (1.3%, 100G)
