Final Bets: blue - 26 bets for 15,951G (76.9%, x0.30); green - 10 bets for 4,800G (23.1%, x3.32)

blue bets:
CCRUNNER149UWP: 3,479G (21.8%, 3,479G)
OmnibotGamma: 1,938G (12.1%, 3,877G)
Nizaha: 1,172G (7.3%, 1,172G)
kai_shee: 1,001G (6.3%, 143,297G)
BirbBrainsBot: 1,000G (6.3%, 187,400G)
Dasutin23: 702G (4.4%, 702G)
waterwatereverywhere: 694G (4.4%, 694G)
MrDiggs49: 667G (4.2%, 667G)
mirapoix: 624G (3.9%, 624G)
Lanshaft: 600G (3.8%, 600G)
fenaen: 600G (3.8%, 10,773G)
Aldrammech: 500G (3.1%, 18,614G)
TheOneRanger: 500G (3.1%, 5,849G)
luminarii: 484G (3.0%, 21,128G)
nifboy: 317G (2.0%, 3,178G)
MattMan119: 300G (1.9%, 8,499G)
Aurilliux: 250G (1.6%, 11,870G)
ungabunga_bot: 201G (1.3%, 154,418G)
nedryerson01: 200G (1.3%, 200G)
404namesnotfound: 120G (0.8%, 120G)
LazarusAjin: 112G (0.7%, 112G)
FoeSquirrel: 100G (0.6%, 4,117G)
ApplesauceBoss: 100G (0.6%, 4,411G)
ko2q: 100G (0.6%, 7,202G)
lifeguard_dan: 100G (0.6%, 996G)
datadrivenbot: 90G (0.6%, 100G)

green bets:
TheChainNerd: 1,000G (20.8%, 8,170G)
reinoe: 1,000G (20.8%, 10,229G)
Pie108: 700G (14.6%, 26,118G)
old_overholt_: 500G (10.4%, 10,079G)
DejaPoo21: 500G (10.4%, 11,080G)
catfashions: 400G (8.3%, 7,454G)
Meta_Five: 300G (6.2%, 9,747G)
ANFz: 200G (4.2%, 7,911G)
CandyTamer: 100G (2.1%, 945G)
lohakilo: 100G (2.1%, 2,300G)
