Final Bets: red - 18 bets for 14,679G (35.2%, x1.84); champion - 18 bets for 27,039G (64.8%, x0.54)

red bets:
Mesmaster: 5,000G (34.1%, 96,514G)
actual_JP: 3,237G (22.1%, 3,237G)
Baron_von_Scrub: 1,047G (7.1%, 1,047G)
BirbBrainsBot: 1,000G (6.8%, 82,716G)
AllInBot: 835G (5.7%, 835G)
butterbelljedi: 500G (3.4%, 7,878G)
killth3kid: 450G (3.1%, 1,524G)
muffin_money: 450G (3.1%, 13,694G)
CorpusCav: 440G (3.0%, 440G)
skillomono: 400G (2.7%, 1,985G)
HASTERIOUS: 396G (2.7%, 39,660G)
DuraiPapers: 264G (1.8%, 264G)
blastty: 228G (1.6%, 228G)
ThisGuyLovesMath: 100G (0.7%, 100G)
ANFz: 100G (0.7%, 2,969G)
Firesheath: 100G (0.7%, 14,581G)
mrfripps: 100G (0.7%, 4,938G)
getthemoneyz: 32G (0.2%, 980,841G)

champion bets:
VolgraTheMoose: 5,001G (18.5%, 41,801G)
eudes89: 4,801G (17.8%, 4,801G)
Zbgs: 4,407G (16.3%, 4,407G)
sinnyil2: 4,036G (14.9%, 8,073G)
dogsandcatsand: 2,222G (8.2%, 14,338G)
opHendoslice: 2,000G (7.4%, 4,994G)
Oobs56: 1,282G (4.7%, 2,515G)
twelfthrootoftwo: 500G (1.8%, 1,499G)
TheChainNerd: 472G (1.7%, 472G)
Laserman1000: 438G (1.6%, 2,638G)
gorgewall: 401G (1.5%, 16,032G)
roofiepops: 344G (1.3%, 344G)
CosmicTactician: 300G (1.1%, 3,722G)
Rytor: 284G (1.1%, 284G)
Nizaha: 201G (0.7%, 16,924G)
Evewho: 200G (0.7%, 2,910G)
moonliquor: 100G (0.4%, 6,351G)
IphoneDarkness: 50G (0.2%, 3,228G)
