Final Bets: purple - 13 bets for 10,768G (49.3%, x1.03); brown - 13 bets for 11,094G (50.7%, x0.97)

purple bets:
Thyrandaal: 4,000G (37.1%, 246,884G)
DavenIII: 1,154G (10.7%, 11,545G)
arctodus13: 1,116G (10.4%, 1,116G)
WhiteTigress: 1,086G (10.1%, 1,086G)
nhammen: 1,000G (9.3%, 22,401G)
Tarheels218: 752G (7.0%, 752G)
E_Ballard: 608G (5.6%, 6,699G)
Aestheta: 300G (2.8%, 2,331G)
gongonono: 200G (1.9%, 2,051G)
datadrivenbot: 200G (1.9%, 66,039G)
maddrave09: 152G (1.4%, 1,115G)
AllInBot: 100G (0.9%, 100G)
Valgram: 100G (0.9%, 108G)

brown bets:
toka222: 5,000G (45.1%, 89,510G)
douchetron: 1,100G (9.9%, 1,100G)
Zagorsek: 1,078G (9.7%, 1,078G)
reinoe: 1,000G (9.0%, 207,202G)
Shalloween: 700G (6.3%, 16,503G)
BirbBrainsBot: 595G (5.4%, 149,176G)
GoatShow2: 565G (5.1%, 565G)
riesenreturn: 300G (2.7%, 2,172G)
timthehoodie: 284G (2.6%, 284G)
ar_tactic: 150G (1.4%, 77,689G)
getthemoneyz: 122G (1.1%, 1,635,687G)
MinBetBot: 100G (0.9%, 7,647G)
CosmicTactician: 100G (0.9%, 19,084G)
