Final Bets: white - 19 bets for 15,355G (70.6%, x0.42); purple - 10 bets for 6,406G (29.4%, x2.40)

white bets:
Anasetsuken: 3,357G (21.9%, 3,357G)
holyonline: 2,000G (13.0%, 37,393G)
Zbgs: 1,721G (11.2%, 3,442G)
Breakdown777: 1,500G (9.8%, 56,354G)
eudes89: 1,169G (7.6%, 1,169G)
reinoe: 1,000G (6.5%, 12,061G)
roofiepops: 796G (5.2%, 796G)
NovaKnight21: 760G (4.9%, 4,388G)
Thyrandaal: 746G (4.9%, 746G)
fluffskull: 552G (3.6%, 552G)
getthemoneyz: 438G (2.9%, 940,829G)
Lythe_Caraker: 250G (1.6%, 115,257G)
Aldrammech: 227G (1.5%, 2,276G)
TeaTime29: 200G (1.3%, 11,748G)
DustBirdEX: 194G (1.3%, 954G)
popotinha1889: 145G (0.9%, 145G)
AllInBot: 100G (0.7%, 100G)
Ring_Wyrm: 100G (0.7%, 2,184G)
datadrivenbot: 100G (0.7%, 37,344G)

purple bets:
TheChainNerd: 2,565G (40.0%, 2,565G)
sukotsuto: 1,000G (15.6%, 19,793G)
BirbBrainsBot: 1,000G (15.6%, 195,882G)
mpghappiness: 488G (7.6%, 488G)
actual_JP: 424G (6.6%, 424G)
joewcarson: 400G (6.2%, 32,875G)
ZCKaiser: 260G (4.1%, 2,602G)
Azelgrim: 145G (2.3%, 145G)
Saouri: 100G (1.6%, 100G)
roqqqpsi: 24G (0.4%, 2,432G)
