Final Bets: purple - 10 bets for 5,280G (26.2%, x2.82); brown - 17 bets for 14,873G (73.8%, x0.36)

purple bets:
DLJuggernaut: 1,143G (21.6%, 2,242G)
nekojin: 1,032G (19.5%, 2,025G)
Thyrandaal: 1,000G (18.9%, 80,139G)
Runeseeker22: 764G (14.5%, 764G)
WhiteTigress: 500G (9.5%, 27,783G)
BirbBrainsBot: 327G (6.2%, 152,802G)
bigbongsmoker: 240G (4.5%, 6,020G)
brodeity: 124G (2.3%, 124G)
CorpusCav: 100G (1.9%, 10,624G)
getthemoneyz: 50G (0.9%, 1,821,905G)

brown bets:
sinnyil2: 3,034G (20.4%, 6,069G)
SkylerBunny: 2,000G (13.4%, 41,446G)
dogsandcatsand: 1,308G (8.8%, 1,308G)
NicoSavoy: 1,278G (8.6%, 1,278G)
Arcblazer23: 1,107G (7.4%, 1,107G)
BartTradingCompany: 1,000G (6.7%, 15,201G)
superdevon1: 908G (6.1%, 908G)
Firesheath: 800G (5.4%, 800G)
Laserman1000: 618G (4.2%, 6,918G)
Raixelol: 504G (3.4%, 12,407G)
technominari: 500G (3.4%, 84,224G)
resjudicata3: 468G (3.1%, 468G)
loveyouallfriends: 405G (2.7%, 50,905G)
MemoriesofFinal: 383G (2.6%, 1,719G)
Leonidusx: 260G (1.7%, 260G)
datadrivenbot: 200G (1.3%, 56,976G)
BaronHaynes: 100G (0.7%, 47,579G)
