Final Bets: black - 11 bets for 6,829G (33.5%, x1.98); brown - 15 bets for 13,548G (66.5%, x0.50)

black bets:
Thyrandaal: 1,234G (18.1%, 82,454G)
BartTradingCompany: 1,000G (14.6%, 14,556G)
technominari: 1,000G (14.6%, 83,402G)
BirbBrainsBot: 1,000G (14.6%, 153,580G)
ruleof5: 1,000G (14.6%, 26,517G)
Firesheath: 528G (7.7%, 528G)
WhiteTigress: 300G (4.4%, 27,283G)
brodeity: 261G (3.8%, 261G)
killth3kid: 250G (3.7%, 17,442G)
FriendlySkeleton: 128G (1.9%, 1,317G)
getthemoneyz: 128G (1.9%, 1,822,518G)

brown bets:
Snowfats: 3,941G (29.1%, 3,941G)
SkylerBunny: 2,500G (18.5%, 39,156G)
nekojin: 1,065G (7.9%, 2,090G)
NicoSavoy: 1,000G (7.4%, 3,646G)
DLJuggernaut: 876G (6.5%, 1,718G)
dogsandcatsand: 828G (6.1%, 1,776G)
loveyouallfriends: 750G (5.5%, 51,049G)
Raixelol: 504G (3.7%, 13,143G)
resjudicata3: 468G (3.5%, 468G)
superdevon1: 408G (3.0%, 408G)
MemoriesofFinal: 400G (3.0%, 1,736G)
Runeseeker22: 264G (1.9%, 264G)
bigbongsmoker: 244G (1.8%, 6,049G)
datadrivenbot: 200G (1.5%, 57,268G)
CorpusCav: 100G (0.7%, 10,424G)
