Final Bets: blue - 10 bets for 5,185G (48.5%, x1.06); yellow - 7 bets for 5,501G (51.5%, x0.94)

blue bets:
BirbBrainsBot: 1,000G (19.3%, 77,950G)
dantayystv: 1,000G (19.3%, 5,969G)
NicoSavoy: 1,000G (19.3%, 196,436G)
getthemoneyz: 602G (11.6%, 1,269,639G)
letdowncity: 448G (8.6%, 448G)
Coolguye: 416G (8.0%, 4,167G)
Seaweed_B: 232G (4.5%, 2,050G)
datadrivenbot: 200G (3.9%, 60,755G)
shineeyo: 166G (3.2%, 166G)
Lydian_C: 121G (2.3%, 87,508G)

yellow bets:
Rislyeu: 3,021G (54.9%, 6,043G)
Mysteriousdewd: 1,197G (21.8%, 1,197G)
Smokegiant: 500G (9.1%, 46,560G)
twelfthrootoftwo: 292G (5.3%, 574G)
nsm013: 200G (3.6%, 11,897G)
superdevon1: 191G (3.5%, 1,914G)
furrytomahawkk: 100G (1.8%, 362G)
