Final Bets: brown - 15 bets for 8,070G (13.4%, x6.44); champion - 9 bets for 51,939G (86.6%, x0.16)

brown bets:
NicoSavoy: 2,000G (24.8%, 198,001G)
BirbBrainsBot: 1,000G (12.4%, 78,515G)
dantayystv: 1,000G (12.4%, 6,534G)
DamnThatShark: 1,000G (12.4%, 3,188G)
twelfthrootoftwo: 702G (8.7%, 1,377G)
HuffFlex: 500G (6.2%, 10,683G)
getthemoneyz: 406G (5.0%, 1,269,888G)
Coolguye: 373G (4.6%, 3,736G)
upvla: 322G (4.0%, 1,675G)
Seaweed_B: 232G (2.9%, 1,064G)
superdevon1: 204G (2.5%, 2,045G)
VolgraTheMoose: 101G (1.3%, 1,527G)
nifboy: 100G (1.2%, 9,280G)
Firesheath: 100G (1.2%, 915G)
Hasterious: 30G (0.4%, 3,000G)

champion bets:
Smokegiant: 44,060G (84.8%, 44,060G)
Lydian_C: 5,400G (10.4%, 87,394G)
Mysteriousdewd: 789G (1.5%, 789G)
nsm013: 500G (1.0%, 11,749G)
letdowncity: 396G (0.8%, 1,729G)
byrdturbo: 333G (0.6%, 25,828G)
datadrivenbot: 200G (0.4%, 61,328G)
furrytomahawkk: 161G (0.3%, 317G)
Chompie: 100G (0.2%, 10,521G)
