Final Bets: white - 11 bets for 5,545G (30.4%, x2.29); black - 22 bets for 12,720G (69.6%, x0.44)

white bets:
nifboy: 1,260G (22.7%, 1,260G)
Kyune: 1,030G (18.6%, 1,030G)
Baron_von_Scrub: 771G (13.9%, 771G)
killth3kid: 600G (10.8%, 3,175G)
CorpusCav: 500G (9.0%, 8,400G)
electric_glass: 420G (7.6%, 17,039G)
ANFz: 320G (5.8%, 320G)
GladiatorLupe: 300G (5.4%, 7,160G)
JLinkletter: 190G (3.4%, 190G)
ChrisWado: 104G (1.9%, 104G)
cougboi: 50G (0.9%, 14,071G)

black bets:
HaplessOne: 3,333G (26.2%, 96,095G)
Mesmaster: 2,000G (15.7%, 55,650G)
ungabunga_bot: 1,000G (7.9%, 515,610G)
BirbBrainsBot: 1,000G (7.9%, 121,291G)
Dexsana: 700G (5.5%, 6,358G)
reinoe: 500G (3.9%, 500G)
Lali_Lulelo: 483G (3.8%, 483G)
DustBirdEX: 456G (3.6%, 9,915G)
Ross_from_Cali: 418G (3.3%, 418G)
Strifu: 400G (3.1%, 2,752G)
otakutaylor: 300G (2.4%, 3,367G)
tronfonne: 269G (2.1%, 1,936G)
getthemoneyz: 262G (2.1%, 682,644G)
SamaelMerihem: 224G (1.8%, 224G)
wooyuji: 216G (1.7%, 216G)
Lawndough: 209G (1.6%, 209G)
MADTheta: 200G (1.6%, 961G)
neocarbuncle: 200G (1.6%, 498G)
zzaanexx: 200G (1.6%, 1,455G)
skillomono: 150G (1.2%, 500G)
Moshyhero: 100G (0.8%, 1,157G)
datadrivenbot: 100G (0.8%, 18,413G)
