Final Bets: black - 12 bets for 3,811G (12.5%, x6.98); brown - 29 bets for 26,586G (87.5%, x0.14)

black bets:
HaplessOne: 1,111G (29.2%, 104,549G)
otakutaylor: 400G (10.5%, 3,416G)
nifboy: 376G (9.9%, 376G)
KasugaiRoastedPeas: 356G (9.3%, 356G)
DLJuggernaut: 336G (8.8%, 336G)
ANFz: 320G (8.4%, 320G)
Lawndough: 312G (8.2%, 312G)
Lolprinze: 232G (6.1%, 232G)
MADTheta: 200G (5.2%, 942G)
benticore: 100G (2.6%, 4,921G)
Landman: 50G (1.3%, 263G)
getthemoneyz: 18G (0.5%, 683,223G)

brown bets:
Mesmaster: 7,000G (26.3%, 59,378G)
sinnyil2: 5,023G (18.9%, 5,023G)
HaateXIII: 1,230G (4.6%, 1,230G)
cougboi: 1,000G (3.8%, 13,716G)
GladiatorLupe: 1,000G (3.8%, 6,944G)
elburritofuerte: 1,000G (3.8%, 9,621G)
ungabunga_bot: 1,000G (3.8%, 516,059G)
BirbBrainsBot: 1,000G (3.8%, 122,162G)
NicoSavoy: 1,000G (3.8%, 32,737G)
electric_glass: 800G (3.0%, 17,307G)
CorpusCav: 700G (2.6%, 8,300G)
SamaelMerihem: 666G (2.5%, 1,006G)
Estan_AD: 592G (2.2%, 592G)
Firesheath: 572G (2.2%, 572G)
reinoe: 500G (1.9%, 500G)
Strifu: 500G (1.9%, 4,072G)
neocarbuncle: 400G (1.5%, 957G)
GnielKnows: 389G (1.5%, 778G)
Kyune: 356G (1.3%, 356G)
byrdturbo: 333G (1.3%, 11,979G)
AmaninAmide: 300G (1.1%, 5,207G)
Ross_from_Cali: 256G (1.0%, 256G)
tronfonne: 212G (0.8%, 212G)
KabukiJake: 204G (0.8%, 204G)
JLinkletter: 149G (0.6%, 149G)
ChrisWado: 104G (0.4%, 104G)
nekojin: 100G (0.4%, 100G)
StealthModeLocke: 100G (0.4%, 40,324G)
datadrivenbot: 100G (0.4%, 18,385G)
