Final Bets: brown - 29 bets for 20,654G (57.6%, x0.73); champion - 24 bets for 15,176G (42.4%, x1.36)

brown bets:
Mesmaster: 5,000G (24.2%, 59,381G)
cougboi: 1,400G (6.8%, 14,261G)
ZZ_Yoshi: 1,360G (6.6%, 32,860G)
SamaelMerihem: 1,336G (6.5%, 1,336G)
electric_glass: 1,000G (4.8%, 17,774G)
GladiatorLupe: 1,000G (4.8%, 7,439G)
BirbBrainsBot: 1,000G (4.8%, 122,657G)
Strifu: 1,000G (4.8%, 3,644G)
HaateXIII: 901G (4.4%, 901G)
Firesheath: 884G (4.3%, 884G)
ungabunga_bot: 852G (4.1%, 516,416G)
reinoe: 773G (3.7%, 773G)
nifboy: 508G (2.5%, 508G)
evontno: 500G (2.4%, 8,403G)
neocarbuncle: 400G (1.9%, 914G)
Ross_from_Cali: 396G (1.9%, 396G)
KasugaiRoastedPeas: 356G (1.7%, 356G)
ANFz: 320G (1.5%, 320G)
otakutaylor: 300G (1.5%, 3,122G)
Estan_AD: 278G (1.3%, 556G)
JLinkletter: 230G (1.1%, 230G)
nekojin: 154G (0.7%, 154G)
getthemoneyz: 106G (0.5%, 683,330G)
4shcrows: 100G (0.5%, 1,435G)
StealthModeLocke: 100G (0.5%, 40,238G)
DHaveWord: 100G (0.5%, 1,844G)
datadrivenbot: 100G (0.5%, 18,434G)
MADTheta: 100G (0.5%, 812G)
CorpusCav: 100G (0.5%, 8,647G)

champion bets:
sinnyil2: 3,379G (22.3%, 6,758G)
elburritofuerte: 2,000G (13.2%, 10,116G)
HaplessOne: 1,500G (9.9%, 103,438G)
helpimabug: 1,001G (6.6%, 6,960G)
powergems: 1,000G (6.6%, 18,195G)
Laserman1000: 663G (4.4%, 12,263G)
Kyune: 550G (3.6%, 550G)
vorap: 500G (3.3%, 48,971G)
thethorndog1: 500G (3.3%, 6,913G)
Kalpho: 500G (3.3%, 1,664G)
genericco: 500G (3.3%, 2,990G)
Dymntd: 348G (2.3%, 348G)
DLJuggernaut: 336G (2.2%, 336G)
Tsuike: 324G (2.1%, 324G)
KabukiJake: 315G (2.1%, 315G)
Lolprinze: 314G (2.1%, 314G)
AmaninAmide: 300G (2.0%, 5,391G)
tronfonne: 212G (1.4%, 212G)
Landman: 208G (1.4%, 208G)
Moshyhero: 204G (1.3%, 204G)
benticore: 200G (1.3%, 4,721G)
Lawndough: 128G (0.8%, 128G)
ChrisWado: 119G (0.8%, 119G)
GnielKnows: 75G (0.5%, 907G)
