Final Bets: purple - 18 bets for 21,957G (88.3%, x0.13); brown - 7 bets for 2,918G (11.7%, x7.52)

purple bets:
snkey: 14,175G (64.6%, 56,701G)
Shalloween: 1,270G (5.8%, 2,541G)
BirbBrainsBot: 1,000G (4.6%, 192,541G)
Thyrandaal: 1,000G (4.6%, 110,238G)
Laserman1000: 699G (3.2%, 3,699G)
DLJuggernaut: 524G (2.4%, 524G)
CosmicTactician: 500G (2.3%, 37,195G)
killth5: 500G (2.3%, 1,675G)
CorpusCav: 400G (1.8%, 5,552G)
Blastinus: 360G (1.6%, 360G)
killth3kid: 250G (1.1%, 13,405G)
BartTradingCompany: 243G (1.1%, 2,433G)
khelor_: 200G (0.9%, 1,391G)
datadrivenbot: 200G (0.9%, 54,806G)
acrusade: 200G (0.9%, 3,111G)
PuzzleSecretary: 196G (0.9%, 2,093G)
madming25: 140G (0.6%, 140G)
Powermhero: 100G (0.5%, 50,561G)

brown bets:
BaronHaynes: 1,000G (34.3%, 38,103G)
Sietaha: 600G (20.6%, 3,422G)
Chuckolator: 568G (19.5%, 568G)
Zeroroute: 344G (11.8%, 344G)
kren898: 200G (6.9%, 1,322G)
getthemoneyz: 106G (3.6%, 1,835,905G)
nhammen: 100G (3.4%, 439,740G)
