Final Bets: white - 13 bets for 6,016G (38.4%, x1.60); champion - 11 bets for 9,638G (61.6%, x0.62)

white bets:
Evewho: 1,000G (16.6%, 16,272G)
BirbBrainsBot: 1,000G (16.6%, 22,068G)
Mtueni: 1,000G (16.6%, 240,600G)
HaychDub: 1,000G (16.6%, 5,779G)
AUrato: 472G (7.8%, 472G)
ShintaroNayaka: 308G (5.1%, 308G)
twelfthrootoftwo: 300G (5.0%, 8,252G)
thethorndog1: 250G (4.2%, 518G)
Aestheta: 212G (3.5%, 212G)
getthemoneyz: 174G (2.9%, 674,726G)
lastly: 100G (1.7%, 11,988G)
AmaninAmide: 100G (1.7%, 2,771G)
Digitalsocrates: 100G (1.7%, 2,521G)

champion bets:
Anethum: 2,029G (21.1%, 2,029G)
rocl: 2,000G (20.8%, 68,799G)
R_Raynos: 1,151G (11.9%, 1,151G)
Strifu: 1,016G (10.5%, 1,016G)
Zachara: 1,000G (10.4%, 81,000G)
superdevon1: 853G (8.9%, 21,338G)
zmoses: 500G (5.2%, 11,662G)
ko2q: 408G (4.2%, 408G)
Dexef: 316G (3.3%, 316G)
roqqqpsi: 265G (2.7%, 1,207G)
datadrivenbot: 100G (1.0%, 14,959G)
