Final Bets: white - 13 bets for 7,872G (54.7%, x0.83); purple - 12 bets for 6,510G (45.3%, x1.21)

white bets:
SkylerBunny: 2,000G (25.4%, 593,936G)
cam_ATS: 1,500G (19.1%, 22,687G)
BirbBrainsBot: 1,000G (12.7%, 89,397G)
roofiepops: 864G (11.0%, 864G)
BStarTV: 500G (6.4%, 9,966G)
EnemyController: 500G (6.4%, 1,233,694G)
killth3kid: 480G (6.1%, 6,352G)
Chronolynx42: 300G (3.8%, 55,631G)
Evewho: 200G (2.5%, 8,097G)
just_here2: 200G (2.5%, 8,684G)
getthemoneyz: 128G (1.6%, 1,020,748G)
kolding: 100G (1.3%, 100G)
placidphoenix: 100G (1.3%, 1,777G)

purple bets:
ko2q: 2,079G (31.9%, 4,158G)
GladiatorLupe: 1,000G (15.4%, 13,558G)
holyonline: 960G (14.7%, 960G)
UmaiJam: 800G (12.3%, 800G)
Shalloween: 500G (7.7%, 70,189G)
ar_tactic: 250G (3.8%, 55,464G)
Nizaha: 201G (3.1%, 11,933G)
silentkaster: 200G (3.1%, 8,966G)
Grandlanzer: 200G (3.1%, 8,389G)
Lydian_C: 120G (1.8%, 167,627G)
nhammen: 100G (1.5%, 3,818G)
datadrivenbot: 100G (1.5%, 45,142G)
