Final Bets: red - 16 bets for 8,689G (41.2%, x1.43); champion - 10 bets for 12,403G (58.8%, x0.70)

red bets:
EnemyController: 1,234G (14.2%, 1,232,894G)
Shalloween: 1,000G (11.5%, 71,081G)
LDSkinny: 1,000G (11.5%, 11,400G)
BirbBrainsBot: 1,000G (11.5%, 88,684G)
Chronolynx42: 1,000G (11.5%, 55,475G)
EmperorBeef: 900G (10.4%, 183,900G)
Seaweed_B: 835G (9.6%, 835G)
killth3kid: 480G (5.5%, 6,010G)
roofiepops: 364G (4.2%, 364G)
silentkaster: 208G (2.4%, 9,108G)
getthemoneyz: 148G (1.7%, 1,020,386G)
Lydian_C: 120G (1.4%, 167,652G)
nhammen: 100G (1.2%, 3,839G)
Evewho: 100G (1.2%, 7,954G)
datadrivenbot: 100G (1.2%, 45,292G)
Yiroep2: 100G (1.2%, 5,510G)

champion bets:
SkylerBunny: 5,000G (40.3%, 592,510G)
prince_rogers_nelson_: 3,000G (24.2%, 15,523G)
BStarTV: 1,000G (8.1%, 9,753G)
dogsandcatsand: 888G (7.2%, 888G)
soren_of_tyto: 792G (6.4%, 792G)
DavenIII: 772G (6.2%, 772G)
GatsbysGhost: 400G (3.2%, 7,493G)
ar_tactic: 250G (2.0%, 55,616G)
Nizaha: 201G (1.6%, 11,975G)
Quadh0nk: 100G (0.8%, 2,897G)
