Final Bets: red - 7 bets for 1,819G (21.4%, x3.68); yellow - 12 bets for 6,691G (78.6%, x0.27)

red bets:
nok____: 804G (44.2%, 804G)
WhiteTigress: 352G (19.4%, 352G)
Aestheta: 264G (14.5%, 264G)
DesertWooder: 120G (6.6%, 1,317G)
getthemoneyz: 106G (5.8%, 1,635,827G)
ko2q: 100G (5.5%, 4,112G)
roqqqpsi: 73G (4.0%, 1,466G)

yellow bets:
UmaiJam: 2,000G (29.9%, 20,217G)
skipsandwiches: 1,001G (15.0%, 15,876G)
BirbBrainsBot: 1,000G (14.9%, 141,460G)
SephDarkheart: 576G (8.6%, 114,022G)
LAGBOT30000: 500G (7.5%, 9,356G)
BaronHaynes: 500G (7.5%, 24,015G)
LDHaten: 335G (5.0%, 335G)
3ngag3: 278G (4.2%, 4,278G)
datadrivenbot: 200G (3.0%, 65,502G)
gorgewall: 101G (1.5%, 7,064G)
MinBetBot: 100G (1.5%, 8,329G)
AllInBot: 100G (1.5%, 100G)
