Final Bets: white - 17 bets for 18,021G (51.8%, x0.93); brown - 10 bets for 16,761G (48.2%, x1.08)

white bets:
DavenIII: 6,395G (35.5%, 63,952G)
latebit: 3,456G (19.2%, 6,777G)
JumbocactuarX27: 1,716G (9.5%, 1,716G)
toka222: 1,100G (6.1%, 152,071G)
BirbBrainsBot: 1,000G (5.5%, 30,594G)
killth3kid: 744G (4.1%, 21,755G)
TasisSai: 624G (3.5%, 624G)
getthemoneyz: 606G (3.4%, 1,657,477G)
xBizzy: 588G (3.3%, 2,944G)
JonnyCue: 500G (2.8%, 1,814G)
DLJuggernaut: 416G (2.3%, 416G)
WhiteTigress: 300G (1.7%, 3,383G)
Blaster_Bomb: 250G (1.4%, 609G)
datadrivenbot: 200G (1.1%, 69,370G)
ko2q: 100G (0.6%, 523G)
silverChangeling: 25G (0.1%, 23,275G)
neerrm: 1G (0.0%, 18,566G)

brown bets:
SomthingMore: 5,000G (29.8%, 42,690G)
Zeroroute: 3,890G (23.2%, 10,239G)
joewcarson: 3,000G (17.9%, 17,141G)
Galeronis: 2,664G (15.9%, 5,328G)
SkylerBunny: 756G (4.5%, 1,230G)
MagicBottle: 679G (4.1%, 679G)
Tarheels218: 292G (1.7%, 292G)
AllInBot: 269G (1.6%, 269G)
NewbGaming: 111G (0.7%, 802G)
MinBetBot: 100G (0.6%, 7,684G)
