Final Bets: purple - 21 bets for 10,343G (36.5%, x1.74); brown - 21 bets for 18,019G (63.5%, x0.57)

purple bets:
killth3kid: 2,000G (19.3%, 7,730G)
Zeroroute: 1,961G (19.0%, 4,750G)
Ungaiii: 1,000G (9.7%, 19,787G)
turquoise_mage: 1,000G (9.7%, 4,126G)
sinnyil2: 799G (7.7%, 39,253G)
Phi_Sig: 555G (5.4%, 143,646G)
nifboy: 420G (4.1%, 420G)
ApplesauceBoss: 320G (3.1%, 320G)
electric_glass: 300G (2.9%, 9,693G)
bahamutlagooon: 289G (2.8%, 5,798G)
CCRUNNER149UWP: 268G (2.6%, 268G)
metagameface: 244G (2.4%, 244G)
KasugaiRoastedPeas: 200G (1.9%, 1,966G)
mannequ1n: 200G (1.9%, 8,201G)
cupholderr: 200G (1.9%, 64,168G)
ANFz: 121G (1.2%, 50,319G)
otakutaylor: 116G (1.1%, 116G)
Firesheath: 100G (1.0%, 24,844G)
datadrivenbot: 100G (1.0%, 13,475G)
ko2q: 100G (1.0%, 8,193G)
cougboi: 50G (0.5%, 11,264G)

brown bets:
AniZero: 5,000G (27.7%, 33,287G)
gooseyourself: 2,000G (11.1%, 12,396G)
LeoNightFury: 1,000G (5.5%, 2,372G)
ungabunga_bot: 1,000G (5.5%, 480,352G)
BirbBrainsBot: 1,000G (5.5%, 10,194G)
Lionhermit: 1,000G (5.5%, 45,483G)
EnemyController: 1,000G (5.5%, 239,664G)
CorpusCav: 999G (5.5%, 15,099G)
Rislyeu: 963G (5.3%, 963G)
Nizaha: 657G (3.6%, 657G)
eudes89: 500G (2.8%, 7,031G)
Drusic: 500G (2.8%, 17,861G)
Estan_AD: 472G (2.6%, 472G)
Cryptopsy70: 420G (2.3%, 2,411G)
Kyune: 316G (1.8%, 316G)
CapnChaos12: 300G (1.7%, 2,585G)
timthehoodie: 250G (1.4%, 788G)
getthemoneyz: 242G (1.3%, 673,795G)
theNGUYENNER: 200G (1.1%, 21,218G)
sSwing: 100G (0.6%, 3,248G)
vampyreinabox: 100G (0.6%, 291G)
