Final Bets: red - 20 bets for 21,350G (87.9%, x0.14); blue - 9 bets for 2,948G (12.1%, x7.24)

red bets:
SkylerBunny: 5,000G (23.4%, 616,770G)
Mesmaster: 5,000G (23.4%, 252,304G)
AniZero: 2,000G (9.4%, 33,589G)
Rislyeu: 2,000G (9.4%, 30,016G)
theanonymouslurker: 1,568G (7.3%, 1,568G)
Aldrammech: 1,000G (4.7%, 26,195G)
Breakdown777: 812G (3.8%, 812G)
Laserman1000: 693G (3.2%, 12,693G)
DAC169: 600G (2.8%, 1,056G)
Jadusable2: 500G (2.3%, 2,345G)
CorpusCav: 500G (2.3%, 2,098G)
cam_ATS: 344G (1.6%, 344G)
RunicMagus: 300G (1.4%, 29,390G)
ColetteMSLP: 300G (1.4%, 4,582G)
Magicandy: 200G (0.9%, 2,510G)
neocarbuncle: 132G (0.6%, 132G)
Baron_von_Scrub: 101G (0.5%, 8,436G)
kolding: 100G (0.5%, 100G)
Quadh0nk: 100G (0.5%, 2,893G)
datadrivenbot: 100G (0.5%, 43,798G)

blue bets:
BirbBrainsBot: 1,000G (33.9%, 28,810G)
TheChainNerd: 500G (17.0%, 7,249G)
Kronikle: 400G (13.6%, 23,230G)
getthemoneyz: 398G (13.5%, 1,005,970G)
HaateXIII: 250G (8.5%, 33,851G)
ApplesauceBoss: 100G (3.4%, 15,112G)
Firesheath: 100G (3.4%, 14,956G)
Yiroep2: 100G (3.4%, 9,848G)
fluffskull: 100G (3.4%, 6,117G)
