Final Bets: purple - 9 bets for 27,984G (41.1%, x1.43); brown - 22 bets for 40,081G (58.9%, x0.70)

purple bets:
AllInBot: 20,359G (72.8%, 20,359G)
reinoe: 5,000G (17.9%, 158,362G)
Aldrammech: 1,000G (3.6%, 7,162G)
Amorial: 571G (2.0%, 571G)
kahjeethaswares: 423G (1.5%, 423G)
getthemoneyz: 230G (0.8%, 1,555,358G)
lyonslegacy: 200G (0.7%, 22,202G)
ANFz: 101G (0.4%, 45,187G)
nifboy: 100G (0.4%, 7,237G)

brown bets:
DeathTaxesAndAnime: 14,991G (37.4%, 29,396G)
Thyrandaal: 10,000G (24.9%, 212,283G)
NIghtdew14: 3,340G (8.3%, 3,340G)
NicoSavoy: 2,177G (5.4%, 108,851G)
rockmem21: 1,200G (3.0%, 8,018G)
Meta_Five: 1,000G (2.5%, 20,858G)
Smashy: 1,000G (2.5%, 2,546G)
BirbBrainsBot: 1,000G (2.5%, 119,344G)
Forkmore: 681G (1.7%, 681G)
Rytor: 630G (1.6%, 1,236G)
TheMurkGnome: 605G (1.5%, 6,157G)
just_here2: 600G (1.5%, 7,230G)
nekojin: 500G (1.2%, 35,709G)
SuppleThink: 500G (1.2%, 4,008G)
Oreo_Pizza: 500G (1.2%, 57,669G)
Jaritras: 353G (0.9%, 2,697G)
Chuckolator: 203G (0.5%, 3,252G)
gorgewall: 201G (0.5%, 7,728G)
datadrivenbot: 200G (0.5%, 49,128G)
Legionx13: 200G (0.5%, 5,125G)
MinBetBot: 100G (0.2%, 16,310G)
Firesheath: 100G (0.2%, 21,581G)
