Player: !Black
Team: Black Team
Palettes: Black/Red



GrayGhostGaming
Monster
Cancer
51
73
Black Chocobo










ThisGuyLovesMath
Female
Cancer
77
48
Priest
Charge
Counter Flood
Equip Armor
Move+2

Morning Star

Barbuta
Diamond Armor
Bracer

Raise, Reraise, Shell, Esuna
Charge+2, Charge+4, Charge+7, Charge+10



Zbgs
Monster
Virgo
41
43
Serpentarius










DLJuggernaut
Monster
Sagittarius
78
44
Black Goblin







