Player: !Brown
Team: Brown Team
Palettes: Brown/Green



SkylerBunny
Monster
Libra
51
66
Swine










Itszaane
Monster
Aries
51
44
Vampire










BStarTV
Monster
Pisces
46
72
Black Chocobo










Sir Uther115
Monster
Aries
73
70
Swine







