Final Bets: purple - 24 bets for 34,933G (79.5%, x0.26); brown - 11 bets for 9,003G (20.5%, x3.88)

purple bets:
Zbgs: 13,108G (37.5%, 13,108G)
DarrenDinosaurs: 5,670G (16.2%, 5,670G)
Digitalsocrates: 2,000G (5.7%, 67,990G)
Kronikle: 2,000G (5.7%, 15,711G)
Zeroroute: 1,674G (4.8%, 5,698G)
Bilabrin: 1,488G (4.3%, 5,382G)
Rytor: 1,474G (4.2%, 1,474G)
O_Heyno: 1,147G (3.3%, 1,147G)
DamnThatShark: 723G (2.1%, 723G)
prince_rogers_nelson_: 572G (1.6%, 572G)
Laserman1000: 544G (1.6%, 544G)
KonzeraLive: 500G (1.4%, 1,924G)
maleblackfiora: 500G (1.4%, 10,228G)
ericzubat: 500G (1.4%, 1,420G)
TempestuousT: 479G (1.4%, 479G)
superdevon1: 471G (1.3%, 3,141G)
killth3kid: 464G (1.3%, 464G)
ANFz: 464G (1.3%, 464G)
placidphoenix: 305G (0.9%, 305G)
ColetteMSLP: 300G (0.9%, 1,911G)
Lythe_Caraker: 250G (0.7%, 110,612G)
GrayGhostGaming: 100G (0.3%, 5,702G)
CosmicTactician: 100G (0.3%, 6,195G)
victoriolue: 100G (0.3%, 4,296G)

brown bets:
SkylerBunny: 3,000G (33.3%, 107,008G)
Evewho: 2,000G (22.2%, 8,010G)
HASTERIOUS: 1,169G (13.0%, 38,982G)
BirbBrainsBot: 850G (9.4%, 83,079G)
DLJuggernaut: 500G (5.6%, 7,510G)
BStarTV: 500G (5.6%, 8,162G)
pandasforsale: 352G (3.9%, 352G)
getthemoneyz: 200G (2.2%, 983,704G)
itszaane: 200G (2.2%, 1,619G)
notsashasia: 163G (1.8%, 163G)
MadnessR: 69G (0.8%, 11,162G)
