Final Bets: purple - 15 bets for 17,063G (32.2%, x2.11); champion - 44 bets for 35,963G (67.8%, x0.47)

purple bets:
SkylerBunny: 11,000G (64.5%, 81,791G)
Lazerkick: 1,000G (5.9%, 9,020G)
Anethum: 722G (4.2%, 1,444G)
YaBoy125: 707G (4.1%, 707G)
OneHundredFists: 668G (3.9%, 668G)
reinoe: 500G (2.9%, 9,155G)
Riot_Jayway: 500G (2.9%, 172,570G)
Hirine: 400G (2.3%, 1,419G)
DarrenDinosaurs: 360G (2.1%, 360G)
ungabunga_bot: 300G (1.8%, 553G)
wackyzachyy: 250G (1.5%, 1,000G)
Bulleta: 240G (1.4%, 240G)
HighJayster: 216G (1.3%, 216G)
Rexamajinx: 100G (0.6%, 440G)
trez_: 100G (0.6%, 965G)

champion bets:
OmnibotGamma: 4,652G (12.9%, 4,652G)
roofiepops: 4,000G (11.1%, 19,592G)
SolarisFall: 3,386G (9.4%, 3,386G)
nomoment: 2,902G (8.1%, 2,902G)
humble_fabio: 2,431G (6.8%, 2,431G)
proper__noun__: 2,425G (6.7%, 4,850G)
HaplessOne: 1,500G (4.2%, 22,072G)
PatSouI: 1,296G (3.6%, 1,296G)
sinnyil2: 1,200G (3.3%, 10,922G)
Lodrak: 1,001G (2.8%, 8,285G)
truestrike: 1,000G (2.8%, 1,789G)
BirbBrainsBot: 1,000G (2.8%, 192,664G)
bad1dea: 1,000G (2.8%, 182,602G)
gooseyourself: 735G (2.0%, 735G)
Midgetto: 725G (2.0%, 2,825G)
Numbersborne: 567G (1.6%, 567G)
Lanshaft: 552G (1.5%, 19,957G)
typicalfanboy: 500G (1.4%, 500G)
SeraphPDH: 500G (1.4%, 6,137G)
silentperogy: 400G (1.1%, 6,099G)
Dothan89: 332G (0.9%, 332G)
VentoLivre: 300G (0.8%, 995G)
Skarthe: 300G (0.8%, 3,389G)
Oshimi12: 300G (0.8%, 1,902G)
SeedSC: 249G (0.7%, 78,249G)
BrazilianFury: 224G (0.6%, 224G)
ANFz: 200G (0.6%, 22,654G)
rubenflonne: 200G (0.6%, 2,276G)
Viola03773: 200G (0.6%, 1,386G)
KasugaiRoastedPeas: 200G (0.6%, 33,320G)
waterwatereverywhere: 200G (0.6%, 22,108G)
Avin_Chaos: 200G (0.6%, 997G)
SpaZmodeus: 132G (0.4%, 132G)
chronoxtrigger: 129G (0.4%, 529G)
a_mo22: 125G (0.3%, 5,451G)
AdmiralPikachu: 100G (0.3%, 30,408G)
ApplesauceBoss: 100G (0.3%, 5,407G)
RyuTsuno: 100G (0.3%, 2,209G)
Tougou: 100G (0.3%, 3,233G)
datadrivenbot: 100G (0.3%, 12,985G)
Basmal: 100G (0.3%, 8,018G)
alecttox: 100G (0.3%, 6,662G)
omegasuspekt: 100G (0.3%, 3,608G)
Jeardra: 100G (0.3%, 177G)
