Final Bets: green - 38 bets for 39,594G (65.6%, x0.52); yellow - 19 bets for 20,780G (34.4%, x1.91)

green bets:
OneHundredFists: 5,000G (12.6%, 9,124G)
proper__noun__: 4,882G (12.3%, 9,764G)
wackyzachyy: 4,640G (11.7%, 4,640G)
AM3P_Batman: 3,000G (7.6%, 14,799G)
rockmem21: 2,814G (7.1%, 28,143G)
bpc2163: 2,750G (6.9%, 2,750G)
AlenaZarek: 2,500G (6.3%, 19,217G)
DeathTaxesAndAnime: 1,000G (2.5%, 38,040G)
Lazerkick: 1,000G (2.5%, 12,925G)
Faplo: 1,000G (2.5%, 4,794G)
TheRobbieRobster: 1,000G (2.5%, 13,754G)
Shalloween: 1,000G (2.5%, 52,888G)
roffgar: 878G (2.2%, 878G)
getthemoneyz: 840G (2.1%, 394,584G)
Aldrammech: 600G (1.5%, 600G)
LordSDB: 500G (1.3%, 8,227G)
ibrakadabra_legend: 500G (1.3%, 9,829G)
HaplessOne: 500G (1.3%, 39,418G)
Riot_Jayway: 500G (1.3%, 184,226G)
inzo24: 500G (1.3%, 6,111G)
reinoe: 480G (1.2%, 480G)
fenixcrest: 445G (1.1%, 8,901G)
volgrathemoose: 444G (1.1%, 444G)
luminarii: 382G (1.0%, 7,680G)
TheGuesty: 350G (0.9%, 5,729G)
fenaen: 324G (0.8%, 324G)
roofiepops: 304G (0.8%, 304G)
arch8000: 300G (0.8%, 10,587G)
amadmet: 200G (0.5%, 6,094G)
BadBlanket: 200G (0.5%, 3,943G)
Jordache7K: 111G (0.3%, 13,454G)
twelfthrootoftwo: 100G (0.3%, 3,623G)
SpaZmodeus: 100G (0.3%, 4,068G)
Oshimi12: 100G (0.3%, 1,328G)
victoriolue: 100G (0.3%, 4,307G)
datadrivenbot: 100G (0.3%, 15,354G)
SeedSC: 100G (0.3%, 151,924G)
GrayGhostGaming: 50G (0.1%, 1,042G)

yellow bets:
Shakarak: 3,455G (16.6%, 3,455G)
Eldente: 2,735G (13.2%, 91,191G)
Jeeboheebo: 2,000G (9.6%, 22,312G)
snkey: 1,927G (9.3%, 3,854G)
Zeroroute: 1,756G (8.5%, 1,756G)
manc0_: 1,312G (6.3%, 1,312G)
Humble_Fabio: 1,222G (5.9%, 1,222G)
BirbBrainsBot: 1,000G (4.8%, 17,396G)
bad1dea: 1,000G (4.8%, 254,026G)
kai_shee: 1,000G (4.8%, 35,059G)
Axelrod: 677G (3.3%, 13,540G)
Lanshaft: 580G (2.8%, 9,641G)
GeekDadMan: 508G (2.4%, 1,016G)
gooseyourself: 500G (2.4%, 9,313G)
kingchadking: 308G (1.5%, 308G)
DustBirdEX: 300G (1.4%, 8,163G)
Aeolus_000: 200G (1.0%, 3,030G)
old_overholt_: 200G (1.0%, 1,188G)
friendsquirrel: 100G (0.5%, 1,554G)
