Final Bets: red - 26 bets for 10,559G (24.2%, x3.13); green - 33 bets for 33,062G (75.8%, x0.32)

red bets:
Zeroroute: 2,324G (22.0%, 2,324G)
inzo_bettingbot: 1,000G (9.5%, 22,198G)
DudeMonkey77: 1,000G (9.5%, 34,728G)
Aldrammech: 600G (5.7%, 600G)
inzo24: 600G (5.7%, 5,773G)
fenixcrest: 456G (4.3%, 9,135G)
0utlier: 416G (3.9%, 416G)
Shalloween: 400G (3.8%, 54,581G)
luminarii: 362G (3.4%, 7,106G)
kekkerscrew: 349G (3.3%, 349G)
MoonSlayerRS: 344G (3.3%, 344G)
kingchadking: 308G (2.9%, 308G)
DustBirdEX: 300G (2.8%, 7,363G)
GeekDadMan: 300G (2.8%, 345G)
Evewho: 300G (2.8%, 11,995G)
Arunic: 200G (1.9%, 3,435G)
zebobz: 200G (1.9%, 1,785G)
volgrathemoose: 200G (1.9%, 3,149G)
old_overholt_: 200G (1.9%, 688G)
Oshimi12: 100G (0.9%, 1,611G)
MyFakeLife: 100G (0.9%, 26,727G)
SpaZmodeus: 100G (0.9%, 4,143G)
mpghappiness: 100G (0.9%, 5,052G)
Axelrod: 100G (0.9%, 13,558G)
GrayGhostGaming: 100G (0.9%, 1,080G)
lotharek: 100G (0.9%, 1,369G)

green bets:
rockmem21: 5,989G (18.1%, 29,948G)
sinnyil2: 4,165G (12.6%, 8,330G)
Eldente: 2,841G (8.6%, 94,704G)
Riot_Jayway: 2,222G (6.7%, 182,877G)
roofiepops: 2,158G (6.5%, 2,158G)
OneHundredFists: 2,000G (6.0%, 13,410G)
DeathTaxesAndAnime: 2,000G (6.0%, 38,727G)
Lord_Burrah: 1,401G (4.2%, 88,401G)
TheRobbieRobster: 1,000G (3.0%, 16,594G)
Faplo: 1,000G (3.0%, 5,400G)
ensiron: 1,000G (3.0%, 3,994G)
gooseyourself: 1,000G (3.0%, 8,813G)
roffgar: 757G (2.3%, 757G)
bad1dea: 700G (2.1%, 251,026G)
BirbBrainsBot: 668G (2.0%, 14,396G)
Lanshaft: 580G (1.8%, 9,197G)
arch8000: 500G (1.5%, 10,344G)
TheChainNerd: 472G (1.4%, 472G)
TheGuesty: 450G (1.4%, 4,998G)
snkey: 332G (1.0%, 332G)
AlenaZarek: 300G (0.9%, 20,429G)
ugoplatamia: 200G (0.6%, 987G)
amadmet: 200G (0.6%, 6,265G)
BadBlanket: 200G (0.6%, 3,848G)
getthemoneyz: 116G (0.4%, 394,327G)
Jordache7K: 111G (0.3%, 13,632G)
twelfthrootoftwo: 100G (0.3%, 3,683G)
Nizaha: 100G (0.3%, 4,808G)
deesignal: 100G (0.3%, 4,595G)
Purpleyoshii: 100G (0.3%, 208G)
victoriolue: 100G (0.3%, 4,367G)
SeedSC: 100G (0.3%, 153,318G)
datadrivenbot: 100G (0.3%, 15,414G)
