Final Bets: green - 45 bets for 40,551G (60.9%, x0.64); yellow - 20 bets for 25,987G (39.1%, x1.56)

green bets:
catfashions: 4,911G (12.1%, 9,822G)
Mesmaster: 4,000G (9.9%, 26,266G)
RyuTsuno: 3,938G (9.7%, 3,938G)
reinoe: 3,365G (8.3%, 3,365G)
sinnyil2: 2,290G (5.6%, 4,580G)
Mtueni: 2,000G (4.9%, 262,658G)
Sairentozon7: 1,630G (4.0%, 1,630G)
coralreeferz: 1,500G (3.7%, 12,311G)
Chrysaors: 1,471G (3.6%, 36,786G)
ShintaroNayaka: 1,076G (2.7%, 1,076G)
BirbBrainsBot: 1,000G (2.5%, 81,827G)
getthemoneyz: 1,000G (2.5%, 603,320G)
JumbocactuarX27: 1,000G (2.5%, 12,568G)
HorusTaurus: 1,000G (2.5%, 5,273G)
Avin_Chaos: 1,000G (2.5%, 17,675G)
Hamborn: 1,000G (2.5%, 54,090G)
skuldar: 1,000G (2.5%, 1,965G)
Pink_LuigiX: 539G (1.3%, 539G)
ungabunga_bot: 514G (1.3%, 279,328G)
helpimabug: 500G (1.2%, 2,218G)
cgMcWhiskers: 500G (1.2%, 4,871G)
CapnChaos12: 500G (1.2%, 46,274G)
richardserious: 447G (1.1%, 447G)
TheChainNerd: 403G (1.0%, 403G)
Cryptopsy70: 380G (0.9%, 32,969G)
trigger15: 337G (0.8%, 337G)
old_overholt_: 300G (0.7%, 1,128G)
blastizard: 300G (0.7%, 1,116G)
Lavatis: 300G (0.7%, 3,902G)
MrDiggs49: 276G (0.7%, 276G)
PetitFoulard: 236G (0.6%, 236G)
roofiepops: 222G (0.5%, 2,426G)
Zapad222: 200G (0.5%, 1,000G)
museofdoom: 200G (0.5%, 4,573G)
run_with_STONE_GUNS: 200G (0.5%, 6,844G)
ciprofloxacin: 112G (0.3%, 112G)
marrrrrrrrrrrrrrrrrrrr: 104G (0.3%, 104G)
AllInBot: 100G (0.2%, 100G)
GingerDynomite: 100G (0.2%, 6,293G)
DixTrix: 100G (0.2%, 172G)
Viola03773: 100G (0.2%, 10,288G)
Lythe_Caraker: 100G (0.2%, 113,565G)
datadrivenbot: 100G (0.2%, 8,515G)
geglash: 100G (0.2%, 1,000G)
Jerboj: 100G (0.2%, 59,120G)

yellow bets:
DeathTaxesAndAnime: 13,585G (52.3%, 26,639G)
jakeduhhsnake: 2,000G (7.7%, 21,635G)
Pie108: 2,000G (7.7%, 293,187G)
fenaen: 1,500G (5.8%, 63,459G)
LDSkinny: 1,000G (3.8%, 12,455G)
Draconis345: 1,000G (3.8%, 77,955G)
OneHundredFists: 1,000G (3.8%, 7,082G)
DavenIII: 1,000G (3.8%, 13,412G)
Nickyfive: 819G (3.2%, 819G)
killth3kid: 500G (1.9%, 43,050G)
SomeCallMeGON: 400G (1.5%, 8,731G)
Egil72: 260G (1.0%, 260G)
ACSpree: 208G (0.8%, 208G)
Yontipon: 116G (0.4%, 116G)
nifboy: 100G (0.4%, 2,218G)
FoeSquirrel: 100G (0.4%, 2,895G)
CosmicTactician: 100G (0.4%, 3,671G)
Arunic: 100G (0.4%, 1,781G)
DrAntiSocial: 100G (0.4%, 4,431G)
gggamezzz: 99G (0.4%, 199G)
