Final Bets: white - 26 bets for 15,752G (18.8%, x4.31); black - 39 bets for 67,905G (81.2%, x0.23)

white bets:
Mesmaster: 2,000G (12.7%, 28,829G)
fenaen: 1,500G (9.5%, 61,959G)
DavenIII: 1,000G (6.3%, 12,412G)
ungabunga_bot: 1,000G (6.3%, 279,657G)
BirbBrainsBot: 1,000G (6.3%, 82,468G)
Aldrammech: 1,000G (6.3%, 86,706G)
jakeduhhsnake: 1,000G (6.3%, 19,635G)
skuldar: 1,000G (6.3%, 2,606G)
OneHundredFists: 1,000G (6.3%, 6,082G)
Rinhander: 676G (4.3%, 676G)
TheChainNerd: 661G (4.2%, 661G)
Nizaha: 501G (3.2%, 7,494G)
SomeCallMeGON: 500G (3.2%, 8,331G)
RyuTsuno: 500G (3.2%, 6,462G)
MrDiggs49: 453G (2.9%, 453G)
PetitFoulard: 387G (2.5%, 387G)
cgMcWhiskers: 300G (1.9%, 5,191G)
ACSpree: 208G (1.3%, 208G)
Zapad222: 200G (1.3%, 1,128G)
richardserious: 200G (1.3%, 733G)
benticore: 200G (1.3%, 9,975G)
getthemoneyz: 116G (0.7%, 603,961G)
nifboy: 100G (0.6%, 2,118G)
Firesheath: 100G (0.6%, 7,465G)
lastly: 100G (0.6%, 1,737G)
blastizard: 50G (0.3%, 1,308G)

black bets:
LDSkinny: 11,455G (16.9%, 11,455G)
coralreeferz: 10,000G (14.7%, 13,272G)
DeathTaxesAndAnime: 6,657G (9.8%, 13,054G)
GingerDynomite: 6,357G (9.4%, 6,357G)
reinoe: 5,521G (8.1%, 5,521G)
joewcarson: 3,438G (5.1%, 3,438G)
sinnyil2: 3,024G (4.5%, 6,048G)
Avin_Chaos: 3,000G (4.4%, 18,316G)
Mtueni: 2,000G (2.9%, 263,940G)
ShintaroNayaka: 1,770G (2.6%, 1,770G)
Chrysaors: 1,509G (2.2%, 37,729G)
Viola03773: 1,000G (1.5%, 10,352G)
Draconis345: 1,000G (1.5%, 76,955G)
JumbocactuarX27: 1,000G (1.5%, 13,209G)
edgehead62888: 1,000G (1.5%, 8,870G)
Hamborn: 1,000G (1.5%, 54,731G)
feDoran: 1,000G (1.5%, 27,000G)
HorusTaurus: 1,000G (1.5%, 5,914G)
Pink_LuigiX: 884G (1.3%, 884G)
Laserman1000: 800G (1.2%, 57,100G)
trigger15: 553G (0.8%, 553G)
Nickyfive: 508G (0.7%, 508G)
ANFz: 500G (0.7%, 10,302G)
catfashions: 500G (0.7%, 12,969G)
Lavatis: 400G (0.6%, 4,094G)
Cryptopsy70: 380G (0.6%, 33,213G)
Egil72: 260G (0.4%, 260G)
ciprofloxacin: 184G (0.3%, 184G)
marrrrrrrrrrrrrrrrrrrr: 171G (0.3%, 171G)
AllInBot: 164G (0.2%, 164G)
Yontipon: 116G (0.2%, 116G)
FoeSquirrel: 100G (0.1%, 2,795G)
Bongomon7: 100G (0.1%, 1,206G)
helpimabug: 100G (0.1%, 2,538G)
datadrivenbot: 100G (0.1%, 8,579G)
DrAntiSocial: 100G (0.1%, 4,331G)
maakur_: 100G (0.1%, 110,291G)
CosmicTactician: 100G (0.1%, 3,571G)
gggamezzz: 54G (0.1%, 108G)
