Final Bets: white - 17 bets for 41,164G (69.1%, x0.45); black - 15 bets for 18,374G (30.9%, x2.24)

white bets:
toka222: 20,000G (48.6%, 140,069G)
Aldrammech: 5,000G (12.1%, 50,000G)
roofiepops: 4,553G (11.1%, 4,553G)
nhammen: 3,000G (7.3%, 90,329G)
DavenIII: 2,500G (6.1%, 89,056G)
latebit: 1,806G (4.4%, 3,542G)
DustBirdEX: 1,111G (2.7%, 2,222G)
BirbBrainsBot: 1,000G (2.4%, 60,724G)
douchetron: 600G (1.5%, 600G)
Raixelol: 304G (0.7%, 304G)
CapnChaos12: 300G (0.7%, 1,968G)
peanutvendor: 300G (0.7%, 4,351G)
rNdOrchestra: 240G (0.6%, 3,826G)
timthehoodie: 200G (0.5%, 1,815G)
Tougou: 100G (0.2%, 4,037G)
Drusiform: 100G (0.2%, 2,389G)
captainmilestw: 50G (0.1%, 2,865G)

black bets:
SkylerBunny: 9,785G (53.3%, 9,785G)
lowlf: 1,630G (8.9%, 1,630G)
E_Ballard: 1,140G (6.2%, 2,280G)
DLJuggernaut: 1,000G (5.4%, 23,661G)
getthemoneyz: 908G (4.9%, 1,689,641G)
Nizaha: 748G (4.1%, 15,864G)
JCBooBot: 712G (3.9%, 3,240G)
dogsandcatsand: 668G (3.6%, 668G)
pplvee1: 508G (2.8%, 508G)
JonnyCue: 412G (2.2%, 412G)
Shurgajoe: 300G (1.6%, 849G)
datadrivenbot: 200G (1.1%, 64,394G)
AllInBot: 163G (0.9%, 163G)
Thyrandaal: 100G (0.5%, 479,057G)
ko2q: 100G (0.5%, 2,092G)
