Final Bets: white - 16 bets for 11,878G (44.7%, x1.24); brown - 17 bets for 14,673G (55.3%, x0.81)

white bets:
rNdOrchestra: 4,438G (37.4%, 4,438G)
DavenIII: 1,500G (12.6%, 99,691G)
Lord_Gwarth: 1,078G (9.1%, 2,156G)
BirbBrainsBot: 1,000G (8.4%, 62,727G)
dogsandcatsand: 914G (7.7%, 914G)
goth_Applebees_hostess: 600G (5.1%, 600G)
CT_5_Holy: 572G (4.8%, 572G)
brokenknight201: 500G (4.2%, 7,381G)
AllInBot: 310G (2.6%, 310G)
resjudicata3: 300G (2.5%, 5,460G)
peanutvendor: 250G (2.1%, 5,185G)
Drusiform: 100G (0.8%, 1,487G)
CosmicTactician: 100G (0.8%, 32,020G)
aceof86: 100G (0.8%, 1,041G)
nhammen: 100G (0.8%, 91,568G)
getthemoneyz: 16G (0.1%, 1,688,071G)

brown bets:
DustBirdEX: 3,301G (22.5%, 6,603G)
pplvee1: 1,577G (10.7%, 1,577G)
timthehoodie: 1,400G (9.5%, 2,430G)
latebit: 1,290G (8.8%, 2,531G)
E_Ballard: 1,140G (7.8%, 1,140G)
DLJuggernaut: 1,000G (6.8%, 22,029G)
J2DaBibbles: 1,000G (6.8%, 13,144G)
JCBooBot: 860G (5.9%, 2,458G)
Laserman1000: 600G (4.1%, 3,400G)
Phi_Sig: 555G (3.8%, 116,938G)
Error72: 484G (3.3%, 484G)
cho_pin: 412G (2.8%, 412G)
Shurgajoe: 400G (2.7%, 549G)
Raixelol: 304G (2.1%, 304G)
datadrivenbot: 200G (1.4%, 64,068G)
Tougou: 100G (0.7%, 4,329G)
captainmilestw: 50G (0.3%, 3,010G)
