Final Bets: red - 22 bets for 8,859G (47.7%, x1.10); champion - 15 bets for 9,713G (52.3%, x0.91)

red bets:
JumbocactuarX27: 1,000G (11.3%, 31,948G)
JonnyCue: 1,000G (11.3%, 7,532G)
Aldrammech: 1,000G (11.3%, 18,075G)
dogsandcatsand: 1,000G (11.3%, 83,050G)
Nizaha: 656G (7.4%, 24,920G)
killth3kid: 604G (6.8%, 1,125G)
DeathTaxesAndAnime: 560G (6.3%, 2,525G)
Phi_Sig: 555G (6.3%, 110,002G)
maximumcrit: 535G (6.0%, 535G)
butterbelljedi: 280G (3.2%, 280G)
Othatmattkid: 228G (2.6%, 228G)
TheArcanum: 204G (2.3%, 738G)
AllInBot: 200G (2.3%, 200G)
datadrivenbot: 200G (2.3%, 47,771G)
lyans00: 200G (2.3%, 3,186G)
holdenmagronik: 150G (1.7%, 901G)
Azzy_Omega: 104G (1.2%, 104G)
moonliquor: 100G (1.1%, 48,328G)
letdowncity: 100G (1.1%, 11,777G)
DesertWooder: 100G (1.1%, 2,565G)
dtrain332: 44G (0.5%, 4,415G)
ArlanKels: 39G (0.4%, 1,993G)

champion bets:
amiture: 2,000G (20.6%, 37,175G)
E_Ballard: 1,128G (11.6%, 1,128G)
Zagorsek: 1,011G (10.4%, 1,011G)
LDHaten: 1,000G (10.3%, 3,157G)
BirbBrainsBot: 1,000G (10.3%, 182,210G)
ColetteMSLP: 1,000G (10.3%, 12,609G)
Shalloween: 600G (6.2%, 30,146G)
sinnyil2: 455G (4.7%, 2,235G)
Miku_Shikhu: 420G (4.3%, 420G)
skipsandwiches: 288G (3.0%, 288G)
Hirameki85: 264G (2.7%, 15,329G)
VolgraTheMoose: 239G (2.5%, 1,247G)
EmmaEnema: 200G (2.1%, 4,700G)
Firesheath: 100G (1.0%, 5,098G)
getthemoneyz: 8G (0.1%, 1,501,574G)
