Final Bets: black - 8 bets for 6,041G (25.4%, x2.94); purple - 12 bets for 17,733G (74.6%, x0.34)

black bets:
SkylerBunny: 3,000G (49.7%, 35,953G)
DeathTaxesAndAnime: 1,285G (21.3%, 1,285G)
randgridr: 500G (8.3%, 5,394G)
dtrain332: 500G (8.3%, 2,322G)
placidphoenix: 256G (4.2%, 256G)
KasugaiRoastedPeas: 200G (3.3%, 16,225G)
datadrivenbot: 200G (3.3%, 58,690G)
RetroGameCommander: 100G (1.7%, 3,144G)

purple bets:
dantayystv: 10,000G (56.4%, 29,425G)
Evewho: 1,494G (8.4%, 1,494G)
Snoopiku: 1,200G (6.8%, 28,051G)
Firesheath: 1,136G (6.4%, 1,136G)
BirbBrainsBot: 1,000G (5.6%, 103,877G)
dem0nj0ns: 904G (5.1%, 904G)
GRRR12: 825G (4.7%, 825G)
getthemoneyz: 478G (2.7%, 1,274,500G)
shineeyo: 208G (1.2%, 208G)
Mysteriousdewd: 200G (1.1%, 1,659G)
superdevon1: 167G (0.9%, 1,673G)
Lydian_C: 121G (0.7%, 115,433G)
