Final Bets: green - 11 bets for 10,782G (42.4%, x1.36); purple - 12 bets for 14,673G (57.6%, x0.73)

green bets:
Lydian_C: 4,200G (39.0%, 115,474G)
Evewho: 2,003G (18.6%, 2,003G)
NicoSavoy: 2,000G (18.5%, 175,766G)
BirbBrainsBot: 1,000G (9.3%, 104,218G)
Arcblazer23: 569G (5.3%, 569G)
shineeyo: 279G (2.6%, 279G)
dtrain332: 250G (2.3%, 1,822G)
Mysteriousdewd: 200G (1.9%, 1,727G)
superdevon1: 173G (1.6%, 1,730G)
RetroGameCommander: 100G (0.9%, 3,044G)
getthemoneyz: 8G (0.1%, 1,274,663G)

purple bets:
randgridr: 4,894G (33.4%, 4,894G)
Firesheath: 1,523G (10.4%, 1,523G)
Snoopiku: 1,460G (10.0%, 28,460G)
dem0nj0ns: 1,212G (8.3%, 1,212G)
dantayystv: 1,000G (6.8%, 32,832G)
books_books: 1,000G (6.8%, 31,542G)
SkylerBunny: 1,000G (6.8%, 32,953G)
DeathTaxesAndAnime: 984G (6.7%, 984G)
BoneMiser: 600G (4.1%, 600G)
LAGBOT30000: 500G (3.4%, 10,014G)
GRRR12: 300G (2.0%, 1,106G)
datadrivenbot: 200G (1.4%, 58,490G)
