Final Bets: green - 17 bets for 10,254G (37.4%, x1.67); yellow - 14 bets for 17,153G (62.6%, x0.60)

green bets:
CosmicTactician: 2,500G (24.4%, 31,458G)
E_Ballard: 1,811G (17.7%, 1,811G)
DLJuggernaut: 1,070G (10.4%, 1,070G)
upvla: 1,000G (9.8%, 6,872G)
VolgraTheMoose: 880G (8.6%, 40,745G)
Shalloween: 700G (6.8%, 19,878G)
krombobreaker: 500G (4.9%, 35,070G)
ValensEXP_: 396G (3.9%, 1,228G)
scsuperstar: 224G (2.2%, 224G)
AllInBot: 200G (2.0%, 200G)
mirapoix: 200G (2.0%, 5,809G)
datadrivenbot: 200G (2.0%, 76,116G)
getthemoneyz: 136G (1.3%, 2,093,554G)
Lolthsmeat: 124G (1.2%, 2,447G)
MoonSugarFiend: 112G (1.1%, 146G)
gorgewall: 101G (1.0%, 5,828G)
Lord_Gwarth: 100G (1.0%, 3,658G)

yellow bets:
pplvee1: 9,833G (57.3%, 9,833G)
fenaen: 1,400G (8.2%, 18,388G)
Lythe_Caraker: 1,000G (5.8%, 147,800G)
Phi_Sig: 1,000G (5.8%, 15,746G)
ShadowNinja25: 912G (5.3%, 3,144G)
Willjin: 800G (4.7%, 2,346G)
BirbBrainsBot: 597G (3.5%, 597G)
Chuckolator: 578G (3.4%, 9,012G)
seppu777: 333G (1.9%, 678G)
retrozu: 200G (1.2%, 1,306G)
resjudicata3: 200G (1.2%, 2,559G)
latebit: 100G (0.6%, 14,482G)
wiznaibusthis: 100G (0.6%, 2,767G)
king_smashington: 100G (0.6%, 21,744G)
