Player: !Blue
Team: Blue Team
Palettes: Blue/Purple



ThanatosXRagnarok
Monster
Libra
58
69
Archaic Demon










Kaidykat
Monster
Libra
58
69
Archaic Demon










Rocl
Monster
Libra
58
69
Archaic Demon










NovaKnight21
Monster
Libra
58
69
Archaic Demon







