Final Bets: green - 23 bets for 27,749G (88.9%, x0.12); yellow - 16 bets for 3,458G (11.1%, x8.02)

green bets:
Lydian_C: 5,116G (18.4%, 10,032G)
TheChainNerd: 3,257G (11.7%, 6,515G)
Thyrandaal: 3,000G (10.8%, 16,042G)
rechaun: 2,687G (9.7%, 2,687G)
RunicMagus: 2,000G (7.2%, 29,463G)
Ulster_: 2,000G (7.2%, 6,188G)
Belkra: 1,682G (6.1%, 1,682G)
Kithmar796: 1,123G (4.0%, 1,123G)
HaychDub: 805G (2.9%, 1,611G)
sSwing: 639G (2.3%, 7,963G)
LAGBOT30000: 633G (2.3%, 12,666G)
Angelomortis: 614G (2.2%, 614G)
pplvee1: 577G (2.1%, 1,651G)
rocl: 500G (1.8%, 1,567G)
GladiatorLupe: 500G (1.8%, 8,053G)
thenextlantern: 500G (1.8%, 1,362G)
EnemyController: 500G (1.8%, 536,680G)
ShintaroNayaka: 416G (1.5%, 416G)
hilcray: 400G (1.4%, 1,101G)
Grandlanzer: 300G (1.1%, 11,581G)
Flameatron: 300G (1.1%, 7,210G)
CosmicTactician: 100G (0.4%, 16,739G)
datadrivenbot: 100G (0.4%, 33,121G)

yellow bets:
BirbBrainsBot: 1,000G (28.9%, 24,218G)
TheMM42: 408G (11.8%, 408G)
getthemoneyz: 360G (10.4%, 812,529G)
gogofromtogo: 200G (5.8%, 3,704G)
outer_monologue: 200G (5.8%, 1,164G)
Zbgs: 200G (5.8%, 53,589G)
brokenknight201: 200G (5.8%, 2,063G)
soren_of_tyto: 140G (4.0%, 140G)
ruleof5: 100G (2.9%, 1,813G)
LDSkinny: 100G (2.9%, 2,255G)
prostateprancer: 100G (2.9%, 100G)
GrayGhostGaming: 100G (2.9%, 9,732G)
run_with_stone_GUNs: 100G (2.9%, 12,750G)
cam_ATS: 100G (2.9%, 302G)
JLinkletter: 100G (2.9%, 6,188G)
mrfripps: 50G (1.4%, 662G)
