Final Bets: red - 20 bets for 15,931G (60.5%, x0.65); blue - 18 bets for 10,382G (39.5%, x1.53)

red bets:
DeathTaxesAndAnime: 5,072G (31.8%, 9,947G)
Ungaiii: 2,406G (15.1%, 2,406G)
metagameface: 2,014G (12.6%, 2,014G)
ANFz: 1,306G (8.2%, 1,306G)
Laserman1000: 852G (5.3%, 34,852G)
nifboy: 500G (3.1%, 4,250G)
Digitalsocrates: 500G (3.1%, 3,382G)
reinoe: 500G (3.1%, 9,144G)
gorgewall: 413G (2.6%, 413G)
killth3kid: 320G (2.0%, 320G)
ColetteMSLP: 300G (1.9%, 594G)
CapnChaos12: 300G (1.9%, 29,914G)
smegma_sorcerer: 292G (1.8%, 292G)
Flameatron: 200G (1.3%, 6,945G)
Coolguye: 200G (1.3%, 712G)
MaimTrain: 200G (1.3%, 6,200G)
mardokttv: 200G (1.3%, 4,884G)
TinchoT: 156G (1.0%, 156G)
TheAbandonedShoji: 100G (0.6%, 652G)
datadrivenbot: 100G (0.6%, 33,152G)

blue bets:
NovaKnight21: 2,000G (19.3%, 13,666G)
CorpusCav: 1,020G (9.8%, 22,936G)
BirbBrainsBot: 1,000G (9.6%, 10,839G)
Thyrandaal: 1,000G (9.6%, 11,011G)
Zbgs: 1,000G (9.6%, 49,687G)
Lionhermit: 1,000G (9.6%, 3,002G)
wyonearth: 761G (7.3%, 761G)
OneHundredFists: 636G (6.1%, 636G)
Helllyesss: 400G (3.9%, 3,182G)
benticore: 250G (2.4%, 3,631G)
Angelomortis: 200G (1.9%, 1,115G)
gogofromtogo: 200G (1.9%, 5,916G)
Kixandra: 200G (1.9%, 1,483G)
Xeldena: 200G (1.9%, 388G)
nhammen: 188G (1.8%, 376G)
ivellioz: 150G (1.4%, 1,639G)
Miku_Shikhu: 100G (1.0%, 4,745G)
Ross_from_Cali: 77G (0.7%, 2,815G)
