Final Bets: red - 18 bets for 13,500G (53.1%, x0.88); blue - 16 bets for 11,901G (46.9%, x1.13)

red bets:
Aldrammech: 4,131G (30.6%, 4,131G)
sinnyil2: 1,802G (13.3%, 3,605G)
roofiepops: 1,562G (11.6%, 1,562G)
Hirameki85: 1,366G (10.1%, 1,366G)
killth3kid: 1,222G (9.1%, 1,222G)
Zagorsek: 518G (3.8%, 1,036G)
Lanshaft: 512G (3.8%, 20,572G)
SephDarkheart: 380G (2.8%, 380G)
ThreeMileIsland: 350G (2.6%, 17,402G)
Xoomwaffle: 332G (2.5%, 4,910G)
neocarbuncle: 256G (1.9%, 256G)
gorgewall: 201G (1.5%, 8,497G)
AllInBot: 200G (1.5%, 200G)
datadrivenbot: 200G (1.5%, 40,835G)
ArlanKels: 147G (1.1%, 4,909G)
Lydian_C: 121G (0.9%, 23,924G)
chapchansan: 100G (0.7%, 2,007G)
scottydeluxe: 100G (0.7%, 631G)

blue bets:
DustBirdEX: 2,111G (17.7%, 2,111G)
NicoSavoy: 2,000G (16.8%, 334,484G)
VolgraTheMoose: 1,534G (12.9%, 3,069G)
Jeeboheebo: 1,000G (8.4%, 18,560G)
BirbBrainsBot: 1,000G (8.4%, 90,297G)
Thyrandaal: 1,000G (8.4%, 229,561G)
coralreeferz: 750G (6.3%, 39,507G)
slotheye17: 513G (4.3%, 1,026G)
resjudicata3: 500G (4.2%, 2,090G)
RaIshtar: 500G (4.2%, 10,064G)
nekojin: 372G (3.1%, 9,651G)
ruleof5: 300G (2.5%, 13,102G)
douchetron: 101G (0.8%, 1,020G)
Vultuous: 100G (0.8%, 696G)
Miku_Shikhu: 100G (0.8%, 1,166G)
getthemoneyz: 20G (0.2%, 1,391,053G)
