Final Bets: purple - 19 bets for 24,484G (88.6%, x0.13); brown - 7 bets for 3,145G (11.4%, x7.79)

purple bets:
latebit: 7,526G (30.7%, 14,758G)
Smashy: 2,394G (9.8%, 4,789G)
NovaKnight21: 2,000G (8.2%, 9,739G)
AllInBot: 1,982G (8.1%, 1,982G)
gorgewall: 1,552G (6.3%, 3,105G)
Zerguzen: 1,500G (6.1%, 8,070G)
skillomono: 1,275G (5.2%, 1,275G)
Lord_Burrah: 1,250G (5.1%, 100,250G)
robespyah: 1,000G (4.1%, 7,253G)
arumz: 1,000G (4.1%, 36,766G)
CorpusCav: 555G (2.3%, 10,872G)
krombobreaker: 500G (2.0%, 13,418G)
ericzubat: 500G (2.0%, 14,565G)
Mushufasa_: 500G (2.0%, 65,222G)
DanielRKnealeArt: 300G (1.2%, 901G)
killth3kid: 250G (1.0%, 11,671G)
datadrivenbot: 200G (0.8%, 72,720G)
Rhyser76: 100G (0.4%, 157G)
MemoriesofFinal: 100G (0.4%, 31,091G)

brown bets:
getthemoneyz: 782G (24.9%, 2,022,316G)
Shalloween: 612G (19.5%, 612G)
Lord_Gwarth: 584G (18.6%, 584G)
skipsandwiches: 436G (13.9%, 20,841G)
ValensEXP_: 356G (11.3%, 356G)
3ngag3: 356G (11.3%, 356G)
BirbBrainsBot: 19G (0.6%, 171,460G)
