Final Bets: purple - 15 bets for 12,909G (48.2%, x1.07); champion - 15 bets for 13,861G (51.8%, x0.93)

purple bets:
NicoSavoy: 7,000G (54.2%, 90,738G)
BirbBrainsBot: 1,000G (7.7%, 171,480G)
Shalloween: 612G (4.7%, 612G)
DarrenDinosaurs: 600G (4.6%, 600G)
Forkmore: 600G (4.6%, 101,741G)
CorpusCav: 555G (4.3%, 10,969G)
seppu777: 555G (4.3%, 14,343G)
krombobreaker: 500G (3.9%, 14,201G)
Zerguzen: 500G (3.9%, 2,263G)
3ngag3: 356G (2.8%, 356G)
killth3kid: 250G (1.9%, 10,953G)
getthemoneyz: 180G (1.4%, 2,020,702G)
maakur_: 100G (0.8%, 5,102G)
Rhyser76: 100G (0.8%, 104G)
latebit: 1G (0.0%, 16,770G)

champion bets:
AllInBot: 7,034G (50.7%, 7,034G)
gorgewall: 1,126G (8.1%, 2,253G)
Error72: 1,001G (7.2%, 38,264G)
Zbgs: 1,000G (7.2%, 8,838G)
Lyner87: 500G (3.6%, 114,984G)
Mushufasa_: 500G (3.6%, 66,005G)
BoneMiser: 500G (3.6%, 4,138G)
ericzubat: 500G (3.6%, 14,328G)
arumz: 500G (3.6%, 37,979G)
J_52: 300G (2.2%, 3,236G)
genkidou: 200G (1.4%, 838G)
datadrivenbot: 200G (1.4%, 72,681G)
iBardic: 200G (1.4%, 17,363G)
Kellios11: 200G (1.4%, 3,656G)
ANFz: 100G (0.7%, 5,796G)
