Final Bets: red - 32 bets for 29,221G (67.9%, x0.47); blue - 18 bets for 13,817G (32.1%, x2.11)

red bets:
Mesmaster: 5,000G (17.1%, 40,359G)
leakimiko: 2,794G (9.6%, 18,629G)
GreatRedDragon: 2,241G (7.7%, 32,537G)
catfashions: 2,192G (7.5%, 2,192G)
aStatue: 1,799G (6.2%, 1,799G)
evontno: 1,500G (5.1%, 5,014G)
fenaen: 1,113G (3.8%, 1,113G)
Baron_von_Scrub: 1,111G (3.8%, 81,439G)
Nizaha: 1,001G (3.4%, 12,013G)
ungabunga_bot: 1,000G (3.4%, 289,509G)
BirbBrainsBot: 1,000G (3.4%, 126,126G)
JumbocactuarX27: 1,000G (3.4%, 14,703G)
JonnyCue: 1,000G (3.4%, 27,255G)
Anethum: 927G (3.2%, 927G)
LDSkinny: 808G (2.8%, 808G)
TheRylander: 768G (2.6%, 768G)
CapnChaos12: 500G (1.7%, 47,698G)
Grimmace45: 500G (1.7%, 6,001G)
DustBirdEX: 440G (1.5%, 440G)
duskps: 418G (1.4%, 418G)
Cryptopsy70: 380G (1.3%, 33,215G)
thalessenador: 300G (1.0%, 300G)
ACSpree: 228G (0.8%, 228G)
AmewTheFox: 200G (0.7%, 24,349G)
daveb_: 200G (0.7%, 2,179G)
mpghappiness: 200G (0.7%, 2,261G)
Clydethecamel: 150G (0.5%, 268G)
ZephyrTempest: 101G (0.3%, 1,423G)
ANFz: 100G (0.3%, 21,158G)
HorusTaurus: 100G (0.3%, 8,952G)
maakur_: 100G (0.3%, 113,609G)
tmo50x: 50G (0.2%, 8,486G)

blue bets:
Lordminsc: 2,769G (20.0%, 5,539G)
Pie108: 2,000G (14.5%, 215,578G)
proper__noun__: 2,000G (14.5%, 34,758G)
nifboy: 1,000G (7.2%, 5,018G)
edgehead62888: 1,000G (7.2%, 8,685G)
Gelwain: 942G (6.8%, 942G)
ColetteMSLP: 800G (5.8%, 41,066G)
IndecisiveNinja: 680G (4.9%, 680G)
ShintaroNayaka: 576G (4.2%, 576G)
killth3kid: 500G (3.6%, 43,413G)
HaateXIII: 500G (3.6%, 40,193G)
DLJuggernaut: 300G (2.2%, 9,989G)
DavenIII: 250G (1.8%, 839G)
WoooBlaaa: 100G (0.7%, 27,423G)
FriendSquirrel: 100G (0.7%, 27,739G)
RoboticNomad: 100G (0.7%, 300G)
Firesheath: 100G (0.7%, 11,566G)
museofdoom: 100G (0.7%, 26,156G)
