Final Bets: white - 22 bets for 20,695G (32.9%, x2.04); black - 24 bets for 42,131G (67.1%, x0.49)

white bets:
leakimiko: 4,987G (24.1%, 19,950G)
aStatue: 4,615G (22.3%, 4,615G)
proper__noun__: 2,000G (9.7%, 32,758G)
Anethum: 1,871G (9.0%, 1,871G)
BirbBrainsBot: 1,000G (4.8%, 127,340G)
Mesmaster: 1,000G (4.8%, 46,430G)
Gelwain: 877G (4.2%, 877G)
thalessenador: 770G (3.7%, 770G)
killth3kid: 500G (2.4%, 42,413G)
arch8000: 500G (2.4%, 10,887G)
DustBirdEX: 440G (2.1%, 440G)
coralreeferz: 350G (1.7%, 1,806G)
fenaen: 300G (1.4%, 300G)
PetitFoulard: 244G (1.2%, 244G)
getthemoneyz: 236G (1.1%, 611,718G)
Nizaha: 201G (1.0%, 13,969G)
AmewTheFox: 200G (1.0%, 24,592G)
museofdoom: 200G (1.0%, 26,056G)
marrrrrrrrrrrrrrrrrrrr: 104G (0.5%, 104G)
GrayGhostGaming: 100G (0.5%, 19,231G)
maakur_: 100G (0.5%, 113,556G)
hydroshade: 100G (0.5%, 100G)

black bets:
WoooBlaaa: 27,397G (65.0%, 27,397G)
edgehead62888: 2,000G (4.7%, 8,426G)
sinnyil2: 2,000G (4.7%, 7,258G)
catfashions: 1,439G (3.4%, 2,878G)
Shakarak: 1,200G (2.8%, 8,979G)
DavenIII: 1,026G (2.4%, 1,026G)
HorusTaurus: 1,000G (2.4%, 5,999G)
Lionhermit: 1,000G (2.4%, 39,136G)
Nickyfive: 892G (2.1%, 892G)
FriendSquirrel: 599G (1.4%, 27,639G)
nifboy: 500G (1.2%, 3,918G)
HaateXIII: 500G (1.2%, 39,693G)
Firesheath: 400G (0.9%, 11,366G)
ZephyrTempest: 400G (0.9%, 1,768G)
DLJuggernaut: 400G (0.9%, 8,986G)
TheRedMelody: 352G (0.8%, 352G)
mpghappiness: 284G (0.7%, 284G)
RoboticNomad: 200G (0.5%, 200G)
Clydethecamel: 139G (0.3%, 139G)
ungabunga_bot: 115G (0.3%, 290,466G)
ANFz: 100G (0.2%, 21,279G)
daveb_: 88G (0.2%, 2,323G)
tmo50x: 50G (0.1%, 8,584G)
DrAntiSocial: 50G (0.1%, 5,205G)
