Final Bets: purple - 21 bets for 14,859G (30.4%, x2.29); brown - 22 bets for 34,080G (69.6%, x0.44)

purple bets:
Mesmaster: 5,000G (33.6%, 48,966G)
sinnyil2: 2,576G (17.3%, 5,258G)
TheRylander: 1,131G (7.6%, 1,131G)
BirbBrainsBot: 1,000G (6.7%, 129,376G)
ColetteMSLP: 1,000G (6.7%, 39,466G)
mpghappiness: 784G (5.3%, 784G)
WoooBlaaa: 752G (5.1%, 752G)
PetitFoulard: 741G (5.0%, 741G)
hydroshade: 304G (2.0%, 304G)
AmewTheFox: 200G (1.3%, 25,499G)
museofdoom: 200G (1.3%, 26,967G)
Anethum: 200G (1.3%, 6,184G)
coralreeferz: 150G (1.0%, 2,519G)
getthemoneyz: 116G (0.8%, 612,198G)
Clydethecamel: 104G (0.7%, 104G)
ZephyrTempest: 101G (0.7%, 1,868G)
FriendSquirrel: 100G (0.7%, 27,040G)
ANFz: 100G (0.7%, 21,179G)
Heroebal: 100G (0.7%, 4,859G)
RoboticNomad: 100G (0.7%, 100G)
CosmicTactician: 100G (0.7%, 7,083G)

brown bets:
aStatue: 14,510G (42.6%, 14,510G)
thalessenador: 2,338G (6.9%, 2,338G)
Pie108: 2,000G (5.9%, 212,078G)
Shakarak: 2,000G (5.9%, 8,279G)
ShintaroNayaka: 1,503G (4.4%, 1,503G)
Error72: 1,462G (4.3%, 1,462G)
ACSpree: 1,336G (3.9%, 1,336G)
Nickyfive: 1,012G (3.0%, 1,012G)
HorusTaurus: 1,000G (2.9%, 5,499G)
Lionhermit: 1,000G (2.9%, 38,136G)
catfashions: 969G (2.8%, 1,939G)
DustBirdEX: 918G (2.7%, 1,836G)
fenaen: 911G (2.7%, 911G)
marrrrrrrrrrrrrrrrrrrr: 816G (2.4%, 816G)
DeathTaxesAndAnime: 604G (1.8%, 604G)
DavenIII: 580G (1.7%, 580G)
Cryptopsy70: 380G (1.1%, 33,395G)
ungabunga_bot: 303G (0.9%, 290,351G)
jwchapm: 200G (0.6%, 933G)
nifboy: 100G (0.3%, 3,918G)
daveb_: 88G (0.3%, 2,735G)
tmo50x: 50G (0.1%, 9,034G)
