Final Bets: red - 13 bets for 32,185G (59.1%, x0.69); green - 25 bets for 22,272G (40.9%, x1.45)

red bets:
aStatue: 20,840G (64.8%, 20,840G)
thalessenador: 3,357G (10.4%, 3,357G)
ShintaroNayaka: 2,158G (6.7%, 2,158G)
catfashions: 1,180G (3.7%, 2,361G)
ACSpree: 959G (3.0%, 1,919G)
ColetteMSLP: 800G (2.5%, 38,466G)
DavenIII: 700G (2.2%, 833G)
DustBirdEX: 670G (2.1%, 2,236G)
Laserman1000: 500G (1.6%, 72,200G)
RyuTsuno: 312G (1.0%, 312G)
mpghappiness: 284G (0.9%, 284G)
daveb_: 225G (0.7%, 2,773G)
AmewTheFox: 200G (0.6%, 25,299G)

green bets:
Mesmaster: 5,000G (22.4%, 43,966G)
leakimiko: 4,665G (20.9%, 31,103G)
Pie108: 2,000G (9.0%, 212,950G)
Arunic: 1,681G (7.5%, 1,681G)
fenaen: 1,308G (5.9%, 1,308G)
HorusTaurus: 1,000G (4.5%, 5,935G)
ungabunga_bot: 1,000G (4.5%, 290,483G)
BirbBrainsBot: 1,000G (4.5%, 128,376G)
JumbocactuarX27: 1,000G (4.5%, 16,417G)
LDSkinny: 500G (2.2%, 2,572G)
Anethum: 500G (2.2%, 5,984G)
ZephyrTempest: 441G (2.0%, 1,767G)
coralreeferz: 350G (1.6%, 2,369G)
WoooBlaaa: 252G (1.1%, 252G)
PetitFoulard: 244G (1.1%, 244G)
Nizaha: 201G (0.9%, 14,882G)
jwchapm: 200G (0.9%, 1,020G)
museofdoom: 200G (0.9%, 25,767G)
getthemoneyz: 186G (0.8%, 612,082G)
Clydethecamel: 104G (0.5%, 104G)
nifboy: 100G (0.4%, 3,962G)
RoboticNomad: 100G (0.4%, 100G)
FriendSquirrel: 100G (0.4%, 26,940G)
hydroshade: 100G (0.4%, 100G)
DrAntiSocial: 40G (0.2%, 5,155G)
