Final Bets: white - 27 bets for 14,797G (22.1%, x3.53); brown - 19 bets for 52,184G (77.9%, x0.28)

white bets:
leakimiko: 3,965G (26.8%, 26,438G)
BirbBrainsBot: 1,000G (6.8%, 127,376G)
JonnyCue: 1,000G (6.8%, 28,228G)
JumbocactuarX27: 1,000G (6.8%, 15,417G)
Mesmaster: 1,000G (6.8%, 38,966G)
Lionhermit: 1,000G (6.8%, 38,572G)
ColetteMSLP: 800G (5.4%, 39,020G)
TheRedMelody: 767G (5.2%, 767G)
RyuTsuno: 528G (3.6%, 528G)
AmewTheFox: 500G (3.4%, 25,437G)
DLJuggernaut: 400G (2.7%, 9,086G)
ShintaroNayaka: 400G (2.7%, 3,651G)
fenaen: 300G (2.0%, 300G)
WoooBlaaa: 252G (1.7%, 252G)
PetitFoulard: 244G (1.6%, 244G)
Nizaha: 201G (1.4%, 14,681G)
CosmicTactician: 200G (1.4%, 6,983G)
HorusTaurus: 200G (1.4%, 4,935G)
joewcarson: 200G (1.4%, 3,548G)
getthemoneyz: 140G (0.9%, 611,896G)
GrayGhostGaming: 100G (0.7%, 20,435G)
ANFz: 100G (0.7%, 21,079G)
hydroshade: 100G (0.7%, 100G)
Dymntd: 100G (0.7%, 13,826G)
powergems: 100G (0.7%, 15,265G)
Anethum: 100G (0.7%, 5,484G)
arch8000: 100G (0.7%, 12,905G)

brown bets:
aStatue: 35,261G (67.6%, 35,261G)
thalessenador: 5,680G (10.9%, 5,680G)
coralreeferz: 2,019G (3.9%, 2,019G)
Nickyfive: 1,457G (2.8%, 1,457G)
ACSpree: 1,291G (2.5%, 2,583G)
marrrrrrrrrrrrrrrrrrrr: 1,172G (2.2%, 1,172G)
DustBirdEX: 1,080G (2.1%, 2,700G)
catfashions: 1,000G (1.9%, 3,178G)
DeathTaxesAndAnime: 867G (1.7%, 867G)
DavenIII: 650G (1.2%, 1,317G)
mpghappiness: 481G (0.9%, 481G)
ZephyrTempest: 400G (0.8%, 1,326G)
ungabunga_bot: 225G (0.4%, 289,483G)
museofdoom: 200G (0.4%, 25,567G)
daveb_: 111G (0.2%, 2,929G)
nifboy: 100G (0.2%, 3,862G)
FriendSquirrel: 100G (0.2%, 26,840G)
tmo50x: 50G (0.1%, 9,056G)
DrAntiSocial: 40G (0.1%, 5,115G)
