Final Bets: white - 10 bets for 5,405G (26.1%, x2.83); black - 16 bets for 15,319G (73.9%, x0.35)

white bets:
Thyrandaal: 2,000G (37.0%, 232,015G)
VolgraTheMoose: 1,501G (27.8%, 40,140G)
technominari: 500G (9.3%, 91,646G)
Lord_Gwarth: 344G (6.4%, 344G)
Zachara: 300G (5.6%, 138,300G)
BlizzWulf: 220G (4.1%, 7,520G)
xGlaive: 200G (3.7%, 250G)
datadrivenbot: 200G (3.7%, 78,136G)
latebit: 100G (1.9%, 11,822G)
getthemoneyz: 40G (0.7%, 2,096,575G)

black bets:
Shalloween: 3,706G (24.2%, 7,413G)
reinoe: 3,000G (19.6%, 43,182G)
nhammen: 2,000G (13.1%, 37,407G)
Zagorsek: 1,184G (7.7%, 1,184G)
krombobreaker: 1,000G (6.5%, 27,519G)
BirbBrainsBot: 1,000G (6.5%, 29,361G)
dogsandcatsand: 748G (4.9%, 27,321G)
AllInBot: 500G (3.3%, 500G)
ExplanationMarkWow: 500G (3.3%, 11,024G)
AltimaMantoid: 378G (2.5%, 18,378G)
silentkaster: 350G (2.3%, 24,285G)
gorgewall: 301G (2.0%, 2,834G)
sireaulou: 300G (2.0%, 3,023G)
FoeSquirrel: 152G (1.0%, 304G)
ANFz: 100G (0.7%, 3,250G)
AbandonedHall: 100G (0.7%, 6,638G)
