Final Bets: green - 19 bets for 10,607G (60.1%, x0.66); yellow - 16 bets for 7,041G (39.9%, x1.51)

green bets:
LASERJESUS1337: 3,000G (28.3%, 65,362G)
HorusTaurus: 1,213G (11.4%, 1,213G)
TheMM42: 982G (9.3%, 19,645G)
Evewho: 827G (7.8%, 827G)
Shalloween: 684G (6.4%, 684G)
roofiepops: 550G (5.2%, 2,647G)
ZZ_Yoshi: 500G (4.7%, 23,536G)
DeathTaxesAndAnime: 500G (4.7%, 2,300G)
AllInBot: 441G (4.2%, 441G)
StealthModeLocke: 344G (3.2%, 344G)
Breakdown777: 300G (2.8%, 2,187G)
zepharoth89: 216G (2.0%, 216G)
KasugaiRoastedPeas: 200G (1.9%, 544G)
moocaotao: 200G (1.9%, 1,265G)
tronfonne: 200G (1.9%, 977G)
Kyune: 200G (1.9%, 2,890G)
datadrivenbot: 100G (0.9%, 19,436G)
EnemyController: 100G (0.9%, 339,255G)
Bender2000v1: 50G (0.5%, 100G)

yellow bets:
NicoSavoy: 2,000G (28.4%, 79,616G)
BirbBrainsBot: 1,000G (14.2%, 177,696G)
HaplessOne: 666G (9.5%, 273,980G)
HASTERIOUS: 505G (7.2%, 10,102G)
argentbast: 500G (7.1%, 7,020G)
Estan_AD: 360G (5.1%, 721G)
DLJuggernaut: 350G (5.0%, 10,179G)
CorpusCav: 300G (4.3%, 6,857G)
Digitalsocrates: 296G (4.2%, 296G)
CandyTamer: 244G (3.5%, 413G)
MoonChow: 200G (2.8%, 1,000G)
getthemoneyz: 172G (2.4%, 726,779G)
serperemagus: 148G (2.1%, 148G)
E_Ballard: 100G (1.4%, 6,620G)
nekojin: 100G (1.4%, 1,475G)
itszaane: 100G (1.4%, 388G)
