High Risers:
1. Biske13: +8,448G
2. Skipsandwiches: +7,935G
3. Run_with_stone_guns: +5,102G
4. Nizaha: +4,060G
5. Deathtaxesandanime: +3,901G
6. Resjudicata3: +2,972G
7. Roofiepops: +2,952G
8. Scotty297: +2,379G
9. Lyner87: +1,640G
10. Solomongrundy85: +1,492G
11. Mesmaster: +1,299G
12. Lowlf: +1,086G
13. Krombobreaker: +1,066G
14. Silentkaster: +1,041G
15. Twisted_nutsatchel: +709G
16. Smashy: +599G
17. Sephdarkheart: +576G
18. Skcocorb: +545G
19. Triniculo: +503G
20. Musashi45: +439G
21. J_52: +308G
22. Snkey: +211G
23. Action_otter: +207G
24. Morrivelmenteeu: +206G
25. Moonsugarfiend: +186G
26. Nhammen: +99G
27. Vorap: +4G
28. Bpc2163: -1G
29. Dzmaven: -11G
30. Poorest_hobo: -63G
31. Threedope: -72G
32. Dac169: -100G
33. Foesquirrel: -104G
34. Thyrandaal: -130G
35. Maakur_: -135G
36. Gelwain: -200G
37. Kasugairoastedpeas: -200G
38. Skillomono: -223G
39. Chihuahua_charity: -225G
40. Idiosyncr4zy: -344G
41. Brokenknight201: -400G
42. Reddwind_: -400G
43. King_smashington: -585G
44. Fenaen: -596G
45. Redmage4evah: -800G
46. Gorgewall: -819G
47. Robespyah: -898G
48. Greggernaut: -1,000G
49. E_ballard: -1,000G
50. Latebit: -1,000G
51. Spartan_paladin: -1,169G
52. Volgrathemoose: -1,191G
53. Actual_jp: -1,200G
54. Tripaplex: -1,275G
55. Old_overholt_: -1,300G
56. Seppu777: -1,355G
57. Dhaveword: -1,824G
58. Madming25: -1,922G
59. Reinoe: -1,940G
60. Leonidusx: -2,000G
61. Laserman1000: -2,000G
62. Corpuscav: -2,145G
63. Dogsandcatsand: -2,156G
64. Baronhaynes: -2,256G
65. Upvla: -2,618G
66. Douchetron: -2,722G
67. Nekojin: -3,036G
68. Shalloween: -4,296G
69. Virilikus: -12,653G
