Final Bets: red - 15 bets for 16,620G (70.9%, x0.41); purple - 8 bets for 6,822G (29.1%, x2.44)

red bets:
reinoe: 5,000G (30.1%, 26,980G)
Aldrammech: 3,673G (22.1%, 3,673G)
ko2q: 1,744G (10.5%, 3,489G)
poorest_hobo: 1,277G (7.7%, 218,418G)
BirbBrainsBot: 1,000G (6.0%, 159,388G)
resjudicata3: 1,000G (6.0%, 7,623G)
E_Ballard: 812G (4.9%, 96,179G)
killth3kid: 564G (3.4%, 564G)
getthemoneyz: 420G (2.5%, 1,782,030G)
silentkaster: 344G (2.1%, 344G)
douchetron: 248G (1.5%, 248G)
datadrivenbot: 200G (1.2%, 63,216G)
BartTradingCompany: 138G (0.8%, 1,386G)
ANFz: 100G (0.6%, 5,412G)
dinin991: 100G (0.6%, 5,396G)

purple bets:
TasisSai: 3,281G (48.1%, 3,281G)
Runeseeker22: 1,000G (14.7%, 4,486G)
Tsuike: 963G (14.1%, 1,926G)
Phi_Sig: 555G (8.1%, 109,318G)
WhiteTigress: 500G (7.3%, 3,401G)
krombobreaker: 200G (2.9%, 3,423G)
Leonidusx: 200G (2.9%, 4,152G)
Lydian_C: 123G (1.8%, 18,767G)
