Player: !White
Team: White Team
Palettes: White/Blue



Lanshaft
Monster
Capricorn
77
53
Ghost










CT 5 Holy
Monster
Serpentarius
71
78
Ultima Demon










NovaKnight21
Monster
Aries
42
43
Dark Behemoth










Hamlen
Male
Pisces
67
44
Calculator
Yin Yang Magic
Parry
Halve MP
Jump+2

Thunder Rod

Leather Hat
Black Robe
Magic Ring

CT, Height, Prime Number, 5, 4
Blind, Zombie, Confusion Song, Dispel Magic, Sleep
