Final Bets: purple - 10 bets for 7,358G (52.1%, x0.92); brown - 8 bets for 6,774G (47.9%, x1.09)

purple bets:
Arcblazer23: 1,093G (14.9%, 1,093G)
getthemoneyz: 1,000G (13.6%, 1,282,524G)
BirbBrainsBot: 1,000G (13.6%, 152,118G)
Evewho: 1,000G (13.6%, 4,271G)
dantayystv: 1,000G (13.6%, 5,303G)
WitchHunterIX: 1,000G (13.6%, 42,031G)
randgridr: 500G (6.8%, 5,589G)
ShintaroNayaka: 400G (5.4%, 23,483G)
blastty: 244G (3.3%, 244G)
Lydian_C: 121G (1.6%, 77,801G)

brown bets:
NovaKnight21: 2,000G (29.5%, 12,344G)
upvla: 2,000G (29.5%, 9,188G)
AllInBot: 837G (12.4%, 837G)
datadrivenbot: 576G (8.5%, 36,159G)
KSops: 507G (7.5%, 507G)
dem0nj0ns: 500G (7.4%, 6,129G)
Spuzzmocker: 204G (3.0%, 204G)
Powermhero: 150G (2.2%, 22,550G)
