Final Bets: black - 7 bets for 2,567G (28.6%, x2.49); brown - 9 bets for 6,399G (71.4%, x0.40)

black bets:
twelfthrootoftwo: 777G (30.3%, 777G)
blastty: 744G (29.0%, 744G)
randgridr: 500G (19.5%, 5,563G)
AllInBot: 200G (7.8%, 200G)
BirbBrainsBot: 161G (6.3%, 150,118G)
Lydian_C: 121G (4.7%, 82,659G)
getthemoneyz: 64G (2.5%, 1,280,936G)

brown bets:
WitchHunterIX: 1,000G (15.6%, 40,531G)
dantayystv: 1,000G (15.6%, 3,803G)
Arcblazer23: 868G (13.6%, 868G)
datadrivenbot: 847G (13.2%, 37,297G)
ShintaroNayaka: 800G (12.5%, 23,083G)
upvla: 600G (9.4%, 11,860G)
Evewho: 500G (7.8%, 3,960G)
Lanshaft: 484G (7.6%, 17,612G)
dem0nj0ns: 300G (4.7%, 6,472G)
