Final Bets: purple - 13 bets for 23,979G (88.7%, x0.13); brown - 9 bets for 3,043G (11.3%, x7.88)

purple bets:
dogsandcatsand: 10,750G (44.8%, 21,080G)
randgridr: 5,583G (23.3%, 11,167G)
SephDarkheart: 2,756G (11.5%, 27,563G)
DeathTaxesAndAnime: 1,413G (5.9%, 1,413G)
BirbBrainsBot: 1,000G (4.2%, 137,633G)
VolgraTheMoose: 672G (2.8%, 672G)
CassiePhoenix: 588G (2.5%, 588G)
getthemoneyz: 316G (1.3%, 1,560,794G)
brenogarwin: 251G (1.0%, 251G)
AllInBot: 200G (0.8%, 200G)
gargola2498: 200G (0.8%, 4,085G)
datadrivenbot: 200G (0.8%, 50,449G)
northkoreancleetus: 50G (0.2%, 881G)

brown bets:
ko2q: 1,899G (62.4%, 1,899G)
foxfaeez: 395G (13.0%, 1,979G)
roqqqpsi: 177G (5.8%, 1,185G)
onehitslay: 121G (4.0%, 121G)
gorgewall: 101G (3.3%, 2,396G)
MinBetBot: 100G (3.3%, 16,272G)
srdonko2098: 100G (3.3%, 2,066G)
Zeera98: 100G (3.3%, 506G)
DouglasDragonThePoet: 50G (1.6%, 1,327G)
