Final Bets: black - 12 bets for 10,444G (69.5%, x0.44); brown - 9 bets for 4,584G (30.5%, x2.28)

black bets:
LordSDB: 5,000G (47.9%, 58,663G)
CassiePhoenix: 1,012G (9.7%, 1,012G)
DeathTaxesAndAnime: 1,004G (9.6%, 1,004G)
BirbBrainsBot: 1,000G (9.6%, 135,633G)
VolgraTheMoose: 672G (6.4%, 672G)
SephDarkheart: 500G (4.8%, 27,308G)
skillomono: 400G (3.8%, 2,765G)
roqqqpsi: 217G (2.1%, 1,451G)
AllInBot: 200G (1.9%, 200G)
datadrivenbot: 200G (1.9%, 50,049G)
getthemoneyz: 138G (1.3%, 1,560,436G)
gorgewall: 101G (1.0%, 3,294G)

brown bets:
randgridr: 2,492G (54.4%, 4,984G)
ko2q: 1,000G (21.8%, 15,863G)
gargola2498: 300G (6.5%, 3,685G)
foxfaeez: 267G (5.8%, 5,348G)
Zeera98: 200G (4.4%, 1,395G)
MinBetBot: 100G (2.2%, 16,960G)
northkoreancleetus: 100G (2.2%, 831G)
DouglasDragonThePoet: 75G (1.6%, 1,904G)
srdonko2098: 50G (1.1%, 2,955G)
