Final Bets: white - 16 bets for 12,395G (73.8%, x0.35); black - 12 bets for 4,400G (26.2%, x2.82)

white bets:
OneHundredFists: 3,701G (29.9%, 7,258G)
Evewho: 2,544G (20.5%, 4,989G)
ANFz: 1,419G (11.4%, 1,419G)
Thyrandaal: 1,000G (8.1%, 10,589G)
cam_ATS: 1,000G (8.1%, 29,913G)
Jinxzers: 500G (4.0%, 11,980G)
Nohurty: 340G (2.7%, 340G)
OtherBrand: 318G (2.6%, 318G)
gorgewall: 301G (2.4%, 15,931G)
Flameatron: 300G (2.4%, 2,419G)
evdoggity: 300G (2.4%, 24,859G)
cougboi: 200G (1.6%, 18,528G)
Frozeit: 172G (1.4%, 172G)
AllInBot: 100G (0.8%, 100G)
MadnessR: 100G (0.8%, 100G)
datadrivenbot: 100G (0.8%, 38,380G)

black bets:
BirbBrainsBot: 1,000G (22.7%, 190,448G)
Digitalsocrates: 1,000G (22.7%, 36,259G)
EmperorBeef: 500G (11.4%, 257,000G)
DustBirdEX: 469G (10.7%, 939G)
nifboy: 400G (9.1%, 400G)
getthemoneyz: 248G (5.6%, 938,699G)
alithesillybird: 200G (4.5%, 3,411G)
ZCKaiser: 160G (3.6%, 1,602G)
NightwolfXVI: 112G (2.5%, 112G)
Milkman153: 111G (2.5%, 3,295G)
ko2q: 100G (2.3%, 8,904G)
Firesheath: 100G (2.3%, 4,554G)
