Final Bets: black - 17 bets for 15,314G (62.8%, x0.59); brown - 14 bets for 9,088G (37.2%, x1.69)

black bets:
Gunz232323: 4,681G (30.6%, 4,681G)
SephDarkheart: 1,946G (12.7%, 3,893G)
latebit: 1,091G (7.1%, 1,091G)
JumbocactuarX27: 1,000G (6.5%, 41,195G)
onetrickwolf: 1,000G (6.5%, 21,725G)
evontno: 961G (6.3%, 961G)
douchetron: 763G (5.0%, 763G)
NovaKnight21: 540G (3.5%, 540G)
TasisSai: 500G (3.3%, 23,919G)
Klednar21: 500G (3.3%, 10,782G)
pplvee1: 456G (3.0%, 456G)
Forkmore: 400G (2.6%, 17,532G)
DesertWooder: 400G (2.6%, 2,900G)
BoneMiser: 384G (2.5%, 384G)
butterbelljedi: 284G (1.9%, 284G)
TheArcanum: 208G (1.4%, 687G)
datadrivenbot: 200G (1.3%, 50,940G)

brown bets:
DeathTaxesAndAnime: 1,310G (14.4%, 2,569G)
skipsandwiches: 1,141G (12.6%, 1,141G)
fenaen: 1,064G (11.7%, 1,064G)
DavenIII: 1,047G (11.5%, 4,188G)
BirbBrainsBot: 1,000G (11.0%, 18,497G)
amiture: 1,000G (11.0%, 35,562G)
E_Ballard: 508G (5.6%, 508G)
VolgraTheMoose: 501G (5.5%, 6,671G)
Miku_Shikhu: 500G (5.5%, 1,997G)
ArashiKurobara: 360G (4.0%, 4,540G)
AllInBot: 297G (3.3%, 297G)
nok____: 172G (1.9%, 2,772G)
ohhinm: 100G (1.1%, 4,515G)
getthemoneyz: 88G (1.0%, 1,517,138G)
