Final Bets: red - 16 bets for 10,346G (44.9%, x1.23); blue - 26 bets for 12,694G (55.1%, x0.82)

red bets:
Zeroroute: 3,159G (30.5%, 6,164G)
ricky_ortease: 1,302G (12.6%, 1,302G)
Winterharte: 1,000G (9.7%, 3,139G)
KupoKel: 1,000G (9.7%, 22,698G)
MantisFinch: 1,000G (9.7%, 13,874G)
volgrathemoose: 899G (8.7%, 899G)
HaplessOne: 500G (4.8%, 36,573G)
friendsquirrel: 348G (3.4%, 348G)
evolvingdev: 288G (2.8%, 288G)
Oshimi12: 252G (2.4%, 252G)
kekkerscrew: 224G (2.2%, 224G)
mexskacin: 151G (1.5%, 151G)
PlatinumPlume: 100G (1.0%, 8,394G)
OneHundredFists: 100G (1.0%, 5,919G)
jhazor: 22G (0.2%, 114G)
daveb_: 1G (0.0%, 1,943G)

blue bets:
SkylerBunny: 2,000G (15.8%, 67,782G)
ELzukkor: 1,771G (14.0%, 3,542G)
Lodrak: 1,146G (9.0%, 1,146G)
Lord_Burrah: 1,087G (8.6%, 85,087G)
Jeeboheebo: 1,003G (7.9%, 17,620G)
Lanshaft: 580G (4.6%, 4,079G)
MalakoFox: 500G (3.9%, 9,866G)
Aurilliux: 500G (3.9%, 7,371G)
genoguy: 500G (3.9%, 1,289G)
bad1dea: 400G (3.2%, 247,211G)
fenixcrest: 361G (2.8%, 7,233G)
DHaveWord: 308G (2.4%, 308G)
SerumD: 300G (2.4%, 3,387G)
ZephyrTempest: 298G (2.3%, 3,001G)
triniculo: 256G (2.0%, 256G)
JumbocactuarX27: 256G (2.0%, 256G)
getthemoneyz: 246G (1.9%, 388,949G)
ko2q: 236G (1.9%, 236G)
truestrike: 208G (1.6%, 208G)
BirbBrainsBot: 200G (1.6%, 200G)
gum44: 108G (0.9%, 108G)
Tougou: 100G (0.8%, 3,446G)
BadBlanket: 100G (0.8%, 3,629G)
maakur_: 100G (0.8%, 7,154G)
silentperogy: 100G (0.8%, 7,988G)
noztril: 30G (0.2%, 100G)
