Final Bets: green - 25 bets for 12,115G (44.0%, x1.27); black - 26 bets for 15,436G (56.0%, x0.78)

green bets:
leakimiko: 2,378G (19.6%, 29,733G)
Lodrak: 1,218G (10.1%, 2,437G)
Jeeboheebo: 1,002G (8.3%, 15,115G)
DeathTaxesAndAnime: 1,000G (8.3%, 34,328G)
Winterharte: 1,000G (8.3%, 3,683G)
Lanshaft: 580G (4.8%, 4,068G)
MoonSlayerRS: 562G (4.6%, 562G)
Ungaiii: 500G (4.1%, 1,917G)
HaplessOne: 500G (4.1%, 36,681G)
IndecisiveNinja: 468G (3.9%, 468G)
0utlier: 420G (3.5%, 1,000G)
bad1dea: 400G (3.3%, 246,069G)
Oshimi12: 358G (3.0%, 1,196G)
ELzukkor: 300G (2.5%, 7,191G)
buddychrist10: 300G (2.5%, 300G)
ZephyrTempest: 204G (1.7%, 2,465G)
DHaveWord: 185G (1.5%, 1,493G)
PlatinumPlume: 123G (1.0%, 8,327G)
maakur_: 100G (0.8%, 7,841G)
silentperogy: 100G (0.8%, 8,255G)
BadBlanket: 100G (0.8%, 3,807G)
RongRongArts: 100G (0.8%, 24,087G)
Avin_Chaos: 100G (0.8%, 5,084G)
nofreewill: 75G (0.6%, 179G)
BirbBrainsBot: 42G (0.3%, 266G)

black bets:
Zeroroute: 2,777G (18.0%, 4,864G)
Iqunlimited: 2,000G (13.0%, 7,036G)
JumbocactuarX27: 1,531G (9.9%, 1,531G)
Lord_Burrah: 1,200G (7.8%, 85,843G)
AniZero: 1,000G (6.5%, 43,851G)
fenaen: 724G (4.7%, 724G)
genoguy: 607G (3.9%, 607G)
Arunic: 603G (3.9%, 603G)
volgrathemoose: 586G (3.8%, 586G)
ko2q: 540G (3.5%, 540G)
getthemoneyz: 526G (3.4%, 388,744G)
jhazor: 429G (2.8%, 429G)
MattMan119: 400G (2.6%, 5,907G)
triniculo: 341G (2.2%, 341G)
powergems: 331G (2.1%, 4,292G)
EnemyController: 300G (1.9%, 20,596G)
rico_flex: 300G (1.9%, 2,397G)
Vicemond: 233G (1.5%, 233G)
Fallenmagi: 212G (1.4%, 212G)
gum44: 196G (1.3%, 196G)
Chao_Garden: 150G (1.0%, 3,457G)
Kellios11: 100G (0.6%, 8,175G)
friendsquirrel: 100G (0.6%, 1,343G)
WoooBlaaa: 100G (0.6%, 100G)
Treapvort: 100G (0.6%, 22,198G)
mexskacin: 50G (0.3%, 430G)
