Final Bets: red - 12 bets for 7,146G (37.4%, x1.68); blue - 15 bets for 11,972G (62.6%, x0.60)

red bets:
Aldrammech: 1,426G (20.0%, 1,426G)
TheChainNerd: 1,000G (14.0%, 33,589G)
SkylerBunny: 1,000G (14.0%, 11,101G)
Forkmore: 1,000G (14.0%, 13,501G)
ACSpree: 620G (8.7%, 620G)
GatsbysGhost: 500G (7.0%, 3,488G)
reinoe: 500G (7.0%, 6,403G)
RaIshtar: 500G (7.0%, 31,127G)
Kellios11: 200G (2.8%, 35,567G)
datadrivenbot: 200G (2.8%, 62,142G)
DeathTaxesAndAnime: 100G (1.4%, 15,445G)
CosmicTactician: 100G (1.4%, 43,017G)

blue bets:
Evewho: 3,742G (31.3%, 7,339G)
letdowncity: 1,793G (15.0%, 1,793G)
prince_rogers_nelson_: 1,376G (11.5%, 1,376G)
Cryptopsy70: 1,089G (9.1%, 36,301G)
roqqqpsi: 1,073G (9.0%, 53,670G)
BirbBrainsBot: 1,000G (8.4%, 62,603G)
upvla: 600G (5.0%, 2,121G)
Grandlanzer: 300G (2.5%, 74,159G)
randgridr: 276G (2.3%, 276G)
gorgewall: 201G (1.7%, 9,484G)
TasisSai: 158G (1.3%, 311G)
DrPoopersMD: 108G (0.9%, 108G)
nhammen: 100G (0.8%, 11,155G)
SephDarkheart: 100G (0.8%, 5,904G)
getthemoneyz: 56G (0.5%, 1,266,469G)
