Final Bets: green - 15 bets for 12,772G (63.7%, x0.57); yellow - 16 bets for 7,282G (36.3%, x1.75)

green bets:
Aldrammech: 3,815G (29.9%, 3,815G)
SkylerBunny: 3,000G (23.5%, 12,776G)
Cryptopsy70: 1,056G (8.3%, 35,212G)
roqqqpsi: 1,051G (8.2%, 52,597G)
TheChainNerd: 1,000G (7.8%, 35,264G)
dogsandcatsand: 1,000G (7.8%, 12,712G)
ACSpree: 503G (3.9%, 503G)
ayeayex3: 309G (2.4%, 430G)
flacococo: 229G (1.8%, 229G)
gorgewall: 201G (1.6%, 9,283G)
datadrivenbot: 200G (1.6%, 62,477G)
DrPoopersMD: 108G (0.8%, 108G)
BlackAceBB: 100G (0.8%, 473G)
Kellios11: 100G (0.8%, 35,902G)
CosmicTactician: 100G (0.8%, 43,185G)

yellow bets:
Evewho: 1,834G (25.2%, 3,597G)
BirbBrainsBot: 1,000G (13.7%, 61,603G)
fenaen: 675G (9.3%, 675G)
GatsbysGhost: 500G (6.9%, 4,326G)
reinoe: 500G (6.9%, 7,241G)
RunicMagus: 472G (6.5%, 472G)
ShintaroNayaka: 400G (5.5%, 14,828G)
letdowncity: 392G (5.4%, 392G)
prince_rogers_nelson_: 376G (5.2%, 376G)
randgridr: 276G (3.8%, 276G)
TasisSai: 260G (3.6%, 260G)
DustBirdEX: 145G (2.0%, 2,417G)
Chuckolator: 144G (2.0%, 82,075G)
Nightehawke: 108G (1.5%, 108G)
SephDarkheart: 100G (1.4%, 5,804G)
DeathTaxesAndAnime: 100G (1.4%, 15,613G)
