Final Bets: red - 9 bets for 4,851G (41.1%, x1.43); green - 13 bets for 6,957G (58.9%, x0.70)

red bets:
SkyridgeZero: 1,500G (30.9%, 48,686G)
BirbBrainsBot: 1,000G (20.6%, 59,954G)
Aldrammech: 901G (18.6%, 901G)
fenaen: 404G (8.3%, 404G)
KyleWonToLiveForever: 368G (7.6%, 368G)
Mushufasa_: 208G (4.3%, 208G)
Kellios11: 200G (4.1%, 35,959G)
getthemoneyz: 170G (3.5%, 1,266,295G)
nhammen: 100G (2.1%, 10,055G)

green bets:
roqqqpsi: 1,117G (16.1%, 55,877G)
letdowncity: 1,105G (15.9%, 1,105G)
Cryptopsy70: 1,085G (15.6%, 36,191G)
SkylerBunny: 1,000G (14.4%, 11,986G)
upvla: 400G (5.7%, 1,521G)
ACSpree: 380G (5.5%, 380G)
prince_rogers_nelson_: 376G (5.4%, 376G)
TasisSai: 373G (5.4%, 732G)
run_with_stone_GUNs: 320G (4.6%, 8,598G)
DustBirdEX: 300G (4.3%, 2,172G)
gorgewall: 201G (2.9%, 9,268G)
datadrivenbot: 200G (2.9%, 62,878G)
SephDarkheart: 100G (1.4%, 5,504G)
