Final Bets: red - 21 bets for 13,666G (47.8%, x1.09); blue - 15 bets for 14,922G (52.2%, x0.92)

red bets:
Shalloween: 4,000G (29.3%, 32,836G)
ColetteMSLP: 1,000G (7.3%, 37,092G)
BirbBrainsBot: 1,000G (7.3%, 175,365G)
nekojin: 1,000G (7.3%, 18,731G)
reinoe: 1,000G (7.3%, 142,312G)
douchetron: 676G (4.9%, 1,326G)
HaateXIII: 604G (4.4%, 604G)
killth3kid: 548G (4.0%, 11,842G)
Lanshaft: 528G (3.9%, 27,235G)
randgridr: 520G (3.8%, 18,558G)
Treafa: 500G (3.7%, 1,423G)
triniculo: 288G (2.1%, 288G)
Smokegiant: 285G (2.1%, 285G)
Strifu: 276G (2.0%, 276G)
getthemoneyz: 268G (2.0%, 1,425,113G)
Hirameki85: 252G (1.8%, 7,595G)
thehotrefrigerator: 220G (1.6%, 220G)
gorgewall: 201G (1.5%, 6,602G)
reddwind_: 200G (1.5%, 33,575G)
datadrivenbot: 200G (1.5%, 46,471G)
Firesheath: 100G (0.7%, 9,055G)

blue bets:
TasisSai: 7,173G (48.1%, 7,173G)
NIghtdew14: 3,000G (20.1%, 54,762G)
VolgraTheMoose: 1,374G (9.2%, 2,748G)
Nizaha: 604G (4.0%, 8,065G)
slotheye17: 556G (3.7%, 556G)
SephDarkheart: 416G (2.8%, 13,944G)
jeffersonsa: 400G (2.7%, 468G)
O_Heyno: 250G (1.7%, 12,212G)
acid_flashback: 227G (1.5%, 3,789G)
AllInBot: 200G (1.3%, 200G)
Miku_Shikhu: 200G (1.3%, 744G)
Twisted_Nutsatchel: 199G (1.3%, 13,158G)
Lydian_C: 123G (0.8%, 6,506G)
roofiepops: 123G (0.8%, 9,081G)
Ross_from_Cali: 77G (0.5%, 1,510G)
