Final Bets: green - 11 bets for 4,203G (29.1%, x2.43); yellow - 22 bets for 10,223G (70.9%, x0.41)

green bets:
BirbBrainsBot: 1,000G (23.8%, 151,302G)
Zeroroute: 600G (14.3%, 600G)
superdevon1: 600G (14.3%, 8,145G)
TheChainNerd: 442G (10.5%, 442G)
roofiepops: 400G (9.5%, 33,173G)
EnemyController: 300G (7.1%, 100,744G)
Zachara: 250G (5.9%, 57,000G)
aznwanderor: 249G (5.9%, 249G)
xYungAnarchyx: 150G (3.6%, 1,694G)
perce90: 112G (2.7%, 112G)
GenieMilenko: 100G (2.4%, 319G)

yellow bets:
GreatRedDragon: 2,097G (20.5%, 29,097G)
fenaen: 1,500G (14.7%, 77,597G)
Pie108: 1,000G (9.8%, 98,574G)
Nizaha: 501G (4.9%, 14,130G)
MrFlabyo: 500G (4.9%, 78,295G)
Anethum: 500G (4.9%, 15,070G)
catfashions: 500G (4.9%, 1,269G)
DLJuggernaut: 500G (4.9%, 24,297G)
JumbocactuarX27: 500G (4.9%, 4,774G)
Bryon_W: 416G (4.1%, 416G)
duskps: 400G (3.9%, 12,631G)
NovaKnight21: 364G (3.6%, 364G)
getthemoneyz: 348G (3.4%, 569,260G)
fasc_: 200G (2.0%, 1,359G)
ungabunga_bot: 196G (1.9%, 230,853G)
carsenhk: 150G (1.5%, 16,460G)
ZephyrTempest: 101G (1.0%, 185,464G)
GrayGhostGaming: 100G (1.0%, 8,065G)
museofdoom: 100G (1.0%, 3,231G)
GarbagePhoenix: 100G (1.0%, 495G)
datadrivenbot: 100G (1.0%, 2,208G)
DrAntiSocial: 50G (0.5%, 26,504G)
