Player: !Brown
Team: Brown Team
Palettes: Brown/Green



Killth3kid
Monster
Taurus
61
72
Pisco Demon










Silentkaster
Monster
Libra
60
66
Red Panther










Miku Shikhu
Monster
Scorpio
70
50
Reaper










Kaidykat
Female
Taurus
81
79
Calculator
Time Magic
MP Restore
Halve MP
Move+3

Papyrus Codex

Holy Miter
Rubber Costume
Magic Ring

CT, Prime Number, 4, 3
Haste, Haste 2, Immobilize, Quick
