Final Bets: blue - 15 bets for 11,233G (42.5%, x1.35); yellow - 11 bets for 15,189G (57.5%, x0.74)

blue bets:
GrauKhan: 4,024G (35.8%, 4,024G)
twelfthrootoftwo: 1,517G (13.5%, 2,976G)
Laserman1000: 1,098G (9.8%, 2,196G)
Monopool: 1,000G (8.9%, 3,438G)
BirbBrainsBot: 1,000G (8.9%, 136,383G)
reinoe: 500G (4.5%, 82,394G)
killth3kid: 456G (4.1%, 1,771G)
holandrix: 403G (3.6%, 403G)
AllInBot: 319G (2.8%, 319G)
Seaweed_B: 244G (2.2%, 244G)
DeathTaxesAndAnime: 200G (1.8%, 2,817G)
ohhinm: 200G (1.8%, 5,692G)
nhammen: 100G (0.9%, 4,739G)
Heroebal: 100G (0.9%, 6,621G)
getthemoneyz: 72G (0.6%, 1,332,987G)

yellow bets:
evontno: 9,000G (59.3%, 29,153G)
iBardic: 3,429G (22.6%, 3,429G)
Zeroroute: 600G (4.0%, 600G)
lyonslegacy: 550G (3.6%, 2,000G)
randgridr: 428G (2.8%, 7,466G)
gorgewall: 301G (2.0%, 5,118G)
Treafa: 281G (1.9%, 281G)
Evewho: 200G (1.3%, 4,283G)
datadrivenbot: 200G (1.3%, 32,497G)
POGpope: 100G (0.7%, 100G)
BasedAzazel: 100G (0.7%, 100G)
