Final Bets: white - 18 bets for 17,876G (69.6%, x0.44); champion - 16 bets for 7,806G (30.4%, x2.29)

white bets:
evontno: 9,696G (54.2%, 43,870G)
Evewho: 2,000G (11.2%, 5,569G)
twelfthrootoftwo: 1,002G (5.6%, 1,966G)
upvla: 600G (3.4%, 600G)
POGpope: 600G (3.4%, 600G)
DeathTaxesAndAnime: 587G (3.3%, 2,731G)
Monopool: 500G (2.8%, 3,084G)
BasedAzazel: 500G (2.8%, 1,298G)
randgridr: 428G (2.4%, 7,572G)
OtherBrand: 296G (1.7%, 1,115G)
Treafa: 276G (1.5%, 776G)
oldchris: 250G (1.4%, 1,841G)
Laserman1000: 240G (1.3%, 1,249G)
gorgewall: 201G (1.1%, 6,137G)
AllInBot: 200G (1.1%, 200G)
mirapoix: 200G (1.1%, 1,816G)
datadrivenbot: 200G (1.1%, 32,775G)
nhammen: 100G (0.6%, 5,358G)

champion bets:
killth3kid: 1,547G (19.8%, 1,547G)
BirbBrainsBot: 946G (12.1%, 134,521G)
lyonslegacy: 857G (11.0%, 857G)
Zeroroute: 600G (7.7%, 600G)
solomongrundy85: 600G (7.7%, 2,938G)
dogsandcatsand: 600G (7.7%, 10,231G)
ohhinm: 500G (6.4%, 5,723G)
iBardic: 500G (6.4%, 6,219G)
ColetteMSLP: 300G (3.8%, 2,448G)
Seaweed_B: 278G (3.6%, 278G)
Legionx13: 250G (3.2%, 2,215G)
getthemoneyz: 246G (3.2%, 1,332,241G)
ZicaX: 232G (3.0%, 2,095G)
Freezerman47: 150G (1.9%, 150G)
Heroebal: 100G (1.3%, 6,935G)
NicoSavoy: 100G (1.3%, 242,270G)
