Final Bets: green - 14 bets for 13,693G (54.2%, x0.84); brown - 18 bets for 11,548G (45.8%, x1.19)

green bets:
VolgraTheMoose: 3,146G (23.0%, 6,292G)
DuraiPapers: 2,500G (18.3%, 41,959G)
gamesage53: 2,000G (14.6%, 7,461G)
SkylerBunny: 1,500G (11.0%, 591,665G)
E_Ballard: 1,173G (8.6%, 1,173G)
RaIshtar: 1,000G (7.3%, 4,159G)
Laserman1000: 594G (4.3%, 10,994G)
JumbocactuarX27: 500G (3.7%, 8,398G)
killth3kid: 480G (3.5%, 11,665G)
Zalerah: 200G (1.5%, 1,571G)
Evewho: 200G (1.5%, 4,139G)
Magicandy: 200G (1.5%, 8,254G)
Firesheath: 100G (0.7%, 1,824G)
Grandlanzer: 100G (0.7%, 12,678G)

brown bets:
DavenIII: 2,829G (24.5%, 2,829G)
roqqqpsi: 1,757G (15.2%, 15,978G)
Spartan_Paladin: 1,100G (9.5%, 55,116G)
BirbBrainsBot: 1,000G (8.7%, 72,120G)
dogsandcatsand: 858G (7.4%, 1,858G)
Nizaha: 501G (4.3%, 7,481G)
joewcarson: 500G (4.3%, 2,895G)
Shalloween: 500G (4.3%, 61,093G)
BoneMiser: 500G (4.3%, 500G)
getthemoneyz: 408G (3.5%, 1,012,162G)
DustBirdEX: 345G (3.0%, 3,000G)
gooseyourself: 300G (2.6%, 300G)
RunicMagus: 250G (2.2%, 39,551G)
extinctrational: 200G (1.7%, 1,994G)
nekojin: 200G (1.7%, 4,568G)
CosmicTactician: 100G (0.9%, 11,530G)
RuneS_77: 100G (0.9%, 9,955G)
datadrivenbot: 100G (0.9%, 46,992G)
