Player: !Brown
Team: Brown Team
Palettes: Brown/Green



CosmicTactician
Monster
Cancer
76
49
Behemoth










Roofiepops
Monster
Cancer
76
49
Behemoth










Jabuamba
Monster
Cancer
76
49
Behemoth










Lord Gwarth
Monster
Cancer
76
49
Behemoth







