Final Bets: green - 11 bets for 13,978G (68.8%, x0.45); champion - 15 bets for 6,331G (31.2%, x2.21)

green bets:
sinnyil2: 9,458G (67.7%, 18,916G)
HaplessOne: 1,000G (7.2%, 27,536G)
Shakarak: 647G (4.6%, 647G)
roqqqpsi: 522G (3.7%, 1,062G)
Jeeboheebo: 500G (3.6%, 9,133G)
Riot_Jayway: 500G (3.6%, 186,878G)
UmaiJam: 456G (3.3%, 456G)
maakur_: 362G (2.6%, 362G)
Humble_Fabio: 333G (2.4%, 2,085G)
Giftnova: 100G (0.7%, 3,118G)
ApplesauceBoss: 100G (0.7%, 8,127G)

champion bets:
PotionDweller: 1,250G (19.7%, 22,237G)
haaaaaank: 1,189G (18.8%, 1,189G)
RezzaDV: 574G (9.1%, 5,742G)
Lydian_C: 500G (7.9%, 1,224G)
inzo24: 500G (7.9%, 4,505G)
FreneticRiot: 400G (6.3%, 4,481G)
LASERJESUS1337: 300G (4.7%, 4,543G)
SeedSC: 300G (4.7%, 146,469G)
Eoika: 256G (4.0%, 256G)
HaychDub: 250G (3.9%, 27,984G)
Cataphract116: 200G (3.2%, 2,207G)
rubenflonne: 200G (3.2%, 7,024G)
ShintaroNayaka: 200G (3.2%, 6,590G)
Faqs_McGee: 112G (1.8%, 112G)
mirapoix: 100G (1.6%, 6,092G)
