Final Bets: black - 6 bets for 2,974G (39.2%, x1.55); brown - 12 bets for 4,618G (60.8%, x0.64)

black bets:
ShintaroNayaka: 1,000G (33.6%, 8,303G)
getthemoneyz: 788G (26.5%, 644,218G)
Eyepoor_: 504G (16.9%, 504G)
LivingHitokiri: 300G (10.1%, 300G)
CT_5_Holy: 232G (7.8%, 232G)
ScarletSpiderBen: 150G (5.0%, 2,199G)

brown bets:
PotionDweller: 1,000G (21.7%, 16,969G)
lijarkh: 1,000G (21.7%, 19,298G)
CorpusCav: 666G (14.4%, 44,566G)
KasugaiRoastedPeas: 400G (8.7%, 13,304G)
BirbBrainsBot: 360G (7.8%, 82,330G)
midori_ribbon: 350G (7.6%, 3,861G)
LAGBOT30000: 259G (5.6%, 25,912G)
Miyokari: 150G (3.2%, 911G)
ungabunga_bot: 133G (2.9%, 398,395G)
belife42: 100G (2.2%, 5,272G)
Kyune: 100G (2.2%, 2,635G)
datadrivenbot: 100G (2.2%, 12,827G)
