Final Bets: blue - 22 bets for 21,513G (84.8%, x0.18); champion - 9 bets for 3,847G (15.2%, x5.59)

blue bets:
Leonidusx: 5,000G (23.2%, 538,573G)
VolgraTheMoose: 2,094G (9.7%, 4,188G)
YowaneHaku: 2,000G (9.3%, 7,559G)
coralreeferz: 1,939G (9.0%, 3,878G)
DeathTaxesAndAnime: 1,111G (5.2%, 21,941G)
Smashy: 1,000G (4.6%, 3,120G)
BirbBrainsBot: 1,000G (4.6%, 133,311G)
3ngag3: 1,000G (4.6%, 25,000G)
reinoe: 1,000G (4.6%, 118,539G)
killth3kid: 876G (4.1%, 26,446G)
Thyrandaal: 864G (4.0%, 864G)
ValensEXP_: 528G (2.5%, 19,482G)
krombobreaker: 500G (2.3%, 47,908G)
Snowfats: 500G (2.3%, 58,546G)
old_overholt_: 500G (2.3%, 8,138G)
mizzmoonshine: 400G (1.9%, 1,758G)
roofiepops: 313G (1.5%, 996G)
ruleof5: 304G (1.4%, 304G)
AllInBot: 200G (0.9%, 200G)
datadrivenbot: 200G (0.9%, 85,286G)
king_smashington: 100G (0.5%, 3,891G)
getthemoneyz: 84G (0.4%, 2,228,805G)

champion bets:
GenZealot: 1,000G (26.0%, 25,179G)
Zetchryn: 876G (22.8%, 876G)
Nizaha: 692G (18.0%, 7,686G)
xUnhingedMoose: 339G (8.8%, 339G)
skinny666: 292G (7.6%, 292G)
Jehudy7: 216G (5.6%, 216G)
ExplanationMarkWow: 200G (5.2%, 25,942G)
Widewalk: 132G (3.4%, 132G)
MrJamDango: 100G (2.6%, 6,429G)
