Final Bets: purple - 29 bets for 12,274G (63.1%, x0.58); brown - 14 bets for 7,169G (36.9%, x1.71)

Bubbafun: -1,500G (8,208G > 6,708G)
HaplessOne: -1,059G (5,073G > 4,018G)
BirbBrainsBot: -1,000G (172,035G > 171,035G)
bad1dea: -1,000G (165,585G > 164,585G)
snkey: -1,000G (38,662G > 37,662G)
Winterharte: -1,000G (5,858G > 4,858G)
urieltheflameofgod: -784G (784G > 268G)
WireLord: -685G (685G > 312G)
HaateXIII: -500G (5,710G > 5,210G)
thunderducker: -400G (3,177G > 2,777G)
BadBlanket: -352G (352G > 352G)
MoonSlayerRS: -304G (304G > 304G)
CapnChaos12: -300G (3,532G > 3,232G)
ZephyrTempest: -270G (9,279G > 9,009G)
deesignal: -253G (506G > 253G)
rico_flex: -250G (624G > 374G)
Pie108: -240G (1,027G > 787G)
UFOCATCHERDAILY: -200G (4,192G > 3,992G)
HRak050: -181G (181G > 144G)
Nizaha: -100G (18,882G > 18,782G)
AlenaZarek: -100G (6,204G > 6,104G)
datadrivenbot: -100G (12,465G > 12,365G)
Bongomon7: -100G (4,817G > 4,717G)
RughSontos: -100G (1,867G > 1,767G)
nofreewill: -100G (106G > 100G)
Oshimi12: -100G (494G > 394G)
glastonberry48: -100G (732G > 632G)
Kittiesoink: -100G (379G > 279G)
tevoul: -96G (1,923G > 1,827G)


archelous: +3,424G (36,288G > 39,712G)
mirapoix: +1,774G (1,036G > 2,810G)
Lodrak: +1,714G (12,313G > 14,027G)
getthemoneyz: +1,234G (337,598G > 338,832G)
Lanshaft: +931G (14,482G > 15,413G)
ra1kia: +856G (1,116G > 1,972G)
DrDelicatessen: +765G (447G > 1,212G)
killth3kid: +377G (3,259G > 3,636G)
Treapvort: +342G (2,794G > 3,136G)
Lali_Lulelo: +171G (2,484G > 2,655G)
Firesheath: +171G (2,517G > 2,688G)
maakur_: +171G (60,573G > 60,744G)
Verxl: +171G (1,594G > 1,765G)
Axelrod: +171G (1,832G > 2,003G)
