Final Bets: white - 13 bets for 5,005G (38.9%, x1.57); black - 13 bets for 7,857G (61.1%, x0.64)

white bets:
VolgraTheMoose: 1,088G (21.7%, 2,176G)
ohhinm: 1,000G (20.0%, 6,135G)
Aldrammech: 508G (10.1%, 508G)
benticore: 500G (10.0%, 38,909G)
BirbBrainsBot: 458G (9.2%, 83,114G)
nekojin: 372G (7.4%, 11,160G)
Mathlexis: 240G (4.8%, 672G)
getthemoneyz: 208G (4.2%, 1,392,693G)
AllInBot: 200G (4.0%, 200G)
Lydian_C: 123G (2.5%, 24,937G)
roqqqpsi: 108G (2.2%, 2,178G)
gongonono: 100G (2.0%, 1,435G)
ruleof5: 100G (2.0%, 16,897G)

black bets:
HaateXIII: 2,194G (27.9%, 2,194G)
NovaKnight21: 1,086G (13.8%, 1,086G)
Zagorsek: 1,003G (12.8%, 2,007G)
Thyrandaal: 1,000G (12.7%, 168,809G)
fenaen: 800G (10.2%, 2,789G)
Breakdown777: 500G (6.4%, 1,568G)
Xoomwaffle: 324G (4.1%, 6,629G)
SQUiDSQUARKLIN: 300G (3.8%, 11,372G)
datadrivenbot: 200G (2.5%, 40,921G)
ribbiks: 200G (2.5%, 5,297G)
Miku_Shikhu: 100G (1.3%, 1,085G)
mirapoix: 100G (1.3%, 41,097G)
nhammen: 50G (0.6%, 10,964G)
