Final Bets: red - 22 bets for 32,253G (40.2%, x1.49); blue - 19 bets for 47,935G (59.8%, x0.67)

red bets:
Aldrammech: 20,000G (62.0%, 50,238G)
skuldar: 3,316G (10.3%, 3,316G)
volgrathemoose: 1,001G (3.1%, 2,632G)
ungabunga_bot: 1,000G (3.1%, 271,649G)
BirbBrainsBot: 1,000G (3.1%, 38,422G)
coralreeferz: 1,000G (3.1%, 33,644G)
TheRylander: 765G (2.4%, 765G)
FoxtrotNovemberCharlie: 699G (2.2%, 699G)
Breakdown777: 500G (1.6%, 26,545G)
Conome: 491G (1.5%, 491G)
ZephyrTempest: 400G (1.2%, 1,382G)
Lazlodamus: 336G (1.0%, 336G)
b0shii: 333G (1.0%, 794G)
FireisWet: 300G (0.9%, 2,381G)
deenglow: 250G (0.8%, 48,676G)
Anethum: 200G (0.6%, 5,227G)
RunicMagus: 200G (0.6%, 55,953G)
nifboy: 112G (0.3%, 2,805G)
Dymntd: 100G (0.3%, 2,773G)
Jerboj: 100G (0.3%, 56,913G)
DixTrix: 100G (0.3%, 113G)
JustDoomathon: 50G (0.2%, 1,589G)

blue bets:
sinnyil2: 40,143G (83.7%, 80,286G)
Baron_von_Scrub: 1,111G (2.3%, 79,189G)
KasugaiRoastedPeas: 1,000G (2.1%, 2,582G)
Mtueni: 1,000G (2.1%, 287,313G)
reinoe: 1,000G (2.1%, 23,293G)
Laserman1000: 676G (1.4%, 48,676G)
Zeroroute: 676G (1.4%, 676G)
pandasforsale: 555G (1.2%, 28,261G)
0v3rr8d: 324G (0.7%, 324G)
twelfthrootoftwo: 300G (0.6%, 1,220G)
CapnSauce420: 250G (0.5%, 4,275G)
LivingHitokiri: 200G (0.4%, 1,004G)
arch8000: 150G (0.3%, 5,013G)
Evewho: 100G (0.2%, 14,885G)
maakur_: 100G (0.2%, 113,209G)
duskps: 100G (0.2%, 15,761G)
datadrivenbot: 100G (0.2%, 3,545G)
notazzie: 100G (0.2%, 100G)
DrAntiSocial: 50G (0.1%, 21,392G)
