Final Bets: red - 15 bets for 7,651G (42.5%, x1.35); blue - 25 bets for 10,357G (57.5%, x0.74)

red bets:
DeathTaxesAndAnime: 1,567G (20.5%, 3,074G)
Digitalsocrates: 1,307G (17.1%, 2,378G)
BirbBrainsBot: 1,000G (13.1%, 46,684G)
Tithonus: 977G (12.8%, 977G)
killth3kid: 500G (6.5%, 11,609G)
AniZero: 492G (6.4%, 492G)
DustBirdEX: 416G (5.4%, 416G)
GatsbysGhost: 400G (5.2%, 3,363G)
Lanshaft: 292G (3.8%, 574G)
cougboi: 200G (2.6%, 7,755G)
ANFz: 100G (1.3%, 6,114G)
Firesheath: 100G (1.3%, 8,908G)
nhammen: 100G (1.3%, 1,029G)
rmelzer1986: 100G (1.3%, 346G)
Aquios_: 100G (1.3%, 3,103G)

blue bets:
CelestialLancer: 1,000G (9.7%, 47,814G)
getthemoneyz: 1,000G (9.7%, 1,069,795G)
reinoe: 1,000G (9.7%, 8,671G)
dogsandcatsand: 1,000G (9.7%, 20,821G)
HaateXIII: 893G (8.6%, 893G)
Laserman1000: 821G (7.9%, 4,821G)
Rytor: 600G (5.8%, 7,105G)
silentperogy: 500G (4.8%, 31,355G)
Shalloween: 400G (3.9%, 73,451G)
argentbast: 400G (3.9%, 1,686G)
electric_algus: 400G (3.9%, 23,815G)
cactus_tony_: 357G (3.4%, 357G)
placidphoenix: 318G (3.1%, 318G)
Rilgon: 224G (2.2%, 224G)
RunicMagus: 200G (1.9%, 52,277G)
Arashii85: 200G (1.9%, 1,612G)
LionelParks: 200G (1.9%, 5,100G)
RampagingRobot: 183G (1.8%, 183G)
roofiepops: 111G (1.1%, 847G)
Kaynin_Shadowwalker: 100G (1.0%, 3,444G)
fusoyeahhh: 100G (1.0%, 1,352G)
tunamerchant2: 100G (1.0%, 539G)
datadrivenbot: 100G (1.0%, 46,557G)
Grandlanzer: 100G (1.0%, 31,260G)
casteia: 50G (0.5%, 1,098G)
