Final Bets: black - 34 bets for 18,395G (36.9%, x1.71); brown - 20 bets for 31,434G (63.1%, x0.59)

black bets:
HASTERIOUS: 4,000G (21.7%, 70,870G)
sinnyil2: 2,156G (11.7%, 4,312G)
kai_shee: 1,000G (5.4%, 108,964G)
BirbBrainsBot: 1,000G (5.4%, 188,736G)
bad1dea: 1,000G (5.4%, 8,582G)
red__lancer: 1,000G (5.4%, 17,059G)
EnemyController: 649G (3.5%, 16,649G)
Lanshaft: 600G (3.3%, 2,916G)
Laserman1000: 600G (3.3%, 12,400G)
JIDkomu: 529G (2.9%, 1,059G)
joewcarson: 500G (2.7%, 4,357G)
OneHundredFists: 500G (2.7%, 14,376G)
ig_ats: 500G (2.7%, 4,158G)
Jeeboheebo: 444G (2.4%, 444G)
Evewho: 400G (2.2%, 2,568G)
DustBirdEX: 352G (1.9%, 352G)
TheGuesty: 350G (1.9%, 4,700G)
robespyah: 346G (1.9%, 346G)
roofiepops: 332G (1.8%, 332G)
Aeolus_000: 300G (1.6%, 5,967G)
AlenaZarek: 300G (1.6%, 22,315G)
getthemoneyz: 226G (1.2%, 428,649G)
Cataphract116: 200G (1.1%, 4,718G)
b0shii: 200G (1.1%, 1,682G)
KasugaiRoastedPeas: 200G (1.1%, 19,728G)
ApplesauceBoss: 100G (0.5%, 5,962G)
banjooie: 100G (0.5%, 363G)
Conome: 100G (0.5%, 1,925G)
victoriolue: 100G (0.5%, 5,983G)
datadrivenbot: 100G (0.5%, 16,811G)
Rogueain: 100G (0.5%, 3,117G)
ZephyrTempest: 100G (0.5%, 20,681G)
Legendaryax4: 10G (0.1%, 207G)
urieltheflameofgod: 1G (0.0%, 8,235G)

brown bets:
Lodrak: 16,208G (51.6%, 16,208G)
NagginNaggers: 5,096G (16.2%, 5,096G)
Zeroroute: 2,093G (6.7%, 4,095G)
mivvim: 1,586G (5.0%, 1,586G)
Dothan89: 1,024G (3.3%, 1,024G)
fenaen: 1,005G (3.2%, 6,507G)
DeathTaxesAndAnime: 902G (2.9%, 1,769G)
mirapoix: 766G (2.4%, 1,532G)
J2DaBibbles: 666G (2.1%, 7,659G)
ungabunga_bot: 450G (1.4%, 13,536G)
Firesheath: 402G (1.3%, 804G)
CorpusCav: 300G (1.0%, 4,272G)
ugoplatamia: 200G (0.6%, 45,013G)
ll_aja_ll: 200G (0.6%, 1,700G)
AllInBot: 135G (0.4%, 135G)
Tougou: 100G (0.3%, 3,191G)
moonliquor: 100G (0.3%, 217G)
ANFz: 100G (0.3%, 1,973G)
Lythe_Caraker: 100G (0.3%, 47,100G)
ko2q: 1G (0.0%, 2,698G)
