Final Bets: red - 5 bets for 3,550G (39.5%, x1.53); blue - 14 bets for 5,439G (60.5%, x0.65)

red bets:
sinnyil2: 2,658G (74.9%, 2,658G)
prince_rogers_nelson_: 500G (14.1%, 7,050G)
DAC169: 192G (5.4%, 192G)
Lythe_Caraker: 100G (2.8%, 119,108G)
datadrivenbot: 100G (2.8%, 36,121G)

blue bets:
BirbBrainsBot: 1,000G (18.4%, 34,877G)
getthemoneyz: 916G (16.8%, 874,904G)
superdevon1: 844G (15.5%, 8,446G)
AllInBot: 693G (12.7%, 693G)
Spuzzmocker: 394G (7.2%, 394G)
Mesmaster: 324G (6.0%, 324G)
ASkyNightly: 250G (4.6%, 554G)
fluffskull: 201G (3.7%, 201G)
Zachara: 200G (3.7%, 101,600G)
kaidykat: 200G (3.7%, 27,251G)
roseblood__: 116G (2.1%, 116G)
gorgewall: 101G (1.9%, 1,872G)
CT_5_Holy: 100G (1.8%, 2,093G)
Ring_Wyrm: 100G (1.8%, 1,219G)
