Final Bets: black - 8 bets for 3,925G (43.9%, x1.28); purple - 8 bets for 5,015G (56.1%, x0.78)

black bets:
BlackFireUK: 1,000G (25.5%, 26,992G)
prince_rogers_nelson_: 1,000G (25.5%, 6,179G)
NicoSavoy: 584G (14.9%, 584G)
Digitalsocrates: 428G (10.9%, 428G)
getthemoneyz: 306G (7.8%, 875,504G)
DAC169: 283G (7.2%, 283G)
Spuzzmocker: 224G (5.7%, 224G)
datadrivenbot: 100G (2.5%, 36,043G)

purple bets:
Evewho: 1,469G (29.3%, 2,881G)
BirbBrainsBot: 1,000G (19.9%, 33,004G)
AllInBot: 938G (18.7%, 938G)
superdevon1: 717G (14.3%, 11,952G)
Mesmaster: 478G (9.5%, 478G)
Nitzurian: 200G (4.0%, 2,060G)
fluffskull: 112G (2.2%, 112G)
gorgewall: 101G (2.0%, 4,307G)
