Final Bets: white - 10 bets for 9,130G (48.0%, x1.08); purple - 11 bets for 9,904G (52.0%, x0.92)

white bets:
DustBirdEX: 3,298G (36.1%, 3,298G)
UmaiJam: 1,600G (17.5%, 65,609G)
BirbBrainsBot: 1,000G (11.0%, 133,005G)
CT_5_Holy: 748G (8.2%, 748G)
getthemoneyz: 668G (7.3%, 1,423,957G)
Laserman1000: 655G (7.2%, 3,755G)
solomongrundy85: 600G (6.6%, 2,152G)
douchetron: 360G (3.9%, 360G)
mrpickins: 101G (1.1%, 5,201G)
Firesheath: 100G (1.1%, 12,060G)

purple bets:
SkylerBunny: 4,445G (44.9%, 95,899G)
Shalloween: 2,986G (30.1%, 5,973G)
superdevon1: 605G (6.1%, 30,289G)
Grandlanzer: 500G (5.0%, 119,671G)
gorgewall: 301G (3.0%, 7,849G)
DaKoopa49: 267G (2.7%, 1,103G)
AllInBot: 200G (2.0%, 200G)
DAC169: 200G (2.0%, 2,414G)
datadrivenbot: 200G (2.0%, 45,453G)
victoriolue: 100G (1.0%, 5,750G)
TheseJeans: 100G (1.0%, 259G)
