Final Bets: red - 14 bets for 11,354G (70.2%, x0.42); blue - 10 bets for 4,814G (29.8%, x2.36)

red bets:
Mesmaster: 5,000G (44.0%, 199,865G)
gorgewall: 1,104G (9.7%, 1,104G)
BirbBrainsBot: 1,000G (8.8%, 64,177G)
NicoSavoy: 960G (8.5%, 960G)
getthemoneyz: 826G (7.3%, 1,813,448G)
Laserman1000: 600G (5.3%, 2,800G)
Lemonjohns: 420G (3.7%, 5,217G)
blorpy_: 344G (3.0%, 344G)
turquoise_mage: 200G (1.8%, 2,200G)
fantastadon: 200G (1.8%, 800G)
datadrivenbot: 200G (1.8%, 65,343G)
thunderducker: 200G (1.8%, 2,698G)
macradarkstar: 200G (1.8%, 1,753G)
DeathTaxesAndAnime: 100G (0.9%, 18,207G)

blue bets:
BaronHaynes: 2,000G (41.5%, 57,572G)
lijarkh: 592G (12.3%, 10,470G)
3ngag3: 524G (10.9%, 3,524G)
TrogdorTheMemeinator: 467G (9.7%, 467G)
lowlf: 456G (9.5%, 456G)
Raixelol: 368G (7.6%, 368G)
PuzzleSecretary: 176G (3.7%, 1,042G)
FriendlySkeleton: 130G (2.7%, 130G)
Yangusburger: 100G (2.1%, 8,974G)
Chuckolator: 1G (0.0%, 10,931G)
