Final Bets: green - 12 bets for 11,419G (38.3%, x1.61); champion - 10 bets for 18,415G (61.7%, x0.62)

green bets:
3ngag3: 6,000G (52.5%, 6,000G)
fattunaking: 1,000G (8.8%, 4,145G)
BirbBrainsBot: 1,000G (8.8%, 64,052G)
Mesmaster: 1,000G (8.8%, 199,901G)
lijarkh: 592G (5.2%, 18,549G)
reinoe: 500G (4.4%, 30,597G)
lowlf: 456G (4.0%, 6,694G)
DaveStrider55: 336G (2.9%, 336G)
getthemoneyz: 156G (1.4%, 1,812,663G)
FriendlySkeleton: 150G (1.3%, 1,594G)
MADSUPERVILLAIN: 129G (1.1%, 3,129G)
macradarkstar: 100G (0.9%, 1,759G)

champion bets:
iBardic: 15,000G (81.5%, 18,329G)
TrogdorTheMemeinator: 1,000G (5.4%, 9,531G)
BaronHaynes: 1,000G (5.4%, 58,952G)
Raixelol: 368G (2.0%, 368G)
thunderducker: 250G (1.4%, 2,195G)
turquoise_mage: 220G (1.2%, 220G)
datadrivenbot: 200G (1.1%, 64,974G)
PuzzleSecretary: 176G (1.0%, 2,410G)
gorgewall: 101G (0.5%, 3,775G)
DeathTaxesAndAnime: 100G (0.5%, 18,223G)
