Final Bets: white - 20 bets for 19,434G (56.0%, x0.79); black - 23 bets for 15,286G (44.0%, x1.27)

white bets:
Mesmaster: 5,000G (25.7%, 218,116G)
nhammen: 4,000G (20.6%, 412,563G)
3ngag3: 2,000G (10.3%, 14,000G)
NicoSavoy: 2,000G (10.3%, 52,721G)
sinnyil2: 1,200G (6.2%, 50,607G)
BirbBrainsBot: 1,000G (5.1%, 147,721G)
Thyrandaal: 712G (3.7%, 712G)
thunderducker: 564G (2.9%, 564G)
akash7: 500G (2.6%, 5,000G)
getthemoneyz: 438G (2.3%, 1,879,913G)
holdenmagronik: 404G (2.1%, 3,309G)
silentkaster: 372G (1.9%, 372G)
mindblownnnn: 300G (1.5%, 2,021G)
AllInBot: 284G (1.5%, 284G)
Rytor: 200G (1.0%, 7,541G)
W0RLDEND: 150G (0.8%, 7,141G)
Lyner87: 100G (0.5%, 101,896G)
Lushifah: 100G (0.5%, 1,301G)
Sietaha: 100G (0.5%, 1,967G)
BartTradingCompany: 10G (0.1%, 100G)

black bets:
Virilikus: 5,000G (32.7%, 245,434G)
Segomod: 2,000G (13.1%, 38,351G)
FUong: 1,004G (6.6%, 1,004G)
VolgraTheMoose: 1,001G (6.5%, 53,235G)
notsashasia: 1,000G (6.5%, 38,681G)
Lord_Gwarth: 700G (4.6%, 5,928G)
run_with_stone_GUNs: 624G (4.1%, 25,490G)
Snowfats: 546G (3.6%, 546G)
Smashy: 500G (3.3%, 8,877G)
snkey: 420G (2.7%, 420G)
ColetteMSLP: 400G (2.6%, 4,907G)
threedope: 307G (2.0%, 307G)
ribbiks: 248G (1.6%, 248G)
resjudicata3: 200G (1.3%, 5,999G)
datadrivenbot: 200G (1.3%, 58,054G)
CosmicTactician: 200G (1.3%, 30,602G)
CorpusCav: 191G (1.2%, 27,000G)
Neech: 176G (1.2%, 176G)
khelor_: 144G (0.9%, 144G)
calle888: 116G (0.8%, 116G)
heyBtw: 108G (0.7%, 108G)
gorgewall: 101G (0.7%, 3,420G)
Blastinus: 100G (0.7%, 2,323G)
