Final Bets: purple - 14 bets for 8,425G (41.8%, x1.39); brown - 19 bets for 11,752G (58.2%, x0.72)

purple bets:
NovaKnight21: 2,000G (23.7%, 20,101G)
NicoSavoy: 2,000G (23.7%, 187,285G)
BirbBrainsBot: 1,000G (11.9%, 152,740G)
killth3kid: 700G (8.3%, 100,275G)
dantayystv: 538G (6.4%, 538G)
getthemoneyz: 438G (5.2%, 1,277,217G)
flacococo: 370G (4.4%, 370G)
benticore: 250G (3.0%, 16,490G)
Treafa: 228G (2.7%, 879G)
gorgewall: 201G (2.4%, 4,768G)
AllInBot: 200G (2.4%, 200G)
BoneMiser: 200G (2.4%, 5,953G)
dem0nj0ns: 200G (2.4%, 2,437G)
cocomilko: 100G (1.2%, 776G)

brown bets:
reinoe: 2,000G (17.0%, 39,935G)
Evewho: 2,000G (17.0%, 7,887G)
Creggers: 1,000G (8.5%, 36,265G)
WitchHunterIX: 1,000G (8.5%, 30,950G)
TasisSai: 832G (7.1%, 1,632G)
HaateXIII: 744G (6.3%, 744G)
Laserman1000: 600G (5.1%, 26,500G)
datadrivenbot: 579G (4.9%, 42,464G)
superdevon1: 546G (4.6%, 10,939G)
LAGBOT30000: 532G (4.5%, 10,646G)
silentkaster: 345G (2.9%, 15,211G)
randgridr: 324G (2.8%, 2,958G)
Wonser: 300G (2.6%, 588G)
Lemonjohns: 250G (2.1%, 1,675G)
Mysteriousdewd: 200G (1.7%, 25,414G)
IDruggedShamu: 200G (1.7%, 6,455G)
fluffskull: 100G (0.9%, 1,924G)
furrytomahawkk: 100G (0.9%, 1,549G)
el_nurdy: 100G (0.9%, 1,000G)
