Player: !Red
Team: Red Team
Palettes: Red/Brown



CassiePhoenix
Monster
Virgo
67
64
Dryad










Maakur
Male
Aries
59
76
Thief
Basic Skill
Regenerator
Beastmaster
Retreat

Air Knife

Headgear
Brigandine
Leather Mantle

Steal Armor, Steal Shield, Steal Weapon, Leg Aim
Heal



Draconis345
Monster
Libra
56
51
Coeurl










Catfashions
Monster
Capricorn
52
52
Pisco Demon







