Final Bets: red - 21 bets for 11,577G (57.7%, x0.73); blue - 27 bets for 8,471G (42.3%, x1.37)

red bets:
Zeroroute: 2,132G (18.4%, 2,132G)
HaychDub: 1,200G (10.4%, 12,607G)
Aldrammech: 1,000G (8.6%, 68,089G)
WireLord: 1,000G (8.6%, 54,491G)
Lionhermit: 1,000G (8.6%, 27,440G)
L_M_D: 936G (8.1%, 936G)
Laserman1000: 767G (6.6%, 55,767G)
Mirrorclaw: 724G (6.3%, 724G)
killth3kid: 500G (4.3%, 26,324G)
rico_flex: 500G (4.3%, 23,743G)
HaplessOne: 292G (2.5%, 2,923G)
ANFz: 256G (2.2%, 18,908G)
powergems: 250G (2.2%, 14,900G)
vorap: 200G (1.7%, 22,074G)
TheRylander: 200G (1.7%, 601G)
skuldar: 120G (1.0%, 120G)
FoeSquirrel: 100G (0.9%, 6,596G)
Evewho: 100G (0.9%, 16,742G)
Squatting_Bear: 100G (0.9%, 291G)
benticore: 100G (0.9%, 3,636G)
Dymntd: 100G (0.9%, 120G)

blue bets:
Lanshaft: 1,000G (11.8%, 17,696G)
ungabunga_bot: 1,000G (11.8%, 266,239G)
BirbBrainsBot: 1,000G (11.8%, 41,940G)
Oreo_Pizza: 500G (5.9%, 6,604G)
Billybones5150: 500G (5.9%, 15,917G)
Breakdown777: 500G (5.9%, 34,182G)
getthemoneyz: 402G (4.7%, 584,645G)
ZephyrTempest: 400G (4.7%, 1,964G)
DeathTaxesAndAnime: 300G (3.5%, 8,145G)
RunicMagus: 300G (3.5%, 54,173G)
haigy: 300G (3.5%, 2,216G)
FoxtrotNovemberCharlie: 256G (3.0%, 256G)
ProdigyAzn: 216G (2.5%, 216G)
nuka1120: 208G (2.5%, 208G)
LivingHitokiri: 200G (2.4%, 3,952G)
twelfthrootoftwo: 200G (2.4%, 1,329G)
Kronikle: 200G (2.4%, 2,897G)
b0shii: 123G (1.5%, 2,051G)
sandball: 116G (1.4%, 116G)
maakur_: 100G (1.2%, 112,978G)
CosmicTactician: 100G (1.2%, 3,233G)
Conome: 100G (1.2%, 3,801G)
dorman_777: 100G (1.2%, 108G)
JarlBrolaf: 100G (1.2%, 100G)
datadrivenbot: 100G (1.2%, 3,849G)
Aremath: 100G (1.2%, 3,596G)
DrAntiSocial: 50G (0.6%, 21,415G)
