Final Bets: purple - 13 bets for 6,633G (32.8%, x2.05); brown - 22 bets for 13,584G (67.2%, x0.49)

purple bets:
killth3kid: 1,639G (24.7%, 27,327G)
reinoe: 1,000G (15.1%, 12,471G)
Thyrandaal: 1,000G (15.1%, 38,053G)
BirbBrainsBot: 1,000G (15.1%, 30,767G)
red__lancer: 1,000G (15.1%, 90,483G)
ColetteMSLP: 300G (4.5%, 4,349G)
getthemoneyz: 140G (2.1%, 958,061G)
DamnThatShark: 104G (1.6%, 104G)
AllInBot: 100G (1.5%, 100G)
Koorndog: 100G (1.5%, 100G)
ANFz: 100G (1.5%, 3,058G)
datadrivenbot: 100G (1.5%, 39,495G)
AltimaMantoid: 50G (0.8%, 800G)

brown bets:
roofiepops: 3,252G (23.9%, 3,252G)
actual_JP: 2,069G (15.2%, 2,069G)
OneHundredFists: 1,471G (10.8%, 2,885G)
DeadGirlzREasy: 1,000G (7.4%, 24,242G)
nifboy: 751G (5.5%, 751G)
KittymanAdvance: 614G (4.5%, 614G)
sinnyil2: 555G (4.1%, 23,499G)
HaychDub: 550G (4.0%, 37,593G)
Laserman1000: 530G (3.9%, 64,430G)
kaidykat: 500G (3.7%, 26,593G)
Azelgrim: 500G (3.7%, 1,918G)
Baron_von_Scrub: 408G (3.0%, 408G)
gorgewall: 301G (2.2%, 20,942G)
TheChainNerd: 281G (2.1%, 7,281G)
NightwolfXVI: 116G (0.9%, 116G)
MadnessR: 100G (0.7%, 1,922G)
sir_uther115: 100G (0.7%, 2,120G)
Saouri: 100G (0.7%, 100G)
mountaindrew184: 100G (0.7%, 700G)
Frozeit: 100G (0.7%, 245G)
CT_5_Holy: 100G (0.7%, 622G)
silentkaster: 86G (0.6%, 1,086G)
