Final Bets: purple - 17 bets for 11,098G (47.4%, x1.11); champion - 16 bets for 12,331G (52.6%, x0.90)

purple bets:
Mesmaster: 3,000G (27.0%, 17,899G)
Geffro1908: 1,488G (13.4%, 1,488G)
lowlf: 1,222G (11.0%, 111,279G)
EnemyController: 1,111G (10.0%, 1,459,117G)
BirbBrainsBot: 1,000G (9.0%, 90,149G)
NicoSavoy: 1,000G (9.0%, 235,194G)
ColetteMSLP: 400G (3.6%, 6,635G)
BlueAbs: 300G (2.7%, 2,145G)
unclebearboy: 300G (2.7%, 9,180G)
Xoomwaffle: 250G (2.3%, 1,155G)
datadrivenbot: 200G (1.8%, 33,746G)
getthemoneyz: 198G (1.8%, 1,326,107G)
JDogg2K4: 176G (1.6%, 176G)
Rytor: 153G (1.4%, 663G)
nifboy: 100G (0.9%, 1,559G)
TasisSai: 100G (0.9%, 545G)
Legionx13: 100G (0.9%, 3,870G)

champion bets:
reinoe: 4,000G (32.4%, 95,060G)
randgridr: 2,525G (20.5%, 2,525G)
AllInBot: 862G (7.0%, 862G)
Zeroroute: 829G (6.7%, 829G)
Laserman1000: 810G (6.6%, 33,910G)
superdevon1: 684G (5.5%, 6,841G)
TheMurkGnome: 512G (4.2%, 512G)
Snoopiku: 508G (4.1%, 20,558G)
DejaPoo21: 500G (4.1%, 11,069G)
RyanTheRebs: 300G (2.4%, 3,246G)
gorgewall: 201G (1.6%, 6,188G)
furrytomahawkk: 200G (1.6%, 1,666G)
moocaotao: 100G (0.8%, 3,688G)
Miku_Shikhu: 100G (0.8%, 14,647G)
Grandlanzer: 100G (0.8%, 93,997G)
Kellios11: 100G (0.8%, 29,107G)
