Final Bets: white - 15 bets for 14,284G (51.5%, x0.94); brown - 28 bets for 13,454G (48.5%, x1.06)

white bets:
Aldrammech: 8,118G (56.8%, 40,593G)
reinoe: 1,600G (11.2%, 1,600G)
Shalloween: 1,200G (8.4%, 50,673G)
rico_flex: 681G (4.8%, 681G)
I_nod_my_head_when_I_lose: 400G (2.8%, 9,896G)
holyonline: 400G (2.8%, 1,700G)
lunaticruin: 372G (2.6%, 2,124G)
TheRobbieRobster: 313G (2.2%, 313G)
Tyerenex: 300G (2.1%, 1,652G)
ugoplatamia: 200G (1.4%, 5,999G)
silentperogy: 200G (1.4%, 3,851G)
urieltheflameofgod: 200G (1.4%, 2,754G)
AllInBot: 100G (0.7%, 100G)
Tithonus: 100G (0.7%, 7,900G)
Aisuhiko: 100G (0.7%, 3,981G)

brown bets:
Zetchryn: 4,419G (32.8%, 17,677G)
BirbBrainsBot: 1,000G (7.4%, 130,665G)
bad1dea: 1,000G (7.4%, 340,403G)
Zeroroute: 1,000G (7.4%, 7,405G)
Lanshaft: 600G (4.5%, 9,469G)
DarrenDinosaurs: 500G (3.7%, 6,437G)
DeathTaxesAndAnime: 500G (3.7%, 500G)
Snowfats: 490G (3.6%, 490G)
Evewho: 400G (3.0%, 4,574G)
RRazza: 340G (2.5%, 340G)
OmnibotGamma: 324G (2.4%, 324G)
DustBirdEX: 300G (2.2%, 3,097G)
Baron_von_Scrub: 252G (1.9%, 2,977G)
alrightbye: 252G (1.9%, 252G)
ZephyrTempest: 219G (1.6%, 23,655G)
rrazzoug: 200G (1.5%, 2,500G)
Yasmosis: 200G (1.5%, 1,264G)
rubenflonne: 200G (1.5%, 6,968G)
NUMBER1DB: 200G (1.5%, 1,589G)
nerdynel17: 192G (1.4%, 192G)
getthemoneyz: 154G (1.1%, 402,483G)
Vyroxe: 112G (0.8%, 112G)
ANFz: 100G (0.7%, 15,247G)
Basmal: 100G (0.7%, 53,631G)
Alc_Trinity: 100G (0.7%, 30,128G)
BadBlanket: 100G (0.7%, 2,308G)
PotionDweller: 100G (0.7%, 23,647G)
datadrivenbot: 100G (0.7%, 15,010G)
