High Risers:
1. OneHundredFists: +4,035G
2. Lythe_Caraker: +3,173G
3. ser_pyrro: +2,353G
4. CorpusCav: +951G
5. lotharek: +844G
6. helpimabug: +671G
7. mindblownnnn: +587G
8. ghazzzzzz: +507G
9. Willjin: +371G
10. bruubarg: +290G
11. ko2q: +188G
12. upvla: +120G
13. ValensEXP_: +114G
14. HaplessOne: +95G
15. reddwind_: +81G
16. lijarkh: +65G
17. Lolthsmeat: +37G
18. LivingHitokiri: +32G
19. ayeCoop: +17G
20. ar_tactic: -58G
21. srdonko2098: -73G
22. NicoSavoy: -149G
23. ALY327: -300G
24. MemoriesofFinal: -427G
25. AltimaMantoid: -436G
26. Firesheath: -668G
27. ApplesNP: -681G
28. Chuckolator: -706G
29. LadyCyan: -836G
30. Laserman1000: -900G
31. DeathTaxesAndAnime: -979G
32. vorap: -1,000G
33. gargola2498: -1,205G
34. killth3kid: -1,451G
35. fattunaking: -2,022G
36. iBluntDouble: -2,751G
