Final Bets: brown - 14 bets for 7,805G (61.4%, x0.63); champion - 11 bets for 4,907G (38.6%, x1.59)

brown bets:
SephDarkheart: 1,751G (22.4%, 1,751G)
VolgraTheMoose: 1,655G (21.2%, 3,311G)
nhammen: 700G (9.0%, 10,440G)
Aldrammech: 508G (6.5%, 508G)
Lanshaft: 504G (6.5%, 16,812G)
Thyrandaal: 500G (6.4%, 165,525G)
Zagorsek: 402G (5.2%, 804G)
Breakdown777: 344G (4.4%, 344G)
Xoomwaffle: 324G (4.2%, 8,449G)
RageImmortaI: 308G (3.9%, 2,709G)
roqqqpsi: 209G (2.7%, 220G)
gongonono: 200G (2.6%, 780G)
datadrivenbot: 200G (2.6%, 41,195G)
ribbiks: 200G (2.6%, 5,202G)

champion bets:
Lydian_C: 1,200G (24.5%, 24,194G)
dogsandcatsand: 1,007G (20.5%, 11,351G)
benticore: 500G (10.2%, 37,766G)
Bururururu: 500G (10.2%, 1,949G)
getthemoneyz: 458G (9.3%, 1,392,622G)
Scurg: 400G (8.2%, 8,576G)
Mathlexis: 240G (4.9%, 240G)
AllInBot: 200G (4.1%, 200G)
BirbBrainsBot: 163G (3.3%, 79,793G)
ArlanKels: 139G (2.8%, 2,792G)
GrayGhostGaming: 100G (2.0%, 29,896G)
