Final Bets: red - 13 bets for 9,350G (59.5%, x0.68); white - 8 bets for 6,364G (40.5%, x1.47)

red bets:
ser_pyrro: 3,000G (32.1%, 8,646G)
pplvee1: 1,002G (10.7%, 8,989G)
Thyrandaal: 1,000G (10.7%, 12,611G)
BirbBrainsBot: 1,000G (10.7%, 115,337G)
highelectricaltemperature: 700G (7.5%, 1,905G)
Runeseeker22: 692G (7.4%, 13,848G)
getthemoneyz: 556G (5.9%, 1,931,352G)
Panushenko: 364G (3.9%, 364G)
ArrenJevleth: 300G (3.2%, 11,018G)
Smugzug: 276G (3.0%, 276G)
datadrivenbot: 200G (2.1%, 61,040G)
AllInBot: 160G (1.7%, 160G)
heyBtw: 100G (1.1%, 2,072G)

white bets:
E_Ballard: 3,763G (59.1%, 3,763G)
CorpusCav: 1,200G (18.9%, 17,676G)
Rytor: 500G (7.9%, 500G)
LivingHitokiri: 300G (4.7%, 300G)
tripaplex: 200G (3.1%, 248G)
FlavaFraze: 200G (3.1%, 200G)
gorgewall: 101G (1.6%, 12,404G)
BartTradingCompany: 100G (1.6%, 8,385G)
