Final Bets: red - 12 bets for 5,919G (62.3%, x0.60); champion - 11 bets for 3,577G (37.7%, x1.65)

red bets:
roqqqpsi: 2,216G (37.4%, 20,146G)
Mesmaster: 1,000G (16.9%, 59,320G)
sinnyil2: 872G (14.7%, 872G)
BirbBrainsBot: 426G (7.2%, 163,272G)
gorgewall: 301G (5.1%, 9,379G)
Sungazes: 250G (4.2%, 3,342G)
kaidykat: 210G (3.5%, 4,213G)
maleblackfiora: 200G (3.4%, 892G)
CrownOfHorns: 132G (2.2%, 132G)
zepharoth89: 112G (1.9%, 112G)
itszaane: 100G (1.7%, 2,882G)
datadrivenbot: 100G (1.7%, 20,351G)

champion bets:
Firesheath: 984G (27.5%, 984G)
YaBoy125: 560G (15.7%, 1,400G)
bruubarg: 400G (11.2%, 3,004G)
StealthModeLocke: 340G (9.5%, 340G)
vorap: 300G (8.4%, 86,596G)
GnielKnows: 251G (7.0%, 502G)
Lydian_C: 230G (6.4%, 1,406G)
Devrology101: 150G (4.2%, 1,537G)
getthemoneyz: 138G (3.9%, 716,705G)
cloud92684: 124G (3.5%, 124G)
AllInBot: 100G (2.8%, 100G)
