Final Bets: red - 37 bets for 86,992G (93.7%, x0.07); blue - 16 bets for 5,874G (6.3%, x14.81)

red bets:
rico_flex: 23,569G (27.1%, 23,569G)
mpghappiness: 17,416G (20.0%, 17,416G)
Error72: 8,320G (9.6%, 8,320G)
alecttox: 6,220G (7.2%, 6,220G)
Laserman1000: 3,350G (3.9%, 6,700G)
HaplessOne: 2,705G (3.1%, 5,304G)
Dymntd: 2,431G (2.8%, 2,431G)
ShintaroNayaka: 1,882G (2.2%, 4,210G)
gabbagooluigi: 1,656G (1.9%, 1,656G)
FriendSquirrel: 1,324G (1.5%, 1,324G)
sinnyil2: 1,315G (1.5%, 1,315G)
CapnChaos12: 1,093G (1.3%, 1,093G)
E_Ballard: 1,057G (1.2%, 1,057G)
DeathTaxesAndAnime: 1,053G (1.2%, 1,053G)
Aldrammech: 1,000G (1.1%, 5,716G)
edgehead62888: 1,000G (1.1%, 4,255G)
CosmicTactician: 1,000G (1.1%, 7,300G)
ferroniss: 1,000G (1.1%, 8,873G)
Sairentozon7: 924G (1.1%, 924G)
RunicMagus: 900G (1.0%, 33,826G)
Digitalsocrates: 826G (0.9%, 826G)
tronfonne: 823G (0.9%, 823G)
ColetteMSLP: 800G (0.9%, 60,028G)
Evewho: 692G (0.8%, 692G)
killth3kid: 576G (0.7%, 9,133G)
CorpusCav: 543G (0.6%, 543G)
Nizaha: 501G (0.6%, 13,101G)
DLJuggernaut: 500G (0.6%, 4,051G)
luminarii: 500G (0.6%, 17,956G)
moonliquor: 427G (0.5%, 427G)
Lanshaft: 388G (0.4%, 2,687G)
Firesheath: 300G (0.3%, 300G)
Letsfighting: 300G (0.3%, 413G)
gorgewall: 201G (0.2%, 12,868G)
ungabunga_bot: 200G (0.2%, 509,439G)
GrayGhostGaming: 100G (0.1%, 8,435G)
benticore: 100G (0.1%, 6,218G)

blue bets:
BirbBrainsBot: 1,000G (17.0%, 175,843G)
Mesmaster: 1,000G (17.0%, 83,612G)
bruubarg: 883G (15.0%, 4,883G)
Tsuike: 657G (11.2%, 657G)
Saga_A: 416G (7.1%, 416G)
KasugaiRoastedPeas: 368G (6.3%, 368G)
skillomono: 300G (5.1%, 3,871G)
jakeduhhsnake: 268G (4.6%, 268G)
pandasforsale: 222G (3.8%, 17,520G)
KonzeraLive: 200G (3.4%, 16,549G)
KabukiJake: 200G (3.4%, 1,659G)
AmaninAmide: 100G (1.7%, 885G)
ar_tactic: 100G (1.7%, 44,930G)
FoeSquirrel: 100G (1.7%, 1,261G)
DoublePrizes: 50G (0.9%, 1,608G)
twelfthrootoftwo: 10G (0.2%, 15,490G)
