Final Bets: red - 15 bets for 9,921G (62.4%, x0.60); blue - 14 bets for 5,971G (37.6%, x1.66)

red bets:
evontno: 2,054G (20.7%, 2,054G)
Narcius: 2,000G (20.2%, 302,721G)
Forkmore: 1,200G (12.1%, 2,354G)
Aldrammech: 1,000G (10.1%, 46,914G)
Shalloween: 1,000G (10.1%, 16,493G)
VolgraTheMoose: 974G (9.8%, 974G)
Laserman1000: 896G (9.0%, 896G)
datadrivenbot: 200G (2.0%, 64,703G)
gorgewall: 101G (1.0%, 4,332G)
AllInBot: 100G (1.0%, 100G)
RunicMagus: 100G (1.0%, 8,263G)
Drusiform: 100G (1.0%, 7,999G)
Twisted_Nutsatchel: 100G (1.0%, 22,467G)
3ngag3: 95G (1.0%, 2,995G)
SephDarkheart: 1G (0.0%, 123,628G)

blue bets:
BirbBrainsBot: 1,000G (16.7%, 54,558G)
Nizaha: 748G (12.5%, 8,946G)
Lanshaft: 604G (10.1%, 8,347G)
HaateXIII: 500G (8.4%, 3,903G)
evdoggity: 500G (8.4%, 234,530G)
Amorial: 500G (8.4%, 3,297G)
Skjodo: 408G (6.8%, 4,085G)
lowlf: 344G (5.8%, 344G)
Blastinus: 332G (5.6%, 332G)
nekojin: 307G (5.1%, 602G)
CapnChaos12: 300G (5.0%, 3,261G)
getthemoneyz: 228G (3.8%, 1,673,686G)
MinBetBot: 100G (1.7%, 7,070G)
Docrad_: 100G (1.7%, 1,129G)
