Final Bets: green - 12 bets for 7,198G (59.6%, x0.68); yellow - 8 bets for 4,883G (40.4%, x1.47)

green bets:
Narcius: 2,000G (27.8%, 303,925G)
Forkmore: 1,568G (21.8%, 3,076G)
VolgraTheMoose: 1,560G (21.7%, 1,560G)
Skjodo: 735G (10.2%, 3,677G)
ANFz: 432G (6.0%, 432G)
datadrivenbot: 200G (2.8%, 64,823G)
Docrad_: 200G (2.8%, 1,029G)
3ngag3: 152G (2.1%, 3,052G)
gorgewall: 101G (1.4%, 4,393G)
MinBetBot: 100G (1.4%, 6,970G)
Aldrammech: 100G (1.4%, 47,516G)
Drusiform: 50G (0.7%, 8,059G)

yellow bets:
Shalloween: 1,300G (26.6%, 17,095G)
sinnyil2: 1,079G (22.1%, 1,079G)
BirbBrainsBot: 1,000G (20.5%, 53,558G)
Nizaha: 748G (15.3%, 8,198G)
CapnChaos12: 300G (6.1%, 2,961G)
Amorial: 200G (4.1%, 2,797G)
AllInBot: 160G (3.3%, 160G)
getthemoneyz: 96G (2.0%, 1,673,458G)
