Final Bets: blue - 13 bets for 7,021G (51.4%, x0.94); yellow - 10 bets for 6,634G (48.6%, x1.06)

blue bets:
Thyrandaal: 1,816G (25.9%, 3,562G)
hotpocketsofficial: 1,600G (22.8%, 1,600G)
BirbBrainsBot: 1,000G (14.2%, 57,968G)
silentkaster: 800G (11.4%, 800G)
Raixelol: 596G (8.5%, 16,762G)
ValensEXP_: 264G (3.8%, 1,584G)
ar_tactic: 250G (3.6%, 102,113G)
datadrivenbot: 200G (2.8%, 55,669G)
7Cerulean7: 120G (1.7%, 5,280G)
gorgewall: 101G (1.4%, 7,121G)
AllInBot: 100G (1.4%, 100G)
Error72: 100G (1.4%, 57,779G)
getthemoneyz: 74G (1.1%, 1,917,576G)

yellow bets:
upvla: 2,409G (36.3%, 2,409G)
NicoSavoy: 2,000G (30.1%, 46,681G)
krombobreaker: 500G (7.5%, 3,888G)
DaveStrider55: 420G (6.3%, 2,336G)
seppu777: 333G (5.0%, 5,772G)
Neech: 296G (4.5%, 2,062G)
brodeity: 272G (4.1%, 1,268G)
ser_pyrro: 204G (3.1%, 204G)
BartTradingCompany: 100G (1.5%, 4,096G)
MemoriesofFinal: 100G (1.5%, 4,976G)
