Final Bets: blue - 12 bets for 4,530G (32.3%, x2.10); purple - 11 bets for 9,500G (67.7%, x0.48)

blue bets:
bruubarg: 1,600G (35.3%, 1,600G)
run_with_stone_GUNs: 672G (14.8%, 27,569G)
BirbBrainsBot: 633G (14.0%, 57,913G)
Neech: 296G (6.5%, 1,470G)
ValensEXP_: 264G (5.8%, 2,207G)
getthemoneyz: 210G (4.6%, 1,917,404G)
ser_pyrro: 204G (4.5%, 204G)
datadrivenbot: 200G (4.4%, 55,658G)
ar_tactic: 150G (3.3%, 102,199G)
gorgewall: 101G (2.2%, 7,115G)
BartTradingCompany: 100G (2.2%, 3,896G)
AllInBot: 100G (2.2%, 100G)

purple bets:
BappleTrees: 2,683G (28.2%, 2,683G)
brodeity: 1,406G (14.8%, 1,406G)
upvla: 1,208G (12.7%, 1,208G)
Error72: 1,001G (10.5%, 57,773G)
NicoSavoy: 1,000G (10.5%, 43,681G)
Raixelol: 596G (6.3%, 18,168G)
MemoriesofFinal: 500G (5.3%, 4,880G)
krombobreaker: 500G (5.3%, 4,096G)
FoeSquirrel: 286G (3.0%, 572G)
aceof86: 200G (2.1%, 4,557G)
7Cerulean7: 120G (1.3%, 5,243G)
