Final Bets: blue - 9 bets for 5,448G (56.4%, x0.77); green - 5 bets for 4,205G (43.6%, x1.30)

blue bets:
Digitalsocrates: 1,218G (22.4%, 2,215G)
BirbBrainsBot: 1,000G (18.4%, 187,562G)
Mysteriousdewd: 830G (15.2%, 830G)
getthemoneyz: 792G (14.5%, 1,175,559G)
NightwolfXVI: 500G (9.2%, 5,091G)
Evewho: 500G (9.2%, 6,014G)
twelfthrootoftwo: 300G (5.5%, 10,605G)
Aquios_: 208G (3.8%, 208G)
GRRR12: 100G (1.8%, 100G)

green bets:
E_Ballard: 1,891G (45.0%, 1,891G)
Ring_Wyrm: 1,054G (25.1%, 1,054G)
Smokegiant: 500G (11.9%, 94,382G)
josephiroth_143: 392G (9.3%, 392G)
superdevon1: 368G (8.8%, 368G)
