Final Bets: red - 13 bets for 12,562G (71.5%, x0.40); blue - 7 bets for 5,000G (28.5%, x2.51)

red bets:
YaBoy125: 6,632G (52.8%, 6,632G)
sinnyil2: 1,200G (9.6%, 14,884G)
JackOnFire1: 849G (6.8%, 849G)
upvla: 765G (6.1%, 31,563G)
leakimiko: 600G (4.8%, 600G)
datadrivenbot: 593G (4.7%, 25,574G)
getthemoneyz: 482G (3.8%, 480,269G)
AllInBot: 330G (2.6%, 330G)
V3rdeni: 300G (2.4%, 2,265G)
ungabunga_bot: 294G (2.3%, 120,477G)
CT_5_Holy: 216G (1.7%, 216G)
Aneyus: 201G (1.6%, 20,164G)
Kojigawatz: 100G (0.8%, 100G)

blue bets:
SeedSC: 1,200G (24.0%, 235,265G)
rocl: 1,000G (20.0%, 66,052G)
BirbBrainsBot: 1,000G (20.0%, 75,919G)
HaplessOne: 1,000G (20.0%, 51,082G)
WhiteDog420: 400G (8.0%, 9,905G)
KasugaiRoastedPeas: 200G (4.0%, 11,291G)
lijarkh: 200G (4.0%, 3,644G)
