Final Bets: green - 15 bets for 31,733G (59.3%, x0.69); yellow - 23 bets for 21,756G (40.7%, x1.46)

green bets:
LeepingJJ: 21,628G (68.2%, 21,628G)
moonliquor: 5,000G (15.8%, 10,260G)
hydroshade: 1,000G (3.2%, 13,315G)
lijarkh: 1,000G (3.2%, 17,630G)
Lali_Lulelo: 568G (1.8%, 568G)
waterwatereverywhere: 500G (1.6%, 2,014G)
ZephyrTempest: 456G (1.4%, 2,472G)
electric_glass: 349G (1.1%, 349G)
gorgewall: 300G (0.9%, 7,044G)
RestIessNight: 240G (0.8%, 240G)
Evode: 216G (0.7%, 216G)
ungabunga_bot: 165G (0.5%, 411,308G)
ANFz: 111G (0.3%, 31,117G)
vampyreinabox: 100G (0.3%, 1,751G)
datadrivenbot: 100G (0.3%, 11,777G)

yellow bets:
sinnyil2: 3,708G (17.0%, 3,708G)
reinoe: 3,000G (13.8%, 26,402G)
HorusTaurus: 2,088G (9.6%, 2,088G)
killth3kid: 2,000G (9.2%, 55,409G)
Mesmaster: 2,000G (9.2%, 27,960G)
theNGUYENNER: 1,000G (4.6%, 1,490G)
eudes89: 1,000G (4.6%, 3,445G)
BirbBrainsBot: 1,000G (4.6%, 98,006G)
Lionhermit: 1,000G (4.6%, 33,135G)
leakimiko: 868G (4.0%, 3,472G)
concles: 777G (3.6%, 15,948G)
ZZ_Yoshi: 500G (2.3%, 3,587G)
nok____: 500G (2.3%, 7,340G)
getthemoneyz: 442G (2.0%, 647,816G)
DaveStrider55: 400G (1.8%, 2,248G)
Etce: 256G (1.2%, 256G)
Estan_AD: 250G (1.1%, 1,832G)
ccordc: 220G (1.0%, 220G)
duckfist: 212G (1.0%, 212G)
Meta_Five: 200G (0.9%, 1,762G)
ZDarius: 135G (0.6%, 135G)
cupholderr: 100G (0.5%, 100G)
mannequ1n: 100G (0.5%, 4,258G)
