Final Bets: purple - 15 bets for 8,617G (34.1%, x1.93); brown - 22 bets for 16,645G (65.9%, x0.52)

purple bets:
mpghappiness: 2,222G (25.8%, 9,629G)
Aldrammech: 1,898G (22.0%, 1,898G)
MagicBottle: 1,000G (11.6%, 14,474G)
AllInBot: 687G (8.0%, 687G)
Cryptopsy70: 548G (6.4%, 22,391G)
powergems: 500G (5.8%, 2,594G)
KittymanAdvance: 400G (4.6%, 612G)
ColetteMSLP: 300G (3.5%, 3,053G)
DustBirdEX: 234G (2.7%, 2,729G)
KasugaiRoastedPeas: 200G (2.3%, 5,948G)
CorpusCav: 200G (2.3%, 2,022G)
ForestMagi: 128G (1.5%, 128G)
nhammen: 100G (1.2%, 3,071G)
Miku_Shikhu: 100G (1.2%, 13,966G)
Alanaire: 100G (1.2%, 18,630G)

brown bets:
VolgraTheMoose: 4,001G (24.0%, 58,698G)
TheGuesty: 1,996G (12.0%, 66,996G)
roofiepops: 1,203G (7.2%, 1,203G)
DuraiPapers: 1,000G (6.0%, 5,845G)
BirbBrainsBot: 1,000G (6.0%, 49,630G)
kaidykat: 1,000G (6.0%, 35,860G)
getthemoneyz: 990G (5.9%, 959,561G)
skillomono: 963G (5.8%, 963G)
fenaen: 700G (4.2%, 38,465G)
dinin991: 640G (3.8%, 640G)
Nizaha: 501G (3.0%, 35,097G)
Anasetsuken: 500G (3.0%, 15,769G)
Laserman1000: 500G (3.0%, 6,800G)
gorgewall: 301G (1.8%, 20,049G)
Flameatron: 300G (1.8%, 11,746G)
CapnChaos12: 300G (1.8%, 13,798G)
Lythe_Caraker: 250G (1.5%, 109,008G)
biffcake01: 100G (0.6%, 2,427G)
moonliquor: 100G (0.6%, 12,588G)
ko2q: 100G (0.6%, 4,770G)
datadrivenbot: 100G (0.6%, 43,984G)
IphoneDarkness: 100G (0.6%, 2,542G)
