Final Bets: green - 24 bets for 14,855G (68.5%, x0.46); yellow - 17 bets for 6,840G (31.5%, x2.17)

green bets:
XalSmellsBad: 2,000G (13.5%, 15,339G)
leakimiko: 1,650G (11.1%, 20,636G)
LAGBOT30000: 1,641G (11.0%, 32,820G)
TheMurkGnome: 1,552G (10.4%, 18,940G)
Conome: 1,157G (7.8%, 1,157G)
KaLam1ty: 1,000G (6.7%, 22,316G)
EnemyController: 1,000G (6.7%, 118,959G)
ewan_e: 975G (6.6%, 975G)
HaateXIII: 500G (3.4%, 50,655G)
TheMM42: 500G (3.4%, 5,153G)
Lionhermit: 500G (3.4%, 17,685G)
BirbBrainsBot: 449G (3.0%, 181,833G)
DeathTaxesAndAnime: 300G (2.0%, 5,959G)
TheRylander: 216G (1.5%, 216G)
whiteonrice: 212G (1.4%, 212G)
ungabunga_bot: 203G (1.4%, 250,838G)
twelfthrootoftwo: 200G (1.3%, 5,472G)
electric_glass: 200G (1.3%, 3,233G)
pLifer: 100G (0.7%, 783G)
GarbagePhoenix: 100G (0.7%, 1,562G)
datadrivenbot: 100G (0.7%, 1,587G)
cougboi: 100G (0.7%, 17,545G)
moonliquor: 100G (0.7%, 945G)
Ironzombie8: 100G (0.7%, 100G)

yellow bets:
HaplessOne: 1,111G (16.2%, 190,677G)
Jahshine: 1,000G (14.6%, 2,887G)
CT_5_Holy: 972G (14.2%, 972G)
NovaKnight21: 500G (7.3%, 5,799G)
CapnChaos12: 500G (7.3%, 48,282G)
shs_: 460G (6.7%, 460G)
Anethum: 400G (5.8%, 17,418G)
joewcarson: 300G (4.4%, 4,195G)
jakeduhhsnake: 250G (3.7%, 1,150G)
getthemoneyz: 230G (3.4%, 582,452G)
rNdOrchestra: 216G (3.2%, 216G)
museofdoom: 200G (2.9%, 336G)
gorgewall: 200G (2.9%, 3,610G)
KasugaiRoastedPeas: 200G (2.9%, 4,439G)
ZephyrTempest: 101G (1.5%, 186,796G)
Ashintar: 100G (1.5%, 2,714G)
kaidykat: 100G (1.5%, 593G)
