Final Bets: purple - 9 bets for 6,039G (31.5%, x2.18); brown - 14 bets for 13,137G (68.5%, x0.46)

purple bets:
WireLord: 2,000G (33.1%, 42,499G)
ungabunga_bot: 1,000G (16.6%, 112,708G)
BirbBrainsBot: 1,000G (16.6%, 67,901G)
ColetteMSLP: 500G (8.3%, 20,487G)
DustyRelic: 500G (8.3%, 8,484G)
getthemoneyz: 364G (6.0%, 471,662G)
AllInBot: 275G (4.6%, 275G)
mayormcfunbags: 200G (3.3%, 3,406G)
lunchboxtac: 200G (3.3%, 2,544G)

brown bets:
RongRongArts: 2,866G (21.8%, 5,733G)
reinoe: 2,206G (16.8%, 2,206G)
HaplessOne: 1,500G (11.4%, 147,598G)
DeathTaxesAndAnime: 1,123G (8.5%, 1,123G)
lijarkh: 1,000G (7.6%, 4,665G)
UmaiJam: 1,000G (7.6%, 37,349G)
datadrivenbot: 915G (7.0%, 25,485G)
maakur_: 613G (4.7%, 613G)
Draconis345: 500G (3.8%, 2,353G)
Goust18: 500G (3.8%, 5,463G)
HASTERIOUS: 316G (2.4%, 316G)
roqqqpsi: 295G (2.2%, 1,344G)
KasugaiRoastedPeas: 200G (1.5%, 16,521G)
Carledo: 103G (0.8%, 577G)
