Final Bets: green - 10 bets for 18,014G (78.3%, x0.28); brown - 10 bets for 5,001G (21.7%, x3.60)

green bets:
DustyRelic: 7,584G (42.1%, 7,584G)
nickelbank: 5,000G (27.8%, 22,988G)
UmaiJam: 1,000G (5.6%, 37,088G)
Djorama: 1,000G (5.6%, 7,682G)
datadrivenbot: 964G (5.4%, 26,342G)
maakur_: 818G (4.5%, 818G)
Goust18: 500G (2.8%, 5,810G)
lijarkh: 500G (2.8%, 5,638G)
Draconis345: 500G (2.8%, 2,839G)
ungabunga_bot: 148G (0.8%, 110,798G)

brown bets:
HaplessOne: 1,500G (30.0%, 147,206G)
BirbBrainsBot: 1,000G (20.0%, 66,135G)
roqqqpsi: 757G (15.1%, 757G)
reinoe: 500G (10.0%, 3,862G)
DeathTaxesAndAnime: 408G (8.2%, 408G)
getthemoneyz: 236G (4.7%, 470,486G)
KasugaiRoastedPeas: 200G (4.0%, 16,716G)
mayormcfunbags: 200G (4.0%, 3,006G)
AllInBot: 100G (2.0%, 100G)
RongRongArts: 100G (2.0%, 8,972G)
