Final Bets: white - 18 bets for 11,517G (52.3%, x0.91); black - 12 bets for 10,484G (47.7%, x1.10)

white bets:
Leonidusx: 2,000G (17.4%, 81,358G)
latebit: 1,111G (9.6%, 11,743G)
BirbBrainsBot: 1,000G (8.7%, 105,137G)
getthemoneyz: 1,000G (8.7%, 1,984,920G)
Sairentozon7: 1,000G (8.7%, 28,843G)
gorgewall: 960G (8.3%, 960G)
Nizaha: 860G (7.5%, 75,046G)
VolgraTheMoose: 501G (4.4%, 6,711G)
krombobreaker: 500G (4.3%, 5,117G)
mirapoix: 500G (4.3%, 5,686G)
acid_flashback: 474G (4.1%, 474G)
ericzubat: 400G (3.5%, 3,671G)
bigbongsmoker: 328G (2.8%, 3,182G)
roofiepops: 233G (2.0%, 1,373G)
datadrivenbot: 200G (1.7%, 71,633G)
silentkaster: 200G (1.7%, 2,530G)
DeathTaxesAndAnime: 150G (1.3%, 2,384G)
KeibetsuHB: 100G (0.9%, 100G)

black bets:
biske13: 2,000G (19.1%, 225,137G)
Zerguzen: 2,000G (19.1%, 14,150G)
reinoe: 1,000G (9.5%, 8,739G)
Aka_Gilly: 1,000G (9.5%, 62,049G)
HaateXIII: 988G (9.4%, 988G)
Zeroroute: 918G (8.8%, 2,355G)
douchetron: 648G (6.2%, 648G)
Raixelol: 600G (5.7%, 2,837G)
Willjin: 600G (5.7%, 600G)
robespyah: 430G (4.1%, 430G)
AllInBot: 200G (1.9%, 200G)
grishhammer: 100G (1.0%, 445G)
