Final Bets: yellow - 10 bets for 5,993G (71.3%, x0.40); champion - 6 bets for 2,413G (28.7%, x2.48)

yellow bets:
PopsLIVE: 1,927G (32.2%, 1,927G)
HaplessOne: 1,866G (31.1%, 1,866G)
Willjin: 600G (10.0%, 42,006G)
AltimaMantoid: 453G (7.6%, 20,753G)
Lolthsmeat: 300G (5.0%, 888G)
Genkidou: 246G (4.1%, 1,802G)
AllInBot: 200G (3.3%, 200G)
mirapoix: 200G (3.3%, 9,368G)
gorgewall: 101G (1.7%, 16,029G)
Palladigm: 100G (1.7%, 10,577G)

champion bets:
BirbBrainsBot: 1,000G (41.4%, 78,970G)
resjudicata3: 855G (35.4%, 1,710G)
datadrivenbot: 200G (8.3%, 81,173G)
getthemoneyz: 158G (6.5%, 2,101,817G)
Sharosa: 100G (4.1%, 2,647G)
Evewho: 100G (4.1%, 1,989G)
