Final Bets: green - 24 bets for 8,840G (74.5%, x0.34); yellow - 9 bets for 3,019G (25.5%, x2.93)

green bets:
NicoSavoy: 2,000G (22.6%, 21,682G)
roofiepops: 1,400G (15.8%, 10,003G)
gogofromtogo: 500G (5.7%, 10,657G)
Jinxzers: 500G (5.7%, 14,416G)
OneHundredFists: 500G (5.7%, 31,867G)
Baron_von_Scrub: 474G (5.4%, 29,096G)
luminarii: 450G (5.1%, 21,176G)
LeoNightFury: 392G (4.4%, 392G)
CapnChaos12: 300G (3.4%, 18,483G)
NeoKevlar: 300G (3.4%, 3,300G)
nifboy: 250G (2.8%, 13,014G)
josephiroth_143: 240G (2.7%, 240G)
gorgewall: 201G (2.3%, 19,576G)
cloud92684: 200G (2.3%, 14,677G)
Flameatron: 200G (2.3%, 1,475G)
gr8keeper: 200G (2.3%, 3,561G)
CorpusCav: 100G (1.1%, 6,530G)
ANFz: 100G (1.1%, 6,840G)
datadrivenbot: 100G (1.1%, 29,128G)
Xcessive30: 100G (1.1%, 660G)
serperemagus: 100G (1.1%, 1,414G)
Error72: 100G (1.1%, 2,959G)
Lythe_Caraker: 100G (1.1%, 120,024G)
daveb_: 33G (0.4%, 2,472G)

yellow bets:
BirbBrainsBot: 737G (24.4%, 65,683G)
reinoe: 500G (16.6%, 51,808G)
poulol: 500G (16.6%, 4,882G)
metagameface: 438G (14.5%, 438G)
getthemoneyz: 294G (9.7%, 759,657G)
benticore: 250G (8.3%, 2,805G)
AllInBot: 100G (3.3%, 100G)
CosmicTactician: 100G (3.3%, 4,130G)
Digitalsocrates: 100G (3.3%, 1,403G)
