Final Bets: purple - 15 bets for 8,647G (26.9%, x2.71); brown - 26 bets for 23,469G (73.1%, x0.37)

purple bets:
ko2q: 3,001G (34.7%, 3,001G)
Billybones5150: 1,000G (11.6%, 22,708G)
Kronikle: 1,000G (11.6%, 3,239G)
DeathTaxesAndAnime: 568G (6.6%, 568G)
ColetteMSLP: 550G (6.4%, 19,062G)
killth3kid: 500G (5.8%, 38,822G)
KasugaiRoastedPeas: 400G (4.6%, 5,576G)
AllInBot: 338G (3.9%, 338G)
lobsterlobster: 321G (3.7%, 321G)
SquidgyXom: 273G (3.2%, 4,565G)
cgMcWhiskers: 216G (2.5%, 216G)
AmewTheFox: 200G (2.3%, 10,494G)
Jaritras: 103G (1.2%, 603G)
CosmicTactician: 100G (1.2%, 3,818G)
Ross_from_Cali: 77G (0.9%, 10,939G)

brown bets:
MagicBottle: 8,614G (36.7%, 86,140G)
Mesmaster: 2,000G (8.5%, 27,074G)
Shalloween: 1,500G (6.4%, 70,122G)
sinnyil2: 1,211G (5.2%, 2,422G)
Nizaha: 1,001G (4.3%, 6,969G)
getthemoneyz: 1,000G (4.3%, 600,178G)
BirbBrainsBot: 1,000G (4.3%, 74,847G)
ewan_e: 1,000G (4.3%, 7,079G)
reinoe: 912G (3.9%, 912G)
helpimabug: 765G (3.3%, 765G)
HaateXIII: 500G (2.1%, 36,268G)
leakimiko: 424G (1.8%, 424G)
skuldar: 419G (1.8%, 419G)
Dymntd: 400G (1.7%, 4,705G)
gorgewall: 300G (1.3%, 11,527G)
vorap: 300G (1.3%, 14,685G)
ACSpree: 300G (1.3%, 1,048G)
astrozin11: 300G (1.3%, 2,556G)
LivingHitokiri: 280G (1.2%, 280G)
DontBackseatGame: 275G (1.2%, 275G)
Pink_LuigiX: 252G (1.1%, 252G)
trigger15: 216G (0.9%, 216G)
Realitydown: 200G (0.9%, 5,812G)
Aremath: 100G (0.4%, 3,053G)
eudes89: 100G (0.4%, 100G)
datadrivenbot: 100G (0.4%, 6,432G)
