Final Bets: red - 12 bets for 5,077G (46.0%, x1.17); blue - 11 bets for 5,958G (54.0%, x0.85)

red bets:
ungabunga_bot: 1,000G (19.7%, 513,192G)
BirbBrainsBot: 1,000G (19.7%, 89,093G)
superdevon1: 777G (15.3%, 15,551G)
killth3kid: 556G (11.0%, 9,908G)
Dexsana: 400G (7.9%, 2,314G)
wooyuji: 337G (6.6%, 337G)
ShintaroNayaka: 320G (6.3%, 320G)
LeoNightFury: 228G (4.5%, 228G)
JLinkletter: 198G (3.9%, 198G)
RollingWithNat20: 104G (2.0%, 104G)
Lawndough: 100G (2.0%, 901G)
roqqqpsi: 57G (1.1%, 5,715G)

blue bets:
BoneMiser: 1,579G (26.5%, 15,795G)
sinnyil2: 1,200G (20.1%, 30,968G)
Rislyeu: 937G (15.7%, 937G)
getthemoneyz: 658G (11.0%, 681,968G)
ThePineappleSalesman: 500G (8.4%, 22,065G)
maakur_: 484G (8.1%, 484G)
Arbitae: 200G (3.4%, 1,265G)
Error72: 100G (1.7%, 3,825G)
datadrivenbot: 100G (1.7%, 18,521G)
ko2q: 100G (1.7%, 3,336G)
MalakiGenesys: 100G (1.7%, 919G)
