Final Bets: black - 12 bets for 5,897G (34.8%, x1.87); brown - 12 bets for 11,056G (65.2%, x0.53)

black bets:
LDSkinny: 1,000G (17.0%, 50,385G)
BirbBrainsBot: 1,000G (17.0%, 96,060G)
superdevon1: 846G (14.3%, 16,921G)
getthemoneyz: 578G (9.8%, 684,513G)
TrueRhyme: 500G (8.5%, 5,962G)
Dexsana: 500G (8.5%, 4,753G)
LordSDB: 312G (5.3%, 312G)
gorgewall: 301G (5.1%, 3,981G)
PotionDweller: 244G (4.1%, 244G)
Megadava: 237G (4.0%, 237G)
Lawndough: 203G (3.4%, 203G)
JLinkletter: 176G (3.0%, 176G)

brown bets:
wooyuji: 3,000G (27.1%, 5,720G)
volgrathemoose: 2,273G (20.6%, 4,547G)
J2DaBibbles: 1,600G (14.5%, 20,514G)
leakimiko: 1,500G (13.6%, 41,159G)
LeoNightFury: 700G (6.3%, 1,416G)
killth3kid: 556G (5.0%, 14,518G)
ShintaroNayaka: 500G (4.5%, 3,213G)
maakur_: 484G (4.4%, 484G)
ungabunga_bot: 143G (1.3%, 517,651G)
ko2q: 100G (0.9%, 3,479G)
datadrivenbot: 100G (0.9%, 18,531G)
Arbitae: 100G (0.9%, 1,500G)
