Final Bets: black - 12 bets for 4,773G (33.0%, x2.03); brown - 14 bets for 9,682G (67.0%, x0.49)

black bets:
BirbBrainsBot: 1,000G (21.0%, 80,521G)
twelfthrootoftwo: 853G (17.9%, 853G)
CorpusCav: 700G (14.7%, 42,982G)
nok____: 500G (10.5%, 8,227G)
sinnyil2: 500G (10.5%, 4,717G)
duckfist: 300G (6.3%, 1,260G)
Eyepoor_: 248G (5.2%, 248G)
witchlight: 200G (4.2%, 1,457G)
getthemoneyz: 152G (3.2%, 640,651G)
ZZ_Yoshi: 120G (2.5%, 7,902G)
Arkreaver: 100G (2.1%, 13,070G)
Chompie: 100G (2.1%, 6,174G)

brown bets:
GnielKnows: 4,298G (44.4%, 13,025G)
Phytik: 1,706G (17.6%, 17,006G)
reinoe: 1,000G (10.3%, 20,535G)
lijarkh: 500G (5.2%, 24,817G)
Kyune: 443G (4.6%, 443G)
SeniorBunk: 328G (3.4%, 328G)
Lythe_Caraker: 250G (2.6%, 115,204G)
Estan_AD: 250G (2.6%, 2,506G)
underscoreedit: 206G (2.1%, 206G)
Miyokari: 200G (2.1%, 1,291G)
Rengald_: 177G (1.8%, 177G)
pLifer: 124G (1.3%, 124G)
ungabunga_bot: 100G (1.0%, 392,728G)
datadrivenbot: 100G (1.0%, 12,717G)
