Final Bets: purple - 8 bets for 4,037G (25.1%, x2.98); brown - 19 bets for 12,029G (74.9%, x0.34)

purple bets:
OneHundredFists: 1,965G (48.7%, 1,965G)
Raixelol: 600G (14.9%, 600G)
technominari: 500G (12.4%, 83,977G)
J_52: 300G (7.4%, 1,752G)
Zerguzen: 276G (6.8%, 276G)
AllInBot: 200G (5.0%, 200G)
killabandaid: 100G (2.5%, 2,130G)
getthemoneyz: 96G (2.4%, 2,042,055G)

brown bets:
latebit: 2,222G (18.5%, 11,422G)
NovaKnight21: 2,000G (16.6%, 23,561G)
thunderducker: 1,800G (15.0%, 7,887G)
scsuperstar: 1,154G (9.6%, 1,154G)
Morsigil: 1,000G (8.3%, 2,759G)
BirbBrainsBot: 736G (6.1%, 45,261G)
Laserman1000: 600G (5.0%, 24,500G)
CorpusCav: 400G (3.3%, 4,989G)
resjudicata3: 396G (3.3%, 396G)
ValensEXP_: 372G (3.1%, 3,287G)
khelor_: 240G (2.0%, 240G)
rottings0ul: 200G (1.7%, 923G)
datadrivenbot: 200G (1.7%, 73,313G)
chrisk103: 200G (1.7%, 1,978G)
kilrazin: 108G (0.9%, 108G)
gorgewall: 101G (0.8%, 3,252G)
Firesheath: 100G (0.8%, 3,632G)
MemoriesofFinal: 100G (0.8%, 40,477G)
hojimitsu: 100G (0.8%, 100G)
