Final Bets: white - 10 bets for 3,625G (56.5%, x0.77); black - 10 bets for 2,788G (43.5%, x1.30)

white bets:
roqqqpsi: 610G (16.8%, 617G)
brodeity: 519G (14.3%, 519G)
Neech: 500G (13.8%, 3,677G)
highelectricaltemperature: 400G (11.0%, 3,308G)
reddwind_: 388G (10.7%, 667G)
Sietaha: 376G (10.4%, 376G)
Mushufasa_: 284G (7.8%, 284G)
BartTradingCompany: 248G (6.8%, 2,487G)
datadrivenbot: 200G (5.5%, 56,051G)
TheSabretoothe: 100G (2.8%, 705G)

black bets:
3ngag3: 708G (25.4%, 16,026G)
BirbBrainsBot: 707G (25.4%, 79,570G)
getthemoneyz: 342G (12.3%, 1,865,668G)
Riley331: 216G (7.7%, 2,169G)
velvet_muffins: 214G (7.7%, 214G)
ar_tactic: 200G (7.2%, 98,249G)
gorgewall: 101G (3.6%, 1,401G)
AllInBot: 100G (3.6%, 100G)
ValensEXP_: 100G (3.6%, 1,138G)
DeathRtopper: 100G (3.6%, 2,553G)
