Final Bets: red - 10 bets for 2,190G (40.0%, x1.50); yellow - 11 bets for 3,284G (60.0%, x0.67)

red bets:
Raixelol: 540G (24.7%, 14,910G)
bigbongsmoker: 268G (12.2%, 662G)
BartTradingCompany: 239G (10.9%, 2,394G)
seppu777: 222G (10.1%, 4,366G)
Riley331: 220G (10.0%, 2,205G)
datadrivenbot: 200G (9.1%, 55,990G)
TheSabretoothe: 150G (6.8%, 1,030G)
Octaslash1984: 150G (6.8%, 1,000G)
gorgewall: 101G (4.6%, 1,431G)
AllInBot: 100G (4.6%, 100G)

yellow bets:
E_Ballard: 620G (18.9%, 620G)
roqqqpsi: 443G (13.5%, 448G)
brodeity: 407G (12.4%, 407G)
Tarheels218: 376G (11.4%, 376G)
BirbBrainsBot: 374G (11.4%, 80,533G)
Sietaha: 224G (6.8%, 224G)
ValensEXP_: 212G (6.5%, 212G)
CorpusCav: 200G (6.1%, 25,348G)
highelectricaltemperature: 200G (6.1%, 2,908G)
ar_tactic: 150G (4.6%, 98,683G)
getthemoneyz: 78G (2.4%, 1,866,191G)
