Final Bets: white - 17 bets for 25,000G (69.0%, x0.45); purple - 18 bets for 11,206G (31.0%, x2.23)

white bets:
NicoSavoy: 10,000G (40.0%, 174,599G)
tripaplex: 4,000G (16.0%, 19,176G)
Evewho: 2,000G (8.0%, 41,099G)
CorpusCav: 2,000G (8.0%, 102,251G)
VolgraTheMoose: 1,571G (6.3%, 1,571G)
lygg_mubblez: 891G (3.6%, 891G)
Sairentozon7: 873G (3.5%, 873G)
roofiepops: 564G (2.3%, 564G)
Zagorsek: 508G (2.0%, 508G)
old_overholt_: 500G (2.0%, 5,947G)
krombobreaker: 500G (2.0%, 34,933G)
heropong: 451G (1.8%, 451G)
JethroThrul: 384G (1.5%, 384G)
daveb_: 333G (1.3%, 9,023G)
datadrivenbot: 200G (0.8%, 85,867G)
Hojosu: 125G (0.5%, 125G)
DrAntiSocial: 100G (0.4%, 1,282G)

purple bets:
TheBrett: 3,000G (26.8%, 30,802G)
DeathTaxesAndAnime: 1,489G (13.3%, 1,489G)
BirbBrainsBot: 1,000G (8.9%, 81,524G)
Breakdown777: 834G (7.4%, 834G)
AllInBot: 613G (5.5%, 613G)
technominari: 500G (4.5%, 101,030G)
DarrenDinosaurs: 500G (4.5%, 5,475G)
YowaneHaku: 500G (4.5%, 11,723G)
superdevon1: 497G (4.4%, 497G)
HorusTaurus: 448G (4.0%, 448G)
Forkmore: 388G (3.5%, 8,420G)
Demon_Lord_Josh: 300G (2.7%, 3,869G)
squideater_: 300G (2.7%, 5,130G)
murderclan: 300G (2.7%, 4,024G)
thebluesman: 255G (2.3%, 9,255G)
Mushufasa_: 180G (1.6%, 41,123G)
rjA0zcOQ96: 100G (0.9%, 8,365G)
getthemoneyz: 2G (0.0%, 2,210,095G)
