Final Bets: white - 5 bets for 3,310G (40.5%, x1.47); purple - 9 bets for 4,872G (59.5%, x0.68)

white bets:
WhiteTigress: 1,500G (45.3%, 6,698G)
BirbBrainsBot: 763G (23.1%, 16,307G)
getthemoneyz: 606G (18.3%, 1,606,722G)
DHaveWord: 309G (9.3%, 607G)
maddrave09: 132G (4.0%, 2,301G)

purple bets:
technominari: 1,500G (30.8%, 89,699G)
AllInBot: 1,078G (22.1%, 1,078G)
CassiePhoenix: 734G (15.1%, 734G)
douchetron: 600G (12.3%, 600G)
maximumcrit: 360G (7.4%, 360G)
ar_tactic: 200G (4.1%, 81,709G)
datadrivenbot: 200G (4.1%, 58,878G)
MinBetBot: 100G (2.1%, 23,951G)
ko2q: 100G (2.1%, 3,645G)
