Final Bets: red - 11 bets for 5,629G (40.0%, x1.50); blue - 11 bets for 8,450G (60.0%, x0.67)

red bets:
randgridr: 2,180G (38.7%, 4,361G)
getthemoneyz: 736G (13.1%, 1,467,655G)
killth3kid: 588G (10.4%, 9,017G)
CT_5_Holy: 476G (8.5%, 476G)
Laserman1000: 400G (7.1%, 2,100G)
josephiroth_143: 340G (6.0%, 340G)
byrdturbo: 255G (4.5%, 24,385G)
AllInBot: 200G (3.6%, 200G)
datadrivenbot: 200G (3.6%, 48,879G)
holdenmagronik: 150G (2.7%, 1,246G)
silverChangeling: 104G (1.8%, 104G)

blue bets:
NicoSavoy: 2,281G (27.0%, 114,067G)
UmaiJam: 2,000G (23.7%, 60,596G)
HaplessOne: 1,111G (13.1%, 3,935G)
BirbBrainsBot: 1,000G (11.8%, 120,016G)
DeathTaxesAndAnime: 832G (9.8%, 832G)
ribbiks: 500G (5.9%, 5,622G)
BoneMiser: 376G (4.4%, 376G)
NoonDuarte: 100G (1.2%, 263G)
ko2q: 100G (1.2%, 3,094G)
nifboy: 100G (1.2%, 6,707G)
Drusiform: 50G (0.6%, 321G)
