Final Bets: blue - 11 bets for 9,781G (49.4%, x1.02); black - 10 bets for 10,013G (50.6%, x0.98)

blue bets:
NicoSavoy: 2,327G (23.8%, 116,374G)
UmaiJam: 2,000G (20.4%, 65,194G)
josephiroth_143: 1,579G (16.1%, 1,579G)
BirbBrainsBot: 1,000G (10.2%, 122,614G)
DeathTaxesAndAnime: 832G (8.5%, 832G)
killth3kid: 592G (6.1%, 9,649G)
CT_5_Holy: 476G (4.9%, 476G)
NoonDuarte: 403G (4.1%, 403G)
Mister_Quof: 222G (2.3%, 222G)
AllInBot: 200G (2.0%, 200G)
holdenmagronik: 150G (1.5%, 691G)

black bets:
HaplessOne: 5,852G (58.4%, 5,852G)
randgridr: 1,199G (12.0%, 1,199G)
nok____: 872G (8.7%, 872G)
sinnyil2: 500G (5.0%, 4,468G)
Smokegiant: 493G (4.9%, 493G)
getthemoneyz: 366G (3.7%, 1,465,431G)
silverChangeling: 331G (3.3%, 331G)
datadrivenbot: 200G (2.0%, 48,807G)
Drusiform: 100G (1.0%, 100G)
Firesheath: 100G (1.0%, 2,048G)
