Final Bets: red - 10 bets for 12,101G (62.9%, x0.59); white - 12 bets for 7,144G (37.1%, x1.69)

red bets:
turbn: 3,000G (24.8%, 11,953G)
alekzanndrr: 2,862G (23.7%, 2,862G)
Rurk: 1,589G (13.1%, 3,549G)
ThreeMileIsland: 1,500G (12.4%, 3,590G)
Thyrandaal: 1,000G (8.3%, 9,600G)
BirbBrainsBot: 1,000G (8.3%, 125,155G)
nekojin: 500G (4.1%, 2,033G)
twelfthrootoftwo: 300G (2.5%, 13,940G)
Bulleta: 250G (2.1%, 1,318G)
DuneMeta: 100G (0.8%, 7,190G)

white bets:
neerrm: 2,500G (35.0%, 52,477G)
skillomono: 2,000G (28.0%, 23,524G)
OneHundredFists: 624G (8.7%, 624G)
Magicandy: 500G (7.0%, 29,609G)
DuraiPapers: 500G (7.0%, 10,332G)
DustBirdEX: 436G (6.1%, 436G)
gibresol: 112G (1.6%, 112G)
Dragon_RW: 100G (1.4%, 100G)
Quadh0nk: 100G (1.4%, 4,870G)
Miku_Shikhu: 100G (1.4%, 19,033G)
datadrivenbot: 100G (1.4%, 52,025G)
getthemoneyz: 72G (1.0%, 1,156,208G)
