Final Bets: blue - 10 bets for 6,891G (60.1%, x0.67); purple - 12 bets for 4,584G (39.9%, x1.50)

blue bets:
TheChainNerd: 1,000G (14.5%, 33,024G)
Forkmore: 1,000G (14.5%, 3,577G)
BirbBrainsBot: 1,000G (14.5%, 124,892G)
dogsandcatsand: 906G (13.1%, 1,777G)
pLifer: 879G (12.8%, 879G)
benticore: 838G (12.2%, 16,768G)
killth3kid: 700G (10.2%, 90,176G)
ArashiKurobara: 320G (4.6%, 6,227G)
DustBirdEX: 144G (2.1%, 1,824G)
Xoomwaffle: 104G (1.5%, 104G)

purple bets:
bruubarg: 1,000G (21.8%, 24,178G)
randgridr: 887G (19.3%, 887G)
Zagorsek: 637G (13.9%, 637G)
joewcarson: 500G (10.9%, 28,774G)
ShintaroNayaka: 400G (8.7%, 7,397G)
TasisSai: 300G (6.5%, 2,829G)
Mysteriousdewd: 200G (4.4%, 4,604G)
datadrivenbot: 200G (4.4%, 56,697G)
brokenknight201: 200G (4.4%, 1,399G)
Othatmattkid: 136G (3.0%, 936G)
DHaveWord: 100G (2.2%, 2,601G)
getthemoneyz: 24G (0.5%, 1,273,916G)
