Final Bets: white - 18 bets for 14,739G (66.9%, x0.50); black - 12 bets for 7,304G (33.1%, x2.02)

white bets:
DeathTaxesAndAnime: 5,702G (38.7%, 11,182G)
killth3kid: 1,586G (10.8%, 1,586G)
BirbBrainsBot: 1,000G (6.8%, 80,654G)
latebit: 1,000G (6.8%, 69,009G)
fenaen: 805G (5.5%, 1,610G)
TheMurkGnome: 779G (5.3%, 36,315G)
powergems: 777G (5.3%, 2,668G)
Nizaha: 580G (3.9%, 17,755G)
JonnyCue: 500G (3.4%, 7,114G)
getthemoneyz: 492G (3.3%, 1,527,579G)
Lord_Gwarth: 280G (1.9%, 280G)
HaateXIII: 250G (1.7%, 5,316G)
Drusiform: 220G (1.5%, 220G)
ivellioz: 200G (1.4%, 7,272G)
datadrivenbot: 200G (1.4%, 51,470G)
MMagnetMan: 168G (1.1%, 168G)
Firesheath: 100G (0.7%, 24,955G)
nhammen: 100G (0.7%, 72,998G)

black bets:
LordTomS: 1,227G (16.8%, 1,227G)
VolgraTheMoose: 1,170G (16.0%, 1,170G)
E_Ballard: 1,100G (15.1%, 1,100G)
captainmilestw: 782G (10.7%, 782G)
AllInBot: 679G (9.3%, 679G)
douchetron: 600G (8.2%, 600G)
TasisSai: 500G (6.8%, 11,531G)
Error72: 424G (5.8%, 424G)
Shalloween: 400G (5.5%, 37,248G)
holdenmagronik: 150G (2.1%, 1,397G)
Gunz232323: 150G (2.1%, 4,557G)
daveb_: 122G (1.7%, 2,414G)
