Final Bets: black - 10 bets for 16,450G (72.3%, x0.38); brown - 10 bets for 6,313G (27.7%, x2.61)

black bets:
HASTERIOUS: 8,488G (51.6%, 16,644G)
OmnibotGamma: 4,989G (30.3%, 9,783G)
WireLord: 1,000G (6.1%, 30,323G)
datadrivenbot: 664G (4.0%, 21,032G)
Treapvort: 372G (2.3%, 372G)
Part_Ways: 338G (2.1%, 338G)
ungabunga_bot: 204G (1.2%, 98,582G)
getthemoneyz: 192G (1.2%, 477,314G)
Carledo: 103G (0.6%, 490G)
michio_plays: 100G (0.6%, 100G)

brown bets:
Jerboj: 2,000G (31.7%, 20,806G)
BirbBrainsBot: 1,000G (15.8%, 59,709G)
DeathTaxesAndAnime: 1,000G (15.8%, 1,000G)
superdevon1: 775G (12.3%, 2,216G)
BlinkFS: 500G (7.9%, 8,386G)
Chuckolator: 398G (6.3%, 8,599G)
mayormcfunbags: 208G (3.3%, 208G)
AllInBot: 206G (3.3%, 206G)
uncharreted: 126G (2.0%, 632G)
Shadowmare250: 100G (1.6%, 1,200G)
