Final Bets: white - 16 bets for 18,750G (58.1%, x0.72); black - 16 bets for 13,507G (41.9%, x1.39)

white bets:
roofiepops: 5,279G (28.2%, 5,279G)
Shalloween: 3,478G (18.5%, 6,821G)
DeathTaxesAndAnime: 2,421G (12.9%, 4,749G)
Eyepoor_: 1,315G (7.0%, 2,580G)
sinnyil2: 1,200G (6.4%, 10,182G)
genericco: 791G (4.2%, 1,551G)
concles: 777G (4.1%, 15,500G)
Evewho: 684G (3.6%, 684G)
Laserman1000: 549G (2.9%, 549G)
reinoe: 500G (2.7%, 10,152G)
Fenrislfr: 467G (2.5%, 467G)
ZephyrTempest: 456G (2.4%, 4,942G)
electric_glass: 333G (1.8%, 2,002G)
twelfthrootoftwo: 300G (1.6%, 3,243G)
datadrivenbot: 100G (0.5%, 12,781G)
Jerboj: 100G (0.5%, 41,411G)

black bets:
KasugaiRoastedPeas: 4,695G (34.8%, 4,695G)
NovaKnight21: 1,627G (12.0%, 1,627G)
R_Raynos: 1,103G (8.2%, 1,103G)
ungabunga_bot: 1,000G (7.4%, 390,678G)
BirbBrainsBot: 1,000G (7.4%, 77,119G)
Lionhermit: 1,000G (7.4%, 38,396G)
nifboy: 512G (3.8%, 512G)
jakeduhhsnake: 500G (3.7%, 50,775G)
Estan_AD: 500G (3.7%, 3,719G)
rico_flex: 500G (3.7%, 40,629G)
GnielKnows: 400G (3.0%, 1,032G)
RunicMagus: 200G (1.5%, 45,317G)
Practice_Pad: 144G (1.1%, 144G)
getthemoneyz: 126G (0.9%, 637,987G)
TimeJannies: 100G (0.7%, 1,391G)
alecttox: 100G (0.7%, 9,417G)
