Final Bets: black - 13 bets for 4,437G (26.2%, x2.81); purple - 17 bets for 12,479G (73.8%, x0.36)

black bets:
jakeduhhsnake: 1,000G (22.5%, 52,329G)
R_Raynos: 789G (17.8%, 789G)
Lionhermit: 500G (11.3%, 40,644G)
getthemoneyz: 358G (8.1%, 638,515G)
KasugaiRoastedPeas: 300G (6.8%, 11,098G)
sinnyil2: 300G (6.8%, 10,473G)
RestIessNight: 300G (6.8%, 1,443G)
gorgewall: 200G (4.5%, 7,009G)
hisuikohaku: 200G (4.5%, 300G)
ZephyrTempest: 190G (4.3%, 3,806G)
Firesheath: 100G (2.3%, 11,002G)
TimeJannies: 100G (2.3%, 1,530G)
alithesillybird: 100G (2.3%, 2,005G)

purple bets:
Shalloween: 2,530G (20.3%, 4,962G)
powergems: 2,000G (16.0%, 5,997G)
concles: 1,500G (12.0%, 14,555G)
DeathTaxesAndAnime: 1,141G (9.1%, 1,141G)
reinoe: 1,000G (8.0%, 9,984G)
Meta_Five: 800G (6.4%, 3,893G)
Laserman1000: 624G (5.0%, 624G)
nifboy: 512G (4.1%, 512G)
AeglosCrescens: 500G (4.0%, 1,766G)
Oobs56: 500G (4.0%, 6,059G)
twelfthrootoftwo: 500G (4.0%, 3,320G)
ZomCig: 200G (1.6%, 2,361G)
RunicMagus: 200G (1.6%, 45,818G)
BirbBrainsBot: 168G (1.3%, 79,367G)
duckfist: 104G (0.8%, 104G)
ungabunga_bot: 100G (0.8%, 392,926G)
datadrivenbot: 100G (0.8%, 12,767G)
