Final Bets: purple - 18 bets for 26,311G (58.5%, x0.71); brown - 30 bets for 18,631G (41.5%, x1.41)

purple bets:
shs_: 15,012G (57.1%, 15,012G)
AniZero: 3,333G (12.7%, 66,849G)
Aldrammech: 2,622G (10.0%, 2,622G)
mirapoix: 1,275G (4.8%, 1,275G)
NewVanguard: 1,000G (3.8%, 13,736G)
volgrathemoose: 501G (1.9%, 17,688G)
Tougou: 500G (1.9%, 3,741G)
ANFz: 408G (1.6%, 408G)
Baron_von_Scrub: 314G (1.2%, 13,318G)
b0shii: 302G (1.1%, 302G)
R_Raynos: 268G (1.0%, 268G)
ugoplatamia: 200G (0.8%, 16,554G)
rNdOrchestra: 100G (0.4%, 1,035G)
SeedSC: 100G (0.4%, 133,532G)
Tithonus: 100G (0.4%, 7,960G)
zalivandis: 100G (0.4%, 439G)
EnemyController: 100G (0.4%, 16,500G)
JackOnFire1: 76G (0.3%, 375G)

brown bets:
sinnyil2: 2,304G (12.4%, 2,304G)
Shalloween: 2,000G (10.7%, 85,831G)
Mechapope1: 1,972G (10.6%, 1,972G)
leakimiko: 1,626G (8.7%, 32,534G)
BirbBrainsBot: 1,000G (5.4%, 192,570G)
bad1dea: 1,000G (5.4%, 10,097G)
DHaveWord: 836G (4.5%, 836G)
Arunic: 800G (4.3%, 11,054G)
ForagerCats: 603G (3.2%, 1,206G)
technominari: 500G (2.7%, 89,835G)
HaplessOne: 500G (2.7%, 92,770G)
Riot_Jayway: 500G (2.7%, 190,113G)
fenixcrest: 492G (2.6%, 492G)
ShintaroNayaka: 472G (2.5%, 472G)
LuckyLuckLuc2: 444G (2.4%, 25,363G)
AllInBot: 437G (2.3%, 437G)
Spartan_Paladin: 400G (2.1%, 16,403G)
kingchadking: 388G (2.1%, 388G)
MoonSlayerRS: 380G (2.0%, 380G)
ko2q: 336G (1.8%, 336G)
DrAntiSocial: 333G (1.8%, 333G)
Maeveen: 312G (1.7%, 312G)
WillFitzgerald: 300G (1.6%, 2,158G)
ungabunga_bot: 150G (0.8%, 18,614G)
Conome: 128G (0.7%, 128G)
ApplesauceBoss: 100G (0.5%, 5,094G)
datadrivenbot: 100G (0.5%, 17,447G)
maichenambrai: 100G (0.5%, 1,699G)
BuffaloCrunch: 100G (0.5%, 17,827G)
getthemoneyz: 18G (0.1%, 428,392G)
