Final Bets: red - 32 bets for 44,182G (87.3%, x0.15); yellow - 15 bets for 6,451G (12.7%, x6.85)

red bets:
UmaiJam: 10,737G (24.3%, 10,737G)
DudeMonkey77: 6,796G (15.4%, 6,796G)
sinnyil2: 6,058G (13.7%, 6,058G)
volgrathemoose: 2,001G (4.5%, 17,687G)
NewVanguard: 1,502G (3.4%, 12,736G)
Numbersborne: 1,500G (3.4%, 4,093G)
AniZero: 1,275G (2.9%, 64,016G)
DeathTaxesAndAnime: 1,231G (2.8%, 2,415G)
RunicMagus: 1,111G (2.5%, 29,028G)
BirbBrainsBot: 1,000G (2.3%, 193,982G)
bad1dea: 1,000G (2.3%, 11,509G)
HaplessOne: 1,000G (2.3%, 93,476G)
Blain_Cooper: 1,000G (2.3%, 3,493G)
ANFz: 908G (2.1%, 908G)
Maeveen: 753G (1.7%, 753G)
TheMurkGnome: 712G (1.6%, 712G)
b0shii: 708G (1.6%, 708G)
fenixcrest: 687G (1.6%, 687G)
ungabunga_bot: 550G (1.2%, 18,826G)
Lodrak: 501G (1.1%, 26,187G)
Arunic: 500G (1.1%, 12,184G)
technominari: 500G (1.1%, 90,541G)
mirapoix: 476G (1.1%, 476G)
shs_: 452G (1.0%, 452G)
WhiteDog420: 264G (0.6%, 264G)
cucas: 200G (0.5%, 2,025G)
robespyah: 200G (0.5%, 507G)
getthemoneyz: 160G (0.4%, 428,417G)
Alc_Trinity: 100G (0.2%, 34,727G)
BuffaloCrunch: 100G (0.2%, 18,468G)
Tougou: 100G (0.2%, 3,745G)
datadrivenbot: 100G (0.2%, 17,588G)

yellow bets:
kingchadking: 1,436G (22.3%, 1,436G)
LuckyLuckLuc2: 1,111G (17.2%, 26,994G)
AllInBot: 1,054G (16.3%, 1,054G)
SeedSC: 1,000G (15.5%, 133,932G)
Shalloween: 600G (9.3%, 89,155G)
CapnChaos12: 300G (4.7%, 2,017G)
ugoplatamia: 200G (3.1%, 16,854G)
DrAntiSocial: 150G (2.3%, 1,803G)
Tithonus: 100G (1.6%, 8,360G)
ApplesauceBoss: 100G (1.6%, 5,735G)
Natoniam: 100G (1.6%, 100G)
Mechapope1: 100G (1.6%, 5,257G)
Rastanar: 100G (1.6%, 6,317G)
rNdOrchestra: 50G (0.8%, 935G)
JackOnFire1: 50G (0.8%, 299G)
