Final Bets: red - 10 bets for 5,749G (25.7%, x2.88); blue - 21 bets for 16,580G (74.3%, x0.35)

red bets:
rechaun: 1,000G (17.4%, 21,161G)
VolgraTheMoose: 989G (17.2%, 989G)
mirapoix: 946G (16.5%, 946G)
BirbBrainsBot: 526G (9.1%, 88,274G)
RunicMagus: 500G (8.7%, 28,929G)
TheChainNerd: 496G (8.6%, 496G)
serperemagus: 496G (8.6%, 496G)
getthemoneyz: 372G (6.5%, 1,016,157G)
Alaquane: 224G (3.9%, 224G)
brokenknight201: 200G (3.5%, 1,208G)

blue bets:
Lydian_C: 4,200G (25.3%, 166,483G)
mazecrossant: 2,517G (15.2%, 2,517G)
skillomono: 2,152G (13.0%, 2,152G)
DavenIII: 1,775G (10.7%, 1,775G)
prince_rogers_nelson_: 1,000G (6.0%, 8,295G)
sukotsuto: 1,000G (6.0%, 33,167G)
Laserman1000: 530G (3.2%, 10,130G)
HaateXIII: 500G (3.0%, 12,745G)
JLinkletter: 500G (3.0%, 6,646G)
docmitchphd: 500G (3.0%, 2,703G)
Yiroep2: 377G (2.3%, 377G)
coralreeferz: 350G (2.1%, 3,835G)
Nizaha: 201G (1.2%, 7,274G)
GladiatorLupe: 200G (1.2%, 12,267G)
cactus_tony_: 177G (1.1%, 177G)
Baron_von_Scrub: 101G (0.6%, 5,475G)
Kellios11: 100G (0.6%, 58,519G)
nifboy: 100G (0.6%, 2,271G)
maakur_: 100G (0.6%, 73,502G)
datadrivenbot: 100G (0.6%, 45,752G)
grimm_noir: 100G (0.6%, 1,469G)
