Final Bets: purple - 14 bets for 18,064G (63.2%, x0.58); brown - 13 bets for 10,539G (36.8%, x1.71)

purple bets:
reddwind_: 6,000G (33.2%, 30,832G)
J2DaBibbles: 4,940G (27.3%, 4,940G)
red__lancer: 1,500G (8.3%, 94,121G)
VolgraTheMoose: 1,207G (6.7%, 1,207G)
Nizaha: 1,001G (5.5%, 6,642G)
serperemagus: 811G (4.5%, 811G)
E_Ballard: 568G (3.1%, 568G)
Laserman1000: 500G (2.8%, 10,300G)
actual_JP: 492G (2.7%, 492G)
RaIshtar: 364G (2.0%, 364G)
Grandlanzer: 300G (1.7%, 9,912G)
JethroThrul: 181G (1.0%, 724G)
CosmicTactician: 100G (0.6%, 10,993G)
datadrivenbot: 100G (0.6%, 45,794G)

brown bets:
rechaun: 5,000G (47.4%, 23,334G)
WalkerNash: 1,781G (16.9%, 35,625G)
BirbBrainsBot: 1,000G (9.5%, 87,383G)
cam_ATS: 555G (5.3%, 22,034G)
gorgewall: 401G (3.8%, 10,322G)
benticore: 374G (3.5%, 7,482G)
joewcarson: 304G (2.9%, 304G)
docmitchphd: 300G (2.8%, 3,066G)
coralreeferz: 250G (2.4%, 3,956G)
getthemoneyz: 204G (1.9%, 1,015,869G)
RunicMagus: 150G (1.4%, 28,685G)
Lydian_C: 120G (1.1%, 167,947G)
nifboy: 100G (0.9%, 2,313G)
