Final Bets: green - 30 bets for 13,487G (57.5%, x0.74); yellow - 21 bets for 9,961G (42.5%, x1.35)

green bets:
Break3r: 1,928G (14.3%, 1,928G)
Eldente: 1,221G (9.1%, 1,221G)
sinnyil2: 1,200G (8.9%, 7,089G)
mirapoix: 1,009G (7.5%, 2,018G)
Arunic: 1,000G (7.4%, 2,162G)
ungabunga_bot: 649G (4.8%, 160,945G)
nifboy: 623G (4.6%, 623G)
luminarii: 570G (4.2%, 20,442G)
joewcarson: 501G (3.7%, 13,727G)
OmnibotGamma: 500G (3.7%, 10,994G)
Spartan_Paladin: 500G (3.7%, 26,504G)
Theseawolf1: 500G (3.7%, 6,599G)
ThePuss: 436G (3.2%, 436G)
Anox_Skell: 400G (3.0%, 1,733G)
Lanshaft: 312G (2.3%, 466G)
evdoggity: 300G (2.2%, 3,837G)
killth3kid: 268G (2.0%, 272G)
LazarusAjin: 250G (1.9%, 1,053G)
KasugaiRoastedPeas: 200G (1.5%, 7,485G)
datadrivenbot: 165G (1.2%, 221G)
carsenhk: 150G (1.1%, 1,920G)
Jordache7K: 111G (0.8%, 25,067G)
SquidgyXom: 108G (0.8%, 108G)
lastly: 100G (0.7%, 3,863G)
ethias91: 100G (0.7%, 100G)
ApplesauceBoss: 100G (0.7%, 4,151G)
ANFz: 100G (0.7%, 5,079G)
SwaffleWaffles: 97G (0.7%, 3,257G)
getthemoneyz: 64G (0.5%, 498,953G)
DrAntiSocial: 25G (0.2%, 3,702G)

yellow bets:
toka222: 2,670G (26.8%, 516,256G)
Shakarak: 1,749G (17.6%, 1,749G)
BirbBrainsBot: 1,000G (10.0%, 200,349G)
Pie108: 700G (7.0%, 18,552G)
TheChainNerd: 600G (6.0%, 600G)
old_overholt_: 500G (5.0%, 5,029G)
Laserman1000: 500G (5.0%, 20,100G)
EvilLego6: 388G (3.9%, 388G)
ManaSphere: 300G (3.0%, 380G)
Scotty297: 293G (2.9%, 293G)
ZephyrTempest: 247G (2.5%, 82,060G)
ko2q: 199G (2.0%, 16,473G)
Lavatis: 150G (1.5%, 1,212G)
puraisu_: 125G (1.3%, 258G)
itsonlyspencer: 104G (1.0%, 104G)
benticore: 100G (1.0%, 3,906G)
SeniorBunk: 100G (1.0%, 4,159G)
Rytor: 100G (1.0%, 12,692G)
roqqqpsi: 51G (0.5%, 2,567G)
tmo50x: 50G (0.5%, 3,903G)
asa_BONESCTY: 35G (0.4%, 100G)
