Final Bets: white - 22 bets for 12,577G (48.5%, x1.06); black - 24 bets for 13,354G (51.5%, x0.94)

white bets:
KabukiJake: 2,810G (22.3%, 2,810G)
Kyune: 1,835G (14.6%, 1,835G)
elburritofuerte: 1,000G (8.0%, 8,465G)
tronfonne: 764G (6.1%, 764G)
Estan_AD: 708G (5.6%, 1,417G)
reinoe: 661G (5.3%, 661G)
rjA0zcOQ96: 643G (5.1%, 643G)
killth3kid: 600G (4.8%, 6,093G)
DLJuggernaut: 511G (4.1%, 511G)
Ross_from_Cali: 455G (3.6%, 455G)
ANFz: 423G (3.4%, 423G)
Realitydown: 304G (2.4%, 304G)
otakutaylor: 300G (2.4%, 3,377G)
electric_glass: 300G (2.4%, 18,145G)
namamu: 300G (2.4%, 16,945G)
nekojin: 200G (1.6%, 977G)
ungabunga_bot: 179G (1.4%, 512,704G)
skillomono: 132G (1.0%, 132G)
Arcblazer23: 128G (1.0%, 128G)
Lawndough: 124G (1.0%, 124G)
StealthModeLocke: 100G (0.8%, 40,453G)
datadrivenbot: 100G (0.8%, 18,533G)

black bets:
Mesmaster: 2,000G (15.0%, 49,040G)
HaplessOne: 1,800G (13.5%, 98,420G)
BirbBrainsBot: 1,000G (7.5%, 118,562G)
Dexsana: 1,000G (7.5%, 3,834G)
ApplesauceBoss: 779G (5.8%, 1,779G)
Strifu: 583G (4.4%, 583G)
Phi_Sig: 555G (4.2%, 145,929G)
twelfthrootoftwo: 500G (3.7%, 18,268G)
Oobs56: 500G (3.7%, 2,783G)
BuffaloCrunch: 476G (3.6%, 476G)
Baron_von_Scrub: 468G (3.5%, 468G)
CorpusCav: 410G (3.1%, 8,610G)
sukotsuto: 400G (3.0%, 16,746G)
getthemoneyz: 384G (2.9%, 681,932G)
nifboy: 376G (2.8%, 376G)
CT_5_Holy: 363G (2.7%, 363G)
Lali_Lulelo: 356G (2.7%, 356G)
4shcrows: 300G (2.2%, 1,024G)
GladiatorLupe: 300G (2.2%, 7,836G)
thethorndog1: 300G (2.2%, 7,687G)
KasugaiRoastedPeas: 200G (1.5%, 759G)
neocarbuncle: 104G (0.8%, 104G)
CosmicTactician: 100G (0.7%, 8,402G)
Inosukeanu: 100G (0.7%, 100G)
