Final Bets: white - 12 bets for 6,774G (25.0%, x3.00); black - 14 bets for 20,353G (75.0%, x0.33)

white bets:
Rytor: 1,011G (14.9%, 1,011G)
ThreeMileIsland: 1,000G (14.8%, 9,293G)
BirbBrainsBot: 1,000G (14.8%, 30,138G)
nekojin: 1,000G (14.8%, 30,659G)
superdevon1: 883G (13.0%, 44,171G)
killth3kid: 616G (9.1%, 1,653G)
Draconis345: 508G (7.5%, 508G)
getthemoneyz: 236G (3.5%, 1,513,962G)
CosmicTactician: 200G (3.0%, 4,189G)
Galeronis: 112G (1.7%, 112G)
UnderOneLight: 108G (1.6%, 108G)
gooblz: 100G (1.5%, 11,518G)

black bets:
AllInBot: 9,898G (48.6%, 9,898G)
NicoSavoy: 3,213G (15.8%, 107,102G)
gorgewall: 1,437G (7.1%, 1,437G)
Zeroroute: 1,054G (5.2%, 1,054G)
latebit: 1,006G (4.9%, 1,006G)
Seaweed_B: 1,000G (4.9%, 64,054G)
DeathTaxesAndAnime: 892G (4.4%, 892G)
Artea_: 810G (4.0%, 810G)
twelfthrootoftwo: 300G (1.5%, 3,484G)
PantherIscariot: 200G (1.0%, 2,101G)
datadrivenbot: 200G (1.0%, 49,063G)
Gunz232323: 143G (0.7%, 143G)
Wallrod: 100G (0.5%, 1,000G)
phelannguyen: 100G (0.5%, 518G)
