Final Bets: red - 11 bets for 18,258G (57.6%, x0.73); champion - 17 bets for 13,417G (42.4%, x1.36)

red bets:
Firesheath: 12,485G (68.4%, 12,485G)
latebit: 1,849G (10.1%, 18,490G)
holandrix: 1,183G (6.5%, 1,183G)
killth3kid: 616G (3.4%, 6,599G)
coralreeferz: 552G (3.0%, 4,696G)
douchetron: 403G (2.2%, 792G)
Gunz232323: 369G (2.0%, 369G)
gorgewall: 201G (1.1%, 7,141G)
AllInBot: 200G (1.1%, 200G)
armaniimam: 200G (1.1%, 1,087G)
twelfthrootoftwo: 200G (1.1%, 5,397G)

champion bets:
reinoe: 5,000G (37.3%, 88,113G)
Shalloween: 1,400G (10.4%, 56,033G)
DeathTaxesAndAnime: 1,347G (10.0%, 1,347G)
BirbBrainsBot: 1,000G (7.5%, 32,859G)
superdevon1: 820G (6.1%, 41,045G)
NovaKnight21: 740G (5.5%, 740G)
Zeroroute: 600G (4.5%, 600G)
Laserman1000: 599G (4.5%, 5,199G)
nekojin: 500G (3.7%, 29,663G)
Dymntd: 500G (3.7%, 27,823G)
datadrivenbot: 200G (1.5%, 49,364G)
outer_monologue: 200G (1.5%, 2,200G)
holdenmagronik: 150G (1.1%, 2,355G)
Galeronis: 112G (0.8%, 112G)
PantherIscariot: 111G (0.8%, 2,913G)
rednecknazgul: 100G (0.7%, 2,102G)
getthemoneyz: 38G (0.3%, 1,515,247G)
