Final Bets: green - 13 bets for 13,141G (65.4%, x0.53); champion - 13 bets for 6,955G (34.6%, x1.89)

green bets:
OneHundredFists: 4,000G (30.4%, 53,550G)
TheChainNerd: 2,685G (20.4%, 4,685G)
DavenIII: 2,033G (15.5%, 2,033G)
BirbBrainsBot: 1,000G (7.6%, 120,390G)
HaateXIII: 720G (5.5%, 720G)
JumbocactuarX27: 570G (4.3%, 570G)
YaBoy125: 532G (4.0%, 532G)
Cryptopsy70: 524G (4.0%, 11,416G)
CapnChaos12: 500G (3.8%, 13,589G)
oldmanbody: 206G (1.6%, 206G)
AllInBot: 171G (1.3%, 171G)
NightwolfXVI: 100G (0.8%, 100G)
CosmicTactician: 100G (0.8%, 24,646G)

champion bets:
Anasetsuken: 1,500G (21.6%, 7,935G)
RuneS_77: 1,000G (14.4%, 10,711G)
getthemoneyz: 752G (10.8%, 916,195G)
Laserman1000: 700G (10.1%, 15,500G)
metagameface: 643G (9.2%, 643G)
prince_rogers_nelson_: 500G (7.2%, 19,088G)
run_with_stone_GUNs: 500G (7.2%, 21,127G)
DustBirdEX: 352G (5.1%, 352G)
Thyrandaal: 308G (4.4%, 308G)
Soltaker21: 300G (4.3%, 1,102G)
old_overholt_: 200G (2.9%, 39,317G)
Firesheath: 100G (1.4%, 2,426G)
datadrivenbot: 100G (1.4%, 35,273G)
