Final Bets: purple - 9 bets for 4,800G (34.7%, x1.88); brown - 12 bets for 9,038G (65.3%, x0.53)

purple bets:
LeoNightFury: 1,423G (29.6%, 1,423G)
Aldrammech: 1,000G (20.8%, 12,551G)
Arbitae: 1,000G (20.8%, 1,700G)
wooyuji: 500G (10.4%, 14,086G)
Baron_von_Scrub: 353G (7.4%, 2,308G)
twelfthrootoftwo: 300G (6.2%, 10,232G)
Lawndough: 120G (2.5%, 120G)
Kyune: 100G (2.1%, 2,444G)
getthemoneyz: 4G (0.1%, 683,684G)

brown bets:
UmaiJam: 2,402G (26.6%, 24,029G)
E_Ballard: 2,131G (23.6%, 2,131G)
HaplessOne: 1,111G (12.3%, 84,361G)
BirbBrainsBot: 1,000G (11.1%, 95,781G)
Rislyeu: 883G (9.8%, 883G)
killth3kid: 555G (6.1%, 12,410G)
PotionDweller: 386G (4.3%, 386G)
JLinkletter: 164G (1.8%, 164G)
ungabunga_bot: 156G (1.7%, 518,175G)
datadrivenbot: 100G (1.1%, 18,242G)
ko2q: 100G (1.1%, 3,609G)
isolatedchapelsix: 50G (0.6%, 277G)
