Player: !Green
Team: Green Team
Palettes: Green/White



DustBirdEX
Monster
Capricorn
73
64
Reaper










DavenIII
Monster
Capricorn
73
64
Reaper










Lydian C
Monster
Capricorn
73
64
Reaper










Baron Von Scrub
Monster
Capricorn
73
64
Reaper







