Final Bets: red - 11 bets for 4,673G (26.3%, x2.80); blue - 14 bets for 13,079G (73.7%, x0.36)

red bets:
GreatRedDragon: 1,304G (27.9%, 10,304G)
HaplessOne: 1,111G (23.8%, 49,961G)
fenixcrest: 622G (13.3%, 12,443G)
Baron_von_Scrub: 353G (7.6%, 2,938G)
DudeMonkey77: 333G (7.1%, 12,638G)
solomongrundy85: 300G (6.4%, 11,550G)
Eyepoor_: 250G (5.3%, 3,593G)
nifboy: 100G (2.1%, 6,079G)
MirtaiAtana: 100G (2.1%, 4,560G)
Bongomon7: 100G (2.1%, 7,091G)
run_with_STONE_GUNS: 100G (2.1%, 7,416G)

blue bets:
LDSkinny: 2,993G (22.9%, 2,993G)
ACSpree: 2,000G (15.3%, 45,268G)
Lydian_C: 1,301G (9.9%, 1,301G)
DustBirdEX: 1,242G (9.5%, 1,242G)
JumbocactuarX27: 1,000G (7.6%, 7,636G)
ungabunga_bot: 1,000G (7.6%, 334,758G)
BirbBrainsBot: 1,000G (7.6%, 9,218G)
getthemoneyz: 1,000G (7.6%, 611,333G)
DavenIII: 926G (7.1%, 926G)
FNCardascia_: 216G (1.7%, 216G)
Lyner87: 200G (1.5%, 64,986G)
GrayGhostGaming: 100G (0.8%, 22,677G)
datadrivenbot: 100G (0.8%, 13,106G)
DrAntiSocial: 1G (0.0%, 8,635G)
