Final Bets: black - 14 bets for 13,896G (69.7%, x0.43); purple - 13 bets for 6,031G (30.3%, x2.30)

black bets:
reinoe: 5,000G (36.0%, 108,832G)
E_Ballard: 4,458G (32.1%, 4,458G)
nifboy: 670G (4.8%, 670G)
Nizaha: 628G (4.5%, 8,436G)
sinnyil2: 544G (3.9%, 1,088G)
VolgraTheMoose: 501G (3.6%, 10,858G)
ribbiks: 500G (3.6%, 10,150G)
DustBirdEX: 476G (3.4%, 11,917G)
getthemoneyz: 240G (1.7%, 1,455,212G)
roqqqpsi: 229G (1.6%, 919G)
datadrivenbot: 200G (1.4%, 45,249G)
TasisSai: 200G (1.4%, 14,403G)
holdenmagronik: 150G (1.1%, 1,357G)
CT_5_Holy: 100G (0.7%, 1,334G)

purple bets:
Lord_Gwarth: 1,199G (19.9%, 1,199G)
BirbBrainsBot: 1,000G (16.6%, 71,087G)
JumbocactuarX27: 1,000G (16.6%, 22,804G)
coralreeferz: 750G (12.4%, 4,386G)
maximumcrit: 500G (8.3%, 2,545G)
Shalloween: 400G (6.6%, 9,681G)
Chambs12: 252G (4.2%, 2,408G)
AllInBot: 200G (3.3%, 200G)
boosted420: 200G (3.3%, 4,179G)
Radiance89: 200G (3.3%, 3,052G)
roofiepops: 123G (2.0%, 17,808G)
DouglasDragonThePoet: 107G (1.8%, 2,211G)
PoroTact: 100G (1.7%, 7,440G)
