Final Bets: red - 18 bets for 6,810G (27.4%, x2.65); green - 9 bets for 18,024G (72.6%, x0.38)

red bets:
BirbBrainsBot: 1,000G (14.7%, 179,195G)
sinnyil2: 904G (13.3%, 904G)
HaateXIII: 748G (11.0%, 748G)
mpghappiness: 572G (8.4%, 572G)
dogsandcatsand: 552G (8.1%, 4,902G)
killth3kid: 400G (5.9%, 3,292G)
furrytomahawkk: 378G (5.6%, 378G)
TasisSai: 328G (4.8%, 328G)
datadrivenbot: 318G (4.7%, 42,254G)
joewcarson: 300G (4.4%, 31,313G)
AllInBot: 291G (4.3%, 291G)
Treafa: 232G (3.4%, 628G)
brokenknight201: 200G (2.9%, 787G)
getthemoneyz: 162G (2.4%, 1,299,290G)
MrMarkPolo: 125G (1.8%, 4,204G)
nhammen: 100G (1.5%, 15,075G)
nifboy: 100G (1.5%, 4,035G)
Firesheath: 100G (1.5%, 2,071G)

green bets:
evontno: 8,342G (46.3%, 8,342G)
pplvee1: 4,410G (24.5%, 4,410G)
RaIshtar: 3,000G (16.6%, 26,159G)
TheChainNerd: 1,000G (5.5%, 24,025G)
Snowfats: 500G (2.8%, 6,315G)
DHaveWord: 320G (1.8%, 10,402G)
Geffro1908: 232G (1.3%, 232G)
skipsandwiches: 120G (0.7%, 120G)
CosmicTactician: 100G (0.6%, 42,873G)
