Final Bets: green - 22 bets for 20,142G (73.5%, x0.36); yellow - 16 bets for 7,279G (26.5%, x2.77)

green bets:
Kezia444: 9,296G (46.2%, 9,296G)
TheChainNerd: 1,481G (7.4%, 20,481G)
Aldrammech: 1,158G (5.7%, 1,158G)
Vex_Novisk: 1,000G (5.0%, 28,920G)
gogofromtogo: 1,000G (5.0%, 1,000G)
Shalloween: 668G (3.3%, 668G)
HaplessOne: 666G (3.3%, 299,460G)
volgrathemoose: 607G (3.0%, 607G)
ShintaroNayaka: 600G (3.0%, 3,316G)
Phi_Sig: 555G (2.8%, 154,470G)
moonliquor: 500G (2.5%, 2,157G)
killth3kid: 500G (2.5%, 19,476G)
luminarii: 450G (2.2%, 17,195G)
AllInBot: 261G (1.3%, 261G)
nifboy: 250G (1.2%, 13,410G)
mardokttv: 250G (1.2%, 5,785G)
letdowncity: 200G (1.0%, 4,990G)
BoneMiser: 200G (1.0%, 14,941G)
Milkman153: 200G (1.0%, 2,758G)
CosmicTactician: 100G (0.5%, 10,060G)
Grandlanzer: 100G (0.5%, 100G)
itszaane: 100G (0.5%, 779G)

yellow bets:
roofiepops: 1,400G (19.2%, 15,204G)
TheKillerNacho: 1,110G (15.2%, 1,110G)
BirbBrainsBot: 1,000G (13.7%, 184,032G)
ValtonZenola: 880G (12.1%, 880G)
OmnibotGamma: 500G (6.9%, 18,134G)
DustBirdEX: 456G (6.3%, 6,066G)
rico_flex: 400G (5.5%, 33,179G)
Firesheath: 386G (5.3%, 386G)
getthemoneyz: 318G (4.4%, 730,046G)
Lythe_Caraker: 250G (3.4%, 123,952G)
E_Ballard: 100G (1.4%, 8,554G)
ravingsockmonkey: 100G (1.4%, 919G)
Evewho: 100G (1.4%, 1,727G)
a_mo22: 100G (1.4%, 4,687G)
datadrivenbot: 100G (1.4%, 22,107G)
serperemagus: 79G (1.1%, 2,635G)
