Final Bets: white - 20 bets for 18,987G (54.9%, x0.82); brown - 25 bets for 15,614G (45.1%, x1.22)

white bets:
Vex_Novisk: 5,000G (26.3%, 26,781G)
Aldrammech: 4,032G (21.2%, 4,032G)
OmnibotGamma: 2,500G (13.2%, 18,274G)
TheChainNerd: 1,000G (5.3%, 20,000G)
Hamborn: 1,000G (5.3%, 57,495G)
Candina: 999G (5.3%, 22,411G)
Rislyeu: 668G (3.5%, 1,336G)
shs_: 600G (3.2%, 11,880G)
killth3kid: 500G (2.6%, 19,825G)
mardokttv: 500G (2.6%, 5,675G)
Legitimized: 444G (2.3%, 444G)
volgrathemoose: 424G (2.2%, 424G)
ValtonZenola: 380G (2.0%, 380G)
jicchi: 200G (1.1%, 625G)
letdowncity: 200G (1.1%, 5,129G)
AllInBot: 120G (0.6%, 120G)
gogofromtogo: 120G (0.6%, 120G)
ravingsockmonkey: 100G (0.5%, 853G)
Freezerman47: 100G (0.5%, 263G)
datadrivenbot: 100G (0.5%, 22,040G)

brown bets:
RaIshtar: 1,488G (9.5%, 1,488G)
roofiepops: 1,400G (9.0%, 13,339G)
HaplessOne: 1,234G (7.9%, 301,723G)
CapnChaos12: 1,092G (7.0%, 1,092G)
BirbBrainsBot: 1,000G (6.4%, 183,361G)
BoneMiser: 1,000G (6.4%, 15,338G)
Error72: 1,000G (6.4%, 16,462G)
DustBirdEX: 789G (5.1%, 4,131G)
getthemoneyz: 600G (3.8%, 729,741G)
Phi_Sig: 555G (3.6%, 154,745G)
Shalloween: 520G (3.3%, 1,020G)
moonliquor: 500G (3.2%, 898G)
itszaane: 500G (3.2%, 1,397G)
Sairentozon7: 500G (3.2%, 8,020G)
EnemyController: 500G (3.2%, 345,849G)
GnielKnows: 452G (2.9%, 452G)
ShintaroNayaka: 400G (2.6%, 4,042G)
Firesheath: 368G (2.4%, 368G)
HASTERIOUS: 368G (2.4%, 7,374G)
kaidykat: 300G (1.9%, 7,101G)
rico_flex: 300G (1.9%, 33,108G)
lanouh: 254G (1.6%, 254G)
CandyTamer: 244G (1.6%, 244G)
serperemagus: 150G (1.0%, 2,608G)
Majatok: 100G (0.6%, 1,013G)
