Final Bets: white - 28 bets for 38,826G (86.4%, x0.16); black - 18 bets for 6,107G (13.6%, x6.36)

white bets:
ZZ_Yoshi: 13,309G (34.3%, 66,546G)
Dymntd: 5,000G (12.9%, 36,883G)
Shalloween: 3,827G (9.9%, 7,504G)
DeathTaxesAndAnime: 1,878G (4.8%, 3,684G)
DarrenDinosaurs: 1,768G (4.6%, 1,768G)
Aldrammech: 1,699G (4.4%, 1,699G)
leakimiko: 1,670G (4.3%, 11,134G)
ccordc: 1,157G (3.0%, 1,157G)
SarrgeQc: 1,001G (2.6%, 1,127G)
catfashions: 1,000G (2.6%, 11,480G)
Fenrislfr: 1,000G (2.6%, 8,501G)
twelfthrootoftwo: 786G (2.0%, 786G)
DrCarse: 646G (1.7%, 646G)
Sykper: 500G (1.3%, 3,907G)
Odin007_88: 500G (1.3%, 12,263G)
ZephyrTempest: 456G (1.2%, 1,522G)
DustBirdEX: 453G (1.2%, 3,730G)
ko2q: 336G (0.9%, 336G)
genericco: 325G (0.8%, 325G)
cgMcWhiskers: 256G (0.7%, 256G)
80S1X: 254G (0.7%, 254G)
Heroebal: 200G (0.5%, 4,138G)
tsdZero: 200G (0.5%, 1,342G)
trigger15: 200G (0.5%, 5,256G)
fd3sihk: 104G (0.3%, 104G)
ungabunga_bot: 101G (0.3%, 306,192G)
datadrivenbot: 100G (0.3%, 11,471G)
gggamezzz: 100G (0.3%, 5,005G)

black bets:
BirbBrainsBot: 1,000G (16.4%, 177,904G)
Chuckolator: 867G (14.2%, 22,260G)
sinnyil2: 600G (9.8%, 600G)
Rislyeu: 579G (9.5%, 579G)
CapnChaos12: 500G (8.2%, 50,189G)
Estan_AD: 500G (8.2%, 2,977G)
Meta_Five: 300G (4.9%, 3,556G)
Master_Metroid: 300G (4.9%, 578G)
getthemoneyz: 220G (3.6%, 615,593G)
astrozin11: 202G (3.3%, 4,402G)
sukotsuto: 200G (3.3%, 428G)
Billybones5150: 200G (3.3%, 23,354G)
electric_glass: 170G (2.8%, 5,362G)
byrdturbo: 169G (2.8%, 9,587G)
benticore: 100G (1.6%, 578G)
brokenknight201: 100G (1.6%, 283G)
DrAntiSocial: 50G (0.8%, 6,927G)
cougboi: 50G (0.8%, 22,664G)
