Final Bets: green - 21 bets for 24,815G (62.5%, x0.60); black - 20 bets for 14,907G (37.5%, x1.66)

green bets:
Odin007_88: 9,390G (37.8%, 9,390G)
benticore: 3,000G (12.1%, 3,441G)
Shalloween: 2,827G (11.4%, 5,545G)
electric_glass: 2,000G (8.1%, 6,230G)
cougboi: 1,500G (6.0%, 23,553G)
catfashions: 1,500G (6.0%, 8,185G)
DrCarse: 829G (3.3%, 829G)
Aldrammech: 725G (2.9%, 725G)
brokenknight201: 419G (1.7%, 419G)
byrdturbo: 333G (1.3%, 10,945G)
genericco: 312G (1.3%, 312G)
cgMcWhiskers: 310G (1.2%, 310G)
Sykper: 300G (1.2%, 4,213G)
sukotsuto: 299G (1.2%, 1,798G)
SarrgeQc: 271G (1.1%, 271G)
Rislyeu: 200G (0.8%, 4,129G)
gggamezzz: 200G (0.8%, 4,247G)
tsdZero: 100G (0.4%, 100G)
ANFz: 100G (0.4%, 25,913G)
RunicMagus: 100G (0.4%, 34,552G)
datadrivenbot: 100G (0.4%, 11,192G)

black bets:
DeathTaxesAndAnime: 2,834G (19.0%, 5,557G)
Chuckolator: 1,477G (9.9%, 26,648G)
sinnyil2: 1,200G (8.0%, 4,103G)
ungabunga_bot: 1,000G (6.7%, 305,172G)
BirbBrainsBot: 1,000G (6.7%, 184,751G)
Estan_AD: 1,000G (6.7%, 6,796G)
Master_Metroid: 950G (6.4%, 1,681G)
nok____: 860G (5.8%, 860G)
DustBirdEX: 676G (4.5%, 2,621G)
Fenrislfr: 501G (3.4%, 501G)
CapnChaos12: 500G (3.4%, 53,473G)
twelfthrootoftwo: 460G (3.1%, 460G)
ZephyrTempest: 456G (3.1%, 492G)
skuldar: 429G (2.9%, 429G)
ko2q: 406G (2.7%, 406G)
evdoggity: 400G (2.7%, 7,185G)
Meta_Five: 300G (2.0%, 5,740G)
80S1X: 204G (1.4%, 204G)
getthemoneyz: 128G (0.9%, 616,871G)
fd3sihk: 126G (0.8%, 126G)
