Final Bets: purple - 10 bets for 6,349G (27.1%, x2.69); brown - 19 bets for 17,069G (72.9%, x0.37)

purple bets:
Zeroroute: 2,483G (39.1%, 2,483G)
BirbBrainsBot: 816G (12.9%, 77,839G)
dogsandcatsand: 532G (8.4%, 532G)
getthemoneyz: 510G (8.0%, 2,167,022G)
ColetteMSLP: 496G (7.8%, 17,257G)
roofiepops: 474G (7.5%, 3,156G)
theQueenfuta: 300G (4.7%, 1,016G)
Zerguzen: 288G (4.5%, 288G)
2b_yorha_b: 250G (3.9%, 9,899G)
Shalloween: 200G (3.2%, 12,633G)

brown bets:
Mesmaster: 3,000G (17.6%, 10,500G)
pplvee1: 2,307G (13.5%, 2,307G)
latebit: 2,300G (13.5%, 20,104G)
CorpusCav: 2,007G (11.8%, 48,041G)
Demon_Lord_Josh: 1,472G (8.6%, 1,472G)
HorusTaurus: 1,000G (5.9%, 7,566G)
Thyrandaal: 760G (4.5%, 760G)
lowlf: 652G (3.8%, 3,556G)
ammobox69: 589G (3.5%, 6,795G)
resjudicata3: 568G (3.3%, 568G)
krombobreaker: 500G (2.9%, 35,251G)
Error72: 352G (2.1%, 352G)
Lolthsmeat: 336G (2.0%, 336G)
FE34923: 305G (1.8%, 305G)
LadyCyan: 220G (1.3%, 220G)
AllInBot: 200G (1.2%, 200G)
ValensEXP_: 200G (1.2%, 6,461G)
datadrivenbot: 200G (1.2%, 83,641G)
gorgewall: 101G (0.6%, 5,712G)
