Final Bets: red - 15 bets for 14,415G (62.6%, x0.60); yellow - 16 bets for 8,609G (37.4%, x1.67)

red bets:
FatTunaKing: 3,621G (25.1%, 3,621G)
Mesmaster: 3,000G (20.8%, 11,616G)
latebit: 1,100G (7.6%, 20,960G)
Thyrandaal: 1,043G (7.2%, 1,043G)
BirbBrainsBot: 1,000G (6.9%, 77,023G)
MemoriesofFinal: 1,000G (6.9%, 15,493G)
theQueenfuta: 716G (5.0%, 716G)
krombobreaker: 500G (3.5%, 35,441G)
Smashy: 500G (3.5%, 3,142G)
ColetteMSLP: 496G (3.4%, 16,761G)
Lolthsmeat: 461G (3.2%, 461G)
Zeroroute: 336G (2.3%, 336G)
2b_yorha_b: 250G (1.7%, 8,649G)
datadrivenbot: 200G (1.4%, 83,715G)
superdevon1: 192G (1.3%, 1,284G)

yellow bets:
pplvee1: 3,169G (36.8%, 3,169G)
CorpusCav: 1,102G (12.8%, 48,792G)
HorusTaurus: 1,000G (11.6%, 7,938G)
resjudicata3: 779G (9.0%, 779G)
silentkaster: 400G (4.6%, 27,605G)
LadyCyan: 302G (3.5%, 302G)
ammobox69: 300G (3.5%, 7,014G)
Zerguzen: 288G (3.3%, 288G)
AllInBot: 274G (3.2%, 274G)
Chuckolator: 263G (3.1%, 1,233G)
Demon_Lord_Josh: 200G (2.3%, 2,020G)
ValensEXP_: 200G (2.3%, 6,535G)
Lydian_C: 123G (1.4%, 3,554G)
gorgewall: 101G (1.2%, 5,750G)
mirapoix: 100G (1.2%, 11,712G)
getthemoneyz: 8G (0.1%, 2,166,512G)
