High Risers:
1. Raixelol: +2,554G
2. Xsifthewolf: +2,505G
3. Haplessone: +2,159G
4. Kylewontoliveforever: +1,931G
5. Soren_of_tyto: +1,625G
6. Memoriesoffinal: +1,440G
7. Ericzubat: +972G
8. Seniorbunk: +804G
9. Colettemslp: +768G
10. Johannjfs: +726G
11. King_smashington: +713G
12. Ayeayex3: +521G
13. Worldly_unbrain: +500G
14. Thesabretoothe: +500G
15. Itstokey89: +500G
16. Threedope: +500G
17. 0v3rr8d: +304G
18. Grininda: +200G
19. Reddwind_: +200G
20. Leonidusx: +190G
21. Mykelwolfscar: +166G
22. Peeronid: +91G
23. Volgrathemoose: +60G
24. Sephdarkheart: +50G
25. Hotpocketsofficial: +4G
26. Ar_tactic: -100G
27. Resjudicata3: -123G
28. Novaknight21: -400G
29. Upvla: -451G
30. Chihuahua_charity: -500G
31. Dhaveword: -667G
32. Rune339: -810G
33. Dogsandcatsand: -1,104G
34. Seppu777: -1,110G
35. Lijarkh: -1,601G
36. Bruubarg: -1,822G
