Final Bets: purple - 16 bets for 9,495G (49.2%, x1.03); brown - 19 bets for 9,814G (50.8%, x0.97)

purple bets:
UmaiJam: 2,000G (21.1%, 12,429G)
SeniorBunk: 1,500G (15.8%, 20,625G)
NicoSavoy: 1,099G (11.6%, 1,099G)
TheChainNerd: 1,000G (10.5%, 20,169G)
BirbBrainsBot: 1,000G (10.5%, 12,422G)
HASTERIOUS: 663G (7.0%, 13,277G)
otakutaylor: 400G (4.2%, 4,097G)
pplvee1: 400G (4.2%, 1,000G)
cloud92684: 300G (3.2%, 10,124G)
Nelrith: 300G (3.2%, 571G)
brokenknight201: 232G (2.4%, 232G)
gorgewall: 201G (2.1%, 20,333G)
TeaTime29: 100G (1.1%, 1,991G)
Seawalker777: 100G (1.1%, 1,053G)
Kyune: 100G (1.1%, 30,578G)
docmitchphd: 100G (1.1%, 346G)

brown bets:
maakur_: 1,304G (13.3%, 1,304G)
Zetchryn: 1,000G (10.2%, 4,670G)
worldly_unbrain: 1,000G (10.2%, 4,904G)
Candina: 999G (10.2%, 81,276G)
RaIshtar: 928G (9.5%, 928G)
LivingHitokiri: 860G (8.8%, 860G)
VynxYukida: 800G (8.2%, 12,414G)
serperemagus: 767G (7.8%, 767G)
ShintaroNayaka: 400G (4.1%, 6,199G)
CassiePhoenix: 364G (3.7%, 364G)
Breakdown777: 300G (3.1%, 5,538G)
Vaxaldan: 236G (2.4%, 236G)
thenextlantern: 204G (2.1%, 204G)
gogofromtogo: 200G (2.0%, 1,144G)
AllInBot: 100G (1.0%, 100G)
Jeeboheebo: 100G (1.0%, 2,339G)
datadrivenbot: 100G (1.0%, 25,632G)
CosmicTactician: 100G (1.0%, 12,336G)
getthemoneyz: 52G (0.5%, 746,550G)
