Final Bets: white - 10 bets for 5,494G (55.5%, x0.80); brown - 13 bets for 4,414G (44.5%, x1.24)

white bets:
pplvee1: 1,093G (19.9%, 1,093G)
TheChainNerd: 1,000G (18.2%, 18,000G)
Zetchryn: 1,000G (18.2%, 4,637G)
VynxYukida: 800G (14.6%, 11,588G)
Candina: 500G (9.1%, 82,243G)
cloud92684: 500G (9.1%, 9,824G)
gorgewall: 201G (3.7%, 20,297G)
TeaTime29: 200G (3.6%, 1,791G)
AllInBot: 100G (1.8%, 100G)
Jeeboheebo: 100G (1.8%, 2,336G)

brown bets:
BirbBrainsBot: 1,000G (22.7%, 12,243G)
NicoSavoy: 648G (14.7%, 648G)
thenextlantern: 565G (12.8%, 565G)
LivingHitokiri: 500G (11.3%, 3,088G)
serperemagus: 309G (7.0%, 309G)
Breakdown777: 300G (6.8%, 6,074G)
Vaxaldan: 236G (5.3%, 236G)
gogofromtogo: 200G (4.5%, 1,501G)
docmitchphd: 200G (4.5%, 410G)
getthemoneyz: 156G (3.5%, 746,868G)
Kyune: 100G (2.3%, 30,560G)
Nelrith: 100G (2.3%, 100G)
datadrivenbot: 100G (2.3%, 25,629G)
