Final Bets: white - 14 bets for 8,680G (43.4%, x1.30); black - 18 bets for 11,299G (56.6%, x0.77)

white bets:
resjudicata3: 1,346G (15.5%, 1,346G)
Lord_Gwarth: 1,323G (15.2%, 1,323G)
LivingHitokiri: 1,000G (11.5%, 127,348G)
Nizaha: 896G (10.3%, 62,811G)
killth3kid: 644G (7.4%, 24,055G)
latebit: 608G (7.0%, 608G)
lowlf: 592G (6.8%, 13,214G)
lube_squid: 500G (5.8%, 11,646G)
Willjin: 500G (5.8%, 1,550G)
Craymel_Mage: 395G (4.6%, 395G)
PlayDeity: 300G (3.5%, 674G)
Musashi45: 256G (2.9%, 256G)
killabandaid: 220G (2.5%, 220G)
mirapoix: 100G (1.2%, 2,643G)

black bets:
Mesmaster: 1,360G (12.0%, 1,360G)
gorgewall: 1,186G (10.5%, 1,186G)
BirbBrainsBot: 1,000G (8.9%, 130,304G)
Sairentozon7: 1,000G (8.9%, 22,571G)
JonnyCue: 1,000G (8.9%, 8,574G)
Strifu: 856G (7.6%, 1,679G)
seppu777: 798G (7.1%, 798G)
HorusTaurus: 583G (5.2%, 583G)
CorpusCav: 500G (4.4%, 12,150G)
DarrenDinosaurs: 500G (4.4%, 4,782G)
Twisted_Nutsatchel: 500G (4.4%, 4,911G)
roofiepops: 480G (4.2%, 480G)
3ngag3: 384G (3.4%, 17,498G)
getthemoneyz: 312G (2.8%, 2,059,293G)
otakutaylor: 304G (2.7%, 304G)
king_smashington: 236G (2.1%, 236G)
AllInBot: 200G (1.8%, 200G)
maakur_: 100G (0.9%, 6,011G)
