Final Bets: black - 10 bets for 9,019G (54.5%, x0.83); purple - 12 bets for 7,515G (45.5%, x1.20)

black bets:
upvla: 2,000G (22.2%, 4,502G)
NicoSavoy: 2,000G (22.2%, 53,437G)
helpimabug: 1,655G (18.4%, 1,655G)
sinnyil2: 1,200G (13.3%, 83,325G)
BirbBrainsBot: 1,000G (11.1%, 49,592G)
getthemoneyz: 404G (4.5%, 1,914,160G)
ser_pyrro: 300G (3.3%, 1,589G)
ValensEXP_: 260G (2.9%, 497G)
BartTradingCompany: 100G (1.1%, 3,968G)
lijarkh: 100G (1.1%, 4,665G)

purple bets:
Firesheath: 1,514G (20.1%, 1,514G)
CT_5_Holy: 1,285G (17.1%, 5,140G)
thunderducker: 1,140G (15.2%, 1,140G)
ArrenJevleth: 1,000G (13.3%, 4,387G)
Riley331: 612G (8.1%, 612G)
Raixelol: 592G (7.9%, 15,351G)
lowlf: 504G (6.7%, 10,024G)
brodeity: 268G (3.6%, 268G)
velvet_muffins: 200G (2.7%, 2,420G)
datadrivenbot: 200G (2.7%, 58,175G)
AllInBot: 100G (1.3%, 100G)
PolkaGrandma: 100G (1.3%, 2,974G)
