Final Bets: blue - 5 bets for 1,856G (16.7%, x4.98); green - 5 bets for 9,252G (83.3%, x0.20)

blue bets:
BirbBrainsBot: 1,000G (53.9%, 37,438G)
getthemoneyz: 328G (17.7%, 1,808,975G)
SephDarkheart: 308G (16.6%, 308G)
datadrivenbot: 200G (10.8%, 65,794G)
alcibiadeez: 20G (1.1%, 756G)

green bets:
JumbocactuarX27: 5,952G (64.3%, 5,952G)
pepperbuster: 1,000G (10.8%, 3,226G)
carnivalnights: 1,000G (10.8%, 10,916G)
snkey: 1,000G (10.8%, 5,250G)
Foamsoldier: 300G (3.2%, 6,887G)
