Final Bets: black - 11 bets for 8,592G (51.2%, x0.95); brown - 15 bets for 8,191G (48.8%, x1.05)

black bets:
Mathlexis: 4,146G (48.3%, 4,188G)
prince_rogers_nelson_: 1,000G (11.6%, 9,609G)
DudeMonkey77: 1,000G (11.6%, 19,181G)
Firesheath: 672G (7.8%, 672G)
Evewho: 500G (5.8%, 2,225G)
neocarbuncle: 310G (3.6%, 1,060G)
ColetteMSLP: 300G (3.5%, 4,134G)
alekzanndrr: 264G (3.1%, 264G)
silentkaster: 200G (2.3%, 8,134G)
maakur_: 100G (1.2%, 77,221G)
DuneMeta: 100G (1.2%, 2,049G)

brown bets:
Forkmore: 2,000G (24.4%, 41,677G)
Nizaha: 1,001G (12.2%, 9,825G)
Laserman1000: 929G (11.3%, 9,729G)
fluffskull: 802G (9.8%, 802G)
YaBoy125: 636G (7.8%, 636G)
BirbBrainsBot: 530G (6.5%, 530G)
LionelParks: 500G (6.1%, 10,554G)
Arashii85: 500G (6.1%, 9,272G)
turbn: 500G (6.1%, 4,529G)
Snowfats: 250G (3.1%, 5,933G)
CosmicTactician: 200G (2.4%, 30,319G)
Lydian_C: 121G (1.5%, 171,248G)
Miku_Shikhu: 100G (1.2%, 16,181G)
datadrivenbot: 100G (1.2%, 48,277G)
getthemoneyz: 22G (0.3%, 1,113,739G)
