Final Bets: green - 24 bets for 13,235G (45.3%, x1.21); yellow - 23 bets for 15,970G (54.7%, x0.83)

green bets:
Lordminsc: 1,505G (11.4%, 32,106G)
fenaen: 1,500G (11.3%, 60,712G)
Shalloween: 1,500G (11.3%, 60,713G)
Baron_von_Scrub: 1,111G (8.4%, 69,546G)
gooseyourself: 1,000G (7.6%, 24,368G)
Warchild_29: 1,000G (7.6%, 1,581G)
getthemoneyz: 1,000G (7.6%, 596,800G)
Jaritras: 800G (6.0%, 800G)
R_Raynos: 528G (4.0%, 528G)
gorgewall: 500G (3.8%, 7,469G)
ANFz: 500G (3.8%, 13,964G)
Sairentozon7: 443G (3.3%, 443G)
LivingHitokiri: 276G (2.1%, 276G)
cgMcWhiskers: 212G (1.6%, 212G)
twelfthrootoftwo: 200G (1.5%, 4,326G)
KasugaiRoastedPeas: 200G (1.5%, 2,975G)
Lavatis: 200G (1.5%, 2,928G)
Fenrislfr: 156G (1.2%, 156G)
ethias91: 104G (0.8%, 104G)
nifboy: 100G (0.8%, 1,863G)
ko2q: 100G (0.8%, 1,546G)
datadrivenbot: 100G (0.8%, 5,512G)
zunath: 100G (0.8%, 832G)
Lythe_Caraker: 100G (0.8%, 113,824G)

yellow bets:
MagicBottle: 2,966G (18.6%, 59,330G)
nofreewill: 2,771G (17.4%, 2,771G)
Zeroroute: 1,616G (10.1%, 1,616G)
Hamborn: 1,000G (6.3%, 57,726G)
BirbBrainsBot: 1,000G (6.3%, 70,883G)
Lionhermit: 1,000G (6.3%, 32,069G)
ungabunga_bot: 883G (5.5%, 279,823G)
Laserman1000: 723G (4.5%, 51,623G)
madming25: 686G (4.3%, 686G)
killth3kid: 500G (3.1%, 35,324G)
itzover9001: 417G (2.6%, 417G)
Aka_Gilly: 400G (2.5%, 41,218G)
TheRylander: 400G (2.5%, 3,236G)
skuldar: 300G (1.9%, 2,084G)
Estan_AD: 250G (1.6%, 1,141G)
ACSpree: 200G (1.3%, 264G)
museofdoom: 200G (1.3%, 3,740G)
Dymntd: 200G (1.3%, 2,087G)
WrathfulRemy: 108G (0.7%, 108G)
Conome: 100G (0.6%, 2,460G)
gggamezzz: 100G (0.6%, 454G)
moonliquor: 100G (0.6%, 739G)
DrAntiSocial: 50G (0.3%, 17,154G)
