High Risers:
1. Loveyouallfriends: +3,348G
2. Mus_musculus: +3,254G
3. Luckyluckluc2: +3,150G
4. Lord_gwarth: +2,951G
5. Volgrathemoose: +2,647G
6. Dogsandcatsand: +1,922G
7. Gorgewall: +1,094G
8. King_smashington: +779G
9. Eoika: +516G
10. Genkidou: +459G
11. Memoriesoffinal: +430G
12. Zerguzen: +337G
13. Skillomono: +318G
14. Tripaplex: +313G
15. Mirapoix: +125G
16. Nhammen: +106G
17. Dracoknightzero: +63G
18. Aly327: +4G
19. Neinhartx: -37G
20. Actual_jp: -100G
21. Silentkaster: -101G
22. Gongonono: -165G
23. Reddwind_: -200G
24. Dinin991: -200G
25. Ayeayex3: -200G
26. Killth3kid: -250G
27. Sephdarkheart: -279G
28. Lwtest: -300G
29. Onehundredfists: -300G
30. Maakur_: -395G
31. Deathtaxesandanime: -431G
32. Run_with_stone_guns: -432G
33. Upvla: -438G
34. Skipsandwiches: -460G
35. Novaknight21: -549G
36. Davestrider55: -686G
37. J_macc1991: -725G
38. Brokenknight201: -800G
39. Nizaha: -859G
40. Carledo: -862G
41. Khelor_: -914G
42. Valensexp_: -984G
43. Pplvee1: -1,000G
44. E_ballard: -1,000G
45. Afro_gundam: -1,068G
46. Chihuahua_charity: -1,225G
47. Just_here2: -1,300G
48. Error72: -1,401G
49. Raixelol: -1,800G
50. Sairentozon7: -2,867G
51. Leonidusx: -3,812G
52. Nifboy: -4,123G
53. Randgridr: -5,396G
