Final Bets: green - 14 bets for 8,178G (48.6%, x1.06); yellow - 13 bets for 8,659G (51.4%, x0.94)

green bets:
VolgraTheMoose: 1,501G (18.4%, 11,257G)
Leonidusx: 1,000G (12.2%, 134,829G)
dogsandcatsand: 1,000G (12.2%, 42,076G)
loveyouallfriends: 1,000G (12.2%, 35,195G)
DeathTaxesAndAnime: 915G (11.2%, 915G)
Nizaha: 864G (10.6%, 73,883G)
Lord_Gwarth: 500G (6.1%, 2,990G)
SephDarkheart: 364G (4.5%, 42,942G)
ser_pyrro: 284G (3.5%, 284G)
AllInBot: 200G (2.4%, 200G)
datadrivenbot: 200G (2.4%, 73,295G)
genkidou: 150G (1.8%, 1,968G)
king_smashington: 100G (1.2%, 574G)
nhammen: 100G (1.2%, 249,945G)

yellow bets:
randgridr: 5,920G (68.4%, 5,920G)
upvla: 400G (4.6%, 3,274G)
Zerguzen: 384G (4.4%, 384G)
ValensEXP_: 352G (4.1%, 4,833G)
Afro_Gundam: 300G (3.5%, 1,389G)
gongonono: 300G (3.5%, 1,710G)
Chihuahua_Charity: 272G (3.1%, 272G)
getthemoneyz: 220G (2.5%, 2,013,997G)
LuckyLuckLuc2: 123G (1.4%, 2,247G)
maakur_: 100G (1.2%, 1,007G)
MemoriesofFinal: 100G (1.2%, 31,153G)
lwtest: 100G (1.2%, 5,001G)
BirbBrainsBot: 88G (1.0%, 159,256G)
