Final Bets: red - 19 bets for 16,244G (71.9%, x0.39); blue - 15 bets for 6,360G (28.1%, x2.55)

red bets:
AllInBot: 3,504G (21.6%, 3,504G)
TheChainNerd: 3,387G (20.9%, 6,775G)
pplvee1: 1,000G (6.2%, 4,092G)
BirbBrainsBot: 1,000G (6.2%, 88,421G)
Error72: 1,000G (6.2%, 8,637G)
NovaKnight21: 1,000G (6.2%, 5,475G)
gooseyourself: 982G (6.0%, 1,965G)
DLJuggernaut: 831G (5.1%, 3,325G)
LDSkinny: 596G (3.7%, 596G)
Rislyeu: 580G (3.6%, 580G)
CosmicTactician: 500G (3.1%, 25,223G)
megaman2202: 452G (2.8%, 452G)
coralreeferz: 350G (2.2%, 4,544G)
joewcarson: 300G (1.8%, 41,898G)
Anasetsuken: 261G (1.6%, 261G)
gorgewall: 201G (1.2%, 8,204G)
sSwing: 100G (0.6%, 7,444G)
JumbocactuarX27: 100G (0.6%, 1,641G)
datadrivenbot: 100G (0.6%, 36,259G)

blue bets:
nifboy: 1,518G (23.9%, 1,518G)
maakur_: 1,140G (17.9%, 1,140G)
SQUiDSQUARKLIN: 725G (11.4%, 725G)
Laserman1000: 704G (11.1%, 30,004G)
rocl: 367G (5.8%, 3,676G)
getthemoneyz: 310G (4.9%, 894,793G)
autnagrag: 300G (4.7%, 7,033G)
cam_ATS: 276G (4.3%, 276G)
DustBirdEX: 234G (3.7%, 3,206G)
GladiatorLupe: 200G (3.1%, 1,275G)
J_MacC1991: 186G (2.9%, 186G)
bringmoreknives: 100G (1.6%, 14,739G)
He77onurse: 100G (1.6%, 100G)
serperemagus: 100G (1.6%, 3,427G)
Miku_Shikhu: 100G (1.6%, 18,862G)
