Final Bets: white - 17 bets for 6,515G (46.4%, x1.16); brown - 15 bets for 7,533G (53.6%, x0.86)

white bets:
LDSkinny: 1,182G (18.1%, 1,182G)
Nickyfive: 1,000G (15.3%, 2,455G)
Meta_Five: 800G (12.3%, 3,388G)
TheChainNerd: 700G (10.7%, 700G)
Rislyeu: 580G (8.9%, 580G)
megaman2202: 456G (7.0%, 456G)
joewcarson: 300G (4.6%, 41,937G)
Nelrith: 246G (3.8%, 2,465G)
gorgewall: 201G (3.1%, 8,433G)
Tuckerism: 200G (3.1%, 200G)
SQUiDSQUARKLIN: 200G (3.1%, 2,031G)
Anasetsuken: 200G (3.1%, 519G)
AllInBot: 100G (1.5%, 100G)
Quadh0nk: 100G (1.5%, 1,329G)
CosmicTactician: 100G (1.5%, 25,435G)
datadrivenbot: 100G (1.5%, 36,547G)
IphoneDarkness: 50G (0.8%, 3,125G)

brown bets:
GladiatorLupe: 1,000G (13.3%, 1,850G)
ShintaroNayaka: 1,000G (13.3%, 14,143G)
pplvee1: 1,000G (13.3%, 12,531G)
BirbBrainsBot: 1,000G (13.3%, 89,559G)
Laserman1000: 879G (11.7%, 32,779G)
maakur_: 668G (8.9%, 668G)
fenaen: 600G (8.0%, 28,874G)
autnagrag: 400G (5.3%, 6,631G)
cam_ATS: 276G (3.7%, 276G)
DustBirdEX: 234G (3.1%, 3,214G)
adrammallech: 200G (2.7%, 797G)
benticore: 124G (1.6%, 2,487G)
RuneS_77: 100G (1.3%, 8,852G)
serperemagus: 50G (0.7%, 5,794G)
getthemoneyz: 2G (0.0%, 894,540G)
