Final Bets: white - 12 bets for 5,572G (25.1%, x2.99); black - 13 bets for 16,663G (74.9%, x0.33)

white bets:
SkylerBunny: 1,500G (26.9%, 13,972G)
BirbBrainsBot: 1,000G (17.9%, 96,456G)
dogsandcatsand: 564G (10.1%, 564G)
Raixelol: 548G (9.8%, 27,937G)
KasugaiRoastedPeas: 516G (9.3%, 516G)
latebit: 328G (5.9%, 328G)
killth3kid: 300G (5.4%, 22,712G)
rNdOrchestra: 260G (4.7%, 1,458G)
CorpusCav: 200G (3.6%, 24,808G)
getthemoneyz: 176G (3.2%, 1,871,608G)
AllInBot: 100G (1.8%, 100G)
BartTradingCompany: 80G (1.4%, 808G)

black bets:
Mesmaster: 5,000G (30.0%, 144,426G)
krombobreaker: 2,521G (15.1%, 2,521G)
Zeroroute: 1,841G (11.0%, 7,672G)
reinoe: 1,500G (9.0%, 5,241G)
gorgewall: 1,469G (8.8%, 1,469G)
resjudicata3: 1,448G (8.7%, 1,448G)
akash7: 1,006G (6.0%, 1,006G)
bruubarg: 916G (5.5%, 916G)
farside00831: 462G (2.8%, 462G)
CosmicTactician: 200G (1.2%, 31,140G)
IciclePop0: 100G (0.6%, 800G)
ANFz: 100G (0.6%, 1,839G)
datadrivenbot: 100G (0.6%, 58,708G)
