Final Bets: red - 19 bets for 14,729G (79.9%, x0.25); white - 9 bets for 3,695G (20.1%, x3.99)

red bets:
reinoe: 3,112G (21.1%, 3,112G)
Thyrandaal: 2,666G (18.1%, 165,024G)
dogsandcatsand: 1,148G (7.8%, 2,251G)
Shalloween: 1,041G (7.1%, 2,082G)
BirbBrainsBot: 1,000G (6.8%, 100,153G)
Zeroroute: 872G (5.9%, 3,965G)
gorgewall: 804G (5.5%, 804G)
thunderducker: 775G (5.3%, 9,762G)
Phi_Sig: 555G (3.8%, 31,805G)
CosmicTactician: 500G (3.4%, 29,753G)
resjudicata3: 492G (3.3%, 492G)
krombobreaker: 344G (2.3%, 344G)
ArrenJevleth: 300G (2.0%, 5,524G)
killth3kid: 300G (2.0%, 25,558G)
regios91: 216G (1.5%, 216G)
akash7: 204G (1.4%, 204G)
datadrivenbot: 200G (1.4%, 58,008G)
AllInBot: 100G (0.7%, 100G)
Chaide: 100G (0.7%, 100G)

white bets:
VolgraTheMoose: 1,001G (27.1%, 123,034G)
CorpusCav: 666G (18.0%, 26,706G)
Raixelol: 548G (14.8%, 27,844G)
SeniorBunk: 496G (13.4%, 496G)
Lord_Gwarth: 350G (9.5%, 1,492G)
bigbongsmoker: 280G (7.6%, 1,621G)
BartTradingCompany: 148G (4.0%, 1,484G)
getthemoneyz: 106G (2.9%, 1,872,538G)
Sietaha: 100G (2.7%, 3,433G)
