Final Bets: white - 15 bets for 5,642G (21.9%, x3.57); champion - 24 bets for 20,124G (78.1%, x0.28)

white bets:
jakeduhhsnake: 2,000G (35.4%, 3,641G)
roofiepops: 600G (10.6%, 600G)
powergems: 500G (8.9%, 4,383G)
Error72: 500G (8.9%, 8,976G)
CapnChaos12: 416G (7.4%, 416G)
Saldarin: 300G (5.3%, 4,390G)
Lythe_Caraker: 250G (4.4%, 123,267G)
nifboy: 250G (4.4%, 11,648G)
HaateXIII: 250G (4.4%, 5,341G)
Estan_AD: 150G (2.7%, 2,055G)
Heroebal: 100G (1.8%, 7,883G)
datadrivenbot: 100G (1.8%, 20,050G)
DeathTaxesAndAnime: 100G (1.8%, 2,011G)
getthemoneyz: 76G (1.3%, 720,282G)
zepharoth89: 50G (0.9%, 529G)

champion bets:
BoneMiser: 5,238G (26.0%, 5,238G)
thefyeman: 3,000G (14.9%, 67,676G)
Theseawolf1: 1,000G (5.0%, 55,979G)
BirbBrainsBot: 1,000G (5.0%, 166,548G)
RaIshtar: 1,000G (5.0%, 6,176G)
Mesmaster: 1,000G (5.0%, 67,718G)
fenaen: 870G (4.3%, 1,740G)
TheMM42: 854G (4.2%, 17,083G)
krasny1944: 701G (3.5%, 1,701G)
HaplessOne: 666G (3.3%, 267,749G)
Rislyeu: 649G (3.2%, 649G)
Laserman1000: 604G (3.0%, 3,104G)
AlenaZarek: 500G (2.5%, 44,761G)
Pie108: 500G (2.5%, 10,269G)
alecttox: 500G (2.5%, 7,078G)
Lanshaft: 420G (2.1%, 1,792G)
kaidykat: 300G (1.5%, 6,946G)
Breakdown777: 300G (1.5%, 4,258G)
Sairentozon7: 293G (1.5%, 3,757G)
AllInBot: 229G (1.1%, 229G)
Milkman153: 200G (1.0%, 403G)
E_Ballard: 100G (0.5%, 9,872G)
maakur_: 100G (0.5%, 2,695G)
CosmicTactician: 100G (0.5%, 18,404G)
