Final Bets: green - 24 bets for 20,358G (67.4%, x0.48); yellow - 12 bets for 9,859G (32.6%, x2.06)

green bets:
OneHundredFists: 3,500G (17.2%, 41,971G)
DLJuggernaut: 3,142G (15.4%, 15,713G)
Thyrandaal: 2,575G (12.6%, 2,575G)
BirbBrainsBot: 1,000G (4.9%, 105,589G)
DeathTaxesAndAnime: 1,000G (4.9%, 1,000G)
CorpusCav: 989G (4.9%, 989G)
HaateXIII: 943G (4.6%, 1,887G)
superdevon1: 872G (4.3%, 10,901G)
rednecknazgul: 823G (4.0%, 823G)
NicoSavoy: 739G (3.6%, 739G)
Monopool: 691G (3.4%, 691G)
electric_algus: 600G (2.9%, 9,811G)
Spuzzmocker: 551G (2.7%, 551G)
Laserman1000: 500G (2.5%, 20,200G)
mr_kindaro: 490G (2.4%, 490G)
NovaKnight21: 432G (2.1%, 432G)
roofiepops: 300G (1.5%, 300G)
AllInBot: 240G (1.2%, 240G)
gorgewall: 201G (1.0%, 8,071G)
GladiatorLupe: 200G (1.0%, 2,493G)
getthemoneyz: 194G (1.0%, 901,986G)
Arcblazer23: 176G (0.9%, 176G)
Ring_Wyrm: 100G (0.5%, 1,724G)
datadrivenbot: 100G (0.5%, 35,348G)

yellow bets:
Rislyeu: 3,387G (34.4%, 6,774G)
Evewho: 1,673G (17.0%, 1,673G)
Mesmaster: 1,000G (10.1%, 24,917G)
SkylerBunny: 1,000G (10.1%, 110,537G)
AkiriXx: 880G (8.9%, 880G)
prince_rogers_nelson_: 448G (4.5%, 448G)
Lydian_C: 396G (4.0%, 396G)
CapnChaos12: 300G (3.0%, 11,707G)
serperemagus: 271G (2.7%, 271G)
abaven_alistair: 204G (2.1%, 204G)
JLinkletter: 200G (2.0%, 614G)
Digitalsocrates: 100G (1.0%, 13,662G)
