Final Bets: purple - 24 bets for 15,641G (51.3%, x0.95); brown - 14 bets for 14,863G (48.7%, x1.05)

purple bets:
Rislyeu: 4,816G (30.8%, 4,816G)
HaateXIII: 1,419G (9.1%, 2,838G)
HRak050: 1,012G (6.5%, 1,012G)
Kalabain: 1,000G (6.4%, 26,426G)
SkylerBunny: 1,000G (6.4%, 105,537G)
Evewho: 648G (4.1%, 648G)
electric_algus: 600G (3.8%, 9,106G)
Lydian_C: 563G (3.6%, 563G)
mr_kindaro: 527G (3.4%, 527G)
DeathTaxesAndAnime: 500G (3.2%, 1,484G)
Arcblazer23: 371G (2.4%, 371G)
nok____: 347G (2.2%, 7,342G)
gorgewall: 301G (1.9%, 8,295G)
roofiepops: 300G (1.9%, 300G)
ColetteMSLP: 300G (1.9%, 1,327G)
Avin_Chaos: 299G (1.9%, 18,901G)
CT_5_Holy: 296G (1.9%, 296G)
AkiriXx: 290G (1.9%, 290G)
serperemagus: 248G (1.6%, 248G)
abaven_alistair: 204G (1.3%, 204G)
GladiatorLupe: 200G (1.3%, 2,390G)
JLinkletter: 200G (1.3%, 593G)
rednecknazgul: 100G (0.6%, 1,122G)
datadrivenbot: 100G (0.6%, 35,438G)

brown bets:
Digitalsocrates: 4,926G (33.1%, 16,422G)
Mesmaster: 3,000G (20.2%, 21,917G)
NicoSavoy: 1,097G (7.4%, 1,097G)
superdevon1: 1,041G (7.0%, 10,418G)
getthemoneyz: 1,000G (6.7%, 901,546G)
BirbBrainsBot: 1,000G (6.7%, 105,073G)
NovaKnight21: 911G (6.1%, 911G)
CorpusCav: 412G (2.8%, 412G)
KyleWonToLiveForever: 399G (2.7%, 399G)
Banzem: 345G (2.3%, 345G)
CapnChaos12: 300G (2.0%, 11,407G)
Spuzzmocker: 232G (1.6%, 232G)
AllInBot: 100G (0.7%, 100G)
Monopool: 100G (0.7%, 930G)
