Final Bets: white - 19 bets for 11,241G (38.4%, x1.61); black - 22 bets for 18,069G (61.6%, x0.62)

white bets:
TheChainNerd: 1,780G (15.8%, 1,780G)
Rislyeu: 1,602G (14.3%, 1,602G)
toka222: 1,260G (11.2%, 43,142G)
NovaKnight21: 1,000G (8.9%, 5,283G)
CaptainGarlock: 1,000G (8.9%, 11,665G)
Bilabrin: 840G (7.5%, 840G)
Tuckerism: 700G (6.2%, 700G)
Firesheath: 488G (4.3%, 488G)
coralreeferz: 450G (4.0%, 2,392G)
ShintaroNayaka: 400G (3.6%, 15,057G)
CapnChaos12: 300G (2.7%, 12,874G)
cam_ATS: 276G (2.5%, 276G)
serperemagus: 244G (2.2%, 244G)
gorgewall: 201G (1.8%, 7,474G)
Belkra: 200G (1.8%, 2,314G)
holyonline: 200G (1.8%, 34,227G)
CosmicTactician: 100G (0.9%, 25,753G)
RuneS_77: 100G (0.9%, 7,826G)
datadrivenbot: 100G (0.9%, 36,172G)

black bets:
reinoe: 3,000G (16.6%, 20,607G)
DLJuggernaut: 2,500G (13.8%, 10,001G)
prince_rogers_nelson_: 2,274G (12.6%, 4,548G)
DavenIII: 2,000G (11.1%, 3,493G)
OneHundredFists: 1,841G (10.2%, 1,841G)
roofiepops: 1,400G (7.7%, 11,943G)
BirbBrainsBot: 1,000G (5.5%, 94,340G)
Laserman1000: 800G (4.4%, 33,200G)
killth3kid: 500G (2.8%, 7,332G)
mpghappiness: 333G (1.8%, 3,073G)
getthemoneyz: 308G (1.7%, 894,861G)
LDSkinny: 300G (1.7%, 300G)
Lordminsc: 300G (1.7%, 2,137G)
Soltaker21: 300G (1.7%, 4,546G)
DustBirdEX: 234G (1.3%, 1,391G)
docmitchphd: 208G (1.2%, 208G)
Anasetsuken: 200G (1.1%, 1,908G)
nok____: 146G (0.8%, 9,446G)
computerghoul: 125G (0.7%, 2,512G)
AllInBot: 100G (0.6%, 100G)
E_Ballard: 100G (0.6%, 7,085G)
Flameatron: 100G (0.6%, 836G)
