Final Bets: green - 18 bets for 3,895G (14.5%, x5.92); yellow - 30 bets for 23,041G (85.5%, x0.17)

Lodrak: -1,001G (16,241G > 15,240G)
HRak050: -471G (471G > 144G)
gamesage53: -275G (275G > 148G)
M0nk3yNutz: -236G (236G > 236G)
roqqqpsi: -222G (541G > 320G)
Chuckolator: -204G (7,649G > 7,445G)
HaychDub: -200G (12,124G > 11,924G)
snkey: -200G (36,922G > 36,722G)
getthemoneyz: -175G (338,751G > 338,576G)
TheManInPlaid: -111G (706G > 595G)
Firesheath: -100G (3,632G > 3,532G)
rrazzoug: -100G (5,315G > 5,215G)
Treapvort: -100G (2,889G > 2,789G)
maakur_: -100G (60,669G > 60,569G)
Alc_Trinity: -100G (21,109G > 21,009G)
Zagorsek: -100G (280,529G > 280,429G)
evdoggity: -100G (960G > 860G)
UFOCATCHERDAILY: -100G (4,292G > 4,192G)


toka222: +1,268G (400,727G > 401,995G)
Shalloween: +270G (34,886G > 35,156G)
Rastanar: +254G (8,093G > 8,347G)
sinnyil2: +220G (24,611G > 24,831G)
Winterharte: +169G (5,382G > 5,551G)
BirbBrainsBot: +169G (173,753G > 173,922G)
SeedSC: +169G (69,071G > 69,240G)
bad1dea: +169G (166,699G > 166,868G)
kai_shee: +169G (51,168G > 51,337G)
Verxl: +126G (747G > 873G)
BadBlanket: +106G (629G > 735G)
NovaKnight21: +93G (553G > 646G)
Zeroroute: +85G (500G > 585G)
HaplessOne: +85G (1,999G > 2,084G)
MoonSlayerRS: +75G (443G > 518G)
ra1kia: +51G (302G > 353G)
urieltheflameofgod: +49G (289G > 338G)
ZephyrTempest: +47G (9,652G > 9,699G)
Kittiesoink: +46G (271G > 317G)
nerdynel17: +42G (251G > 293G)
Aurilliux: +42G (10,286G > 10,328G)
StryderSeven: +34G (2,492G > 2,526G)
tevoul: +29G (1,722G > 1,751G)
kingchadking: +26G (156G > 182G)
AlenaZarek: +17G (5,377G > 5,394G)
Oshimi12: +17G (100G > 117G)
datadrivenbot: +17G (12,662G > 12,679G)
EmperorBeef: +17G (21,882G > 21,899G)
Glory_Seeker: +17G (5,872G > 5,889G)
rimat777: +17G (108G > 125G)
