Final Bets: blue - 21 bets for 14,084G (58.9%, x0.70); yellow - 22 bets for 9,810G (41.1%, x1.44)

toka222: -2,600G (408,525G > 405,925G)
Kithmar796: -1,937G (1,937G > 216G)
OmnibotGamma: -1,312G (1,312G > 600G)
leakimiko: -1,120G (22,405G > 21,285G)
Zeroroute: -1,094G (1,094G > 500G)
kai_shee: -1,000G (50,337G > 49,337G)
Nickyfive: -936G (936G > 428G)
jigglefluffenstuff: -805G (805G > 368G)
MoonSlayerRS: -744G (744G > 304G)
readdesert: -618G (618G > 252G)
lowlf: -464G (464G > 464G)
fenixcrest: -428G (428G > 428G)
Aurilliux: -250G (10,375G > 10,125G)
nerdynel17: -172G (172G > 172G)
Zagorsek: -100G (280,229G > 280,129G)
JumbocactuarX27: -100G (5,940G > 5,840G)
Nizaha: -100G (13,867G > 13,767G)
AlenaZarek: -100G (5,438G > 5,338G)
Glory_Seeker: -100G (5,833G > 5,733G)
datadrivenbot: -100G (12,623G > 12,523G)
getthemoneyz: -4G (338,462G > 338,458G)


sinnyil2: +1,866G (25,354G > 27,224G)
NovaKnight21: +1,479G (1,030G > 2,509G)
BirbBrainsBot: +1,436G (174,109G > 175,545G)
bad1dea: +1,436G (167,059G > 168,495G)
Winterharte: +1,436G (5,987G > 7,423G)
Verxl: +823G (573G > 1,396G)
HaplessOne: +810G (564G > 1,374G)
Lanshaft: +781G (12,721G > 13,502G)
ThePineappleSalesman: +557G (388G > 945G)
SeedSC: +541G (69,377G > 69,918G)
roqqqpsi: +459G (320G > 779G)
Baron_von_Scrub: +362G (3,895G > 4,257G)
Grasnikk: +333G (232G > 565G)
Kittiesoink: +316G (220G > 536G)
killth3kid: +316G (2,943G > 3,259G)
ZephyrTempest: +290G (9,741G > 10,031G)
rrazzoug: +144G (5,378G > 5,522G)
Oshimi12: +144G (100G > 244G)
Treapvort: +144G (2,733G > 2,877G)
maakur_: +144G (60,513G > 60,661G)
Bongomon7: +144G (4,673G > 4,817G)
tevoul: +126G (1,763G > 1,889G)
