Final Bets: red - 9 bets for 4,511G (24.3%, x3.11); blue - 17 bets for 14,051G (75.7%, x0.32)

red bets:
BirbBrainsBot: 1,000G (22.2%, 182,084G)
loveyouallfriends: 1,000G (22.2%, 39,415G)
Zeroroute: 837G (18.6%, 3,349G)
E_Ballard: 604G (13.4%, 3,128G)
getthemoneyz: 306G (6.8%, 1,836,125G)
BartTradingCompany: 247G (5.5%, 2,473G)
thunderducker: 225G (5.0%, 3,680G)
PuzzleSecretary: 192G (4.3%, 192G)
ko2q: 100G (2.2%, 2,446G)

blue bets:
snkey: 4,169G (29.7%, 41,289G)
SkylerBunny: 2,000G (14.2%, 26,734G)
SephDarkheart: 1,546G (11.0%, 1,546G)
Runeseeker22: 1,500G (10.7%, 7,215G)
VolgraTheMoose: 1,201G (8.5%, 142,120G)
Shalloween: 784G (5.6%, 784G)
Lord_Gwarth: 737G (5.2%, 737G)
krombobreaker: 592G (4.2%, 592G)
BoneMiser: 448G (3.2%, 448G)
Sietaha: 200G (1.4%, 200G)
datadrivenbot: 200G (1.4%, 54,269G)
Gyrolin: 174G (1.2%, 174G)
moocaotao: 100G (0.7%, 1,820G)
Verriand: 100G (0.7%, 100G)
diyahressem: 100G (0.7%, 4,458G)
CorpusCav: 100G (0.7%, 6,138G)
victoriolue: 100G (0.7%, 47,493G)
