Final Bets: blue - 10 bets for 6,138G (17.2%, x4.80); green - 13 bets for 29,477G (82.8%, x0.21)

blue bets:
krombobreaker: 2,831G (46.1%, 2,831G)
BirbBrainsBot: 1,000G (16.3%, 179,194G)
powergems: 555G (9.0%, 14,627G)
getthemoneyz: 538G (8.8%, 1,835,060G)
BoneMiser: 452G (7.4%, 452G)
PuzzleSecretary: 262G (4.3%, 262G)
Lord_Gwarth: 200G (3.3%, 1,196G)
nhammen: 100G (1.6%, 429,030G)
Verriand: 100G (1.6%, 100G)
mrfripps: 100G (1.6%, 9,480G)

green bets:
SkylerBunny: 12,856G (43.6%, 25,713G)
loveyouallfriends: 5,000G (17.0%, 35,415G)
snkey: 4,700G (15.9%, 49,673G)
NicoSavoy: 1,584G (5.4%, 1,584G)
SephDarkheart: 1,441G (4.9%, 2,882G)
Neinhartx: 1,200G (4.1%, 1,240G)
VolgraTheMoose: 1,001G (3.4%, 143,236G)
Zeroroute: 833G (2.8%, 2,605G)
Sietaha: 200G (0.7%, 200G)
datadrivenbot: 200G (0.7%, 54,116G)
CorpusCav: 200G (0.7%, 5,316G)
BartTradingCompany: 162G (0.5%, 1,624G)
moocaotao: 100G (0.3%, 1,880G)
