Final Bets: white - 28 bets for 14,738G (55.8%, x0.79); black - 26 bets for 11,675G (44.2%, x1.26)

white bets:
OmnibotGamma: 2,000G (13.6%, 6,971G)
Carledo: 1,442G (9.8%, 1,442G)
BadBlanket: 1,416G (9.6%, 1,416G)
Humble_Fabio: 1,061G (7.2%, 1,379G)
BirbBrainsBot: 1,000G (6.8%, 196,381G)
bad1dea: 1,000G (6.8%, 184,985G)
Virilikus: 1,000G (6.8%, 29,402G)
Evewho: 1,000G (6.8%, 6,396G)
Riot_Jayway: 500G (3.4%, 188,481G)
HaychDub: 450G (3.1%, 7,846G)
getthemoneyz: 402G (2.7%, 356,061G)
Athropos1: 328G (2.2%, 328G)
Wizard_01: 322G (2.2%, 22,034G)
nomoment: 300G (2.0%, 300G)
Oshimi12: 300G (2.0%, 5,762G)
ll_aja_ll: 300G (2.0%, 5,002G)
TheGuesty: 250G (1.7%, 4,186G)
Tyerenex: 228G (1.5%, 228G)
ZephyrTempest: 228G (1.5%, 5,537G)
Winnosh: 220G (1.5%, 220G)
AllInBot: 200G (1.4%, 200G)
Aeolus_000: 200G (1.4%, 204G)
MrDiggs49: 116G (0.8%, 116G)
Kellios11: 100G (0.7%, 6,982G)
datadrivenbot: 100G (0.7%, 13,905G)
rrazzoug: 100G (0.7%, 6,560G)
maakur_: 100G (0.7%, 57,974G)
Avin_Chaos: 75G (0.5%, 1,395G)

black bets:
Lodrak: 2,189G (18.7%, 2,189G)
RyuTsuno: 1,251G (10.7%, 1,251G)
mirapoix: 1,116G (9.6%, 1,116G)
rockmem21: 1,089G (9.3%, 1,089G)
Axelrod: 947G (8.1%, 18,946G)
GreatRedDragon: 669G (5.7%, 669G)
Herecomedeth: 555G (4.8%, 33,792G)
fenaen: 533G (4.6%, 1,067G)
wackyzachyy: 427G (3.7%, 427G)
lijarkh: 360G (3.1%, 360G)
SpaZmodeus: 333G (2.9%, 2,772G)
I_nod_my_head_when_I_lose: 300G (2.6%, 17,653G)
arch8000: 300G (2.6%, 11,484G)
Chuckolator: 258G (2.2%, 8,029G)
nerdynel17: 176G (1.5%, 176G)
rjA0zcOQ96: 141G (1.2%, 2,325G)
ungabunga_bot: 126G (1.1%, 1,325G)
DonCardenio: 116G (1.0%, 116G)
spit8866: 104G (0.9%, 104G)
Zagorsek: 100G (0.9%, 281,520G)
Aneyus: 100G (0.9%, 13,094G)
Nizaha: 100G (0.9%, 14,295G)
mpghappiness: 100G (0.9%, 6,002G)
RughSontos: 100G (0.9%, 1,402G)
Jeardra: 100G (0.9%, 222G)
DaKoopa49: 85G (0.7%, 285G)
