Final Bets: black - 14 bets for 9,365G (35.6%, x1.81); brown - 22 bets for 16,933G (64.4%, x0.55)

black bets:
mirapoix: 1,311G (14.0%, 1,311G)
Aldrammech: 1,000G (10.7%, 4,072G)
Jerboj: 1,000G (10.7%, 59,335G)
BirbBrainsBot: 1,000G (10.7%, 169,490G)
Fenrislfr: 1,000G (10.7%, 13,603G)
ColetteMSLP: 700G (7.5%, 35,479G)
DustBirdEX: 654G (7.0%, 5,218G)
Master_Metroid: 577G (6.2%, 577G)
ungabunga_bot: 494G (5.3%, 292,000G)
CoderCalamity: 461G (4.9%, 1,537G)
ZephyrTempest: 456G (4.9%, 1,627G)
SarrgeQc: 350G (3.7%, 350G)
dorman_777: 198G (2.1%, 198G)
getthemoneyz: 164G (1.8%, 615,996G)

brown bets:
Pie108: 2,000G (11.8%, 188,546G)
Mtueni: 2,000G (11.8%, 233,179G)
CorwinAmbrose: 1,675G (9.9%, 1,675G)
DeathTaxesAndAnime: 1,043G (6.2%, 1,043G)
volgrathemoose: 1,001G (5.9%, 9,697G)
Dymntd: 1,000G (5.9%, 38,926G)
EnemyController: 1,000G (5.9%, 164,064G)
ACSpree: 997G (5.9%, 997G)
sinnyil2: 960G (5.7%, 960G)
ShintaroNayaka: 941G (5.6%, 941G)
astrozin11: 595G (3.5%, 595G)
HaateXIII: 500G (3.0%, 4,495G)
RubenFlonne: 500G (3.0%, 14,805G)
Estan_AD: 500G (3.0%, 1,835G)
Kronikle: 472G (2.8%, 472G)
Odin007_88: 384G (2.3%, 384G)
Baron_von_Scrub: 304G (1.8%, 304G)
KasugaiRoastedPeas: 300G (1.8%, 5,277G)
twelfthrootoftwo: 300G (1.8%, 789G)
awokenshard: 261G (1.5%, 261G)
datadrivenbot: 100G (0.6%, 11,047G)
Sairentozon7: 100G (0.6%, 1,067G)
