Final Bets: red - 23 bets for 16,195G (57.0%, x0.76); brown - 16 bets for 12,237G (43.0%, x1.32)

red bets:
volgrathemoose: 2,001G (12.4%, 10,251G)
Mtueni: 2,000G (12.3%, 234,285G)
sinnyil2: 1,491G (9.2%, 1,491G)
Aldrammech: 1,000G (6.2%, 3,072G)
hales_bopp_it: 1,000G (6.2%, 9,657G)
Fenrislfr: 1,000G (6.2%, 12,603G)
EnemyController: 1,000G (6.2%, 164,617G)
BirbBrainsBot: 1,000G (6.2%, 168,490G)
ungabunga_bot: 938G (5.8%, 291,506G)
reinoe: 604G (3.7%, 604G)
Odin007_88: 596G (3.7%, 596G)
ferroniss: 500G (3.1%, 1,330G)
Dymntd: 500G (3.1%, 39,479G)
mirapoix: 468G (2.9%, 468G)
awokenshard: 405G (2.5%, 405G)
DustBirdEX: 354G (2.2%, 4,564G)
CoderCalamity: 322G (2.0%, 1,076G)
CorwinAmbrose: 300G (1.9%, 2,601G)
getthemoneyz: 238G (1.5%, 615,832G)
SarrgeQc: 220G (1.4%, 220G)
maakur_: 100G (0.6%, 117,389G)
datadrivenbot: 100G (0.6%, 11,102G)
ZephyrTempest: 58G (0.4%, 1,171G)

brown bets:
HaateXIII: 2,386G (19.5%, 4,772G)
Pie108: 2,000G (16.3%, 189,652G)
ACSpree: 1,548G (12.7%, 1,548G)
SkylerBunny: 1,200G (9.8%, 44,467G)
DeathTaxesAndAnime: 826G (6.8%, 1,620G)
Tithonus: 804G (6.6%, 804G)
Kronikle: 737G (6.0%, 737G)
Estan_AD: 500G (4.1%, 2,112G)
DLJuggernaut: 500G (4.1%, 1,955G)
Baron_von_Scrub: 472G (3.9%, 472G)
YaBoy125: 360G (2.9%, 360G)
KasugaiRoastedPeas: 330G (2.7%, 5,443G)
RubenFlonne: 200G (1.6%, 15,082G)
twelfthrootoftwo: 200G (1.6%, 955G)
dorman_777: 124G (1.0%, 124G)
DrAntiSocial: 50G (0.4%, 7,237G)
