Final Bets: red - 29 bets for 15,985G (46.7%, x1.14); blue - 17 bets for 18,240G (53.3%, x0.88)

red bets:
ewan_e: 2,000G (12.5%, 6,954G)
gooseyourself: 2,000G (12.5%, 18,547G)
babieapple: 1,298G (8.1%, 1,298G)
killth3kid: 1,000G (6.3%, 49,135G)
BirbBrainsBot: 1,000G (6.3%, 139,577G)
red__lancer: 1,000G (6.3%, 31,500G)
Lionhermit: 1,000G (6.3%, 44,409G)
Grimmace45: 875G (5.5%, 4,375G)
Aldrammech: 600G (3.8%, 600G)
Majatok: 500G (3.1%, 1,301G)
haigy: 473G (3.0%, 947G)
ZephyrTempest: 456G (2.9%, 3,706G)
HaychDub: 450G (2.8%, 10,199G)
getthemoneyz: 446G (2.8%, 607,662G)
vorap: 400G (2.5%, 25,206G)
YaBoy125: 348G (2.2%, 348G)
arch8000: 300G (1.9%, 8,260G)
TheRylander: 250G (1.6%, 2,258G)
TrueRhyme: 236G (1.5%, 236G)
mirapoix: 200G (1.3%, 4,373G)
Rethera_: 200G (1.3%, 1,120G)
jhaller2: 200G (1.3%, 5,057G)
Rislyeu: 153G (1.0%, 153G)
FriendSquirrel: 100G (0.6%, 22,542G)
nifboy: 100G (0.6%, 6,236G)
Evewho: 100G (0.6%, 12,018G)
SQUiDSQUARKLIN: 100G (0.6%, 4,226G)
XtezGaming: 100G (0.6%, 1,501G)
geglash: 100G (0.6%, 1,950G)

blue bets:
evontno: 8,000G (43.9%, 11,141G)
ko2q: 3,325G (18.2%, 6,651G)
DrAntiSocial: 1,085G (5.9%, 1,085G)
volgrathemoose: 1,001G (5.5%, 17,060G)
HaplessOne: 888G (4.9%, 16,390G)
Estan_AD: 763G (4.2%, 1,527G)
DarrenDinosaurs: 676G (3.7%, 676G)
Shalloween: 500G (2.7%, 20,884G)
ZavyConquest: 500G (2.7%, 1,000G)
Realitydown: 362G (2.0%, 362G)
joewcarson: 300G (1.6%, 2,080G)
cgMcWhiskers: 232G (1.3%, 232G)
Nizaha: 201G (1.1%, 13,786G)
ungabunga_bot: 107G (0.6%, 284,726G)
ACSpree: 100G (0.5%, 33,244G)
Bioticism: 100G (0.5%, 3,716G)
datadrivenbot: 100G (0.5%, 10,870G)
