Final Bets: brown - 17 bets for 9,705G (29.1%, x2.43); champion - 29 bets for 23,619G (70.9%, x0.41)

brown bets:
mirapoix: 1,668G (17.2%, 1,668G)
sinnyil2: 1,450G (14.9%, 51,957G)
DustBirdEX: 1,013G (10.4%, 25,013G)
Aldrammech: 1,000G (10.3%, 46,575G)
elkydeluxe: 800G (8.2%, 19,320G)
roqqqpsi: 690G (7.1%, 3,139G)
Breakdown777: 500G (5.2%, 27,932G)
Shalloween: 500G (5.2%, 59,324G)
b0shii: 333G (3.4%, 11,244G)
LazarusAjin: 300G (3.1%, 26,923G)
rico_flex: 300G (3.1%, 20,582G)
nifboy: 276G (2.8%, 5,520G)
HaateXIII: 250G (2.6%, 21,501G)
DrAntiSocial: 200G (2.1%, 7,966G)
IamInfamous: 200G (2.1%, 804G)
SeniorBunk: 125G (1.3%, 5,320G)
FriendSquirrel: 100G (1.0%, 19,500G)

champion bets:
volgrathemoose: 5,000G (21.2%, 151,179G)
HaplessOne: 5,000G (21.2%, 75,083G)
Zeroroute: 2,435G (10.3%, 8,788G)
ungabunga_bot: 1,000G (4.2%, 176,527G)
BirbBrainsBot: 1,000G (4.2%, 7,421G)
Laserman1000: 872G (3.7%, 34,572G)
TheChainNerd: 800G (3.4%, 800G)
joewcarson: 800G (3.4%, 800G)
UmaiJam: 796G (3.4%, 796G)
ANFz: 500G (2.1%, 10,641G)
RubenFlonne: 500G (2.1%, 19,272G)
superdevon1: 500G (2.1%, 6,675G)
AlenaZarek: 500G (2.1%, 33,788G)
flowinprose: 500G (2.1%, 59,998G)
NoNotBees: 450G (1.9%, 12,442G)
ZephyrTempest: 439G (1.9%, 152,450G)
roofiepops: 400G (1.7%, 20,374G)
EnemyController: 400G (1.7%, 50,485G)
Lanshaft: 324G (1.4%, 7,297G)
Fenrislfr: 249G (1.1%, 2,490G)
jicchi: 204G (0.9%, 204G)
Snoopiku: 200G (0.8%, 2,791G)
carsenhk: 150G (0.6%, 3,957G)
FoeSquirrel: 100G (0.4%, 5,250G)
Lordminsc: 100G (0.4%, 28,953G)
DeathTaxesAndAnime: 100G (0.4%, 20,671G)
Jeeboheebo: 100G (0.4%, 19,391G)
SQUiDSQUARKLIN: 100G (0.4%, 100G)
TheMM42: 100G (0.4%, 15,818G)
