Player: !Yellow
Team: Yellow Team
Palettes: Yellow/Black



Shs
Monster
Aries
58
39
Black Goblin










Vivithegr8
Monster
Sagittarius
63
60
Skeleton










Sypheck
Monster
Aries
48
56
Ochu










Acidicheysus
Male
Libra
72
44
Thief
Summon Magic
Parry
Magic Defense UP
Ignore Terrain

Air Knife

Flash Hat
Chain Vest
108 Gems

Steal Accessory, Arm Aim
Ramuh, Ifrit, Golem, Carbunkle, Bahamut, Silf, Lich
