Final Bets: white - 19 bets for 22,674G (84.3%, x0.19); black - 13 bets for 4,238G (15.7%, x5.35)

white bets:
WireLord: 10,000G (44.1%, 35,738G)
mirapoix: 1,820G (8.0%, 1,820G)
Sairentozon7: 1,321G (5.8%, 1,321G)
upvla: 1,219G (5.4%, 21,251G)
Lydian_C: 1,200G (5.3%, 72,862G)
windsah: 1,003G (4.4%, 1,003G)
BirbBrainsBot: 1,000G (4.4%, 43,410G)
Zetchryn: 928G (4.1%, 928G)
datadrivenbot: 912G (4.0%, 24,962G)
Ross_from_Cali: 858G (3.8%, 858G)
Faplo: 485G (2.1%, 485G)
KamikaziManiac: 414G (1.8%, 414G)
moonliquor: 393G (1.7%, 787G)
electric_glass: 333G (1.5%, 1,858G)
Skarthe: 264G (1.2%, 264G)
Vyroxe: 224G (1.0%, 224G)
twelfthrootoftwo: 100G (0.4%, 3,343G)
BlinkFS: 100G (0.4%, 665G)
Slowbrofist: 100G (0.4%, 2,047G)

black bets:
sinnyil2: 700G (16.5%, 7,112G)
Jerboj: 500G (11.8%, 25,674G)
Arunic: 500G (11.8%, 29,710G)
Estan_AD: 500G (11.8%, 3,277G)
TheMurkGnome: 429G (10.1%, 429G)
Shalloween: 400G (9.4%, 30,117G)
Treapvort: 364G (8.6%, 364G)
AllInBot: 209G (4.9%, 209G)
Bulleta: 200G (4.7%, 4,618G)
getthemoneyz: 186G (4.4%, 460,279G)
Evewho: 100G (2.4%, 451G)
Djorama: 100G (2.4%, 8,059G)
cougboi: 50G (1.2%, 7,506G)
