Player: !White
Team: White Team
Palettes: White/Blue



Strumisgod
Monster
Leo
47
74
Holy Dragon










Nickelbank
Monster
Cancer
66
59
Taiju










Electric Glass
Monster
Gemini
53
66
Steel Giant










E7bbk
Male
Aries
58
79
Ninja
Time Magic
Regenerator
Secret Hunt
Swim

Hidden Knife
Mage Masher
Thief Hat
Wizard Outfit
Reflect Ring

Bomb
Haste, Haste 2, Slow, Immobilize, Float, Demi 2
