Final Bets: green - 14 bets for 7,751G (51.1%, x0.96); yellow - 6 bets for 7,423G (48.9%, x1.04)

green bets:
krombobreaker: 1,000G (12.9%, 24,004G)
BirbBrainsBot: 1,000G (12.9%, 29,331G)
VolgraTheMoose: 888G (11.5%, 28,898G)
Shalloween: 688G (8.9%, 688G)
DanielRKnealeArt: 616G (7.9%, 12,328G)
MemoriesofFinal: 529G (6.8%, 529G)
Blakelmenakle: 500G (6.5%, 13,801G)
silentkaster: 500G (6.5%, 23,190G)
Rhyser76: 495G (6.4%, 495G)
skipsandwiches: 488G (6.3%, 161,319G)
resjudicata3: 480G (6.2%, 480G)
Rikrizen: 211G (2.7%, 4,233G)
datadrivenbot: 200G (2.6%, 78,448G)
Liesol: 156G (2.0%, 156G)

yellow bets:
Zeroroute: 4,893G (65.9%, 11,650G)
Zerguzen: 1,284G (17.3%, 1,284G)
lowlf: 608G (8.2%, 17,008G)
scsuperstar: 228G (3.1%, 228G)
getthemoneyz: 210G (2.8%, 2,096,245G)
AllInBot: 200G (2.7%, 200G)
