Final Bets: red - 16 bets for 20,742G (55.8%, x0.79); white - 9 bets for 16,454G (44.2%, x1.26)

red bets:
fattunaking: 3,600G (17.4%, 3,600G)
LivingHitokiri: 3,000G (14.5%, 149,284G)
HaplessOne: 2,622G (12.6%, 2,622G)
Willjin: 2,400G (11.6%, 38,485G)
thunderducker: 1,650G (8.0%, 13,371G)
OneHundredFists: 1,110G (5.4%, 2,177G)
resjudicata3: 1,103G (5.3%, 1,103G)
BirbBrainsBot: 1,000G (4.8%, 62,096G)
Deathmaker06: 1,000G (4.8%, 36,520G)
Sairentozon7: 1,000G (4.8%, 28,389G)
Lythe_Caraker: 723G (3.5%, 723G)
TheBrett: 500G (2.4%, 3,184G)
AltimaMantoid: 476G (2.3%, 16,676G)
datadrivenbot: 200G (1.0%, 79,831G)
ValensEXP_: 200G (1.0%, 3,517G)
getthemoneyz: 158G (0.8%, 2,100,080G)

white bets:
tinytittyfiend: 7,832G (47.6%, 7,832G)
AllInBot: 4,958G (30.1%, 4,958G)
Mushufasa_: 1,000G (6.1%, 117,430G)
DuPlatypus: 600G (3.6%, 2,192G)
Mesmaster: 512G (3.1%, 512G)
NicoSavoy: 504G (3.1%, 504G)
Arcblazer23: 448G (2.7%, 448G)
lotharek: 400G (2.4%, 12,860G)
CorpusCav: 200G (1.2%, 31,558G)
