Final Bets: red - 15 bets for 6,426G (61.3%, x0.63); green - 9 bets for 4,059G (38.7%, x1.58)

red bets:
Maeveen: 1,049G (16.3%, 1,049G)
BirbBrainsBot: 1,000G (15.6%, 280,755G)
bad1dea: 1,000G (15.6%, 63,965G)
YaBoy125: 600G (9.3%, 600G)
UmaiJam: 501G (7.8%, 5,018G)
rubenflonne: 500G (7.8%, 2,526G)
Evewho: 500G (7.8%, 2,572G)
rechaun: 316G (4.9%, 316G)
getthemoneyz: 220G (3.4%, 448,264G)
alecttox: 200G (3.1%, 38,734G)
InOzWeTrust: 140G (2.2%, 140G)
AllInBot: 100G (1.6%, 100G)
SeniorBunk: 100G (1.6%, 2,897G)
datadrivenbot: 100G (1.6%, 23,119G)
DHaveWord: 100G (1.6%, 3,728G)

green bets:
waterwatereverywhere: 1,258G (31.0%, 2,468G)
Slowbrofist: 822G (20.3%, 822G)
ungabunga_bot: 729G (18.0%, 71,358G)
nifboy: 500G (12.3%, 5,831G)
ugoplatamia: 200G (4.9%, 16,753G)
ThePineappleSalesman: 200G (4.9%, 3,845G)
2sexy4u: 200G (4.9%, 3,214G)
TinhShu: 100G (2.5%, 2,447G)
herrshaun: 50G (1.2%, 3,020G)
