Final Bets: white - 8 bets for 4,687G (36.7%, x1.72); black - 8 bets for 8,070G (63.3%, x0.58)

white bets:
HentaiWriter: 1,453G (31.0%, 1,453G)
bruubarg: 1,000G (21.3%, 26,034G)
BirbBrainsBot: 1,000G (21.3%, 31,284G)
pepperbuster: 500G (10.7%, 1,500G)
MemoriesofFinal: 304G (6.5%, 304G)
datadrivenbot: 200G (4.3%, 65,527G)
Leonidusx: 200G (4.3%, 2,117G)
getthemoneyz: 30G (0.6%, 1,805,858G)

black bets:
DeathTaxesAndAnime: 2,674G (33.1%, 5,245G)
LeoNightFury: 2,069G (25.6%, 2,069G)
Zachara: 1,098G (13.6%, 136,598G)
NicoSavoy: 957G (11.9%, 957G)
reinoe: 520G (6.4%, 520G)
Raixelol: 352G (4.4%, 468G)
macradarkstar: 200G (2.5%, 1,025G)
iBardic: 200G (2.5%, 50,891G)
