Final Bets: white - 6 bets for 6,300G (66.2%, x0.51); purple - 6 bets for 3,220G (33.8%, x1.96)

white bets:
iBardic: 5,000G (79.4%, 50,491G)
shs_: 500G (7.9%, 16,195G)
MemoriesofFinal: 300G (4.8%, 1,119G)
MADSUPERVILLAIN: 200G (3.2%, 1,142G)
datadrivenbot: 200G (3.2%, 65,791G)
Leonidusx: 100G (1.6%, 2,683G)

purple bets:
reinoe: 1,424G (44.2%, 1,424G)
BirbBrainsBot: 1,000G (31.1%, 33,689G)
Raixelol: 352G (10.9%, 352G)
getthemoneyz: 244G (7.6%, 1,806,295G)
DeathTaxesAndAnime: 100G (3.1%, 2,631G)
FriendlySkeleton: 100G (3.1%, 100G)
