Final Bets: white - 7 bets for 6,950G (45.4%, x1.20); black - 14 bets for 8,348G (54.6%, x0.83)

white bets:
neerrm: 2,150G (30.9%, 26,342G)
Thyrandaal: 2,000G (28.8%, 20,937G)
JCBooBot: 1,000G (14.4%, 19,819G)
BirbBrainsBot: 1,000G (14.4%, 121,483G)
lowlf: 500G (7.2%, 3,358G)
JCBoorgo: 200G (2.9%, 1,345G)
Twisted_Nutsatchel: 100G (1.4%, 22,557G)

black bets:
AllInBot: 1,642G (19.7%, 1,642G)
gorgewall: 1,175G (14.1%, 1,175G)
silverChangeling: 1,018G (12.2%, 10,188G)
NovaKnight21: 1,000G (12.0%, 5,634G)
ruleof5: 1,000G (12.0%, 8,788G)
corysteam: 500G (6.0%, 4,353G)
resjudicata3: 376G (4.5%, 376G)
cloudycube: 333G (4.0%, 1,113G)
maximumcrit: 300G (3.6%, 4,144G)
jjhull3: 237G (2.8%, 237G)
Chuckolator: 215G (2.6%, 12,638G)
PuzzleSecretary: 200G (2.4%, 373G)
datadrivenbot: 200G (2.4%, 62,727G)
getthemoneyz: 152G (1.8%, 1,704,719G)
