Final Bets: black - 12 bets for 11,542G (79.5%, x0.26); brown - 5 bets for 2,976G (20.5%, x3.88)

black bets:
eltejongrande: 5,000G (43.3%, 15,315G)
kingchadking: 2,027G (17.6%, 2,027G)
WireLord: 1,000G (8.7%, 30,804G)
CCRUNNER149UWP: 888G (7.7%, 3,837G)
Rhuarc_Redhammer: 606G (5.3%, 606G)
sinnyil2: 508G (4.4%, 508G)
HASTERIOUS: 424G (3.7%, 833G)
upvla: 421G (3.6%, 711G)
JustSuperish: 260G (2.3%, 260G)
L2_Sentinel: 200G (1.7%, 13,877G)
Tekenu: 108G (0.9%, 108G)
AllInBot: 100G (0.9%, 100G)

brown bets:
BirbBrainsBot: 1,000G (33.6%, 295,133G)
SeedSC: 1,000G (33.6%, 181,500G)
getthemoneyz: 654G (22.0%, 448,464G)
ColetteMSLP: 300G (10.1%, 12,303G)
roqqqpsi: 22G (0.7%, 1,689G)
