Final Bets: red - 12 bets for 4,527G (24.4%, x3.11); blue - 21 bets for 14,063G (75.6%, x0.32)

red bets:
CorpusCav: 1,000G (22.1%, 31,642G)
thefyeman: 1,000G (22.1%, 59,950G)
Cryptopsy70: 456G (10.1%, 2,139G)
bruubarg: 439G (9.7%, 1,939G)
Evewho: 412G (9.1%, 412G)
lanouh: 300G (6.6%, 1,892G)
skillomono: 300G (6.6%, 7,375G)
d4rr1n: 220G (4.9%, 220G)
DeathTaxesAndAnime: 150G (3.3%, 1,391G)
maakur_: 100G (2.2%, 5,002G)
itszaane: 100G (2.2%, 1,712G)
letdowncity: 50G (1.1%, 1,904G)

blue bets:
reinoe: 6,618G (47.1%, 6,618G)
Rislyeu: 1,464G (10.4%, 1,464G)
Who_lio42: 1,000G (7.1%, 10,382G)
Candina: 666G (4.7%, 11,754G)
HASTERIOUS: 653G (4.6%, 13,077G)
killth3kid: 500G (3.6%, 10,876G)
Firesheath: 461G (3.3%, 461G)
luminarii: 450G (3.2%, 21,101G)
DLJuggernaut: 300G (2.1%, 1,860G)
CapnChaos12: 300G (2.1%, 2,198G)
getthemoneyz: 280G (2.0%, 697,754G)
GnielKnows: 236G (1.7%, 236G)
KonzeraLive: 200G (1.4%, 13,981G)
CrownOfHorns: 198G (1.4%, 198G)
BirbBrainsBot: 187G (1.3%, 115,056G)
nifboy: 100G (0.7%, 5,219G)
Vex_Novisk: 100G (0.7%, 7,221G)
RunicMagus: 100G (0.7%, 32,301G)
Kyune: 100G (0.7%, 18,433G)
datadrivenbot: 100G (0.7%, 21,799G)
littlebilly3: 50G (0.4%, 100G)
