High Risers:
1. HaplessOne: +9,683G
2. ApplesNP: +7,225G
3. LadyCyan: +3,842G
4. scsuperstar: +2,481G
5. technominari: +2,329G
6. Laserman1000: +2,200G
7. AltimaMantoid: +1,432G
8. resjudicata3: +929G
9. Genkidou: +841G
10. Willjin: +725G
11. sinnyil2: +628G
12. TheBrett: +155G
13. KGenjy: +92G
14. upvla: +51G
15. Sairentozon7: +50G
16. Mesmaster: +4G
17. CorpusCav: -17G
18. russell2x: -156G
19. DAC169: -200G
20. MemoriesofFinal: -200G
21. tinytittyfiend: -272G
22. DeathTaxesAndAnime: -300G
23. lube_squid: -325G
24. LivingHitokiri: -371G
25. ValensEXP_: -375G
26. 3ngag3: -393G
27. NicoSavoy: -431G
28. Chuckolator: -807G
29. Zachara: -825G
30. Evewho: -850G
31. gorgewall: -887G
32. lijarkh: -889G
33. OneHundredFists: -891G
34. latebit: -900G
35. HASTERIOUS: -900G
36. Mushufasa_: -2,211G
37. lowlf: -2,522G
38. Deathmaker06: -2,625G
39. Leonidusx: -3,000G
40. fattunaking: -5,774G
41. thunderducker: -6,135G
