Final Bets: red - 16 bets for 15,517G (68.9%, x0.45); green - 7 bets for 6,995G (31.1%, x2.22)

red bets:
Willjin: 3,000G (19.3%, 40,762G)
resjudicata3: 2,496G (16.1%, 4,993G)
NicoSavoy: 2,182G (14.1%, 2,182G)
Zachara: 2,000G (12.9%, 136,000G)
ApplesNP: 1,000G (6.4%, 9,382G)
BirbBrainsBot: 1,000G (6.4%, 59,663G)
Mushufasa_: 1,000G (6.4%, 117,659G)
OneHundredFists: 608G (3.9%, 608G)
Laserman1000: 567G (3.7%, 5,867G)
LadyCyan: 400G (2.6%, 3,258G)
lijarkh: 308G (2.0%, 8,510G)
getthemoneyz: 256G (1.6%, 2,098,771G)
AllInBot: 200G (1.3%, 200G)
ValensEXP_: 200G (1.3%, 3,213G)
datadrivenbot: 200G (1.3%, 80,088G)
TheBrett: 100G (0.6%, 2,933G)

green bets:
LivingHitokiri: 5,000G (71.5%, 156,877G)
thunderducker: 777G (11.1%, 14,351G)
lube_squid: 500G (7.1%, 10,890G)
AltimaMantoid: 343G (4.9%, 17,643G)
CorpusCav: 200G (2.9%, 30,767G)
Evewho: 100G (1.4%, 2,292G)
Genkidou: 75G (1.1%, 513G)
