Final Bets: red - 19 bets for 6,023G (30.1%, x2.32); blue - 21 bets for 13,970G (69.9%, x0.43)

red bets:
Laserman1000: 904G (15.0%, 37,104G)
toka222: 750G (12.5%, 131,424G)
Nizaha: 501G (8.3%, 12,263G)
Evewho: 500G (8.3%, 5,776G)
Powerpinch: 500G (8.3%, 2,743G)
flowinprose: 400G (6.6%, 132,368G)
getthemoneyz: 340G (5.6%, 789,363G)
CapnChaos12: 300G (5.0%, 16,824G)
Lythe_Caraker: 300G (5.0%, 123,587G)
benticore: 300G (5.0%, 5,398G)
CandyTamer: 252G (4.2%, 1,033G)
Kyune: 250G (4.2%, 27,886G)
KasugaiRoastedPeas: 200G (3.3%, 2,710G)
jpTawok: 124G (2.1%, 2,486G)
Firesheath: 101G (1.7%, 5,990G)
Tougou: 100G (1.7%, 2,185G)
Grandlanzer: 100G (1.7%, 4,160G)
fluffskull: 100G (1.7%, 1,193G)
Qaz12301: 1G (0.0%, 4,302G)

blue bets:
AniZero: 2,500G (17.9%, 33,920G)
volgrathemoose: 1,466G (10.5%, 1,466G)
sinnyil2: 1,291G (9.2%, 2,582G)
CorpusCav: 1,017G (7.3%, 3,680G)
twelfthrootoftwo: 1,000G (7.2%, 19,247G)
BirbBrainsBot: 1,000G (7.2%, 139,765G)
pplvee1: 832G (6.0%, 832G)
HaychDub: 676G (4.8%, 1,352G)
theshinyakuma: 674G (4.8%, 1,348G)
Shalloween: 627G (4.5%, 627G)
RunicMagus: 550G (3.9%, 27,104G)
E_Ballard: 533G (3.8%, 533G)
Fenrislfr: 304G (2.2%, 304G)
Kronikle: 300G (2.1%, 18,507G)
CosmicTactician: 300G (2.1%, 1,573G)
Flameatron: 200G (1.4%, 3,941G)
d4rr1n: 200G (1.4%, 4,859G)
outer_monologue: 200G (1.4%, 969G)
TinchoT: 100G (0.7%, 11,334G)
datadrivenbot: 100G (0.7%, 29,737G)
the_leezy: 100G (0.7%, 100G)
