Final Bets: purple - 14 bets for 4,721G (17.7%, x4.66); brown - 27 bets for 22,020G (82.3%, x0.21)

purple bets:
DeathTaxesAndAnime: 1,033G (21.9%, 2,027G)
ColetteMSLP: 800G (16.9%, 46,032G)
SarrgeQc: 501G (10.6%, 12,283G)
CapnChaos12: 500G (10.6%, 51,161G)
RestIessNight: 500G (10.6%, 1,403G)
getthemoneyz: 410G (8.7%, 611,749G)
squiregonnacary: 200G (4.2%, 1,736G)
jhaller2: 200G (4.2%, 4,612G)
ko2q: 100G (2.1%, 2,832G)
DontBackseatGame: 100G (2.1%, 872G)
electric_glass: 100G (2.1%, 5,843G)
TimeNugget: 100G (2.1%, 400G)
Dymntd: 100G (2.1%, 1,788G)
Ross_from_Cali: 77G (1.6%, 11,024G)

brown bets:
Mesmaster: 4,000G (18.2%, 40,888G)
sinnyil2: 3,944G (17.9%, 8,050G)
Mirrorclaw: 3,095G (14.1%, 3,095G)
SteeleIT: 1,279G (5.8%, 1,279G)
BirbBrainsBot: 1,000G (4.5%, 150,460G)
basquiat89: 1,000G (4.5%, 3,136G)
ZZ_Yoshi: 888G (4.0%, 70,482G)
DustBirdEX: 777G (3.5%, 3,796G)
ungabunga_bot: 775G (3.5%, 290,372G)
HaplessOne: 555G (2.5%, 12,327G)
luminarii: 548G (2.5%, 19,380G)
CorpusCav: 500G (2.3%, 13,981G)
gorgewall: 500G (2.3%, 19,147G)
uwuslayer15: 400G (1.8%, 942G)
astrozin11: 360G (1.6%, 360G)
itzover9001: 328G (1.5%, 328G)
LAGBOT30000: 323G (1.5%, 32,305G)
Estan_AD: 312G (1.4%, 312G)
twelfthrootoftwo: 300G (1.4%, 3,065G)
trigger15: 300G (1.4%, 5,028G)
MaouDono: 236G (1.1%, 236G)
Firesheath: 100G (0.5%, 12,549G)
Bojanges: 100G (0.5%, 6,440G)
Bioticism: 100G (0.5%, 1,693G)
kuterian: 100G (0.5%, 1,645G)
datadrivenbot: 100G (0.5%, 11,124G)
Jerboj: 100G (0.5%, 62,870G)
