Final Bets: white - 16 bets for 8,713G (59.9%, x0.67); black - 15 bets for 5,830G (40.1%, x1.49)

white bets:
Valentine009: 1,075G (12.3%, 1,075G)
mpghappiness: 1,001G (11.5%, 14,543G)
reinoe: 1,000G (11.5%, 44,571G)
BirbBrainsBot: 1,000G (11.5%, 129,135G)
Mesmaster: 1,000G (11.5%, 141,540G)
Laserman1000: 773G (8.9%, 28,873G)
cam_ATS: 665G (7.6%, 665G)
killth3kid: 500G (5.7%, 43,930G)
eudes89: 500G (5.7%, 7,724G)
skillomono: 284G (3.3%, 284G)
fenaen: 248G (2.8%, 496G)
getthemoneyz: 246G (2.8%, 787,311G)
Nizaha: 201G (2.3%, 10,171G)
E_Ballard: 100G (1.1%, 2,381G)
Flameatron: 100G (1.1%, 2,964G)
benticore: 20G (0.2%, 3,350G)

black bets:
TheChainNerd: 1,657G (28.4%, 44,157G)
pplvee1: 1,000G (17.2%, 1,995G)
megaman2202: 779G (13.4%, 779G)
letdowncity: 500G (8.6%, 15,349G)
rechaun: 404G (6.9%, 404G)
d4rr1n: 300G (5.1%, 6,040G)
Lydian_C: 224G (3.8%, 224G)
old_overholt_: 200G (3.4%, 22,967G)
MiseryKoss: 200G (3.4%, 7,248G)
Luizsanq: 116G (2.0%, 116G)
Tougou: 100G (1.7%, 1,412G)
gogofromtogo: 100G (1.7%, 1,520G)
datadrivenbot: 100G (1.7%, 29,785G)
s_o_b_e_q: 100G (1.7%, 1,088G)
DashXero: 50G (0.9%, 3,432G)
