Final Bets: blue - 21 bets for 11,144G (58.7%, x0.70); green - 12 bets for 7,852G (41.3%, x1.42)

blue bets:
Vagrance: 2,419G (21.7%, 2,419G)
nifboy: 2,043G (18.3%, 2,043G)
TheChainNerd: 1,372G (12.3%, 41,000G)
foofermoofer: 850G (7.6%, 850G)
coralreeferz: 558G (5.0%, 558G)
sSwing: 517G (4.6%, 5,333G)
Nizaha: 501G (4.5%, 10,305G)
letdowncity: 500G (4.5%, 14,985G)
eudes89: 500G (4.5%, 8,059G)
joewcarson: 300G (2.7%, 2,788G)
getthemoneyz: 260G (2.3%, 786,898G)
Lydian_C: 224G (2.0%, 224G)
MiseryKoss: 200G (1.8%, 6,848G)
Grandlanzer: 200G (1.8%, 2,372G)
E_Ballard: 100G (0.9%, 2,448G)
Tougou: 100G (0.9%, 1,669G)
Qaz12301: 100G (0.9%, 5,028G)
RuneS_77: 100G (0.9%, 7,949G)
datadrivenbot: 100G (0.9%, 29,712G)
Flameatron: 100G (0.9%, 3,085G)
brokenknight201: 100G (0.9%, 1,767G)

green bets:
sinnyil2: 2,526G (32.2%, 5,053G)
mpghappiness: 1,001G (12.7%, 15,486G)
d4rr1n: 1,000G (12.7%, 6,012G)
BirbBrainsBot: 1,000G (12.7%, 128,804G)
Laserman1000: 705G (9.0%, 29,605G)
wyonearth: 300G (3.8%, 2,537G)
CapnChaos12: 300G (3.8%, 17,226G)
benticore: 300G (3.8%, 3,363G)
cam_ATS: 220G (2.8%, 220G)
gogofromtogo: 200G (2.5%, 1,220G)
old_overholt_: 200G (2.5%, 22,825G)
s_o_b_e_q: 100G (1.3%, 1,124G)
