Final Bets: red - 12 bets for 6,871G (58.8%, x0.70); green - 11 bets for 4,811G (41.2%, x1.43)

red bets:
gorgewall: 2,047G (29.8%, 2,047G)
DeathTaxesAndAnime: 858G (12.5%, 1,684G)
DustBirdEX: 789G (11.5%, 7,523G)
RaIshtar: 784G (11.4%, 784G)
soren_of_tyto: 632G (9.2%, 632G)
HASTERIOUS: 512G (7.5%, 10,256G)
letdowncity: 500G (7.3%, 16,019G)
bahamutlagooon: 249G (3.6%, 12,486G)
daveb_: 200G (2.9%, 3,095G)
waterwatereverywhere: 100G (1.5%, 8,026G)
Flameatron: 100G (1.5%, 1,427G)
datadrivenbot: 100G (1.5%, 29,697G)

green bets:
SkylerBunny: 1,200G (24.9%, 89,733G)
CorpusCav: 1,007G (20.9%, 49,245G)
Valentine009: 1,000G (20.8%, 5,251G)
BirbBrainsBot: 546G (11.3%, 124,718G)
outer_monologue: 200G (4.2%, 917G)
gr8keeper: 200G (4.2%, 800G)
gogofromtogo: 200G (4.2%, 1,243G)
getthemoneyz: 150G (3.1%, 785,241G)
mrfripps: 108G (2.2%, 108G)
foofermoofer: 100G (2.1%, 3,163G)
computerghoul: 100G (2.1%, 2,431G)
