Final Bets: white - 7 bets for 5,539G (26.6%, x2.76); purple - 20 bets for 15,287G (73.4%, x0.36)

white bets:
lowlf: 2,501G (45.2%, 25,957G)
CorpusCav: 1,010G (18.2%, 48,238G)
Valentine009: 1,000G (18.1%, 4,251G)
HASTERIOUS: 530G (9.6%, 10,614G)
sSwing: 298G (5.4%, 5,610G)
ApplesauceBoss: 100G (1.8%, 5,507G)
computerghoul: 100G (1.8%, 2,331G)

purple bets:
SkylerBunny: 4,000G (26.2%, 88,533G)
foofermoofer: 1,531G (10.0%, 3,063G)
gorgewall: 1,484G (9.7%, 1,484G)
RaIshtar: 1,333G (8.7%, 1,333G)
DeathTaxesAndAnime: 1,165G (7.6%, 2,285G)
reinoe: 1,000G (6.5%, 44,605G)
BirbBrainsBot: 1,000G (6.5%, 124,172G)
DustBirdEX: 789G (5.2%, 8,075G)
outer_monologue: 717G (4.7%, 717G)
gr8keeper: 600G (3.9%, 600G)
Laserman1000: 500G (3.3%, 22,500G)
benticore: 300G (2.0%, 2,917G)
daveb_: 200G (1.3%, 3,235G)
mrfripps: 108G (0.7%, 108G)
moocaotao: 100G (0.7%, 980G)
OneHundredFists: 100G (0.7%, 1,678G)
datadrivenbot: 100G (0.7%, 29,767G)
Evewho: 100G (0.7%, 5,947G)
Flameatron: 100G (0.7%, 1,497G)
getthemoneyz: 60G (0.4%, 785,091G)
