Final Bets: white - 13 bets for 11,244G (58.6%, x0.71); black - 10 bets for 7,932G (41.4%, x1.42)

white bets:
thaetreis: 3,400G (30.2%, 48,445G)
itskage: 1,192G (10.6%, 11,929G)
SkylerBunny: 1,126G (10.0%, 4,507G)
getthemoneyz: 1,000G (8.9%, 1,622,398G)
resjudicata3: 1,000G (8.9%, 12,219G)
Arcblazer23: 983G (8.7%, 983G)
pandasforsale: 666G (5.9%, 18,777G)
MagicBottle: 556G (4.9%, 9,860G)
technominari: 500G (4.4%, 88,533G)
WhiteTigress: 320G (2.8%, 320G)
datadrivenbot: 200G (1.8%, 63,848G)
DAC169: 200G (1.8%, 1,011G)
gorgewall: 101G (0.9%, 6,135G)

black bets:
AllInBot: 2,057G (25.9%, 2,057G)
latebit: 2,000G (25.2%, 26,326G)
DeathTaxesAndAnime: 1,354G (17.1%, 2,656G)
BirbBrainsBot: 1,000G (12.6%, 74,999G)
nhammen: 492G (6.2%, 4,920G)
Mesmaster: 408G (5.1%, 408G)
Rook512: 221G (2.8%, 2,214G)
blandshee: 200G (2.5%, 1,025G)
MinBetBot: 100G (1.3%, 4,490G)
ko2q: 100G (1.3%, 1,558G)
