Final Bets: red - 16 bets for 18,542G (70.6%, x0.42); blue - 9 bets for 7,737G (29.4%, x2.40)

red bets:
AllInBot: 5,203G (28.1%, 5,203G)
toka222: 2,800G (15.1%, 128,504G)
E_Ballard: 2,430G (13.1%, 4,861G)
DeathTaxesAndAnime: 1,829G (9.9%, 1,829G)
itsonlyspencer: 1,214G (6.5%, 1,214G)
Laserman1000: 1,149G (6.2%, 1,149G)
KasugaiRoastedPeas: 1,111G (6.0%, 9,831G)
reddwind_: 592G (3.2%, 39,317G)
cho_pin: 540G (2.9%, 540G)
Draconis345: 500G (2.7%, 12,685G)
latebit: 356G (1.9%, 356G)
JonnyCue: 268G (1.4%, 268G)
datadrivenbot: 200G (1.1%, 67,702G)
coralreeferz: 150G (0.8%, 2,933G)
Thyrandaal: 100G (0.5%, 309,661G)
Aldrammech: 100G (0.5%, 72,274G)

blue bets:
dogsandcatsand: 2,561G (33.1%, 5,023G)
Firesheath: 2,256G (29.2%, 2,256G)
getthemoneyz: 1,000G (12.9%, 1,656,033G)
BirbBrainsBot: 1,000G (12.9%, 11,322G)
lowlf: 320G (4.1%, 10,734G)
ProjectLG: 300G (3.9%, 10,511G)
MinBetBot: 100G (1.3%, 7,238G)
peanutvendor: 100G (1.3%, 100G)
nhammen: 100G (1.3%, 57,305G)
