Final Bets: purple - 15 bets for 6,979G (39.8%, x1.51); brown - 21 bets for 10,551G (60.2%, x0.66)

purple bets:
volgrathemoose: 1,001G (14.3%, 6,819G)
Shalloween: 1,000G (14.3%, 8,392G)
Laserman1000: 885G (12.7%, 4,985G)
Nickyfive: 872G (12.5%, 1,744G)
killth3kid: 500G (7.2%, 18,690G)
Baron_von_Scrub: 474G (6.8%, 2,080G)
Evewho: 464G (6.6%, 464G)
AllInBot: 460G (6.6%, 460G)
HaychDub: 250G (3.6%, 12,546G)
mardokttv: 250G (3.6%, 5,015G)
LeoNightFury: 248G (3.6%, 248G)
Setdevildog: 216G (3.1%, 216G)
gogofromtogo: 159G (2.3%, 159G)
rednecknazgul: 100G (1.4%, 261G)
ravingsockmonkey: 100G (1.4%, 340G)

brown bets:
tronfonne: 2,512G (23.8%, 2,512G)
BirbBrainsBot: 1,000G (9.5%, 185,911G)
Sairentozon7: 1,000G (9.5%, 7,169G)
NicoSavoy: 1,000G (9.5%, 44,261G)
serperemagus: 603G (5.7%, 603G)
maakur_: 588G (5.6%, 588G)
KyleWonToLiveForever: 517G (4.9%, 617G)
Vex_Novisk: 500G (4.7%, 32,963G)
luminarii: 450G (4.3%, 17,174G)
kaidykat: 421G (4.0%, 8,429G)
Arcblazer23: 331G (3.1%, 331G)
nifboy: 250G (2.4%, 12,796G)
MADTheta: 250G (2.4%, 4,032G)
gorgewall: 201G (1.9%, 9,032G)
LivingHitokiri: 200G (1.9%, 11,832G)
Vultuous: 200G (1.9%, 2,815G)
getthemoneyz: 128G (1.2%, 728,578G)
datadrivenbot: 100G (0.9%, 22,194G)
alterworlds: 100G (0.9%, 100G)
moocaotao: 100G (0.9%, 576G)
CosmicTactician: 100G (0.9%, 9,680G)
