Final Bets: green - 19 bets for 14,506G (43.1%, x1.32); champion - 11 bets for 19,129G (56.9%, x0.76)

green bets:
nhammen: 2,335G (16.1%, 4,670G)
ZZ_Yoshi: 2,276G (15.7%, 2,276G)
BirbBrainsBot: 1,000G (6.9%, 139,359G)
Sobid: 1,000G (6.9%, 1,000G)
Evewho: 1,000G (6.9%, 6,005G)
0v3rr8d: 1,000G (6.9%, 21,141G)
prince_rogers_nelson_: 1,000G (6.9%, 12,255G)
Thyrandaal: 980G (6.8%, 980G)
upvla: 600G (4.1%, 600G)
lyonslegacy: 511G (3.5%, 511G)
nekojin: 500G (3.4%, 5,500G)
benticore: 500G (3.4%, 30,948G)
NeonTarget: 466G (3.2%, 466G)
AllInBot: 448G (3.1%, 448G)
furrytomahawkk: 300G (2.1%, 1,216G)
getthemoneyz: 250G (1.7%, 1,333,130G)
UnderOneLight: 219G (1.5%, 219G)
Powermhero: 100G (0.7%, 30,666G)
Hasterious: 21G (0.1%, 2,175G)

champion bets:
reinoe: 15,000G (78.4%, 74,992G)
douchetron: 1,168G (6.1%, 1,168G)
Snoopiku: 612G (3.2%, 25,612G)
solomongrundy85: 604G (3.2%, 604G)
iBardic: 484G (2.5%, 484G)
Kronikle: 432G (2.3%, 11,184G)
JLinkletter: 208G (1.1%, 208G)
gorgewall: 201G (1.1%, 5,819G)
datadrivenbot: 200G (1.0%, 32,252G)
Astroblitz: 120G (0.6%, 120G)
Firesheath: 100G (0.5%, 5,453G)
