Final Bets: white - 8 bets for 5,210G (41.1%, x1.44); black - 10 bets for 7,478G (58.9%, x0.70)

white bets:
BirbBrainsBot: 1,000G (19.2%, 165,151G)
dantayystv: 1,000G (19.2%, 13,069G)
JumbocactuarX27: 1,000G (19.2%, 28,829G)
NIghtdew14: 612G (11.7%, 1,225G)
datadrivenbot: 590G (11.3%, 37,803G)
getthemoneyz: 456G (8.8%, 1,286,408G)
pplvee1: 352G (6.8%, 352G)
AllInBot: 200G (3.8%, 200G)

black bets:
skipsandwiches: 3,372G (45.1%, 3,372G)
Error72: 1,464G (19.6%, 2,871G)
maakur_: 1,017G (13.6%, 1,017G)
Kithmar796: 530G (7.1%, 530G)
loveyouallfriends: 250G (3.3%, 6,764G)
dtrain332: 200G (2.7%, 3,382G)
Evewho: 200G (2.7%, 4,701G)
AlysSariel: 200G (2.7%, 2,548G)
Xoomwaffle: 145G (1.9%, 145G)
CosmicTactician: 100G (1.3%, 39,191G)
