Final Bets: blue - 7 bets for 4,640G (30.9%, x2.24); yellow - 18 bets for 10,379G (69.1%, x0.45)

blue bets:
toka222: 1,250G (26.9%, 428,354G)
poorest_hobo: 1,211G (26.1%, 214,614G)
DavenIII: 932G (20.1%, 6,932G)
bruubarg: 472G (10.2%, 472G)
Lord_Gwarth: 428G (9.2%, 10,232G)
Powermhero: 215G (4.6%, 54,915G)
getthemoneyz: 132G (2.8%, 1,777,890G)

yellow bets:
ko2q: 2,550G (24.6%, 5,100G)
dogsandcatsand: 1,000G (9.6%, 22,848G)
krombobreaker: 1,000G (9.6%, 4,792G)
douchetron: 935G (9.0%, 935G)
E_Ballard: 804G (7.7%, 95,093G)
BirbBrainsBot: 621G (6.0%, 142,742G)
SephDarkheart: 600G (5.8%, 176,680G)
Snowfats: 500G (4.8%, 12,823G)
holandrix: 426G (4.1%, 426G)
Tarheels218: 344G (3.3%, 3,567G)
CorpusCav: 333G (3.2%, 3,734G)
SWATb1gdog: 272G (2.6%, 272G)
DeathTaxesAndAnime: 218G (2.1%, 3,114G)
CosmicTactician: 200G (1.9%, 51,787G)
datadrivenbot: 200G (1.9%, 58,998G)
AllInBot: 172G (1.7%, 172G)
Sir_Jim_0f_Slim: 104G (1.0%, 104G)
HS39: 100G (1.0%, 2,293G)
