Final Bets: white - 19 bets for 18,634G (76.8%, x0.30); brown - 9 bets for 5,628G (23.2%, x3.31)

white bets:
toka222: 10,009G (53.7%, 427,104G)
BirbBrainsBot: 1,000G (5.4%, 143,020G)
Spartan_Paladin: 1,000G (5.4%, 25,038G)
E_Ballard: 804G (4.3%, 95,452G)
poorest_hobo: 789G (4.2%, 213,403G)
holandrix: 616G (3.3%, 616G)
SephDarkheart: 600G (3.2%, 176,948G)
randgridr: 551G (3.0%, 551G)
Zeroroute: 500G (2.7%, 500G)
krombobreaker: 500G (2.7%, 5,239G)
Snowfats: 500G (2.7%, 13,047G)
SWATb1gdog: 394G (2.1%, 394G)
Tarheels218: 344G (1.8%, 3,721G)
AllInBot: 249G (1.3%, 249G)
AbandonedHall: 208G (1.1%, 208G)
datadrivenbot: 200G (1.1%, 59,087G)
Sir_Jim_0f_Slim: 150G (0.8%, 150G)
Absalom_20: 120G (0.6%, 11,292G)
HS39: 100G (0.5%, 2,338G)

brown bets:
fattunaking: 2,597G (46.1%, 2,597G)
Thyrandaal: 1,230G (21.9%, 45,999G)
thunderducker: 555G (9.9%, 24,834G)
CorpusCav: 400G (7.1%, 3,883G)
Lumberinjack: 300G (5.3%, 4,548G)
Blastinus: 264G (4.7%, 264G)
ko2q: 100G (1.8%, 6,240G)
CosmicTactician: 100G (1.8%, 51,876G)
getthemoneyz: 82G (1.5%, 1,777,758G)
