Final Bets: blue - 8 bets for 6,145G (21.7%, x3.60); champion - 19 bets for 22,118G (78.3%, x0.28)

blue bets:
Gelwain: 2,212G (36.0%, 2,212G)
Aldrammech: 1,012G (16.5%, 1,012G)
Zeroroute: 903G (14.7%, 903G)
killth3kid: 716G (11.7%, 38,869G)
ANFz: 602G (9.8%, 602G)
Smashy: 500G (8.1%, 5,588G)
MinBetBot: 100G (1.6%, 7,685G)
AllInBot: 100G (1.6%, 100G)

champion bets:
butterbelljedi: 4,674G (21.1%, 4,674G)
Mesmaster: 3,772G (17.1%, 3,772G)
evontno: 3,122G (14.1%, 3,122G)
reinoe: 2,000G (9.0%, 220,763G)
latebit: 1,100G (5.0%, 29,950G)
Drusiform: 1,000G (4.5%, 11,048G)
Thyrandaal: 1,000G (4.5%, 279,461G)
BirbBrainsBot: 924G (4.2%, 110,768G)
Aestheta: 897G (4.1%, 897G)
Lanshaft: 580G (2.6%, 8,493G)
SephDarkheart: 572G (2.6%, 110,941G)
Tarheels218: 500G (2.3%, 2,668G)
getthemoneyz: 482G (2.2%, 1,628,874G)
Rilgon: 465G (2.1%, 465G)
muffin_money: 450G (2.0%, 11,705G)
itskage: 245G (1.1%, 2,457G)
Lydian_C: 123G (0.6%, 4,630G)
arctodus13: 112G (0.5%, 112G)
CosmicTactician: 100G (0.5%, 17,858G)
