Final Bets: green - 14 bets for 8,762G (56.9%, x0.76); yellow - 7 bets for 6,647G (43.1%, x1.32)

green bets:
HaplessOne: 1,500G (17.1%, 159,349G)
ApplesauceBoss: 1,134G (12.9%, 1,134G)
BirbBrainsBot: 1,000G (11.4%, 40,123G)
getthemoneyz: 1,000G (11.4%, 680,716G)
JumbocactuarX27: 1,000G (11.4%, 5,080G)
Evewho: 1,000G (11.4%, 25,179G)
marin1987: 1,000G (11.4%, 8,837G)
Phytik: 336G (3.8%, 336G)
brokenknight201: 200G (2.3%, 3,434G)
skillomono: 200G (2.3%, 1,179G)
cloud92684: 104G (1.2%, 104G)
Estan_AD: 100G (1.1%, 3,581G)
datadrivenbot: 100G (1.1%, 23,914G)
daveb_: 88G (1.0%, 1,632G)

yellow bets:
FriendSquirrel: 4,059G (61.1%, 4,059G)
TheChainNerd: 1,000G (15.0%, 19,454G)
E_Ballard: 600G (9.0%, 600G)
joewcarson: 368G (5.5%, 368G)
SQUiDSQUARKLIN: 300G (4.5%, 3,581G)
lifeguard_dan: 200G (3.0%, 2,467G)
kaelsun: 120G (1.8%, 120G)
