Final Bets: purple - 20 bets for 11,926G (59.6%, x0.68); brown - 16 bets for 8,095G (40.4%, x1.47)

purple bets:
waterwatereverywhere: 3,581G (30.0%, 7,023G)
DeathTaxesAndAnime: 1,259G (10.6%, 2,470G)
pstud: 1,200G (10.1%, 1,228G)
Phytik: 1,000G (8.4%, 14,300G)
Lali_Lulelo: 832G (7.0%, 832G)
RestIessNight: 663G (5.6%, 663G)
HaateXIII: 608G (5.1%, 608G)
R_Raynos: 528G (4.4%, 528G)
Practice_Pad: 500G (4.2%, 1,285G)
twelfthrootoftwo: 300G (2.5%, 4,162G)
Eyepoor_: 300G (2.5%, 2,583G)
ungabunga_bot: 192G (1.6%, 416,550G)
NicoSavoy: 157G (1.3%, 157G)
cupholderr: 151G (1.3%, 151G)
theNGUYENNER: 151G (1.3%, 151G)
GnielKnows: 104G (0.9%, 104G)
mannequ1n: 100G (0.8%, 4,408G)
Avin_Chaos: 100G (0.8%, 15,860G)
datadrivenbot: 100G (0.8%, 12,068G)
CorpusCav: 100G (0.8%, 5,116G)

brown bets:
sinnyil2: 2,071G (25.6%, 4,142G)
EnemyController: 1,000G (12.4%, 205,569G)
BirbBrainsBot: 1,000G (12.4%, 102,761G)
OneHundredFists: 950G (11.7%, 950G)
getthemoneyz: 408G (5.0%, 647,220G)
Rislyeu: 400G (4.9%, 2,051G)
Kyune: 396G (4.9%, 396G)
Estan_AD: 350G (4.3%, 1,783G)
electric_glass: 300G (3.7%, 5,083G)
LAGBOT30000: 250G (3.1%, 25,096G)
duckfist: 212G (2.6%, 212G)
Mudrockk: 200G (2.5%, 8,669G)
Miyokari: 200G (2.5%, 793G)
hisuikohaku: 158G (2.0%, 158G)
ZDarius: 100G (1.2%, 100G)
Onemancrowd: 100G (1.2%, 1,184G)
