Final Bets: white - 9 bets for 3,912G (27.2%, x2.68); black - 17 bets for 10,480G (72.8%, x0.37)

white bets:
inzo_bettingbot: 1,000G (25.6%, 45,999G)
holyonline: 788G (20.1%, 788G)
Lanshaft: 600G (15.3%, 11,721G)
bad1dea: 400G (10.2%, 316,762G)
ShintaroNayaka: 400G (10.2%, 3,542G)
LDSkinny: 316G (8.1%, 316G)
SomeCallMeGON: 200G (5.1%, 1,420G)
getthemoneyz: 108G (2.8%, 400,347G)
RongRongArts: 100G (2.6%, 20,695G)

black bets:
sinnyil2: 2,222G (21.2%, 25,636G)
Jeeboheebo: 2,020G (19.3%, 18,291G)
Nickyfive: 1,166G (11.1%, 1,166G)
kai_shee: 1,000G (9.5%, 49,314G)
NovaKnight21: 816G (7.8%, 1,633G)
Draconis345: 500G (4.8%, 3,242G)
Winterharte: 460G (4.4%, 460G)
CamelCash007: 368G (3.5%, 368G)
IndecisiveNinja: 364G (3.5%, 364G)
maakur_: 300G (2.9%, 2,984G)
ko2q: 296G (2.8%, 296G)
JumbocactuarX27: 268G (2.6%, 268G)
rrazzoug: 200G (1.9%, 3,297G)
ugoplatamia: 200G (1.9%, 19,300G)
Treapvort: 100G (1.0%, 26,923G)
datadrivenbot: 100G (1.0%, 15,535G)
SeedSC: 100G (1.0%, 99,653G)
