Final Bets: black - 17 bets for 9,357G (46.6%, x1.15); purple - 17 bets for 10,720G (53.4%, x0.87)

black bets:
Nickyfive: 2,182G (23.3%, 4,364G)
kai_shee: 1,000G (10.7%, 48,687G)
inzo_bettingbot: 1,000G (10.7%, 43,999G)
getthemoneyz: 1,000G (10.7%, 399,621G)
Lord_Burrah: 1,000G (10.7%, 93,679G)
holyonline: 817G (8.7%, 817G)
SleepyBenzo: 500G (5.3%, 1,935G)
bad1dea: 400G (4.3%, 317,190G)
BirbBrainsBot: 309G (3.3%, 106,629G)
SomeCallMeGON: 244G (2.6%, 244G)
CamelCash007: 200G (2.1%, 1,106G)
ugoplatamia: 200G (2.1%, 19,274G)
ZephyrTempest: 183G (2.0%, 18,828G)
AllInBot: 100G (1.1%, 100G)
datadrivenbot: 100G (1.1%, 15,521G)
GrayGhostGaming: 100G (1.1%, 1,039G)
roqqqpsi: 22G (0.2%, 1,125G)

purple bets:
TheChainNerd: 2,819G (26.3%, 14,096G)
JumbocactuarX27: 1,003G (9.4%, 1,003G)
Rastanar: 972G (9.1%, 972G)
IndecisiveNinja: 747G (7.0%, 747G)
lifeguard_dan: 709G (6.6%, 709G)
Lanshaft: 600G (5.6%, 11,019G)
LDSkinny: 576G (5.4%, 576G)
jigglefluffenstuff: 562G (5.2%, 562G)
ShintaroNayaka: 500G (4.7%, 3,389G)
SerumD: 500G (4.7%, 10,480G)
nomoment: 500G (4.7%, 22,653G)
snkey: 332G (3.1%, 332G)
Aeolus_000: 300G (2.8%, 3,453G)
rrazzoug: 200G (1.9%, 2,972G)
Treapvort: 200G (1.9%, 28,272G)
ko2q: 100G (0.9%, 1,118G)
snygnyx: 100G (0.9%, 100G)
