Final Bets: green - 25 bets for 12,646G (67.5%, x0.48); yellow - 14 bets for 6,097G (32.5%, x2.07)

green bets:
Laserman1000: 2,200G (17.4%, 2,200G)
leakimiko: 1,470G (11.6%, 29,415G)
NovaKnight21: 1,046G (8.3%, 2,092G)
robespyah: 1,000G (7.9%, 2,023G)
fenaen: 880G (7.0%, 880G)
bad1dea: 800G (6.3%, 264,656G)
sinnyil2: 775G (6.1%, 1,550G)
Shalloween: 600G (4.7%, 53,305G)
Psychomidget: 531G (4.2%, 531G)
CorpusCav: 500G (4.0%, 8,081G)
Oreo_Pizza: 400G (3.2%, 9,419G)
BadBlanket: 400G (3.2%, 2,804G)
Lordminsc: 400G (3.2%, 18,554G)
Aldrammech: 267G (2.1%, 2,677G)
Aeolus_000: 236G (1.9%, 236G)
KasugaiRoastedPeas: 200G (1.6%, 30,055G)
VentoLivre: 150G (1.2%, 1,200G)
WoooBlaaa: 120G (0.9%, 120G)
Jordache7K: 111G (0.9%, 18,353G)
datadrivenbot: 100G (0.8%, 17,813G)
buhlakefy: 100G (0.8%, 1,000G)
lastly: 100G (0.8%, 188G)
ZephyrTempest: 100G (0.8%, 9,404G)
mirapoix: 100G (0.8%, 4,136G)
Meowyster_: 60G (0.5%, 600G)

yellow bets:
kai_shee: 1,000G (16.4%, 45,059G)
DudeMonkey77: 1,000G (16.4%, 26,624G)
friendsquirrel: 738G (12.1%, 738G)
Lanshaft: 600G (9.8%, 5,387G)
typicalfanboy: 500G (8.2%, 500G)
OmnibotGamma: 500G (8.2%, 2,687G)
TheGuesty: 450G (7.4%, 9,400G)
rechaun: 284G (4.7%, 284G)
getthemoneyz: 244G (4.0%, 397,193G)
roqqqpsi: 222G (3.6%, 732G)
MrFlabyo: 209G (3.4%, 15,743G)
PiCurious: 150G (2.5%, 5,535G)
maakur_: 100G (1.6%, 380G)
ko2q: 100G (1.6%, 1,428G)
