Final Bets: green - 22 bets for 14,059G (78.1%, x0.28); yellow - 10 bets for 3,939G (21.9%, x3.57)

green bets:
KasugaiRoastedPeas: 3,333G (23.7%, 14,183G)
DustBirdEX: 1,470G (10.5%, 1,470G)
roofiepops: 1,221G (8.7%, 18,631G)
toka222: 1,000G (7.1%, 68,636G)
Nizaha: 716G (5.1%, 9,798G)
DarrenDinosaurs: 705G (5.0%, 705G)
killth3kid: 684G (4.9%, 38,557G)
E_Ballard: 584G (4.2%, 5,839G)
fenaen: 524G (3.7%, 5,828G)
TasisSai: 500G (3.6%, 8,883G)
MrPhuui: 500G (3.6%, 7,910G)
DavenIII: 500G (3.6%, 1,828G)
Forkmore: 464G (3.3%, 464G)
northkoreancleetus: 352G (2.5%, 352G)
latebit: 316G (2.2%, 16,082G)
muffin_money: 250G (1.8%, 2,824G)
AllInBot: 235G (1.7%, 235G)
datadrivenbot: 200G (1.4%, 60,513G)
arctodus13: 200G (1.4%, 1,663G)
silverChangeling: 200G (1.4%, 6,742G)
MinBetBot: 100G (0.7%, 1,703G)
moonliquor: 5G (0.0%, 51,655G)

yellow bets:
BirbBrainsBot: 883G (22.4%, 68,725G)
dogsandcatsand: 552G (14.0%, 552G)
ShintaroNayaka: 512G (13.0%, 512G)
Tarheels218: 500G (12.7%, 13,731G)
JonnyCue: 500G (12.7%, 18,373G)
getthemoneyz: 390G (9.9%, 1,615,070G)
foxfaeez: 232G (5.9%, 232G)
HSPsychoZA: 150G (3.8%, 5,952G)
Skjodo: 120G (3.0%, 120G)
windsah: 100G (2.5%, 12,902G)
