Final Bets: black - 18 bets for 7,006G (31.4%, x2.19); brown - 23 bets for 15,330G (68.6%, x0.46)

black bets:
SkylerBunny: 2,000G (28.5%, 112,397G)
tehjam: 1,000G (14.3%, 1,476G)
Rislyeu: 500G (7.1%, 7,527G)
Dymntd: 500G (7.1%, 38,951G)
Kyune: 500G (7.1%, 9,530G)
metagameface: 486G (6.9%, 486G)
skillomono: 300G (4.3%, 2,708G)
coralreeferz: 250G (3.6%, 3,686G)
fluffskull: 216G (3.1%, 216G)
Coolguye: 204G (2.9%, 204G)
Flameatron: 200G (2.9%, 3,649G)
computerghoul: 200G (2.9%, 974G)
RunicMagus: 200G (2.9%, 33,958G)
ivellioz: 100G (1.4%, 494G)
Meta_Five: 100G (1.4%, 1,332G)
cam_ATS: 100G (1.4%, 1,287G)
datadrivenbot: 100G (1.4%, 32,570G)
MaxSaul19: 50G (0.7%, 1,000G)

brown bets:
sinnyil2: 2,043G (13.3%, 4,087G)
jobbedbone: 1,982G (12.9%, 1,982G)
ExecutedGiraffe: 1,223G (8.0%, 1,223G)
Evewho: 1,166G (7.6%, 2,288G)
mpghappiness: 1,001G (6.5%, 13,737G)
BirbBrainsBot: 1,000G (6.5%, 64,353G)
OneHundredFists: 1,000G (6.5%, 1,808G)
Virilikus: 1,000G (6.5%, 156,402G)
Laserman1000: 684G (4.5%, 26,384G)
kaidykat: 664G (4.3%, 664G)
Digitalsocrates: 661G (4.3%, 661G)
Sairentozon7: 544G (3.5%, 544G)
gooseyourself: 500G (3.3%, 4,773G)
gorgewall: 418G (2.7%, 418G)
TheMM42: 412G (2.7%, 412G)
Grandlanzer: 411G (2.7%, 411G)
cogniv0r3: 117G (0.8%, 1,950G)
witchlight: 100G (0.7%, 11,472G)
E_Ballard: 100G (0.7%, 1,986G)
s_o_b_e_q: 100G (0.7%, 2,514G)
Spuzzmocker: 100G (0.7%, 1,068G)
ZombiFrancis: 100G (0.7%, 1,888G)
getthemoneyz: 4G (0.0%, 819,031G)
