Final Bets: blue - 18 bets for 15,541G (46.2%, x1.16); purple - 17 bets for 18,085G (53.8%, x0.86)

blue bets:
upvla: 5,962G (38.4%, 5,962G)
AllInBot: 2,173G (14.0%, 2,173G)
loveyouallfriends: 2,097G (13.5%, 2,097G)
mindblownnnn: 1,000G (6.4%, 4,452G)
RobotOcelot: 1,000G (6.4%, 6,439G)
roofiepops: 928G (6.0%, 928G)
rocl: 396G (2.5%, 2,291G)
Zeroroute: 360G (2.3%, 360G)
getthemoneyz: 308G (2.0%, 1,901,603G)
bigbongsmoker: 300G (1.9%, 1,668G)
brenogarwin: 200G (1.3%, 3,968G)
datadrivenbot: 200G (1.3%, 57,044G)
MemoriesofFinal: 200G (1.3%, 3,200G)
heyBtw: 116G (0.7%, 116G)
nhammen: 100G (0.6%, 417,012G)
ANFz: 100G (0.6%, 7,216G)
acid_flashback: 91G (0.6%, 3,035G)
BartTradingCompany: 10G (0.1%, 100G)

purple bets:
DeathTaxesAndAnime: 3,005G (16.6%, 5,894G)
latebit: 2,296G (12.7%, 4,502G)
Thyrandaal: 2,227G (12.3%, 2,227G)
Virilikus: 2,000G (11.1%, 244,440G)
Lord_Gwarth: 1,500G (8.3%, 9,234G)
snkey: 1,341G (7.4%, 12,119G)
VolgraTheMoose: 1,001G (5.5%, 4,959G)
Dasutin23: 1,000G (5.5%, 9,394G)
BirbBrainsBot: 1,000G (5.5%, 178,195G)
old_overholt_: 1,000G (5.5%, 30,223G)
krombobreaker: 500G (2.8%, 3,013G)
seppu777: 333G (1.8%, 3,114G)
biske13: 316G (1.7%, 316G)
regios91: 216G (1.2%, 1,218G)
BappleTrees: 149G (0.8%, 149G)
gorgewall: 101G (0.6%, 7,237G)
Tougou: 100G (0.6%, 8,986G)
