Final Bets: purple - 14 bets for 18,803G (82.1%, x0.22); brown - 8 bets for 4,111G (17.9%, x4.57)

purple bets:
LDHaten: 10,195G (54.2%, 10,195G)
UmaiJam: 3,000G (16.0%, 49,859G)
SkylerBunny: 2,000G (10.6%, 214,156G)
BirbBrainsBot: 1,000G (5.3%, 164,295G)
DeathTaxesAndAnime: 848G (4.5%, 848G)
gorgewall: 548G (2.9%, 548G)
getthemoneyz: 238G (1.3%, 1,490,021G)
datadrivenbot: 200G (1.1%, 48,514G)
xBizzy: 200G (1.1%, 507G)
ShanksMcShiv: 151G (0.8%, 300G)
roofiepops: 123G (0.7%, 17,617G)
Hojosu: 100G (0.5%, 100G)
NeoSpadeAce: 100G (0.5%, 100G)
Chompie: 100G (0.5%, 9,404G)

brown bets:
AugnosMusic: 1,057G (25.7%, 1,057G)
AllInBot: 886G (21.6%, 886G)
Nizaha: 652G (15.9%, 6,504G)
douchetron: 516G (12.6%, 516G)
Oreo_Pizza: 500G (12.2%, 55,569G)
rednecknazgul: 200G (4.9%, 2,621G)
silentperogy: 200G (4.9%, 28,975G)
Azzy_Omega: 100G (2.4%, 100G)
