Final Bets: white - 6 bets for 7,318G (38.9%, x1.57); brown - 15 bets for 11,482G (61.1%, x0.64)

white bets:
Lydian_C: 4,200G (57.4%, 149,275G)
Kidikorus: 2,000G (27.3%, 3,037G)
leakimiko: 316G (4.3%, 316G)
YaBoy125: 312G (4.3%, 312G)
R_Raynos: 308G (4.2%, 308G)
AllInBot: 182G (2.5%, 182G)

brown bets:
potgodtopdog: 3,000G (26.1%, 6,442G)
HaplessOne: 1,500G (13.1%, 116,720G)
Dexsana: 1,027G (8.9%, 1,027G)
TheMurkGnome: 1,000G (8.7%, 15,360G)
ungabunga_bot: 1,000G (8.7%, 176,325G)
BirbBrainsBot: 1,000G (8.7%, 33,764G)
HASTERIOUS: 977G (8.5%, 19,552G)
aStatue: 500G (4.4%, 7,055G)
mastershango: 500G (4.4%, 2,163G)
roqqqpsi: 435G (3.8%, 440G)
GSaucer: 150G (1.3%, 450G)
elijahrockers: 145G (1.3%, 485G)
TimeJannies: 100G (0.9%, 15,316G)
sparsuvar: 100G (0.9%, 100G)
getthemoneyz: 48G (0.4%, 523,307G)
