Final Bets: blue - 9 bets for 13,647G (64.8%, x0.54); black - 20 bets for 7,405G (35.2%, x1.84)

blue bets:
Zeroroute: 7,810G (57.2%, 18,660G)
Eldente: 2,373G (17.4%, 79,119G)
BenYuPoker: 1,254G (9.2%, 1,254G)
Nizaha: 1,001G (7.3%, 2,822G)
JumbocactuarX27: 411G (3.0%, 411G)
regios91: 398G (2.9%, 398G)
ugoplatamia: 200G (1.5%, 7,108G)
Oshimi12: 100G (0.7%, 3,276G)
maakur_: 100G (0.7%, 2,625G)

black bets:
volgrathemoose: 1,001G (13.5%, 3,725G)
inzo_bettingbot: 1,000G (13.5%, 55,089G)
Mtueni: 1,000G (13.5%, 88,624G)
ko2q: 660G (8.9%, 660G)
lunaticruin: 568G (7.7%, 568G)
MetalSeadramon: 500G (6.8%, 3,839G)
HaplessOne: 500G (6.8%, 16,858G)
waterwatereverywhere: 400G (5.4%, 3,510G)
CorpusCav: 322G (4.3%, 3,228G)
anomandaris__: 300G (4.1%, 1,000G)
ShintaroNayaka: 300G (4.1%, 3,588G)
ZephyrTempest: 194G (2.6%, 15,268G)
Generalunderdog: 104G (1.4%, 104G)
BadBlanket: 100G (1.4%, 2,212G)
datadrivenbot: 100G (1.4%, 17,358G)
dreadnxught: 100G (1.4%, 4,350G)
old_overholt_: 100G (1.4%, 1,129G)
BirbBrainsBot: 56G (0.8%, 82,433G)
getthemoneyz: 50G (0.7%, 409,898G)
mexskacin: 50G (0.7%, 951G)
