Final Bets: green - 6 bets for 4,176G (56.6%, x0.77); yellow - 7 bets for 3,207G (43.4%, x1.30)

green bets:
E_Ballard: 1,332G (31.9%, 2,665G)
BirbBrainsBot: 1,000G (23.9%, 122,218G)
getthemoneyz: 776G (18.6%, 1,701,823G)
AllInBot: 492G (11.8%, 492G)
skipsandwiches: 356G (8.5%, 356G)
roqqqpsi: 220G (5.3%, 1,837G)

yellow bets:
NIghtdew14: 955G (29.8%, 955G)
gorgewall: 864G (26.9%, 864G)
FalseLobster: 452G (14.1%, 452G)
Bongomon7: 436G (13.6%, 1,920G)
Lazarus_DS: 200G (6.2%, 1,960G)
datadrivenbot: 200G (6.2%, 62,305G)
CosmicTactician: 100G (3.1%, 34,004G)
