High Risers:
1. Valensexp_: +5,185G
2. Reinoe: +4,766G
3. Freezerman47: +4,104G
4. Shadowkept: +1,897G
5. Superdevon1: +1,821G
6. Rune339: +1,559G
7. Gorgewall: +1,421G
8. Genzealot: +1,116G
9. Deathtaxesandanime: +406G
10. Ct_5_holy: +400G
11. Bigbongsmoker: +246G
12. Adellraynes: +229G
13. Memoriesoffinal: +197G
14. Ribbiks: +175G
15. Lowlf: +138G
16. Otakutaylor: +137G
17. Nok____: +70G
18. Gingerfoo69: +23G
19. Kilrazin: +23G
20. Douchetron: +4G
21. Ar_tactic: -56G
22. Gelwain: -100G
23. Anfz: -100G
24. Mindblownnnn: -100G
25. Genkidou: -100G
26. Nicosavoy: -200G
27. Ayeayex3: -200G
28. Smashy: -223G
29. Onehundredfists: -235G
30. Sinnyil2: -300G
31. Ruleof5: -300G
32. Evdoggity: -300G
33. Grininda: -300G
34. Reddwind_: -300G
35. Khelor_: -500G
36. Raixelol: -600G
37. Ibardic: -873G
38. Latebit: -1,000G
39. Corpuscav: -1,385G
40. Silentkaster: -1,781G
41. Laserman1000: -2,217G
42. Upvla: -2,871G
43. Nekojin: -7,188G
44. Nifboy: -13,005G
