Final Bets: purple - 12 bets for 7,716G (63.3%, x0.58); brown - 17 bets for 4,478G (36.7%, x1.72)

purple bets:
volgrathemoose: 1,064G (13.8%, 2,129G)
CorpusCav: 1,010G (13.1%, 18,659G)
mpghappiness: 1,001G (13.0%, 3,223G)
BirbBrainsBot: 1,000G (13.0%, 163,570G)
TheMM42: 1,000G (13.0%, 2,710G)
YaBoy125: 937G (12.1%, 937G)
joewcarson: 500G (6.5%, 5,358G)
Rislyeu: 500G (6.5%, 5,048G)
killth3kid: 304G (3.9%, 665G)
Shinzutalos: 250G (3.2%, 880G)
Grandlanzer: 100G (1.3%, 11,746G)
s_o_b_e_q: 50G (0.6%, 3,025G)

brown bets:
beowulfrulez: 1,156G (25.8%, 1,156G)
letdowncity: 500G (11.2%, 13,910G)
DLJuggernaut: 400G (8.9%, 4,429G)
kaidykat: 357G (8.0%, 7,154G)
vorap: 300G (6.7%, 118,588G)
Kronikle: 300G (6.7%, 22,878G)
Nizaha: 201G (4.5%, 15,880G)
gogofromtogo: 200G (4.5%, 3,820G)
nhammen: 200G (4.5%, 1,243G)
zanderriv: 200G (4.5%, 3,780G)
theshinyakuma: 146G (3.3%, 146G)
Lydian_C: 120G (2.7%, 2,133G)
datadrivenbot: 100G (2.2%, 32,335G)
TinchoT: 100G (2.2%, 4,625G)
Kyune: 100G (2.2%, 30,543G)
HASTERIOUS: 54G (1.2%, 1,089G)
getthemoneyz: 44G (1.0%, 798,951G)
