Final Bets: red - 8 bets for 3,400G (65.2%, x0.53); champion - 5 bets for 1,811G (34.8%, x1.88)

red bets:
Smashy: 1,000G (29.4%, 5,879G)
Seaweed_B: 1,000G (29.4%, 60,835G)
Lanshaft: 600G (17.6%, 2,257G)
dan_dlite: 300G (8.8%, 997G)
datadrivenbot: 200G (5.9%, 64,772G)
MinBetBot: 100G (2.9%, 6,750G)
AllInBot: 100G (2.9%, 100G)
ko2q: 100G (2.9%, 3,237G)

champion bets:
BirbBrainsBot: 1,000G (55.2%, 51,773G)
Lemonjohns: 420G (23.2%, 8,544G)
gorgewall: 201G (11.1%, 5,212G)
Sairentozon7: 100G (5.5%, 25,724G)
getthemoneyz: 90G (5.0%, 1,672,616G)
