Final Bets: red - 20 bets for 21,534G (53.1%, x0.88); blue - 26 bets for 19,016G (46.9%, x1.13)

red bets:
Mirrorclaw: 8,844G (41.1%, 8,844G)
reinoe: 4,883G (22.7%, 4,883G)
Baron_von_Scrub: 1,111G (5.2%, 72,547G)
midori_ribbon: 1,022G (4.7%, 1,022G)
Aldrammech: 1,000G (4.6%, 94,257G)
Grimmace45: 899G (4.2%, 8,997G)
WireLord: 712G (3.3%, 712G)
ANFz: 500G (2.3%, 19,014G)
DrAntiSocial: 420G (2.0%, 19,241G)
haigy: 350G (1.6%, 1,195G)
twelfthrootoftwo: 300G (1.4%, 2,009G)
AmewTheFox: 300G (1.4%, 1,769G)
Orerries: 230G (1.1%, 230G)
cgMcWhiskers: 208G (1.0%, 208G)
Primeval_33: 200G (0.9%, 743G)
arch8000: 155G (0.7%, 5,187G)
frozentomato: 100G (0.5%, 460G)
datadrivenbot: 100G (0.5%, 5,128G)
ApplesauceBoss: 100G (0.5%, 2,246G)
Firesheath: 100G (0.5%, 10,115G)

blue bets:
TheKillerNacho: 4,646G (24.4%, 4,646G)
Wonser: 2,424G (12.7%, 3,033G)
Dymntd: 1,809G (9.5%, 1,809G)
EnemyController: 1,000G (5.3%, 146,754G)
BirbBrainsBot: 974G (5.1%, 73,350G)
Estan_AD: 915G (4.8%, 915G)
itzover9001: 713G (3.7%, 713G)
aStatue: 600G (3.2%, 600G)
Zeroroute: 600G (3.2%, 600G)
volgrathemoose: 501G (2.6%, 13,166G)
Nizaha: 501G (2.6%, 4,398G)
CapnChaos12: 500G (2.6%, 43,290G)
Shalloween: 500G (2.6%, 55,984G)
killth3kid: 500G (2.6%, 28,237G)
sparsuvar: 500G (2.6%, 10,792G)
DustBirdEX: 432G (2.3%, 432G)
YaBoy125: 340G (1.8%, 340G)
vorap: 300G (1.6%, 18,585G)
TheRylander: 300G (1.6%, 1,578G)
RunicMagus: 250G (1.3%, 52,646G)
roofiepops: 200G (1.1%, 5,790G)
SquidgyXom: 119G (0.6%, 2,382G)
nifboy: 100G (0.5%, 3,223G)
ungabunga_bot: 100G (0.5%, 278,273G)
Evewho: 100G (0.5%, 11,754G)
getthemoneyz: 92G (0.5%, 597,386G)
