Final Bets: blue - 27 bets for 26,820G (76.6%, x0.30); yellow - 19 bets for 8,179G (23.4%, x3.28)

blue bets:
TheKillerNacho: 9,966G (37.2%, 9,966G)
Rytor: 5,000G (18.6%, 9,452G)
Aldrammech: 1,000G (3.7%, 94,028G)
Wonser: 1,000G (3.7%, 4,778G)
BirbBrainsBot: 1,000G (3.7%, 71,453G)
Grimmace45: 997G (3.7%, 9,974G)
reinoe: 955G (3.6%, 955G)
Shalloween: 800G (3.0%, 56,043G)
Orerries: 750G (2.8%, 750G)
Zeroroute: 600G (2.2%, 600G)
Nizaha: 501G (1.9%, 5,059G)
killth3kid: 500G (1.9%, 29,886G)
ANFz: 500G (1.9%, 18,900G)
Dymntd: 500G (1.9%, 3,475G)
Anethum: 432G (1.6%, 432G)
getthemoneyz: 324G (1.2%, 596,981G)
vorap: 300G (1.1%, 18,811G)
Jaritras: 224G (0.8%, 224G)
midori_ribbon: 216G (0.8%, 216G)
KasugaiRoastedPeas: 200G (0.7%, 4,587G)
twelfthrootoftwo: 200G (0.7%, 2,910G)
BadErosion: 200G (0.7%, 7,221G)
Primeval_33: 200G (0.7%, 1,190G)
ungabunga_bot: 155G (0.6%, 279,814G)
Evewho: 100G (0.4%, 11,925G)
Realitydown: 100G (0.4%, 5,806G)
datadrivenbot: 100G (0.4%, 5,304G)

yellow bets:
lowlf: 2,001G (24.5%, 51,637G)
elicsgo_: 862G (10.5%, 862G)
sinnyil2: 832G (10.2%, 832G)
cgMcWhiskers: 558G (6.8%, 558G)
CapnChaos12: 500G (6.1%, 44,439G)
ForagerCats: 500G (6.1%, 39,317G)
DustBirdEX: 432G (5.3%, 432G)
b0shii: 332G (4.1%, 332G)
gary_corson: 300G (3.7%, 2,970G)
EnemyController: 300G (3.7%, 148,590G)
Error72: 299G (3.7%, 2,996G)
Estan_AD: 288G (3.5%, 288G)
rjA0zcOQ96: 200G (2.4%, 37,265G)
AmewTheFox: 200G (2.4%, 1,820G)
Cataphract116: 200G (2.4%, 23,376G)
SquidgyXom: 125G (1.5%, 2,517G)
maakur_: 100G (1.2%, 112,323G)
Squatting_Bear: 100G (1.2%, 1,716G)
DrAntiSocial: 50G (0.6%, 18,870G)
