Final Bets: white - 36 bets for 28,151G (66.4%, x0.51); black - 25 bets for 14,258G (33.6%, x1.97)

white bets:
DudeMonkey77: 8,477G (30.1%, 84,777G)
Wargles: 4,956G (17.6%, 9,913G)
DeathTaxesAndAnime: 2,611G (9.3%, 2,611G)
MrDiggs49: 1,400G (5.0%, 4,792G)
Lionhermit: 1,000G (3.6%, 5,838G)
Aldrammech: 954G (3.4%, 9,542G)
HaateXIII: 750G (2.7%, 2,545G)
rechaun: 529G (1.9%, 529G)
silentperogy: 500G (1.8%, 7,450G)
HaplessOne: 500G (1.8%, 16,302G)
volgrathemoose: 472G (1.7%, 472G)
TheGuesty: 400G (1.4%, 3,950G)
Tyerenex: 400G (1.4%, 2,012G)
waterwatereverywhere: 400G (1.4%, 2,506G)
EnemyController: 400G (1.4%, 13,535G)
robespyah: 390G (1.4%, 390G)
ApplesauceBoss: 352G (1.3%, 352G)
urieltheflameofgod: 300G (1.1%, 1,706G)
arch8000: 300G (1.1%, 6,915G)
rico_flex: 300G (1.1%, 1,502G)
Theseawolf1: 292G (1.0%, 292G)
ForagerCats: 264G (0.9%, 264G)
upvla: 240G (0.9%, 911G)
ugoplatamia: 200G (0.7%, 13,620G)
amadmet: 200G (0.7%, 6,786G)
sect_cor: 200G (0.7%, 19,920G)
mirapoix: 200G (0.7%, 2,883G)
V3rdeni: 200G (0.7%, 1,086G)
Cataphract116: 200G (0.7%, 1,733G)
TheRobbieRobster: 156G (0.6%, 156G)
guering: 108G (0.4%, 108G)
Tougou: 100G (0.4%, 4,043G)
dreadnxught: 100G (0.4%, 4,050G)
Lythe_Caraker: 100G (0.4%, 46,125G)
Maeveen: 100G (0.4%, 7,876G)
datadrivenbot: 100G (0.4%, 16,115G)

black bets:
Etce: 3,825G (26.8%, 3,825G)
rockmem21: 2,067G (14.5%, 41,359G)
BirbBrainsBot: 1,000G (7.0%, 108,231G)
bad1dea: 1,000G (7.0%, 318,071G)
Lanshaft: 600G (4.2%, 600G)
YaBoy125: 556G (3.9%, 556G)
red__lancer: 500G (3.5%, 17,626G)
babieapple: 467G (3.3%, 467G)
Spartan_Paladin: 400G (2.8%, 12,408G)
Evewho: 400G (2.8%, 4,211G)
luminarii: 381G (2.7%, 9,195G)
Humble_Fabio: 333G (2.3%, 6,158G)
DustBirdEX: 324G (2.3%, 324G)
OmnibotGamma: 308G (2.2%, 308G)
fenaen: 300G (2.1%, 2,945G)
kekkerscrew: 300G (2.1%, 2,021G)
ko2q: 292G (2.0%, 292G)
SeedSC: 250G (1.8%, 85,619G)
LordSDB: 250G (1.8%, 1,154G)
RunicMagus: 200G (1.4%, 21,606G)
getthemoneyz: 192G (1.3%, 404,109G)
Vyroxe: 112G (0.8%, 112G)
BadBlanket: 100G (0.7%, 3,158G)
Basmal: 100G (0.7%, 38,004G)
RughSontos: 1G (0.0%, 4,342G)
