Final Bets: white - 8 bets for 4,771G (29.8%, x2.35); black - 17 bets for 11,232G (70.2%, x0.42)

white bets:
theatheologist: 1,234G (25.9%, 66,305G)
UmaiJam: 1,093G (22.9%, 10,937G)
waterwatereverywhere: 540G (11.3%, 540G)
Treapvort: 514G (10.8%, 514G)
JIDkomu: 500G (10.5%, 2,816G)
upvla: 322G (6.7%, 29,997G)
ColetteMSLP: 300G (6.3%, 12,280G)
getthemoneyz: 268G (5.6%, 436,416G)

black bets:
superdevon1: 2,920G (26.0%, 2,920G)
Zetchryn: 1,413G (12.6%, 1,413G)
BenYuPoker: 1,354G (12.1%, 2,708G)
BirbBrainsBot: 1,000G (8.9%, 215,881G)
bad1dea: 1,000G (8.9%, 36,017G)
JustSuperish: 822G (7.3%, 822G)
MrFlabyo: 500G (4.5%, 14,501G)
MagMarvo: 470G (4.2%, 470G)
DrAntiSocial: 437G (3.9%, 437G)
PatSouI: 348G (3.1%, 348G)
roqqqpsi: 222G (2.0%, 988G)
AllInBot: 210G (1.9%, 210G)
ungabunga_bot: 136G (1.2%, 21,395G)
DeathTaxesAndAnime: 100G (0.9%, 5,466G)
ko2q: 100G (0.9%, 1,691G)
TinhShu: 100G (0.9%, 1,696G)
datadrivenbot: 100G (0.9%, 18,317G)
