Final Bets: red - 14 bets for 7,899G (55.9%, x0.79); blue - 11 bets for 6,237G (44.1%, x1.27)

red bets:
upvla: 1,200G (15.2%, 18,588G)
BirbBrainsBot: 1,000G (12.7%, 124,604G)
bad1dea: 1,000G (12.7%, 345,904G)
bpc2163: 1,000G (12.7%, 8,922G)
getthemoneyz: 924G (11.7%, 403,815G)
DeathTaxesAndAnime: 581G (7.4%, 581G)
PotionDweller: 500G (6.3%, 19,903G)
superdevon1: 472G (6.0%, 4,726G)
mirapoix: 460G (5.8%, 460G)
Rethera_: 362G (4.6%, 362G)
herrshaun: 100G (1.3%, 3,874G)
datadrivenbot: 100G (1.3%, 13,342G)
red_celt: 100G (1.3%, 7,387G)
SeedSC: 100G (1.3%, 135,830G)

blue bets:
Lydian_C: 2,400G (38.5%, 86,930G)
sinnyil2: 1,200G (19.2%, 63,522G)
cnkakashi: 500G (8.0%, 1,483G)
ko2q: 471G (7.6%, 471G)
ShintaroNayaka: 400G (6.4%, 2,481G)
kingchadking: 368G (5.9%, 368G)
R_Raynos: 304G (4.9%, 304G)
lijarkh: 200G (3.2%, 4,538G)
Nocturnal_Perspective: 194G (3.1%, 194G)
AllInBot: 100G (1.6%, 100G)
lavian94: 100G (1.6%, 125G)
