Final Bets: black - 20 bets for 9,955G (33.4%, x2.00); brown - 23 bets for 19,876G (66.6%, x0.50)

black bets:
UmaiJam: 1,336G (13.4%, 13,360G)
Ant_ihistamine: 1,179G (11.8%, 1,179G)
Lionhermit: 1,087G (10.9%, 2,174G)
SkylerBunny: 1,055G (10.6%, 1,055G)
RongRongArts: 1,000G (10.0%, 10,019G)
inzo_bettingbot: 1,000G (10.0%, 59,100G)
NovaKnight21: 460G (4.6%, 460G)
Arunic: 400G (4.0%, 2,879G)
Numbersborne: 375G (3.8%, 375G)
Yasmosis: 333G (3.3%, 333G)
Reiia: 300G (3.0%, 3,037G)
hzor: 280G (2.8%, 560G)
ugoplatamia: 200G (2.0%, 21,724G)
mayormcfunbags: 200G (2.0%, 1,881G)
alecttox: 200G (2.0%, 16,789G)
getthemoneyz: 130G (1.3%, 405,123G)
InOzWeTrust: 120G (1.2%, 120G)
BadBlanket: 100G (1.0%, 1,396G)
oodlesonoodles11: 100G (1.0%, 1,992G)
mirapoix: 100G (1.0%, 1,295G)

brown bets:
sinnyil2: 9,700G (48.8%, 19,401G)
Treapvort: 2,000G (10.1%, 20,284G)
OmnibotGamma: 1,000G (5.0%, 3,386G)
BirbBrainsBot: 1,000G (5.0%, 117,524G)
bad1dea: 1,000G (5.0%, 327,292G)
kingchadking: 1,000G (5.0%, 43,661G)
Shalloween: 700G (3.5%, 49,426G)
SleepyBenzo: 524G (2.6%, 524G)
jethrothrul: 504G (2.5%, 504G)
Spirit_NB: 300G (1.5%, 1,157G)
DustBirdEX: 300G (1.5%, 2,386G)
TheRobbieRobster: 294G (1.5%, 294G)
SeedSC: 250G (1.3%, 65,239G)
Etce: 248G (1.2%, 248G)
ZZ_Yoshi: 220G (1.1%, 220G)
RezzaDV: 136G (0.7%, 136G)
victoriolue: 100G (0.5%, 4,982G)
Lythe_Caraker: 100G (0.5%, 44,556G)
sixstop: 100G (0.5%, 1,586G)
reinoe: 100G (0.5%, 1,010G)
Reiniku: 100G (0.5%, 100G)
datadrivenbot: 100G (0.5%, 16,664G)
Basmal: 100G (0.5%, 37,504G)
