Final Bets: purple - 19 bets for 18,746G (74.7%, x0.34); brown - 11 bets for 6,365G (25.3%, x2.95)

purple bets:
Zeroroute: 6,831G (36.4%, 17,977G)
toka222: 2,700G (14.4%, 273,210G)
SWATb1gdog: 1,609G (8.6%, 1,609G)
DustBirdEX: 1,304G (7.0%, 1,304G)
Forkmore: 1,234G (6.6%, 6,903G)
roofiepops: 734G (3.9%, 734G)
Lord_Gwarth: 696G (3.7%, 1,392G)
Treafa: 680G (3.6%, 680G)
thunderducker: 555G (3.0%, 3,437G)
douchetron: 427G (2.3%, 427G)
CorpusCav: 400G (2.1%, 3,341G)
holdenmagronik: 364G (1.9%, 1,488G)
CapnChaos12: 300G (1.6%, 2,223G)
cho_pin: 248G (1.3%, 1,584G)
datadrivenbot: 200G (1.1%, 63,366G)
dingdingboom: 164G (0.9%, 164G)
AbandonedHall: 100G (0.5%, 1,938G)
Bongomon7: 100G (0.5%, 3,161G)
DJDragonflame: 100G (0.5%, 700G)

brown bets:
DavenIII: 2,500G (39.3%, 18,761G)
BirbBrainsBot: 1,000G (15.7%, 49,514G)
triniculo: 580G (9.1%, 580G)
powergems: 555G (8.7%, 10,100G)
LASERJESUS1337: 517G (8.1%, 517G)
Sairentozon7: 432G (6.8%, 432G)
getthemoneyz: 290G (4.6%, 1,749,526G)
AllInBot: 191G (3.0%, 191G)
IndecisiveNinja: 100G (1.6%, 8,115G)
Meta_Five: 100G (1.6%, 624G)
ko2q: 100G (1.6%, 11,141G)
