Final Bets: blue - 18 bets for 22,101G (68.1%, x0.47); yellow - 8 bets for 10,352G (31.9%, x2.13)

blue bets:
toka222: 8,500G (38.5%, 274,127G)
Forkmore: 5,000G (22.6%, 7,322G)
SkylerBunny: 1,400G (6.3%, 9,582G)
KasugaiRoastedPeas: 1,067G (4.8%, 1,067G)
BirbBrainsBot: 1,000G (4.5%, 48,514G)
Treafa: 911G (4.1%, 911G)
thunderducker: 800G (3.6%, 2,625G)
douchetron: 572G (2.6%, 572G)
getthemoneyz: 546G (2.5%, 1,749,236G)
CosmicTactician: 400G (1.8%, 40,983G)
CorpusCav: 400G (1.8%, 3,477G)
Lord_Gwarth: 337G (1.5%, 1,632G)
CapnChaos12: 300G (1.4%, 2,325G)
cho_pin: 248G (1.1%, 1,668G)
dingdingboom: 220G (1.0%, 220G)
datadrivenbot: 200G (0.9%, 63,434G)
Thyrandaal: 100G (0.5%, 80,914G)
AbandonedHall: 100G (0.5%, 1,972G)

yellow bets:
Zeroroute: 6,697G (64.7%, 20,296G)
DustBirdEX: 1,747G (16.9%, 1,747G)
pplvee1: 540G (5.2%, 55,745G)
SWATb1gdog: 500G (4.8%, 2,155G)
holdenmagronik: 364G (3.5%, 1,612G)
triniculo: 304G (2.9%, 304G)
AllInBot: 100G (1.0%, 100G)
Bongomon7: 100G (1.0%, 3,195G)
