Final Bets: blue - 10 bets for 10,329G (47.3%, x1.11); champion - 13 bets for 11,499G (52.7%, x0.90)

blue bets:
roqqqpsi: 2,074G (20.1%, 9,431G)
TheMurkGnome: 2,000G (19.4%, 14,392G)
WireLord: 2,000G (19.4%, 22,510G)
Shakarak: 1,000G (9.7%, 4,159G)
BirbBrainsBot: 1,000G (9.7%, 195,219G)
leakimiko: 757G (7.3%, 15,144G)
ungabunga_bot: 621G (6.0%, 266,142G)
Anethum: 617G (6.0%, 617G)
jtbirdACC: 150G (1.5%, 708G)
getthemoneyz: 110G (1.1%, 587,741G)

champion bets:
vorap: 3,000G (26.1%, 10,580G)
sinnyil2: 2,500G (21.7%, 70,131G)
HaplessOne: 1,500G (13.0%, 204,097G)
XalSmellsBad: 1,000G (8.7%, 20,621G)
ewan_e: 1,000G (8.7%, 9,949G)
Estan_AD: 675G (5.9%, 1,350G)
aStatue: 600G (5.2%, 600G)
CassiePhoenix: 424G (3.7%, 424G)
Dexsana: 400G (3.5%, 6,496G)
ApplesauceBoss: 100G (0.9%, 11,083G)
volgrathemoose: 100G (0.9%, 4,061G)
datadrivenbot: 100G (0.9%, 951G)
Bojanges: 100G (0.9%, 3,481G)
