Final Bets: brown - 10 bets for 3,954G (21.8%, x3.59); champion - 12 bets for 14,186G (78.2%, x0.28)

brown bets:
gogofromtogo: 1,000G (25.3%, 2,211G)
BirbBrainsBot: 1,000G (25.3%, 148,857G)
bruubarg: 510G (12.9%, 6,510G)
CT_5_Holy: 500G (12.6%, 3,403G)
Evewho: 200G (5.1%, 4,120G)
CrownOfHorns: 200G (5.1%, 1,907G)
getthemoneyz: 198G (5.0%, 795,125G)
HASTERIOUS: 126G (3.2%, 2,533G)
itsadud: 120G (3.0%, 120G)
ruleof5: 100G (2.5%, 100G)

champion bets:
CorpusCav: 11,000G (77.5%, 21,532G)
gorgewall: 584G (4.1%, 584G)
vorap: 500G (3.5%, 121,237G)
ShintaroNayaka: 400G (2.8%, 3,345G)
DAC169: 300G (2.1%, 963G)
ChronoG: 300G (2.1%, 561G)
HaychDub: 274G (1.9%, 1,778G)
Lythe_Caraker: 250G (1.8%, 120,489G)
serperemagus: 196G (1.4%, 196G)
outer_monologue: 182G (1.3%, 182G)
datadrivenbot: 100G (0.7%, 30,805G)
Kyune: 100G (0.7%, 27,042G)
