Final Bets: red - 8 bets for 3,155G (29.0%, x2.44); blue - 12 bets for 7,707G (71.0%, x0.41)

red bets:
BirbBrainsBot: 1,000G (31.7%, 10,340G)
ThePineappleSalesman: 644G (20.4%, 644G)
Evewho: 548G (17.4%, 548G)
KyleWonToLiveForever: 231G (7.3%, 231G)
Kalabain: 200G (6.3%, 1,049G)
ugedakka: 200G (6.3%, 1,684G)
Zachara: 200G (6.3%, 97,700G)
HASTERIOUS: 132G (4.2%, 2,656G)

blue bets:
NovaKnight21: 3,000G (38.9%, 18,111G)
Sairentozon7: 1,371G (17.8%, 1,371G)
Rislyeu: 1,200G (15.6%, 8,399G)
CassiePhoenix: 500G (6.5%, 2,343G)
ChronoG: 335G (4.3%, 335G)
gorgewall: 301G (3.9%, 6,561G)
RaIshtar: 300G (3.9%, 300G)
gogofromtogo: 200G (2.6%, 4,520G)
outer_monologue: 200G (2.6%, 3,822G)
CorpusCav: 100G (1.3%, 14,523G)
datadrivenbot: 100G (1.3%, 33,005G)
Ring_Wyrm: 100G (1.3%, 1,194G)
