Final Bets: yellow - 11 bets for 6,884G (49.0%, x1.04); champion - 11 bets for 7,177G (51.0%, x0.96)

yellow bets:
NovaKnight21: 2,000G (29.1%, 10,858G)
volgrathemoose: 1,001G (14.5%, 8,416G)
Sairentozon7: 795G (11.5%, 795G)
Ring_Wyrm: 600G (8.7%, 3,044G)
Evewho: 548G (8.0%, 548G)
zmoses: 500G (7.3%, 8,623G)
Kalabain: 464G (6.7%, 464G)
ShintaroNayaka: 300G (4.4%, 2,360G)
ColetteMSLP: 300G (4.4%, 2,540G)
BlackFireUK: 276G (4.0%, 276G)
datadrivenbot: 100G (1.5%, 33,232G)

champion bets:
CorpusCav: 1,104G (15.4%, 17,720G)
vorap: 1,000G (13.9%, 120,441G)
outer_monologue: 1,000G (13.9%, 4,542G)
BirbBrainsBot: 1,000G (13.9%, 11,495G)
Rislyeu: 1,000G (13.9%, 10,475G)
serperemagus: 840G (11.7%, 840G)
ugedakka: 500G (7.0%, 1,529G)
gorgewall: 201G (2.8%, 6,576G)
gogofromtogo: 200G (2.8%, 4,727G)
ar_tactic: 200G (2.8%, 58,130G)
KyleWonToLiveForever: 132G (1.8%, 132G)
