Final Bets: white - 15 bets for 9,102G (34.0%, x1.94); black - 23 bets for 17,670G (66.0%, x0.52)

white bets:
Nocturnal_Perspective: 2,911G (32.0%, 2,911G)
roofiepops: 1,577G (17.3%, 1,577G)
DarrenDinosaurs: 1,000G (11.0%, 8,480G)
RongRongArts: 518G (5.7%, 1,036G)
Pie108: 500G (5.5%, 7,902G)
Shalloween: 500G (5.5%, 3,694G)
OneHundredFists: 500G (5.5%, 1,544G)
ANFz: 444G (4.9%, 444G)
RRazza: 352G (3.9%, 352G)
JackOnFire1: 228G (2.5%, 228G)
JIDkomu: 176G (1.9%, 176G)
ApplesauceBoss: 100G (1.1%, 3,268G)
silentperogy: 100G (1.1%, 10,783G)
rico_flex: 100G (1.1%, 328G)
getthemoneyz: 96G (1.1%, 441,557G)

black bets:
Zeroroute: 3,710G (21.0%, 6,143G)
sinnyil2: 2,222G (12.6%, 108,641G)
BenYuPoker: 1,876G (10.6%, 1,876G)
WireLord: 1,801G (10.2%, 1,801G)
HaateXIII: 1,500G (8.5%, 20,359G)
BirbBrainsBot: 1,000G (5.7%, 258,155G)
bad1dea: 1,000G (5.7%, 49,342G)
b0shii: 623G (3.5%, 623G)
waterwatereverywhere: 564G (3.2%, 564G)
Laserman1000: 500G (2.8%, 5,300G)
ZephyrTempest: 364G (2.1%, 25,420G)
OmnibotGamma: 348G (2.0%, 348G)
SkylerBunny: 344G (1.9%, 344G)
ungabunga_bot: 342G (1.9%, 64,906G)
DrAntiSocial: 256G (1.4%, 256G)
Hard_Reset: 220G (1.2%, 220G)
Tithonus: 200G (1.1%, 11,752G)
ugoplatamia: 200G (1.1%, 10,494G)
KasugaiRoastedPeas: 200G (1.1%, 12,423G)
AllInBot: 100G (0.6%, 100G)
Basmal: 100G (0.6%, 54,580G)
SeedSC: 100G (0.6%, 141,095G)
exaltedhamster: 100G (0.6%, 6,237G)
