Final Bets: black - 10 bets for 6,379G (24.5%, x3.07); purple - 11 bets for 19,612G (75.5%, x0.33)

black bets:
wildetrys: 1,295G (20.3%, 1,295G)
reinoe: 1,000G (15.7%, 201,966G)
fattunaking: 1,000G (15.7%, 3,110G)
Firesheath: 716G (11.2%, 716G)
pandasforsale: 666G (10.4%, 13,677G)
Lanshaft: 592G (9.3%, 9,255G)
Aldrammech: 510G (8.0%, 5,106G)
Shalloween: 300G (4.7%, 16,529G)
datadrivenbot: 200G (3.1%, 64,927G)
AllInBot: 100G (1.6%, 100G)

purple bets:
Zeroroute: 11,363G (57.9%, 34,817G)
dogsandcatsand: 3,675G (18.7%, 7,206G)
getthemoneyz: 1,000G (5.1%, 1,641,010G)
BirbBrainsBot: 1,000G (5.1%, 161,527G)
SkylerBunny: 708G (3.6%, 708G)
SephDarkheart: 580G (3.0%, 115,985G)
roqqqpsi: 546G (2.8%, 3,643G)
Lord_Gwarth: 328G (1.7%, 657G)
Tarheels218: 200G (1.0%, 4,291G)
Krinku: 112G (0.6%, 112G)
Valgram: 100G (0.5%, 1,830G)
