Final Bets: white - 30 bets for 23,555G (73.2%, x0.37); black - 11 bets for 8,639G (26.8%, x2.73)

white bets:
reinoe: 5,000G (21.2%, 88,002G)
DeathTaxesAndAnime: 2,222G (9.4%, 25,343G)
waterwatereverywhere: 2,000G (8.5%, 11,105G)
Zbgs: 1,500G (6.4%, 16,147G)
Rytor: 1,382G (5.9%, 1,382G)
Demon_Lord_Josh: 1,205G (5.1%, 1,205G)
BirbBrainsBot: 1,000G (4.2%, 89,737G)
MemoriesofFinal: 1,000G (4.2%, 8,210G)
Nickyfive: 1,000G (4.2%, 5,297G)
Arcblazer23: 1,000G (4.2%, 10,414G)
YowaneHaku: 546G (2.3%, 546G)
krombobreaker: 500G (2.1%, 40,555G)
iBardic: 500G (2.1%, 2,010G)
Grayv87: 500G (2.1%, 3,479G)
khelor_: 500G (2.1%, 7,100G)
LeoNightFury: 500G (2.1%, 5,501G)
HorusTaurus: 452G (1.9%, 452G)
lowlf: 416G (1.8%, 416G)
TheBrett: 344G (1.5%, 344G)
dfunk3d: 320G (1.4%, 320G)
Breakdown777: 276G (1.2%, 276G)
duckfacebro: 275G (1.2%, 3,280G)
gorgewall: 201G (0.9%, 11,329G)
MrJamDango: 200G (0.8%, 6,463G)
datadrivenbot: 200G (0.8%, 85,421G)
verythinice: 116G (0.5%, 5,728G)
squideater_: 100G (0.4%, 5,350G)
skinny666: 100G (0.4%, 4,638G)
Thyrandaal: 100G (0.4%, 2,289G)
RunicMagus: 100G (0.4%, 12,748G)

black bets:
DLJuggernaut: 2,222G (25.7%, 10,209G)
Evewho: 2,000G (23.2%, 31,759G)
Raixelol: 1,050G (12.2%, 1,050G)
killth3kid: 868G (10.0%, 23,993G)
CorpusCav: 500G (5.8%, 112,394G)
ExplanationMarkWow: 489G (5.7%, 26,489G)
Phi_Sig: 476G (5.5%, 476G)
JethroThrul: 388G (4.5%, 388G)
getthemoneyz: 246G (2.8%, 2,214,303G)
AllInBot: 200G (2.3%, 200G)
ValensEXP_: 200G (2.3%, 21,252G)
