High Risers:
1. Mesmaster: +15,442G
2. Aldrammech: +11,403G
3. Sephdarkheart: +7,145G
4. Nizaha: +5,276G
5. Brokenknight201: +4,350G
6. E_ballard: +3,185G
7. Superdevon1: +2,100G
8. Xyunganarchyx: +1,960G
9. Cryptopsy70: +1,667G
10. Cosmictactician: +1,581G
11. Ruleof5: +1,000G
12. Ldskinny: +1,000G
13. Roqqqpsi: +1,000G
14. Rocl: +887G
15. Deathtaxesandanime: +728G
16. Holandrix: +718G
17. Roofiepops: +704G
18. Tsuike: +666G
19. Absalom_20: +647G
20. Arumz: +592G
21. Squidsquarklin: +540G
22. Runicmagus: +518G
23. Jonnycue: +504G
24. Laserman1000: +504G
25. Archknightx: +500G
26. Stealthmodelocke: +500G
27. Error72: +500G
28. Lokenwow: +500G
29. Pplvee1: +500G
30. Powergems: +500G
31. Bruubarg: +500G
32. Old_overholt_: +500G
33. Daveniii: +500G
34. Robotocelot: +500G
35. Maakur_: +500G
36. Raixelol: +500G
37. Skincrawler: +500G
38. Onehundredfists: +500G
39. Miku_shikhu: +500G
40. Daveb_: +500G
41. Skillomono: +500G
42. Porotact: +500G
43. Lowlf: +500G
44. Deathrtopper: +500G
45. Dac169: +500G
46. Haatexiii: +500G
47. Dracoknightzero: +500G
48. Firesheath: +500G
49. Corpuscav: +497G
50. Sinnyil2: +485G
51. Mrfripps: +479G
52. Douchetron: +460G
53. Smashy: +370G
54. Evontno: +307G
55. Brenogarwin: +300G
56. Reddwind_: +285G
57. Jumbocactuarx27: +281G
58. Cho_pin: +244G
59. Panushenko: +243G
60. Whitetigress: +200G
61. Shalloween: +200G
62. 3ngag3: +184G
63. Gorgewall: +150G
64. Phi_sig: +104G
65. Resjudicata3: +102G
66. Yangusburger: -34G
67. Hasterious: -44G
68. Kellios11: -100G
69. Joewcarson: -264G
70. Letdowncity: -268G
71. Jeeboheebo: -300G
72. Run_with_stone_guns: -500G
73. Highelectricaltemperature: -582G
74. Valgram: -631G
75. Lord_gwarth: -687G
76. Ko2q: -743G
77. Dasutin23: -800G
78. Dogsandcatsand: -800G
79. Gooseyourself: -1,000G
80. Skylerbunny: -1,000G
81. Kronikle: -1,016G
82. Killth3kid: -1,179G
83. Thebluesman: -1,890G
84. Reinoe: -2,891G
85. Thyrandaal: -4,920G
86. Forkmore: -5,489G
87. Foesquirrel: -5,614G
88. Zagorsek: -7,731G
89. Volgrathemoose: -11,846G
