Final Bets: red - 15 bets for 12,674G (51.0%, x0.96); green - 15 bets for 12,172G (49.0%, x1.04)

red bets:
Mesmaster: 5,000G (39.5%, 134,202G)
SephDarkheart: 1,394G (11.0%, 1,394G)
BirbBrainsBot: 1,000G (7.9%, 79,958G)
JumbocactuarX27: 908G (7.2%, 908G)
superdevon1: 900G (7.1%, 90,048G)
E_Ballard: 852G (6.7%, 113,987G)
Nizaha: 804G (6.3%, 85,038G)
highelectricaltemperature: 400G (3.2%, 4,197G)
reddwind_: 368G (2.9%, 4,571G)
rocl: 348G (2.7%, 1,624G)
Tsuike: 300G (2.4%, 1,760G)
Thyrandaal: 100G (0.8%, 51,622G)
3ngag3: 100G (0.8%, 2,019G)
Yangusburger: 100G (0.8%, 6,670G)
CosmicTactician: 100G (0.8%, 49,052G)

green bets:
Forkmore: 3,000G (24.6%, 43,728G)
reinoe: 2,000G (16.4%, 36,380G)
VolgraTheMoose: 1,501G (12.3%, 143,977G)
Zagorsek: 1,128G (9.3%, 1,128G)
evontno: 1,100G (9.0%, 1,100G)
FoeSquirrel: 802G (6.6%, 1,605G)
WhiteTigress: 500G (4.1%, 27,869G)
Lord_Gwarth: 500G (4.1%, 1,146G)
CorpusCav: 400G (3.3%, 4,393G)
Panushenko: 348G (2.9%, 348G)
RunicMagus: 300G (2.5%, 9,399G)
datadrivenbot: 200G (1.6%, 65,075G)
getthemoneyz: 192G (1.6%, 1,813,939G)
gorgewall: 101G (0.8%, 2,531G)
Valgram: 100G (0.8%, 2,708G)
