Final Bets: red - 15 bets for 9,828G (36.8%, x1.72); blue - 15 bets for 16,905G (63.2%, x0.58)

red bets:
DarrenDinosaurs: 1,965G (20.0%, 1,965G)
mayfu: 1,500G (15.3%, 45,290G)
sinnyil2: 1,055G (10.7%, 2,111G)
BirbBrainsBot: 1,000G (10.2%, 129,442G)
JumbocactuarX27: 1,000G (10.2%, 18,197G)
Laserman1000: 813G (8.3%, 813G)
amiture: 500G (5.1%, 6,853G)
Practice_Pad: 487G (5.0%, 487G)
getthemoneyz: 388G (3.9%, 1,407,087G)
TimeJannies: 304G (3.1%, 304G)
acid_flashback: 216G (2.2%, 216G)
ohhinm: 200G (2.0%, 5,170G)
Rytor: 200G (2.0%, 24,855G)
PoroTact: 100G (1.0%, 6,746G)
Miku_Shikhu: 100G (1.0%, 972G)

blue bets:
RaIshtar: 8,496G (50.3%, 16,992G)
thehotrefrigerator: 1,550G (9.2%, 1,550G)
E_Ballard: 1,536G (9.1%, 1,536G)
TheChainNerd: 1,023G (6.1%, 1,023G)
Meta_Five: 1,000G (5.9%, 26,062G)
Firesheath: 756G (4.5%, 756G)
Nizaha: 592G (3.5%, 21,560G)
SephDarkheart: 540G (3.2%, 540G)
ShintaroNayaka: 500G (3.0%, 8,584G)
Lord_Gwarth: 300G (1.8%, 6,895G)
AllInBot: 200G (1.2%, 200G)
ScottyDeluxe: 112G (0.7%, 112G)
oldchris: 100G (0.6%, 4,534G)
Bongomon7: 100G (0.6%, 8,383G)
RuneS_77: 100G (0.6%, 10,250G)
