Final Bets: purple - 8 bets for 5,513G (31.9%, x2.14); brown - 22 bets for 11,787G (68.1%, x0.47)

purple bets:
Deathmaker06: 2,000G (36.3%, 23,106G)
mayfu: 1,500G (27.2%, 47,460G)
Firesheath: 723G (13.1%, 723G)
AllInBot: 462G (8.4%, 462G)
ShintaroNayaka: 400G (7.3%, 9,355G)
holdenmagronik: 228G (4.1%, 228G)
PoroTact: 100G (1.8%, 7,026G)
ohhinm: 100G (1.8%, 5,735G)

brown bets:
mirapoix: 2,015G (17.1%, 2,015G)
ArlanKels: 1,120G (9.5%, 1,120G)
EnemyController: 1,111G (9.4%, 1,474,311G)
getthemoneyz: 1,000G (8.5%, 1,408,353G)
BirbBrainsBot: 1,000G (8.5%, 132,245G)
TheChainNerd: 784G (6.7%, 784G)
RaIshtar: 734G (6.2%, 734G)
Nizaha: 592G (5.0%, 21,609G)
SephDarkheart: 521G (4.4%, 521G)
thehotrefrigerator: 500G (4.2%, 500G)
Zagorsek: 484G (4.1%, 484G)
dogsandcatsand: 364G (3.1%, 364G)
ruleof5: 300G (2.5%, 9,940G)
FroxicTog: 231G (2.0%, 231G)
TasisSai: 200G (1.7%, 2,605G)
datadrivenbot: 200G (1.7%, 45,655G)
Miku_Shikhu: 120G (1.0%, 1,281G)
Thyrandaal: 111G (0.9%, 7,792G)
captainmilestw: 100G (0.8%, 1,254G)
oldchris: 100G (0.8%, 4,413G)
Bongomon7: 100G (0.8%, 8,362G)
RuneS_77: 100G (0.8%, 10,258G)
