Final Bets: purple - 14 bets for 7,061G (45.0%, x1.22); brown - 10 bets for 8,646G (55.0%, x0.82)

purple bets:
reinoe: 3,159G (44.7%, 3,159G)
RaIshtar: 1,200G (17.0%, 9,409G)
TeaTime29: 538G (7.6%, 538G)
mirapoix: 520G (7.4%, 520G)
s_o_b_e_q: 500G (7.1%, 8,406G)
Digitalsocrates: 300G (4.2%, 4,494G)
gorgewall: 201G (2.8%, 11,041G)
blastty: 100G (1.4%, 1,158G)
Lythe_Caraker: 100G (1.4%, 120,864G)
MilesDong: 100G (1.4%, 1,000G)
DISTROlD: 100G (1.4%, 2,955G)
datadrivenbot: 100G (1.4%, 31,013G)
fluffskull: 100G (1.4%, 700G)
HASTERIOUS: 43G (0.6%, 868G)

brown bets:
LASERJESUS1337: 2,000G (23.1%, 60,993G)
CorpusCav: 1,010G (11.7%, 19,240G)
Kyune: 1,000G (11.6%, 29,754G)
twelfthrootoftwo: 1,000G (11.6%, 11,160G)
BirbBrainsBot: 1,000G (11.6%, 179,354G)
UmaiJam: 1,000G (11.6%, 20,168G)
Freezerman47: 862G (10.0%, 862G)
thenextlantern: 500G (5.8%, 840G)
getthemoneyz: 174G (2.0%, 799,542G)
Evewho: 100G (1.2%, 7,758G)
