Final Bets: black - 12 bets for 4,471G (19.7%, x4.07); purple - 17 bets for 18,181G (80.3%, x0.25)

black bets:
Jahshine: 1,000G (22.4%, 5,920G)
BirbBrainsBot: 1,000G (22.4%, 149,043G)
DustBirdEX: 602G (13.5%, 602G)
McGibble: 344G (7.7%, 344G)
Estan_AD: 344G (7.7%, 344G)
vorap: 295G (6.6%, 295G)
perce90: 250G (5.6%, 697G)
Evewho: 200G (4.5%, 3,096G)
getthemoneyz: 136G (3.0%, 564,264G)
GarbagePhoenix: 100G (2.2%, 151G)
ko2q: 100G (2.2%, 8,515G)
jtbirdACC: 100G (2.2%, 691G)

purple bets:
BoneMiser: 5,000G (27.5%, 23,753G)
sinnyil2: 2,500G (13.8%, 110,199G)
Lydian_C: 2,400G (13.2%, 65,613G)
Shakarak: 2,000G (11.0%, 39,489G)
Jerboj: 1,000G (5.5%, 49,919G)
PotionDweller: 1,000G (5.5%, 15,820G)
troublesometree: 900G (5.0%, 900G)
Goust18: 500G (2.8%, 8,841G)
XalSmellsBad: 500G (2.8%, 20,377G)
aStatue: 500G (2.8%, 16,263G)
leakimiko: 376G (2.1%, 376G)
helpimabug: 340G (1.9%, 340G)
Dexef: 333G (1.8%, 17,873G)
whiteonrice: 301G (1.7%, 301G)
stukerk: 232G (1.3%, 232G)
ungabunga_bot: 199G (1.1%, 217,413G)
datadrivenbot: 100G (0.6%, 1,492G)
