Final Bets: white - 5 bets for 12,268G (42.7%, x1.34); brown - 17 bets for 16,438G (57.3%, x0.75)

white bets:
DeathTaxesAndAnime: 6,025G (49.1%, 11,814G)
FatTunaKing: 5,000G (40.8%, 11,342G)
NicoSavoy: 552G (4.5%, 552G)
scsuperstar: 491G (4.0%, 491G)
AllInBot: 200G (1.6%, 200G)

brown bets:
Rune339: 5,808G (35.3%, 5,808G)
acid_flashback: 5,000G (30.4%, 50,712G)
CorpusCav: 1,200G (7.3%, 51,728G)
BirbBrainsBot: 1,000G (6.1%, 80,366G)
Laserman1000: 800G (4.9%, 16,400G)
khelor_: 500G (3.0%, 15,265G)
bigbongsmoker: 316G (1.9%, 6,770G)
bdb_goldenleo: 259G (1.6%, 4,271G)
Reddash9: 250G (1.5%, 840G)
2b_yorha_b: 250G (1.5%, 10,812G)
ValensEXP_: 200G (1.2%, 6,422G)
Evewho: 200G (1.2%, 8,552G)
datadrivenbot: 200G (1.2%, 83,924G)
getthemoneyz: 162G (1.0%, 2,168,068G)
7Cerulean7: 150G (0.9%, 3,203G)
Firesheath: 100G (0.6%, 2,378G)
Chuckolator: 43G (0.3%, 1,418G)
