Final Bets: white - 11 bets for 9,231G (50.8%, x0.97); black - 17 bets for 8,957G (49.2%, x1.03)

white bets:
Panushenko: 1,929G (20.9%, 1,929G)
reinoe: 1,820G (19.7%, 3,641G)
Zerguzen: 1,272G (13.8%, 1,272G)
Thyrandaal: 1,000G (10.8%, 16,130G)
SkylerBunny: 688G (7.5%, 688G)
farside00831: 600G (6.5%, 4,211G)
AllInBot: 530G (5.7%, 530G)
killth3kid: 500G (5.4%, 31,038G)
thunderducker: 500G (5.4%, 8,419G)
ValensEXP_: 292G (3.2%, 6,462G)
nhammen: 100G (1.1%, 422,374G)

black bets:
NicoSavoy: 2,000G (22.3%, 54,034G)
BirbBrainsBot: 1,000G (11.2%, 125,323G)
getthemoneyz: 956G (10.7%, 1,935,275G)
Zagorsek: 810G (9.0%, 810G)
HASTERIOUS: 688G (7.7%, 688G)
brokenknight201: 500G (5.6%, 23,266G)
Chaide: 500G (5.6%, 2,751G)
latebit: 436G (4.9%, 436G)
Runeseeker22: 406G (4.5%, 8,122G)
skipsandwiches: 400G (4.5%, 8,697G)
LivingHitokiri: 300G (3.3%, 300G)
Smugzug: 276G (3.1%, 276G)
datadrivenbot: 200G (2.2%, 59,028G)
grishhammer: 184G (2.1%, 369G)
gorgewall: 101G (1.1%, 12,125G)
BartTradingCompany: 100G (1.1%, 7,852G)
MoonSugarFiend: 100G (1.1%, 100G)
