Final Bets: blue - 21 bets for 20,152G (88.8%, x0.13); yellow - 7 bets for 2,549G (11.2%, x7.91)

blue bets:
reinoe: 3,317G (16.5%, 3,317G)
Chaide: 3,266G (16.2%, 3,266G)
Shalloween: 3,138G (15.6%, 6,277G)
latebit: 1,612G (8.0%, 1,612G)
SkylerBunny: 1,128G (5.6%, 1,128G)
skipsandwiches: 1,001G (5.0%, 9,438G)
BirbBrainsBot: 1,000G (5.0%, 125,952G)
Thyrandaal: 1,000G (5.0%, 14,134G)
Laserman1000: 848G (4.2%, 848G)
Runeseeker22: 811G (4.0%, 8,117G)
resjudicata3: 675G (3.3%, 675G)
LivingHitokiri: 609G (3.0%, 609G)
killth3kid: 500G (2.5%, 30,538G)
SephDarkheart: 328G (1.6%, 328G)
tripaplex: 204G (1.0%, 204G)
datadrivenbot: 200G (1.0%, 59,398G)
grishhammer: 179G (0.9%, 359G)
gorgewall: 101G (0.5%, 12,312G)
AllInBot: 100G (0.5%, 100G)
maakur_: 100G (0.5%, 2,386G)
Smugzug: 35G (0.2%, 353G)

yellow bets:
Valdimar_5467: 1,000G (39.2%, 14,679G)
dogsandcatsand: 616G (24.2%, 39,163G)
Zerguzen: 437G (17.1%, 437G)
ValensEXP_: 292G (11.5%, 5,878G)
BartTradingCompany: 100G (3.9%, 7,855G)
getthemoneyz: 52G (2.0%, 1,935,802G)
blorpy_: 52G (2.0%, 5,548G)
