Final Bets: blue - 13 bets for 9,520G (49.9%, x1.00); champion - 20 bets for 9,551G (50.1%, x1.00)

blue bets:
Thyrandaal: 3,000G (31.5%, 14,874G)
HASTERIOUS: 1,401G (14.7%, 1,401G)
reinoe: 1,076G (11.3%, 1,076G)
BirbBrainsBot: 1,000G (10.5%, 126,374G)
Chaide: 750G (7.9%, 5,359G)
LivingHitokiri: 521G (5.5%, 521G)
killth3kid: 500G (5.3%, 32,578G)
tripaplex: 350G (3.7%, 350G)
3ngag3: 324G (3.4%, 14,769G)
TrogdorTheMemeinator: 289G (3.0%, 289G)
grishhammer: 191G (2.0%, 383G)
VolgraTheMoose: 100G (1.1%, 6,696G)
getthemoneyz: 18G (0.2%, 1,938,790G)

champion bets:
Zerguzen: 1,745G (18.3%, 1,745G)
SkylerBunny: 1,179G (12.3%, 1,179G)
Zbgs: 1,029G (10.8%, 1,029G)
pplvee1: 1,001G (10.5%, 9,476G)
Laserman1000: 848G (8.9%, 848G)
resjudicata3: 806G (8.4%, 1,582G)
Runeseeker22: 370G (3.9%, 7,419G)
Smugzug: 357G (3.7%, 357G)
BappleTrees: 337G (3.5%, 337G)
SephDarkheart: 328G (3.4%, 328G)
ValensEXP_: 292G (3.1%, 5,002G)
CrazyLou64: 258G (2.7%, 516G)
farside00831: 200G (2.1%, 3,611G)
datadrivenbot: 200G (2.1%, 59,366G)
gorgewall: 101G (1.1%, 12,652G)
AllInBot: 100G (1.0%, 100G)
BartTradingCompany: 100G (1.0%, 7,555G)
RunicMagus: 100G (1.0%, 11,481G)
nhammen: 100G (1.0%, 422,345G)
latebit: 100G (1.0%, 1,716G)
