Final Bets: green - 24 bets for 13,021G (56.7%, x0.76); yellow - 21 bets for 9,955G (43.3%, x1.31)

green bets:
roofiepops: 3,500G (26.9%, 12,007G)
OmnibotGamma: 2,000G (15.4%, 5,323G)
BirbBrainsBot: 1,000G (7.7%, 190,186G)
getthemoneyz: 1,000G (7.7%, 344,694G)
bad1dea: 1,000G (7.7%, 183,252G)
JustSuperish: 638G (4.9%, 638G)
Evewho: 500G (3.8%, 7,439G)
truestrike: 500G (3.8%, 5,347G)
HaplessOne: 398G (3.1%, 17,970G)
tevoul: 303G (2.3%, 6,069G)
hales_bopp_it: 300G (2.3%, 8,020G)
Zetchryn: 280G (2.2%, 280G)
Baron_von_Scrub: 252G (1.9%, 5,708G)
CorpusCav: 200G (1.5%, 3,507G)
DejaPoo21: 200G (1.5%, 19,352G)
SeedSC: 150G (1.2%, 72,750G)
Kellios11: 100G (0.8%, 6,569G)
Basmal: 100G (0.8%, 7,655G)
Tougou: 100G (0.8%, 2,736G)
Nizaha: 100G (0.8%, 5,389G)
BadBlanket: 100G (0.8%, 5,090G)
Jeardra: 100G (0.8%, 100G)
maakur_: 100G (0.8%, 54,779G)
datadrivenbot: 100G (0.8%, 12,285G)

yellow bets:
Zeroroute: 1,827G (18.4%, 6,211G)
Drgnmstr366: 1,252G (12.6%, 1,252G)
MoonSlayerRS: 1,080G (10.8%, 1,080G)
Lodrak: 1,001G (10.1%, 6,806G)
DaveStrider55: 917G (9.2%, 917G)
powergems: 555G (5.6%, 2,843G)
superdevon1: 500G (5.0%, 1,944G)
HaateXIII: 500G (5.0%, 5,735G)
Bahamut64: 449G (4.5%, 4,498G)
RurouniGeo: 279G (2.8%, 279G)
Adam1949: 277G (2.8%, 277G)
ForestMagi: 200G (2.0%, 798G)
I_nod_my_head_when_I_lose: 200G (2.0%, 20,762G)
EnemyController: 200G (2.0%, 20,783G)
Davarian: 168G (1.7%, 168G)
Zagorsek: 100G (1.0%, 279,156G)
Firesheath: 100G (1.0%, 888G)
Chompie: 100G (1.0%, 7,490G)
chronoxtrigger: 100G (1.0%, 2,825G)
BuffaloCrunch: 100G (1.0%, 18,507G)
Avin_Chaos: 50G (0.5%, 302G)
