Final Bets: white - 10 bets for 4,759G (20.5%, x3.88); black - 18 bets for 18,479G (79.5%, x0.26)

white bets:
CorpusCav: 1,400G (29.4%, 51,778G)
DavenIII: 858G (18.0%, 858G)
lube_squid: 500G (10.5%, 7,288G)
PoroTact: 460G (9.7%, 460G)
AllInBot: 438G (9.2%, 438G)
SkylerBunny: 359G (7.5%, 704G)
grishhammer: 244G (5.1%, 587G)
old_overholt_: 200G (4.2%, 12,400G)
MilkaChoko: 200G (4.2%, 1,370G)
nhammen: 100G (2.1%, 284,817G)

black bets:
dogsandcatsand: 10,923G (59.1%, 21,418G)
DeathTaxesAndAnime: 2,079G (11.3%, 4,078G)
Musashi45: 1,105G (6.0%, 2,210G)
BirbBrainsBot: 1,000G (5.4%, 26,794G)
LDSkinny: 656G (3.5%, 656G)
latebit: 480G (2.6%, 8,232G)
SephDarkheart: 356G (1.9%, 34,671G)
akash7: 298G (1.6%, 10,798G)
wiznaibusthis: 290G (1.6%, 290G)
Rune339: 277G (1.5%, 2,776G)
getthemoneyz: 214G (1.2%, 1,966,119G)
datadrivenbot: 200G (1.1%, 60,163G)
SnarkMage: 150G (0.8%, 754G)
gorgewall: 101G (0.5%, 4,595G)
BartTradingCompany: 100G (0.5%, 10,040G)
Nythimus: 100G (0.5%, 1,579G)
Thyrandaal: 100G (0.5%, 51,265G)
ericzubat: 50G (0.3%, 666G)
