Final Bets: red - 13 bets for 5,766G (11.5%, x7.71); blue - 19 bets for 44,446G (88.5%, x0.13)

red bets:
Lord_Gwarth: 1,340G (23.2%, 1,340G)
DracoknightZero: 978G (17.0%, 978G)
nifboy: 764G (13.3%, 6,229G)
evontno: 600G (10.4%, 600G)
lowlf: 540G (9.4%, 14,132G)
getthemoneyz: 370G (6.4%, 1,960,469G)
ValensEXP_: 324G (5.6%, 1,498G)
killth3kid: 250G (4.3%, 9,220G)
AllInBot: 200G (3.5%, 200G)
BartTradingCompany: 100G (1.7%, 10,517G)
nhammen: 100G (1.7%, 320,824G)
maakur_: 100G (1.7%, 3,660G)
Morsigil: 100G (1.7%, 797G)

blue bets:
Mesmaster: 10,000G (22.5%, 220,543G)
DeathTaxesAndAnime: 9,319G (21.0%, 18,274G)
CorpusCav: 5,000G (11.2%, 46,151G)
DLJuggernaut: 5,000G (11.2%, 13,211G)
reinoe: 5,000G (11.2%, 16,520G)
CosmicTactician: 2,000G (4.5%, 27,067G)
NicoSavoy: 2,000G (4.5%, 109,530G)
upvla: 1,902G (4.3%, 1,902G)
BirbBrainsBot: 1,000G (2.2%, 6,015G)
Laserman1000: 800G (1.8%, 8,600G)
roofiepops: 653G (1.5%, 653G)
krombobreaker: 500G (1.1%, 4,693G)
hotpocketsofficial: 393G (0.9%, 393G)
datadrivenbot: 200G (0.4%, 64,861G)
tripaplex: 200G (0.4%, 5,350G)
J_52: 150G (0.3%, 1,218G)
J_MacC1991: 128G (0.3%, 1,658G)
gorgewall: 101G (0.2%, 4,603G)
RunicMagus: 100G (0.2%, 11,425G)
