Final Bets: purple - 12 bets for 23,203G (77.1%, x0.30); brown - 11 bets for 6,896G (22.9%, x3.36)

purple bets:
douchetron: 6,255G (27.0%, 6,255G)
DLJuggernaut: 5,000G (21.5%, 9,961G)
reinoe: 3,793G (16.3%, 7,587G)
lowlf: 2,222G (9.6%, 13,052G)
Thyrandaal: 2,000G (8.6%, 71,028G)
loveyouallfriends: 1,999G (8.6%, 39,876G)
BirbBrainsBot: 1,000G (4.3%, 5,365G)
Musashi45: 433G (1.9%, 9,433G)
datadrivenbot: 200G (0.9%, 64,731G)
gorgewall: 101G (0.4%, 4,537G)
BartTradingCompany: 100G (0.4%, 10,339G)
nhammen: 100G (0.4%, 315,624G)

brown bets:
upvla: 2,000G (29.0%, 2,622G)
CorpusCav: 1,500G (21.8%, 53,110G)
biske13: 1,000G (14.5%, 4,830G)
getthemoneyz: 696G (10.1%, 1,962,329G)
krombobreaker: 500G (7.3%, 4,368G)
tripaplex: 300G (4.4%, 5,420G)
AllInBot: 200G (2.9%, 200G)
ribbiks: 200G (2.9%, 3,715G)
PopsLIVE: 200G (2.9%, 2,738G)
Rune339: 200G (2.9%, 9,123G)
Morsigil: 100G (1.5%, 697G)
