Final Bets: blue - 12 bets for 6,058G (28.8%, x2.48); green - 14 bets for 15,012G (71.2%, x0.40)

blue bets:
MirtaiAtana: 1,744G (28.8%, 1,744G)
BirbBrainsBot: 1,000G (16.5%, 75,099G)
DrAntiSocial: 698G (11.5%, 698G)
XalSmellsBad: 500G (8.3%, 24,249G)
Dexsana: 465G (7.7%, 465G)
ShintaroNayaka: 400G (6.6%, 8,415G)
getthemoneyz: 354G (5.8%, 605,158G)
FoxtrotNovemberCharlie: 272G (4.5%, 272G)
Ruvelia_BibeI: 212G (3.5%, 212G)
SaintOmerville: 200G (3.3%, 12,701G)
AllInBot: 189G (3.1%, 189G)
roqqqpsi: 24G (0.4%, 1,239G)

green bets:
Phytik: 5,000G (33.3%, 20,276G)
ko2q: 2,201G (14.7%, 4,402G)
Mirrorclaw: 1,390G (9.3%, 1,390G)
TheChainNerd: 1,000G (6.7%, 5,721G)
JumbocactuarX27: 1,000G (6.7%, 12,282G)
Mesmaster: 1,000G (6.7%, 16,912G)
leakimiko: 859G (5.7%, 3,438G)
Pink_LuigiX: 814G (5.4%, 814G)
Anethum: 637G (4.2%, 637G)
0v3rr8d: 500G (3.3%, 1,289G)
7Cerulean7: 300G (2.0%, 3,689G)
ungabunga_bot: 111G (0.7%, 283,592G)
lastly: 100G (0.7%, 3,714G)
datadrivenbot: 100G (0.7%, 8,067G)
