Final Bets: yellow - 21 bets for 19,221G (40.8%, x1.45); champion - 40 bets for 27,931G (59.2%, x0.69)

yellow bets:
YaBoy125: 5,000G (26.0%, 21,987G)
SkylerBunny: 3,000G (15.6%, 75,724G)
Axelrod: 1,679G (8.7%, 16,798G)
DeathTaxesAndAnime: 1,667G (8.7%, 3,331G)
TheMurkGnome: 1,037G (5.4%, 10,378G)
JonnyCue: 1,000G (5.2%, 43,131G)
BirbBrainsBot: 1,000G (5.2%, 221,041G)
bad1dea: 1,000G (5.2%, 213,508G)
Virilikus: 1,000G (5.2%, 12,900G)
tone_t: 500G (2.6%, 6,802G)
Tyerenex: 448G (2.3%, 669G)
volgrathemoose: 432G (2.2%, 432G)
SerumD: 312G (1.6%, 312G)
haaaaaank: 308G (1.6%, 308G)
ZephyrTempest: 250G (1.3%, 1,662G)
Fallenmagi: 208G (1.1%, 208G)
Tougou: 100G (0.5%, 5,233G)
mirapoix: 100G (0.5%, 2,313G)
SeedSC: 100G (0.5%, 101,586G)
dreadnxught: 50G (0.3%, 4,623G)
deesignal: 30G (0.2%, 5,353G)

champion bets:
Zeroroute: 3,476G (12.4%, 10,721G)
Baron_von_Scrub: 3,002G (10.7%, 3,002G)
Shakarak: 3,000G (10.7%, 25,978G)
SolarisFall: 1,898G (6.8%, 18,981G)
LordPaimon: 1,291G (4.6%, 1,291G)
LuckyLuckLuc2: 1,111G (4.0%, 28,067G)
Lodrak: 1,001G (3.6%, 14,855G)
loveyouallfriends: 1,000G (3.6%, 4,985G)
MantisFinch: 1,000G (3.6%, 28,238G)
Laserman1000: 1,000G (3.6%, 18,400G)
MrDiggs49: 1,000G (3.6%, 4,856G)
inzo_bettingbot: 800G (2.9%, 11,797G)
SpaZmodeus: 666G (2.4%, 2,518G)
UmaiJam: 630G (2.3%, 3,154G)
HaplessOne: 611G (2.2%, 25,211G)
cayorangel: 607G (2.2%, 607G)
rubenflonne: 599G (2.1%, 4,121G)
PotionDweller: 500G (1.8%, 33,059G)
theallmightyensiron: 500G (1.8%, 986G)
omegasuspekt: 441G (1.6%, 441G)
AnthraX85: 416G (1.5%, 416G)
TheGuesty: 350G (1.3%, 8,500G)
DustBirdEX: 300G (1.1%, 3,393G)
Mechapope1: 300G (1.1%, 4,125G)
Lazerkick: 300G (1.1%, 10,004G)
kingchadking: 296G (1.1%, 296G)
roofiepops: 296G (1.1%, 296G)
Oshimi12: 200G (0.7%, 1,785G)
CorpusCav: 200G (0.7%, 8,129G)
Adam1949: 136G (0.5%, 136G)
TheRobbieRobster: 104G (0.4%, 104G)
ungabunga_bot: 100G (0.4%, 4,836G)
ApplesauceBoss: 100G (0.4%, 9,702G)
Basmal: 100G (0.4%, 3,062G)
ANFz: 100G (0.4%, 24,796G)
BadBlanket: 100G (0.4%, 2,521G)
chronoxtrigger: 100G (0.4%, 4,691G)
thejoden: 100G (0.4%, 2,363G)
denamda: 100G (0.4%, 18,783G)
OneHundredFists: 100G (0.4%, 7,734G)
