Final Bets: blue - 15 bets for 12,833G (45.7%, x1.19); yellow - 10 bets for 15,226G (54.3%, x0.84)

blue bets:
nekojin: 5,646G (44.0%, 5,646G)
gorgewall: 2,156G (16.8%, 2,156G)
Zbgs: 1,000G (7.8%, 14,059G)
BoneMiser: 898G (7.0%, 898G)
beowulfrulez: 609G (4.7%, 609G)
Awakeninfinity: 450G (3.5%, 4,058G)
CorpusCav: 400G (3.1%, 5,675G)
getthemoneyz: 330G (2.6%, 1,815,519G)
ColetteMSLP: 300G (2.3%, 2,705G)
AltimaMantoid: 280G (2.2%, 280G)
bigbongsmoker: 236G (1.8%, 3,043G)
datadrivenbot: 200G (1.6%, 58,027G)
FriendlySkeleton: 128G (1.0%, 818G)
formerlydrdong: 100G (0.8%, 4,277G)
Twisted_Nutsatchel: 100G (0.8%, 18,434G)

yellow bets:
Thyrandaal: 7,000G (46.0%, 40,392G)
snkey: 2,685G (17.6%, 26,853G)
dogsandcatsand: 1,328G (8.7%, 1,328G)
Mushufasa_: 1,000G (6.6%, 30,258G)
BirbBrainsBot: 1,000G (6.6%, 136,390G)
HaateXIII: 908G (6.0%, 908G)
fenaen: 576G (3.8%, 6,915G)
krombobreaker: 296G (1.9%, 3,476G)
thebluesman: 233G (1.5%, 20,233G)
arumz: 200G (1.3%, 25,428G)
