Final Bets: green - 27 bets for 14,296G (43.7%, x1.29); yellow - 20 bets for 18,440G (56.3%, x0.78)

green bets:
reinoe: 3,412G (23.9%, 3,412G)
ANFz: 1,134G (7.9%, 2,269G)
ungabunga_bot: 1,000G (7.0%, 511,572G)
BirbBrainsBot: 1,000G (7.0%, 107,328G)
getthemoneyz: 1,000G (7.0%, 684,506G)
Rislyeu: 973G (6.8%, 1,947G)
fenaen: 800G (5.6%, 7,799G)
dogsandcatsand: 500G (3.5%, 6,798G)
GladiatorLupe: 379G (2.7%, 379G)
imafella: 375G (2.6%, 3,759G)
nifboy: 368G (2.6%, 368G)
Maldoree: 364G (2.5%, 364G)
JLinkletter: 300G (2.1%, 2,288G)
Dellusionsx: 300G (2.1%, 353G)
zunath: 300G (2.1%, 13,722G)
Lionhermit: 300G (2.1%, 300G)
evdoggity: 288G (2.0%, 288G)
Kyune: 250G (1.7%, 3,413G)
CrownOfHorns: 243G (1.7%, 243G)
KasugaiRoastedPeas: 200G (1.4%, 381G)
EnemyController: 200G (1.4%, 242,790G)
Tsuike: 200G (1.4%, 886G)
OneHundredFists: 100G (0.7%, 5,802G)
mannequ1n: 100G (0.7%, 7,168G)
datadrivenbot: 100G (0.7%, 18,181G)
otakutaylor: 100G (0.7%, 380G)
ACSpree: 10G (0.1%, 1,038G)

yellow bets:
toka222: 3,900G (21.1%, 33,842G)
HaplessOne: 3,333G (18.1%, 86,616G)
leakimiko: 2,222G (12.0%, 35,686G)
manc0_: 2,000G (10.8%, 31,728G)
hydroshade: 1,500G (8.1%, 11,340G)
Lawndough: 692G (3.8%, 692G)
roofiepops: 676G (3.7%, 37,681G)
concles: 666G (3.6%, 10,831G)
volgrathemoose: 584G (3.2%, 584G)
Theseawolf1: 500G (2.7%, 47,987G)
megamax667: 500G (2.7%, 6,500G)
wooyuji: 443G (2.4%, 443G)
Eyepoor_: 300G (1.6%, 3,199G)
IanTheWoodchuck: 209G (1.1%, 209G)
DeathTaxesAndAnime: 200G (1.1%, 1,609G)
CorpusCav: 200G (1.1%, 7,100G)
aeonicvector: 159G (0.9%, 1,061G)
eudes89: 152G (0.8%, 152G)
Arbitae: 104G (0.6%, 104G)
ko2q: 100G (0.5%, 3,325G)
