Final Bets: yellow - 15 bets for 21,259G (53.4%, x0.87); black - 29 bets for 18,572G (46.6%, x1.14)

yellow bets:
TheFALLofLindsay: 6,732G (31.7%, 6,732G)
VirulenceXT: 5,000G (23.5%, 122,801G)
HaplessOne: 2,500G (11.8%, 90,262G)
leakimiko: 2,222G (10.5%, 38,203G)
imafella: 964G (4.5%, 3,215G)
Rislyeu: 792G (3.7%, 792G)
DeathTaxesAndAnime: 600G (2.8%, 1,906G)
eudes89: 535G (2.5%, 535G)
nifboy: 434G (2.0%, 434G)
ACSpree: 336G (1.6%, 336G)
brokenknight201: 300G (1.4%, 2,301G)
Eyepoor_: 300G (1.4%, 3,439G)
happyfundude: 224G (1.1%, 224G)
aeonicvector: 220G (1.0%, 220G)
Wolvaroo: 100G (0.5%, 1,200G)

black bets:
manc0_: 2,000G (10.8%, 33,583G)
hydroshade: 1,500G (8.1%, 13,833G)
toka222: 1,500G (8.1%, 38,273G)
EnemyController: 1,000G (5.4%, 241,890G)
ungabunga_bot: 1,000G (5.4%, 508,775G)
BirbBrainsBot: 1,000G (5.4%, 104,858G)
Theseawolf1: 1,000G (5.4%, 49,734G)
namamu: 1,000G (5.4%, 10,983G)
ko2q: 1,000G (5.4%, 2,702G)
concles: 1,000G (5.4%, 10,298G)
mannequ1n: 1,000G (5.4%, 6,848G)
ANFz: 951G (5.1%, 951G)
Firesheath: 564G (3.0%, 564G)
wooyuji: 500G (2.7%, 1,185G)
CorpusCav: 400G (2.2%, 5,535G)
otakutaylor: 394G (2.1%, 394G)
KasugaiRoastedPeas: 352G (1.9%, 352G)
luminarii: 350G (1.9%, 10,732G)
Lionhermit: 300G (1.6%, 300G)
JLinkletter: 300G (1.6%, 1,894G)
Jampck: 295G (1.6%, 295G)
foofermoofer: 251G (1.4%, 251G)
getthemoneyz: 222G (1.2%, 681,948G)
tabletz21: 150G (0.8%, 2,545G)
Arbitae: 123G (0.7%, 123G)
CrownOfHorns: 116G (0.6%, 116G)
Dellusionsx: 104G (0.6%, 104G)
datadrivenbot: 100G (0.5%, 18,199G)
Lawndough: 100G (0.5%, 1,075G)
