Final Bets: green - 10 bets for 5,936G (69.4%, x0.44); yellow - 10 bets for 2,618G (30.6%, x2.27)

green bets:
EnemyController: 1,234G (20.8%, 619,019G)
toka222: 1,100G (18.5%, 44,839G)
BirbBrainsBot: 1,000G (16.8%, 98,103G)
Zetchryn: 1,000G (16.8%, 4,686G)
getthemoneyz: 554G (9.3%, 988,636G)
Oobs56: 535G (9.0%, 535G)
killth3kid: 189G (3.2%, 1,896G)
ericzubat: 124G (2.1%, 124G)
nifboy: 100G (1.7%, 4,002G)
Evewho: 100G (1.7%, 8,268G)

yellow bets:
Kronikle: 500G (19.1%, 14,723G)
eudes89: 372G (14.2%, 372G)
GatsbysGhost: 302G (11.5%, 302G)
sososteve: 300G (11.5%, 2,126G)
triniculo: 272G (10.4%, 272G)
Lythe_Caraker: 250G (9.5%, 109,030G)
roofiepops: 222G (8.5%, 1,478G)
Meta_Five: 200G (7.6%, 34,951G)
Tougou: 100G (3.8%, 2,542G)
CosmicTactician: 100G (3.8%, 6,567G)
