Final Bets: red - 19 bets for 16,520G (56.4%, x0.77); champion - 17 bets for 12,765G (43.6%, x1.29)

red bets:
dogsandcatsand: 5,000G (30.3%, 112,592G)
SephDarkheart: 1,537G (9.3%, 1,537G)
nhammen: 1,500G (9.1%, 40,743G)
Shalloween: 1,300G (7.9%, 30,974G)
thaetreis: 1,200G (7.3%, 38,995G)
BirbBrainsBot: 1,000G (6.1%, 18,149G)
UmaiJam: 1,000G (6.1%, 46,497G)
Nizaha: 664G (4.0%, 24,221G)
helpimabug: 614G (3.7%, 1,228G)
killth3kid: 612G (3.7%, 7,249G)
E_Ballard: 512G (3.1%, 512G)
Foamsoldier: 500G (3.0%, 2,917G)
Lord_Gwarth: 250G (1.5%, 2,775G)
gorgewall: 201G (1.2%, 3,944G)
getthemoneyz: 180G (1.1%, 1,516,971G)
holdenmagronik: 150G (0.9%, 3,483G)
Aeriyah: 100G (0.6%, 504G)
CosmicTactician: 100G (0.6%, 4,124G)
Pendarr_: 100G (0.6%, 100G)

champion bets:
maximumcrit: 3,984G (31.2%, 3,984G)
amiture: 2,000G (15.7%, 36,694G)
douchetron: 1,227G (9.6%, 1,227G)
DeathTaxesAndAnime: 1,212G (9.5%, 2,378G)
JumbocactuarX27: 1,000G (7.8%, 43,121G)
DarrenDinosaurs: 588G (4.6%, 588G)
Zagorsek: 556G (4.4%, 556G)
coralreeferz: 548G (4.3%, 14,156G)
Forkmore: 400G (3.1%, 400G)
AllInBot: 200G (1.6%, 200G)
LordMaxoss: 200G (1.6%, 6,272G)
datadrivenbot: 200G (1.6%, 50,349G)
silverChangeling: 200G (1.6%, 1,286G)
itsonlyspencer: 128G (1.0%, 128G)
daveb_: 122G (1.0%, 3,753G)
GreenBikerGuy: 100G (0.8%, 100G)
Kellios11: 100G (0.8%, 26,039G)
