Final Bets: purple - 9 bets for 16,095G (73.2%, x0.37); brown - 11 bets for 5,906G (26.8%, x2.73)

purple bets:
coralreeferz: 10,000G (62.1%, 24,381G)
E_Ballard: 2,325G (14.4%, 2,325G)
AllInBot: 1,955G (12.1%, 1,955G)
Oreo_Pizza: 1,000G (6.2%, 37,636G)
datadrivenbot: 200G (1.2%, 41,720G)
scottydeluxe: 200G (1.2%, 1,804G)
TasisSai: 200G (1.2%, 3,086G)
getthemoneyz: 114G (0.7%, 1,406,141G)
douchetron: 101G (0.6%, 1,817G)

brown bets:
Zagorsek: 1,169G (19.8%, 2,338G)
BirbBrainsBot: 1,000G (16.9%, 112,011G)
Shalloween: 768G (13.0%, 768G)
fenaen: 700G (11.9%, 2,402G)
rabbitlogik: 500G (8.5%, 7,234G)
Lord_Gwarth: 500G (8.5%, 980G)
RaIshtar: 500G (8.5%, 16,800G)
Miku_Shikhu: 348G (5.9%, 348G)
Grandlanzer: 200G (3.4%, 115,373G)
Lydian_C: 121G (2.0%, 21,146G)
LordMaxoss: 100G (1.7%, 6,311G)
