Final Bets: red - 7 bets for 4,472G (35.1%, x1.85); black - 7 bets for 8,262G (64.9%, x0.54)

red bets:
BirbBrainsBot: 1,000G (22.4%, 133,806G)
Sairentozon7: 1,000G (22.4%, 38,285G)
DeathTaxesAndAnime: 896G (20.0%, 896G)
getthemoneyz: 628G (14.0%, 2,126,842G)
SephDarkheart: 448G (10.0%, 448G)
bigbongsmoker: 400G (8.9%, 4,604G)
king_smashington: 100G (2.2%, 1,473G)

black bets:
LivingHitokiri: 5,000G (60.5%, 176,244G)
HaplessOne: 1,500G (18.2%, 28,036G)
Lolthsmeat: 972G (11.8%, 1,944G)
AllInBot: 390G (4.7%, 390G)
datadrivenbot: 200G (2.4%, 79,253G)
lwtest: 100G (1.2%, 9,701G)
Sharosa: 100G (1.2%, 2,493G)
