Final Bets: purple - 11 bets for 3,610G (24.2%, x3.14); brown - 18 bets for 11,321G (75.8%, x0.32)

purple bets:
OneHundredFists: 1,220G (33.8%, 2,394G)
nifboy: 696G (19.3%, 696G)
BoneMiser: 304G (8.4%, 304G)
CapnChaos12: 300G (8.3%, 6,723G)
Xoomwaffle: 252G (7.0%, 4,467G)
gorgewall: 201G (5.6%, 11,286G)
oldmanbody: 199G (5.5%, 199G)
Legionx13: 150G (4.2%, 1,069G)
TasisSai: 100G (2.8%, 3,185G)
Firesheath: 100G (2.8%, 12,514G)
roqqqpsi: 88G (2.4%, 8,830G)

brown bets:
evdoggity: 2,000G (17.7%, 111,548G)
Evewho: 1,409G (12.4%, 1,409G)
BirbBrainsBot: 1,000G (8.8%, 26,369G)
NIghtdew14: 1,000G (8.8%, 8,677G)
JumbocactuarX27: 1,000G (8.8%, 48,361G)
iBardic: 833G (7.4%, 833G)
skipsandwiches: 718G (6.3%, 718G)
Patreseus: 632G (5.6%, 632G)
evontno: 560G (4.9%, 560G)
Nizaha: 552G (4.9%, 13,338G)
Zeroroute: 500G (4.4%, 500G)
getthemoneyz: 330G (2.9%, 1,302,968G)
AllInBot: 200G (1.8%, 200G)
datadrivenbot: 200G (1.8%, 34,020G)
bahamutlagooon: 137G (1.2%, 13,723G)
shineeyo: 100G (0.9%, 11,406G)
UnderOneLight: 100G (0.9%, 1,186G)
Jaku618: 50G (0.4%, 4,869G)
