Final Bets: yellow - 19 bets for 10,453G (51.5%, x0.94); brown - 12 bets for 9,831G (48.5%, x1.06)

yellow bets:
evontno: 1,857G (17.8%, 1,857G)
AllInBot: 1,331G (12.7%, 1,331G)
BirbBrainsBot: 1,000G (9.6%, 26,398G)
killth3kid: 963G (9.2%, 963G)
HaateXIII: 772G (7.4%, 772G)
bahamutlagooon: 688G (6.6%, 13,767G)
Thyrandaal: 600G (5.7%, 600G)
Nizaha: 552G (5.3%, 12,410G)
Jaku618: 500G (4.8%, 4,863G)
benticore: 500G (4.8%, 19,073G)
getthemoneyz: 414G (4.0%, 1,303,013G)
lyonslegacy: 300G (2.9%, 554G)
gorgewall: 201G (1.9%, 11,047G)
datadrivenbot: 200G (1.9%, 33,684G)
lastly: 150G (1.4%, 30,477G)
MrMarkPolo: 125G (1.2%, 4,257G)
Error72: 100G (1.0%, 3,116G)
boosted420: 100G (1.0%, 116G)
DouglasDragonThePoet: 100G (1.0%, 496G)

brown bets:
SkylerBunny: 2,000G (20.3%, 46,744G)
evdoggity: 2,000G (20.3%, 121,752G)
NIghtdew14: 1,467G (14.9%, 9,780G)
iBardic: 1,177G (12.0%, 1,177G)
JumbocactuarX27: 1,000G (10.2%, 50,890G)
Zeroroute: 500G (5.1%, 500G)
Patreseus: 400G (4.1%, 1,077G)
ColetteMSLP: 300G (3.1%, 3,635G)
Legionx13: 300G (3.1%, 1,024G)
skipsandwiches: 287G (2.9%, 287G)
TasisSai: 200G (2.0%, 2,285G)
AND4H: 200G (2.0%, 9,110G)
