Final Bets: yellow - 12 bets for 5,264G (21.5%, x3.65); champion - 26 bets for 19,208G (78.5%, x0.27)

yellow bets:
evdoggity: 2,000G (38.0%, 119,752G)
NIghtdew14: 1,246G (23.7%, 8,313G)
benticore: 500G (9.5%, 19,543G)
killth3kid: 428G (8.1%, 1,869G)
CapnChaos12: 300G (5.7%, 6,658G)
Kithmar796: 244G (4.6%, 244G)
MrMarkPolo: 150G (2.8%, 4,379G)
DouglasDragonThePoet: 100G (1.9%, 590G)
Firesheath: 100G (1.9%, 12,214G)
Jaku618: 100G (1.9%, 5,333G)
Othatmattkid: 50G (0.9%, 1,930G)
getthemoneyz: 46G (0.9%, 1,303,402G)

champion bets:
nhammen: 4,982G (25.9%, 9,770G)
AllInBot: 2,583G (13.4%, 2,583G)
SkylerBunny: 2,000G (10.4%, 44,744G)
Thyrandaal: 1,164G (6.1%, 1,164G)
JumbocactuarX27: 1,000G (5.2%, 49,890G)
BirbBrainsBot: 1,000G (5.2%, 27,338G)
roqqqpsi: 961G (5.0%, 8,742G)
Patreseus: 677G (3.5%, 677G)
Nizaha: 552G (2.9%, 12,929G)
Laserman1000: 505G (2.6%, 42,005G)
Zeroroute: 500G (2.6%, 500G)
Legionx13: 400G (2.1%, 724G)
AND4H: 300G (1.6%, 8,910G)
ColetteMSLP: 300G (1.6%, 3,335G)
lyonslegacy: 300G (1.6%, 836G)
TasisSai: 300G (1.6%, 2,089G)
RyanTheRebs: 300G (1.6%, 4,587G)
skipsandwiches: 236G (1.2%, 236G)
boosted420: 210G (1.1%, 210G)
gorgewall: 201G (1.0%, 11,236G)
datadrivenbot: 200G (1.0%, 33,872G)
Evewho: 200G (1.0%, 4,972G)
iBardic: 100G (0.5%, 100G)
Error72: 100G (0.5%, 3,210G)
Miku_Shikhu: 100G (0.5%, 17,527G)
Hasterious: 37G (0.2%, 3,727G)
