Final Bets: red - 10 bets for 3,381G (30.5%, x2.28); yellow - 23 bets for 7,704G (69.5%, x0.44)

red bets:
ungabunga_bot: 1,000G (29.6%, 517,833G)
BirbBrainsBot: 1,000G (29.6%, 125,831G)
DustBirdEX: 456G (13.5%, 11,463G)
HorusTaurus: 300G (8.9%, 300G)
getthemoneyz: 200G (5.9%, 680,154G)
Lolprinze: 100G (3.0%, 2,701G)
gggamezzz: 100G (3.0%, 3,530G)
TrueRhyme: 100G (3.0%, 8,258G)
Lawndough: 100G (3.0%, 4,337G)
isolatedchapelsix: 25G (0.7%, 832G)

yellow bets:
josephiroth_143: 1,000G (13.0%, 2,426G)
Estan_AD: 838G (10.9%, 1,677G)
Baron_von_Scrub: 821G (10.7%, 821G)
rocl: 600G (7.8%, 600G)
shs_: 500G (6.5%, 10,486G)
Drusic: 500G (6.5%, 7,989G)
AUrato: 500G (6.5%, 3,345G)
Oobs56: 500G (6.5%, 4,584G)
wooyuji: 306G (4.0%, 306G)
PookaPrime: 300G (3.9%, 2,404G)
roqqqpsi: 248G (3.2%, 1,130G)
SuicideKing_XIX: 200G (2.6%, 524G)
brokenknight201: 200G (2.6%, 2,109G)
marin1987: 200G (2.6%, 765G)
eudes89: 156G (2.0%, 156G)
ausar1: 150G (1.9%, 524G)
MalakiGenesys: 125G (1.6%, 694G)
Arbitae: 108G (1.4%, 108G)
ko2q: 100G (1.3%, 9,121G)
UnholyCorsair: 100G (1.3%, 1,930G)
datadrivenbot: 100G (1.3%, 19,162G)
E_Ballard: 100G (1.3%, 11,981G)
ultima7: 52G (0.7%, 152G)
