Final Bets: green - 22 bets for 13,891G (71.0%, x0.41); yellow - 13 bets for 5,680G (29.0%, x2.45)

green bets:
Shakarak: 3,000G (21.6%, 32,975G)
leakimiko: 1,631G (11.7%, 32,623G)
ApplesauceBoss: 1,428G (10.3%, 1,428G)
BenYuPoker: 1,083G (7.8%, 1,083G)
BirbBrainsBot: 1,000G (7.2%, 206,569G)
getthemoneyz: 1,000G (7.2%, 436,264G)
bad1dea: 1,000G (7.2%, 23,535G)
WireLord: 572G (4.1%, 572G)
superdevon1: 500G (3.6%, 500G)
rubenflonne: 500G (3.6%, 4,935G)
upvla: 450G (3.2%, 5,641G)
lijarkh: 300G (2.2%, 5,878G)
R_Raynos: 299G (2.2%, 299G)
ugoplatamia: 200G (1.4%, 18,966G)
lavian94: 182G (1.3%, 182G)
ungabunga_bot: 150G (1.1%, 15,316G)
AllInBot: 108G (0.8%, 108G)
TheOneRanger: 100G (0.7%, 5,703G)
herrshaun: 100G (0.7%, 325G)
SeedSC: 100G (0.7%, 134,770G)
datadrivenbot: 100G (0.7%, 18,377G)
JackOnFire1: 88G (0.6%, 3,083G)

yellow bets:
MalakoFox: 1,000G (17.6%, 17,303G)
lunatickzero: 1,000G (17.6%, 13,353G)
jethrothrul: 808G (14.2%, 808G)
Evewho: 781G (13.8%, 781G)
z32o: 500G (8.8%, 3,042G)
Goust18: 500G (8.8%, 7,673G)
PatSouI: 340G (6.0%, 340G)
Bulleta: 300G (5.3%, 7,514G)
oodlesonoodles11: 150G (2.6%, 5,691G)
InOzWeTrust: 100G (1.8%, 138G)
victoriolue: 100G (1.8%, 4,217G)
Slowbrofist: 100G (1.8%, 1,189G)
ko2q: 1G (0.0%, 1,689G)
