Final Bets: red - 15 bets for 9,236G (42.6%, x1.35); blue - 26 bets for 12,442G (57.4%, x0.74)

red bets:
gooseyourself: 3,668G (39.7%, 7,337G)
roofiepops: 1,000G (10.8%, 15,918G)
killth3kid: 500G (5.4%, 17,468G)
vorap: 500G (5.4%, 81,357G)
reinoe: 500G (5.4%, 12,533G)
Baron_von_Scrub: 474G (5.1%, 11,762G)
AllInBot: 456G (4.9%, 456G)
4shcrows: 447G (4.8%, 447G)
ApplesauceBoss: 348G (3.8%, 348G)
Sungazes: 300G (3.2%, 1,093G)
Digitalsocrates: 292G (3.2%, 292G)
nifboy: 250G (2.7%, 7,627G)
gorgewall: 201G (2.2%, 10,888G)
silentperogy: 200G (2.2%, 23,458G)
victoriolue: 100G (1.1%, 6,619G)

blue bets:
Shalloween: 1,907G (15.3%, 3,740G)
DeathTaxesAndAnime: 1,647G (13.2%, 1,647G)
ValtonZenola: 1,000G (8.0%, 3,554G)
Mesmaster: 1,000G (8.0%, 53,633G)
Estan_AD: 671G (5.4%, 671G)
powergems: 667G (5.4%, 667G)
BirbBrainsBot: 637G (5.1%, 166,281G)
Rislyeu: 500G (4.0%, 2,722G)
Evewho: 440G (3.5%, 440G)
Firesheath: 440G (3.5%, 440G)
mardokttv: 425G (3.4%, 425G)
Kyune: 404G (3.2%, 404G)
sukotsuto: 400G (3.2%, 17,537G)
serperemagus: 366G (2.9%, 366G)
EnemyController: 300G (2.4%, 327,478G)
tronfonne: 300G (2.4%, 2,585G)
CandyTamer: 244G (2.0%, 1,930G)
otakutaylor: 200G (1.6%, 1,686G)
CosmicTactician: 200G (1.6%, 18,115G)
krasny1944: 144G (1.2%, 2,144G)
Devrology101: 100G (0.8%, 720G)
datadrivenbot: 100G (0.8%, 20,876G)
moocaotao: 100G (0.8%, 1,857G)
redrhinofever: 100G (0.8%, 5,866G)
maakur_: 100G (0.8%, 4,860G)
DrAntiSocial: 50G (0.4%, 20,434G)
