Final Bets: white - 40 bets for 50,212G (70.0%, x0.43); champion - 27 bets for 21,483G (30.0%, x2.34)

white bets:
sinnyil2: 21,056G (41.9%, 42,112G)
MantisFinch: 4,886G (9.7%, 9,772G)
DeathTaxesAndAnime: 2,864G (5.7%, 5,617G)
rjA0zcOQ96: 2,251G (4.5%, 2,251G)
LASERJESUS1337: 2,000G (4.0%, 77,769G)
volgrathemoose: 1,597G (3.2%, 11,597G)
ANFz: 1,116G (2.2%, 2,232G)
Shakarak: 1,068G (2.1%, 1,068G)
BirbBrainsBot: 1,000G (2.0%, 123,690G)
bad1dea: 1,000G (2.0%, 346,902G)
Blain_Cooper: 1,000G (2.0%, 4,183G)
Lionhermit: 1,000G (2.0%, 10,152G)
holyonline: 1,000G (2.0%, 7,841G)
Draconis345: 960G (1.9%, 960G)
roofiepops: 800G (1.6%, 6,318G)
Shalloween: 800G (1.6%, 54,869G)
robespyah: 686G (1.4%, 686G)
Aldrammech: 600G (1.2%, 600G)
LanseDM: 516G (1.0%, 516G)
UmaiJam: 427G (0.9%, 4,271G)
blastty: 420G (0.8%, 420G)
fenaen: 400G (0.8%, 5,466G)
kingchadking: 360G (0.7%, 360G)
ColetteMSLP: 300G (0.6%, 10,459G)
rico_flex: 294G (0.6%, 294G)
TheGuesty: 250G (0.5%, 3,423G)
LAGBOT30000: 237G (0.5%, 4,745G)
Snowfats: 124G (0.2%, 124G)
Nizaha: 100G (0.2%, 13,939G)
Oshimi12: 100G (0.2%, 2,260G)
maakur_: 100G (0.2%, 1,496G)
ThePanda1016: 100G (0.2%, 2,913G)
BadBlanket: 100G (0.2%, 2,978G)
SpaZmodeus: 100G (0.2%, 1,741G)
Lali_Lulelo: 100G (0.2%, 2,252G)
Lordminsc: 100G (0.2%, 17,359G)
Lythe_Caraker: 100G (0.2%, 47,309G)
ZephyrTempest: 100G (0.2%, 17,947G)
Sairentozon7: 100G (0.2%, 847G)
Kronikle: 100G (0.2%, 2,640G)

champion bets:
ugoplatamia: 3,449G (16.1%, 17,247G)
Lydian_C: 3,400G (15.8%, 79,704G)
NewVanguard: 2,000G (9.3%, 10,053G)
SeedSC: 2,000G (9.3%, 125,904G)
I_nod_my_head_when_I_lose: 1,500G (7.0%, 9,980G)
electric_glass: 1,491G (6.9%, 1,491G)
RathFGC: 1,117G (5.2%, 1,117G)
AllInBot: 1,028G (4.8%, 1,028G)
Laserman1000: 1,000G (4.7%, 15,600G)
Axelrod: 1,000G (4.7%, 42,772G)
DustBirdEX: 400G (1.9%, 3,922G)
Evewho: 400G (1.9%, 5,063G)
RunicMagus: 350G (1.6%, 25,922G)
rockmem21: 312G (1.5%, 312G)
Pah_J: 250G (1.2%, 2,398G)
evdoggity: 248G (1.2%, 248G)
Numbersborne: 212G (1.0%, 212G)
ll_aja_ll: 204G (0.9%, 4,184G)
rubenflonne: 200G (0.9%, 6,129G)
Davarian: 200G (0.9%, 1,184G)
Jordache7K: 111G (0.5%, 13,904G)
byrdturbo: 111G (0.5%, 1,780G)
Kellios11: 100G (0.5%, 5,700G)
Basmal: 100G (0.5%, 53,836G)
lijarkh: 100G (0.5%, 3,588G)
Ranmilia: 100G (0.5%, 1,539G)
Rogueain: 100G (0.5%, 954G)
