Final Bets: blue - 14 bets for 16,992G (60.3%, x0.66); yellow - 21 bets for 11,209G (39.7%, x1.52)

blue bets:
sinnyil2: 12,163G (71.6%, 24,326G)
mistblade: 1,051G (6.2%, 1,051G)
Jinxzers: 1,000G (5.9%, 5,111G)
eudes89: 658G (3.9%, 658G)
Baron_von_Scrub: 474G (2.8%, 7,066G)
DarrenDinosaurs: 472G (2.8%, 472G)
argentbast: 400G (2.4%, 861G)
TheMM42: 200G (1.2%, 3,854G)
Freezerman47: 124G (0.7%, 124G)
CosmicTactician: 100G (0.6%, 23,326G)
AmaninAmide: 100G (0.6%, 2,858G)
datadrivenbot: 100G (0.6%, 23,172G)
serperemagus: 100G (0.6%, 2,181G)
b0shii: 50G (0.3%, 8,722G)

yellow bets:
Evewho: 2,949G (26.3%, 5,783G)
WitchHunterIX: 1,180G (10.5%, 1,180G)
HaplessOne: 1,111G (9.9%, 199,736G)
BirbBrainsBot: 1,000G (8.9%, 71,530G)
HaateXIII: 996G (8.9%, 996G)
getthemoneyz: 664G (5.9%, 685,702G)
EnemyController: 500G (4.5%, 295,372G)
Kyune: 500G (4.5%, 19,693G)
dowdlron: 446G (4.0%, 892G)
CapnChaos12: 300G (2.7%, 2,438G)
kaidykat: 200G (1.8%, 1,805G)
otakutaylor: 200G (1.8%, 3,302G)
kintaru_oe: 200G (1.8%, 4,327G)
KasugaiRoastedPeas: 200G (1.8%, 888G)
Digitalsocrates: 200G (1.8%, 933G)
Arcblazer23: 140G (1.2%, 140G)
Killing_Moon: 108G (1.0%, 108G)
CorpusCav: 100G (0.9%, 3,084G)
Heroebal: 100G (0.9%, 8,619G)
a_mo22: 100G (0.9%, 4,186G)
Estan_AD: 15G (0.1%, 2,704G)
