Final Bets: black - 40 bets for 40,913G (84.4%, x0.18); brown - 20 bets for 7,568G (15.6%, x5.41)

black bets:
dogsandcatsand: 10,000G (24.4%, 11,445G)
Grandlanzer: 4,000G (9.8%, 13,696G)
NicoSavoy: 3,563G (8.7%, 3,563G)
Jordache7K: 3,453G (8.4%, 3,453G)
Lord_Burrah: 2,621G (6.4%, 90,621G)
bluuuuuuuh: 2,064G (5.0%, 2,064G)
EnemyController: 2,000G (4.9%, 528,998G)
sinnyil2: 1,270G (3.1%, 1,270G)
CorpusCav: 1,050G (2.6%, 18,783G)
Nohurty: 1,044G (2.6%, 1,044G)
Thyrandaal: 1,000G (2.4%, 20,207G)
Evewho: 927G (2.3%, 1,818G)
LDSkinny: 737G (1.8%, 737G)
HaateXIII: 661G (1.6%, 661G)
Aldrammech: 644G (1.6%, 644G)
DLJuggernaut: 500G (1.2%, 6,174G)
demidusk: 500G (1.2%, 1,676G)
moonliquor: 477G (1.2%, 477G)
ValtonZenola: 400G (1.0%, 1,634G)
OneHundredFists: 348G (0.9%, 348G)
killth3kid: 316G (0.8%, 2,029G)
Wolvaroo: 304G (0.7%, 304G)
ar_tactic: 300G (0.7%, 57,705G)
Flameatron: 300G (0.7%, 8,676G)
CandyTamer: 260G (0.6%, 333G)
Belkra: 247G (0.6%, 495G)
Ring_Wyrm: 200G (0.5%, 999G)
fluffskull: 200G (0.5%, 521G)
NeoKevlar: 200G (0.5%, 2,165G)
maleblackfiora: 200G (0.5%, 236G)
DAC169: 192G (0.5%, 192G)
travis_butters: 134G (0.3%, 134G)
Firesheath: 101G (0.2%, 4,052G)
E_Ballard: 100G (0.2%, 6,031G)
Tougou: 100G (0.2%, 3,036G)
nhammen: 100G (0.2%, 865G)
Twisted_Nutsatchel: 100G (0.2%, 3,638G)
ivellioz: 100G (0.2%, 264G)
datadrivenbot: 100G (0.2%, 33,696G)
Kronikle: 100G (0.2%, 21,345G)

brown bets:
toka222: 1,100G (14.5%, 101,226G)
BirbBrainsBot: 1,000G (13.2%, 13,622G)
SkylerBunny: 1,000G (13.2%, 101,765G)
getthemoneyz: 622G (8.2%, 808,168G)
argentbast: 500G (6.6%, 15,014G)
metagameface: 500G (6.6%, 4,968G)
gorgewall: 405G (5.4%, 405G)
Digitalsocrates: 372G (4.9%, 372G)
CT_5_Holy: 343G (4.5%, 343G)
aznwanderor: 244G (3.2%, 244G)
cam_ATS: 232G (3.1%, 232G)
gogofromtogo: 200G (2.6%, 5,529G)
Meta_Five: 200G (2.6%, 6,309G)
s_o_b_e_q: 200G (2.6%, 4,184G)
alterworlds: 150G (2.0%, 150G)
FoeSquirrel: 100G (1.3%, 6,890G)
MaimTrain: 100G (1.3%, 100G)
holyonline: 100G (1.3%, 31,360G)
gr8keeper: 100G (1.3%, 970G)
sunderous: 100G (1.3%, 4,236G)
