Final Bets: blue - 33 bets for 13,701G (2.9%, x33.49); champion - 43 bets for 458,808G (97.1%, x0.03)

blue bets:
ValtonZenola: 2,437G (17.8%, 2,437G)
HASTERIOUS: 1,677G (12.2%, 1,677G)
BirbBrainsBot: 1,000G (7.3%, 12,945G)
argentbast: 1,000G (7.3%, 14,514G)
wyonearth: 1,000G (7.3%, 1,720G)
getthemoneyz: 948G (6.9%, 807,709G)
Jordache7K: 555G (4.1%, 4,592G)
demidusk: 500G (3.6%, 1,768G)
LeoNightFury: 500G (3.6%, 6,666G)
DLJuggernaut: 350G (2.6%, 7,508G)
killth3kid: 316G (2.3%, 2,189G)
cam_ATS: 307G (2.2%, 307G)
Wolvaroo: 304G (2.2%, 304G)
Lythe_Caraker: 250G (1.8%, 120,955G)
Meta_Five: 250G (1.8%, 5,909G)
Nohurty: 240G (1.8%, 240G)
Miku_Shikhu: 200G (1.5%, 4,052G)
gr8keeper: 200G (1.5%, 1,902G)
NeoKevlar: 200G (1.5%, 2,267G)
ar_tactic: 200G (1.5%, 57,760G)
alterworlds: 153G (1.1%, 153G)
travis_butters: 104G (0.8%, 104G)
Jeeboheebo: 100G (0.7%, 14,021G)
Aldrammech: 100G (0.7%, 1,510G)
s_o_b_e_q: 100G (0.7%, 1,984G)
old_overholt_: 100G (0.7%, 29,048G)
Grandlanzer: 100G (0.7%, 14,468G)
Evewho: 100G (0.7%, 2,317G)
reddwind_: 100G (0.7%, 3,719G)
sunderous: 100G (0.7%, 4,201G)
Twisted_Nutsatchel: 100G (0.7%, 3,688G)
megakim: 100G (0.7%, 5,713G)
nhammen: 10G (0.1%, 1,026G)

champion bets:
EnemyController: 250,000G (54.5%, 530,191G)
holyonline: 31,060G (6.8%, 31,060G)
Kronikle: 22,363G (4.9%, 22,363G)
letdowncity: 21,961G (4.8%, 21,961G)
Lord_Burrah: 21,106G (4.6%, 91,106G)
Laserman1000: 15,850G (3.5%, 31,700G)
run_with_stone_GUNs: 12,138G (2.6%, 12,138G)
CorpusCav: 9,000G (2.0%, 17,957G)
KasugaiRoastedPeas: 7,346G (1.6%, 7,346G)
ZZ_Yoshi: 7,070G (1.5%, 14,140G)
eudes89: 6,692G (1.5%, 6,692G)
metagameface: 5,912G (1.3%, 5,912G)
gogofromtogo: 5,129G (1.1%, 5,129G)
CosmicTactician: 5,000G (1.1%, 16,334G)
cogniv0r3: 4,812G (1.0%, 4,812G)
nifboy: 4,260G (0.9%, 4,260G)
NicoSavoy: 4,222G (0.9%, 4,222G)
bluuuuuuuh: 3,269G (0.7%, 3,269G)
DeathTaxesAndAnime: 3,001G (0.7%, 5,885G)
Tougou: 2,954G (0.6%, 2,954G)
NWOW_44: 2,000G (0.4%, 6,433G)
Shakarak: 2,000G (0.4%, 60,979G)
sinnyil2: 1,480G (0.3%, 1,480G)
moonliquor: 1,248G (0.3%, 1,248G)
maleblackfiora: 1,220G (0.3%, 1,220G)
OneHundredFists: 916G (0.2%, 916G)
LDSkinny: 873G (0.2%, 873G)
Ring_Wyrm: 836G (0.2%, 836G)
DAC169: 802G (0.2%, 802G)
aznwanderor: 744G (0.2%, 744G)
Belkra: 564G (0.1%, 1,128G)
Sairentozon7: 528G (0.1%, 528G)
gorgewall: 413G (0.1%, 413G)
ivellioz: 373G (0.1%, 373G)
fluffskull: 358G (0.1%, 358G)
TinchoT: 316G (0.1%, 316G)
CandyTamer: 264G (0.1%, 264G)
Angelomortis: 228G (0.0%, 228G)
FoeSquirrel: 100G (0.0%, 6,822G)
GrayGhostGaming: 100G (0.0%, 12,329G)
E_Ballard: 100G (0.0%, 5,949G)
datadrivenbot: 100G (0.0%, 33,746G)
Antipathics: 100G (0.0%, 1,677G)
