Final Bets: blue - 21 bets for 30,766G (59.0%, x0.70); green - 24 bets for 21,420G (41.0%, x1.44)

blue bets:
Eldente: 11,240G (36.5%, 11,240G)
LASERJESUS1337: 5,000G (16.3%, 51,572G)
DudeMonkey77: 2,918G (9.5%, 29,187G)
rockmem21: 2,866G (9.3%, 28,660G)
Aldrammech: 2,196G (7.1%, 21,962G)
I_nod_my_head_when_I_lose: 1,500G (4.9%, 11,492G)
Jeeboheebo: 1,002G (3.3%, 9,222G)
volgrathemoose: 1,001G (3.3%, 4,894G)
AllInBot: 873G (2.8%, 873G)
knowbuddycaresforyou: 600G (2.0%, 3,293G)
EnemyController: 250G (0.8%, 2,765G)
ugoplatamia: 200G (0.7%, 13,453G)
RathFGC: 200G (0.7%, 997G)
KasugaiRoastedPeas: 200G (0.7%, 31,161G)
DonCardenio: 120G (0.4%, 120G)
Tithonus: 100G (0.3%, 8,485G)
Oshimi12: 100G (0.3%, 2,460G)
SpaZmodeus: 100G (0.3%, 1,308G)
BadBlanket: 100G (0.3%, 3,335G)
Aislingeach: 100G (0.3%, 2,836G)
urieltheflameofgod: 100G (0.3%, 4,146G)

green bets:
Ranmilia: 4,895G (22.9%, 9,790G)
DeathTaxesAndAnime: 3,332G (15.6%, 6,534G)
Lydian_C: 2,300G (10.7%, 77,183G)
SkylerBunny: 1,671G (7.8%, 1,671G)
DustBirdEX: 1,261G (5.9%, 1,261G)
Laserman1000: 1,059G (4.9%, 11,459G)
BirbBrainsBot: 1,000G (4.7%, 118,910G)
bad1dea: 1,000G (4.7%, 342,368G)
Baron_von_Scrub: 961G (4.5%, 961G)
Axelrod: 599G (2.8%, 39,902G)
HEROScioN: 500G (2.3%, 1,994G)
Pah_J: 418G (2.0%, 418G)
HaateXIII: 387G (1.8%, 4,855G)
UmaiJam: 375G (1.8%, 3,758G)
luminarii: 366G (1.7%, 12,734G)
Rogueain: 332G (1.5%, 332G)
ANFz: 200G (0.9%, 15,546G)
Wargles: 200G (0.9%, 7,200G)
Basmal: 100G (0.5%, 53,904G)
ApplesauceBoss: 100G (0.5%, 1,712G)
old_overholt_: 100G (0.5%, 2,260G)
datadrivenbot: 100G (0.5%, 13,415G)
ZephyrTempest: 100G (0.5%, 18,413G)
getthemoneyz: 64G (0.3%, 401,138G)
