Final Bets: black - 22 bets for 21,658G (53.8%, x0.86); purple - 25 bets for 18,611G (46.2%, x1.16)

black bets:
DeathTaxesAndAnime: 5,773G (26.7%, 11,320G)
Lydian_C: 3,400G (15.7%, 80,487G)
LASERJESUS1337: 2,000G (9.2%, 46,572G)
SeedSC: 2,000G (9.2%, 123,468G)
Aldrammech: 1,976G (9.1%, 19,766G)
Pah_J: 1,018G (4.7%, 1,018G)
Jeeboheebo: 1,002G (4.6%, 8,220G)
volgrathemoose: 893G (4.1%, 3,893G)
Axelrod: 578G (2.7%, 40,762G)
HEROScioN: 500G (2.3%, 2,712G)
Laserman1000: 480G (2.2%, 12,980G)
Eldente: 380G (1.8%, 380G)
luminarii: 324G (1.5%, 13,260G)
Baron_von_Scrub: 252G (1.2%, 2,341G)
robespyah: 224G (1.0%, 224G)
Numbersborne: 208G (1.0%, 208G)
ANFz: 200G (0.9%, 15,833G)
AllInBot: 100G (0.5%, 100G)
SpaZmodeus: 100G (0.5%, 1,208G)
datadrivenbot: 100G (0.5%, 13,559G)
Nizaha: 100G (0.5%, 14,008G)
thejoden: 50G (0.2%, 3,956G)

purple bets:
SkylerBunny: 4,071G (21.9%, 4,071G)
rockmem21: 2,579G (13.9%, 25,794G)
reinoe: 1,657G (8.9%, 1,657G)
DustBirdEX: 1,536G (8.3%, 3,072G)
knowbuddycaresforyou: 1,200G (6.4%, 2,693G)
BirbBrainsBot: 1,000G (5.4%, 120,346G)
bad1dea: 1,000G (5.4%, 343,804G)
I_nod_my_head_when_I_lose: 1,000G (5.4%, 9,992G)
eltejongrande: 550G (3.0%, 550G)
EnemyController: 515G (2.8%, 2,515G)
ll_aja_ll: 500G (2.7%, 1,738G)
getthemoneyz: 480G (2.6%, 401,230G)
banjooie: 440G (2.4%, 440G)
UmaiJam: 429G (2.3%, 4,297G)
HaateXIII: 343G (1.8%, 5,411G)
urieltheflameofgod: 200G (1.1%, 4,046G)
ugoplatamia: 200G (1.1%, 13,253G)
arch8000: 200G (1.1%, 6,799G)
byrdturbo: 111G (0.6%, 2,614G)
Tithonus: 100G (0.5%, 8,385G)
maakur_: 100G (0.5%, 1,728G)
BadBlanket: 100G (0.5%, 3,235G)
RathFGC: 100G (0.5%, 797G)
ZephyrTempest: 100G (0.5%, 18,557G)
Oshimi12: 100G (0.5%, 2,360G)
