Final Bets: yellow - 13 bets for 6,262G (51.6%, x0.94); white - 14 bets for 5,878G (48.4%, x1.07)

yellow bets:
leakimiko: 1,770G (28.3%, 22,131G)
Lionhermit: 1,000G (16.0%, 44,659G)
DavenIII: 750G (12.0%, 3,597G)
aStatue: 500G (8.0%, 3,884G)
Billybones5150: 500G (8.0%, 28,292G)
babieapple: 500G (8.0%, 5,983G)
Rislyeu: 400G (6.4%, 2,589G)
Error72: 284G (4.5%, 284G)
LazarusAjin: 200G (3.2%, 25,253G)
ungabunga_bot: 156G (2.5%, 289,411G)
datadrivenbot: 100G (1.6%, 11,364G)
ZephyrTempest: 52G (0.8%, 1,043G)
DrAntiSocial: 50G (0.8%, 8,350G)

white bets:
BirbBrainsBot: 1,000G (17.0%, 154,760G)
red__lancer: 1,000G (17.0%, 32,330G)
ShintaroNayaka: 580G (9.9%, 580G)
powergems: 500G (8.5%, 16,615G)
LDSkinny: 412G (7.0%, 412G)
getthemoneyz: 402G (6.8%, 607,796G)
SomeCallMeGON: 400G (6.8%, 5,357G)
coralreeferz: 400G (6.8%, 3,876G)
astrozin11: 300G (5.1%, 1,203G)
FoxtrotNovemberCharlie: 284G (4.8%, 284G)
TheChainNerd: 250G (4.3%, 956G)
Cataphract116: 200G (3.4%, 17,907G)
CosmicTactician: 100G (1.7%, 11,111G)
tmo50x: 50G (0.9%, 8,930G)
