Final Bets: black - 5 bets for 4,297G (33.8%, x1.96); champion - 16 bets for 8,428G (66.2%, x0.51)

black bets:
HaateXIII: 2,199G (51.2%, 4,398G)
Doctor1597: 1,000G (23.3%, 1,000G)
killth3kid: 560G (13.0%, 560G)
Lumberinjack: 500G (11.6%, 2,639G)
getthemoneyz: 38G (0.9%, 1,774,949G)

champion bets:
thunderducker: 1,345G (16.0%, 3,364G)
latebit: 1,100G (13.1%, 58,974G)
BirbBrainsBot: 1,000G (11.9%, 148,963G)
douchetron: 866G (10.3%, 866G)
AllInBot: 598G (7.1%, 598G)
minorfffanatic1: 587G (7.0%, 587G)
krombobreaker: 500G (5.9%, 6,120G)
PantherIscariot: 444G (5.3%, 7,564G)
CorpusCav: 400G (4.7%, 4,178G)
windsah: 332G (3.9%, 332G)
NicoSavoy: 300G (3.6%, 300G)
MemoriesofFinal: 280G (3.3%, 280G)
AbandonedHall: 212G (2.5%, 212G)
datadrivenbot: 200G (2.4%, 61,015G)
PuzzleSecretary: 164G (1.9%, 812G)
GiggleStik: 100G (1.2%, 6,516G)
