Final Bets: white - 17 bets for 7,624G (59.3%, x0.69); black - 9 bets for 5,233G (40.7%, x1.46)

white bets:
toka222: 1,760G (23.1%, 15,463G)
DavenIII: 1,422G (18.7%, 1,422G)
sinnyil2: 790G (10.4%, 31,818G)
LordSDB: 726G (9.5%, 726G)
ungabunga_bot: 626G (8.2%, 298,666G)
awokenshard: 353G (4.6%, 353G)
Rislyeu: 313G (4.1%, 313G)
FoxtrotNovemberCharlie: 292G (3.8%, 292G)
coralreeferz: 250G (3.3%, 13,162G)
Tekenu: 250G (3.3%, 767G)
getthemoneyz: 230G (3.0%, 614,909G)
brokenknight201: 200G (2.6%, 800G)
lastly: 100G (1.3%, 1,552G)
nifboy: 100G (1.3%, 8,213G)
Bongomon7: 100G (1.3%, 6,392G)
datadrivenbot: 100G (1.3%, 10,876G)
daveb_: 12G (0.2%, 2,174G)

black bets:
TheChainNerd: 1,000G (19.1%, 3,228G)
catfashions: 1,000G (19.1%, 12,620G)
BirbBrainsBot: 1,000G (19.1%, 174,406G)
Laserman1000: 600G (11.5%, 78,400G)
rocl: 500G (9.6%, 38,117G)
SomeCallMeGON: 400G (7.6%, 2,846G)
regios91: 390G (7.5%, 390G)
ccordc: 319G (6.1%, 1,599G)
ZephyrTempest: 24G (0.5%, 480G)
