Final Bets: black - 18 bets for 9,170G (41.0%, x1.44); purple - 12 bets for 13,220G (59.0%, x0.69)

black bets:
catfashions: 1,500G (16.4%, 13,477G)
TheChainNerd: 1,133G (12.4%, 5,397G)
BirbBrainsBot: 1,000G (10.9%, 173,863G)
JumbocactuarX27: 1,000G (10.9%, 20,132G)
HaplessOne: 999G (10.9%, 19,519G)
sinnyil2: 509G (5.6%, 31,028G)
SomeCallMeGON: 500G (5.5%, 3,189G)
Anomandaris__: 500G (5.5%, 8,031G)
MaouDono: 444G (4.8%, 21,336G)
Lydian_C: 420G (4.6%, 4,729G)
Baron_von_Scrub: 304G (3.3%, 304G)
FoxtrotNovemberCharlie: 292G (3.2%, 292G)
getthemoneyz: 190G (2.1%, 614,079G)
nifboy: 100G (1.1%, 8,164G)
Venaire: 100G (1.1%, 100G)
HorusTaurus: 100G (1.1%, 271G)
daveb_: 55G (0.6%, 2,284G)
ZephyrTempest: 24G (0.3%, 480G)

purple bets:
Nickyfive: 5,758G (43.6%, 11,517G)
Mesmaster: 5,000G (37.8%, 52,343G)
DavenIII: 650G (4.9%, 703G)
Laserman1000: 630G (4.8%, 79,730G)
rocl: 500G (3.8%, 38,943G)
ungabunga_bot: 132G (1.0%, 297,160G)
lastly: 100G (0.8%, 1,403G)
rjA0zcOQ96: 100G (0.8%, 25,871G)
datadrivenbot: 100G (0.8%, 10,846G)
maakur_: 100G (0.8%, 115,316G)
hydroshade: 100G (0.8%, 350G)
tmo50x: 50G (0.4%, 11,007G)
