Final Bets: blue - 21 bets for 14,806G (27.2%, x2.67); yellow - 7 bets for 39,557G (72.8%, x0.37)

blue bets:
latebit: 5,000G (33.8%, 37,766G)
toka222: 1,200G (8.1%, 130,099G)
ColetteMSLP: 1,000G (6.8%, 25,139G)
BirbBrainsBot: 1,000G (6.8%, 13,760G)
VolgraTheMoose: 744G (5.0%, 744G)
killth3kid: 736G (5.0%, 23,396G)
E_Ballard: 640G (4.3%, 640G)
SephDarkheart: 600G (4.1%, 112,509G)
Kronikle: 540G (3.6%, 21,071G)
fenaen: 532G (3.6%, 1,710G)
nifboy: 500G (3.4%, 7,985G)
Draconis345: 500G (3.4%, 14,685G)
silverChangeling: 363G (2.5%, 18,186G)
AllInBot: 262G (1.8%, 262G)
ProjectLG: 204G (1.4%, 204G)
getthemoneyz: 202G (1.4%, 1,656,304G)
datadrivenbot: 200G (1.4%, 68,502G)
Drusiform: 200G (1.4%, 5,992G)
Lord_Gwarth: 183G (1.2%, 1,836G)
peanutvendor: 100G (0.7%, 100G)
lyans00: 100G (0.7%, 6,220G)

yellow bets:
dogsandcatsand: 25,039G (63.3%, 49,098G)
MagicBottle: 11,969G (30.3%, 23,469G)
Firesheath: 1,275G (3.2%, 1,275G)
roofiepops: 474G (1.2%, 3,837G)
Chuckolator: 400G (1.0%, 400G)
regios91: 300G (0.8%, 5,020G)
MinBetBot: 100G (0.3%, 6,741G)
