Player: !Brown
Team: Brown Team
Palettes: Brown/Green



Grasnikk
Monster
Leo
45
41
King Behemoth










Nok
Male
Aquarius
79
47
Oracle
Throw
Counter Tackle
Short Charge
Move+2

Octagon Rod

Red Hood
Mythril Vest
Small Mantle

Spell Absorb, Zombie, Blind Rage, Dispel Magic, Sleep
Shuriken, Knife



Otakutaylor
Monster
Capricorn
46
47
Red Chocobo










Levy
Monster
Virgo
66
79
Sekhret







