Final Bets: brown - 13 bets for 14,680G (20.1%, x3.97); champion - 22 bets for 58,256G (79.9%, x0.25)

brown bets:
gooseyourself: 7,356G (50.1%, 147,135G)
VolgraTheMoose: 1,001G (6.8%, 68,270G)
getthemoneyz: 1,000G (6.8%, 1,732,457G)
BirbBrainsBot: 1,000G (6.8%, 4,734G)
technominari: 1,000G (6.8%, 78,494G)
Aldrammech: 700G (4.8%, 700G)
resjudicata3: 631G (4.3%, 631G)
Rurk: 500G (3.4%, 1,816G)
HuffFlex: 500G (3.4%, 31,856G)
skipsandwiches: 368G (2.5%, 1,540G)
Gelwain: 300G (2.0%, 3,456G)
Chihuahua_Charity: 224G (1.5%, 224G)
TheDeeyo: 100G (0.7%, 3,191G)

champion bets:
Chuckolator: 17,975G (30.9%, 31,490G)
Mesmaster: 17,675G (30.3%, 17,675G)
Narcius: 5,300G (9.1%, 314,592G)
Thyrandaal: 4,000G (6.9%, 61,855G)
DustBirdEX: 2,762G (4.7%, 2,762G)
TrogdorTheMemeinator: 1,903G (3.3%, 1,903G)
Absalom_20: 1,466G (2.5%, 1,466G)
roofiepops: 1,002G (1.7%, 1,002G)
thunderducker: 1,000G (1.7%, 2,304G)
douchetron: 978G (1.7%, 978G)
E_Ballard: 740G (1.3%, 53,296G)
Kronikle: 576G (1.0%, 10,846G)
pplvee1: 528G (0.9%, 38,726G)
Omally_: 500G (0.9%, 1,175G)
Sairentozon7: 337G (0.6%, 1,757G)
vorap: 327G (0.6%, 327G)
Saldarin: 300G (0.5%, 10,717G)
corysteam: 212G (0.4%, 212G)
itskage: 211G (0.4%, 2,117G)
datadrivenbot: 200G (0.3%, 67,245G)
AllInBot: 163G (0.3%, 163G)
gorgewall: 101G (0.2%, 9,688G)
