Final Bets: purple - 14 bets for 8,969G (61.9%, x0.62); brown - 13 bets for 5,518G (38.1%, x1.63)

purple bets:
J2DaBibbles: 3,000G (33.4%, 16,699G)
Firesheath: 1,255G (14.0%, 1,255G)
fenaen: 1,200G (13.4%, 20,663G)
killth3kid: 1,000G (11.1%, 112,701G)
MagicBottle: 512G (5.7%, 20,667G)
GatsbysGhost: 500G (5.6%, 3,940G)
ArashiKurobara: 379G (4.2%, 4,679G)
BirbBrainsBot: 340G (3.8%, 131,979G)
redrhinofever: 276G (3.1%, 1,602G)
gorgewall: 201G (2.2%, 19,183G)
Lydian_C: 121G (1.3%, 140,631G)
ANFz: 100G (1.1%, 41,562G)
SephDarkheart: 50G (0.6%, 20,281G)
Rannock57: 35G (0.4%, 140G)

brown bets:
TheChainNerd: 1,000G (18.1%, 30,754G)
getthemoneyz: 1,000G (18.1%, 1,225,200G)
dogsandcatsand: 650G (11.8%, 1,275G)
roqqqpsi: 599G (10.9%, 59,926G)
JumbocactuarX27: 515G (9.3%, 515G)
reinoe: 500G (9.1%, 40,916G)
chaos_sux_unless_its_ds: 300G (5.4%, 4,447G)
Lythe_Caraker: 250G (4.5%, 152,764G)
randgridr: 204G (3.7%, 204G)
KasugaiRoastedPeas: 200G (3.6%, 11,281G)
Jumza: 100G (1.8%, 125G)
upidstupid: 100G (1.8%, 1,677G)
TasisSai: 100G (1.8%, 305G)
