Final Bets: blue - 9 bets for 3,915G (20.5%, x3.87); green - 20 bets for 15,154G (79.5%, x0.26)

blue bets:
killth3kid: 1,000G (25.5%, 113,316G)
Lythe_Caraker: 1,000G (25.5%, 152,514G)
Laserman1000: 576G (14.7%, 20,676G)
MagicBottle: 512G (13.1%, 20,982G)
chaos_sux_unless_its_ds: 300G (7.7%, 4,147G)
gorgewall: 201G (5.1%, 19,307G)
Lydian_C: 126G (3.2%, 140,705G)
ANFz: 100G (2.6%, 41,624G)
Nova_riety: 100G (2.6%, 1,746G)

green bets:
roqqqpsi: 6,525G (43.1%, 59,327G)
fenaen: 1,200G (7.9%, 21,401G)
Firesheath: 1,027G (6.8%, 1,027G)
TheChainNerd: 1,000G (6.6%, 29,754G)
BirbBrainsBot: 1,000G (6.6%, 132,188G)
Cryptopsy70: 600G (4.0%, 20,170G)
Evewho: 500G (3.3%, 1,745G)
reinoe: 500G (3.3%, 40,416G)
HaateXIII: 500G (3.3%, 2,052G)
JumbocactuarX27: 444G (2.9%, 444G)
getthemoneyz: 388G (2.6%, 1,224,200G)
ArashiKurobara: 312G (2.1%, 4,912G)
CapnChaos12: 300G (2.0%, 4,445G)
redrhinofever: 276G (1.8%, 1,772G)
randgridr: 204G (1.3%, 204G)
TasisSai: 100G (0.7%, 205G)
captainmilestw: 100G (0.7%, 1,098G)
DeathTaxesAndAnime: 100G (0.7%, 2,042G)
SephDarkheart: 50G (0.3%, 20,312G)
ChubbyBroCast: 28G (0.2%, 142G)
