Final Bets: white - 19 bets for 19,115G (69.8%, x0.43); purple - 7 bets for 8,268G (30.2%, x2.31)

white bets:
Shalloween: 3,000G (15.7%, 17,860G)
dogsandcatsand: 2,500G (13.1%, 3,783G)
skipsandwiches: 2,001G (10.5%, 22,714G)
old_overholt_: 2,000G (10.5%, 30,038G)
Forkmore: 2,000G (10.5%, 95,064G)
ericzubat: 1,500G (7.8%, 21,651G)
Yangusburger: 1,000G (5.2%, 14,700G)
BirbBrainsBot: 1,000G (5.2%, 11,009G)
superdevon1: 944G (4.9%, 3,778G)
resjudicata3: 870G (4.6%, 870G)
latebit: 548G (2.9%, 548G)
JonnyCue: 400G (2.1%, 400G)
DanielRKnealeArt: 300G (1.6%, 1,664G)
getthemoneyz: 284G (1.5%, 2,025,893G)
grishhammer: 252G (1.3%, 1,132G)
datadrivenbot: 200G (1.0%, 71,415G)
gilgamensche: 116G (0.6%, 116G)
Firesheath: 100G (0.5%, 3,278G)
gingerfoo69: 100G (0.5%, 9,883G)

purple bets:
RunicMagus: 3,886G (47.0%, 7,772G)
HaateXIII: 2,372G (28.7%, 2,372G)
snkey: 638G (7.7%, 638G)
PoroTact: 480G (5.8%, 480G)
soren_of_tyto: 420G (5.1%, 420G)
AllInBot: 372G (4.5%, 372G)
maakur_: 100G (1.2%, 7,019G)
