Final Bets: purple - 19 bets for 10,704G (52.6%, x0.90); brown - 19 bets for 9,653G (47.4%, x1.11)

purple bets:
aznwanderor: 1,538G (14.4%, 1,538G)
TheChainNerd: 1,500G (14.0%, 22,552G)
Digitalsocrates: 1,408G (13.2%, 1,408G)
Bioticism: 1,119G (10.5%, 1,119G)
BirbBrainsBot: 1,000G (9.3%, 6,142G)
Aldrammech: 600G (5.6%, 600G)
joewcarson: 500G (4.7%, 10,374G)
Rislyeu: 500G (4.7%, 13,147G)
theshinyakuma: 500G (4.7%, 10,483G)
Bryon_W: 460G (4.3%, 460G)
metagameface: 324G (3.0%, 324G)
ColetteMSLP: 300G (2.8%, 659G)
TinchoT: 255G (2.4%, 255G)
twelfthrootoftwo: 200G (1.9%, 648G)
Tougou: 100G (0.9%, 2,720G)
Evewho: 100G (0.9%, 3,758G)
Ring_Wyrm: 100G (0.9%, 1,958G)
datadrivenbot: 100G (0.9%, 33,656G)
E_Ballard: 100G (0.9%, 2,500G)

brown bets:
HaateXIII: 1,254G (13.0%, 3,254G)
CorpusCav: 1,010G (10.5%, 19,035G)
volgrathemoose: 1,001G (10.4%, 9,285G)
Jeeboheebo: 1,000G (10.4%, 15,561G)
argentbast: 1,000G (10.4%, 13,828G)
Thyrandaal: 1,000G (10.4%, 17,201G)
Bilabrin: 832G (8.6%, 832G)
EnemyController: 500G (5.2%, 530,277G)
Cryptopsy70: 488G (5.1%, 5,571G)
cam_ATS: 232G (2.4%, 232G)
Flameatron: 209G (2.2%, 256G)
gorgewall: 201G (2.1%, 4,824G)
Shinzutalos: 200G (2.1%, 2,435G)
maleblackfiora: 200G (2.1%, 395G)
gr8keeper: 136G (1.4%, 136G)
the_leezy: 108G (1.1%, 108G)
aeonicvector: 100G (1.0%, 878G)
s_o_b_e_q: 100G (1.0%, 6,738G)
getthemoneyz: 82G (0.8%, 805,269G)
