Final Bets: green - 10 bets for 6,143G (28.2%, x2.55); yellow - 21 bets for 15,641G (71.8%, x0.39)

green bets:
DeathTaxesAndAnime: 3,642G (59.3%, 7,143G)
thunderducker: 560G (9.1%, 560G)
krombobreaker: 500G (8.1%, 3,005G)
roofiepops: 474G (7.7%, 2,425G)
Wonser: 352G (5.7%, 3,522G)
old_overholt_: 200G (3.3%, 13,143G)
resjudicata3: 200G (3.3%, 39,662G)
Riley331: 104G (1.7%, 104G)
CorpusCav: 100G (1.6%, 23,964G)
BartTradingCompany: 11G (0.2%, 110G)

yellow bets:
Mesmaster: 5,000G (32.0%, 197,576G)
NicoSavoy: 2,000G (12.8%, 22,476G)
silentkaster: 1,680G (10.7%, 1,680G)
BirbBrainsBot: 1,000G (6.4%, 128,759G)
dogsandcatsand: 939G (6.0%, 939G)
evdoggity: 600G (3.8%, 600G)
Lord_Gwarth: 504G (3.2%, 504G)
hotpocketsofficial: 500G (3.2%, 16,594G)
CapnChaos12: 496G (3.2%, 496G)
lijarkh: 440G (2.8%, 440G)
heyBtw: 435G (2.8%, 435G)
Thyrandaal: 359G (2.3%, 704G)
CosmicTactician: 300G (1.9%, 35,113G)
SephDarkheart: 284G (1.8%, 284G)
brodeity: 256G (1.6%, 1,935G)
akash7: 220G (1.4%, 220G)
datadrivenbot: 200G (1.3%, 58,916G)
getthemoneyz: 128G (0.8%, 1,876,425G)
AllInBot: 100G (0.6%, 100G)
farside00831: 100G (0.6%, 353G)
pathogen7: 100G (0.6%, 748G)
