Final Bets: red - 15 bets for 10,609G (60.3%, x0.66); green - 10 bets for 6,979G (39.7%, x1.52)

red bets:
Mesmaster: 5,000G (47.1%, 194,353G)
brodeity: 1,463G (13.8%, 1,463G)
latebit: 1,107G (10.4%, 2,172G)
CapnChaos12: 630G (5.9%, 630G)
krombobreaker: 500G (4.7%, 4,406G)
lijarkh: 417G (3.9%, 417G)
SephDarkheart: 361G (3.4%, 361G)
DracoknightZero: 244G (2.3%, 5,456G)
CosmicTactician: 200G (1.9%, 34,941G)
datadrivenbot: 200G (1.9%, 58,767G)
macradarkstar: 200G (1.9%, 971G)
AllInBot: 127G (1.2%, 127G)
CorpusCav: 100G (0.9%, 24,135G)
Sietaha: 48G (0.5%, 485G)
BartTradingCompany: 12G (0.1%, 127G)

green bets:
thunderducker: 2,056G (29.5%, 2,056G)
NicoSavoy: 2,000G (28.7%, 20,784G)
VolgraTheMoose: 1,001G (14.3%, 119,855G)
BirbBrainsBot: 1,000G (14.3%, 128,015G)
akash7: 220G (3.2%, 220G)
old_overholt_: 200G (2.9%, 14,484G)
getthemoneyz: 194G (2.8%, 1,875,765G)
Riley331: 104G (1.5%, 104G)
heyBtw: 104G (1.5%, 104G)
Yangusburger: 100G (1.4%, 7,958G)
