Final Bets: white - 9 bets for 3,915G (27.6%, x2.63); black - 15 bets for 10,277G (72.4%, x0.38)

white bets:
windsah: 1,000G (25.5%, 14,009G)
killth3kid: 684G (17.5%, 40,397G)
LAGBOT30000: 508G (13.0%, 4,081G)
JonnyCue: 500G (12.8%, 16,777G)
SeniorBunk: 440G (11.2%, 440G)
foxfaeez: 296G (7.6%, 296G)
Tarheels218: 224G (5.7%, 15,420G)
cho_pin: 163G (4.2%, 163G)
CosmicTactician: 100G (2.6%, 12,331G)

black bets:
Zeroroute: 1,952G (19.0%, 3,650G)
Forkmore: 1,461G (14.2%, 1,461G)
DavenIII: 1,005G (9.8%, 1,005G)
BirbBrainsBot: 1,000G (9.7%, 68,183G)
getthemoneyz: 1,000G (9.7%, 1,616,255G)
Laserman1000: 940G (9.1%, 940G)
DustBirdEX: 746G (7.3%, 746G)
DarrenDinosaurs: 600G (5.8%, 600G)
Zwirrfinst_: 400G (3.9%, 18,841G)
brokenknight201: 400G (3.9%, 8,527G)
AllInBot: 255G (2.5%, 255G)
datadrivenbot: 200G (1.9%, 61,081G)
xBizzy: 118G (1.1%, 232G)
MinBetBot: 100G (1.0%, 1,443G)
ArrenJevleth: 100G (1.0%, 2,748G)
