Final Bets: white - 16 bets for 5,935G (18.3%, x4.45); black - 46 bets for 26,423G (81.7%, x0.22)

white bets:
Faantatv: 1,520G (25.6%, 1,520G)
ShinoGuy: 653G (11.0%, 653G)
Axelrod: 593G (10.0%, 11,869G)
Evewho: 500G (8.4%, 4,938G)
Humble_Fabio: 390G (6.6%, 390G)
Oshimi12: 300G (5.1%, 3,990G)
mizukouken: 300G (5.1%, 531G)
ToucansOfSoup: 280G (4.7%, 280G)
Pie108: 240G (4.0%, 367G)
KasugaiRoastedPeas: 200G (3.4%, 30,977G)
WillFitzgerald: 200G (3.4%, 1,540G)
Aka_Gilly: 200G (3.4%, 5,679G)
Chuckolator: 157G (2.6%, 5,895G)
mpghappiness: 152G (2.6%, 152G)
wackyzachyy: 150G (2.5%, 254G)
Tougou: 100G (1.7%, 3,381G)

black bets:
Mtueni: 8,000G (30.3%, 113,934G)
OmnibotGamma: 1,463G (5.5%, 1,463G)
Lodrak: 1,214G (4.6%, 2,428G)
Riot_Jayway: 1,111G (4.2%, 174,553G)
ricky_ortease: 1,000G (3.8%, 3,250G)
DudeMonkey77: 1,000G (3.8%, 41,781G)
OneHundredFists: 1,000G (3.8%, 10,969G)
KamenRiderDecade: 900G (3.4%, 981G)
BadBlanket: 897G (3.4%, 897G)
bad1dea: 700G (2.6%, 190,599G)
BirbBrainsBot: 680G (2.6%, 201,860G)
Lanshaft: 560G (2.1%, 16,248G)
I_nod_my_head_when_I_lose: 500G (1.9%, 17,197G)
SpaZmodeus: 497G (1.9%, 497G)
mirapoix: 492G (1.9%, 492G)
getthemoneyz: 484G (1.8%, 356,003G)
Bahamut64: 459G (1.7%, 4,594G)
TheGuesty: 458G (1.7%, 3,458G)
MantisFinch: 396G (1.5%, 396G)
fenaen: 284G (1.1%, 284G)
tevoul: 270G (1.0%, 5,403G)
Baron_von_Scrub: 252G (1.0%, 1,304G)
jaykaye: 244G (0.9%, 244G)
Sairentozon7: 232G (0.9%, 232G)
nofreewill: 209G (0.8%, 209G)
ungabunga_bot: 207G (0.8%, 1,016G)
AllInBot: 200G (0.8%, 200G)
AlenaZarek: 200G (0.8%, 14,257G)
lijarkh: 200G (0.8%, 3,611G)
gameman733: 200G (0.8%, 2,198G)
deesignal: 200G (0.8%, 1,998G)
ZephyrTempest: 200G (0.8%, 6,667G)
SeraphPDH: 200G (0.8%, 6,119G)
arcana31: 200G (0.8%, 640G)
ontimeslackers: 187G (0.7%, 1,187G)
Davarian: 176G (0.7%, 176G)
amadmet: 150G (0.6%, 6,687G)
Zagorsek: 100G (0.4%, 278,616G)
Viola03773: 100G (0.4%, 580G)
Rexamajinx: 100G (0.4%, 1,049G)
maakur_: 100G (0.4%, 56,728G)
datadrivenbot: 100G (0.4%, 13,543G)
RughSontos: 100G (0.4%, 1,292G)
Avin_Chaos: 100G (0.4%, 827G)
YesThisIsToshi: 100G (0.4%, 1,563G)
Draconis345: 1G (0.0%, 2,570G)
