Final Bets: red - 36 bets for 17,767G (58.5%, x0.71); yellow - 26 bets for 12,607G (41.5%, x1.41)

red bets:
sinnyil2: 3,401G (19.1%, 3,401G)
z32o: 1,634G (9.2%, 6,287G)
Lodrak: 1,212G (6.8%, 2,425G)
BirbBrainsBot: 1,000G (5.6%, 202,178G)
bad1dea: 1,000G (5.6%, 190,897G)
ShinoGuy: 890G (5.0%, 1,780G)
Winnosh: 800G (4.5%, 1,888G)
Lali_Lulelo: 732G (4.1%, 732G)
roofiepops: 660G (3.7%, 2,622G)
Lanshaft: 560G (3.2%, 16,247G)
eltejongrande: 500G (2.8%, 16,977G)
Draconis345: 500G (2.8%, 2,069G)
wackyzachyy: 450G (2.5%, 1,371G)
boggart742: 415G (2.3%, 415G)
SpaZmodeus: 408G (2.3%, 408G)
TheGuesty: 350G (2.0%, 2,500G)
Oshimi12: 300G (1.7%, 5,625G)
nerdynel17: 281G (1.6%, 281G)
Baron_von_Scrub: 252G (1.4%, 2,102G)
ValtonZenola: 248G (1.4%, 248G)
killth3kid: 228G (1.3%, 16,434G)
Chuckolator: 212G (1.2%, 6,327G)
amiture: 200G (1.1%, 1,905G)
Aka_Gilly: 200G (1.1%, 6,569G)
ZephyrTempest: 193G (1.1%, 5,678G)
ra1kia: 175G (1.0%, 760G)
rico_flex: 150G (0.8%, 2,264G)
I_nod_my_head_when_I_lose: 100G (0.6%, 16,797G)
Tougou: 100G (0.6%, 3,726G)
Rexamajinx: 100G (0.6%, 1,049G)
Viola03773: 100G (0.6%, 380G)
rubenflonne: 100G (0.6%, 2,411G)
RughSontos: 100G (0.6%, 1,292G)
maakur_: 100G (0.6%, 56,528G)
datadrivenbot: 100G (0.6%, 13,543G)
getthemoneyz: 16G (0.1%, 355,477G)

yellow bets:
Evewho: 2,000G (15.9%, 7,878G)
OmnibotGamma: 1,199G (9.5%, 1,199G)
Riot_Jayway: 1,111G (8.8%, 174,550G)
linear04: 1,024G (8.1%, 1,024G)
OneHundredFists: 1,000G (7.9%, 8,969G)
DudeMonkey77: 1,000G (7.9%, 39,781G)
BadBlanket: 735G (5.8%, 735G)
mpghappiness: 656G (5.2%, 1,656G)
genoguy: 500G (4.0%, 2,015G)
Theseawolf1: 500G (4.0%, 2,901G)
AllInBot: 400G (3.2%, 400G)
YesThisIsToshi: 350G (2.8%, 1,663G)
cheezybuda: 332G (2.6%, 332G)
DHaveWord: 292G (2.3%, 292G)
nifboy: 236G (1.9%, 236G)
UmaiJam: 221G (1.8%, 2,219G)
ontimeslackers: 200G (1.6%, 1,000G)
Davarian: 176G (1.4%, 176G)
Jordache7K: 111G (0.9%, 13,712G)
nofreewill: 104G (0.8%, 104G)
Zagorsek: 100G (0.8%, 278,616G)
ApplesauceBoss: 100G (0.8%, 8,462G)
silentperogy: 100G (0.8%, 6,161G)
KamenRiderDecade: 100G (0.8%, 100G)
alrightbye: 50G (0.4%, 7,307G)
Club_Sodar: 10G (0.1%, 200G)
