Final Bets: purple - 27 bets for 17,181G (70.3%, x0.42); brown - 13 bets for 7,252G (29.7%, x2.37)

purple bets:
NicoSavoy: 3,609G (21.0%, 360,983G)
amiture: 2,000G (11.6%, 22,910G)
twelfthrootoftwo: 1,905G (11.1%, 3,736G)
sinnyil2: 1,411G (8.2%, 2,822G)
Shalloween: 1,321G (7.7%, 2,643G)
ColetteMSLP: 1,000G (5.8%, 39,110G)
dogsandcatsand: 822G (4.8%, 1,645G)
Nizaha: 600G (3.5%, 18,600G)
Lanshaft: 524G (3.0%, 29,034G)
SephDarkheart: 408G (2.4%, 11,982G)
flacococo: 372G (2.2%, 372G)
BoneMiser: 356G (2.1%, 356G)
Lord_Gwarth: 337G (2.0%, 4,976G)
OtherBrand: 308G (1.8%, 34,170G)
ruleof5: 300G (1.7%, 14,974G)
onehitslay: 300G (1.7%, 1,399G)
triniculo: 288G (1.7%, 288G)
CosmicTactician: 200G (1.2%, 26,842G)
datadrivenbot: 200G (1.2%, 46,803G)
Hirameki85: 200G (1.2%, 5,117G)
ravingsockmonkey: 120G (0.7%, 120G)
Chompie: 100G (0.6%, 9,446G)
Miku_Shikhu: 100G (0.6%, 6,098G)
Zakanakai: 100G (0.6%, 526G)
resjudicata3: 100G (0.6%, 2,231G)
Twisted_Nutsatchel: 100G (0.6%, 12,952G)
jeffersonsa: 100G (0.6%, 400G)

brown bets:
SkylerBunny: 1,800G (24.8%, 82,699G)
prince_rogers_nelson_: 1,616G (22.3%, 1,616G)
pplvee1: 1,000G (13.8%, 26,822G)
douchetron: 936G (12.9%, 936G)
AllInBot: 532G (7.3%, 532G)
ArlanKels: 348G (4.8%, 1,394G)
RageImmortaI: 312G (4.3%, 1,349G)
BirbBrainsBot: 230G (3.2%, 140,409G)
holdenmagronik: 120G (1.7%, 885G)
Dommissar: 104G (1.4%, 104G)
PoroTact: 100G (1.4%, 7,292G)
Blastinus: 100G (1.4%, 874G)
getthemoneyz: 54G (0.7%, 1,419,890G)
