Final Bets: black - 22 bets for 9,261G (30.0%, x2.33); brown - 19 bets for 21,559G (70.0%, x0.43)

black bets:
SkylerBunny: 1,500G (16.2%, 85,913G)
prince_rogers_nelson_: 1,445G (15.6%, 1,445G)
DLJuggernaut: 1,200G (13.0%, 1,200G)
twelfthrootoftwo: 898G (9.7%, 898G)
Lanshaft: 524G (5.7%, 29,532G)
ThreeMileIsland: 500G (5.4%, 11,473G)
amiture: 500G (5.4%, 30,659G)
Zagorsek: 488G (5.3%, 488G)
dogsandcatsand: 368G (4.0%, 823G)
Treafa: 200G (2.2%, 1,042G)
DAC169: 200G (2.2%, 2,421G)
Blastinus: 200G (2.2%, 1,501G)
randgridr: 200G (2.2%, 5,845G)
datadrivenbot: 200G (2.2%, 46,403G)
onehitslay: 200G (2.2%, 699G)
resjudicata3: 200G (2.2%, 1,631G)
holdenmagronik: 120G (1.3%, 1,169G)
Brainstew29: 100G (1.1%, 1,965G)
VolgraTheMoose: 100G (1.1%, 2,451G)
ArlanKels: 63G (0.7%, 2,108G)
getthemoneyz: 54G (0.6%, 1,419,834G)
DarrenDinosaurs: 1G (0.0%, 1,874G)

brown bets:
AllInBot: 5,286G (24.5%, 5,286G)
NicoSavoy: 3,538G (16.4%, 353,801G)
douchetron: 3,207G (14.9%, 6,289G)
sinnyil2: 1,040G (4.8%, 1,040G)
Beastmages: 1,016G (4.7%, 1,016G)
CosmicTactician: 1,000G (4.6%, 25,642G)
BirbBrainsBot: 1,000G (4.6%, 139,954G)
pplvee1: 1,000G (4.6%, 28,191G)
HaateXIII: 896G (4.2%, 896G)
Hirameki85: 700G (3.2%, 4,717G)
MaskGibson: 692G (3.2%, 692G)
Nizaha: 500G (2.3%, 17,400G)
ForagerCats: 500G (2.3%, 4,746G)
Thyrandaal: 444G (2.1%, 1,861G)
RageImmortaI: 312G (1.4%, 1,776G)
ravingsockmonkey: 120G (0.6%, 120G)
Dommissar: 104G (0.5%, 104G)
NewbGaming: 104G (0.5%, 104G)
E_Ballard: 100G (0.5%, 29,172G)
