Final Bets: blue - 23 bets for 20,828G (51.1%, x0.96); brown - 18 bets for 19,909G (48.9%, x1.05)

blue bets:
amiture: 5,000G (24.0%, 30,159G)
douchetron: 3,910G (18.8%, 7,667G)
SkylerBunny: 2,000G (9.6%, 84,413G)
InkyLink: 2,000G (9.6%, 13,000G)
HaateXIII: 1,281G (6.2%, 1,281G)
pplvee1: 1,250G (6.0%, 28,521G)
twelfthrootoftwo: 676G (3.2%, 676G)
prince_rogers_nelson_: 608G (2.9%, 608G)
killth3kid: 540G (2.6%, 13,517G)
randgridr: 500G (2.4%, 5,645G)
Beastmages: 500G (2.4%, 1,452G)
dogsandcatsand: 409G (2.0%, 409G)
hiros13gts: 332G (1.6%, 332G)
Blastinus: 300G (1.4%, 1,301G)
Treafa: 200G (1.0%, 842G)
LordMaxoss: 200G (1.0%, 6,868G)
datadrivenbot: 200G (1.0%, 46,203G)
RageImmortaI: 200G (1.0%, 1,910G)
onehitslay: 200G (1.0%, 499G)
ravingsockmonkey: 172G (0.8%, 172G)
NewbGaming: 149G (0.7%, 149G)
gorgewall: 101G (0.5%, 6,939G)
holdenmagronik: 100G (0.5%, 1,049G)

brown bets:
AllInBot: 7,557G (38.0%, 7,557G)
NicoSavoy: 3,553G (17.8%, 355,321G)
UmaiJam: 1,600G (8.0%, 67,546G)
Shalloween: 1,322G (6.6%, 1,322G)
BirbBrainsBot: 1,000G (5.0%, 140,384G)
resjudicata3: 1,000G (5.0%, 1,431G)
Nizaha: 600G (3.0%, 17,615G)
Lanshaft: 524G (2.6%, 29,008G)
ThreeMileIsland: 500G (2.5%, 10,973G)
fenaen: 500G (2.5%, 9,417G)
ForagerCats: 500G (2.5%, 4,961G)
Zagorsek: 488G (2.5%, 488G)
getthemoneyz: 164G (0.8%, 1,419,780G)
VolgraTheMoose: 150G (0.8%, 2,351G)
Dommissar: 149G (0.7%, 149G)
ArlanKels: 102G (0.5%, 2,045G)
Chompie: 100G (0.5%, 9,350G)
Hirameki85: 100G (0.5%, 5,018G)
