Final Bets: blue - 17 bets for 11,037G (26.5%, x2.78); champion - 19 bets for 30,643G (73.5%, x0.36)

blue bets:
amiture: 5,000G (45.3%, 34,942G)
Thyrandaal: 1,052G (9.5%, 1,052G)
BirbBrainsBot: 1,000G (9.1%, 139,384G)
InkyLink: 1,000G (9.1%, 14,912G)
killth3kid: 540G (4.9%, 14,033G)
ThreeMileIsland: 500G (4.5%, 10,473G)
nekojin: 384G (3.5%, 24,202G)
rednecknazgul: 224G (2.0%, 224G)
AllInBot: 200G (1.8%, 200G)
Blastinus: 200G (1.8%, 1,592G)
RageImmortaI: 200G (1.8%, 2,101G)
jeffersonsa: 200G (1.8%, 200G)
getthemoneyz: 136G (1.2%, 1,419,616G)
gorgewall: 101G (0.9%, 7,036G)
PoroTact: 100G (0.9%, 7,529G)
Hirameki85: 100G (0.9%, 4,918G)
nhammen: 100G (0.9%, 23,217G)

champion bets:
SephDarkheart: 11,166G (36.4%, 11,166G)
SkylerBunny: 7,000G (22.8%, 86,329G)
douchetron: 5,816G (19.0%, 11,404G)
twelfthrootoftwo: 1,322G (4.3%, 1,322G)
Rytor: 1,000G (3.3%, 20,331G)
hiros13gts: 649G (2.1%, 649G)
Nizaha: 600G (2.0%, 17,015G)
Treafa: 500G (1.6%, 1,033G)
resjudicata3: 431G (1.4%, 431G)
DLJuggernaut: 388G (1.3%, 388G)
ravingsockmonkey: 336G (1.1%, 336G)
NewbGaming: 291G (0.9%, 291G)
LordMaxoss: 250G (0.8%, 7,059G)
DAC169: 200G (0.7%, 2,221G)
datadrivenbot: 200G (0.7%, 46,394G)
ArlanKels: 194G (0.6%, 1,943G)
Brainstew29: 100G (0.3%, 1,865G)
onehitslay: 100G (0.3%, 690G)
holdenmagronik: 100G (0.3%, 1,145G)
