Final Bets: red - 20 bets for 15,091G (57.6%, x0.74); blue - 18 bets for 11,121G (42.4%, x1.36)

red bets:
sinnyil2: 4,500G (29.8%, 77,305G)
TheMM42: 2,000G (13.3%, 40,170G)
Nizaha: 1,447G (9.6%, 1,447G)
sukotsuto: 1,000G (6.6%, 4,966G)
BirbBrainsBot: 1,000G (6.6%, 24,830G)
HaplessOne: 1,000G (6.6%, 115,617G)
mirapoix: 676G (4.5%, 676G)
DeathTaxesAndAnime: 500G (3.3%, 11,868G)
Anox_Skell: 500G (3.3%, 3,645G)
mastershango: 400G (2.7%, 1,000G)
rockmem21: 328G (2.2%, 328G)
leakimiko: 308G (2.0%, 308G)
R_Raynos: 304G (2.0%, 304G)
Dexsana: 300G (2.0%, 18,416G)
potgodtopdog: 200G (1.3%, 8,393G)
EnemyController: 200G (1.3%, 67,000G)
gorgewall: 128G (0.8%, 128G)
AllInBot: 100G (0.7%, 100G)
lijarkh: 100G (0.7%, 13,734G)
ANFz: 100G (0.7%, 12,986G)

blue bets:
Lydian_C: 4,200G (37.8%, 147,677G)
pandasforsale: 981G (8.8%, 981G)
Laserman1000: 800G (7.2%, 31,800G)
Evewho: 794G (7.1%, 794G)
getthemoneyz: 704G (6.3%, 519,708G)
victoriolue: 679G (6.1%, 679G)
rocl: 500G (4.5%, 52,894G)
TheMurkGnome: 443G (4.0%, 15,799G)
DarrenDinosaurs: 436G (3.9%, 436G)
YaBoy125: 335G (3.0%, 335G)
JackOnFire1: 284G (2.6%, 284G)
NoNotBees: 264G (2.4%, 264G)
PasDeSeul: 207G (1.9%, 207G)
ungabunga_bot: 142G (1.3%, 175,297G)
kaidykat: 100G (0.9%, 200G)
FrozenFelid: 100G (0.9%, 9,147G)
Ross_from_Cali: 77G (0.7%, 7,624G)
electric_glass: 75G (0.7%, 1,775G)
