Final Bets: white - 10 bets for 6,988G (27.6%, x2.62); black - 17 bets for 18,317G (72.4%, x0.38)

white bets:
SephDarkheart: 2,815G (40.3%, 2,815G)
Error72: 1,631G (23.3%, 1,631G)
Nizaha: 664G (9.5%, 24,217G)
killth3kid: 612G (8.8%, 5,276G)
Phi_Sig: 555G (7.9%, 110,404G)
douchetron: 200G (2.9%, 1,442G)
datadrivenbot: 200G (2.9%, 50,605G)
ohhinm: 123G (1.8%, 2,561G)
ArlanKels: 100G (1.4%, 4,560G)
getthemoneyz: 88G (1.3%, 1,517,729G)

black bets:
dogsandcatsand: 7,777G (42.5%, 102,348G)
VolgraTheMoose: 2,001G (10.9%, 16,262G)
Shalloween: 2,000G (10.9%, 29,109G)
JumbocactuarX27: 1,000G (5.5%, 41,936G)
BirbBrainsBot: 1,000G (5.5%, 17,171G)
Gunz232323: 812G (4.4%, 812G)
HaateXIII: 660G (3.6%, 660G)
moonliquor: 500G (2.7%, 42,016G)
TasisSai: 500G (2.7%, 23,363G)
JonnyCue: 500G (2.7%, 1,310G)
coralreeferz: 350G (1.9%, 13,649G)
butterbelljedi: 284G (1.6%, 284G)
latebit: 283G (1.5%, 283G)
AllInBot: 200G (1.1%, 200G)
lyans00: 200G (1.1%, 4,973G)
holdenmagronik: 150G (0.8%, 2,361G)
itsonlyspencer: 100G (0.5%, 1,261G)
