Final Bets: purple - 12 bets for 7,880G (24.3%, x3.11); brown - 11 bets for 24,544G (75.7%, x0.32)

purple bets:
lijarkh: 1,642G (20.8%, 1,642G)
VolgraTheMoose: 1,001G (12.7%, 68,746G)
Shalloween: 1,000G (12.7%, 19,336G)
Aldrammech: 901G (11.4%, 901G)
getthemoneyz: 856G (10.9%, 1,748,708G)
Nizaha: 772G (9.8%, 24,536G)
JonnyCue: 532G (6.8%, 532G)
dogsandcatsand: 440G (5.6%, 440G)
MemoriesofFinal: 220G (2.8%, 220G)
Runeseeker22: 204G (2.6%, 204G)
datadrivenbot: 200G (2.5%, 63,340G)
WesSideVandal: 112G (1.4%, 112G)

brown bets:
HaateXIII: 14,180G (57.8%, 28,361G)
reinoe: 5,000G (20.4%, 71,130G)
thunderducker: 1,342G (5.5%, 2,440G)
DustBirdEX: 1,054G (4.3%, 1,054G)
BirbBrainsBot: 1,000G (4.1%, 51,374G)
BoneMiser: 923G (3.8%, 923G)
Lord_Gwarth: 500G (2.0%, 2,589G)
DaveStrider55: 200G (0.8%, 1,269G)
AllInBot: 129G (0.5%, 129G)
one1fineday: 116G (0.5%, 116G)
ko2q: 100G (0.4%, 12,327G)
