Final Bets: white - 9 bets for 8,240G (70.5%, x0.42); purple - 11 bets for 3,450G (29.5%, x2.39)

white bets:
sinnyil2: 1,951G (23.7%, 3,902G)
Radiance89: 1,393G (16.9%, 1,393G)
VolgraTheMoose: 1,005G (12.2%, 70,863G)
BirbBrainsBot: 1,000G (12.1%, 50,858G)
Firesheath: 756G (9.2%, 756G)
Aldrammech: 700G (8.5%, 700G)
BoneMiser: 635G (7.7%, 635G)
Lord_Gwarth: 500G (6.1%, 2,089G)
DaveStrider55: 300G (3.6%, 969G)

purple bets:
DustBirdEX: 688G (19.9%, 688G)
MemoriesofFinal: 605G (17.5%, 605G)
JonnyCue: 500G (14.5%, 3,247G)
roofiepops: 474G (13.7%, 3,096G)
CorpusCav: 323G (9.4%, 2,487G)
Blastinus: 264G (7.7%, 264G)
datadrivenbot: 200G (5.8%, 64,060G)
AllInBot: 148G (4.3%, 148G)
WesSideVandal: 112G (3.2%, 112G)
Runeseeker22: 100G (2.9%, 739G)
getthemoneyz: 36G (1.0%, 1,751,492G)
