Final Bets: red - 12 bets for 14,750G (64.6%, x0.55); champion - 20 bets for 8,093G (35.4%, x1.82)

red bets:
NicoSavoy: 5,000G (33.9%, 180,087G)
TheChainNerd: 4,717G (32.0%, 31,453G)
maakur_: 1,036G (7.0%, 1,036G)
Shalloween: 1,000G (6.8%, 39,280G)
Xoomwaffle: 980G (6.6%, 980G)
Rytor: 528G (3.6%, 528G)
helpimabug: 488G (3.3%, 488G)
Lemonjohns: 300G (2.0%, 5,190G)
gorgewall: 201G (1.4%, 5,192G)
Aquios_: 200G (1.4%, 1,666G)
datadrivenbot: 200G (1.4%, 57,528G)
captainmilestw: 100G (0.7%, 813G)

champion bets:
toka222: 1,500G (18.5%, 83,800G)
Forkmore: 1,000G (12.4%, 10,880G)
Rislyeu: 953G (11.8%, 1,906G)
roqqqpsi: 542G (6.7%, 4,933G)
Blakelmenakle: 500G (6.2%, 8,643G)
DamnThatShark: 500G (6.2%, 2,630G)
furrytomahawkk: 500G (6.2%, 2,307G)
KyleWonToLiveForever: 380G (4.7%, 380G)
Finewax: 300G (3.7%, 565G)
brokenknight201: 300G (3.7%, 1,995G)
benticore: 250G (3.1%, 18,488G)
dem0nj0ns: 228G (2.8%, 228G)
superdevon1: 225G (2.8%, 4,503G)
Evewho: 200G (2.5%, 1,721G)
TasisSai: 153G (1.9%, 300G)
BirbBrainsBot: 146G (1.8%, 130,061G)
getthemoneyz: 116G (1.4%, 1,277,974G)
Firesheath: 100G (1.2%, 2,430G)
fluffskull: 100G (1.2%, 3,498G)
Othatmattkid: 100G (1.2%, 1,464G)
