Final Bets: red - 17 bets for 12,860G (74.8%, x0.34); blue - 8 bets for 4,328G (25.2%, x2.97)

red bets:
Mesmaster: 5,000G (38.9%, 81,434G)
BirbBrainsBot: 1,000G (7.8%, 27,379G)
reinoe: 1,000G (7.8%, 11,510G)
BaronHaynes: 1,000G (7.8%, 56,573G)
douchetron: 869G (6.8%, 869G)
superdevon1: 837G (6.5%, 83,789G)
CT_5_Holy: 579G (4.5%, 11,596G)
pepperbuster: 500G (3.9%, 8,400G)
Raixelol: 348G (2.7%, 994G)
NicoSavoy: 316G (2.5%, 316G)
AltimaMantoid: 300G (2.3%, 5,600G)
krombobreaker: 252G (2.0%, 10,318G)
datadrivenbot: 200G (1.6%, 65,655G)
MemoriesofFinal: 200G (1.6%, 1,800G)
KasugaiRoastedPeas: 200G (1.6%, 3,188G)
getthemoneyz: 158G (1.2%, 1,801,683G)
gorgewall: 101G (0.8%, 3,975G)

blue bets:
SkylerBunny: 2,000G (46.2%, 102,337G)
thunderducker: 642G (14.8%, 642G)
lwtest: 570G (13.2%, 570G)
Lifebregin: 500G (11.6%, 16,500G)
Leonidusx: 240G (5.5%, 240G)
Laserman1000: 176G (4.1%, 1,776G)
Firesheath: 100G (2.3%, 1,176G)
Yangusburger: 100G (2.3%, 1,204G)
