Final Bets: white - 9 bets for 3,048G (19.6%, x4.11); black - 22 bets for 12,533G (80.4%, x0.24)

white bets:
BirbBrainsBot: 1,000G (32.8%, 152,841G)
Jeeboheebo: 660G (21.7%, 660G)
getthemoneyz: 488G (16.0%, 654,314G)
CorpusCav: 200G (6.6%, 4,324G)
cupholderr: 200G (6.6%, 7,048G)
mikesk1: 200G (6.6%, 2,933G)
CosmicTactician: 100G (3.3%, 12,078G)
Kyune: 100G (3.3%, 1,154G)
josephiroth_143: 100G (3.3%, 1,020G)

black bets:
PotionDweller: 2,000G (16.0%, 16,411G)
reinoe: 2,000G (16.0%, 35,152G)
HaplessOne: 1,500G (12.0%, 20,086G)
helpimabug: 1,271G (10.1%, 1,271G)
theNGUYENNER: 1,000G (8.0%, 15,490G)
NicoSavoy: 1,000G (8.0%, 10,322G)
thunderducker: 777G (6.2%, 8,056G)
Lali_Lulelo: 581G (4.6%, 581G)
CapnChaos12: 316G (2.5%, 316G)
twelfthrootoftwo: 300G (2.4%, 2,568G)
Eyepoor_: 300G (2.4%, 3,651G)
HorusTaurus: 284G (2.3%, 284G)
AlysSariel: 200G (1.6%, 1,892G)
WhiteFury: 200G (1.6%, 276G)
foofermoofer: 104G (0.8%, 104G)
Axciom: 100G (0.8%, 100G)
Arkreaver: 100G (0.8%, 10,563G)
Firesheath: 100G (0.8%, 16,407G)
Tomion: 100G (0.8%, 1,898G)
ungabunga_bot: 100G (0.8%, 427,454G)
datadrivenbot: 100G (0.8%, 12,786G)
ko2q: 100G (0.8%, 1,717G)
