Final Bets: blue - 10 bets for 7,792G (53.6%, x0.87); black - 13 bets for 6,745G (46.4%, x1.16)

blue bets:
AllInBot: 1,979G (25.4%, 1,979G)
Zachara: 1,600G (20.5%, 107,600G)
Lordminsc: 1,001G (12.8%, 3,941G)
TheChainNerd: 694G (8.9%, 694G)
killth3kid: 658G (8.4%, 6,583G)
Cryptopsy70: 548G (7.0%, 21,194G)
prince_rogers_nelson_: 540G (6.9%, 540G)
Flameatron: 300G (3.9%, 5,384G)
Error72: 250G (3.2%, 8,965G)
autnagrag: 222G (2.8%, 1,101G)

black bets:
neerrm: 1,521G (22.6%, 1,521G)
bruubarg: 1,000G (14.8%, 21,176G)
EnemyController: 1,000G (14.8%, 594,563G)
Nickyfive: 982G (14.6%, 982G)
run_with_stone_GUNs: 500G (7.4%, 24,873G)
ShintaroNayaka: 400G (5.9%, 480G)
roofiepops: 332G (4.9%, 332G)
CapnChaos12: 300G (4.4%, 11,084G)
d4rr1n: 300G (4.4%, 5,039G)
TeaTime29: 200G (3.0%, 12,437G)
maakur_: 100G (1.5%, 22,223G)
CosmicTactician: 100G (1.5%, 7,883G)
marin1987: 10G (0.1%, 1,602G)
