Final Bets: purple - 2 bets for 1,587G (35.6%, x1.81); brown - 7 bets for 2,868G (64.4%, x0.55)

purple bets:
ungabunga_bot: 1,000G (63.0%, 335,826G)
superdevon1: 587G (37.0%, 11,745G)

brown bets:
getthemoneyz: 1,000G (34.9%, 612,016G)
BirbBrainsBot: 1,000G (34.9%, 12,047G)
madman66666: 300G (10.5%, 2,219G)
uwuslayer15: 200G (7.0%, 1,264G)
witchlight: 168G (5.9%, 1,680G)
datadrivenbot: 100G (3.5%, 13,029G)
Kyune: 100G (3.5%, 2,994G)
