Final Bets: blue - 3 bets for 757G (9.0%, x10.13); green - 11 bets for 7,671G (91.0%, x0.10)

blue bets:
superdevon1: 557G (73.6%, 11,158G)
witchlight: 100G (13.2%, 1,773G)
Kyune: 100G (13.2%, 3,049G)

green bets:
Dexsana: 1,860G (24.2%, 1,860G)
HaplessOne: 1,111G (14.5%, 48,962G)
BirbBrainsBot: 1,000G (13.0%, 12,600G)
ungabunga_bot: 1,000G (13.0%, 334,826G)
getthemoneyz: 1,000G (13.0%, 612,569G)
madman66666: 1,000G (13.0%, 2,385G)
RubenFlonne: 200G (2.6%, 12,059G)
uwuslayer15: 200G (2.6%, 1,375G)
Selppa: 100G (1.3%, 100G)
datadrivenbot: 100G (1.3%, 13,084G)
worldly_unbrain: 100G (1.3%, 4,939G)
