Final Bets: blue - 4 bets for 896G (20.8%, x3.81); brown - 10 bets for 3,413G (79.2%, x0.26)

blue bets:
BirbBrainsBot: 671G (74.9%, 12,894G)
Kyune: 100G (11.2%, 3,962G)
witchlight: 100G (11.2%, 2,146G)
Selppa: 25G (2.8%, 229G)

brown bets:
superdevon1: 756G (22.2%, 15,122G)
HaplessOne: 666G (19.5%, 48,426G)
worldly_unbrain: 500G (14.6%, 4,539G)
Estan_AD: 500G (14.6%, 2,271G)
Dexsana: 372G (10.9%, 372G)
getthemoneyz: 210G (6.2%, 611,957G)
ungabunga_bot: 109G (3.2%, 333,562G)
Realitydown: 100G (2.9%, 3,004G)
volgrathemoose: 100G (2.9%, 1,679G)
datadrivenbot: 100G (2.9%, 12,884G)
