Final Bets: red - 10 bets for 5,581G (57.6%, x0.74); blue - 13 bets for 4,104G (42.4%, x1.36)

red bets:
ApplesauceBoss: 1,551G (27.8%, 1,551G)
bruubarg: 1,000G (17.9%, 2,500G)
superdevon1: 969G (17.4%, 9,693G)
YaBoy125: 412G (7.4%, 412G)
helpimabug: 368G (6.6%, 368G)
Candina: 336G (6.0%, 336G)
Humble_Fabio: 333G (6.0%, 3,172G)
twelfthrootoftwo: 300G (5.4%, 14,503G)
uwuslayer15: 212G (3.8%, 212G)
ko2q: 100G (1.8%, 4,255G)

blue bets:
BirbBrainsBot: 1,000G (24.4%, 170,114G)
ungabunga_bot: 646G (15.7%, 509,477G)
getthemoneyz: 452G (11.0%, 686,347G)
CorpusCav: 351G (8.6%, 4,351G)
SQUiDSQUARKLIN: 324G (7.9%, 324G)
gorgewall: 301G (7.3%, 8,978G)
joewcarson: 300G (7.3%, 4,408G)
JLinkletter: 200G (4.9%, 318G)
ar_tactic: 130G (3.2%, 45,164G)
Killing_Moon: 100G (2.4%, 104G)
Digitalsocrates: 100G (2.4%, 1,173G)
Evewho: 100G (2.4%, 14,362G)
zeando: 100G (2.4%, 2,097G)
