Final Bets: blue - 32 bets for 13,494G (32.1%, x2.11); champion - 23 bets for 28,508G (67.9%, x0.47)

blue bets:
BenYuPoker: 1,494G (11.1%, 2,989G)
ungabunga_bot: 1,000G (7.4%, 49,775G)
BirbBrainsBot: 1,000G (7.4%, 239,467G)
bad1dea: 1,000G (7.4%, 53,772G)
SkylerBunny: 1,000G (7.4%, 7,320G)
JackOnFire1: 869G (6.4%, 6,869G)
gooseyourself: 812G (6.0%, 1,594G)
YaBoy125: 673G (5.0%, 1,661G)
Lanshaft: 600G (4.4%, 1,869G)
Lodrak: 501G (3.7%, 34,514G)
kekkerscrew: 500G (3.7%, 6,395G)
NovaKnight21: 400G (3.0%, 4,393G)
RunicMagus: 350G (2.6%, 39,563G)
RRazza: 348G (2.6%, 348G)
DudeMonkey77: 304G (2.3%, 304G)
Evewho: 300G (2.2%, 2,387G)
ZephyrTempest: 284G (2.1%, 22,633G)
Arku_E: 250G (1.9%, 5,722G)
lunaticruin: 244G (1.8%, 1,904G)
dj_ghost_phrat: 232G (1.7%, 232G)
soapydragonfly: 224G (1.7%, 224G)
lijarkh: 200G (1.5%, 6,935G)
Maowiwowi: 104G (0.8%, 104G)
Tithonus: 100G (0.7%, 7,603G)
ApplesauceBoss: 100G (0.7%, 3,687G)
Bahamut64: 100G (0.7%, 8,168G)
carchan131: 100G (0.7%, 6,566G)
SeniorBunk: 100G (0.7%, 4,689G)
Langrisser: 100G (0.7%, 411G)
madming25: 100G (0.7%, 100G)
roofiepops: 100G (0.7%, 5,550G)
ko2q: 5G (0.0%, 1,417G)

champion bets:
HASTERIOUS: 16,745G (58.7%, 137,265G)
KingGoldenPanda: 3,000G (10.5%, 8,950G)
OneHundredFists: 1,729G (6.1%, 1,729G)
NoNotBees: 1,500G (5.3%, 6,953G)
Laserman1000: 600G (2.1%, 11,000G)
HaychDub: 600G (2.1%, 4,162G)
ugoplatamia: 530G (1.9%, 2,654G)
Shalloween: 500G (1.8%, 1,477G)
Vampire_Killer: 500G (1.8%, 4,823G)
urieltheflameofgod: 300G (1.1%, 1,753G)
DeathTaxesAndAnime: 300G (1.1%, 1,286G)
Rytor: 300G (1.1%, 7,767G)
AllInBot: 282G (1.0%, 282G)
b0shii: 250G (0.9%, 2,599G)
zepi_zza: 200G (0.7%, 4,720G)
DrAntiSocial: 200G (0.7%, 1,001G)
maichenambrai: 200G (0.7%, 7,037G)
fenaen: 200G (0.7%, 3,942G)
FoxtrotNovemberCharlie: 140G (0.5%, 140G)
JudgeSkrapz: 132G (0.5%, 1,326G)
datadrivenbot: 100G (0.4%, 20,567G)
Tougou: 100G (0.4%, 3,174G)
maakur_: 100G (0.4%, 4,545G)
