Final Bets: blue - 19 bets for 11,827G (74.4%, x0.34); yellow - 16 bets for 4,060G (25.6%, x2.91)

blue bets:
DohItAgain: 1,813G (15.3%, 1,813G)
Laserman1000: 1,600G (13.5%, 12,500G)
HaplessOne: 1,500G (12.7%, 47,485G)
ko2q: 1,055G (8.9%, 1,055G)
ColetteMSLP: 1,000G (8.5%, 31,171G)
datadrivenbot: 630G (5.3%, 16,078G)
Willjin: 600G (5.1%, 9,776G)
Webb_MD: 540G (4.6%, 540G)
thevilmen: 504G (4.3%, 504G)
arch8000: 451G (3.8%, 15,046G)
CapnChaos12: 436G (3.7%, 436G)
404namesnotfound: 424G (3.6%, 849G)
astrozin11: 328G (2.8%, 328G)
PlatinumPlume: 223G (1.9%, 18,687G)
DrAntiSocial: 200G (1.7%, 2,907G)
Jerboj: 200G (1.7%, 43,070G)
b0shii: 123G (1.0%, 1,268G)
Dymntd: 100G (0.8%, 100G)
twelfthrootoftwo: 100G (0.8%, 3,710G)

yellow bets:
ungabunga_bot: 652G (16.1%, 115,631G)
rocl: 500G (12.3%, 68,364G)
reinoe: 500G (12.3%, 23,738G)
DustBirdEX: 400G (9.9%, 4,200G)
HaateXIII: 360G (8.9%, 360G)
alrightbye: 250G (6.2%, 6,148G)
BirbBrainsBot: 248G (6.1%, 92,051G)
killth3kid: 244G (6.0%, 5,193G)
rico_flex: 200G (4.9%, 1,114G)
HASTERIOUS: 193G (4.8%, 1,937G)
DeathTaxesAndAnime: 150G (3.7%, 1,986G)
AllInBot: 100G (2.5%, 100G)
ApplesauceBoss: 100G (2.5%, 4,890G)
moonliquor: 100G (2.5%, 583G)
roofiepops: 55G (1.4%, 2,938G)
getthemoneyz: 8G (0.2%, 478,745G)
