Final Bets: green - 17 bets for 12,080G (72.2%, x0.39); yellow - 12 bets for 4,661G (27.8%, x2.59)

green bets:
Rislyeu: 3,729G (30.9%, 7,458G)
Riot_Jayway: 1,111G (9.2%, 193,164G)
CorpusCav: 1,001G (8.3%, 11,883G)
BirbBrainsBot: 1,000G (8.3%, 102,361G)
Digitalsocrates: 1,000G (8.3%, 3,718G)
Candina: 999G (8.3%, 75,920G)
Who_lio42: 500G (4.1%, 9,693G)
shs_: 500G (4.1%, 14,779G)
killth3kid: 500G (4.1%, 20,275G)
bruubarg: 400G (3.3%, 8,100G)
E_Ballard: 328G (2.7%, 328G)
kaelsun: 260G (2.2%, 260G)
CandyTamer: 252G (2.1%, 1,160G)
Flameatron: 200G (1.7%, 4,264G)
Evewho: 100G (0.8%, 3,311G)
ApplesauceBoss: 100G (0.8%, 5,418G)
datadrivenbot: 100G (0.8%, 29,037G)

yellow bets:
sinnyil2: 936G (20.1%, 936G)
pandasforsale: 666G (14.3%, 3,450G)
cloud92684: 500G (10.7%, 7,251G)
Meta_Five: 500G (10.7%, 16,864G)
nifboy: 500G (10.7%, 12,638G)
benticore: 400G (8.6%, 2,060G)
getthemoneyz: 306G (6.6%, 771,626G)
Mr_Greed029: 265G (5.7%, 265G)
KasugaiRoastedPeas: 200G (4.3%, 2,208G)
cogniv0r3: 187G (4.0%, 187G)
gorgewall: 101G (2.2%, 19,995G)
maakur_: 100G (2.1%, 6,877G)
