Final Bets: purple - 7 bets for 4,266G (28.6%, x2.50); brown - 15 bets for 10,663G (71.4%, x0.40)

purple bets:
OneHundredFists: 1,069G (25.1%, 29,365G)
getthemoneyz: 1,000G (23.4%, 2,170,150G)
YaBoy125: 609G (14.3%, 5,090G)
AllInBot: 528G (12.4%, 528G)
3ngag3: 436G (10.2%, 8,014G)
Chuckolator: 424G (9.9%, 424G)
FE34923: 200G (4.7%, 1,824G)

brown bets:
NicoSavoy: 2,270G (21.3%, 2,270G)
FatTunaKing: 2,000G (18.8%, 8,477G)
DeathTaxesAndAnime: 1,578G (14.8%, 3,095G)
CorpusCav: 1,500G (14.1%, 50,931G)
lowlf: 656G (6.2%, 8,161G)
b0lt: 619G (5.8%, 619G)
BirbBrainsBot: 430G (4.0%, 82,908G)
TheBrett: 284G (2.7%, 16,908G)
scsuperstar: 264G (2.5%, 264G)
2b_yorha_b: 250G (2.3%, 11,344G)
ValensEXP_: 200G (1.9%, 5,418G)
Genkidou: 200G (1.9%, 2,133G)
datadrivenbot: 200G (1.9%, 83,763G)
timidpimp11: 112G (1.1%, 112G)
AbandonedHall: 100G (0.9%, 943G)
