Final Bets: black - 12 bets for 29,560G (79.2%, x0.26); purple - 11 bets for 7,742G (20.8%, x3.82)

black bets:
reinoe: 10,000G (33.8%, 72,988G)
upvla: 5,831G (19.7%, 5,831G)
Snowfats: 5,214G (17.6%, 5,214G)
Zeroroute: 3,158G (10.7%, 5,838G)
solomongrundy85: 1,295G (4.4%, 1,295G)
BirbBrainsBot: 1,000G (3.4%, 15,096G)
Evewho: 1,000G (3.4%, 7,024G)
dantayystv: 1,000G (3.4%, 20,741G)
randgridr: 368G (1.2%, 1,876G)
loveyouallfriends: 250G (0.8%, 10,268G)
Treafa: 244G (0.8%, 1,579G)
datadrivenbot: 200G (0.7%, 29,510G)

purple bets:
HaateXIII: 5,090G (65.7%, 10,180G)
getthemoneyz: 500G (6.5%, 1,301,938G)
manc0_: 352G (4.5%, 352G)
ColetteMSLP: 300G (3.9%, 3,663G)
AND4H: 300G (3.9%, 9,106G)
TheMurkGnome: 300G (3.9%, 7,962G)
AllInBot: 200G (2.6%, 200G)
Blastinus: 200G (2.6%, 1,856G)
furrytomahawkk: 200G (2.6%, 2,171G)
MiseryKoss: 200G (2.6%, 624G)
DAC169: 100G (1.3%, 6,302G)
