Final Bets: red - 9 bets for 3,115G (13.1%, x6.62); blue - 22 bets for 20,607G (86.9%, x0.15)

red bets:
killth3kid: 1,002G (32.2%, 1,002G)
Aldrammech: 796G (25.6%, 796G)
PastelChum: 300G (9.6%, 960G)
OtherBrand: 296G (9.5%, 296G)
Seaweed_B: 248G (8.0%, 248G)
AllInBot: 200G (6.4%, 200G)
Chuckolator: 151G (4.8%, 6,249G)
ANFz: 100G (3.2%, 38,922G)
getthemoneyz: 22G (0.7%, 1,338,670G)

blue bets:
Shalloween: 10,000G (48.5%, 161,234G)
dogsandcatsand: 2,125G (10.3%, 2,125G)
NicoSavoy: 2,000G (9.7%, 259,957G)
Laserman1000: 1,100G (5.3%, 1,100G)
BirbBrainsBot: 1,000G (4.9%, 164,744G)
ruleof5: 603G (2.9%, 603G)
Nizaha: 564G (2.7%, 5,098G)
superdevon1: 484G (2.3%, 4,849G)
neocarbuncle: 367G (1.8%, 367G)
RageImmortaI: 304G (1.5%, 1,733G)
iBardic: 295G (1.4%, 295G)
Lord_Gwarth: 250G (1.2%, 881G)
latebit: 212G (1.0%, 212G)
gorgewall: 201G (1.0%, 16,290G)
kahjeethaswares: 200G (1.0%, 905G)
i2inchtomahawk: 200G (1.0%, 6,384G)
datadrivenbot: 200G (1.0%, 30,177G)
Klednar21: 136G (0.7%, 136G)
ohhinm: 122G (0.6%, 4,605G)
Miku_Shikhu: 100G (0.5%, 11,000G)
Heroebal: 100G (0.5%, 6,440G)
roofiepops: 44G (0.2%, 2,293G)
