Final Bets: blue - 10 bets for 4,880G (36.9%, x1.71); green - 13 bets for 8,358G (63.1%, x0.58)

blue bets:
GrauKhan: 1,492G (30.6%, 1,492G)
ruleof5: 823G (16.9%, 823G)
AllInBot: 657G (13.5%, 657G)
killth3kid: 476G (9.8%, 476G)
latebit: 446G (9.1%, 446G)
i2inchtomahawk: 300G (6.1%, 6,382G)
Lord_Gwarth: 250G (5.1%, 1,085G)
datadrivenbot: 200G (4.1%, 29,886G)
Klednar21: 136G (2.8%, 136G)
ANFz: 100G (2.0%, 38,762G)

green bets:
Nizaha: 1,639G (19.6%, 3,278G)
Shalloween: 1,500G (17.9%, 165,292G)
BirbBrainsBot: 1,000G (12.0%, 166,513G)
Thyrandaal: 1,000G (12.0%, 33,333G)
neocarbuncle: 787G (9.4%, 787G)
YaBoy125: 696G (8.3%, 696G)
ThreeMileIsland: 573G (6.9%, 573G)
benticore: 500G (6.0%, 28,568G)
iBardic: 200G (2.4%, 1,118G)
getthemoneyz: 140G (1.7%, 1,339,846G)
ohhinm: 123G (1.5%, 4,576G)
Miku_Shikhu: 100G (1.2%, 11,148G)
Heroebal: 100G (1.2%, 6,324G)
