Final Bets: blue - 20 bets for 17,517G (51.7%, x0.93); champion - 19 bets for 16,374G (48.3%, x1.07)

blue bets:
Lionhermit: 2,500G (14.3%, 52,524G)
Drusic: 2,000G (11.4%, 13,370G)
Kyune: 1,954G (11.2%, 1,954G)
sinnyil2: 1,200G (6.9%, 42,970G)
Rislyeu: 1,000G (5.7%, 2,000G)
SirCherish: 1,000G (5.7%, 17,368G)
EnemyController: 1,000G (5.7%, 236,734G)
Mesmaster: 1,000G (5.7%, 68,420G)
NicoSavoy: 1,000G (5.7%, 19,243G)
cupholderr: 1,000G (5.7%, 65,785G)
Evewho: 942G (5.4%, 942G)
metagameface: 733G (4.2%, 733G)
RollingWithNat20: 512G (2.9%, 512G)
Estan_AD: 476G (2.7%, 476G)
CapnChaos12: 300G (1.7%, 1,395G)
KasugaiRoastedPeas: 200G (1.1%, 2,482G)
Dexsana: 200G (1.1%, 1,229G)
otakutaylor: 200G (1.1%, 1,746G)
Anethum: 200G (1.1%, 2,363G)
datadrivenbot: 100G (0.6%, 14,469G)

champion bets:
Anomandaris__: 3,000G (18.3%, 5,809G)
theNGUYENNER: 2,000G (12.2%, 18,466G)
Digitalsocrates: 1,749G (10.7%, 3,498G)
SamaelMerihem: 1,666G (10.2%, 1,720G)
Strifu: 1,133G (6.9%, 1,133G)
Draconis345: 1,000G (6.1%, 74,402G)
ungabunga_bot: 1,000G (6.1%, 482,739G)
Dymntd: 1,000G (6.1%, 10,338G)
Arcblazer23: 840G (5.1%, 840G)
BirbBrainsBot: 798G (4.9%, 7,998G)
FaytKion: 500G (3.1%, 6,463G)
kaydinv: 400G (2.4%, 3,329G)
sukotsuto: 300G (1.8%, 6,455G)
benticore: 300G (1.8%, 3,393G)
twelfthrootoftwo: 300G (1.8%, 2,398G)
ScootyPff: 200G (1.2%, 2,152G)
ko2q: 100G (0.6%, 6,296G)
cougboi: 50G (0.3%, 11,520G)
getthemoneyz: 38G (0.2%, 673,291G)
