Final Bets: green - 15 bets for 9,944G (42.7%, x1.34); yellow - 10 bets for 13,354G (57.3%, x0.74)

green bets:
Thyrandaal: 2,222G (22.3%, 29,797G)
prince_rogers_nelson_: 1,329G (13.4%, 1,329G)
Chambs12: 1,013G (10.2%, 1,013G)
BirbBrainsBot: 1,000G (10.1%, 26,766G)
getthemoneyz: 1,000G (10.1%, 1,440,793G)
JumbocactuarX27: 1,000G (10.1%, 35,225G)
brenogarwin: 964G (9.7%, 964G)
SephDarkheart: 420G (4.2%, 14,790G)
holdenmagronik: 283G (2.8%, 283G)
datadrivenbot: 200G (2.0%, 46,356G)
Klednar21: 144G (1.4%, 144G)
OrganicArtist: 111G (1.1%, 794G)
PoroTact: 100G (1.0%, 5,969G)
jeffersonsa: 100G (1.0%, 256G)
ArlanKels: 58G (0.6%, 1,944G)

yellow bets:
NIghtdew14: 5,334G (39.9%, 35,565G)
mirapoix: 1,976G (14.8%, 1,976G)
coralreeferz: 1,250G (9.4%, 8,644G)
randgridr: 1,232G (9.2%, 1,232G)
amiture: 1,000G (7.5%, 45,820G)
DeathTaxesAndAnime: 796G (6.0%, 796G)
E_Ballard: 700G (5.2%, 700G)
AllInBot: 666G (5.0%, 666G)
maximumcrit: 300G (2.2%, 700G)
DouglasDragonThePoet: 100G (0.7%, 1,074G)
