Final Bets: red - 26 bets for 23,000G (71.5%, x0.40); blue - 16 bets for 9,179G (28.5%, x2.51)

red bets:
marin1987: 5,000G (21.7%, 11,519G)
EvilLego6: 3,044G (13.2%, 3,044G)
Lord_Burrah: 3,000G (13.0%, 73,000G)
HASTERIOUS: 1,366G (5.9%, 13,661G)
fenaen: 1,001G (4.4%, 54,701G)
JumbocactuarX27: 1,000G (4.3%, 10,527G)
getthemoneyz: 1,000G (4.3%, 569,794G)
EnemyController: 1,000G (4.3%, 77,943G)
superdevon1: 642G (2.8%, 642G)
reinoe: 600G (2.6%, 600G)
Phi_Sig: 555G (2.4%, 145,849G)
ko2q: 544G (2.4%, 544G)
volgrathemoose: 501G (2.2%, 9,943G)
lijarkh: 500G (2.2%, 17,073G)
Oreo_Pizza: 500G (2.2%, 7,588G)
CapnChaos12: 500G (2.2%, 51,245G)
SquidgyXom: 500G (2.2%, 5,105G)
Ross_from_Cali: 411G (1.8%, 8,249G)
feDoran: 400G (1.7%, 5,411G)
kai_shee: 400G (1.7%, 2,108G)
Crimefridge: 142G (0.6%, 142G)
Jerboj: 100G (0.4%, 54,877G)
datadrivenbot: 100G (0.4%, 1,365G)
jtbirdACC: 100G (0.4%, 3,815G)
LordMaxoss: 50G (0.2%, 3,340G)
daveb_: 44G (0.2%, 2,460G)

blue bets:
Zeroroute: 3,216G (35.0%, 5,790G)
BirbBrainsBot: 1,000G (10.9%, 156,770G)
Lavatis: 1,000G (10.9%, 3,970G)
AllInBot: 719G (7.8%, 719G)
TheChainNerd: 500G (5.4%, 2,361G)
HaateXIII: 500G (5.4%, 33,299G)
DustBirdEX: 416G (4.5%, 416G)
ungabunga_bot: 392G (4.3%, 218,421G)
Lanshaft: 364G (4.0%, 1,153G)
nifboy: 276G (3.0%, 6,912G)
nedryerson01: 244G (2.7%, 244G)
xYungAnarchyx: 200G (2.2%, 556G)
ZephyrTempest: 101G (1.1%, 181,842G)
Firesheath: 100G (1.1%, 10,406G)
Tougou: 100G (1.1%, 12,004G)
roqqqpsi: 51G (0.6%, 2,569G)
