Final Bets: white - 18 bets for 8,551G (29.6%, x2.38); black - 26 bets for 20,382G (70.4%, x0.42)

white bets:
Adam1949: 1,862G (21.8%, 30,862G)
marin1987: 1,201G (14.0%, 13,571G)
fenaen: 1,001G (11.7%, 54,103G)
braumbles: 1,000G (11.7%, 87,675G)
Bryon_W: 647G (7.6%, 647G)
Goust18: 500G (5.8%, 7,339G)
DustBirdEX: 416G (4.9%, 416G)
ungabunga_bot: 338G (4.0%, 218,208G)
EnemyController: 300G (3.5%, 78,627G)
daveb_: 255G (3.0%, 2,423G)
killth3kid: 204G (2.4%, 17,791G)
gorgewall: 200G (2.3%, 7,541G)
nedryerson01: 200G (2.3%, 244G)
AllInBot: 100G (1.2%, 100G)
Firesheath: 100G (1.2%, 10,363G)
datadrivenbot: 100G (1.2%, 1,462G)
Ross_from_Cali: 77G (0.9%, 8,340G)
DrAntiSocial: 50G (0.6%, 24,445G)

black bets:
HaateXIII: 2,500G (12.3%, 32,299G)
Zeroroute: 2,174G (10.7%, 4,041G)
Pie108: 2,000G (9.8%, 87,049G)
superdevon1: 1,410G (6.9%, 1,410G)
Lord_Burrah: 1,394G (6.8%, 75,394G)
Gelwain: 1,363G (6.7%, 1,363G)
HASTERIOUS: 1,361G (6.7%, 13,611G)
Lordminsc: 1,205G (5.9%, 51,376G)
BirbBrainsBot: 1,000G (4.9%, 154,770G)
JumbocactuarX27: 1,000G (4.9%, 9,926G)
roqqqpsi: 560G (2.7%, 2,547G)
TheGuesty: 500G (2.5%, 24,020G)
MrFlabyo: 500G (2.5%, 77,245G)
Cryptopsy70: 376G (1.8%, 24,309G)
Lanshaft: 364G (1.8%, 425G)
jtbirdACC: 350G (1.7%, 3,355G)
DudeMonkey77: 333G (1.6%, 10,349G)
SquidgyXom: 300G (1.5%, 5,105G)
getthemoneyz: 300G (1.5%, 570,121G)
feDoran: 300G (1.5%, 5,071G)
Lavatis: 300G (1.5%, 2,670G)
xYungAnarchyx: 204G (1.0%, 204G)
Nizaha: 201G (1.0%, 17,120G)
kai_shee: 186G (0.9%, 1,868G)
ZephyrTempest: 101G (0.5%, 181,799G)
DeathTaxesAndAnime: 100G (0.5%, 13,242G)
