Final Bets: brown - 14 bets for 5,727G (18.3%, x4.45); champion - 19 bets for 25,503G (81.7%, x0.22)

brown bets:
MrFlabyo: 2,000G (34.9%, 476,658G)
BirbBrainsBot: 1,000G (17.5%, 77,546G)
getthemoneyz: 544G (9.5%, 1,014,627G)
moony_dragonsol: 400G (7.0%, 1,000G)
benticore: 383G (6.7%, 7,667G)
BeyondWithinX: 200G (3.5%, 816G)
Magicandy: 200G (3.5%, 8,167G)
Evewho: 200G (3.5%, 5,470G)
SQUiDSQUARKLIN: 200G (3.5%, 7,334G)
Kronikle: 200G (3.5%, 7,589G)
CosmicTactician: 100G (1.7%, 11,634G)
mpghappiness: 100G (1.7%, 1,901G)
TheNiDDleR180: 100G (1.7%, 100G)
BlackfyreRoy: 100G (1.7%, 2,087G)

champion bets:
DuraiPapers: 4,500G (17.6%, 35,598G)
Baron_von_Scrub: 4,479G (17.6%, 4,479G)
joewcarson: 4,319G (16.9%, 4,319G)
powergems: 2,550G (10.0%, 22,272G)
roqqqpsi: 2,131G (8.4%, 19,373G)
Error72: 2,000G (7.8%, 17,561G)
roofiepops: 1,145G (4.5%, 1,145G)
ColetteMSLP: 1,112G (4.4%, 1,112G)
VolgraTheMoose: 938G (3.7%, 938G)
Nizaha: 501G (2.0%, 8,764G)
DustBirdEX: 456G (1.8%, 3,381G)
CapnChaos12: 300G (1.2%, 4,040G)
KyleWonToLiveForever: 300G (1.2%, 300G)
ZCKaiser: 200G (0.8%, 11,344G)
Grandlanzer: 200G (0.8%, 12,825G)
daveb_: 122G (0.5%, 2,538G)
Firesheath: 100G (0.4%, 2,701G)
datadrivenbot: 100G (0.4%, 47,050G)
IphoneDarkness: 50G (0.2%, 5,826G)
