Final Bets: green - 20 bets for 24,423G (75.1%, x0.33); yellow - 10 bets for 8,095G (24.9%, x3.02)

green bets:
reinoe: 10,000G (40.9%, 26,385G)
bruubarg: 5,000G (20.5%, 30,226G)
DeathTaxesAndAnime: 3,699G (15.1%, 7,253G)
Zeroroute: 809G (3.3%, 809G)
SephDarkheart: 600G (2.5%, 172,821G)
Lord_Gwarth: 555G (2.3%, 6,694G)
Smashy: 500G (2.0%, 4,169G)
thunderducker: 400G (1.6%, 9,258G)
highelectricaltemperature: 400G (1.6%, 2,373G)
soren_of_tyto: 396G (1.6%, 396G)
Lemonjohns: 364G (1.5%, 364G)
krombobreaker: 300G (1.2%, 3,260G)
WhiteTigress: 300G (1.2%, 6,428G)
Runeseeker22: 240G (1.0%, 2,172G)
arumz: 228G (0.9%, 228G)
datadrivenbot: 200G (0.8%, 65,276G)
BartTradingCompany: 124G (0.5%, 1,241G)
Sir_Jim_0f_Slim: 108G (0.4%, 108G)
moocaotao: 100G (0.4%, 1,935G)
ANFz: 100G (0.4%, 3,853G)

yellow bets:
dogsandcatsand: 1,500G (18.5%, 27,710G)
latebit: 1,500G (18.5%, 61,284G)
BirbBrainsBot: 1,000G (12.4%, 154,611G)
EnemyController: 1,000G (12.4%, 1,685,743G)
chokestomp: 983G (12.1%, 10,983G)
CT_5_Holy: 600G (7.4%, 600G)
run_with_stone_GUNs: 508G (6.3%, 6,520G)
getthemoneyz: 500G (6.2%, 1,786,716G)
Greggernaut: 351G (4.3%, 351G)
KittymanAdvance: 153G (1.9%, 153G)
