Final Bets: purple - 12 bets for 14,831G (56.0%, x0.78); brown - 15 bets for 11,631G (44.0%, x1.28)

purple bets:
Forkmore: 10,000G (67.4%, 85,603G)
reinoe: 2,000G (13.5%, 29,699G)
Lemonjohns: 674G (4.5%, 674G)
Smashy: 496G (3.3%, 4,035G)
arumz: 423G (2.9%, 423G)
Lord_Gwarth: 345G (2.3%, 6,545G)
krombobreaker: 300G (2.0%, 3,437G)
Runeseeker22: 140G (0.9%, 2,012G)
BartTradingCompany: 133G (0.9%, 1,332G)
KittymanAdvance: 120G (0.8%, 120G)
ANFz: 100G (0.7%, 3,925G)
RunicMagus: 100G (0.7%, 5,082G)

brown bets:
DeathTaxesAndAnime: 5,185G (44.6%, 10,167G)
EnemyController: 2,222G (19.1%, 1,683,966G)
BirbBrainsBot: 1,000G (8.6%, 152,611G)
highelectricaltemperature: 500G (4.3%, 2,406G)
bruubarg: 500G (4.3%, 33,835G)
fattunaking: 440G (3.8%, 440G)
getthemoneyz: 364G (3.1%, 1,785,696G)
WhiteTigress: 300G (2.6%, 6,722G)
Omally_: 212G (1.8%, 212G)
datadrivenbot: 200G (1.7%, 65,420G)
resjudicata3: 200G (1.7%, 12,139G)
AbandonedHall: 200G (1.7%, 3,545G)
Sir_Jim_0f_Slim: 108G (0.9%, 108G)
ko2q: 100G (0.9%, 4,023G)
moocaotao: 100G (0.9%, 1,868G)
