Final Bets: red - 16 bets for 16,056G (49.7%, x1.01); brown - 15 bets for 16,229G (50.3%, x0.99)

red bets:
bruubarg: 4,473G (27.9%, 34,473G)
EnemyController: 2,222G (13.8%, 1,686,923G)
Thyrandaal: 2,000G (12.5%, 23,702G)
latebit: 1,200G (7.5%, 59,642G)
BirbBrainsBot: 1,000G (6.2%, 154,944G)
Aldrammech: 1,000G (6.2%, 6,268G)
resjudicata3: 1,000G (6.2%, 12,394G)
timthehoodie: 819G (5.1%, 819G)
Smashy: 500G (3.1%, 3,745G)
BaronHaynes: 500G (3.1%, 71,382G)
reinoe: 500G (3.1%, 30,050G)
getthemoneyz: 242G (1.5%, 1,785,601G)
AbandonedHall: 200G (1.2%, 3,800G)
Zeroroute: 200G (1.2%, 200G)
RunicMagus: 100G (0.6%, 4,882G)
ANFz: 100G (0.6%, 3,866G)

brown bets:
DeathTaxesAndAnime: 8,559G (52.7%, 16,783G)
thunderducker: 3,000G (18.5%, 6,748G)
VolgraTheMoose: 2,001G (12.3%, 156,729G)
WhiteTigress: 500G (3.1%, 5,805G)
Omally_: 349G (2.2%, 349G)
highelectricaltemperature: 300G (1.8%, 3,514G)
Runeseeker22: 240G (1.5%, 2,687G)
krombobreaker: 200G (1.2%, 3,066G)
Vahn_Blade: 200G (1.2%, 18,821G)
datadrivenbot: 200G (1.2%, 65,604G)
ko2q: 199G (1.2%, 4,051G)
Sir_Jim_0f_Slim: 184G (1.1%, 184G)
moocaotao: 100G (0.6%, 1,961G)
nifboy: 100G (0.6%, 7,477G)
BartTradingCompany: 97G (0.6%, 972G)
