Final Bets: white - 8 bets for 2,815G (22.9%, x3.36); purple - 12 bets for 9,454G (77.1%, x0.30)

white bets:
Forkmore: 1,000G (35.5%, 2,712G)
coralreeferz: 528G (18.8%, 6,745G)
Eoika: 510G (18.1%, 5,108G)
skipsandwiches: 280G (9.9%, 280G)
WillFitzgerald: 222G (7.9%, 8,648G)
ArlanKels: 100G (3.6%, 1,016G)
douchetron: 100G (3.6%, 40,088G)
Aquios_: 75G (2.7%, 973G)

purple bets:
NIghtdew14: 3,000G (31.7%, 18,753G)
UmaiJam: 3,000G (31.7%, 60,121G)
BirbBrainsBot: 1,000G (10.6%, 139,308G)
Smashy: 500G (5.3%, 12,132G)
maximumcrit: 500G (5.3%, 12,484G)
RaIshtar: 312G (3.3%, 312G)
Rytor: 300G (3.2%, 3,338G)
AllInBot: 200G (2.1%, 200G)
LordTomS: 200G (2.1%, 5,956G)
datadrivenbot: 200G (2.1%, 50,128G)
getthemoneyz: 142G (1.5%, 1,476,700G)
Brainstew29: 100G (1.1%, 14,910G)
