Final Bets: purple - 8 bets for 3,949G (36.1%, x1.77); brown - 12 bets for 6,997G (63.9%, x0.56)

purple bets:
killth3kid: 1,000G (25.3%, 44,921G)
Lanshaft: 612G (15.5%, 18,405G)
SephDarkheart: 600G (15.2%, 134,358G)
maximumcrit: 500G (12.7%, 4,769G)
Lord_Gwarth: 500G (12.7%, 669G)
theBinklive: 397G (10.1%, 397G)
Finalagon: 240G (6.1%, 831G)
AllInBot: 100G (2.5%, 100G)

brown bets:
SkylerBunny: 2,000G (28.6%, 7,349G)
latebit: 1,301G (18.6%, 1,301G)
BirbBrainsBot: 1,000G (14.3%, 130,954G)
Forkmore: 592G (8.5%, 1,923G)
Tecc2: 500G (7.1%, 4,000G)
Lemonjohns: 420G (6.0%, 10,315G)
triniculo: 300G (4.3%, 300G)
DAC169: 200G (2.9%, 2,969G)
datadrivenbot: 200G (2.9%, 61,392G)
DeathTaxesAndAnime: 200G (2.9%, 2,322G)
getthemoneyz: 184G (2.6%, 1,704,451G)
CosmicTactician: 100G (1.4%, 36,542G)
