Final Bets: blue - 18 bets for 12,871G (75.8%, x0.32); white - 5 bets for 4,116G (24.2%, x3.13)

blue bets:
Zeroroute: 2,409G (18.7%, 2,409G)
HaateXIII: 1,474G (11.5%, 1,474G)
latebit: 1,440G (11.2%, 1,440G)
ColetteMSLP: 1,000G (7.8%, 26,608G)
BirbBrainsBot: 1,000G (7.8%, 129,734G)
Thyrandaal: 1,000G (7.8%, 28,011G)
triniculo: 969G (7.5%, 969G)
Tarheels218: 816G (6.3%, 816G)
Lanshaft: 616G (4.8%, 17,685G)
maximumcrit: 500G (3.9%, 5,845G)
getthemoneyz: 368G (2.9%, 1,704,963G)
flacococo: 276G (2.1%, 276G)
Finalagon: 220G (1.7%, 1,412G)
neocarbuncle: 210G (1.6%, 2,316G)
datadrivenbot: 200G (1.6%, 62,052G)
Lifebregin: 161G (1.3%, 13,461G)
Docrad_: 112G (0.9%, 1,412G)
AllInBot: 100G (0.8%, 100G)

white bets:
SkylerBunny: 2,000G (48.6%, 7,305G)
Lemonjohns: 1,000G (24.3%, 12,033G)
theBinklive: 716G (17.4%, 716G)
WhiteTigress: 300G (7.3%, 9,580G)
SephDarkheart: 100G (2.4%, 135,545G)
