Final Bets: white - 14 bets for 6,150G (35.5%, x1.82); purple - 14 bets for 11,198G (64.5%, x0.55)

white bets:
rechaun: 1,538G (25.0%, 1,538G)
Aldrammech: 1,000G (16.3%, 28,920G)
argentbast: 761G (12.4%, 761G)
serperemagus: 700G (11.4%, 1,864G)
Zetchryn: 360G (5.9%, 360G)
DrAntiSocial: 300G (4.9%, 300G)
lanouh: 279G (4.5%, 279G)
nifboy: 250G (4.1%, 13,049G)
letdowncity: 250G (4.1%, 10,491G)
TeaTime29: 200G (3.3%, 3,908G)
WunUP: 184G (3.0%, 184G)
zepharoth89: 128G (2.1%, 128G)
Firesheath: 100G (1.6%, 3,331G)
datadrivenbot: 100G (1.6%, 25,926G)

purple bets:
sinnyil2: 4,337G (38.7%, 8,675G)
toka222: 1,500G (13.4%, 77,104G)
AlenaZarek: 1,000G (8.9%, 40,289G)
BirbBrainsBot: 1,000G (8.9%, 14,268G)
Candina: 666G (5.9%, 86,510G)
Phi_Sig: 555G (5.0%, 147,256G)
frozentomato: 500G (4.5%, 5,099G)
Xcessive30: 500G (4.5%, 11,762G)
bruubarg: 300G (2.7%, 718G)
benticore: 250G (2.2%, 2,269G)
daveb_: 200G (1.8%, 5,410G)
getthemoneyz: 190G (1.7%, 750,335G)
AllInBot: 100G (0.9%, 100G)
CosmicTactician: 100G (0.9%, 6,415G)
