Final Bets: blue - 12 bets for 17,267G (72.9%, x0.37); white - 12 bets for 6,415G (27.1%, x2.69)

blue bets:
reinoe: 5,000G (29.0%, 81,949G)
Firesheath: 4,062G (23.5%, 4,062G)
Mesmaster: 3,000G (17.4%, 66,243G)
BaronHaynes: 1,298G (7.5%, 31,298G)
RagequitSA: 1,000G (5.8%, 3,762G)
HaateXIII: 836G (4.8%, 836G)
thunderducker: 452G (2.6%, 452G)
iBardic: 439G (2.5%, 439G)
fattunaking: 428G (2.5%, 428G)
Lifebregin: 400G (2.3%, 5,000G)
MemoriesofFinal: 244G (1.4%, 244G)
krombobreaker: 108G (0.6%, 108G)

white bets:
latebit: 1,100G (17.1%, 4,370G)
JCBooBot: 1,000G (15.6%, 42,776G)
BirbBrainsBot: 1,000G (15.6%, 92,126G)
Laserman1000: 937G (14.6%, 18,937G)
Kronikle: 588G (9.2%, 4,082G)
Lythe_Caraker: 500G (7.8%, 164,367G)
ColetteMSLP: 400G (6.2%, 3,558G)
getthemoneyz: 278G (4.3%, 1,762,339G)
AllInBot: 251G (3.9%, 251G)
PuzzleSecretary: 160G (2.5%, 1,846G)
gorgewall: 101G (1.6%, 3,241G)
Leonidusx: 100G (1.6%, 1,022G)
