Final Bets: red - 11 bets for 16,827G (82.0%, x0.22); black - 5 bets for 3,702G (18.0%, x4.55)

red bets:
NicoSavoy: 11,164G (66.3%, 372,144G)
DamnThatShark: 1,153G (6.9%, 1,153G)
sinnyil2: 1,032G (6.1%, 1,032G)
gorgewall: 748G (4.4%, 748G)
Chuckolator: 708G (4.2%, 9,568G)
prince_rogers_nelson_: 600G (3.6%, 600G)
ruleof5: 500G (3.0%, 10,799G)
randgridr: 500G (3.0%, 3,922G)
AllInBot: 200G (1.2%, 200G)
datadrivenbot: 200G (1.2%, 47,594G)
dtrain332: 22G (0.1%, 2,220G)

black bets:
superdevon1: 1,284G (34.7%, 42,804G)
douchetron: 1,136G (30.7%, 1,136G)
BirbBrainsBot: 1,000G (27.0%, 121,347G)
getthemoneyz: 182G (4.9%, 1,399,319G)
poGpopE: 100G (2.7%, 14,018G)
