Final Bets: white - 14 bets for 16,982G (69.9%, x0.43); champion - 14 bets for 7,307G (30.1%, x2.32)

white bets:
HaateXIII: 7,483G (44.1%, 7,483G)
EnemyController: 3,333G (19.6%, 1,404,076G)
Zeroroute: 2,202G (13.0%, 2,202G)
BirbBrainsBot: 1,000G (5.9%, 84,626G)
killth3kid: 824G (4.9%, 82,406G)
silentkaster: 500G (2.9%, 18,302G)
furrytomahawkk: 481G (2.8%, 481G)
roqqqpsi: 393G (2.3%, 39,338G)
randgridr: 292G (1.7%, 292G)
Mysteriousdewd: 200G (1.2%, 2,384G)
nhammen: 100G (0.6%, 6,186G)
ANFz: 100G (0.6%, 41,037G)
Vultuous: 50G (0.3%, 5,899G)
getthemoneyz: 24G (0.1%, 1,270,678G)

champion bets:
DeathTaxesAndAnime: 1,796G (24.6%, 3,523G)
evdoggity: 1,000G (13.7%, 88,451G)
nsm013: 1,000G (13.7%, 12,085G)
Laserman1000: 900G (12.3%, 37,100G)
ACSpree: 400G (5.5%, 1,209G)
Breakdown777: 390G (5.3%, 390G)
KyleWonToLiveForever: 372G (5.1%, 372G)
dogsandcatsand: 327G (4.5%, 642G)
Shalloween: 300G (4.1%, 53,243G)
TasisSai: 280G (3.8%, 280G)
datadrivenbot: 200G (2.7%, 64,165G)
WillFitzgerald: 142G (1.9%, 2,840G)
AndrewAlexander141: 100G (1.4%, 1,000G)
lastly: 100G (1.4%, 31,287G)
