Final Bets: red - 11 bets for 7,501G (71.2%, x0.40); blue - 9 bets for 3,028G (28.8%, x2.48)

red bets:
prince_rogers_nelson_: 1,811G (24.1%, 1,811G)
pepperbuster: 1,000G (13.3%, 32,417G)
BirbBrainsBot: 1,000G (13.3%, 12,978G)
getthemoneyz: 1,000G (13.3%, 1,964,754G)
AllInBot: 822G (11.0%, 822G)
Raixelol: 600G (8.0%, 4,597G)
dem0nj0ns: 420G (5.6%, 6,219G)
peeronid: 300G (4.0%, 1,414G)
Songdeh: 248G (3.3%, 248G)
datadrivenbot: 200G (2.7%, 62,478G)
Mushufasa_: 100G (1.3%, 48,551G)

blue bets:
NovaKnight21: 824G (27.2%, 824G)
dogsandcatsand: 640G (21.1%, 24,763G)
rocl: 420G (13.9%, 6,900G)
3ngag3: 344G (11.4%, 14,954G)
ColetteMSLP: 300G (9.9%, 8,266G)
MemoriesofFinal: 200G (6.6%, 28,545G)
BartTradingCompany: 100G (3.3%, 10,443G)
VolgraTheMoose: 100G (3.3%, 4,385G)
victoriolue: 100G (3.3%, 93,844G)
