Final Bets: purple - 11 bets for 15,598G (61.0%, x0.64); brown - 18 bets for 9,967G (39.0%, x1.56)

purple bets:
Jeeboheebo: 6,979G (44.7%, 6,979G)
TheRobbieRobster: 3,829G (24.5%, 3,829G)
kingchadking: 2,125G (13.6%, 2,125G)
ForagerCats: 768G (4.9%, 768G)
jethrothrul: 520G (3.3%, 520G)
megaman2202: 372G (2.4%, 372G)
Bryon_W: 300G (1.9%, 2,134G)
ShintaroNayaka: 300G (1.9%, 2,719G)
rechaun: 296G (1.9%, 296G)
saltcraft2: 104G (0.7%, 104G)
ko2q: 5G (0.0%, 1,471G)

brown bets:
SeedSC: 2,200G (22.1%, 119,927G)
mirapoix: 1,473G (14.8%, 1,473G)
BirbBrainsBot: 1,000G (10.0%, 133,701G)
bad1dea: 1,000G (10.0%, 348,073G)
superdevon1: 697G (7.0%, 3,486G)
roqqqpsi: 583G (5.8%, 583G)
DeathTaxesAndAnime: 504G (5.1%, 504G)
powergems: 500G (5.0%, 5,374G)
DaveStrider55: 436G (4.4%, 436G)
PatSouI: 328G (3.3%, 328G)
getthemoneyz: 292G (2.9%, 402,815G)
mayormcfunbags: 243G (2.4%, 243G)
ugoplatamia: 200G (2.0%, 24,689G)
LuckyLuckLuc2: 111G (1.1%, 42,756G)
AllInBot: 100G (1.0%, 100G)
Lali_Lulelo: 100G (1.0%, 2,951G)
datadrivenbot: 100G (1.0%, 14,419G)
Tithonus: 100G (1.0%, 7,873G)
