Final Bets: white - 16 bets for 14,073G (65.2%, x0.53); black - 16 bets for 7,505G (34.8%, x1.88)

white bets:
mayfu: 2,400G (17.1%, 37,505G)
AllInBot: 2,191G (15.6%, 2,191G)
ig_ats: 1,684G (12.0%, 1,684G)
Shalloween: 1,400G (9.9%, 101,680G)
urieltheflameofgod: 1,152G (8.2%, 1,152G)
RunicMagus: 1,000G (7.1%, 45,872G)
WoooBlaaa: 828G (5.9%, 1,381G)
fenixcrest: 691G (4.9%, 6,915G)
Aldrammech: 600G (4.3%, 600G)
Lanshaft: 600G (4.3%, 12,034G)
arch8000: 531G (3.8%, 10,629G)
fenaen: 396G (2.8%, 396G)
robespyah: 250G (1.8%, 11,185G)
SeniorBunk: 150G (1.1%, 2,368G)
lastly: 100G (0.7%, 582G)
datadrivenbot: 100G (0.7%, 19,698G)

black bets:
JustSuperish: 1,060G (14.1%, 1,060G)
soapydragonfly: 1,000G (13.3%, 5,863G)
ungabunga_bot: 1,000G (13.3%, 29,845G)
DejaPoo21: 1,000G (13.3%, 12,430G)
jethrothrul: 715G (9.5%, 715G)
AlenaZarek: 500G (6.7%, 3,356G)
ko2q: 352G (4.7%, 352G)
Lordminsc: 300G (4.0%, 14,932G)
DudeMonkey77: 300G (4.0%, 300G)
bad1dea: 300G (4.0%, 44,123G)
catfashions: 284G (3.8%, 284G)
Justice0320: 250G (3.3%, 3,159G)
getthemoneyz: 200G (2.7%, 441,097G)
byrdturbo: 111G (1.5%, 5,349G)
ass_brains: 100G (1.3%, 2,640G)
BirbBrainsBot: 33G (0.4%, 224,107G)
