Final Bets: red - 4 bets for 3,073G (27.8%, x2.59); yellow - 7 bets for 7,967G (72.2%, x0.39)

red bets:
YaBoy125: 2,666G (86.8%, 5,332G)
hiros13gts: 200G (6.5%, 1,003G)
superdevon1: 129G (4.2%, 2,584G)
getthemoneyz: 78G (2.5%, 1,216,831G)

yellow bets:
DamnThatShark: 3,388G (42.5%, 3,388G)
Evewho: 1,348G (16.9%, 1,348G)
helpimabug: 1,219G (15.3%, 2,439G)
BirbBrainsBot: 1,000G (12.6%, 121,194G)
reinoe: 500G (6.3%, 48,795G)
enkikavlar: 312G (3.9%, 312G)
datadrivenbot: 200G (2.5%, 56,880G)
