Final Bets: black - 13 bets for 10,058G (37.3%, x1.68); champion - 21 bets for 16,922G (62.7%, x0.59)

black bets:
actual_JP: 5,448G (54.2%, 5,448G)
Thyrandaal: 1,000G (9.9%, 3,972G)
RampagingRobot: 639G (6.4%, 3,139G)
Laserman1000: 576G (5.7%, 25,576G)
DamnThatShark: 500G (5.0%, 1,539G)
Evewho: 500G (5.0%, 4,990G)
DeathTaxesAndAnime: 400G (4.0%, 1,640G)
AO110893: 300G (3.0%, 3,145G)
DustBirdEX: 234G (2.3%, 3,521G)
megamax667: 231G (2.3%, 8,231G)
victoriolue: 100G (1.0%, 4,041G)
benticore: 100G (1.0%, 3,801G)
getthemoneyz: 30G (0.3%, 1,180,501G)

champion bets:
Breakdown777: 4,308G (25.5%, 8,617G)
Lord_Burrah: 2,000G (11.8%, 79,000G)
Eoika: 1,651G (9.8%, 1,651G)
Draconis345: 1,000G (5.9%, 45,914G)
g1nger4le: 1,000G (5.9%, 3,007G)
fenixcrest: 1,000G (5.9%, 15,784G)
BirbBrainsBot: 867G (5.1%, 24,394G)
ShintaroNayaka: 620G (3.7%, 620G)
Linkn: 500G (3.0%, 16,344G)
safira125: 500G (3.0%, 2,147G)
Grandlanzer: 500G (3.0%, 51,102G)
alekzanndrr: 500G (3.0%, 1,902G)
Lanshaft: 460G (2.7%, 6,689G)
ColetteMSLP: 400G (2.4%, 7,937G)
beowulfrulez: 312G (1.8%, 312G)
ThreeMileIsland: 304G (1.8%, 304G)
ZCKaiser: 300G (1.8%, 3,060G)
klefelix: 300G (1.8%, 1,049G)
biffcake01: 200G (1.2%, 1,693G)
Miku_Shikhu: 100G (0.6%, 11,661G)
danielrogercardoso: 100G (0.6%, 100G)
