Final Bets: purple - 3 bets for 604G (17.9%, x4.59); champion - 5 bets for 2,774G (82.1%, x0.22)

purple bets:
AllInBot: 304G (50.3%, 304G)
datadrivenbot: 200G (33.1%, 59,075G)
MinBetBot: 100G (16.6%, 21,091G)

champion bets:
gorgewall: 1,001G (36.1%, 4,623G)
Mesmaster: 608G (21.9%, 608G)
getthemoneyz: 520G (18.7%, 1,615,653G)
BirbBrainsBot: 445G (16.0%, 49,578G)
Tarheels218: 200G (7.2%, 11,612G)
