Final Bets: green - 11 bets for 24,709G (66.3%, x0.51); purple - 15 bets for 12,549G (33.7%, x1.97)

green bets:
SkylerBunny: 20,000G (80.9%, 229,532G)
evontno: 1,684G (6.8%, 1,684G)
DeathTaxesAndAnime: 1,008G (4.1%, 1,008G)
VolgraTheMoose: 501G (2.0%, 7,244G)
TasisSai: 500G (2.0%, 20,622G)
AllInBot: 311G (1.3%, 311G)
CorpusCav: 300G (1.2%, 4,923G)
puls3evo: 104G (0.4%, 104G)
ANFz: 101G (0.4%, 45,101G)
MinBetBot: 100G (0.4%, 17,627G)
Tarheels218: 100G (0.4%, 1,095G)

purple bets:
grininda: 5,000G (39.8%, 11,297G)
mattcorn7: 1,647G (13.1%, 3,295G)
douchetron: 1,338G (10.7%, 1,338G)
BirbBrainsBot: 1,000G (8.0%, 135,560G)
Zeroroute: 932G (7.4%, 932G)
foxfaeez: 500G (4.0%, 34,198G)
ruleof5: 500G (4.0%, 7,323G)
itskage: 286G (2.3%, 2,869G)
roqqqpsi: 262G (2.1%, 276G)
Ayntlerz: 250G (2.0%, 2,793G)
Drusiform: 240G (1.9%, 240G)
TheDeeyo: 200G (1.6%, 2,233G)
datadrivenbot: 200G (1.6%, 53,635G)
Miku_Shikhu: 100G (0.8%, 1,809G)
getthemoneyz: 94G (0.7%, 1,563,470G)
