Final Bets: white - 9 bets for 6,216G (38.3%, x1.61); black - 11 bets for 10,005G (61.7%, x0.62)

white bets:
reinoe: 2,000G (32.2%, 10,948G)
Lydian_C: 1,285G (20.7%, 2,521G)
NovaKnight21: 1,156G (18.6%, 1,156G)
getthemoneyz: 812G (13.1%, 937,365G)
reddwind_: 312G (5.0%, 312G)
Lythe_Caraker: 250G (4.0%, 114,884G)
gorgewall: 201G (3.2%, 21,406G)
AllInBot: 100G (1.6%, 100G)
datadrivenbot: 100G (1.6%, 37,570G)

black bets:
KasugaiRoastedPeas: 2,146G (21.4%, 2,146G)
Mesmaster: 2,000G (20.0%, 120,942G)
mr_kindaro: 1,000G (10.0%, 6,153G)
Evewho: 1,000G (10.0%, 16,648G)
BirbBrainsBot: 1,000G (10.0%, 179,213G)
Rislyeu: 1,000G (10.0%, 49,517G)
JRHiga: 509G (5.1%, 509G)
superdevon1: 500G (5.0%, 500G)
prince_rogers_nelson_: 500G (5.0%, 26,141G)
Quadh0nk: 250G (2.5%, 722G)
E_Ballard: 100G (1.0%, 8,061G)
