Final Bets: purple - 6 bets for 3,183G (18.0%, x4.54); brown - 14 bets for 14,463G (82.0%, x0.22)

purple bets:
ColetteMSLP: 1,000G (31.4%, 24,323G)
windsah: 1,000G (31.4%, 7,344G)
E_Ballard: 732G (23.0%, 732G)
AllInBot: 253G (7.9%, 253G)
CIairebear: 100G (3.1%, 2,642G)
getthemoneyz: 98G (3.1%, 1,451,635G)

brown bets:
reinoe: 5,000G (34.6%, 119,280G)
randgridr: 2,330G (16.1%, 4,661G)
UmaiJam: 2,000G (13.8%, 49,231G)
NotBalrog: 1,000G (6.9%, 15,347G)
BirbBrainsBot: 1,000G (6.9%, 61,475G)
Thyrandaal: 1,000G (6.9%, 90,156G)
fluffskull: 620G (4.3%, 620G)
douchetron: 561G (3.9%, 561G)
Forkmore: 252G (1.7%, 252G)
Evewho: 200G (1.4%, 2,894G)
datadrivenbot: 200G (1.4%, 45,384G)
CosmicTactician: 100G (0.7%, 27,319G)
DouglasDragonThePoet: 100G (0.7%, 2,552G)
EmmaEnema: 100G (0.7%, 755G)
