Final Bets: white - 23 bets for 20,457G (74.1%, x0.35); black - 24 bets for 7,134G (25.9%, x2.87)

white bets:
DaMadPanda182: 5,000G (24.4%, 25,000G)
Lionhermit: 2,500G (12.2%, 32,095G)
sinnyil2: 2,316G (11.3%, 4,633G)
ACSpree: 2,057G (10.1%, 2,057G)
fenaen: 1,500G (7.3%, 66,518G)
volgrathemoose: 1,001G (4.9%, 22,309G)
BirbBrainsBot: 1,000G (4.9%, 95,503G)
Laserman1000: 800G (3.9%, 62,500G)
Aldrammech: 600G (2.9%, 600G)
HaplessOne: 555G (2.7%, 9,999G)
Dexsana: 509G (2.5%, 509G)
killth3kid: 500G (2.4%, 39,133G)
luminarii: 500G (2.4%, 20,087G)
ungabunga_bot: 273G (1.3%, 274,994G)
haigy: 250G (1.2%, 1,234G)
BoneMiser: 200G (1.0%, 9,426G)
itsonlyspencer: 200G (1.0%, 1,166G)
ar_tactic: 150G (0.7%, 29,961G)
AllInBot: 146G (0.7%, 146G)
Dymntd: 100G (0.5%, 10,775G)
Bioticism: 100G (0.5%, 428G)
nifboy: 100G (0.5%, 4,075G)
EnemyController: 100G (0.5%, 157,833G)

black bets:
DejaPoo21: 1,000G (14.0%, 19,064G)
MantisFinch: 1,000G (14.0%, 23,250G)
getthemoneyz: 554G (7.8%, 603,324G)
ANFz: 500G (7.0%, 14,312G)
Estan_AD: 500G (7.0%, 4,389G)
Chrysaors: 471G (6.6%, 47,111G)
Cryptopsy70: 380G (5.3%, 33,095G)
joewcarson: 372G (5.2%, 372G)
SQUiDSQUARKLIN: 252G (3.5%, 252G)
midori_ribbon: 228G (3.2%, 228G)
twelfthrootoftwo: 200G (2.8%, 992G)
LivingHitokiri: 200G (2.8%, 2,467G)
vorap: 200G (2.8%, 18,223G)
nedryerson01: 200G (2.8%, 1,602G)
Sans_from_Snowdin: 156G (2.2%, 156G)
WrathfulRemy: 112G (1.6%, 112G)
saucy_wings: 108G (1.5%, 108G)
ZephyrTempest: 101G (1.4%, 2,644G)
Sykper: 100G (1.4%, 150G)
lijarkh: 100G (1.4%, 889G)
Lythe_Caraker: 100G (1.4%, 113,193G)
maakur_: 100G (1.4%, 110,713G)
datadrivenbot: 100G (1.4%, 8,773G)
Tougou: 100G (1.4%, 11,580G)
