Final Bets: purple - 16 bets for 8,590G (21.1%, x3.73); brown - 30 bets for 32,068G (78.9%, x0.27)

purple bets:
Jeeboheebo: 1,562G (18.2%, 1,562G)
fenaen: 1,500G (17.5%, 67,541G)
Realitydown: 1,263G (14.7%, 1,263G)
ACSpree: 1,000G (11.6%, 3,774G)
Aldrammech: 809G (9.4%, 809G)
killth3kid: 500G (5.8%, 39,307G)
ZephyrTempest: 400G (4.7%, 3,043G)
rjA0zcOQ96: 300G (3.5%, 37,482G)
itsonlyspencer: 236G (2.7%, 236G)
getthemoneyz: 214G (2.5%, 602,770G)
LivingHitokiri: 200G (2.3%, 2,267G)
Sans_from_Snowdin: 156G (1.8%, 156G)
haigy: 150G (1.7%, 1,821G)
twelfthrootoftwo: 100G (1.2%, 1,292G)
Bioticism: 100G (1.2%, 463G)
geglash: 100G (1.2%, 1,599G)

brown bets:
BoneMiser: 10,496G (32.7%, 10,496G)
sinnyil2: 2,720G (8.5%, 5,441G)
DejaPoo21: 2,000G (6.2%, 18,064G)
itzover9001: 1,660G (5.2%, 1,660G)
roofiepops: 1,400G (4.4%, 4,747G)
Dexsana: 1,187G (3.7%, 1,187G)
HaplessOne: 1,111G (3.5%, 10,697G)
volgrathemoose: 1,001G (3.1%, 22,658G)
ungabunga_bot: 1,000G (3.1%, 275,089G)
BirbBrainsBot: 1,000G (3.1%, 95,852G)
Estan_AD: 1,000G (3.1%, 4,889G)
JumbocactuarX27: 1,000G (3.1%, 12,951G)
MantisFinch: 1,000G (3.1%, 22,750G)
DaMadPanda182: 744G (2.3%, 26,744G)
midori_ribbon: 728G (2.3%, 728G)
luminarii: 567G (1.8%, 20,761G)
vorap: 500G (1.6%, 18,523G)
Tougou: 500G (1.6%, 11,480G)
Chrysaors: 471G (1.5%, 47,140G)
TheManInPlaid: 444G (1.4%, 2,381G)
joewcarson: 372G (1.2%, 372G)
Lythe_Caraker: 250G (0.8%, 113,593G)
AllInBot: 197G (0.6%, 197G)
WrathfulRemy: 112G (0.3%, 112G)
saucy_wings: 108G (0.3%, 108G)
Dymntd: 100G (0.3%, 10,810G)
Sykper: 100G (0.3%, 104G)
maakur_: 100G (0.3%, 111,113G)
datadrivenbot: 100G (0.3%, 8,673G)
EnemyController: 100G (0.3%, 158,368G)
