Final Bets: red - 10 bets for 3,259G (61.4%, x0.63); green - 3 bets for 2,050G (38.6%, x1.59)

red bets:
BirbBrainsBot: 1,000G (30.7%, 48,979G)
ko2q: 627G (19.2%, 627G)
letdowncity: 516G (15.8%, 24,520G)
AllInBot: 200G (6.1%, 200G)
datadrivenbot: 200G (6.1%, 59,414G)
TheDeeyo: 200G (6.1%, 893G)
Blaze0772: 166G (5.1%, 166G)
arctodus13: 150G (4.6%, 2,236G)
MinBetBot: 100G (3.1%, 20,910G)
CosmicTactician: 100G (3.1%, 8,508G)

green bets:
NIghtdew14: 1,500G (73.2%, 15,499G)
dogsandcatsand: 544G (26.5%, 544G)
getthemoneyz: 6G (0.3%, 1,616,017G)
