Final Bets: green - 10 bets for 8,254G (56.7%, x0.76); yellow - 7 bets for 6,291G (43.3%, x1.31)

green bets:
NovaKnight21: 2,365G (28.7%, 2,365G)
upvla: 2,000G (24.2%, 4,319G)
BirbBrainsBot: 1,000G (12.1%, 148,946G)
nifboy: 844G (10.2%, 8,707G)
Mesmaster: 788G (9.5%, 788G)
seppu777: 464G (5.6%, 464G)
3ngag3: 293G (3.5%, 6,293G)
Palladigm: 200G (2.4%, 9,213G)
datadrivenbot: 200G (2.4%, 75,024G)
AbandonedHall: 100G (1.2%, 3,440G)

yellow bets:
mindblownnnn: 3,000G (47.7%, 24,673G)
MemoriesofFinal: 1,000G (15.9%, 67,103G)
Neech: 961G (15.3%, 961G)
getthemoneyz: 508G (8.1%, 2,066,010G)
ser_pyrro: 400G (6.4%, 2,452G)
Genkidou: 222G (3.5%, 2,458G)
AllInBot: 200G (3.2%, 200G)
