Final Bets: green - 17 bets for 7,695G (35.2%, x1.84); yellow - 19 bets for 14,179G (64.8%, x0.54)

green bets:
MynenARS: 1,296G (16.8%, 1,296G)
BirbBrainsBot: 1,000G (13.0%, 151,540G)
JumbocactuarX27: 1,000G (13.0%, 4,737G)
SquidgyXom: 732G (9.5%, 732G)
getthemoneyz: 644G (8.4%, 566,775G)
Squasian: 600G (7.8%, 600G)
daveb_: 500G (6.5%, 2,067G)
sukotsuto: 373G (4.8%, 373G)
Tithonus: 304G (4.0%, 304G)
PetitFoulard: 232G (3.0%, 232G)
Nizaha: 201G (2.6%, 12,364G)
rico_flex: 200G (2.6%, 17,443G)
nifboy: 159G (2.1%, 3,996G)
GenieMilenko: 154G (2.0%, 154G)
AllInBot: 100G (1.3%, 100G)
joewcarson: 100G (1.3%, 4,910G)
SQUiDSQUARKLIN: 100G (1.3%, 3,181G)

yellow bets:
kai_shee: 2,000G (14.1%, 124,693G)
Pie108: 2,000G (14.1%, 72,918G)
Zeroroute: 1,958G (13.8%, 1,958G)
Lordminsc: 1,205G (8.5%, 49,123G)
sinnyil2: 1,200G (8.5%, 80,202G)
fenaen: 1,001G (7.1%, 39,542G)
TheChainNerd: 1,000G (7.1%, 3,353G)
ShintaroNayaka: 1,000G (7.1%, 17,215G)
CapnSauce420: 608G (4.3%, 608G)
superdevon1: 600G (4.2%, 3,581G)
baconbacon1207: 400G (2.8%, 19,849G)
marin1987: 300G (2.1%, 4,456G)
killth3kid: 204G (1.4%, 16,289G)
Primeval_33: 200G (1.4%, 1,677G)
ungabunga_bot: 102G (0.7%, 220,698G)
ZephyrTempest: 101G (0.7%, 177,979G)
MeleeWizard: 100G (0.7%, 2,277G)
Bongomon7: 100G (0.7%, 4,746G)
datadrivenbot: 100G (0.7%, 501G)
