Final Bets: blue - 9 bets for 5,761G (57.9%, x0.73); champion - 9 bets for 4,185G (42.1%, x1.38)

blue bets:
Evewho: 1,445G (25.1%, 2,834G)
HASTERIOUS: 1,236G (21.5%, 1,236G)
BirbBrainsBot: 1,000G (17.4%, 157,932G)
bruubarg: 927G (16.1%, 927G)
solomongrundy85: 500G (8.7%, 12,444G)
Sairentozon7: 340G (5.9%, 340G)
gorgewall: 201G (3.5%, 16,828G)
prince_rogers_nelson_: 100G (1.7%, 17,612G)
getthemoneyz: 12G (0.2%, 929,321G)

champion bets:
AllInBot: 1,105G (26.4%, 1,105G)
ScarletSpiderBen: 750G (17.9%, 5,896G)
Yiroep2: 750G (17.9%, 2,690G)
Lydian_C: 560G (13.4%, 2,353G)
serperemagus: 360G (8.6%, 360G)
d4rr1n: 300G (7.2%, 4,149G)
KyleWonToLiveForever: 160G (3.8%, 160G)
datadrivenbot: 100G (2.4%, 36,406G)
Lythe_Caraker: 100G (2.4%, 116,363G)
