Final Bets: red - 18 bets for 14,694G (51.5%, x0.94); black - 19 bets for 13,828G (48.5%, x1.06)

red bets:
Drusic: 3,837G (26.1%, 3,837G)
Zetchryn: 1,284G (8.7%, 1,284G)
E_Ballard: 1,059G (7.2%, 1,059G)
Meta_Five: 1,000G (6.8%, 16,495G)
itsdigitalbro: 1,000G (6.8%, 1,917G)
ShintaroNayaka: 961G (6.5%, 961G)
reinoe: 950G (6.5%, 950G)
Nickyfive: 764G (5.2%, 764G)
d4rr1n: 743G (5.1%, 743G)
DavenIII: 600G (4.1%, 3,218G)
Anomandaris__: 500G (3.4%, 1,067G)
EnemyController: 500G (3.4%, 271,399G)
Jeeboheebo: 356G (2.4%, 356G)
Firesheath: 320G (2.2%, 320G)
joewcarson: 300G (2.0%, 3,062G)
JumbocactuarX27: 300G (2.0%, 300G)
bruubarg: 120G (0.8%, 120G)
datadrivenbot: 100G (0.7%, 23,536G)

black bets:
Evewho: 5,000G (36.2%, 31,544G)
roqqqpsi: 1,515G (11.0%, 13,780G)
TheChainNerd: 1,000G (7.2%, 10,401G)
BirbBrainsBot: 1,000G (7.2%, 49,244G)
Lionhermit: 1,000G (7.2%, 21,284G)
CapnChaos12: 614G (4.4%, 614G)
killth3kid: 600G (4.3%, 1,890G)
HaychDub: 550G (4.0%, 9,665G)
OneHundredFists: 532G (3.8%, 532G)
FriendSquirrel: 364G (2.6%, 364G)
DLJuggernaut: 350G (2.5%, 1,000G)
SQUiDSQUARKLIN: 300G (2.2%, 2,422G)
WunUP: 279G (2.0%, 279G)
O_Heyno: 188G (1.4%, 188G)
Boogalo: 120G (0.9%, 120G)
getthemoneyz: 116G (0.8%, 686,524G)
asherban: 100G (0.7%, 2,521G)
Kyune: 100G (0.7%, 14,860G)
CorpusCav: 100G (0.7%, 8,000G)
