Final Bets: purple - 14 bets for 14,693G (83.3%, x0.20); brown - 7 bets for 2,941G (16.7%, x5.00)

purple bets:
evontno: 5,876G (40.0%, 5,876G)
Lythe_Caraker: 1,808G (12.3%, 1,808G)
Mesmaster: 1,613G (11.0%, 1,613G)
LuckyLuckLuc2: 1,111G (7.6%, 13,973G)
DuPlatypus: 1,017G (6.9%, 1,017G)
NovaKnight21: 900G (6.1%, 900G)
lowlf: 616G (4.2%, 17,418G)
resjudicata3: 600G (4.1%, 600G)
AllInBot: 362G (2.5%, 362G)
Tithonus: 272G (1.9%, 272G)
sireaulou: 216G (1.5%, 216G)
datadrivenbot: 200G (1.4%, 80,120G)
gorgewall: 101G (0.7%, 11,881G)
MoonSugarFiend: 1G (0.0%, 9,731G)

brown bets:
baumgrattler: 800G (27.2%, 2,399G)
BirbBrainsBot: 735G (25.0%, 104,262G)
getthemoneyz: 582G (19.8%, 2,115,904G)
ValensEXP_: 424G (14.4%, 3,785G)
lotharek: 200G (6.8%, 2,935G)
readdesert: 100G (3.4%, 2,464G)
Morsigil: 100G (3.4%, 1,623G)
