Final Bets: purple - 19 bets for 14,445G (64.1%, x0.56); brown - 13 bets for 8,103G (35.9%, x1.78)

purple bets:
reinoe: 3,371G (23.3%, 3,371G)
OneHundredFists: 2,001G (13.9%, 26,686G)
Mesmaster: 2,000G (13.8%, 44,960G)
Nickyfive: 1,500G (10.4%, 22,796G)
BirbBrainsBot: 1,000G (6.9%, 182,566G)
EnemyController: 1,000G (6.9%, 1,263,560G)
LanseDM: 604G (4.2%, 604G)
killth3kid: 500G (3.5%, 1,325G)
CosmicTactician: 500G (3.5%, 20,811G)
getthemoneyz: 410G (2.8%, 1,039,069G)
Shalloween: 300G (2.1%, 42,186G)
ColetteMSLP: 300G (2.1%, 440G)
Magicandy: 200G (1.4%, 9,070G)
d4rr1n: 200G (1.4%, 2,948G)
TheBigSalarius: 155G (1.1%, 155G)
elnobueno: 104G (0.7%, 104G)
ANFz: 100G (0.7%, 2,649G)
maakur_: 100G (0.7%, 77,017G)
datadrivenbot: 100G (0.7%, 49,071G)

brown bets:
SkylerBunny: 1,600G (19.7%, 553,778G)
alterworlds: 1,360G (16.8%, 1,360G)
E_Ballard: 1,241G (15.3%, 1,241G)
Digitalsocrates: 1,045G (12.9%, 1,045G)
Rislyeu: 649G (8.0%, 649G)
Zetchryn: 600G (7.4%, 600G)
Nizaha: 501G (6.2%, 8,290G)
Zalerah: 300G (3.7%, 3,135G)
livvexx: 208G (2.6%, 208G)
sososteve: 200G (2.5%, 1,533G)
Evewho: 200G (2.5%, 3,667G)
letdowncity: 100G (1.2%, 8,518G)
isolatedchapelsix: 99G (1.2%, 992G)
