Final Bets: green - 21 bets for 18,825G (58.4%, x0.71); purple - 17 bets for 13,385G (41.6%, x1.41)

green bets:
metagameface: 4,224G (22.4%, 4,224G)
Zeroroute: 3,948G (21.0%, 8,382G)
vorap: 1,500G (8.0%, 46,762G)
ko2q: 1,281G (6.8%, 1,281G)
foofermoofer: 1,057G (5.6%, 1,057G)
Rislyeu: 780G (4.1%, 780G)
JumbocactuarX27: 762G (4.0%, 762G)
holyonline: 722G (3.8%, 722G)
DavenIII: 530G (2.8%, 13,306G)
Estan_AD: 508G (2.7%, 508G)
AUrato: 500G (2.7%, 3,714G)
joewcarson: 500G (2.7%, 7,864G)
imafella: 473G (2.5%, 3,158G)
ShintaroNayaka: 434G (2.3%, 434G)
Cryptopsy70: 428G (2.3%, 428G)
byrdturbo: 420G (2.2%, 10,856G)
nifboy: 250G (1.3%, 4,766G)
Lolprinze: 208G (1.1%, 208G)
CosmicTactician: 100G (0.5%, 12,441G)
datadrivenbot: 100G (0.5%, 16,767G)
OneHundredFists: 100G (0.5%, 1,455G)

purple bets:
Mesmaster: 2,000G (14.9%, 36,603G)
SQUiDSQUARKLIN: 1,749G (13.1%, 1,749G)
volgrathemoose: 1,449G (10.8%, 2,898G)
HaplessOne: 1,111G (8.3%, 58,932G)
ungabunga_bot: 1,000G (7.5%, 501,956G)
BirbBrainsBot: 1,000G (7.5%, 60,112G)
FoeSquirrel: 1,000G (7.5%, 3,764G)
Lionhermit: 1,000G (7.5%, 54,836G)
toka222: 650G (4.9%, 28,792G)
killth3kid: 540G (4.0%, 3,957G)
FriendSquirrel: 536G (4.0%, 1,072G)
CapnChaos12: 300G (2.2%, 5,715G)
CorpusCav: 300G (2.2%, 13,437G)
proper__noun__: 250G (1.9%, 4,517G)
FaytKion: 200G (1.5%, 6,000G)
getthemoneyz: 180G (1.3%, 674,996G)
smiggenator: 120G (0.9%, 120G)
