Final Bets: black - 24 bets for 30,554G (73.4%, x0.36); brown - 17 bets for 11,071G (26.6%, x2.76)

black bets:
Lydian_C: 5,600G (18.3%, 118,378G)
ericzubat: 3,000G (9.8%, 4,064G)
alrightbye: 3,000G (9.8%, 62,286G)
HASTERIOUS: 2,179G (7.1%, 14,532G)
MirtaiAtana: 2,130G (7.0%, 4,261G)
Doogles4221: 2,000G (6.5%, 14,901G)
roofiepops: 2,000G (6.5%, 23,905G)
ColetteMSLP: 1,500G (4.9%, 60,862G)
Shalloween: 1,400G (4.6%, 65,830G)
Baron_von_Scrub: 1,111G (3.6%, 103,148G)
Aldrammech: 1,000G (3.3%, 51,329G)
ungabunga_bot: 1,000G (3.3%, 183,136G)
rico_flex: 1,000G (3.3%, 20,263G)
SkylerBunny: 800G (2.6%, 65,754G)
Breakdown777: 500G (1.6%, 33,204G)
TheMurkGnome: 500G (1.6%, 1,735G)
Cataphract116: 400G (1.3%, 35,771G)
getthemoneyz: 334G (1.1%, 517,028G)
RunicMagus: 300G (1.0%, 42,306G)
Lavatis: 200G (0.7%, 6,644G)
KasugaiRoastedPeas: 200G (0.7%, 28,803G)
ANFz: 200G (0.7%, 12,449G)
FriendSquirrel: 100G (0.3%, 21,317G)
datadrivenbot: 100G (0.3%, 211G)

brown bets:
Fenrislfr: 2,534G (22.9%, 25,343G)
leakimiko: 2,096G (18.9%, 20,961G)
nickelbank: 2,000G (18.1%, 20,880G)
braumbles: 1,000G (9.0%, 22,574G)
Draconis345: 500G (4.5%, 83,139G)
elkydeluxe: 500G (4.5%, 16,384G)
EnemyController: 400G (3.6%, 54,607G)
RageImmortaI: 400G (3.6%, 3,943G)
Cryptopsy70: 364G (3.3%, 20,313G)
flowinprose: 300G (2.7%, 58,418G)
ZephyrTempest: 277G (2.5%, 157,074G)
BirbBrainsBot: 200G (1.8%, 200G)
Tougou: 100G (0.9%, 43,100G)
Heroebal: 100G (0.9%, 4,626G)
HokTuey: 100G (0.9%, 2,056G)
rjA0zcOQ96: 100G (0.9%, 32,576G)
Chompie: 100G (0.9%, 7,443G)
