Final Bets: green - 17 bets for 27,441G (66.7%, x0.50); yellow - 17 bets for 13,675G (33.3%, x2.01)

green bets:
LanseDM: 10,000G (36.4%, 29,701G)
Mesmaster: 5,000G (18.2%, 254,030G)
DLJuggernaut: 4,807G (17.5%, 9,426G)
latebit: 1,244G (4.5%, 1,244G)
DeathTaxesAndAnime: 1,056G (3.8%, 1,056G)
krombobreaker: 1,000G (3.6%, 6,454G)
DejaPoo21: 661G (2.4%, 661G)
dogsandcatsand: 652G (2.4%, 652G)
Raixelol: 576G (2.1%, 27,212G)
TheMurkGnome: 500G (1.8%, 1,988G)
CorpusCav: 426G (1.6%, 31,269G)
loveyouallfriends: 400G (1.5%, 400G)
killth3kid: 300G (1.1%, 37,839G)
ColetteMSLP: 300G (1.1%, 1,104G)
PuzzleSecretary: 219G (0.8%, 219G)
datadrivenbot: 200G (0.7%, 56,985G)
AllInBot: 100G (0.4%, 100G)

yellow bets:
nekojin: 2,301G (16.8%, 4,513G)
EnemyController: 2,222G (16.2%, 1,744,684G)
Thyrandaal: 1,641G (12.0%, 1,641G)
Shalloween: 1,144G (8.4%, 1,144G)
ValensEXP_: 1,061G (7.8%, 1,061G)
BirbBrainsBot: 1,000G (7.3%, 171,010G)
iBardic: 1,000G (7.3%, 8,866G)
SkylerBunny: 668G (4.9%, 668G)
upvla: 567G (4.1%, 1,675G)
thehunterlb: 500G (3.7%, 979G)
Laserman1000: 445G (3.3%, 4,445G)
getthemoneyz: 344G (2.5%, 1,903,670G)
biske13: 316G (2.3%, 316G)
BappleTrees: 208G (1.5%, 208G)
hotpocketsofficial: 116G (0.8%, 116G)
heyBtw: 116G (0.8%, 116G)
BartTradingCompany: 26G (0.2%, 268G)
