Final Bets: blue - 11 bets for 13,159G (67.9%, x0.47); yellow - 9 bets for 6,232G (32.1%, x2.11)

blue bets:
HaateXIII: 7,140G (54.3%, 7,140G)
Zbgs: 1,167G (8.9%, 1,167G)
Leonidusx: 1,000G (7.6%, 76,746G)
gorgewall: 964G (7.3%, 964G)
nifboy: 784G (6.0%, 7,551G)
Raixelol: 600G (4.6%, 5,310G)
krombobreaker: 500G (3.8%, 4,755G)
Zeroroute: 428G (3.3%, 428G)
datadrivenbot: 200G (1.5%, 71,980G)
silentkaster: 200G (1.5%, 2,547G)
vitaminpnutbutter: 176G (1.3%, 176G)

yellow bets:
SkylerBunny: 2,000G (32.1%, 11,130G)
latebit: 1,111G (17.8%, 9,822G)
BirbBrainsBot: 1,000G (16.0%, 105,754G)
maakur_: 938G (15.1%, 938G)
AllInBot: 669G (10.7%, 669G)
getthemoneyz: 214G (3.4%, 1,984,949G)
VolgraTheMoose: 150G (2.4%, 7,870G)
Firesheath: 100G (1.6%, 5,529G)
Lord_Gwarth: 50G (0.8%, 4,128G)
