Final Bets: red - 20 bets for 13,984G (68.9%, x0.45); blue - 13 bets for 6,326G (31.1%, x2.21)

red bets:
HASTERIOUS: 3,309G (23.7%, 3,309G)
Thyrandaal: 3,205G (22.9%, 6,285G)
Lord_Gwarth: 1,000G (7.2%, 14,995G)
escobro: 800G (5.7%, 9,393G)
maakur_: 648G (4.6%, 648G)
Rytor: 556G (4.0%, 556G)
DHaveWord: 552G (3.9%, 552G)
helpimabug: 539G (3.9%, 539G)
Snowfats: 500G (3.6%, 24,987G)
ExplanationMarkWow: 500G (3.6%, 24,101G)
AltimaMantoid: 498G (3.6%, 12,798G)
latebit: 424G (3.0%, 424G)
BlackAceBB: 310G (2.2%, 3,106G)
Demon_Lord_Josh: 300G (2.1%, 4,018G)
AllInBot: 228G (1.6%, 228G)
datadrivenbot: 200G (1.4%, 82,512G)
getthemoneyz: 114G (0.8%, 2,160,086G)
gorgewall: 101G (0.7%, 6,018G)
murderclan: 100G (0.7%, 1,945G)
cloudycube: 100G (0.7%, 818G)

blue bets:
BirbBrainsBot: 1,000G (15.8%, 45,975G)
VolgraTheMoose: 936G (14.8%, 36,811G)
ShadowNinja25: 682G (10.8%, 682G)
ko2q: 645G (10.2%, 1,291G)
ANFz: 544G (8.6%, 544G)
old_overholt_: 500G (7.9%, 57,273G)
TheBrett: 500G (7.9%, 8,400G)
Chuckolator: 408G (6.4%, 408G)
Mushufasa_: 388G (6.1%, 388G)
Evewho: 200G (3.2%, 8,556G)
2b_yorha_b: 200G (3.2%, 4,183G)
CosmicTactician: 200G (3.2%, 1,329G)
Lydian_C: 123G (1.9%, 6,852G)
