Final Bets: purple - 24 bets for 11,814G (60.4%, x0.65); brown - 10 bets for 7,738G (39.6%, x1.53)

purple bets:
AllInBot: 1,470G (12.4%, 1,470G)
latebit: 1,246G (10.5%, 1,246G)
BirbBrainsBot: 1,000G (8.5%, 49,914G)
Chihuahua_Charity: 1,000G (8.5%, 46,492G)
resjudicata3: 885G (7.5%, 885G)
HASTERIOUS: 768G (6.5%, 768G)
Mushufasa_: 538G (4.6%, 538G)
ExplanationMarkWow: 500G (4.2%, 25,944G)
krombobreaker: 500G (4.2%, 33,461G)
Lord_Gwarth: 500G (4.2%, 13,995G)
TheBrett: 500G (4.2%, 8,005G)
DHaveWord: 484G (4.1%, 484G)
Lolthsmeat: 438G (3.7%, 438G)
seppu777: 333G (2.8%, 4,496G)
BlackAceBB: 261G (2.2%, 2,614G)
Demon_Lord_Josh: 216G (1.8%, 216G)
Evewho: 200G (1.7%, 6,798G)
datadrivenbot: 200G (1.7%, 82,189G)
2b_yorha_b: 200G (1.7%, 5,562G)
murderclan: 139G (1.2%, 139G)
Lydian_C: 123G (1.0%, 5,972G)
yagyuudarkness: 112G (0.9%, 112G)
gorgewall: 101G (0.9%, 5,956G)
CosmicTactician: 100G (0.8%, 1,571G)

brown bets:
E_Ballard: 1,459G (18.9%, 1,459G)
ko2q: 1,359G (17.6%, 1,359G)
Lyner87: 1,178G (15.2%, 1,178G)
DuPlatypus: 926G (12.0%, 926G)
Thyrandaal: 922G (11.9%, 1,808G)
getthemoneyz: 540G (7.0%, 2,161,666G)
roofiepops: 474G (6.1%, 1,310G)
AltimaMantoid: 403G (5.2%, 11,803G)
ruleof5: 400G (5.2%, 52,492G)
Chuckolator: 77G (1.0%, 1,310G)
