Final Bets: red - 22 bets for 14,452G (43.9%, x1.28); champion - 19 bets for 18,449G (56.1%, x0.78)

red bets:
NicoSavoy: 2,500G (17.3%, 67,964G)
Laserman1000: 1,050G (7.3%, 2,100G)
TheChainNerd: 1,000G (6.9%, 13,492G)
Basmal: 1,000G (6.9%, 43,548G)
BirbBrainsBot: 1,000G (6.9%, 159,552G)
Theseawolf1: 1,000G (6.9%, 57,319G)
Mesmaster: 1,000G (6.9%, 62,885G)
volgrathemoose: 812G (5.6%, 812G)
Shalloween: 668G (4.6%, 668G)
killth3kid: 500G (3.5%, 19,975G)
catfashions: 500G (3.5%, 3,525G)
DudeMonkey77: 500G (3.5%, 8,591G)
CorpusCav: 500G (3.5%, 1,724G)
Seawalker777: 500G (3.5%, 518G)
ANFz: 458G (3.2%, 458G)
ThePineappleSalesman: 414G (2.9%, 414G)
benticore: 250G (1.7%, 2,946G)
NeoKevlar: 200G (1.4%, 1,788G)
otakutaylor: 200G (1.4%, 1,373G)
Arbitae: 200G (1.4%, 1,341G)
AllInBot: 100G (0.7%, 100G)
datadrivenbot: 100G (0.7%, 21,417G)

champion bets:
krasny1944: 4,185G (22.7%, 4,185G)
sinnyil2: 2,694G (14.6%, 5,389G)
EnemyController: 2,000G (10.8%, 320,867G)
argentbast: 2,000G (10.8%, 7,194G)
Saldarin: 1,461G (7.9%, 1,461G)
KingofTricksters: 1,442G (7.8%, 1,442G)
roofiepops: 1,000G (5.4%, 10,581G)
fenaen: 700G (3.8%, 4,612G)
moocaotao: 553G (3.0%, 1,106G)
Dymntd: 500G (2.7%, 26,406G)
Tougou: 500G (2.7%, 2,768G)
Kyune: 500G (2.7%, 20,768G)
CandyTamer: 240G (1.3%, 1,149G)
getthemoneyz: 200G (1.1%, 721,231G)
O_Heyno: 124G (0.7%, 124G)
E_Ballard: 100G (0.5%, 11,398G)
rjA0zcOQ96: 100G (0.5%, 3,136G)
maakur_: 100G (0.5%, 5,276G)
Devrology101: 50G (0.3%, 952G)
