Final Bets: green - 14 bets for 10,261G (64.5%, x0.55); yellow - 14 bets for 5,637G (35.5%, x1.82)

green bets:
DeathTaxesAndAnime: 3,388G (33.0%, 6,645G)
sukotsuto: 1,500G (14.6%, 18,865G)
CorpusCav: 1,020G (9.9%, 18,324G)
Digitalsocrates: 1,000G (9.7%, 6,110G)
Laserman1000: 832G (8.1%, 32,632G)
Dymntd: 500G (4.9%, 40,567G)
mazuurekz: 500G (4.9%, 1,874G)
Shalloween: 400G (3.9%, 1,405G)
gorgewall: 301G (2.9%, 2,496G)
DAC169: 220G (2.1%, 220G)
ChronoG: 200G (1.9%, 453G)
flametail24: 200G (1.9%, 1,812G)
red_celt: 100G (1.0%, 766G)
datadrivenbot: 100G (1.0%, 31,035G)

yellow bets:
electric_algus: 1,000G (17.7%, 2,448G)
reinoe: 1,000G (17.7%, 30,292G)
BirbBrainsBot: 1,000G (17.7%, 141,481G)
getthemoneyz: 358G (6.4%, 793,548G)
OneHundredFists: 351G (6.2%, 351G)
theNGUYENNER: 314G (5.6%, 314G)
TJ_FordCDN: 269G (4.8%, 269G)
Lythe_Caraker: 250G (4.4%, 120,995G)
Zachara: 217G (3.8%, 95,617G)
gogofromtogo: 200G (3.5%, 2,386G)
Evewho: 200G (3.5%, 3,001G)
KasugaiRoastedPeas: 200G (3.5%, 1,903G)
Freezerman47: 146G (2.6%, 146G)
Vagrance: 132G (2.3%, 132G)
