Final Bets: white - 16 bets for 9,074G (53.3%, x0.87); black - 8 bets for 7,938G (46.7%, x1.14)

white bets:
electric_algus: 1,448G (16.0%, 1,448G)
CorpusCav: 1,020G (11.2%, 18,884G)
BirbBrainsBot: 1,000G (11.0%, 140,481G)
argentbast: 1,000G (11.0%, 27,473G)
Laserman1000: 889G (9.8%, 33,089G)
Deathmaker06: 800G (8.8%, 4,095G)
sukotsuto: 500G (5.5%, 19,689G)
Ring_Wyrm: 500G (5.5%, 952G)
vorap: 400G (4.4%, 120,462G)
OneHundredFists: 308G (3.4%, 308G)
gorgewall: 301G (3.3%, 2,661G)
getthemoneyz: 258G (2.8%, 793,190G)
Lythe_Caraker: 250G (2.8%, 120,745G)
flametail24: 200G (2.2%, 1,922G)
datadrivenbot: 100G (1.1%, 31,090G)
Kyune: 100G (1.1%, 25,583G)

black bets:
DeathTaxesAndAnime: 4,338G (54.6%, 8,506G)
Digitalsocrates: 1,000G (12.6%, 6,659G)
Mesmaster: 1,000G (12.6%, 142,673G)
mazuurekz: 600G (7.6%, 2,149G)
Dymntd: 500G (6.3%, 40,842G)
gogofromtogo: 200G (2.5%, 2,186G)
fluffskull: 200G (2.5%, 961G)
red_celt: 100G (1.3%, 821G)
