Final Bets: black - 8 bets for 7,080G (37.7%, x1.65); brown - 13 bets for 11,680G (62.3%, x0.61)

black bets:
gorgewall: 2,661G (37.6%, 2,661G)
BirbBrainsBot: 1,000G (14.1%, 140,922G)
Deathmaker06: 1,000G (14.1%, 3,295G)
Mesmaster: 1,000G (14.1%, 145,858G)
mazuurekz: 600G (8.5%, 3,663G)
Kyune: 500G (7.1%, 25,187G)
fluffskull: 219G (3.1%, 219G)
CorpusCav: 100G (1.4%, 16,963G)

brown bets:
DeathTaxesAndAnime: 3,866G (33.1%, 7,581G)
sinnyil2: 2,389G (20.5%, 4,778G)
argentbast: 2,000G (17.1%, 24,473G)
Rislyeu: 1,000G (8.6%, 4,872G)
Zachara: 600G (5.1%, 96,600G)
Ring_Wyrm: 510G (4.4%, 510G)
red_celt: 300G (2.6%, 1,983G)
getthemoneyz: 236G (2.0%, 795,059G)
ChronoG: 231G (2.0%, 463G)
gogofromtogo: 200G (1.7%, 2,215G)
TeaTime29: 148G (1.3%, 148G)
datadrivenbot: 100G (0.9%, 30,919G)
CT_5_Holy: 100G (0.9%, 985G)
