Final Bets: red - 20 bets for 11,157G (60.5%, x0.65); green - 14 bets for 7,293G (39.5%, x1.53)

red bets:
metagameface: 2,000G (17.9%, 5,064G)
gr8keeper: 1,803G (16.2%, 1,803G)
mpghappiness: 1,001G (9.0%, 11,292G)
Rislyeu: 831G (7.4%, 831G)
coralreeferz: 750G (6.7%, 5,799G)
Laserman1000: 534G (4.8%, 22,834G)
nifboy: 500G (4.5%, 12,014G)
killth3kid: 500G (4.5%, 25,170G)
MiseryKoss: 500G (4.5%, 1,270G)
volgrathemoose: 500G (4.5%, 1,887G)
luminarii: 450G (4.0%, 19,414G)
HASTERIOUS: 375G (3.4%, 7,518G)
CorpusCav: 363G (3.3%, 5,663G)
CapnChaos12: 300G (2.7%, 14,521G)
HaateXIII: 250G (2.2%, 9,644G)
OneHundredFists: 100G (0.9%, 1,934G)
datadrivenbot: 100G (0.9%, 29,885G)
Flameatron: 100G (0.9%, 881G)
foofermoofer: 100G (0.9%, 2,635G)
Alsprite: 100G (0.9%, 1,045G)

green bets:
red__lancer: 2,000G (27.4%, 76,056G)
MagicBottle: 1,593G (21.8%, 3,186G)
BirbBrainsBot: 1,000G (13.7%, 69,013G)
Digitalsocrates: 735G (10.1%, 735G)
LeepingJJ: 316G (4.3%, 316G)
E_Ballard: 308G (4.2%, 308G)
benticore: 300G (4.1%, 3,162G)
skillomono: 300G (4.1%, 5,619G)
Nizaha: 201G (2.8%, 7,790G)
AllInBot: 189G (2.6%, 189G)
Firesheath: 101G (1.4%, 1,847G)
cloud92684: 100G (1.4%, 16,583G)
getthemoneyz: 100G (1.4%, 762,859G)
mrfripps: 50G (0.7%, 1,933G)
