Final Bets: blue - 17 bets for 10,805G (61.7%, x0.62); yellow - 10 bets for 6,696G (38.3%, x1.61)

blue bets:
DLJuggernaut: 2,000G (18.5%, 12,336G)
DeathTaxesAndAnime: 1,382G (12.8%, 1,382G)
resjudicata3: 1,362G (12.6%, 2,672G)
BirbBrainsBot: 1,000G (9.3%, 83,754G)
thunderducker: 777G (7.2%, 2,655G)
TheDapperChangeling: 712G (6.6%, 712G)
rocl: 500G (4.6%, 5,091G)
Mudrockk: 500G (4.6%, 16,857G)
Runeseeker22: 460G (4.3%, 9,203G)
seppu777: 333G (3.1%, 9,263G)
AltimaMantoid: 311G (2.9%, 2,911G)
ArrenJevleth: 300G (2.8%, 5,632G)
Mushufasa_: 288G (2.7%, 288G)
TrogdorTheMemeinator: 256G (2.4%, 256G)
Xeiphyer: 224G (2.1%, 224G)
datadrivenbot: 200G (1.9%, 58,558G)
aceof86: 200G (1.9%, 4,866G)

yellow bets:
Thyrandaal: 1,740G (26.0%, 1,740G)
HaateXIII: 1,200G (17.9%, 1,200G)
CorpusCav: 1,200G (17.9%, 9,506G)
Seaweed_B: 1,000G (14.9%, 56,904G)
krombobreaker: 500G (7.5%, 9,002G)
upvla: 500G (7.5%, 500G)
Moshyhero: 200G (3.0%, 823G)
getthemoneyz: 156G (2.3%, 1,923,060G)
AllInBot: 100G (1.5%, 100G)
BartTradingCompany: 100G (1.5%, 5,674G)
