Final Bets: white - 12 bets for 20,620G (69.7%, x0.44); champion - 20 bets for 8,983G (30.3%, x2.30)

white bets:
sinnyil2: 12,000G (58.2%, 102,725G)
HaateXIII: 2,323G (11.3%, 2,323G)
resjudicata3: 1,793G (8.7%, 3,516G)
nekojin: 1,000G (4.8%, 20,603G)
Sairentozon7: 1,000G (4.8%, 16,304G)
BirbBrainsBot: 907G (4.4%, 86,871G)
Laserman1000: 501G (2.4%, 11,201G)
killth3kid: 300G (1.5%, 31,609G)
dem0nj0ns: 300G (1.5%, 3,267G)
Runeseeker22: 296G (1.4%, 7,744G)
gingerfoo69: 100G (0.5%, 818G)
humbertogeovane: 100G (0.5%, 900G)

champion bets:
DLJuggernaut: 2,000G (22.3%, 13,689G)
Thyrandaal: 788G (8.8%, 788G)
thunderducker: 700G (7.8%, 3,444G)
CorpusCav: 684G (7.6%, 684G)
Raixelol: 600G (6.7%, 1,464G)
getthemoneyz: 600G (6.7%, 1,923,077G)
AllInBot: 502G (5.6%, 502G)
Moshyhero: 400G (4.5%, 1,017G)
Treafa: 392G (4.4%, 2,918G)
seppu777: 333G (3.7%, 9,136G)
Mushufasa_: 288G (3.2%, 288G)
ValensEXP_: 272G (3.0%, 1,198G)
Xeiphyer: 224G (2.5%, 224G)
DeathTaxesAndAnime: 200G (2.2%, 2,238G)
datadrivenbot: 200G (2.2%, 58,282G)
Yangusburger: 200G (2.2%, 5,823G)
aceof86: 200G (2.2%, 4,790G)
ArrenJevleth: 200G (2.2%, 6,423G)
BartTradingCompany: 100G (1.1%, 5,618G)
targaso: 100G (1.1%, 1,422G)
