Final Bets: red - 9 bets for 5,976G (39.7%, x1.52); yellow - 28 bets for 9,074G (60.3%, x0.66)

red bets:
Shalloween: 1,000G (16.7%, 5,775G)
BirbBrainsBot: 1,000G (16.7%, 183,394G)
namamu: 1,000G (16.7%, 22,072G)
HaplessOne: 888G (14.9%, 300,749G)
getthemoneyz: 584G (9.8%, 728,189G)
HaateXIII: 500G (8.4%, 3,394G)
tronfonne: 464G (7.8%, 464G)
skillomono: 400G (6.7%, 12,843G)
CrownOfHorns: 140G (2.3%, 140G)

yellow bets:
Sairentozon7: 1,000G (11.0%, 7,520G)
BlackfyreRoy: 956G (10.5%, 956G)
volgrathemoose: 663G (7.3%, 663G)
Wonser: 647G (7.1%, 1,647G)
shs_: 600G (6.6%, 12,188G)
rico_flex: 500G (5.5%, 36,018G)
Baron_von_Scrub: 474G (5.2%, 3,863G)
coralreeferz: 450G (5.0%, 8,224G)
CapnChaos12: 428G (4.7%, 428G)
ShintaroNayaka: 400G (4.4%, 5,027G)
letdowncity: 300G (3.3%, 6,115G)
CorpusCav: 300G (3.3%, 10,018G)
poulol: 300G (3.3%, 6,309G)
CandyTamer: 244G (2.7%, 244G)
cloud92684: 200G (2.2%, 9,255G)
kaidykat: 200G (2.2%, 8,264G)
Tetsuwan_Melty: 200G (2.2%, 1,290G)
TinchoT: 181G (2.0%, 181G)
gogofromtogo: 181G (2.0%, 181G)
AllInBot: 100G (1.1%, 100G)
CosmicTactician: 100G (1.1%, 10,054G)
E_Ballard: 100G (1.1%, 8,311G)
ravingsockmonkey: 100G (1.1%, 797G)
MoonChow: 100G (1.1%, 100G)
itszaane: 100G (1.1%, 1,642G)
Freezerman47: 100G (1.1%, 479G)
datadrivenbot: 100G (1.1%, 22,153G)
DrAntiSocial: 50G (0.6%, 19,672G)
