Final Bets: blue - 14 bets for 8,462G (31.1%, x2.22); green - 21 bets for 18,744G (68.9%, x0.45)

blue bets:
nifboy: 1,380G (16.3%, 1,380G)
Aldrammech: 1,000G (11.8%, 18,314G)
amiture: 1,000G (11.8%, 44,528G)
BirbBrainsBot: 1,000G (11.8%, 190,341G)
Valdimar_5467: 732G (8.7%, 732G)
superdevon1: 724G (8.6%, 24,137G)
killth3kid: 604G (7.1%, 2,019G)
braveboyblue: 553G (6.5%, 553G)
dogsandcatsand: 440G (5.2%, 82,325G)
JonnyCue: 315G (3.7%, 315G)
acid_flashback: 264G (3.1%, 8,808G)
TheArcanum: 204G (2.4%, 237G)
Galeronis: 146G (1.7%, 146G)
Firesheath: 100G (1.2%, 5,156G)

green bets:
LordTomS: 4,000G (21.3%, 5,376G)
Shalloween: 2,500G (13.3%, 24,982G)
sinnyil2: 1,721G (9.2%, 1,721G)
Error72: 1,674G (8.9%, 1,674G)
DeathTaxesAndAnime: 1,230G (6.6%, 2,412G)
ColetteMSLP: 1,000G (5.3%, 15,212G)
upvla: 880G (4.7%, 880G)
douchetron: 849G (4.5%, 849G)
AllInBot: 773G (4.1%, 773G)
latebit: 747G (4.0%, 747G)
maximumcrit: 741G (4.0%, 741G)
Miku_Shikhu: 622G (3.3%, 622G)
coralreeferz: 540G (2.9%, 6,148G)
Rytor: 412G (2.2%, 412G)
Hirameki85: 264G (1.4%, 14,369G)
gorgewall: 201G (1.1%, 4,988G)
datadrivenbot: 200G (1.1%, 48,148G)
twelfthrootoftwo: 200G (1.1%, 2,736G)
DesertWooder: 96G (0.5%, 1,932G)
ArlanKels: 50G (0.3%, 1,041G)
getthemoneyz: 44G (0.2%, 1,501,290G)
