Final Bets: purple - 24 bets for 13,257G (36.3%, x1.75); brown - 17 bets for 23,220G (63.7%, x0.57)

purple bets:
Zeroroute: 2,584G (19.5%, 4,218G)
sinnyil2: 1,869G (14.1%, 3,739G)
DeathTaxesAndAnime: 1,013G (7.6%, 1,987G)
BirbBrainsBot: 1,000G (7.5%, 288,166G)
Mtueni: 1,000G (7.5%, 103,769G)
Lanshaft: 600G (4.5%, 5,912G)
Shalloween: 600G (4.5%, 12,445G)
Laserman1000: 550G (4.1%, 10,550G)
b0shii: 444G (3.3%, 1,041G)
Jonusfatson: 400G (3.0%, 400G)
Faplo: 375G (2.8%, 375G)
CCRUNNER149UWP: 340G (2.6%, 340G)
getthemoneyz: 326G (2.5%, 447,337G)
tornadobisque: 300G (2.3%, 1,078G)
galkife: 300G (2.3%, 89,553G)
TheMurkGnome: 300G (2.3%, 2,442G)
ZephyrTempest: 264G (2.0%, 38,014G)
proper__noun__: 248G (1.9%, 248G)
BlinkFS: 198G (1.5%, 198G)
JIDkomu: 188G (1.4%, 188G)
Generalunderdog: 108G (0.8%, 711G)
KingofTricksters: 100G (0.8%, 100G)
datadrivenbot: 100G (0.8%, 24,620G)
tmo50x: 50G (0.4%, 1,697G)

brown bets:
DejaPoo21: 12,974G (55.9%, 12,974G)
AllInBot: 3,524G (15.2%, 3,524G)
Lord_Burrah: 1,000G (4.3%, 99,253G)
MrDiggs49: 1,000G (4.3%, 8,727G)
Aldrammech: 600G (2.6%, 600G)
upvla: 563G (2.4%, 3,367G)
Tyerenex: 510G (2.2%, 510G)
Vampire_Killer: 500G (2.2%, 7,026G)
JackOnFire1: 500G (2.2%, 9,500G)
Cryptopsy70: 356G (1.5%, 9,613G)
Baron_von_Scrub: 353G (1.5%, 2,731G)
waterwatereverywhere: 304G (1.3%, 304G)
CapnChaos12: 300G (1.3%, 4,444G)
rico_flex: 300G (1.3%, 964G)
Conome: 236G (1.0%, 236G)
RughSontos: 100G (0.4%, 722G)
ApplesauceBoss: 100G (0.4%, 4,028G)
