Final Bets: white - 14 bets for 11,255G (72.8%, x0.37); black - 18 bets for 4,198G (27.2%, x2.68)

white bets:
sinnyil2: 2,851G (25.3%, 5,702G)
jakeduhhsnake: 2,000G (17.8%, 73,394G)
ungabunga_bot: 1,000G (8.9%, 324,548G)
BirbBrainsBot: 1,000G (8.9%, 182,377G)
Dymntd: 1,000G (8.9%, 5,886G)
80S1X: 932G (8.3%, 932G)
superdevon1: 644G (5.7%, 6,440G)
DLJuggernaut: 516G (4.6%, 10,326G)
genericco: 300G (2.7%, 2,009G)
astrozin11: 300G (2.7%, 11,300G)
Eyepoor_: 253G (2.2%, 253G)
duskps: 248G (2.2%, 248G)
ANFz: 111G (1.0%, 31,414G)
OneHundredFists: 100G (0.9%, 2,935G)

black bets:
DHaveWord: 740G (17.6%, 740G)
ZephyrTempest: 456G (10.9%, 5,920G)
Lydian_C: 420G (10.0%, 14,378G)
gggamezzz: 400G (9.5%, 6,460G)
Bulleta: 391G (9.3%, 391G)
RestIessNight: 300G (7.1%, 3,181G)
Chuckolator: 247G (5.9%, 20,097G)
twelfthrootoftwo: 200G (4.8%, 1,967G)
servii: 200G (4.8%, 1,307G)
martymcfly2021: 136G (3.2%, 136G)
Kyune: 120G (2.9%, 120G)
nifboy: 100G (2.4%, 5,221G)
Firesheath: 100G (2.4%, 9,372G)
Arlum: 100G (2.4%, 932G)
datadrivenbot: 100G (2.4%, 11,834G)
linkblood4: 100G (2.4%, 2,533G)
Powermhero: 80G (1.9%, 6,082G)
getthemoneyz: 8G (0.2%, 604,664G)
