Final Bets: white - 21 bets for 6,508G (33.2%, x2.01); purple - 17 bets for 13,105G (66.8%, x0.50)

white bets:
gggamezzz: 1,000G (15.4%, 5,060G)
Laserman1000: 839G (12.9%, 89,739G)
superdevon1: 680G (10.4%, 6,806G)
Dymntd: 500G (7.7%, 3,759G)
ZephyrTempest: 456G (7.0%, 5,192G)
genericco: 300G (4.6%, 1,821G)
Rislyeu: 300G (4.6%, 6,914G)
twelfthrootoftwo: 300G (4.6%, 1,848G)
RestIessNight: 300G (4.6%, 2,881G)
ungabunga_bot: 265G (4.1%, 324,243G)
Bioticism: 244G (3.7%, 244G)
Squatting_Bear: 200G (3.1%, 2,656G)
lijarkh: 200G (3.1%, 24,926G)
Kyune: 168G (2.6%, 168G)
martymcfly2021: 136G (2.1%, 136G)
ANFz: 111G (1.7%, 31,602G)
Eyepoor_: 109G (1.7%, 309G)
OneHundredFists: 100G (1.5%, 2,912G)
Arlum: 100G (1.5%, 1,004G)
datadrivenbot: 100G (1.5%, 11,906G)
SulliedGraves: 100G (1.5%, 1,649G)

purple bets:
jakeduhhsnake: 2,000G (15.3%, 72,948G)
DeathTaxesAndAnime: 1,905G (14.5%, 3,736G)
HaplessOne: 1,500G (11.4%, 24,496G)
ACSpree: 1,295G (9.9%, 2,591G)
Lydian_C: 1,200G (9.2%, 15,712G)
sinnyil2: 1,200G (9.2%, 7,623G)
BirbBrainsBot: 1,000G (7.6%, 182,154G)
cgMcWhiskers: 847G (6.5%, 847G)
DHaveWord: 678G (5.2%, 678G)
ccordc: 303G (2.3%, 303G)
Bulleta: 280G (2.1%, 280G)
Sogeki_Dan: 209G (1.6%, 209G)
Leadbeer: 200G (1.5%, 402G)
dorman_777: 180G (1.4%, 180G)
getthemoneyz: 108G (0.8%, 603,968G)
linkblood4: 100G (0.8%, 2,465G)
Lythe_Caraker: 100G (0.8%, 116,216G)
