Final Bets: white - 9 bets for 7,028G (61.0%, x0.64); black - 15 bets for 4,498G (39.0%, x1.56)

white bets:
leakimiko: 1,500G (21.3%, 50,634G)
NovaKnight21: 1,353G (19.3%, 1,353G)
Dexsana: 1,000G (14.2%, 6,283G)
ungabunga_bot: 1,000G (14.2%, 494,301G)
Lionhermit: 1,000G (14.2%, 46,262G)
gorgewall: 501G (7.1%, 3,518G)
Jeeboheebo: 436G (6.2%, 436G)
otakutaylor: 148G (2.1%, 148G)
getthemoneyz: 90G (1.3%, 670,120G)

black bets:
UmaiJam: 1,000G (22.2%, 28,275G)
BoneMiser: 596G (13.3%, 596G)
volgrathemoose: 501G (11.1%, 4,647G)
shs_: 500G (11.1%, 8,622G)
Anomandaris__: 500G (11.1%, 4,475G)
MalakiGenesys: 237G (5.3%, 1,186G)
thethorndog1: 228G (5.1%, 228G)
Aestheta: 220G (4.9%, 220G)
BirbBrainsBot: 162G (3.6%, 71,924G)
Phillippus: 117G (2.6%, 117G)
ko2q: 100G (2.2%, 1,861G)
datadrivenbot: 100G (2.2%, 18,717G)
Kyune: 100G (2.2%, 2,778G)
CorpusCav: 99G (2.2%, 6,981G)
roqqqpsi: 38G (0.8%, 3,803G)
