Final Bets: green - 18 bets for 12,511G (47.2%, x1.12); yellow - 18 bets for 13,982G (52.8%, x0.89)

green bets:
YaBoy125: 1,756G (14.0%, 3,513G)
sinnyil2: 1,373G (11.0%, 2,747G)
EnemyController: 1,111G (8.9%, 1,450,155G)
KyleWonToLiveForever: 1,070G (8.6%, 1,070G)
Creggers: 1,000G (8.0%, 63,155G)
BirbBrainsBot: 1,000G (8.0%, 196,537G)
JumbocactuarX27: 1,000G (8.0%, 36,430G)
brokenknight201: 928G (7.4%, 928G)
roofiepops: 560G (4.5%, 560G)
MagicBottle: 544G (4.3%, 20,617G)
BlueAbs: 500G (4.0%, 5,021G)
killth3kid: 416G (3.3%, 2,742G)
ArashiKurobara: 336G (2.7%, 3,806G)
Skincrawler: 208G (1.7%, 208G)
latebit: 208G (1.7%, 208G)
gorgewall: 201G (1.6%, 4,592G)
furrytomahawkk: 200G (1.6%, 2,268G)
CosmicTactician: 100G (0.8%, 44,469G)

yellow bets:
Zeroroute: 3,081G (22.0%, 6,740G)
thaetreis: 2,200G (15.7%, 27,471G)
evdoggity: 2,000G (14.3%, 85,836G)
skipsandwiches: 1,000G (7.2%, 7,929G)
bruubarg: 1,000G (7.2%, 36,185G)
Xoomwaffle: 960G (6.9%, 960G)
NIghtdew14: 608G (4.3%, 608G)
mpghappiness: 580G (4.1%, 580G)
AllInBot: 412G (2.9%, 412G)
Nickyfive: 403G (2.9%, 807G)
SephDarkheart: 312G (2.2%, 43,628G)
Cryptopsy70: 304G (2.2%, 2,923G)
boosted420: 300G (2.1%, 3,402G)
coralreeferz: 250G (1.8%, 1,228G)
datadrivenbot: 200G (1.4%, 28,950G)
lyans00: 200G (1.4%, 2,451G)
Miku_Shikhu: 100G (0.7%, 10,617G)
getthemoneyz: 72G (0.5%, 1,305,588G)
