Final Bets: red - 16 bets for 11,866G (35.9%, x1.79); blue - 4 bets for 21,216G (64.1%, x0.56)

red bets:
skipsandwiches: 2,020G (17.0%, 106,288G)
Mushufasa_: 1,234G (10.4%, 50,384G)
BirbBrainsBot: 1,000G (8.4%, 143,585G)
MemoriesofFinal: 1,000G (8.4%, 7,876G)
actual_JP: 1,000G (8.4%, 17,109G)
Runeseeker22: 854G (7.2%, 17,098G)
soren_of_tyto: 840G (7.1%, 840G)
nifboy: 706G (5.9%, 706G)
HaplessOne: 600G (5.1%, 600G)
krombobreaker: 500G (4.2%, 46,097G)
khelor_: 500G (4.2%, 11,159G)
skinny666: 500G (4.2%, 1,924G)
getthemoneyz: 378G (3.2%, 2,235,506G)
YowaneHaku: 284G (2.4%, 284G)
Zachara: 250G (2.1%, 3,500G)
datadrivenbot: 200G (1.7%, 84,541G)

blue bets:
AllInBot: 18,801G (88.6%, 18,801G)
E_Ballard: 2,215G (10.4%, 2,215G)
jimm_bob: 100G (0.5%, 100G)
CassiePhoenix: 100G (0.5%, 2,490G)
