Final Bets: black - 6 bets for 4,958G (51.7%, x0.93); purple - 8 bets for 4,625G (48.3%, x1.07)

black bets:
nhammen: 2,000G (40.3%, 62,284G)
BirbBrainsBot: 1,000G (20.2%, 146,911G)
Lord_Gwarth: 1,000G (20.2%, 9,973G)
coralreeferz: 450G (9.1%, 1,603G)
YowaneHaku: 284G (5.7%, 284G)
getthemoneyz: 224G (4.5%, 2,236,814G)

purple bets:
Lord_Burrah: 1,244G (26.9%, 174,244G)
Mushufasa_: 1,234G (26.7%, 50,873G)
HaplessOne: 1,146G (24.8%, 1,146G)
xXTysongXx: 300G (6.5%, 815G)
gorgewall: 201G (4.3%, 11,306G)
AllInBot: 200G (4.3%, 200G)
datadrivenbot: 200G (4.3%, 84,912G)
JethroThrul: 100G (2.2%, 4,767G)
