Final Bets: red - 16 bets for 13,583G (65.0%, x0.54); blue - 18 bets for 7,314G (35.0%, x1.86)

red bets:
Aldrammech: 5,000G (36.8%, 29,029G)
killth3kid: 2,000G (14.7%, 54,673G)
Theseawolf1: 1,483G (10.9%, 1,483G)
LDSkinny: 1,000G (7.4%, 31,571G)
Lionhermit: 1,000G (7.4%, 42,705G)
duckfist: 500G (3.7%, 3,924G)
luminarii: 500G (3.7%, 13,362G)
ZephyrTempest: 456G (3.4%, 2,563G)
RunicMagus: 400G (2.9%, 45,329G)
Kyune: 250G (1.8%, 3,408G)
RyuTsuno: 250G (1.8%, 5,522G)
NicoSavoy: 200G (1.5%, 14,616G)
ungabunga_bot: 194G (1.4%, 427,926G)
carsenhk: 150G (1.1%, 20,595G)
datadrivenbot: 100G (0.7%, 13,904G)
brokenknight201: 100G (0.7%, 542G)

blue bets:
HaateXIII: 1,447G (19.8%, 1,447G)
reinoe: 1,000G (13.7%, 23,985G)
BirbBrainsBot: 1,000G (13.7%, 140,396G)
HaplessOne: 525G (7.2%, 525G)
volgrathemoose: 501G (6.8%, 10,475G)
CapnChaos12: 500G (6.8%, 49,803G)
Baron_von_Scrub: 474G (6.5%, 9,015G)
CorpusCav: 400G (5.5%, 5,333G)
HorusTaurus: 272G (3.7%, 272G)
Setdevildog: 250G (3.4%, 4,296G)
GnielKnows: 200G (2.7%, 1,166G)
cupholderr: 200G (2.7%, 2,522G)
SirCherish: 118G (1.6%, 118G)
Velixtra: 100G (1.4%, 287G)
ZDarius: 100G (1.4%, 1,733G)
Oobs56: 100G (1.4%, 5,707G)
Ross_from_Cali: 77G (1.1%, 2,077G)
b0shii: 50G (0.7%, 13,373G)
