Final Bets: green - 23 bets for 18,987G (75.0%, x0.33); yellow - 15 bets for 6,330G (25.0%, x3.00)

green bets:
coralreeferz: 5,000G (26.3%, 13,289G)
kai_shee: 2,000G (10.5%, 137,804G)
upvla: 1,234G (6.5%, 25,942G)
Jeeboheebo: 1,224G (6.4%, 1,224G)
JackOnFire1: 1,029G (5.4%, 10,292G)
exaltedhamster: 1,000G (5.3%, 17,992G)
ungabunga_bot: 1,000G (5.3%, 208,042G)
BirbBrainsBot: 1,000G (5.3%, 90,120G)
Bryon_W: 1,000G (5.3%, 9,850G)
getthemoneyz: 916G (4.8%, 544,456G)
Willjin: 600G (3.2%, 19,696G)
ColetteMSLP: 500G (2.6%, 31,372G)
KasugaiRoastedPeas: 420G (2.2%, 10,614G)
Justice0320: 418G (2.2%, 4,187G)
toka222: 300G (1.6%, 300G)
MattMan119: 300G (1.6%, 4,058G)
lifeguard_dan: 280G (1.5%, 280G)
EnemyController: 200G (1.1%, 61,388G)
powergems: 150G (0.8%, 20,390G)
Tekenu: 116G (0.6%, 116G)
Tithonus: 100G (0.5%, 2,787G)
FriendSquirrel: 100G (0.5%, 33,388G)
lastly: 100G (0.5%, 2,008G)

yellow bets:
leakimiko: 1,170G (18.5%, 10,700G)
fenaen: 1,001G (15.8%, 37,387G)
Pie108: 1,000G (15.8%, 54,100G)
SomeCallMeGON: 500G (7.9%, 10,657G)
MrPhuui: 500G (7.9%, 8,801G)
catfashions: 480G (7.6%, 480G)
nedryerson01: 400G (6.3%, 2,535G)
DeathTaxesAndAnime: 300G (4.7%, 10,334G)
nifboy: 278G (4.4%, 6,957G)
Lavatis: 200G (3.2%, 3,236G)
ZephyrTempest: 101G (1.6%, 165,438G)
AllInBot: 100G (1.6%, 100G)
FoeSquirrel: 100G (1.6%, 2,489G)
itsdigitalbro: 100G (1.6%, 100G)
datadrivenbot: 100G (1.6%, 1,113G)
