Final Bets: purple - 11 bets for 4,182G (19.2%, x4.21); brown - 23 bets for 17,601G (80.8%, x0.24)

purple bets:
fenaen: 1,001G (23.9%, 39,389G)
ColetteMSLP: 1,000G (23.9%, 30,372G)
ungabunga_bot: 507G (12.1%, 208,049G)
DavenIII: 500G (12.0%, 4,506G)
getthemoneyz: 324G (7.7%, 544,082G)
braumbles: 250G (6.0%, 49,739G)
nedryerson01: 200G (4.8%, 3,335G)
Tithonus: 100G (2.4%, 2,788G)
lastly: 100G (2.4%, 2,009G)
ANFz: 100G (2.4%, 14,634G)
FoeSquirrel: 100G (2.4%, 2,789G)

brown bets:
Bryon_W: 3,000G (17.0%, 8,850G)
catfashions: 2,222G (12.6%, 2,222G)
Nizaha: 2,001G (11.4%, 4,616G)
EnemyController: 2,000G (11.4%, 60,688G)
ko2q: 1,027G (5.8%, 1,027G)
BirbBrainsBot: 1,000G (5.7%, 90,127G)
rico_flex: 1,000G (5.7%, 15,017G)
Rastanar: 1,000G (5.7%, 11,274G)
toka222: 602G (3.4%, 602G)
CapnChaos12: 500G (2.8%, 48,814G)
Laserman1000: 500G (2.8%, 23,800G)
JumbocactuarX27: 500G (2.8%, 9,594G)
volgrathemoose: 489G (2.8%, 489G)
Jeeboheebo: 348G (2.0%, 348G)
killth3kid: 288G (1.6%, 3,497G)
nifboy: 271G (1.5%, 6,791G)
Lavatis: 200G (1.1%, 3,836G)
goro_0924: 131G (0.7%, 131G)
Tekenu: 116G (0.7%, 116G)
CapnSauce420: 105G (0.6%, 1,044G)
ZephyrTempest: 101G (0.6%, 165,640G)
AllInBot: 100G (0.6%, 100G)
datadrivenbot: 100G (0.6%, 1,313G)
