Final Bets: yellow - 7 bets for 5,025G (31.4%, x2.18); champion - 18 bets for 10,968G (68.6%, x0.46)

yellow bets:
roqqqpsi: 1,399G (27.8%, 12,725G)
Aldrammech: 1,000G (19.9%, 31,614G)
flowinprose: 1,000G (19.9%, 109,092G)
BirbBrainsBot: 1,000G (19.9%, 107,560G)
benticore: 300G (6.0%, 4,394G)
Lydian_C: 230G (4.6%, 10,455G)
getthemoneyz: 96G (1.9%, 827,632G)

champion bets:
Zbgs: 4,000G (36.5%, 40,678G)
Spuzzmocker: 1,161G (10.6%, 1,161G)
Laserman1000: 600G (5.5%, 24,900G)
Monopool: 584G (5.3%, 584G)
Nohurty: 563G (5.1%, 563G)
shs_: 500G (4.6%, 13,835G)
letdowncity: 500G (4.6%, 20,009G)
cam_ATS: 500G (4.6%, 4,851G)
BlackFireUK: 500G (4.6%, 4,676G)
Baron_von_Scrub: 474G (4.3%, 34,188G)
Thyrandaal: 398G (3.6%, 398G)
gogofromtogo: 364G (3.3%, 364G)
ExecutedGiraffe: 308G (2.8%, 308G)
dinin991: 116G (1.1%, 116G)
E_Ballard: 100G (0.9%, 2,437G)
run_with_stone_GUNs: 100G (0.9%, 22,859G)
datadrivenbot: 100G (0.9%, 34,513G)
HokTuey: 100G (0.9%, 1,005G)
