Final Bets: purple - 12 bets for 4,684G (53.0%, x0.89); brown - 8 bets for 4,156G (47.0%, x1.13)

purple bets:
WitchHunterIX: 1,000G (21.3%, 22,141G)
Creggers: 1,000G (21.3%, 15,220G)
reinoe: 500G (10.7%, 16,379G)
ColetteMSLP: 368G (7.9%, 368G)
Monopool: 304G (6.5%, 304G)
gorgewall: 301G (6.4%, 22,951G)
alithesillybird: 300G (6.4%, 3,065G)
DAC169: 297G (6.3%, 297G)
DamnThatShark: 294G (6.3%, 294G)
Lydian_C: 120G (2.6%, 15,833G)
Quadh0nk: 100G (2.1%, 2,634G)
datadrivenbot: 100G (2.1%, 39,525G)

brown bets:
Evewho: 2,000G (48.1%, 18,071G)
BirbBrainsBot: 1,000G (24.1%, 1,589G)
getthemoneyz: 306G (7.4%, 948,695G)
LAGBOT30000: 250G (6.0%, 2,697G)
prince_rogers_nelson_: 200G (4.8%, 3,514G)
Koorndog: 200G (4.8%, 1,000G)
AllInBot: 100G (2.4%, 100G)
KSops: 100G (2.4%, 1,456G)
