Final Bets: purple - 14 bets for 9,769G (55.1%, x0.81); brown - 12 bets for 7,947G (44.9%, x1.23)

purple bets:
Aldrammech: 2,000G (20.5%, 5,772G)
JumbocactuarX27: 1,735G (17.8%, 1,735G)
HaateXIII: 1,280G (13.1%, 1,280G)
JCBooBot: 1,000G (10.2%, 22,098G)
ColetteMSLP: 1,000G (10.2%, 21,007G)
CapnChaos12: 678G (6.9%, 678G)
PuzzleSecretary: 600G (6.1%, 1,134G)
Sairentozon7: 440G (4.5%, 440G)
Cryptopsy70: 336G (3.4%, 3,271G)
datadrivenbot: 200G (2.0%, 64,000G)
arumz: 200G (2.0%, 3,014G)
AllInBot: 100G (1.0%, 100G)
AbandonedHall: 100G (1.0%, 3,574G)
ko2q: 100G (1.0%, 13,381G)

brown bets:
DavenIII: 1,500G (18.9%, 33,709G)
Mushufasa_: 1,167G (14.7%, 1,167G)
getthemoneyz: 1,000G (12.6%, 1,766,140G)
BirbBrainsBot: 1,000G (12.6%, 80,434G)
KyleWonToLiveForever: 1,000G (12.6%, 18,398G)
AlenaZarek: 750G (9.4%, 53,288G)
blorpy_: 597G (7.5%, 7,474G)
Runeseeker22: 315G (4.0%, 315G)
astrozin11: 250G (3.1%, 2,283G)
SWATb1gdog: 168G (2.1%, 1,204G)
TakKerna: 100G (1.3%, 247G)
CorpusCav: 100G (1.3%, 1,363G)
