Final Bets: white - 12 bets for 24,575G (73.8%, x0.35); black - 8 bets for 8,714G (26.2%, x2.82)

white bets:
E_Ballard: 20,544G (83.6%, 20,544G)
BirbBrainsBot: 1,000G (4.1%, 75,430G)
Laserman1000: 683G (2.8%, 3,083G)
gorgewall: 401G (1.6%, 5,718G)
getthemoneyz: 328G (1.3%, 1,011,619G)
Magicandy: 300G (1.2%, 7,675G)
BeyondWithinX: 300G (1.2%, 608G)
Meanderandreturn: 300G (1.2%, 2,950G)
benticore: 269G (1.1%, 5,394G)
Rytor: 200G (0.8%, 5,187G)
muffin_money: 150G (0.6%, 6,400G)
datadrivenbot: 100G (0.4%, 48,154G)

black bets:
Mesmaster: 5,000G (57.4%, 229,730G)
OneHundredFists: 1,413G (16.2%, 1,413G)
SkylerBunny: 1,000G (11.5%, 576,531G)
prince_rogers_nelson_: 600G (6.9%, 600G)
Nizaha: 201G (2.3%, 6,633G)
xeurian: 200G (2.3%, 3,125G)
Evewho: 200G (2.3%, 3,783G)
letdowncity: 100G (1.1%, 4,671G)
