Final Bets: red - 9 bets for 2,800G (20.2%, x3.94); champion - 16 bets for 11,039G (79.8%, x0.25)

red bets:
Belkra: 600G (21.4%, 1,158G)
eudes89: 500G (17.9%, 8,666G)
killth3kid: 480G (17.1%, 10,995G)
DuraiPapers: 300G (10.7%, 30,184G)
letdowncity: 200G (7.1%, 6,050G)
Evewho: 200G (7.1%, 4,563G)
KasugaiRoastedPeas: 200G (7.1%, 11,160G)
xeurian: 200G (7.1%, 4,224G)
Lydian_C: 120G (4.3%, 155,649G)

champion bets:
Laserman1000: 1,200G (10.9%, 1,200G)
O_Heyno: 1,178G (10.7%, 1,178G)
Nizaha: 1,001G (9.1%, 7,125G)
butterbelljedi: 1,000G (9.1%, 14,208G)
BirbBrainsBot: 1,000G (9.1%, 76,497G)
twelfthrootoftwo: 1,000G (9.1%, 2,216G)
NovaKnight21: 1,000G (9.1%, 9,641G)
prince_rogers_nelson_: 600G (5.4%, 600G)
Strifu: 588G (5.3%, 588G)
E_Ballard: 584G (5.3%, 584G)
nekojin: 500G (4.5%, 4,926G)
Snowfats: 500G (4.5%, 3,307G)
getthemoneyz: 468G (4.2%, 1,011,182G)
docmitchphd: 220G (2.0%, 220G)
Zalerah: 100G (0.9%, 2,019G)
datadrivenbot: 100G (0.9%, 48,358G)
