Final Bets: purple - 11 bets for 4,565G (37.5%, x1.67); brown - 13 bets for 7,623G (62.5%, x0.60)

purple bets:
waterwatereverywhere: 1,133G (24.8%, 2,222G)
superdevon1: 907G (19.9%, 9,078G)
Extinctosaurus: 500G (11.0%, 4,787G)
Manamorphose: 500G (11.0%, 14,319G)
kingchadking: 404G (8.8%, 404G)
SkylerBunny: 324G (7.1%, 324G)
UmaiJam: 289G (6.3%, 2,892G)
rubenflonne: 200G (4.4%, 4,026G)
DustBirdEX: 150G (3.3%, 6,060G)
dreadnxught: 100G (2.2%, 6,862G)
ungabunga_bot: 58G (1.3%, 23,965G)

brown bets:
Ragnarok784: 2,000G (26.2%, 84,902G)
WireLord: 1,288G (16.9%, 1,288G)
BirbBrainsBot: 1,000G (13.1%, 216,229G)
bad1dea: 1,000G (13.1%, 35,373G)
herrshaun: 683G (9.0%, 683G)
jethrothrul: 564G (7.4%, 564G)
getthemoneyz: 234G (3.1%, 438,080G)
roqqqpsi: 222G (2.9%, 2,068G)
Jayelldee: 200G (2.6%, 531G)
InOzWeTrust: 132G (1.7%, 132G)
AllInBot: 100G (1.3%, 100G)
SeedSC: 100G (1.3%, 140,396G)
datadrivenbot: 100G (1.3%, 18,267G)
