Final Bets: blue - 7 bets for 3,072G (25.4%, x2.94); green - 12 bets for 9,025G (74.6%, x0.34)

blue bets:
Shakarak: 1,000G (32.6%, 24,216G)
superdevon1: 817G (26.6%, 8,171G)
waterwatereverywhere: 555G (18.1%, 1,089G)
lijarkh: 300G (9.8%, 8,586G)
DustBirdEX: 200G (6.5%, 5,910G)
viniiboyz: 100G (3.3%, 1,000G)
dreadnxught: 100G (3.3%, 5,762G)

green bets:
UmaiJam: 2,603G (28.8%, 2,603G)
BenYuPoker: 2,050G (22.7%, 4,100G)
Extinctosaurus: 2,000G (22.2%, 4,287G)
getthemoneyz: 778G (8.6%, 438,220G)
SkylerBunny: 324G (3.6%, 324G)
bad1dea: 300G (3.3%, 35,972G)
roqqqpsi: 222G (2.5%, 2,201G)
Jayelldee: 200G (2.2%, 651G)
BirbBrainsBot: 188G (2.1%, 216,828G)
AllInBot: 160G (1.8%, 160G)
herrshaun: 100G (1.1%, 1,092G)
datadrivenbot: 100G (1.1%, 18,327G)
