Final Bets: white - 17 bets for 6,516G (42.5%, x1.35); brown - 19 bets for 8,828G (57.5%, x0.74)

white bets:
BirbBrainsBot: 1,000G (15.3%, 43,968G)
Lionhermit: 1,000G (15.3%, 22,662G)
JumbocactuarX27: 1,000G (15.3%, 7,088G)
DavenIII: 500G (7.7%, 2,880G)
Mesmaster: 500G (7.7%, 68,124G)
dorman_777: 486G (7.5%, 486G)
ungabunga_bot: 457G (7.0%, 347,920G)
PetitFoulard: 248G (3.8%, 248G)
RubenFlonne: 200G (3.1%, 12,904G)
alphara2: 200G (3.1%, 1,210G)
ThePineappleSalesman: 200G (3.1%, 25,968G)
VarkilTV: 200G (3.1%, 679G)
getthemoneyz: 182G (2.8%, 625,948G)
Eyepoor_: 100G (1.5%, 3,719G)
buyallbeans: 100G (1.5%, 100G)
ZephyrTempest: 93G (1.4%, 620G)
benticore: 50G (0.8%, 453G)

brown bets:
Shalloween: 2,183G (24.7%, 4,281G)
DeathTaxesAndAnime: 1,149G (13.0%, 1,149G)
TheChainNerd: 1,000G (11.3%, 9,807G)
vorap: 1,000G (11.3%, 32,316G)
arciusvyse: 999G (11.3%, 999G)
ColetteMSLP: 800G (9.1%, 28,448G)
Rislyeu: 400G (4.5%, 12,498G)
Lythe_Caraker: 250G (2.8%, 116,403G)
EnemyController: 200G (2.3%, 182,425G)
FoeSquirrel: 170G (1.9%, 340G)
FriendSquirrel: 100G (1.1%, 30,726G)
syrus3344: 100G (1.1%, 100G)
maakur_: 100G (1.1%, 127,057G)
datadrivenbot: 100G (1.1%, 12,206G)
Firesheath: 100G (1.1%, 13,504G)
Linkn: 100G (1.1%, 2,344G)
Colarussian: 50G (0.6%, 1,056G)
jhalem: 20G (0.2%, 1,022G)
daveb_: 7G (0.1%, 852G)
