Final Bets: black - 17 bets for 12,964G (64.3%, x0.56); brown - 13 bets for 7,198G (35.7%, x1.80)

black bets:
ShintaroNayaka: 2,538G (19.6%, 4,138G)
TheChainNerd: 2,433G (18.8%, 2,433G)
MLWebz0r: 2,242G (17.3%, 2,242G)
letdowncity: 1,266G (9.8%, 1,266G)
Laserman1000: 636G (4.9%, 636G)
brokenknight201: 501G (3.9%, 501G)
JumbocactuarX27: 500G (3.9%, 21,704G)
Thyrandaal: 500G (3.9%, 35,049G)
randgridr: 460G (3.5%, 460G)
Treafa: 394G (3.0%, 394G)
ArashiKurobara: 340G (2.6%, 3,143G)
OrganicArtist: 333G (2.6%, 1,895G)
AllInBot: 200G (1.5%, 200G)
Rytor: 200G (1.5%, 14,917G)
datadrivenbot: 200G (1.5%, 33,477G)
Lydian_C: 121G (0.9%, 81,761G)
Miku_Shikhu: 100G (0.8%, 1,012G)

brown bets:
toka222: 4,000G (55.6%, 88,166G)
mpghappiness: 600G (8.3%, 600G)
LazyFury47: 500G (6.9%, 2,426G)
TasisSai: 404G (5.6%, 404G)
dogsandcatsand: 316G (4.4%, 7,681G)
CapnChaos12: 300G (4.2%, 8,329G)
Lord_Gwarth: 250G (3.5%, 2,010G)
BirbBrainsBot: 248G (3.4%, 181,065G)
RageImmortaI: 200G (2.8%, 774G)
holdenmagronik: 150G (2.1%, 833G)
ruleof5: 100G (1.4%, 1,465G)
DavenIII: 100G (1.4%, 649G)
DouglasDragonThePoet: 30G (0.4%, 2,817G)
