Final Bets: green - 12 bets for 5,868G (44.3%, x1.26); yellow - 9 bets for 7,383G (55.7%, x0.79)

green bets:
getthemoneyz: 1,000G (17.0%, 825,599G)
BirbBrainsBot: 1,000G (17.0%, 93,937G)
DeathTaxesAndAnime: 780G (13.3%, 780G)
NovaKnight21: 692G (11.8%, 692G)
ChronoG: 666G (11.3%, 1,022G)
Sairentozon7: 568G (9.7%, 568G)
Zachara: 344G (5.9%, 102,344G)
killth3kid: 336G (5.7%, 13,611G)
Thyrandaal: 182G (3.1%, 182G)
reinoe: 100G (1.7%, 7,681G)
datadrivenbot: 100G (1.7%, 33,117G)
ruleof5: 100G (1.7%, 1,582G)

yellow bets:
pandasforsale: 3,290G (44.6%, 3,290G)
sinnyil2: 1,200G (16.3%, 1,474G)
superdevon1: 731G (9.9%, 7,316G)
Explodincatz: 500G (6.8%, 2,118G)
DAC169: 406G (5.5%, 406G)
Spuzzmocker: 400G (5.4%, 1,587G)
gogofromtogo: 356G (4.8%, 356G)
amishninja: 350G (4.7%, 1,391G)
mestreviola: 150G (2.0%, 387G)
