Final Bets: black - 9 bets for 3,544G (30.8%, x2.25); purple - 13 bets for 7,958G (69.2%, x0.45)

black bets:
BirbBrainsBot: 1,000G (28.2%, 94,794G)
superdevon1: 772G (21.8%, 7,721G)
NovaKnight21: 692G (19.5%, 692G)
wyonearth: 248G (7.0%, 248G)
Creggers: 200G (5.6%, 2,263G)
getthemoneyz: 186G (5.2%, 827,455G)
DAC169: 172G (4.9%, 172G)
Nelrith: 170G (4.8%, 1,139G)
Spuzzmocker: 104G (2.9%, 104G)

purple bets:
HunkForHire: 1,122G (14.1%, 1,122G)
SkyridgeZero: 1,000G (12.6%, 25,387G)
rocl: 885G (11.1%, 4,429G)
gogofromtogo: 884G (11.1%, 884G)
HASTERIOUS: 754G (9.5%, 754G)
sinnyil2: 708G (8.9%, 708G)
Rislyeu: 700G (8.8%, 9,247G)
CrownOfHorns: 594G (7.5%, 594G)
almontys: 437G (5.5%, 437G)
ChronoG: 350G (4.4%, 3,749G)
ColetteMSLP: 224G (2.8%, 224G)
KasugaiRoastedPeas: 200G (2.5%, 2,205G)
datadrivenbot: 100G (1.3%, 33,191G)
