Final Bets: purple - 16 bets for 7,914G (60.9%, x0.64); brown - 7 bets for 5,088G (39.1%, x1.56)

purple bets:
HaateXIII: 1,292G (16.3%, 1,292G)
reinoe: 1,000G (12.6%, 43,555G)
Treafa: 876G (11.1%, 876G)
douchetron: 812G (10.3%, 812G)
technominari: 800G (10.1%, 81,894G)
killth3kid: 796G (10.1%, 50,187G)
SephDarkheart: 600G (7.6%, 164,031G)
BirbBrainsBot: 450G (5.7%, 167,687G)
WhiteTigress: 400G (5.1%, 15,619G)
datadrivenbot: 200G (2.5%, 68,544G)
Lifebregin: 190G (2.4%, 13,490G)
Lydian_C: 123G (1.6%, 3,053G)
gorgewall: 101G (1.3%, 21,355G)
AllInBot: 100G (1.3%, 100G)
Aldrammech: 100G (1.3%, 37,650G)
getthemoneyz: 74G (0.9%, 1,732,090G)

brown bets:
DustBirdEX: 1,567G (30.8%, 1,567G)
roofiepops: 1,501G (29.5%, 1,501G)
Lord_Gwarth: 876G (17.2%, 876G)
Lanshaft: 620G (12.2%, 21,394G)
Tarheels218: 324G (6.4%, 324G)
Blastinus: 100G (2.0%, 764G)
cloudycube: 100G (2.0%, 1,581G)
