Final Bets: black - 14 bets for 8,005G (46.2%, x1.17); brown - 13 bets for 9,328G (53.8%, x0.86)

black bets:
Lydian_C: 1,400G (17.5%, 2,959G)
evontno: 1,200G (15.0%, 2,295G)
BirbBrainsBot: 1,000G (12.5%, 166,237G)
Thyrandaal: 1,000G (12.5%, 9,593G)
DeathTaxesAndAnime: 852G (10.6%, 852G)
HaateXIII: 792G (9.9%, 792G)
Lanshaft: 620G (7.7%, 21,738G)
dogsandcatsand: 400G (5.0%, 400G)
WhiteTigress: 300G (3.7%, 14,219G)
getthemoneyz: 116G (1.4%, 1,731,016G)
Aldrammech: 100G (1.2%, 37,574G)
MrsKillerNacho: 100G (1.2%, 1,000G)
AbandonedHall: 100G (1.2%, 900G)
Lifebregin: 25G (0.3%, 13,025G)

brown bets:
DustBirdEX: 4,004G (42.9%, 4,004G)
DLJuggernaut: 1,000G (10.7%, 17,499G)
sinnyil2: 929G (10.0%, 1,859G)
SephDarkheart: 600G (6.4%, 163,431G)
Laserman1000: 546G (5.9%, 22,446G)
roofiepops: 474G (5.1%, 3,362G)
run_with_stone_GUNs: 468G (5.0%, 9,508G)
Lord_Gwarth: 406G (4.4%, 812G)
Treafa: 376G (4.0%, 376G)
datadrivenbot: 200G (2.1%, 68,244G)
AllInBot: 124G (1.3%, 124G)
gorgewall: 101G (1.1%, 21,157G)
RunicMagus: 100G (1.1%, 7,089G)
