Final Bets: white - 17 bets for 8,197G (73.5%, x0.36); black - 10 bets for 2,950G (26.5%, x2.78)

white bets:
DeathTaxesAndAnime: 1,644G (20.1%, 1,644G)
TheChainNerd: 1,500G (18.3%, 27,000G)
vorap: 1,000G (12.2%, 117,174G)
BirbBrainsBot: 1,000G (12.2%, 138,070G)
kaidykat: 500G (6.1%, 15,396G)
EnemyController: 500G (6.1%, 474,934G)
getthemoneyz: 434G (5.3%, 790,730G)
wyonearth: 300G (3.7%, 4,464G)
regios91: 288G (3.5%, 288G)
soren_of_tyto: 231G (2.8%, 231G)
Flameatron: 200G (2.4%, 4,508G)
CorpusCav: 100G (1.2%, 8,275G)
Ring_Wyrm: 100G (1.2%, 791G)
TheMM42: 100G (1.2%, 10,813G)
datadrivenbot: 100G (1.2%, 30,438G)
DAC169: 100G (1.2%, 1,905G)
CosmicTactician: 100G (1.2%, 3,943G)

black bets:
LDSkinny: 923G (31.3%, 1,847G)
gorgewall: 576G (19.5%, 576G)
Cryptopsy70: 480G (16.3%, 1,533G)
Powerpinch: 216G (7.3%, 216G)
Shalloween: 200G (6.8%, 2,204G)
Belkra: 189G (6.4%, 379G)
Stealthtoucan: 116G (3.9%, 116G)
benticore: 100G (3.4%, 5,325G)
moocaotao: 100G (3.4%, 1,349G)
DashXero: 50G (1.7%, 3,837G)
