Final Bets: white - 11 bets for 4,423G (23.9%, x3.19); champion - 25 bets for 14,107G (76.1%, x0.31)

white bets:
TheChainNerd: 1,500G (33.9%, 27,686G)
BirbBrainsBot: 1,000G (22.6%, 138,565G)
kaidykat: 400G (9.0%, 16,677G)
King_Harb: 300G (6.8%, 7,346G)
Lythe_Caraker: 250G (5.7%, 124,020G)
getthemoneyz: 228G (5.2%, 790,962G)
KasugaiRoastedPeas: 200G (4.5%, 1,107G)
Shalloween: 200G (4.5%, 2,004G)
Stealthtoucan: 120G (2.7%, 120G)
Belkra: 119G (2.7%, 119G)
HASTERIOUS: 106G (2.4%, 2,125G)

champion bets:
TinchoT: 3,000G (21.3%, 8,139G)
OneHundredFists: 1,765G (12.5%, 1,765G)
SkylerBunny: 1,500G (10.6%, 88,579G)
Nelrith: 1,200G (8.5%, 6,509G)
EnemyController: 1,000G (7.1%, 473,832G)
gorgewall: 733G (5.2%, 1,367G)
DeathTaxesAndAnime: 696G (4.9%, 696G)
Grimmace45: 655G (4.6%, 6,556G)
Arcblazer23: 546G (3.9%, 1,093G)
Flameatron: 400G (2.8%, 4,518G)
maleblackfiora: 400G (2.8%, 1,307G)
Link1nr: 354G (2.5%, 354G)
bokurakira: 219G (1.6%, 219G)
regios91: 215G (1.5%, 215G)
CosmicTactician: 200G (1.4%, 3,693G)
gogofromtogo: 200G (1.4%, 3,501G)
L2_Sentinel: 200G (1.4%, 37,992G)
flametail24: 124G (0.9%, 124G)
CorpusCav: 100G (0.7%, 8,225G)
DustBirdEX: 100G (0.7%, 21,385G)
E_Ballard: 100G (0.7%, 2,141G)
Nohurty: 100G (0.7%, 1,597G)
ApplesauceBoss: 100G (0.7%, 2,598G)
datadrivenbot: 100G (0.7%, 30,486G)
Evewho: 100G (0.7%, 5,691G)
