Final Bets: purple - 14 bets for 16,496G (69.2%, x0.45); brown - 14 bets for 7,346G (30.8%, x2.25)

purple bets:
soren_of_tyto: 5,867G (35.6%, 5,867G)
VolgraTheMoose: 4,001G (24.3%, 81,258G)
OneHundredFists: 1,807G (11.0%, 3,544G)
killth3kid: 1,333G (8.1%, 13,335G)
Thyrandaal: 1,000G (6.1%, 53,743G)
kaelsun: 768G (4.7%, 768G)
IphoneDarkness: 500G (3.0%, 3,757G)
letdowncity: 300G (1.8%, 17,131G)
DeathTaxesAndAnime: 300G (1.8%, 2,604G)
adrammallech: 200G (1.2%, 837G)
Lydian_C: 120G (0.7%, 16,295G)
AllInBot: 100G (0.6%, 100G)
ZombiFrancis: 100G (0.6%, 6,199G)
Kyune: 100G (0.6%, 10,664G)

brown bets:
Baron_von_Scrub: 1,374G (18.7%, 2,748G)
HaateXIII: 1,196G (16.3%, 1,196G)
BirbBrainsBot: 1,000G (13.6%, 24,855G)
TheChainNerd: 766G (10.4%, 1,533G)
maakur_: 696G (9.5%, 696G)
HuffFlex: 500G (6.8%, 7,201G)
actual_JP: 436G (5.9%, 436G)
getthemoneyz: 342G (4.7%, 956,828G)
ZCKaiser: 335G (4.6%, 671G)
gorgewall: 301G (4.1%, 18,412G)
E_Ballard: 100G (1.4%, 6,965G)
dinin991: 100G (1.4%, 1,112G)
datadrivenbot: 100G (1.4%, 38,901G)
Sans_from_Snowdin: 100G (1.4%, 20,488G)
