Final Bets: red - 10 bets for 10,191G (47.4%, x1.11); brown - 20 bets for 11,325G (52.6%, x0.90)

red bets:
Sans_from_Snowdin: 3,000G (29.4%, 15,213G)
SkylerBunny: 2,000G (19.6%, 141,800G)
ZCKaiser: 1,670G (16.4%, 3,340G)
killth3kid: 1,520G (14.9%, 15,207G)
OneHundredFists: 931G (9.1%, 2,407G)
kaelsun: 316G (3.1%, 316G)
ColetteMSLP: 300G (2.9%, 1,541G)
TheChainNerd: 250G (2.5%, 3,000G)
Azelgrim: 104G (1.0%, 104G)
nsm013: 100G (1.0%, 2,127G)

brown bets:
JLinkletter: 3,461G (30.6%, 3,461G)
actual_JP: 1,415G (12.5%, 1,415G)
Baron_von_Scrub: 1,110G (9.8%, 1,110G)
BirbBrainsBot: 1,000G (8.8%, 29,616G)
Thyrandaal: 1,000G (8.8%, 53,990G)
NightwolfXVI: 616G (5.4%, 616G)
getthemoneyz: 512G (4.5%, 957,984G)
Kyune: 500G (4.4%, 10,464G)
gorgewall: 301G (2.7%, 20,245G)
just_here2: 250G (2.2%, 9,324G)
Flameatron: 200G (1.8%, 5,995G)
silentkaster: 154G (1.4%, 654G)
dinin991: 136G (1.2%, 136G)
Lydian_C: 120G (1.1%, 16,807G)
AllInBot: 100G (0.9%, 100G)
E_Ballard: 100G (0.9%, 7,946G)
Tougou: 100G (0.9%, 3,000G)
Monopool: 100G (0.9%, 1,474G)
datadrivenbot: 100G (0.9%, 38,926G)
IphoneDarkness: 50G (0.4%, 2,657G)
