Final Bets: black - 8 bets for 3,698G (59.1%, x0.69); purple - 4 bets for 2,564G (40.9%, x1.44)

black bets:
ShintaroNayaka: 1,695G (45.8%, 1,695G)
DesertWooder: 500G (13.5%, 9,686G)
CT_5_Holy: 496G (13.4%, 496G)
DouglasDragonThePoet: 316G (8.5%, 316G)
AllInBot: 200G (5.4%, 200G)
datadrivenbot: 200G (5.4%, 52,292G)
puls3evo: 191G (5.2%, 191G)
Zeera98: 100G (2.7%, 100G)

purple bets:
getthemoneyz: 1,000G (39.0%, 1,511,551G)
ko2q: 1,000G (39.0%, 18,732G)
BaronHaynes: 400G (15.6%, 12,704G)
BirbBrainsBot: 164G (6.4%, 58,225G)
