Final Bets: white - 15 bets for 8,796G (40.4%, x1.48); black - 14 bets for 12,992G (59.6%, x0.68)

white bets:
2b_yorha_b: 3,530G (40.1%, 3,530G)
AllInBot: 1,229G (14.0%, 1,229G)
E_Ballard: 832G (9.5%, 832G)
Evewho: 636G (7.2%, 636G)
FatTunaKing: 520G (5.9%, 520G)
mirapoix: 512G (5.8%, 512G)
pplvee1: 456G (5.2%, 456G)
getthemoneyz: 236G (2.7%, 2,133,153G)
CorpusCav: 200G (2.3%, 32,846G)
roofiepops: 123G (1.4%, 1,409G)
BirbBrainsBot: 121G (1.4%, 159,526G)
gorgewall: 101G (1.1%, 13,743G)
heropong: 100G (1.1%, 3,086G)
AbandonedHall: 100G (1.1%, 160G)
Bongomon7: 100G (1.1%, 4,375G)

black bets:
Musashi45: 4,311G (33.2%, 8,623G)
DLJuggernaut: 2,655G (20.4%, 2,655G)
resjudicata3: 1,320G (10.2%, 1,320G)
latebit: 1,161G (8.9%, 116,121G)
tripaplex: 600G (4.6%, 1,672G)
seppu777: 555G (4.3%, 5,941G)
Snowfats: 500G (3.8%, 13,048G)
krombobreaker: 500G (3.8%, 25,683G)
Lord_Gwarth: 500G (3.8%, 3,125G)
Smugzug: 336G (2.6%, 1,236G)
datadrivenbot: 200G (1.5%, 79,640G)
GeNoFPaniC: 150G (1.2%, 1,677G)
shaddoll: 104G (0.8%, 104G)
maakur_: 100G (0.8%, 4,982G)
