Final Bets: purple - 11 bets for 17,937G (69.9%, x0.43); brown - 16 bets for 7,736G (30.1%, x2.32)

purple bets:
Musashi45: 5,771G (32.2%, 11,542G)
DLJuggernaut: 4,457G (24.8%, 4,457G)
latebit: 2,338G (13.0%, 116,907G)
Nizaha: 1,750G (9.8%, 7,001G)
BirbBrainsBot: 1,000G (5.6%, 159,405G)
Sairentozon7: 1,000G (5.6%, 49,689G)
FatTunaKing: 520G (2.9%, 520G)
Snowfats: 500G (2.8%, 13,387G)
CorpusCav: 400G (2.2%, 32,646G)
gorgewall: 101G (0.6%, 13,642G)
heropong: 100G (0.6%, 2,986G)

brown bets:
resjudicata3: 2,214G (28.6%, 2,214G)
JonnyCue: 1,000G (12.9%, 11,534G)
E_Ballard: 832G (10.8%, 832G)
Evewho: 636G (8.2%, 636G)
krombobreaker: 500G (6.5%, 26,022G)
tripaplex: 400G (5.2%, 2,078G)
Smugzug: 336G (4.3%, 1,463G)
getthemoneyz: 320G (4.1%, 2,132,917G)
Grasnikk: 280G (3.6%, 280G)
2b_yorha_b: 244G (3.2%, 244G)
AllInBot: 200G (2.6%, 200G)
wiznaibusthis: 200G (2.6%, 1,723G)
datadrivenbot: 200G (2.6%, 79,775G)
shaddoll: 174G (2.2%, 174G)
maakur_: 100G (1.3%, 5,054G)
GeNoFPaniC: 100G (1.3%, 1,779G)
