Final Bets: white - 11 bets for 3,333G (31.1%, x2.21); black - 9 bets for 7,371G (68.9%, x0.45)

white bets:
fattunaking: 659G (19.8%, 659G)
evontno: 500G (15.0%, 2,628G)
PantherIscariot: 444G (13.3%, 4,381G)
getthemoneyz: 406G (12.2%, 1,596,235G)
shadricklul: 300G (9.0%, 742G)
AllInBot: 200G (6.0%, 200G)
datadrivenbot: 200G (6.0%, 57,229G)
BirbBrainsBot: 200G (6.0%, 200G)
LordTomS: 200G (6.0%, 12,919G)
maddrave09: 124G (3.7%, 126G)
MinBetBot: 100G (3.0%, 22,266G)

black bets:
DeathTaxesAndAnime: 2,297G (31.2%, 4,505G)
nekojin: 2,000G (27.1%, 22,988G)
ColetteMSLP: 1,000G (13.6%, 24,581G)
Jeffinitly: 1,000G (13.6%, 1,000G)
roofiepops: 474G (6.4%, 18,840G)
WhiteTigress: 300G (4.1%, 6,012G)
Firesheath: 100G (1.4%, 30,119G)
ko2q: 100G (1.4%, 5,280G)
Drusiform: 100G (1.4%, 22,733G)
