Final Bets: white - 9 bets for 1,913G (16.8%, x4.95); champion - 14 bets for 9,478G (83.2%, x0.20)

white bets:
BirbBrainsBot: 887G (46.4%, 887G)
getthemoneyz: 260G (13.6%, 1,597,682G)
AllInBot: 200G (10.5%, 200G)
maddrave09: 124G (6.5%, 535G)
PantherIscariot: 111G (5.8%, 5,686G)
MinBetBot: 100G (5.2%, 22,087G)
DeathTaxesAndAnime: 100G (5.2%, 2,208G)
Lord_Gwarth: 100G (5.2%, 3,550G)
HASTERIOUS: 31G (1.6%, 3,146G)

champion bets:
evontno: 5,141G (54.2%, 5,141G)
Lydian_C: 1,200G (12.7%, 16,503G)
shadricklul: 805G (8.5%, 805G)
CT_5_Holy: 524G (5.5%, 524G)
Kronikle: 508G (5.4%, 8,650G)
WhiteTigress: 300G (3.2%, 5,753G)
alex115daniels: 200G (2.1%, 3,184G)
datadrivenbot: 200G (2.1%, 57,791G)
ko2q: 100G (1.1%, 4,980G)
CrimsonK97: 100G (1.1%, 100G)
srdonko2098: 100G (1.1%, 1,936G)
Zeera98: 100G (1.1%, 394G)
deegelcr: 100G (1.1%, 536G)
Drusiform: 100G (1.1%, 22,559G)
