Final Bets: purple - 10 bets for 8,541G (57.4%, x0.74); brown - 17 bets for 6,343G (42.6%, x1.35)

purple bets:
Zeroroute: 2,041G (23.9%, 2,041G)
TheChainNerd: 1,500G (17.6%, 35,023G)
coralreeferz: 1,015G (11.9%, 1,015G)
mpghappiness: 1,001G (11.7%, 1,984G)
boosted420: 1,000G (11.7%, 2,653G)
killth3kid: 768G (9.0%, 1,537G)
Grandlanzer: 500G (5.9%, 84,843G)
Cryptopsy70: 304G (3.6%, 1,935G)
GladiatorLupe: 212G (2.5%, 212G)
AllInBot: 200G (2.3%, 200G)

brown bets:
BirbBrainsBot: 1,000G (15.8%, 194,086G)
JumbocactuarX27: 1,000G (15.8%, 37,950G)
MagicBottle: 544G (8.6%, 21,528G)
RaIshtar: 500G (7.9%, 19,695G)
Zetchryn: 428G (6.7%, 428G)
ShintaroNayaka: 400G (6.3%, 8,724G)
ArashiKurobara: 336G (5.3%, 2,291G)
JLinkletter: 320G (5.0%, 320G)
SephDarkheart: 312G (4.9%, 44,800G)
TasisSai: 278G (4.4%, 546G)
benticore: 250G (3.9%, 20,944G)
WorkKnight: 235G (3.7%, 235G)
furrytomahawkk: 200G (3.2%, 1,252G)
datadrivenbot: 200G (3.2%, 28,608G)
BlueAbs: 140G (2.2%, 5,140G)
DouglasDragonThePoet: 100G (1.6%, 521G)
getthemoneyz: 100G (1.6%, 1,307,234G)
