Final Bets: white - 17 bets for 12,514G (63.8%, x0.57); purple - 11 bets for 7,089G (36.2%, x1.77)

white bets:
RaIshtar: 3,500G (28.0%, 19,970G)
Zeroroute: 1,955G (15.6%, 1,955G)
killth3kid: 1,393G (11.1%, 2,787G)
BirbBrainsBot: 1,000G (8.0%, 193,176G)
JumbocactuarX27: 1,000G (8.0%, 35,950G)
skipsandwiches: 1,000G (8.0%, 7,794G)
YaBoy125: 965G (7.7%, 5,679G)
ShintaroNayaka: 400G (3.2%, 8,647G)
coralreeferz: 250G (2.0%, 1,319G)
benticore: 250G (2.0%, 20,444G)
AllInBot: 200G (1.6%, 200G)
datadrivenbot: 200G (1.6%, 28,208G)
WorkKnight: 100G (0.8%, 100G)
nifboy: 100G (0.8%, 3,718G)
CosmicTactician: 100G (0.8%, 43,536G)
furrytomahawkk: 100G (0.8%, 1,181G)
SephDarkheart: 1G (0.0%, 44,689G)

purple bets:
mpghappiness: 1,720G (24.3%, 3,373G)
TheChainNerd: 1,500G (21.2%, 37,106G)
Nickyfive: 1,500G (21.2%, 16,977G)
Zetchryn: 704G (9.9%, 704G)
getthemoneyz: 342G (4.8%, 1,306,712G)
ArashiKurobara: 336G (4.7%, 1,619G)
Cryptopsy70: 304G (4.3%, 2,161G)
boosted420: 250G (3.5%, 3,396G)
TasisSai: 233G (3.3%, 457G)
DHaveWord: 100G (1.4%, 9,576G)
nhammen: 100G (1.4%, 11,173G)
