Final Bets: purple - 27 bets for 25,202G (78.7%, x0.27); brown - 17 bets for 6,840G (21.3%, x3.68)

purple bets:
Shalloween: 6,745G (26.8%, 13,227G)
Spartan_Paladin: 2,500G (9.9%, 67,583G)
d4rr1n: 2,323G (9.2%, 2,323G)
Evewho: 1,802G (7.2%, 1,802G)
Stealthtoucan: 1,170G (4.6%, 1,170G)
nifboy: 1,000G (4.0%, 11,168G)
Aldrammech: 1,000G (4.0%, 10,567G)
BirbBrainsBot: 1,000G (4.0%, 183,505G)
HaplessOne: 888G (3.5%, 279,251G)
IndecisiveNinja: 869G (3.4%, 869G)
JumbocactuarX27: 847G (3.4%, 847G)
ShintaroNayaka: 800G (3.2%, 7,129G)
Bilabrin: 572G (2.3%, 572G)
serperemagus: 568G (2.3%, 568G)
itsdigitalbro: 500G (2.0%, 3,727G)
Laserman1000: 500G (2.0%, 5,900G)
Sairentozon7: 500G (2.0%, 5,943G)
DustBirdEX: 456G (1.8%, 4,261G)
red_celt: 264G (1.0%, 264G)
zepharoth89: 150G (0.6%, 550G)
Apeljoose: 144G (0.6%, 144G)
AerodyneX: 104G (0.4%, 104G)
TheMM42: 100G (0.4%, 21,479G)
kaidykat: 100G (0.4%, 5,547G)
letdowncity: 100G (0.4%, 4,134G)
lastly: 100G (0.4%, 10,894G)
datadrivenbot: 100G (0.4%, 20,630G)

brown bets:
DavenIII: 2,000G (29.2%, 6,424G)
TheChainNerd: 1,000G (14.6%, 17,000G)
superdevon1: 746G (10.9%, 4,976G)
HaateXIII: 536G (7.8%, 536G)
holyonline: 400G (5.8%, 400G)
FriendSquirrel: 396G (5.8%, 396G)
joewcarson: 300G (4.4%, 1,560G)
BlackfyreRoy: 220G (3.2%, 220G)
getthemoneyz: 204G (3.0%, 730,438G)
cloud92684: 200G (2.9%, 5,578G)
poulol: 200G (2.9%, 6,167G)
nok____: 138G (2.0%, 18,288G)
AllInBot: 100G (1.5%, 100G)
maakur_: 100G (1.5%, 3,303G)
E_Ballard: 100G (1.5%, 8,546G)
Tougou: 100G (1.5%, 2,859G)
Kellios11: 100G (1.5%, 8,028G)
