Final Bets: purple - 29 bets for 18,606G (4.2%, x23.02); champion - 28 bets for 428,304G (95.8%, x0.04)

purple bets:
itsdigitalbro: 3,500G (18.8%, 11,980G)
DeadBart: 2,978G (16.0%, 2,978G)
toka222: 1,500G (8.1%, 83,292G)
TheChainNerd: 1,000G (5.4%, 22,000G)
Aldrammech: 1,000G (5.4%, 18,533G)
BirbBrainsBot: 1,000G (5.4%, 182,125G)
TheMM42: 1,000G (5.4%, 22,467G)
superdevon1: 763G (4.1%, 7,639G)
Sairentozon7: 734G (3.9%, 7,210G)
getthemoneyz: 694G (3.7%, 729,314G)
DustBirdEX: 456G (2.5%, 5,253G)
Bilabrin: 456G (2.5%, 1,705G)
holyonline: 400G (2.1%, 400G)
ShintaroNayaka: 400G (2.1%, 7,702G)
rechaun: 388G (2.1%, 388G)
coralreeferz: 350G (1.9%, 12,341G)
Xcessive30: 331G (1.8%, 331G)
benticore: 296G (1.6%, 296G)
serperemagus: 240G (1.3%, 240G)
poulol: 200G (1.1%, 5,039G)
Apeljoose: 150G (0.8%, 658G)
nok____: 130G (0.7%, 19,630G)
GladiatorLupe: 120G (0.6%, 120G)
CosmicTactician: 100G (0.5%, 13,504G)
Meta_Five: 100G (0.5%, 22,476G)
TeaTime29: 100G (0.5%, 298G)
docmitchphd: 100G (0.5%, 162G)
kaidykat: 100G (0.5%, 6,415G)
joewcarson: 20G (0.1%, 960G)

champion bets:
HaplessOne: 284,771G (66.5%, 284,771G)
Spartan_Paladin: 46,127G (10.8%, 61,503G)
killth3kid: 20,108G (4.7%, 20,108G)
ferroniss: 16,173G (3.8%, 16,173G)
LDSkinny: 11,432G (2.7%, 11,432G)
lastly: 10,633G (2.5%, 10,633G)
nifboy: 10,344G (2.4%, 10,344G)
cloud92684: 4,498G (1.1%, 4,498G)
letdowncity: 4,155G (1.0%, 4,155G)
Shalloween: 4,081G (1.0%, 4,081G)
maakur_: 3,285G (0.8%, 3,285G)
sinnyil2: 2,173G (0.5%, 2,173G)
Cryptopsy70: 1,989G (0.5%, 1,989G)
Firesheath: 1,337G (0.3%, 1,337G)
RunicMagus: 1,100G (0.3%, 30,339G)
BlackfyreRoy: 1,006G (0.2%, 1,006G)
HaateXIII: 869G (0.2%, 869G)
fluffywormhole: 790G (0.2%, 790G)
ThePineappleSalesman: 732G (0.2%, 732G)
daveb_: 555G (0.1%, 2,872G)
IndecisiveNinja: 492G (0.1%, 492G)
zepharoth89: 490G (0.1%, 490G)
Tougou: 416G (0.1%, 416G)
nekojin: 236G (0.1%, 236G)
Kellios11: 200G (0.0%, 6,976G)
AllInBot: 162G (0.0%, 162G)
datadrivenbot: 100G (0.0%, 20,519G)
DrAntiSocial: 50G (0.0%, 19,753G)
