Final Bets: green - 18 bets for 18,256G (68.6%, x0.46); yellow - 6 bets for 8,362G (31.4%, x2.18)

green bets:
Lushifah: 5,787G (31.7%, 11,575G)
Zagorsek: 2,522G (13.8%, 2,522G)
DLJuggernaut: 1,790G (9.8%, 3,511G)
Mudrockk: 1,684G (9.2%, 3,369G)
HaplessOne: 1,508G (8.3%, 1,508G)
BirbBrainsBot: 1,000G (5.5%, 41,011G)
VolgraTheMoose: 992G (5.4%, 992G)
Zachara: 500G (2.7%, 500G)
JonnyCue: 488G (2.7%, 15,419G)
VynxYukida: 400G (2.2%, 828G)
getthemoneyz: 376G (2.1%, 2,210,261G)
Musashi45: 308G (1.7%, 3,358G)
silentkaster: 201G (1.1%, 31,655G)
AllInBot: 200G (1.1%, 200G)
datadrivenbot: 200G (1.1%, 83,091G)
heropong: 100G (0.5%, 997G)
JethroThrul: 100G (0.5%, 1,105G)
king_smashington: 100G (0.5%, 3,128G)

yellow bets:
DeathTaxesAndAnime: 6,177G (73.9%, 12,112G)
CosmicTactician: 809G (9.7%, 809G)
HorusTaurus: 428G (5.1%, 428G)
Zerguzen: 416G (5.0%, 416G)
Tithonus: 316G (3.8%, 316G)
JayceXIV: 216G (2.6%, 216G)
