Final Bets: black - 12 bets for 25,493G (68.4%, x0.46); champion - 15 bets for 11,757G (31.6%, x2.17)

black bets:
RunicMagus: 15,000G (58.8%, 166,184G)
DeathTaxesAndAnime: 3,000G (11.8%, 26,062G)
Thyrandaal: 1,891G (7.4%, 1,891G)
E_Ballard: 1,355G (5.3%, 1,355G)
heropong: 1,180G (4.6%, 1,180G)
DLJuggernaut: 1,103G (4.3%, 2,164G)
killth3kid: 860G (3.4%, 9,485G)
DrAntiSocial: 388G (1.5%, 388G)
JayceXIV: 216G (0.8%, 216G)
AllInBot: 200G (0.8%, 200G)
CosmicTactician: 200G (0.8%, 2,494G)
maakur_: 100G (0.4%, 3,024G)

champion bets:
Armorgames1: 3,213G (27.3%, 3,213G)
HaplessOne: 2,179G (18.5%, 2,179G)
Mudrockk: 1,219G (10.4%, 1,219G)
BirbBrainsBot: 1,000G (8.5%, 40,376G)
Chuckolator: 892G (7.6%, 892G)
fenaen: 696G (5.9%, 37,281G)
SeniorBunk: 500G (4.3%, 113,196G)
HorusTaurus: 428G (3.6%, 428G)
Lolthsmeat: 384G (3.3%, 16,968G)
silentkaster: 350G (3.0%, 34,421G)
Zachara: 330G (2.8%, 1,000G)
getthemoneyz: 212G (1.8%, 2,209,372G)
datadrivenbot: 200G (1.7%, 82,757G)
Smashy: 100G (0.9%, 956G)
VolgraTheMoose: 54G (0.5%, 1,346G)
