Final Bets: purple - 18 bets for 18,561G (50.5%, x0.98); brown - 13 bets for 18,165G (49.5%, x1.02)

purple bets:
AllInBot: 5,053G (27.2%, 5,053G)
Lord_Burrah: 3,000G (16.2%, 103,000G)
snkey: 1,987G (10.7%, 19,866G)
DeathTaxesAndAnime: 1,878G (10.1%, 1,878G)
douchetron: 1,247G (6.7%, 1,247G)
TheMurkGnome: 1,000G (5.4%, 9,484G)
krombobreaker: 794G (4.3%, 794G)
MrUbiq: 600G (3.2%, 12,227G)
thunderducker: 576G (3.1%, 576G)
mindblownnnn: 500G (2.7%, 4,393G)
Dasutin23: 464G (2.5%, 9,849G)
heyBtw: 408G (2.2%, 408G)
CorpusCav: 300G (1.6%, 30,646G)
Riley331: 226G (1.2%, 226G)
aceof86: 217G (1.2%, 217G)
datadrivenbot: 200G (1.1%, 57,810G)
gorgewall: 101G (0.5%, 6,043G)
BartTradingCompany: 10G (0.1%, 100G)

brown bets:
Mesmaster: 5,000G (27.5%, 213,241G)
nhammen: 5,000G (27.5%, 408,966G)
Thyrandaal: 1,539G (8.5%, 1,539G)
VolgraTheMoose: 1,472G (8.1%, 1,472G)
sinnyil2: 1,200G (6.6%, 62,394G)
BirbBrainsBot: 1,000G (5.5%, 181,161G)
E_Ballard: 913G (5.0%, 913G)
seppu777: 555G (3.1%, 2,007G)
old_overholt_: 500G (2.8%, 23,733G)
getthemoneyz: 492G (2.7%, 1,903,674G)
ValensEXP_: 244G (1.3%, 1,257G)
muffin_money: 150G (0.8%, 3,471G)
ANFz: 100G (0.6%, 6,638G)
