Final Bets: red - 16 bets for 10,270G (50.8%, x0.97); blue - 20 bets for 9,965G (49.2%, x1.03)

red bets:
NovaKnight21: 2,476G (24.1%, 2,476G)
Mesmaster: 2,000G (19.5%, 71,941G)
BirbBrainsBot: 1,000G (9.7%, 109,641G)
pandasforsale: 999G (9.7%, 37,892G)
sinnyil2: 852G (8.3%, 852G)
Baron_von_Scrub: 474G (4.6%, 15,176G)
gorgewall: 401G (3.9%, 10,944G)
GnielKnows: 400G (3.9%, 4,096G)
TheMM42: 296G (2.9%, 296G)
mistblade: 276G (2.7%, 276G)
krasny1944: 250G (2.4%, 2,050G)
aeonicvector: 242G (2.4%, 242G)
josephiroth_143: 220G (2.1%, 220G)
Moshyhero: 150G (1.5%, 2,418G)
neocarbuncle: 130G (1.3%, 2,594G)
getthemoneyz: 104G (1.0%, 698,064G)

blue bets:
Evewho: 2,106G (21.1%, 4,131G)
thefyeman: 2,000G (20.1%, 60,080G)
Laserman1000: 893G (9.0%, 4,993G)
Estan_AD: 832G (8.3%, 1,665G)
DudeMonkey77: 500G (5.0%, 7,269G)
argentbast: 500G (5.0%, 3,044G)
CorpusCav: 500G (5.0%, 27,380G)
EnemyController: 500G (5.0%, 314,704G)
Firesheath: 340G (3.4%, 340G)
wooyuji: 327G (3.3%, 327G)
CapnChaos12: 300G (3.0%, 2,826G)
Lythe_Caraker: 250G (2.5%, 125,988G)
kaidykat: 200G (2.0%, 2,831G)
brogan316: 200G (2.0%, 1,497G)
AllInBot: 100G (1.0%, 100G)
datadrivenbot: 100G (1.0%, 23,382G)
pallidsable: 100G (1.0%, 104G)
itsZaes: 100G (1.0%, 520G)
serperemagus: 67G (0.7%, 3,487G)
b0shii: 50G (0.5%, 8,889G)
