Final Bets: green - 16 bets for 7,700G (49.5%, x1.02); yellow - 13 bets for 7,850G (50.5%, x0.98)

green bets:
CorpusCav: 1,001G (13.0%, 27,895G)
BirbBrainsBot: 1,000G (13.0%, 108,641G)
Mesmaster: 1,000G (13.0%, 69,941G)
sinnyil2: 852G (11.1%, 852G)
Firesheath: 690G (9.0%, 690G)
EnemyController: 500G (6.5%, 315,219G)
brogan316: 500G (6.5%, 1,703G)
GnielKnows: 400G (5.2%, 3,696G)
TheMM42: 290G (3.8%, 296G)
mistblade: 276G (3.6%, 276G)
Estan_AD: 250G (3.2%, 2,522G)
aeonicvector: 228G (3.0%, 228G)
AllInBot: 203G (2.6%, 203G)
pallidsable: 200G (2.6%, 207G)
WitchHunterIX: 180G (2.3%, 180G)
neocarbuncle: 130G (1.7%, 2,464G)

yellow bets:
Kalpho: 1,778G (22.6%, 3,556G)
Baron_von_Scrub: 1,111G (14.2%, 14,702G)
Creggers: 1,000G (12.7%, 10,573G)
wooyuji: 664G (8.5%, 664G)
itsZaes: 623G (7.9%, 623G)
NovaKnight21: 564G (7.2%, 564G)
Deathmaker06: 500G (6.4%, 3,507G)
argentbast: 500G (6.4%, 3,559G)
gorgewall: 401G (5.1%, 10,543G)
getthemoneyz: 286G (3.6%, 697,960G)
kaidykat: 200G (2.5%, 3,037G)
b0shii: 123G (1.6%, 8,941G)
datadrivenbot: 100G (1.3%, 23,485G)
