Final Bets: red - 7 bets for 12,290G (80.1%, x0.25); yellow - 6 bets for 3,057G (19.9%, x4.02)

red bets:
Raixelol: 9,398G (76.5%, 9,398G)
resjudicata3: 1,239G (10.1%, 1,239G)
BartTradingCompany: 652G (5.3%, 6,525G)
gorgewall: 301G (2.4%, 5,990G)
SeniorBunk: 300G (2.4%, 23,009G)
DeathTaxesAndAnime: 200G (1.6%, 1,444G)
datadrivenbot: 200G (1.6%, 56,525G)

yellow bets:
BirbBrainsBot: 1,000G (32.7%, 163,281G)
E_Ballard: 892G (29.2%, 130,458G)
randgridr: 561G (18.4%, 561G)
getthemoneyz: 256G (8.4%, 1,829,802G)
bigbongsmoker: 248G (8.1%, 3,469G)
brodeity: 100G (3.3%, 586G)
