Final Bets: black - 23 bets for 21,938G (75.0%, x0.33); purple - 16 bets for 7,316G (25.0%, x3.00)

black bets:
toka222: 5,000G (22.8%, 104,630G)
Mushufasa_: 3,000G (13.7%, 5,162G)
Zeroroute: 2,705G (12.3%, 2,705G)
g1nger4le: 2,000G (9.1%, 5,033G)
Aldrammech: 1,570G (7.2%, 1,570G)
helpimabug: 1,068G (4.9%, 1,068G)
Thyrandaal: 1,000G (4.6%, 89,339G)
Zbgs: 869G (4.0%, 869G)
maakur_: 608G (2.8%, 608G)
killth3kid: 592G (2.7%, 10,152G)
coralreeferz: 528G (2.4%, 5,094G)
NovaKnight21: 520G (2.4%, 520G)
E_Ballard: 467G (2.1%, 935G)
AllInBot: 368G (1.7%, 368G)
SensualADC: 300G (1.4%, 1,849G)
Salvasti: 240G (1.1%, 240G)
gorgewall: 201G (0.9%, 6,795G)
sphurnt: 200G (0.9%, 637G)
datadrivenbot: 200G (0.9%, 48,608G)
Drusiform: 200G (0.9%, 1,306G)
EmmaEnema: 152G (0.7%, 2,352G)
ammobox69: 100G (0.5%, 100G)
ArlanKels: 50G (0.2%, 484G)

purple bets:
maximumcrit: 2,000G (27.3%, 24,240G)
BirbBrainsBot: 1,000G (13.7%, 156,588G)
DeathTaxesAndAnime: 840G (11.5%, 840G)
Nizaha: 648G (8.9%, 6,895G)
Zagorsek: 536G (7.3%, 536G)
TasisSai: 500G (6.8%, 17,444G)
dogsandcatsand: 428G (5.9%, 46,087G)
Radiance89: 208G (2.8%, 208G)
richardserious: 200G (2.7%, 1,591G)
Lumberinjack: 200G (2.7%, 1,782G)
getthemoneyz: 192G (2.6%, 1,486,076G)
WhattayaBrian: 140G (1.9%, 140G)
GoatShow2: 124G (1.7%, 124G)
CT_5_Holy: 100G (1.4%, 1,158G)
cho_pin: 100G (1.4%, 309G)
nifboy: 100G (1.4%, 3,985G)
