Final Bets: purple - 11 bets for 7,025G (61.3%, x0.63); champion - 9 bets for 4,444G (38.7%, x1.58)

purple bets:
nhammen: 2,000G (28.5%, 81,155G)
VolgraTheMoose: 1,111G (15.8%, 8,447G)
BirbBrainsBot: 1,000G (14.2%, 47,808G)
Aldrammech: 1,000G (14.2%, 65,619G)
powergems: 555G (7.9%, 2,889G)
FFMaster: 422G (6.0%, 422G)
holdenmagronik: 356G (5.1%, 356G)
peanutvendor: 200G (2.8%, 1,018G)
datadrivenbot: 200G (2.8%, 62,194G)
CosmicTactician: 100G (1.4%, 30,596G)
theBinklive: 81G (1.2%, 324G)

champion bets:
toka222: 2,000G (45.0%, 176,122G)
Bryon_W: 1,000G (22.5%, 1,942G)
Zeroroute: 500G (11.3%, 500G)
joeSzaf: 300G (6.8%, 790G)
Lazarus_DS: 159G (3.6%, 159G)
AllInBot: 153G (3.4%, 153G)
gongonono: 120G (2.7%, 120G)
getthemoneyz: 112G (2.5%, 1,683,188G)
Raixelol: 100G (2.3%, 6,648G)
