Final Bets: white - 16 bets for 6,347G (28.0%, x2.58); purple - 9 bets for 16,347G (72.0%, x0.39)

white bets:
Lord_Burrah: 1,371G (21.6%, 113,371G)
Laserman1000: 720G (11.3%, 720G)
sinnyil2: 685G (10.8%, 1,371G)
Mushufasa_: 500G (7.9%, 12,771G)
WhiteTigress: 500G (7.9%, 6,159G)
Raixelol: 344G (5.4%, 3,181G)
bigmeatsunday: 318G (5.0%, 318G)
SephDarkheart: 300G (4.7%, 7,313G)
Absalom_20: 256G (4.0%, 256G)
rNdOrchestra: 252G (4.0%, 252G)
gongonono: 200G (3.2%, 8,903G)
datadrivenbot: 200G (3.2%, 66,128G)
BirbBrainsBot: 200G (3.2%, 200G)
getthemoneyz: 200G (3.2%, 1,795,122G)
Zachara: 200G (3.2%, 137,811G)
gorgewall: 101G (1.6%, 3,670G)

purple bets:
JumbocactuarX27: 13,210G (80.8%, 13,210G)
BartTradingCompany: 1,000G (6.1%, 18,704G)
E_Ballard: 820G (5.0%, 99,973G)
snkey: 382G (2.3%, 382G)
LeoNightFury: 307G (1.9%, 307G)
rocl: 228G (1.4%, 77,376G)
DracoknightZero: 200G (1.2%, 1,439G)
pepperbuster: 100G (0.6%, 100G)
Tarheels218: 100G (0.6%, 5,046G)
