Final Bets: white - 11 bets for 9,327G (40.2%, x1.49); champion - 20 bets for 13,853G (59.8%, x0.67)

white bets:
Leonidusx: 2,087G (22.4%, 2,087G)
pplvee1: 1,961G (21.0%, 3,846G)
sinnyil2: 1,567G (16.8%, 3,135G)
JumbocactuarX27: 1,374G (14.7%, 1,374G)
bigmeatsunday: 937G (10.0%, 937G)
WhiteTigress: 500G (5.4%, 7,960G)
SephDarkheart: 300G (3.2%, 8,394G)
gongonono: 200G (2.1%, 9,623G)
Zeroroute: 200G (2.1%, 200G)
gorgewall: 101G (1.1%, 4,034G)
nifboy: 100G (1.1%, 5,690G)

champion bets:
Willjin: 6,000G (43.3%, 90,522G)
BartTradingCompany: 1,000G (7.2%, 16,704G)
rocl: 1,000G (7.2%, 76,920G)
Mushufasa_: 1,000G (7.2%, 13,559G)
Laserman1000: 669G (4.8%, 3,069G)
getthemoneyz: 626G (4.5%, 1,795,563G)
daveb_: 555G (4.0%, 14,239G)
Lord_Gwarth: 500G (3.6%, 2,199G)
Tarheels218: 356G (2.6%, 4,590G)
Raixelol: 344G (2.5%, 3,723G)
rNdOrchestra: 252G (1.8%, 1,160G)
snkey: 240G (1.7%, 240G)
LeoNightFury: 208G (1.5%, 208G)
pepperbuster: 203G (1.5%, 203G)
datadrivenbot: 200G (1.4%, 66,848G)
DracoknightZero: 200G (1.4%, 1,039G)
BirbBrainsBot: 200G (1.4%, 200G)
Tougou: 100G (0.7%, 7,030G)
Error72: 100G (0.7%, 83,885G)
Thyrandaal: 100G (0.7%, 19,928G)
