Final Bets: blue - 19 bets for 11,695G (51.8%, x0.93); yellow - 10 bets for 10,904G (48.2%, x1.07)

blue bets:
DeathTaxesAndAnime: 2,748G (23.5%, 5,389G)
BirbBrainsBot: 1,000G (8.6%, 172,942G)
ExplanationMarkWow: 1,000G (8.6%, 39,428G)
nhammen: 1,000G (8.6%, 4,644G)
VolgraTheMoose: 968G (8.3%, 968G)
Zerguzen: 801G (6.8%, 801G)
lowlf: 680G (5.8%, 9,428G)
krombobreaker: 500G (4.3%, 46,249G)
2b_yorha_b: 500G (4.3%, 38,532G)
Lord_Gwarth: 500G (4.3%, 6,021G)
3ngag3: 452G (3.9%, 20,041G)
heropong: 328G (2.8%, 328G)
tangenthoodie: 310G (2.7%, 310G)
Twisted_Nutsatchel: 300G (2.6%, 16,008G)
datadrivenbot: 200G (1.7%, 81,406G)
Chuckolator: 112G (1.0%, 1,564G)
maakur_: 100G (0.9%, 2,998G)
king_smashington: 100G (0.9%, 2,864G)
getthemoneyz: 96G (0.8%, 2,212,418G)

yellow bets:
tinytittyfiend: 5,197G (47.7%, 10,395G)
ForagerCats: 1,249G (11.5%, 2,499G)
KasugaiRoastedPeas: 922G (8.5%, 922G)
Laserman1000: 919G (8.4%, 9,719G)
AllInBot: 785G (7.2%, 785G)
ValensEXP_: 532G (4.9%, 1,064G)
technominari: 500G (4.6%, 90,517G)
Wonser: 420G (3.9%, 9,365G)
CCRUNNER149UWP: 280G (2.6%, 280G)
Blastinus: 100G (0.9%, 1,048G)
