Final Bets: purple - 24 bets for 12,641G (70.6%, x0.42); brown - 15 bets for 5,264G (29.4%, x2.40)

purple bets:
HASTERIOUS: 2,898G (22.9%, 5,683G)
DeathTaxesAndAnime: 1,509G (11.9%, 2,959G)
TheChainNerd: 1,500G (11.9%, 32,238G)
CorpusCav: 1,010G (8.0%, 17,376G)
DLJuggernaut: 750G (5.9%, 987G)
moonliquor: 500G (4.0%, 2,376G)
Rislyeu: 500G (4.0%, 12,325G)
DudeMonkey77: 500G (4.0%, 5,082G)
EnemyController: 500G (4.0%, 530,855G)
Cryptopsy70: 488G (3.9%, 2,654G)
E_Ballard: 360G (2.8%, 360G)
metagameface: 316G (2.5%, 316G)
killth3kid: 312G (2.5%, 3,083G)
ColetteMSLP: 300G (2.4%, 1,014G)
HaychDub: 300G (2.4%, 2,737G)
theshinyakuma: 200G (1.6%, 1,309G)
alterworlds: 116G (0.9%, 116G)
nifboy: 100G (0.8%, 6,135G)
Flameatron: 100G (0.8%, 2,964G)
Grandlanzer: 100G (0.8%, 14,859G)
datadrivenbot: 100G (0.8%, 32,848G)
ivellioz: 100G (0.8%, 945G)
Nohurty: 50G (0.4%, 1,444G)
silentkaster: 32G (0.3%, 532G)

brown bets:
BirbBrainsBot: 1,000G (19.0%, 1,598G)
HaateXIII: 608G (11.6%, 608G)
OneHundredFists: 500G (9.5%, 4,134G)
powergems: 407G (7.7%, 407G)
RageImmortaI: 400G (7.6%, 3,627G)
fenaen: 400G (7.6%, 18,947G)
Digitalsocrates: 372G (7.1%, 372G)
getthemoneyz: 358G (6.8%, 803,679G)
BlackFireUK: 272G (5.2%, 272G)
Evewho: 200G (3.8%, 6,298G)
Angelomortis: 200G (3.8%, 1,661G)
benticore: 200G (3.8%, 4,423G)
zepharoth89: 147G (2.8%, 7,398G)
CosmicTactician: 100G (1.9%, 16,751G)
s_o_b_e_q: 100G (1.9%, 7,762G)
