Final Bets: green - 15 bets for 10,857G (43.3%, x1.31); yellow - 23 bets for 14,214G (56.7%, x0.76)

green bets:
DarrenDinosaurs: 1,775G (16.3%, 1,775G)
Firesheath: 1,543G (14.2%, 1,543G)
ShintaroNayaka: 1,255G (11.6%, 1,255G)
SeniorBunk: 1,000G (9.2%, 10,881G)
JumbocactuarX27: 1,000G (9.2%, 27,769G)
Shalloween: 800G (7.4%, 33,980G)
SomthingMore: 700G (6.4%, 51,296G)
killth3kid: 600G (5.5%, 5,993G)
Lanshaft: 548G (5.0%, 16,580G)
ArashiKurobara: 356G (3.3%, 5,168G)
rednecknazgul: 352G (3.2%, 352G)
maximumcrit: 284G (2.6%, 284G)
wiir3mote: 250G (2.3%, 1,000G)
Scurg: 200G (1.8%, 6,809G)
getthemoneyz: 194G (1.8%, 1,496,741G)

yellow bets:
toka222: 3,000G (21.1%, 91,771G)
Laserman1000: 1,532G (10.8%, 1,532G)
VolgraTheMoose: 1,065G (7.5%, 1,065G)
randgridr: 1,000G (7.0%, 12,577G)
JonnyCue: 1,000G (7.0%, 22,600G)
xBizzy: 836G (5.9%, 8,361G)
RunicMagus: 783G (5.5%, 783G)
nifboy: 520G (3.7%, 520G)
TasisSai: 500G (3.5%, 16,797G)
TheArcanum: 500G (3.5%, 1,969G)
letdowncity: 496G (3.5%, 12,146G)
sinnyil2: 450G (3.2%, 841G)
SephDarkheart: 444G (3.1%, 9,807G)
Lord_Gwarth: 400G (2.8%, 2,190G)
AllInBot: 340G (2.4%, 340G)
Othatmattkid: 228G (1.6%, 228G)
BirbBrainsBot: 215G (1.5%, 180,373G)
EmmaEnema: 200G (1.4%, 1,300G)
datadrivenbot: 200G (1.4%, 49,493G)
DesertWooder: 200G (1.4%, 1,154G)
nekojin: 200G (1.4%, 10,345G)
Lyner87: 100G (0.7%, 69,812G)
moonliquor: 5G (0.0%, 46,903G)
