Final Bets: red - 23 bets for 17,504G (72.2%, x0.39); green - 11 bets for 6,749G (27.8%, x2.59)

red bets:
reinoe: 2,000G (11.4%, 67,732G)
sinnyil2: 1,626G (9.3%, 1,626G)
DeathTaxesAndAnime: 1,569G (9.0%, 1,569G)
HaateXIII: 1,496G (8.5%, 1,496G)
DarrenDinosaurs: 1,142G (6.5%, 1,142G)
Zagorsek: 1,087G (6.2%, 2,174G)
JonnyCue: 1,000G (5.7%, 23,374G)
JumbocactuarX27: 1,000G (5.7%, 29,082G)
TheArcanum: 969G (5.5%, 969G)
RunicMagus: 912G (5.2%, 912G)
xBizzy: 895G (5.1%, 8,959G)
killth3kid: 600G (3.4%, 6,768G)
Lanshaft: 548G (3.1%, 16,201G)
TasisSai: 500G (2.9%, 17,288G)
E_Ballard: 500G (2.9%, 500G)
DavenIII: 368G (2.1%, 368G)
Calajo: 256G (1.5%, 348G)
Wooplestein: 236G (1.3%, 236G)
VolgraTheMoose: 201G (1.1%, 2,198G)
wiir3mote: 200G (1.1%, 827G)
datadrivenbot: 200G (1.1%, 49,289G)
ohhinm: 123G (0.7%, 925G)
getthemoneyz: 76G (0.4%, 1,497,767G)

green bets:
toka222: 1,200G (17.8%, 81,296G)
BirbBrainsBot: 1,000G (14.8%, 180,000G)
nekojin: 1,000G (14.8%, 10,566G)
Scurg: 1,000G (14.8%, 13,026G)
AllInBot: 729G (10.8%, 729G)
Laserman1000: 660G (9.8%, 660G)
ArashiKurobara: 356G (5.3%, 6,152G)
ShintaroNayaka: 308G (4.6%, 308G)
LionheartLuso: 246G (3.6%, 246G)
gggamezzz: 200G (3.0%, 3,651G)
DesertWooder: 50G (0.7%, 1,402G)
