Final Bets: purple - 16 bets for 16,315G (47.6%, x1.10); brown - 19 bets for 17,966G (52.4%, x0.91)

purple bets:
otakutaylor: 5,000G (30.6%, 16,319G)
resjudicata3: 2,908G (17.8%, 2,908G)
ColetteMSLP: 1,368G (8.4%, 1,368G)
thunderducker: 1,344G (8.2%, 8,081G)
MemoriesofFinal: 1,151G (7.1%, 1,151G)
BirbBrainsBot: 1,000G (6.1%, 117,754G)
VolgraTheMoose: 908G (5.6%, 30,570G)
ExplanationMarkWow: 500G (3.1%, 19,938G)
technominari: 500G (3.1%, 88,713G)
CorpusCav: 400G (2.5%, 30,224G)
DuPlatypus: 300G (1.8%, 720G)
TheBrett: 236G (1.4%, 4,866G)
AllInBot: 200G (1.2%, 200G)
CosmicTactician: 200G (1.2%, 36,517G)
yagyuudarkness: 200G (1.2%, 909G)
Firesheath: 100G (0.6%, 1,843G)

brown bets:
Virilikus: 5,000G (27.8%, 164,168G)
latebit: 3,024G (16.8%, 75,612G)
Lord_Gwarth: 1,367G (7.6%, 1,367G)
khelor_: 1,111G (6.2%, 1,111G)
RunicMagus: 1,020G (5.7%, 21,040G)
getthemoneyz: 1,000G (5.6%, 2,121,666G)
seppu777: 845G (4.7%, 845G)
killth3kid: 792G (4.4%, 36,995G)
dogsandcatsand: 792G (4.4%, 792G)
NicoSavoy: 524G (2.9%, 524G)
krombobreaker: 500G (2.8%, 20,122G)
Smashy: 500G (2.8%, 2,460G)
KGenjy: 468G (2.6%, 468G)
lotharek: 300G (1.7%, 7,687G)
Reddash9: 212G (1.2%, 212G)
ValensEXP_: 200G (1.1%, 2,566G)
LuckyLuckLuc2: 111G (0.6%, 6,808G)
Sharosa: 100G (0.6%, 1,492G)
scsuperstar: 100G (0.6%, 240G)
