Final Bets: blue - 39 bets for 36,456G (67.9%, x0.47); champion - 26 bets for 17,252G (32.1%, x2.11)

blue bets:
Mtueni: 7,000G (19.2%, 105,592G)
Ququroon: 4,751G (13.0%, 95,031G)
LuckyLuckLuc2: 4,444G (12.2%, 9,786G)
volgrathemoose: 1,400G (3.8%, 1,855G)
AnthraX85: 1,228G (3.4%, 2,048G)
TheFallenMagi: 1,181G (3.2%, 1,181G)
wackyzachyy: 1,075G (2.9%, 1,075G)
UmaiJam: 1,024G (2.8%, 5,123G)
samtimemc: 1,000G (2.7%, 7,558G)
BirbBrainsBot: 1,000G (2.7%, 201,640G)
bad1dea: 1,000G (2.7%, 192,546G)
HASTERIOUS: 1,000G (2.7%, 70,522G)
typicalfanboy: 963G (2.6%, 963G)
roofiepops: 927G (2.5%, 927G)
Zeroroute: 809G (2.2%, 809G)
evdoggity: 743G (2.0%, 743G)
J2DaBibbles: 666G (1.8%, 4,636G)
friendsquirrel: 534G (1.5%, 534G)
Shakarak: 524G (1.4%, 524G)
Evewho: 500G (1.4%, 5,375G)
SeraphPDH: 500G (1.4%, 9,077G)
genoguy: 496G (1.4%, 496G)
HaateXIII: 479G (1.3%, 6,907G)
Lali_Lulelo: 356G (1.0%, 356G)
Glory_Seeker: 348G (1.0%, 348G)
Skarthe: 300G (0.8%, 6,154G)
holyonline: 300G (0.8%, 8,694G)
TheRobbieRobster: 259G (0.7%, 259G)
Arunic: 250G (0.7%, 3,482G)
TheGuesty: 250G (0.7%, 6,000G)
gamesage53: 245G (0.7%, 245G)
ryokubaka: 204G (0.6%, 204G)
ungabunga_bot: 100G (0.3%, 4,566G)
Nizaha: 100G (0.3%, 7,609G)
BadBlanket: 100G (0.3%, 2,017G)
twelfthrootoftwo: 100G (0.3%, 4,021G)
RuneS_77: 100G (0.3%, 5,052G)
datadrivenbot: 100G (0.3%, 16,133G)
Avin_Chaos: 100G (0.3%, 3,063G)

champion bets:
AllInBot: 3,151G (18.3%, 3,151G)
Grasnikk: 2,000G (11.6%, 13,736G)
Oshimi12: 1,458G (8.5%, 1,458G)
lijarkh: 1,264G (7.3%, 1,264G)
Winterharte: 1,243G (7.2%, 7,243G)
Axelrod: 1,043G (6.0%, 20,872G)
Lodrak: 1,001G (5.8%, 18,197G)
AdmiralPikachu: 1,000G (5.8%, 26,849G)
OmnibotGamma: 1,000G (5.8%, 14,086G)
ugoplatamia: 730G (4.2%, 3,654G)
Lanshaft: 568G (3.3%, 12,343G)
waterwatereverywhere: 492G (2.9%, 492G)
Adam1949: 413G (2.4%, 413G)
DustBirdEX: 400G (2.3%, 5,194G)
kingchadking: 284G (1.6%, 284G)
KasugaiRoastedPeas: 200G (1.2%, 34,285G)
boggart742: 174G (1.0%, 174G)
SeriousFaceFace: 116G (0.7%, 116G)
byrdturbo: 111G (0.6%, 1,028G)
Nerf_Vergil: 104G (0.6%, 104G)
denamda: 100G (0.6%, 20,943G)
BrazilianFury: 100G (0.6%, 1,722G)
Cataphract116: 100G (0.6%, 2,155G)
cougboi: 100G (0.6%, 2,432G)
Jeardra: 50G (0.3%, 1,584G)
silentperogy: 50G (0.3%, 9,238G)
