Final Bets: red - 16 bets for 22,069G (67.2%, x0.49); blue - 12 bets for 10,790G (32.8%, x2.05)

red bets:
nhammen: 10,000G (45.3%, 446,849G)
Thyrandaal: 5,000G (22.7%, 17,470G)
latebit: 1,259G (5.7%, 2,469G)
BirbBrainsBot: 1,000G (4.5%, 82,832G)
Laserman1000: 900G (4.1%, 900G)
HaateXIII: 900G (4.1%, 900G)
Forkmore: 600G (2.7%, 54,439G)
fenaen: 568G (2.6%, 568G)
douchetron: 500G (2.3%, 2,012G)
JumbocactuarX27: 412G (1.9%, 412G)
Raixelol: 384G (1.7%, 384G)
lwtest: 200G (0.9%, 3,153G)
bigbongsmoker: 120G (0.5%, 8,042G)
gorgewall: 101G (0.5%, 3,681G)
nifboy: 100G (0.5%, 5,071G)
radishchef: 25G (0.1%, 125G)

blue bets:
Zagorsek: 3,904G (36.2%, 3,904G)
getthemoneyz: 1,000G (9.3%, 1,816,035G)
Sairentozon7: 976G (9.0%, 976G)
YaBoy125: 880G (8.2%, 880G)
E_Ballard: 864G (8.0%, 124,678G)
Nizaha: 808G (7.5%, 87,277G)
CapnChaos12: 674G (6.2%, 674G)
letdowncity: 556G (5.2%, 47,159G)
dogsandcatsand: 528G (4.9%, 528G)
TakKerna: 200G (1.9%, 1,809G)
datadrivenbot: 200G (1.9%, 65,415G)
old_overholt_: 200G (1.9%, 11,689G)
