Final Bets: purple - 15 bets for 9,498G (51.3%, x0.95); brown - 12 bets for 9,006G (48.7%, x1.05)

purple bets:
SQUiDSQUARKLIN: 2,388G (25.1%, 2,388G)
sinnyil2: 2,049G (21.6%, 4,099G)
BirbBrainsBot: 694G (7.3%, 86,189G)
FriendSquirrel: 680G (7.2%, 680G)
evdoggity: 600G (6.3%, 8,320G)
JumbocactuarX27: 559G (5.9%, 559G)
Aldrammech: 500G (5.3%, 6,838G)
KasugaiRoastedPeas: 496G (5.2%, 496G)
SephDarkheart: 332G (3.5%, 13,964G)
tsukiyo2830: 270G (2.8%, 270G)
killth3kid: 250G (2.6%, 18,022G)
datadrivenbot: 200G (2.1%, 65,424G)
ar_tactic: 200G (2.1%, 96,835G)
getthemoneyz: 180G (1.9%, 1,818,932G)
Giganticdwarves: 100G (1.1%, 1,242G)

brown bets:
DLJuggernaut: 2,000G (22.2%, 16,506G)
Laserman1000: 1,733G (19.2%, 1,733G)
latebit: 1,217G (13.5%, 2,388G)
Thyrandaal: 1,000G (11.1%, 10,681G)
Raixelol: 895G (9.9%, 895G)
E_Ballard: 864G (9.6%, 126,445G)
thunderducker: 524G (5.8%, 524G)
rocl: 352G (3.9%, 1,108G)
bigbongsmoker: 120G (1.3%, 7,802G)
gorgewall: 101G (1.1%, 3,613G)
Yangusburger: 100G (1.1%, 7,690G)
radishchef: 100G (1.1%, 100G)
