Final Bets: blue - 12 bets for 7,466G (20.2%, x3.94); green - 16 bets for 29,446G (79.8%, x0.25)

blue bets:
DLJuggernaut: 2,000G (26.8%, 18,615G)
Aldrammech: 1,000G (13.4%, 6,338G)
getthemoneyz: 904G (12.1%, 1,818,752G)
Nizaha: 808G (10.8%, 87,314G)
Zagorsek: 636G (8.5%, 636G)
SQUiDSQUARKLIN: 532G (7.1%, 532G)
altima_ys: 500G (6.7%, 3,282G)
lowlf: 460G (6.2%, 2,896G)
radishchef: 205G (2.7%, 205G)
datadrivenbot: 200G (2.7%, 65,224G)
bigbongsmoker: 120G (1.6%, 7,929G)
gorgewall: 101G (1.4%, 3,720G)

green bets:
Thyrandaal: 11,736G (39.9%, 11,736G)
evdoggity: 7,720G (26.2%, 7,720G)
sinnyil2: 2,050G (7.0%, 2,050G)
latebit: 1,872G (6.4%, 3,671G)
Raixelol: 1,839G (6.2%, 1,839G)
BirbBrainsBot: 1,000G (3.4%, 85,495G)
FriendSquirrel: 680G (2.3%, 680G)
Laserman1000: 461G (1.6%, 2,561G)
JumbocactuarX27: 412G (1.4%, 412G)
YaBoy125: 408G (1.4%, 408G)
NicoSavoy: 336G (1.1%, 336G)
SephDarkheart: 332G (1.1%, 13,632G)
old_overholt_: 200G (0.7%, 13,235G)
CosmicTactician: 200G (0.7%, 47,667G)
Yangusburger: 100G (0.3%, 7,795G)
TheSabretoothe: 100G (0.3%, 900G)
