Final Bets: blue - 8 bets for 2,234G (16.3%, x5.13); green - 15 bets for 11,471G (83.7%, x0.19)

blue bets:
YaBoy125: 929G (41.6%, 929G)
Sitiran: 322G (14.4%, 3,222G)
ungabunga_bot: 216G (9.7%, 181,579G)
mastershango: 200G (9.0%, 4,248G)
GSaucer: 190G (8.5%, 396G)
AllInBot: 177G (7.9%, 177G)
Jeeboheebo: 100G (4.5%, 954G)
Slowbrofist: 100G (4.5%, 2,178G)

green bets:
WireLord: 3,000G (26.2%, 68,191G)
leakimiko: 1,445G (12.6%, 1,445G)
Lydian_C: 1,200G (10.5%, 143,153G)
BirbBrainsBot: 1,000G (8.7%, 37,787G)
HaplessOne: 1,000G (8.7%, 111,884G)
aStatue: 883G (7.7%, 883G)
getthemoneyz: 682G (5.9%, 523,521G)
mirapoix: 680G (5.9%, 680G)
Dexsana: 523G (4.6%, 523G)
R_Raynos: 312G (2.7%, 312G)
Galvior: 300G (2.6%, 3,328G)
elijahrockers: 200G (1.7%, 677G)
sparsuvar: 177G (1.5%, 177G)
DrAntiSocial: 50G (0.4%, 14,992G)
roqqqpsi: 19G (0.2%, 987G)
