Final Bets: white - 11 bets for 5,989G (46.1%, x1.17); purple - 13 bets for 7,011G (53.9%, x0.85)

white bets:
Lionhermit: 1,620G (27.0%, 3,178G)
LivingHitokiri: 1,000G (16.7%, 13,198G)
Draconis345: 1,000G (16.7%, 52,618G)
reinoe: 500G (8.3%, 61,177G)
josephiroth_143: 414G (6.9%, 414G)
TeaTime29: 395G (6.6%, 791G)
AllInBot: 370G (6.2%, 370G)
Zachara: 250G (4.2%, 88,000G)
7Cerulean7: 240G (4.0%, 8,325G)
datadrivenbot: 100G (1.7%, 28,527G)
Evewho: 100G (1.7%, 6,394G)

purple bets:
Kyune: 2,000G (28.5%, 18,236G)
Saldarin: 1,000G (14.3%, 2,351G)
BirbBrainsBot: 1,000G (14.3%, 63,178G)
ColetteMSLP: 600G (8.6%, 51,484G)
bruubarg: 503G (7.2%, 503G)
gogofromtogo: 500G (7.1%, 7,893G)
Digitalsocrates: 328G (4.7%, 328G)
CrownOfHorns: 307G (4.4%, 307G)
Powermhero: 256G (3.7%, 14,156G)
nok____: 178G (2.5%, 19,438G)
getthemoneyz: 138G (2.0%, 758,455G)
gorgewall: 101G (1.4%, 17,019G)
DAC169: 100G (1.4%, 994G)
