Final Bets: red - 11 bets for 6,169G (49.5%, x1.02); green - 18 bets for 6,305G (50.5%, x0.98)

red bets:
nifboy: 1,000G (16.2%, 8,724G)
LDSkinny: 1,000G (16.2%, 11,533G)
Aldrammech: 1,000G (16.2%, 15,178G)
CorpusCav: 700G (11.3%, 12,220G)
namamu: 543G (8.8%, 24,267G)
Cryptopsy70: 460G (7.5%, 3,699G)
pac217: 418G (6.8%, 418G)
ShintaroNayaka: 400G (6.5%, 5,119G)
getthemoneyz: 360G (5.8%, 729,138G)
otakutaylor: 200G (3.2%, 2,203G)
daveb_: 88G (1.4%, 2,909G)

green bets:
BirbBrainsBot: 1,000G (15.9%, 183,348G)
Spartan_Paladin: 860G (13.6%, 63,365G)
fire_________________: 629G (10.0%, 629G)
volgrathemoose: 500G (7.9%, 1,413G)
coralreeferz: 450G (7.1%, 11,917G)
FriendSquirrel: 400G (6.3%, 400G)
holyonline: 400G (6.3%, 400G)
TeaTime29: 360G (5.7%, 360G)
HaateXIII: 300G (4.8%, 5,021G)
Xcessive30: 300G (4.8%, 416G)
AllInBot: 204G (3.2%, 204G)
Meta_Five: 200G (3.2%, 22,692G)
cloud92684: 200G (3.2%, 6,108G)
serperemagus: 152G (2.4%, 152G)
RunicMagus: 100G (1.6%, 29,762G)
E_Ballard: 100G (1.6%, 7,914G)
datadrivenbot: 100G (1.6%, 21,062G)
zepharoth89: 50G (0.8%, 1,057G)
