Final Bets: red - 10 bets for 10,907G (43.5%, x1.30); blue - 10 bets for 14,162G (56.5%, x0.77)

red bets:
prince_rogers_nelson_: 6,525G (59.8%, 6,525G)
BirbBrainsBot: 1,000G (9.2%, 25,027G)
dantayystv: 1,000G (9.2%, 23,122G)
Error72: 849G (7.8%, 1,665G)
joewcarson: 500G (4.6%, 28,419G)
Xoomwaffle: 450G (4.1%, 7,292G)
AllInBot: 200G (1.8%, 200G)
DouglasDragonThePoet: 150G (1.4%, 1,886G)
Chuckolator: 133G (1.2%, 35,393G)
CosmicTactician: 100G (0.9%, 44,356G)

blue bets:
dogsandcatsand: 5,051G (35.7%, 9,904G)
PrudishDuckling: 3,361G (23.7%, 6,722G)
NIghtdew14: 2,183G (15.4%, 10,915G)
TheChainNerd: 1,500G (10.6%, 60,757G)
randgridr: 619G (4.4%, 619G)
ShintaroNayaka: 400G (2.8%, 8,988G)
TheMurkGnome: 378G (2.7%, 4,370G)
SephDarkheart: 316G (2.2%, 53,465G)
datadrivenbot: 200G (1.4%, 32,469G)
getthemoneyz: 154G (1.1%, 1,301,812G)
