Final Bets: green - 8 bets for 3,463G (8.5%, x10.82); yellow - 21 bets for 37,483G (91.5%, x0.09)

green bets:
Mtueni: 1,000G (28.9%, 261,750G)
sinnyil2: 981G (28.3%, 981G)
DavenIII: 580G (16.7%, 580G)
IndecisiveNinja: 476G (13.7%, 476G)
Fanduscus: 118G (3.4%, 118G)
itsdigitalbro: 108G (3.1%, 108G)
Bojanges: 100G (2.9%, 5,469G)
cinnamon_bruh_moment: 100G (2.9%, 872G)

yellow bets:
FoxtrotNovemberCharlie: 22,121G (59.0%, 22,121G)
Mesmaster: 3,000G (8.0%, 24,192G)
Pie108: 2,000G (5.3%, 209,919G)
ACSpree: 1,341G (3.6%, 1,341G)
HaplessOne: 1,111G (3.0%, 11,292G)
BirbBrainsBot: 1,000G (2.7%, 120,879G)
ungabunga_bot: 1,000G (2.7%, 288,255G)
JumbocactuarX27: 1,000G (2.7%, 18,076G)
ColetteMSLP: 800G (2.1%, 40,541G)
getthemoneyz: 796G (2.1%, 611,196G)
Lydian_C: 604G (1.6%, 604G)
reinoe: 600G (1.6%, 600G)
HaateXIII: 500G (1.3%, 37,657G)
ins4n1ty87: 500G (1.3%, 7,528G)
Pink_LuigiX: 381G (1.0%, 381G)
keddril: 200G (0.5%, 926G)
ZephyrTempest: 117G (0.3%, 781G)
LiQuid3600: 112G (0.3%, 112G)
FriendSquirrel: 100G (0.3%, 27,665G)
Jahshine: 100G (0.3%, 1,778G)
HorusTaurus: 100G (0.3%, 7,223G)
