High Risers:
1. Nok____: +2,611G
2. Shalloween: +2,140G
3. Sinnyil2: +1,605G
4. Reinoe: +1,556G
5. Sephdarkheart: +1,453G
6. Abandonedhall: +1,300G
7. Horustaurus: +1,294G
8. Capnchaos12: +622G
9. Holdenmagronik: +372G
10. Oreo_pizza: +369G
11. Lolthsmeat: +326G
12. Galkife: +229G
13. Ayeayex3: +189G
14. Upvla: +178G
15. Galeronis: +133G
16. Forkmore: -1,200G
17. Horustaurus: +1,294G
18. Holdenmagronik: +372G
19. Strifu: -546G
20. Fenaen: -1,230G
21. Abandonedhall: +1,300G
22. Kinniquacks: -2,368G
23. Pplvee1: -2,019G
24. Run_with_stone_guns: -1,400G
25. Shalloween: +2,140G
26. Smashy: -400G
27. Brokenknight201: -696G
28. Zagorsek: -1,000G
29. Upvla: +178G
30. Cryptopsy70: -1,067G
31. Dogsandcatsand: -900G
32. Sairentozon7: +33G
33. Capnchaos12: +622G
34. Kellios11: -1,100G
35. Seniorbunk: -200G
36. Ar_tactic: -503G
37. Deathtaxesandanime: -1,000G
38. Genkidou: -433G
39. Altimamantoid: -607G
40. Volgrathemoose: -1,000G
41. Latebit: -594G
42. Thesabretoothe: -739G
43. Actual_jp: -100G
44. Belkra: -1,300G
45. Nifboy: +133G
46. Ldskinny: -80G
47. Foesquirrel: -634G
48. Ayeayex3: +189G
49. Corpuscav: -1,000G
50. Sinnyil2: +1,605G
51. Snarkmage: -1,264G
52. Dljuggernaut: +57G
53. Mirapoix: -100G
54. Reinoe: +1,556G
55. Phi_sig: -400G
56. Gelwain: -1,000G
57. Khelor_: -581G
58. Oreo_pizza: +369G
59. Z3r0_1: -26G
