Final Bets: red - 15 bets for 23,983G (85.7%, x0.17); white - 12 bets for 4,002G (14.3%, x5.99)

red bets:
toka222: 5,000G (20.8%, 364,662G)
Shalloween: 4,992G (20.8%, 9,984G)
KinniQuacks: 4,000G (16.7%, 12,031G)
DavenIII: 3,216G (13.4%, 6,432G)
latebit: 2,014G (8.4%, 2,014G)
AbandonedHall: 1,266G (5.3%, 1,266G)
HorusTaurus: 799G (3.3%, 799G)
upvla: 794G (3.3%, 794G)
Lord_Gwarth: 590G (2.5%, 590G)
Cryptopsy70: 384G (1.6%, 1,369G)
AltimaMantoid: 250G (1.0%, 23,000G)
Lolthsmeat: 250G (1.0%, 250G)
AllInBot: 200G (0.8%, 200G)
SnarkMage: 128G (0.5%, 1,392G)
Z3R0_1: 100G (0.4%, 1,780G)

white bets:
sinnyil2: 1,200G (30.0%, 191,092G)
Galeronis: 659G (16.5%, 659G)
fenaen: 516G (12.9%, 10,070G)
holdenmagronik: 460G (11.5%, 1,455G)
scsuperstar: 339G (8.5%, 339G)
nok____: 200G (5.0%, 2,786G)
getthemoneyz: 170G (4.2%, 2,053,635G)
ar_tactic: 150G (3.7%, 88,602G)
nhammen: 100G (2.5%, 290,496G)
Genkidou: 100G (2.5%, 1,030G)
Strifu: 100G (2.5%, 2,380G)
BirbBrainsBot: 8G (0.2%, 114,090G)
