High Risers:
1. Sinnyil2: +6,266G
2. Skylerbunny: +5,009G
3. J_52: +3,789G
4. Upvla: +2,747G
5. Seppu777: +2,385G
6. Bruubarg: +2,066G
7. Vorackgriever: +1,504G
8. Firesheath: +1,455G
9. Hasterious: +1,384G
10. Aly327: +1,200G
11. Chuckolator: +1,049G
12. Victoriolue: +1,040G
13. Chihuahua_charity: +1,028G
14. Arrenjevleth: +1,005G
15. Archknightx: +1,000G
16. Seaweed_b: +1,000G
17. Douchetron: +1,000G
18. Inskipjester: +1,000G
19. Thesabretoothe: +1,000G
20. Morsigil: +1,000G
21. Latebit: +902G
22. Seniorbunk: +804G
23. Dac169: +800G
24. Reddwind_: +668G
25. Mindblownnnn: +550G
26. Whitetigress: +500G
27. Thunderducker: +500G
28. Killth3kid: +481G
29. Memoriesoffinal: +383G
30. Ar_tactic: +361G
31. Mushufasa_: +316G
32. Go2sleeptv: +300G
33. Pantheriscariot: +230G
34. Sairentozon7: +200G
35. Neech: +196G
36. Ser_pyrro: +147G
37. Kronikle: +44G
38. Zerguzen: +4G
39. Ogema_thedream: -156G
40. Valensexp_: -190G
41. Ninjaboy3234: -256G
42. Raixelol: -325G
43. Corpuscav: -382G
44. Lazarus_ds: -491G
45. Thyrandaal: -796G
46. Deathtaxesandanime: -990G
47. Mirapoix: -1,479G
48. 3ngag3: -1,849G
49. Ct_5_holy: -2,200G
50. Mesmaster: -7,517G
