Final Bets: purple - 20 bets for 17,188G (70.3%, x0.42); brown - 11 bets for 7,275G (29.7%, x2.36)

purple bets:
lowlf: 3,513G (20.4%, 3,513G)
Leonidusx: 2,000G (11.6%, 516,517G)
Nickyfive: 2,000G (11.6%, 7,757G)
BirbBrainsBot: 1,000G (5.8%, 183,936G)
nhammen: 1,000G (5.8%, 28,648G)
latebit: 1,000G (5.8%, 19,976G)
heropong: 931G (5.4%, 931G)
DHaveWord: 890G (5.2%, 890G)
CosmicTactician: 568G (3.3%, 568G)
Zachara: 556G (3.2%, 5,056G)
krombobreaker: 500G (2.9%, 39,064G)
AnthroMetal: 500G (2.9%, 14,559G)
2b_yorha_b: 500G (2.9%, 27,277G)
khelor_: 500G (2.9%, 2,850G)
Lord_Gwarth: 500G (2.9%, 5,374G)
getthemoneyz: 430G (2.5%, 2,196,782G)
AllInBot: 200G (1.2%, 200G)
Sharosa: 200G (1.2%, 2,693G)
resjudicata3: 200G (1.2%, 8,608G)
datadrivenbot: 200G (1.2%, 84,206G)

brown bets:
nifboy: 1,314G (18.1%, 1,314G)
Mushufasa_: 1,234G (17.0%, 23,132G)
randgridr: 1,006G (13.8%, 1,006G)
killth3kid: 856G (11.8%, 60,215G)
Zagorsek: 715G (9.8%, 715G)
maakur_: 700G (9.6%, 700G)
holdenmagronik: 504G (6.9%, 4,438G)
JonnyCue: 484G (6.7%, 12,477G)
Bryon_W: 200G (2.7%, 11,334G)
FuzzyTigers: 162G (2.2%, 162G)
DarrenDinosaurs: 100G (1.4%, 2,810G)
