Final Bets: green - 19 bets for 17,059G (74.3%, x0.35); yellow - 8 bets for 5,898G (25.7%, x2.89)

green bets:
Shalloween: 5,000G (29.3%, 127,666G)
coralreeferz: 3,500G (20.5%, 18,948G)
Laserman1000: 1,285G (7.5%, 2,521G)
Error72: 1,123G (6.6%, 1,123G)
BirbBrainsBot: 1,000G (5.9%, 159,985G)
JumbocactuarX27: 646G (3.8%, 646G)
Nizaha: 560G (3.3%, 9,570G)
letdowncity: 528G (3.1%, 528G)
CapnChaos12: 500G (2.9%, 8,208G)
killth3kid: 468G (2.7%, 5,525G)
Thyrandaal: 444G (2.6%, 444G)
oldmanbody: 400G (2.3%, 891G)
Lord_Gwarth: 300G (1.8%, 4,237G)
skipsandwiches: 260G (1.5%, 8,009G)
AllInBot: 258G (1.5%, 258G)
oldchris: 250G (1.5%, 5,470G)
getthemoneyz: 214G (1.3%, 1,336,605G)
holdenmagronik: 200G (1.2%, 200G)
ohhinm: 123G (0.7%, 6,374G)

yellow bets:
KyleWonToLiveForever: 2,000G (33.9%, 14,834G)
dogsandcatsand: 1,131G (19.2%, 1,131G)
Firesheath: 1,000G (17.0%, 15,392G)
pplvee1: 1,000G (17.0%, 18,686G)
RaIshtar: 496G (8.4%, 496G)
Lydian_C: 121G (2.1%, 76,637G)
mirapoix: 100G (1.7%, 4,038G)
DouglasDragonThePoet: 50G (0.8%, 1,422G)
