Final Bets: red - 13 bets for 19,938G (56.1%, x0.78); green - 16 bets for 15,577G (43.9%, x1.28)

red bets:
pplvee1: 14,452G (72.5%, 14,452G)
Lord_Burrah: 1,724G (8.6%, 82,724G)
Shalloween: 1,000G (5.0%, 129,095G)
Nizaha: 560G (2.8%, 9,204G)
JumbocactuarX27: 500G (2.5%, 500G)
oldchris: 500G (2.5%, 5,357G)
EvilJMcNasty: 500G (2.5%, 101,969G)
BoneMiser: 200G (1.0%, 6,072G)
douchetron: 116G (0.6%, 116G)
mirapoix: 100G (0.5%, 3,489G)
DouglasDragonThePoet: 100G (0.5%, 1,513G)
possumm: 100G (0.5%, 2,741G)
getthemoneyz: 86G (0.4%, 1,339,347G)

green bets:
TheChainNerd: 5,076G (32.6%, 5,076G)
AllInBot: 2,539G (16.3%, 2,539G)
KyleWonToLiveForever: 2,000G (12.8%, 10,834G)
coralreeferz: 1,500G (9.6%, 21,571G)
oldmanbody: 932G (6.0%, 932G)
BirbBrainsBot: 624G (4.0%, 158,331G)
benticore: 500G (3.2%, 31,138G)
Lord_Gwarth: 500G (3.2%, 3,841G)
DLJuggernaut: 376G (2.4%, 376G)
Thyrandaal: 344G (2.2%, 344G)
dtrain332: 342G (2.2%, 342G)
CapnChaos12: 300G (1.9%, 9,683G)
holdenmagronik: 200G (1.3%, 200G)
ohhinm: 123G (0.8%, 6,951G)
Lydian_C: 121G (0.8%, 77,041G)
Miku_Shikhu: 100G (0.6%, 15,544G)
