Final Bets: white - 29 bets for 14,611G (62.1%, x0.61); black - 10 bets for 8,910G (37.9%, x1.64)

white bets:
Zeroroute: 2,930G (20.1%, 5,338G)
volgrathemoose: 1,500G (10.3%, 8,251G)
HaateXIII: 1,500G (10.3%, 32,583G)
BirbBrainsBot: 1,000G (6.8%, 144,596G)
Laserman1000: 659G (4.5%, 47,359G)
dliv2341: 604G (4.1%, 604G)
deenglow: 500G (3.4%, 36,982G)
XalSmellsBad: 500G (3.4%, 8,940G)
feDoran: 500G (3.4%, 7,806G)
Dymntd: 500G (3.4%, 1,191G)
Rastanar: 500G (3.4%, 13,100G)
getthemoneyz: 464G (3.2%, 567,554G)
JackOnFire1: 430G (2.9%, 430G)
gooseyourself: 364G (2.5%, 1,848G)
goro_0924: 304G (2.1%, 304G)
SQUiDSQUARKLIN: 300G (2.1%, 2,108G)
EnemyController: 300G (2.1%, 89,111G)
BroHamma: 250G (1.7%, 9,175G)
killth3kid: 204G (1.4%, 18,982G)
Nizaha: 201G (1.4%, 15,002G)
duskps: 200G (1.4%, 8,802G)
Rivonus: 200G (1.4%, 7,389G)
sect_cor: 150G (1.0%, 27,350G)
ZephyrTempest: 101G (0.7%, 181,120G)
AllInBot: 100G (0.7%, 100G)
twelfthrootoftwo: 100G (0.7%, 7,756G)
datadrivenbot: 100G (0.7%, 2,571G)
smurphy000000: 100G (0.7%, 855G)
DrAntiSocial: 50G (0.3%, 23,632G)

black bets:
itzover9001: 5,000G (56.1%, 33,368G)
TheMurkGnome: 1,000G (11.2%, 8,372G)
Adam1949: 1,000G (11.2%, 27,000G)
CapnChaos12: 500G (5.6%, 47,822G)
Evewho: 388G (4.4%, 388G)
Wrin_: 296G (3.3%, 296G)
Conome: 280G (3.1%, 280G)
ThePineappleSalesman: 200G (2.2%, 16,470G)
avathesunqueen: 143G (1.6%, 143G)
ungabunga_bot: 103G (1.2%, 215,376G)
