High Risers:
1. Ibluntdouble: +4,767G
2. Sephdarkheart: +3,215G
3. Volgrathemoose: +2,556G
4. Runicmagus: +2,374G
5. Mindblownnnn: +1,163G
6. Horustaurus: +1,045G
7. Creationz89: +1,000G
8. Resjudicata3: +989G
9. Mushufasa_: +966G
10. Corpuscav: +939G
11. Deathtaxesandanime: +524G
12. Cryptopsy70: +456G
13. Haatexiii: +314G
14. Altimamantoid: +280G
15. Jenenebatmann: +262G
16. Foragercats: +162G
17. 3ngag3: +158G
18. Krombobreaker: +155G
19. Shalloween: +153G
20. Valensexp_: +112G
21. Moonsugarfiend: +62G
22. Maakur_: +44G
23. Latebit: -7G
24. Blakelmenakle: -14G
25. Organicartist: -85G
26. Daveniii: -100G
27. Colettemslp: -107G
28. Nhammen: -165G
29. Nicosavoy: -200G
30. Just_here2: -200G
31. Silentkaster: -218G
32. Tripaplex: -296G
33. Chuckolator: -300G
34. Firesheath: -305G
35. Docstn: -399G
36. Ruleof5: -400G
37. Error72: -400G
38. Gorgewall: -619G
39. Memoriesoffinal: -685G
40. Lord_gwarth: -770G
41. Laserman1000: -819G
42. Onehundredfists: -867G
43. Rytor: -897G
44. Evewho: -964G
45. Thyrandaal: -1,000G
46. Baronhaynes: -1,000G
47. Strumisgod: -1,000G
48. Roofiepops: -1,105G
49. Belkra: -1,273G
50. Lyner87: -1,461G
51. Smashy: -1,800G
52. Nizaha: -2,726G
53. Sairentozon7: -3,414G
54. Skillomono: -3,916G
