Final Bets: yellow - 13 bets for 5,851G (35.9%, x1.78); brown - 18 bets for 10,432G (64.1%, x0.56)

yellow bets:
BirbBrainsBot: 1,000G (17.1%, 171,123G)
mindblownnnn: 1,000G (17.1%, 4,211G)
OrganicArtist: 666G (11.4%, 1,270G)
Nizaha: 604G (10.3%, 11,631G)
silentkaster: 428G (7.3%, 428G)
Lyner87: 402G (6.9%, 402G)
ValensEXP_: 396G (6.8%, 1,452G)
getthemoneyz: 354G (6.1%, 2,085,656G)
HorusTaurus: 201G (3.4%, 8,195G)
AllInBot: 200G (3.4%, 200G)
Evewho: 200G (3.4%, 2,081G)
resjudicata3: 200G (3.4%, 2,984G)
MemoriesofFinal: 200G (3.4%, 2,892G)

brown bets:
iBluntDouble: 2,413G (23.1%, 2,413G)
RunicMagus: 1,050G (10.1%, 22,732G)
Firesheath: 917G (8.8%, 917G)
VolgraTheMoose: 868G (8.3%, 15,994G)
HaateXIII: 712G (6.8%, 712G)
OneHundredFists: 568G (5.4%, 568G)
krombobreaker: 500G (4.8%, 16,144G)
ForagerCats: 500G (4.8%, 4,530G)
AltimaMantoid: 500G (4.8%, 24,000G)
SephDarkheart: 412G (3.9%, 3,675G)
CorpusCav: 400G (3.8%, 14,732G)
roofiepops: 400G (3.8%, 1,634G)
3ngag3: 388G (3.7%, 4,421G)
Blakelmenakle: 200G (1.9%, 13,539G)
Lord_Gwarth: 200G (1.9%, 3,475G)
datadrivenbot: 200G (1.9%, 75,559G)
DocSTN: 104G (1.0%, 104G)
nhammen: 100G (1.0%, 237,163G)
