Final Bets: red - 14 bets for 8,427G (23.5%, x3.26); yellow - 15 bets for 27,476G (76.5%, x0.31)

red bets:
NIghtdew14: 1,413G (16.8%, 1,413G)
Aldrammech: 1,298G (15.4%, 1,298G)
BirbBrainsBot: 1,000G (11.9%, 115,571G)
Thyrandaal: 1,000G (11.9%, 131,348G)
Forkmore: 777G (9.2%, 20,195G)
HaateXIII: 644G (7.6%, 644G)
killth3kid: 588G (7.0%, 13,625G)
silverChangeling: 500G (5.9%, 6,574G)
pplvee1: 414G (4.9%, 813G)
Smashy: 300G (3.6%, 7,550G)
AllInBot: 200G (2.4%, 200G)
gorgewall: 101G (1.2%, 7,688G)
Firesheath: 100G (1.2%, 2,784G)
getthemoneyz: 92G (1.1%, 1,459,178G)

yellow bets:
NicoSavoy: 16,489G (60.0%, 329,790G)
Chuckolator: 2,754G (10.0%, 11,134G)
SkylerBunny: 2,000G (7.3%, 77,289G)
reddwind_: 1,000G (3.6%, 11,408G)
poGpopE: 1,000G (3.6%, 63,071G)
randgridr: 856G (3.1%, 856G)
mpghappiness: 600G (2.2%, 600G)
Zeroroute: 600G (2.2%, 600G)
Miku_Shikhu: 586G (2.1%, 586G)
Brainstew29: 500G (1.8%, 9,972G)
Treafa: 340G (1.2%, 476G)
UnderOneLight: 285G (1.0%, 285G)
datadrivenbot: 200G (0.7%, 45,797G)
silentkaster: 166G (0.6%, 8,166G)
CT_5_Holy: 100G (0.4%, 2,272G)
