Final Bets: white - 11 bets for 5,034G (48.0%, x1.08); black - 14 bets for 5,455G (52.0%, x0.92)

white bets:
BirbBrainsBot: 1,000G (19.9%, 159,800G)
getthemoneyz: 1,000G (19.9%, 1,727,889G)
roqqqpsi: 565G (11.2%, 621G)
DavenIII: 500G (9.9%, 131,891G)
skipsandwiches: 500G (9.9%, 2,744G)
skillomono: 366G (7.3%, 732G)
DouglasDragonThePoet: 272G (5.4%, 272G)
cho_pin: 244G (4.8%, 244G)
Chihuahua_Charity: 230G (4.6%, 230G)
gongonono: 200G (4.0%, 2,412G)
AllInBot: 157G (3.1%, 157G)

black bets:
Willjin: 1,000G (18.3%, 4,302G)
RaIshtar: 776G (14.2%, 776G)
E_Ballard: 724G (13.3%, 44,879G)
VolgraTheMoose: 501G (9.2%, 33,880G)
duchesssx: 500G (9.2%, 9,743G)
WhattayaBrian: 478G (8.8%, 478G)
NIghtdew14: 380G (7.0%, 380G)
ZephyrBurst83: 375G (6.9%, 375G)
datadrivenbot: 200G (3.7%, 64,900G)
Lazarus_DS: 116G (2.1%, 116G)
Tecc2: 104G (1.9%, 104G)
gorgewall: 101G (1.9%, 19,952G)
Mister_Quof: 100G (1.8%, 1,500G)
SephDarkheart: 100G (1.8%, 151,002G)
