Final Bets: white - 20 bets for 8,165G (47.7%, x1.10); black - 20 bets for 8,947G (52.3%, x0.91)

white bets:
Aldrammech: 1,000G (12.2%, 16,767G)
killth3kid: 1,000G (12.2%, 19,286G)
cloud92684: 1,000G (12.2%, 7,574G)
powergems: 1,000G (12.2%, 2,149G)
ANFz: 757G (9.3%, 757G)
letdowncity: 500G (6.1%, 7,936G)
Rislyeu: 468G (5.7%, 468G)
luminarii: 450G (5.5%, 21,359G)
bruubarg: 400G (4.9%, 1,809G)
ShintaroNayaka: 400G (4.9%, 6,397G)
CT_5_Holy: 276G (3.4%, 276G)
ColetteMSLP: 200G (2.4%, 200G)
nothclif: 104G (1.3%, 104G)
Evewho: 100G (1.2%, 2,975G)
dankeyepatch_2077: 100G (1.2%, 900G)
maakur_: 100G (1.2%, 2,595G)
moocaotao: 100G (1.2%, 681G)
datadrivenbot: 100G (1.2%, 30,514G)
E_Ballard: 100G (1.2%, 1,384G)
Milkman153: 10G (0.1%, 1,376G)

black bets:
Shakarak: 1,200G (13.4%, 64,999G)
Lionhermit: 1,000G (11.2%, 4,022G)
BirbBrainsBot: 938G (10.5%, 119,125G)
LAGBOT30000: 764G (8.5%, 15,283G)
KyleWonToLiveForever: 624G (7.0%, 624G)
Sairentozon7: 504G (5.6%, 504G)
shs_: 500G (5.6%, 14,052G)
nifboy: 500G (5.6%, 10,364G)
volgrathemoose: 500G (5.6%, 500G)
Dymntd: 500G (5.6%, 46,795G)
Baron_von_Scrub: 474G (5.3%, 34,765G)
getthemoneyz: 230G (2.6%, 781,516G)
cogniv0r3: 206G (2.3%, 206G)
Flameatron: 200G (2.2%, 916G)
gogofromtogo: 200G (2.2%, 1,213G)
CorpusCav: 199G (2.2%, 53,183G)
alterworlds: 108G (1.2%, 108G)
red_celt: 100G (1.1%, 1,709G)
Grandlanzer: 100G (1.1%, 6,477G)
Meta_Five: 100G (1.1%, 8,595G)
