Final Bets: purple - 10 bets for 12,004G (70.8%, x0.41); brown - 11 bets for 4,956G (29.2%, x2.42)

purple bets:
PatSouI: 5,000G (41.7%, 28,684G)
HASTERIOUS: 2,500G (20.8%, 5,782G)
HaplessOne: 2,000G (16.7%, 76,824G)
ColetteMSLP: 1,000G (8.3%, 40,987G)
mayormcfunbags: 770G (6.4%, 770G)
Humble_Fabio: 320G (2.7%, 320G)
ungabunga_bot: 144G (1.2%, 171,161G)
ApplesauceBoss: 100G (0.8%, 3,295G)
datadrivenbot: 88G (0.7%, 100G)
roqqqpsi: 82G (0.7%, 4,129G)

brown bets:
sinnyil2: 1,200G (24.2%, 29,849G)
Anomandaris__: 1,000G (20.2%, 13,154G)
BirbBrainsBot: 1,000G (20.2%, 210,869G)
getthemoneyz: 328G (6.6%, 503,888G)
NovaKnight21: 312G (6.3%, 312G)
Dexsana: 280G (5.6%, 280G)
PotionDweller: 250G (5.0%, 4,424G)
tinyjeans: 200G (4.0%, 200G)
mastershango: 182G (3.7%, 182G)
Estan_AD: 104G (2.1%, 104G)
CassiePhoenix: 100G (2.0%, 3,548G)
