Final Bets: red - 16 bets for 9,154G (54.6%, x0.83); white - 14 bets for 7,612G (45.4%, x1.20)

red bets:
BlackFireUK: 3,592G (39.2%, 3,592G)
killth3kid: 1,444G (15.8%, 14,441G)
BirbBrainsBot: 1,000G (10.9%, 23,430G)
TheChainNerd: 554G (6.1%, 2,554G)
superdevon1: 500G (5.5%, 4,720G)
eudes89: 500G (5.5%, 9,083G)
letdowncity: 300G (3.3%, 17,076G)
DeadGirlzREasy: 300G (3.3%, 19,083G)
fluffskull: 200G (2.2%, 1,091G)
getthemoneyz: 164G (1.8%, 959,018G)
nifboy: 100G (1.1%, 3,486G)
Tougou: 100G (1.1%, 2,842G)
ANFz: 100G (1.1%, 4,120G)
datadrivenbot: 100G (1.1%, 38,834G)
d4rr1n: 100G (1.1%, 8,243G)
NeoKevlar: 100G (1.1%, 5,376G)

white bets:
AllInBot: 2,955G (38.8%, 2,955G)
Baron_von_Scrub: 1,252G (16.4%, 2,505G)
OppressivelyMinty: 1,000G (13.1%, 4,008G)
actual_JP: 703G (9.2%, 703G)
Yiroep2: 490G (6.4%, 490G)
Kronikle: 200G (2.6%, 17,660G)
Koorndog: 200G (2.6%, 550G)
alithesillybird: 200G (2.6%, 3,043G)
DrPoopersMD: 104G (1.4%, 104G)
Azelgrim: 104G (1.4%, 104G)
Dickawesome: 104G (1.4%, 104G)
Quadh0nk: 100G (1.3%, 2,618G)
E_Ballard: 100G (1.3%, 6,717G)
MadnessR: 100G (1.3%, 2,172G)
