Final Bets: red - 17 bets for 6,146G (25.3%, x2.95); champion - 21 bets for 18,159G (74.7%, x0.34)

red bets:
killth3kid: 1,564G (25.4%, 15,642G)
evdoggity: 1,000G (16.3%, 27,401G)
BirbBrainsBot: 646G (10.5%, 24,262G)
superdevon1: 500G (8.1%, 5,136G)
eudes89: 500G (8.1%, 9,499G)
OppressivelyMinty: 300G (4.9%, 3,008G)
KasugaiRoastedPeas: 300G (4.9%, 2,851G)
DeadGirlzREasy: 300G (4.9%, 19,332G)
TheChainNerd: 250G (4.1%, 3,015G)
Azelgrim: 104G (1.7%, 104G)
AllInBot: 100G (1.6%, 100G)
Aldrammech: 100G (1.6%, 3,648G)
Ring_Wyrm: 100G (1.6%, 3,733G)
Kronikle: 100G (1.6%, 17,460G)
NeoKevlar: 100G (1.6%, 5,459G)
lastly: 100G (1.6%, 26,524G)
getthemoneyz: 82G (1.3%, 959,154G)

champion bets:
Thyrandaal: 10,000G (55.1%, 58,367G)
BlackFireUK: 2,000G (11.0%, 6,579G)
Baron_von_Scrub: 1,253G (6.9%, 1,253G)
ko2q: 1,000G (5.5%, 9,907G)
holyonline: 1,000G (5.5%, 40,455G)
d4rr1n: 500G (2.8%, 8,326G)
Koorndog: 350G (1.9%, 350G)
letdowncity: 300G (1.7%, 17,325G)
fluffskull: 300G (1.7%, 1,257G)
Yiroep2: 224G (1.2%, 224G)
Kellios11: 200G (1.1%, 11,179G)
Luizsanq: 128G (0.7%, 128G)
Dickawesome: 104G (0.6%, 104G)
nifboy: 100G (0.6%, 3,569G)
Quadh0nk: 100G (0.6%, 2,518G)
MadnessR: 100G (0.6%, 2,072G)
Tougou: 100G (0.6%, 2,925G)
Firesheath: 100G (0.6%, 9,691G)
datadrivenbot: 100G (0.6%, 38,917G)
IphoneDarkness: 100G (0.6%, 4,572G)
itszaane: 100G (0.6%, 2,756G)
