Final Bets: purple - 15 bets for 16,352G (78.7%, x0.27); brown - 11 bets for 4,422G (21.3%, x3.70)

purple bets:
Mesmaster: 5,000G (30.6%, 166,948G)
krombobreaker: 4,057G (24.8%, 4,057G)
Shalloween: 2,623G (16.0%, 5,247G)
whelming_wave: 1,693G (10.4%, 16,937G)
evontno: 600G (3.7%, 600G)
Runeseeker22: 500G (3.1%, 1,906G)
silentkaster: 364G (2.2%, 364G)
Zeroroute: 344G (2.1%, 344G)
TheSabretoothe: 303G (1.9%, 303G)
datadrivenbot: 200G (1.2%, 56,131G)
Mushufasa_: 200G (1.2%, 5,242G)
roqqqpsi: 141G (0.9%, 1,568G)
Lydian_C: 123G (0.8%, 9,710G)
Sobid: 104G (0.6%, 104G)
DeathTaxesAndAnime: 100G (0.6%, 6,335G)

brown bets:
Segomod: 1,000G (22.6%, 10,787G)
roofiepops: 672G (15.2%, 672G)
BirbBrainsBot: 648G (14.7%, 40,339G)
RobotOcelot: 500G (11.3%, 24,088G)
Smashy: 500G (11.3%, 7,032G)
Sietaha: 300G (6.8%, 5,050G)
AllInBot: 290G (6.6%, 290G)
Yangusburger: 236G (5.3%, 236G)
Twisted_Nutsatchel: 100G (2.3%, 18,841G)
BartTradingCompany: 88G (2.0%, 888G)
getthemoneyz: 88G (2.0%, 1,853,217G)
