Final Bets: green - 14 bets for 5,787G (22.8%, x3.39); yellow - 25 bets for 19,640G (77.2%, x0.29)

green bets:
ll_aja_ll: 2,000G (34.6%, 3,693G)
getthemoneyz: 1,000G (17.3%, 408,280G)
Aldrammech: 600G (10.4%, 600G)
bad1dea: 400G (6.9%, 347,622G)
kingchadking: 360G (6.2%, 360G)
PatSouI: 328G (5.7%, 328G)
Baron_von_Scrub: 296G (5.1%, 296G)
BirbBrainsBot: 203G (3.5%, 123,806G)
ugoplatamia: 200G (3.5%, 26,772G)
lijarkh: 100G (1.7%, 3,826G)
ZephyrTempest: 100G (1.7%, 18,152G)
SeedSC: 100G (1.7%, 130,273G)
Avin_Chaos: 50G (0.9%, 7,767G)
silentperogy: 50G (0.9%, 4,485G)

yellow bets:
volgrathemoose: 6,140G (31.3%, 12,280G)
Evewho: 3,268G (16.6%, 6,536G)
sinnyil2: 1,200G (6.1%, 25,690G)
HaplessOne: 1,000G (5.1%, 27,898G)
Lionhermit: 1,000G (5.1%, 9,152G)
mirapoix: 896G (4.6%, 896G)
ApplesauceBoss: 867G (4.4%, 867G)
lavian94: 766G (3.9%, 766G)
YaBoy125: 680G (3.5%, 680G)
SkylerBunny: 592G (3.0%, 592G)
VySaika: 528G (2.7%, 1,056G)
HaateXIII: 500G (2.5%, 5,012G)
ANFz: 380G (1.9%, 380G)
EvilLego6: 350G (1.8%, 4,587G)
AllInBot: 231G (1.2%, 231G)
urieltheflameofgod: 200G (1.0%, 4,695G)
twelfthrootoftwo: 200G (1.0%, 3,106G)
Snowfats: 150G (0.8%, 1,260G)
GrayGhostGaming: 116G (0.6%, 116G)
HEROScioN: 108G (0.5%, 108G)
BadBlanket: 100G (0.5%, 1,635G)
Aneyus: 100G (0.5%, 11,915G)
datadrivenbot: 100G (0.5%, 13,794G)
Cataphract116: 100G (0.5%, 4,116G)
robespyah: 68G (0.3%, 684G)
