Final Bets: black - 29 bets for 34,256G (47.3%, x1.11); champion - 35 bets for 38,135G (52.7%, x0.90)

black bets:
SkylerBunny: 7,112G (20.8%, 7,112G)
roofiepops: 3,117G (9.1%, 3,117G)
DudeMonkey77: 3,003G (8.8%, 30,032G)
DeathTaxesAndAnime: 2,673G (7.8%, 5,242G)
Virilikus: 2,672G (7.8%, 5,345G)
Baron_von_Scrub: 1,867G (5.5%, 1,867G)
mirapoix: 1,784G (5.2%, 1,784G)
VySaika: 1,596G (4.7%, 3,192G)
Break3r: 1,380G (4.0%, 1,380G)
Lord_Burrah: 1,187G (3.5%, 90,187G)
Aldrammech: 1,100G (3.2%, 1,100G)
ThePanda1016: 1,000G (2.9%, 6,472G)
LASERJESUS1337: 1,000G (2.9%, 70,745G)
ll_aja_ll: 883G (2.6%, 2,883G)
kingchadking: 860G (2.5%, 860G)
Lanshaft: 600G (1.8%, 3,841G)
Laserman1000: 600G (1.8%, 21,200G)
silentperogy: 300G (0.9%, 5,126G)
Snowfats: 250G (0.7%, 2,317G)
KasugaiRoastedPeas: 200G (0.6%, 31,285G)
RainbowHeavy: 178G (0.5%, 178G)
lavian94: 150G (0.4%, 2,223G)
mivvim: 136G (0.4%, 136G)
HEROScioN: 108G (0.3%, 108G)
BadBlanket: 100G (0.3%, 3,270G)
Basmal: 100G (0.3%, 53,716G)
GrayGhostGaming: 100G (0.3%, 1,278G)
Tougou: 100G (0.3%, 4,496G)
Tithonus: 100G (0.3%, 7,274G)

champion bets:
ugoplatamia: 5,433G (14.2%, 27,166G)
volgrathemoose: 4,001G (10.5%, 11,563G)
Mtueni: 4,000G (10.5%, 75,121G)
Evewho: 2,374G (6.2%, 4,748G)
reinoe: 2,000G (5.2%, 8,371G)
red__lancer: 2,000G (5.2%, 15,823G)
DaveStrider55: 1,680G (4.4%, 1,680G)
YaBoy125: 1,380G (3.6%, 1,380G)
sinnyil2: 1,200G (3.1%, 23,001G)
ensiron: 1,179G (3.1%, 1,179G)
HighJayster: 1,000G (2.6%, 2,636G)
BirbBrainsBot: 1,000G (2.6%, 118,960G)
bad1dea: 1,000G (2.6%, 342,622G)
EnemyController: 1,000G (2.6%, 1,000G)
holyonline: 1,000G (2.6%, 7,466G)
leakimiko: 984G (2.6%, 32,808G)
omegasuspekt: 928G (2.4%, 1,857G)
ApplesauceBoss: 880G (2.3%, 880G)
ANFz: 690G (1.8%, 1,380G)
TheRobbieRobster: 672G (1.8%, 672G)
JIDkomu: 644G (1.7%, 644G)
RathFGC: 500G (1.3%, 5,214G)
HaplessOne: 500G (1.3%, 30,906G)
Cataphract116: 400G (1.0%, 4,629G)
ColetteMSLP: 400G (1.0%, 9,979G)
robespyah: 390G (1.0%, 1,560G)
AllInBot: 100G (0.3%, 100G)
TJ_FordCDN: 100G (0.3%, 3,973G)
twelfthrootoftwo: 100G (0.3%, 4,151G)
lijarkh: 100G (0.3%, 3,454G)
urieltheflameofgod: 100G (0.3%, 6,258G)
datadrivenbot: 100G (0.3%, 13,853G)
SeedSC: 100G (0.3%, 131,523G)
Syrail: 100G (0.3%, 100G)
ZephyrTempest: 100G (0.3%, 17,056G)
