Final Bets: yellow - 14 bets for 7,636G (42.9%, x1.33); champion - 14 bets for 10,151G (57.1%, x0.75)

yellow bets:
Lord_Burrah: 2,000G (26.2%, 76,000G)
douchetron: 1,813G (23.7%, 3,627G)
red__lancer: 1,000G (13.1%, 109,338G)
ruleof5: 500G (6.5%, 3,725G)
killth3kid: 468G (6.1%, 6,621G)
randgridr: 448G (5.9%, 2,576G)
SephDarkheart: 340G (4.5%, 49,484G)
MonkMagnus: 217G (2.8%, 217G)
AllInBot: 200G (2.6%, 200G)
datadrivenbot: 200G (2.6%, 33,118G)
Lord_Gwarth: 200G (2.6%, 8,131G)
Miku_Shikhu: 100G (1.3%, 13,971G)
Bongomon7: 100G (1.3%, 6,392G)
DouglasDragonThePoet: 50G (0.7%, 1,822G)

champion bets:
KyleWonToLiveForever: 2,000G (19.7%, 12,639G)
JumbocactuarX27: 1,625G (16.0%, 1,625G)
HaateXIII: 1,399G (13.8%, 1,399G)
BirbBrainsBot: 1,000G (9.9%, 158,313G)
RaIshtar: 842G (8.3%, 842G)
fenaen: 631G (6.2%, 631G)
Nizaha: 560G (5.5%, 10,513G)
benticore: 500G (4.9%, 30,785G)
DavenIII: 433G (4.3%, 433G)
Thyrandaal: 344G (3.4%, 344G)
CapnChaos12: 300G (3.0%, 8,612G)
oldmanbody: 299G (2.9%, 2,190G)
getthemoneyz: 118G (1.2%, 1,336,415G)
Firesheath: 100G (1.0%, 17,034G)
