Final Bets: green - 22 bets for 30,792G (66.3%, x0.51); yellow - 17 bets for 15,661G (33.7%, x1.97)

green bets:
sinnyil2: 16,421G (53.3%, 32,843G)
HaplessOne: 4,444G (14.4%, 104,992G)
BirbBrainsBot: 1,000G (3.2%, 116,091G)
thefyeman: 1,000G (3.2%, 35,104G)
twelfthrootoftwo: 1,000G (3.2%, 12,382G)
HawkSick: 1,000G (3.2%, 8,537G)
CorpusCav: 657G (2.1%, 5,457G)
killth3kid: 600G (1.9%, 7,806G)
ApplesauceBoss: 500G (1.6%, 3,268G)
Inosukeanu: 500G (1.6%, 1,263G)
Estan_AD: 496G (1.6%, 992G)
gorgewall: 408G (1.3%, 408G)
DaveStrider55: 400G (1.3%, 2,150G)
Tsuike: 320G (1.0%, 320G)
ANFz: 316G (1.0%, 316G)
joewcarson: 300G (1.0%, 6,956G)
AsceticGamer: 300G (1.0%, 1,073G)
Arcblazer23: 292G (0.9%, 292G)
concles: 264G (0.9%, 264G)
Moshyhero: 250G (0.8%, 3,713G)
ungabunga_bot: 224G (0.7%, 509,197G)
mannequ1n: 100G (0.3%, 7,553G)

yellow bets:
OneHundredFists: 5,188G (33.1%, 10,174G)
reinoe: 3,658G (23.4%, 3,658G)
maakur_: 1,124G (7.2%, 1,124G)
NicoSavoy: 1,000G (6.4%, 25,895G)
DLJuggernaut: 786G (5.0%, 786G)
Firesheath: 568G (3.6%, 568G)
dogsandcatsand: 500G (3.2%, 8,828G)
Theseawolf1: 500G (3.2%, 55,395G)
getthemoneyz: 408G (2.6%, 682,235G)
Maldoree: 368G (2.3%, 368G)
Kyune: 352G (2.2%, 352G)
Strifu: 309G (2.0%, 309G)
CCRUNNER149UWP: 272G (1.7%, 272G)
Lolprinze: 228G (1.5%, 228G)
Palladigm: 200G (1.3%, 6,912G)
otakutaylor: 100G (0.6%, 5,390G)
datadrivenbot: 100G (0.6%, 18,516G)
