Final Bets: white - 14 bets for 11,007G (63.9%, x0.57); purple - 8 bets for 6,224G (36.1%, x1.77)

white bets:
latebit: 2,087G (19.0%, 4,093G)
mistblade: 1,689G (15.3%, 3,378G)
nekojin: 1,412G (12.8%, 1,412G)
thunderducker: 1,382G (12.6%, 1,382G)
DeathTaxesAndAnime: 1,001G (9.1%, 11,214G)
BirbBrainsBot: 1,000G (9.1%, 88,686G)
RobotOcelot: 500G (4.5%, 27,927G)
getthemoneyz: 446G (4.1%, 1,814,190G)
BooshPlays: 400G (3.6%, 2,118G)
Raixelol: 388G (3.5%, 7,613G)
PuzzleSecretary: 202G (1.8%, 401G)
Yangusburger: 200G (1.8%, 15,341G)
datadrivenbot: 200G (1.8%, 64,619G)
Rune339: 100G (0.9%, 100G)

purple bets:
SkylerBunny: 2,100G (33.7%, 101,481G)
BaronHaynes: 1,500G (24.1%, 66,256G)
Rytor: 1,000G (16.1%, 15,430G)
CorpusCav: 460G (7.4%, 5,360G)
NicoSavoy: 344G (5.5%, 344G)
krombobreaker: 288G (4.6%, 6,897G)
AltimaMantoid: 276G (4.4%, 276G)
Runeseeker22: 256G (4.1%, 256G)
