Final Bets: purple - 16 bets for 12,928G (77.3%, x0.29); champion - 13 bets for 3,804G (22.7%, x3.40)

purple bets:
Thyrandaal: 3,107G (24.0%, 3,107G)
slotheye17: 1,717G (13.3%, 1,717G)
SkylerBunny: 1,400G (10.8%, 67,455G)
BirbBrainsBot: 1,000G (7.7%, 121,496G)
Aldrammech: 1,000G (7.7%, 18,327G)
RaIshtar: 1,000G (7.7%, 4,735G)
nifboy: 748G (5.8%, 748G)
AintDeadYett: 600G (4.6%, 936G)
killth3kid: 524G (4.1%, 2,258G)
mizukouken: 500G (3.9%, 8,553G)
SephDarkheart: 392G (3.0%, 392G)
RageImmortaI: 312G (2.4%, 4,360G)
Lord_Gwarth: 228G (1.8%, 228G)
datadrivenbot: 200G (1.5%, 43,180G)
cameloramelo: 100G (0.8%, 2,256G)
ANFz: 100G (0.8%, 58,556G)

champion bets:
Mudrockk: 775G (20.4%, 775G)
roqqqpsi: 659G (17.3%, 1,015G)
Dragon_RW: 644G (16.9%, 644G)
coralreeferz: 450G (11.8%, 6,761G)
Hirameki85: 290G (7.6%, 2,790G)
AllInBot: 200G (5.3%, 200G)
randgridr: 200G (5.3%, 2,652G)
mrpickins: 200G (5.3%, 6,394G)
scottydeluxe: 108G (2.8%, 108G)
CT_5_Holy: 100G (2.6%, 3,490G)
ArlanKels: 94G (2.5%, 1,887G)
getthemoneyz: 54G (1.4%, 1,407,982G)
DouglasDragonThePoet: 30G (0.8%, 1,366G)
