Final Bets: white - 10 bets for 7,255G (41.7%, x1.40); champion - 14 bets for 10,139G (58.3%, x0.72)

white bets:
maicovisky: 2,280G (31.4%, 62,280G)
crimson_hellkite: 2,000G (27.6%, 19,022G)
BirbBrainsBot: 1,000G (13.8%, 173,177G)
Realitydown: 710G (9.8%, 710G)
Lydian_C: 600G (8.3%, 600G)
Estan_AD: 324G (4.5%, 324G)
ninjapenguim: 124G (1.7%, 124G)
santoramon: 116G (1.6%, 116G)
Selppa: 100G (1.4%, 1,556G)
scadooshlol: 1G (0.0%, 41,629G)

champion bets:
lobsterlobster: 2,346G (23.1%, 2,346G)
Mesmaster: 2,000G (19.7%, 50,576G)
HaplessOne: 1,500G (14.8%, 23,347G)
sinnyil2: 1,200G (11.8%, 21,564G)
FoxtrotNovemberCharlie: 608G (6.0%, 608G)
ungabunga_bot: 521G (5.1%, 294,560G)
aStatue: 500G (4.9%, 10,880G)
NovaKnight21: 420G (4.1%, 420G)
R_Raynos: 372G (3.7%, 372G)
twelfthrootoftwo: 300G (3.0%, 1,455G)
alberto08bernard: 134G (1.3%, 134G)
80S1X: 100G (1.0%, 100G)
datadrivenbot: 100G (1.0%, 10,381G)
getthemoneyz: 38G (0.4%, 616,116G)
