Final Bets: red - 9 bets for 8,271G (68.7%, x0.46); blue - 7 bets for 3,771G (31.3%, x2.19)

red bets:
NIghtdew14: 2,582G (31.2%, 5,164G)
gorgewall: 1,957G (23.7%, 1,957G)
DeathTaxesAndAnime: 1,312G (15.9%, 1,312G)
just_here2: 600G (7.3%, 35,724G)
Bryon_W: 500G (6.0%, 19,152G)
Tarheels218: 469G (5.7%, 469G)
skipsandwiches: 328G (4.0%, 913G)
BoneMiser: 323G (3.9%, 323G)
datadrivenbot: 200G (2.4%, 69,780G)

blue bets:
BirbBrainsBot: 1,000G (26.5%, 196,798G)
Sairentozon7: 1,000G (26.5%, 1,684G)
superdevon1: 950G (25.2%, 95,088G)
SeniorBunk: 500G (13.3%, 15,300G)
AllInBot: 170G (4.5%, 170G)
getthemoneyz: 150G (4.0%, 1,660,162G)
SephDarkheart: 1G (0.0%, 121,643G)
