Final Bets: red - 5 bets for 2,108G (46.6%, x1.15); yellow - 8 bets for 2,418G (53.4%, x0.87)

red bets:
SkylerBunny: 1,100G (52.2%, 5,238G)
silentkaster: 328G (15.6%, 328G)
Lazarus_DS: 300G (14.2%, 1,894G)
ArfArfArfArfArfArfArfArf: 280G (13.3%, 280G)
AllInBot: 100G (4.7%, 100G)

yellow bets:
blorpy_: 635G (26.3%, 15,892G)
Evewho: 500G (20.7%, 4,616G)
resjudicata3: 356G (14.7%, 356G)
lowlf: 348G (14.4%, 348G)
Kixandra: 200G (8.3%, 765G)
JCBooBot: 178G (7.4%, 778G)
gorgewall: 101G (4.2%, 5,012G)
ko2q: 100G (4.1%, 1,954G)
