Final Bets: white - 15 bets for 7,312G (54.6%, x0.83); brown - 5 bets for 6,091G (45.4%, x1.20)

white bets:
fattunaking: 2,000G (27.4%, 7,878G)
superdevon1: 1,277G (17.5%, 127,702G)
Starfire6789: 989G (13.5%, 989G)
getthemoneyz: 562G (7.7%, 1,676,893G)
Lazarus_DS: 400G (5.5%, 2,238G)
JCBoorgo: 364G (5.0%, 1,822G)
resjudicata3: 356G (4.9%, 356G)
lowlf: 348G (4.8%, 348G)
AllInBot: 215G (2.9%, 215G)
datadrivenbot: 200G (2.7%, 63,110G)
JCBooBot: 156G (2.1%, 600G)
daveb_: 144G (2.0%, 6,378G)
gorgewall: 101G (1.4%, 4,911G)
ko2q: 100G (1.4%, 854G)
ArfArfArfArfArfArfArfArf: 100G (1.4%, 601G)

brown bets:
SkylerBunny: 3,315G (54.4%, 6,500G)
BirbBrainsBot: 1,000G (16.4%, 47,645G)
CapnChaos12: 872G (14.3%, 872G)
silentkaster: 704G (11.6%, 704G)
Evewho: 200G (3.3%, 4,116G)
