Final Bets: purple - 16 bets for 23,773G (63.0%, x0.59); brown - 17 bets for 13,933G (37.0%, x1.71)

purple bets:
Mesmaster: 10,000G (42.1%, 232,800G)
Willjin: 5,000G (21.0%, 81,157G)
NicoSavoy: 2,000G (8.4%, 34,153G)
CorpusCav: 1,586G (6.7%, 1,586G)
Thyrandaal: 1,428G (6.0%, 1,428G)
BirbBrainsBot: 1,000G (4.2%, 22,215G)
Zeroroute: 695G (2.9%, 695G)
Raixelol: 588G (2.5%, 26,448G)
holdenmagronik: 408G (1.7%, 6,900G)
mindblownnnn: 300G (1.3%, 3,242G)
khelor_: 200G (0.8%, 1,020G)
mysticoblivion: 191G (0.8%, 191G)
AllInBot: 100G (0.4%, 100G)
loveyouallfriends: 100G (0.4%, 22,103G)
getthemoneyz: 92G (0.4%, 1,920,098G)
DeathByPrepGirls: 85G (0.4%, 857G)

brown bets:
moonliquor: 5,000G (35.9%, 65,608G)
pplvee1: 1,858G (13.3%, 1,858G)
roofiepops: 1,730G (12.4%, 1,730G)
ser_pyrro: 828G (5.9%, 828G)
Laserman1000: 684G (4.9%, 3,984G)
latebit: 645G (4.6%, 1,266G)
Wonser: 531G (3.8%, 531G)
krombobreaker: 500G (3.6%, 5,811G)
thunderducker: 500G (3.6%, 1,877G)
CosmicTactician: 500G (3.6%, 37,523G)
evdoggity: 300G (2.2%, 300G)
Smugzug: 256G (1.8%, 775G)
datadrivenbot: 200G (1.4%, 58,380G)
gorgewall: 101G (0.7%, 5,973G)
BartTradingCompany: 100G (0.7%, 2,209G)
heyBtw: 100G (0.7%, 1,400G)
RuneS_77: 100G (0.7%, 17,254G)
