Final Bets: red - 18 bets for 13,102G (52.6%, x0.90); blue - 21 bets for 11,822G (47.4%, x1.11)

red bets:
Scotobot: 3,300G (25.2%, 42,445G)
toka222: 1,750G (13.4%, 34,550G)
Lionhermit: 1,188G (9.1%, 2,331G)
volgrathemoose: 1,028G (7.8%, 1,028G)
EnemyController: 1,000G (7.6%, 250,397G)
DavenIII: 650G (5.0%, 650G)
Laserman1000: 627G (4.8%, 6,627G)
killth3kid: 576G (4.4%, 2,172G)
HaateXIII: 544G (4.2%, 544G)
holyonline: 500G (3.8%, 4,804G)
aznwanderor: 500G (3.8%, 12,074G)
Kyune: 360G (2.7%, 360G)
evdoggity: 352G (2.7%, 352G)
benticore: 250G (1.9%, 5,182G)
tronfonne: 200G (1.5%, 3,087G)
Lythe_Caraker: 100G (0.8%, 120,029G)
datadrivenbot: 100G (0.8%, 18,625G)
roqqqpsi: 77G (0.6%, 702G)

blue bets:
skillomono: 1,693G (14.3%, 1,693G)
Firesheath: 1,393G (11.8%, 2,732G)
ungabunga_bot: 1,000G (8.5%, 508,369G)
BirbBrainsBot: 1,000G (8.5%, 171,028G)
Theseawolf1: 1,000G (8.5%, 52,804G)
E_Ballard: 1,000G (8.5%, 11,749G)
Nickyfive: 962G (8.1%, 962G)
CapnChaos12: 709G (6.0%, 709G)
gabbagooluigi: 607G (5.1%, 607G)
DeathTaxesAndAnime: 586G (5.0%, 586G)
FlohIristhrae: 300G (2.5%, 8,401G)
eudes89: 260G (2.2%, 260G)
Zachara: 250G (2.1%, 83,500G)
ChrisWado: 212G (1.8%, 212G)
Dellusionsx: 200G (1.7%, 4,437G)
Reltz_: 200G (1.7%, 588G)
hoochMonger: 100G (0.8%, 212G)
Tougou: 100G (0.8%, 2,550G)
ko2q: 100G (0.8%, 5,461G)
soren_of_tyto: 100G (0.8%, 100G)
letdowncity: 50G (0.4%, 1,240G)
