Final Bets: green - 23 bets for 16,178G (59.8%, x0.67); yellow - 18 bets for 10,874G (40.2%, x1.49)

green bets:
JumbocactuarX27: 2,352G (14.5%, 2,352G)
holyonline: 2,000G (12.4%, 5,255G)
volgrathemoose: 1,956G (12.1%, 1,956G)
toka222: 1,430G (8.8%, 36,129G)
getthemoneyz: 1,000G (6.2%, 684,080G)
Lionhermit: 1,000G (6.2%, 3,403G)
powergems: 923G (5.7%, 923G)
evdoggity: 670G (4.1%, 670G)
killth3kid: 576G (3.6%, 2,692G)
Nickyfive: 564G (3.5%, 564G)
aznwanderor: 500G (3.1%, 12,525G)
EnemyController: 500G (3.1%, 251,299G)
coralreeferz: 467G (2.9%, 467G)
Mtueni: 400G (2.5%, 9,814G)
CapnChaos12: 364G (2.2%, 364G)
tronfonne: 300G (1.9%, 2,267G)
Lythe_Caraker: 250G (1.5%, 120,119G)
nekojin: 250G (1.5%, 1,369G)
ChrisWado: 212G (1.3%, 212G)
WunUP: 164G (1.0%, 164G)
maakur_: 100G (0.6%, 2,813G)
hoochMonger: 100G (0.6%, 112G)
datadrivenbot: 100G (0.6%, 18,715G)

yellow bets:
Rislyeu: 2,498G (23.0%, 4,996G)
Firesheath: 1,339G (12.3%, 1,339G)
Scotobot: 1,200G (11.0%, 45,423G)
ungabunga_bot: 1,000G (9.2%, 507,369G)
E_Ballard: 1,000G (9.2%, 10,749G)
Kyune: 685G (6.3%, 685G)
Phi_Sig: 555G (5.1%, 147,236G)
DeathTaxesAndAnime: 544G (5.0%, 544G)
BirbBrainsBot: 534G (4.9%, 170,028G)
Reltz_: 388G (3.6%, 388G)
gabbagooluigi: 320G (2.9%, 320G)
proper__noun__: 250G (2.3%, 3,589G)
skillomono: 204G (1.9%, 204G)
soren_of_tyto: 100G (0.9%, 100G)
RunicMagus: 100G (0.9%, 32,190G)
Dymntd: 100G (0.9%, 5,452G)
letdowncity: 50G (0.5%, 1,190G)
roqqqpsi: 7G (0.1%, 771G)
