Final Bets: purple - 18 bets for 10,744G (29.9%, x2.35); brown - 22 bets for 25,206G (70.1%, x0.43)

purple bets:
Scotobot: 1,600G (14.9%, 46,669G)
nifboy: 1,298G (12.1%, 1,298G)
Firesheath: 1,128G (10.5%, 1,128G)
BirbBrainsBot: 1,000G (9.3%, 168,494G)
E_Ballard: 1,000G (9.3%, 8,749G)
Nickyfive: 947G (8.8%, 947G)
gabbagooluigi: 610G (5.7%, 610G)
Mtueni: 600G (5.6%, 9,883G)
DeathTaxesAndAnime: 544G (5.1%, 544G)
TheKillerNacho: 447G (4.2%, 447G)
coralreeferz: 352G (3.3%, 352G)
proper__noun__: 250G (2.3%, 3,796G)
skillomono: 204G (1.9%, 204G)
evdoggity: 200G (1.9%, 820G)
ko2q: 200G (1.9%, 5,162G)
getthemoneyz: 164G (1.5%, 684,328G)
Dymntd: 100G (0.9%, 5,443G)
alecttox: 100G (0.9%, 6,114G)

brown bets:
toka222: 7,000G (27.8%, 37,090G)
reinoe: 5,695G (22.6%, 5,695G)
JumbocactuarX27: 2,760G (10.9%, 5,521G)
Rislyeu: 1,249G (5.0%, 2,498G)
DavenIII: 1,236G (4.9%, 1,236G)
Lionhermit: 1,000G (4.0%, 4,981G)
Theseawolf1: 1,000G (4.0%, 52,710G)
EnemyController: 1,000G (4.0%, 252,088G)
volgrathemoose: 818G (3.2%, 1,636G)
roqqqpsi: 764G (3.0%, 764G)
HaateXIII: 535G (2.1%, 535G)
fenaen: 416G (1.7%, 416G)
Dellusionsx: 400G (1.6%, 4,137G)
FriendSquirrel: 340G (1.3%, 340G)
CCRUNNER149UWP: 272G (1.1%, 272G)
ungabunga_bot: 171G (0.7%, 507,163G)
run_with_stone_GUNs: 100G (0.4%, 5,493G)
RunicMagus: 100G (0.4%, 32,090G)
datadrivenbot: 100G (0.4%, 18,873G)
hoochMonger: 100G (0.4%, 179G)
aznwanderor: 100G (0.4%, 12,861G)
letdowncity: 50G (0.2%, 1,189G)
