Final Bets: green - 15 bets for 24,010G (49.4%, x1.02); brown - 22 bets for 24,591G (50.6%, x0.98)

green bets:
Mesmaster: 10,000G (41.6%, 69,102G)
rednecknazgul: 5,687G (23.7%, 11,374G)
EnemyController: 1,235G (5.1%, 1,412,150G)
mpghappiness: 1,234G (5.1%, 8,633G)
killth3kid: 1,152G (4.8%, 89,152G)
BirbBrainsBot: 1,000G (4.2%, 94,135G)
Rislyeu: 1,000G (4.2%, 4,172G)
dogsandcatsand: 524G (2.2%, 524G)
Xoomwaffle: 508G (2.1%, 5,084G)
TasisSai: 500G (2.1%, 12,299G)
loveyouallfriends: 394G (1.6%, 394G)
ThreeMileIsland: 326G (1.4%, 326G)
dantayystv: 200G (0.8%, 17,111G)
cam_ATS: 150G (0.6%, 55,321G)
fluffskull: 100G (0.4%, 3,780G)

brown bets:
Evewho: 5,571G (22.7%, 10,925G)
reinoe: 3,000G (12.2%, 43,324G)
SkylerBunny: 3,000G (12.2%, 10,556G)
BlueAbs: 2,436G (9.9%, 2,436G)
Rytor: 1,723G (7.0%, 3,380G)
DeathTaxesAndAnime: 1,309G (5.3%, 1,309G)
dtrain332: 1,010G (4.1%, 1,010G)
Lemonjohns: 1,000G (4.1%, 2,535G)
escobro: 1,000G (4.1%, 8,061G)
cougboi: 1,000G (4.1%, 3,294G)
twelfthrootoftwo: 664G (2.7%, 1,302G)
FriendSquirrel: 556G (2.3%, 556G)
Treafa: 500G (2.0%, 5,074G)
TheMurkGnome: 361G (1.5%, 1,625G)
getthemoneyz: 360G (1.5%, 1,271,881G)
gorgewall: 201G (0.8%, 3,266G)
Mysteriousdewd: 200G (0.8%, 8,198G)
InfiniteContinues: 200G (0.8%, 836G)
datadrivenbot: 200G (0.8%, 61,241G)
Ring_Wyrm: 100G (0.4%, 18,427G)
Grandlanzer: 100G (0.4%, 74,092G)
furrytomahawkk: 100G (0.4%, 1,241G)
