Final Bets: blue - 6 bets for 3,551G (57.8%, x0.73); yellow - 5 bets for 2,591G (42.2%, x1.37)

blue bets:
KasugaiRoastedPeas: 1,731G (48.7%, 1,731G)
gorgewall: 900G (25.3%, 900G)
killth3kid: 520G (14.6%, 874G)
datadrivenbot: 200G (5.6%, 62,056G)
AllInBot: 100G (2.8%, 100G)
CorpusCav: 100G (2.8%, 5,376G)

yellow bets:
BirbBrainsBot: 1,000G (38.6%, 48,207G)
thunderducker: 775G (29.9%, 3,744G)
Lifebregin: 500G (19.3%, 3,418G)
MemoriesofFinal: 212G (8.2%, 212G)
getthemoneyz: 104G (4.0%, 1,747,746G)
