Final Bets: blue - 7 bets for 2,538G (18.4%, x4.44); yellow - 20 bets for 11,268G (81.6%, x0.23)

blue bets:
HaateXIII: 848G (33.4%, 848G)
Nizaha: 572G (22.5%, 8,863G)
killth3kid: 488G (19.2%, 7,015G)
getthemoneyz: 206G (8.1%, 1,351,935G)
AllInBot: 200G (7.9%, 200G)
brenogarwin: 124G (4.9%, 124G)
Bongomon7: 100G (3.9%, 7,148G)

yellow bets:
UmaiJam: 1,400G (12.4%, 47,995G)
Lord_Burrah: 1,249G (11.1%, 86,249G)
NIghtdew14: 1,000G (8.9%, 42,142G)
Thyrandaal: 1,000G (8.9%, 67,961G)
RaIshtar: 1,000G (8.9%, 3,029G)
nhammen: 992G (8.8%, 1,947G)
TheChainNerd: 756G (6.7%, 756G)
Xoomwaffle: 640G (5.7%, 640G)
TheManInPlaid: 586G (5.2%, 586G)
BirbBrainsBot: 518G (4.6%, 5,656G)
ArashiKurobara: 480G (4.3%, 480G)
SephDarkheart: 360G (3.2%, 8,011G)
Lord_Gwarth: 250G (2.2%, 507G)
holdenmagronik: 212G (1.9%, 1,609G)
gorgewall: 201G (1.8%, 14,865G)
datadrivenbot: 200G (1.8%, 36,499G)
SirAbcde: 120G (1.1%, 120G)
Hirameki85: 104G (0.9%, 104G)
Miku_Shikhu: 100G (0.9%, 901G)
Error72: 100G (0.9%, 1,432G)
