Final Bets: red - 17 bets for 5,980G (31.9%, x2.14); blue - 23 bets for 12,782G (68.1%, x0.47)

red bets:
kai_shee: 1,001G (16.7%, 126,096G)
Lanshaft: 781G (13.1%, 781G)
datadrivenbot: 510G (8.5%, 25,088G)
roofiepops: 440G (7.4%, 14,885G)
Alenivan: 379G (6.3%, 1,897G)
DudeMonkey77: 363G (6.1%, 363G)
SkeletorRS: 315G (5.3%, 315G)
joewcarson: 300G (5.0%, 2,730G)
CapnChaos12: 300G (5.0%, 3,553G)
Tithonus: 300G (5.0%, 16,794G)
DLJuggernaut: 250G (4.2%, 10,171G)
JackOnFire1: 244G (4.1%, 244G)
mexskacin: 232G (3.9%, 232G)
Jennero: 208G (3.5%, 208G)
JustSuperish: 200G (3.3%, 2,697G)
HeroponThrawn: 156G (2.6%, 156G)
LordMaxoss: 1G (0.0%, 108G)

blue bets:
mirapoix: 1,767G (13.8%, 1,767G)
Shalloween: 1,300G (10.2%, 27,028G)
Lord_Burrah: 1,026G (8.0%, 94,862G)
ungabunga_bot: 1,000G (7.8%, 84,693G)
BirbBrainsBot: 1,000G (7.8%, 52,210G)
getthemoneyz: 984G (7.7%, 471,121G)
Faplo: 732G (5.7%, 732G)
Lodrak: 708G (5.5%, 708G)
Pie108: 700G (5.5%, 17,763G)
fenaen: 578G (4.5%, 578G)
sinnyil2: 528G (4.1%, 528G)
old_overholt_: 500G (3.9%, 9,925G)
wollise89: 338G (2.6%, 338G)
ZephyrTempest: 337G (2.6%, 47,374G)
Bulleta: 264G (2.1%, 264G)
KasugaiRoastedPeas: 200G (1.6%, 5,694G)
NytFantom: 200G (1.6%, 4,829G)
silentperogy: 200G (1.6%, 17,597G)
RughSontos: 100G (0.8%, 2,421G)
IndecisiveNinja: 100G (0.8%, 4,855G)
maakur_: 100G (0.8%, 3,344G)
ko2q: 100G (0.8%, 2,035G)
DrAntiSocial: 20G (0.2%, 809G)
