Final Bets: red - 12 bets for 12,032G (52.8%, x0.89); yellow - 10 bets for 10,760G (47.2%, x1.12)

red bets:
Forkmore: 3,333G (27.7%, 23,297G)
reinoe: 2,000G (16.6%, 131,646G)
gorgewall: 1,346G (11.2%, 1,346G)
BirbBrainsBot: 966G (8.0%, 49,089G)
ko2q: 818G (6.8%, 818G)
amsans1247: 800G (6.6%, 13,334G)
Nizaha: 696G (5.8%, 16,838G)
superdevon1: 661G (5.5%, 33,052G)
Aldrammech: 612G (5.1%, 612G)
RunicMagus: 600G (5.0%, 3,387G)
MinBetBot: 100G (0.8%, 15,783G)
Firesheath: 100G (0.8%, 24,676G)

yellow bets:
resjudicata3: 5,000G (46.5%, 10,302G)
Lumberinjack: 1,926G (17.9%, 3,853G)
AllInBot: 1,439G (13.4%, 1,439G)
Chuckolator: 800G (7.4%, 800G)
Lanshaft: 564G (5.2%, 12,556G)
Smashy: 380G (3.5%, 799G)
TheMurkGnome: 343G (3.2%, 5,887G)
coralreeferz: 150G (1.4%, 24,033G)
getthemoneyz: 108G (1.0%, 1,558,300G)
srdonko2098: 50G (0.5%, 2,739G)
