Final Bets: red - 12 bets for 4,170G (28.5%, x2.51); blue - 15 bets for 10,478G (71.5%, x0.40)

red bets:
nifboy: 1,055G (25.3%, 1,055G)
DeathTaxesAndAnime: 815G (19.5%, 815G)
evdoggity: 500G (12.0%, 86,918G)
KyleWonToLiveForever: 316G (7.6%, 316G)
Shaxarok: 300G (7.2%, 2,729G)
Magicandy: 300G (7.2%, 14,624G)
reverv: 300G (7.2%, 11,770G)
ar_tactic: 250G (6.0%, 55,748G)
getthemoneyz: 124G (3.0%, 1,089,869G)
Thyrandaal: 100G (2.4%, 6,757G)
thewondertrickster: 100G (2.4%, 558G)
nhammen: 10G (0.2%, 2,310G)

blue bets:
neerrm: 4,000G (38.2%, 32,401G)
BirbBrainsBot: 1,000G (9.5%, 75,711G)
twelfthrootoftwo: 1,000G (9.5%, 12,061G)
Mesmaster: 1,000G (9.5%, 104,061G)
Laserman1000: 900G (8.6%, 18,800G)
prince_rogers_nelson_: 600G (5.7%, 600G)
Digitalsocrates: 500G (4.8%, 4,491G)
DLJuggernaut: 500G (4.8%, 1,997G)
reinoe: 304G (2.9%, 304G)
Evewho: 200G (1.9%, 6,862G)
Klednar21: 124G (1.2%, 124G)
Firesheath: 100G (1.0%, 15,139G)
ApplesauceBoss: 100G (1.0%, 10,113G)
datadrivenbot: 100G (1.0%, 45,026G)
g00gly: 50G (0.5%, 832G)
