Final Bets: red - 9 bets for 10,382G (60.3%, x0.66); black - 12 bets for 6,848G (39.7%, x1.52)

red bets:
DLJuggernaut: 5,000G (48.2%, 86,380G)
Mushufasa_: 1,234G (11.9%, 22,637G)
HaplessOne: 1,111G (10.7%, 26,672G)
WireLord: 1,036G (10.0%, 2,073G)
BirbBrainsBot: 1,000G (9.6%, 182,198G)
2b_yorha_b: 500G (4.8%, 30,780G)
gorgewall: 201G (1.9%, 4,496G)
AllInBot: 200G (1.9%, 200G)
heropong: 100G (1.0%, 2,067G)

black bets:
NovaKnight21: 1,692G (24.7%, 1,692G)
CorpusCav: 1,300G (19.0%, 61,291G)
Sairentozon7: 660G (9.6%, 660G)
Willjin: 600G (8.8%, 32,657G)
ColetteMSLP: 520G (7.6%, 520G)
seppu777: 516G (7.5%, 516G)
Evewho: 500G (7.3%, 18,789G)
Lythe_Caraker: 438G (6.4%, 438G)
datadrivenbot: 200G (2.9%, 83,417G)
Zachara: 200G (2.9%, 110,800G)
getthemoneyz: 172G (2.5%, 2,199,503G)
manchae: 50G (0.7%, 1,298G)
