Final Bets: black - 11 bets for 3,808G (44.2%, x1.26); purple - 11 bets for 4,799G (55.8%, x0.79)

black bets:
roqqqpsi: 1,577G (41.4%, 14,345G)
Nohurty: 622G (16.3%, 1,245G)
BlackFireUK: 500G (13.1%, 3,537G)
cam_ATS: 250G (6.6%, 3,166G)
gogofromtogo: 200G (5.3%, 1,365G)
Thyrandaal: 136G (3.6%, 136G)
Lydian_C: 123G (3.2%, 11,181G)
E_Ballard: 100G (2.6%, 3,857G)
CosmicTactician: 100G (2.6%, 17,393G)
lastly: 100G (2.6%, 13,305G)
datadrivenbot: 100G (2.6%, 34,733G)

purple bets:
BirbBrainsBot: 1,000G (20.8%, 100,966G)
sinnyil2: 708G (14.8%, 708G)
pplvee1: 608G (12.7%, 1,193G)
Monopool: 592G (12.3%, 592G)
getthemoneyz: 590G (12.3%, 825,425G)
conradharlock: 500G (10.4%, 10,398G)
Breakdown777: 300G (6.3%, 8,551G)
gorgewall: 201G (4.2%, 4,048G)
Milkman153: 100G (2.1%, 2,197G)
HokTuey: 100G (2.1%, 1,473G)
the_shep: 100G (2.1%, 2,354G)
