Final Bets: purple - 8 bets for 1,888G (8.3%, x11.04); brown - 16 bets for 20,845G (91.7%, x0.09)

purple bets:
roofiepops: 487G (25.8%, 487G)
LivingHitokiri: 300G (15.9%, 300G)
ArrenJevleth: 300G (15.9%, 9,741G)
getthemoneyz: 296G (15.7%, 1,929,733G)
Zerguzen: 240G (12.7%, 240G)
AllInBot: 119G (6.3%, 119G)
BartTradingCompany: 100G (5.3%, 8,154G)
BirbBrainsBot: 46G (2.4%, 113,020G)

brown bets:
Shalloween: 9,356G (44.9%, 18,713G)
reinoe: 2,261G (10.8%, 2,261G)
bruubarg: 2,000G (9.6%, 16,514G)
NicoSavoy: 2,000G (9.6%, 63,386G)
Thyrandaal: 1,000G (4.8%, 15,544G)
E_Ballard: 884G (4.2%, 884G)
solomongrundy85: 716G (3.4%, 716G)
krombobreaker: 511G (2.5%, 511G)
Dasutin23: 504G (2.4%, 6,814G)
ser_pyrro: 500G (2.4%, 3,635G)
TrogdorTheMemeinator: 401G (1.9%, 401G)
tripaplex: 200G (1.0%, 200G)
datadrivenbot: 200G (1.0%, 60,631G)
PantherIscariot: 111G (0.5%, 1,991G)
gorgewall: 101G (0.5%, 12,657G)
Firesheath: 100G (0.5%, 2,257G)
