Final Bets: red - 12 bets for 6,500G (59.0%, x0.69); yellow - 10 bets for 4,515G (41.0%, x1.44)

red bets:
NicoSavoy: 2,000G (30.8%, 63,567G)
Willjin: 1,000G (15.4%, 34,662G)
solomongrundy85: 781G (12.0%, 781G)
krombobreaker: 557G (8.6%, 557G)
bruubarg: 500G (7.7%, 16,695G)
getthemoneyz: 374G (5.8%, 1,929,437G)
SephDarkheart: 328G (5.0%, 328G)
ArrenJevleth: 300G (4.6%, 9,441G)
grishhammer: 260G (4.0%, 260G)
datadrivenbot: 200G (3.1%, 60,649G)
BartTradingCompany: 100G (1.5%, 8,054G)
AllInBot: 100G (1.5%, 100G)

yellow bets:
CorpusCav: 1,200G (26.6%, 16,762G)
BirbBrainsBot: 1,000G (22.1%, 112,974G)
Dasutin23: 504G (11.2%, 6,860G)
ser_pyrro: 500G (11.1%, 3,680G)
TrogdorTheMemeinator: 437G (9.7%, 437G)
LivingHitokiri: 300G (6.6%, 300G)
Zerguzen: 240G (5.3%, 240G)
Thyrandaal: 123G (2.7%, 15,635G)
PantherIscariot: 111G (2.5%, 2,001G)
Firesheath: 100G (2.2%, 2,266G)
