Final Bets: green - 6 bets for 1,548G (17.7%, x4.65); yellow - 16 bets for 7,197G (82.3%, x0.22)

green bets:
aStatue: 600G (38.8%, 600G)
Sovattaro: 500G (32.3%, 3,437G)
ungabunga_bot: 148G (9.6%, 276,951G)
DrAntiSocial: 100G (6.5%, 22,015G)
RionDoesThings: 100G (6.5%, 1,345G)
HorusTaurus: 100G (6.5%, 236G)

yellow bets:
Dexsana: 2,000G (27.8%, 6,612G)
BirbBrainsBot: 1,000G (13.9%, 34,293G)
The_QB: 1,000G (13.9%, 1,000G)
CassiePhoenix: 594G (8.3%, 594G)
mayormcfunbags: 502G (7.0%, 502G)
Dexef: 433G (6.0%, 12,841G)
volgrathemoose: 405G (5.6%, 405G)
Flox_silverbow: 404G (5.6%, 404G)
FoxtrotNovemberCharlie: 148G (2.1%, 148G)
getthemoneyz: 128G (1.8%, 584,998G)
Jeeboheebo: 100G (1.4%, 1,501G)
twelfthrootoftwo: 100G (1.4%, 1,736G)
notazzie: 100G (1.4%, 100G)
datadrivenbot: 100G (1.4%, 2,924G)
nuka1120: 100G (1.4%, 100G)
roqqqpsi: 83G (1.2%, 4,175G)
