Final Bets: green - 16 bets for 12,524G (76.2%, x0.31); yellow - 8 bets for 3,920G (23.8%, x3.19)

green bets:
sinnyil2: 2,400G (19.2%, 39,153G)
YaBoy125: 1,780G (14.2%, 1,780G)
HASTERIOUS: 1,277G (10.2%, 1,277G)
volgrathemoose: 1,001G (8.0%, 6,444G)
rocl: 1,000G (8.0%, 69,004G)
mayormcfunbags: 839G (6.7%, 839G)
Phytik: 715G (5.7%, 9,375G)
Jeeboheebo: 712G (5.7%, 712G)
gorgewall: 697G (5.6%, 697G)
Dexsana: 600G (4.8%, 2,554G)
Goust18: 560G (4.5%, 6,096G)
datadrivenbot: 559G (4.5%, 564G)
Rhuarc_Redhammer: 140G (1.1%, 140G)
Treapvort: 100G (0.8%, 2,506G)
WireLord: 100G (0.8%, 1,922G)
daveb_: 44G (0.4%, 2,891G)

yellow bets:
BirbBrainsBot: 1,000G (25.5%, 184,231G)
Lanshaft: 924G (23.6%, 1,848G)
ShintaroNayaka: 600G (15.3%, 15,289G)
DustyRelic: 500G (12.8%, 26,760G)
Anomandaris__: 500G (12.8%, 7,540G)
Aneyus: 196G (5.0%, 19,603G)
Tithonus: 100G (2.6%, 6,154G)
Scotty297: 100G (2.6%, 500G)
