Final Bets: purple - 21 bets for 15,445G (42.9%, x1.33); champion - 6 bets for 20,543G (57.1%, x0.75)

purple bets:
megaman2202: 2,830G (18.3%, 5,661G)
YaBoy125: 1,769G (11.5%, 8,369G)
Lanshaft: 1,379G (8.9%, 2,758G)
sinnyil2: 1,300G (8.4%, 44,477G)
ColetteMSLP: 1,000G (6.5%, 31,975G)
rocl: 1,000G (6.5%, 67,521G)
BirbBrainsBot: 1,000G (6.5%, 184,618G)
HaplessOne: 1,000G (6.5%, 76,939G)
HeroponThrawn: 611G (4.0%, 611G)
Bryon_W: 500G (3.2%, 10,298G)
Anomandaris__: 500G (3.2%, 7,536G)
LAGBOT30000: 449G (2.9%, 8,994G)
Dexsana: 420G (2.7%, 420G)
Scotty297: 416G (2.7%, 416G)
rechaun: 332G (2.1%, 332G)
mayormcfunbags: 248G (1.6%, 248G)
Treapvort: 200G (1.3%, 2,411G)
SaintOmerville: 200G (1.3%, 2,640G)
gorgewall: 104G (0.7%, 104G)
DustyRelic: 100G (0.6%, 24,260G)
datadrivenbot: 87G (0.6%, 100G)

champion bets:
leakimiko: 12,966G (63.1%, 12,966G)
HASTERIOUS: 2,326G (11.3%, 2,326G)
volgrathemoose: 2,001G (9.7%, 6,203G)
BlinkFS: 2,000G (9.7%, 37,638G)
ShintaroNayaka: 1,000G (4.9%, 15,086G)
Cataphract116: 250G (1.2%, 6,034G)
