High Risers:
1. Pepperbuster: +11,000G
2. Nicosavoy: +6,661G
3. Shadowninja25: +3,507G
4. Nizaha: +3,456G
5. Lowlf: +3,404G
6. Reinoe: +3,242G
7. Squidsquarklin: +2,372G
8. Corpuscav: +2,224G
9. Mesmaster: +2,089G
10. Dogsandcatsand: +1,935G
11. Capnchaos12: +1,230G
12. Hotpocketsofficial: +1,190G
13. Nhammen: +1,068G
14. Dodecadeath: +1,054G
15. Foamsoldier: +1,004G
16. Joewcarson: +1,000G
17. Go2sleeptv: +1,000G
18. Mirapoix: +1,000G
19. Rikrizen: +763G
20. Xsifthewolf: +671G
21. Escobro: +570G
22. Memoriesoffinal: +509G
23. Stealthmodelocke: +500G
24. Ruleof5: +500G
25. Latebit: +500G
26. Tougou: +500G
27. Sharknaldson: +500G
28. Lijarkh: +500G
29. Prince_rogers_nelson_: +422G
30. Actual_jp: +400G
31. Leaferrm: +206G
32. Brenogarwin: +200G
33. Runicmagus: +175G
34. Silentbotanist: +175G
35. Onehundredfists: +174G
36. Laserman1000: +125G
37. Forkmore: +100G
38. Smashy: -20G
39. Widewalk: -57G
40. Snarkmage: -92G
41. Douchetron: -101G
42. Blastinus: -194G
43. Reddwind_: -200G
44. Old_overholt_: -218G
45. Resjudicata3: -290G
46. Maakur_: -328G
47. Lansedm: -400G
48. Shalloween: -410G
49. E_ballard: -500G
50. Jonomytho: -695G
51. Evontno: -814G
52. Hasterious: -1,000G
53. Upvla: -1,200G
54. Colettemslp: -1,400G
55. Krombobreaker: -1,520G
56. Dasutin23: -1,932G
57. Leonidusx: -2,300G
58. Ericzubat: -5,710G
59. Foesquirrel: -5,724G
60. Gorgewall: -8,004G
61. Deathtaxesandanime: -16,761G
