Final Bets: white - 9 bets for 10,771G (39.5%, x1.53); purple - 19 bets for 16,477G (60.5%, x0.65)

white bets:
douchetron: 3,545G (32.9%, 3,545G)
DeathTaxesAndAnime: 3,453G (32.1%, 6,772G)
FoeSquirrel: 2,216G (20.6%, 4,432G)
hotpocketsofficial: 355G (3.3%, 355G)
Tithonus: 352G (3.3%, 352G)
ericzubat: 350G (3.2%, 5,616G)
AllInBot: 200G (1.9%, 200G)
xsifthewolf: 200G (1.9%, 3,256G)
maakur_: 100G (0.9%, 2,461G)

purple bets:
NicoSavoy: 4,000G (24.3%, 136,133G)
Mesmaster: 2,000G (12.1%, 33,230G)
pepperbuster: 1,964G (11.9%, 35,964G)
gorgewall: 1,869G (11.3%, 1,869G)
reinoe: 1,168G (7.1%, 1,168G)
BirbBrainsBot: 1,000G (6.1%, 76,388G)
Nizaha: 856G (5.2%, 75,919G)
CorpusCav: 504G (3.1%, 504G)
Smashy: 500G (3.0%, 2,894G)
krombobreaker: 500G (3.0%, 8,311G)
ShadowNinja25: 500G (3.0%, 4,979G)
Cryptopsy70: 380G (2.3%, 380G)
escobro: 240G (1.5%, 653G)
Dodecadeath: 200G (1.2%, 1,743G)
leaferrm: 200G (1.2%, 1,227G)
MemoriesofFinal: 200G (1.2%, 37,681G)
datadrivenbot: 200G (1.2%, 69,946G)
SnarkMage: 156G (0.9%, 156G)
getthemoneyz: 40G (0.2%, 1,981,058G)
