Final Bets: green - 18 bets for 17,155G (79.0%, x0.27); purple - 6 bets for 4,557G (21.0%, x3.76)

green bets:
ericzubat: 5,266G (30.7%, 5,266G)
gorgewall: 3,091G (18.0%, 3,091G)
ShadowNinja25: 2,000G (11.7%, 5,306G)
NicoSavoy: 2,000G (11.7%, 138,748G)
Nizaha: 856G (5.0%, 76,479G)
resjudicata3: 670G (3.9%, 670G)
krombobreaker: 500G (2.9%, 8,638G)
Smashy: 500G (2.9%, 3,221G)
Cryptopsy70: 380G (2.2%, 628G)
douchetron: 372G (2.2%, 372G)
Tithonus: 352G (2.1%, 352G)
BirbBrainsBot: 260G (1.5%, 77,042G)
SnarkMage: 258G (1.5%, 258G)
AllInBot: 200G (1.2%, 200G)
Dodecadeath: 200G (1.2%, 1,874G)
MemoriesofFinal: 100G (0.6%, 37,812G)
datadrivenbot: 100G (0.6%, 70,077G)
leaferrm: 50G (0.3%, 1,358G)

purple bets:
DeathTaxesAndAnime: 1,692G (37.1%, 3,319G)
pepperbuster: 1,200G (26.3%, 37,248G)
CorpusCav: 833G (18.3%, 833G)
reinoe: 500G (11.0%, 1,932G)
hotpocketsofficial: 316G (6.9%, 316G)
getthemoneyz: 16G (0.4%, 1,981,084G)
