Final Bets: red - 21 bets for 16,732G (82.1%, x0.22); blue - 13 bets for 3,643G (17.9%, x4.59)

red bets:
metagameface: 4,000G (23.9%, 16,057G)
Mesmaster: 4,000G (23.9%, 95,768G)
Snoopiku: 1,500G (9.0%, 2,132G)
BirbBrainsBot: 1,000G (6.0%, 63,937G)
JoeykinsGaming: 1,000G (6.0%, 13,371G)
E_Ballard: 901G (5.4%, 901G)
Just_Data: 700G (4.2%, 51,740G)
kaelsun: 587G (3.5%, 587G)
Lionhermit: 505G (3.0%, 505G)
LivingHitokiri: 500G (3.0%, 26,895G)
YaBoy125: 420G (2.5%, 32,239G)
DLJuggernaut: 350G (2.1%, 5,436G)
CorpusCav: 300G (1.8%, 8,155G)
DAC169: 204G (1.2%, 204G)
gorgewall: 201G (1.2%, 18,428G)
AllInBot: 100G (0.6%, 100G)
TinchoT: 100G (0.6%, 707G)
drlancemackraken: 100G (0.6%, 1,000G)
datadrivenbot: 100G (0.6%, 28,508G)
maleblackfiora: 100G (0.6%, 960G)
getthemoneyz: 64G (0.4%, 759,262G)

blue bets:
lowlf: 733G (20.1%, 733G)
Laserman1000: 598G (16.4%, 23,098G)
Arcblazer23: 392G (10.8%, 392G)
DeathTaxesAndAnime: 300G (8.2%, 6,536G)
Stealthtoucan: 278G (7.6%, 5,578G)
HASTERIOUS: 277G (7.6%, 5,554G)
Cuchulame: 245G (6.7%, 245G)
soren_of_tyto: 227G (6.2%, 227G)
gr8keeper: 200G (5.5%, 1,450G)
KyleWonToLiveForever: 116G (3.2%, 116G)
Evewho: 100G (2.7%, 6,677G)
Dymntd: 100G (2.7%, 35,513G)
Powermhero: 77G (2.1%, 12,577G)
