Final Bets: green - 10 bets for 4,606G (34.6%, x1.89); yellow - 13 bets for 8,722G (65.4%, x0.53)

green bets:
lowlf: 1,201G (26.1%, 24,638G)
gogofromtogo: 666G (14.5%, 666G)
NovaKnight21: 620G (13.5%, 620G)
zmoses: 500G (10.9%, 13,498G)
Evewho: 496G (10.8%, 496G)
HASTERIOUS: 459G (10.0%, 9,192G)
d4rr1n: 200G (4.3%, 6,275G)
KasugaiRoastedPeas: 200G (4.3%, 2,581G)
getthemoneyz: 164G (3.6%, 760,552G)
Digitalsocrates: 100G (2.2%, 7,124G)

yellow bets:
Mesmaster: 2,000G (22.9%, 140,643G)
YaBoy125: 1,741G (20.0%, 24,877G)
reinoe: 1,000G (11.5%, 60,139G)
NicoSavoy: 1,000G (11.5%, 33,895G)
BirbBrainsBot: 1,000G (11.5%, 86,286G)
Lydian_C: 780G (8.9%, 7,644G)
LivingHitokiri: 388G (4.4%, 388G)
wyonearth: 300G (3.4%, 1,880G)
CameronPY: 112G (1.3%, 112G)
gorgewall: 101G (1.2%, 22,592G)
ApplesauceBoss: 100G (1.1%, 6,895G)
datadrivenbot: 100G (1.1%, 31,252G)
E_Ballard: 100G (1.1%, 1,214G)
