Final Bets: red - 15 bets for 11,048G (58.1%, x0.72); brown - 13 bets for 7,963G (41.9%, x1.39)

red bets:
Mesmaster: 2,000G (18.1%, 148,071G)
Evewho: 1,715G (15.5%, 1,715G)
E_Ballard: 1,513G (13.7%, 1,513G)
DeathTaxesAndAnime: 1,098G (9.9%, 2,154G)
NicoSavoy: 1,000G (9.1%, 32,423G)
Digitalsocrates: 643G (5.8%, 6,434G)
NovaKnight21: 624G (5.6%, 624G)
zmoses: 500G (4.5%, 11,761G)
KyleWonToLiveForever: 415G (3.8%, 415G)
Sairentozon7: 400G (3.6%, 1,896G)
LivingHitokiri: 388G (3.5%, 388G)
d4rr1n: 300G (2.7%, 6,338G)
josephiroth_143: 252G (2.3%, 252G)
Qaz12301: 100G (0.9%, 1,118G)
datadrivenbot: 100G (0.9%, 31,058G)

brown bets:
roqqqpsi: 2,110G (26.5%, 19,183G)
YaBoy125: 1,565G (19.7%, 22,371G)
getthemoneyz: 656G (8.2%, 763,351G)
BirbBrainsBot: 604G (7.6%, 91,057G)
ColetteMSLP: 600G (7.5%, 52,921G)
reinoe: 500G (6.3%, 60,667G)
volgrathemoose: 468G (5.9%, 468G)
HASTERIOUS: 432G (5.4%, 8,644G)
Mr_Greed029: 360G (4.5%, 360G)
gogofromtogo: 248G (3.1%, 248G)
wyonearth: 200G (2.5%, 461G)
Lydian_C: 120G (1.5%, 8,033G)
Furgers: 100G (1.3%, 100G)
