Final Bets: green - 9 bets for 7,891G (33.6%, x1.97); yellow - 25 bets for 15,570G (66.4%, x0.51)

green bets:
helpimabug: 2,337G (29.6%, 4,675G)
DavenIII: 1,278G (16.2%, 5,115G)
lyonslegacy: 1,220G (15.5%, 1,220G)
Zeroroute: 1,196G (15.2%, 1,196G)
dogsandcatsand: 1,000G (12.7%, 11,120G)
killth3kid: 460G (5.8%, 2,202G)
datadrivenbot: 200G (2.5%, 35,609G)
nhammen: 100G (1.3%, 11,155G)
Grandlanzer: 100G (1.3%, 99,313G)

yellow bets:
upvla: 2,000G (12.8%, 27,944G)
HaateXIII: 1,812G (11.6%, 1,812G)
toka222: 1,500G (9.6%, 66,995G)
sinnyil2: 1,179G (7.6%, 2,359G)
JumbocactuarX27: 1,000G (6.4%, 45,691G)
BirbBrainsBot: 1,000G (6.4%, 135,604G)
KyleWonToLiveForever: 1,000G (6.4%, 4,586G)
roofiepops: 888G (5.7%, 4,566G)
coralreeferz: 750G (4.8%, 35,798G)
maakur_: 572G (3.7%, 572G)
Nizaha: 556G (3.6%, 16,105G)
ValtonZenola: 500G (3.2%, 2,262G)
benticore: 500G (3.2%, 24,322G)
AllInBot: 399G (2.6%, 399G)
getthemoneyz: 282G (1.8%, 1,333,089G)
athros13: 272G (1.7%, 11,687G)
iBardic: 216G (1.4%, 216G)
holdenmagronik: 200G (1.3%, 200G)
furrytomahawkk: 200G (1.3%, 2,502G)
Legionx13: 200G (1.3%, 2,727G)
ohhinm: 123G (0.8%, 4,333G)
Lydian_C: 121G (0.8%, 98,214G)
TasisSai: 100G (0.6%, 1,595G)
POGpope: 100G (0.6%, 100G)
Thyrandaal: 100G (0.6%, 3,210G)
