Final Bets: purple - 11 bets for 5,554G (33.0%, x2.03); brown - 10 bets for 11,261G (67.0%, x0.49)

purple bets:
skillomono: 1,000G (18.0%, 20,823G)
BirbBrainsBot: 1,000G (18.0%, 37,454G)
amiture: 1,000G (18.0%, 14,218G)
prince_rogers_nelson_: 600G (10.8%, 600G)
joewcarson: 500G (9.0%, 15,864G)
Forkmore: 420G (7.6%, 47,172G)
gorgewall: 400G (7.2%, 400G)
JLinkletter: 292G (5.3%, 292G)
getthemoneyz: 142G (2.6%, 1,133,873G)
maakur_: 100G (1.8%, 76,311G)
Thyrandaal: 100G (1.8%, 5,524G)

brown bets:
DeathTaxesAndAnime: 4,003G (35.5%, 7,850G)
sinnyil2: 2,732G (24.3%, 2,732G)
NIghtdew14: 1,591G (14.1%, 15,916G)
TheChainNerd: 1,359G (12.1%, 7,359G)
ShintaroNayaka: 592G (5.3%, 592G)
E_Ballard: 440G (3.9%, 440G)
ArashiKurobara: 244G (2.2%, 244G)
Bryon_W: 100G (0.9%, 3,235G)
Boultson1337: 100G (0.9%, 454G)
datadrivenbot: 100G (0.9%, 51,591G)
