Final Bets: white - 19 bets for 8,579G (38.8%, x1.58); black - 14 bets for 13,555G (61.2%, x0.63)

white bets:
toka222: 1,100G (12.8%, 31,315G)
Jampck: 1,000G (11.7%, 5,633G)
getthemoneyz: 1,000G (11.7%, 960,093G)
killth3kid: 985G (11.5%, 9,859G)
dogsandcatsand: 765G (8.9%, 765G)
Cryptopsy70: 536G (6.2%, 13,232G)
AltimaMantoid: 526G (6.1%, 1,926G)
Anasetsuken: 500G (5.8%, 11,613G)
TheChainNerd: 495G (5.8%, 4,495G)
MrDiggs49: 452G (5.3%, 452G)
RaIshtar: 354G (4.1%, 354G)
PasDeSeul: 166G (1.9%, 166G)
CosmicTactician: 100G (1.2%, 4,406G)
Angelomortis: 100G (1.2%, 556G)
RuneS_77: 100G (1.2%, 7,661G)
eudes89: 100G (1.2%, 7,602G)
datadrivenbot: 100G (1.2%, 41,043G)
Firesheath: 100G (1.2%, 12,250G)
klonoa331: 100G (1.2%, 1,153G)

black bets:
HaateXIII: 7,971G (58.8%, 7,971G)
OppressivelyMinty: 860G (6.3%, 860G)
Rytor: 802G (5.9%, 802G)
O_Heyno: 642G (4.7%, 642G)
holyonline: 500G (3.7%, 40,793G)
Grandlanzer: 500G (3.7%, 3,001G)
KasugaiRoastedPeas: 476G (3.5%, 476G)
serperemagus: 404G (3.0%, 404G)
RunicMagus: 400G (3.0%, 56,531G)
ShintaroNayaka: 400G (3.0%, 6,840G)
baconbacon1207: 300G (2.2%, 1,848G)
AllInBot: 100G (0.7%, 100G)
Thyrandaal: 100G (0.7%, 42,435G)
wafflereaper212: 100G (0.7%, 888G)
