Final Bets: blue - 17 bets for 9,318G (50.8%, x0.97); yellow - 15 bets for 9,042G (49.2%, x1.03)

blue bets:
toka222: 2,790G (29.9%, 34,814G)
killth3kid: 1,027G (11.0%, 10,274G)
Meta_Five: 1,000G (10.7%, 18,359G)
Bryon_W: 1,000G (10.7%, 3,556G)
joewcarson: 500G (5.4%, 47,409G)
Rytor: 464G (5.0%, 464G)
serperemagus: 404G (4.3%, 404G)
DeadGirlzREasy: 382G (4.1%, 382G)
JumbocactuarX27: 378G (4.1%, 378G)
OppressivelyMinty: 368G (3.9%, 368G)
ZCKaiser: 305G (3.3%, 610G)
AltimaMantoid: 200G (2.1%, 2,400G)
CosmicTactician: 100G (1.1%, 4,634G)
Firesheath: 100G (1.1%, 12,308G)
Angelomortis: 100G (1.1%, 784G)
datadrivenbot: 100G (1.1%, 41,271G)
IphoneDarkness: 100G (1.1%, 2,017G)

yellow bets:
Oreo_Pizza: 2,500G (27.6%, 21,510G)
dogsandcatsand: 1,685G (18.6%, 3,371G)
HaateXIII: 1,323G (14.6%, 1,323G)
TheChainNerd: 683G (7.6%, 5,683G)
KasugaiRoastedPeas: 476G (5.3%, 476G)
RunicMagus: 400G (4.4%, 54,531G)
Anasetsuken: 400G (4.4%, 12,003G)
ShintaroNayaka: 400G (4.4%, 6,722G)
OneHundredFists: 298G (3.3%, 1,778G)
MadnessR: 237G (2.6%, 237G)
MrDiggs49: 208G (2.3%, 208G)
Flameatron: 200G (2.2%, 5,507G)
AllInBot: 100G (1.1%, 100G)
Azelgrim: 100G (1.1%, 414G)
getthemoneyz: 32G (0.4%, 961,680G)
