Final Bets: blue - 18 bets for 8,481G (38.1%, x1.63); brown - 19 bets for 13,788G (61.9%, x0.62)

blue bets:
toka222: 1,500G (17.7%, 38,864G)
RunicMagus: 1,200G (14.1%, 52,531G)
killth3kid: 1,014G (12.0%, 10,144G)
Meta_Five: 1,000G (11.8%, 19,129G)
JumbocactuarX27: 745G (8.8%, 745G)
TheChainNerd: 500G (5.9%, 4,500G)
joewcarson: 500G (5.9%, 48,101G)
KasugaiRoastedPeas: 476G (5.6%, 476G)
Anasetsuken: 400G (4.7%, 11,607G)
OppressivelyMinty: 216G (2.5%, 216G)
MrDiggs49: 208G (2.5%, 208G)
getthemoneyz: 160G (1.9%, 961,220G)
Azelgrim: 112G (1.3%, 112G)
AllInBot: 100G (1.2%, 100G)
Firesheath: 100G (1.2%, 12,405G)
Grandlanzer: 100G (1.2%, 2,501G)
RaIshtar: 100G (1.2%, 2,344G)
IphoneDarkness: 50G (0.6%, 2,044G)

brown bets:
dogsandcatsand: 2,540G (18.4%, 2,540G)
OneHundredFists: 2,230G (16.2%, 2,230G)
Mesmaster: 2,000G (14.5%, 95,061G)
Rytor: 1,381G (10.0%, 1,381G)
Oreo_Pizza: 1,000G (7.3%, 19,281G)
eudes89: 1,000G (7.3%, 7,460G)
ZCKaiser: 568G (4.1%, 1,136G)
CapnChaos12: 500G (3.6%, 12,012G)
serperemagus: 500G (3.6%, 1,199G)
Bryon_W: 500G (3.6%, 4,526G)
ShintaroNayaka: 400G (2.9%, 6,525G)
AltimaMantoid: 300G (2.2%, 2,100G)
mrfripps: 200G (1.5%, 4,044G)
Alaquane: 169G (1.2%, 169G)
Jampck: 100G (0.7%, 7,113G)
CosmicTactician: 100G (0.7%, 4,631G)
RuneS_77: 100G (0.7%, 7,940G)
datadrivenbot: 100G (0.7%, 41,268G)
Thyrandaal: 100G (0.7%, 41,386G)
