Final Bets: brown - 22 bets for 20,502G (59.5%, x0.68); champion - 20 bets for 13,933G (40.5%, x1.47)

brown bets:
ShintaroNayaka: 2,303G (11.2%, 6,771G)
RaIshtar: 2,244G (10.9%, 2,244G)
Rytor: 2,230G (10.9%, 2,230G)
eudes89: 2,000G (9.8%, 8,075G)
OneHundredFists: 1,837G (9.0%, 3,602G)
Oreo_Pizza: 1,500G (7.3%, 19,896G)
AniZero: 1,337G (6.5%, 31,152G)
DeadGirlzREasy: 1,135G (5.5%, 1,135G)
serperemagus: 1,000G (4.9%, 1,507G)
reinoe: 1,000G (4.9%, 11,669G)
coralreeferz: 650G (3.2%, 3,678G)
TheChainNerd: 500G (2.4%, 4,000G)
CapnChaos12: 500G (2.4%, 12,320G)
prince_rogers_nelson_: 500G (2.4%, 16,277G)
mrfripps: 500G (2.4%, 4,167G)
AltimaMantoid: 385G (1.9%, 2,285G)
Alaquane: 273G (1.3%, 273G)
Tuckerism: 208G (1.0%, 208G)
AllInBot: 100G (0.5%, 100G)
CosmicTactician: 100G (0.5%, 4,693G)
datadrivenbot: 100G (0.5%, 41,330G)
Grandlanzer: 100G (0.5%, 2,401G)

champion bets:
Mesmaster: 3,000G (21.5%, 96,291G)
Thyrandaal: 2,000G (14.4%, 41,448G)
killth3kid: 1,500G (10.8%, 9,130G)
RunicMagus: 1,200G (8.6%, 51,335G)
toka222: 1,100G (7.9%, 37,364G)
getthemoneyz: 1,000G (7.2%, 961,060G)
HaateXIII: 776G (5.6%, 776G)
ZCKaiser: 742G (5.3%, 1,485G)
Laserman1000: 553G (4.0%, 62,253G)
JumbocactuarX27: 376G (2.7%, 376G)
RuneS_77: 300G (2.2%, 8,002G)
Bryon_W: 300G (2.2%, 4,834G)
OppressivelyMinty: 216G (1.6%, 216G)
MrDiggs49: 208G (1.5%, 208G)
d4rr1n: 200G (1.4%, 6,406G)
Azelgrim: 112G (0.8%, 112G)
Firesheath: 100G (0.7%, 12,305G)
Kellios11: 100G (0.7%, 11,115G)
run_with_stone_GUNs: 100G (0.7%, 26,640G)
IphoneDarkness: 50G (0.4%, 1,994G)
