Final Bets: purple - 9 bets for 4,473G (21.8%, x3.58); brown - 11 bets for 16,018G (78.2%, x0.28)

purple bets:
BirbBrainsBot: 1,000G (22.4%, 67,268G)
Ross_from_Cali: 777G (17.4%, 1,135G)
Heroebal: 746G (16.7%, 746G)
getthemoneyz: 500G (11.2%, 472,461G)
OneHundredFists: 485G (10.8%, 485G)
NoNotBees: 360G (8.0%, 360G)
CapnChaos12: 300G (6.7%, 3,648G)
ZephyrTempest: 205G (4.6%, 50,073G)
silentperogy: 100G (2.2%, 18,548G)

brown bets:
WireLord: 10,000G (62.4%, 34,835G)
JackOnFire1: 1,564G (9.8%, 6,258G)
waterwatereverywhere: 1,000G (6.2%, 6,315G)
datadrivenbot: 939G (5.9%, 25,767G)
Dymntd: 735G (4.6%, 735G)
DarrenDinosaurs: 420G (2.6%, 420G)
fallendj77: 388G (2.4%, 1,943G)
HaateXIII: 352G (2.2%, 352G)
NUMBER1DB: 300G (1.9%, 1,985G)
AllInBot: 220G (1.4%, 220G)
ungabunga_bot: 100G (0.6%, 113,116G)
