Final Bets: red - 17 bets for 7,762G (48.6%, x1.06); blue - 8 bets for 8,203G (51.4%, x0.95)

red bets:
HaplessOne: 1,500G (19.3%, 68,119G)
Adam1949: 900G (11.6%, 2,951G)
PotionDweller: 778G (10.0%, 778G)
mirapoix: 612G (7.9%, 612G)
datadrivenbot: 517G (6.7%, 4,478G)
ungabunga_bot: 502G (6.5%, 141,101G)
rocl: 500G (6.4%, 66,066G)
Faplo: 434G (5.6%, 434G)
Treapvort: 396G (5.1%, 396G)
HASTERIOUS: 348G (4.5%, 348G)
AllInBot: 329G (4.2%, 329G)
waterwatereverywhere: 300G (3.9%, 6,030G)
Chuckolator: 246G (3.2%, 2,487G)
Tithonus: 100G (1.3%, 10,911G)
twelfthrootoftwo: 100G (1.3%, 4,919G)
DHaveWord: 100G (1.3%, 2,680G)
BuffaloCrunch: 100G (1.3%, 3,904G)

blue bets:
Jeeboheebo: 1,649G (20.1%, 1,649G)
WireLord: 1,378G (16.8%, 1,378G)
Maeveen: 1,180G (14.4%, 1,180G)
lijarkh: 1,000G (12.2%, 5,096G)
ColetteMSLP: 1,000G (12.2%, 26,072G)
BirbBrainsBot: 921G (11.2%, 174,804G)
getthemoneyz: 558G (6.8%, 501,910G)
jhazor: 517G (6.3%, 517G)
