Final Bets: white - 12 bets for 10,380G (43.4%, x1.31); champion - 13 bets for 13,564G (56.6%, x0.77)

white bets:
Jeeboheebo: 3,564G (34.3%, 6,990G)
LordSDB: 2,000G (19.3%, 6,610G)
mirapoix: 1,422G (13.7%, 1,422G)
Faplo: 1,000G (9.6%, 1,591G)
DaveStrider55: 500G (4.8%, 2,204G)
HASTERIOUS: 496G (4.8%, 2,484G)
datadrivenbot: 438G (4.2%, 4,655G)
AllInBot: 339G (3.3%, 339G)
KasugaiRoastedPeas: 200G (1.9%, 4,618G)
Maeveen: 200G (1.9%, 2,789G)
ungabunga_bot: 121G (1.2%, 142,794G)
7Cerulean7: 100G (1.0%, 2,234G)

champion bets:
HaplessOne: 6,897G (50.8%, 72,497G)
upvla: 1,234G (9.1%, 32,639G)
Slowbrofist: 1,112G (8.2%, 1,112G)
YaBoy125: 1,028G (7.6%, 1,028G)
BirbBrainsBot: 1,000G (7.4%, 173,519G)
Laserman1000: 838G (6.2%, 4,638G)
Goust18: 392G (2.9%, 392G)
mayormcfunbags: 300G (2.2%, 1,287G)
PotionDweller: 272G (2.0%, 272G)
DeathTaxesAndAnime: 200G (1.5%, 3,054G)
Tithonus: 100G (0.7%, 11,896G)
wizblizz: 100G (0.7%, 635G)
jhazor: 91G (0.7%, 1,839G)
