Final Bets: blue - 12 bets for 7,359G (62.9%, x0.59); yellow - 8 bets for 4,332G (37.1%, x1.70)

blue bets:
Mesmaster: 2,000G (27.2%, 112,946G)
mpghappiness: 1,001G (13.6%, 11,936G)
BirbBrainsBot: 1,000G (13.6%, 67,248G)
reinoe: 1,000G (13.6%, 16,136G)
OneHundredFists: 662G (9.0%, 1,299G)
DLJuggernaut: 500G (6.8%, 21,527G)
killth3kid: 450G (6.1%, 4,320G)
ColetteMSLP: 300G (4.1%, 2,048G)
getthemoneyz: 146G (2.0%, 970,499G)
ScurvyMitch: 100G (1.4%, 15,016G)
datadrivenbot: 100G (1.4%, 44,325G)
ko2q: 100G (1.4%, 7,798G)

yellow bets:
HaateXIII: 1,339G (30.9%, 1,339G)
Meta_Five: 1,000G (23.1%, 33,493G)
DuraiPapers: 592G (13.7%, 1,184G)
Kronikle: 500G (11.5%, 19,293G)
muffin_money: 300G (6.9%, 8,902G)
amishninja: 300G (6.9%, 1,092G)
Nizaha: 201G (4.6%, 19,310G)
AllInBot: 100G (2.3%, 100G)
