Final Bets: yellow - 14 bets for 5,636G (66.3%, x0.51); white - 8 bets for 2,870G (33.7%, x1.96)

yellow bets:
Meta_Five: 1,000G (17.7%, 35,528G)
reinoe: 1,000G (17.7%, 15,136G)
Laserman1000: 800G (14.2%, 4,900G)
DLJuggernaut: 500G (8.9%, 20,531G)
Kronikle: 500G (8.9%, 20,146G)
HaateXIII: 500G (8.9%, 3,114G)
mpghappiness: 420G (7.5%, 11,107G)
butterbelljedi: 216G (3.8%, 216G)
amishninja: 200G (3.5%, 1,602G)
AllInBot: 100G (1.8%, 100G)
Firesheath: 100G (1.8%, 13,303G)
ko2q: 100G (1.8%, 7,598G)
CosmicTactician: 100G (1.8%, 8,490G)
datadrivenbot: 100G (1.8%, 44,125G)

white bets:
BirbBrainsBot: 1,000G (34.8%, 67,926G)
Evewho: 452G (15.7%, 452G)
DuraiPapers: 400G (13.9%, 2,861G)
getthemoneyz: 378G (13.2%, 970,319G)
muffin_money: 300G (10.5%, 9,412G)
BStarTV: 200G (7.0%, 4,067G)
Alanaire: 100G (3.5%, 19,288G)
DeathTaxesAndAnime: 40G (1.4%, 2,093G)
