Final Bets: red - 11 bets for 4,592G (34.7%, x1.88); purple - 12 bets for 8,643G (65.3%, x0.53)

red bets:
Ranmilia: 1,000G (21.8%, 5,100G)
BirbBrainsBot: 1,000G (21.8%, 190,702G)
bad1dea: 1,000G (21.8%, 181,925G)
Winnosh: 520G (11.3%, 520G)
rnark: 420G (9.1%, 2,681G)
getthemoneyz: 166G (3.6%, 356,895G)
LordSDB: 164G (3.6%, 164G)
AllInBot: 100G (2.2%, 100G)
Alc_Trinity: 100G (2.2%, 24,159G)
GoodUsernameHere: 100G (2.2%, 100G)
roqqqpsi: 22G (0.5%, 1,976G)

purple bets:
spit8866: 2,767G (32.0%, 2,767G)
Anethum: 2,166G (25.1%, 2,166G)
HaplessOne: 1,563G (18.1%, 22,151G)
MoonSlayerRS: 883G (10.2%, 883G)
leakimiko: 557G (6.4%, 11,148G)
ungabunga_bot: 107G (1.2%, 3,096G)
ko2q: 100G (1.2%, 1,726G)
twelfthrootoftwo: 100G (1.2%, 4,014G)
Aneyus: 100G (1.2%, 13,747G)
zalivandis: 100G (1.2%, 2,355G)
datadrivenbot: 100G (1.2%, 15,346G)
Cataphract116: 100G (1.2%, 2,113G)
