High Risers:
1. Leonidusx: +9,739G
2. shineeyo: +3,082G
3. Thyrandaal: +3,081G
4. Virilikus: +2,381G
5. Laserman1000: +1,523G
6. E_Ballard: +1,292G
7. Demon_Lord_Josh: +1,207G
8. krombobreaker: +1,078G
9. CCRUNNER149UWP: +1,025G
10. CosmicTactician: +834G
11. VolgraTheMoose: +825G
12. DeathTaxesAndAnime: +790G
13. DrAntiSocial: +701G
14. Nizaha: +644G
15. Forkmore: +620G
16. AlenaZarek: +506G
17. Smashy: +415G
18. dogsandcatsand: +253G
19. nifboy: +214G
20. Twisted_Nutsatchel: +137G
21. Evewho: +101G
22. Ogema_theDream: +99G
23. silentkaster: +58G
24. tangenthoodie: +4G
25. nhammen: -92G
26. technominari: -93G
27. Dasutin23: -100G
28. rocl: -163G
29. Blastinus: -200G
30. gorgewall: -245G
31. HorusTaurus: -445G
32. GenZealot: -500G
33. smallboops: -500G
34. 2b_yorha_b: -569G
35. Lord_Gwarth: -586G
36. ValensEXP_: -599G
37. ColetteMSLP: -627G
38. ExplanationMarkWow: -636G
39. Cryptopsy70: -704G
40. king_smashington: -914G
41. lijarkh: -1,000G
42. Lydian_C: -1,000G
43. highelectricaltemperature: -1,000G
44. Musashi45: -1,052G
45. Zerguzen: -1,191G
46. TheMurkGnome: -1,200G
47. run_with_stone_GUNs: -1,300G
48. powergems: -1,800G
49. lowlf: -1,850G
50. Sairentozon7: -2,000G
51. Shalloween: -2,005G
52. ruleof5: -11,022G
