Final Bets: white - 13 bets for 9,893G (48.8%, x1.05); black - 13 bets for 10,389G (51.2%, x0.95)

white bets:
DeathTaxesAndAnime: 1,842G (18.6%, 3,612G)
Thyrandaal: 1,624G (16.4%, 1,624G)
Zerguzen: 1,483G (15.0%, 1,483G)
BirbBrainsBot: 1,000G (10.1%, 171,273G)
ExplanationMarkWow: 1,000G (10.1%, 37,587G)
lowlf: 680G (6.9%, 6,115G)
mirapoix: 540G (5.5%, 540G)
2b_yorha_b: 500G (5.1%, 37,361G)
silentkaster: 350G (3.5%, 28,306G)
nhammen: 300G (3.0%, 4,188G)
getthemoneyz: 240G (2.4%, 2,212,901G)
HorusTaurus: 222G (2.2%, 12,386G)
murderclan: 112G (1.1%, 112G)

black bets:
Virilikus: 5,000G (48.1%, 146,061G)
VolgraTheMoose: 1,368G (13.2%, 1,368G)
Nizaha: 676G (6.5%, 8,238G)
ColetteMSLP: 512G (4.9%, 9,086G)
krombobreaker: 500G (4.8%, 45,788G)
Smashy: 436G (4.2%, 436G)
AllInBot: 404G (3.9%, 404G)
rocl: 363G (3.5%, 363G)
Musashi45: 300G (2.9%, 300G)
Demon_Lord_Josh: 300G (2.9%, 1,834G)
CCRUNNER149UWP: 280G (2.7%, 280G)
datadrivenbot: 200G (1.9%, 80,984G)
smallboops: 50G (0.5%, 620G)
