Final Bets: white - 7 bets for 6,713G (36.9%, x1.71); black - 5 bets for 11,482G (63.1%, x0.58)

white bets:
ShintaroNayaka: 3,659G (54.5%, 3,659G)
Evewho: 1,000G (14.9%, 15,757G)
dogsandcatsand: 536G (8.0%, 536G)
E_Ballard: 532G (7.9%, 532G)
randgridr: 500G (7.4%, 12,158G)
Zenmaza: 286G (4.3%, 286G)
datadrivenbot: 200G (3.0%, 55,492G)

black bets:
dantayystv: 10,000G (87.1%, 20,312G)
BirbBrainsBot: 920G (8.0%, 146,518G)
getthemoneyz: 242G (2.1%, 1,273,910G)
Mysteriousdewd: 200G (1.7%, 7,256G)
dtrain332: 120G (1.0%, 120G)
