Final Bets: green - 11 bets for 4,983G (45.5%, x1.20); yellow - 12 bets for 5,967G (54.5%, x0.84)

green bets:
gorgewall: 1,193G (23.9%, 1,193G)
BirbBrainsBot: 1,000G (20.1%, 24,260G)
RikiNom: 831G (16.7%, 831G)
LuckyLuckLuc2: 555G (11.1%, 6,826G)
Snowfats: 348G (7.0%, 348G)
getthemoneyz: 216G (4.3%, 2,086,779G)
Einswolf: 204G (4.1%, 204G)
mizzmoonshine: 200G (4.0%, 200G)
retrozu: 200G (4.0%, 2,634G)
VynxYukida: 120G (2.4%, 120G)
bufuman: 116G (2.3%, 116G)

yellow bets:
latebit: 1,617G (27.1%, 53,922G)
reinoe: 1,000G (16.8%, 41,089G)
LivingHitokiri: 500G (8.4%, 143,902G)
TheBrett: 500G (8.4%, 6,179G)
CorpusCav: 450G (7.5%, 6,086G)
silentkaster: 400G (6.7%, 23,502G)
superdevon1: 348G (5.8%, 348G)
rNdOrchestra: 300G (5.0%, 1,830G)
Genkidou: 252G (4.2%, 3,483G)
AllInBot: 200G (3.4%, 200G)
khelor_: 200G (3.4%, 2,074G)
datadrivenbot: 200G (3.4%, 79,235G)
