Final Bets: red - 8 bets for 2,588G (11.6%, x7.59); blue - 23 bets for 19,653G (88.4%, x0.13)

red bets:
fenaen: 676G (26.1%, 29,216G)
FriendSquirrel: 650G (25.1%, 650G)
almost__sane: 500G (19.3%, 1,330G)
heropong: 312G (12.1%, 312G)
getthemoneyz: 142G (5.5%, 2,181,825G)
Widewalk: 108G (4.2%, 108G)
Firesheath: 100G (3.9%, 2,200G)
maakur_: 100G (3.9%, 1,899G)

blue bets:
DLJuggernaut: 5,000G (25.4%, 18,573G)
randgridr: 2,370G (12.1%, 2,370G)
Mushufasa_: 1,234G (6.3%, 17,225G)
CorpusCav: 1,200G (6.1%, 67,812G)
BirbBrainsBot: 1,000G (5.1%, 110,358G)
Sairentozon7: 1,000G (5.1%, 75,666G)
puddleofsick: 1,000G (5.1%, 3,235G)
E_Ballard: 920G (4.7%, 920G)
killth3kid: 828G (4.2%, 28,706G)
lowlf: 664G (3.4%, 664G)
ChiChiRodriguez: 600G (3.1%, 600G)
SephDarkheart: 580G (3.0%, 20,980G)
holdenmagronik: 500G (2.5%, 725G)
krombobreaker: 500G (2.5%, 42,493G)
JonnyCue: 472G (2.4%, 10,336G)
Sharosa: 400G (2.0%, 893G)
2b_yorha_b: 400G (2.0%, 19,620G)
AllInBot: 373G (1.9%, 373G)
CapnChaos12: 300G (1.5%, 12,605G)
datadrivenbot: 200G (1.0%, 87,509G)
gorgewall: 101G (0.5%, 6,017G)
nhammen: 10G (0.1%, 30,987G)
MoonSugarFiend: 1G (0.0%, 28,117G)
