Final Bets: yellow - 14 bets for 18,112G (52.3%, x0.91); brown - 16 bets for 16,520G (47.7%, x1.10)

yellow bets:
DavenIII: 10,447G (57.7%, 20,894G)
FriendSquirrel: 2,285G (12.6%, 2,285G)
LivingHitokiri: 1,000G (5.5%, 127,843G)
killth3kid: 640G (3.5%, 21,078G)
upvla: 600G (3.3%, 600G)
CorpusCav: 500G (2.8%, 11,805G)
CosmicTactician: 500G (2.8%, 21,388G)
AnthroMetal: 500G (2.8%, 1,522G)
Lord_Gwarth: 500G (2.8%, 1,709G)
Zachara: 400G (2.2%, 144,000G)
Musashi45: 351G (1.9%, 351G)
getthemoneyz: 188G (1.0%, 2,057,110G)
gorgewall: 101G (0.6%, 5,975G)
TWCroc: 100G (0.6%, 4,386G)

brown bets:
Shalloween: 3,359G (20.3%, 3,359G)
Rytor: 2,583G (15.6%, 5,166G)
AllInBot: 2,471G (15.0%, 2,471G)
latebit: 1,646G (10.0%, 3,229G)
Raixelol: 1,100G (6.7%, 1,100G)
BirbBrainsBot: 1,000G (6.1%, 120,343G)
JumbocactuarX27: 1,000G (6.1%, 9,672G)
CapnChaos12: 925G (5.6%, 925G)
Smugzug: 516G (3.1%, 516G)
mykelwolfscar: 500G (3.0%, 1,105G)
SephDarkheart: 396G (2.4%, 4,121G)
wyonearth: 300G (1.8%, 5,321G)
killabandaid: 300G (1.8%, 1,122G)
old_overholt_: 200G (1.2%, 28,501G)
Riley331: 124G (0.8%, 124G)
galkife: 100G (0.6%, 81,176G)
