Final Bets: red - 11 bets for 4,902G (36.5%, x1.74); blue - 15 bets for 8,529G (63.5%, x0.57)

red bets:
rechaun: 1,106G (22.6%, 1,106G)
maakur_: 903G (18.4%, 903G)
HaateXIII: 672G (13.7%, 672G)
megaman2202: 506G (10.3%, 1,012G)
Rislyeu: 466G (9.5%, 466G)
Anomandaris__: 372G (7.6%, 372G)
old_overholt_: 300G (6.1%, 7,401G)
Movarus: 200G (4.1%, 1,471G)
foofermoofer: 177G (3.6%, 177G)
Firesheath: 100G (2.0%, 21,311G)
ko2q: 100G (2.0%, 7,705G)

blue bets:
killth3kid: 2,000G (23.4%, 42,088G)
JumbocactuarX27: 1,000G (11.7%, 14,003G)
ShintaroNayaka: 932G (10.9%, 932G)
nifboy: 780G (9.1%, 780G)
sinnyil2: 500G (5.9%, 52,383G)
Laserman1000: 500G (5.9%, 11,200G)
Dymntd: 500G (5.9%, 9,336G)
proper__noun__: 478G (5.6%, 478G)
TheChainNerd: 472G (5.5%, 472G)
Drusic: 400G (4.7%, 410G)
SuicideKing_XIX: 301G (3.5%, 301G)
LAGBOT30000: 258G (3.0%, 25,865G)
Chao_Garden: 200G (2.3%, 7,021G)
Generalunderdog: 108G (1.3%, 440G)
E_Ballard: 100G (1.2%, 2,639G)
