Final Bets: green - 17 bets for 7,583G (43.2%, x1.31); yellow - 13 bets for 9,969G (56.8%, x0.76)

green bets:
Grimmace45: 1,297G (17.1%, 25,958G)
Cryptopsy70: 1,104G (14.6%, 1,104G)
roofiepops: 1,058G (14.0%, 1,058G)
megaman2202: 506G (6.7%, 506G)
Dymntd: 500G (6.6%, 9,623G)
LeepingJJ: 487G (6.4%, 487G)
KasugaiRoastedPeas: 478G (6.3%, 478G)
rechaun: 468G (6.2%, 468G)
maakur_: 440G (5.8%, 440G)
CustomGameMaster: 324G (4.3%, 324G)
TheFALLofLindsay: 243G (3.2%, 3,388G)
frozentomato: 150G (2.0%, 1,651G)
foofermoofer: 120G (1.6%, 120G)
Generalunderdog: 108G (1.4%, 502G)
E_Ballard: 100G (1.3%, 2,696G)
ko2q: 100G (1.3%, 7,605G)
metagameface: 100G (1.3%, 1,105G)

yellow bets:
bahamutlagooon: 2,285G (22.9%, 2,285G)
nifboy: 1,228G (12.3%, 1,228G)
JonnyCue: 1,000G (10.0%, 25,792G)
ungabunga_bot: 1,000G (10.0%, 476,617G)
BirbBrainsBot: 1,000G (10.0%, 15,225G)
JumbocactuarX27: 1,000G (10.0%, 14,578G)
proper__noun__: 753G (7.6%, 753G)
HaateXIII: 672G (6.7%, 672G)
Movarus: 500G (5.0%, 1,271G)
Rislyeu: 316G (3.2%, 316G)
Chao_Garden: 200G (2.0%, 7,136G)
getthemoneyz: 14G (0.1%, 675,003G)
FriendSquirrel: 1G (0.0%, 24,738G)
