Final Bets: white - 18 bets for 11,169G (45.1%, x1.22); purple - 15 bets for 13,612G (54.9%, x0.82)

white bets:
E_Ballard: 2,649G (23.7%, 2,649G)
sinnyil2: 2,500G (22.4%, 55,143G)
BirbBrainsBot: 1,000G (9.0%, 17,363G)
maakur_: 884G (7.9%, 884G)
getthemoneyz: 770G (6.9%, 674,640G)
coralreeferz: 550G (4.9%, 12,973G)
nifboy: 500G (4.5%, 3,556G)
yetichamp: 400G (3.6%, 4,471G)
Kronikle: 300G (2.7%, 1,234G)
metagameface: 300G (2.7%, 1,005G)
ungabunga_bot: 294G (2.6%, 476,803G)
Anomandaris__: 252G (2.3%, 252G)
sSwing: 220G (2.0%, 220G)
Movarus: 200G (1.8%, 2,290G)
gggamezzz: 100G (0.9%, 1,043G)
frozentomato: 100G (0.9%, 1,538G)
Rislyeu: 100G (0.9%, 3,027G)
FaytKion: 50G (0.4%, 3,408G)

purple bets:
DavenIII: 3,808G (28.0%, 3,808G)
Mesmaster: 2,000G (14.7%, 82,081G)
Drusic: 1,516G (11.1%, 1,516G)
Grimmace45: 1,202G (8.8%, 24,053G)
JumbocactuarX27: 1,000G (7.3%, 15,339G)
bahamutlagooon: 1,000G (7.3%, 3,823G)
TheChainNerd: 948G (7.0%, 948G)
HaateXIII: 676G (5.0%, 676G)
powergems: 456G (3.3%, 3,059G)
proper__noun__: 324G (2.4%, 324G)
LAGBOT30000: 262G (1.9%, 26,275G)
foofermoofer: 120G (0.9%, 120G)
ko2q: 100G (0.7%, 7,796G)
lastly: 100G (0.7%, 6,981G)
Firesheath: 100G (0.7%, 21,212G)
