Player: !White
Team: White Team
Palettes: White/Blue



JeTfUeL2750F
Monster
Taurus
80
64
King Behemoth










BoneMiser
Monster
Pisces
76
81
Ochu










Mtueni
Monster
Leo
51
56
Bull Demon










HaplessOne
Female
Leo
80
41
Time Mage
Charge
Speed Save
Short Status
Lava Walking

Oak Staff

Leather Hat
Leather Outfit
Spike Shoes

Haste, Slow 2, Stop, Float, Quick, Demi 2, Stabilize Time
Charge+1, Charge+2, Charge+5
