Final Bets: green - 14 bets for 6,063G (44.8%, x1.23); yellow - 15 bets for 7,472G (55.2%, x0.81)

green bets:
TheChainNerd: 1,000G (16.5%, 7,027G)
ungabunga_bot: 1,000G (16.5%, 342,803G)
BirbBrainsBot: 1,000G (16.5%, 44,276G)
JumbocactuarX27: 1,000G (16.5%, 7,467G)
hydroshade: 628G (10.4%, 1,256G)
ZephyrTempest: 456G (7.5%, 1,675G)
RoboticNomad: 243G (4.0%, 486G)
FNCardascia_: 224G (3.7%, 224G)
nifboy: 100G (1.6%, 8,683G)
ReeYAwN: 100G (1.6%, 1,227G)
maakur_: 100G (1.6%, 128,220G)
CosmicTactician: 100G (1.6%, 21,316G)
witchlight: 62G (1.0%, 621G)
bahamutlagooon: 50G (0.8%, 1,135G)

yellow bets:
sinnyil2: 1,620G (21.7%, 1,620G)
kai_shee: 1,000G (13.4%, 9,968G)
Meta_Five: 800G (10.7%, 4,056G)
DavenIII: 650G (8.7%, 3,135G)
MrPhuui: 500G (6.7%, 7,718G)
z32o: 500G (6.7%, 4,244G)
Estan_AD: 500G (6.7%, 9,001G)
DustBirdEX: 485G (6.5%, 2,207G)
ShintaroNayaka: 400G (5.4%, 9,130G)
getthemoneyz: 276G (3.7%, 623,384G)
FoeSquirrel: 241G (3.2%, 483G)
SerumD: 200G (2.7%, 3,658G)
astrozin11: 150G (2.0%, 5,430G)
datadrivenbot: 100G (1.3%, 12,222G)
Sykper: 50G (0.7%, 108G)
