Final Bets: red - 16 bets for 21,580G (63.3%, x0.58); champion - 22 bets for 12,516G (36.7%, x1.72)

red bets:
rechaun: 13,300G (61.6%, 13,300G)
DavenIII: 1,000G (4.6%, 4,414G)
TheChainNerd: 1,000G (4.6%, 10,940G)
MrPhuui: 1,000G (4.6%, 8,366G)
hydroshade: 953G (4.4%, 953G)
NovaKnight21: 883G (4.1%, 883G)
DustBirdEX: 858G (4.0%, 858G)
VeryVert: 734G (3.4%, 734G)
TheRedMelody: 600G (2.8%, 4,600G)
SerumD: 500G (2.3%, 1,968G)
FoeSquirrel: 241G (1.1%, 483G)
ZephyrTempest: 111G (0.5%, 2,225G)
maakur_: 100G (0.5%, 128,028G)
CoderCalamity: 100G (0.5%, 3,094G)
CosmicTactician: 100G (0.5%, 21,358G)
datadrivenbot: 100G (0.5%, 12,168G)

champion bets:
Draconis345: 4,274G (34.1%, 85,493G)
sinnyil2: 1,198G (9.6%, 1,198G)
JumbocactuarX27: 1,000G (8.0%, 8,283G)
ungabunga_bot: 1,000G (8.0%, 340,565G)
BirbBrainsBot: 1,000G (8.0%, 42,379G)
HaplessOne: 666G (5.3%, 37,310G)
Lyner87: 500G (4.0%, 66,917G)
ShintaroNayaka: 400G (3.2%, 9,907G)
Aneyus: 347G (2.8%, 34,736G)
joewcarson: 300G (2.4%, 16,170G)
EnemyController: 300G (2.4%, 178,865G)
getthemoneyz: 238G (1.9%, 622,570G)
FNCardascia_: 224G (1.8%, 224G)
witchlight: 212G (1.7%, 212G)
RoboticNomad: 200G (1.6%, 200G)
Practice_Pad: 132G (1.1%, 132G)
FriendSquirrel: 100G (0.8%, 32,968G)
tmo50x: 100G (0.8%, 7,813G)
nifboy: 100G (0.8%, 9,017G)
Arlum: 100G (0.8%, 2,446G)
MaverickUmbracato: 100G (0.8%, 100G)
bahamutlagooon: 25G (0.2%, 1,444G)
