Final Bets: red - 24 bets for 16,079G (37.9%, x1.64); yellow - 29 bets for 26,299G (62.1%, x0.61)

red bets:
MoonSlayerRS: 2,080G (12.9%, 2,080G)
OmnibotGamma: 1,927G (12.0%, 1,927G)
sinnyil2: 1,200G (7.5%, 8,767G)
BirbBrainsBot: 1,000G (6.2%, 15,457G)
inzo_bettingbot: 1,000G (6.2%, 21,259G)
gooseyourself: 1,000G (6.2%, 7,516G)
DudeMonkey77: 1,000G (6.2%, 33,105G)
LASERJESUS1337: 1,000G (6.2%, 9,672G)
z32o: 957G (6.0%, 19,142G)
WoooBlaaa: 827G (5.1%, 827G)
Aldrammech: 600G (3.7%, 600G)
OneHundredFists: 500G (3.1%, 8,707G)
Riot_Jayway: 500G (3.1%, 186,378G)
wackyzachyy: 450G (2.8%, 2,128G)
baconbacon1207: 400G (2.5%, 19,240G)
ensiron: 300G (1.9%, 3,961G)
Baron_von_Scrub: 260G (1.6%, 260G)
GreatRedDragon: 248G (1.5%, 248G)
getthemoneyz: 230G (1.4%, 391,103G)
SeedSC: 200G (1.2%, 150,810G)
MyFakeLife: 100G (0.6%, 26,695G)
SpaZmodeus: 100G (0.6%, 2,625G)
mirapoix: 100G (0.6%, 7,158G)
Lythe_Caraker: 100G (0.6%, 50,672G)

yellow bets:
kingchadking: 4,374G (16.6%, 4,374G)
rockmem21: 4,196G (16.0%, 41,968G)
DeathTaxesAndAnime: 2,000G (7.6%, 36,396G)
SkylerBunny: 2,000G (7.6%, 70,916G)
UmaiJam: 1,648G (6.3%, 1,648G)
Shakarak: 1,422G (5.4%, 1,422G)
roofiepops: 1,304G (5.0%, 1,304G)
Lali_Lulelo: 1,057G (4.0%, 1,057G)
Zachara: 1,029G (3.9%, 30,029G)
TheRobbieRobster: 1,000G (3.8%, 6,584G)
volgrathemoose: 975G (3.7%, 975G)
IndecisiveNinja: 738G (2.8%, 738G)
Axelrod: 663G (2.5%, 13,266G)
Lanshaft: 580G (2.2%, 10,509G)
BadBlanket: 500G (1.9%, 5,085G)
Tougou: 500G (1.9%, 4,598G)
Arunic: 400G (1.5%, 1,568G)
Humble_Fabio: 333G (1.3%, 1,097G)
Yasmosis: 300G (1.1%, 4,747G)
0utlier: 280G (1.1%, 280G)
Oshimi12: 200G (0.8%, 1,769G)
GrayGhostGaming: 100G (0.4%, 1,147G)
Sairentozon7: 100G (0.4%, 1,881G)
ApplesauceBoss: 100G (0.4%, 4,420G)
victoriolue: 100G (0.4%, 4,154G)
AdmiralPikachu: 100G (0.4%, 20,343G)
Tyerenex: 100G (0.4%, 1,575G)
Lyner87: 100G (0.4%, 6,716G)
HaplessOne: 100G (0.4%, 40,018G)
