Final Bets: red - 24 bets for 8,484G (36.8%, x1.71); blue - 22 bets for 14,547G (63.2%, x0.58)

red bets:
GreatRedDragon: 756G (8.9%, 756G)
LordSDB: 650G (7.7%, 6,295G)
Lanshaft: 600G (7.1%, 10,061G)
Aldrammech: 600G (7.1%, 600G)
Evewho: 583G (6.9%, 583G)
SeriousFaceFace: 570G (6.7%, 570G)
JackOnFire1: 522G (6.2%, 10,447G)
AllInBot: 502G (5.9%, 502G)
Baron_von_Scrub: 353G (4.2%, 17,107G)
roofiepops: 352G (4.1%, 352G)
SkylerBunny: 350G (4.1%, 350G)
robespyah: 347G (4.1%, 694G)
Maeveen: 324G (3.8%, 324G)
RageImmortaI: 300G (3.5%, 2,570G)
bad1dea: 300G (3.5%, 46,438G)
Shalloween: 200G (2.4%, 2,068G)
Meanderandreturn: 200G (2.4%, 3,685G)
BirbBrainsBot: 198G (2.3%, 257,530G)
getthemoneyz: 194G (2.3%, 442,364G)
ungabunga_bot: 175G (2.1%, 63,308G)
gikokiko: 108G (1.3%, 108G)
datadrivenbot: 100G (1.2%, 22,775G)
Tyerenex: 100G (1.2%, 4,032G)
InOzWeTrust: 100G (1.2%, 348G)

blue bets:
YaBoy125: 1,868G (12.8%, 1,868G)
TrogdorTheMemeinator: 1,638G (11.3%, 1,638G)
MoonSlayerRS: 1,592G (10.9%, 1,592G)
DeathTaxesAndAnime: 1,146G (7.9%, 2,249G)
rocl: 1,022G (7.0%, 10,221G)
Basmal: 1,000G (6.9%, 55,580G)
HaateXIII: 1,000G (6.9%, 14,130G)
Laserman1000: 860G (5.9%, 8,860G)
Goust18: 600G (4.1%, 22,043G)
moonliquor: 533G (3.7%, 1,066G)
b0shii: 522G (3.6%, 522G)
Lodrak: 504G (3.5%, 504G)
RunicMagus: 500G (3.4%, 45,259G)
joewcarson: 449G (3.1%, 449G)
DarrenDinosaurs: 396G (2.7%, 396G)
Cataphract116: 300G (2.1%, 4,915G)
ugoplatamia: 200G (1.4%, 8,509G)
NUMBER1DB: 112G (0.8%, 112G)
Tougou: 100G (0.7%, 4,907G)
ApplesauceBoss: 100G (0.7%, 3,663G)
rNdOrchestra: 100G (0.7%, 1,178G)
ko2q: 5G (0.0%, 3,929G)
