Final Bets: black - 19 bets for 16,867G (72.3%, x0.38); brown - 13 bets for 6,463G (27.7%, x2.61)

black bets:
GeeGXP: 5,060G (30.0%, 5,060G)
TheChainNerd: 2,606G (15.5%, 44,606G)
Grandlanzer: 2,032G (12.0%, 2,032G)
Digitalsocrates: 1,401G (8.3%, 2,802G)
Aldrammech: 1,000G (5.9%, 22,706G)
killth3kid: 750G (4.4%, 21,267G)
HASTERIOUS: 668G (4.0%, 13,361G)
OneHundredFists: 580G (3.4%, 580G)
nifboy: 500G (3.0%, 8,938G)
Sharosa: 500G (3.0%, 1,354G)
HaateXIII: 500G (3.0%, 14,949G)
DoctorFlame: 400G (2.4%, 895G)
Flameatron: 300G (1.8%, 5,590G)
zepharoth89: 151G (0.9%, 7,568G)
Tougou: 100G (0.6%, 2,458G)
CosmicTactician: 100G (0.6%, 1,931G)
UnholyCorsair: 100G (0.6%, 4,726G)
datadrivenbot: 100G (0.6%, 29,548G)
bahamutlagooon: 19G (0.1%, 8,019G)

brown bets:
DeathTaxesAndAnime: 1,269G (19.6%, 2,490G)
SkylerBunny: 1,200G (18.6%, 81,490G)
BirbBrainsBot: 1,000G (15.5%, 101,727G)
E_Ballard: 724G (11.2%, 724G)
EnemyController: 500G (7.7%, 454,369G)
CorpusCav: 400G (6.2%, 13,131G)
potgodtopdog: 333G (5.2%, 37,280G)
skillomono: 300G (4.6%, 2,764G)
getthemoneyz: 242G (3.7%, 772,203G)
MiseryKoss: 195G (3.0%, 5,195G)
Qaz12301: 100G (1.5%, 7,851G)
Evewho: 100G (1.5%, 3,935G)
maakur_: 100G (1.5%, 5,219G)
