Final Bets: purple - 9 bets for 3,414G (14.4%, x5.92); brown - 19 bets for 20,222G (85.6%, x0.17)

purple bets:
thewondertrickster: 1,000G (29.3%, 5,875G)
MagicBottle: 496G (14.5%, 14,254G)
Lanshaft: 464G (13.6%, 4,807G)
letdowncity: 368G (10.8%, 7,423G)
prince_rogers_nelson_: 324G (9.5%, 324G)
ArashiKurobara: 276G (8.1%, 11,603G)
silentkaster: 200G (5.9%, 16,408G)
SephDarkheart: 186G (5.4%, 186G)
Evewho: 100G (2.9%, 15,348G)

brown bets:
ShintaroNayaka: 6,580G (32.5%, 6,580G)
Mesmaster: 2,903G (14.4%, 2,903G)
fenixcrest: 2,027G (10.0%, 20,278G)
DeathTaxesAndAnime: 1,537G (7.6%, 3,015G)
Breakdown777: 792G (3.9%, 792G)
NIghtdew14: 750G (3.7%, 5,804G)
HyC81: 744G (3.7%, 744G)
Hattoriisan: 540G (2.7%, 540G)
BirbBrainsBot: 525G (2.6%, 64,128G)
Digitalsocrates: 516G (2.6%, 516G)
DLJuggernaut: 500G (2.5%, 4,629G)
getthemoneyz: 500G (2.5%, 1,196,929G)
twelfthrootoftwo: 500G (2.5%, 6,580G)
HaateXIII: 500G (2.5%, 7,151G)
dogsandcatsand: 456G (2.3%, 456G)
safira125: 250G (1.2%, 303G)
VolgraTheMoose: 201G (1.0%, 9,534G)
gorgewall: 201G (1.0%, 3,182G)
datadrivenbot: 200G (1.0%, 56,078G)
