Final Bets: red - 9 bets for 4,205G (34.7%, x1.88); purple - 5 bets for 7,920G (65.3%, x0.53)

red bets:
UmaiJam: 2,000G (47.6%, 45,930G)
maximumcrit: 500G (11.9%, 9,587G)
douchetron: 412G (9.8%, 412G)
AllInBot: 389G (9.3%, 389G)
iBardic: 244G (5.8%, 244G)
Chambs12: 224G (5.3%, 2,574G)
datadrivenbot: 200G (4.8%, 46,147G)
getthemoneyz: 136G (3.2%, 1,444,850G)
fluffskull: 100G (2.4%, 5,117G)

purple bets:
gorgewall: 4,764G (60.2%, 4,764G)
ColetteMSLP: 1,000G (12.6%, 31,554G)
BirbBrainsBot: 1,000G (12.6%, 35,340G)
prince_rogers_nelson_: 672G (8.5%, 672G)
CassiePhoenix: 484G (6.1%, 484G)
