Final Bets: white - 11 bets for 21,277G (78.1%, x0.28); black - 9 bets for 5,959G (21.9%, x3.57)

white bets:
reinoe: 10,000G (47.0%, 197,213G)
DustBirdEX: 2,906G (13.7%, 2,906G)
SkylerBunny: 2,500G (11.7%, 32,885G)
douchetron: 1,943G (9.1%, 1,943G)
Tarheels218: 1,347G (6.3%, 1,347G)
Starfire6789: 661G (3.1%, 661G)
SephDarkheart: 592G (2.8%, 119,017G)
Forkmore: 532G (2.5%, 532G)
DiazCloud: 300G (1.4%, 300G)
ThreeMileIsland: 296G (1.4%, 296G)
ar_tactic: 200G (0.9%, 81,727G)

black bets:
Thyrandaal: 2,222G (37.3%, 305,730G)
BirbBrainsBot: 1,000G (16.8%, 168,336G)
nhammen: 1,000G (16.8%, 25,035G)
DavenIII: 1,000G (16.8%, 14,856G)
getthemoneyz: 306G (5.1%, 1,661,704G)
PuzzleSecretary: 181G (3.0%, 181G)
AllInBot: 100G (1.7%, 100G)
TheseJeans: 100G (1.7%, 839G)
azelus123: 50G (0.8%, 362G)
