Final Bets: brown - 8 bets for 2,527G (10.9%, x8.14); champion - 16 bets for 20,579G (89.1%, x0.12)

brown bets:
ThreeMileIsland: 709G (28.1%, 709G)
SephDarkheart: 592G (23.4%, 120,552G)
technominari: 500G (19.8%, 85,886G)
ANFz: 416G (16.5%, 416G)
RunicMagus: 100G (4.0%, 3,416G)
nifboy: 100G (4.0%, 6,242G)
getthemoneyz: 60G (2.4%, 1,662,001G)
azelus123: 50G (2.0%, 450G)

champion bets:
sinnyil2: 5,272G (25.6%, 10,545G)
SkylerBunny: 5,000G (24.3%, 29,173G)
reinoe: 3,000G (14.6%, 198,480G)
Thyrandaal: 1,234G (6.0%, 314,579G)
DustBirdEX: 1,014G (4.9%, 2,028G)
VolgraTheMoose: 1,001G (4.9%, 6,012G)
BirbBrainsBot: 1,000G (4.9%, 171,026G)
nhammen: 1,000G (4.9%, 28,040G)
douchetron: 600G (2.9%, 600G)
Starfire6789: 499G (2.4%, 499G)
Tarheels218: 272G (1.3%, 272G)
PuzzleSecretary: 259G (1.3%, 259G)
arctodus13: 128G (0.6%, 128G)
AllInBot: 100G (0.5%, 100G)
dark_god_Uthuru: 100G (0.5%, 339G)
Valgram: 100G (0.5%, 2,141G)
