Final Bets: white - 15 bets for 4,419G (41.4%, x1.41); brown - 20 bets for 6,244G (58.6%, x0.71)

white bets:
Goust18: 1,000G (22.6%, 12,162G)
Treapvort: 500G (11.3%, 23,367G)
bad1dea: 400G (9.1%, 297,467G)
Lali_Lulelo: 384G (8.7%, 384G)
ApplesauceBoss: 340G (7.7%, 340G)
SkylerBunny: 300G (6.8%, 7,325G)
lijarkh: 284G (6.4%, 284G)
NytFantom: 224G (5.1%, 1,124G)
ugoplatamia: 200G (4.5%, 1,089G)
BirbBrainsBot: 199G (4.5%, 73,598G)
TheRobbieRobster: 148G (3.3%, 148G)
Lydian_C: 120G (2.7%, 2,795G)
Meowyster_: 120G (2.7%, 870G)
denamda: 100G (2.3%, 16,787G)
Lirnef: 100G (2.3%, 1,383G)

brown bets:
Zetchryn: 2,000G (32.0%, 14,636G)
leakimiko: 676G (10.8%, 22,545G)
nomoment: 500G (8.0%, 27,581G)
cheesetacular: 450G (7.2%, 9,960G)
SleepyBenzo: 310G (5.0%, 310G)
luminarii: 302G (4.8%, 7,370G)
getthemoneyz: 300G (4.8%, 399,601G)
inzo24: 300G (4.8%, 8,626G)
SpaZmodeus: 256G (4.1%, 256G)
KasugaiRoastedPeas: 200G (3.2%, 28,075G)
Oshimi12: 100G (1.6%, 1,216G)
PlatinumPlume: 100G (1.6%, 9,151G)
BadBlanket: 100G (1.6%, 2,324G)
HEROScioN: 100G (1.6%, 100G)
Maeveen: 100G (1.6%, 7,845G)
pathogen7: 100G (1.6%, 857G)
InOzWeTrust: 100G (1.6%, 181G)
Basmal: 100G (1.6%, 37,373G)
snoochums: 100G (1.6%, 100G)
ProtoRoku: 50G (0.8%, 2,278G)
