Final Bets: brown - 20 bets for 9,745G (29.5%, x2.39); champion - 21 bets for 23,300G (70.5%, x0.42)

brown bets:
Zetchryn: 2,000G (20.5%, 17,104G)
ELzukkor: 1,566G (16.1%, 1,566G)
DudeMonkey77: 1,000G (10.3%, 37,436G)
inzo_bettingbot: 1,000G (10.3%, 58,429G)
ApplesauceBoss: 579G (5.9%, 579G)
samtimemc: 500G (5.1%, 4,639G)
Lionhermit: 500G (5.1%, 10,929G)
inzo24: 500G (5.1%, 9,400G)
Lali_Lulelo: 384G (3.9%, 384G)
helpimabug: 304G (3.1%, 304G)
SpaZmodeus: 256G (2.6%, 256G)
KasugaiRoastedPeas: 200G (2.1%, 28,217G)
Meowyster_: 200G (2.1%, 855G)
NytFantom: 144G (1.5%, 720G)
InOzWeTrust: 112G (1.1%, 112G)
BadBlanket: 100G (1.0%, 2,295G)
Oshimi12: 100G (1.0%, 1,361G)
snoochums: 100G (1.0%, 100G)
pathogen7: 100G (1.0%, 998G)
Treapvort: 100G (1.0%, 22,937G)

champion bets:
cheesetacular: 6,278G (26.9%, 6,278G)
jethrothrul: 4,599G (19.7%, 18,398G)
sinnyil2: 1,835G (7.9%, 3,671G)
HaateXIII: 1,697G (7.3%, 1,697G)
Lydian_C: 1,364G (5.9%, 2,675G)
leakimiko: 1,093G (4.7%, 21,872G)
BirbBrainsBot: 1,000G (4.3%, 74,101G)
bad1dea: 1,000G (4.3%, 297,769G)
SkylerBunny: 1,000G (4.3%, 7,165G)
SleepyBenzo: 900G (3.9%, 900G)
I_nod_my_head_when_I_lose: 500G (2.1%, 15,446G)
DeathTaxesAndAnime: 468G (2.0%, 468G)
Ungaiii: 322G (1.4%, 7,581G)
HEROScioN: 291G (1.2%, 291G)
SeedSC: 250G (1.1%, 71,838G)
ugoplatamia: 205G (0.9%, 1,029G)
TheRobbieRobster: 148G (0.6%, 148G)
Lirnef: 100G (0.4%, 1,283G)
kingchadking: 100G (0.4%, 27,618G)
KaLam1ty: 100G (0.4%, 5,001G)
sixstop: 50G (0.2%, 3,713G)
