Final Bets: brown - 8 bets for 3,946G (22.7%, x3.41); champion - 10 bets for 13,453G (77.3%, x0.29)

brown bets:
BirbBrainsBot: 1,000G (25.3%, 108,816G)
sinnyil2: 698G (17.7%, 1,396G)
CorpusCav: 485G (12.3%, 18,985G)
getthemoneyz: 484G (12.3%, 781,567G)
bruubarg: 427G (10.8%, 7,827G)
YaBoy125: 420G (10.6%, 3,084G)
wyonearth: 300G (7.6%, 1,468G)
Furgers: 132G (3.3%, 132G)

champion bets:
gogofromtogo: 6,728G (50.0%, 6,728G)
RaIshtar: 2,000G (14.9%, 6,434G)
UmaiJam: 1,691G (12.6%, 1,691G)
BoneMiser: 1,100G (8.2%, 1,100G)
HASTERIOUS: 634G (4.7%, 12,696G)
sukotsuto: 500G (3.7%, 18,765G)
DAC169: 400G (3.0%, 3,125G)
StreamRocket: 200G (1.5%, 641G)
CT_5_Holy: 100G (0.7%, 737G)
datadrivenbot: 100G (0.7%, 29,814G)
