Final Bets: red - 6 bets for 5,367G (76.1%, x0.31); yellow - 4 bets for 1,689G (23.9%, x3.18)

red bets:
douchetron: 2,116G (39.4%, 4,233G)
RaIshtar: 1,830G (34.1%, 1,830G)
UmaiJam: 1,000G (18.6%, 50,270G)
AllInBot: 200G (3.7%, 200G)
Lydian_C: 121G (2.3%, 70,970G)
Error72: 100G (1.9%, 3,130G)

yellow bets:
SkylerBunny: 1,000G (59.2%, 38,775G)
randgridr: 456G (27.0%, 2,901G)
datadrivenbot: 200G (11.8%, 30,902G)
DouglasDragonThePoet: 33G (2.0%, 563G)
