Final Bets: red - 17 bets for 13,237G (62.9%, x0.59); blue - 15 bets for 7,822G (37.1%, x1.69)

red bets:
DeathTaxesAndAnime: 2,486G (18.8%, 4,876G)
TheChainNerd: 2,000G (15.1%, 50,210G)
megaman2202: 1,124G (8.5%, 1,124G)
LDSkinny: 1,095G (8.3%, 1,095G)
ShintaroNayaka: 1,088G (8.2%, 1,088G)
Aldrammech: 1,000G (7.6%, 5,774G)
NicoSavoy: 1,000G (7.6%, 23,240G)
Candina: 999G (7.5%, 77,444G)
Nickyfive: 768G (5.8%, 768G)
Lydian_C: 350G (2.6%, 6,115G)
YaBoy125: 260G (2.0%, 26,066G)
gogofromtogo: 236G (1.8%, 236G)
zepharoth89: 227G (1.7%, 4,552G)
pplvee1: 204G (1.5%, 204G)
Flameatron: 200G (1.5%, 1,420G)
AllInBot: 100G (0.8%, 100G)
datadrivenbot: 100G (0.8%, 28,441G)

blue bets:
Cryptopsy70: 1,455G (18.6%, 1,455G)
gooseyourself: 1,055G (13.5%, 2,110G)
BirbBrainsBot: 1,000G (12.8%, 71,978G)
StealthModeLocke: 976G (12.5%, 976G)
rechaun: 755G (9.7%, 1,510G)
Laserman1000: 504G (6.4%, 21,804G)
benticore: 400G (5.1%, 4,485G)
DLJuggernaut: 350G (4.5%, 6,243G)
skillomono: 276G (3.5%, 276G)
Stealthtoucan: 271G (3.5%, 5,426G)
joewcarson: 200G (2.6%, 6,983G)
GladiatorLupe: 200G (2.6%, 4,528G)
getthemoneyz: 180G (2.3%, 763,742G)
raventwynn: 100G (1.3%, 1,616G)
Lionhermit: 100G (1.3%, 1,083G)
