Final Bets: blue - 21 bets for 10,300G (54.8%, x0.83); yellow - 10 bets for 8,511G (45.2%, x1.21)

blue bets:
Lydian_C: 2,400G (23.3%, 155,127G)
TheMM42: 1,000G (9.7%, 11,301G)
BirbBrainsBot: 1,000G (9.7%, 106,716G)
Ross_from_Cali: 777G (7.5%, 10,636G)
NovaKnight21: 600G (5.8%, 957G)
gorgewall: 600G (5.8%, 9,755G)
DontBackseatGame: 500G (4.9%, 892G)
reinoe: 500G (4.9%, 8,116G)
getthemoneyz: 482G (4.7%, 545,115G)
mr_schwifty: 451G (4.4%, 1,451G)
helpimabug: 340G (3.3%, 340G)
ungabunga_bot: 287G (2.8%, 188,041G)
CapnSauce420: 264G (2.6%, 264G)
ANFz: 250G (2.4%, 18,180G)
BroHamma: 249G (2.4%, 249G)
pLifer: 100G (1.0%, 100G)
Firesheath: 100G (1.0%, 10,476G)
feDoran: 100G (1.0%, 1,880G)
Estan_AD: 100G (1.0%, 565G)
datadrivenbot: 100G (1.0%, 477G)
EnemyController: 100G (1.0%, 70,789G)

yellow bets:
sinnyil2: 2,500G (29.4%, 143,103G)
DarrenDinosaurs: 2,000G (23.5%, 7,933G)
ValtonZenola: 1,464G (17.2%, 1,464G)
Shakarak: 1,437G (16.9%, 1,437G)
Nizaha: 460G (5.4%, 460G)
Faplo: 250G (2.9%, 3,190G)
AllInBot: 100G (1.2%, 100G)
Tougou: 100G (1.2%, 7,394G)
electric_glass: 100G (1.2%, 1,440G)
kaidykat: 100G (1.2%, 1,390G)
