Final Bets: blue - 22 bets for 12,619G (47.1%, x1.12); yellow - 24 bets for 14,145G (52.9%, x0.89)

blue bets:
Mesmaster: 3,000G (23.8%, 103,417G)
HaateXIII: 1,525G (12.1%, 2,991G)
Zeroroute: 1,478G (11.7%, 1,478G)
Zetchryn: 1,000G (7.9%, 4,192G)
ungabunga_bot: 1,000G (7.9%, 323,757G)
KasugaiRoastedPeas: 600G (4.8%, 600G)
catfashions: 500G (4.0%, 23,361G)
Rislyeu: 400G (3.2%, 6,044G)
Dexsana: 368G (2.9%, 368G)
fenaen: 336G (2.7%, 336G)
HorusTaurus: 333G (2.6%, 2,874G)
Grimmace45: 328G (2.6%, 328G)
gorgewall: 300G (2.4%, 21,698G)
dogsandcatsand: 250G (2.0%, 1,823G)
getthemoneyz: 250G (2.0%, 609,514G)
SarrgeQc: 240G (1.9%, 240G)
BirbBrainsBot: 200G (1.6%, 200G)
ANFz: 111G (0.9%, 29,310G)
maakur_: 100G (0.8%, 119,989G)
Setdevildog: 100G (0.8%, 100G)
nifboy: 100G (0.8%, 5,843G)
Arkreaver: 100G (0.8%, 10,704G)

yellow bets:
Shalloween: 2,302G (16.3%, 4,514G)
killth3kid: 2,000G (14.1%, 58,085G)
TrueRhyme: 1,379G (9.7%, 1,379G)
Shakarak: 1,200G (8.5%, 13,983G)
Bloody_Nips: 1,070G (7.6%, 1,070G)
Lionhermit: 1,000G (7.1%, 33,676G)
EnemyController: 1,000G (7.1%, 166,768G)
sinnyil2: 509G (3.6%, 7,338G)
calmcat15: 500G (3.5%, 2,247G)
Breakdown777: 500G (3.5%, 17,867G)
Baron_von_Scrub: 353G (2.5%, 5,272G)
WrathfulRemy: 300G (2.1%, 1,537G)
twelfthrootoftwo: 300G (2.1%, 1,160G)
SQUiDSQUARKLIN: 300G (2.1%, 1,399G)
hydroshade: 228G (1.6%, 228G)
Arlum: 216G (1.5%, 216G)
kaidykat: 200G (1.4%, 1,813G)
FoeSquirrel: 164G (1.2%, 328G)
Kyune: 124G (0.9%, 124G)
Firesheath: 100G (0.7%, 13,247G)
itsadud: 100G (0.7%, 100G)
ACSpree: 100G (0.7%, 48,514G)
datadrivenbot: 100G (0.7%, 12,332G)
SulliedGraves: 100G (0.7%, 1,871G)
