Final Bets: green - 12 bets for 6,854G (45.2%, x1.21); black - 17 bets for 8,293G (54.8%, x0.83)

green bets:
randgridr: 2,411G (35.2%, 2,411G)
Rislyeu: 1,000G (14.6%, 4,796G)
NicoSavoy: 1,000G (14.6%, 211,517G)
AllInBot: 567G (8.3%, 567G)
dem0nj0ns: 500G (7.3%, 4,165G)
pandasforsale: 444G (6.5%, 18,533G)
killth3kid: 332G (4.8%, 7,024G)
lyonslegacy: 200G (2.9%, 821G)
Heroebal: 100G (1.5%, 3,108G)
TasisSai: 100G (1.5%, 895G)
letdowncity: 100G (1.5%, 3,884G)
Firesheath: 100G (1.5%, 12,559G)

black bets:
BirbBrainsBot: 1,000G (12.1%, 47,624G)
Creggers: 1,000G (12.1%, 32,180G)
dantayystv: 1,000G (12.1%, 10,344G)
OtherBrand: 800G (9.6%, 1,747G)
HaateXIII: 780G (9.4%, 780G)
Thyrandaal: 600G (7.2%, 600G)
reinoe: 500G (6.0%, 82,339G)
Lemonjohns: 500G (6.0%, 3,542G)
TheMurkGnome: 468G (5.6%, 9,968G)
Othatmattkid: 350G (4.2%, 2,386G)
Royal_Ruckus: 340G (4.1%, 340G)
Treafa: 252G (3.0%, 715G)
gorgewall: 201G (2.4%, 9,069G)
datadrivenbot: 200G (2.4%, 31,182G)
getthemoneyz: 102G (1.2%, 1,311,716G)
Legionx13: 100G (1.2%, 4,642G)
nhammen: 100G (1.2%, 8,406G)
