Final Bets: red - 16 bets for 7,969G (46.0%, x1.18); blue - 14 bets for 9,367G (54.0%, x0.85)

red bets:
SkylerBunny: 1,692G (21.2%, 1,692G)
Snowfats: 1,000G (12.5%, 12,420G)
Sairentozon7: 1,000G (12.5%, 18,624G)
PoroTact: 900G (11.3%, 1,723G)
Raixelol: 600G (7.5%, 22,631G)
killth3kid: 500G (6.3%, 32,854G)
ser_pyrro: 500G (6.3%, 2,801G)
projekt_mike: 500G (6.3%, 11,308G)
Zetchryn: 364G (4.6%, 364G)
datadrivenbot: 200G (2.5%, 61,757G)
Musashi45: 200G (2.5%, 204G)
CrazyLou64: 143G (1.8%, 143G)
AllInBot: 137G (1.7%, 137G)
gorgewall: 101G (1.3%, 14,406G)
mirapoix: 100G (1.3%, 4,833G)
getthemoneyz: 32G (0.4%, 1,950,633G)

blue bets:
snkey: 1,626G (17.4%, 16,165G)
Firesheath: 1,260G (13.5%, 1,260G)
CorpusCav: 1,200G (12.8%, 17,467G)
BirbBrainsBot: 1,000G (10.7%, 150,806G)
HaateXIII: 956G (10.2%, 956G)
latebit: 858G (9.2%, 1,684G)
Phi_Sig: 555G (5.9%, 31,224G)
Zeroroute: 548G (5.9%, 548G)
holdenmagronik: 428G (4.6%, 14,003G)
Wonser: 372G (4.0%, 372G)
Yangusburger: 256G (2.7%, 256G)
Morsigil: 108G (1.2%, 108G)
BartTradingCompany: 100G (1.1%, 8,279G)
RunicMagus: 100G (1.1%, 14,356G)
