Final Bets: green - 20 bets for 17,686G (65.2%, x0.53); white - 10 bets for 9,459G (34.8%, x1.87)

green bets:
Shalloween: 7,214G (40.8%, 14,429G)
dogsandcatsand: 2,712G (15.3%, 5,319G)
skipsandwiches: 2,001G (11.3%, 28,664G)
BirbBrainsBot: 1,000G (5.7%, 42,315G)
Nizaha: 876G (5.0%, 66,998G)
krombobreaker: 700G (4.0%, 8,085G)
lowlf: 580G (3.3%, 12,634G)
ColetteMSLP: 528G (3.0%, 528G)
ZephXrotH: 400G (2.3%, 948G)
randgridr: 340G (1.9%, 340G)
CapnChaos12: 300G (1.7%, 1,571G)
datadrivenbot: 200G (1.1%, 71,619G)
getthemoneyz: 134G (0.8%, 2,040,744G)
gorgewall: 101G (0.6%, 6,680G)
galkife: 100G (0.6%, 76,995G)
nhammen: 100G (0.6%, 257,940G)
MemoriesofFinal: 100G (0.6%, 40,959G)
maakur_: 100G (0.6%, 6,139G)
OneHundredFists: 100G (0.6%, 2,517G)
king_smashington: 100G (0.6%, 1,131G)

white bets:
KoboldCorndog: 2,317G (24.5%, 2,317G)
AniZero: 2,000G (21.1%, 35,818G)
resjudicata3: 1,282G (13.6%, 1,282G)
RunicMagus: 1,200G (12.7%, 7,121G)
roofiepops: 962G (10.2%, 962G)
AllInBot: 662G (7.0%, 662G)
run_with_stone_GUNs: 448G (4.7%, 9,369G)
Smashy: 340G (3.6%, 340G)
ShadowNinja25: 148G (1.6%, 9,964G)
onehitslay: 100G (1.1%, 3,841G)
