Final Bets: white - 17 bets for 11,938G (48.2%, x1.07); black - 18 bets for 12,823G (51.8%, x0.93)

white bets:
Evewho: 2,020G (16.9%, 2,020G)
OneHundredFists: 1,552G (13.0%, 3,045G)
HaplessOne: 1,111G (9.3%, 249,424G)
Jinxzers: 1,000G (8.4%, 4,545G)
BirbBrainsBot: 1,000G (8.4%, 131,974G)
Mesmaster: 1,000G (8.4%, 66,576G)
GnielKnows: 898G (7.5%, 1,796G)
4shcrows: 739G (6.2%, 739G)
killth3kid: 500G (4.2%, 16,389G)
getthemoneyz: 368G (3.1%, 706,856G)
kaidykat: 300G (2.5%, 3,938G)
red_celt: 300G (2.5%, 12,337G)
skillomono: 300G (2.5%, 14,063G)
Lythe_Caraker: 250G (2.1%, 126,519G)
Sungazes: 200G (1.7%, 1,435G)
TheMM42: 200G (1.7%, 4,505G)
otakutaylor: 200G (1.7%, 1,797G)

black bets:
NicoSavoy: 5,000G (39.0%, 62,908G)
CorpusCav: 2,234G (17.4%, 4,468G)
roofiepops: 1,666G (13.0%, 18,231G)
Firesheath: 795G (6.2%, 795G)
rocl: 628G (4.9%, 6,289G)
gooseyourself: 500G (3.9%, 5,264G)
krasny1944: 312G (2.4%, 3,312G)
helpimabug: 276G (2.2%, 276G)
benticore: 250G (1.9%, 2,311G)
serperemagus: 200G (1.6%, 1,994G)
brogan316: 200G (1.6%, 6,203G)
AllInBot: 162G (1.3%, 162G)
Heroebal: 100G (0.8%, 7,325G)
nifboy: 100G (0.8%, 7,086G)
moocaotao: 100G (0.8%, 178G)
datadrivenbot: 100G (0.8%, 22,077G)
passermine: 100G (0.8%, 890G)
rackgaming519: 100G (0.8%, 100G)
