Final Bets: black - 17 bets for 12,446G (50.3%, x0.99); champion - 22 bets for 12,292G (49.7%, x1.01)

black bets:
NicoSavoy: 4,000G (32.1%, 63,623G)
helpimabug: 1,076G (8.6%, 2,152G)
skillomono: 1,000G (8.0%, 16,034G)
BirbBrainsBot: 1,000G (8.0%, 130,932G)
Mesmaster: 1,000G (8.0%, 64,584G)
alecttox: 1,000G (8.0%, 4,333G)
Laserman1000: 800G (6.4%, 4,800G)
rabbitlogik: 500G (4.0%, 1,775G)
Triskiut: 400G (3.2%, 8,827G)
KasugaiRoastedPeas: 300G (2.4%, 1,890G)
GnielKnows: 300G (2.4%, 1,332G)
krasny1944: 280G (2.2%, 5,030G)
benticore: 250G (2.0%, 3,355G)
RaIshtar: 224G (1.8%, 224G)
serperemagus: 116G (0.9%, 2,248G)
Heroebal: 100G (0.8%, 7,806G)
Mr_Greed029: 100G (0.8%, 100G)

champion bets:
sinnyil2: 2,129G (17.3%, 2,129G)
CorpusCav: 1,020G (8.3%, 12,628G)
OverlordCuddles: 1,000G (8.1%, 7,205G)
EnemyController: 1,000G (8.1%, 324,404G)
HaplessOne: 999G (8.1%, 247,932G)
passermine: 786G (6.4%, 1,573G)
Kalpho: 739G (6.0%, 739G)
getthemoneyz: 552G (4.5%, 706,020G)
cloud92684: 500G (4.1%, 4,601G)
Deathmaker06: 500G (4.1%, 5,778G)
Sungazes: 500G (4.1%, 1,314G)
Evewho: 428G (3.5%, 428G)
ar_tactic: 350G (2.8%, 46,291G)
kaidykat: 300G (2.4%, 3,156G)
brogan316: 300G (2.4%, 6,308G)
mistblade: 276G (2.2%, 276G)
4shcrows: 212G (1.7%, 212G)
gorgewall: 201G (1.6%, 13,267G)
rackgaming519: 200G (1.6%, 379G)
AllInBot: 100G (0.8%, 100G)
ANFz: 100G (0.8%, 3,572G)
datadrivenbot: 100G (0.8%, 22,129G)
