Player: !Green
Team: Green Team
Palettes: Green/White



Coledot
Monster
Gemini
53
49
Steel Giant










Coyowijuju
Monster
Aries
68
79
Black Goblin










Kahlindra
Female
Aries
42
74
Archer
Summon Magic
Counter
Secret Hunt
Waterbreathing

Silver Bow

Barette
Clothes
Battle Boots

Charge+5, Charge+7
Moogle, Shiva, Salamander, Fairy, Cyclops



Bryon W
Monster
Sagittarius
64
57
Red Chocobo







