Final Bets: green - 19 bets for 13,596G (45.8%, x1.18); yellow - 18 bets for 16,069G (54.2%, x0.85)

green bets:
goodnightrobo: 3,017G (22.2%, 3,017G)
metagameface: 2,000G (14.7%, 3,829G)
Rislyeu: 1,129G (8.3%, 2,258G)
BirbBrainsBot: 1,000G (7.4%, 61,621G)
volgrathemoose: 935G (6.9%, 935G)
CosmicTactician: 769G (5.7%, 769G)
Firesheath: 645G (4.7%, 645G)
Aldrammech: 600G (4.4%, 600G)
Laserman1000: 600G (4.4%, 27,700G)
coralreeferz: 576G (4.2%, 576G)
Digitalsocrates: 500G (3.7%, 4,887G)
cloud92684: 400G (2.9%, 9,190G)
TheMM42: 364G (2.7%, 364G)
DLJuggernaut: 350G (2.6%, 7,899G)
benticore: 250G (1.8%, 1,500G)
getthemoneyz: 150G (1.1%, 762,767G)
CorpusCav: 111G (0.8%, 6,558G)
Freezerman47: 100G (0.7%, 333G)
Kyune: 100G (0.7%, 32,374G)

yellow bets:
toka222: 5,000G (31.1%, 105,174G)
holyonline: 2,694G (16.8%, 2,694G)
YaBoy125: 2,500G (15.6%, 29,227G)
Hamborn: 1,000G (6.2%, 64,060G)
E_Ballard: 1,000G (6.2%, 6,263G)
noopockets: 963G (6.0%, 963G)
ColetteMSLP: 700G (4.4%, 44,204G)
Jinxzers: 500G (3.1%, 7,806G)
skillomono: 272G (1.7%, 272G)
nifboy: 250G (1.6%, 16,419G)
gorgewall: 201G (1.3%, 19,021G)
WunUP: 184G (1.1%, 184G)
ravingsockmonkey: 179G (1.1%, 179G)
Sharosa: 159G (1.0%, 159G)
AllInBot: 153G (1.0%, 153G)
Powermhero: 114G (0.7%, 12,214G)
bluuuuuuuh: 100G (0.6%, 5,555G)
datadrivenbot: 100G (0.6%, 28,450G)
