Final Bets: purple - 21 bets for 22,065G (65.4%, x0.53); brown - 15 bets for 11,691G (34.6%, x1.89)

purple bets:
leakimiko: 11,721G (53.1%, 11,721G)
sinnyil2: 1,200G (5.4%, 10,114G)
ungabunga_bot: 1,000G (4.5%, 116,569G)
BirbBrainsBot: 1,000G (4.5%, 69,509G)
Conome: 1,000G (4.5%, 3,127G)
DejaPoo21: 884G (4.0%, 884G)
UmaiJam: 592G (2.7%, 592G)
mirapoix: 572G (2.6%, 572G)
getthemoneyz: 548G (2.5%, 478,563G)
alecttox: 529G (2.4%, 69,529G)
Adam1949: 500G (2.3%, 2,686G)
Nocturnal_Perspective: 500G (2.3%, 12,210G)
WireLord: 496G (2.2%, 496G)
V3rdeni: 400G (1.8%, 1,191G)
Chuckolator: 279G (1.3%, 12,141G)
DaMadPanda182: 200G (0.9%, 204G)
alrightbye: 200G (0.9%, 3,044G)
martymcfly2021: 132G (0.6%, 132G)
thevilmen: 112G (0.5%, 112G)
Aneyus: 100G (0.5%, 19,839G)
Treapvort: 100G (0.5%, 3,723G)

brown bets:
HaplessOne: 4,160G (35.6%, 41,604G)
JackOnFire1: 1,500G (12.8%, 3,000G)
PotionDweller: 1,000G (8.6%, 3,897G)
waterwatereverywhere: 1,000G (8.6%, 21,251G)
reinoe: 1,000G (8.6%, 18,904G)
datadrivenbot: 743G (6.4%, 25,177G)
deenglow: 500G (4.3%, 29,479G)
NytFantom: 500G (4.3%, 2,659G)
Draconis345: 340G (2.9%, 340G)
DeathTaxesAndAnime: 300G (2.6%, 4,283G)
fallendj77: 248G (2.1%, 248G)
AllInBot: 100G (0.9%, 100G)
Maeveen: 100G (0.9%, 3,946G)
Wesablo: 100G (0.9%, 100G)
DHaveWord: 100G (0.9%, 3,060G)
