Final Bets: purple - 6 bets for 1,608G (21.7%, x3.61); brown - 8 bets for 5,806G (78.3%, x0.28)

purple bets:
Raixelol: 596G (37.1%, 14,468G)
DaveStrider55: 364G (22.6%, 364G)
getthemoneyz: 248G (15.4%, 1,915,355G)
farside00831: 200G (12.4%, 4,969G)
BartTradingCompany: 100G (6.2%, 3,545G)
AllInBot: 100G (6.2%, 100G)

brown bets:
DeathTaxesAndAnime: 2,277G (39.2%, 2,277G)
ValensEXP_: 830G (14.3%, 830G)
helpimabug: 766G (13.2%, 1,532G)
NovaKnight21: 749G (12.9%, 1,498G)
BirbBrainsBot: 381G (6.6%, 50,535G)
BappleTrees: 367G (6.3%, 367G)
hotpocketsofficial: 236G (4.1%, 236G)
datadrivenbot: 200G (3.4%, 57,180G)
