Final Bets: red - 8 bets for 3,621G (34.1%, x1.93); purple - 8 bets for 7,002G (65.9%, x0.52)

red bets:
BirbBrainsBot: 1,000G (27.6%, 53,070G)
NicoSavoy: 1,000G (27.6%, 46,804G)
helpimabug: 555G (15.3%, 555G)
ValensEXP_: 260G (7.2%, 260G)
getthemoneyz: 246G (6.8%, 1,918,528G)
hotpocketsofficial: 236G (6.5%, 236G)
BappleTrees: 224G (6.2%, 224G)
AllInBot: 100G (2.8%, 100G)

purple bets:
iBardic: 3,000G (42.8%, 17,963G)
bruubarg: 1,362G (19.5%, 1,362G)
DeathTaxesAndAnime: 1,084G (15.5%, 1,084G)
Raixelol: 596G (8.5%, 18,359G)
DaveStrider55: 364G (5.2%, 364G)
Neech: 296G (4.2%, 3,017G)
datadrivenbot: 200G (2.9%, 56,869G)
BartTradingCompany: 100G (1.4%, 4,053G)
