Final Bets: purple - 14 bets for 14,243G (57.8%, x0.73); brown - 11 bets for 10,408G (42.2%, x1.37)

purple bets:
NovaKnight21: 3,000G (21.1%, 28,334G)
reinoe: 3,000G (21.1%, 52,343G)
evdoggity: 2,000G (14.0%, 90,040G)
UmaiJam: 1,600G (11.2%, 67,030G)
prince_rogers_nelson_: 1,287G (9.0%, 1,287G)
YaBoy125: 849G (6.0%, 849G)
Cryptopsy70: 600G (4.2%, 24,014G)
twelfthrootoftwo: 448G (3.1%, 448G)
ColetteMSLP: 400G (2.8%, 3,338G)
redrhinofever: 284G (2.0%, 1,028G)
superdevon1: 275G (1.9%, 2,754G)
KasugaiRoastedPeas: 200G (1.4%, 21,690G)
datadrivenbot: 200G (1.4%, 61,641G)
Salted_Cliff_Racer: 100G (0.7%, 901G)

brown bets:
Lydian_C: 4,200G (40.4%, 114,376G)
Mesmaster: 2,000G (19.2%, 36,965G)
BirbBrainsBot: 1,000G (9.6%, 166,735G)
Firesheath: 978G (9.4%, 978G)
SaltiestMage: 894G (8.6%, 1,788G)
Shalloween: 400G (3.8%, 53,050G)
ThreeMileIsland: 350G (3.4%, 2,377G)
Aquios_: 216G (2.1%, 216G)
getthemoneyz: 170G (1.6%, 1,231,341G)
Ring_Wyrm: 100G (1.0%, 11,651G)
shineeyo: 100G (1.0%, 100G)
