Final Bets: blue - 15 bets for 13,308G (77.7%, x0.29); green - 9 bets for 3,812G (22.3%, x3.49)

blue bets:
NovaKnight21: 3,000G (22.5%, 25,334G)
Mesmaster: 3,000G (22.5%, 39,702G)
UmaiJam: 1,600G (12.0%, 65,434G)
BirbBrainsBot: 1,000G (7.5%, 168,103G)
NicoSavoy: 1,000G (7.5%, 170,570G)
YaBoy125: 680G (5.1%, 680G)
Aquios_: 512G (3.8%, 512G)
midnight_blues3: 500G (3.8%, 1,470G)
Meta_Five: 500G (3.8%, 15,951G)
twelfthrootoftwo: 448G (3.4%, 448G)
ColetteMSLP: 400G (3.0%, 2,938G)
superdevon1: 247G (1.9%, 2,479G)
datadrivenbot: 200G (1.5%, 61,441G)
Lydian_C: 121G (0.9%, 120,124G)
SaltiestMage: 100G (0.8%, 3,011G)

green bets:
Firesheath: 1,320G (34.6%, 1,320G)
OneHundredFists: 644G (16.9%, 644G)
Cryptopsy70: 600G (15.7%, 23,414G)
prince_rogers_nelson_: 352G (9.2%, 352G)
Shalloween: 300G (7.9%, 53,601G)
KasugaiRoastedPeas: 200G (5.2%, 21,490G)
ThreeMileIsland: 200G (5.2%, 2,860G)
Salted_Cliff_Racer: 100G (2.6%, 801G)
getthemoneyz: 96G (2.5%, 1,231,574G)
