Final Bets: blue - 18 bets for 25,613G (45.6%, x1.19); purple - 26 bets for 30,508G (54.4%, x0.84)

blue bets:
HaateXIII: 7,448G (29.1%, 14,605G)
Digitalsocrates: 3,716G (14.5%, 7,288G)
Zeroroute: 3,138G (12.3%, 6,881G)
monsturmilk: 2,863G (11.2%, 2,863G)
HaplessOne: 2,222G (8.7%, 21,105G)
killth3kid: 2,000G (7.8%, 14,339G)
Meta_Five: 1,191G (4.6%, 1,191G)
BirbBrainsBot: 1,000G (3.9%, 8,966G)
reinoe: 500G (2.0%, 500G)
turquoise_mage: 400G (1.6%, 1,268G)
manawatts: 400G (1.6%, 600G)
twelfthrootoftwo: 300G (1.2%, 3,577G)
ANFz: 121G (0.5%, 49,352G)
ACSpree: 100G (0.4%, 7,885G)
run_with_stone_GUNs: 100G (0.4%, 15,080G)
FoeSquirrel: 100G (0.4%, 4,926G)
FaytKion: 10G (0.0%, 2,528G)
daveb_: 4G (0.0%, 4,294G)

purple bets:
Lordminsc: 13,004G (42.6%, 26,008G)
Virilikus: 5,000G (16.4%, 152,786G)
J2DaBibbles: 2,000G (6.6%, 30,560G)
Baron_von_Scrub: 1,111G (3.6%, 27,195G)
NicoSavoy: 1,000G (3.3%, 10,203G)
SkylerBunny: 1,000G (3.3%, 57,930G)
Lionhermit: 1,000G (3.3%, 44,026G)
gooseyourself: 887G (2.9%, 16,510G)
Evewho: 859G (2.8%, 859G)
CorpusCav: 560G (1.8%, 16,560G)
ungabunga_bot: 455G (1.5%, 473,441G)
Cryptopsy70: 420G (1.4%, 2,763G)
otakutaylor: 400G (1.3%, 1,937G)
YaBoy125: 388G (1.3%, 388G)
vorap: 300G (1.0%, 48,703G)
mikesk1: 300G (1.0%, 4,529G)
0v3rr8d: 300G (1.0%, 3,704G)
cupholderr: 300G (1.0%, 57,261G)
nifboy: 250G (0.8%, 3,691G)
TheJonTerp: 200G (0.7%, 3,347G)
theNGUYENNER: 200G (0.7%, 13,515G)
getthemoneyz: 174G (0.6%, 672,287G)
carsenhk: 150G (0.5%, 26,323G)
pstud: 100G (0.3%, 5,404G)
lastly: 100G (0.3%, 9,013G)
Jampck: 50G (0.2%, 334G)
