Final Bets: purple - 25 bets for 30,022G (53.7%, x0.86); brown - 16 bets for 25,872G (46.3%, x1.16)

purple bets:
Mesmaster: 10,000G (33.3%, 221,673G)
nhammen: 5,000G (16.7%, 399,192G)
reinoe: 3,000G (10.0%, 16,990G)
Sietaha: 2,358G (7.9%, 2,358G)
AniZero: 1,222G (4.1%, 25,953G)
BirbBrainsBot: 1,000G (3.3%, 150,174G)
getthemoneyz: 1,000G (3.3%, 1,881,392G)
3ngag3: 916G (3.1%, 19,916G)
Thyrandaal: 816G (2.7%, 816G)
Twisted_Nutsatchel: 617G (2.1%, 617G)
DavenIII: 604G (2.0%, 1,077G)
dogsandcatsand: 600G (2.0%, 1,745G)
silentkaster: 500G (1.7%, 4,139G)
Rytor: 419G (1.4%, 4,198G)
Tarheels218: 380G (1.3%, 5,094G)
MemoriesofFinal: 360G (1.2%, 360G)
ValensEXP_: 232G (0.8%, 1,920G)
BappleTrees: 214G (0.7%, 214G)
datadrivenbot: 200G (0.7%, 57,599G)
khelor_: 165G (0.5%, 165G)
threedope: 108G (0.4%, 108G)
CorpusCav: 100G (0.3%, 27,609G)
Lushifah: 100G (0.3%, 2,474G)
aceof86: 100G (0.3%, 1,659G)
BartTradingCompany: 11G (0.0%, 115G)

brown bets:
upvla: 20,000G (77.3%, 20,048G)
resjudicata3: 1,000G (3.9%, 8,718G)
sinnyil2: 757G (2.9%, 53,636G)
fenaen: 584G (2.3%, 9,000G)
ribbiks: 572G (2.2%, 572G)
technominari: 500G (1.9%, 75,036G)
dcmoragn315: 500G (1.9%, 8,032G)
lowlf: 484G (1.9%, 4,031G)
Laserman1000: 400G (1.5%, 1,400G)
Rikrizen: 308G (1.2%, 6,167G)
akash7: 221G (0.9%, 8,521G)
Lydian_C: 123G (0.5%, 3,618G)
Chuckolator: 115G (0.4%, 24,002G)
heyBtw: 108G (0.4%, 108G)
AllInBot: 100G (0.4%, 100G)
DeathTaxesAndAnime: 100G (0.4%, 10,326G)
