Final Bets: red - 12 bets for 8,347G (61.1%, x0.64); green - 7 bets for 5,304G (38.9%, x1.57)

red bets:
helpimabug: 2,580G (30.9%, 5,161G)
Evewho: 2,000G (24.0%, 11,838G)
E_Ballard: 1,087G (13.0%, 1,087G)
superdevon1: 981G (11.8%, 12,265G)
TheChainNerd: 500G (6.0%, 3,154G)
brokenknight201: 200G (2.4%, 3,039G)
KasugaiRoastedPeas: 200G (2.4%, 1,050G)
Breakdown777: 200G (2.4%, 1,582G)
AUrato: 200G (2.4%, 6,458G)
ko2q: 199G (2.4%, 4,736G)
zeando: 100G (1.2%, 1,181G)
datadrivenbot: 100G (1.2%, 18,705G)

green bets:
RongRongArts: 2,000G (37.7%, 317,840G)
ungabunga_bot: 1,000G (18.9%, 506,137G)
BirbBrainsBot: 1,000G (18.9%, 174,437G)
getthemoneyz: 464G (8.7%, 688,028G)
joewcarson: 300G (5.7%, 5,667G)
SQUiDSQUARKLIN: 300G (5.7%, 651G)
TheFALLofLindsay: 240G (4.5%, 240G)
