Final Bets: purple - 14 bets for 7,989G (73.1%, x0.37); brown - 6 bets for 2,939G (26.9%, x2.72)

purple bets:
HaplessOne: 2,017G (25.2%, 20,176G)
ungabunga_bot: 1,000G (12.5%, 312,094G)
gooseyourself: 1,000G (12.5%, 7,135G)
leakimiko: 886G (11.1%, 5,913G)
Aldrammech: 600G (7.5%, 600G)
SarrgeQc: 501G (6.3%, 1,148G)
fenaen: 500G (6.3%, 10,192G)
Jaritras: 477G (6.0%, 3,477G)
Mudrockk: 258G (3.2%, 258G)
getthemoneyz: 238G (3.0%, 614,631G)
dogsandcatsand: 212G (2.7%, 212G)
Arkreaver: 100G (1.3%, 10,564G)
Langrisser: 100G (1.3%, 6,667G)
datadrivenbot: 100G (1.3%, 11,496G)

brown bets:
arch8000: 1,130G (38.4%, 1,130G)
BirbBrainsBot: 959G (32.6%, 171,522G)
solomongrundy85: 500G (17.0%, 14,257G)
Rislyeu: 150G (5.1%, 912G)
maakur_: 100G (3.4%, 118,135G)
SaintOmerville: 100G (3.4%, 2,434G)
