Final Bets: black - 24 bets for 13,196G (56.7%, x0.76); purple - 12 bets for 10,071G (43.3%, x1.31)

black bets:
cam_ATS: 1,899G (14.4%, 1,899G)
Nizaha: 1,001G (7.6%, 15,814G)
LDSkinny: 1,000G (7.6%, 1,970G)
BirbBrainsBot: 1,000G (7.6%, 160,004G)
getthemoneyz: 1,000G (7.6%, 799,793G)
EnemyController: 1,000G (7.6%, 479,689G)
pplvee1: 1,000G (7.6%, 2,078G)
proper__noun__: 1,000G (7.6%, 2,542G)
gorgewall: 592G (4.5%, 592G)
Rislyeu: 500G (3.8%, 6,566G)
conradharlock: 500G (3.8%, 1,638G)
Lionhermit: 500G (3.8%, 12,279G)
volgrathemoose: 500G (3.8%, 2,707G)
killth3kid: 304G (2.3%, 1,796G)
CorpusCav: 300G (2.3%, 20,045G)
benticore: 300G (2.3%, 3,075G)
CosmicTactician: 100G (0.8%, 6,085G)
Flameatron: 100G (0.8%, 4,100G)
mrfripps: 100G (0.8%, 1,048G)
datadrivenbot: 100G (0.8%, 32,358G)
Creggers: 100G (0.8%, 2,240G)
foofermoofer: 100G (0.8%, 1,112G)
TinchoT: 100G (0.8%, 4,649G)
AmaninAmide: 100G (0.8%, 4,083G)

purple bets:
roqqqpsi: 3,405G (33.8%, 30,959G)
ColetteMSLP: 1,995G (19.8%, 1,995G)
LeepingJJ: 1,705G (16.9%, 1,705G)
beowulfrulez: 796G (7.9%, 796G)
letdowncity: 500G (5.0%, 15,964G)
kaidykat: 454G (4.5%, 9,097G)
TheMM42: 404G (4.0%, 404G)
AlenaZarek: 300G (3.0%, 36,190G)
gogofromtogo: 200G (2.0%, 4,447G)
theshinyakuma: 112G (1.1%, 112G)
s_o_b_e_q: 100G (1.0%, 2,676G)
DAC169: 100G (1.0%, 1,123G)
