Final Bets: blue - 21 bets for 13,056G (42.3%, x1.36); champion - 33 bets for 17,814G (57.7%, x0.73)

blue bets:
gorgewall: 1,885G (14.4%, 1,885G)
Nickyfive: 1,444G (11.1%, 2,888G)
CorpusCav: 1,010G (7.7%, 19,223G)
BirbBrainsBot: 1,000G (7.7%, 161,572G)
EnemyController: 1,000G (7.7%, 481,257G)
Lionhermit: 1,000G (7.7%, 13,466G)
YaBoy125: 895G (6.9%, 895G)
Laserman1000: 764G (5.9%, 31,064G)
TheMM42: 729G (5.6%, 729G)
LeepingJJ: 578G (4.4%, 578G)
AlenaZarek: 500G (3.8%, 36,293G)
flowinprose: 500G (3.8%, 130,224G)
red__lancer: 500G (3.8%, 86,331G)
cam_ATS: 250G (1.9%, 3,348G)
roqqqpsi: 245G (1.9%, 24,524G)
ColetteMSLP: 208G (1.6%, 208G)
Shinzutalos: 200G (1.5%, 200G)
s_o_b_e_q: 100G (0.8%, 2,616G)
nsm013: 100G (0.8%, 1,996G)
mrfripps: 100G (0.8%, 1,124G)
DAC169: 48G (0.4%, 1,184G)

champion bets:
mpghappiness: 1,777G (10.0%, 3,486G)
volgrathemoose: 1,294G (7.3%, 2,589G)
Candina: 1,200G (6.7%, 37,524G)
Theseawolf1: 1,000G (5.6%, 36,192G)
Sairentozon7: 1,000G (5.6%, 2,450G)
Rislyeu: 1,000G (5.6%, 6,448G)
conradharlock: 1,000G (5.6%, 1,520G)
proper__noun__: 1,000G (5.6%, 2,805G)
sinnyil2: 964G (5.4%, 964G)
kaidykat: 600G (3.4%, 7,991G)
wyonearth: 600G (3.4%, 4,353G)
beowulfrulez: 534G (3.0%, 534G)
letdowncity: 500G (2.8%, 14,964G)
gogofromtogo: 500G (2.8%, 4,047G)
Kyune: 500G (2.8%, 31,043G)
nifboy: 500G (2.8%, 8,774G)
DLJuggernaut: 400G (2.2%, 7,029G)
foofermoofer: 339G (1.9%, 339G)
Powerpinch: 309G (1.7%, 309G)
CapnChaos12: 300G (1.7%, 15,238G)
Grandlanzer: 300G (1.7%, 11,990G)
joewcarson: 300G (1.7%, 5,791G)
getthemoneyz: 260G (1.5%, 800,178G)
Lythe_Caraker: 250G (1.4%, 123,549G)
HaateXIII: 250G (1.4%, 7,922G)
computerghoul: 250G (1.4%, 2,242G)
pplvee1: 236G (1.3%, 236G)
oldchris: 200G (1.1%, 697G)
Firesheath: 101G (0.6%, 2,867G)
Evewho: 100G (0.6%, 6,985G)
datadrivenbot: 100G (0.6%, 32,515G)
CosmicTactician: 100G (0.6%, 6,061G)
cougboi: 50G (0.3%, 11,864G)
