Final Bets: white - 12 bets for 21,277G (70.9%, x0.41); purple - 13 bets for 8,738G (29.1%, x2.43)

white bets:
ko2q: 6,820G (32.1%, 13,640G)
NicoSavoy: 3,786G (17.8%, 126,225G)
NIghtdew14: 3,500G (16.4%, 26,591G)
amiture: 3,000G (14.1%, 44,602G)
ThreeMileIsland: 1,000G (4.7%, 12,385G)
LAGBOT30000: 1,000G (4.7%, 3,069G)
randgridr: 740G (3.5%, 740G)
killth3kid: 608G (2.9%, 3,584G)
murdecat: 300G (1.4%, 550G)
AllInBot: 200G (0.9%, 200G)
datadrivenbot: 200G (0.9%, 47,452G)
Lydian_C: 123G (0.6%, 19,576G)

purple bets:
butterbelljedi: 2,381G (27.2%, 2,381G)
reinoe: 2,000G (22.9%, 74,972G)
BirbBrainsBot: 1,000G (11.4%, 181,264G)
superdevon1: 737G (8.4%, 36,894G)
getthemoneyz: 536G (6.1%, 1,504,635G)
RiffRoff: 500G (5.7%, 8,215G)
Helllyesss: 400G (4.6%, 4,152G)
Calajo: 286G (3.3%, 1,430G)
resjudicata3: 256G (2.9%, 256G)
braveboyblue: 216G (2.5%, 9,663G)
coralreeferz: 175G (2.0%, 2,730G)
muffin_money: 150G (1.7%, 4,787G)
gorgewall: 101G (1.2%, 6,145G)
