Final Bets: white - 18 bets for 11,865G (35.7%, x1.80); black - 26 bets for 21,335G (64.3%, x0.56)

white bets:
Aldrammech: 2,488G (21.0%, 2,488G)
Evewho: 1,807G (15.2%, 1,807G)
DeathTaxesAndAnime: 1,435G (12.1%, 1,435G)
StealthModeLocke: 1,100G (9.3%, 1,100G)
bluuuuuuuh: 1,000G (8.4%, 2,926G)
Virilikus: 1,000G (8.4%, 162,978G)
wyonearth: 720G (6.1%, 720G)
letdowncity: 500G (4.2%, 23,534G)
killth3kid: 316G (2.7%, 1,911G)
Belkra: 286G (2.4%, 573G)
Lythe_Caraker: 250G (2.1%, 120,705G)
pplvee1: 240G (2.0%, 240G)
regios91: 175G (1.5%, 703G)
DAC169: 148G (1.2%, 148G)
ungabungarockstop: 100G (0.8%, 100G)
CorpusCav: 100G (0.8%, 18,226G)
nhammen: 100G (0.8%, 916G)
datadrivenbot: 100G (0.8%, 33,761G)

black bets:
Shakarak: 8,000G (37.5%, 61,039G)
NicoSavoy: 4,000G (18.7%, 15,816G)
metagameface: 2,000G (9.4%, 4,089G)
BirbBrainsBot: 1,000G (4.7%, 13,781G)
SkylerBunny: 1,000G (4.7%, 97,809G)
LDSkinny: 572G (2.7%, 572G)
gogofromtogo: 500G (2.3%, 5,440G)
Rislyeu: 500G (2.3%, 11,984G)
moonliquor: 500G (2.3%, 1,649G)
gorgewall: 312G (1.5%, 312G)
Miku_Shikhu: 300G (1.4%, 3,860G)
Breakdown777: 300G (1.4%, 4,121G)
HaychDub: 300G (1.4%, 2,305G)
nifboy: 250G (1.2%, 4,671G)
cam_ATS: 232G (1.1%, 232G)
Ring_Wyrm: 208G (1.0%, 208G)
Angelomortis: 200G (0.9%, 641G)
KasugaiRoastedPeas: 200G (0.9%, 7,565G)
MaimTrain: 172G (0.8%, 172G)
cogniv0r3: 169G (0.8%, 3,380G)
alterworlds: 120G (0.6%, 120G)
Grandlanzer: 100G (0.5%, 13,183G)
fluffskull: 100G (0.5%, 100G)
Vagrance: 100G (0.5%, 100G)
ivellioz: 100G (0.5%, 456G)
E_Ballard: 100G (0.5%, 5,652G)
