Final Bets: red - 20 bets for 27,548G (75.2%, x0.33); yellow - 18 bets for 9,069G (24.8%, x3.04)

red bets:
toka222: 6,500G (23.6%, 100,626G)
SkylerBunny: 5,000G (18.2%, 100,374G)
Virilikus: 4,000G (14.5%, 162,478G)
J2DaBibbles: 3,000G (10.9%, 9,965G)
metagameface: 2,000G (7.3%, 6,455G)
DeathTaxesAndAnime: 1,232G (4.5%, 1,232G)
Evewho: 1,040G (3.8%, 1,040G)
LeoNightFury: 1,000G (3.6%, 5,220G)
HASTERIOUS: 924G (3.4%, 924G)
cam_ATS: 732G (2.7%, 732G)
demidusk: 604G (2.2%, 604G)
killth3kid: 316G (1.1%, 1,279G)
regios91: 200G (0.7%, 688G)
Angelomortis: 200G (0.7%, 552G)
Grandlanzer: 200G (0.7%, 13,814G)
holyonline: 200G (0.7%, 32,714G)
ungabungarockstop: 100G (0.4%, 100G)
lastly: 100G (0.4%, 13,137G)
ivellioz: 100G (0.4%, 812G)
datadrivenbot: 100G (0.4%, 33,561G)

yellow bets:
NicoSavoy: 3,000G (33.1%, 18,795G)
s_o_b_e_q: 1,000G (11.0%, 1,884G)
BirbBrainsBot: 1,000G (11.0%, 15,091G)
gorgewall: 812G (9.0%, 812G)
getthemoneyz: 732G (8.1%, 807,168G)
bluuuuuuuh: 612G (6.7%, 612G)
moonliquor: 500G (5.5%, 1,927G)
GladiatorLupe: 200G (2.2%, 8,219G)
gogofromtogo: 200G (2.2%, 6,369G)
KasugaiRoastedPeas: 200G (2.2%, 7,476G)
MaimTrain: 150G (1.7%, 843G)
flametail24: 112G (1.2%, 112G)
Firesheath: 101G (1.1%, 5,159G)
nhammen: 100G (1.1%, 1,216G)
CosmicTactician: 100G (1.1%, 17,287G)
E_Ballard: 100G (1.1%, 6,108G)
CorpusCav: 100G (1.1%, 18,201G)
HaychDub: 50G (0.6%, 3,198G)
