Final Bets: red - 19 bets for 33,810G (55.4%, x0.80); blue - 21 bets for 27,188G (44.6%, x1.24)

red bets:
FNCardascia_: 23,947G (70.8%, 23,947G)
Shalloween: 2,976G (8.8%, 2,976G)
Aldrammech: 1,000G (3.0%, 12,129G)
BirbBrainsBot: 1,000G (3.0%, 193,871G)
Lionhermit: 1,000G (3.0%, 30,453G)
leakimiko: 702G (2.1%, 2,810G)
catfashions: 615G (1.8%, 615G)
reinoe: 604G (1.8%, 604G)
Breakdown777: 500G (1.5%, 16,071G)
Grimmace45: 320G (0.9%, 320G)
FoeSquirrel: 263G (0.8%, 526G)
mistblade: 200G (0.6%, 15,812G)
ElectricLogan: 142G (0.4%, 384G)
gggamezzz: 116G (0.3%, 116G)
ANFz: 111G (0.3%, 31,189G)
frozentomato: 100G (0.3%, 728G)
CosmicTactician: 100G (0.3%, 18,271G)
getthemoneyz: 64G (0.2%, 603,547G)
Bloody_Nips: 50G (0.1%, 114G)

blue bets:
Lordminsc: 18,864G (69.4%, 37,729G)
DeathTaxesAndAnime: 2,877G (10.6%, 5,642G)
rico_flex: 1,000G (3.7%, 27,387G)
Mesmaster: 1,000G (3.7%, 63,909G)
Jeeboheebo: 719G (2.6%, 719G)
Eyepoor_: 328G (1.2%, 328G)
ACSpree: 308G (1.1%, 308G)
onetrickwolf: 300G (1.1%, 36,063G)
mpghappiness: 288G (1.1%, 288G)
Bioticism: 264G (1.0%, 264G)
RunicMagus: 200G (0.7%, 32,029G)
TheUnforgivenRage: 180G (0.7%, 180G)
ungabunga_bot: 106G (0.4%, 325,366G)
Zhies1337: 104G (0.4%, 104G)
vampyreinabox: 100G (0.4%, 2,980G)
Rislyeu: 100G (0.4%, 2,130G)
datadrivenbot: 100G (0.4%, 12,298G)
Arlum: 100G (0.4%, 1,126G)
LorianFaust: 100G (0.4%, 1,667G)
MeotorMang: 100G (0.4%, 600G)
b0shii: 50G (0.2%, 12,238G)
