Final Bets: purple - 7 bets for 18,120G (52.2%, x0.92); brown - 14 bets for 16,599G (47.8%, x1.09)

purple bets:
LDSkinny: 15,000G (82.8%, 31,311G)
pplvee1: 1,500G (8.3%, 6,998G)
sinnyil2: 700G (3.9%, 1,400G)
SephDarkheart: 420G (2.3%, 16,223G)
datadrivenbot: 200G (1.1%, 46,728G)
Klednar21: 200G (1.1%, 1,161G)
Error72: 100G (0.6%, 5,137G)

brown bets:
NIghtdew14: 7,500G (45.2%, 35,723G)
NicoSavoy: 2,000G (12.0%, 337,678G)
RaIshtar: 1,001G (6.0%, 17,094G)
JumbocactuarX27: 1,000G (6.0%, 35,016G)
BirbBrainsBot: 1,000G (6.0%, 25,855G)
brokenknight201: 1,000G (6.0%, 3,043G)
Thyrandaal: 1,000G (6.0%, 31,386G)
prince_rogers_nelson_: 648G (3.9%, 648G)
ShintaroNayaka: 500G (3.0%, 18,554G)
getthemoneyz: 412G (2.5%, 1,440,587G)
AllInBot: 328G (2.0%, 328G)
E_Ballard: 100G (0.6%, 5,358G)
OrganicArtist: 100G (0.6%, 1,687G)
DouglasDragonThePoet: 10G (0.1%, 1,058G)
