Final Bets: black - 6 bets for 3,167G (20.1%, x3.97); brown - 9 bets for 12,587G (79.9%, x0.25)

black bets:
AllInBot: 1,331G (42.0%, 1,331G)
RaIshtar: 1,001G (31.6%, 19,129G)
getthemoneyz: 502G (15.9%, 1,440,735G)
datadrivenbot: 200G (6.3%, 46,328G)
Klednar21: 100G (3.2%, 961G)
daveb_: 33G (1.0%, 1,946G)

brown bets:
NIghtdew14: 4,000G (31.8%, 46,732G)
prince_rogers_nelson_: 2,630G (20.9%, 2,630G)
Error72: 2,518G (20.0%, 5,037G)
sinnyil2: 1,060G (8.4%, 1,060G)
BirbBrainsBot: 1,000G (7.9%, 27,888G)
Chambs12: 435G (3.5%, 435G)
pplvee1: 424G (3.4%, 424G)
SephDarkheart: 420G (3.3%, 15,383G)
E_Ballard: 100G (0.8%, 5,367G)
