Final Bets: blue - 14 bets for 4,095G (42.1%, x1.38); yellow - 20 bets for 5,643G (57.9%, x0.73)

blue bets:
Lodrak: 1,001G (24.4%, 14,230G)
HaplessOne: 750G (18.3%, 28,350G)
z32o: 500G (12.2%, 24,395G)
TheChainNerd: 464G (11.3%, 464G)
Humble_Fabio: 280G (6.8%, 280G)
roqqqpsi: 222G (5.4%, 1,181G)
ThePineappleSalesman: 200G (4.9%, 2,449G)
ShintaroNayaka: 200G (4.9%, 8,791G)
PatSouI: 100G (2.4%, 27,223G)
DustyRelic: 100G (2.4%, 1,080G)
SeedSC: 100G (2.4%, 148,016G)
ZephyrTempest: 100G (2.4%, 4,020G)
Caster_Daily: 50G (1.2%, 1,104G)
getthemoneyz: 28G (0.7%, 383,944G)

yellow bets:
rechaun: 654G (11.6%, 1,309G)
DavenIII: 600G (10.6%, 2,145G)
gum44: 500G (8.9%, 3,547G)
ForagerCats: 500G (8.9%, 3,045G)
FreneticRiot: 400G (7.1%, 6,582G)
megaman2202: 364G (6.5%, 364G)
SpicyCherrySoda_: 326G (5.8%, 326G)
kingchadking: 304G (5.4%, 304G)
volgrathemoose: 300G (5.3%, 1,011G)
cayorangel: 282G (5.0%, 282G)
regios91: 252G (4.5%, 252G)
HBC93: 225G (4.0%, 1,979G)
rubenflonne: 200G (3.5%, 8,696G)
jlockwood815: 136G (2.4%, 136G)
maakur_: 100G (1.8%, 3,760G)
RockTB: 100G (1.8%, 385G)
JumbocactuarX27: 100G (1.8%, 3,938G)
Maeveen: 100G (1.8%, 10,064G)
ko2q: 100G (1.8%, 1,313G)
Giftnova: 100G (1.8%, 2,928G)
