Final Bets: white - 19 bets for 14,950G (65.2%, x0.53); brown - 10 bets for 7,977G (34.8%, x1.87)

white bets:
JumbocactuarX27: 4,011G (26.8%, 4,011G)
ShintaroNayaka: 2,000G (13.4%, 8,591G)
maakur_: 1,916G (12.8%, 3,833G)
DavenIII: 1,290G (8.6%, 2,580G)
Lodrak: 1,001G (6.7%, 13,229G)
HaplessOne: 1,000G (6.7%, 27,600G)
SpicyCherrySoda_: 563G (3.8%, 563G)
kingchadking: 525G (3.5%, 525G)
TheChainNerd: 464G (3.1%, 464G)
RockTB: 458G (3.1%, 458G)
getthemoneyz: 422G (2.8%, 383,916G)
Humble_Fabio: 280G (1.9%, 280G)
HBC93: 250G (1.7%, 2,142G)
PatSouI: 200G (1.3%, 27,123G)
Treapvort: 200G (1.3%, 19,641G)
volgrathemoose: 120G (0.8%, 1,229G)
Caster_Daily: 100G (0.7%, 1,054G)
ZephyrTempest: 100G (0.7%, 3,920G)
Samurai_Hitman: 50G (0.3%, 1,853G)

brown bets:
Faqs_McGee: 1,830G (22.9%, 1,830G)
rechaun: 1,784G (22.4%, 1,784G)
Jeeboheebo: 1,000G (12.5%, 12,943G)
gum44: 1,000G (12.5%, 3,910G)
megaman2202: 628G (7.9%, 628G)
FreneticRiot: 500G (6.3%, 6,872G)
z32o: 500G (6.3%, 23,895G)
regios91: 435G (5.5%, 435G)
ThePineappleSalesman: 200G (2.5%, 2,249G)
ko2q: 100G (1.3%, 1,386G)
