Final Bets: green - 16 bets for 14,342G (30.1%, x2.32); yellow - 21 bets for 33,312G (69.9%, x0.43)

green bets:
TheBrett: 6,246G (43.6%, 6,246G)
ruleof5: 1,000G (7.0%, 55,063G)
Phi_Sig: 908G (6.3%, 908G)
ko2q: 904G (6.3%, 904G)
Firesheath: 882G (6.1%, 882G)
Nizaha: 624G (4.4%, 4,424G)
Willjin: 600G (4.2%, 33,415G)
Lolthsmeat: 500G (3.5%, 12,335G)
CorpusCav: 500G (3.5%, 21,585G)
lotharek: 500G (3.5%, 5,267G)
DHaveWord: 482G (3.4%, 964G)
holdenmagronik: 476G (3.3%, 476G)
2b_yorha_b: 220G (1.5%, 220G)
ValensEXP_: 200G (1.4%, 1,450G)
datadrivenbot: 200G (1.4%, 80,376G)
maakur_: 100G (0.7%, 2,034G)

yellow bets:
Mesmaster: 17,908G (53.8%, 17,908G)
LDSkinny: 2,543G (7.6%, 2,543G)
upvla: 2,446G (7.3%, 2,446G)
HaateXIII: 1,224G (3.7%, 1,224G)
DaveStrider55: 1,106G (3.3%, 1,106G)
Deathmaker06: 1,000G (3.0%, 34,613G)
BirbBrainsBot: 1,000G (3.0%, 89,404G)
Lord_Gwarth: 1,000G (3.0%, 2,674G)
nifboy: 868G (2.6%, 4,145G)
getthemoneyz: 802G (2.4%, 2,112,318G)
dogsandcatsand: 776G (2.3%, 19,702G)
pplvee1: 559G (1.7%, 559G)
tinytittyfiend: 500G (1.5%, 7,081G)
AllInBot: 476G (1.4%, 476G)
Einswolf: 300G (0.9%, 4,679G)
DuPlatypus: 208G (0.6%, 208G)
fistfulofbees13: 141G (0.4%, 141G)
Riley331: 132G (0.4%, 132G)
daveb_: 122G (0.4%, 4,930G)
gorgewall: 101G (0.3%, 14,248G)
Error72: 100G (0.3%, 10,068G)
