Final Bets: white - 17 bets for 20,171G (59.1%, x0.69); champion - 21 bets for 13,982G (40.9%, x1.44)

white bets:
Thyrandaal: 10,000G (49.6%, 190,759G)
Mesmaster: 3,000G (14.9%, 31,420G)
SeniorBunk: 1,011G (5.0%, 1,011G)
BirbBrainsBot: 1,000G (5.0%, 93,366G)
Deathmaker06: 1,000G (5.0%, 36,780G)
GingerDynomite: 500G (2.5%, 7,271G)
Smashy: 500G (2.5%, 2,320G)
Lord_Gwarth: 500G (2.5%, 2,575G)
old_overholt_: 400G (2.0%, 50,693G)
DaveStrider55: 400G (2.0%, 400G)
lotharek: 400G (2.0%, 5,709G)
CapnChaos12: 300G (1.5%, 5,361G)
DuPlatypus: 270G (1.3%, 270G)
Riley331: 270G (1.3%, 270G)
heropong: 268G (1.3%, 268G)
getthemoneyz: 252G (1.2%, 2,113,418G)
ko2q: 100G (0.5%, 763G)

champion bets:
Willjin: 1,500G (10.7%, 35,247G)
fenaen: 1,400G (10.0%, 13,251G)
latebit: 1,372G (9.8%, 68,607G)
tinytittyfiend: 1,000G (7.2%, 9,180G)
JonnyCue: 957G (6.8%, 3,957G)
nifboy: 868G (6.2%, 5,061G)
CorpusCav: 843G (6.0%, 21,843G)
E_Ballard: 804G (5.8%, 804G)
argentbast: 796G (5.7%, 1,592G)
Firesheath: 628G (4.5%, 628G)
Nizaha: 624G (4.5%, 4,328G)
Einswolf: 500G (3.6%, 3,864G)
holdenmagronik: 480G (3.4%, 480G)
DHaveWord: 464G (3.3%, 464G)
TheBrett: 457G (3.3%, 457G)
AllInBot: 408G (2.9%, 408G)
bigbongsmoker: 380G (2.7%, 380G)
datadrivenbot: 200G (1.4%, 79,641G)
gorgewall: 101G (0.7%, 14,442G)
maakur_: 100G (0.7%, 2,789G)
ValensEXP_: 100G (0.7%, 858G)
