Final Bets: blue - 16 bets for 52,767G (90.0%, x0.11); yellow - 12 bets for 5,839G (10.0%, x9.04)

blue bets:
Shalloween: 42,076G (79.7%, 84,153G)
NicoSavoy: 2,000G (3.8%, 197,360G)
twelfthrootoftwo: 1,428G (2.7%, 2,801G)
latebit: 1,286G (2.4%, 1,286G)
BirbBrainsBot: 1,000G (1.9%, 185,512G)
datadrivenbot: 966G (1.8%, 36,371G)
NIghtdew14: 663G (1.3%, 2,653G)
Laserman1000: 620G (1.2%, 27,420G)
Creggers: 500G (0.9%, 54,723G)
Aldrammech: 464G (0.9%, 464G)
killth3kid: 408G (0.8%, 2,435G)
alekzanndrr: 400G (0.8%, 1,013G)
SephDarkheart: 308G (0.6%, 29,570G)
TasisSai: 282G (0.5%, 553G)
Xoomwaffle: 266G (0.5%, 266G)
TimeJannies: 100G (0.2%, 4,488G)

yellow bets:
Seaweed_B: 2,311G (39.6%, 2,311G)
AllInBot: 1,047G (17.9%, 1,047G)
Lanshaft: 488G (8.4%, 17,759G)
prince_rogers_nelson_: 473G (8.1%, 473G)
TheMurkGnome: 472G (8.1%, 472G)
DavenIII: 374G (6.4%, 374G)
benticore: 250G (4.3%, 20,472G)
skipsandwiches: 120G (2.1%, 120G)
Miku_Shikhu: 100G (1.7%, 9,782G)
Firesheath: 100G (1.7%, 3,623G)
getthemoneyz: 54G (0.9%, 1,305,258G)
Othatmattkid: 50G (0.9%, 1,167G)
