Final Bets: white - 23 bets for 11,823G (48.3%, x1.07); black - 20 bets for 12,654G (51.7%, x0.93)

white bets:
ezefeld: 2,270G (19.2%, 2,270G)
jethrothrul: 1,938G (16.4%, 1,938G)
NovaKnight21: 1,079G (9.1%, 1,079G)
JonnyCue: 1,000G (8.5%, 30,611G)
Treapvort: 757G (6.4%, 757G)
Lanshaft: 600G (5.1%, 4,834G)
Jeeboheebo: 595G (5.0%, 595G)
volgrathemoose: 501G (4.2%, 4,623G)
fenaen: 500G (4.2%, 3,253G)
JustSuperish: 500G (4.2%, 2,503G)
ShintaroNayaka: 456G (3.9%, 456G)
rechaun: 422G (3.6%, 422G)
old_overholt_: 252G (2.1%, 252G)
joewcarson: 144G (1.2%, 144G)
richardserious: 108G (0.9%, 108G)
AllInBot: 100G (0.8%, 100G)
ApplesauceBoss: 100G (0.8%, 3,874G)
Alc_Trinity: 100G (0.8%, 31,561G)
reinoe: 100G (0.8%, 3,773G)
Slowbrofist: 100G (0.8%, 100G)
datadrivenbot: 100G (0.8%, 14,124G)
Mechapope1: 100G (0.8%, 3,177G)
ko2q: 1G (0.0%, 1,821G)

black bets:
DudeMonkey77: 3,146G (24.9%, 31,467G)
DeathTaxesAndAnime: 2,654G (21.0%, 5,205G)
Lydian_C: 1,500G (11.9%, 33,383G)
BirbBrainsBot: 1,000G (7.9%, 129,674G)
Axelrod: 1,000G (7.9%, 30,925G)
Nizaha: 501G (4.0%, 15,967G)
Jabberwock13: 500G (4.0%, 2,447G)
roofiepops: 350G (2.8%, 2,796G)
ColetteMSLP: 300G (2.4%, 9,846G)
0utlier: 300G (2.4%, 5,377G)
Maldoree: 295G (2.3%, 295G)
ugoplatamia: 200G (1.6%, 24,220G)
wizblizz: 200G (1.6%, 4,314G)
EnemyController: 128G (1.0%, 1,928G)
Kellios11: 100G (0.8%, 5,747G)
BadBlanket: 100G (0.8%, 3,168G)
maakur_: 100G (0.8%, 2,999G)
GrayGhostGaming: 100G (0.8%, 525G)
ZephyrTempest: 100G (0.8%, 19,918G)
getthemoneyz: 80G (0.6%, 402,327G)
