Final Bets: black - 11 bets for 7,291G (47.3%, x1.11); purple - 10 bets for 8,111G (52.7%, x0.90)

black bets:
OneHundredFists: 2,001G (27.4%, 15,043G)
rmelzer1986: 1,454G (19.9%, 1,454G)
BirbBrainsBot: 1,000G (13.7%, 56,310G)
KasugaiRoastedPeas: 800G (11.0%, 7,791G)
Laserman1000: 736G (10.1%, 7,236G)
killth3kid: 500G (6.9%, 11,416G)
Aquios_: 300G (4.1%, 3,021G)
evontno: 200G (2.7%, 2,267G)
superdevon1: 100G (1.4%, 3,455G)
Firesheath: 100G (1.4%, 9,498G)
datadrivenbot: 100G (1.4%, 47,184G)

purple bets:
ThreeMileIsland: 2,000G (24.7%, 2,000G)
prince_rogers_nelson_: 1,232G (15.2%, 1,232G)
Nohurty: 1,152G (14.2%, 2,304G)
GladiatorLupe: 1,000G (12.3%, 10,680G)
LionelParks: 1,000G (12.3%, 11,077G)
getthemoneyz: 502G (6.2%, 1,072,946G)
Arashii85: 500G (6.2%, 4,522G)
Tithonus: 328G (4.0%, 328G)
twelfthrootoftwo: 200G (2.5%, 6,483G)
megamax667: 197G (2.4%, 5,597G)
