Final Bets: brown - 10 bets for 3,255G (15.3%, x5.54); champion - 21 bets for 18,023G (84.7%, x0.18)

brown bets:
superdevon1: 989G (30.4%, 9,898G)
AllInBot: 928G (28.5%, 928G)
Tithonus: 300G (9.2%, 13,820G)
oodlesonoodles11: 220G (6.8%, 220G)
KasugaiRoastedPeas: 200G (6.1%, 8,965G)
JoeykinsGaming: 200G (6.1%, 3,230G)
HawkSick: 168G (5.2%, 168G)
RughSontos: 100G (3.1%, 2,266G)
alrightbye: 100G (3.1%, 8,880G)
cougboi: 50G (1.5%, 9,422G)

champion bets:
Zbgs: 5,000G (27.7%, 39,014G)
WireLord: 2,000G (11.1%, 39,373G)
Laserman1000: 1,523G (8.5%, 23,023G)
sinnyil2: 1,346G (7.5%, 2,692G)
Conome: 1,225G (6.8%, 1,225G)
ungabunga_bot: 1,000G (5.5%, 97,507G)
BirbBrainsBot: 1,000G (5.5%, 59,093G)
karmakamikaze: 1,000G (5.5%, 3,047G)
mirapoix: 810G (4.5%, 810G)
ValtonZenola: 587G (3.3%, 587G)
DarrenDinosaurs: 412G (2.3%, 412G)
cephalopodluke: 400G (2.2%, 835G)
ZephyrTempest: 396G (2.2%, 51,228G)
CapnChaos12: 300G (1.7%, 2,392G)
mastershango: 300G (1.7%, 300G)
Vyroxe: 224G (1.2%, 224G)
ApplesauceBoss: 100G (0.6%, 5,174G)
Pochitchi: 100G (0.6%, 104G)
BuffaloCrunch: 100G (0.6%, 15,882G)
Firesheath: 100G (0.6%, 1,009G)
ploikmjr: 100G (0.6%, 1,539G)
