Final Bets: purple - 13 bets for 5,230G (38.3%, x1.61); brown - 7 bets for 8,422G (61.7%, x0.62)

purple bets:
Zetchryn: 1,000G (19.1%, 3,521G)
superdevon1: 773G (14.8%, 7,735G)
Slowbrofist: 644G (12.3%, 644G)
HASTERIOUS: 576G (11.0%, 576G)
BirbBrainsBot: 379G (7.2%, 52,335G)
Tithonus: 300G (5.7%, 16,119G)
TheMurkGnome: 300G (5.7%, 1,851G)
Evewho: 300G (5.7%, 300G)
SeedSC: 242G (4.6%, 256,908G)
BlinkFS: 236G (4.5%, 236G)
lijarkh: 200G (3.8%, 3,850G)
getthemoneyz: 180G (3.4%, 463,031G)
AllInBot: 100G (1.9%, 100G)

brown bets:
WireLord: 3,000G (35.6%, 37,891G)
upvla: 1,990G (23.6%, 22,101G)
DeathTaxesAndAnime: 1,667G (19.8%, 1,667G)
datadrivenbot: 949G (11.3%, 26,415G)
waterwatereverywhere: 316G (3.8%, 316G)
Bulleta: 300G (3.6%, 3,863G)
L2_Sentinel: 200G (2.4%, 19,509G)
