Final Bets: white - 13 bets for 5,948G (41.4%, x1.41); black - 9 bets for 8,402G (58.6%, x0.71)

white bets:
dogsandcatsand: 1,323G (22.2%, 1,323G)
toka222: 1,200G (20.2%, 115,057G)
BirbBrainsBot: 1,000G (16.8%, 170,942G)
MagicBottle: 556G (9.3%, 8,538G)
wildetrys: 500G (8.4%, 1,100G)
getthemoneyz: 418G (7.0%, 1,655,308G)
resjudicata3: 200G (3.4%, 7,159G)
datadrivenbot: 200G (3.4%, 64,706G)
Lord_Gwarth: 150G (2.5%, 5,584G)
gorgewall: 101G (1.7%, 4,738G)
Tougou: 100G (1.7%, 3,817G)
CosmicTactician: 100G (1.7%, 23,276G)
nhammen: 100G (1.7%, 26,986G)

black bets:
Thyrandaal: 5,000G (59.5%, 254,895G)
douchetron: 1,145G (13.6%, 1,145G)
DeathTaxesAndAnime: 1,055G (12.6%, 1,055G)
silentkaster: 312G (3.7%, 312G)
ArrenJevleth: 300G (3.6%, 4,341G)
Aestheta: 272G (3.2%, 272G)
Gyrolin: 214G (2.5%, 214G)
AllInBot: 100G (1.2%, 100G)
PuzzleSecretary: 4G (0.0%, 175G)
