Final Bets: white - 23 bets for 18,779G (62.7%, x0.60); black - 9 bets for 11,179G (37.3%, x1.68)

white bets:
Shakarak: 4,000G (21.3%, 21,048G)
Mesmaster: 2,000G (10.7%, 53,676G)
SQUiDSQUARKLIN: 1,944G (10.4%, 1,944G)
Lydian_C: 1,200G (6.4%, 4,523G)
MaouDono: 1,000G (5.3%, 11,004G)
BirbBrainsBot: 1,000G (5.3%, 172,758G)
UmaiJam: 1,000G (5.3%, 17,159G)
JumbocactuarX27: 1,000G (5.3%, 19,733G)
Anomandaris__: 1,000G (5.3%, 7,086G)
Lionhermit: 1,000G (5.3%, 34,229G)
HaplessOne: 666G (3.5%, 21,646G)
DavenIII: 592G (3.2%, 592G)
ZephyrTempest: 456G (2.4%, 1,190G)
SomeCallMeGON: 400G (2.1%, 3,256G)
solomongrundy85: 400G (2.1%, 17,762G)
RubenFlonne: 200G (1.1%, 13,486G)
Sairentozon7: 200G (1.1%, 799G)
ungabunga_bot: 166G (0.9%, 297,817G)
CoderCalamity: 155G (0.8%, 519G)
nifboy: 100G (0.5%, 8,049G)
lastly: 100G (0.5%, 1,312G)
datadrivenbot: 100G (0.5%, 10,940G)
EnemyController: 100G (0.5%, 162,828G)

black bets:
Nickyfive: 6,235G (55.8%, 12,470G)
Pie108: 2,000G (17.9%, 199,131G)
TheChainNerd: 1,000G (8.9%, 4,128G)
catfashions: 500G (4.5%, 13,283G)
Baron_von_Scrub: 473G (4.2%, 473G)
elelor: 401G (3.6%, 401G)
joewcarson: 384G (3.4%, 384G)
maakur_: 100G (0.9%, 115,025G)
getthemoneyz: 86G (0.8%, 613,645G)
