Final Bets: red - 20 bets for 7,719G (40.4%, x1.47); blue - 13 bets for 11,379G (59.6%, x0.68)

red bets:
douchetron: 1,405G (18.2%, 2,756G)
DeathTaxesAndAnime: 986G (12.8%, 986G)
Nizaha: 696G (9.0%, 17,442G)
Aldrammech: 612G (7.9%, 612G)
Lanshaft: 560G (7.3%, 11,921G)
Laserman1000: 504G (6.5%, 5,704G)
resjudicata3: 500G (6.5%, 5,212G)
Draconis345: 500G (6.5%, 4,835G)
getthemoneyz: 356G (4.6%, 1,557,171G)
rednecknazgul: 300G (3.9%, 14,278G)
MonchoStrife: 203G (2.6%, 203G)
AllInBot: 200G (2.6%, 200G)
amsans1247: 200G (2.6%, 10,463G)
muffin_money: 150G (1.9%, 7,432G)
lastly: 100G (1.3%, 50,967G)
Firesheath: 100G (1.3%, 24,774G)
vrayx7: 100G (1.3%, 100G)
Twisted_Nutsatchel: 100G (1.3%, 14,995G)
DHaveWord: 100G (1.3%, 4,452G)
JonnyCue: 47G (0.6%, 474G)

blue bets:
Forkmore: 2,293G (20.2%, 4,586G)
ko2q: 1,742G (15.3%, 3,485G)
dogsandcatsand: 1,315G (11.6%, 1,315G)
HaateXIII: 1,180G (10.4%, 1,180G)
gorgewall: 1,152G (10.1%, 1,152G)
BirbBrainsBot: 1,000G (8.8%, 46,144G)
nhammen: 1,000G (8.8%, 212,972G)
just_here2: 600G (5.3%, 5,219G)
VolgraTheMoose: 400G (3.5%, 1,502G)
brokenknight201: 400G (3.5%, 3,844G)
PantherIscariot: 111G (1.0%, 9,003G)
Brainstew29: 100G (0.9%, 38,105G)
ArlanKels: 86G (0.8%, 4,318G)
