Final Bets: green - 12 bets for 9,463G (49.6%, x1.02); yellow - 15 bets for 9,609G (50.4%, x0.98)

green bets:
ko2q: 2,333G (24.7%, 4,667G)
nhammen: 2,000G (21.1%, 213,650G)
BirbBrainsBot: 1,000G (10.6%, 46,822G)
DeathTaxesAndAnime: 964G (10.2%, 964G)
Lumberinjack: 750G (7.9%, 6,356G)
Nizaha: 696G (7.4%, 16,746G)
Aldrammech: 612G (6.5%, 612G)
Laserman1000: 500G (5.3%, 5,200G)
PantherIscariot: 256G (2.7%, 9,078G)
muffin_money: 150G (1.6%, 7,282G)
gorgewall: 101G (1.1%, 1,933G)
ANFz: 101G (1.1%, 48,590G)

yellow bets:
Forkmore: 2,000G (20.8%, 6,141G)
VolgraTheMoose: 1,773G (18.5%, 1,773G)
dogsandcatsand: 1,125G (11.7%, 2,207G)
reinoe: 1,000G (10.4%, 129,685G)
rednecknazgul: 1,000G (10.4%, 12,978G)
resjudicata3: 1,000G (10.4%, 4,712G)
amsans1247: 500G (5.2%, 10,263G)
TheMurkGnome: 300G (3.1%, 5,344G)
AllInBot: 200G (2.1%, 200G)
ArlanKels: 175G (1.8%, 4,376G)
coralreeferz: 150G (1.6%, 24,235G)
MonchoStrife: 104G (1.1%, 104G)
MinBetBot: 100G (1.0%, 16,129G)
Firesheath: 100G (1.0%, 24,674G)
getthemoneyz: 82G (0.9%, 1,556,815G)
