Final Bets: white - 6 bets for 1,450G (4.6%, x20.78); black - 23 bets for 30,133G (95.4%, x0.05)

white bets:
getthemoneyz: 550G (37.9%, 1,128,893G)
HuffFlex: 300G (20.7%, 1,888G)
ZombiFrancis: 300G (20.7%, 8,165G)
Miku_Shikhu: 100G (6.9%, 15,509G)
nifboy: 100G (6.9%, 4,798G)
Yiroep2: 100G (6.9%, 3,321G)

black bets:
SkylerBunny: 7,559G (25.1%, 7,559G)
DavenIII: 6,827G (22.7%, 6,827G)
Sairentozon7: 2,226G (7.4%, 4,453G)
run_with_stone_GUNs: 2,000G (6.6%, 38,438G)
UmaiJam: 1,900G (6.3%, 91,024G)
HaateXIII: 1,832G (6.1%, 1,832G)
ShintaroNayaka: 1,449G (4.8%, 1,449G)
Nizaha: 1,134G (3.8%, 1,134G)
EnemyController: 1,111G (3.7%, 1,405,271G)
BirbBrainsBot: 1,000G (3.3%, 45,560G)
DudeMonkey77: 700G (2.3%, 700G)
ArashiKurobara: 651G (2.2%, 651G)
RampagingRobot: 323G (1.1%, 1,323G)
GladiatorLupe: 300G (1.0%, 11,942G)
CosmicTactician: 200G (0.7%, 57,630G)
BavarianBerserker: 200G (0.7%, 200G)
Lydian_C: 121G (0.4%, 174,526G)
Grandlanzer: 100G (0.3%, 41,584G)
DuneMeta: 100G (0.3%, 5,975G)
nsm013: 100G (0.3%, 1,991G)
Error72: 100G (0.3%, 6,898G)
Thyrandaal: 100G (0.3%, 5,531G)
datadrivenbot: 100G (0.3%, 51,503G)
