Final Bets: green - 14 bets for 10,492G (39.0%, x1.56); brown - 23 bets for 16,387G (61.0%, x0.64)

green bets:
ShintaroNayaka: 2,722G (25.9%, 2,722G)
RampagingRobot: 1,000G (9.5%, 1,000G)
evdoggity: 1,000G (9.5%, 108,219G)
Forkmore: 1,000G (9.5%, 37,479G)
RaIshtar: 800G (7.6%, 8,385G)
killth3kid: 795G (7.6%, 79,573G)
Cryptopsy70: 620G (5.9%, 15,880G)
SkylerBunny: 600G (5.7%, 9,041G)
ZCKaiser: 505G (4.8%, 10,108G)
run_with_stone_GUNs: 500G (4.8%, 43,505G)
Moshyhero: 500G (4.8%, 14,590G)
HaateXIII: 250G (2.4%, 1,931G)
nifboy: 100G (1.0%, 4,630G)
Miku_Shikhu: 100G (1.0%, 15,511G)

brown bets:
DavenIII: 4,840G (29.5%, 4,840G)
Nickyfive: 2,000G (12.2%, 15,634G)
EnemyController: 1,234G (7.5%, 1,404,238G)
nsm013: 1,000G (6.1%, 1,998G)
DuneMeta: 1,000G (6.1%, 5,980G)
BirbBrainsBot: 1,000G (6.1%, 48,919G)
DudeMonkey77: 700G (4.3%, 700G)
Firesheath: 680G (4.1%, 680G)
Belkra: 600G (3.7%, 1,225G)
GladiatorLupe: 500G (3.1%, 11,471G)
Nizaha: 500G (3.1%, 500G)
HuffFlex: 500G (3.1%, 1,599G)
TheChainNerd: 402G (2.5%, 4,022G)
CapnChaos12: 300G (1.8%, 8,598G)
ArashiKurobara: 244G (1.5%, 244G)
BavarianBerserker: 200G (1.2%, 212G)
Lydian_C: 121G (0.7%, 174,450G)
E_Ballard: 100G (0.6%, 3,557G)
nhammen: 100G (0.6%, 8,667G)
Alanaire: 100G (0.6%, 25,407G)
CosmicTactician: 100G (0.6%, 57,510G)
datadrivenbot: 100G (0.6%, 51,378G)
getthemoneyz: 66G (0.4%, 1,128,498G)
