Final Bets: blue - 10 bets for 4,228G (19.8%, x4.05); green - 18 bets for 17,121G (80.2%, x0.25)

blue bets:
BlueAbs: 728G (17.2%, 728G)
Laserman1000: 626G (14.8%, 27,426G)
Xoomwaffle: 620G (14.7%, 620G)
dogsandcatsand: 548G (13.0%, 548G)
Aldrammech: 500G (11.8%, 2,729G)
datadrivenbot: 370G (8.8%, 49,394G)
run_with_stone_GUNs: 336G (7.9%, 10,884G)
AllInBot: 200G (4.7%, 200G)
dtrain332: 200G (4.7%, 2,457G)
Miku_Shikhu: 100G (2.4%, 10,402G)

green bets:
nhammen: 5,213G (30.4%, 10,223G)
helpimabug: 1,586G (9.3%, 3,173G)
Lord_Burrah: 1,211G (7.1%, 89,211G)
Draconis345: 1,000G (5.8%, 61,804G)
Shalloween: 1,000G (5.8%, 53,694G)
BirbBrainsBot: 1,000G (5.8%, 155,143G)
Creggers: 1,000G (5.8%, 28,265G)
Sairentozon7: 1,000G (5.8%, 10,265G)
Arcblazer23: 981G (5.7%, 981G)
upvla: 678G (4.0%, 5,870G)
Nizaha: 548G (3.2%, 8,450G)
NIghtdew14: 464G (2.7%, 464G)
getthemoneyz: 438G (2.6%, 1,274,778G)
Rislyeu: 372G (2.2%, 372G)
Treafa: 224G (1.3%, 2,206G)
gorgewall: 201G (1.2%, 4,458G)
DaKoopa49: 200G (1.2%, 728G)
moonliquor: 5G (0.0%, 13,136G)
