Final Bets: red - 27 bets for 18,059G (67.2%, x0.49); blue - 20 bets for 8,796G (32.8%, x2.05)

red bets:
Shalloween: 3,693G (20.4%, 7,387G)
Virilikus: 2,000G (11.1%, 183,606G)
solomongrundy85: 1,487G (8.2%, 2,975G)
Davarian: 1,100G (6.1%, 1,100G)
maakur_: 1,086G (6.0%, 1,086G)
CorpusCav: 1,007G (5.6%, 9,198G)
Evewho: 739G (4.1%, 739G)
Firesheath: 623G (3.4%, 623G)
Spartan_Paladin: 600G (3.3%, 65,600G)
LivingHitokiri: 500G (2.8%, 12,641G)
cloud92684: 500G (2.8%, 7,453G)
Dymntd: 500G (2.8%, 21,406G)
reinoe: 500G (2.8%, 27,541G)
Baron_von_Scrub: 474G (2.6%, 2,803G)
CapnChaos12: 470G (2.6%, 470G)
Tougou: 461G (2.6%, 461G)
ShintaroNayaka: 400G (2.2%, 3,866G)
Aerochris121: 400G (2.2%, 1,275G)
CrownOfHorns: 271G (1.5%, 271G)
Grandlanzer: 255G (1.4%, 255G)
regios91: 200G (1.1%, 1,166G)
old_overholt_: 200G (1.1%, 7,459G)
AllInBot: 193G (1.1%, 193G)
CosmicTactician: 100G (0.6%, 9,854G)
ravingsockmonkey: 100G (0.6%, 737G)
gogofromtogo: 100G (0.6%, 100G)
datadrivenbot: 100G (0.6%, 22,039G)

blue bets:
itsdigitalbro: 1,500G (17.1%, 5,357G)
BirbBrainsBot: 1,000G (11.4%, 184,773G)
ForagerCats: 1,000G (11.4%, 8,600G)
Laserman1000: 683G (7.8%, 3,583G)
powergems: 632G (7.2%, 632G)
Rislyeu: 500G (5.7%, 1,450G)
OmnibotGamma: 500G (5.7%, 19,530G)
rico_flex: 500G (5.7%, 35,141G)
volgrathemoose: 465G (5.3%, 465G)
coralreeferz: 350G (4.0%, 7,574G)
EnemyController: 300G (3.4%, 345,216G)
nifboy: 250G (2.8%, 12,719G)
HaychDub: 250G (2.8%, 9,181G)
d4rr1n: 200G (2.3%, 1,822G)
HaplessOne: 150G (1.7%, 305,363G)
Stealthtoucan: 116G (1.3%, 232G)
TinchoT: 110G (1.3%, 110G)
DeathTaxesAndAnime: 100G (1.1%, 3,550G)
itszaane: 100G (1.1%, 1,242G)
getthemoneyz: 90G (1.0%, 729,087G)
