Final Bets: yellow - 22 bets for 26,122G (49.2%, x1.03); white - 14 bets for 26,947G (50.8%, x0.97)

yellow bets:
Thyrandaal: 7,777G (29.8%, 186,212G)
Aldrammech: 2,011G (7.7%, 2,011G)
Virilikus: 2,000G (7.7%, 183,133G)
latebit: 1,724G (6.6%, 1,724G)
BaronHaynes: 1,500G (5.7%, 11,423G)
prince_rogers_nelson_: 1,390G (5.3%, 1,390G)
Galeronis: 1,169G (4.5%, 1,169G)
grininda: 1,000G (3.8%, 7,316G)
BirbBrainsBot: 1,000G (3.8%, 55,369G)
pplvee1: 1,000G (3.8%, 5,409G)
nhammen: 1,000G (3.8%, 69,237G)
DeathTaxesAndAnime: 912G (3.5%, 912G)
Rislyeu: 750G (2.9%, 2,931G)
Zeroroute: 600G (2.3%, 600G)
powergems: 582G (2.2%, 582G)
E_Ballard: 524G (2.0%, 1,754G)
Drusiform: 350G (1.3%, 1,806G)
getthemoneyz: 232G (0.9%, 1,514,152G)
datadrivenbot: 200G (0.8%, 50,933G)
twelfthrootoftwo: 200G (0.8%, 1,893G)
ANFz: 101G (0.4%, 57,546G)
NeoSpadeAce: 100G (0.4%, 100G)

white bets:
ko2q: 22,263G (82.6%, 22,263G)
ThreeMileIsland: 1,000G (3.7%, 5,865G)
superdevon1: 945G (3.5%, 47,280G)
Nizaha: 676G (2.5%, 22,763G)
evontno: 501G (1.9%, 501G)
TasisSai: 500G (1.9%, 11,871G)
amsans1247: 300G (1.1%, 2,411G)
AllInBot: 200G (0.7%, 200G)
ArlanKels: 100G (0.4%, 6,826G)
DarrenDinosaurs: 100G (0.4%, 3,304G)
CosmicTactician: 100G (0.4%, 5,534G)
Firesheath: 100G (0.4%, 29,853G)
douchetron: 100G (0.4%, 21,674G)
dtrain332: 62G (0.2%, 6,207G)
