Final Bets: yellow - 16 bets for 22,857G (67.8%, x0.48); champion - 17 bets for 10,874G (32.2%, x2.10)

yellow bets:
run_with_stone_GUNs: 6,077G (26.6%, 12,154G)
Aldrammech: 4,090G (17.9%, 4,090G)
SkylerBunny: 2,000G (8.8%, 216,534G)
Virilikus: 2,000G (8.8%, 185,196G)
Lyner87: 2,000G (8.8%, 71,988G)
Galeronis: 1,375G (6.0%, 1,375G)
powergems: 1,182G (5.2%, 1,182G)
BaronHaynes: 1,000G (4.4%, 12,970G)
superdevon1: 926G (4.1%, 46,335G)
Nizaha: 676G (3.0%, 22,087G)
TasisSai: 500G (2.2%, 11,371G)
ko2q: 464G (2.0%, 464G)
AllInBot: 200G (0.9%, 200G)
datadrivenbot: 200G (0.9%, 51,139G)
ANFz: 100G (0.4%, 57,650G)
ArlanKels: 67G (0.3%, 6,726G)

champion bets:
gorgewall: 3,165G (29.1%, 3,165G)
amiture: 2,000G (18.4%, 35,250G)
Zeroroute: 1,219G (11.2%, 1,219G)
BirbBrainsBot: 1,000G (9.2%, 56,401G)
Rislyeu: 1,000G (9.2%, 3,705G)
E_Ballard: 528G (4.9%, 2,299G)
DLJuggernaut: 500G (4.6%, 2,401G)
prince_rogers_nelson_: 400G (3.7%, 1,824G)
amsans1247: 300G (2.8%, 2,111G)
twelfthrootoftwo: 200G (1.8%, 2,099G)
Firesheath: 100G (0.9%, 29,753G)
douchetron: 100G (0.9%, 21,574G)
CosmicTactician: 100G (0.9%, 5,434G)
GenZealot: 100G (0.9%, 2,376G)
Hasterious: 67G (0.6%, 1,354G)
getthemoneyz: 60G (0.6%, 1,514,391G)
DeathTaxesAndAnime: 35G (0.3%, 1,853G)
