Final Bets: green - 13 bets for 10,283G (21.4%, x3.66); champion - 15 bets for 37,684G (78.6%, x0.27)

green bets:
3ngag3: 3,295G (32.0%, 18,285G)
LivingHitokiri: 2,000G (19.4%, 148,684G)
BirbBrainsBot: 1,000G (9.7%, 136,536G)
Sairentozon7: 1,000G (9.7%, 29,195G)
DanielRKnealeArt: 666G (6.5%, 13,360G)
Evewho: 500G (4.9%, 6,993G)
ValensEXP_: 384G (3.7%, 9,675G)
gilgamensche: 319G (3.1%, 319G)
killabandaid: 313G (3.0%, 1,533G)
Musashi45: 256G (2.5%, 256G)
itsonlyspencer: 256G (2.5%, 3,805G)
getthemoneyz: 244G (2.4%, 2,062,554G)
king_smashington: 50G (0.5%, 688G)

champion bets:
Nizaha: 13,664G (36.3%, 27,328G)
SephDarkheart: 12,364G (32.8%, 12,364G)
VolgraTheMoose: 5,276G (14.0%, 10,553G)
old_overholt_: 1,000G (2.7%, 27,384G)
Willjin: 1,000G (2.7%, 2,281G)
Mesmaster: 784G (2.1%, 784G)
latebit: 624G (1.7%, 624G)
krombobreaker: 560G (1.5%, 560G)
CapnChaos12: 500G (1.3%, 5,323G)
Smugzug: 500G (1.3%, 1,513G)
run_with_stone_GUNs: 456G (1.2%, 5,762G)
resjudicata3: 424G (1.1%, 424G)
escobro: 244G (0.6%, 244G)
AllInBot: 200G (0.5%, 200G)
DeathTaxesAndAnime: 88G (0.2%, 2,336G)
