Final Bets: red - 12 bets for 9,627G (50.3%, x0.99); blue - 16 bets for 9,509G (49.7%, x1.01)

red bets:
mpghappiness: 3,781G (39.3%, 7,414G)
roofiepops: 1,400G (14.5%, 3,906G)
VolgraTheMoose: 1,121G (11.6%, 13,893G)
Aldrammech: 1,000G (10.4%, 27,436G)
theanonymouslurker: 500G (5.2%, 1,582G)
TheChainNerd: 447G (4.6%, 5,939G)
Jadusable2: 430G (4.5%, 430G)
cam_ATS: 348G (3.6%, 348G)
ColetteMSLP: 300G (3.1%, 3,471G)
Firesheath: 100G (1.0%, 14,756G)
datadrivenbot: 100G (1.0%, 43,536G)
DAC169: 100G (1.0%, 1,219G)

blue bets:
Mesmaster: 2,000G (21.0%, 264,380G)
Evewho: 1,838G (19.3%, 1,838G)
BirbBrainsBot: 1,000G (10.5%, 29,543G)
Rislyeu: 1,000G (10.5%, 28,992G)
TheMM42: 1,000G (10.5%, 7,380G)
Breakdown777: 530G (5.6%, 1,061G)
RunicMagus: 400G (4.2%, 27,931G)
getthemoneyz: 338G (3.6%, 1,008,324G)
YaBoy125: 300G (3.2%, 34,431G)
kaidykat: 300G (3.2%, 147,866G)
neocarbuncle: 202G (2.1%, 202G)
Neo_Exodus: 200G (2.1%, 992G)
Baron_von_Scrub: 101G (1.1%, 8,649G)
fluffskull: 100G (1.1%, 5,017G)
E_Ballard: 100G (1.1%, 16,541G)
Yiroep2: 100G (1.1%, 10,247G)
