Final Bets: purple - 11 bets for 4,074G (13.9%, x6.21); brown - 31 bets for 25,299G (86.1%, x0.16)

purple bets:
HASTERIOUS: 1,000G (24.5%, 76,233G)
Zmanwise: 670G (16.4%, 670G)
Zetchryn: 500G (12.3%, 2,069G)
Bulleta: 500G (12.3%, 2,709G)
Numbersborne: 300G (7.4%, 300G)
Faqs_McGee: 300G (7.4%, 882G)
PatSouI: 296G (7.3%, 296G)
Orerries: 258G (6.3%, 1,462G)
inzo24: 100G (2.5%, 100G)
MajikNinja44: 100G (2.5%, 100G)
getthemoneyz: 50G (1.2%, 350,326G)

brown bets:
Riot_Jayway: 7,777G (30.7%, 171,527G)
thaetreis: 4,516G (17.9%, 4,516G)
Humble_Fabio: 2,030G (8.0%, 2,030G)
sinnyil2: 1,200G (4.7%, 34,197G)
HaplessOne: 1,013G (4.0%, 28,589G)
BirbBrainsBot: 1,000G (4.0%, 193,115G)
bad1dea: 1,000G (4.0%, 182,053G)
DaveStrider55: 780G (3.1%, 780G)
superdevon1: 744G (2.9%, 3,724G)
ungabunga_bot: 600G (2.4%, 1,410G)
Dexef: 555G (2.2%, 3,523G)
Skarthe: 500G (2.0%, 6,130G)
PotionDweller: 500G (2.0%, 10,649G)
JIDkomu: 500G (2.0%, 11,249G)
waterwatereverywhere: 488G (1.9%, 488G)
RongRongArts: 336G (1.3%, 336G)
lijarkh: 200G (0.8%, 3,016G)
Treapvort: 200G (0.8%, 4,420G)
YesThisIsToshi: 173G (0.7%, 173G)
ontimeslackers: 146G (0.6%, 1,146G)
sonata_of_senpai: 140G (0.6%, 140G)
BadBlanket: 100G (0.4%, 4,392G)
rubenflonne: 100G (0.4%, 1,397G)
zackyap87: 100G (0.4%, 426G)
Alc_Trinity: 100G (0.4%, 21,982G)
chronoxtrigger: 100G (0.4%, 797G)
pathogen7: 100G (0.4%, 1,084G)
Rexamajinx: 100G (0.4%, 1,616G)
datadrivenbot: 100G (0.4%, 12,222G)
7Cerulean7: 100G (0.4%, 2,178G)
deesignal: 1G (0.0%, 1,667G)
