Final Bets: purple - 11 bets for 5,397G (43.3%, x1.31); brown - 7 bets for 7,080G (56.7%, x0.76)

purple bets:
prince_rogers_nelson_: 944G (17.5%, 944G)
Breakdown777: 778G (14.4%, 778G)
E_Ballard: 709G (13.1%, 709G)
VolgraTheMoose: 656G (12.2%, 656G)
Helllyesss: 500G (9.3%, 1,876G)
roqqqpsi: 444G (8.2%, 44,440G)
BirbBrainsBot: 426G (7.9%, 78,631G)
getthemoneyz: 352G (6.5%, 1,270,017G)
randgridr: 288G (5.3%, 3,449G)
datadrivenbot: 200G (3.7%, 62,685G)
SephDarkheart: 100G (1.9%, 19,954G)

brown bets:
Mysteriousdewd: 4,494G (63.5%, 4,494G)
Error72: 1,064G (15.0%, 1,064G)
dogsandcatsand: 512G (7.2%, 512G)
TasisSai: 494G (7.0%, 969G)
ArashiKurobara: 316G (4.5%, 5,251G)
DeathTaxesAndAnime: 100G (1.4%, 3,456G)
Kellios11: 100G (1.4%, 29,660G)
