Final Bets: red - 10 bets for 5,587G (42.6%, x1.35); yellow - 14 bets for 7,539G (57.4%, x0.74)

red bets:
pplvee1: 2,473G (44.3%, 2,473G)
getthemoneyz: 510G (9.1%, 1,270,479G)
ArashiKurobara: 500G (8.9%, 4,935G)
Breakdown777: 500G (8.9%, 799G)
Mudrockk: 500G (8.9%, 6,297G)
ACSpree: 384G (6.9%, 384G)
Helllyesss: 300G (5.4%, 2,532G)
brokenknight201: 220G (3.9%, 220G)
SeniorBunk: 100G (1.8%, 3,695G)
Kellios11: 100G (1.8%, 29,560G)

yellow bets:
E_Ballard: 1,639G (21.7%, 1,639G)
SomthingMore: 1,500G (19.9%, 28,649G)
BirbBrainsBot: 1,000G (13.3%, 79,190G)
Error72: 564G (7.5%, 564G)
dogsandcatsand: 512G (6.8%, 512G)
RedRiderAyame: 500G (6.6%, 3,000G)
roqqqpsi: 450G (6.0%, 45,022G)
randgridr: 300G (4.0%, 3,827G)
TasisSai: 242G (3.2%, 475G)
Mysteriousdewd: 232G (3.1%, 232G)
datadrivenbot: 200G (2.7%, 62,947G)
Skincrawler: 200G (2.7%, 2,066G)
SephDarkheart: 100G (1.3%, 20,085G)
DeathTaxesAndAnime: 100G (1.3%, 3,356G)
