High Risers:
1. ruleof5: +9,726G
2. Wonser: +1,572G
3. ColetteMSLP: +1,296G
4. bruubarg: +1,294G
5. old_overholt_: +1,196G
6. ExplanationMarkWow: +1,149G
7. Forkmore: +1,056G
8. Jacecore: +897G
9. Evewho: +873G
10. dogsandcatsand: +869G
11. DustBirdEX: +859G
12. DouglasDragonThePoet: +755G
13. technominari: +722G
14. Tithonus: +646G
15. Chuckolator: +591G
16. CapnChaos12: +448G
17. Lord_Gwarth: +444G
18. Cryptopsy70: +441G
19. VolgraTheMoose: +350G
20. coralreeferz: +263G
21. mirapoix: +253G
22. JonnyCue: +245G
23. nhammen: +201G
24. Bae0w0: +160G
25. Zagorsek: +63G
26. HorusTaurus: +57G
27. king_smashington: +39G
28. farside00831: +12G
29. ArchKnightX: +4G
30. Smashy: +4G
31. goth_Applebees_hostess: +4G
32. MoonSugarFiend: +1G
33. MrJamDango: -100G
34. SeniorBunk: -100G
35. CosmicTactician: -129G
36. Kronikle: -146G
37. Chihuahua_Charity: -196G
38. lijarkh: -200G
39. Lyner87: -200G
40. TheRealRiggz: -214G
41. gorgewall: -217G
42. jewhoe: -289G
43. reddwind_: -300G
44. Blaster_Bomb: -392G
45. Phi_Sig: -400G
46. brokenknight201: -400G
47. 2b_yorha_b: -424G
48. fistfulofbees13: -500G
49. killth3kid: -540G
50. ValensEXP_: -585G
51. readdesert: -600G
52. ko2q: -655G
53. Humble_Fabio: -666G
54. fenaen: -684G
55. TheMurkGnome: -758G
56. krombobreaker: -819G
57. tinytittyfiend: -819G
58. maakur_: -855G
59. nifboy: -892G
60. resjudicata3: -968G
61. 3ngag3: -1,000G
62. TheBrett: -1,000G
63. latebit: -1,000G
64. SephDarkheart: -1,168G
65. lowlf: -1,360G
66. Lolthsmeat: -1,374G
67. Zachara: -1,863G
68. skipsandwiches: -2,001G
69. Mesmaster: -2,211G
70. CorpusCav: -2,296G
