Final Bets: yellow - 8 bets for 3,908G (49.2%, x1.03); champion - 6 bets for 4,029G (50.8%, x0.97)

yellow bets:
serperemagus: 2,161G (55.3%, 2,161G)
Chronolynx42: 800G (20.5%, 54,450G)
ZCKaiser: 319G (8.2%, 638G)
LASERJESUS1337: 288G (7.4%, 288G)
JumbocactuarX27: 100G (2.6%, 3,523G)
CosmicTactician: 100G (2.6%, 14,342G)
datadrivenbot: 100G (2.6%, 48,181G)
maldis40: 40G (1.0%, 1,031G)

champion bets:
Lydian_C: 2,400G (59.6%, 166,006G)
BirbBrainsBot: 1,000G (24.8%, 135,869G)
Shinzutalos: 216G (5.4%, 216G)
gorgewall: 201G (5.0%, 9,186G)
ar_tactic: 150G (3.7%, 54,368G)
getthemoneyz: 62G (1.5%, 1,018,712G)
