Final Bets: white - 25 bets for 10,349G (60.7%, x0.65); black - 18 bets for 6,706G (39.3%, x1.54)

white bets:
skuldar: 2,000G (19.3%, 3,945G)
HaplessOne: 1,500G (14.5%, 231,671G)
FoeSquirrel: 1,453G (14.0%, 2,906G)
mesmaster: 926G (8.9%, 926G)
EnemyController: 500G (4.8%, 142,003G)
Breakdown777: 500G (4.8%, 29,308G)
feDoran: 500G (4.8%, 20,930G)
Primeval_33: 409G (4.0%, 409G)
ZephyrTempest: 400G (3.9%, 463G)
worldly_unbrain: 300G (2.9%, 3,781G)
arch8000: 223G (2.2%, 7,434G)
Mandoragan: 220G (2.1%, 220G)
noheropage: 200G (1.9%, 2,596G)
Fenrislfr: 156G (1.5%, 156G)
b0shii: 123G (1.2%, 4,424G)
Conome: 100G (1.0%, 1,427G)
Kellios11: 100G (1.0%, 12,248G)
DarrenDinosaurs: 100G (1.0%, 9,067G)
gorgewall: 100G (1.0%, 5,481G)
twelfthrootoftwo: 100G (1.0%, 2,653G)
CyrixSG: 100G (1.0%, 100G)
datadrivenbot: 100G (1.0%, 2,474G)
maakur_: 100G (1.0%, 113,005G)
Jaritras: 89G (0.9%, 389G)
katgreen: 50G (0.5%, 769G)

black bets:
ungabunga_bot: 1,000G (14.9%, 262,977G)
BirbBrainsBot: 1,000G (14.9%, 1,222G)
TheRylander: 600G (8.9%, 6,940G)
LivingHitokiri: 500G (7.5%, 8,685G)
ColetteMSLP: 500G (7.5%, 25,826G)
Shalloween: 400G (6.0%, 74,819G)
Meta_Five: 400G (6.0%, 6,054G)
PrysmGames: 400G (6.0%, 1,272G)
getthemoneyz: 316G (4.7%, 588,668G)
RunicMagus: 300G (4.5%, 63,338G)
nifboy: 278G (4.1%, 6,963G)
midori_ribbon: 204G (3.0%, 204G)
SeniorBunk: 200G (3.0%, 4,937G)
KasugaiRoastedPeas: 200G (3.0%, 8,021G)
animefan112233: 108G (1.6%, 108G)
ko2q: 100G (1.5%, 1,184G)
jakeduhhsnake: 100G (1.5%, 100G)
FriendSquirrel: 100G (1.5%, 30,668G)
