Final Bets: blue - 19 bets for 20,793G (34.8%, x1.87); yellow - 15 bets for 38,947G (65.2%, x0.53)

blue bets:
EnemyController: 5,555G (26.7%, 1,802,441G)
DLJuggernaut: 5,000G (24.0%, 33,773G)
CorpusCav: 1,500G (7.2%, 70,088G)
BirbBrainsBot: 1,000G (4.8%, 110,341G)
Lord_Gwarth: 1,000G (4.8%, 7,287G)
Sairentozon7: 1,000G (4.8%, 71,517G)
Nizaha: 882G (4.2%, 17,654G)
AllInBot: 765G (3.7%, 765G)
lowlf: 664G (3.2%, 664G)
khelor_: 500G (2.4%, 12,655G)
getthemoneyz: 424G (2.0%, 2,182,136G)
HorusTaurus: 408G (2.0%, 408G)
2b_yorha_b: 400G (1.9%, 19,614G)
almost__sane: 400G (1.9%, 1,240G)
coralreeferz: 350G (1.7%, 1,885G)
Rhyser76: 344G (1.7%, 344G)
CapnChaos12: 300G (1.4%, 13,375G)
datadrivenbot: 200G (1.0%, 88,058G)
gorgewall: 101G (0.5%, 6,694G)

yellow bets:
ApplesNP: 20,978G (53.9%, 20,978G)
Thyrandaal: 5,275G (13.5%, 10,345G)
MoonSugarFiend: 2,000G (5.1%, 29,011G)
powergems: 2,000G (5.1%, 21,700G)
Firesheath: 1,601G (4.1%, 1,601G)
thebeasters: 1,589G (4.1%, 1,589G)
LDSkinny: 1,000G (2.6%, 5,548G)
nifboy: 884G (2.3%, 6,191G)
SephDarkheart: 580G (1.5%, 20,999G)
just_here2: 536G (1.4%, 16,501G)
Error72: 536G (1.4%, 536G)
heropong: 524G (1.3%, 1,049G)
holdenmagronik: 500G (1.3%, 1,666G)
JonnyCue: 472G (1.2%, 10,879G)
pplvee1: 472G (1.2%, 472G)
