Final Bets: blue - 19 bets for 8,590G (25.2%, x2.97); black - 10 bets for 25,514G (74.8%, x0.34)

blue bets:
red__lancer: 2,000G (23.3%, 68,770G)
TheChainNerd: 1,000G (11.6%, 3,111G)
BirbBrainsBot: 1,000G (11.6%, 157,018G)
Nickyfive: 970G (11.3%, 1,940G)
super_robo_mg: 513G (6.0%, 513G)
CT_5_Holy: 500G (5.8%, 1,203G)
HaateXIII: 500G (5.8%, 5,412G)
bruubarg: 400G (4.7%, 2,763G)
Drusic: 367G (4.3%, 367G)
nifboy: 250G (2.9%, 6,609G)
krasny1944: 228G (2.7%, 228G)
getthemoneyz: 212G (2.5%, 719,740G)
AllInBot: 100G (1.2%, 100G)
ANFz: 100G (1.2%, 2,106G)
datadrivenbot: 100G (1.2%, 20,705G)
maakur_: 100G (1.2%, 5,457G)
kintaru_oe: 100G (1.2%, 2,960G)
foofermoofer: 100G (1.2%, 518G)
Devrology101: 50G (0.6%, 125G)

black bets:
Shalloween: 14,984G (58.7%, 29,382G)
NicoSavoy: 5,000G (19.6%, 70,563G)
YaBoy125: 1,378G (5.4%, 1,378G)
CorpusCav: 1,010G (4.0%, 3,836G)
Evewho: 1,000G (3.9%, 4,280G)
Sairentozon7: 692G (2.7%, 692G)
HASTERIOUS: 676G (2.6%, 13,536G)
Baron_von_Scrub: 474G (1.9%, 13,421G)
Breakdown777: 200G (0.8%, 3,856G)
moocaotao: 100G (0.4%, 567G)
