Final Bets: white - 6 bets for 2,745G (48.0%, x1.08); black - 7 bets for 2,977G (52.0%, x0.92)

white bets:
BirbBrainsBot: 1,000G (36.4%, 84,185G)
NIghtdew14: 673G (24.5%, 6,739G)
JumbocactuarX27: 436G (15.9%, 10,538G)
getthemoneyz: 336G (12.2%, 1,203,421G)
datadrivenbot: 200G (7.3%, 56,420G)
JethroThrul: 100G (3.6%, 2,076G)

black bets:
sparker9: 1,000G (33.6%, 17,756G)
maakur_: 593G (19.9%, 593G)
E_Ballard: 476G (16.0%, 476G)
xLilAsia: 400G (13.4%, 553G)
VolgraTheMoose: 300G (10.1%, 5,491G)
aidanlucky7: 108G (3.6%, 108G)
anderslikeschicken: 100G (3.4%, 1,084G)
