Final Bets: green - 11 bets for 25,172G (56.6%, x0.77); yellow - 22 bets for 19,339G (43.4%, x1.30)

green bets:
DeathTaxesAndAnime: 12,184G (48.4%, 23,892G)
E_Ballard: 3,704G (14.7%, 3,704G)
Disindjinnuous: 2,539G (10.1%, 2,539G)
Evewho: 2,000G (7.9%, 30,177G)
CorpusCav: 2,000G (7.9%, 103,600G)
Sairentozon7: 716G (2.8%, 716G)
DHaveWord: 549G (2.2%, 549G)
Lord_Gwarth: 500G (2.0%, 10,764G)
HorusTaurus: 460G (1.8%, 460G)
lowlf: 420G (1.7%, 2,545G)
Firesheath: 100G (0.4%, 7,904G)

yellow bets:
Zagorsek: 9,528G (49.3%, 9,528G)
Zachara: 1,800G (9.3%, 1,800G)
BirbBrainsBot: 1,000G (5.2%, 124,944G)
getthemoneyz: 1,000G (5.2%, 2,227,348G)
Zetchryn: 911G (4.7%, 911G)
Thyrandaal: 864G (4.5%, 864G)
Grayv87: 704G (3.6%, 704G)
Nizaha: 688G (3.6%, 3,570G)
Snowfats: 500G (2.6%, 61,918G)
roofiepops: 474G (2.5%, 2,288G)
ExplanationMarkWow: 444G (2.3%, 25,000G)
gorgewall: 201G (1.0%, 10,843G)
AllInBot: 200G (1.0%, 200G)
datadrivenbot: 200G (1.0%, 86,527G)
DouglasDragonThePoet: 150G (0.8%, 3,181G)
goth_Applebees_hostess: 150G (0.8%, 400G)
joharbelwey: 117G (0.6%, 117G)
lygg_mubblez: 104G (0.5%, 104G)
squideater_: 100G (0.5%, 4,288G)
DocZombiee: 100G (0.5%, 1,731G)
FuzzyTigers: 100G (0.5%, 656G)
TheBrett: 4G (0.0%, 3,622G)
