Final Bets: red - 18 bets for 9,549G (38.9%, x1.57); brown - 12 bets for 14,995G (61.1%, x0.64)

red bets:
Zeroroute: 2,500G (26.2%, 8,929G)
Nizaha: 1,928G (20.2%, 3,856G)
ruleof5: 810G (8.5%, 810G)
Sairentozon7: 716G (7.5%, 716G)
Zachara: 680G (7.1%, 680G)
Zetchryn: 492G (5.2%, 492G)
lowlf: 420G (4.4%, 4,224G)
gorgewall: 401G (4.2%, 11,024G)
old_overholt_: 300G (3.1%, 7,145G)
coralreeferz: 250G (2.6%, 3,641G)
AllInBot: 200G (2.1%, 200G)
datadrivenbot: 200G (2.1%, 86,291G)
squideater_: 200G (2.1%, 4,377G)
DeathTaxesAndAnime: 100G (1.0%, 40,041G)
DouglasDragonThePoet: 100G (1.0%, 3,166G)
king_smashington: 100G (1.0%, 3,249G)
FuzzyTigers: 100G (1.0%, 1,041G)
getthemoneyz: 52G (0.5%, 2,226,113G)

brown bets:
Zagorsek: 5,395G (36.0%, 5,395G)
NicoSavoy: 4,000G (26.7%, 227,338G)
Lionhermit: 1,000G (6.7%, 4,241G)
BirbBrainsBot: 1,000G (6.7%, 123,754G)
Thyrandaal: 864G (5.8%, 864G)
lijarkh: 723G (4.8%, 723G)
dogsandcatsand: 592G (3.9%, 6,779G)
technominari: 500G (3.3%, 94,558G)
ExplanationMarkWow: 393G (2.6%, 26,393G)
DHaveWord: 228G (1.5%, 2,836G)
babiefaye: 200G (1.3%, 2,582G)
TheBrett: 100G (0.7%, 3,318G)
