Final Bets: black - 16 bets for 15,770G (77.1%, x0.30); purple - 8 bets for 4,695G (22.9%, x3.36)

black bets:
Kyune: 8,496G (53.9%, 8,496G)
Sairentozon7: 1,883G (11.9%, 1,883G)
CorpusCav: 1,000G (6.3%, 11,904G)
BirbBrainsBot: 1,000G (6.3%, 69,931G)
reinoe: 723G (4.6%, 723G)
getthemoneyz: 704G (4.5%, 821,351G)
metagameface: 412G (2.6%, 412G)
gorgewall: 402G (2.5%, 402G)
Lythe_Caraker: 250G (1.6%, 119,691G)
mechoking: 200G (1.3%, 1,338G)
red_celt: 200G (1.3%, 1,216G)
Dymntd: 100G (0.6%, 38,493G)
Ring_Wyrm: 100G (0.6%, 938G)
datadrivenbot: 100G (0.6%, 33,530G)
CT_Remix: 100G (0.6%, 148G)
Spuzzmocker: 100G (0.6%, 1,140G)

purple bets:
sinnyil2: 1,635G (34.8%, 1,635G)
argentbast: 1,000G (21.3%, 14,406G)
Rislyeu: 1,000G (21.3%, 9,910G)
ColetteMSLP: 516G (11.0%, 516G)
gogofromtogo: 200G (4.3%, 1,991G)
KyleWonToLiveForever: 136G (2.9%, 136G)
Kalabain: 108G (2.3%, 108G)
Einhanderz: 100G (2.1%, 100G)
