Final Bets: white - 16 bets for 8,949G (66.0%, x0.52); black - 9 bets for 4,617G (34.0%, x1.94)

white bets:
HaplessOne: 2,222G (24.8%, 134,043G)
WireLord: 2,000G (22.3%, 48,307G)
getthemoneyz: 1,000G (11.2%, 563,815G)
NovaKnight21: 514G (5.7%, 514G)
aStatue: 500G (5.6%, 30,236G)
Jerboj: 500G (5.6%, 46,310G)
BirbBrainsBot: 370G (4.1%, 150,778G)
Dexef: 333G (3.7%, 16,955G)
ocellodj: 300G (3.4%, 6,583G)
vorap: 292G (3.3%, 292G)
leakimiko: 277G (3.1%, 850G)
ewan_e: 200G (2.2%, 1,239G)
McGibble: 141G (1.6%, 141G)
BoneMiser: 100G (1.1%, 18,683G)
datadrivenbot: 100G (1.1%, 1,407G)
Lythe_Caraker: 100G (1.1%, 109,310G)

black bets:
RongRongArts: 2,000G (43.3%, 474,118G)
reinoe: 847G (18.3%, 847G)
XalSmellsBad: 500G (10.8%, 20,000G)
upvla: 456G (9.9%, 2,867G)
Chuckolator: 244G (5.3%, 25,255G)
nifboy: 187G (4.1%, 4,684G)
ungabunga_bot: 179G (3.9%, 216,804G)
perce90: 104G (2.3%, 104G)
ko2q: 100G (2.2%, 8,356G)
