High Risers:
1. Run_with_stone_guns: +39,396G
2. Upvla: +8,353G
3. Smashy: +5,260G
4. Reinoe: +2,719G
5. Hasterious: +2,484G
6. Zeroroute: +1,946G
7. Sephdarkheart: +1,380G
8. Deathtaxesandanime: +1,249G
9. Mindblownnnn: +1,226G
10. Old_overholt_: +642G
11. J2dabibbles: +375G
12. Haatexiii: +366G
13. Resjudicata3: +356G
14. Thekillernacho: +259G
15. Hotpocketsofficial: +247G
16. Rasend_: +152G
17. Laserman1000: +37G
18. Mirapoix: +4G
19. Moonsugarfiend: -21G
20. Douchetron: -32G
21. J_52: -37G
22. Gingerfoo69: -68G
23. Nhammen: -100G
24. Craymel_mage: -108G
25. Latebit: -173G
26. Redmage4evah: -200G
27. Phi_sig: -200G
28. Nekojin: -264G
29. Gelwain: -300G
30. Chaide: -307G
31. Lord_gwarth: -336G
32. Killth3kid: -343G
33. Lowlf: -344G
34. Solomongrundy85: -400G
35. Dracoknightzero: -422G
36. Gorgewall: -437G
37. Miku_shikhu: -450G
38. Corpuscav: -474G
39. Foragercats: -500G
40. Litarmada: -537G
41. Nizaha: -559G
42. Tripaplex: -577G
43. Lyner87: -596G
44. Colettemslp: -640G
45. Powergems: -687G
46. Valensexp_: -708G
47. Krombobreaker: -727G
48. Rocl: -735G
49. Silentkaster: -742G
50. Runicmagus: -776G
51. Shalloween: -836G
52. Morsigil: -856G
53. Error72: -900G
54. Mesmaster: -969G
55. Baronhaynes: -1,000G
56. Valdimar_5467: -1,000G
57. Memoriesoffinal: -1,001G
58. Crazylou64: -1,201G
59. Volgrathemoose: -1,323G
60. Spartan_paladin: -1,420G
61. Brokenknight201: -1,800G
62. Livinghitokiri: -2,307G
63. Dogsandcatsand: -2,549G
64. Chihuahua_charity: -2,868G
65. Leonidusx: -5,786G
66. Onehundredfists: -9,332G
67. Nickyfive: -11,166G
68. Thyrandaal: -11,678G
