Final Bets: red - 15 bets for 4,250G (52.8%, x0.89); black - 9 bets for 3,798G (47.2%, x1.12)

red bets:
josephiroth_143: 1,000G (23.5%, 5,206G)
maakur_: 695G (16.4%, 695G)
Breakdown777: 500G (11.8%, 3,869G)
wooyuji: 312G (7.3%, 312G)
edgehead62888: 300G (7.1%, 300G)
Strifu: 300G (7.1%, 3,527G)
Arbitae: 220G (5.2%, 220G)
ungabunga_bot: 218G (5.1%, 521,243G)
eudes89: 156G (3.7%, 156G)
gggamezzz: 146G (3.4%, 4,146G)
Lolprinze: 100G (2.4%, 3,107G)
E_Ballard: 100G (2.4%, 10,980G)
datadrivenbot: 100G (2.4%, 18,600G)
foofermoofer: 100G (2.4%, 754G)
ausar1: 3G (0.1%, 103G)

black bets:
BirbBrainsBot: 1,000G (26.3%, 129,350G)
Rislyeu: 878G (23.1%, 1,756G)
SuicideKing_XIX: 400G (10.5%, 2,249G)
DustBirdEX: 345G (9.1%, 14,203G)
marin1987: 340G (9.0%, 340G)
skillomono: 300G (7.9%, 1,428G)
getthemoneyz: 204G (5.4%, 680,873G)
Dellusionsx: 200G (5.3%, 3,696G)
MalakiGenesys: 131G (3.4%, 1,316G)
