Final Bets: red - 10 bets for 5,857G (50.6%, x0.97); blue - 12 bets for 5,710G (49.4%, x1.03)

red bets:
leakimiko: 1,400G (23.9%, 28,019G)
Lydian_C: 1,200G (20.5%, 12,789G)
NovaKnight21: 895G (15.3%, 1,791G)
RRazza: 697G (11.9%, 697G)
DeathTaxesAndAnime: 659G (11.3%, 659G)
Phytik: 506G (8.6%, 2,650G)
ugoplatamia: 200G (3.4%, 10,832G)
Basmal: 100G (1.7%, 48,562G)
Treapvort: 100G (1.7%, 21,547G)
datadrivenbot: 100G (1.7%, 16,004G)

blue bets:
BirbBrainsBot: 1,000G (17.5%, 123,047G)
inzo_bettingbot: 1,000G (17.5%, 63,822G)
bad1dea: 1,000G (17.5%, 332,819G)
Shalloween: 800G (14.0%, 44,437G)
PatSouI: 494G (8.7%, 494G)
waterwatereverywhere: 400G (7.0%, 4,211G)
getthemoneyz: 304G (5.3%, 404,368G)
KasugaiRoastedPeas: 200G (3.5%, 31,132G)
dynasti: 200G (3.5%, 863G)
Staldus: 112G (2.0%, 112G)
MegaMattTV: 100G (1.8%, 1,049G)
Lythe_Caraker: 100G (1.8%, 47,880G)
