Final Bets: red - 13 bets for 8,418G (41.7%, x1.40); black - 16 bets for 11,747G (58.3%, x0.72)

red bets:
RRazza: 1,289G (15.3%, 2,578G)
Lydian_C: 1,200G (14.3%, 12,559G)
UmaiJam: 1,052G (12.5%, 5,261G)
BirbBrainsBot: 1,000G (11.9%, 120,783G)
inzo_bettingbot: 1,000G (11.9%, 62,156G)
bad1dea: 1,000G (11.9%, 331,763G)
PatSouI: 802G (9.5%, 802G)
CaptainAdmiralSPATULA: 500G (5.9%, 1,444G)
Phytik: 147G (1.7%, 2,791G)
getthemoneyz: 128G (1.5%, 404,334G)
herrshaun: 100G (1.2%, 3,580G)
zalivandis: 100G (1.2%, 1,855G)
datadrivenbot: 100G (1.2%, 15,993G)

black bets:
Evewho: 2,349G (20.0%, 4,698G)
leakimiko: 1,423G (12.1%, 28,464G)
sinnyil2: 1,200G (10.2%, 24,248G)
KasugaiRoastedPeas: 1,161G (9.9%, 32,645G)
chode_ular: 1,070G (9.1%, 1,070G)
Basmal: 1,000G (8.5%, 50,432G)
Treapvort: 1,000G (8.5%, 21,337G)
JustSuperish: 500G (4.3%, 6,811G)
DeathTaxesAndAnime: 492G (4.2%, 492G)
NovaKnight21: 460G (3.9%, 460G)
waterwatereverywhere: 400G (3.4%, 3,811G)
SeedSC: 250G (2.1%, 60,216G)
ugoplatamia: 200G (1.7%, 11,542G)
InOzWeTrust: 120G (1.0%, 120G)
Tithonus: 100G (0.9%, 8,293G)
roqqqpsi: 22G (0.2%, 928G)
