Final Bets: white - 19 bets for 7,669G (36.3%, x1.76); black - 12 bets for 13,468G (63.7%, x0.57)

white bets:
BirbBrainsBot: 1,000G (13.0%, 76,236G)
getthemoneyz: 1,000G (13.0%, 1,010,869G)
NovaKnight21: 1,000G (13.0%, 9,695G)
SkylerBunny: 1,000G (13.0%, 577,557G)
Arcblazer23: 668G (8.7%, 668G)
Nizaha: 501G (6.5%, 6,476G)
killth3kid: 480G (6.3%, 10,268G)
ColetteMSLP: 300G (3.9%, 2,382G)
xeurian: 300G (3.9%, 3,870G)
twelfthrootoftwo: 300G (3.9%, 2,867G)
GladiatorLupe: 200G (2.6%, 12,325G)
Evewho: 200G (2.6%, 4,711G)
Lydian_C: 120G (1.6%, 155,560G)
nhammen: 100G (1.3%, 4,137G)
ANFz: 100G (1.3%, 2,559G)
BeyondWithinX: 100G (1.3%, 100G)
datadrivenbot: 100G (1.3%, 48,332G)
WASD_Buttons: 100G (1.3%, 100G)
docmitchphd: 100G (1.3%, 499G)

black bets:
OneHundredFists: 6,208G (46.1%, 12,173G)
Mesmaster: 3,000G (22.3%, 243,431G)
Laserman1000: 1,200G (8.9%, 1,200G)
HaychDub: 1,091G (8.1%, 1,091G)
galkife: 700G (5.2%, 55,155G)
gorgewall: 301G (2.2%, 4,939G)
Strifu: 268G (2.0%, 268G)
letdowncity: 200G (1.5%, 5,747G)
silentkaster: 200G (1.5%, 12,000G)
Kalcurz: 100G (0.7%, 1,672G)
CosmicTactician: 100G (0.7%, 17,352G)
santoramon: 100G (0.7%, 120G)
