Final Bets: red - 15 bets for 19,882G (82.6%, x0.21); brown - 10 bets for 4,198G (17.4%, x4.74)

red bets:
OneHundredFists: 7,370G (37.1%, 14,451G)
reinoe: 3,000G (15.1%, 22,792G)
SkylerBunny: 3,000G (15.1%, 577,738G)
E_Ballard: 1,447G (7.3%, 1,447G)
GladiatorLupe: 1,000G (5.0%, 11,818G)
DamnThatShark: 1,000G (5.0%, 3,371G)
solomongrundy85: 544G (2.7%, 544G)
silentkaster: 500G (2.5%, 11,500G)
butterbelljedi: 500G (2.5%, 14,166G)
BirbBrainsBot: 488G (2.5%, 75,682G)
gorgewall: 401G (2.0%, 5,346G)
Strifu: 268G (1.3%, 268G)
FullStream: 192G (1.0%, 192G)
datadrivenbot: 100G (0.5%, 48,268G)
getthemoneyz: 72G (0.4%, 1,010,226G)

brown bets:
soren_of_tyto: 1,287G (30.7%, 1,287G)
superdevon1: 600G (14.3%, 5,625G)
prince_rogers_nelson_: 600G (14.3%, 600G)
Laserman1000: 468G (11.1%, 1,468G)
Sairentozon7: 392G (9.3%, 392G)
Meanderandreturn: 281G (6.7%, 281G)
Snowfats: 250G (6.0%, 4,114G)
Evewho: 200G (4.8%, 4,765G)
Kalcurz: 100G (2.4%, 1,729G)
santoramon: 20G (0.5%, 247G)
