Final Bets: purple - 10 bets for 5,847G (34.0%, x1.94); brown - 12 bets for 11,362G (66.0%, x0.51)

purple bets:
Cryptopsy70: 1,559G (26.7%, 51,972G)
Evewho: 1,116G (19.1%, 1,116G)
Humma_kavula24: 1,000G (17.1%, 5,548G)
killth3kid: 700G (12.0%, 103,080G)
moonliquor: 500G (8.6%, 13,408G)
superdevon1: 272G (4.7%, 5,444G)
fluffskull: 200G (3.4%, 2,670G)
datadrivenbot: 200G (3.4%, 55,848G)
lijerrr: 200G (3.4%, 1,239G)
DeathTaxesAndAnime: 100G (1.7%, 3,811G)

brown bets:
furrytomahawkk: 3,579G (31.5%, 3,579G)
dantayystv: 2,000G (17.6%, 39,499G)
twelfthrootoftwo: 1,398G (12.3%, 2,742G)
BirbBrainsBot: 1,000G (8.8%, 137,446G)
winteriscorning: 871G (7.7%, 871G)
getthemoneyz: 588G (5.2%, 1,279,319G)
upvla: 421G (3.7%, 4,031G)
cougboi: 384G (3.4%, 384G)
Arcblazer23: 364G (3.2%, 364G)
randgridr: 308G (2.7%, 308G)
ThreeMileIsland: 248G (2.2%, 248G)
gorgewall: 201G (1.8%, 5,103G)
