Final Bets: purple - 18 bets for 8,831G (44.5%, x1.25); brown - 17 bets for 11,034G (55.5%, x0.80)

purple bets:
kai_shee: 2,000G (22.6%, 152,188G)
ungabunga_bot: 1,000G (11.3%, 211,045G)
Anomandaris__: 1,000G (11.3%, 7,302G)
Zachara: 800G (9.1%, 59,300G)
getthemoneyz: 560G (6.3%, 554,193G)
Nizaha: 501G (5.7%, 7,732G)
nifboy: 496G (5.6%, 4,966G)
thaetreis: 401G (4.5%, 802G)
SerumD: 400G (4.5%, 1,091G)
AllInBot: 358G (4.1%, 358G)
PetitFoulard: 316G (3.6%, 316G)
BroHamma: 250G (2.8%, 9,066G)
nedryerson01: 200G (2.3%, 2,746G)
ko2q: 199G (2.3%, 10,188G)
Tougou: 100G (1.1%, 9,780G)
Sans_from_Snowdin: 100G (1.1%, 4,506G)
IndecisiveNinja: 100G (1.1%, 89,462G)
LordMaxoss: 50G (0.6%, 1,897G)

brown bets:
LAGBOT30000: 2,956G (26.8%, 59,120G)
Zeroroute: 1,908G (17.3%, 5,614G)
JumbocactuarX27: 1,000G (9.1%, 11,895G)
BirbBrainsBot: 875G (7.9%, 135,420G)
leakimiko: 852G (7.7%, 852G)
TheChainNerd: 828G (7.5%, 828G)
marin1987: 620G (5.6%, 620G)
CapnSauce420: 604G (5.5%, 604G)
waterwatereverywhere: 388G (3.5%, 388G)
portmanteur: 280G (2.5%, 2,800G)
Lythe_Caraker: 250G (2.3%, 109,794G)
mexskacin: 100G (0.9%, 6,397G)
Wolfaronie: 100G (0.9%, 100G)
trigger15: 100G (0.9%, 100G)
RunicMagus: 100G (0.9%, 32,701G)
DrAntiSocial: 50G (0.5%, 22,621G)
roqqqpsi: 23G (0.2%, 1,184G)
