Final Bets: purple - 13 bets for 7,966G (53.5%, x0.87); brown - 12 bets for 6,930G (46.5%, x1.15)

purple bets:
latebit: 1,430G (18.0%, 1,430G)
getthemoneyz: 1,000G (12.6%, 2,047,250G)
JumbocactuarX27: 1,000G (12.6%, 4,228G)
Nizaha: 880G (11.0%, 63,928G)
gorgewall: 740G (9.3%, 740G)
killth3kid: 636G (8.0%, 24,229G)
CorpusCav: 500G (6.3%, 9,768G)
bufuman: 500G (6.3%, 1,867G)
ValensEXP_: 376G (4.7%, 8,578G)
ser_pyrro: 304G (3.8%, 304G)
Lord_Gwarth: 300G (3.8%, 1,395G)
datadrivenbot: 200G (2.5%, 77,913G)
SirNotEdu: 100G (1.3%, 360G)

brown bets:
PoroTact: 1,210G (17.5%, 1,210G)
RunicMagus: 1,020G (14.7%, 8,089G)
BirbBrainsBot: 1,000G (14.4%, 74,174G)
mindblownnnn: 1,000G (14.4%, 9,459G)
dogsandcatsand: 712G (10.3%, 4,644G)
AllInBot: 492G (7.1%, 492G)
holdenmagronik: 460G (6.6%, 1,388G)
Cryptopsy70: 384G (5.5%, 1,315G)
itsonlyspencer: 252G (3.6%, 779G)
mirapoix: 200G (2.9%, 1,637G)
Firesheath: 100G (1.4%, 1,799G)
gingerfoo69: 100G (1.4%, 9,232G)
