Final Bets: green - 14 bets for 5,616G (21.2%, x3.71); yellow - 27 bets for 20,830G (78.8%, x0.27)

green bets:
Aldrammech: 1,429G (25.4%, 1,429G)
kai_shee: 1,001G (17.8%, 136,691G)
Pie108: 700G (12.5%, 22,801G)
OmnibotGamma: 500G (8.9%, 6,200G)
Firesheath: 340G (6.1%, 340G)
joewcarson: 300G (5.3%, 6,613G)
killth3kid: 248G (4.4%, 352G)
roqqqpsi: 214G (3.8%, 976G)
Spartan_Paladin: 200G (3.6%, 26,000G)
catfashions: 200G (3.6%, 1,983G)
getthemoneyz: 184G (3.3%, 492,706G)
Lodrak: 100G (1.8%, 4,308G)
DrAntiSocial: 100G (1.8%, 3,215G)
Evewho: 100G (1.8%, 2,748G)

yellow bets:
Jeeboheebo: 3,495G (16.8%, 6,853G)
reinoe: 2,000G (9.6%, 10,630G)
Zbgs: 2,000G (9.6%, 45,977G)
astrozin11: 2,000G (9.6%, 4,865G)
Shalloween: 1,400G (6.7%, 34,935G)
roofiepops: 1,310G (6.3%, 1,310G)
ungabunga_bot: 1,000G (4.8%, 139,050G)
BirbBrainsBot: 1,000G (4.8%, 139,640G)
Lanshaft: 978G (4.7%, 1,956G)
Laserman1000: 800G (3.8%, 8,300G)
fenaen: 682G (3.3%, 682G)
metagameface: 564G (2.7%, 564G)
luminarii: 500G (2.4%, 13,533G)
ZephyrTempest: 402G (1.9%, 58,465G)
datadrivenbot: 334G (1.6%, 334G)
CapnChaos12: 300G (1.4%, 3,137G)
Shadowmare250: 290G (1.4%, 290G)
rico_flex: 287G (1.4%, 5,325G)
daveb_: 250G (1.2%, 4,085G)
AllInBot: 239G (1.1%, 239G)
lunchboxtac: 200G (1.0%, 4,094G)
jame3200: 200G (1.0%, 700G)
WoooBlaaa: 188G (0.9%, 314G)
Jordache7K: 111G (0.5%, 23,017G)
ApplesauceBoss: 100G (0.5%, 7,328G)
Chompie: 100G (0.5%, 2,629G)
Tougou: 100G (0.5%, 3,648G)
