Final Bets: black - 30 bets for 24,491G (63.3%, x0.58); brown - 18 bets for 14,192G (36.7%, x1.73)

black bets:
Zbgs: 5,000G (20.4%, 51,468G)
Jeeboheebo: 4,308G (17.6%, 8,449G)
fenaen: 2,046G (8.4%, 2,046G)
killth3kid: 1,965G (8.0%, 1,965G)
Aldrammech: 1,558G (6.4%, 1,558G)
old_overholt_: 1,000G (4.1%, 10,270G)
OmnibotGamma: 1,000G (4.1%, 8,481G)
MantisFinch: 1,000G (4.1%, 24,158G)
reinoe: 1,000G (4.1%, 9,169G)
WireLord: 911G (3.7%, 911G)
Theseawolf1: 500G (2.0%, 3,711G)
Nickyfive: 468G (1.9%, 468G)
HASTERIOUS: 389G (1.6%, 3,893G)
ungabunga_bot: 376G (1.5%, 139,309G)
Firesheath: 340G (1.4%, 340G)
daveb_: 300G (1.2%, 4,001G)
joewcarson: 300G (1.2%, 6,320G)
CapnChaos12: 300G (1.2%, 3,267G)
electric_glass: 300G (1.2%, 5,774G)
MynenARS: 288G (1.2%, 288G)
KasugaiRoastedPeas: 201G (0.8%, 5,151G)
datadrivenbot: 191G (0.8%, 191G)
AllInBot: 100G (0.4%, 100G)
Lodrak: 100G (0.4%, 4,534G)
ApplesauceBoss: 100G (0.4%, 7,597G)
ko2q: 100G (0.4%, 8,607G)
cougboi: 100G (0.4%, 13,567G)
darkbringer813: 100G (0.4%, 100G)
astrozin11: 100G (0.4%, 5,370G)
DrAntiSocial: 50G (0.2%, 3,124G)

brown bets:
Shakarak: 5,000G (35.2%, 34,132G)
Zeroroute: 3,172G (22.4%, 7,468G)
BirbBrainsBot: 961G (6.8%, 139,933G)
mirapoix: 926G (6.5%, 926G)
Laserman1000: 816G (5.7%, 8,516G)
Lanshaft: 789G (5.6%, 1,579G)
MoonSlayerRS: 448G (3.2%, 448G)
jame3200: 400G (2.8%, 400G)
Shalloween: 400G (2.8%, 34,828G)
HaychDub: 250G (1.8%, 7,098G)
ZephyrTempest: 208G (1.5%, 58,573G)
catfashions: 200G (1.4%, 1,636G)
Evewho: 200G (1.4%, 2,548G)
metagameface: 104G (0.7%, 104G)
ANFz: 100G (0.7%, 2,141G)
RunicMagus: 100G (0.7%, 1,038G)
getthemoneyz: 88G (0.6%, 492,817G)
roqqqpsi: 30G (0.2%, 1,536G)
