Final Bets: purple - 16 bets for 9,221G (46.7%, x1.14); brown - 23 bets for 10,508G (53.3%, x0.88)

purple bets:
Ragnarok784: 3,000G (32.5%, 70,266G)
Dothan89: 1,571G (17.0%, 3,081G)
waterwatereverywhere: 759G (8.2%, 759G)
DeathTaxesAndAnime: 656G (7.1%, 656G)
UmaiJam: 637G (6.9%, 6,371G)
YaBoy125: 600G (6.5%, 600G)
SkylerBunny: 500G (5.4%, 3,833G)
HaateXIII: 316G (3.4%, 316G)
eltejongrande: 296G (3.2%, 296G)
NoNotBees: 212G (2.3%, 212G)
NuSevith: 163G (1.8%, 963G)
byrdturbo: 111G (1.2%, 6,169G)
Slider1012: 100G (1.1%, 255G)
Evewho: 100G (1.1%, 3,574G)
datadrivenbot: 100G (1.1%, 25,019G)
rjA0zcOQ96: 100G (1.1%, 6,227G)

brown bets:
Shalloween: 1,200G (11.4%, 17,720G)
sinnyil2: 1,200G (11.4%, 12,198G)
DarrenDinosaurs: 1,000G (9.5%, 4,858G)
Faplo: 1,000G (9.5%, 11,851G)
ungabunga_bot: 1,000G (9.5%, 86,758G)
BirbBrainsBot: 1,000G (9.5%, 277,967G)
Nocturnal_Perspective: 750G (7.1%, 11,660G)
CapnChaos12: 500G (4.8%, 4,872G)
EnemyController: 400G (3.8%, 34,386G)
BlinkFS: 300G (2.9%, 2,975G)
Tyerenex: 300G (2.9%, 1,204G)
I_nod_my_head_when_I_lose: 300G (2.9%, 17,044G)
R_Raynos: 276G (2.6%, 276G)
CT_5_Holy: 223G (2.1%, 223G)
getthemoneyz: 208G (2.0%, 446,438G)
Jennero: 200G (1.9%, 479G)
KasugaiRoastedPeas: 200G (1.9%, 17,489G)
AllInBot: 100G (1.0%, 100G)
Tougou: 100G (1.0%, 5,241G)
electric_glass: 100G (1.0%, 1,955G)
cougboi: 100G (1.0%, 4,388G)
Sup_Johnny: 50G (0.5%, 746G)
daveb_: 1G (0.0%, 694G)
