Final Bets: red - 9 bets for 5,840G (27.8%, x2.60); yellow - 14 bets for 15,170G (72.2%, x0.38)

red bets:
prince_rogers_nelson_: 2,451G (42.0%, 2,451G)
amiture: 1,000G (17.1%, 36,337G)
TheseJeans: 753G (12.9%, 753G)
AllInBot: 368G (6.3%, 368G)
BoneMiser: 364G (6.2%, 364G)
maximumcrit: 300G (5.1%, 2,094G)
amhamor: 300G (5.1%, 1,454G)
getthemoneyz: 204G (3.5%, 1,439,511G)
BaronHaynes: 100G (1.7%, 6,831G)

yellow bets:
randgridr: 3,913G (25.8%, 19,569G)
sinnyil2: 3,387G (22.3%, 3,387G)
gorgewall: 1,451G (9.6%, 1,451G)
Chuckolator: 1,188G (7.8%, 3,922G)
BirbBrainsBot: 1,000G (6.6%, 28,744G)
Hirameki85: 1,000G (6.6%, 15,980G)
douchetron: 831G (5.5%, 1,630G)
DLJuggernaut: 745G (4.9%, 1,462G)
EnemyController: 555G (3.7%, 1,530,268G)
nekojin: 500G (3.3%, 17,916G)
gooblz: 200G (1.3%, 2,866G)
datadrivenbot: 200G (1.3%, 46,418G)
fluffskull: 100G (0.7%, 3,504G)
Firesheath: 100G (0.7%, 3,172G)
