Final Bets: yellow - 10 bets for 9,160G (46.7%, x1.14); white - 14 bets for 10,454G (53.3%, x0.88)

yellow bets:
NicoSavoy: 2,000G (21.8%, 344,161G)
UmaiJam: 2,000G (21.8%, 45,870G)
BoneMiser: 1,364G (14.9%, 1,364G)
BirbBrainsBot: 1,000G (10.9%, 30,812G)
douchetron: 999G (10.9%, 1,960G)
Chuckolator: 697G (7.6%, 5,378G)
nekojin: 500G (5.5%, 19,445G)
gooblz: 300G (3.3%, 3,747G)
TheseJeans: 200G (2.2%, 1,547G)
Firesheath: 100G (1.1%, 4,410G)

white bets:
amiture: 3,000G (28.7%, 40,387G)
prince_rogers_nelson_: 1,664G (15.9%, 1,664G)
sinnyil2: 1,173G (11.2%, 2,346G)
EnemyController: 1,111G (10.6%, 1,538,092G)
DLJuggernaut: 858G (8.2%, 858G)
gorgewall: 792G (7.6%, 792G)
amhamor: 654G (6.3%, 654G)
maximumcrit: 400G (3.8%, 3,976G)
AllInBot: 200G (1.9%, 200G)
mirapoix: 200G (1.9%, 2,077G)
datadrivenbot: 200G (1.9%, 46,295G)
fluffskull: 100G (1.0%, 3,442G)
BaronHaynes: 100G (1.0%, 7,731G)
getthemoneyz: 2G (0.0%, 1,439,644G)
