Final Bets: white - 17 bets for 11,793G (33.6%, x1.98); black - 21 bets for 23,345G (66.4%, x0.51)

white bets:
snkey: 1,514G (12.8%, 15,114G)
Twisted_Nutsatchel: 1,415G (12.0%, 1,415G)
DeathTaxesAndAnime: 1,056G (9.0%, 1,056G)
killth3kid: 1,000G (8.5%, 40,439G)
getthemoneyz: 1,000G (8.5%, 1,901,737G)
BirbBrainsBot: 1,000G (8.5%, 180,883G)
Lord_Gwarth: 1,000G (8.5%, 12,185G)
Virilikus: 1,000G (8.5%, 239,385G)
Zeroroute: 608G (5.2%, 608G)
Phi_Sig: 555G (4.7%, 27,806G)
TheMurkGnome: 417G (3.5%, 7,905G)
Wonser: 360G (3.1%, 1,212G)
brodeity: 264G (2.2%, 264G)
ribbiks: 200G (1.7%, 925G)
biske13: 200G (1.7%, 1,175G)
acid_flashback: 104G (0.9%, 3,499G)
nhammen: 100G (0.8%, 416,781G)

black bets:
reinoe: 6,736G (28.9%, 6,736G)
Mesmaster: 5,000G (21.4%, 233,676G)
E_Ballard: 3,055G (13.1%, 3,055G)
Thyrandaal: 1,250G (5.4%, 1,250G)
latebit: 1,200G (5.1%, 10,894G)
SkylerBunny: 1,000G (4.3%, 11,659G)
BappleTrees: 884G (3.8%, 884G)
krombobreaker: 500G (2.1%, 3,329G)
mindblownnnn: 500G (2.1%, 4,254G)
Dasutin23: 468G (2.0%, 9,112G)
Kellios11: 437G (1.9%, 437G)
loveyouallfriends: 396G (1.7%, 396G)
CorpusCav: 388G (1.7%, 30,688G)
bigbongsmoker: 300G (1.3%, 1,636G)
SephDarkheart: 296G (1.3%, 296G)
aceof86: 256G (1.1%, 256G)
khelor_: 200G (0.9%, 2,976G)
datadrivenbot: 200G (0.9%, 56,958G)
AllInBot: 169G (0.7%, 169G)
ANFz: 100G (0.4%, 7,917G)
BartTradingCompany: 10G (0.0%, 107G)
