Final Bets: red - 14 bets for 6,054G (41.4%, x1.41); blue - 22 bets for 8,562G (58.6%, x0.71)

red bets:
Thyrandaal: 1,182G (19.5%, 1,182G)
BirbBrainsBot: 1,000G (16.5%, 176,879G)
NicoSavoy: 1,000G (16.5%, 40,361G)
getthemoneyz: 730G (12.1%, 1,901,942G)
lowlf: 492G (8.1%, 7,886G)
snkey: 428G (7.1%, 8,982G)
heyBtw: 340G (5.6%, 340G)
CapnChaos12: 300G (5.0%, 2,108G)
aeonicvector: 172G (2.8%, 992G)
readdesert: 100G (1.7%, 2,470G)
latebit: 100G (1.7%, 1,446G)
Lushifah: 100G (1.7%, 4,691G)
vikiz889: 100G (1.7%, 1,697G)
BartTradingCompany: 10G (0.2%, 106G)

blue bets:
DarrenDinosaurs: 1,436G (16.8%, 1,436G)
roofiepops: 970G (11.3%, 970G)
Zagorsek: 866G (10.1%, 866G)
Laserman1000: 858G (10.0%, 4,658G)
FriendSquirrel: 709G (8.3%, 709G)
old_overholt_: 500G (5.8%, 22,794G)
Dasutin23: 464G (5.4%, 8,889G)
DaveStrider55: 412G (4.8%, 412G)
SephDarkheart: 363G (4.2%, 363G)
rocl: 250G (2.9%, 1,292G)
madmikeblvd: 241G (2.8%, 1,209G)
AllInBot: 239G (2.8%, 239G)
datadrivenbot: 200G (2.3%, 58,215G)
W0RLDEND: 200G (2.3%, 7,038G)
turquoise_mage: 200G (2.3%, 1,561G)
BappleTrees: 104G (1.2%, 104G)
RunicMagus: 100G (1.2%, 6,767G)
Tsuike: 100G (1.2%, 1,062G)
RuneS_77: 100G (1.2%, 16,960G)
nhammen: 100G (1.2%, 400,422G)
CorpusCav: 100G (1.2%, 28,005G)
moonliquor: 50G (0.6%, 62,056G)
