Final Bets: white - 17 bets for 8,172G (45.5%, x1.20); black - 15 bets for 9,800G (54.5%, x0.83)

white bets:
turquoise_mage: 1,202G (14.7%, 1,202G)
brokenknight201: 1,200G (14.7%, 28,867G)
DeathTaxesAndAnime: 1,044G (12.8%, 1,044G)
FoeSquirrel: 771G (9.4%, 1,543G)
DaveStrider55: 703G (8.6%, 703G)
FriendSquirrel: 692G (8.5%, 692G)
Zagorsek: 684G (8.4%, 684G)
Dasutin23: 464G (5.7%, 8,753G)
rocl: 392G (4.8%, 392G)
Cryptopsy70: 356G (4.4%, 1,135G)
datadrivenbot: 200G (2.4%, 58,494G)
aceof86: 104G (1.3%, 104G)
AllInBot: 100G (1.2%, 100G)
Tsuike: 100G (1.2%, 1,202G)
latebit: 100G (1.2%, 1,415G)
moonliquor: 50G (0.6%, 62,160G)
BartTradingCompany: 10G (0.1%, 100G)

black bets:
reinoe: 3,000G (30.6%, 14,921G)
CapnChaos12: 1,508G (15.4%, 1,508G)
EnemyController: 1,111G (11.3%, 1,726,925G)
BirbBrainsBot: 1,000G (10.2%, 176,218G)
thunderducker: 572G (5.8%, 572G)
DarrenDinosaurs: 500G (5.1%, 2,797G)
lowlf: 492G (5.0%, 7,734G)
getthemoneyz: 358G (3.7%, 1,900,978G)
Lushifah: 300G (3.1%, 5,543G)
SephDarkheart: 292G (3.0%, 292G)
heyBtw: 189G (1.9%, 189G)
BappleTrees: 178G (1.8%, 178G)
RuneS_77: 100G (1.0%, 17,100G)
Sietaha: 100G (1.0%, 17,249G)
RunicMagus: 100G (1.0%, 6,838G)
