Final Bets: green - 12 bets for 26,960G (88.7%, x0.13); yellow - 5 bets for 3,422G (11.3%, x7.88)

green bets:
DeathTaxesAndAnime: 22,336G (82.8%, 43,797G)
getthemoneyz: 900G (3.3%, 1,793,732G)
BartTradingCompany: 626G (2.3%, 6,269G)
iBardic: 500G (1.9%, 9,509G)
KasugaiRoastedPeas: 480G (1.8%, 480G)
Lemonjohns: 420G (1.6%, 1,933G)
Tarheels218: 408G (1.5%, 408G)
SeniorBunk: 400G (1.5%, 26,965G)
Raixelol: 340G (1.3%, 395G)
Mushufasa_: 250G (0.9%, 4,639G)
datadrivenbot: 200G (0.7%, 63,981G)
Vultuous: 100G (0.4%, 689G)

yellow bets:
rocl: 1,000G (29.2%, 30,898G)
3ngag3: 1,000G (29.2%, 14,000G)
BirbBrainsBot: 910G (26.6%, 194,089G)
ColetteMSLP: 412G (12.0%, 412G)
brenogarwin: 100G (2.9%, 10,516G)
