Final Bets: blue - 11 bets for 17,685G (44.0%, x1.27); brown - 12 bets for 22,515G (56.0%, x0.79)

blue bets:
brenogarwin: 10,953G (61.9%, 10,953G)
BirbBrainsBot: 1,000G (5.7%, 196,935G)
iBardic: 1,000G (5.7%, 11,165G)
Wrath189: 914G (5.2%, 914G)
BartTradingCompany: 700G (4.0%, 7,002G)
getthemoneyz: 624G (3.5%, 1,791,822G)
Tarheels218: 621G (3.5%, 621G)
SephDarkheart: 600G (3.4%, 187,067G)
KasugaiRoastedPeas: 541G (3.1%, 541G)
run_with_stone_GUNs: 512G (2.9%, 31,954G)
HentaiWriter: 220G (1.2%, 220G)

brown bets:
DeathTaxesAndAnime: 15,875G (70.5%, 31,129G)
Willjin: 2,000G (8.9%, 92,222G)
3ngag3: 1,299G (5.8%, 15,299G)
Mushufasa_: 800G (3.6%, 11,179G)
VolgraTheMoose: 501G (2.2%, 191,122G)
TheMurkGnome: 500G (2.2%, 8,976G)
rocl: 500G (2.2%, 29,932G)
Raixelol: 340G (1.5%, 340G)
krombobreaker: 200G (0.9%, 1,127G)
SeniorBunk: 200G (0.9%, 27,252G)
datadrivenbot: 200G (0.9%, 65,780G)
Vultuous: 100G (0.4%, 3,352G)
