Final Bets: purple - 11 bets for 5,708G (66.3%, x0.51); brown - 9 bets for 2,900G (33.7%, x1.97)

purple bets:
upvla: 2,000G (35.0%, 26,541G)
CassiePhoenix: 1,091G (19.1%, 1,091G)
DHaveWord: 456G (8.0%, 456G)
SephDarkheart: 424G (7.4%, 4,105G)
ValensEXP_: 412G (7.2%, 5,333G)
bigbongsmoker: 364G (6.4%, 364G)
Rune339: 297G (5.2%, 297G)
Lolthsmeat: 244G (4.3%, 1,354G)
datadrivenbot: 200G (3.5%, 79,934G)
VynxYukida: 120G (2.1%, 120G)
king_smashington: 100G (1.8%, 3,035G)

brown bets:
DeathTaxesAndAnime: 872G (30.1%, 872G)
khelor_: 500G (17.2%, 1,671G)
mindblownnnn: 451G (15.6%, 451G)
TheSabretoothe: 276G (9.5%, 276G)
AllInBot: 200G (6.9%, 200G)
Foamsoldier: 200G (6.9%, 2,389G)
getthemoneyz: 178G (6.1%, 2,097,154G)
Widewalk: 121G (4.2%, 121G)
BirbBrainsBot: 102G (3.5%, 24,845G)
