Final Bets: white - 16 bets for 13,350G (64.9%, x0.54); black - 13 bets for 7,216G (35.1%, x1.85)

white bets:
HaateXIII: 2,142G (16.0%, 2,142G)
Mesmaster: 1,810G (13.6%, 1,810G)
Firesheath: 1,345G (10.1%, 1,345G)
roofiepops: 1,333G (10.0%, 4,544G)
Nohurty: 1,151G (8.6%, 1,151G)
BirbBrainsBot: 1,000G (7.5%, 30,841G)
gooseyourself: 1,000G (7.5%, 5,347G)
Thyrandaal: 1,000G (7.5%, 52,020G)
E_Ballard: 977G (7.3%, 977G)
nifboy: 632G (4.7%, 632G)
DLJuggernaut: 263G (2.0%, 1,315G)
Lythe_Caraker: 250G (1.9%, 117,241G)
old_overholt_: 200G (1.5%, 26,491G)
roqqqpsi: 176G (1.3%, 17,604G)
IphoneDarkness: 60G (0.4%, 2,482G)
daveb_: 11G (0.1%, 1,067G)

black bets:
DeathTaxesAndAnime: 1,970G (27.3%, 3,864G)
dogsandcatsand: 1,175G (16.3%, 1,175G)
Sairentozon7: 1,000G (13.9%, 3,169G)
rockmem21: 800G (11.1%, 10,495G)
CorpusCav: 724G (10.0%, 724G)
Zbgs: 384G (5.3%, 384G)
gorgewall: 301G (4.2%, 2,852G)
ColetteMSLP: 228G (3.2%, 228G)
DAC169: 184G (2.5%, 184G)
getthemoneyz: 150G (2.1%, 867,212G)
lastly: 100G (1.4%, 12,000G)
Sans_from_Snowdin: 100G (1.4%, 23,037G)
Quadh0nk: 100G (1.4%, 991G)
