Final Bets: red - 29 bets for 21,068G (63.2%, x0.58); blue - 19 bets for 12,246G (36.8%, x1.72)

red bets:
Jeeboheebo: 2,277G (10.8%, 2,277G)
BenYuPoker: 2,101G (10.0%, 4,202G)
DeathTaxesAndAnime: 1,630G (7.7%, 3,197G)
Zeroroute: 1,502G (7.1%, 1,502G)
ko2q: 1,231G (5.8%, 1,231G)
kai_shee: 1,001G (4.8%, 93,442G)
kingchadking: 1,000G (4.7%, 47,481G)
BirbBrainsBot: 1,000G (4.7%, 263,273G)
Slowbrofist: 850G (4.0%, 850G)
OneHundredFists: 820G (3.9%, 820G)
Aldrammech: 775G (3.7%, 7,754G)
SkylerBunny: 736G (3.5%, 736G)
ungabunga_bot: 694G (3.3%, 64,138G)
Shalloween: 621G (2.9%, 621G)
moonliquor: 586G (2.8%, 1,173G)
Maeveen: 571G (2.7%, 571G)
Laserman1000: 546G (2.6%, 9,046G)
Pie108: 500G (2.4%, 5,654G)
red__lancer: 500G (2.4%, 22,952G)
upvla: 452G (2.1%, 37,407G)
TheGuesty: 400G (1.9%, 4,983G)
luminarii: 365G (1.7%, 11,132G)
proper__noun__: 300G (1.4%, 1,539G)
Meanderandreturn: 200G (0.9%, 631G)
Lodrak: 100G (0.5%, 3,544G)
Tougou: 100G (0.5%, 6,856G)
datadrivenbot: 100G (0.5%, 24,499G)
ApplesauceBoss: 100G (0.5%, 6,279G)
DrAntiSocial: 10G (0.0%, 756G)

blue bets:
Lanshaft: 5,357G (43.7%, 10,714G)
JackOnFire1: 1,125G (9.2%, 4,500G)
OmnibotGamma: 1,052G (8.6%, 1,052G)
Nizaha: 739G (6.0%, 1,478G)
reinoe: 596G (4.9%, 596G)
mirapoix: 496G (4.1%, 992G)
getthemoneyz: 366G (3.0%, 439,911G)
HeroponThrawn: 320G (2.6%, 320G)
CapnChaos12: 300G (2.4%, 2,566G)
Evewho: 300G (2.4%, 5,427G)
fenaen: 300G (2.4%, 5,144G)
Tithonus: 200G (1.6%, 13,820G)
Anomandaris__: 200G (1.6%, 1,575G)
KasugaiRoastedPeas: 200G (1.6%, 13,082G)
EnemyController: 200G (1.6%, 32,091G)
AllInBot: 195G (1.6%, 195G)
GingerDynomite: 100G (0.8%, 1,327G)
old_overholt_: 100G (0.8%, 7,538G)
maakur_: 100G (0.8%, 3,426G)
