Final Bets: yellow - 20 bets for 18,502G (64.6%, x0.55); champion - 18 bets for 10,157G (35.4%, x1.82)

yellow bets:
Zbgs: 8,180G (44.2%, 8,180G)
SephDarkheart: 1,349G (7.3%, 1,349G)
TheMurkGnome: 1,062G (5.7%, 6,586G)
nifboy: 1,000G (5.4%, 6,850G)
BoneMiser: 895G (4.8%, 895G)
omegasuspekt: 851G (4.6%, 1,702G)
coralreeferz: 850G (4.6%, 24,533G)
killth3kid: 825G (4.5%, 825G)
VolgraTheMoose: 796G (4.3%, 796G)
Oreo_Pizza: 500G (2.7%, 36,131G)
Xoomwaffle: 336G (1.8%, 3,151G)
TasisSai: 300G (1.6%, 2,451G)
SomeCallMeGON: 300G (1.6%, 2,522G)
chapchansan: 300G (1.6%, 1,805G)
mattcorn7: 242G (1.3%, 242G)
getthemoneyz: 216G (1.2%, 1,393,776G)
datadrivenbot: 200G (1.1%, 39,916G)
victoriolue: 100G (0.5%, 1,682G)
mrpickins: 100G (0.5%, 6,367G)
Firesheath: 100G (0.5%, 11,540G)

champion bets:
Shalloween: 2,400G (23.6%, 106,469G)
Chaerie: 1,889G (18.6%, 1,889G)
BirbBrainsBot: 1,000G (9.8%, 96,158G)
resjudicata3: 668G (6.6%, 668G)
Seaweed_B: 500G (4.9%, 1,535G)
rabbitlogik: 500G (4.9%, 4,887G)
Laserman1000: 400G (3.9%, 2,500G)
slotheye17: 382G (3.8%, 382G)
nhammen: 381G (3.8%, 15,223G)
Error72: 368G (3.6%, 368G)
superdevon1: 341G (3.4%, 34,106G)
RageImmortaI: 312G (3.1%, 4,146G)
Treafa: 300G (3.0%, 518G)
gorgewall: 201G (2.0%, 6,764G)
AllInBot: 200G (2.0%, 200G)
Lydian_C: 121G (1.2%, 22,064G)
douchetron: 101G (1.0%, 1,363G)
ArlanKels: 93G (0.9%, 3,123G)
