Final Bets: red - 22 bets for 10,503G (39.0%, x1.56); blue - 17 bets for 16,417G (61.0%, x0.64)

red bets:
nifboy: 1,116G (10.6%, 1,116G)
killth3kid: 1,000G (9.5%, 15,947G)
BirbBrainsBot: 1,000G (9.5%, 151,872G)
Rislyeu: 1,000G (9.5%, 34,589G)
dogsandcatsand: 777G (7.4%, 9,661G)
HaateXIII: 728G (6.9%, 728G)
Aldrammech: 575G (5.5%, 5,752G)
Digitalsocrates: 500G (4.8%, 46,676G)
clippopo: 500G (4.8%, 39,461G)
Baron_von_Scrub: 474G (4.5%, 62,214G)
woohoo_brokeback: 444G (4.2%, 8,848G)
metagameface: 384G (3.7%, 384G)
coralreeferz: 350G (3.3%, 3,173G)
twelfthrootoftwo: 324G (3.1%, 324G)
CapnChaos12: 300G (2.9%, 9,192G)
benticore: 231G (2.2%, 4,634G)
Kithmar796: 200G (1.9%, 2,401G)
Evewho: 200G (1.9%, 11,229G)
AllInBot: 100G (1.0%, 100G)
xeurian: 100G (1.0%, 4,497G)
CosmicTactician: 100G (1.0%, 24,767G)
cogniv0r3: 100G (1.0%, 2,617G)

blue bets:
ruleof5: 7,692G (46.9%, 7,692G)
Thyrandaal: 2,000G (12.2%, 4,876G)
DLJuggernaut: 1,000G (6.1%, 11,350G)
EnemyController: 1,000G (6.1%, 570,541G)
ko2q: 1,000G (6.1%, 2,378G)
Mesmaster: 1,000G (6.1%, 65,973G)
LordSDB: 500G (3.0%, 7,654G)
shannahan45: 500G (3.0%, 1,000G)
cam_ATS: 500G (3.0%, 13,275G)
richardserious: 236G (1.4%, 2,365G)
fluffskull: 228G (1.4%, 228G)
gorgewall: 201G (1.2%, 14,673G)
Snowfats: 140G (0.9%, 140G)
IphoneDarkness: 120G (0.7%, 120G)
Lythe_Caraker: 100G (0.6%, 118,062G)
datadrivenbot: 100G (0.6%, 36,178G)
NeoKevlar: 100G (0.6%, 2,067G)
