Final Bets: purple - 14 bets for 5,250G (29.3%, x2.42); brown - 17 bets for 12,693G (70.7%, x0.41)

purple bets:
BirbBrainsBot: 1,000G (19.0%, 150,867G)
Kalabain: 600G (11.4%, 11,326G)
Aldrammech: 546G (10.4%, 5,468G)
Cryptopsy70: 528G (10.1%, 9,514G)
Firesheath: 500G (9.5%, 500G)
sparker9: 400G (7.6%, 3,879G)
CapnChaos12: 300G (5.7%, 9,727G)
twelfthrootoftwo: 300G (5.7%, 1,146G)
getthemoneyz: 276G (5.3%, 922,354G)
AllInBot: 200G (3.8%, 200G)
KasugaiRoastedPeas: 200G (3.8%, 4,608G)
brokenknight201: 200G (3.8%, 2,991G)
Evewho: 100G (1.9%, 11,661G)
IphoneDarkness: 100G (1.9%, 1,652G)

brown bets:
HaateXIII: 2,914G (23.0%, 2,914G)
Thyrandaal: 2,000G (15.8%, 9,965G)
SkylerBunny: 1,500G (11.8%, 100,011G)
maakur_: 1,180G (9.3%, 1,180G)
Baron_von_Scrub: 1,111G (8.8%, 61,766G)
YaBoy125: 1,036G (8.2%, 1,036G)
CorpusCav: 867G (6.8%, 867G)
OneHundredFists: 500G (3.9%, 56,311G)
metagameface: 384G (3.0%, 384G)
gorgewall: 301G (2.4%, 15,306G)
Miku_Shikhu: 200G (1.6%, 15,171G)
fluffskull: 200G (1.6%, 621G)
E_Ballard: 100G (0.8%, 5,805G)
ko2q: 100G (0.8%, 3,318G)
datadrivenbot: 100G (0.8%, 36,408G)
CosmicTactician: 100G (0.8%, 24,233G)
cogniv0r3: 100G (0.8%, 3,083G)
