Final Bets: red - 13 bets for 6,642G (51.6%, x0.94); purple - 7 bets for 6,223G (48.4%, x1.07)

red bets:
Mesmaster: 2,000G (30.1%, 51,351G)
HaplessOne: 999G (15.0%, 12,841G)
ungabunga_bot: 945G (14.2%, 290,017G)
gorgewall: 600G (9.0%, 16,499G)
Odin007_88: 500G (7.5%, 6,989G)
Jaritras: 427G (6.4%, 854G)
Lythe_Caraker: 250G (3.8%, 119,721G)
lobsterlobster: 244G (3.7%, 244G)
twelfthrootoftwo: 200G (3.0%, 4,518G)
ccordc: 200G (3.0%, 200G)
ko2q: 100G (1.5%, 2,261G)
datadrivenbot: 100G (1.5%, 11,419G)
Ross_from_Cali: 77G (1.2%, 12,821G)

purple bets:
leakimiko: 2,541G (40.8%, 31,763G)
reinoe: 2,000G (32.1%, 19,200G)
BirbBrainsBot: 1,000G (16.1%, 156,458G)
vorap: 300G (4.8%, 27,553G)
getthemoneyz: 182G (2.9%, 610,936G)
midori_ribbon: 100G (1.6%, 452G)
RestIessNight: 100G (1.6%, 100G)
