Final Bets: black - 22 bets for 12,436G (57.4%, x0.74); brown - 13 bets for 9,233G (42.6%, x1.35)

black bets:
HaplessOne: 1,076G (8.7%, 1,076G)
NicoSavoy: 1,000G (8.0%, 16,276G)
theNGUYENNER: 1,000G (8.0%, 5,487G)
BirbBrainsBot: 1,000G (8.0%, 140,892G)
JumbocactuarX27: 1,000G (8.0%, 22,327G)
Lionhermit: 1,000G (8.0%, 44,518G)
Velixtra: 900G (7.2%, 961G)
HorusTaurus: 660G (5.3%, 660G)
RunicMagus: 600G (4.8%, 46,329G)
R_Raynos: 532G (4.3%, 532G)
Evewho: 532G (4.3%, 532G)
CapnChaos12: 500G (4.0%, 50,711G)
luminarii: 500G (4.0%, 13,770G)
duckfist: 500G (4.0%, 4,332G)
gorgewall: 300G (2.4%, 3,969G)
Jaritras: 276G (2.2%, 276G)
SuicideKing_XIX: 200G (1.6%, 1,704G)
cupholderr: 200G (1.6%, 2,621G)
mikesk1: 200G (1.6%, 3,506G)
SirCherish: 191G (1.5%, 191G)
byrdturbo: 169G (1.4%, 2,451G)
datadrivenbot: 100G (0.8%, 14,086G)

brown bets:
roofiepops: 2,079G (22.5%, 2,079G)
killth3kid: 2,000G (21.7%, 49,605G)
maakur_: 1,208G (13.1%, 1,208G)
ungabunga_bot: 1,000G (10.8%, 425,057G)
concles: 1,000G (10.8%, 9,908G)
Baron_von_Scrub: 474G (5.1%, 9,577G)
ZephyrTempest: 456G (4.9%, 1,179G)
Cryptopsy70: 408G (4.4%, 3,736G)
Setdevildog: 300G (3.2%, 3,673G)
carsenhk: 150G (1.6%, 20,317G)
aznwanderor: 100G (1.1%, 7,176G)
GnielKnows: 50G (0.5%, 2,101G)
getthemoneyz: 8G (0.1%, 646,077G)
