Final Bets: red - 15 bets for 11,236G (67.9%, x0.47); blue - 9 bets for 5,324G (32.1%, x2.11)

red bets:
roofiepops: 3,333G (29.7%, 14,171G)
kaelsun: 2,000G (17.8%, 3,201G)
LightSCT: 1,550G (13.8%, 1,550G)
lowlf: 1,205G (10.7%, 24,689G)
OneHundredFists: 580G (5.2%, 580G)
Shalloween: 571G (5.1%, 571G)
MADTheta: 500G (4.4%, 9,059G)
letdowncity: 500G (4.4%, 8,784G)
kaidykat: 300G (2.7%, 12,175G)
cogniv0r3: 199G (1.8%, 199G)
Lawndough: 168G (1.5%, 168G)
maakur_: 100G (0.9%, 6,165G)
datadrivenbot: 100G (0.9%, 29,116G)
Flameatron: 100G (0.9%, 5,143G)
ItsT0M: 30G (0.3%, 191G)

blue bets:
Lionhermit: 1,364G (25.6%, 1,364G)
BirbBrainsBot: 1,000G (18.8%, 101,288G)
getthemoneyz: 704G (13.2%, 772,426G)
E_Ballard: 628G (11.8%, 628G)
CorpusCav: 500G (9.4%, 11,437G)
Powerpinch: 500G (9.4%, 5,940G)
rjA0zcOQ96: 328G (6.2%, 328G)
alterworlds: 200G (3.8%, 4,709G)
ZombiFrancis: 100G (1.9%, 2,313G)
