Final Bets: red - 16 bets for 8,857G (61.7%, x0.62); yellow - 10 bets for 5,495G (38.3%, x1.61)

red bets:
fenaen: 1,535G (17.3%, 3,071G)
Gelwain: 1,500G (16.9%, 10,569G)
kai_shee: 1,001G (11.3%, 123,422G)
Arunic: 1,000G (11.3%, 26,376G)
catfashions: 1,000G (11.3%, 16,342G)
datadrivenbot: 911G (10.3%, 24,408G)
Wonser: 497G (5.6%, 994G)
MoonSlayerRS: 424G (4.8%, 424G)
KasugaiRoastedPeas: 200G (2.3%, 10,898G)
RubenFlonne: 200G (2.3%, 2,014G)
madming25: 104G (1.2%, 104G)
moonliquor: 100G (1.1%, 680G)
maakur_: 100G (1.1%, 2,733G)
wollise89: 100G (1.1%, 135G)
arch8000: 100G (1.1%, 6,728G)
SkeletorRS: 85G (1.0%, 856G)

yellow bets:
Lanshaft: 2,572G (46.8%, 2,572G)
BirbBrainsBot: 1,000G (18.2%, 60,814G)
LDSkinny: 849G (15.5%, 849G)
roqqqpsi: 318G (5.8%, 2,897G)
ZephyrTempest: 262G (4.8%, 51,115G)
AllInBot: 142G (2.6%, 142G)
RunicMagus: 100G (1.8%, 1,003G)
lifeguard_dan: 100G (1.8%, 3,035G)
ko2q: 100G (1.8%, 4,027G)
getthemoneyz: 52G (0.9%, 471,906G)
