Final Bets: white - 8 bets for 3,272G (17.5%, x4.73); purple - 20 bets for 15,476G (82.5%, x0.21)

white bets:
catfashions: 1,002G (30.6%, 16,962G)
kai_shee: 1,001G (30.6%, 124,043G)
Pie108: 700G (21.4%, 16,430G)
madming25: 169G (5.2%, 169G)
AllInBot: 100G (3.1%, 100G)
moonliquor: 100G (3.1%, 742G)
IndecisiveNinja: 100G (3.1%, 3,983G)
old_overholt_: 100G (3.1%, 8,345G)

purple bets:
Nickyfive: 5,146G (33.3%, 20,585G)
volgrathemoose: 3,304G (21.3%, 11,016G)
datadrivenbot: 873G (5.6%, 24,973G)
BirbBrainsBot: 851G (5.5%, 59,814G)
MoonSlayerRS: 687G (4.4%, 687G)
Lanshaft: 600G (3.9%, 600G)
KasugaiRoastedPeas: 600G (3.9%, 11,022G)
Lodrak: 544G (3.5%, 544G)
OneHundredFists: 500G (3.2%, 2,450G)
ZephyrTempest: 339G (2.2%, 50,853G)
getthemoneyz: 334G (2.2%, 471,854G)
Firesheath: 328G (2.1%, 328G)
Wonser: 302G (2.0%, 302G)
DrAntiSocial: 292G (1.9%, 292G)
roqqqpsi: 283G (1.8%, 2,579G)
Carledo: 103G (0.7%, 2,183G)
maakur_: 100G (0.6%, 2,795G)
ko2q: 100G (0.6%, 3,927G)
lifeguard_dan: 100G (0.6%, 2,935G)
SkeletorRS: 90G (0.6%, 909G)
