High Risers:
1. Daveniii: +14,163G
2. Thyrandaal: +8,586G
3. Mushufasa_: +3,730G
4. Neerrm: +2,531G
5. Volgrathemoose: +2,436G
6. Squidsquarklin: +2,356G
7. Fenaen: +2,189G
8. Projekt_mike: +1,357G
9. Mudrockk: +1,349G
10. Latebit: +1,277G
11. Holandrix: +1,074G
12. Dogsandcatsand: +1,036G
13. Runeseeker22: +767G
14. Cryptopsy70: +635G
15. Shalloween: +588G
16. Lwtest: +568G
17. Stealthmodelocke: +500G
18. Lythe_caraker: +500G
19. Forkmore: +500G
20. Error72: +500G
21. Cosmictactician: +500G
22. Kronikle: +500G
23. Galkife: +500G
24. Ldskinny: +500G
25. Just_here2: +500G
26. Powergems: +500G
27. Zckaiser: +500G
28. Smashy: +500G
29. Maakur_: +500G
30. Tarheels218: +500G
31. Reddwind_: +500G
32. Bpc2163: +500G
33. Porotact: +500G
34. Butterbelljedi: +500G
35. Friendsquirrel: +500G
36. Haatexiii: +500G
37. Pplvee1: +500G
38. Randgridr: +500G
39. Laserman1000: +496G
40. Jumbocactuarx27: +479G
41. Runicmagus: +455G
42. Smugzug: +430G
43. Lyner87: +421G
44. Mmagnetman: +375G
45. Dasutin23: +368G
46. Killth3kid: +330G
47. Ruleof5: +200G
48. Kasugairoastedpeas: +166G
49. Nhammen: +132G
50. Run_with_stone_guns: +104G
51. Phi_sig: +100G
52. Corpuscav: +99G
53. Juggalettefurbaby420: +88G
54. Raixelol: +66G
55. Formerlydrdong: +57G
56. Joewcarson: +55G
57. Lowlf: +36G
58. Kellios11: +34G
59. Foesquirrel: +4G
60. Arumz: +1G
61. Nekojin: -80G
62. Bongomon7: -100G
63. Furever: -100G
64. Novaknight21: -200G
65. E_ballard: -237G
66. Douchetron: -251G
67. Robotocelot: -312G
68. Brokenknight201: -380G
69. Holdenmagronik: -421G
70. Roofiepops: -436G
71. J2dabibbles: -500G
72. Actual_jp: -500G
73. Bonemiser: -651G
74. Acid_flashback: -655G
75. Krombobreaker: -674G
76. Zbgs: -700G
77. Nizaha: -854G
78. Old_overholt_: -880G
79. Brenogarwin: -1,000G
80. Bigbongsmoker: -1,128G
81. Gorgewall: -1,202G
82. Vorap: -1,500G
83. Sephdarkheart: -1,735G
84. Truthdefined: -1,768G
85. Lord_gwarth: -2,150G
86. Deathtaxesandanime: -2,216G
87. Acrusade: -2,280G
88. Rocl: -3,677G
89. Lifebregin: -4,000G
