Final Bets: green - 13 bets for 8,787G (27.3%, x2.67); yellow - 23 bets for 23,429G (72.7%, x0.38)

green bets:
rocl: 2,500G (28.5%, 9,940G)
DeathTaxesAndAnime: 1,118G (12.7%, 1,118G)
Lifebregin: 1,000G (11.4%, 23,840G)
Nizaha: 816G (9.3%, 78,548G)
roofiepops: 797G (9.1%, 797G)
holdenmagronik: 600G (6.8%, 4,002G)
douchetron: 571G (6.5%, 571G)
nekojin: 540G (6.1%, 540G)
gorgewall: 301G (3.4%, 2,464G)
FURever: 208G (2.4%, 208G)
arumz: 200G (2.3%, 19,538G)
Lyner87: 100G (1.1%, 98,781G)
getthemoneyz: 36G (0.4%, 1,812,273G)

yellow bets:
DavenIII: 5,453G (23.3%, 10,694G)
Thyrandaal: 5,000G (21.3%, 9,877G)
SQUiDSQUARKLIN: 1,830G (7.8%, 1,830G)
dogsandcatsand: 1,429G (6.1%, 1,429G)
fenaen: 1,123G (4.8%, 1,123G)
MMagnetMan: 1,000G (4.3%, 71,488G)
BirbBrainsBot: 1,000G (4.3%, 113,956G)
JumbocactuarX27: 901G (3.8%, 901G)
E_Ballard: 884G (3.8%, 133,100G)
Dasutin23: 585G (2.5%, 585G)
Mudrockk: 500G (2.1%, 16,793G)
CorpusCav: 500G (2.1%, 5,665G)
RobotOcelot: 500G (2.1%, 28,023G)
neerrm: 460G (2.0%, 460G)
Laserman1000: 412G (1.8%, 2,012G)
Cryptopsy70: 348G (1.5%, 903G)
TruthDefined: 300G (1.3%, 1,768G)
krombobreaker: 288G (1.2%, 7,616G)
Runeseeker22: 256G (1.1%, 256G)
datadrivenbot: 200G (0.9%, 62,784G)
joewcarson: 200G (0.9%, 11,431G)
acid_flashback: 140G (0.6%, 140G)
Zerguzen: 120G (0.5%, 120G)
