Final Bets: yellow - 18 bets for 15,836G (65.8%, x0.52); champion - 16 bets for 8,236G (34.2%, x1.92)

yellow bets:
Thyrandaal: 6,000G (37.9%, 15,002G)
Mushufasa_: 2,000G (12.6%, 35,679G)
DavenIII: 1,500G (9.5%, 23,492G)
BirbBrainsBot: 1,000G (6.3%, 115,191G)
brokenknight201: 800G (5.1%, 32,024G)
JumbocactuarX27: 757G (4.8%, 757G)
fenaen: 572G (3.6%, 2,820G)
joewcarson: 500G (3.2%, 12,126G)
Mudrockk: 500G (3.2%, 17,882G)
CorpusCav: 449G (2.8%, 5,794G)
Raixelol: 400G (2.5%, 400G)
KasugaiRoastedPeas: 320G (2.0%, 2,085G)
douchetron: 276G (1.7%, 276G)
Runeseeker22: 256G (1.6%, 890G)
killth3kid: 250G (1.6%, 15,478G)
nhammen: 100G (0.6%, 419,118G)
projekt_mike: 100G (0.6%, 1,305G)
getthemoneyz: 56G (0.4%, 1,811,089G)

champion bets:
TruthDefined: 1,622G (19.7%, 1,622G)
VolgraTheMoose: 1,001G (12.2%, 125,713G)
Lord_Gwarth: 1,000G (12.1%, 2,491G)
DeathTaxesAndAnime: 964G (11.7%, 964G)
Nizaha: 820G (10.0%, 78,236G)
FoeSquirrel: 545G (6.6%, 1,090G)
BoneMiser: 444G (5.4%, 444G)
SephDarkheart: 340G (4.1%, 340G)
old_overholt_: 300G (3.6%, 15,284G)
krombobreaker: 292G (3.5%, 7,436G)
Leonidusx: 256G (3.1%, 256G)
datadrivenbot: 200G (2.4%, 62,642G)
bigbongsmoker: 132G (1.6%, 3,468G)
Zerguzen: 120G (1.5%, 120G)
Bongomon7: 100G (1.2%, 2,304G)
acrusade: 100G (1.2%, 204G)
