Final Bets: red - 17 bets for 9,596G (63.9%, x0.56); blue - 8 bets for 5,420G (36.1%, x1.77)

red bets:
bruubarg: 1,541G (16.1%, 1,541G)
Mesmaster: 1,491G (15.5%, 1,491G)
skipsandwiches: 1,000G (10.4%, 8,167G)
Panushenko: 871G (9.1%, 871G)
Tarheels218: 750G (7.8%, 4,108G)
Laserman1000: 712G (7.4%, 7,312G)
SkylerBunny: 712G (7.4%, 712G)
Lanshaft: 592G (6.2%, 10,027G)
Vahn_Blade: 500G (5.2%, 12,664G)
AllInBot: 411G (4.3%, 411G)
Aldrammech: 345G (3.6%, 3,453G)
datadrivenbot: 200G (2.1%, 64,672G)
arctodus13: 124G (1.3%, 124G)
gorgewall: 101G (1.1%, 5,467G)
neocarbuncle: 100G (1.0%, 449G)
nhammen: 100G (1.0%, 29,505G)
theBinklive: 46G (0.5%, 467G)

blue bets:
Forkmore: 1,720G (31.7%, 1,720G)
BirbBrainsBot: 1,000G (18.5%, 161,479G)
getthemoneyz: 1,000G (18.5%, 1,645,419G)
Firesheath: 720G (13.3%, 720G)
SephDarkheart: 580G (10.7%, 114,905G)
CT_5_Holy: 200G (3.7%, 7,221G)
nifboy: 100G (1.8%, 7,063G)
Valgram: 100G (1.8%, 1,610G)
