Final Bets: white - 8 bets for 3,521G (19.1%, x4.25); brown - 19 bets for 14,956G (80.9%, x0.24)

white bets:
BirbBrainsBot: 1,000G (28.4%, 163,389G)
nhammen: 1,000G (28.4%, 31,403G)
Forkmore: 516G (14.7%, 9,215G)
Aldrammech: 381G (10.8%, 3,811G)
getthemoneyz: 212G (6.0%, 1,647,395G)
vorap: 212G (6.0%, 212G)
theBinklive: 100G (2.8%, 200G)
Valgram: 100G (2.8%, 1,532G)

brown bets:
SkylerBunny: 2,993G (20.0%, 2,993G)
Mesmaster: 2,372G (15.9%, 2,372G)
Lord_Burrah: 1,970G (13.2%, 79,970G)
dogsandcatsand: 1,544G (10.3%, 3,028G)
RunicMagus: 1,227G (8.2%, 1,227G)
Zbgs: 841G (5.6%, 841G)
Lanshaft: 592G (4.0%, 9,494G)
SephDarkheart: 584G (3.9%, 116,198G)
Vahn_Blade: 500G (3.3%, 11,057G)
nekojin: 492G (3.3%, 8,660G)
neocarbuncle: 383G (2.6%, 383G)
uncharreted: 357G (2.4%, 357G)
lowlf: 300G (2.0%, 300G)
CT_5_Holy: 200G (1.3%, 7,867G)
datadrivenbot: 200G (1.3%, 64,374G)
gorgewall: 101G (0.7%, 5,140G)
AllInBot: 100G (0.7%, 100G)
alecrocks: 100G (0.7%, 100G)
itskage: 100G (0.7%, 3,514G)
