Final Bets: white - 12 bets for 3,802G (29.0%, x2.45); champion - 12 bets for 9,303G (71.0%, x0.41)

white bets:
nifboy: 820G (21.6%, 2,620G)
ErraXIV: 819G (21.5%, 819G)
Raixelol: 600G (15.8%, 818G)
randgridr: 340G (8.9%, 340G)
MemoriesofFinal: 200G (5.3%, 40,645G)
ItsHyrax: 200G (5.3%, 3,216G)
Zachara: 200G (5.3%, 140,600G)
hecsec: 179G (4.7%, 179G)
Setsaku: 164G (4.3%, 164G)
skipsandwiches: 100G (2.6%, 24,999G)
withpaint: 100G (2.6%, 100G)
getthemoneyz: 80G (2.1%, 2,034,210G)

champion bets:
Mushufasa_: 5,000G (53.7%, 57,704G)
Rune339: 1,323G (14.2%, 13,233G)
gorgewall: 1,182G (12.7%, 1,182G)
escobro: 438G (4.7%, 438G)
ar_tactic: 300G (3.2%, 94,688G)
Genkidou: 216G (2.3%, 1,500G)
AllInBot: 200G (2.1%, 200G)
khelor_: 200G (2.1%, 5,570G)
NemhainRuaidhe: 172G (1.8%, 1,725G)
lwtest: 100G (1.1%, 5,881G)
robmortar: 100G (1.1%, 582G)
BirbBrainsBot: 72G (0.8%, 22,287G)
