Final Bets: red - 14 bets for 11,775G (52.5%, x0.90); yellow - 10 bets for 10,639G (47.5%, x1.11)

red bets:
reinoe: 3,000G (25.5%, 88,076G)
Zeroroute: 2,814G (23.9%, 11,729G)
thunderducker: 1,296G (11.0%, 1,296G)
DustBirdEX: 1,152G (9.8%, 1,152G)
HaateXIII: 824G (7.0%, 824G)
fenaen: 548G (4.7%, 548G)
killth3kid: 524G (4.5%, 1,701G)
dogsandcatsand: 432G (3.7%, 432G)
JonnyCue: 312G (2.6%, 312G)
CapnChaos12: 300G (2.5%, 4,218G)
datadrivenbot: 200G (1.7%, 62,190G)
Absalom_20: 150G (1.3%, 4,188G)
Lydian_C: 123G (1.0%, 16,173G)
Aldrammech: 100G (0.8%, 7,745G)

yellow bets:
toka222: 5,700G (53.6%, 273,363G)
Lord_Gwarth: 1,114G (10.5%, 4,458G)
WesSideVandal: 1,022G (9.6%, 1,022G)
BirbBrainsBot: 1,000G (9.4%, 50,517G)
Tarheels218: 943G (8.9%, 943G)
Cryptopsy70: 332G (3.1%, 1,335G)
getthemoneyz: 228G (2.1%, 1,748,325G)
AllInBot: 100G (0.9%, 100G)
ko2q: 100G (0.9%, 10,745G)
Thyrandaal: 100G (0.9%, 80,865G)
