Final Bets: purple - 10 bets for 4,359G (56.9%, x0.76); brown - 12 bets for 3,304G (43.1%, x1.32)

purple bets:
BirbBrainsBot: 1,000G (22.9%, 88,262G)
ColetteMSLP: 800G (18.4%, 63,525G)
getthemoneyz: 670G (15.4%, 689,759G)
LeoNightFury: 538G (12.3%, 538G)
Breakdown777: 500G (11.5%, 6,653G)
gorgewall: 301G (6.9%, 8,873G)
WunUP: 250G (5.7%, 250G)
CosmicTactician: 100G (2.3%, 23,912G)
datadrivenbot: 100G (2.3%, 21,951G)
AmaninAmide: 100G (2.3%, 2,004G)

brown bets:
HASTERIOUS: 641G (19.4%, 12,830G)
E_Ballard: 600G (18.2%, 600G)
d4rr1n: 397G (12.0%, 3,975G)
GnielKnows: 322G (9.7%, 322G)
Bryon_W: 300G (9.1%, 2,102G)
mardokttv: 289G (8.7%, 289G)
Zachara: 257G (7.8%, 91,007G)
roqqqpsi: 132G (4.0%, 13,232G)
serperemagus: 116G (3.5%, 116G)
nifboy: 100G (3.0%, 2,620G)
ar_tactic: 100G (3.0%, 45,181G)
DrAntiSocial: 50G (1.5%, 18,508G)
