Final Bets: white - 17 bets for 14,788G (64.9%, x0.54); black - 16 bets for 8,007G (35.1%, x1.85)

white bets:
DeathTaxesAndAnime: 3,102G (21.0%, 3,102G)
fattunaking: 2,000G (13.5%, 16,140G)
OneHundredFists: 1,819G (12.3%, 1,819G)
VolgraTheMoose: 1,001G (6.8%, 115,897G)
BirbBrainsBot: 1,000G (6.8%, 107,398G)
NicoSavoy: 1,000G (6.8%, 5,909G)
Lord_Gwarth: 1,000G (6.8%, 2,064G)
gorgewall: 812G (5.5%, 812G)
Zeroroute: 784G (5.3%, 1,961G)
krombobreaker: 500G (3.4%, 2,721G)
Dasutin23: 456G (3.1%, 13,551G)
latebit: 332G (2.2%, 332G)
CorpusCav: 303G (2.0%, 23,303G)
akash7: 287G (1.9%, 3,387G)
farside00831: 160G (1.1%, 163G)
getthemoneyz: 132G (0.9%, 1,878,855G)
DracoknightZero: 100G (0.7%, 2,389G)

black bets:
pplvee1: 1,746G (21.8%, 3,425G)
Leonidusx: 1,000G (12.5%, 6,161G)
SephDarkheart: 962G (12.0%, 962G)
Laserman1000: 784G (9.8%, 784G)
dogsandcatsand: 568G (7.1%, 568G)
Lifebregin: 500G (6.2%, 26,319G)
BoneMiser: 456G (5.7%, 456G)
Panushenko: 352G (4.4%, 352G)
mindblownnnn: 300G (3.7%, 1,024G)
Ogema_theDream: 279G (3.5%, 279G)
AllInBot: 220G (2.7%, 220G)
highelectricaltemperature: 220G (2.7%, 4,619G)
CosmicTactician: 200G (2.5%, 32,910G)
datadrivenbot: 200G (2.5%, 57,204G)
BartTradingCompany: 120G (1.5%, 1,207G)
Thyrandaal: 100G (1.2%, 187,745G)
