Final Bets: purple - 16 bets for 9,038G (34.3%, x1.92); champion - 20 bets for 17,332G (65.7%, x0.52)

purple bets:
nekojin: 2,411G (26.7%, 4,728G)
Zeroroute: 1,122G (12.4%, 2,879G)
bruubarg: 1,000G (11.1%, 19,809G)
Laserman1000: 784G (8.7%, 784G)
Panushenko: 561G (6.2%, 561G)
krombobreaker: 500G (5.5%, 4,632G)
Neech: 500G (5.5%, 2,528G)
seppu777: 333G (3.7%, 3,631G)
ColetteMSLP: 300G (3.3%, 4,117G)
CosmicTactician: 300G (3.3%, 33,210G)
akash7: 300G (3.3%, 2,600G)
Lord_Gwarth: 250G (2.8%, 2,680G)
mindblownnnn: 224G (2.5%, 224G)
velvet_muffins: 195G (2.2%, 195G)
AllInBot: 158G (1.7%, 158G)
lijarkh: 100G (1.1%, 1,009G)

champion bets:
Mesmaster: 5,000G (28.8%, 160,617G)
fattunaking: 5,000G (28.8%, 19,474G)
snkey: 3,100G (17.9%, 55,913G)
resjudicata3: 1,000G (5.8%, 2,476G)
BirbBrainsBot: 670G (3.9%, 110,218G)
poorest_hobo: 397G (2.3%, 397G)
SephDarkheart: 376G (2.2%, 376G)
getthemoneyz: 272G (1.6%, 1,879,098G)
datadrivenbot: 200G (1.2%, 57,101G)
Leonidusx: 200G (1.2%, 5,261G)
Ogema_theDream: 160G (0.9%, 164G)
Ayntlerz: 150G (0.9%, 850G)
Lydian_C: 123G (0.7%, 6,877G)
gorgewall: 101G (0.6%, 2,808G)
OneHundredFists: 100G (0.6%, 3,184G)
DeathTaxesAndAnime: 100G (0.6%, 2,835G)
Thyrandaal: 100G (0.6%, 187,794G)
farside00831: 100G (0.6%, 108G)
Yangusburger: 100G (0.6%, 6,342G)
BartTradingCompany: 83G (0.5%, 839G)
