Final Bets: red - 15 bets for 4,436G (41.0%, x1.44); blue - 15 bets for 6,393G (59.0%, x0.69)

red bets:
DeathTaxesAndAnime: 760G (17.1%, 1,491G)
superdevon1: 600G (13.5%, 600G)
Triskiut: 500G (11.3%, 2,768G)
proper__noun__: 500G (11.3%, 1,046G)
awokenshard: 500G (11.3%, 6,240G)
ZephyrTempest: 456G (10.3%, 772G)
alecttox: 200G (4.5%, 8,994G)
Bioticism: 200G (4.5%, 6,293G)
Mobotropolis: 150G (3.4%, 300G)
BurlapChampion: 120G (2.7%, 120G)
Firesheath: 100G (2.3%, 9,923G)
Evewho: 100G (2.3%, 21,233G)
datadrivenbot: 100G (2.3%, 11,353G)
Arlum: 100G (2.3%, 2,022G)
cougboi: 50G (1.1%, 22,754G)

blue bets:
BirbBrainsBot: 1,000G (15.6%, 172,130G)
HaplessOne: 987G (15.4%, 15,394G)
R_Raynos: 864G (13.5%, 864G)
reinoe: 600G (9.4%, 600G)
Dymntd: 500G (7.8%, 38,300G)
waterwatereverywhere: 443G (6.9%, 443G)
Rislyeu: 400G (6.3%, 2,491G)
getthemoneyz: 324G (5.1%, 617,327G)
twelfthrootoftwo: 300G (4.7%, 2,159G)
cgMcWhiskers: 252G (3.9%, 252G)
Wonser: 250G (3.9%, 5,040G)
electric_glass: 150G (2.3%, 6,065G)
genericco: 112G (1.8%, 112G)
byrdturbo: 111G (1.7%, 7,462G)
Yasmosis: 100G (1.6%, 1,055G)
