Final Bets: white - 10 bets for 5,502G (44.6%, x1.24); black - 12 bets for 6,843G (55.4%, x0.80)

white bets:
Shalloween: 1,000G (18.2%, 5,423G)
resjudicata3: 1,000G (18.2%, 8,669G)
Laserman1000: 873G (15.9%, 4,773G)
thunderducker: 777G (14.1%, 11,022G)
Lemonjohns: 534G (9.7%, 534G)
getthemoneyz: 428G (7.8%, 1,788,910G)
Lord_Gwarth: 350G (6.4%, 7,559G)
Runeseeker22: 240G (4.4%, 1,761G)
Leonidusx: 200G (3.6%, 8,346G)
DracoknightZero: 100G (1.8%, 3,638G)

black bets:
dogsandcatsand: 2,000G (29.2%, 29,352G)
DeathTaxesAndAnime: 1,296G (18.9%, 2,543G)
Thyrandaal: 1,234G (18.0%, 18,181G)
HaateXIII: 856G (12.5%, 856G)
BirbBrainsBot: 306G (4.5%, 156,326G)
krombobreaker: 200G (2.9%, 3,657G)
datadrivenbot: 200G (2.9%, 65,396G)
arumz: 200G (2.9%, 750G)
PuzzleSecretary: 168G (2.5%, 1,945G)
BartTradingCompany: 160G (2.3%, 1,602G)
Lydian_C: 123G (1.8%, 17,016G)
ko2q: 100G (1.5%, 4,656G)
