Final Bets: green - 10 bets for 207,149G (85.9%, x0.16); yellow - 22 bets for 33,987G (14.1%, x6.09)

green bets:
Mesmaster: 204,291G (98.6%, 226,991G)
SkylerBunny: 1,000G (0.5%, 556,530G)
evontno: 508G (0.2%, 508G)
DLJuggernaut: 300G (0.1%, 300G)
DeathTaxesAndAnime: 300G (0.1%, 4,759G)
Ring_Wyrm: 250G (0.1%, 2,489G)
Magicandy: 200G (0.1%, 6,176G)
DAC169: 100G (0.0%, 1,223G)
Firesheath: 100G (0.0%, 4,266G)
foofermoofer: 100G (0.0%, 2,222G)

yellow bets:
Lydian_C: 12,000G (35.3%, 154,777G)
lowlf: 5,000G (14.7%, 80,680G)
DuraiPapers: 2,500G (7.4%, 29,001G)
electric_algus: 2,475G (7.3%, 2,475G)
superdevon1: 2,034G (6.0%, 2,034G)
TeaTime29: 2,000G (5.9%, 2,424G)
OneHundredFists: 1,980G (5.8%, 1,980G)
ZZ_Yoshi: 1,259G (3.7%, 1,259G)
BirbBrainsBot: 1,000G (2.9%, 144,065G)
gorgewall: 601G (1.8%, 2,786G)
prince_rogers_nelson_: 600G (1.8%, 600G)
Evewho: 540G (1.6%, 540G)
serperemagus: 528G (1.6%, 528G)
getthemoneyz: 396G (1.2%, 1,025,642G)
neerrm: 288G (0.8%, 288G)
cougboi: 200G (0.6%, 6,575G)
gamesage53: 176G (0.5%, 176G)
Chompie: 100G (0.3%, 9,596G)
Quadh0nk: 100G (0.3%, 1,597G)
datadrivenbot: 100G (0.3%, 48,861G)
autlzmoo: 100G (0.3%, 743G)
oops25: 10G (0.0%, 1,990G)
