Final Bets: white - 16 bets for 10,241G (58.0%, x0.73); black - 11 bets for 7,429G (42.0%, x1.38)

white bets:
MoonSlayerRS: 2,572G (25.1%, 2,572G)
Webb_MD: 1,624G (15.9%, 1,624G)
TheChainNerd: 1,418G (13.8%, 1,418G)
kekkerscrew: 1,000G (9.8%, 22,131G)
ShintaroNayaka: 1,000G (9.8%, 17,221G)
datadrivenbot: 724G (7.1%, 8,786G)
deenglow: 500G (4.9%, 26,701G)
megaman2202: 384G (3.7%, 384G)
rechaun: 328G (3.2%, 328G)
Dymntd: 158G (1.5%, 158G)
AllInBot: 152G (1.5%, 152G)
SaintOmerville: 104G (1.0%, 104G)
lastly: 100G (1.0%, 12,847G)
daveb_: 77G (0.8%, 4,025G)
DrAntiSocial: 50G (0.5%, 3,925G)
jame3200: 50G (0.5%, 450G)

black bets:
sinnyil2: 1,200G (16.2%, 55,803G)
kai_shee: 1,001G (13.5%, 143,551G)
ungabunga_bot: 1,000G (13.5%, 128,532G)
BirbBrainsBot: 1,000G (13.5%, 118,174G)
getthemoneyz: 1,000G (13.5%, 481,372G)
RunicMagus: 662G (8.9%, 662G)
Lanshaft: 600G (8.1%, 5,127G)
JIDkomu: 500G (6.7%, 2,243G)
Justice0320: 250G (3.4%, 3,341G)
404namesnotfound: 116G (1.6%, 116G)
Tougou: 100G (1.3%, 4,121G)
