Final Bets: purple - 11 bets for 9,177G (40.0%, x1.50); brown - 25 bets for 13,772G (60.0%, x0.67)

purple bets:
DavenIII: 2,500G (27.2%, 21,525G)
Zeroroute: 1,387G (15.1%, 3,613G)
sinnyil2: 1,200G (13.1%, 14,968G)
SQUiDSQUARKLIN: 1,174G (12.8%, 1,174G)
getthemoneyz: 1,000G (10.9%, 676,316G)
killth3kid: 540G (5.9%, 865G)
maakur_: 464G (5.1%, 464G)
Nova_riety: 436G (4.8%, 436G)
beowulfrulez: 276G (3.0%, 276G)
Coyote81_G: 100G (1.1%, 100G)
Heroebal: 100G (1.1%, 4,463G)

brown bets:
JumbocactuarX27: 1,313G (9.5%, 1,313G)
toka222: 1,100G (8.0%, 35,565G)
E_Ballard: 1,025G (7.4%, 1,025G)
BirbBrainsBot: 1,000G (7.3%, 57,238G)
holyonline: 1,000G (7.3%, 4,675G)
CorpusCav: 1,000G (7.3%, 11,253G)
Lionhermit: 1,000G (7.3%, 48,585G)
HaateXIII: 848G (6.2%, 848G)
ungabunga_bot: 827G (6.0%, 494,916G)
volgrathemoose: 668G (4.9%, 1,337G)
joewcarson: 500G (3.6%, 4,894G)
proper__noun__: 500G (3.6%, 2,940G)
fenaen: 475G (3.4%, 475G)
YaBoy125: 420G (3.0%, 2,402G)
FriendSquirrel: 312G (2.3%, 312G)
aeonicvector: 302G (2.2%, 302G)
CapnChaos12: 300G (2.2%, 5,605G)
Kronikle: 300G (2.2%, 3,031G)
nifboy: 250G (1.8%, 3,151G)
CrownOfHorns: 132G (1.0%, 132G)
RunicMagus: 100G (0.7%, 39,614G)
ko2q: 100G (0.7%, 2,420G)
ArfArfArfArfArfArfArfArf: 100G (0.7%, 436G)
datadrivenbot: 100G (0.7%, 16,836G)
QaizerArt: 100G (0.7%, 340G)
