Final Bets: white - 6 bets for 2,843G (21.9%, x3.56); black - 10 bets for 10,121G (78.1%, x0.28)

white bets:
Evewho: 652G (22.9%, 652G)
RaIshtar: 518G (18.2%, 518G)
LordSDB: 500G (17.6%, 6,269G)
BlackFireUK: 500G (17.6%, 17,997G)
bruubarg: 465G (16.4%, 465G)
getthemoneyz: 208G (7.3%, 904,015G)

black bets:
Mesmaster: 3,000G (29.6%, 28,098G)
reinoe: 2,000G (19.8%, 23,439G)
Sairentozon7: 1,284G (12.7%, 1,284G)
Shakarak: 1,200G (11.9%, 173,252G)
BirbBrainsBot: 1,000G (9.9%, 106,073G)
rednecknazgul: 936G (9.2%, 936G)
gorgewall: 301G (3.0%, 14,232G)
NovaKnight21: 200G (2.0%, 1,398G)
AllInBot: 100G (1.0%, 100G)
datadrivenbot: 100G (1.0%, 36,481G)
