Final Bets: purple - 17 bets for 9,003G (26.5%, x2.78); brown - 14 bets for 24,996G (73.5%, x0.36)

purple bets:
rockmem21: 2,685G (29.8%, 17,906G)
BirbBrainsBot: 1,000G (11.1%, 191,436G)
Mesmaster: 1,000G (11.1%, 34,972G)
sinnyil2: 868G (9.6%, 868G)
E_Ballard: 648G (7.2%, 648G)
Mermydon: 500G (5.6%, 2,225G)
Shinzutalos: 417G (4.6%, 417G)
getthemoneyz: 308G (3.4%, 1,039,199G)
DLJuggernaut: 304G (3.4%, 304G)
RageImmortaI: 300G (3.3%, 2,856G)
HaateXIII: 250G (2.8%, 5,183G)
gorgewall: 201G (2.2%, 8,350G)
Chuckolator: 114G (1.3%, 26,889G)
turbn: 108G (1.2%, 108G)
Firesheath: 100G (1.1%, 7,198G)
KonzeraLive: 100G (1.1%, 3,331G)
CosmicTactician: 100G (1.1%, 21,378G)

brown bets:
prince_rogers_nelson_: 9,397G (37.6%, 9,397G)
reinoe: 3,000G (12.0%, 12,403G)
Spartan_Paladin: 3,000G (12.0%, 55,004G)
Kronikle: 2,637G (10.5%, 2,637G)
Lord_Burrah: 1,575G (6.3%, 92,575G)
Digitalsocrates: 1,239G (5.0%, 2,383G)
cougboi: 1,000G (4.0%, 11,479G)
LanseDM: 943G (3.8%, 943G)
DustBirdEX: 773G (3.1%, 773G)
Zeroroute: 600G (2.4%, 600G)
Rislyeu: 332G (1.3%, 332G)
twelfthrootoftwo: 300G (1.2%, 5,048G)
Meanderandreturn: 100G (0.4%, 1,719G)
datadrivenbot: 100G (0.4%, 48,792G)
