Final Bets: red - 20 bets for 11,201G (56.9%, x0.76); blue - 14 bets for 8,489G (43.1%, x1.32)

red bets:
DustBirdEX: 2,422G (21.6%, 4,845G)
nhammen: 1,102G (9.8%, 1,102G)
ColetteMSLP: 1,000G (8.9%, 24,817G)
fenaen: 900G (8.0%, 5,431G)
HaateXIII: 852G (7.6%, 852G)
Xoomwaffle: 560G (5.0%, 1,381G)
thehotrefrigerator: 554G (4.9%, 554G)
athros13: 500G (4.5%, 4,319G)
JumbocactuarX27: 500G (4.5%, 22,863G)
killth3kid: 488G (4.4%, 12,401G)
AllInBot: 466G (4.2%, 466G)
Zagorsek: 436G (3.9%, 436G)
Cryptopsy70: 324G (2.9%, 1,279G)
HappyCrabCo: 296G (2.6%, 296G)
roqqqpsi: 201G (1.8%, 212G)
BirbBrainsBot: 200G (1.8%, 200G)
Legionx13: 100G (0.9%, 5,991G)
DAC169: 100G (0.9%, 1,142G)
Miku_Shikhu: 100G (0.9%, 991G)
Thyrandaal: 100G (0.9%, 68,306G)

blue bets:
SephDarkheart: 3,431G (40.4%, 3,431G)
LDSkinny: 1,000G (11.8%, 27,458G)
NIghtdew14: 1,000G (11.8%, 39,371G)
latebit: 575G (6.8%, 575G)
Laserman1000: 500G (5.9%, 5,500G)
Finewax: 315G (3.7%, 315G)
Lord_Gwarth: 300G (3.5%, 1,604G)
rockmem21: 252G (3.0%, 252G)
holdenmagronik: 216G (2.5%, 781G)
cocoaking09: 200G (2.4%, 3,297G)
Skincrawler: 200G (2.4%, 2,846G)
dinin991: 200G (2.4%, 5,671G)
ribbiks: 200G (2.4%, 1,698G)
Firesheath: 100G (1.2%, 14,551G)
