Final Bets: green - 23 bets for 14,726G (80.4%, x0.24); yellow - 10 bets for 3,584G (19.6%, x4.11)

green bets:
NIghtdew14: 2,500G (17.0%, 40,690G)
DustBirdEX: 2,423G (16.5%, 2,423G)
latebit: 1,334G (9.1%, 1,334G)
LanseDM: 1,200G (8.1%, 3,884G)
ColetteMSLP: 1,000G (6.8%, 23,817G)
JumbocactuarX27: 1,000G (6.8%, 22,363G)
Xoomwaffle: 821G (5.6%, 821G)
Laserman1000: 660G (4.5%, 6,160G)
Nizaha: 576G (3.9%, 17,041G)
killth3kid: 488G (3.3%, 11,913G)
Zagorsek: 436G (3.0%, 436G)
Bongomon7: 384G (2.6%, 7,941G)
athros13: 276G (1.9%, 3,823G)
holdenmagronik: 216G (1.5%, 1,066G)
roqqqpsi: 201G (1.4%, 212G)
gorgewall: 201G (1.4%, 17,256G)
AllInBot: 200G (1.4%, 200G)
ribbiks: 200G (1.4%, 1,962G)
datadrivenbot: 200G (1.4%, 37,252G)
Finewax: 200G (1.4%, 731G)
DAC169: 100G (0.7%, 1,042G)
Firesheath: 100G (0.7%, 14,683G)
dinin991: 10G (0.1%, 5,935G)

yellow bets:
lastly: 1,000G (27.9%, 33,468G)
Hirameki85: 792G (22.1%, 792G)
nhammen: 540G (15.1%, 540G)
getthemoneyz: 404G (11.3%, 1,353,761G)
thehotrefrigerator: 204G (5.7%, 204G)
cocoaking09: 200G (5.6%, 3,561G)
BirbBrainsBot: 200G (5.6%, 200G)
Thyrandaal: 100G (2.8%, 68,206G)
Miku_Shikhu: 100G (2.8%, 891G)
daveb_: 44G (1.2%, 4,637G)
