Final Bets: blue - 14 bets for 10,303G (50.0%, x1.00); green - 26 bets for 10,319G (50.0%, x1.00)

blue bets:
Evewho: 2,053G (19.9%, 4,027G)
TheChainNerd: 1,884G (18.3%, 24,884G)
SkylerBunny: 1,200G (11.6%, 75,726G)
killth3kid: 1,000G (9.7%, 23,802G)
Aldrammech: 1,000G (9.7%, 37,038G)
EnemyController: 1,000G (9.7%, 457,403G)
Dymntd: 500G (4.9%, 45,506G)
nifboy: 500G (4.9%, 12,167G)
ColetteMSLP: 314G (3.0%, 314G)
CandyTamer: 252G (2.4%, 256G)
MiseryKoss: 200G (1.9%, 6,148G)
heyheytaetae: 200G (1.9%, 1,000G)
UnholyCorsair: 100G (1.0%, 5,961G)
bluuuuuuuh: 100G (1.0%, 5,480G)

green bets:
Zeroroute: 1,596G (15.5%, 3,432G)
BirbBrainsBot: 1,000G (9.7%, 122,207G)
Jeeboheebo: 635G (6.2%, 635G)
Triskiut: 600G (5.8%, 7,122G)
vorap: 500G (4.8%, 112,839G)
danteangel7psn: 500G (4.8%, 2,216G)
Error72: 500G (4.8%, 2,194G)
gogofromtogo: 500G (4.8%, 2,050G)
OmnibotGamma: 500G (4.8%, 6,898G)
Rislyeu: 464G (4.5%, 464G)
ANFz: 396G (3.8%, 396G)
Lionhermit: 376G (3.6%, 376G)
getthemoneyz: 356G (3.4%, 783,137G)
bruubarg: 350G (3.4%, 6,930G)
HaateXIII: 250G (2.4%, 10,201G)
benticore: 250G (2.4%, 2,994G)
reddwind_: 240G (2.3%, 240G)
Lydian_C: 220G (2.1%, 220G)
wyonearth: 200G (1.9%, 921G)
TeaTime29: 180G (1.7%, 180G)
nothclif: 156G (1.5%, 156G)
pplvee1: 150G (1.5%, 3,517G)
maakur_: 100G (1.0%, 3,645G)
CorpusCav: 100G (1.0%, 29,982G)
datadrivenbot: 100G (1.0%, 30,563G)
outer_monologue: 100G (1.0%, 100G)
