Final Bets: blue - 16 bets for 17,975G (54.1%, x0.85); yellow - 22 bets for 15,280G (45.9%, x1.18)

blue bets:
HaateXIII: 8,685G (48.3%, 17,371G)
pplvee1: 2,947G (16.4%, 2,947G)
DLJuggernaut: 2,000G (11.1%, 18,992G)
Raixelol: 600G (3.3%, 14,237G)
Spartan_Paladin: 600G (3.3%, 16,113G)
PoroTact: 520G (2.9%, 520G)
let_them_eat_the_rich: 500G (2.8%, 3,524G)
J2DaBibbles: 480G (2.7%, 480G)
RetroTypes: 417G (2.3%, 834G)
Zagorsek: 400G (2.2%, 400G)
Smugzug: 260G (1.4%, 260G)
AllInBot: 142G (0.8%, 142G)
roofiepops: 123G (0.7%, 3,667G)
gorgewall: 101G (0.6%, 8,949G)
heyBtw: 100G (0.6%, 2,278G)
leaferrm: 100G (0.6%, 1,158G)

yellow bets:
EnemyController: 2,222G (14.5%, 1,768,006G)
Thyrandaal: 2,032G (13.3%, 3,985G)
CorpusCav: 1,200G (7.9%, 6,072G)
snkey: 1,097G (7.2%, 10,969G)
BirbBrainsBot: 1,000G (6.5%, 59,016G)
JumbocactuarX27: 1,000G (6.5%, 5,129G)
Sairentozon7: 1,000G (6.5%, 9,375G)
thunderducker: 800G (5.2%, 2,883G)
escobro: 710G (4.6%, 710G)
ser_pyrro: 599G (3.9%, 599G)
lowlf: 504G (3.3%, 9,081G)
old_overholt_: 500G (3.3%, 25,997G)
upvla: 500G (3.3%, 500G)
getthemoneyz: 476G (3.1%, 1,917,645G)
holdenmagronik: 424G (2.8%, 9,390G)
Chaide: 315G (2.1%, 315G)
silentkaster: 201G (1.3%, 1,450G)
grishhammer: 200G (1.3%, 264G)
datadrivenbot: 200G (1.3%, 58,222G)
BartTradingCompany: 100G (0.7%, 4,820G)
RunicMagus: 100G (0.7%, 9,539G)
latebit: 100G (0.7%, 9,008G)
