Final Bets: white - 6 bets for 9,102G (33.1%, x2.02); black - 23 bets for 18,407G (66.9%, x0.49)

white bets:
mpghappiness: 5,114G (56.2%, 5,114G)
AllInBot: 1,704G (18.7%, 1,704G)
EvilJMcNasty: 1,000G (11.0%, 102,197G)
DeathTaxesAndAnime: 500G (5.5%, 2,457G)
killth3kid: 480G (5.3%, 480G)
Miku_Shikhu: 304G (3.3%, 304G)

black bets:
TasisSai: 3,624G (19.7%, 3,624G)
Laserman1000: 1,900G (10.3%, 1,900G)
Xoomwaffle: 1,511G (8.2%, 1,511G)
Lord_Burrah: 1,000G (5.4%, 89,000G)
BirbBrainsBot: 1,000G (5.4%, 182,790G)
Legitimized: 1,000G (5.4%, 4,574G)
KyleWonToLiveForever: 1,000G (5.4%, 8,060G)
Thyrandaal: 1,000G (5.4%, 32,483G)
RaIshtar: 993G (5.4%, 993G)
TheChainNerd: 732G (4.0%, 732G)
Nizaha: 568G (3.1%, 568G)
Lord_Gwarth: 550G (3.0%, 550G)
DavenIII: 524G (2.8%, 1,049G)
JumbocactuarX27: 500G (2.7%, 25,594G)
SephDarkheart: 348G (1.9%, 62,311G)
ArashiKurobara: 340G (1.8%, 1,558G)
RageImmortaI: 304G (1.7%, 1,796G)
i2inchtomahawk: 300G (1.6%, 4,974G)
itsonlyspencer: 295G (1.6%, 295G)
skipsandwiches: 268G (1.5%, 268G)
hemeroidcream: 250G (1.4%, 949G)
datadrivenbot: 200G (1.1%, 33,895G)
ribbiks: 200G (1.1%, 837G)
