Final Bets: purple - 6 bets for 1,412G (6.2%, x15.18); brown - 18 bets for 21,431G (93.8%, x0.07)

purple bets:
TasisSai: 408G (28.9%, 408G)
Xoomwaffle: 296G (21.0%, 296G)
Lord_Gwarth: 208G (14.7%, 208G)
RageImmortaI: 200G (14.2%, 1,492G)
ribbiks: 200G (14.2%, 637G)
EvilJMcNasty: 100G (7.1%, 104,219G)

brown bets:
ShintaroNayaka: 7,270G (33.9%, 7,270G)
AllInBot: 5,150G (24.0%, 5,150G)
Lord_Burrah: 2,000G (9.3%, 88,000G)
evontno: 1,200G (5.6%, 16,683G)
Miku_Shikhu: 919G (4.3%, 919G)
sinnyil2: 845G (3.9%, 1,690G)
TheChainNerd: 732G (3.4%, 732G)
Laserman1000: 640G (3.0%, 640G)
hemeroidcream: 547G (2.6%, 699G)
SephDarkheart: 348G (1.6%, 61,963G)
CapnChaos12: 300G (1.4%, 8,486G)
i2inchtomahawk: 300G (1.4%, 4,674G)
Treafa: 284G (1.3%, 826G)
skipsandwiches: 268G (1.3%, 268G)
holdenmagronik: 204G (1.0%, 259G)
datadrivenbot: 200G (0.9%, 33,695G)
itsonlyspencer: 124G (0.6%, 124G)
Bongomon7: 100G (0.5%, 7,242G)
