Final Bets: blue - 12 bets for 6,970G (41.1%, x1.43); yellow - 13 bets for 9,997G (58.9%, x0.70)

blue bets:
Digitalsocrates: 1,500G (21.5%, 4,873G)
Meta_Five: 1,000G (14.3%, 13,804G)
MagicBottle: 825G (11.8%, 825G)
DeathTaxesAndAnime: 732G (10.5%, 732G)
OneHundredFists: 620G (8.9%, 620G)
DLJuggernaut: 500G (7.2%, 2,902G)
sparker9: 500G (7.2%, 764G)
flacococo: 463G (6.6%, 463G)
twelfthrootoftwo: 300G (4.3%, 11,509G)
Klednar21: 230G (3.3%, 230G)
Evewho: 200G (2.9%, 5,900G)
datadrivenbot: 100G (1.4%, 44,897G)

yellow bets:
Arcblazer23: 2,810G (28.1%, 2,810G)
AniZero: 1,496G (15.0%, 1,496G)
BirbBrainsBot: 1,000G (10.0%, 76,359G)
metagameface: 1,000G (10.0%, 4,211G)
Tyerenex: 1,000G (10.0%, 25,478G)
Shalloween: 700G (7.0%, 74,222G)
prince_rogers_nelson_: 600G (6.0%, 600G)
nifboy: 560G (5.6%, 560G)
getthemoneyz: 346G (3.5%, 1,089,605G)
NightwolfXVI: 185G (1.9%, 185G)
thewondertrickster: 100G (1.0%, 1,958G)
ArashiKurobara: 100G (1.0%, 100G)
Shaxarok: 100G (1.0%, 4,494G)
