Final Bets: yellow - 11 bets for 8,769G (46.6%, x1.15); purple - 10 bets for 10,043G (53.4%, x0.87)

yellow bets:
CorpusCav: 2,000G (22.8%, 116,579G)
SensualOnix: 1,162G (13.3%, 1,162G)
DeathTaxesAndAnime: 1,111G (12.7%, 31,756G)
NicoSavoy: 1,000G (11.4%, 159,732G)
BirbBrainsBot: 1,000G (11.4%, 67,703G)
b0lt: 1,000G (11.4%, 29,327G)
TheMurkGnome: 592G (6.8%, 592G)
YowaneHaku: 300G (3.4%, 5,138G)
xXTysongXx: 204G (2.3%, 204G)
AllInBot: 200G (2.3%, 200G)
datadrivenbot: 200G (2.3%, 85,485G)

purple bets:
Lydian_C: 2,588G (25.8%, 2,588G)
Runeseeker22: 2,183G (21.7%, 43,662G)
Mushufasa_: 1,234G (12.3%, 47,631G)
verythinice: 1,000G (10.0%, 6,085G)
Deeps_one: 1,000G (10.0%, 2,208G)
Lionhermit: 1,000G (10.0%, 3,628G)
lowlf: 408G (4.1%, 408G)
superdevon1: 384G (3.8%, 1,619G)
getthemoneyz: 146G (1.5%, 2,217,511G)
TheBrett: 100G (1.0%, 29,463G)
