Final Bets: purple - 11 bets for 22,522G (69.4%, x0.44); champion - 15 bets for 9,930G (30.6%, x2.27)

purple bets:
resjudicata3: 15,166G (67.3%, 29,738G)
NicoSavoy: 2,000G (8.9%, 81,958G)
DeathTaxesAndAnime: 1,807G (8.0%, 3,544G)
mindblownnnn: 789G (3.5%, 2,706G)
skillomono: 672G (3.0%, 1,344G)
Dasutin23: 524G (2.3%, 9,310G)
DejaPoo21: 456G (2.0%, 456G)
Zagorsek: 432G (1.9%, 432G)
ColetteMSLP: 400G (1.8%, 2,231G)
robespyah: 176G (0.8%, 176G)
Laserman1000: 100G (0.4%, 1,168G)

champion bets:
sinnyil2: 2,500G (25.2%, 126,838G)
biske13: 2,000G (20.1%, 22,754G)
BirbBrainsBot: 1,000G (10.1%, 181,806G)
Thyrandaal: 1,000G (10.1%, 70,120G)
reinoe: 922G (9.3%, 922G)
Zeroroute: 412G (4.1%, 412G)
Rune339: 400G (4.0%, 4,175G)
Lord_Gwarth: 337G (3.4%, 3,748G)
ValensEXP_: 316G (3.2%, 4,086G)
getthemoneyz: 284G (2.9%, 1,943,089G)
Musashi45: 216G (2.2%, 216G)
datadrivenbot: 200G (2.0%, 61,738G)
AllInBot: 142G (1.4%, 142G)
gorgewall: 101G (1.0%, 4,487G)
BartTradingCompany: 100G (1.0%, 9,432G)
