Final Bets: red - 7 bets for 63,922G (53.6%, x0.87); green - 27 bets for 55,360G (46.4%, x1.15)

red bets:
E_Ballard: 56,823G (88.9%, 56,823G)
DLJuggernaut: 5,000G (7.8%, 37,880G)
thunderducker: 1,200G (1.9%, 7,648G)
AltimaMantoid: 300G (0.5%, 16,800G)
Grasnikk: 276G (0.4%, 276G)
AllInBot: 200G (0.3%, 200G)
IaibOaob: 123G (0.2%, 10,191G)

green bets:
LivingHitokiri: 20,000G (36.1%, 122,273G)
OneHundredFists: 8,873G (16.0%, 8,873G)
joewcarson: 6,571G (11.9%, 6,571G)
nhammen: 5,000G (9.0%, 69,103G)
SQUiDSQUARKLIN: 3,503G (6.3%, 3,503G)
RunicMagus: 2,020G (3.6%, 34,249G)
tinytittyfiend: 1,000G (1.8%, 7,666G)
BirbBrainsBot: 1,000G (1.8%, 63,899G)
Mushufasa_: 1,000G (1.8%, 114,601G)
killth3kid: 800G (1.4%, 39,537G)
krombobreaker: 600G (1.1%, 15,964G)
technominari: 500G (0.9%, 84,953G)
Einswolf: 500G (0.9%, 4,301G)
khelor_: 500G (0.9%, 3,225G)
getthemoneyz: 484G (0.9%, 2,098,756G)
wiznaibusthis: 433G (0.8%, 433G)
CorpusCav: 430G (0.8%, 33,693G)
Runeseeker22: 356G (0.6%, 356G)
DuPlatypus: 300G (0.5%, 419G)
readdesert: 292G (0.5%, 292G)
datadrivenbot: 200G (0.4%, 79,535G)
argentbast: 200G (0.4%, 1,271G)
DocSTN: 200G (0.4%, 415G)
2b_yorha_b: 200G (0.4%, 3,075G)
DeathTaxesAndAnime: 185G (0.3%, 5,069G)
ayeCoop: 112G (0.2%, 112G)
gorgewall: 101G (0.2%, 5,790G)
