Final Bets: green - 18 bets for 8,488G (48.6%, x1.06); yellow - 16 bets for 8,983G (51.4%, x0.94)

green bets:
toka222: 1,100G (13.0%, 58,190G)
EnemyController: 1,000G (11.8%, 276,268G)
TheRedMelody: 860G (10.1%, 860G)
killth3kid: 600G (7.1%, 10,279G)
Laserman1000: 600G (7.1%, 3,500G)
HaplessOne: 564G (6.6%, 564G)
Rytor: 500G (5.9%, 4,224G)
reinoe: 500G (5.9%, 7,953G)
HaateXIII: 490G (5.8%, 490G)
nifboy: 404G (4.8%, 404G)
gabbagooluigi: 328G (3.9%, 328G)
bruubarg: 311G (3.7%, 1,111G)
joewcarson: 300G (3.5%, 2,914G)
AUrato: 250G (2.9%, 7,249G)
marin1987: 248G (2.9%, 486G)
Nizaha: 201G (2.4%, 18,455G)
MaverickUmbracato: 132G (1.6%, 132G)
datadrivenbot: 100G (1.2%, 18,943G)

yellow bets:
JumbocactuarX27: 1,376G (15.3%, 2,752G)
roofiepops: 1,277G (14.2%, 43,905G)
ungabunga_bot: 1,000G (11.1%, 508,505G)
BirbBrainsBot: 1,000G (11.1%, 170,897G)
ShintaroNayaka: 650G (7.2%, 650G)
DeathTaxesAndAnime: 552G (6.1%, 552G)
EizanTayama: 500G (5.6%, 9,679G)
fenaen: 420G (4.7%, 420G)
skillomono: 414G (4.6%, 414G)
DavenIII: 400G (4.5%, 4,287G)
SQUiDSQUARKLIN: 300G (3.3%, 2,335G)
vorap: 300G (3.3%, 60,594G)
Communis: 300G (3.3%, 8,798G)
benticore: 250G (2.8%, 6,334G)
raventwynn: 200G (2.2%, 219G)
getthemoneyz: 44G (0.5%, 684,116G)
