Final Bets: green - 20 bets for 10,122G (41.5%, x1.41); champion - 26 bets for 14,240G (58.5%, x0.71)

green bets:
VulcanPanderp: 2,000G (19.8%, 8,341G)
TheChainNerd: 1,000G (9.9%, 10,584G)
powergems: 1,000G (9.9%, 7,383G)
JLinkletter: 860G (8.5%, 860G)
killth3kid: 600G (5.9%, 12,138G)
JumbocactuarX27: 580G (5.7%, 580G)
Nickyfive: 572G (5.7%, 572G)
Laserman1000: 525G (5.2%, 5,525G)
GladiatorLupe: 500G (4.9%, 8,154G)
fenaen: 420G (4.1%, 420G)
nifboy: 404G (4.0%, 404G)
DudeMonkey77: 333G (3.3%, 9,931G)
joewcarson: 300G (3.0%, 2,228G)
SQUiDSQUARKLIN: 300G (3.0%, 3,201G)
CorpusCav: 200G (2.0%, 4,679G)
AnthraX85: 128G (1.3%, 128G)
E_Ballard: 100G (1.0%, 2,425G)
StealthModeLocke: 100G (1.0%, 40,535G)
Tougou: 100G (1.0%, 1,959G)
marin1987: 100G (1.0%, 1,366G)

champion bets:
HaplessOne: 3,321G (23.3%, 3,321G)
leakimiko: 2,222G (15.6%, 47,796G)
BirbBrainsBot: 1,000G (7.0%, 167,955G)
sinnyil2: 808G (5.7%, 808G)
zeando: 720G (5.1%, 720G)
Bryon_W: 667G (4.7%, 667G)
EnemyController: 500G (3.5%, 277,740G)
Communis: 500G (3.5%, 9,059G)
Oobs56: 500G (3.5%, 3,374G)
HaateXIII: 456G (3.2%, 456G)
DeathTaxesAndAnime: 450G (3.2%, 1,415G)
DustBirdEX: 345G (2.4%, 15,142G)
Tsuike: 340G (2.4%, 340G)
ShintaroNayaka: 332G (2.3%, 332G)
gabbagooluigi: 328G (2.3%, 328G)
AUrato: 300G (2.1%, 7,017G)
CapnChaos12: 300G (2.1%, 1,482G)
old_overholt_: 300G (2.1%, 2,445G)
WunUP: 168G (1.2%, 168G)
ungabunga_bot: 128G (0.9%, 505,155G)
itsZaes: 111G (0.8%, 604G)
Lionhermit: 100G (0.7%, 3,755G)
bruubarg: 100G (0.7%, 100G)
datadrivenbot: 100G (0.7%, 19,437G)
raventwynn: 100G (0.7%, 104G)
getthemoneyz: 44G (0.3%, 683,289G)
