Final Bets: white - 4 bets for 7,995G (51.9%, x0.93); purple - 12 bets for 7,403G (48.1%, x1.08)

white bets:
Breakdown777: 6,621G (82.8%, 13,243G)
roqqqpsi: 1,062G (13.3%, 106,246G)
Mysteriousdewd: 212G (2.7%, 212G)
enkikavlar: 100G (1.3%, 1,703G)

purple bets:
YaBoy125: 3,050G (41.2%, 12,201G)
BirbBrainsBot: 1,000G (13.5%, 52,047G)
cam_ATS: 999G (13.5%, 30,830G)
DuneMeta: 451G (6.1%, 451G)
thaetreis: 400G (5.4%, 24,575G)
josephiroth_143: 395G (5.3%, 395G)
alterworlds: 252G (3.4%, 252G)
VulcanPanderp: 240G (3.2%, 240G)
BoneMiser: 200G (2.7%, 3,937G)
getthemoneyz: 168G (2.3%, 1,186,672G)
SephDarkheart: 124G (1.7%, 124G)
ChrisPlaysThing: 124G (1.7%, 124G)
