Final Bets: red - 8 bets for 3,715G (13.8%, x6.24); blue - 24 bets for 23,183G (86.2%, x0.16)

red bets:
thunderducker: 869G (23.4%, 869G)
lowlf: 632G (17.0%, 17,032G)
Willjin: 600G (16.2%, 29,671G)
KasugaiRoastedPeas: 548G (14.8%, 548G)
Runeseeker22: 502G (13.5%, 502G)
Treafa: 350G (9.4%, 8,380G)
getthemoneyz: 114G (3.1%, 2,129,452G)
AbandonedHall: 100G (2.7%, 951G)

blue bets:
Mesmaster: 6,834G (29.5%, 13,669G)
helpimabug: 2,479G (10.7%, 4,959G)
Demon_Lord_Josh: 2,000G (8.6%, 4,789G)
dogsandcatsand: 1,798G (7.8%, 1,798G)
latebit: 1,736G (7.5%, 3,404G)
RunicMagus: 1,020G (4.4%, 28,475G)
BirbBrainsBot: 1,000G (4.3%, 162,749G)
Lord_Gwarth: 1,000G (4.3%, 1,347G)
MemoriesofFinal: 905G (3.9%, 2,281G)
Nizaha: 648G (2.8%, 7,463G)
krombobreaker: 500G (2.2%, 25,573G)
khelor_: 500G (2.2%, 3,688G)
CosmicTactician: 500G (2.2%, 4,665G)
RikiNom: 500G (2.2%, 1,211G)
CapnChaos12: 300G (1.3%, 3,270G)
minorfffanatic1: 236G (1.0%, 1,614G)
AllInBot: 200G (0.9%, 200G)
Evewho: 200G (0.9%, 4,454G)
datadrivenbot: 200G (0.9%, 81,068G)
cloudycube: 200G (0.9%, 1,147G)
giantdeathlaser: 164G (0.7%, 5,534G)
gorgewall: 101G (0.4%, 12,557G)
DuPlatypus: 100G (0.4%, 1,270G)
chaosdesigned: 62G (0.3%, 124G)
