Final Bets: red - 12 bets for 5,832G (31.4%, x2.18); blue - 27 bets for 12,724G (68.6%, x0.46)

red bets:
Lali_Lulelo: 1,404G (24.1%, 1,404G)
Draconis345: 1,000G (17.1%, 52,596G)
Shalloween: 631G (10.8%, 631G)
HASTERIOUS: 618G (10.6%, 12,373G)
demidusk: 500G (8.6%, 2,325G)
KasugaiRoastedPeas: 416G (7.1%, 416G)
Digitalsocrates: 408G (7.0%, 408G)
zepharoth89: 355G (6.1%, 7,100G)
nifboy: 250G (4.3%, 14,140G)
ZombiFrancis: 100G (1.7%, 1,221G)
Riot_Jayway: 100G (1.7%, 192,133G)
DashXero: 50G (0.9%, 2,239G)

blue bets:
SkylerBunny: 1,500G (11.8%, 87,413G)
gr8keeper: 1,000G (7.9%, 2,786G)
BirbBrainsBot: 1,000G (7.9%, 106,537G)
Lionhermit: 991G (7.8%, 991G)
volgrathemoose: 932G (7.3%, 932G)
sinnyil2: 932G (7.3%, 932G)
Error72: 848G (6.7%, 1,697G)
DeathTaxesAndAnime: 755G (5.9%, 755G)
gogofromtogo: 500G (3.9%, 5,410G)
HaateXIII: 500G (3.9%, 12,216G)
EnemyController: 500G (3.9%, 452,692G)
Evewho: 496G (3.9%, 496G)
Baron_von_Scrub: 474G (3.7%, 44,038G)
E_Ballard: 328G (2.6%, 328G)
Flameatron: 300G (2.4%, 4,395G)
Breakdown777: 300G (2.4%, 8,530G)
Kyune: 250G (2.0%, 21,848G)
MiseryKoss: 200G (1.6%, 2,608G)
cam_ATS: 200G (1.6%, 8,004G)
CosmicTactician: 100G (0.8%, 975G)
maakur_: 100G (0.8%, 6,908G)
datadrivenbot: 100G (0.8%, 28,876G)
Klednar21: 100G (0.8%, 116G)
CorpusCav: 100G (0.8%, 11,697G)
raventwynn: 100G (0.8%, 786G)
glastonberry48: 100G (0.8%, 4,291G)
getthemoneyz: 18G (0.1%, 770,942G)
