Final Bets: red - 26 bets for 22,857G (72.5%, x0.38); yellow - 24 bets for 8,683G (27.5%, x2.63)

red bets:
Lanshaft: 6,751G (29.5%, 13,503G)
jethrothrul: 1,802G (7.9%, 1,802G)
DeathTaxesAndAnime: 1,325G (5.8%, 1,325G)
sinnyil2: 1,200G (5.3%, 100,361G)
SkylerBunny: 1,164G (5.1%, 1,164G)
Lodrak: 1,056G (4.6%, 1,056G)
volgrathemoose: 1,001G (4.4%, 9,323G)
HaateXIII: 1,000G (4.4%, 16,250G)
Arunic: 1,000G (4.4%, 7,514G)
BirbBrainsBot: 1,000G (4.4%, 257,940G)
bad1dea: 1,000G (4.4%, 48,058G)
roofiepops: 738G (3.2%, 738G)
Aldrammech: 600G (2.6%, 600G)
Nocturnal_Perspective: 500G (2.2%, 1,102G)
Maeveen: 474G (2.1%, 474G)
ZephyrTempest: 361G (1.6%, 25,352G)
regios91: 344G (1.5%, 344G)
exaltedhamster: 250G (1.1%, 7,128G)
TrogdorTheMemeinator: 236G (1.0%, 236G)
moonliquor: 226G (1.0%, 453G)
ugoplatamia: 200G (0.9%, 6,567G)
silentperogy: 200G (0.9%, 8,027G)
SeriousFaceFace: 120G (0.5%, 120G)
ungabunga_bot: 109G (0.5%, 63,006G)
Tougou: 100G (0.4%, 4,693G)
ApplesauceBoss: 100G (0.4%, 3,904G)

yellow bets:
DarrenDinosaurs: 1,140G (13.1%, 1,140G)
LordSDB: 1,000G (11.5%, 9,503G)
ANFz: 922G (10.6%, 922G)
RunicMagus: 800G (9.2%, 40,632G)
JackOnFire1: 553G (6.4%, 11,065G)
reinoe: 500G (5.8%, 7,730G)
b0shii: 400G (4.6%, 1,057G)
Baron_von_Scrub: 353G (4.1%, 15,966G)
Laserman1000: 338G (3.9%, 7,138G)
nomoment: 332G (3.8%, 332G)
NickLoire: 300G (3.5%, 2,362G)
GnomishLich: 300G (3.5%, 714G)
Evewho: 264G (3.0%, 264G)
DrAntiSocial: 210G (2.4%, 1,717G)
Tyerenex: 200G (2.3%, 5,532G)
dreadnxught: 200G (2.3%, 9,462G)
getthemoneyz: 158G (1.8%, 442,884G)
Lanryte: 150G (1.7%, 11,715G)
Meanderandreturn: 150G (1.7%, 3,832G)
gikokiko: 108G (1.2%, 108G)
AllInBot: 100G (1.2%, 100G)
Tithonus: 100G (1.2%, 8,869G)
Basmal: 100G (1.2%, 56,125G)
ko2q: 5G (0.1%, 3,933G)
