Player: !Yellow
Team: Yellow Team
Palettes: Yellow/Black



Reinoe
Monster
Pisces
75
45
Black Goblin










Ko2q
Male
Scorpio
68
49
Mime

Arrow Guard
Martial Arts
Ignore Height



Twist Headband
Leather Outfit
Reflect Ring

Mimic




NickLoire
Monster
Taurus
53
64
Ochu










OmnibotGamma
Monster
Virgo
71
72
Archaic Demon







