Final Bets: green - 12 bets for 7,713G (11.8%, x7.49); yellow - 22 bets for 57,808G (88.2%, x0.13)

green bets:
Xoomwaffle: 1,683G (21.8%, 1,683G)
killth3kid: 1,017G (13.2%, 1,017G)
nifboy: 1,000G (13.0%, 4,305G)
athros13: 1,000G (13.0%, 14,099G)
red__lancer: 1,000G (13.0%, 111,432G)
dogsandcatsand: 600G (7.8%, 600G)
Zeroroute: 600G (7.8%, 600G)
DLJuggernaut: 372G (4.8%, 372G)
getthemoneyz: 142G (1.8%, 1,330,343G)
nok____: 128G (1.7%, 5,128G)
Lydian_C: 121G (1.6%, 84,200G)
DouglasDragonThePoet: 50G (0.6%, 1,473G)

yellow bets:
RaIshtar: 15,000G (25.9%, 89,479G)
JumbocactuarX27: 10,000G (17.3%, 46,647G)
neerrm: 9,999G (17.3%, 30,511G)
TheChainNerd: 4,275G (7.4%, 8,550G)
ShintaroNayaka: 3,000G (5.2%, 9,664G)
Thyrandaal: 3,000G (5.2%, 7,069G)
Lord_Burrah: 2,919G (5.0%, 80,919G)
reddwind_: 2,000G (3.5%, 47,030G)
fenaen: 1,237G (2.1%, 1,237G)
helpimabug: 1,064G (1.8%, 2,128G)
Zetchryn: 1,000G (1.7%, 8,503G)
prince_rogers_nelson_: 1,000G (1.7%, 6,506G)
BirbBrainsBot: 1,000G (1.7%, 136,271G)
randgridr: 436G (0.8%, 10,063G)
furrytomahawkk: 400G (0.7%, 1,719G)
SephDarkheart: 332G (0.6%, 49,953G)
Miku_Shikhu: 300G (0.5%, 15,786G)
ohhinm: 234G (0.4%, 5,029G)
AllInBot: 200G (0.3%, 200G)
datadrivenbot: 200G (0.3%, 33,826G)
mattcorn7: 112G (0.2%, 112G)
Bongomon7: 100G (0.2%, 10,265G)
