Final Bets: red - 6 bets for 12,395G (24.3%, x3.11); yellow - 25 bets for 38,594G (75.7%, x0.32)

red bets:
TheChainNerd: 4,489G (36.2%, 8,803G)
Lydian_C: 4,200G (33.9%, 84,188G)
Zeroroute: 2,650G (21.4%, 2,650G)
killth3kid: 460G (3.7%, 460G)
TasisSai: 396G (3.2%, 396G)
AllInBot: 200G (1.6%, 200G)

yellow bets:
RaIshtar: 20,000G (51.8%, 64,484G)
toka222: 6,500G (16.8%, 65,168G)
Thyrandaal: 2,000G (5.2%, 4,469G)
coralreeferz: 1,500G (3.9%, 39,017G)
BirbBrainsBot: 1,000G (2.6%, 137,164G)
getthemoneyz: 656G (1.7%, 1,330,787G)
Beastmages: 618G (1.6%, 618G)
dogsandcatsand: 600G (1.6%, 600G)
nhammen: 600G (1.6%, 9,535G)
helpimabug: 568G (1.5%, 568G)
mattcorn7: 491G (1.3%, 491G)
Legitimized: 468G (1.2%, 468G)
Zetchryn: 444G (1.2%, 444G)
randgridr: 436G (1.1%, 9,249G)
fenaen: 420G (1.1%, 420G)
DLJuggernaut: 372G (1.0%, 372G)
ruleof5: 300G (0.8%, 13,154G)
holdenmagronik: 300G (0.8%, 1,665G)
lyonslegacy: 300G (0.8%, 2,408G)
ohhinm: 234G (0.6%, 3,814G)
Miku_Shikhu: 200G (0.5%, 15,626G)
datadrivenbot: 200G (0.5%, 33,453G)
Finewax: 200G (0.5%, 1,938G)
Bongomon7: 100G (0.3%, 10,178G)
DouglasDragonThePoet: 87G (0.2%, 1,323G)
