Final Bets: black - 26 bets for 16,623G (69.8%, x0.43); purple - 13 bets for 7,207G (30.2%, x2.31)

black bets:
Shalloween: 3,000G (18.0%, 91,693G)
MrDiggs49: 2,000G (12.0%, 5,143G)
Dothan89: 1,954G (11.8%, 1,954G)
BenYuPoker: 1,015G (6.1%, 1,015G)
BirbBrainsBot: 1,000G (6.0%, 212,665G)
getthemoneyz: 1,000G (6.0%, 435,549G)
bad1dea: 1,000G (6.0%, 35,411G)
ungabunga_bot: 700G (4.2%, 21,041G)
MantisFinch: 624G (3.8%, 624G)
Evewho: 500G (3.0%, 6,592G)
reinoe: 500G (3.0%, 31,448G)
alrightbye: 420G (2.5%, 3,196G)
luminarii: 414G (2.5%, 6,574G)
waterwatereverywhere: 400G (2.4%, 3,312G)
ZephyrTempest: 375G (2.3%, 20,882G)
oogthecaveman: 250G (1.5%, 3,472G)
DrAntiSocial: 248G (1.5%, 3,543G)
rNdOrchestra: 218G (1.3%, 218G)
Cataphract116: 200G (1.2%, 1,751G)
b0shii: 200G (1.2%, 1,350G)
rico_flex: 200G (1.2%, 1,920G)
ANFz: 100G (0.6%, 5,196G)
ApplesauceBoss: 100G (0.6%, 2,728G)
maichenambrai: 100G (0.6%, 1,189G)
datadrivenbot: 100G (0.6%, 16,511G)
ko2q: 5G (0.0%, 1,571G)

purple bets:
OneHundredFists: 2,753G (38.2%, 2,753G)
AllInBot: 954G (13.2%, 954G)
Lanshaft: 600G (8.3%, 9,730G)
JIDkomu: 500G (6.9%, 5,417G)
Lordminsc: 400G (5.6%, 14,886G)
ColetteMSLP: 400G (5.6%, 10,027G)
fenaen: 388G (5.4%, 388G)
Rastanar: 300G (4.2%, 5,320G)
catfashions: 280G (3.9%, 280G)
Laserman1000: 208G (2.9%, 208G)
ugoplatamia: 200G (2.8%, 10,110G)
joewcarson: 124G (1.7%, 124G)
Heroebal: 100G (1.4%, 1,534G)
