High Risers:
1. Lord_gwarth: +2,123G
2. Prince_rogers_nelson_: +1,870G
3. Run_with_stone_guns: +1,596G
4. Pepperbuster: +1,002G
5. Justinbailey313: +1,000G
6. Nifboy: +937G
7. Dogsandcatsand: +920G
8. Bryon_w: +914G
9. Zacen299: +900G
10. Mazairasama: +681G
11. Valensexp_: +640G
12. Willjin: +207G
13. Silentkaster: +183G
14. Thyrandaal: +99G
15. Milkachoko: +96G
16. Nhammen: +71G
17. Cosmictactician: +68G
18. Latebit: +1G
19. Foamsoldier: -39G
20. Farside00831: -97G
21. Seniorbunk: -100G
22. Lijarkh: -100G
23. Peeronid: -188G
24. Ar_tactic: -250G
25. Powergems: -300G
26. Jeeboheebo: -300G
27. Sairentozon7: -400G
28. Mesmaster: -400G
29. Skipsandwiches: -484G
30. Sephdarkheart: -492G
31. Ldskinny: -620G
32. J2dabibbles: -630G
33. Memoriesoffinal: -796G
34. Volgrathemoose: -901G
35. Galeronis: -907G
36. Sinnyil2: -1,500G
37. Krombobreaker: -2,000G
38. Bruubarg: -2,281G
39. Daveniii: -3,295G
40. Pplvee1: -3,429G
