Final Bets: red - 8 bets for 3,228G (12.7%, x6.86); champion - 18 bets for 22,131G (87.3%, x0.15)

red bets:
sinnyil2: 980G (30.4%, 1,393G)
pplvee1: 444G (13.8%, 3,244G)
dogsandcatsand: 424G (13.1%, 24,940G)
BirbBrainsBot: 404G (12.5%, 126,562G)
Zagorsek: 266G (8.2%, 532G)
getthemoneyz: 258G (8.0%, 1,462,178G)
resjudicata3: 252G (7.8%, 252G)
reddwind_: 200G (6.2%, 10,554G)

champion bets:
Thyrandaal: 5,555G (25.1%, 149,303G)
omegasuspekt: 3,333G (15.1%, 33,044G)
maximumcrit: 3,000G (13.6%, 11,087G)
7Cerulean7: 3,000G (13.6%, 6,284G)
Laserman1000: 1,406G (6.4%, 1,406G)
Lydian_C: 1,200G (5.4%, 4,013G)
Forkmore: 777G (3.5%, 24,079G)
RaIshtar: 638G (2.9%, 638G)
Lanshaft: 540G (2.4%, 25,272G)
Eoika: 523G (2.4%, 5,232G)
nekojin: 500G (2.3%, 12,787G)
SephDarkheart: 436G (2.0%, 9,515G)
SamaelMerihem: 313G (1.4%, 313G)
neocarbuncle: 210G (0.9%, 1,402G)
AllInBot: 200G (0.9%, 200G)
Miku_Shikhu: 200G (0.9%, 892G)
datadrivenbot: 200G (0.9%, 44,903G)
ArlanKels: 100G (0.5%, 865G)
