Final Bets: purple - 57 bets for 69,509G (64.0%, x0.56); brown - 37 bets for 39,112G (36.0%, x1.78)

purple bets:
volgrathemoose: 10,000G (14.4%, 178,015G)
Lydian_C: 7,000G (10.1%, 173,510G)
GargantuaCat: 4,482G (6.4%, 8,964G)
Deathmaker06: 3,000G (4.3%, 9,529G)
MagicBottle: 2,003G (2.9%, 66,767G)
edgehead62888: 2,000G (2.9%, 23,862G)
HaateXIII: 2,000G (2.9%, 17,571G)
SkylerBunny: 2,000G (2.9%, 49,760G)
Zeroroute: 1,976G (2.8%, 5,812G)
FoeSquirrel: 1,828G (2.6%, 1,828G)
ANFz: 1,528G (2.2%, 1,528G)
HaychDub: 1,422G (2.0%, 2,844G)
omegasuspekt: 1,404G (2.0%, 1,404G)
rico_flex: 1,352G (1.9%, 21,352G)
Shalloween: 1,300G (1.9%, 35,934G)
Nizaha: 1,245G (1.8%, 2,491G)
sinnyil2: 1,200G (1.7%, 35,149G)
Aldrammech: 1,000G (1.4%, 15,802G)
tikotikotiko: 1,000G (1.4%, 3,086G)
Rhuarc_Redhammer: 1,000G (1.4%, 22,205G)
CapnChaos12: 1,000G (1.4%, 33,358G)
MantisFinch: 1,000G (1.4%, 39,359G)
Tougou: 1,000G (1.4%, 36,065G)
ko2q: 1,000G (1.4%, 26,149G)
tinytittyfiend: 1,000G (1.4%, 7,352G)
datadrivenbot: 1,000G (1.4%, 1,632G)
AlenaZarek: 1,000G (1.4%, 29,144G)
onetrickwolf: 1,000G (1.4%, 12,940G)
Ranmilia: 988G (1.4%, 988G)
gooseyourself: 903G (1.3%, 1,771G)
getthemoneyz: 840G (1.2%, 510,804G)
nifboy: 816G (1.2%, 816G)
NovaKnight21: 600G (0.9%, 16,589G)
fenaen: 600G (0.9%, 11,442G)
DustBirdEX: 600G (0.9%, 13,705G)
roqqqpsi: 547G (0.8%, 2,488G)
KasugaiRoastedPeas: 510G (0.7%, 18,521G)
superdevon1: 500G (0.7%, 3,753G)
DeathTaxesAndAnime: 500G (0.7%, 14,882G)
Estan_AD: 500G (0.7%, 13,377G)
Billybones5150: 500G (0.7%, 9,073G)
Bryon_W: 500G (0.7%, 7,618G)
EnemyController: 500G (0.7%, 42,176G)
SwaffleWaffles: 337G (0.5%, 8,439G)
b0shii: 333G (0.5%, 5,748G)
Lanshaft: 320G (0.5%, 3,328G)
alrightbye: 320G (0.5%, 47,435G)
Cataphract116: 300G (0.4%, 23,078G)
Lavatis: 300G (0.4%, 7,544G)
dodgeroll: 255G (0.4%, 255G)
powergems: 250G (0.4%, 8,251G)
RunicMagus: 250G (0.4%, 41,041G)
itsonlyspencer: 200G (0.3%, 6,554G)
BirbBrainsBot: 200G (0.3%, 200G)
DrAntiSocial: 100G (0.1%, 1,980G)
IndecisiveNinja: 100G (0.1%, 109,262G)
LazarusAjin: 100G (0.1%, 21,724G)

brown bets:
TheChainNerd: 10,000G (25.6%, 171,678G)
itzover9001: 5,270G (13.5%, 5,270G)
LAGBOT30000: 2,415G (6.2%, 48,309G)
tinyjeans: 2,008G (5.1%, 2,008G)
WireLord: 2,000G (5.1%, 45,807G)
MrDiggs49: 2,000G (5.1%, 5,436G)
VySaika: 1,347G (3.4%, 1,347G)
kai_shee: 1,001G (2.6%, 130,595G)
OmnibotGamma: 1,000G (2.6%, 15,323G)
Pie108: 1,000G (2.6%, 28,873G)
mirapoix: 1,000G (2.6%, 9,159G)
MoonSlayerRS: 964G (2.5%, 964G)
Zachara: 875G (2.2%, 59,857G)
Spartan_Paladin: 870G (2.2%, 42,873G)
helpimabug: 832G (2.1%, 832G)
coledot_: 804G (2.1%, 8,049G)
Jordache7K: 800G (2.0%, 800G)
Fenrislfr: 604G (1.5%, 604G)
Laserman1000: 600G (1.5%, 24,300G)
TheMM42: 500G (1.3%, 6,352G)
ericzubat: 500G (1.3%, 2,514G)
TheGuesty: 350G (0.9%, 4,699G)
Sairentozon7: 304G (0.8%, 304G)
CorpusCav: 250G (0.6%, 24,750G)
ThePuss: 248G (0.6%, 248G)
jjones032109: 200G (0.5%, 4,358G)
SquidgyXom: 200G (0.5%, 6,418G)
nedryerson01: 200G (0.5%, 6,547G)
ungabunga_bot: 162G (0.4%, 171,496G)
xeurian: 108G (0.3%, 108G)
FriendSquirrel: 100G (0.3%, 7,839G)
MeleeWizard: 100G (0.3%, 2,944G)
Lordminsc: 100G (0.3%, 20,975G)
MyFakeLife: 100G (0.3%, 51,898G)
Kellios11: 100G (0.3%, 7,130G)
duskps: 100G (0.3%, 5,389G)
ZephyrTempest: 100G (0.3%, 139,090G)
