Final Bets: black - 22 bets for 10,720G (43.5%, x1.30); brown - 15 bets for 13,938G (56.5%, x0.77)

black bets:
Grimmace45: 1,165G (10.9%, 23,314G)
BirbBrainsBot: 1,000G (9.3%, 64,991G)
Mtueni: 1,000G (9.3%, 3,652G)
Lionhermit: 1,000G (9.3%, 55,098G)
Laserman1000: 721G (6.7%, 31,721G)
volgrathemoose: 671G (6.3%, 1,342G)
JumbocactuarX27: 548G (5.1%, 548G)
Estan_AD: 512G (4.8%, 512G)
Theseawolf1: 500G (4.7%, 46,024G)
AUrato: 500G (4.7%, 3,761G)
twelfthrootoftwo: 500G (4.7%, 8,184G)
HaateXIII: 404G (3.8%, 404G)
ApplesauceBoss: 320G (3.0%, 7,664G)
CapnChaos12: 300G (2.8%, 4,366G)
Lordminsc: 300G (2.8%, 970G)
CorpusCav: 255G (2.4%, 10,695G)
jwchapm: 240G (2.2%, 240G)
Drusic: 220G (2.1%, 220G)
SuicideKing_XIX: 200G (1.9%, 563G)
getthemoneyz: 164G (1.5%, 676,455G)
maakur_: 100G (0.9%, 3,167G)
datadrivenbot: 100G (0.9%, 17,026G)

brown bets:
Mesmaster: 3,000G (21.5%, 37,603G)
Zeroroute: 2,366G (17.0%, 2,366G)
alecttox: 2,281G (16.4%, 2,281G)
DustBirdEX: 1,730G (12.4%, 1,730G)
toka222: 1,650G (11.8%, 50,330G)
NicoSavoy: 1,000G (7.2%, 24,702G)
ungabunga_bot: 361G (2.6%, 500,632G)
KasugaiRoastedPeas: 340G (2.4%, 340G)
Dymntd: 332G (2.4%, 332G)
thethorndog1: 216G (1.5%, 216G)
BlackfyreRoy: 212G (1.5%, 212G)
UFOCATCHERDAILY: 150G (1.1%, 3,952G)
CosmicTactician: 100G (0.7%, 11,024G)
ko2q: 100G (0.7%, 1,688G)
MalakiGenesys: 100G (0.7%, 275G)
