Final Bets: white - 14 bets for 14,061G (50.4%, x0.98); black - 32 bets for 13,830G (49.6%, x1.02)

white bets:
DudeMonkey77: 6,330G (45.0%, 12,660G)
sinnyil2: 1,200G (8.5%, 54,570G)
BirbBrainsBot: 1,000G (7.1%, 146,421G)
bad1dea: 1,000G (7.1%, 363,438G)
YaBoy125: 790G (5.6%, 5,862G)
Lodrak: 756G (5.4%, 756G)
Maeveen: 711G (5.1%, 711G)
Shakarak: 580G (4.1%, 580G)
waterwatereverywhere: 400G (2.8%, 5,183G)
fenaen: 380G (2.7%, 380G)
CorpusCav: 300G (2.1%, 5,374G)
ZephyrTempest: 282G (2.0%, 19,208G)
ugoplatamia: 200G (1.4%, 19,860G)
MrDiggs49: 132G (0.9%, 132G)

black bets:
TheMurkGnome: 1,373G (9.9%, 1,373G)
SkylerBunny: 1,367G (9.9%, 1,367G)
lunatickzero: 1,000G (7.2%, 11,627G)
TycerNova: 1,000G (7.2%, 1,923G)
WireLord: 1,000G (7.2%, 2,158G)
Virilikus: 960G (6.9%, 960G)
MoonSlayerRS: 746G (5.4%, 746G)
Lanshaft: 600G (4.3%, 3,068G)
Zeroroute: 500G (3.6%, 500G)
Conome: 500G (3.6%, 7,152G)
JIDkomu: 483G (3.5%, 483G)
mirapoix: 464G (3.4%, 464G)
omegasuspekt: 444G (3.2%, 2,235G)
DrAntiSocial: 420G (3.0%, 1,555G)
urieltheflameofgod: 400G (2.9%, 6,556G)
Baron_von_Scrub: 252G (1.8%, 1,020G)
Snowfats: 250G (1.8%, 6,840G)
ig_ats: 250G (1.8%, 1,855G)
getthemoneyz: 204G (1.5%, 414,364G)
Afro_Gundam: 200G (1.4%, 1,104G)
NytFantom: 200G (1.4%, 862G)
TheRobbieRobster: 176G (1.3%, 176G)
rjA0zcOQ96: 141G (1.0%, 2,361G)
AllInBot: 100G (0.7%, 100G)
maakur_: 100G (0.7%, 1,936G)
Nizaha: 100G (0.7%, 18,058G)
Tithonus: 100G (0.7%, 6,875G)
ApplesauceBoss: 100G (0.7%, 2,221G)
twelfthrootoftwo: 100G (0.7%, 5,895G)
wabicajo: 100G (0.7%, 900G)
ko2q: 100G (0.7%, 1,773G)
Kronikle: 100G (0.7%, 3,483G)
