Final Bets: white - 18 bets for 19,568G (67.1%, x0.49); champion - 16 bets for 9,593G (32.9%, x2.04)

white bets:
nhammen: 4,000G (20.4%, 429,374G)
Shalloween: 3,000G (15.3%, 20,711G)
DavenIII: 2,500G (12.8%, 10,019G)
Greggernaut: 2,000G (10.2%, 7,607G)
lowlf: 1,041G (5.3%, 1,041G)
Snowfats: 1,000G (5.1%, 11,357G)
Aldrammech: 1,000G (5.1%, 17,189G)
reinoe: 1,000G (5.1%, 12,908G)
E_Ballard: 836G (4.3%, 113,868G)
Nizaha: 796G (4.1%, 84,813G)
ColetteMSLP: 500G (2.6%, 2,950G)
BoneMiser: 440G (2.2%, 440G)
Blaster_Bomb: 400G (2.0%, 2,864G)
NicoSavoy: 324G (1.7%, 324G)
holandrix: 230G (1.2%, 230G)
datadrivenbot: 200G (1.0%, 65,474G)
JustDoomathon: 200G (1.0%, 1,064G)
gorgewall: 101G (0.5%, 6,350G)

champion bets:
SephDarkheart: 2,107G (22.0%, 2,107G)
Mesmaster: 2,000G (20.8%, 106,879G)
BirbBrainsBot: 1,000G (10.4%, 64,464G)
Lydian_C: 760G (7.9%, 35,732G)
douchetron: 700G (7.3%, 700G)
JonnyCue: 500G (5.2%, 18,189G)
3ngag3: 345G (3.6%, 345G)
Panushenko: 344G (3.6%, 344G)
thebluesman: 300G (3.1%, 1,309G)
poorest_hobo: 290G (3.0%, 290G)
krombobreaker: 256G (2.7%, 8,812G)
Lord_Gwarth: 250G (2.6%, 4,598G)
pepperbuster: 220G (2.3%, 220G)
Omally_: 212G (2.2%, 216G)
getthemoneyz: 182G (1.9%, 1,816,146G)
bigbongsmoker: 127G (1.3%, 127G)
