Final Bets: red - 25 bets for 12,645G (62.1%, x0.61); blue - 18 bets for 7,713G (37.9%, x1.64)

red bets:
nifboy: 1,768G (14.0%, 1,768G)
Aldrammech: 1,000G (7.9%, 6,145G)
ungabunga_bot: 1,000G (7.9%, 510,032G)
HaateXIII: 902G (7.1%, 902G)
roofiepops: 900G (7.1%, 43,212G)
LionelParks: 620G (4.9%, 620G)
getthemoneyz: 612G (4.8%, 679,625G)
killth3kid: 555G (4.4%, 9,612G)
Tsuike: 516G (4.1%, 516G)
eudes89: 503G (4.0%, 503G)
sSwing: 500G (4.0%, 1,800G)
bradsmr: 500G (4.0%, 3,137G)
Estan_AD: 467G (3.7%, 934G)
namamu: 400G (3.2%, 9,962G)
CorpusCav: 400G (3.2%, 5,467G)
mpghappiness: 382G (3.0%, 382G)
Evewho: 340G (2.7%, 340G)
jwchapm: 264G (2.1%, 264G)
GeeGXP: 204G (1.6%, 204G)
JLinkletter: 200G (1.6%, 5,750G)
KasugaiRoastedPeas: 200G (1.6%, 1,248G)
bahamutlagooon: 107G (0.8%, 10,747G)
DoublePrizes: 105G (0.8%, 105G)
GladiatorLupe: 100G (0.8%, 100G)
datadrivenbot: 100G (0.8%, 18,837G)

blue bets:
TheMM42: 2,089G (27.1%, 2,089G)
reinoe: 1,000G (13.0%, 5,439G)
HaplessOne: 777G (10.1%, 98,609G)
Zeroroute: 630G (8.2%, 630G)
Laserman1000: 597G (7.7%, 20,797G)
Breakdown777: 500G (6.5%, 6,989G)
ApplesauceBoss: 364G (4.7%, 364G)
kaidykat: 300G (3.9%, 1,340G)
sukotsuto: 300G (3.9%, 12,679G)
BirbBrainsBot: 278G (3.6%, 99,855G)
Digitalsocrates: 220G (2.9%, 220G)
Jampck: 108G (1.4%, 108G)
RunicMagus: 100G (1.3%, 36,922G)
Arbitae: 100G (1.3%, 300G)
flametail24: 100G (1.3%, 2,210G)
zebobz: 100G (1.3%, 660G)
zzaanexx: 100G (1.3%, 2,067G)
Letsfighting: 50G (0.6%, 844G)
