Final Bets: green - 14 bets for 3,915G (19.5%, x4.13); yellow - 29 bets for 16,152G (80.5%, x0.24)

green bets:
Baron_von_Scrub: 748G (19.1%, 2,728G)
Aldrammech: 600G (15.3%, 600G)
mirapoix: 585G (14.9%, 1,171G)
MrDiggs49: 500G (12.8%, 500G)
Breakdown777: 300G (7.7%, 7,887G)
Meta_Five: 200G (5.1%, 8,016G)
michio_plays: 200G (5.1%, 531G)
getthemoneyz: 182G (4.6%, 479,683G)
ApplesauceBoss: 100G (2.6%, 5,162G)
BanquoViaquo: 100G (2.6%, 117G)
RunicMagus: 100G (2.6%, 1,533G)
Evewho: 100G (2.6%, 2,608G)
twelfthrootoftwo: 100G (2.6%, 4,199G)
rico_flex: 100G (2.6%, 1,563G)

yellow bets:
roofiepops: 3,542G (21.9%, 3,542G)
HaplessOne: 2,000G (12.4%, 56,332G)
Shalloween: 1,200G (7.4%, 33,569G)
BirbBrainsBot: 1,000G (6.2%, 97,587G)
reinoe: 1,000G (6.2%, 20,438G)
datadrivenbot: 856G (5.3%, 14,646G)
LuckyLuckLuc2: 773G (4.8%, 773G)
NoNotBees: 585G (3.6%, 585G)
HASTERIOUS: 557G (3.4%, 1,093G)
ko2q: 500G (3.1%, 1,628G)
ungabunga_bot: 482G (3.0%, 114,900G)
CapnChaos12: 436G (2.7%, 436G)
arch8000: 400G (2.5%, 13,361G)
JoeykinsGaming: 300G (1.9%, 2,683G)
alrightbye: 300G (1.9%, 6,215G)
Webb_MD: 266G (1.6%, 266G)
killth3kid: 244G (1.5%, 4,283G)
moonliquor: 244G (1.5%, 244G)
AllInBot: 215G (1.3%, 215G)
DohItAgain: 200G (1.2%, 200G)
skysa250: 200G (1.2%, 11,700G)
DeathTaxesAndAnime: 150G (0.9%, 1,797G)
portmanteur: 137G (0.8%, 275G)
haplo064: 100G (0.6%, 100G)
Lythe_Caraker: 100G (0.6%, 97,949G)
Dymntd: 100G (0.6%, 100G)
Jerboj: 100G (0.6%, 42,439G)
daveb_: 88G (0.5%, 2,719G)
Ross_from_Cali: 77G (0.5%, 1,069G)
