Final Bets: black - 18 bets for 10,450G (39.1%, x1.56); brown - 15 bets for 16,267G (60.9%, x0.64)

black bets:
NoNotBees: 2,780G (26.6%, 2,780G)
Aldrammech: 1,100G (10.5%, 1,100G)
reinoe: 1,000G (9.6%, 21,474G)
michio_plays: 984G (9.4%, 984G)
LuckyLuckLuc2: 684G (6.5%, 684G)
datadrivenbot: 625G (6.0%, 13,749G)
Meta_Five: 500G (4.8%, 9,536G)
Mrasin: 500G (4.8%, 23,487G)
Tacobowl8: 500G (4.8%, 800G)
CorpusCav: 400G (3.8%, 6,261G)
HASTERIOUS: 255G (2.4%, 1,125G)
galkife: 250G (2.4%, 79,946G)
b0shii: 222G (2.1%, 1,666G)
KasugaiRoastedPeas: 200G (1.9%, 5,304G)
DrAntiSocial: 150G (1.4%, 5,032G)
ApplesauceBoss: 100G (1.0%, 5,775G)
DeathTaxesAndAnime: 100G (1.0%, 1,940G)
RunicMagus: 100G (1.0%, 1,310G)

brown bets:
HaplessOne: 3,333G (20.5%, 56,793G)
JoeykinsGaming: 3,003G (18.5%, 3,003G)
MrDiggs49: 2,000G (12.3%, 5,354G)
moonliquor: 1,144G (7.0%, 1,144G)
ungabunga_bot: 1,000G (6.1%, 115,059G)
BirbBrainsBot: 1,000G (6.1%, 96,551G)
skysa250: 1,000G (6.1%, 8,300G)
haplo064: 970G (6.0%, 970G)
Shalloween: 900G (5.5%, 32,765G)
ColetteMSLP: 500G (3.1%, 33,436G)
Breakdown777: 500G (3.1%, 10,204G)
AllInBot: 353G (2.2%, 353G)
EnemyController: 298G (1.8%, 40,498G)
daveb_: 200G (1.2%, 3,305G)
getthemoneyz: 66G (0.4%, 481,237G)
