Final Bets: green - 11 bets for 6,659G (30.5%, x2.28); brown - 20 bets for 15,200G (69.5%, x0.44)

green bets:
mirapoix: 1,515G (22.8%, 3,031G)
Aldrammech: 1,100G (16.5%, 1,100G)
MrDiggs49: 1,000G (15.0%, 6,643G)
NoNotBees: 732G (11.0%, 732G)
pandasforsale: 666G (10.0%, 12,654G)
AllInBot: 580G (8.7%, 580G)
HASTERIOUS: 443G (6.7%, 870G)
ANFz: 200G (3.0%, 4,826G)
Tacobowl8: 200G (3.0%, 300G)
rico_flex: 123G (1.8%, 3,865G)
moonliquor: 100G (1.5%, 879G)

brown bets:
HaplessOne: 2,500G (16.4%, 59,438G)
Arunic: 2,000G (13.2%, 12,797G)
JoeykinsGaming: 1,932G (12.7%, 4,932G)
haplo064: 1,093G (7.2%, 1,093G)
skysa250: 1,000G (6.6%, 9,442G)
ungabunga_bot: 1,000G (6.6%, 115,701G)
BirbBrainsBot: 1,000G (6.6%, 97,193G)
reinoe: 1,000G (6.6%, 20,974G)
LuckyLuckLuc2: 684G (4.5%, 684G)
datadrivenbot: 684G (4.5%, 13,124G)
NovaKnight21: 600G (3.9%, 6,040G)
ColetteMSLP: 500G (3.3%, 34,257G)
EnemyController: 389G (2.6%, 40,689G)
daveb_: 200G (1.3%, 4,433G)
KasugaiRoastedPeas: 200G (1.3%, 5,104G)
ApplesauceBoss: 100G (0.7%, 6,175G)
DrAntiSocial: 100G (0.7%, 5,382G)
RunicMagus: 100G (0.7%, 1,710G)
electric_glass: 100G (0.7%, 4,940G)
getthemoneyz: 18G (0.1%, 481,279G)
