Final Bets: red - 11 bets for 6,832G (40.5%, x1.47); blue - 13 bets for 10,044G (59.5%, x0.68)

red bets:
Chambs12: 2,040G (29.9%, 2,040G)
toka222: 1,500G (22.0%, 91,928G)
VolgraTheMoose: 901G (13.2%, 901G)
Shalloween: 500G (7.3%, 17,664G)
douchetron: 472G (6.9%, 472G)
dogsandcatsand: 420G (6.1%, 14,637G)
TasisSai: 400G (5.9%, 14,605G)
roqqqpsi: 239G (3.5%, 369G)
Wooplestein: 228G (3.3%, 228G)
GoatShow2: 100G (1.5%, 120G)
getthemoneyz: 32G (0.5%, 1,460,300G)

blue bets:
evdoggity: 4,000G (39.8%, 254,315G)
HaateXIII: 1,335G (13.3%, 1,335G)
Zagorsek: 1,256G (12.5%, 2,513G)
BirbBrainsBot: 1,000G (10.0%, 118,387G)
silentkaster: 517G (5.1%, 3,717G)
AlenaZarek: 500G (5.0%, 45,487G)
pandasforsale: 436G (4.3%, 436G)
maximumcrit: 300G (3.0%, 10,419G)
AllInBot: 200G (2.0%, 200G)
datadrivenbot: 200G (2.0%, 44,692G)
mirapoix: 100G (1.0%, 4,166G)
SensualADC: 100G (1.0%, 565G)
Grandlanzer: 100G (1.0%, 126,703G)
