Final Bets: black - 19 bets for 24,827G (79.6%, x0.26); purple - 7 bets for 6,366G (20.4%, x3.90)

black bets:
dogsandcatsand: 6,787G (27.3%, 13,575G)
Bryon_W: 3,000G (12.1%, 6,602G)
reinoe: 2,000G (8.1%, 84,423G)
AlenaZarek: 1,500G (6.0%, 47,933G)
douchetron: 1,309G (5.3%, 1,309G)
Thyrandaal: 1,234G (5.0%, 133,543G)
mpghappiness: 1,180G (4.8%, 1,180G)
VolgraTheMoose: 1,176G (4.7%, 1,176G)
Forkmore: 1,000G (4.0%, 5,795G)
getthemoneyz: 1,000G (4.0%, 1,460,450G)
BirbBrainsBot: 1,000G (4.0%, 120,370G)
RaIshtar: 1,000G (4.0%, 2,587G)
Chambs12: 745G (3.0%, 745G)
roqqqpsi: 593G (2.4%, 625G)
maximumcrit: 500G (2.0%, 10,000G)
Wooplestein: 303G (1.2%, 303G)
reddwind_: 200G (0.8%, 9,740G)
datadrivenbot: 200G (0.8%, 44,598G)
CosmicTactician: 100G (0.4%, 25,525G)

purple bets:
kahjeethaswares: 1,681G (26.4%, 1,681G)
SkylerBunny: 1,500G (23.6%, 82,566G)
Zachara: 1,100G (17.3%, 130,100G)
Zeroroute: 912G (14.3%, 912G)
Hasterious: 665G (10.4%, 665G)
AllInBot: 266G (4.2%, 266G)
SensualADC: 242G (3.8%, 842G)
