Final Bets: blue - 14 bets for 10,795G (46.9%, x1.13); champion - 19 bets for 12,217G (53.1%, x0.88)

blue bets:
SkylerBunny: 2,000G (18.5%, 81,066G)
Zeroroute: 1,629G (15.1%, 1,629G)
dogsandcatsand: 1,500G (13.9%, 17,600G)
BirbBrainsBot: 1,000G (9.3%, 122,340G)
Thyrandaal: 1,000G (9.3%, 141,689G)
AlenaZarek: 1,000G (9.3%, 46,318G)
Laserman1000: 636G (5.9%, 636G)
nekojin: 500G (4.6%, 11,134G)
Shalloween: 500G (4.6%, 16,760G)
douchetron: 472G (4.4%, 472G)
kahjeethaswares: 252G (2.3%, 252G)
AllInBot: 200G (1.9%, 200G)
mirapoix: 100G (0.9%, 4,134G)
getthemoneyz: 6G (0.1%, 1,460,891G)

champion bets:
maximumcrit: 3,000G (24.6%, 9,628G)
reinoe: 3,000G (24.6%, 83,936G)
Seaweed_B: 1,000G (8.2%, 30,472G)
VolgraTheMoose: 884G (7.2%, 884G)
DeathTaxesAndAnime: 816G (6.7%, 816G)
Lyner87: 501G (4.1%, 74,774G)
letdowncity: 476G (3.9%, 15,987G)
Forkmore: 364G (3.0%, 4,714G)
RaIshtar: 304G (2.5%, 304G)
Chambs12: 264G (2.2%, 736G)
roqqqpsi: 243G (2.0%, 256G)
Wooplestein: 228G (1.9%, 228G)
Othatmattkid: 220G (1.8%, 220G)
TasisSai: 200G (1.6%, 13,775G)
reddwind_: 200G (1.6%, 9,795G)
datadrivenbot: 200G (1.6%, 44,449G)
RetroGameCommander: 117G (1.0%, 117G)
WillFitzgerald: 100G (0.8%, 10,454G)
CosmicTactician: 100G (0.8%, 25,451G)
