Final Bets: white - 16 bets for 11,274G (76.7%, x0.30); black - 8 bets for 3,423G (23.3%, x3.29)

white bets:
DavenIII: 2,500G (22.2%, 96,758G)
toka222: 2,000G (17.7%, 136,847G)
latebit: 1,557G (13.8%, 3,053G)
BirbBrainsBot: 1,000G (8.9%, 48,438G)
Willjin: 1,000G (8.9%, 21,912G)
Error72: 612G (5.4%, 612G)
LDSkinny: 560G (5.0%, 560G)
getthemoneyz: 530G (4.7%, 1,668,699G)
skipsandwiches: 437G (3.9%, 437G)
NIghtdew14: 360G (3.2%, 360G)
datadrivenbot: 200G (1.8%, 64,590G)
RunicMagus: 150G (1.3%, 6,435G)
gorgewall: 101G (0.9%, 5,752G)
CosmicTactician: 100G (0.9%, 28,635G)
Bongomon7: 100G (0.9%, 3,404G)
Docrad_: 67G (0.6%, 134G)

black bets:
E_Ballard: 1,286G (37.6%, 2,573G)
SephDarkheart: 600G (17.5%, 113,102G)
brenogarwin: 597G (17.4%, 597G)
Rikrizen: 354G (10.3%, 7,097G)
AllInBot: 286G (8.4%, 286G)
MinBetBot: 100G (2.9%, 5,895G)
FFMaster: 100G (2.9%, 441G)
NewbGaming: 100G (2.9%, 2,292G)
