Final Bets: purple - 13 bets for 5,968G (28.0%, x2.57); brown - 13 bets for 15,355G (72.0%, x0.39)

purple bets:
AllInBot: 1,228G (20.6%, 1,228G)
Sairentozon7: 1,000G (16.8%, 25,081G)
getthemoneyz: 728G (12.2%, 1,668,169G)
SephDarkheart: 600G (10.1%, 115,078G)
Error72: 476G (8.0%, 476G)
BirbBrainsBot: 471G (7.9%, 47,438G)
NIghtdew14: 360G (6.0%, 360G)
reddwind_: 304G (5.1%, 304G)
WhiteTigress: 200G (3.4%, 5,393G)
NewbGaming: 200G (3.4%, 2,621G)
CosmicTactician: 200G (3.4%, 28,535G)
gorgewall: 101G (1.7%, 5,651G)
MinBetBot: 100G (1.7%, 6,224G)

brown bets:
toka222: 5,000G (32.6%, 134,847G)
DavenIII: 3,000G (19.5%, 94,258G)
Bryon_W: 2,000G (13.0%, 13,791G)
mirapoix: 1,742G (11.3%, 1,742G)
latebit: 1,496G (9.7%, 1,496G)
LDSkinny: 560G (3.6%, 560G)
Rikrizen: 413G (2.7%, 8,263G)
skipsandwiches: 340G (2.2%, 340G)
FFMaster: 300G (2.0%, 770G)
datadrivenbot: 200G (1.3%, 64,390G)
Docrad_: 104G (0.7%, 104G)
Bongomon7: 100G (0.7%, 3,304G)
RunicMagus: 100G (0.7%, 6,285G)
