Final Bets: blue - 10 bets for 5,933G (24.2%, x3.14); brown - 19 bets for 18,627G (75.8%, x0.32)

blue bets:
Willjin: 2,000G (33.7%, 21,658G)
Zeroroute: 1,993G (33.6%, 1,993G)
powergems: 700G (11.8%, 2,250G)
Error72: 476G (8.0%, 476G)
WhiteTigress: 200G (3.4%, 4,968G)
AllInBot: 156G (2.6%, 156G)
FFMaster: 104G (1.8%, 104G)
Docrad_: 104G (1.8%, 104G)
ko2q: 100G (1.7%, 4,207G)
Tarheels218: 100G (1.7%, 2,988G)

brown bets:
DavenIII: 5,000G (26.8%, 95,424G)
toka222: 3,500G (18.8%, 139,536G)
mirapoix: 2,419G (13.0%, 2,419G)
latebit: 2,371G (12.7%, 2,371G)
Bryon_W: 1,000G (5.4%, 13,421G)
BirbBrainsBot: 1,000G (5.4%, 47,481G)
pandasforsale: 999G (5.4%, 6,234G)
NIghtdew14: 415G (2.2%, 415G)
holdenmagronik: 348G (1.9%, 1,139G)
xBizzy: 256G (1.4%, 4,205G)
getthemoneyz: 212G (1.1%, 1,666,999G)
Lyner87: 200G (1.1%, 93,685G)
datadrivenbot: 200G (1.1%, 64,296G)
Truewarrior71: 156G (0.8%, 156G)
Freezerman47: 151G (0.8%, 151G)
MinBetBot: 100G (0.5%, 5,924G)
Thyrandaal: 100G (0.5%, 483,499G)
Bongomon7: 100G (0.5%, 3,243G)
RunicMagus: 100G (0.5%, 6,238G)
