Final Bets: yellow - 12 bets for 14,661G (45.9%, x1.18); champion - 17 bets for 17,287G (54.1%, x0.85)

yellow bets:
VolgraTheMoose: 5,001G (34.1%, 127,969G)
Virilikus: 5,000G (34.1%, 202,523G)
Lord_Burrah: 1,395G (9.5%, 122,895G)
Nizaha: 808G (5.5%, 89,135G)
Zeroroute: 573G (3.9%, 2,047G)
Smashy: 500G (3.4%, 10,811G)
Tarheels218: 364G (2.5%, 1,601G)
krombobreaker: 268G (1.8%, 5,614G)
getthemoneyz: 252G (1.7%, 1,811,463G)
CosmicTactician: 200G (1.4%, 47,010G)
KasugaiRoastedPeas: 200G (1.4%, 2,315G)
DeathTaxesAndAnime: 100G (0.7%, 19,203G)

champion bets:
Thyrandaal: 4,000G (23.1%, 44,968G)
Forkmore: 3,333G (19.3%, 47,284G)
DavenIII: 2,500G (14.5%, 9,120G)
Mesmaster: 2,000G (11.6%, 175,578G)
Lifebregin: 1,000G (5.8%, 18,289G)
BirbBrainsBot: 1,000G (5.8%, 72,988G)
E_Ballard: 852G (4.9%, 119,145G)
letdowncity: 548G (3.2%, 37,385G)
DLJuggernaut: 500G (2.9%, 500G)
Lemonjohns: 420G (2.4%, 4,159G)
SephDarkheart: 328G (1.9%, 3,754G)
resjudicata3: 200G (1.2%, 10,983G)
RobotOcelot: 200G (1.2%, 7,007G)
Lydian_C: 123G (0.7%, 22,226G)
Verathis: 104G (0.6%, 104G)
3ngag3: 100G (0.6%, 1,754G)
dogsandcatsand: 79G (0.5%, 903G)
