Final Bets: black - 24 bets for 16,153G (67.3%, x0.49); purple - 13 bets for 7,837G (32.7%, x2.06)

black bets:
Bryon_W: 2,317G (14.3%, 2,317G)
genericco: 1,640G (10.2%, 1,640G)
Sairentozon7: 1,300G (8.0%, 1,300G)
DeathTaxesAndAnime: 1,093G (6.8%, 1,093G)
Grimmace45: 1,056G (6.5%, 21,123G)
CosmicTactician: 1,000G (6.2%, 23,109G)
FriendSquirrel: 980G (6.1%, 980G)
fenaen: 900G (5.6%, 4,204G)
CapnChaos12: 806G (5.0%, 806G)
Baron_von_Scrub: 796G (4.9%, 796G)
holyonline: 509G (3.2%, 509G)
Rislyeu: 500G (3.1%, 4,525G)
EnemyController: 500G (3.1%, 319,245G)
bruubarg: 500G (3.1%, 3,439G)
vorap: 500G (3.1%, 76,755G)
d4rr1n: 462G (2.9%, 4,629G)
AlenaZarek: 300G (1.9%, 46,203G)
HaateXIII: 250G (1.5%, 2,430G)
KasugaiRoastedPeas: 200G (1.2%, 404G)
zepharoth89: 144G (0.9%, 144G)
FoeSquirrel: 100G (0.6%, 1,639G)
datadrivenbot: 100G (0.6%, 22,099G)
Meta_Five: 100G (0.6%, 11,048G)
Firesheath: 100G (0.6%, 767G)

purple bets:
thefyeman: 2,000G (25.5%, 52,565G)
BirbBrainsBot: 1,000G (12.8%, 108,534G)
DustBirdEX: 815G (10.4%, 1,630G)
getthemoneyz: 788G (10.1%, 692,747G)
GnielKnows: 756G (9.6%, 756G)
HASTERIOUS: 664G (8.5%, 13,293G)
skillomono: 600G (7.7%, 8,252G)
Cryptopsy70: 587G (7.5%, 587G)
aznwanderor: 232G (3.0%, 232G)
aurosaerondo: 145G (1.9%, 145G)
nifboy: 100G (1.3%, 5,843G)
a_mo22: 100G (1.3%, 3,142G)
letdowncity: 50G (0.6%, 1,740G)
