Final Bets: purple - 20 bets for 15,915G (59.7%, x0.68); brown - 9 bets for 10,756G (40.3%, x1.48)

purple bets:
seppu777: 2,125G (13.4%, 2,125G)
Lord_Gwarth: 2,000G (12.6%, 12,215G)
MoonSugarFiend: 2,000G (12.6%, 49,256G)
CorpusCav: 1,500G (9.4%, 54,530G)
GenZealot: 1,000G (6.3%, 15,643G)
getthemoneyz: 1,000G (6.3%, 2,189,564G)
BirbBrainsBot: 1,000G (6.3%, 134,136G)
ExplanationMarkWow: 1,000G (6.3%, 30,817G)
ko2q: 893G (5.6%, 893G)
krombobreaker: 500G (3.1%, 41,752G)
khelor_: 500G (3.1%, 9,655G)
AltimaMantoid: 500G (3.1%, 13,000G)
2b_yorha_b: 500G (3.1%, 30,306G)
ValensEXP_: 372G (2.3%, 5,222G)
Blaster_Bomb: 300G (1.9%, 2,927G)
CosmicTactician: 200G (1.3%, 2,072G)
datadrivenbot: 200G (1.3%, 85,038G)
FuzzyTigers: 124G (0.8%, 124G)
gorgewall: 101G (0.6%, 5,649G)
dfunk3d: 100G (0.6%, 3,109G)

brown bets:
Thyrandaal: 7,537G (70.1%, 14,780G)
Firesheath: 780G (7.3%, 780G)
Zagorsek: 661G (6.1%, 661G)
reinoe: 500G (4.6%, 21,630G)
AtmaIllumina: 450G (4.2%, 919G)
GrindFox1: 300G (2.8%, 300G)
Lydian_C: 240G (2.2%, 6,986G)
AllInBot: 238G (2.2%, 238G)
DrAntiSocial: 50G (0.5%, 1,076G)
