Final Bets: blue - 24 bets for 16,469G (64.6%, x0.55); champion - 20 bets for 9,033G (35.4%, x1.82)

blue bets:
E_Ballard: 5,834G (35.4%, 5,834G)
dogsandcatsand: 1,000G (6.1%, 11,009G)
Mesmaster: 1,000G (6.1%, 80,278G)
wooyuji: 1,000G (6.1%, 3,044G)
red__lancer: 1,000G (6.1%, 66,591G)
leakimiko: 1,000G (6.1%, 37,297G)
BirbBrainsBot: 784G (4.8%, 169,643G)
toka222: 700G (4.3%, 36,011G)
Estan_AD: 584G (3.5%, 584G)
killth3kid: 576G (3.5%, 3,361G)
Lolprinze: 518G (3.1%, 518G)
reinoe: 500G (3.0%, 11,268G)
ShintaroNayaka: 400G (2.4%, 2,751G)
rechaun: 376G (2.3%, 376G)
otakutaylor: 300G (1.8%, 1,878G)
joewcarson: 300G (1.8%, 2,762G)
StealthModeLocke: 100G (0.6%, 40,385G)
Tougou: 100G (0.6%, 4,950G)
gggamezzz: 100G (0.6%, 4,136G)
datadrivenbot: 100G (0.6%, 18,392G)
volgrathemoose: 84G (0.5%, 1,000G)
daveb_: 55G (0.3%, 1,468G)
getthemoneyz: 34G (0.2%, 683,992G)
Tsuike: 24G (0.1%, 552G)

champion bets:
FlohIristhrae: 1,000G (11.1%, 10,003G)
LDSkinny: 1,000G (11.1%, 50,450G)
ungabunga_bot: 1,000G (11.1%, 513,449G)
MrDiggs49: 663G (7.3%, 663G)
JumbocactuarX27: 568G (6.3%, 568G)
HaplessOne: 552G (6.1%, 552G)
DeathTaxesAndAnime: 544G (6.0%, 544G)
Dymntd: 500G (5.5%, 1,739G)
Laserman1000: 500G (5.5%, 10,500G)
EnemyController: 500G (5.5%, 249,714G)
DustBirdEX: 456G (5.0%, 17,534G)
CapnChaos12: 300G (3.3%, 1,830G)
SQUiDSQUARKLIN: 300G (3.3%, 4,335G)
skillomono: 300G (3.3%, 3,425G)
nifboy: 250G (2.8%, 3,224G)
AUrato: 200G (2.2%, 7,250G)
maakur_: 100G (1.1%, 5,872G)
CosmicTactician: 100G (1.1%, 6,356G)
bringmoreknives: 100G (1.1%, 1,260G)
wizblizz: 100G (1.1%, 2,288G)
