Final Bets: purple - 22 bets for 11,272G (46.8%, x1.13); brown - 26 bets for 12,790G (53.2%, x0.88)

purple bets:
DHaveWord: 1,543G (13.7%, 1,543G)
Shalloween: 1,500G (13.3%, 32,754G)
mirapoix: 1,219G (10.8%, 1,219G)
Lodrak: 1,001G (8.9%, 9,648G)
HaplessOne: 1,000G (8.9%, 20,561G)
Goust18: 1,000G (8.9%, 20,848G)
nomoment: 500G (4.4%, 12,129G)
AllInBot: 375G (3.3%, 375G)
ryokubaka: 363G (3.2%, 363G)
AlenaZarek: 350G (3.1%, 17,659G)
SpaZmodeus: 333G (3.0%, 2,731G)
Oshimi12: 300G (2.7%, 1,831G)
fenaen: 300G (2.7%, 4,965G)
MrDiggs49: 300G (2.7%, 7,357G)
baconbacon1207: 300G (2.7%, 12,855G)
sweetbeetpete: 200G (1.8%, 200G)
ungabunga_bot: 177G (1.6%, 5,204G)
byrdturbo: 111G (1.0%, 838G)
Alc_Trinity: 100G (0.9%, 25,311G)
Club_Sodar: 100G (0.9%, 1,356G)
lotharek: 100G (0.9%, 900G)
Ficklebeast: 100G (0.9%, 1,043G)

brown bets:
TheChainNerd: 2,201G (17.2%, 11,008G)
ricky_ortease: 1,796G (14.0%, 1,796G)
sinnyil2: 1,200G (9.4%, 12,825G)
BirbBrainsBot: 1,000G (7.8%, 203,102G)
bad1dea: 1,000G (7.8%, 199,261G)
MantisFinch: 910G (7.1%, 9,108G)
friendsquirrel: 840G (6.6%, 840G)
Fallenmagi: 704G (5.5%, 704G)
ZestyArsenic: 400G (3.1%, 1,442G)
ShintaroNayaka: 400G (3.1%, 6,000G)
powergems: 300G (2.3%, 1,741G)
Gavbaa: 300G (2.3%, 1,890G)
ZephyrTempest: 283G (2.2%, 1,087G)
Aurilliux: 250G (2.0%, 8,571G)
getthemoneyz: 204G (1.6%, 355,268G)
Nizaha: 100G (0.8%, 8,484G)
glastonberry48: 100G (0.8%, 1,451G)
maakur_: 100G (0.8%, 58,686G)
JumbocactuarX27: 100G (0.8%, 2,167G)
Lordminsc: 100G (0.8%, 16,773G)
Heroebal: 100G (0.8%, 3,758G)
BadBlanket: 100G (0.8%, 1,530G)
RongRongArts: 100G (0.8%, 43,941G)
Av0ndale: 100G (0.8%, 542G)
ko2q: 100G (0.8%, 2,065G)
daveb_: 2G (0.0%, 3,253G)
