Final Bets: blue - 21 bets for 15,405G (61.0%, x0.64); black - 21 bets for 9,835G (39.0%, x1.57)

blue bets:
Mtueni: 5,000G (32.5%, 97,797G)
sinnyil2: 2,222G (14.4%, 13,351G)
HaplessOne: 1,148G (7.5%, 21,748G)
BirbBrainsBot: 1,000G (6.5%, 203,238G)
bad1dea: 1,000G (6.5%, 199,397G)
Shalloween: 800G (5.2%, 33,956G)
reinoe: 764G (5.0%, 764G)
nomoment: 500G (3.2%, 12,696G)
getthemoneyz: 426G (2.8%, 354,840G)
sweetbeetpete: 400G (2.6%, 427G)
BadBlanket: 384G (2.5%, 384G)
MeleeWizard: 300G (1.9%, 2,436G)
ShintaroNayaka: 300G (1.9%, 6,334G)
Icegoten: 200G (1.3%, 1,976G)
SealPoulpe: 200G (1.3%, 3,794G)
EODTex: 200G (1.3%, 5,010G)
AlenaZarek: 150G (1.0%, 18,214G)
Jordache7K: 111G (0.7%, 12,606G)
ungabunga_bot: 100G (0.6%, 5,523G)
SpaZmodeus: 100G (0.6%, 2,826G)
Rexamajinx: 100G (0.6%, 5,478G)

black bets:
TheChainNerd: 2,000G (20.3%, 9,277G)
DeathTaxesAndAnime: 1,006G (10.2%, 1,006G)
Lodrak: 1,001G (10.2%, 10,287G)
fenaen: 1,001G (10.2%, 6,140G)
DudeMonkey77: 1,000G (10.2%, 33,670G)
ryokubaka: 600G (6.1%, 1,293G)
Lanshaft: 572G (5.8%, 8,137G)
JumbocactuarX27: 398G (4.0%, 398G)
ricky_ortease: 353G (3.6%, 353G)
friendsquirrel: 340G (3.5%, 340G)
Club_Sodar: 333G (3.4%, 333G)
triniculo: 256G (2.6%, 256G)
gameman733: 200G (2.0%, 1,885G)
AllInBot: 163G (1.7%, 163G)
byrdturbo: 111G (1.1%, 853G)
Chao_Garden: 100G (1.0%, 1,652G)
Ficklebeast: 100G (1.0%, 1,106G)
Oshimi12: 100G (1.0%, 1,571G)
glastonberry48: 100G (1.0%, 1,414G)
ZephyrTempest: 100G (1.0%, 1,149G)
daveb_: 1G (0.0%, 3,251G)
