Final Bets: blue - 12 bets for 10,070G (61.0%, x0.64); green - 12 bets for 6,437G (39.0%, x1.56)

blue bets:
DavenIII: 3,000G (29.8%, 29,847G)
kaidykat: 1,540G (15.3%, 154,045G)
Nickyfive: 1,500G (14.9%, 37,916G)
Chronolynx42: 1,000G (9.9%, 51,876G)
serperemagus: 804G (8.0%, 804G)
gorgewall: 604G (6.0%, 604G)
DLJuggernaut: 572G (5.7%, 572G)
DudeMonkey77: 500G (5.0%, 5,122G)
run_with_stone_GUNs: 250G (2.5%, 34,880G)
nifboy: 100G (1.0%, 3,899G)
CosmicTactician: 100G (1.0%, 16,296G)
datadrivenbot: 100G (1.0%, 48,320G)

green bets:
JumbocactuarX27: 1,409G (21.9%, 1,409G)
BirbBrainsBot: 1,000G (15.5%, 137,705G)
reinoe: 1,000G (15.5%, 30,393G)
UmaiJam: 788G (12.2%, 788G)
solomongrundy85: 700G (10.9%, 5,905G)
cactus_tony_: 450G (7.0%, 450G)
Rilgon: 384G (6.0%, 1,920G)
getthemoneyz: 306G (4.8%, 1,020,276G)
Blastinus: 100G (1.6%, 324G)
maakur_: 100G (1.6%, 75,213G)
Grandlanzer: 100G (1.6%, 14,243G)
arcadiues: 100G (1.6%, 100G)
