Final Bets: purple - 18 bets for 16,870G (64.5%, x0.55); brown - 3 bets for 9,280G (35.5%, x1.82)

purple bets:
moonliquor: 5,000G (29.6%, 29,793G)
Monopool: 2,500G (14.8%, 4,517G)
sinnyil2: 1,257G (7.5%, 1,257G)
fenaen: 1,200G (7.1%, 5,238G)
randgridr: 1,163G (6.9%, 1,163G)
BirbBrainsBot: 1,000G (5.9%, 127,478G)
twelfthrootoftwo: 663G (3.9%, 1,300G)
Zeroroute: 600G (3.6%, 600G)
Nizaha: 556G (3.3%, 21,075G)
reinoe: 500G (3.0%, 79,658G)
benticore: 500G (3.0%, 23,627G)
killth3kid: 452G (2.7%, 1,251G)
Treafa: 361G (2.1%, 361G)
Thyrandaal: 320G (1.9%, 320G)
getthemoneyz: 298G (1.8%, 1,330,263G)
Legionx13: 200G (1.2%, 2,501G)
datadrivenbot: 200G (1.2%, 32,352G)
nhammen: 100G (0.6%, 6,093G)

brown bets:
AllInBot: 8,385G (90.4%, 8,385G)
TasisSai: 591G (6.4%, 1,159G)
RageImmortaI: 304G (3.3%, 3,696G)
