Final Bets: red - 14 bets for 5,487G (36.8%, x1.72); blue - 17 bets for 9,415G (63.2%, x0.58)

red bets:
LDSkinny: 2,455G (44.7%, 4,911G)
Deathmaker06: 1,000G (18.2%, 3,964G)
ExecutedGiraffe: 433G (7.9%, 433G)
killth3kid: 328G (6.0%, 6,236G)
Nizaha: 201G (3.7%, 15,428G)
HokTuey: 200G (3.6%, 690G)
Flameatron: 200G (3.6%, 6,029G)
Lydian_C: 132G (2.4%, 12,870G)
lastly: 100G (1.8%, 14,696G)
CosmicTactician: 100G (1.8%, 15,678G)
raventwynn: 100G (1.8%, 1,428G)
datadrivenbot: 100G (1.8%, 32,787G)
LazarusAjin: 100G (1.8%, 22,652G)
getthemoneyz: 38G (0.7%, 829,810G)

blue bets:
Thyrandaal: 3,000G (31.9%, 16,648G)
YaBoy125: 1,263G (13.4%, 1,263G)
mpghappiness: 1,001G (10.6%, 9,600G)
BirbBrainsBot: 1,000G (10.6%, 90,419G)
Phi_Sig: 555G (5.9%, 151,116G)
MiseryKoss: 500G (5.3%, 2,384G)
CapnChaos12: 300G (3.2%, 24,137G)
Grandlanzer: 292G (3.1%, 292G)
Anak761: 250G (2.7%, 3,313G)
Angelomortis: 228G (2.4%, 228G)
ChronoG: 224G (2.4%, 224G)
potgodtopdog: 222G (2.4%, 40,028G)
alterworlds: 180G (1.9%, 180G)
Kellios11: 100G (1.1%, 9,052G)
DejaPoo21: 100G (1.1%, 7,155G)
outer_monologue: 100G (1.1%, 1,139G)
joewcarson: 100G (1.1%, 27,878G)
