Final Bets: white - 12 bets for 11,522G (43.3%, x1.31); purple - 11 bets for 15,087G (56.7%, x0.76)

white bets:
NovaKnight21: 4,641G (40.3%, 4,641G)
HaateXIII: 3,806G (33.0%, 7,613G)
serperemagus: 815G (7.1%, 815G)
YaBoy125: 508G (4.4%, 508G)
Angelomortis: 369G (3.2%, 369G)
potgodtopdog: 333G (2.9%, 40,084G)
Digitalsocrates: 300G (2.6%, 2,217G)
SerumD: 250G (2.2%, 4,126G)
JLinkletter: 200G (1.7%, 3,019G)
ChronoG: 100G (0.9%, 1,797G)
CosmicTactician: 100G (0.9%, 16,984G)
datadrivenbot: 100G (0.9%, 33,040G)

purple bets:
sinnyil2: 9,954G (66.0%, 19,908G)
maakur_: 1,333G (8.8%, 1,333G)
Thyrandaal: 1,000G (6.6%, 11,702G)
BirbBrainsBot: 1,000G (6.6%, 85,419G)
JarlBrolaf: 716G (4.7%, 716G)
getthemoneyz: 280G (1.9%, 830,616G)
kaelsun: 272G (1.8%, 272G)
GladiatorLupe: 200G (1.3%, 2,289G)
Lydian_C: 132G (0.9%, 14,144G)
lastly: 100G (0.7%, 15,332G)
ThePineappleSalesman: 100G (0.7%, 3,915G)
