Final Bets: purple - 17 bets for 12,073G (34.7%, x1.89); champion - 18 bets for 22,760G (65.3%, x0.53)

purple bets:
maakur_: 2,351G (19.5%, 2,351G)
HaateXIII: 1,903G (15.8%, 3,807G)
ExecutedGiraffe: 1,676G (13.9%, 1,676G)
BirbBrainsBot: 1,000G (8.3%, 87,000G)
Thyrandaal: 1,000G (8.3%, 14,099G)
Nickyfive: 873G (7.2%, 1,746G)
Oobs56: 672G (5.6%, 672G)
GladiatorLupe: 500G (4.1%, 2,605G)
KasugaiRoastedPeas: 400G (3.3%, 2,144G)
Digitalsocrates: 388G (3.2%, 388G)
GreenAmbler: 300G (2.5%, 4,426G)
SerumD: 250G (2.1%, 3,376G)
Angelomortis: 232G (1.9%, 232G)
maleblackfiora: 200G (1.7%, 224G)
Zachara: 150G (1.2%, 102,150G)
lastly: 100G (0.8%, 15,494G)
getthemoneyz: 78G (0.6%, 830,520G)

champion bets:
sinnyil2: 13,755G (60.4%, 27,510G)
mpghappiness: 2,787G (12.2%, 5,465G)
Lydian_C: 1,200G (5.3%, 14,113G)
JLinkletter: 1,000G (4.4%, 2,619G)
Jeeboheebo: 1,000G (4.4%, 9,102G)
Laserman1000: 602G (2.6%, 27,002G)
Kronikle: 400G (1.8%, 21,904G)
OneHundredFists: 344G (1.5%, 344G)
Flameatron: 300G (1.3%, 6,891G)
kaelsun: 272G (1.2%, 272G)
nifboy: 250G (1.1%, 5,226G)
holyonline: 200G (0.9%, 32,663G)
Coolguye: 150G (0.7%, 1,668G)
ChronoG: 100G (0.4%, 1,597G)
datadrivenbot: 100G (0.4%, 32,840G)
CosmicTactician: 100G (0.4%, 16,784G)
E_Ballard: 100G (0.4%, 4,714G)
Grandlanzer: 100G (0.4%, 4,807G)
