Final Bets: green - 17 bets for 14,590G (71.7%, x0.39); yellow - 13 bets for 5,759G (28.3%, x2.53)

green bets:
JumbocactuarX27: 3,321G (22.8%, 3,321G)
Error72: 2,108G (14.4%, 2,108G)
old_overholt_: 2,000G (13.7%, 5,369G)
Shalloween: 1,200G (8.2%, 25,733G)
JCBooBot: 1,000G (6.9%, 23,973G)
BirbBrainsBot: 1,000G (6.9%, 77,498G)
Sairentozon7: 682G (4.7%, 682G)
Laserman1000: 639G (4.4%, 13,839G)
fenaen: 556G (3.8%, 1,819G)
CorpusCav: 492G (3.4%, 492G)
dogsandcatsand: 448G (3.1%, 448G)
lowlf: 412G (2.8%, 7,113G)
douchetron: 232G (1.6%, 232G)
datadrivenbot: 200G (1.4%, 64,287G)
AllInBot: 100G (0.7%, 100G)
ko2q: 100G (0.7%, 13,435G)
Thyrandaal: 100G (0.7%, 89,768G)

yellow bets:
bruubarg: 806G (14.0%, 806G)
Mushufasa_: 754G (13.1%, 754G)
SephDarkheart: 600G (10.4%, 166,204G)
Phi_Sig: 555G (9.6%, 87,117G)
PuzzleSecretary: 500G (8.7%, 965G)
Snowfats: 500G (8.7%, 19,306G)
run_with_stone_GUNs: 488G (8.5%, 5,927G)
thunderducker: 444G (7.7%, 444G)
DustBirdEX: 404G (7.0%, 404G)
Runeseeker22: 208G (3.6%, 208G)
katsupdog: 200G (3.5%, 3,145G)
dingdingboom: 168G (2.9%, 168G)
getthemoneyz: 132G (2.3%, 1,767,161G)
