Final Bets: white - 11 bets for 8,114G (58.0%, x0.73); purple - 9 bets for 5,886G (42.0%, x1.38)

white bets:
Freezerman47: 3,050G (37.6%, 6,100G)
sinnyil2: 2,860G (35.2%, 5,721G)
twelfthrootoftwo: 1,000G (12.3%, 14,519G)
DISTROlD: 300G (3.7%, 4,437G)
serperemagus: 204G (2.5%, 204G)
outer_monologue: 200G (2.5%, 1,716G)
Ring_Wyrm: 100G (1.2%, 1,023G)
datadrivenbot: 100G (1.2%, 31,388G)
Tyrlan: 100G (1.2%, 100G)
blastty: 100G (1.2%, 1,474G)
Nitzurian: 100G (1.2%, 1,128G)

purple bets:
NovaKnight21: 2,500G (42.5%, 10,435G)
CorpusCav: 1,010G (17.2%, 22,092G)
UmaiJam: 1,000G (17.0%, 22,292G)
BirbBrainsBot: 316G (5.4%, 182,914G)
getthemoneyz: 266G (4.5%, 799,338G)
Lythe_Caraker: 250G (4.2%, 121,453G)
gorgewall: 201G (3.4%, 10,246G)
gogofromtogo: 200G (3.4%, 2,185G)
ArfArfArfArfArfArfArfArf: 143G (2.4%, 143G)
