Final Bets: yellow - 11 bets for 6,528G (49.1%, x1.04); champion - 11 bets for 6,769G (50.9%, x0.96)

yellow bets:
Lord_Burrah: 1,934G (29.6%, 92,934G)
Error72: 1,001G (15.3%, 54,453G)
BirbBrainsBot: 1,000G (15.3%, 168,371G)
Runeseeker22: 750G (11.5%, 15,000G)
Raixelol: 600G (9.2%, 8,973G)
moonliquor: 500G (7.7%, 72,512G)
latebit: 200G (3.1%, 2,506G)
getthemoneyz: 166G (2.5%, 1,946,555G)
ericzubat: 144G (2.2%, 144G)
AllInBot: 132G (2.0%, 132G)
gorgewall: 101G (1.5%, 13,024G)

champion bets:
projekt_mike: 2,000G (29.5%, 11,091G)
Willjin: 1,411G (20.8%, 1,411G)
dogsandcatsand: 628G (9.3%, 42,638G)
PoroTact: 536G (7.9%, 536G)
MemoriesofFinal: 500G (7.4%, 21,610G)
powergems: 500G (7.4%, 4,051G)
LivingHitokiri: 410G (6.1%, 410G)
Craymel_Mage: 284G (4.2%, 284G)
gongonono: 200G (3.0%, 3,468G)
datadrivenbot: 200G (3.0%, 63,980G)
BartTradingCompany: 100G (1.5%, 10,608G)
