Final Bets: red - 12 bets for 6,979G (20.6%, x3.87); blue - 13 bets for 26,982G (79.4%, x0.26)

red bets:
WireLord: 2,000G (28.7%, 17,436G)
upvla: 1,219G (17.5%, 27,480G)
ungabunga_bot: 1,000G (14.3%, 76,166G)
BirbBrainsBot: 1,000G (14.3%, 244,287G)
AllInBot: 519G (7.4%, 519G)
getthemoneyz: 490G (7.0%, 440,735G)
Shalloween: 350G (5.0%, 8,943G)
TinhShu: 100G (1.4%, 2,975G)
BlinkFS: 100G (1.4%, 1,108G)
Basmal: 100G (1.4%, 53,466G)
Evewho: 100G (1.4%, 1,381G)
daveb_: 1G (0.0%, 1,031G)

blue bets:
HASTERIOUS: 10,612G (39.3%, 20,808G)
waterwatereverywhere: 6,054G (22.4%, 11,871G)
sinnyil2: 3,286G (12.2%, 6,572G)
lijarkh: 1,699G (6.3%, 1,699G)
rubenflonne: 1,284G (4.8%, 1,284G)
ApplesauceBoss: 1,027G (3.8%, 1,027G)
victoriolue: 997G (3.7%, 997G)
Treapvort: 832G (3.1%, 832G)
Maeveen: 687G (2.5%, 687G)
KasugaiRoastedPeas: 200G (0.7%, 18,679G)
thevilmen: 104G (0.4%, 104G)
datadrivenbot: 100G (0.4%, 26,563G)
Powermhero: 100G (0.4%, 7,200G)
