Final Bets: green - 15 bets for 11,706G (21.0%, x3.75); yellow - 12 bets for 43,941G (79.0%, x0.27)

green bets:
Ruvelia_BibeI: 2,262G (19.3%, 2,262G)
Mesmaster: 2,000G (17.1%, 44,607G)
Lydian_C: 1,100G (9.4%, 1,100G)
ungabunga_bot: 1,000G (8.5%, 291,500G)
BirbBrainsBot: 1,000G (8.5%, 170,332G)
AniZero: 1,000G (8.5%, 35,628G)
SarrgeQc: 712G (6.1%, 712G)
FoxtrotNovemberCharlie: 696G (5.9%, 696G)
getthemoneyz: 536G (4.6%, 614,966G)
TheChainNerd: 500G (4.3%, 2,399G)
Realitydown: 300G (2.6%, 2,738G)
RubenFlonne: 200G (1.7%, 11,963G)
Anethum: 200G (1.7%, 3,155G)
Arkreaver: 100G (0.9%, 11,002G)
pLifer: 100G (0.9%, 229G)

yellow bets:
aStatue: 23,302G (53.0%, 23,302G)
HaplessOne: 12,797G (29.1%, 25,594G)
deenglow: 2,500G (5.7%, 61,732G)
scadooshlol: 2,000G (4.6%, 47,909G)
CassiePhoenix: 1,000G (2.3%, 6,909G)
ccordc: 972G (2.2%, 4,864G)
awokenshard: 604G (1.4%, 604G)
twelfthrootoftwo: 456G (1.0%, 456G)
Rislyeu: 100G (0.2%, 756G)
datadrivenbot: 100G (0.2%, 10,765G)
maakur_: 100G (0.2%, 115,334G)
alberto08bernard: 10G (0.0%, 684G)
