Final Bets: red - 19 bets for 9,416G (29.7%, x2.37); champion - 24 bets for 22,282G (70.3%, x0.42)

red bets:
moonliquor: 3,370G (35.8%, 3,370G)
Mesmaster: 1,000G (10.6%, 77,532G)
MagicBottle: 1,000G (10.6%, 4,955G)
Shalloween: 847G (9.0%, 847G)
Rislyeu: 500G (5.3%, 3,902G)
DustBirdEX: 345G (3.7%, 3,798G)
UmbraKnights: 300G (3.2%, 1,227G)
RaIshtar: 291G (3.1%, 291G)
HaychDub: 250G (2.7%, 10,919G)
roofiepops: 233G (2.5%, 13,646G)
Rytor: 200G (2.1%, 3,147G)
BirbBrainsBot: 200G (2.1%, 134,545G)
benticore: 200G (2.1%, 1,649G)
getthemoneyz: 148G (1.6%, 705,728G)
serperemagus: 132G (1.4%, 132G)
Evewho: 100G (1.1%, 5,942G)
bringmoreknives: 100G (1.1%, 4,865G)
ravingsockmonkey: 100G (1.1%, 494G)
ANFz: 100G (1.1%, 2,076G)

champion bets:
Baron_von_Scrub: 7,472G (33.5%, 14,944G)
sinnyil2: 2,812G (12.6%, 2,812G)
UmaiJam: 1,398G (6.3%, 1,398G)
HaplessOne: 1,234G (5.5%, 237,691G)
CorpusCav: 1,111G (5.0%, 8,524G)
Grimmace45: 1,111G (5.0%, 11,946G)
EnemyController: 1,000G (4.5%, 326,652G)
reinoe: 1,000G (4.5%, 16,457G)
argentbast: 800G (3.6%, 5,319G)
krasny1944: 649G (2.9%, 7,149G)
ExecutedGiraffe: 562G (2.5%, 562G)
Breakdown777: 500G (2.2%, 4,554G)
Lanshaft: 412G (1.8%, 5,106G)
aeonicvector: 400G (1.8%, 2,030G)
vorap: 300G (1.3%, 78,805G)
aznwanderor: 236G (1.1%, 236G)
josephiroth_143: 228G (1.0%, 228G)
OrganicArtist: 216G (1.0%, 216G)
gorgewall: 201G (0.9%, 13,853G)
mannequ1n: 200G (0.9%, 706G)
Arcblazer23: 140G (0.6%, 140G)
AllInBot: 100G (0.4%, 100G)
Heroebal: 100G (0.4%, 8,528G)
datadrivenbot: 100G (0.4%, 22,494G)
