Final Bets: purple - 18 bets for 17,153G (71.5%, x0.40); brown - 12 bets for 6,837G (28.5%, x2.51)

purple bets:
OneHundredFists: 5,292G (30.9%, 10,378G)
LanseDM: 3,000G (17.5%, 6,856G)
VolgraTheMoose: 2,001G (11.7%, 27,577G)
KasugaiRoastedPeas: 2,000G (11.7%, 20,303G)
ko2q: 866G (5.0%, 1,733G)
Cryptopsy70: 572G (3.3%, 18,630G)
Zetchryn: 500G (2.9%, 1,754G)
Boultson1337: 500G (2.9%, 900G)
ColetteMSLP: 400G (2.3%, 400G)
GatsbysGhost: 400G (2.3%, 2,405G)
Ring_Wyrm: 396G (2.3%, 396G)
Aldrammech: 340G (2.0%, 340G)
Rislyeu: 300G (1.7%, 300G)
regios91: 200G (1.2%, 3,280G)
ericzubat: 128G (0.7%, 128G)
Helllyesss: 108G (0.6%, 108G)
Kronikle: 100G (0.6%, 2,987G)
IphoneDarkness: 50G (0.3%, 2,463G)

brown bets:
Laserman1000: 1,024G (15.0%, 2,009G)
getthemoneyz: 1,000G (14.6%, 985,251G)
BirbBrainsBot: 1,000G (14.6%, 101,990G)
rednecknazgul: 691G (10.1%, 691G)
Nizaha: 501G (7.3%, 8,596G)
actual_JP: 472G (6.9%, 472G)
ANFz: 468G (6.8%, 468G)
BoneMiser: 444G (6.5%, 22,238G)
benticore: 436G (6.4%, 436G)
gorgewall: 401G (5.9%, 18,975G)
Oobs56: 300G (4.4%, 6,472G)
CosmicTactician: 100G (1.5%, 9,282G)
