Final Bets: white - 16 bets for 13,344G (66.4%, x0.51); purple - 10 bets for 6,766G (33.6%, x1.97)

white bets:
ShintaroNayaka: 3,667G (27.5%, 3,667G)
Nickyfive: 1,750G (13.1%, 12,295G)
Breakdown777: 1,236G (9.3%, 1,236G)
enkikavlar: 1,117G (8.4%, 1,117G)
BirbBrainsBot: 1,000G (7.5%, 49,297G)
gorgewall: 767G (5.7%, 767G)
roofiepops: 579G (4.3%, 579G)
Mushufasa_: 500G (3.7%, 1,926G)
Aldrammech: 500G (3.7%, 6,046G)
MagicBottle: 492G (3.7%, 18,150G)
dogsandcatsand: 452G (3.4%, 452G)
Sairentozon7: 432G (3.2%, 432G)
fluffskull: 352G (2.6%, 352G)
VolgraTheMoose: 200G (1.5%, 9,184G)
Shalloween: 200G (1.5%, 58,382G)
Thyrandaal: 100G (0.7%, 5,211G)

purple bets:
bruubarg: 3,867G (57.2%, 3,867G)
Zeroroute: 827G (12.2%, 827G)
reinoe: 500G (7.4%, 40,328G)
Oobs56: 425G (6.3%, 42,545G)
Blakelmenakle: 300G (4.4%, 2,216G)
RampagingRobot: 284G (4.2%, 11,284G)
ArashiKurobara: 272G (4.0%, 10,957G)
run_with_stone_GUNs: 107G (1.6%, 10,738G)
ChaoreLance: 100G (1.5%, 4,907G)
getthemoneyz: 84G (1.2%, 1,187,145G)
