Final Bets: green - 19 bets for 5,243G (49.0%, x1.04); yellow - 18 bets for 5,464G (51.0%, x0.96)

green bets:
sinnyil2: 1,200G (22.9%, 62,505G)
Laserman1000: 780G (14.9%, 7,880G)
KingGoldenPanda: 500G (9.5%, 4,926G)
LAGBOT30000: 441G (8.4%, 8,830G)
getthemoneyz: 366G (7.0%, 439,735G)
b0shii: 250G (4.8%, 543G)
soapydragonfly: 200G (3.8%, 324G)
ugoplatamia: 200G (3.8%, 2,050G)
KasugaiRoastedPeas: 200G (3.8%, 20,728G)
ungabunga_bot: 161G (3.1%, 48,158G)
FoxtrotNovemberCharlie: 156G (3.0%, 156G)
InOzWeTrust: 147G (2.8%, 147G)
JackOnFire1: 120G (2.3%, 120G)
zepi_zza: 100G (1.9%, 4,682G)
maakur_: 100G (1.9%, 2,853G)
maichenambrai: 100G (1.9%, 7,815G)
datadrivenbot: 100G (1.9%, 21,223G)
Langrisser: 100G (1.9%, 355G)
JudgeSkrapz: 22G (0.4%, 1,346G)

yellow bets:
BirbBrainsBot: 648G (11.9%, 239,775G)
bad1dea: 600G (11.0%, 52,157G)
Shalloween: 600G (11.0%, 4,513G)
Evewho: 500G (9.2%, 2,195G)
RunicMagus: 400G (7.3%, 38,519G)
Vampire_Killer: 400G (7.3%, 6,063G)
DudeMonkey77: 339G (6.2%, 339G)
Masta_Glenn: 300G (5.5%, 4,049G)
loveyouallfriends: 272G (5.0%, 272G)
dj_ghost_phrat: 258G (4.7%, 258G)
AllInBot: 246G (4.5%, 246G)
DrAntiSocial: 245G (4.5%, 1,358G)
ZephyrTempest: 236G (4.3%, 22,781G)
madming25: 111G (2.0%, 111G)
Maowiwowi: 104G (1.9%, 104G)
Tithonus: 100G (1.8%, 7,755G)
ApplesauceBoss: 100G (1.8%, 3,410G)
ko2q: 5G (0.1%, 462G)
