Final Bets: white - 9 bets for 3,643G (26.4%, x2.79); black - 18 bets for 10,163G (73.6%, x0.36)

white bets:
Lordminsc: 1,205G (33.1%, 40,471G)
BirbBrainsBot: 1,000G (27.4%, 127,374G)
getthemoneyz: 438G (12.0%, 551,961G)
killth3kid: 300G (8.2%, 8,071G)
CaptainAdmiralSPATULA: 300G (8.2%, 3,309G)
AllInBot: 100G (2.7%, 100G)
mexskacin: 100G (2.7%, 6,090G)
Tithonus: 100G (2.7%, 1,258G)
SaintOmerville: 100G (2.7%, 9,098G)

black bets:
IndecisiveNinja: 2,000G (19.7%, 90,914G)
bakchormee777: 1,200G (11.8%, 1,645G)
fenaen: 1,001G (9.8%, 33,829G)
leakimiko: 970G (9.5%, 970G)
Laserman1000: 800G (7.9%, 34,600G)
joewcarson: 501G (4.9%, 1,427G)
Nizaha: 501G (4.9%, 9,714G)
CapnChaos12: 500G (4.9%, 50,441G)
sukotsuto: 500G (4.9%, 551G)
HaychDub: 450G (4.4%, 10,628G)
regios91: 406G (4.0%, 813G)
KasugaiRoastedPeas: 400G (3.9%, 4,976G)
Estan_AD: 329G (3.2%, 658G)
dametenshi: 314G (3.1%, 629G)
SQUiDSQUARKLIN: 116G (1.1%, 116G)
Bongomon7: 100G (1.0%, 4,049G)
DrAntiSocial: 50G (0.5%, 22,055G)
GingerDynomite: 25G (0.2%, 5,496G)
