Final Bets: green - 7 bets for 3,388G (24.3%, x3.12); yellow - 14 bets for 10,564G (75.7%, x0.32)

green bets:
getthemoneyz: 1,000G (29.5%, 1,914,416G)
BirbBrainsBot: 1,000G (29.5%, 77,207G)
Raixelol: 600G (17.7%, 13,316G)
Omally_: 350G (10.3%, 398G)
Neech: 304G (9.0%, 4,822G)
CosmicTactician: 100G (3.0%, 31,775G)
TheDapperChangeling: 34G (1.0%, 7,086G)

yellow bets:
pplvee1: 3,469G (32.8%, 3,469G)
VolgraTheMoose: 2,085G (19.7%, 4,170G)
BaronHaynes: 1,000G (9.5%, 22,936G)
Zachara: 1,000G (9.5%, 134,000G)
E_Ballard: 664G (6.3%, 664G)
Leonidusx: 565G (5.3%, 565G)
ForagerCats: 500G (4.7%, 11,123G)
J_MacC1991: 324G (3.1%, 2,324G)
ValensEXP_: 276G (2.6%, 276G)
datadrivenbot: 200G (1.9%, 59,411G)
AllInBot: 181G (1.7%, 181G)
BartTradingCompany: 100G (0.9%, 5,345G)
MemoriesofFinal: 100G (0.9%, 6,876G)
grishhammer: 100G (0.9%, 384G)
