Final Bets: purple - 14 bets for 13,216G (67.3%, x0.49); brown - 6 bets for 6,425G (32.7%, x2.06)

purple bets:
pplvee1: 6,413G (48.5%, 63,136G)
Zagorsek: 1,319G (10.0%, 1,319G)
Spartan_Paladin: 1,000G (7.6%, 53,032G)
ANFz: 1,000G (7.6%, 8,550G)
EnemyController: 1,000G (7.6%, 1,352,576G)
gooseyourself: 646G (4.9%, 646G)
getthemoneyz: 484G (3.7%, 1,076,627G)
BirbBrainsBot: 382G (2.9%, 72,845G)
sparker9: 264G (2.0%, 264G)
Forkmore: 208G (1.6%, 208G)
Kronikle: 200G (1.5%, 3,569G)
thewondertrickster: 100G (0.8%, 410G)
datadrivenbot: 100G (0.8%, 46,476G)
Grandlanzer: 100G (0.8%, 33,700G)

brown bets:
SkylerBunny: 5,000G (77.8%, 523,287G)
nhammen: 542G (8.4%, 1,084G)
SuzakuReii: 444G (6.9%, 444G)
cactus_tony_: 216G (3.4%, 216G)
Lydian_C: 123G (1.9%, 186,082G)
Yiroep2: 100G (1.6%, 1,671G)
