High Risers:
1. E_Ballard: +7,038G
2. RunicMagus: +4,615G
3. Zachara: +1,800G
4. resjudicata3: +1,340G
5. xav8904: +1,000G
6. Sharosa: +623G
7. coralreeferz: +575G
8. SephDarkheart: +507G
9. bigbongsmoker: +506G
10. Laserman1000: +478G
11. Forkmore: +447G
12. reddwind_: +396G
13. AltimaMantoid: +363G
14. DHaveWord: +287G
15. Lolthsmeat: +237G
16. gongonono: +191G
17. Kellios11: +96G
18. highelectricaltemperature: +86G
19. Rune339: +53G
20. dogsandcatsand: -45G
21. latebit: -112G
22. Smugzug: -192G
23. mirapoix: -200G
24. Riley331: -228G
25. MemoriesofFinal: -262G
26. khelor_: -291G
27. just_here2: -300G
28. nok____: -300G
29. Jeeboheebo: -300G
30. HASTERIOUS: -400G
31. Lyner87: -583G
32. Lydian_C: -646G
33. VynxYukida: -810G
34. ColetteMSLP: -897G
35. Lord_Burrah: -1,000G
36. ar_tactic: -1,000G
37. king_smashington: -1,000G
38. DeathTaxesAndAnime: -1,000G
39. Aldrammech: -1,000G
40. J2DaBibbles: -1,000G
41. Error72: -1,016G
42. TheSabretoothe: -1,100G
43. nifboy: -1,134G
44. Shalloween: -1,200G
45. LDSkinny: -1,600G
46. nhammen: -1,953G
47. DavenIII: -2,640G
48. Thyrandaal: -8,956G
