Final Bets: blue - 16 bets for 11,259G (68.2%, x0.47); yellow - 10 bets for 5,261G (31.8%, x2.14)

blue bets:
ko2q: 2,874G (25.5%, 2,874G)
UmaiJam: 2,000G (17.8%, 23,629G)
nhammen: 1,029G (9.1%, 5,149G)
BirbBrainsBot: 1,000G (8.9%, 79,047G)
Forkmore: 897G (8.0%, 897G)
JumbocactuarX27: 608G (5.4%, 608G)
Draconis345: 500G (4.4%, 9,948G)
TasisSai: 500G (4.4%, 6,729G)
ribbiks: 500G (4.4%, 3,636G)
foxfaeez: 412G (3.7%, 412G)
skipsandwiches: 300G (2.7%, 2,014G)
datadrivenbot: 200G (1.8%, 63,110G)
Scurg: 150G (1.3%, 1,699G)
gorgewall: 101G (0.9%, 4,013G)
MinBetBot: 100G (0.9%, 3,627G)
getthemoneyz: 88G (0.8%, 1,610,986G)

yellow bets:
LASERJESUS1337: 1,665G (31.6%, 1,665G)
douchetron: 1,510G (28.7%, 1,510G)
SephDarkheart: 556G (10.6%, 103,507G)
AllInBot: 380G (7.2%, 380G)
Chuckolator: 360G (6.8%, 360G)
Klednar21: 300G (5.7%, 3,936G)
holdenmagronik: 150G (2.9%, 337G)
maddrave09: 140G (2.7%, 522G)
brenogarwin: 100G (1.9%, 623G)
Krinku: 100G (1.9%, 100G)
