Final Bets: blue - 13 bets for 7,278G (64.8%, x0.54); purple - 12 bets for 3,957G (35.2%, x1.84)

blue bets:
J2DaBibbles: 1,500G (20.6%, 21,819G)
Sakaejpk: 1,424G (19.6%, 1,424G)
BirbBrainsBot: 1,000G (13.7%, 126,518G)
ForagerCats: 1,000G (13.7%, 12,451G)
volgrathemoose: 672G (9.2%, 672G)
Lydian_C: 600G (8.2%, 600G)
Kyune: 250G (3.4%, 19,941G)
brokenknight201: 232G (3.2%, 232G)
ar_tactic: 150G (2.1%, 45,794G)
littlebilly3: 150G (2.1%, 359G)
aurosaerondo: 100G (1.4%, 821G)
CosmicTactician: 100G (1.4%, 19,058G)
datadrivenbot: 100G (1.4%, 22,344G)

purple bets:
roqqqpsi: 978G (24.7%, 8,893G)
reinoe: 500G (12.6%, 13,311G)
YaBoy125: 424G (10.7%, 424G)
josephiroth_143: 400G (10.1%, 1,796G)
ShintaroNayaka: 400G (10.1%, 2,587G)
getthemoneyz: 254G (6.4%, 700,913G)
gorgewall: 201G (5.1%, 11,604G)
otakutaylor: 200G (5.1%, 2,415G)
Digitalsocrates: 200G (5.1%, 990G)
d4rr1n: 200G (5.1%, 2,982G)
AllInBot: 100G (2.5%, 100G)
E_Ballard: 100G (2.5%, 7,019G)
