Final Bets: brown - 10 bets for 7,375G (35.9%, x1.79); champion - 15 bets for 13,170G (64.1%, x0.56)

brown bets:
SkylerBunny: 1,665G (22.6%, 1,665G)
Willjin: 1,500G (20.3%, 17,785G)
DLJuggernaut: 1,000G (13.6%, 19,097G)
BirbBrainsBot: 1,000G (13.6%, 166,411G)
Chuckolator: 553G (7.5%, 553G)
Laserman1000: 506G (6.9%, 21,006G)
Thyrandaal: 436G (5.9%, 436G)
douchetron: 312G (4.2%, 312G)
getthemoneyz: 280G (3.8%, 1,733,044G)
Lydian_C: 123G (1.7%, 3,786G)

champion bets:
maximumcrit: 2,742G (20.8%, 2,742G)
SQUiDSQUARKLIN: 2,576G (19.6%, 2,576G)
VolgraTheMoose: 1,501G (11.4%, 56,067G)
NovaKnight21: 958G (7.3%, 958G)
Zeroroute: 913G (6.9%, 3,149G)
foxfaeez: 906G (6.9%, 906G)
E_Ballard: 724G (5.5%, 46,311G)
dogsandcatsand: 696G (5.3%, 696G)
Lanshaft: 616G (4.7%, 19,796G)
Forkmore: 600G (4.6%, 600G)
popotinha1889: 256G (1.9%, 256G)
datadrivenbot: 200G (1.5%, 66,619G)
Sairentozon7: 194G (1.5%, 1,594G)
AllInBot: 176G (1.3%, 176G)
Docrad_: 112G (0.9%, 112G)
