Final Bets: blue - 16 bets for 14,597G (56.8%, x0.76); green - 13 bets for 11,122G (43.2%, x1.31)

blue bets:
moonliquor: 5,000G (34.3%, 34,772G)
Shalloween: 3,000G (20.6%, 22,781G)
ColetteMSLP: 1,000G (6.9%, 38,530G)
douchetron: 768G (5.3%, 1,507G)
E_Ballard: 692G (4.7%, 692G)
pLifer: 604G (4.1%, 604G)
dogsandcatsand: 540G (3.7%, 540G)
roqqqpsi: 508G (3.5%, 925G)
amhamor: 500G (3.4%, 1,395G)
jeffersonsa: 500G (3.4%, 627G)
AllInBot: 465G (3.2%, 465G)
Treafa: 300G (2.1%, 1,289G)
slotheye17: 297G (2.0%, 297G)
datadrivenbot: 200G (1.4%, 46,127G)
Lydian_C: 123G (0.8%, 6,128G)
Miku_Shikhu: 100G (0.7%, 1,668G)

green bets:
Zagorsek: 4,244G (38.2%, 8,489G)
Smokegiant: 1,838G (16.5%, 3,677G)
VolgraTheMoose: 1,012G (9.1%, 2,025G)
BirbBrainsBot: 790G (7.1%, 178,006G)
BlueAbs: 765G (6.9%, 765G)
Nizaha: 604G (5.4%, 7,485G)
Lanshaft: 528G (4.7%, 28,063G)
getthemoneyz: 424G (3.8%, 1,425,523G)
SephDarkheart: 416G (3.7%, 15,639G)
gorgewall: 201G (1.8%, 6,610G)
moctobot: 100G (0.9%, 100G)
KSops: 100G (0.9%, 1,647G)
Firesheath: 100G (0.9%, 9,555G)
