Final Bets: white - 13 bets for 14,169G (64.4%, x0.55); purple - 17 bets for 7,823G (35.6%, x1.81)

white bets:
DarrenDinosaurs: 2,951G (20.8%, 2,951G)
UmaiJam: 2,000G (14.1%, 55,159G)
Smokegiant: 1,839G (13.0%, 1,839G)
Shalloween: 1,400G (9.9%, 25,067G)
E_Ballard: 1,219G (8.6%, 1,219G)
pLifer: 1,064G (7.5%, 1,064G)
BirbBrainsBot: 1,000G (7.1%, 177,216G)
AllInBot: 819G (5.8%, 819G)
killth3kid: 548G (3.9%, 10,247G)
jeffersonsa: 500G (3.5%, 1,008G)
amhamor: 400G (2.8%, 1,776G)
acid_flashback: 306G (2.2%, 1,023G)
roofiepops: 123G (0.9%, 9,509G)

purple bets:
douchetron: 1,066G (13.6%, 2,092G)
VolgraTheMoose: 1,013G (12.9%, 1,013G)
dogsandcatsand: 951G (12.2%, 951G)
Nizaha: 604G (7.7%, 6,881G)
Lanshaft: 528G (6.7%, 27,535G)
slotheye17: 523G (6.7%, 523G)
reinoe: 500G (6.4%, 143,906G)
Oreo_Pizza: 500G (6.4%, 47,489G)
TasisSai: 452G (5.8%, 452G)
SephDarkheart: 416G (5.3%, 15,223G)
BlueAbs: 236G (3.0%, 236G)
gorgewall: 201G (2.6%, 6,409G)
datadrivenbot: 200G (2.6%, 46,279G)
Treafa: 190G (2.4%, 1,518G)
Strifu: 170G (2.2%, 334G)
getthemoneyz: 150G (1.9%, 1,425,099G)
Lydian_C: 123G (1.6%, 6,222G)
