Final Bets: blue - 10 bets for 7,988G (42.3%, x1.36); green - 16 bets for 10,877G (57.7%, x0.73)

blue bets:
nhammen: 3,000G (37.6%, 218,843G)
BirbBrainsBot: 1,000G (12.5%, 138,613G)
ruleof5: 1,000G (12.5%, 22,867G)
killth3kid: 656G (8.2%, 13,064G)
Aldrammech: 640G (8.0%, 640G)
Lanshaft: 564G (7.1%, 14,193G)
E_Ballard: 560G (7.0%, 7,024G)
getthemoneyz: 268G (3.4%, 1,561,456G)
Drusiform: 200G (2.5%, 1,506G)
LordTomS: 100G (1.3%, 2,848G)

green bets:
SephDarkheart: 3,034G (27.9%, 60,688G)
AllInBot: 1,583G (14.6%, 1,583G)
reinoe: 1,000G (9.2%, 172,141G)
douchetron: 845G (7.8%, 845G)
itskage: 655G (6.0%, 6,557G)
powergems: 620G (5.7%, 620G)
TheDeeyo: 600G (5.5%, 4,597G)
Zeroroute: 600G (5.5%, 600G)
dogsandcatsand: 597G (5.5%, 1,171G)
evontno: 500G (4.6%, 3,155G)
vorap: 293G (2.7%, 293G)
datadrivenbot: 200G (1.8%, 54,094G)
MinBetBot: 100G (0.9%, 18,655G)
Firesheath: 100G (0.9%, 24,304G)
nifboy: 100G (0.9%, 3,772G)
wkhumes: 50G (0.5%, 409G)
