Final Bets: green - 15 bets for 4,217G (27.9%, x2.58); yellow - 20 bets for 10,877G (72.1%, x0.39)

green bets:
Aldrammech: 600G (14.2%, 600G)
TheApprentice251: 578G (13.7%, 578G)
Powerpinch: 500G (11.9%, 2,622G)
theshinyakuma: 500G (11.9%, 2,793G)
BirbBrainsBot: 467G (11.1%, 467G)
metagameface: 320G (7.6%, 320G)
killth3kid: 316G (7.5%, 2,684G)
Grandlanzer: 200G (4.7%, 14,452G)
silentkaster: 200G (4.7%, 200G)
alterworlds: 116G (2.8%, 116G)
computerghoul: 108G (2.6%, 108G)
Evewho: 100G (2.4%, 5,702G)
brokenknight201: 100G (2.4%, 898G)
getthemoneyz: 62G (1.5%, 803,621G)
s_o_b_e_q: 50G (1.2%, 8,271G)

yellow bets:
DeathTaxesAndAnime: 2,147G (19.7%, 4,210G)
CorpusCav: 1,020G (9.4%, 16,187G)
EnemyController: 1,000G (9.2%, 530,510G)
Zbgs: 1,000G (9.2%, 48,666G)
DLJuggernaut: 707G (6.5%, 3,535G)
HaateXIII: 612G (5.6%, 612G)
aznwanderor: 588G (5.4%, 588G)
Nizaha: 501G (4.6%, 15,292G)
CosmicTactician: 500G (4.6%, 16,133G)
OneHundredFists: 500G (4.6%, 3,611G)
ivellioz: 500G (4.6%, 854G)
Cryptopsy70: 488G (4.5%, 4,713G)
Nohurty: 257G (2.4%, 257G)
pplvee1: 240G (2.2%, 240G)
Angelomortis: 208G (1.9%, 208G)
serperemagus: 208G (1.9%, 208G)
Firesheath: 101G (0.9%, 3,507G)
Flameatron: 100G (0.9%, 2,039G)
datadrivenbot: 100G (0.9%, 32,864G)
Ring_Wyrm: 100G (0.9%, 984G)
