Final Bets: black - 12 bets for 7,555G (20.4%, x3.91); brown - 10 bets for 29,554G (79.6%, x0.26)

black bets:
LivingHitokiri: 3,000G (39.7%, 152,243G)
BirbBrainsBot: 1,000G (13.2%, 167,881G)
bruubarg: 1,000G (13.2%, 18,248G)
b0lt: 815G (10.8%, 815G)
ColetteMSLP: 480G (6.4%, 8,315G)
Deeps_one: 300G (4.0%, 2,031G)
TheBrett: 256G (3.4%, 256G)
AllInBot: 200G (2.6%, 200G)
HorusTaurus: 200G (2.6%, 9,258G)
getthemoneyz: 192G (2.5%, 2,130,443G)
seppu777: 111G (1.5%, 4,934G)
FatTunaKing: 1G (0.0%, 2,847G)

brown bets:
Mesmaster: 21,523G (72.8%, 21,523G)
OneHundredFists: 5,069G (17.2%, 32,449G)
CT_5_Holy: 788G (2.7%, 1,577G)
upvla: 600G (2.0%, 600G)
CassiePhoenix: 555G (1.9%, 555G)
lijarkh: 503G (1.7%, 503G)
datadrivenbot: 200G (0.7%, 81,051G)
PantherIscariot: 111G (0.4%, 3,291G)
Aaron2Nerdy: 104G (0.4%, 104G)
gorgewall: 101G (0.3%, 10,166G)
