Final Bets: red - 17 bets for 15,127G (69.9%, x0.43); green - 11 bets for 6,503G (30.1%, x2.33)

red bets:
latebit: 5,000G (33.1%, 36,120G)
DeathTaxesAndAnime: 3,275G (21.7%, 3,275G)
Nizaha: 1,300G (8.6%, 9,598G)
BirbBrainsBot: 1,000G (6.6%, 184,492G)
powergems: 717G (4.7%, 2,165G)
Laserman1000: 692G (4.6%, 3,892G)
killth3kid: 664G (4.4%, 13,106G)
randgridr: 583G (3.9%, 583G)
getthemoneyz: 540G (3.6%, 1,585,390G)
nhammen: 400G (2.6%, 3,462G)
Lillifen: 204G (1.3%, 204G)
datadrivenbot: 200G (1.3%, 58,413G)
holdenmagronik: 150G (1.0%, 1,754G)
Chuckolator: 102G (0.7%, 16,599G)
MinBetBot: 100G (0.7%, 22,316G)
moonliquor: 100G (0.7%, 41,169G)
itsonlyspencer: 100G (0.7%, 232G)

green bets:
coralreeferz: 1,500G (23.1%, 28,509G)
thaetreis: 1,200G (18.5%, 58,360G)
Nickyfive: 1,000G (15.4%, 4,452G)
douchetron: 723G (11.1%, 723G)
TasisSai: 500G (7.7%, 23,135G)
SeniorBunk: 436G (6.7%, 436G)
ko2q: 400G (6.2%, 400G)
Lord_Gwarth: 296G (4.6%, 4,114G)
AllInBot: 200G (3.1%, 200G)
Smokegiant: 148G (2.3%, 148G)
DarrenDinosaurs: 100G (1.5%, 3,112G)
