Final Bets: red - 20 bets for 10,397G (38.2%, x1.62); blue - 25 bets for 16,815G (61.8%, x0.62)

red bets:
Aldrammech: 1,909G (18.4%, 19,093G)
BirbBrainsBot: 1,000G (9.6%, 113,113G)
bad1dea: 1,000G (9.6%, 322,881G)
inzo_bettingbot: 1,000G (9.6%, 58,052G)
Axelrod: 1,000G (9.6%, 51,999G)
leakimiko: 914G (8.8%, 30,468G)
herrshaun: 633G (6.1%, 633G)
jethrothrul: 500G (4.8%, 500G)
TheRobbieRobster: 500G (4.8%, 1,971G)
Evewho: 300G (2.9%, 7,156G)
NewbGaming: 250G (2.4%, 2,867G)
ZephyrTempest: 243G (2.3%, 19,434G)
FuManXou: 212G (2.0%, 212G)
V3rdeni: 200G (1.9%, 1,553G)
b_bot: 200G (1.9%, 6,992G)
NytFantom: 124G (1.2%, 124G)
Vyroxe: 112G (1.1%, 112G)
ANFz: 100G (1.0%, 19,205G)
Jakazu: 100G (1.0%, 100G)
datadrivenbot: 100G (1.0%, 16,188G)

blue bets:
DudeMonkey77: 7,516G (44.7%, 75,167G)
OmnibotGamma: 2,455G (14.6%, 4,815G)
Shalloween: 1,300G (7.7%, 47,615G)
getthemoneyz: 696G (4.1%, 405,609G)
Lanshaft: 600G (3.6%, 8,613G)
reinoe: 512G (3.0%, 512G)
ForestMagi: 500G (3.0%, 841G)
Lionhermit: 500G (3.0%, 3,698G)
waterwatereverywhere: 400G (2.4%, 1,950G)
RezzaDV: 351G (2.1%, 703G)
Pie108: 250G (1.5%, 256G)
SleepyBenzo: 220G (1.3%, 220G)
portmanteur: 214G (1.3%, 214G)
ugoplatamia: 200G (1.2%, 15,351G)
RunicMagus: 200G (1.2%, 23,025G)
ApplesauceBoss: 100G (0.6%, 1,851G)
Heroebal: 100G (0.6%, 2,983G)
urieltheflameofgod: 100G (0.6%, 1,923G)
BadBlanket: 100G (0.6%, 3,555G)
phrossi_v: 100G (0.6%, 18,338G)
chronoxtrigger: 100G (0.6%, 3,600G)
lijarkh: 100G (0.6%, 1,548G)
BuffaloCrunch: 100G (0.6%, 15,826G)
babieapple: 100G (0.6%, 1,360G)
RughSontos: 1G (0.0%, 5,117G)
