Final Bets: white - 15 bets for 7,170G (39.4%, x1.54); black - 19 bets for 11,015G (60.6%, x0.65)

white bets:
RaIshtar: 1,200G (16.7%, 27,241G)
Sairentozon7: 1,000G (13.9%, 2,260G)
fenaen: 900G (12.6%, 3,831G)
FriendSquirrel: 572G (8.0%, 572G)
dogsandcatsand: 564G (7.9%, 564G)
MagicBottle: 548G (7.6%, 20,273G)
Aldrammech: 538G (7.5%, 538G)
NIghtdew14: 500G (7.0%, 3,037G)
getthemoneyz: 336G (4.7%, 1,303,227G)
Cryptopsy70: 308G (4.3%, 2,088G)
TasisSai: 204G (2.8%, 400G)
AllInBot: 200G (2.8%, 200G)
Miku_Shikhu: 100G (1.4%, 10,656G)
DouglasDragonThePoet: 100G (1.4%, 248G)
CosmicTactician: 100G (1.4%, 43,234G)

black bets:
TheChainNerd: 1,500G (13.6%, 58,066G)
skipsandwiches: 1,003G (9.1%, 1,003G)
BirbBrainsBot: 1,000G (9.1%, 197,924G)
JumbocactuarX27: 1,000G (9.1%, 37,195G)
WitchHunterIX: 1,000G (9.1%, 21,548G)
aznwanderor: 1,000G (9.1%, 12,760G)
Firesheath: 978G (8.9%, 978G)
gorgewall: 703G (6.4%, 703G)
moonliquor: 500G (4.5%, 21,440G)
reinoe: 500G (4.5%, 63,818G)
SephDarkheart: 312G (2.8%, 46,191G)
fluffskull: 300G (2.7%, 4,067G)
Xoomwaffle: 240G (2.2%, 240G)
Treafa: 236G (2.1%, 653G)
Patreseus: 204G (1.9%, 204G)
datadrivenbot: 200G (1.8%, 28,991G)
kkkooohhhnnn: 124G (1.1%, 124G)
iBardic: 110G (1.0%, 110G)
VolgraTheMoose: 105G (1.0%, 7,514G)
