Final Bets: purple - 20 bets for 7,512G (35.8%, x1.79); brown - 18 bets for 13,464G (64.2%, x0.56)

purple bets:
gorgewall: 1,161G (15.5%, 1,161G)
skipsandwiches: 656G (8.7%, 656G)
Firesheath: 615G (8.2%, 615G)
FriendSquirrel: 572G (7.6%, 572G)
getthemoneyz: 550G (7.3%, 1,302,891G)
killth3kid: 478G (6.4%, 478G)
Aldrammech: 468G (6.2%, 468G)
Xoomwaffle: 396G (5.3%, 396G)
TasisSai: 348G (4.6%, 348G)
Patreseus: 337G (4.5%, 337G)
SephDarkheart: 312G (4.2%, 46,394G)
fluffskull: 300G (4.0%, 4,262G)
ColetteMSLP: 300G (4.0%, 2,310G)
Treafa: 236G (3.1%, 807G)
kkkooohhhnnn: 205G (2.7%, 205G)
datadrivenbot: 200G (2.7%, 29,121G)
DouglasDragonThePoet: 148G (2.0%, 148G)
VolgraTheMoose: 125G (1.7%, 7,582G)
Miku_Shikhu: 100G (1.3%, 10,556G)
moonliquor: 5G (0.1%, 21,765G)

brown bets:
reinoe: 3,000G (22.3%, 64,143G)
TheChainNerd: 1,500G (11.1%, 59,042G)
Sairentozon7: 1,260G (9.4%, 1,260G)
WitchHunterIX: 1,000G (7.4%, 22,199G)
BirbBrainsBot: 1,000G (7.4%, 198,575G)
JumbocactuarX27: 1,000G (7.4%, 37,846G)
NicoSavoy: 1,000G (7.4%, 195,052G)
RaIshtar: 800G (5.9%, 26,041G)
dogsandcatsand: 564G (4.2%, 564G)
roofiepops: 472G (3.5%, 472G)
RyanTheRebs: 400G (3.0%, 1,356G)
randgridr: 360G (2.7%, 360G)
Cryptopsy70: 308G (2.3%, 1,780G)
AllInBot: 200G (1.5%, 200G)
boosted420: 200G (1.5%, 1,329G)
lyans00: 200G (1.5%, 1,804G)
CosmicTactician: 100G (0.7%, 43,134G)
aznwanderor: 100G (0.7%, 13,411G)
