Final Bets: blue - 16 bets for 18,154G (51.8%, x0.93); champion - 25 bets for 16,902G (48.2%, x1.07)

blue bets:
RaIshtar: 8,000G (44.1%, 29,577G)
aznwanderor: 3,000G (16.5%, 15,852G)
Nickyfive: 1,408G (7.8%, 1,408G)
LDSkinny: 1,000G (5.5%, 34,331G)
BirbBrainsBot: 1,000G (5.5%, 199,354G)
WitchHunterIX: 1,000G (5.5%, 20,045G)
getthemoneyz: 756G (4.2%, 1,302,909G)
Firesheath: 488G (2.7%, 488G)
killth3kid: 416G (2.3%, 827G)
ColetteMSLP: 300G (1.7%, 1,958G)
benticore: 300G (1.7%, 21,059G)
AllInBot: 200G (1.1%, 200G)
DAC169: 100G (0.6%, 1,997G)
fluffskull: 100G (0.6%, 3,910G)
moonliquor: 50G (0.3%, 21,485G)
Hasterious: 36G (0.2%, 3,667G)

champion bets:
roqqqpsi: 3,183G (18.8%, 5,788G)
VolgraTheMoose: 1,501G (8.9%, 7,457G)
RyanTheRebs: 1,344G (8.0%, 1,344G)
fenaen: 1,200G (7.1%, 2,753G)
JumbocactuarX27: 1,000G (5.9%, 39,393G)
Creggers: 1,000G (5.9%, 60,655G)
porkchop5158: 1,000G (5.9%, 33,890G)
boosted420: 806G (4.8%, 806G)
Laserman1000: 795G (4.7%, 30,095G)
gorgewall: 616G (3.6%, 616G)
MagicBottle: 548G (3.2%, 20,564G)
lyans00: 500G (3.0%, 1,858G)
Treafa: 498G (2.9%, 498G)
Patreseus: 479G (2.8%, 479G)
randgridr: 462G (2.7%, 462G)
TasisSai: 348G (2.1%, 348G)
SephDarkheart: 316G (1.9%, 46,032G)
Xoomwaffle: 244G (1.4%, 244G)
Rytor: 200G (1.2%, 3,226G)
datadrivenbot: 200G (1.2%, 28,943G)
AND4H: 200G (1.2%, 6,691G)
DouglasDragonThePoet: 134G (0.8%, 134G)
skipsandwiches: 128G (0.8%, 164G)
Miku_Shikhu: 100G (0.6%, 10,456G)
CosmicTactician: 100G (0.6%, 43,018G)
