Final Bets: green - 15 bets for 21,365G (77.5%, x0.29); yellow - 13 bets for 6,216G (22.5%, x3.44)

green bets:
soren_of_tyto: 13,326G (62.4%, 13,326G)
Digitalsocrates: 2,000G (9.4%, 37,925G)
Error72: 1,000G (4.7%, 13,141G)
reddwind_: 1,000G (4.7%, 33,415G)
reinoe: 1,000G (4.7%, 15,157G)
DarrenDinosaurs: 500G (2.3%, 5,090G)
EmperorBeef: 500G (2.3%, 185,500G)
gorgewall: 401G (1.9%, 16,415G)
twelfthrootoftwo: 300G (1.4%, 2,850G)
HaateXIII: 250G (1.2%, 27,432G)
Bilabrin: 248G (1.2%, 248G)
Mermydon: 240G (1.1%, 500G)
Evewho: 200G (0.9%, 2,482G)
GladiatorLupe: 200G (0.9%, 14,441G)
CosmicTactician: 200G (0.9%, 10,952G)

yellow bets:
BirbBrainsBot: 1,000G (16.1%, 40,881G)
AniZero: 1,000G (16.1%, 11,447G)
roofiepops: 721G (11.6%, 721G)
DeathTaxesAndAnime: 680G (10.9%, 680G)
CT_5_Holy: 647G (10.4%, 647G)
fenixcrest: 600G (9.7%, 600G)
prince_rogers_nelson_: 500G (8.0%, 8,320G)
eudes89: 380G (6.1%, 380G)
Lythe_Caraker: 250G (4.0%, 108,812G)
Magicandy: 200G (3.2%, 2,779G)
getthemoneyz: 112G (1.8%, 1,007,807G)
Baron_von_Scrub: 101G (1.6%, 21,544G)
fluffskull: 25G (0.4%, 1,417G)
