Final Bets: red - 8 bets for 2,101G (20.7%, x3.83); blue - 12 bets for 8,047G (79.3%, x0.26)

red bets:
BirbBrainsBot: 561G (26.7%, 192,231G)
solomongrundy85: 500G (23.8%, 11,847G)
FNCardascia_: 204G (9.7%, 204G)
getthemoneyz: 200G (9.5%, 602,961G)
WrathfulRemy: 200G (9.5%, 1,728G)
Cataphract116: 170G (8.1%, 18,740G)
Mudrockk: 166G (7.9%, 2,166G)
witchlight: 100G (4.8%, 797G)

blue bets:
R_Raynos: 2,000G (24.9%, 25,672G)
Ungaiii: 1,291G (16.0%, 1,291G)
WireLord: 1,223G (15.2%, 1,223G)
Lydian_C: 1,200G (14.9%, 14,957G)
ColetteMSLP: 800G (9.9%, 30,361G)
CT_5_Holy: 621G (7.7%, 621G)
twelfthrootoftwo: 300G (3.7%, 1,299G)
gorgewall: 200G (2.5%, 20,546G)
ungabunga_bot: 112G (1.4%, 324,663G)
Arkreaver: 100G (1.2%, 11,912G)
Ultimate_Infinity: 100G (1.2%, 879G)
datadrivenbot: 100G (1.2%, 12,227G)
