Final Bets: red - 16 bets for 6,172G (41.0%, x1.44); blue - 12 bets for 8,875G (59.0%, x0.70)

red bets:
BirbBrainsBot: 1,000G (16.2%, 153,834G)
NIghtdew14: 607G (9.8%, 6,071G)
dogsandcatsand: 548G (8.9%, 548G)
Evewho: 500G (8.1%, 12,431G)
Creggers: 500G (8.1%, 26,813G)
ValtonZenola: 476G (7.7%, 476G)
Rislyeu: 462G (7.5%, 462G)
RunicMagus: 432G (7.0%, 432G)
randgridr: 324G (5.2%, 9,942G)
Aneyus: 324G (5.2%, 32,493G)
benticore: 250G (4.1%, 16,647G)
TasisSai: 233G (3.8%, 457G)
gorgewall: 201G (3.3%, 5,739G)
datadrivenbot: 115G (1.9%, 45,144G)
nhammen: 100G (1.6%, 12,028G)
DustBirdEX: 100G (1.6%, 2,784G)

blue bets:
HaateXIII: 4,571G (51.5%, 4,571G)
helpimabug: 1,869G (21.1%, 3,739G)
dem0nj0ns: 463G (5.2%, 463G)
prince_rogers_nelson_: 408G (4.6%, 408G)
Lythe_Caraker: 250G (2.8%, 147,461G)
Seaweed_B: 236G (2.7%, 2,540G)
Treafa: 224G (2.5%, 3,629G)
Spuzzmocker: 204G (2.3%, 204G)
AllInBot: 200G (2.3%, 200G)
regios91: 200G (2.3%, 4,181G)
DaKoopa49: 150G (1.7%, 898G)
AND4H: 100G (1.1%, 6,213G)
