Final Bets: purple - 15 bets for 14,544G (61.2%, x0.63); brown - 13 bets for 9,212G (38.8%, x1.58)

purple bets:
E_Ballard: 3,891G (26.8%, 3,891G)
nhammen: 2,000G (13.8%, 11,918G)
RunicMagus: 1,202G (8.3%, 1,202G)
Creggers: 1,000G (6.9%, 27,836G)
WitchHunterIX: 1,000G (6.9%, 14,072G)
BirbBrainsBot: 1,000G (6.9%, 154,328G)
datadrivenbot: 974G (6.7%, 43,724G)
mayfu: 900G (6.2%, 64,750G)
killth3kid: 700G (4.8%, 105,814G)
Seaweed_B: 500G (3.4%, 2,232G)
letdowncity: 412G (2.8%, 2,395G)
furrytomahawkk: 300G (2.1%, 2,870G)
superdevon1: 237G (1.6%, 4,750G)
Treafa: 228G (1.6%, 2,602G)
silentkaster: 200G (1.4%, 17,200G)

brown bets:
helpimabug: 4,598G (49.9%, 9,196G)
getthemoneyz: 1,000G (10.9%, 1,274,397G)
dem0nj0ns: 600G (6.5%, 2,002G)
randgridr: 500G (5.4%, 9,358G)
NIghtdew14: 500G (5.4%, 4,145G)
ValtonZenola: 476G (5.2%, 476G)
Rislyeu: 446G (4.8%, 446G)
BlueAbs: 259G (2.8%, 259G)
gorgewall: 201G (2.2%, 5,377G)
AllInBot: 200G (2.2%, 200G)
TasisSai: 163G (1.8%, 320G)
DustBirdEX: 140G (1.5%, 2,524G)
Skincrawler: 129G (1.4%, 129G)
