Final Bets: red - 14 bets for 5,180G (22.7%, x3.41); blue - 15 bets for 17,671G (77.3%, x0.29)

red bets:
BirbBrainsBot: 1,000G (19.3%, 167,427G)
resjudicata3: 801G (15.5%, 801G)
Aldrammech: 688G (13.3%, 688G)
HaateXIII: 500G (9.7%, 6,034G)
nekojin: 492G (9.5%, 8,745G)
getthemoneyz: 440G (8.5%, 1,653,035G)
AllInBot: 295G (5.7%, 295G)
KerikXI: 200G (3.9%, 1,335G)
nhammen: 200G (3.9%, 29,653G)
Lord_Gwarth: 140G (2.7%, 5,012G)
roofiepops: 123G (2.4%, 5,585G)
gorgewall: 101G (1.9%, 3,517G)
nifboy: 100G (1.9%, 5,458G)
Sans_from_Snowdin: 100G (1.9%, 24,823G)

blue bets:
Thyrandaal: 5,000G (28.3%, 259,502G)
reinoe: 5,000G (28.3%, 223,776G)
dogsandcatsand: 1,712G (9.7%, 1,712G)
silentkaster: 1,600G (9.1%, 4,600G)
Shalloween: 1,200G (6.8%, 14,396G)
SkylerBunny: 1,000G (5.7%, 11,372G)
DeathTaxesAndAnime: 927G (5.2%, 927G)
WhiteTigress: 300G (1.7%, 1,857G)
Tarheels218: 300G (1.7%, 5,937G)
datadrivenbot: 200G (1.1%, 64,052G)
arctodus13: 124G (0.7%, 124G)
Tougou: 100G (0.6%, 3,663G)
CT_5_Holy: 100G (0.6%, 5,061G)
douchetron: 100G (0.6%, 15,281G)
PuzzleSecretary: 8G (0.0%, 147G)
