Final Bets: green - 18 bets for 19,917G (68.8%, x0.45); yellow - 16 bets for 9,016G (31.2%, x2.21)

green bets:
NIghtdew14: 4,176G (21.0%, 4,176G)
NicoSavoy: 3,273G (16.4%, 109,128G)
reinoe: 3,000G (15.1%, 70,546G)
Virilikus: 2,000G (10.0%, 192,808G)
Shalloween: 1,200G (6.0%, 53,530G)
getthemoneyz: 1,000G (5.0%, 1,514,373G)
Lord_Burrah: 1,000G (5.0%, 83,000G)
SephDarkheart: 771G (3.9%, 771G)
ko2q: 766G (3.8%, 766G)
killth3kid: 616G (3.1%, 1,990G)
DHaveWord: 440G (2.2%, 1,934G)
Finewax: 400G (2.0%, 1,355G)
Ayntlerz: 369G (1.9%, 369G)
BirbBrainsBot: 248G (1.2%, 29,237G)
Brainstew29: 200G (1.0%, 38,952G)
datadrivenbot: 200G (1.0%, 49,596G)
latebit: 136G (0.7%, 136G)
daveb_: 122G (0.6%, 3,369G)

yellow bets:
Forkmore: 2,222G (24.6%, 19,426G)
OneHundredFists: 2,039G (22.6%, 2,039G)
J2DaBibbles: 1,000G (11.1%, 12,500G)
Zeroroute: 600G (6.7%, 600G)
gorgewall: 592G (6.6%, 592G)
coralreeferz: 548G (6.1%, 12,593G)
nekojin: 500G (5.5%, 29,293G)
dogsandcatsand: 452G (5.0%, 111,914G)
Blakelmenakle: 300G (3.3%, 12,178G)
AllInBot: 200G (2.2%, 200G)
ribbiks: 200G (2.2%, 5,653G)
E_Ballard: 100G (1.1%, 2,152G)
loveyouallfriends: 100G (1.1%, 25,457G)
rednecknazgul: 100G (1.1%, 2,612G)
PantherIscariot: 50G (0.6%, 1,111G)
theBinklive: 13G (0.1%, 132G)
