Final Bets: white - 17 bets for 16,062G (65.7%, x0.52); black - 14 bets for 8,378G (34.3%, x1.92)

white bets:
DeathTaxesAndAnime: 5,637G (35.1%, 11,054G)
Virilikus: 2,000G (12.5%, 193,713G)
NIghtdew14: 1,500G (9.3%, 6,070G)
SephDarkheart: 1,120G (7.0%, 1,120G)
ko2q: 1,113G (6.9%, 1,113G)
Aldrammech: 1,000G (6.2%, 23,801G)
Zeroroute: 600G (3.7%, 600G)
Phi_Sig: 555G (3.5%, 110,103G)
ribbiks: 500G (3.1%, 5,453G)
blorpy_: 492G (3.1%, 6,162G)
Galeronis: 377G (2.3%, 377G)
reddwind_: 300G (1.9%, 8,237G)
Wooplestein: 268G (1.7%, 268G)
Finewax: 200G (1.2%, 1,536G)
datadrivenbot: 200G (1.2%, 49,687G)
rednecknazgul: 100G (0.6%, 2,512G)
daveb_: 100G (0.6%, 3,424G)

black bets:
NicoSavoy: 3,318G (39.6%, 110,610G)
Roleplayinguy: 1,000G (11.9%, 1,531G)
BirbBrainsBot: 1,000G (11.9%, 29,349G)
gorgewall: 592G (7.1%, 592G)
Forkmore: 500G (6.0%, 17,204G)
reinoe: 500G (6.0%, 71,904G)
Brainstew29: 300G (3.6%, 39,043G)
Blakelmenakle: 300G (3.6%, 11,878G)
loveyouallfriends: 300G (3.6%, 25,357G)
AllInBot: 200G (2.4%, 200G)
PantherIscariot: 175G (2.1%, 1,061G)
E_Ballard: 100G (1.2%, 2,052G)
getthemoneyz: 82G (1.0%, 1,514,826G)
theBinklive: 11G (0.1%, 119G)
