Final Bets: purple - 19 bets for 18,629G (81.5%, x0.23); brown - 7 bets for 4,217G (18.5%, x4.42)

purple bets:
NicoSavoy: 3,509G (18.8%, 116,971G)
Virilikus: 3,000G (16.1%, 191,713G)
DeathTaxesAndAnime: 2,762G (14.8%, 5,417G)
NIghtdew14: 2,000G (10.7%, 4,570G)
gorgewall: 1,727G (9.3%, 1,727G)
loveyouallfriends: 1,000G (5.4%, 25,932G)
Brainstew29: 618G (3.3%, 39,618G)
Zeroroute: 600G (3.2%, 600G)
Phi_Sig: 555G (3.0%, 109,548G)
g1nger4le: 500G (2.7%, 4,097G)
SephDarkheart: 460G (2.5%, 460G)
ko2q: 452G (2.4%, 452G)
Blakelmenakle: 300G (1.6%, 12,453G)
Wooplestein: 248G (1.3%, 248G)
PantherIscariot: 200G (1.1%, 1,397G)
datadrivenbot: 200G (1.1%, 49,487G)
Finewax: 200G (1.1%, 1,336G)
latebit: 198G (1.1%, 198G)
ANFz: 100G (0.5%, 58,888G)

brown bets:
BirbBrainsBot: 1,000G (23.7%, 31,266G)
getthemoneyz: 804G (19.1%, 1,514,983G)
Forkmore: 777G (18.4%, 18,163G)
AllInBot: 583G (13.8%, 583G)
reinoe: 500G (11.9%, 72,863G)
blorpy_: 453G (10.7%, 5,670G)
E_Ballard: 100G (2.4%, 2,244G)
