Final Bets: red - 21 bets for 10,623G (63.6%, x0.57); yellow - 9 bets for 6,086G (36.4%, x1.75)

red bets:
EnemyController: 1,234G (11.6%, 615,494G)
Nizaha: 1,001G (9.4%, 14,991G)
SkyridgeZero: 1,000G (9.4%, 42,934G)
BlackFireUK: 1,000G (9.4%, 36,672G)
JumbocactuarX27: 1,000G (9.4%, 5,669G)
fenaen: 800G (7.5%, 30,610G)
TheChainNerd: 500G (4.7%, 1,968G)
CaptainGarlock: 500G (4.7%, 9,019G)
kaidykat: 500G (4.7%, 22,684G)
HaateXIII: 500G (4.7%, 3,390G)
reinoe: 500G (4.7%, 18,831G)
Kronikle: 300G (2.8%, 21,042G)
CapnChaos12: 300G (2.8%, 13,801G)
getthemoneyz: 288G (2.7%, 976,528G)
Lythe_Caraker: 250G (2.4%, 111,132G)
just_here2: 250G (2.4%, 7,356G)
ZCKaiser: 200G (1.9%, 1,314G)
CosmicTactician: 200G (1.9%, 6,447G)
E_Ballard: 100G (0.9%, 8,597G)
serperemagus: 100G (0.9%, 10,273G)
Angelomortis: 100G (0.9%, 1,455G)

yellow bets:
ShintaroNayaka: 1,508G (24.8%, 1,508G)
toka222: 1,500G (24.6%, 52,886G)
Mesmaster: 1,000G (16.4%, 83,657G)
BirbBrainsBot: 621G (10.2%, 75,948G)
Cryptopsy70: 564G (9.3%, 15,082G)
DudeMonkey77: 500G (8.2%, 31,376G)
AllInBot: 193G (3.2%, 193G)
Nohurty: 100G (1.6%, 4,584G)
actual_JP: 100G (1.6%, 6,733G)
