Final Bets: red - 20 bets for 20,631G (54.6%, x0.83); black - 37 bets for 17,161G (45.4%, x1.20)

red bets:
kingchadking: 4,428G (21.5%, 4,428G)
DudeMonkey77: 3,387G (16.4%, 33,872G)
Lydian_C: 3,200G (15.5%, 71,278G)
Aldrammech: 2,047G (9.9%, 20,479G)
sinnyil2: 1,200G (5.8%, 26,654G)
BirbBrainsBot: 1,000G (4.8%, 126,872G)
bad1dea: 1,000G (4.8%, 351,330G)
LASERJESUS1337: 1,000G (4.8%, 68,790G)
robespyah: 716G (3.5%, 2,866G)
DustBirdEX: 666G (3.2%, 4,082G)
getthemoneyz: 498G (2.4%, 406,221G)
Numbersborne: 389G (1.9%, 389G)
Aeolus_000: 300G (1.5%, 6,286G)
Crono: 200G (1.0%, 1,410G)
Oshimi12: 100G (0.5%, 2,718G)
Tithonus: 100G (0.5%, 7,735G)
BadBlanket: 100G (0.5%, 2,830G)
ZephyrTempest: 100G (0.5%, 18,208G)
maakur_: 100G (0.5%, 1,571G)
joewcarson: 100G (0.5%, 5,685G)

black bets:
volgrathemoose: 2,001G (11.7%, 6,798G)
ll_aja_ll: 2,000G (11.7%, 2,000G)
SeedSC: 1,500G (8.7%, 123,555G)
DeathTaxesAndAnime: 1,370G (8.0%, 2,688G)
0utlier: 1,337G (7.8%, 7,954G)
SkylerBunny: 1,088G (6.3%, 1,088G)
ANFz: 862G (5.0%, 862G)
pandasforsale: 777G (4.5%, 18,409G)
Snowfats: 764G (4.5%, 764G)
HaateXIII: 750G (4.4%, 4,487G)
LordSDB: 550G (3.2%, 2,141G)
reinoe: 500G (2.9%, 4,776G)
UmaiJam: 386G (2.2%, 3,868G)
rockmem21: 312G (1.8%, 312G)
Evewho: 300G (1.7%, 5,313G)
LAGBOT30000: 252G (1.5%, 5,057G)
DonCardenio: 226G (1.3%, 226G)
ugoplatamia: 200G (1.2%, 14,844G)
amadmet: 200G (1.2%, 6,086G)
mirapoix: 200G (1.2%, 3,190G)
InOzWeTrust: 124G (0.7%, 124G)
byrdturbo: 111G (0.6%, 2,072G)
AllInBot: 100G (0.6%, 100G)
Basmal: 100G (0.6%, 54,042G)
Tougou: 100G (0.6%, 4,235G)
ApplesauceBoss: 100G (0.6%, 1,102G)
twelfthrootoftwo: 100G (0.6%, 3,199G)
SpaZmodeus: 100G (0.6%, 1,624G)
Lythe_Caraker: 100G (0.6%, 47,488G)
Nizaha: 100G (0.6%, 13,762G)
herrshaun: 100G (0.6%, 2,165G)
thejoden: 100G (0.6%, 3,899G)
datadrivenbot: 100G (0.6%, 13,471G)
rjA0zcOQ96: 100G (0.6%, 2,186G)
RunicMagus: 100G (0.6%, 25,178G)
cougboi: 50G (0.3%, 4,269G)
daveb_: 1G (0.0%, 1,672G)
