Final Bets: white - 10 bets for 8,961G (45.6%, x1.19); brown - 12 bets for 10,671G (54.4%, x0.84)

white bets:
Error72: 3,297G (36.8%, 6,595G)
TheChainNerd: 2,400G (26.8%, 24,003G)
DavenIII: 1,500G (16.7%, 7,465G)
E_Ballard: 488G (5.4%, 488G)
ColetteMSLP: 400G (4.5%, 3,675G)
run_with_stone_GUNs: 300G (3.3%, 1,710G)
datadrivenbot: 200G (2.2%, 61,328G)
hiros13gts: 176G (2.0%, 176G)
nhammen: 100G (1.1%, 10,721G)
nsm013: 100G (1.1%, 8,430G)

brown bets:
NIghtdew14: 3,754G (35.2%, 18,773G)
YaBoy125: 1,032G (9.7%, 10,321G)
BirbBrainsBot: 1,000G (9.4%, 149,106G)
cam_ATS: 999G (9.4%, 50,117G)
getthemoneyz: 716G (6.7%, 1,225,593G)
pplvee1: 668G (6.3%, 668G)
prince_rogers_nelson_: 652G (6.1%, 652G)
Zeroroute: 600G (5.6%, 600G)
Forkmore: 500G (4.7%, 6,174G)
ShintaroNayaka: 400G (3.7%, 4,373G)
RunicMagus: 250G (2.3%, 1,238G)
CosmicTactician: 100G (0.9%, 43,521G)
