Final Bets: blue - 13 bets for 9,471G (45.7%, x1.19); white - 7 bets for 11,264G (54.3%, x0.84)

blue bets:
Mesmaster: 2,000G (21.1%, 13,801G)
E_Ballard: 1,069G (11.3%, 1,069G)
BirbBrainsBot: 1,000G (10.6%, 148,106G)
RunicMagus: 938G (9.9%, 938G)
YaBoy125: 928G (9.8%, 9,289G)
NIghtdew14: 750G (7.9%, 15,019G)
SephDarkheart: 708G (7.5%, 708G)
Zeroroute: 600G (6.3%, 600G)
Forkmore: 500G (5.3%, 5,674G)
ShintaroNayaka: 400G (4.2%, 3,973G)
getthemoneyz: 278G (2.9%, 1,224,877G)
datadrivenbot: 200G (2.1%, 61,566G)
CosmicTactician: 100G (1.1%, 43,421G)

white bets:
Error72: 5,260G (46.7%, 10,521G)
TheChainNerd: 2,686G (23.8%, 26,861G)
DavenIII: 1,500G (13.3%, 9,251G)
VolgraTheMoose: 788G (7.0%, 788G)
hiros13gts: 386G (3.4%, 386G)
prince_rogers_nelson_: 344G (3.1%, 344G)
run_with_stone_GUNs: 300G (2.7%, 2,067G)
