Final Bets: red - 14 bets for 11,562G (53.8%, x0.86); blue - 19 bets for 9,916G (46.2%, x1.17)

red bets:
leakimiko: 4,812G (41.6%, 4,812G)
FoeSquirrel: 1,054G (9.1%, 1,054G)
volgrathemoose: 1,001G (8.7%, 12,328G)
rocl: 1,000G (8.6%, 63,471G)
Dexsana: 600G (5.2%, 2,150G)
itzover9001: 500G (4.3%, 12,548G)
ColetteMSLP: 500G (4.3%, 28,063G)
HASTERIOUS: 415G (3.6%, 415G)
Treapvort: 400G (3.5%, 400G)
DemonRHK: 384G (3.3%, 384G)
Jeeboheebo: 347G (3.0%, 347G)
Maeveen: 200G (1.7%, 2,332G)
Sye990: 200G (1.7%, 1,682G)
datadrivenbot: 149G (1.3%, 170G)

blue bets:
megaman2202: 1,478G (14.9%, 1,478G)
MoonSlayerRS: 1,301G (13.1%, 1,301G)
kai_shee: 1,001G (10.1%, 141,773G)
TheChainNerd: 1,000G (10.1%, 9,505G)
BirbBrainsBot: 1,000G (10.1%, 186,510G)
Sitiran: 664G (6.7%, 664G)
YaBoy125: 600G (6.1%, 600G)
CassiePhoenix: 541G (5.5%, 541G)
exaltedhamster: 500G (5.0%, 6,080G)
HeroponThrawn: 453G (4.6%, 453G)
ShintaroNayaka: 300G (3.0%, 17,808G)
getthemoneyz: 286G (2.9%, 501,930G)
YoungSax: 200G (2.0%, 2,406G)
Aneyus: 192G (1.9%, 19,288G)
Tithonus: 100G (1.0%, 6,014G)
Tougou: 100G (1.0%, 6,026G)
dictatorhowells: 100G (1.0%, 1,740G)
tmo50x: 50G (0.5%, 3,287G)
GingerDynomite: 50G (0.5%, 452G)
