Final Bets: green - 8 bets for 3,690G (31.0%, x2.22); yellow - 13 bets for 8,207G (69.0%, x0.45)

green bets:
DeathTaxesAndAnime: 1,111G (30.1%, 35,529G)
killth3kid: 864G (23.4%, 20,690G)
JonnyCue: 492G (13.3%, 12,210G)
heropong: 356G (9.6%, 356G)
DHaveWord: 351G (9.5%, 351G)
datadrivenbot: 200G (5.4%, 83,191G)
CorpusCav: 200G (5.4%, 93,466G)
murderclan: 116G (3.1%, 116G)

yellow bets:
DLJuggernaut: 1,567G (19.1%, 1,567G)
E_Ballard: 1,341G (16.3%, 1,341G)
BirbBrainsBot: 1,000G (12.2%, 52,595G)
technominari: 1,000G (12.2%, 99,493G)
WireLord: 894G (10.9%, 894G)
krombobreaker: 500G (6.1%, 33,107G)
Breakdown777: 500G (6.1%, 4,910G)
AllInBot: 355G (4.3%, 355G)
ExplanationMarkWow: 250G (3.0%, 5,569G)
Demon_Lord_Josh: 236G (2.9%, 236G)
getthemoneyz: 208G (2.5%, 2,213,093G)
HorusTaurus: 200G (2.4%, 14,653G)
FuzzyTigers: 156G (1.9%, 156G)
