Final Bets: white - 8 bets for 14,762G (42.0%, x1.38); black - 16 bets for 20,418G (58.0%, x0.72)

white bets:
SephDarkheart: 11,819G (80.1%, 23,638G)
Sairentozon7: 676G (4.6%, 676G)
dogsandcatsand: 576G (3.9%, 576G)
AllInBot: 515G (3.5%, 515G)
Breakdown777: 500G (3.4%, 5,135G)
heropong: 356G (2.4%, 356G)
DHaveWord: 220G (1.5%, 220G)
Tithonus: 100G (0.7%, 1,266G)

black bets:
HorusTaurus: 7,371G (36.1%, 14,743G)
CorpusCav: 2,000G (9.8%, 93,266G)
NicoSavoy: 2,000G (9.8%, 142,320G)
E_Ballard: 1,944G (9.5%, 1,944G)
VolgraTheMoose: 1,390G (6.8%, 1,390G)
DLJuggernaut: 1,158G (5.7%, 2,272G)
DeathTaxesAndAnime: 1,111G (5.4%, 34,418G)
BirbBrainsBot: 1,000G (4.9%, 53,045G)
krombobreaker: 500G (2.4%, 33,332G)
technominari: 500G (2.4%, 99,943G)
Demon_Lord_Josh: 342G (1.7%, 342G)
getthemoneyz: 310G (1.5%, 2,213,187G)
ExplanationMarkWow: 250G (1.2%, 5,681G)
FuzzyTigers: 226G (1.1%, 226G)
datadrivenbot: 200G (1.0%, 82,991G)
murderclan: 116G (0.6%, 116G)
