Final Bets: green - 13 bets for 14,511G (32.6%, x2.06); champion - 11 bets for 29,948G (67.4%, x0.48)

green bets:
Thyrandaal: 5,000G (34.5%, 48,664G)
EnemyController: 3,000G (20.7%, 1,696,816G)
Shalloween: 2,000G (13.8%, 55,462G)
BirbBrainsBot: 1,000G (6.9%, 139,029G)
strangeinthebestway: 797G (5.5%, 797G)
Firesheath: 784G (5.4%, 784G)
Smashy: 500G (3.4%, 4,477G)
thunderducker: 444G (3.1%, 8,642G)
Laserman1000: 435G (3.0%, 2,835G)
getthemoneyz: 218G (1.5%, 1,770,372G)
AllInBot: 133G (0.9%, 133G)
victoriolue: 100G (0.7%, 50,810G)
Tarheels218: 100G (0.7%, 2,390G)

champion bets:
latebit: 16,510G (55.1%, 16,510G)
Virilikus: 5,000G (16.7%, 226,928G)
DavenIII: 2,500G (8.3%, 14,330G)
Lumberinjack: 2,134G (7.1%, 2,134G)
Lydian_C: 1,200G (4.0%, 16,573G)
Nizaha: 784G (2.6%, 93,462G)
holandrix: 768G (2.6%, 768G)
krombobreaker: 500G (1.7%, 5,337G)
TrogdorTheMemeinator: 248G (0.8%, 248G)
datadrivenbot: 200G (0.7%, 61,132G)
Dodecadeath: 104G (0.3%, 104G)
