Final Bets: purple - 21 bets for 13,256G (62.6%, x0.60); brown - 8 bets for 7,929G (37.4%, x1.67)

purple bets:
evdoggity: 2,000G (15.1%, 90,708G)
Nickyfive: 1,500G (11.3%, 28,427G)
BirbBrainsBot: 1,000G (7.5%, 36,138G)
Error72: 1,000G (7.5%, 16,155G)
UmaiJam: 1,000G (7.5%, 23,230G)
Kronikle: 836G (6.3%, 836G)
getthemoneyz: 834G (6.3%, 1,067,730G)
AltimaMantoid: 750G (5.7%, 750G)
Shalloween: 600G (4.5%, 78,721G)
HaateXIII: 592G (4.5%, 592G)
Nizaha: 501G (3.8%, 7,537G)
killth3kid: 500G (3.8%, 8,200G)
LionelParks: 500G (3.8%, 4,040G)
helpimabug: 428G (3.2%, 428G)
extinctrational: 375G (2.8%, 375G)
placidphoenix: 240G (1.8%, 240G)
Evewho: 200G (1.5%, 5,539G)
nifboy: 100G (0.8%, 2,249G)
nsm013: 100G (0.8%, 2,239G)
Spuzzmocker: 100G (0.8%, 2,480G)
datadrivenbot: 100G (0.8%, 48,042G)

brown bets:
DudeMonkey77: 4,257G (53.7%, 4,257G)
DeathTaxesAndAnime: 1,235G (15.6%, 2,423G)
ValtonZenola: 1,000G (12.6%, 11,418G)
rmelzer1986: 583G (7.4%, 583G)
RageImmortaI: 404G (5.1%, 404G)
fluffskull: 250G (3.2%, 1,423G)
CosmicTactician: 100G (1.3%, 20,995G)
Firesheath: 100G (1.3%, 8,733G)
