Final Bets: green - 7 bets for 4,756G (24.5%, x3.08); black - 18 bets for 14,671G (75.5%, x0.32)

green bets:
R_Raynos: 2,000G (42.1%, 43,097G)
leakimiko: 1,168G (24.6%, 1,168G)
Jeeboheebo: 839G (17.6%, 839G)
underscoreedit: 249G (5.2%, 249G)
Mudrockk: 200G (4.2%, 1,885G)
twelfthrootoftwo: 200G (4.2%, 806G)
lastly: 100G (2.1%, 1,372G)

black bets:
Lord_Burrah: 2,256G (15.4%, 109,256G)
Mesmaster: 2,000G (13.6%, 54,009G)
HaplessOne: 1,500G (10.2%, 15,195G)
Ultimate_Infinity: 1,410G (9.6%, 1,410G)
Lydian_C: 1,300G (8.9%, 11,745G)
Zhies1337: 1,072G (7.3%, 1,072G)
ungabunga_bot: 1,000G (6.8%, 319,957G)
BirbBrainsBot: 1,000G (6.8%, 184,524G)
Dexsana: 1,000G (6.8%, 16,079G)
WrathfulRemy: 750G (5.1%, 750G)
getthemoneyz: 574G (3.9%, 602,078G)
FNCardascia_: 204G (1.4%, 204G)
witchlight: 104G (0.7%, 104G)
volgrathemoose: 101G (0.7%, 1,931G)
lijarkh: 100G (0.7%, 26,489G)
Kyune: 100G (0.7%, 6,227G)
datadrivenbot: 100G (0.7%, 11,946G)
SamuraiJake777: 100G (0.7%, 917G)
