Final Bets: white - 9 bets for 6,514G (41.5%, x1.41); purple - 11 bets for 9,181G (58.5%, x0.71)

white bets:
evontno: 1,863G (28.6%, 1,863G)
electric_algus: 1,000G (15.4%, 47,720G)
Rislyeu: 1,000G (15.4%, 7,531G)
NicoSavoy: 1,000G (15.4%, 193,702G)
baconbacon1207: 500G (7.7%, 10,222G)
DamnThatShark: 403G (6.2%, 403G)
letdowncity: 396G (6.1%, 396G)
datadrivenbot: 200G (3.1%, 60,266G)
getthemoneyz: 152G (2.3%, 1,268,607G)

purple bets:
shineeyo: 1,959G (21.3%, 3,919G)
nifboy: 1,000G (10.9%, 10,304G)
BirbBrainsBot: 1,000G (10.9%, 83,412G)
dantayystv: 1,000G (10.9%, 8,243G)
Smokegiant: 1,000G (10.9%, 33,742G)
Mesmaster: 1,000G (10.9%, 71,723G)
TheMurkGnome: 740G (8.1%, 5,196G)
upvla: 568G (6.2%, 1,548G)
SkylerBunny: 456G (5.0%, 456G)
superdevon1: 258G (2.8%, 2,589G)
astrozin11: 200G (2.2%, 4,603G)
