Final Bets: red - 18 bets for 13,685G (59.2%, x0.69); green - 21 bets for 9,440G (40.8%, x1.45)

red bets:
AllInBot: 5,988G (43.8%, 5,988G)
sinnyil2: 1,655G (12.1%, 3,310G)
TycerNova: 1,000G (7.3%, 5,453G)
Maeveen: 617G (4.5%, 1,235G)
Lanshaft: 600G (4.4%, 5,395G)
YaBoy125: 576G (4.2%, 576G)
Laserman1000: 540G (3.9%, 10,840G)
DarrenDinosaurs: 500G (3.7%, 5,750G)
Hard_Reset: 446G (3.3%, 446G)
SkylerBunny: 353G (2.6%, 353G)
Vyroxe: 336G (2.5%, 336G)
Nocturnal_Perspective: 212G (1.5%, 212G)
ugoplatamia: 200G (1.5%, 19,790G)
belphepeppers: 200G (1.5%, 3,040G)
rubenflonne: 200G (1.5%, 9,378G)
herrshaun: 100G (0.7%, 3,597G)
victoriolue: 100G (0.7%, 4,926G)
Sitiran: 62G (0.5%, 625G)

green bets:
Goust18: 1,026G (10.9%, 1,026G)
BirbBrainsBot: 1,000G (10.6%, 151,274G)
bad1dea: 1,000G (10.6%, 367,939G)
TheMurkGnome: 873G (9.2%, 873G)
ungabunga_bot: 850G (9.0%, 6,382G)
Shalloween: 700G (7.4%, 83,871G)
Chompie: 624G (6.6%, 10,757G)
shs_: 557G (5.9%, 557G)
gatebuster202: 500G (5.3%, 3,326G)
ANFz: 400G (4.2%, 400G)
Tyerenex: 300G (3.2%, 5,396G)
LAGBOT30000: 200G (2.1%, 4,006G)
KasugaiRoastedPeas: 200G (2.1%, 21,996G)
electric_glass: 200G (2.1%, 4,678G)
b0shii: 200G (2.1%, 1,673G)
EnemyController: 200G (2.1%, 10,241G)
getthemoneyz: 160G (1.7%, 416,256G)
cougboi: 150G (1.6%, 6,667G)
ApplesauceBoss: 100G (1.1%, 1,720G)
datadrivenbot: 100G (1.1%, 16,131G)
TinhShu: 100G (1.1%, 1,000G)
