Final Bets: red - 17 bets for 17,374G (89.1%, x0.12); blue - 6 bets for 2,133G (10.9%, x8.15)

red bets:
Shalloween: 4,000G (23.0%, 44,099G)
NicoSavoy: 2,829G (16.3%, 282,938G)
reinoe: 2,000G (11.5%, 140,936G)
Aldrammech: 1,392G (8.0%, 1,392G)
Thyrandaal: 1,111G (6.4%, 24,969G)
Zagorsek: 1,103G (6.3%, 2,206G)
BirbBrainsBot: 1,000G (5.8%, 183,957G)
boxyID: 1,000G (5.8%, 3,956G)
slotheye17: 600G (3.5%, 600G)
ribbiks: 500G (2.9%, 7,919G)
KyleWonToLiveForever: 400G (2.3%, 412G)
BoneMiser: 360G (2.1%, 360G)
LAGBOT30000: 344G (2.0%, 6,885G)
Chambs12: 335G (1.9%, 335G)
datadrivenbot: 200G (1.2%, 44,429G)
Firesheath: 100G (0.6%, 8,537G)
ANFz: 100G (0.6%, 58,871G)

blue bets:
prince_rogers_nelson_: 735G (34.5%, 735G)
Laserman1000: 604G (28.3%, 6,404G)
TheseJeans: 287G (13.5%, 287G)
acid_flashback: 249G (11.7%, 6,228G)
AllInBot: 200G (9.4%, 200G)
getthemoneyz: 58G (2.7%, 1,423,297G)
