Final Bets: blue - 9 bets for 4,474G (40.7%, x1.45); green - 6 bets for 6,509G (59.3%, x0.69)

blue bets:
Seaweed_B: 2,000G (44.7%, 101,152G)
getthemoneyz: 1,000G (22.4%, 1,657,534G)
lowlf: 312G (7.0%, 6,425G)
WhiteTigress: 300G (6.7%, 1,896G)
datadrivenbot: 200G (4.5%, 68,500G)
DeathTaxesAndAnime: 200G (4.5%, 2,583G)
brando84back: 200G (4.5%, 1,265G)
AllInBot: 180G (4.0%, 180G)
3ngag3: 82G (1.8%, 1,082G)

green bets:
amiture: 2,000G (30.7%, 18,946G)
NicoSavoy: 1,808G (27.8%, 36,169G)
BirbBrainsBot: 1,000G (15.4%, 186,545G)
blorpy_: 657G (10.1%, 16,425G)
CT_5_Holy: 556G (8.5%, 556G)
iBardic: 488G (7.5%, 488G)
