Final Bets: yellow - 20 bets for 17,986G (42.0%, x1.38); champion - 20 bets for 24,855G (58.0%, x0.72)

yellow bets:
mirapoix: 6,652G (37.0%, 13,304G)
OmnibotGamma: 2,919G (16.2%, 2,919G)
volgrathemoose: 2,001G (11.1%, 17,234G)
Mtueni: 1,000G (5.6%, 188,227G)
reinoe: 1,000G (5.6%, 8,756G)
TheKillerNacho: 852G (4.7%, 852G)
uncharreted: 532G (3.0%, 761G)
Bryon_W: 500G (2.8%, 13,051G)
Evewho: 332G (1.8%, 332G)
Lanshaft: 300G (1.7%, 2,124G)
catfashions: 300G (1.7%, 11,792G)
CapnChaos12: 300G (1.7%, 3,233G)
proper__noun__: 300G (1.7%, 1,205G)
lohakilo: 276G (1.5%, 276G)
nifboy: 183G (1.0%, 1,834G)
ThePuss: 128G (0.7%, 128G)
datadrivenbot: 111G (0.6%, 133G)
Tithonus: 100G (0.6%, 4,705G)
RunicMagus: 100G (0.6%, 1,534G)
ApplesauceBoss: 100G (0.6%, 3,465G)

champion bets:
killth3kid: 14,339G (57.7%, 14,339G)
Baron_von_Scrub: 2,552G (10.3%, 19,674G)
MantisFinch: 1,000G (4.0%, 25,853G)
Meta_Five: 1,000G (4.0%, 10,804G)
ungabunga_bot: 1,000G (4.0%, 150,862G)
BirbBrainsBot: 1,000G (4.0%, 183,115G)
itzover9001: 777G (3.1%, 4,428G)
GargantuaCat: 750G (3.0%, 750G)
Theseawolf1: 500G (2.0%, 5,833G)
old_overholt_: 500G (2.0%, 9,178G)
urieltheflameofgod: 300G (1.2%, 17,054G)
ZephyrTempest: 281G (1.1%, 73,343G)
potgodtopdog: 200G (0.8%, 5,700G)
ko2q: 199G (0.8%, 6,936G)
SwaffleWaffles: 156G (0.6%, 1,560G)
Lodrak: 100G (0.4%, 4,028G)
SpookyCookieMonster: 100G (0.4%, 100G)
b0shii: 50G (0.2%, 1,574G)
GingerDynomite: 50G (0.2%, 831G)
braumbles: 1G (0.0%, 100G)
