Final Bets: purple - 15 bets for 8,468G (45.9%, x1.18); brown - 13 bets for 9,971G (54.1%, x0.85)

purple bets:
nhammen: 2,000G (23.6%, 33,601G)
LivingHitokiri: 1,000G (11.8%, 139,672G)
Shalloween: 1,000G (11.8%, 11,344G)
AllInBot: 913G (10.8%, 913G)
Zeroroute: 737G (8.7%, 737G)
Willjin: 500G (5.9%, 36,406G)
2b_yorha_b: 465G (5.5%, 465G)
sireaulou: 427G (5.0%, 427G)
AltimaMantoid: 322G (3.8%, 19,322G)
Zerguzen: 284G (3.4%, 284G)
minorfffanatic1: 200G (2.4%, 4,136G)
datadrivenbot: 200G (2.4%, 78,378G)
MemoriesofFinal: 200G (2.4%, 1,237G)
MoonSugarFiend: 120G (1.4%, 1,192G)
Sharosa: 100G (1.2%, 1,859G)

brown bets:
Thyrandaal: 5,000G (50.1%, 262,307G)
RunicMagus: 1,020G (10.2%, 13,984G)
getthemoneyz: 1,000G (10.0%, 2,090,697G)
CorpusCav: 520G (5.2%, 10,700G)
ExplanationMarkWow: 500G (5.0%, 16,777G)
CosmicTactician: 500G (5.0%, 41,525G)
lijarkh: 396G (4.0%, 396G)
Lord_Gwarth: 352G (3.5%, 352G)
BirbBrainsBot: 250G (2.5%, 24,949G)
Einswolf: 204G (2.0%, 204G)
bufuman: 116G (1.2%, 116G)
hecsec: 112G (1.1%, 112G)
latebit: 1G (0.0%, 43,505G)
