Final Bets: red - 12 bets for 7,916G (37.1%, x1.70); yellow - 19 bets for 13,424G (62.9%, x0.59)

red bets:
latebit: 3,480G (44.0%, 43,504G)
Zeroroute: 1,605G (20.3%, 1,605G)
BirbBrainsBot: 659G (8.3%, 24,699G)
DLJuggernaut: 596G (7.5%, 596G)
CorpusCav: 500G (6.3%, 10,180G)
CosmicTactician: 200G (2.5%, 41,025G)
lotharek: 200G (2.5%, 634G)
baumgrattler: 174G (2.2%, 174G)
Demon_Lord_Josh: 150G (1.9%, 355G)
getthemoneyz: 124G (1.6%, 2,089,697G)
bufuman: 116G (1.5%, 116G)
hecsec: 112G (1.4%, 112G)

yellow bets:
DavenIII: 2,718G (20.2%, 5,436G)
nhammen: 2,000G (14.9%, 35,956G)
AllInBot: 1,988G (14.8%, 1,988G)
2b_yorha_b: 1,000G (7.4%, 1,013G)
sireaulou: 930G (6.9%, 930G)
gorgewall: 808G (6.0%, 808G)
Zerguzen: 618G (4.6%, 618G)
Zagorsek: 508G (3.8%, 508G)
ExplanationMarkWow: 500G (3.7%, 16,277G)
AltimaMantoid: 401G (3.0%, 19,701G)
bigbongsmoker: 360G (2.7%, 360G)
Lord_Gwarth: 352G (2.6%, 352G)
Nasherex: 250G (1.9%, 278G)
RikiNom: 208G (1.5%, 208G)
Einswolf: 204G (1.5%, 204G)
datadrivenbot: 200G (1.5%, 78,613G)
MemoriesofFinal: 144G (1.1%, 1,472G)
minorfffanatic1: 135G (1.0%, 4,371G)
DeathTaxesAndAnime: 100G (0.7%, 4,611G)
