Final Bets: white - 19 bets for 10,539G (78.6%, x0.27); black - 8 bets for 2,877G (21.4%, x3.66)

white bets:
Shalloween: 1,672G (15.9%, 1,672G)
BirbBrainsBot: 1,000G (9.5%, 17,422G)
reinoe: 1,000G (9.5%, 41,066G)
mindblownnnn: 869G (8.2%, 869G)
latebit: 644G (6.1%, 644G)
Nizaha: 608G (5.8%, 12,054G)
nhammen: 600G (5.7%, 8,899G)
krombobreaker: 500G (4.7%, 34,805G)
DarrenDinosaurs: 500G (4.7%, 13,675G)
king_smashington: 500G (4.7%, 19,276G)
iBluntDouble: 500G (4.7%, 5,132G)
AllInBot: 492G (4.7%, 492G)
DeathTaxesAndAnime: 400G (3.8%, 3,133G)
Musashi45: 268G (2.5%, 268G)
silentkaster: 250G (2.4%, 26,988G)
scsuperstar: 224G (2.1%, 224G)
resjudicata3: 200G (1.9%, 10,678G)
datadrivenbot: 200G (1.9%, 76,292G)
MoonSugarFiend: 112G (1.1%, 5,490G)

black bets:
3ngag3: 974G (33.9%, 974G)
bruubarg: 600G (20.9%, 600G)
HorusTaurus: 356G (12.4%, 356G)
Rhyser76: 266G (9.2%, 266G)
getthemoneyz: 258G (9.0%, 2,106,667G)
DocSTN: 200G (7.0%, 5,386G)
roofiepops: 123G (4.3%, 5,476G)
DsTomioka: 100G (3.5%, 100G)
