Final Bets: red - 18 bets for 8,630G (61.4%, x0.63); blue - 14 bets for 5,431G (38.6%, x1.59)

red bets:
NicoSavoy: 2,000G (23.2%, 53,895G)
DeathTaxesAndAnime: 1,162G (13.5%, 1,162G)
skipsandwiches: 1,001G (11.6%, 8,165G)
BirbBrainsBot: 1,000G (11.6%, 127,377G)
killth3kid: 500G (5.8%, 33,080G)
technominari: 500G (5.8%, 79,846G)
Helllyesss: 327G (3.8%, 327G)
Regular_Obbi: 291G (3.4%, 291G)
Smugzug: 276G (3.2%, 276G)
BappleTrees: 228G (2.6%, 228G)
J_52: 200G (2.3%, 7,176G)
farside00831: 200G (2.3%, 3,111G)
datadrivenbot: 200G (2.3%, 59,166G)
onehitslay: 200G (2.3%, 3,439G)
grishhammer: 187G (2.2%, 375G)
CrazyLou64: 158G (1.8%, 158G)
AllInBot: 100G (1.2%, 100G)
Thyrandaal: 100G (1.2%, 17,884G)

blue bets:
reinoe: 2,156G (39.7%, 2,156G)
resjudicata3: 776G (14.3%, 776G)
Zbgs: 532G (9.8%, 532G)
Chaide: 500G (9.2%, 6,111G)
ValensEXP_: 292G (5.4%, 4,710G)
Zerguzen: 240G (4.4%, 240G)
Kellios11: 200G (3.7%, 1,960G)
getthemoneyz: 134G (2.5%, 1,938,808G)
gorgewall: 101G (1.9%, 12,151G)
BartTradingCompany: 100G (1.8%, 7,455G)
nhammen: 100G (1.8%, 421,945G)
tripaplex: 100G (1.8%, 701G)
arumz: 100G (1.8%, 24,917G)
Morsigil: 100G (1.8%, 1,564G)
