Final Bets: white - 12 bets for 10,888G (46.4%, x1.16); black - 15 bets for 12,586G (53.6%, x0.87)

white bets:
HASTERIOUS: 3,807G (35.0%, 3,807G)
DeathTaxesAndAnime: 2,262G (20.8%, 4,436G)
nekojin: 1,790G (16.4%, 3,510G)
CorpusCav: 1,400G (12.9%, 16,923G)
killth3kid: 500G (4.6%, 32,580G)
SephDarkheart: 328G (3.0%, 328G)
datadrivenbot: 200G (1.8%, 58,766G)
aceof86: 200G (1.8%, 4,385G)
gorgewall: 101G (0.9%, 12,988G)
BartTradingCompany: 100G (0.9%, 7,514G)
tripaplex: 100G (0.9%, 1,260G)
arumz: 100G (0.9%, 25,976G)

black bets:
dogsandcatsand: 4,000G (31.8%, 38,547G)
Thyrandaal: 4,000G (31.8%, 16,284G)
Zerguzen: 1,538G (12.2%, 1,538G)
BirbBrainsBot: 1,000G (7.9%, 125,377G)
Chaide: 500G (4.0%, 7,410G)
Blastinus: 284G (2.3%, 284G)
AllInBot: 275G (2.2%, 275G)
J_52: 251G (2.0%, 7,151G)
Morsigil: 200G (1.6%, 2,113G)
getthemoneyz: 114G (0.9%, 1,938,021G)
CrazyLou64: 104G (0.8%, 104G)
nhammen: 100G (0.8%, 423,108G)
AbandonedHall: 100G (0.8%, 3,482G)
grishhammer: 100G (0.8%, 1,893G)
alcibiadeez: 20G (0.2%, 640G)
