Final Bets: purple - 5 bets for 2,400G (29.6%, x2.38); brown - 15 bets for 5,713G (70.4%, x0.42)

purple bets:
ColetteMSLP: 700G (29.2%, 26,560G)
aStatue: 600G (25.0%, 600G)
Zachara: 500G (20.8%, 55,000G)
ForagerCats: 500G (20.8%, 37,279G)
twelfthrootoftwo: 100G (4.2%, 1,875G)

brown bets:
BirbBrainsBot: 1,000G (17.5%, 25,909G)
NovaKnight21: 789G (13.8%, 789G)
getthemoneyz: 658G (11.5%, 583,598G)
volgrathemoose: 514G (9.0%, 514G)
Dexef: 444G (7.8%, 13,292G)
Reductions: 402G (7.0%, 402G)
leakimiko: 400G (7.0%, 400G)
roqqqpsi: 366G (6.4%, 1,666G)
ungabunga_bot: 284G (5.0%, 271,498G)
FoxtrotNovemberCharlie: 248G (4.3%, 248G)
Jaritras: 208G (3.6%, 208G)
Lali_Lulelo: 100G (1.8%, 17,370G)
datadrivenbot: 100G (1.8%, 3,001G)
HorusTaurus: 100G (1.8%, 1,000G)
nuka1120: 100G (1.8%, 100G)
