Final Bets: purple - 15 bets for 12,018G (45.1%, x1.22); brown - 15 bets for 14,622G (54.9%, x0.82)

purple bets:
Shalloween: 2,603G (21.7%, 5,105G)
Grimmace45: 1,317G (11.0%, 6,587G)
Aldrammech: 1,000G (8.3%, 4,280G)
UmaiJam: 1,000G (8.3%, 17,953G)
ungabunga_bot: 1,000G (8.3%, 316,591G)
BirbBrainsBot: 1,000G (8.3%, 176,642G)
HaplessOne: 888G (7.4%, 25,482G)
sinnyil2: 608G (5.1%, 608G)
JoeykinsGaming: 500G (4.2%, 10,022G)
Rislyeu: 500G (4.2%, 1,526G)
reinoe: 500G (4.2%, 4,967G)
ZephyrTempest: 456G (3.8%, 825G)
cgMcWhiskers: 312G (2.6%, 312G)
Snoopiku: 300G (2.5%, 4,521G)
getthemoneyz: 34G (0.3%, 614,132G)

brown bets:
scadooshlol: 4,000G (27.4%, 46,974G)
Mesmaster: 3,000G (20.5%, 62,201G)
catfashions: 2,368G (16.2%, 4,736G)
Lordminsc: 2,131G (14.6%, 2,131G)
Lydian_C: 700G (4.8%, 11,889G)
HaateXIII: 540G (3.7%, 540G)
SquidgyXom: 451G (3.1%, 5,017G)
datkins728: 400G (2.7%, 5,967G)
Baron_von_Scrub: 312G (2.1%, 312G)
hydroshade: 220G (1.5%, 220G)
ApplesauceBoss: 100G (0.7%, 6,368G)
floopinthepig: 100G (0.7%, 998G)
DeathTaxesAndAnime: 100G (0.7%, 23,905G)
datadrivenbot: 100G (0.7%, 12,266G)
maakur_: 100G (0.7%, 118,186G)
