Final Bets: purple - 15 bets for 7,748G (39.3%, x1.54); brown - 14 bets for 11,964G (60.7%, x0.65)

purple bets:
dogsandcatsand: 1,048G (13.5%, 1,048G)
NIghtdew14: 1,000G (12.9%, 4,084G)
WitchHunterIX: 1,000G (12.9%, 14,326G)
Creggers: 1,000G (12.9%, 28,669G)
Treafa: 500G (6.5%, 2,337G)
Mysteriousdewd: 500G (6.5%, 6,265G)
porkchop5158: 500G (6.5%, 12,317G)
Lanshaft: 484G (6.2%, 16,168G)
RunicMagus: 432G (5.6%, 432G)
randgridr: 324G (4.2%, 10,242G)
Othatmattkid: 260G (3.4%, 2,353G)
gorgewall: 201G (2.6%, 5,540G)
AND4H: 200G (2.6%, 5,616G)
DustBirdEX: 199G (2.6%, 2,599G)
fluffskull: 100G (1.3%, 3,405G)

brown bets:
prince_rogers_nelson_: 3,746G (31.3%, 3,746G)
Zbgs: 2,171G (18.1%, 2,171G)
datadrivenbot: 1,000G (8.4%, 45,649G)
BirbBrainsBot: 1,000G (8.4%, 155,834G)
KyleWonToLiveForever: 1,000G (8.4%, 1,152G)
richardserious: 887G (7.4%, 887G)
Laserman1000: 617G (5.2%, 26,717G)
getthemoneyz: 398G (3.3%, 1,274,340G)
BlueAbs: 340G (2.8%, 340G)
AllInBot: 200G (1.7%, 200G)
dtrain332: 200G (1.7%, 2,634G)
darkwatersedge: 200G (1.7%, 1,574G)
nhammen: 200G (1.7%, 12,080G)
moonliquor: 5G (0.0%, 19,756G)
