Final Bets: green - 12 bets for 10,159G (60.6%, x0.65); yellow - 11 bets for 6,592G (39.4%, x1.54)

green bets:
NicoSavoy: 1,727G (17.0%, 34,548G)
silverChangeling: 1,700G (16.7%, 17,009G)
Aestheta: 1,385G (13.6%, 1,385G)
WhiteTigress: 1,161G (11.4%, 1,161G)
AllInBot: 1,115G (11.0%, 1,115G)
helpimabug: 847G (8.3%, 1,695G)
killth3kid: 724G (7.1%, 33,089G)
LAGBOT30000: 500G (4.9%, 10,414G)
Creggers: 500G (4.9%, 20,158G)
CT_5_Holy: 200G (2.0%, 3,532G)
datadrivenbot: 200G (2.0%, 63,960G)
ko2q: 100G (1.0%, 4,458G)

yellow bets:
reinoe: 3,000G (45.5%, 227,460G)
blorpy_: 788G (12.0%, 19,700G)
holdenmagronik: 582G (8.8%, 582G)
BirbBrainsBot: 516G (7.8%, 171,983G)
Sans_from_Snowdin: 500G (7.6%, 29,273G)
getthemoneyz: 466G (7.1%, 1,658,635G)
lowlf: 304G (4.6%, 1,519G)
HASTERIOUS: 136G (2.1%, 4,555G)
ArrenJevleth: 100G (1.5%, 2,299G)
X0ras: 100G (1.5%, 801G)
ryjelsum: 100G (1.5%, 1,865G)
