Final Bets: red - 6 bets for 3,377G (27.8%, x2.60); yellow - 15 bets for 8,789G (72.2%, x0.38)

red bets:
ungabunga_bot: 1,000G (29.6%, 361,162G)
ColetteMSLP: 800G (23.7%, 26,392G)
pandasforsale: 777G (23.0%, 28,250G)
KasugaiRoastedPeas: 400G (11.8%, 4,573G)
crimson_hellkite: 300G (8.9%, 10,300G)
datadrivenbot: 100G (3.0%, 12,233G)

yellow bets:
leakimiko: 1,755G (20.0%, 17,553G)
sinnyil2: 1,200G (13.7%, 14,058G)
BirbBrainsBot: 1,000G (11.4%, 66,003G)
Who_lio42: 1,000G (11.4%, 3,784G)
SkylerBunny: 700G (8.0%, 51,358G)
midori_ribbon: 600G (6.8%, 1,507G)
R_Raynos: 508G (5.8%, 508G)
Estan_AD: 500G (5.7%, 5,283G)
NovaKnight21: 456G (5.2%, 456G)
Eyepoor_: 300G (3.4%, 6,072G)
Jaritras: 268G (3.0%, 268G)
twelfthrootoftwo: 200G (2.3%, 1,685G)
getthemoneyz: 102G (1.2%, 631,450G)
Evewho: 100G (1.1%, 4,689G)
turquoise_mage: 100G (1.1%, 964G)
