Final Bets: red - 10 bets for 4,032G (70.9%, x0.41); blue - 5 bets for 1,658G (29.1%, x2.43)

red bets:
reinoe: 2,000G (49.6%, 19,502G)
Raixelol: 356G (8.8%, 461G)
AltimaMantoid: 300G (7.4%, 6,800G)
formerlydrdong: 300G (7.4%, 3,960G)
getthemoneyz: 236G (5.9%, 1,810,625G)
datadrivenbot: 200G (5.0%, 66,418G)
bigbongsmoker: 192G (4.8%, 192G)
MemoriesofFinal: 176G (4.4%, 7,896G)
pepperbuster: 171G (4.2%, 2,371G)
gorgewall: 101G (2.5%, 1,567G)

blue bets:
ColetteMSLP: 500G (30.2%, 1,676G)
iBardic: 400G (24.1%, 44,366G)
BirbBrainsBot: 308G (18.6%, 66,231G)
ar_tactic: 250G (15.1%, 96,934G)
FriendlySkeleton: 200G (12.1%, 409G)
