Final Bets: blue - 7 bets for 4,924G (53.6%, x0.87); green - 9 bets for 4,267G (46.4%, x1.15)

blue bets:
Leonidusx: 2,000G (40.6%, 286,125G)
BirbBrainsBot: 1,000G (20.3%, 85,015G)
HaplessOne: 875G (17.8%, 875G)
SpicyCherrySoda_: 535G (10.9%, 535G)
AllInBot: 296G (6.0%, 296G)
getthemoneyz: 118G (2.4%, 2,105,375G)
lwtest: 100G (2.0%, 10,838G)

green bets:
bruubarg: 1,000G (23.4%, 8,500G)
LivingHitokiri: 1,000G (23.4%, 161,564G)
reddwind_: 549G (12.9%, 549G)
3ngag3: 412G (9.7%, 8,569G)
ar_tactic: 350G (8.2%, 75,215G)
AltimaMantoid: 300G (7.0%, 19,400G)
Lolthsmeat: 256G (6.0%, 1,422G)
Sharosa: 200G (4.7%, 2,509G)
datadrivenbot: 200G (4.7%, 81,067G)
