Final Bets: green - 8 bets for 4,118G (26.1%, x2.83); yellow - 12 bets for 11,670G (73.9%, x0.35)

green bets:
AllInBot: 2,479G (60.2%, 2,479G)
randgridr: 600G (14.6%, 600G)
josephiroth_143: 344G (8.4%, 344G)
BirbBrainsBot: 238G (5.8%, 137,517G)
getthemoneyz: 130G (3.2%, 1,560,755G)
roqqqpsi: 127G (3.1%, 847G)
MinBetBot: 100G (2.4%, 17,004G)
DouglasDragonThePoet: 100G (2.4%, 1,876G)

yellow bets:
Zeera98: 3,749G (32.1%, 3,749G)
ko2q: 3,747G (32.1%, 7,494G)
SeniorBunk: 1,337G (11.5%, 1,337G)
reinoe: 1,000G (8.6%, 168,258G)
VolgraTheMoose: 672G (5.8%, 672G)
DesertWooder: 264G (2.3%, 264G)
gorgewall: 201G (1.7%, 2,999G)
datadrivenbot: 200G (1.7%, 50,630G)
gargola2498: 200G (1.7%, 3,860G)
srdonko2098: 150G (1.3%, 2,705G)
northkoreancleetus: 100G (0.9%, 760G)
StrawbreeRed: 50G (0.4%, 180G)
