Final Bets: red - 18 bets for 7,391G (34.0%, x1.94); blue - 17 bets for 14,371G (66.0%, x0.51)

red bets:
MagicBottle: 1,547G (20.9%, 1,547G)
SomthingMore: 1,000G (13.5%, 30,090G)
BirbBrainsBot: 1,000G (13.5%, 59,051G)
Forkmore: 756G (10.2%, 756G)
JonnyCue: 500G (6.8%, 4,096G)
PuzzleSecretary: 400G (5.4%, 729G)
lowlf: 340G (4.6%, 2,331G)
Docrad_: 326G (4.4%, 326G)
getthemoneyz: 282G (3.8%, 1,670,380G)
AllInBot: 204G (2.8%, 204G)
peanutvendor: 200G (2.7%, 200G)
DAC169: 200G (2.7%, 1,792G)
JCBoorgo: 200G (2.7%, 200G)
Skjodo: 132G (1.8%, 132G)
MinBetBot: 100G (1.4%, 6,456G)
nifboy: 100G (1.4%, 4,968G)
Lifebregin: 54G (0.7%, 8,554G)
silverChangeling: 50G (0.7%, 13,369G)

blue bets:
DavenIII: 5,000G (34.8%, 88,979G)
resjudicata3: 1,461G (10.2%, 1,461G)
NovaKnight21: 1,367G (9.5%, 2,734G)
HaateXIII: 1,000G (7.0%, 4,713G)
SkylerBunny: 776G (5.4%, 776G)
DustBirdEX: 620G (4.3%, 620G)
SephDarkheart: 600G (4.2%, 111,433G)
Strifu: 562G (3.9%, 562G)
kononeko: 521G (3.6%, 521G)
evontno: 500G (3.5%, 6,293G)
DLJuggernaut: 420G (2.9%, 420G)
Laserman1000: 404G (2.8%, 2,704G)
skipsandwiches: 340G (2.4%, 1,067G)
CapnChaos12: 300G (2.1%, 15,998G)
Lyner87: 200G (1.4%, 92,753G)
datadrivenbot: 200G (1.4%, 64,883G)
Raixelol: 100G (0.7%, 7,016G)
