Final Bets: purple - 9 bets for 35,037G (71.9%, x0.39); champion - 25 bets for 13,698G (28.1%, x2.56)

purple bets:
dogsandcatsand: 17,853G (51.0%, 35,007G)
Thyrandaal: 11,111G (31.7%, 481,320G)
rNdOrchestra: 3,413G (9.7%, 3,413G)
Meta_Five: 1,000G (2.9%, 17,453G)
latebit: 955G (2.7%, 955G)
Tarheels218: 304G (0.9%, 2,520G)
CapnChaos12: 300G (0.9%, 15,434G)
MinBetBot: 100G (0.3%, 6,810G)
SephDarkheart: 1G (0.0%, 110,668G)

champion bets:
DavenIII: 3,500G (25.6%, 92,182G)
toka222: 1,650G (12.0%, 169,465G)
BirbBrainsBot: 1,000G (7.3%, 59,388G)
Sairentozon7: 1,000G (7.3%, 23,454G)
MagicBottle: 600G (4.4%, 600G)
Forkmore: 568G (4.1%, 568G)
JonnyCue: 500G (3.7%, 4,381G)
evontno: 500G (3.7%, 500G)
pplvee1: 500G (3.7%, 500G)
joewcarson: 500G (3.7%, 11,479G)
theBinklive: 371G (2.7%, 1,485G)
JCBoorgo: 368G (2.7%, 368G)
lowlf: 340G (2.5%, 2,901G)
AllInBot: 337G (2.5%, 337G)
kononeko: 260G (1.9%, 260G)
Lythe_Caraker: 250G (1.8%, 158,402G)
oldmanbody: 224G (1.6%, 224G)
getthemoneyz: 206G (1.5%, 1,670,369G)
peanutvendor: 204G (1.5%, 204G)
datadrivenbot: 200G (1.5%, 64,577G)
Mao420: 150G (1.1%, 1,873G)
Drusiform: 150G (1.1%, 8,264G)
PuzzleSecretary: 120G (0.9%, 120G)
Raixelol: 100G (0.7%, 6,994G)
Bongomon7: 100G (0.7%, 1,733G)
