Final Bets: purple - 4 bets for 2,994G (24.9%, x3.02); brown - 14 bets for 9,049G (75.1%, x0.33)

purple bets:
LivingHitokiri: 1,642G (54.8%, 1,642G)
Anomandaris__: 1,000G (33.4%, 11,310G)
Eyepoor_: 252G (8.4%, 252G)
madman66666: 100G (3.3%, 1,717G)

brown bets:
PotionDweller: 3,000G (33.2%, 18,223G)
ungabunga_bot: 1,000G (11.1%, 402,173G)
BirbBrainsBot: 1,000G (11.1%, 86,398G)
ForagerCats: 1,000G (11.1%, 17,865G)
getthemoneyz: 922G (10.2%, 642,337G)
ShintaroNayaka: 400G (4.4%, 10,884G)
ko2q: 344G (3.8%, 344G)
potgodtopdog: 333G (3.7%, 13,995G)
Miyokari: 300G (3.3%, 460G)
Practice_Pad: 250G (2.8%, 810G)
CosmicTactician: 200G (2.2%, 24,914G)
Arkreaver: 100G (1.1%, 11,673G)
bahumat989: 100G (1.1%, 2,993G)
datadrivenbot: 100G (1.1%, 12,712G)
