Final Bets: red - 8 bets for 2,050G (27.7%, x2.62); brown - 12 bets for 5,362G (72.3%, x0.38)

red bets:
BirbBrainsBot: 451G (22.0%, 87,013G)
arch8000: 436G (21.3%, 436G)
LivingHitokiri: 300G (14.6%, 300G)
Miyokari: 300G (14.6%, 893G)
Eyepoor_: 252G (12.3%, 252G)
potgodtopdog: 111G (5.4%, 14,105G)
bahumat989: 100G (4.9%, 3,137G)
datadrivenbot: 100G (4.9%, 12,545G)

brown bets:
PotionDweller: 2,500G (46.6%, 21,802G)
TheChainNerd: 579G (10.8%, 579G)
ForagerCats: 500G (9.3%, 19,253G)
Anomandaris__: 500G (9.3%, 9,810G)
ungabunga_bot: 233G (4.3%, 402,730G)
Practice_Pad: 233G (4.3%, 728G)
bahamutlagooon: 205G (3.8%, 3,685G)
SaintOmerville: 200G (3.7%, 2,804G)
getthemoneyz: 112G (2.1%, 643,122G)
Arkreaver: 100G (1.9%, 11,706G)
CosmicTactician: 100G (1.9%, 25,014G)
madman66666: 100G (1.9%, 1,517G)
