Final Bets: white - 13 bets for 11,187G (47.8%, x1.09); brown - 9 bets for 12,208G (52.2%, x0.92)

white bets:
mirapoix: 2,848G (25.5%, 5,697G)
Dexsana: 2,000G (17.9%, 4,952G)
HaplessOne: 1,500G (13.4%, 111,291G)
YaBoy125: 827G (7.4%, 827G)
potgodtopdog: 824G (7.4%, 824G)
leakimiko: 753G (6.7%, 753G)
Evewho: 678G (6.1%, 1,357G)
TheMurkGnome: 500G (4.5%, 19,860G)
ungabunga_bot: 469G (4.2%, 177,184G)
mastershango: 300G (2.7%, 1,781G)
JackOnFire1: 288G (2.6%, 288G)
AllInBot: 100G (0.9%, 100G)
Kidikorus: 100G (0.9%, 3,651G)

brown bets:
R_Raynos: 5,000G (41.0%, 20,251G)
Shakarak: 2,663G (21.8%, 5,327G)
WireLord: 2,000G (16.4%, 63,370G)
BirbBrainsBot: 1,000G (8.2%, 35,649G)
getthemoneyz: 618G (5.1%, 523,804G)
aStatue: 500G (4.1%, 500G)
Estan_AD: 250G (2.0%, 5,542G)
Egil72: 100G (0.8%, 1,684G)
Ross_from_Cali: 77G (0.6%, 8,686G)
