Final Bets: green - 21 bets for 14,681G (60.9%, x0.64); yellow - 15 bets for 9,443G (39.1%, x1.55)

green bets:
Winterharte: 2,248G (15.3%, 2,248G)
KupoKel: 2,000G (13.6%, 25,598G)
maakur_: 1,558G (10.6%, 1,558G)
getthemoneyz: 1,000G (6.8%, 396,307G)
BirbBrainsBot: 1,000G (6.8%, 5,871G)
bad1dea: 1,000G (6.8%, 246,700G)
leakimiko: 970G (6.6%, 32,351G)
DavenIII: 770G (5.2%, 30,098G)
fenaen: 686G (4.7%, 686G)
Draconis345: 500G (3.4%, 1,188G)
HaplessOne: 500G (3.4%, 37,227G)
ko2q: 427G (2.9%, 427G)
LordSDB: 400G (2.7%, 3,666G)
loveyouallfriends: 400G (2.7%, 6,407G)
MoonSlayerRS: 348G (2.4%, 348G)
roqqqpsi: 222G (1.5%, 1,484G)
iiLockdownV2: 200G (1.4%, 200G)
Thed63: 152G (1.0%, 152G)
Maeveen: 100G (0.7%, 9,698G)
Treapvort: 100G (0.7%, 15,423G)
Nizaha: 100G (0.7%, 4,721G)

yellow bets:
Lydian_C: 1,980G (21.0%, 1,980G)
Shalloween: 1,300G (13.8%, 59,337G)
Zachara: 1,050G (11.1%, 30,050G)
Aurilliux: 1,000G (10.6%, 2,921G)
Davarian: 752G (8.0%, 752G)
Aldrammech: 600G (6.4%, 600G)
robespyah: 500G (5.3%, 1,410G)
Breakdown777: 500G (5.3%, 8,351G)
volgrathemoose: 500G (5.3%, 1,470G)
catfashions: 490G (5.2%, 490G)
0utlier: 271G (2.9%, 271G)
Jam643d: 200G (2.1%, 1,764G)
rjA0zcOQ96: 100G (1.1%, 2,333G)
gum44: 100G (1.1%, 1,600G)
datadrivenbot: 100G (1.1%, 16,502G)
