Final Bets: blue - 19 bets for 23,115G (75.9%, x0.32); green - 13 bets for 7,333G (24.1%, x3.15)

blue bets:
Lodrak: 3,161G (13.7%, 6,323G)
Treapvort: 3,000G (13.0%, 15,424G)
Breakdown777: 3,000G (13.0%, 7,426G)
Error72: 2,234G (9.7%, 4,469G)
Jeeboheebo: 2,020G (8.7%, 24,083G)
Shalloween: 2,000G (8.7%, 56,887G)
KupoKel: 2,000G (8.7%, 24,384G)
Aurilliux: 1,537G (6.6%, 3,014G)
HaplessOne: 1,500G (6.5%, 37,604G)
catfashions: 504G (2.2%, 504G)
robespyah: 410G (1.8%, 410G)
bad1dea: 400G (1.7%, 247,317G)
Lydian_C: 368G (1.6%, 368G)
0utlier: 280G (1.2%, 280G)
BirbBrainsBot: 279G (1.2%, 6,553G)
fenaen: 200G (0.9%, 2,122G)
Nizaha: 100G (0.4%, 6,736G)
datadrivenbot: 100G (0.4%, 16,476G)
roqqqpsi: 22G (0.1%, 1,688G)

green bets:
maakur_: 1,468G (20.0%, 2,937G)
getthemoneyz: 1,000G (13.6%, 396,900G)
Winterharte: 1,000G (13.6%, 5,077G)
volgrathemoose: 743G (10.1%, 743G)
DavenIII: 700G (9.5%, 31,207G)
Aldrammech: 600G (8.2%, 600G)
MoonSlayerRS: 572G (7.8%, 572G)
LordSDB: 500G (6.8%, 3,173G)
loveyouallfriends: 250G (3.4%, 6,625G)
bpc2163: 200G (2.7%, 3,485G)
ko2q: 100G (1.4%, 776G)
mega_goopta: 100G (1.4%, 1,165G)
gum44: 100G (1.4%, 1,400G)
