Final Bets: purple - 14 bets for 31,402G (84.3%, x0.19); brown - 17 bets for 5,841G (15.7%, x5.38)

purple bets:
ko2q: 8,452G (26.9%, 16,904G)
douchetron: 6,680G (21.3%, 6,680G)
AllInBot: 4,292G (13.7%, 4,292G)
SkylerBunny: 3,000G (9.6%, 289,702G)
vorap: 2,489G (7.9%, 2,489G)
Lemonjohns: 2,000G (6.4%, 7,347G)
Skjodo: 1,699G (5.4%, 1,699G)
Aldrammech: 1,000G (3.2%, 11,318G)
randgridr: 600G (1.9%, 10,225G)
dogsandcatsand: 492G (1.6%, 492G)
DustBirdEX: 396G (1.3%, 3,965G)
gorgewall: 101G (0.3%, 4,585G)
ANFz: 101G (0.3%, 46,949G)
MinBetBot: 100G (0.3%, 17,498G)

brown bets:
Pbjellytimez: 1,125G (19.3%, 1,125G)
BirbBrainsBot: 1,000G (17.1%, 102,020G)
Thyrandaal: 1,000G (17.1%, 174,699G)
KasugaiRoastedPeas: 676G (11.6%, 676G)
fattunaking: 380G (6.5%, 380G)
getthemoneyz: 322G (5.5%, 1,556,261G)
datadrivenbot: 200G (3.4%, 50,927G)
Lumberinjack: 200G (3.4%, 4,111G)
InOzWeTrust: 196G (3.4%, 196G)
Lifevirus: 130G (2.2%, 1,930G)
Vahn_Blade: 112G (1.9%, 112G)
Legionx13: 100G (1.7%, 4,850G)
Amorial: 100G (1.7%, 3,658G)
nhammen: 100G (1.7%, 212,983G)
silverChangeling: 100G (1.7%, 1,590G)
northkoreancleetus: 50G (0.9%, 841G)
Drusiform: 50G (0.9%, 2,911G)
