Final Bets: red - 17 bets for 13,177G (56.2%, x0.78); champion - 19 bets for 10,256G (43.8%, x1.28)

red bets:
MoonSlayerRS: 5,048G (38.3%, 10,096G)
skysa250: 2,000G (15.2%, 29,127G)
kai_shee: 1,001G (7.6%, 137,090G)
Nickyfive: 1,000G (7.6%, 12,664G)
NovaKnight21: 988G (7.5%, 988G)
EvilLego6: 656G (5.0%, 656G)
fenaen: 600G (4.6%, 19,967G)
holyonline: 500G (3.8%, 4,646G)
SweetestEggplant: 400G (3.0%, 1,000G)
ShintaroNayaka: 300G (2.3%, 14,410G)
thedistanthorizon: 123G (0.9%, 123G)
Ross_from_Cali: 108G (0.8%, 108G)
Carledo: 103G (0.8%, 6,723G)
AllInBot: 100G (0.8%, 100G)
LazarusAjin: 100G (0.8%, 843G)
SaintOmerville: 100G (0.8%, 2,425G)
Tacobowl8: 50G (0.4%, 1,768G)

champion bets:
Laserman1000: 1,900G (18.5%, 1,900G)
leakimiko: 1,651G (16.1%, 1,651G)
sinnyil2: 1,200G (11.7%, 57,479G)
superdevon1: 1,015G (9.9%, 1,015G)
BirbBrainsBot: 1,000G (9.8%, 177,083G)
stalskegg: 505G (4.9%, 505G)
nedryerson01: 500G (4.9%, 2,433G)
Treapvort: 392G (3.8%, 392G)
waterwatereverywhere: 352G (3.4%, 352G)
ZephyrTempest: 340G (3.3%, 66,593G)
GingerDynomite: 250G (2.4%, 4,629G)
catfashions: 200G (2.0%, 5,551G)
benticore: 200G (2.0%, 3,303G)
ungabunga_bot: 184G (1.8%, 144,058G)
datadrivenbot: 169G (1.6%, 169G)
HeroponThrawn: 132G (1.3%, 132G)
ApplesauceBoss: 100G (1.0%, 3,216G)
JumbocactuarX27: 100G (1.0%, 3,903G)
daveb_: 66G (0.6%, 2,985G)
