Final Bets: white - 14 bets for 6,771G (63.0%, x0.59); purple - 9 bets for 3,980G (37.0%, x1.70)

white bets:
prince_rogers_nelson_: 1,262G (18.6%, 1,262G)
Mesmaster: 1,145G (16.9%, 1,145G)
solomongrundy85: 1,000G (14.8%, 12,443G)
BirbBrainsBot: 1,000G (14.8%, 158,669G)
Moshyhero: 500G (7.4%, 6,117G)
NIghtdew14: 500G (7.4%, 5,056G)
VolgraTheMoose: 401G (5.9%, 18,517G)
gorgewall: 201G (3.0%, 27,990G)
reinoe: 200G (3.0%, 15,695G)
SeniorBunk: 200G (3.0%, 7,254G)
alecrocks: 100G (1.5%, 100G)
jojo2k: 100G (1.5%, 1,296G)
datadrivenbot: 100G (1.5%, 46,931G)
getthemoneyz: 62G (0.9%, 1,112,744G)

purple bets:
SQUiDSQUARKLIN: 886G (22.3%, 886G)
joewcarson: 744G (18.7%, 744G)
Phytik: 633G (15.9%, 633G)
Magicandy: 500G (12.6%, 26,434G)
dem0nj0ns: 500G (12.6%, 978G)
DuneMeta: 363G (9.1%, 363G)
ar_tactic: 150G (3.8%, 62,843G)
Smokegiant: 104G (2.6%, 104G)
Ring_Wyrm: 100G (2.5%, 3,662G)
