Final Bets: green - 13 bets for 5,779G (34.1%, x1.93); yellow - 21 bets for 11,144G (65.9%, x0.52)

green bets:
Nickyfive: 1,500G (26.0%, 24,812G)
Chuckolator: 1,254G (21.7%, 23,411G)
MagicBottle: 1,000G (17.3%, 2,367G)
E_Ballard: 868G (15.0%, 868G)
Lythe_Caraker: 250G (4.3%, 98,561G)
docmitchphd: 200G (3.5%, 1,829G)
Luizsanq: 128G (2.2%, 128G)
demidusk: 111G (1.9%, 111G)
Quadh0nk: 100G (1.7%, 4,151G)
nifboy: 100G (1.7%, 1,699G)
CosmicTactician: 100G (1.7%, 19,918G)
maakur_: 100G (1.7%, 75,593G)
phoenix6107: 68G (1.2%, 137G)

yellow bets:
sinnyil2: 3,368G (30.2%, 3,368G)
BirbBrainsBot: 1,000G (9.0%, 165,988G)
OneHundredFists: 1,000G (9.0%, 23,197G)
UmaiJam: 1,000G (9.0%, 19,980G)
ShintaroNayaka: 749G (6.7%, 749G)
BoneMiser: 500G (4.5%, 500G)
CaptainGarlock: 500G (4.5%, 12,767G)
EnemyController: 500G (4.5%, 1,264,215G)
getthemoneyz: 344G (3.1%, 1,036,100G)
potgodtopdog: 333G (3.0%, 52,065G)
TheChainNerd: 329G (3.0%, 2,345G)
yeepeekayeahmf: 300G (2.7%, 4,995G)
gorgewall: 201G (1.8%, 8,889G)
peeronid: 200G (1.8%, 13,453G)
sanhiei: 200G (1.8%, 1,101G)
Lydian_C: 120G (1.1%, 217,478G)
Kellios11: 100G (0.9%, 55,187G)
AlenaZarek: 100G (0.9%, 37,205G)
autlzmoo: 100G (0.9%, 100G)
datadrivenbot: 100G (0.9%, 48,831G)
ericzubat: 100G (0.9%, 867G)
