Final Bets: black - 17 bets for 8,465G (25.7%, x2.89); champion - 13 bets for 24,441G (74.3%, x0.35)

black bets:
helpimabug: 1,001G (11.8%, 3,931G)
OneHundredFists: 1,000G (11.8%, 23,999G)
BirbBrainsBot: 1,000G (11.8%, 167,618G)
GatsbysGhost: 720G (8.5%, 720G)
EnemyController: 567G (6.7%, 1,264,420G)
killth3kid: 500G (5.9%, 3,165G)
Snoopiku: 500G (5.9%, 26,547G)
CaptainGarlock: 500G (5.9%, 12,767G)
DudeMonkey77: 500G (5.9%, 20,817G)
sukotsuto: 500G (5.9%, 31,621G)
MagicBottle: 432G (5.1%, 432G)
AlenaZarek: 300G (3.5%, 38,798G)
benticore: 250G (3.0%, 1,761G)
Chuckolator: 215G (2.5%, 27,257G)
Evewho: 200G (2.4%, 4,685G)
getthemoneyz: 180G (2.1%, 1,036,112G)
autlzmoo: 100G (1.2%, 590G)

champion bets:
peeronid: 13,454G (55.0%, 13,454G)
Nickyfive: 3,000G (12.3%, 27,203G)
ShintaroNayaka: 2,430G (9.9%, 2,430G)
Lydian_C: 2,400G (9.8%, 213,536G)
yeepeekayeahmf: 1,500G (6.1%, 4,413G)
Zetchryn: 392G (1.6%, 392G)
demidusk: 325G (1.3%, 325G)
TheChainNerd: 250G (1.0%, 2,766G)
Lythe_Caraker: 250G (1.0%, 99,896G)
ericzubat: 136G (0.6%, 136G)
TheBigSalarius: 104G (0.4%, 104G)
CosmicTactician: 100G (0.4%, 20,913G)
Kellios11: 100G (0.4%, 55,067G)
