Final Bets: yellow - 15 bets for 9,922G (42.1%, x1.38); champion - 18 bets for 13,649G (57.9%, x0.73)

yellow bets:
Willjin: 3,000G (30.2%, 49,437G)
powergems: 1,000G (10.1%, 12,592G)
BirbBrainsBot: 1,000G (10.1%, 65,450G)
Sairentozon7: 1,000G (10.1%, 7,638G)
getthemoneyz: 640G (6.5%, 1,917,645G)
Raixelol: 600G (6.0%, 1,022G)
sinnyil2: 500G (5.0%, 90,846G)
Lyner87: 500G (5.0%, 104,593G)
Cryptopsy70: 364G (3.7%, 968G)
Meta_Five: 332G (3.3%, 332G)
ser_pyrro: 286G (2.9%, 286G)
MonkMagnus: 200G (2.0%, 1,702G)
KasugaiRoastedPeas: 200G (2.0%, 2,297G)
CosmicTactician: 200G (2.0%, 30,249G)
mrfripps: 100G (1.0%, 12,609G)

champion bets:
latebit: 5,817G (42.6%, 11,406G)
Thyrandaal: 2,156G (15.8%, 4,229G)
SephDarkheart: 1,713G (12.6%, 1,713G)
upvla: 851G (6.2%, 851G)
Dasutin23: 484G (3.5%, 7,534G)
seppu777: 333G (2.4%, 5,449G)
Smugzug: 264G (1.9%, 264G)
ChiChiRodriguez: 258G (1.9%, 258G)
roofiepops: 233G (1.7%, 1,229G)
AllInBot: 230G (1.7%, 230G)
BappleTrees: 228G (1.7%, 228G)
escobro: 224G (1.6%, 224G)
datadrivenbot: 200G (1.5%, 59,278G)
aceof86: 200G (1.5%, 5,401G)
acid_flashback: 141G (1.0%, 4,705G)
J_MacC1991: 116G (0.8%, 116G)
gorgewall: 101G (0.7%, 8,906G)
BartTradingCompany: 100G (0.7%, 5,757G)
