Final Bets: white - 13 bets for 7,741G (65.7%, x0.52); purple - 9 bets for 4,045G (34.3%, x1.91)

white bets:
DeathTaxesAndAnime: 1,777G (23.0%, 1,777G)
fenaen: 1,200G (15.5%, 23,283G)
Nizaha: 1,001G (12.9%, 7,327G)
BirbBrainsBot: 1,000G (12.9%, 84,324G)
Cryptopsy70: 628G (8.1%, 21,904G)
Zeroroute: 600G (7.8%, 600G)
NightwolfXVI: 400G (5.2%, 4,590G)
CosmicTactician: 300G (3.9%, 43,447G)
ArashiKurobara: 284G (3.7%, 7,808G)
gorgewall: 201G (2.6%, 28,565G)
datadrivenbot: 200G (2.6%, 57,289G)
Nohurty: 100G (1.3%, 875G)
raenrond: 50G (0.6%, 1,590G)

purple bets:
evdoggity: 1,000G (24.7%, 103,983G)
Nickyfive: 750G (18.5%, 3,229G)
DudeMonkey77: 700G (17.3%, 700G)
getthemoneyz: 496G (12.3%, 1,204,726G)
Shalloween: 300G (7.4%, 64,956G)
TasisSai: 300G (7.4%, 1,445G)
Rytor: 250G (6.2%, 16,206G)
SephDarkheart: 149G (3.7%, 14,985G)
ttLYNCH09: 100G (2.5%, 2,977G)
