Final Bets: red - 15 bets for 8,452G (75.3%, x0.33); green - 8 bets for 2,767G (24.7%, x3.05)

red bets:
Laserman1000: 1,806G (21.4%, 1,806G)
sinnyil2: 1,227G (14.5%, 1,227G)
Evewho: 960G (11.4%, 960G)
soren_of_tyto: 903G (10.7%, 903G)
kaelsun: 828G (9.8%, 828G)
JLinkletter: 500G (5.9%, 2,909G)
GladiatorLupe: 500G (5.9%, 5,749G)
Monopool: 500G (5.9%, 1,263G)
ColetteMSLP: 300G (3.5%, 2,055G)
KyleWonToLiveForever: 280G (3.3%, 280G)
DuraiPapers: 248G (2.9%, 248G)
AllInBot: 100G (1.2%, 100G)
victoriolue: 100G (1.2%, 4,323G)
datadrivenbot: 100G (1.2%, 44,118G)
twelfthrootoftwo: 100G (1.2%, 2,583G)

green bets:
BirbBrainsBot: 1,000G (36.1%, 74,588G)
kaidykat: 1,000G (36.1%, 28,555G)
getthemoneyz: 214G (7.7%, 973,069G)
Magicandy: 153G (5.5%, 153G)
ko2q: 100G (3.6%, 11,382G)
SuzakuReii: 100G (3.6%, 1,685G)
serperemagus: 100G (3.6%, 6,521G)
placidphoenix: 100G (3.6%, 1,684G)
