Final Bets: yellow - 12 bets for 12,800G (61.1%, x0.64); purple - 16 bets for 8,156G (38.9%, x1.57)

yellow bets:
DuraiPapers: 3,000G (23.4%, 19,423G)
Mesmaster: 3,000G (23.4%, 210,769G)
E_Ballard: 1,561G (12.2%, 1,561G)
fenaen: 1,200G (9.4%, 25,062G)
BirbBrainsBot: 822G (6.4%, 149,725G)
cam_ATS: 567G (4.4%, 22,776G)
evontno: 550G (4.3%, 4,776G)
ruleof5: 500G (3.9%, 31,395G)
CosmicTactician: 500G (3.9%, 15,276G)
LDSkinny: 500G (3.9%, 22,902G)
killth3kid: 500G (3.9%, 4,712G)
nifboy: 100G (0.8%, 1,862G)

purple bets:
Zeroroute: 3,717G (45.6%, 3,717G)
Chronolynx42: 1,000G (12.3%, 47,753G)
pplvee1: 633G (7.8%, 633G)
TheBigSalarius: 500G (6.1%, 956G)
roofiepops: 380G (4.7%, 380G)
NotBalrog: 300G (3.7%, 5,064G)
RunicMagus: 300G (3.7%, 43,365G)
ColetteMSLP: 300G (3.7%, 2,180G)
thewondertrickster: 250G (3.1%, 250G)
kliffw: 212G (2.6%, 212G)
AltimaMantoid: 134G (1.6%, 1,034G)
getthemoneyz: 120G (1.5%, 1,024,230G)
Ring_Wyrm: 100G (1.2%, 1,540G)
datadrivenbot: 100G (1.2%, 47,645G)
JumbocactuarX27: 100G (1.2%, 2,288G)
nhammen: 10G (0.1%, 2,838G)
