Final Bets: blue - 18 bets for 9,260G (26.1%, x2.84); champion - 23 bets for 26,272G (73.9%, x0.35)

blue bets:
DeathTaxesAndAnime: 1,468G (15.9%, 2,879G)
mattcorn7: 1,151G (12.4%, 1,151G)
nifboy: 1,058G (11.4%, 2,117G)
BirbBrainsBot: 1,000G (10.8%, 180,040G)
LeoNightFury: 882G (9.5%, 882G)
sSwing: 696G (7.5%, 7,532G)
EnemyController: 600G (6.5%, 558,749G)
WitchHunterIX: 500G (5.4%, 3,915G)
BigGlorious: 400G (4.3%, 4,674G)
DAC169: 349G (3.8%, 349G)
HASTERIOUS: 220G (2.4%, 4,413G)
LordSDB: 220G (2.4%, 220G)
rednecknazgul: 184G (2.0%, 184G)
Coolguye: 150G (1.6%, 1,506G)
Lydian_C: 120G (1.3%, 8,647G)
DivineApocalypse: 100G (1.1%, 100G)
Evewho: 100G (1.1%, 7,435G)
getthemoneyz: 62G (0.7%, 848,112G)

champion bets:
Thyrandaal: 13,694G (52.1%, 13,694G)
Sans_from_Snowdin: 3,605G (13.7%, 3,605G)
NovaKnight21: 1,243G (4.7%, 1,243G)
Breakdown777: 1,002G (3.8%, 22,819G)
flowinprose: 1,000G (3.8%, 97,988G)
roofiepops: 600G (2.3%, 600G)
Laserman1000: 569G (2.2%, 22,669G)
DustBirdEX: 543G (2.1%, 543G)
Dymntd: 500G (1.9%, 36,438G)
moonliquor: 500G (1.9%, 1,760G)
CorpusCav: 408G (1.6%, 408G)
OneHundredFists: 376G (1.4%, 376G)
Spuzzmocker: 372G (1.4%, 372G)
Quadh0nk: 365G (1.4%, 365G)
Flameatron: 300G (1.1%, 1,337G)
abaven_alistair: 294G (1.1%, 294G)
reddwind_: 200G (0.8%, 1,419G)
CosmicTactician: 200G (0.8%, 14,719G)
gorgewall: 101G (0.4%, 5,304G)
Celdia: 100G (0.4%, 3,098G)
Kellios11: 100G (0.4%, 9,272G)
Grandlanzer: 100G (0.4%, 6,222G)
datadrivenbot: 100G (0.4%, 35,638G)
