Final Bets: red - 15 bets for 11,425G (53.7%, x0.86); blue - 13 bets for 9,831G (46.3%, x1.16)

red bets:
RunicMagus: 2,500G (21.9%, 52,267G)
SkylerBunny: 2,000G (17.5%, 526,715G)
Aldrammech: 1,757G (15.4%, 1,757G)
MagicBottle: 1,000G (8.8%, 6,679G)
RampagingRobot: 1,000G (8.8%, 3,170G)
BirbBrainsBot: 1,000G (8.8%, 72,711G)
Laserman1000: 500G (4.4%, 11,100G)
Oreo_Pizza: 500G (4.4%, 1,909G)
Shalloween: 400G (3.5%, 72,493G)
VulcanPanderp: 232G (2.0%, 232G)
neocarbuncle: 136G (1.2%, 136G)
Quadh0nk: 100G (0.9%, 5,151G)
PrancesWithWolves: 100G (0.9%, 100G)
datadrivenbot: 100G (0.9%, 46,380G)
ANFz: 100G (0.9%, 8,035G)

blue bets:
BlackFireUK: 2,000G (20.3%, 22,285G)
Forkmore: 1,860G (18.9%, 1,860G)
cactus_tony_: 1,367G (13.9%, 1,367G)
DeathTaxesAndAnime: 1,093G (11.1%, 2,144G)
helpimabug: 1,001G (10.2%, 4,824G)
galkife: 1,000G (10.2%, 50,441G)
getthemoneyz: 452G (4.6%, 1,076,061G)
DLJuggernaut: 316G (3.2%, 316G)
gorgewall: 301G (3.1%, 26,986G)
username123132: 141G (1.4%, 1,419G)
nifboy: 100G (1.0%, 2,693G)
maakur_: 100G (1.0%, 75,588G)
CosmicTactician: 100G (1.0%, 21,874G)
