Final Bets: green - 9 bets for 9,076G (32.8%, x2.04); yellow - 19 bets for 18,557G (67.2%, x0.49)

green bets:
Aldrammech: 3,269G (36.0%, 3,269G)
lowlf: 1,122G (12.4%, 101,554G)
ShintaroNayaka: 1,064G (11.7%, 1,064G)
evdoggity: 1,000G (11.0%, 92,054G)
nifboy: 1,000G (11.0%, 3,097G)
MagicBottle: 1,000G (11.0%, 7,539G)
username123132: 255G (2.8%, 1,278G)
cactus_tony_: 216G (2.4%, 216G)
PrancesWithWolves: 150G (1.7%, 200G)

yellow bets:
OneHundredFists: 6,776G (36.5%, 13,287G)
DeathTaxesAndAnime: 1,551G (8.4%, 1,551G)
roofiepops: 1,217G (6.6%, 1,217G)
BirbBrainsBot: 1,000G (5.4%, 73,571G)
VulcanPanderp: 932G (5.0%, 932G)
Zagorsek: 824G (4.4%, 824G)
DLJuggernaut: 816G (4.4%, 816G)
RampagingRobot: 750G (4.0%, 4,530G)
Forkmore: 704G (3.8%, 704G)
E_Ballard: 676G (3.6%, 676G)
Laserman1000: 630G (3.4%, 12,030G)
getthemoneyz: 630G (3.4%, 1,075,609G)
CosmicTactician: 500G (2.7%, 21,774G)
Oreo_Pizza: 500G (2.7%, 2,339G)
neocarbuncle: 400G (2.2%, 753G)
gorgewall: 201G (1.1%, 26,685G)
RunicMagus: 200G (1.1%, 55,422G)
nekojin: 150G (0.8%, 2,504G)
datadrivenbot: 100G (0.5%, 46,466G)
