Final Bets: yellow - 16 bets for 16,772G (57.8%, x0.73); champion - 19 bets for 12,263G (42.2%, x1.37)

yellow bets:
DeathTaxesAndAnime: 4,536G (27.0%, 8,895G)
VulcanPanderp: 3,227G (19.2%, 3,227G)
SkylerBunny: 2,500G (14.9%, 524,855G)
Zagorsek: 1,138G (6.8%, 1,138G)
Rilgon: 1,101G (6.6%, 2,160G)
MagicBottle: 1,000G (6.0%, 5,506G)
Laserman1000: 684G (4.1%, 13,884G)
Boultson1337: 612G (3.6%, 612G)
neocarbuncle: 454G (2.7%, 454G)
DLJuggernaut: 320G (1.9%, 320G)
ZombiFrancis: 300G (1.8%, 6,857G)
username123132: 300G (1.8%, 590G)
Lemonjohns: 200G (1.2%, 349G)
KasugaiRoastedPeas: 200G (1.2%, 10,043G)
datadrivenbot: 100G (0.6%, 46,533G)
itsadud: 100G (0.6%, 17,528G)

champion bets:
fenaen: 3,000G (24.5%, 25,521G)
RampagingRobot: 1,500G (12.2%, 4,576G)
Baron_von_Scrub: 1,012G (8.3%, 1,012G)
E_Ballard: 1,007G (8.2%, 1,007G)
evdoggity: 1,000G (8.2%, 92,287G)
BirbBrainsBot: 1,000G (8.2%, 71,011G)
dogsandcatsand: 1,000G (8.2%, 20,334G)
HaateXIII: 500G (4.1%, 3,969G)
Shalloween: 400G (3.3%, 72,337G)
joewcarson: 300G (2.4%, 8,202G)
ColetteMSLP: 300G (2.4%, 1,862G)
sparker9: 264G (2.2%, 264G)
Forkmore: 208G (1.7%, 208G)
RunicMagus: 200G (1.6%, 52,505G)
PrancesWithWolves: 200G (1.6%, 200G)
DrPoopersMD: 104G (0.8%, 104G)
CosmicTactician: 100G (0.8%, 22,461G)
maakur_: 100G (0.8%, 75,584G)
getthemoneyz: 68G (0.6%, 1,075,693G)
