Final Bets: white - 26 bets for 20,060G (68.1%, x0.47); black - 10 bets for 9,391G (31.9%, x2.14)

white bets:
LDSkinny: 3,748G (18.7%, 7,497G)
latebit: 3,556G (17.7%, 59,283G)
nhammen: 2,000G (10.0%, 40,584G)
skillomono: 1,719G (8.6%, 1,719G)
CorpusCav: 1,200G (6.0%, 29,127G)
gorgewall: 1,099G (5.5%, 1,099G)
BirbBrainsBot: 1,000G (5.0%, 48,531G)
dogsandcatsand: 756G (3.8%, 5,458G)
Nizaha: 612G (3.1%, 10,835G)
baumgrattler: 550G (2.7%, 2,031G)
thunderducker: 500G (2.5%, 1,534G)
ShintaroNayaka: 456G (2.3%, 456G)
SephDarkheart: 432G (2.2%, 1,587G)
Lolthsmeat: 341G (1.7%, 341G)
TheBrett: 302G (1.5%, 302G)
CapnChaos12: 300G (1.5%, 7,065G)
ayeCoop: 300G (1.5%, 1,049G)
retrozu: 200G (1.0%, 200G)
datadrivenbot: 200G (1.0%, 79,936G)
ChiChiRodriguez: 200G (1.0%, 1,212G)
2b_yorha_b: 200G (1.0%, 686G)
Riley331: 128G (0.6%, 128G)
xGlaive: 104G (0.5%, 104G)
Girfred: 104G (0.5%, 104G)
Smugzug: 48G (0.2%, 971G)
moonliquor: 5G (0.0%, 74,175G)

black bets:
E_Ballard: 2,440G (26.0%, 2,440G)
skipsandwiches: 2,001G (21.3%, 154,046G)
Rytor: 2,000G (21.3%, 43,667G)
DavenIII: 943G (10.0%, 1,886G)
nifboy: 860G (9.2%, 860G)
holdenmagronik: 472G (5.0%, 1,536G)
AllInBot: 271G (2.9%, 271G)
getthemoneyz: 200G (2.1%, 2,093,328G)
TakzSeason: 104G (1.1%, 104G)
AbandonedHall: 100G (1.1%, 1,851G)
