Final Bets: red - 12 bets for 5,195G (10.6%, x8.40); yellow - 18 bets for 43,620G (89.4%, x0.12)

red bets:
BirbBrainsBot: 1,000G (19.2%, 49,488G)
gorgewall: 812G (15.6%, 812G)
dogsandcatsand: 756G (14.6%, 6,182G)
Shalloween: 600G (11.5%, 6,633G)
moonliquor: 500G (9.6%, 74,422G)
hotpocketsofficial: 336G (6.5%, 336G)
Riley331: 280G (5.4%, 280G)
TheBrett: 243G (4.7%, 243G)
AllInBot: 200G (3.8%, 200G)
skillomono: 200G (3.8%, 2,524G)
getthemoneyz: 164G (3.2%, 2,092,944G)
xGlaive: 104G (2.0%, 104G)

yellow bets:
Rytor: 22,057G (50.6%, 44,114G)
Thyrandaal: 5,000G (11.5%, 217,266G)
LDSkinny: 4,626G (10.6%, 9,252G)
latebit: 4,370G (10.0%, 62,439G)
skipsandwiches: 2,001G (4.6%, 153,024G)
CorpusCav: 1,200G (2.8%, 29,189G)
holdenmagronik: 1,064G (2.4%, 1,064G)
Chihuahua_Charity: 800G (1.8%, 800G)
Nizaha: 612G (1.4%, 11,422G)
nhammen: 500G (1.1%, 42,013G)
bigbongsmoker: 380G (0.9%, 35,880G)
retrozu: 200G (0.5%, 200G)
datadrivenbot: 200G (0.5%, 79,830G)
Smugzug: 160G (0.4%, 944G)
Lord_Gwarth: 150G (0.3%, 2,113G)
ko2q: 100G (0.2%, 1,773G)
maakur_: 100G (0.2%, 9,298G)
AbandonedHall: 100G (0.2%, 1,651G)
