Final Bets: yellow - 6 bets for 1,848G (22.2%, x3.50); champion - 7 bets for 6,466G (77.8%, x0.29)

yellow bets:
Lemonjohns: 731G (39.6%, 731G)
DesertWooder: 500G (27.1%, 4,794G)
gorgewall: 301G (16.3%, 3,619G)
AllInBot: 200G (10.8%, 200G)
Brainstew29: 100G (5.4%, 37,543G)
getthemoneyz: 16G (0.9%, 1,514,333G)

champion bets:
prince_rogers_nelson_: 2,974G (46.0%, 2,974G)
DeathTaxesAndAnime: 1,168G (18.1%, 2,292G)
BirbBrainsBot: 1,000G (15.5%, 39,278G)
douchetron: 568G (8.8%, 568G)
ko2q: 456G (7.1%, 456G)
CT_5_Holy: 200G (3.1%, 1,794G)
nifboy: 100G (1.5%, 5,331G)
