Final Bets: white - 16 bets for 13,603G (59.5%, x0.68); black - 18 bets for 9,265G (40.5%, x1.47)

white bets:
kingchadking: 8,249G (60.6%, 8,249G)
Laserman1000: 800G (5.9%, 2,800G)
kai_shee: 750G (5.5%, 40,020G)
volgrathemoose: 728G (5.4%, 728G)
jethrothrul: 508G (3.7%, 508G)
DeathTaxesAndAnime: 492G (3.6%, 492G)
superdevon1: 470G (3.5%, 1,882G)
waterwatereverywhere: 400G (2.9%, 4,399G)
RezzaDV: 303G (2.2%, 303G)
kami_39: 203G (1.5%, 203G)
Cataphract116: 200G (1.5%, 1,171G)
dhekix: 100G (0.7%, 12,684G)
herrshaun: 100G (0.7%, 4,485G)
maakur_: 100G (0.7%, 1,833G)
datadrivenbot: 100G (0.7%, 15,603G)
InOzWeTrust: 100G (0.7%, 2,038G)

black bets:
PatSouI: 2,389G (25.8%, 2,389G)
BirbBrainsBot: 1,000G (10.8%, 116,053G)
inzo_bettingbot: 1,000G (10.8%, 54,853G)
bad1dea: 1,000G (10.8%, 328,106G)
leakimiko: 823G (8.9%, 27,454G)
ko2q: 518G (5.6%, 518G)
rechaun: 511G (5.5%, 511G)
MoonSlayerRS: 368G (4.0%, 368G)
WireLord: 360G (3.9%, 360G)
roqqqpsi: 352G (3.8%, 352G)
RonaldoTheGypsy: 224G (2.4%, 224G)
ugoplatamia: 200G (2.2%, 13,852G)
powergems: 200G (2.2%, 8,541G)
Zeyl: 112G (1.2%, 112G)
Aneyus: 100G (1.1%, 11,690G)
RongRongArts: 100G (1.1%, 15,903G)
getthemoneyz: 4G (0.0%, 402,711G)
jhazor: 4G (0.0%, 2,439G)
