Final Bets: green - 16 bets for 5,601G (44.7%, x1.24); yellow - 13 bets for 6,929G (55.3%, x0.81)

green bets:
BirbBrainsBot: 1,000G (17.9%, 120,154G)
argentbast: 700G (12.5%, 10,543G)
Powerpinch: 500G (8.9%, 4,008G)
EnemyController: 500G (8.9%, 461,488G)
killth3kid: 500G (8.9%, 41,528G)
LeoNightFury: 500G (8.9%, 10,071G)
HASTERIOUS: 377G (6.7%, 7,554G)
getthemoneyz: 372G (6.6%, 784,019G)
Shalloween: 300G (5.4%, 2,280G)
MiseryKoss: 200G (3.6%, 2,727G)
electric_algus: 200G (3.6%, 3,749G)
cogniv0r3: 102G (1.8%, 2,042G)
Nohurty: 100G (1.8%, 1,357G)
Evewho: 100G (1.8%, 6,653G)
Ring_Wyrm: 100G (1.8%, 1,139G)
Qaz12301: 50G (0.9%, 1,508G)

yellow bets:
sinnyil2: 1,991G (28.7%, 3,983G)
SkylerBunny: 1,500G (21.6%, 83,772G)
CorpusCav: 1,008G (14.5%, 51,766G)
gorgewall: 556G (8.0%, 556G)
gr8keeper: 500G (7.2%, 3,646G)
byrdturbo: 420G (6.1%, 20,541G)
KyleWonToLiveForever: 304G (4.4%, 304G)
Flameatron: 200G (2.9%, 304G)
ApplesauceBoss: 100G (1.4%, 3,141G)
computerghoul: 100G (1.4%, 2,364G)
TheApprentice251: 100G (1.4%, 724G)
datadrivenbot: 100G (1.4%, 29,932G)
cougboi: 50G (0.7%, 12,121G)
