Final Bets: purple - 14 bets for 5,560G (41.0%, x1.44); brown - 9 bets for 8,009G (59.0%, x0.69)

purple bets:
Powerpinch: 1,279G (23.0%, 2,508G)
Shalloween: 990G (17.8%, 1,980G)
getthemoneyz: 960G (17.3%, 783,822G)
LeoNightFury: 500G (9.0%, 9,571G)
HASTERIOUS: 358G (6.4%, 7,177G)
byrdturbo: 333G (6.0%, 20,881G)
electric_algus: 290G (5.2%, 3,349G)
DAC169: 200G (3.6%, 1,210G)
Ring_Wyrm: 150G (2.7%, 1,122G)
Flameatron: 100G (1.8%, 466G)
datadrivenbot: 100G (1.8%, 29,913G)
Qaz12301: 100G (1.8%, 1,458G)
Evewho: 100G (1.8%, 6,553G)
computerghoul: 100G (1.8%, 2,445G)

brown bets:
Deathmaker06: 2,538G (31.7%, 2,538G)
CorpusCav: 1,007G (12.6%, 52,481G)
reinoe: 1,000G (12.5%, 52,800G)
BirbBrainsBot: 1,000G (12.5%, 119,981G)
argentbast: 1,000G (12.5%, 8,843G)
SkylerBunny: 800G (10.0%, 85,647G)
gr8keeper: 300G (3.7%, 3,298G)
mrfripps: 264G (3.3%, 264G)
TheApprentice251: 100G (1.2%, 805G)
