Final Bets: red - 14 bets for 6,410G (17.5%, x4.73); yellow - 11 bets for 30,321G (82.5%, x0.21)

red bets:
BirbBrainsBot: 1,000G (15.6%, 118,981G)
argentbast: 1,000G (15.6%, 7,843G)
SkylerBunny: 1,000G (15.6%, 84,847G)
Valentine009: 800G (12.5%, 5,516G)
letdowncity: 500G (7.8%, 13,769G)
LeoNightFury: 500G (7.8%, 10,291G)
getthemoneyz: 318G (5.0%, 785,205G)
Shalloween: 300G (4.7%, 3,406G)
gr8keeper: 300G (4.7%, 2,998G)
RaIshtar: 284G (4.4%, 284G)
mrfripps: 108G (1.7%, 108G)
ApplesauceBoss: 100G (1.6%, 3,305G)
Evewho: 100G (1.6%, 6,697G)
Qaz12301: 100G (1.6%, 1,602G)

yellow bets:
reinoe: 26,418G (87.1%, 51,800G)
CorpusCav: 1,014G (3.3%, 51,474G)
Rislyeu: 1,000G (3.3%, 5,091G)
gorgewall: 556G (1.8%, 556G)
byrdturbo: 333G (1.1%, 21,361G)
CT_Remix: 300G (1.0%, 1,158G)
electric_algus: 300G (1.0%, 3,767G)
TheApprentice251: 100G (0.3%, 705G)
Flameatron: 100G (0.3%, 610G)
datadrivenbot: 100G (0.3%, 30,057G)
computerghoul: 100G (0.3%, 2,589G)
