Final Bets: green - 14 bets for 9,675G (18.2%, x4.49); white - 18 bets for 43,454G (81.8%, x0.22)

green bets:
pplvee1: 1,588G (16.4%, 1,588G)
toka222: 1,500G (15.5%, 100,726G)
Lydian_C: 1,200G (12.4%, 108,683G)
nifboy: 1,000G (10.3%, 15,470G)
BirbBrainsBot: 1,000G (10.3%, 127,858G)
NicoSavoy: 1,000G (10.3%, 255,556G)
Zeroroute: 600G (6.2%, 600G)
killth3kid: 464G (4.8%, 3,962G)
getthemoneyz: 384G (4.0%, 1,329,075G)
Thyrandaal: 332G (3.4%, 332G)
roqqqpsi: 285G (2.9%, 300G)
lyonslegacy: 200G (2.1%, 1,956G)
kahjeethaswares: 120G (1.2%, 120G)
daveb_: 2G (0.0%, 1,412G)

white bets:
HaateXIII: 26,717G (61.5%, 53,435G)
helpimabug: 5,153G (11.9%, 10,306G)
sith_will_smith: 2,000G (4.6%, 9,073G)
AllInBot: 1,531G (3.5%, 1,531G)
roofiepops: 1,365G (3.1%, 1,365G)
pLifer: 1,122G (2.6%, 1,122G)
ColetteMSLP: 902G (2.1%, 902G)
Rytor: 700G (1.6%, 700G)
CT_5_Holy: 698G (1.6%, 698G)
Vultuous: 649G (1.5%, 649G)
Laserman1000: 643G (1.5%, 6,843G)
Othatmattkid: 500G (1.2%, 3,140G)
fenaen: 424G (1.0%, 424G)
SQUiDSQUARKLIN: 300G (0.7%, 20,911G)
holdenmagronik: 250G (0.6%, 386G)
POGpope: 200G (0.5%, 200G)
datadrivenbot: 200G (0.5%, 36,105G)
Practice_Pad: 100G (0.2%, 3,084G)
