Final Bets: white - 11 bets for 36,142G (57.3%, x0.75); champion - 28 bets for 26,978G (42.7%, x1.34)

white bets:
HaateXIII: 29,692G (82.2%, 59,384G)
AllInBot: 1,872G (5.2%, 1,872G)
helpimabug: 1,001G (2.8%, 11,453G)
athros13: 1,000G (2.8%, 10,191G)
JumbocactuarX27: 1,000G (2.8%, 21,214G)
killth3kid: 464G (1.3%, 3,498G)
ColetteMSLP: 300G (0.8%, 1,103G)
SQUiDSQUARKLIN: 300G (0.8%, 20,978G)
sith_will_smith: 200G (0.6%, 9,518G)
roqqqpsi: 193G (0.5%, 204G)
ohhinm: 120G (0.3%, 4,116G)

champion bets:
toka222: 10,000G (37.1%, 99,226G)
coralreeferz: 3,500G (13.0%, 38,143G)
NicoSavoy: 3,000G (11.1%, 254,556G)
Lydian_C: 1,232G (4.6%, 107,483G)
Lord_Burrah: 1,000G (3.7%, 82,000G)
BirbBrainsBot: 1,000G (3.7%, 126,858G)
ayeayex3: 912G (3.4%, 912G)
DavenIII: 750G (2.8%, 2,337G)
Laserman1000: 686G (2.5%, 6,986G)
Zeroroute: 600G (2.2%, 600G)
upvla: 600G (2.2%, 600G)
Practice_Pad: 500G (1.9%, 3,106G)
holdenmagronik: 442G (1.6%, 442G)
Chuckolator: 414G (1.5%, 11,400G)
DeathTaxesAndAnime: 350G (1.3%, 2,148G)
Thyrandaal: 332G (1.2%, 332G)
skipsandwiches: 256G (0.9%, 256G)
Evewho: 200G (0.7%, 2,414G)
datadrivenbot: 200G (0.7%, 36,150G)
Othatmattkid: 200G (0.7%, 3,251G)
Brainstew29: 150G (0.6%, 357G)
getthemoneyz: 132G (0.5%, 1,328,691G)
kahjeethaswares: 120G (0.4%, 120G)
Miku_Shikhu: 100G (0.4%, 16,053G)
Vultuous: 100G (0.4%, 793G)
Legionx13: 100G (0.4%, 5,249G)
silverelmdor: 100G (0.4%, 1,847G)
daveb_: 2G (0.0%, 1,410G)
