Final Bets: green - 19 bets for 8,335G (42.1%, x1.37); yellow - 15 bets for 11,443G (57.9%, x0.73)

green bets:
Ragnarok784: 2,000G (24.0%, 76,932G)
UmaiJam: 1,783G (21.4%, 17,835G)
z32o: 500G (6.0%, 4,674G)
fenixcrest: 492G (5.9%, 492G)
Maeveen: 484G (5.8%, 484G)
ungabunga_bot: 400G (4.8%, 18,815G)
ShintaroNayaka: 400G (4.8%, 4,498G)
Breakdown777: 400G (4.8%, 5,754G)
kingchadking: 396G (4.8%, 396G)
Draconis345: 324G (3.9%, 324G)
Baron_von_Scrub: 314G (3.8%, 15,353G)
Cataphract116: 200G (2.4%, 2,949G)
kingdelas2: 107G (1.3%, 2,107G)
AllInBot: 100G (1.2%, 100G)
Slowbrofist: 100G (1.2%, 1,649G)
Alc_Trinity: 100G (1.2%, 38,512G)
SeedSC: 100G (1.2%, 138,020G)
SkeletorRS: 81G (1.0%, 1,632G)
getthemoneyz: 54G (0.6%, 434,377G)

yellow bets:
KupoKel: 5,761G (50.3%, 5,761G)
Zeroroute: 1,518G (13.3%, 3,496G)
BirbBrainsBot: 1,000G (8.7%, 206,497G)
bad1dea: 1,000G (8.7%, 21,955G)
Lodrak: 501G (4.4%, 26,217G)
Treapvort: 332G (2.9%, 332G)
DrAntiSocial: 223G (1.9%, 1,588G)
roqqqpsi: 222G (1.9%, 2,572G)
ugoplatamia: 200G (1.7%, 22,490G)
Copilot11: 142G (1.2%, 142G)
lavian94: 128G (1.1%, 128G)
yure1x: 116G (1.0%, 116G)
Tithonus: 100G (0.9%, 7,781G)
Tougou: 100G (0.9%, 3,301G)
datadrivenbot: 100G (0.9%, 17,388G)
