Final Bets: purple - 25 bets for 27,904G (91.6%, x0.09); brown - 8 bets for 2,543G (8.4%, x10.97)

purple bets:
Ragnarok784: 10,000G (35.8%, 78,678G)
ShintaroNayaka: 4,747G (17.0%, 4,747G)
Zeroroute: 2,478G (8.9%, 5,508G)
fenixcrest: 1,167G (4.2%, 1,167G)
powergems: 1,000G (3.6%, 6,035G)
BirbBrainsBot: 1,000G (3.6%, 204,497G)
bad1dea: 1,000G (3.6%, 19,955G)
Lord_Burrah: 1,000G (3.6%, 95,537G)
ungabunga_bot: 950G (3.4%, 19,364G)
Maeveen: 574G (2.1%, 574G)
lastly: 539G (1.9%, 539G)
ColetteMSLP: 400G (1.4%, 8,084G)
Cataphract116: 400G (1.4%, 3,224G)
fenaen: 400G (1.4%, 4,490G)
kingchadking: 396G (1.4%, 396G)
lavian94: 356G (1.3%, 356G)
Treapvort: 332G (1.2%, 332G)
Copilot11: 323G (1.2%, 323G)
loveyouallfriends: 300G (1.1%, 17,441G)
DrAntiSocial: 120G (0.4%, 1,767G)
Tithonus: 100G (0.4%, 7,581G)
Alc_Trinity: 100G (0.4%, 38,649G)
datadrivenbot: 100G (0.4%, 17,188G)
Tougou: 100G (0.4%, 3,379G)
roqqqpsi: 22G (0.1%, 2,389G)

brown bets:
AllInBot: 660G (26.0%, 660G)
KupoKel: 600G (23.6%, 600G)
getthemoneyz: 362G (14.2%, 434,101G)
Baron_von_Scrub: 314G (12.3%, 15,784G)
kingdelas2: 207G (8.1%, 2,707G)
ugoplatamia: 200G (7.9%, 22,651G)
Slowbrofist: 100G (3.9%, 1,964G)
SeedSC: 100G (3.9%, 138,057G)
