Final Bets: white - 12 bets for 7,135G (37.5%, x1.67); purple - 15 bets for 11,895G (62.5%, x0.60)

white bets:
ThreeMileIsland: 1,768G (24.8%, 1,768G)
AllInBot: 1,172G (16.4%, 1,172G)
VolgraTheMoose: 1,001G (14.0%, 5,866G)
Zeroroute: 600G (8.4%, 600G)
athros13: 500G (7.0%, 11,019G)
ValtonZenola: 488G (6.8%, 488G)
killth3kid: 464G (6.5%, 563G)
furrytomahawkk: 414G (5.8%, 414G)
Othatmattkid: 285G (4.0%, 1,769G)
datadrivenbot: 200G (2.8%, 35,713G)
roqqqpsi: 193G (2.7%, 204G)
Vultuous: 50G (0.7%, 1,114G)

purple bets:
pplvee1: 1,863G (15.7%, 1,863G)
Evewho: 1,664G (14.0%, 1,664G)
ColetteMSLP: 1,574G (13.2%, 1,574G)
fenaen: 1,183G (9.9%, 1,183G)
BirbBrainsBot: 1,000G (8.4%, 126,621G)
NicoSavoy: 1,000G (8.4%, 255,483G)
Thyrandaal: 700G (5.9%, 2,146G)
TsuruXelus: 620G (5.2%, 620G)
ohhinm: 456G (3.8%, 2,300G)
letdowncity: 432G (3.6%, 432G)
Treafa: 424G (3.6%, 424G)
getthemoneyz: 378G (3.2%, 1,329,378G)
shineeyo: 300G (2.5%, 12,634G)
gorgewall: 201G (1.7%, 5,599G)
nhammen: 100G (0.8%, 9,335G)
