Final Bets: green - 16 bets for 7,205G (24.4%, x3.10); yellow - 22 bets for 22,310G (75.6%, x0.32)

green bets:
ungabunga_bot: 1,000G (13.9%, 527,433G)
BirbBrainsBot: 1,000G (13.9%, 142,516G)
Mesmaster: 1,000G (13.9%, 84,473G)
rjA0zcOQ96: 825G (11.5%, 825G)
Rislyeu: 756G (10.5%, 756G)
skillomono: 500G (6.9%, 3,452G)
getthemoneyz: 396G (5.5%, 678,643G)
Tsuike: 328G (4.6%, 328G)
AUrato: 300G (4.2%, 2,784G)
twelfthrootoftwo: 300G (4.2%, 17,250G)
GladiatorLupe: 200G (2.8%, 8,978G)
moocaotao: 200G (2.8%, 6,259G)
Lolprinze: 100G (1.4%, 2,828G)
StealthModeLocke: 100G (1.4%, 42,670G)
itsZaes: 100G (1.4%, 253G)
Kezia444: 100G (1.4%, 100G)

yellow bets:
HaplessOne: 8,220G (36.8%, 8,220G)
PookaPrime: 2,607G (11.7%, 2,607G)
Lord_Burrah: 1,376G (6.2%, 96,376G)
DeathTaxesAndAnime: 1,060G (4.8%, 1,060G)
Strifu: 1,043G (4.7%, 2,046G)
Draconis345: 1,000G (4.5%, 71,905G)
tronfonne: 1,000G (4.5%, 3,091G)
Drusic: 846G (3.8%, 846G)
0v3rr8d: 672G (3.0%, 672G)
ApplesauceBoss: 653G (2.9%, 653G)
CorpusCav: 625G (2.8%, 625G)
killth3kid: 600G (2.7%, 5,949G)
ChrisWado: 558G (2.5%, 558G)
HaateXIII: 500G (2.2%, 2,654G)
HaychDub: 350G (1.6%, 6,325G)
Breakdown777: 300G (1.3%, 2,874G)
AmaninAmide: 300G (1.3%, 3,462G)
benticore: 200G (0.9%, 3,838G)
Tougou: 100G (0.4%, 4,101G)
Evewho: 100G (0.4%, 2,440G)
datadrivenbot: 100G (0.4%, 18,541G)
CosmicTactician: 100G (0.4%, 6,878G)
