Final Bets: purple - 14 bets for 5,542G (23.1%, x3.33); brown - 27 bets for 18,473G (76.9%, x0.30)

purple bets:
LDSkinny: 1,000G (18.0%, 48,347G)
ungabunga_bot: 1,000G (18.0%, 530,417G)
BirbBrainsBot: 725G (13.1%, 146,511G)
Estan_AD: 567G (10.2%, 1,135G)
TheKillerNacho: 449G (8.1%, 449G)
Drusic: 441G (8.0%, 441G)
Kezia444: 410G (7.4%, 410G)
TheFern33: 300G (5.4%, 2,421G)
itsZaes: 150G (2.7%, 653G)
Tougou: 100G (1.8%, 3,901G)
rjA0zcOQ96: 100G (1.8%, 2,280G)
Lolprinze: 100G (1.8%, 3,038G)
datadrivenbot: 100G (1.8%, 18,341G)
CosmicTactician: 100G (1.8%, 6,678G)

brown bets:
Rislyeu: 3,097G (16.8%, 3,097G)
Mesmaster: 3,000G (16.2%, 90,266G)
Evewho: 1,430G (7.7%, 1,430G)
Lord_Burrah: 1,400G (7.6%, 95,000G)
DeathTaxesAndAnime: 1,018G (5.5%, 1,018G)
tronfonne: 1,000G (5.4%, 1,595G)
Draconis345: 1,000G (5.4%, 68,905G)
AmaninAmide: 900G (4.9%, 2,862G)
HaychDub: 750G (4.1%, 5,975G)
killth3kid: 600G (3.2%, 5,888G)
HaplessOne: 544G (2.9%, 544G)
luminarii: 450G (2.4%, 15,878G)
CorpusCav: 396G (2.1%, 396G)
Lanshaft: 384G (2.1%, 1,245G)
ApplesauceBoss: 380G (2.1%, 380G)
twelfthrootoftwo: 300G (1.6%, 18,449G)
nifboy: 250G (1.4%, 2,817G)
Strifu: 248G (1.3%, 248G)
TheFALLofLindsay: 240G (1.3%, 240G)
ChrisWado: 208G (1.1%, 208G)
GladiatorLupe: 200G (1.1%, 9,397G)
Meta_Five: 200G (1.1%, 10,716G)
MADTheta: 150G (0.8%, 535G)
StealthModeLocke: 100G (0.5%, 42,880G)
GregLarsen: 100G (0.5%, 400G)
getthemoneyz: 96G (0.5%, 680,542G)
Tsuike: 32G (0.2%, 1,344G)
