Final Bets: red - 16 bets for 5,514G (31.8%, x2.14); brown - 19 bets for 11,804G (68.2%, x0.47)

red bets:
NovaKnight21: 1,000G (18.1%, 10,619G)
ungabunga_bot: 932G (16.9%, 527,417G)
DeathTaxesAndAnime: 886G (16.1%, 886G)
Estan_AD: 572G (10.4%, 572G)
itsZaes: 392G (7.1%, 392G)
twelfthrootoftwo: 300G (5.4%, 18,342G)
Drusic: 232G (4.2%, 232G)
benticore: 200G (3.6%, 3,218G)
AmaninAmide: 200G (3.6%, 3,816G)
AUrato: 200G (3.6%, 3,749G)
GregLarsen: 150G (2.7%, 382G)
Tougou: 100G (1.8%, 3,902G)
Kezia444: 100G (1.8%, 100G)
datadrivenbot: 100G (1.8%, 18,342G)
rjA0zcOQ96: 100G (1.8%, 2,147G)
nekross92: 50G (0.9%, 100G)

brown bets:
Mesmaster: 3,000G (25.4%, 91,198G)
tronfonne: 2,998G (25.4%, 2,998G)
Rislyeu: 1,000G (8.5%, 6,303G)
BirbBrainsBot: 1,000G (8.5%, 143,786G)
Dymntd: 652G (5.5%, 1,304G)
mirapoix: 512G (4.3%, 512G)
argentbast: 500G (4.2%, 5,757G)
luminarii: 400G (3.4%, 16,453G)
HaychDub: 250G (2.1%, 7,301G)
CorpusCav: 222G (1.9%, 1,157G)
lifeguard_dan: 200G (1.7%, 737G)
Evewho: 200G (1.7%, 1,793G)
moocaotao: 200G (1.7%, 5,817G)
GladiatorLupe: 200G (1.7%, 9,326G)
Strifu: 126G (1.1%, 248G)
E_Ballard: 100G (0.8%, 3,552G)
Avin_Chaos: 100G (0.8%, 14,921G)
WunUP: 100G (0.8%, 985G)
getthemoneyz: 44G (0.4%, 680,305G)
