Final Bets: green - 13 bets for 13,977G (61.8%, x0.62); yellow - 21 bets for 8,641G (38.2%, x1.62)

green bets:
toka222: 4,400G (31.5%, 51,081G)
Rytor: 2,740G (19.6%, 2,740G)
JumbocactuarX27: 1,195G (8.5%, 2,390G)
leakimiko: 1,111G (7.9%, 43,962G)
HaplessOne: 1,111G (7.9%, 9,915G)
TheChainNerd: 1,000G (7.2%, 8,413G)
Laserman1000: 892G (6.4%, 4,192G)
DeathTaxesAndAnime: 552G (3.9%, 552G)
ShintaroNayaka: 328G (2.3%, 328G)
marin1987: 248G (1.8%, 248G)
holyonline: 200G (1.4%, 12,242G)
Dellusionsx: 100G (0.7%, 7,193G)
datadrivenbot: 100G (0.7%, 18,580G)

yellow bets:
ungabunga_bot: 1,000G (11.6%, 508,500G)
BirbBrainsBot: 1,000G (11.6%, 167,368G)
RunicMagus: 600G (6.9%, 33,113G)
SQUiDSQUARKLIN: 600G (6.9%, 2,385G)
skillomono: 539G (6.2%, 539G)
bruubarg: 500G (5.8%, 3,500G)
EnemyController: 500G (5.8%, 276,037G)
gooseyourself: 500G (5.8%, 1,574G)
HaateXIII: 500G (5.8%, 2,556G)
Anomandaris__: 500G (5.8%, 7,066G)
volgrathemoose: 432G (5.0%, 2,032G)
nifboy: 404G (4.7%, 404G)
gabbagooluigi: 328G (3.8%, 328G)
joewcarson: 300G (3.5%, 2,800G)
benticore: 300G (3.5%, 6,233G)
nekojin: 150G (1.7%, 5,740G)
maakur_: 100G (1.2%, 2,500G)
StealthModeLocke: 100G (1.2%, 40,802G)
Corky_McCorkscrew: 100G (1.2%, 836G)
E_Ballard: 100G (1.2%, 2,475G)
getthemoneyz: 88G (1.0%, 684,063G)
