Final Bets: green - 14 bets for 5,395G (24.4%, x3.10); yellow - 13 bets for 16,745G (75.6%, x0.32)

green bets:
ungabunga_bot: 1,000G (18.5%, 149,914G)
BirbBrainsBot: 1,000G (18.5%, 192,921G)
mirapoix: 955G (17.7%, 955G)
R_Raynos: 426G (7.9%, 426G)
b_bot: 420G (7.8%, 2,689G)
getthemoneyz: 280G (5.2%, 502,811G)
tinyjeans: 264G (4.9%, 264G)
oogthecaveman: 250G (4.6%, 5,257G)
ericzubat: 200G (3.7%, 2,044G)
NoNotBees: 200G (3.7%, 10,770G)
ApplesauceBoss: 100G (1.9%, 3,698G)
Anox_Skell: 100G (1.9%, 1,133G)
Treapvort: 100G (1.9%, 1,534G)
Roelath: 100G (1.9%, 100G)

yellow bets:
RongRongArts: 4,107G (24.5%, 8,215G)
reinoe: 3,701G (22.1%, 3,701G)
WireLord: 1,831G (10.9%, 1,831G)
Nizaha: 1,489G (8.9%, 1,489G)
waterwatereverywhere: 1,439G (8.6%, 1,439G)
Anomandaris__: 1,000G (6.0%, 9,711G)
HASTERIOUS: 815G (4.9%, 815G)
datadrivenbot: 713G (4.3%, 726G)
leakimiko: 600G (3.6%, 600G)
alrightbye: 500G (3.0%, 14,189G)
CapnChaos12: 300G (1.8%, 1,208G)
GrandmasterFrankerZ: 150G (0.9%, 1,277G)
Conome: 100G (0.6%, 2,238G)
