Final Bets: green - 16 bets for 23,166G (71.4%, x0.40); yellow - 5 bets for 9,257G (28.6%, x2.50)

green bets:
SephDarkheart: 11,646G (50.3%, 13,646G)
dogsandcatsand: 3,516G (15.2%, 6,896G)
DHaveWord: 1,327G (5.7%, 2,603G)
BirbBrainsBot: 1,000G (4.3%, 64,148G)
JumbocactuarX27: 1,000G (4.3%, 9,532G)
upvla: 1,000G (4.3%, 7,216G)
krombobreaker: 700G (3.0%, 8,952G)
Evewho: 588G (2.5%, 588G)
shinji202: 500G (2.2%, 127,914G)
AltimaMantoid: 471G (2.0%, 22,771G)
roofiepops: 468G (2.0%, 468G)
silentkaster: 250G (1.1%, 1,794G)
AllInBot: 200G (0.9%, 200G)
khelor_: 200G (0.9%, 2,416G)
datadrivenbot: 200G (0.9%, 77,067G)
alexmozg: 100G (0.4%, 901G)

yellow bets:
Chihuahua_Charity: 8,325G (89.9%, 8,325G)
MemoriesofFinal: 500G (5.4%, 42,856G)
ar_tactic: 200G (2.2%, 90,739G)
getthemoneyz: 132G (1.4%, 2,049,468G)
king_smashington: 100G (1.1%, 1,066G)
