Final Bets: green - 15 bets for 6,293G (34.4%, x1.91); yellow - 13 bets for 12,000G (65.6%, x0.52)

green bets:
nifboy: 1,000G (15.9%, 5,485G)
serperemagus: 861G (13.7%, 861G)
Baron_von_Scrub: 801G (12.7%, 801G)
DustBirdEX: 679G (10.8%, 679G)
HaateXIII: 500G (7.9%, 6,611G)
sososteve: 500G (7.9%, 5,974G)
gorgewall: 401G (6.4%, 4,792G)
ColetteMSLP: 400G (6.4%, 5,780G)
odym82: 343G (5.5%, 343G)
CosmicTactician: 200G (3.2%, 15,130G)
Moshyhero: 200G (3.2%, 6,420G)
Boultson1337: 108G (1.7%, 108G)
Conome: 100G (1.6%, 5,360G)
datadrivenbot: 100G (1.6%, 49,345G)
ANFz: 100G (1.6%, 2,359G)

yellow bets:
Virilikus: 3,000G (25.0%, 192,949G)
reinoe: 2,000G (16.7%, 29,677G)
SkylerBunny: 1,500G (12.5%, 571,014G)
helpimabug: 1,001G (8.3%, 2,449G)
BirbBrainsBot: 1,000G (8.3%, 118,756G)
Laserman1000: 882G (7.3%, 4,082G)
Lanshaft: 753G (6.3%, 1,478G)
prince_rogers_nelson_: 600G (5.0%, 600G)
getthemoneyz: 414G (3.5%, 1,008,946G)
Magicandy: 300G (2.5%, 4,301G)
CITOtheMOSQUITO: 250G (2.1%, 2,614G)
Evewho: 200G (1.7%, 4,176G)
freethought78: 100G (0.8%, 765G)
