Final Bets: yellow - 13 bets for 5,381G (35.2%, x1.84); champion - 11 bets for 9,912G (64.8%, x0.54)

yellow bets:
DustBirdEX: 677G (12.6%, 677G)
getthemoneyz: 624G (11.6%, 1,008,832G)
Aldrammech: 603G (11.2%, 603G)
prince_rogers_nelson_: 600G (11.2%, 600G)
HaateXIII: 500G (9.3%, 8,423G)
Oreo_Pizza: 500G (9.3%, 6,221G)
killth3kid: 480G (8.9%, 11,494G)
eudes89: 396G (7.4%, 396G)
joewcarson: 300G (5.6%, 1,340G)
gorgewall: 201G (3.7%, 5,395G)
TheMM42: 200G (3.7%, 9,054G)
Evewho: 200G (3.7%, 2,616G)
CosmicTactician: 100G (1.9%, 15,050G)

champion bets:
E_Ballard: 2,200G (22.2%, 2,200G)
thefyeman: 2,000G (20.2%, 58,303G)
serperemagus: 1,599G (16.1%, 1,599G)
SkylerBunny: 1,500G (15.1%, 571,638G)
sinnyil2: 1,200G (12.1%, 28,424G)
Laserman1000: 637G (6.4%, 6,537G)
twelfthrootoftwo: 300G (3.0%, 3,603G)
potgodtopdog: 222G (2.2%, 48,665G)
maakur_: 100G (1.0%, 76,283G)
Kellios11: 100G (1.0%, 57,747G)
BirbBrainsBot: 54G (0.5%, 117,393G)
