Final Bets: black - 15 bets for 9,294G (55.3%, x0.81); champion - 11 bets for 7,509G (44.7%, x1.24)

black bets:
HaplessOne: 2,000G (21.5%, 112,076G)
ColetteMSLP: 2,000G (21.5%, 44,541G)
HASTERIOUS: 1,148G (12.4%, 22,969G)
BirbBrainsBot: 1,000G (10.8%, 36,283G)
leakimiko: 913G (9.8%, 913G)
roqqqpsi: 452G (4.9%, 2,055G)
waterwatereverywhere: 384G (4.1%, 384G)
Lanshaft: 340G (3.7%, 340G)
ungabunga_bot: 293G (3.2%, 182,211G)
MirtaiAtana: 276G (3.0%, 276G)
Tekenu: 116G (1.2%, 116G)
mexskacin: 100G (1.1%, 6,020G)
FoeSquirrel: 100G (1.1%, 3,392G)
Treapvort: 100G (1.1%, 11,233G)
Sn0bb: 72G (0.8%, 1,624G)

champion bets:
Lydian_C: 2,400G (32.0%, 143,398G)
aStatue: 1,648G (21.9%, 1,648G)
Hamborn: 1,000G (13.3%, 50,505G)
TheMurkGnome: 841G (11.2%, 18,205G)
mirapoix: 684G (9.1%, 684G)
ShintaroNayaka: 300G (4.0%, 21,983G)
Dexsana: 296G (3.9%, 296G)
AllInBot: 100G (1.3%, 100G)
Anarbor13: 100G (1.3%, 1,000G)
HeroponThrawn: 100G (1.3%, 7,600G)
DrAntiSocial: 40G (0.5%, 14,786G)
