Final Bets: red - 5 bets for 1,428G (11.0%, x8.12); blue - 11 bets for 11,593G (89.0%, x0.12)

red bets:
douchetron: 484G (33.9%, 484G)
AllInBot: 377G (26.4%, 377G)
gorgewall: 201G (14.1%, 6,127G)
Chambs12: 200G (14.0%, 4,308G)
getthemoneyz: 166G (11.6%, 1,422,665G)

blue bets:
NicoSavoy: 3,230G (27.9%, 323,065G)
iBardic: 2,000G (17.3%, 7,868G)
prince_rogers_nelson_: 1,620G (14.0%, 1,620G)
UmaiJam: 1,600G (13.8%, 61,277G)
BirbBrainsBot: 1,000G (8.6%, 156,461G)
NovaKnight21: 535G (4.6%, 1,071G)
moonliquor: 500G (4.3%, 25,204G)
randgridr: 500G (4.3%, 12,967G)
dtrain332: 308G (2.7%, 308G)
datadrivenbot: 200G (1.7%, 45,698G)
nickfilaye: 100G (0.9%, 100G)
