Final Bets: green - 17 bets for 9,805G (33.5%, x1.98); yellow - 13 bets for 19,446G (66.5%, x0.50)

green bets:
UmaiJam: 2,000G (20.4%, 53,593G)
TheChainNerd: 1,000G (10.2%, 25,462G)
BirbBrainsBot: 1,000G (10.2%, 123,311G)
E_Ballard: 873G (8.9%, 873G)
killth3kid: 700G (7.1%, 91,727G)
toka222: 600G (6.1%, 85,009G)
MagicBottle: 528G (5.4%, 528G)
joewcarson: 500G (5.1%, 29,791G)
furrytomahawkk: 435G (4.4%, 435G)
byrdturbo: 420G (4.3%, 31,693G)
fenaen: 404G (4.1%, 404G)
getthemoneyz: 376G (3.8%, 1,273,181G)
RedRiderAyame: 300G (3.1%, 1,937G)
benticore: 250G (2.5%, 18,819G)
Rytor: 200G (2.0%, 2,518G)
VolgraTheMoose: 111G (1.1%, 7,246G)
Xoomwaffle: 108G (1.1%, 108G)

yellow bets:
pplvee1: 12,689G (65.3%, 12,689G)
gorgewall: 1,601G (8.2%, 1,601G)
Nickyfive: 1,500G (7.7%, 14,530G)
ShintaroNayaka: 1,000G (5.1%, 7,722G)
Zagorsek: 771G (4.0%, 771G)
upvla: 500G (2.6%, 1,880G)
ArashiKurobara: 320G (1.6%, 5,796G)
Othatmattkid: 250G (1.3%, 937G)
TasisSai: 215G (1.1%, 423G)
Mysteriousdewd: 200G (1.0%, 4,259G)
datadrivenbot: 200G (1.0%, 56,765G)
Jumza: 100G (0.5%, 414G)
randgridr: 100G (0.5%, 3,683G)
