Final Bets: white - 16 bets for 7,779G (43.1%, x1.32); black - 14 bets for 10,274G (56.9%, x0.76)

white bets:
OmnibotGamma: 1,239G (15.9%, 12,396G)
reinoe: 1,000G (12.9%, 12,317G)
Aldrammech: 912G (11.7%, 9,121G)
DeathTaxesAndAnime: 696G (8.9%, 696G)
ungabunga_bot: 616G (7.9%, 95,057G)
DustBirdEX: 549G (7.1%, 549G)
fenaen: 500G (6.4%, 11,047G)
Theseawolf1: 500G (6.4%, 6,644G)
DHaveWord: 435G (5.6%, 435G)
RunicMagus: 320G (4.1%, 320G)
JoeykinsGaming: 256G (3.3%, 256G)
Conome: 240G (3.1%, 240G)
DrAntiSocial: 200G (2.6%, 884G)
wollise89: 116G (1.5%, 477G)
Tougou: 100G (1.3%, 5,277G)
andycyca: 100G (1.3%, 6,733G)

black bets:
RongRongArts: 3,266G (31.8%, 3,266G)
leakimiko: 1,563G (15.2%, 31,273G)
sinnyil2: 1,151G (11.2%, 1,151G)
BirbBrainsBot: 1,000G (9.7%, 57,857G)
Shalloween: 900G (8.8%, 34,227G)
ANFz: 702G (6.8%, 702G)
Lordminsc: 500G (4.9%, 7,166G)
TheMurkGnome: 370G (3.6%, 5,006G)
ZephyrTempest: 290G (2.8%, 48,998G)
getthemoneyz: 182G (1.8%, 478,954G)
Lythe_Caraker: 100G (1.0%, 49,629G)
Evewho: 100G (1.0%, 4,878G)
moonliquor: 100G (1.0%, 799G)
b0shii: 50G (0.5%, 1,031G)
