Final Bets: green - 27 bets for 26,161G (37.6%, x1.66); yellow - 12 bets for 43,467G (62.4%, x0.60)

green bets:
Aldrammech: 6,189G (23.7%, 6,189G)
ezefeld: 2,931G (11.2%, 2,931G)
leakimiko: 2,254G (8.6%, 2,254G)
HaplessOne: 2,222G (8.5%, 107,431G)
WireLord: 2,000G (7.6%, 54,329G)
LeepingJJ: 1,280G (4.9%, 4,280G)
KasugaiRoastedPeas: 1,200G (4.6%, 5,068G)
gorgewall: 1,000G (3.8%, 6,248G)
BirbBrainsBot: 1,000G (3.8%, 133,808G)
Shalloween: 1,000G (3.8%, 38,205G)
SquidgyXom: 974G (3.7%, 974G)
Anox_Skell: 500G (1.9%, 8,439G)
silentperogy: 500G (1.9%, 24,955G)
Wesablo: 400G (1.5%, 4,714G)
gooseyourself: 360G (1.4%, 360G)
electric_glass: 300G (1.1%, 1,702G)
Kothn: 300G (1.1%, 14,970G)
4shcrows: 250G (1.0%, 1,545G)
marin1987: 250G (1.0%, 1,085G)
redrhinofever: 244G (0.9%, 244G)
alecttox: 224G (0.9%, 224G)
DontBackseatGame: 204G (0.8%, 204G)
getthemoneyz: 178G (0.7%, 554,370G)
ZephyrTempest: 101G (0.4%, 173,780G)
Bojanges: 100G (0.4%, 100G)
datadrivenbot: 100G (0.4%, 126G)
KamikaziManiac: 100G (0.4%, 1,800G)

yellow bets:
AllInBot: 29,736G (68.4%, 29,736G)
sinnyil2: 4,500G (10.4%, 150,997G)
Pie108: 2,000G (4.6%, 68,936G)
LDHaten: 1,795G (4.1%, 1,795G)
mirapoix: 1,548G (3.6%, 1,548G)
Lordminsc: 1,205G (2.8%, 51,333G)
evontno: 952G (2.2%, 952G)
Tommy_Havoc: 792G (1.8%, 792G)
Ethquan: 600G (1.4%, 4,604G)
nifboy: 161G (0.4%, 4,048G)
ungabunga_bot: 128G (0.3%, 219,281G)
cougboi: 50G (0.1%, 16,929G)
