Final Bets: blue - 14 bets for 6,808G (26.8%, x2.73); green - 26 bets for 18,566G (73.2%, x0.37)

blue bets:
KupoKel: 1,500G (22.0%, 20,668G)
BirbBrainsBot: 1,000G (14.7%, 230,550G)
bad1dea: 1,000G (14.7%, 223,429G)
SkylerBunny: 1,000G (14.7%, 85,109G)
Shalloween: 800G (11.8%, 39,838G)
HaychDub: 450G (6.6%, 16,365G)
kingchadking: 300G (4.4%, 300G)
PatSouI: 300G (4.4%, 300G)
ApplesauceBoss: 100G (1.5%, 9,192G)
lijarkh: 100G (1.5%, 647G)
victoriolue: 100G (1.5%, 4,050G)
Thyrial: 100G (1.5%, 787G)
Jeardra: 50G (0.7%, 1,333G)
getthemoneyz: 8G (0.1%, 360,577G)

green bets:
wackyzachyy: 5,303G (28.6%, 10,607G)
YaBoy125: 1,801G (9.7%, 18,018G)
R_Raynos: 1,522G (8.2%, 1,522G)
sinnyil2: 1,344G (7.2%, 1,344G)
DeathTaxesAndAnime: 1,100G (5.9%, 2,163G)
rjA0zcOQ96: 955G (5.1%, 955G)
ZZ_Yoshi: 745G (4.0%, 745G)
Lanshaft: 580G (3.1%, 4,077G)
CorpusCav: 500G (2.7%, 9,728G)
JustSuperish: 500G (2.7%, 3,037G)
PotionDweller: 500G (2.7%, 30,619G)
Dothan89: 496G (2.7%, 2,796G)
NovaKnight21: 416G (2.2%, 416G)
tactic_fanatic: 400G (2.2%, 1,184G)
Humble_Fabio: 333G (1.8%, 2,716G)
timthehoodie: 291G (1.6%, 291G)
b_bot: 277G (1.5%, 277G)
GrayGhostGaming: 250G (1.3%, 1,319G)
byrdturbo: 222G (1.2%, 1,990G)
theallmightyensiron: 208G (1.1%, 208G)
ko2q: 207G (1.1%, 207G)
inzo_bettingbot: 200G (1.1%, 15,382G)
ForestMagi: 116G (0.6%, 116G)
SeedSC: 100G (0.5%, 105,725G)
Chompie: 100G (0.5%, 6,521G)
jethrothrul: 100G (0.5%, 3,479G)
