Final Bets: brown - 16 bets for 9,296G (23.1%, x3.33); champion - 14 bets for 30,986G (76.9%, x0.30)

brown bets:
Firesheath: 2,617G (28.2%, 2,617G)
toka222: 1,500G (16.1%, 251,296G)
JumbocactuarX27: 1,050G (11.3%, 1,050G)
BirbBrainsBot: 1,000G (10.8%, 36,118G)
killth3kid: 508G (5.5%, 508G)
dogsandcatsand: 424G (4.6%, 424G)
getthemoneyz: 370G (4.0%, 1,737,774G)
daveb_: 333G (3.6%, 10,974G)
triniculo: 300G (3.2%, 300G)
Raixelol: 250G (2.7%, 14,982G)
foxfaeez: 244G (2.6%, 244G)
nok____: 200G (2.2%, 4,500G)
WhiteTigress: 200G (2.2%, 21,473G)
ravingsockmonkey: 100G (1.1%, 4,920G)
Aldrammech: 100G (1.1%, 10,253G)
AbandonedHall: 100G (1.1%, 1,278G)

champion bets:
DavenIII: 10,000G (32.3%, 104,062G)
pplvee1: 10,000G (32.3%, 33,666G)
Narcius: 3,400G (11.0%, 340,178G)
flacococo: 2,379G (7.7%, 2,379G)
NIghtdew14: 980G (3.2%, 980G)
ShintaroNayaka: 841G (2.7%, 841G)
Error72: 825G (2.7%, 825G)
Laserman1000: 657G (2.1%, 24,657G)
nekojin: 516G (1.7%, 516G)
Absalom_20: 500G (1.6%, 6,172G)
Lord_Gwarth: 388G (1.3%, 388G)
captainmilestw: 200G (0.6%, 1,010G)
datadrivenbot: 200G (0.6%, 62,886G)
AllInBot: 100G (0.3%, 100G)
