Final Bets: purple - 25 bets for 25,815G (74.5%, x0.34); brown - 16 bets for 8,838G (25.5%, x2.92)

purple bets:
DeathTaxesAndAnime: 9,066G (35.1%, 17,778G)
KaetenLoL: 5,714G (22.1%, 5,714G)
KasugaiRoastedPeas: 1,171G (4.5%, 1,171G)
Lionhermit: 1,000G (3.9%, 33,782G)
reinoe: 1,000G (3.9%, 16,862G)
EnemyController: 1,000G (3.9%, 156,194G)
Aldrammech: 958G (3.7%, 958G)
midori_ribbon: 772G (3.0%, 772G)
roffgar: 728G (2.8%, 728G)
Humble_Fabio: 619G (2.4%, 619G)
Dexsana: 549G (2.1%, 549G)
HaateXIII: 500G (1.9%, 37,367G)
Estan_AD: 500G (1.9%, 4,162G)
StreamraY: 300G (1.2%, 1,175G)
LivingHitokiri: 288G (1.1%, 288G)
Rodzilla2273: 258G (1.0%, 258G)
MaouDono: 228G (0.9%, 228G)
vorap: 200G (0.8%, 16,892G)
museofdoom: 200G (0.8%, 4,229G)
TheRylander: 200G (0.8%, 860G)
AllInBot: 160G (0.6%, 160G)
GenieMilenko: 104G (0.4%, 104G)
Tougou: 100G (0.4%, 12,642G)
FriendSquirrel: 100G (0.4%, 27,512G)
datadrivenbot: 100G (0.4%, 8,647G)

brown bets:
fenaen: 1,500G (17.0%, 68,790G)
Chrysaors: 1,289G (14.6%, 42,977G)
ungabunga_bot: 1,000G (11.3%, 276,540G)
BirbBrainsBot: 1,000G (11.3%, 93,596G)
getthemoneyz: 1,000G (11.3%, 603,149G)
0v3rr8d: 523G (5.9%, 523G)
RageImmortaI: 500G (5.7%, 4,801G)
ZephyrTempest: 428G (4.8%, 2,858G)
SQUiDSQUARKLIN: 300G (3.4%, 4,359G)
Bioticism: 300G (3.4%, 300G)
daveb_: 222G (2.5%, 1,932G)
ACSpree: 216G (2.4%, 216G)
DrAntiSocial: 200G (2.3%, 4,914G)
Clydethecamel: 160G (1.8%, 160G)
Firesheath: 100G (1.1%, 8,820G)
bairen0: 100G (1.1%, 271G)
