Final Bets: yellow - 18 bets for 7,500G (14.1%, x6.08); white - 32 bets for 45,600G (85.9%, x0.16)

yellow bets:
MagicBottle: 1,745G (23.3%, 87,275G)
Dexsana: 1,237G (16.5%, 1,237G)
Aldrammech: 1,187G (15.8%, 1,187G)
reinoe: 1,000G (13.3%, 19,487G)
0v3rr8d: 328G (4.4%, 328G)
haigy: 250G (3.3%, 858G)
Estan_AD: 250G (3.3%, 4,705G)
MaouDono: 228G (3.0%, 228G)
getthemoneyz: 224G (3.0%, 602,564G)
joewcarson: 200G (2.7%, 3,253G)
alecttox: 150G (2.0%, 7,408G)
midori_ribbon: 101G (1.3%, 1,440G)
FriendSquirrel: 100G (1.3%, 27,560G)
nifboy: 100G (1.3%, 4,379G)
run_with_STONE_GUNS: 100G (1.3%, 5,551G)
arch8000: 100G (1.3%, 5,638G)
happyfundude: 100G (1.3%, 5,818G)
BadErosion: 100G (1.3%, 9,060G)

white bets:
Zbgs: 10,000G (21.9%, 58,142G)
DeathTaxesAndAnime: 5,859G (12.8%, 11,489G)
Chrysaors: 4,694G (10.3%, 42,676G)
Sairentozon7: 3,988G (8.7%, 3,988G)
roffgar: 2,952G (6.5%, 2,952G)
TheRylander: 2,318G (5.1%, 2,318G)
Anethum: 1,446G (3.2%, 1,446G)
StreamraY: 1,307G (2.9%, 1,307G)
LivingHitokiri: 1,277G (2.8%, 1,277G)
Firesheath: 1,000G (2.2%, 9,865G)
Lionhermit: 1,000G (2.2%, 33,869G)
HaateXIII: 1,000G (2.2%, 38,183G)
BirbBrainsBot: 1,000G (2.2%, 92,341G)
ungabunga_bot: 956G (2.1%, 274,556G)
vorap: 900G (2.0%, 17,330G)
EnemyController: 700G (1.5%, 158,626G)
Rodzilla2273: 692G (1.5%, 692G)
roofiepops: 600G (1.3%, 3,074G)
ANFz: 500G (1.1%, 14,262G)
museofdoom: 500G (1.1%, 4,446G)
SQUiDSQUARKLIN: 500G (1.1%, 4,131G)
Aerochris121: 500G (1.1%, 1,072G)
ZephyrTempest: 400G (0.9%, 2,624G)
DixTrix: 300G (0.7%, 464G)
DrAntiSocial: 250G (0.5%, 5,214G)
most_shameful: 223G (0.5%, 223G)
ar_tactic: 200G (0.4%, 29,760G)
datkins728: 124G (0.3%, 124G)
AllInBot: 114G (0.2%, 114G)
Tougou: 100G (0.2%, 12,764G)
maakur_: 100G (0.2%, 110,755G)
datadrivenbot: 100G (0.2%, 8,769G)
