High Risers:
1. Latebit: +1,889G
2. Bruubarg: +1,877G
3. Powergems: +1,664G
4. Davestrider55: +1,224G
5. Teatime29: +1,000G
6. Nicosavoy: +1,000G
7. Sephdarkheart: +888G
8. Lwtest: +527G
9. Aly327: +504G
10. Loveyouallfriends: +500G
11. Hasterious: +500G
12. Zckaiser: +500G
13. Colettemslp: +500G
14. Thesabretoothe: +459G
15. Daveniii: +409G
16. Dracoknightzero: +400G
17. Raixelol: +309G
18. Acrusade: +212G
19. Just_here2: +200G
20. Jeeboheebo: +200G
21. Daveb_: +189G
22. Formerlydrdong: +175G
23. Leonightfury: +169G
24. Gongonono: +82G
25. Nhammen: -100G
26. Lyner87: -100G
27. Actual_jp: -100G
28. Lord_gwarth: -137G
29. Dexsana: -229G
30. Smashy: -400G
31. Phi_sig: -500G
32. Memoriesoffinal: -500G
33. Cosmictactician: -551G
34. Pplvee1: -621G
35. Baronhaynes: -902G
36. Zachara: -1,000G
37. Run_with_stone_guns: -1,000G
38. Thyrandaal: -1,059G
39. E_ballard: -1,214G
40. Bigbongsmoker: -1,235G
41. Gorgewall: -1,282G
42. Volgrathemoose: -1,611G
43. Jumbocactuarx27: -2,496G
