Final Bets: white - 15 bets for 6,804G (47.4%, x1.11); black - 20 bets for 7,552G (52.6%, x0.90)

white bets:
eudes89: 1,517G (22.3%, 1,517G)
Mesmaster: 1,000G (14.7%, 45,589G)
concles: 777G (11.4%, 14,080G)
ApplesauceBoss: 581G (8.5%, 581G)
omnighast: 500G (7.3%, 2,983G)
reinoe: 500G (7.3%, 500G)
Lolprinze: 422G (6.2%, 422G)
CorpusCav: 406G (6.0%, 8,406G)
twelfthrootoftwo: 300G (4.4%, 6,513G)
thethorndog1: 236G (3.5%, 236G)
BirbBrainsBot: 172G (2.5%, 74,944G)
OperatorTheory: 100G (1.5%, 674G)
victoriolue: 100G (1.5%, 2,887G)
Lawndough: 100G (1.5%, 1,883G)
flametail24: 93G (1.4%, 2,201G)

black bets:
Estan_AD: 1,768G (23.4%, 3,537G)
HaplessOne: 1,500G (19.9%, 87,994G)
TheMM42: 933G (12.4%, 933G)
argentbast: 500G (6.6%, 7,728G)
YaBoy125: 400G (5.3%, 400G)
KasugaiRoastedPeas: 348G (4.6%, 348G)
ACSpree: 250G (3.3%, 6,505G)
alecttox: 240G (3.2%, 240G)
OverlordCuddles: 236G (3.1%, 236G)
Ivan_Rockwell: 226G (3.0%, 2,268G)
kaidykat: 200G (2.6%, 649G)
King_Harb: 200G (2.6%, 1,200G)
benticore: 200G (2.6%, 4,536G)
gorgewall: 101G (1.3%, 6,859G)
CosmicTactician: 100G (1.3%, 9,798G)
rjA0zcOQ96: 100G (1.3%, 14,020G)
otakutaylor: 100G (1.3%, 2,446G)
datadrivenbot: 100G (1.3%, 17,579G)
aeonicvector: 40G (0.5%, 582G)
getthemoneyz: 10G (0.1%, 682,073G)
