Final Bets: red - 15 bets for 12,087G (66.9%, x0.49); blue - 16 bets for 5,976G (33.1%, x2.02)

red bets:
Shalloween: 3,815G (31.6%, 3,815G)
lijarkh: 1,829G (15.1%, 1,829G)
BirbBrainsBot: 1,000G (8.3%, 13,070G)
Mushufasa_: 1,000G (8.3%, 119,757G)
mindblownnnn: 932G (7.7%, 1,865G)
latebit: 648G (5.4%, 648G)
Smashy: 500G (4.1%, 2,061G)
CorpusCav: 500G (4.1%, 21,354G)
MemoriesofFinal: 469G (3.9%, 469G)
ValensEXP_: 400G (3.3%, 400G)
getthemoneyz: 300G (2.5%, 2,104,025G)
Lord_Gwarth: 250G (2.1%, 3,148G)
Genkidou: 244G (2.0%, 2,910G)
king_smashington: 100G (0.8%, 16,417G)
DeathTaxesAndAnime: 100G (0.8%, 2,842G)

blue bets:
sinnyil2: 1,200G (20.1%, 185,039G)
VolgraTheMoose: 880G (14.7%, 45,814G)
krombobreaker: 500G (8.4%, 33,572G)
RikiNom: 500G (8.4%, 1,091G)
ExplanationMarkWow: 500G (8.4%, 11,898G)
resjudicata3: 468G (7.8%, 468G)
3ngag3: 396G (6.6%, 1,600G)
ColetteMSLP: 300G (5.0%, 3,447G)
AllInBot: 200G (3.3%, 200G)
datadrivenbot: 200G (3.3%, 77,127G)
Reddash9: 200G (3.3%, 2,205G)
DocSTN: 200G (3.3%, 4,101G)
Lolthsmeat: 124G (2.1%, 124G)
bufuman: 108G (1.8%, 108G)
ShreddySpaghetti: 100G (1.7%, 100G)
killabandaid: 100G (1.7%, 4,414G)
