Final Bets: blue - 24 bets for 17,558G (61.9%, x0.61); brown - 22 bets for 10,789G (38.1%, x1.63)

blue bets:
LordSDB: 5,000G (28.5%, 25,168G)
reinoe: 3,089G (17.6%, 3,089G)
Zeroroute: 1,459G (8.3%, 3,930G)
BirbBrainsBot: 1,000G (5.7%, 197,544G)
volgrathemoose: 805G (4.6%, 805G)
Axelrod: 774G (4.4%, 15,498G)
HaplessOne: 750G (4.3%, 16,935G)
Zetchryn: 577G (3.3%, 1,154G)
Lordminsc: 500G (2.8%, 13,747G)
AlenaZarek: 500G (2.8%, 14,765G)
red__lancer: 500G (2.8%, 11,273G)
SeraphPDH: 500G (2.8%, 9,735G)
EnemyController: 500G (2.8%, 20,864G)
kingchadking: 292G (1.7%, 292G)
JumbocactuarX27: 240G (1.4%, 240G)
SomeCallMeGON: 236G (1.3%, 236G)
Aeolus_000: 200G (1.1%, 982G)
Jordache7K: 111G (0.6%, 12,097G)
Carledo: 103G (0.6%, 2,907G)
Aneyus: 100G (0.6%, 13,868G)
Tougou: 100G (0.6%, 5,063G)
sweetbeetpete: 100G (0.6%, 315G)
ko2q: 100G (0.6%, 851G)
roqqqpsi: 22G (0.1%, 1,370G)

brown bets:
ZestyArsenic: 2,762G (25.6%, 2,762G)
Nickyfive: 1,283G (11.9%, 1,283G)
fenaen: 1,001G (9.3%, 2,606G)
Lodrak: 1,001G (9.3%, 17,897G)
MoonSlayerRS: 620G (5.7%, 620G)
genoguy: 500G (4.6%, 4,094G)
JustSuperish: 500G (4.6%, 4,834G)
SeedSC: 420G (3.9%, 97,299G)
AnthraX85: 374G (3.5%, 374G)
powergems: 372G (3.4%, 372G)
LDSkinny: 304G (2.8%, 304G)
Cataphract116: 300G (2.8%, 1,332G)
AllInBot: 245G (2.3%, 245G)
oogthecaveman: 200G (1.9%, 5,105G)
silentperogy: 200G (1.9%, 9,273G)
ungabunga_bot: 182G (1.7%, 5,252G)
getthemoneyz: 174G (1.6%, 353,064G)
wackyzachyy: 116G (1.1%, 116G)
Aurilliux: 100G (0.9%, 9,732G)
maakur_: 100G (0.9%, 56,954G)
Rikrizen: 34G (0.3%, 681G)
daveb_: 1G (0.0%, 1,253G)
