Final Bets: black - 17 bets for 11,420G (41.1%, x1.43); purple - 19 bets for 16,344G (58.9%, x0.70)

black bets:
Zeroroute: 2,918G (25.6%, 2,918G)
argentbast: 2,000G (17.5%, 5,579G)
BirbBrainsBot: 1,000G (8.8%, 160,509G)
UmaiJam: 1,000G (8.8%, 2,396G)
EnemyController: 1,000G (8.8%, 325,998G)
killth3kid: 500G (4.4%, 17,646G)
itsdigitalbro: 500G (4.4%, 1,814G)
gooseyourself: 500G (4.4%, 7,472G)
ko2q: 472G (4.1%, 472G)
Meta_Five: 400G (3.5%, 13,964G)
sSwing: 280G (2.5%, 280G)
roofiepops: 250G (2.2%, 9,888G)
Thundahmoose: 200G (1.8%, 931G)
AllInBot: 100G (0.9%, 100G)
datadrivenbot: 100G (0.9%, 21,007G)
Nickaboom11: 100G (0.9%, 825G)
foofermoofer: 100G (0.9%, 3,306G)

purple bets:
MagicBottle: 4,336G (26.5%, 8,672G)
LASERJESUS1337: 3,000G (18.4%, 84,253G)
thefyeman: 2,000G (12.2%, 91,014G)
Mesmaster: 2,000G (12.2%, 57,658G)
Evewho: 1,466G (9.0%, 1,466G)
Kyune: 500G (3.1%, 19,055G)
YaBoy125: 460G (2.8%, 460G)
getthemoneyz: 344G (2.1%, 718,652G)
Breakdown777: 300G (1.8%, 2,198G)
Digitalsocrates: 292G (1.8%, 292G)
nifboy: 250G (1.5%, 7,996G)
CandyTamer: 240G (1.5%, 1,370G)
KingofTricksters: 212G (1.3%, 212G)
otakutaylor: 200G (1.2%, 1,538G)
slash_kamei: 200G (1.2%, 2,030G)
ar_tactic: 200G (1.2%, 47,678G)
serperemagus: 144G (0.9%, 144G)
Devrology101: 100G (0.6%, 2,115G)
Estan_AD: 100G (0.6%, 2,150G)
