Final Bets: red - 11 bets for 8,536G (58.7%, x0.70); yellow - 9 bets for 6,017G (41.3%, x1.42)

red bets:
ZPawZ: 2,222G (26.0%, 51,531G)
Nickyfive: 2,000G (23.4%, 74,331G)
snkey: 1,731G (20.3%, 3,462G)
Thyrandaal: 989G (11.6%, 989G)
E_Ballard: 668G (7.8%, 668G)
ANFz: 300G (3.5%, 2,233G)
datadrivenbot: 200G (2.3%, 59,080G)
getthemoneyz: 126G (1.5%, 1,917,150G)
BartTradingCompany: 100G (1.2%, 6,330G)
AllInBot: 100G (1.2%, 100G)
latebit: 100G (1.2%, 7,332G)

yellow bets:
BirbBrainsBot: 1,000G (16.6%, 89,413G)
dogsandcatsand: 1,000G (16.6%, 40,162G)
Sairentozon7: 1,000G (16.6%, 14,617G)
Willjin: 1,000G (16.6%, 31,699G)
Zerguzen: 816G (13.6%, 816G)
krombobreaker: 500G (8.3%, 11,138G)
ser_pyrro: 400G (6.6%, 875G)
khelor_: 200G (3.3%, 5,676G)
gorgewall: 101G (1.7%, 9,174G)
