High Risers:
1. RunicMagus: +7,720G
2. upvla: +2,718G
3. nhammen: +2,623G
4. LivingHitokiri: +2,321G
5. CapnChaos12: +2,131G
6. Mesmaster: +1,350G
7. VolgraTheMoose: +1,342G
8. Firesheath: +1,285G
9. Arcblazer23: +1,093G
10. lijarkh: +1,039G
11. RikiNom: +988G
12. krombobreaker: +777G
13. NicoSavoy: +653G
14. CosmicTactician: +644G
15. resjudicata3: +577G
16. king_smashington: +464G
17. TheBrett: +449G
18. LeoNightFury: +402G
19. rkane398: +398G
20. Smashy: +320G
21. Kronikle: +315G
22. gorgewall: +65G
23. almost__sane: +43G
24. J_MacC1991: +4G
25. HorusTaurus: +4G
26. DarrenDinosaurs: -4G
27. Reddash9: -13G
28. randgridr: -38G
29. Chuckolator: -176G
30. killth3kid: -200G
31. DuPlatypus: -207G
32. just_here2: -300G
33. thunderducker: -365G
34. OneHundredFists: -400G
35. AltimaMantoid: -407G
36. kilrazin: -411G
37. TheSabretoothe: -413G
38. Evewho: -615G
39. gooseyourself: -800G
40. Shalloween: -899G
41. EvilLego6: -1,000G
42. galkife: -1,000G
43. dogsandcatsand: -1,000G
44. MemoriesofFinal: -1,000G
45. khelor_: -1,000G
46. brokenknight201: -1,000G
47. Lord_Gwarth: -1,100G
48. latebit: -1,299G
49. acid_flashback: -1,311G
50. CorpusCav: -1,318G
51. ExplanationMarkWow: -1,550G
52. lowlf: -1,572G
53. Craymel_Mage: -1,581G
54. Thyrandaal: -1,788G
55. DHaveWord: -1,910G
56. sinnyil2: -2,400G
57. reinoe: -3,196G
58. Willjin: -7,400G
