Final Bets: black - 13 bets for 14,624G (72.2%, x0.38); purple - 10 bets for 5,619G (27.8%, x2.60)

black bets:
Aldrammech: 9,812G (67.1%, 9,812G)
Lydian_C: 1,552G (10.6%, 1,552G)
TheChainNerd: 1,000G (6.8%, 12,812G)
GnielKnows: 700G (4.8%, 4,480G)
YaBoy125: 436G (3.0%, 436G)
Saldarin: 280G (1.9%, 280G)
SQUiDSQUARKLIN: 244G (1.7%, 244G)
AllInBot: 100G (0.7%, 100G)
Kellios11: 100G (0.7%, 9,134G)
E_Ballard: 100G (0.7%, 11,131G)
CosmicTactician: 100G (0.7%, 18,479G)
Kyune: 100G (0.7%, 3,884G)
datadrivenbot: 100G (0.7%, 20,203G)

purple bets:
skillomono: 2,000G (35.6%, 13,798G)
getthemoneyz: 1,000G (17.8%, 716,721G)
BirbBrainsBot: 1,000G (17.8%, 158,577G)
HaateXIII: 500G (8.9%, 5,640G)
joewcarson: 380G (6.8%, 380G)
powergems: 250G (4.4%, 1,112G)
otakutaylor: 200G (3.6%, 2,846G)
nok____: 104G (1.9%, 17,415G)
dinin991: 100G (1.8%, 466G)
zepharoth89: 85G (1.5%, 345G)
