Final Bets: red - 10 bets for 3,696G (34.3%, x1.92); purple - 14 bets for 7,093G (65.7%, x0.52)

red bets:
TheChainNerd: 1,000G (27.1%, 11,812G)
GnielKnows: 945G (25.6%, 3,780G)
Aldrammech: 600G (16.2%, 600G)
Saldarin: 280G (7.6%, 280G)
Kellios11: 200G (5.4%, 9,034G)
dinin991: 200G (5.4%, 726G)
nok____: 171G (4.6%, 17,686G)
AllInBot: 100G (2.7%, 100G)
E_Ballard: 100G (2.7%, 11,031G)
datadrivenbot: 100G (2.7%, 20,103G)

purple bets:
joewcarson: 1,369G (19.3%, 1,369G)
skillomono: 1,000G (14.1%, 19,003G)
BirbBrainsBot: 1,000G (14.1%, 161,180G)
gooseyourself: 764G (10.8%, 764G)
getthemoneyz: 610G (8.6%, 719,324G)
HaateXIII: 500G (7.0%, 6,941G)
Lydian_C: 500G (7.0%, 500G)
Kyune: 500G (7.0%, 3,784G)
Breakdown777: 300G (4.2%, 1,898G)
otakutaylor: 200G (2.8%, 3,367G)
CosmicTactician: 100G (1.4%, 18,379G)
GrandmasterFrankerZ: 100G (1.4%, 1,027G)
duck_dong: 100G (1.4%, 100G)
zepharoth89: 50G (0.7%, 566G)
