Final Bets: white - 7 bets for 3,558G (42.4%, x1.36); purple - 9 bets for 4,843G (57.6%, x0.73)

white bets:
nifboy: 808G (22.7%, 4,962G)
Chihuahua_Charity: 776G (21.8%, 776G)
OneHundredFists: 690G (19.4%, 690G)
getthemoneyz: 568G (16.0%, 2,021,299G)
DHaveWord: 416G (11.7%, 13,495G)
khelor_: 200G (5.6%, 5,409G)
MemoriesofFinal: 100G (2.8%, 31,254G)

purple bets:
ColetteMSLP: 1,932G (39.9%, 1,932G)
upvla: 899G (18.6%, 899G)
otakutaylor: 800G (16.5%, 1,954G)
ser_pyrro: 292G (6.0%, 292G)
ayeayex3: 234G (4.8%, 234G)
Zachara: 217G (4.5%, 145,417G)
AllInBot: 200G (4.1%, 200G)
datadrivenbot: 200G (4.1%, 71,135G)
BirbBrainsBot: 69G (1.4%, 189,391G)
