Player: !Black
Team: Black Team
Palettes: Black/Red



Reinoe
Female
Leo
69
66
Oracle
White Magic
Blade Grasp
Sicken
Jump+3

Cypress Rod

Green Beret
Adaman Vest
Reflect Ring

Blind, Spell Absorb, Pray Faith, Doubt Faith, Foxbird, Confusion Song, Paralyze, Petrify
Raise, Raise 2, Reraise, Esuna



WhiteTigress
Monster
Libra
76
58
Bomb










Draconis345
Monster
Gemini
52
44
Explosive










Z32o
Monster
Scorpio
53
47
Malboro







