Final Bets: red - 13 bets for 44,389G (82.6%, x0.21); blue - 19 bets for 9,346G (17.4%, x4.75)

red bets:
Lydian_C: 35,817G (80.7%, 35,817G)
SkylerBunny: 3,000G (6.8%, 57,296G)
SomthingMore: 1,000G (2.3%, 45,517G)
30somethingundertalefan: 1,000G (2.3%, 1,000G)
nifboy: 1,000G (2.3%, 12,028G)
E_Ballard: 624G (1.4%, 624G)
BoneMiser: 487G (1.1%, 487G)
AllInBot: 310G (0.7%, 310G)
Treafa: 300G (0.7%, 304G)
nhammen: 250G (0.6%, 6,476G)
gorgewall: 201G (0.5%, 16,308G)
datadrivenbot: 200G (0.5%, 40,231G)
mrpickins: 200G (0.5%, 328G)

blue bets:
douchetron: 1,351G (14.5%, 1,351G)
BirbBrainsBot: 1,000G (10.7%, 50,863G)
Thyrandaal: 1,000G (10.7%, 79,230G)
SephDarkheart: 983G (10.5%, 983G)
HaateXIII: 868G (9.3%, 868G)
resjudicata3: 840G (9.0%, 840G)
Shalloween: 600G (6.4%, 229,964G)
NicoSavoy: 500G (5.3%, 295,822G)
Seaweed_B: 500G (5.3%, 11,892G)
getthemoneyz: 430G (4.6%, 1,377,939G)
kahjeethaswares: 300G (3.2%, 6,614G)
Lord_Gwarth: 224G (2.4%, 224G)
Hirameki85: 200G (2.1%, 3,282G)
TimeJannies: 100G (1.1%, 2,663G)
Glide44: 100G (1.1%, 100G)
poGpopE: 100G (1.1%, 2,265G)
mirapoix: 100G (1.1%, 1,614G)
ribbiks: 100G (1.1%, 2,509G)
ArlanKels: 50G (0.5%, 890G)
