Final Bets: red - 18 bets for 10,924G (20.1%, x3.98); blue - 22 bets for 43,457G (79.9%, x0.25)

red bets:
gooseyourself: 2,000G (18.3%, 109,826G)
Lord_Gwarth: 1,076G (9.8%, 1,076G)
Dasutin23: 1,000G (9.2%, 33,516G)
BirbBrainsBot: 1,000G (9.2%, 10,023G)
Mesmaster: 1,000G (9.2%, 54,583G)
getthemoneyz: 924G (8.5%, 1,796,358G)
maakur_: 732G (6.7%, 732G)
Aldrammech: 700G (6.4%, 1,277G)
NicoSavoy: 464G (4.2%, 464G)
TheKillerNacho: 404G (3.7%, 404G)
Tsuike: 372G (3.4%, 372G)
SephDarkheart: 304G (2.8%, 304G)
Tarheels218: 250G (2.3%, 3,360G)
Runeseeker22: 248G (2.3%, 248G)
thunderducker: 200G (1.8%, 3,683G)
Kellios11: 100G (0.9%, 4,905G)
ko2q: 100G (0.9%, 5,020G)
alcibiadeez: 50G (0.5%, 790G)

blue bets:
poorest_hobo: 26,654G (61.3%, 26,654G)
dogsandcatsand: 3,733G (8.6%, 7,320G)
Rytor: 3,688G (8.5%, 3,688G)
DeathTaxesAndAnime: 1,285G (3.0%, 2,520G)
skillomono: 1,003G (2.3%, 1,003G)
resjudicata3: 1,000G (2.3%, 14,024G)
MemoriesofFinal: 603G (1.4%, 1,899G)
TasisSai: 568G (1.3%, 568G)
Blastinus: 532G (1.2%, 532G)
DracoknightZero: 523G (1.2%, 523G)
DLJuggernaut: 500G (1.2%, 1,840G)
Mushufasa_: 500G (1.2%, 18,919G)
krombobreaker: 500G (1.2%, 2,678G)
roofiepops: 474G (1.1%, 3,360G)
RobotOcelot: 428G (1.0%, 4,285G)
Greggernaut: 358G (0.8%, 358G)
CapnChaos12: 300G (0.7%, 4,544G)
WhiteTigress: 300G (0.7%, 13,063G)
datadrivenbot: 200G (0.5%, 65,965G)
Generalunderdog: 108G (0.2%, 930G)
Yangusburger: 100G (0.2%, 1,143G)
macradarkstar: 100G (0.2%, 1,238G)
