Final Bets: red - 7 bets for 2,770G (16.0%, x5.26); purple - 12 bets for 14,576G (84.0%, x0.19)

red bets:
NIghtdew14: 1,000G (36.1%, 7,359G)
twelfthrootoftwo: 802G (29.0%, 1,574G)
Error72: 324G (11.7%, 324G)
pLifer: 244G (8.8%, 244G)
AllInBot: 200G (7.2%, 200G)
Macrosoft_Inc: 100G (3.6%, 100G)
CosmicTactician: 100G (3.6%, 48,249G)

purple bets:
RaIshtar: 5,000G (34.3%, 58,386G)
Lydian_C: 2,400G (16.5%, 45,956G)
nhammen: 2,106G (14.4%, 4,212G)
BirbBrainsBot: 1,000G (6.9%, 65,831G)
UmaiJam: 1,000G (6.9%, 56,061G)
randgridr: 802G (5.5%, 802G)
roqqqpsi: 676G (4.6%, 3,073G)
DouglasDragonThePoet: 658G (4.5%, 658G)
Xoomwaffle: 500G (3.4%, 4,488G)
boosted420: 220G (1.5%, 220G)
ruleof5: 200G (1.4%, 23,673G)
getthemoneyz: 14G (0.1%, 1,318,854G)
