Final Bets: red - 10 bets for 7,218G (35.9%, x1.79); purple - 15 bets for 12,904G (64.1%, x0.56)

red bets:
YaBoy125: 2,955G (40.9%, 2,955G)
MrFlabyo: 2,382G (33.0%, 7,943G)
DustyRelic: 500G (6.9%, 8,162G)
z32o: 500G (6.9%, 1,830G)
datadrivenbot: 307G (4.3%, 20,890G)
Blaster_Bomb: 144G (2.0%, 579G)
DrAntiSocial: 130G (1.8%, 1,389G)
AllInBot: 100G (1.4%, 100G)
IndecisiveNinja: 100G (1.4%, 2,370G)
dogsandcatsand: 100G (1.4%, 100G)

purple bets:
WireLord: 2,000G (15.5%, 39,271G)
Slowbrofist: 1,788G (13.9%, 1,788G)
Nizaha: 1,630G (12.6%, 3,261G)
Willjin: 1,499G (11.6%, 1,499G)
ungabunga_bot: 1,000G (7.7%, 105,031G)
BirbBrainsBot: 1,000G (7.7%, 64,931G)
Lord_Burrah: 1,000G (7.7%, 91,726G)
Treapvort: 925G (7.2%, 925G)
getthemoneyz: 538G (4.2%, 479,893G)
Draconis345: 500G (3.9%, 4,556G)
roqqqpsi: 424G (3.3%, 1,011G)
waterwatereverywhere: 300G (2.3%, 4,816G)
CassiePhoenix: 100G (0.8%, 4,757G)
twelfthrootoftwo: 100G (0.8%, 4,830G)
maakur_: 100G (0.8%, 2,795G)
