Final Bets: brown - 18 bets for 13,557G (56.8%, x0.76); champion - 19 bets for 10,311G (43.2%, x1.31)

brown bets:
maakur_: 2,728G (20.1%, 2,728G)
rico_flex: 2,000G (14.8%, 29,416G)
sinnyil2: 1,498G (11.0%, 1,498G)
HaateXIII: 1,167G (8.6%, 1,167G)
volgrathemoose: 1,001G (7.4%, 11,007G)
Tenderly_Entering: 1,000G (7.4%, 5,477G)
Lydian_C: 700G (5.2%, 2,276G)
Laserman1000: 540G (4.0%, 11,740G)
Eyepoor_: 504G (3.7%, 504G)
timthehoodie: 500G (3.7%, 2,660G)
red__lancer: 500G (3.7%, 29,347G)
TheChainNerd: 456G (3.4%, 456G)
Miyokari: 450G (3.3%, 12,240G)
foofermoofer: 113G (0.8%, 113G)
lastly: 100G (0.7%, 3,164G)
ko2q: 100G (0.7%, 2,160G)
Lionheart817: 100G (0.7%, 298G)
datadrivenbot: 100G (0.7%, 11,923G)

champion bets:
leakimiko: 2,935G (28.5%, 29,351G)
ungabunga_bot: 1,000G (9.7%, 432,588G)
Lionhermit: 1,000G (9.7%, 33,336G)
concles: 1,000G (9.7%, 18,278G)
toka222: 770G (7.5%, 9,185G)
fenaen: 500G (4.8%, 5,424G)
Dymntd: 500G (4.8%, 14,007G)
getthemoneyz: 434G (4.2%, 653,750G)
CassiePhoenix: 332G (3.2%, 332G)
Boojob: 312G (3.0%, 312G)
Smashy: 300G (2.9%, 5,618G)
Breakdown777: 300G (2.9%, 6,860G)
BirbBrainsBot: 273G (2.6%, 157,580G)
tabletz21: 194G (1.9%, 1,394G)
ANFz: 111G (1.1%, 33,977G)
E_Ballard: 100G (1.0%, 6,271G)
Killmos: 100G (1.0%, 795G)
Jampck: 100G (1.0%, 750G)
gggamezzz: 50G (0.5%, 466G)
