Final Bets: purple - 12 bets for 6,914G (49.0%, x1.04); brown - 11 bets for 7,197G (51.0%, x0.96)

purple bets:
TheChainNerd: 1,781G (25.8%, 1,781G)
BirbBrainsBot: 1,000G (14.5%, 190,886G)
AllInBot: 684G (9.9%, 684G)
E_Ballard: 592G (8.6%, 592G)
Nizaha: 572G (8.3%, 8,826G)
benticore: 500G (7.2%, 27,213G)
killth3kid: 484G (7.0%, 3,385G)
ColetteMSLP: 400G (5.8%, 5,853G)
Thyrandaal: 300G (4.3%, 46,257G)
Treafa: 288G (4.2%, 693G)
ribbiks: 200G (2.9%, 1,544G)
DaKoopa49: 113G (1.6%, 1,445G)

brown bets:
HaateXIII: 2,032G (28.2%, 2,032G)
Laserman1000: 1,085G (15.1%, 1,085G)
getthemoneyz: 1,000G (13.9%, 1,340,100G)
Miku_Shikhu: 741G (10.3%, 741G)
twelfthrootoftwo: 620G (8.6%, 620G)
douchetron: 454G (6.3%, 454G)
SephDarkheart: 352G (4.9%, 62,703G)
Xoomwaffle: 300G (4.2%, 300G)
Lord_Gwarth: 212G (2.9%, 212G)
gorgewall: 201G (2.8%, 13,998G)
datadrivenbot: 200G (2.8%, 34,295G)
