Final Bets: red - 11 bets for 10,571G (62.2%, x0.61); yellow - 13 bets for 6,423G (37.8%, x1.65)

red bets:
TheChainNerd: 3,635G (34.4%, 3,635G)
AllInBot: 1,396G (13.2%, 1,396G)
BirbBrainsBot: 1,000G (9.5%, 191,927G)
Thyrandaal: 1,000G (9.5%, 46,569G)
HaateXIII: 844G (8.0%, 844G)
twelfthrootoftwo: 620G (5.9%, 620G)
Nizaha: 572G (5.4%, 9,421G)
benticore: 500G (4.7%, 27,733G)
killth3kid: 484G (4.6%, 3,889G)
Miku_Shikhu: 308G (2.9%, 308G)
Lord_Gwarth: 212G (2.0%, 212G)

yellow bets:
ACSpree: 1,025G (16.0%, 1,025G)
lastly: 1,000G (15.6%, 35,745G)
thaetreis: 950G (14.8%, 19,680G)
Laserman1000: 644G (10.0%, 644G)
brokenknight201: 600G (9.3%, 6,252G)
DLJuggernaut: 500G (7.8%, 3,189G)
randgridr: 464G (7.2%, 3,784G)
Kronikle: 440G (6.9%, 10,611G)
ribbiks: 200G (3.1%, 1,752G)
datadrivenbot: 200G (3.1%, 34,095G)
getthemoneyz: 164G (2.6%, 1,339,100G)
douchetron: 136G (2.1%, 136G)
daveb_: 100G (1.6%, 4,175G)
