Final Bets: purple - 10 bets for 10,479G (42.0%, x1.38); champion - 16 bets for 14,460G (58.0%, x0.72)

purple bets:
TheChainNerd: 4,202G (40.1%, 16,810G)
reinoe: 3,000G (28.6%, 62,206G)
DustBirdEX: 1,236G (11.8%, 1,236G)
Laserman1000: 644G (6.1%, 644G)
randgridr: 464G (4.4%, 464G)
SephDarkheart: 352G (3.4%, 62,351G)
Lord_Gwarth: 212G (2.0%, 212G)
datadrivenbot: 200G (1.9%, 33,495G)
Firesheath: 100G (1.0%, 8,104G)
douchetron: 69G (0.7%, 136G)

champion bets:
Shalloween: 4,000G (27.7%, 162,901G)
Thyrandaal: 2,090G (14.5%, 45,777G)
DudeMonkey77: 1,172G (8.1%, 1,172G)
sinnyil2: 1,154G (8.0%, 2,309G)
BirbBrainsBot: 1,000G (6.9%, 192,794G)
dogsandcatsand: 1,000G (6.9%, 5,281G)
HaateXIII: 844G (5.8%, 844G)
VolgraTheMoose: 752G (5.2%, 752G)
benticore: 500G (3.5%, 28,171G)
ColetteMSLP: 400G (2.8%, 7,362G)
nekojin: 364G (2.5%, 4,613G)
Miku_Shikhu: 308G (2.1%, 308G)
CapnChaos12: 300G (2.1%, 13,826G)
getthemoneyz: 276G (1.9%, 1,337,716G)
AllInBot: 200G (1.4%, 200G)
Error72: 100G (0.7%, 1,913G)
