Final Bets: red - 11 bets for 5,337G (26.0%, x2.85); green - 22 bets for 15,198G (74.0%, x0.35)

red bets:
killth3kid: 2,000G (37.5%, 57,186G)
electric_glass: 1,000G (18.7%, 6,952G)
DISTROlD: 500G (9.4%, 3,673G)
zmoses: 500G (9.4%, 5,179G)
Eyepoor_: 300G (5.6%, 568G)
thunderducker: 275G (5.2%, 9,018G)
LAGBOT30000: 251G (4.7%, 25,182G)
theNGUYENNER: 200G (3.7%, 824G)
byrdturbo: 111G (2.1%, 4,277G)
SulliedGraves: 100G (1.9%, 2,079G)
Kyune: 100G (1.9%, 2,135G)

green bets:
R_Raynos: 3,459G (22.8%, 3,459G)
RongRongArts: 1,300G (8.6%, 347,586G)
DeathTaxesAndAnime: 1,288G (8.5%, 1,288G)
DaveStrider55: 1,024G (6.7%, 1,024G)
BirbBrainsBot: 1,000G (6.6%, 103,920G)
mirapoix: 988G (6.5%, 988G)
ungabunga_bot: 805G (5.3%, 416,677G)
cupholderr: 732G (4.8%, 732G)
ZDarius: 723G (4.8%, 723G)
Miyokari: 716G (4.7%, 716G)
CorpusCav: 610G (4.0%, 5,610G)
RestIessNight: 500G (3.3%, 2,427G)
pstud: 433G (2.8%, 433G)
Jaritras: 343G (2.3%, 343G)
Practice_Pad: 339G (2.2%, 339G)
getthemoneyz: 254G (1.7%, 647,607G)
twelfthrootoftwo: 200G (1.3%, 4,696G)
GnielKnows: 134G (0.9%, 538G)
Firesheath: 100G (0.7%, 20,451G)
mannequ1n: 100G (0.7%, 2,173G)
datadrivenbot: 100G (0.7%, 12,372G)
cougboi: 50G (0.3%, 10,015G)
