Final Bets: red - 14 bets for 8,623G (46.2%, x1.16); black - 13 bets for 10,038G (53.8%, x0.86)

red bets:
gorgewall: 1,668G (19.3%, 1,668G)
Aldrammech: 1,295G (15.0%, 1,295G)
killth3kid: 1,000G (11.6%, 110,035G)
Zeroroute: 814G (9.4%, 3,196G)
serperemagus: 600G (7.0%, 600G)
redrhinofever: 550G (6.4%, 1,100G)
Laserman1000: 500G (5.8%, 20,100G)
DLJuggernaut: 500G (5.8%, 4,374G)
MagicBottle: 496G (5.8%, 14,539G)
superdevon1: 479G (5.6%, 479G)
ColetteMSLP: 300G (3.5%, 6,272G)
datadrivenbot: 200G (2.3%, 54,616G)
Lydian_C: 121G (1.4%, 152,321G)
nhammen: 100G (1.2%, 12,019G)

black bets:
RunicMagus: 2,000G (19.9%, 50,977G)
UmaiJam: 1,700G (16.9%, 72,720G)
ThreeMileIsland: 1,500G (14.9%, 5,706G)
BirbBrainsBot: 1,000G (10.0%, 72,552G)
moonliquor: 816G (8.1%, 816G)
NIghtdew14: 750G (7.5%, 9,552G)
Nizaha: 524G (5.2%, 10,947G)
twelfthrootoftwo: 500G (5.0%, 7,319G)
HaateXIII: 500G (5.0%, 5,660G)
MintMaster87: 384G (3.8%, 384G)
winteriscorning: 200G (2.0%, 487G)
nifboy: 100G (1.0%, 14,327G)
getthemoneyz: 64G (0.6%, 1,199,589G)
