Final Bets: green - 11 bets for 12,645G (66.0%, x0.51); yellow - 12 bets for 6,506G (34.0%, x1.94)

green bets:
books_books: 5,000G (39.5%, 18,747G)
NicoSavoy: 3,000G (23.7%, 177,374G)
Mesmaster: 2,000G (15.8%, 36,324G)
RoboticNomad: 1,000G (7.9%, 3,922G)
dantayystv: 400G (3.2%, 702G)
BirbBrainsBot: 379G (3.0%, 379G)
Lemonjohns: 240G (1.9%, 240G)
dem0nj0ns: 208G (1.6%, 208G)
getthemoneyz: 192G (1.5%, 1,247,529G)
superdevon1: 118G (0.9%, 1,186G)
Nightehawke: 108G (0.9%, 108G)

yellow bets:
Zetchryn: 1,812G (27.9%, 1,812G)
SkylerBunny: 1,200G (18.4%, 18,066G)
Evewho: 728G (11.2%, 728G)
Hasterious: 676G (10.4%, 676G)
Shalloween: 600G (9.2%, 52,894G)
midnight_blues3: 500G (7.7%, 19,358G)
DustBirdEX: 345G (5.3%, 1,777G)
datadrivenbot: 200G (3.1%, 64,403G)
PrancesWithWolves: 200G (3.1%, 1,061G)
Aquios_: 100G (1.5%, 220G)
ggKadon: 100G (1.5%, 100G)
BruteSpaniard: 45G (0.7%, 1,075G)
