Final Bets: purple - 13 bets for 3,947G (34.4%, x1.91); brown - 7 bets for 7,537G (65.6%, x0.52)

purple bets:
getthemoneyz: 608G (15.4%, 1,247,186G)
porkchop5158: 500G (12.7%, 4,261G)
SkylerBunny: 500G (12.7%, 15,866G)
upvla: 456G (11.6%, 9,284G)
RoboticNomad: 300G (7.6%, 4,614G)
Nightehawke: 261G (6.6%, 261G)
randgridr: 252G (6.4%, 994G)
DustBirdEX: 232G (5.9%, 1,700G)
Aquios_: 220G (5.6%, 220G)
datadrivenbot: 200G (5.1%, 64,321G)
BirbBrainsBot: 200G (5.1%, 200G)
ggKadon: 159G (4.0%, 159G)
BruteSpaniard: 59G (1.5%, 1,089G)

brown bets:
reinoe: 2,202G (29.2%, 4,404G)
midnight_blues3: 2,000G (26.5%, 20,624G)
NicoSavoy: 1,000G (13.3%, 178,918G)
dantayystv: 808G (10.7%, 808G)
Evewho: 728G (9.7%, 728G)
Zetchryn: 667G (8.8%, 667G)
superdevon1: 132G (1.8%, 1,320G)
