Final Bets: green - 16 bets for 10,274G (34.2%, x1.92); yellow - 18 bets for 19,730G (65.8%, x0.52)

green bets:
EnemyController: 2,222G (21.6%, 1,713,958G)
E_Ballard: 1,345G (13.1%, 1,345G)
Riley331: 1,257G (12.2%, 6,288G)
Vahn_Blade: 1,000G (9.7%, 22,059G)
BirbBrainsBot: 1,000G (9.7%, 126,561G)
triniculo: 739G (7.2%, 739G)
getthemoneyz: 588G (5.7%, 1,873,635G)
krombobreaker: 500G (4.9%, 7,032G)
Wonser: 348G (3.4%, 8,307G)
Sietaha: 324G (3.2%, 324G)
akash7: 300G (2.9%, 810G)
ValensEXP_: 232G (2.3%, 2,152G)
mindblownnnn: 204G (2.0%, 204G)
heyBtw: 104G (1.0%, 104G)
Miku_Shikhu: 100G (1.0%, 7,687G)
BartTradingCompany: 11G (0.1%, 112G)

yellow bets:
snkey: 4,600G (23.3%, 95,864G)
Spartan_Paladin: 4,500G (22.8%, 14,527G)
holdenmagronik: 1,446G (7.3%, 2,836G)
Theseawolf1: 1,251G (6.3%, 2,454G)
latebit: 1,224G (6.2%, 1,224G)
old_overholt_: 1,000G (5.1%, 13,722G)
Mudrockk: 1,000G (5.1%, 17,487G)
NicoSavoy: 1,000G (5.1%, 11,349G)
Zagorsek: 753G (3.8%, 753G)
SkylerBunny: 656G (3.3%, 656G)
dogsandcatsand: 580G (2.9%, 580G)
thunderducker: 560G (2.8%, 560G)
Dasutin23: 460G (2.3%, 10,536G)
datadrivenbot: 200G (1.0%, 59,822G)
CosmicTactician: 200G (1.0%, 35,216G)
AllInBot: 100G (0.5%, 100G)
CorpusCav: 100G (0.5%, 25,293G)
Thyrandaal: 100G (0.5%, 1,694G)
