Final Bets: blue - 12 bets for 8,641G (30.4%, x2.29); black - 17 bets for 19,764G (69.6%, x0.44)

blue bets:
snkey: 4,500G (52.1%, 93,004G)
E_Ballard: 812G (9.4%, 812G)
zeridoz: 707G (8.2%, 707G)
Zagorsek: 680G (7.9%, 680G)
krombobreaker: 500G (5.8%, 5,032G)
Dasutin23: 460G (5.3%, 12,206G)
Neinhartx: 300G (3.5%, 493G)
Kellios11: 200G (2.3%, 2,277G)
datadrivenbot: 200G (2.3%, 59,381G)
heyBtw: 172G (2.0%, 172G)
AllInBot: 100G (1.2%, 100G)
BartTradingCompany: 10G (0.1%, 100G)

black bets:
EnemyController: 7,777G (39.3%, 1,718,844G)
VolgraTheMoose: 2,001G (10.1%, 116,089G)
NicoSavoy: 2,000G (10.1%, 11,953G)
DeathTaxesAndAnime: 1,688G (8.5%, 1,688G)
latebit: 1,616G (8.2%, 3,169G)
BirbBrainsBot: 1,000G (5.1%, 129,069G)
Thyrandaal: 899G (4.5%, 1,764G)
Riley331: 832G (4.2%, 4,163G)
Theseawolf1: 444G (2.2%, 444G)
akash7: 369G (1.9%, 1,069G)
bigbongsmoker: 292G (1.5%, 2,335G)
thunderducker: 222G (1.1%, 1,869G)
farside00831: 220G (1.1%, 220G)
RobotOcelot: 200G (1.0%, 5,912G)
nhammen: 100G (0.5%, 406,878G)
Miku_Shikhu: 100G (0.5%, 7,487G)
getthemoneyz: 4G (0.0%, 1,875,191G)
