Final Bets: green - 11 bets for 6,627G (60.5%, x0.65); yellow - 9 bets for 4,327G (39.5%, x1.53)

green bets:
sinnyil2: 2,489G (37.6%, 4,979G)
RunicMagus: 1,100G (16.6%, 35,313G)
BirbBrainsBot: 1,000G (15.1%, 70,424G)
solomongrundy85: 500G (7.5%, 3,519G)
daveb_: 496G (7.5%, 496G)
getthemoneyz: 294G (4.4%, 762,188G)
GeeGXP: 228G (3.4%, 228G)
Saldarin: 200G (3.0%, 2,305G)
Lydian_C: 120G (1.8%, 7,126G)
datadrivenbot: 100G (1.5%, 28,319G)
pallidsable: 100G (1.5%, 2,330G)

yellow bets:
TheChainNerd: 2,000G (46.2%, 57,700G)
Laserman1000: 524G (12.1%, 22,624G)
gogofromtogo: 517G (11.9%, 517G)
megaman2202: 444G (10.3%, 444G)
AllInBot: 276G (6.4%, 276G)
letdowncity: 250G (5.8%, 7,343G)
KyleWonToLiveForever: 116G (2.7%, 116G)
maakur_: 100G (2.3%, 8,132G)
maleblackfiora: 100G (2.3%, 1,111G)
