Final Bets: white - 18 bets for 9,007G (64.9%, x0.54); black - 9 bets for 4,878G (35.1%, x1.85)

white bets:
sinnyil2: 1,245G (13.8%, 2,490G)
BirbBrainsBot: 1,000G (11.1%, 69,424G)
Saldarin: 1,000G (11.1%, 2,105G)
Aldrammech: 1,000G (11.1%, 5,443G)
volgrathemoose: 717G (8.0%, 717G)
serperemagus: 676G (7.5%, 676G)
Laserman1000: 527G (5.9%, 23,427G)
DudeMonkey77: 500G (5.6%, 4,924G)
Baron_von_Scrub: 474G (5.3%, 28,682G)
getthemoneyz: 412G (4.6%, 761,894G)
rechaun: 400G (4.4%, 400G)
GeeGXP: 228G (2.5%, 228G)
thenextlantern: 208G (2.3%, 208G)
maleblackfiora: 200G (2.2%, 1,264G)
Lydian_C: 120G (1.3%, 7,006G)
CosmicTactician: 100G (1.1%, 4,323G)
pallidsable: 100G (1.1%, 2,230G)
datadrivenbot: 100G (1.1%, 28,219G)

black bets:
TheChainNerd: 2,763G (56.6%, 60,763G)
AllInBot: 699G (14.3%, 699G)
ShintaroNayaka: 384G (7.9%, 384G)
KyleWonToLiveForever: 294G (6.0%, 294G)
letdowncity: 250G (5.1%, 7,726G)
WunUP: 188G (3.9%, 188G)
RunicMagus: 100G (2.1%, 34,213G)
alterworlds: 100G (2.1%, 100G)
cloud92684: 100G (2.1%, 16,874G)
