Final Bets: yellow - 16 bets for 14,710G (26.8%, x2.73); purple - 14 bets for 40,159G (73.2%, x0.37)

yellow bets:
losain: 5,000G (34.0%, 91,207G)
AllInBot: 2,400G (16.3%, 2,400G)
fenaen: 1,772G (12.0%, 3,545G)
kai_shee: 1,001G (6.8%, 125,537G)
TheChainNerd: 818G (5.6%, 818G)
datadrivenbot: 703G (4.8%, 25,121G)
JackOnFire1: 673G (4.6%, 673G)
sinnyil2: 505G (3.4%, 2,526G)
nifboy: 500G (3.4%, 9,361G)
Slowbrofist: 500G (3.4%, 2,755G)
SkeletorRS: 280G (1.9%, 280G)
silentperogy: 200G (1.4%, 17,042G)
Ashidoku: 144G (1.0%, 144G)
ko2q: 100G (0.7%, 4,238G)
wollise89: 100G (0.7%, 339G)
getthemoneyz: 14G (0.1%, 472,154G)

purple bets:
Nickyfive: 12,009G (29.9%, 12,009G)
reinoe: 10,439G (26.0%, 10,439G)
toka222: 6,700G (16.7%, 556,117G)
catfashions: 5,737G (14.3%, 5,737G)
BirbBrainsBot: 1,000G (2.5%, 61,859G)
red__lancer: 1,000G (2.5%, 30,418G)
CCRUNNER149UWP: 888G (2.2%, 8,396G)
Lodrak: 782G (1.9%, 782G)
madming25: 701G (1.7%, 701G)
ZephyrTempest: 341G (0.8%, 51,530G)
joewcarson: 300G (0.7%, 4,968G)
NUMBER1DB: 161G (0.4%, 161G)
RunicMagus: 100G (0.2%, 1,034G)
daveb_: 1G (0.0%, 1,943G)
