Final Bets: red - 16 bets for 8,158G (50.1%, x1.00); blue - 12 bets for 8,121G (49.9%, x1.00)

red bets:
DeathTaxesAndAnime: 1,171G (14.4%, 2,298G)
Breakdown777: 1,142G (14.0%, 2,285G)
killth3kid: 1,027G (12.6%, 102,724G)
Deathmaker06: 1,000G (12.3%, 11,227G)
BlackFireUK: 665G (8.2%, 665G)
DustBirdEX: 548G (6.7%, 548G)
amiture: 500G (6.1%, 4,393G)
DamnThatShark: 500G (6.1%, 1,868G)
gorgewall: 301G (3.7%, 3,198G)
LAGBOT30000: 300G (3.7%, 8,400G)
alterworlds: 252G (3.1%, 252G)
RampagingRobot: 252G (3.1%, 852G)
Evewho: 200G (2.5%, 5,466G)
nhammen: 100G (1.2%, 12,469G)
nifboy: 100G (1.2%, 14,222G)
g1nger4le: 100G (1.2%, 100G)

blue bets:
Baron_von_Scrub: 2,804G (34.5%, 2,804G)
LanseDM: 1,200G (14.8%, 1,200G)
BirbBrainsBot: 1,000G (12.3%, 21,322G)
reinoe: 1,000G (12.3%, 51,808G)
Laserman1000: 500G (6.2%, 23,900G)
RageImmortaI: 500G (6.2%, 720G)
Lanshaft: 460G (5.7%, 5,658G)
megamax667: 321G (4.0%, 7,321G)
klefelix: 104G (1.3%, 104G)
Ring_Wyrm: 100G (1.2%, 6,058G)
AO110893: 100G (1.2%, 2,582G)
getthemoneyz: 32G (0.4%, 1,182,391G)
