Final Bets: purple - 5 bets for 4,755G (31.5%, x2.17); brown - 16 bets for 10,337G (68.5%, x0.46)

purple bets:
alterworlds: 2,177G (45.8%, 2,177G)
ciprofloxacin: 2,157G (45.4%, 2,157G)
AO110893: 200G (4.2%, 3,122G)
Lydian_C: 121G (2.5%, 156,846G)
biffcake01: 100G (2.1%, 4,164G)

brown bets:
DeathTaxesAndAnime: 2,064G (20.0%, 4,048G)
safira125: 1,041G (10.1%, 1,041G)
BirbBrainsBot: 1,000G (9.7%, 21,729G)
LanseDM: 1,000G (9.7%, 2,807G)
HyC81: 1,000G (9.7%, 3,752G)
Laserman1000: 600G (5.8%, 24,300G)
getthemoneyz: 592G (5.7%, 1,181,137G)
LAGBOT30000: 500G (4.8%, 8,220G)
g1nger4le: 500G (4.8%, 500G)
amiture: 500G (4.8%, 3,693G)
alekzanndrr: 500G (4.8%, 1,547G)
Lanshaft: 460G (4.5%, 6,620G)
RampagingRobot: 276G (2.7%, 276G)
klefelix: 104G (1.0%, 104G)
Twisted_Nutsatchel: 100G (1.0%, 8,545G)
Ring_Wyrm: 100G (1.0%, 7,098G)
