Final Bets: brown - 26 bets for 32,548G (84.8%, x0.18); champion - 10 bets for 5,855G (15.2%, x5.56)

brown bets:
Zbgs: 5,000G (15.4%, 25,186G)
reinoe: 5,000G (15.4%, 52,817G)
Error72: 3,000G (9.2%, 13,403G)
Baron_von_Scrub: 2,320G (7.1%, 4,640G)
alekzanndrr: 2,200G (6.8%, 2,200G)
HaychDub: 2,025G (6.2%, 4,050G)
HyC81: 2,000G (6.1%, 5,412G)
ShintaroNayaka: 1,109G (3.4%, 1,109G)
Breakdown777: 1,004G (3.1%, 2,008G)
Draconis345: 1,000G (3.1%, 46,649G)
g1nger4le: 1,000G (3.1%, 2,445G)
BirbBrainsBot: 1,000G (3.1%, 22,208G)
fenixcrest: 1,000G (3.1%, 15,604G)
RampagingRobot: 943G (2.9%, 943G)
klefelix: 531G (1.6%, 531G)
Evewho: 500G (1.5%, 5,066G)
RageImmortaI: 500G (1.5%, 1,949G)
Lanshaft: 460G (1.4%, 6,275G)
ColetteMSLP: 400G (1.2%, 7,821G)
KyleWonToLiveForever: 344G (1.1%, 344G)
DamnThatShark: 311G (1.0%, 979G)
ZCKaiser: 300G (0.9%, 3,190G)
gorgewall: 201G (0.6%, 4,397G)
Grandlanzer: 200G (0.6%, 49,471G)
fluffskull: 100G (0.3%, 5,931G)
Ring_Wyrm: 100G (0.3%, 7,132G)

champion bets:
DeathTaxesAndAnime: 2,088G (35.7%, 4,096G)
EnemyController: 1,111G (19.0%, 1,380,258G)
alterworlds: 948G (16.2%, 948G)
LAGBOT30000: 500G (8.5%, 9,394G)
Linkn: 500G (8.5%, 16,440G)
megamax667: 342G (5.8%, 7,842G)
biffcake01: 100G (1.7%, 3,964G)
Miku_Shikhu: 100G (1.7%, 12,444G)
danielrogercardoso: 100G (1.7%, 100G)
getthemoneyz: 66G (1.1%, 1,181,335G)
