Final Bets: green - 21 bets for 9,493G (46.0%, x1.18); yellow - 20 bets for 11,155G (54.0%, x0.85)

green bets:
Zeroroute: 2,487G (26.2%, 5,474G)
killth3kid: 1,000G (10.5%, 24,124G)
Aldrammech: 1,000G (10.5%, 32,973G)
BirbBrainsBot: 1,000G (10.5%, 119,298G)
OmnibotGamma: 500G (5.3%, 4,498G)
volgrathemoose: 500G (5.3%, 2,652G)
serperemagus: 454G (4.8%, 454G)
ColetteMSLP: 400G (4.2%, 1,116G)
getthemoneyz: 380G (4.0%, 782,837G)
Lionhermit: 380G (4.0%, 380G)
HaateXIII: 250G (2.6%, 9,781G)
benticore: 200G (2.1%, 2,294G)
Meta_Five: 200G (2.1%, 9,890G)
cogniv0r3: 108G (1.1%, 108G)
Firesheath: 101G (1.1%, 9,786G)
E_Ballard: 100G (1.1%, 1,278G)
Flameatron: 100G (1.1%, 1,061G)
CorpusCav: 100G (1.1%, 48,952G)
UnholyCorsair: 100G (1.1%, 6,183G)
mrfripps: 100G (1.1%, 2,216G)
daveb_: 33G (0.3%, 2,193G)

yellow bets:
Shakarak: 2,000G (17.9%, 62,699G)
SkylerBunny: 1,500G (13.4%, 73,224G)
NovaKnight21: 1,000G (9.0%, 19,543G)
EnemyController: 1,000G (9.0%, 457,443G)
Rislyeu: 999G (9.0%, 999G)
Jeeboheebo: 670G (6.0%, 670G)
flowinprose: 500G (4.5%, 127,545G)
luminarii: 450G (4.0%, 21,143G)
Lawndough: 428G (3.8%, 428G)
outer_monologue: 428G (3.8%, 428G)
bruubarg: 400G (3.6%, 3,754G)
ANFz: 396G (3.5%, 396G)
gogofromtogo: 276G (2.5%, 276G)
CandyTamer: 252G (2.3%, 558G)
Lydian_C: 220G (2.0%, 220G)
danteangel7psn: 200G (1.8%, 2,658G)
MiseryKoss: 200G (1.8%, 5,092G)
maakur_: 100G (0.9%, 3,103G)
datadrivenbot: 100G (0.9%, 30,195G)
FoeSquirrel: 36G (0.3%, 3,508G)
