Final Bets: green - 6 bets for 2,284G (14.8%, x5.74); yellow - 14 bets for 13,113G (85.2%, x0.17)

green bets:
Evewho: 572G (25.0%, 572G)
gorgewall: 512G (22.4%, 512G)
hiros13gts: 400G (17.5%, 836G)
DouglasDragonThePoet: 300G (13.1%, 300G)
fluffskull: 300G (13.1%, 2,485G)
AllInBot: 200G (8.8%, 200G)

yellow bets:
Thyrandaal: 2,222G (16.9%, 88,790G)
UmaiJam: 2,000G (15.3%, 52,093G)
Mesmaster: 2,000G (15.3%, 58,781G)
NIghtdew14: 1,969G (15.0%, 3,938G)
BirbBrainsBot: 1,000G (7.6%, 63,312G)
reinoe: 1,000G (7.6%, 116,108G)
randgridr: 568G (4.3%, 568G)
douchetron: 532G (4.1%, 532G)
ForagerCats: 500G (3.8%, 7,264G)
Lemonjohns: 420G (3.2%, 4,604G)
EmmaEnema: 352G (2.7%, 352G)
ShintaroNayaka: 304G (2.3%, 304G)
datadrivenbot: 200G (1.5%, 45,457G)
getthemoneyz: 46G (0.4%, 1,451,566G)
