Final Bets: red - 12 bets for 4,742G (13.7%, x6.32); blue - 22 bets for 29,986G (86.3%, x0.16)

red bets:
seppu777: 777G (16.4%, 22,949G)
PoroTact: 664G (14.0%, 664G)
Laserman1000: 600G (12.7%, 3,300G)
Zagorsek: 444G (9.4%, 444G)
dem0nj0ns: 420G (8.9%, 6,782G)
hotpocketsofficial: 351G (7.4%, 351G)
ser_pyrro: 349G (7.4%, 349G)
helpimabug: 297G (6.3%, 297G)
Musashi45: 240G (5.1%, 240G)
AllInBot: 200G (4.2%, 200G)
Lyner87: 200G (4.2%, 107,292G)
escobro: 200G (4.2%, 780G)

blue bets:
nhammen: 10,000G (33.3%, 295,374G)
Thyrandaal: 5,000G (16.7%, 52,562G)
old_overholt_: 3,000G (10.0%, 11,948G)
CorpusCav: 2,222G (7.4%, 52,640G)
CapnChaos12: 1,389G (4.6%, 1,389G)
MemoriesofFinal: 1,000G (3.3%, 23,153G)
getthemoneyz: 1,000G (3.3%, 1,968,269G)
BirbBrainsBot: 1,000G (3.3%, 33,023G)
HaateXIII: 980G (3.3%, 980G)
nifboy: 768G (2.6%, 6,724G)
Mesmaster: 728G (2.4%, 728G)
CosmicTactician: 500G (1.7%, 26,207G)
latebit: 480G (1.6%, 8,241G)
ColetteMSLP: 400G (1.3%, 6,906G)
PopsLIVE: 371G (1.2%, 371G)
grishhammer: 248G (0.8%, 248G)
peeronid: 200G (0.7%, 661G)
datadrivenbot: 200G (0.7%, 60,159G)
ericzubat: 200G (0.7%, 819G)
BartTradingCompany: 100G (0.3%, 10,398G)
J_52: 100G (0.3%, 4,119G)
Firesheath: 100G (0.3%, 4,886G)
