Final Bets: green - 11 bets for 4,852G (22.1%, x3.53); yellow - 19 bets for 17,145G (77.9%, x0.28)

green bets:
technominari: 1,000G (20.6%, 84,094G)
killth3kid: 832G (17.1%, 26,868G)
skipsandwiches: 528G (10.9%, 80,512G)
PopsLIVE: 500G (10.3%, 3,021G)
JonnyCue: 500G (10.3%, 14,272G)
Chuckolator: 436G (9.0%, 436G)
Cryptopsy70: 416G (8.6%, 416G)
AllInBot: 330G (6.8%, 330G)
matt80uy: 200G (4.1%, 1,081G)
maakur_: 100G (2.1%, 3,522G)
h00z0r: 10G (0.2%, 1,125G)

yellow bets:
TheBrett: 4,000G (23.3%, 18,737G)
bringmoreknives: 3,877G (22.6%, 3,877G)
lowlf: 1,111G (6.5%, 4,935G)
BirbBrainsBot: 1,000G (5.8%, 110,559G)
Sairentozon7: 1,000G (5.8%, 74,927G)
Lord_Gwarth: 1,000G (5.8%, 7,105G)
nifboy: 884G (5.2%, 6,131G)
Nizaha: 715G (4.2%, 14,313G)
fenaen: 676G (3.9%, 27,183G)
getthemoneyz: 626G (3.7%, 2,182,524G)
mirapoix: 532G (3.1%, 532G)
old_overholt_: 500G (2.9%, 60,534G)
2b_yorha_b: 400G (2.3%, 20,505G)
ValensEXP_: 200G (1.2%, 4,939G)
heropong: 200G (1.2%, 1,216G)
datadrivenbot: 200G (1.2%, 87,159G)
Lydian_C: 123G (0.7%, 8,113G)
Firesheath: 100G (0.6%, 2,539G)
MoonSugarFiend: 1G (0.0%, 42,528G)
