Final Bets: yellow - 17 bets for 14,055G (71.3%, x0.40); purple - 11 bets for 5,671G (28.7%, x2.48)

yellow bets:
ShintaroNayaka: 5,263G (37.4%, 5,263G)
Mesmaster: 3,000G (21.3%, 16,379G)
fenaen: 1,500G (10.7%, 74,253G)
DustyRelic: 1,000G (7.1%, 17,248G)
aStatue: 600G (4.3%, 600G)
leakimiko: 526G (3.7%, 526G)
Cataphract116: 400G (2.8%, 20,005G)
ungabunga_bot: 311G (2.2%, 286,310G)
Phytik: 284G (2.0%, 284G)
SaintOmerville: 200G (1.4%, 7,411G)
twelfthrootoftwo: 200G (1.4%, 4,372G)
ar_tactic: 200G (1.4%, 30,355G)
Banzem: 196G (1.4%, 196G)
Clydethecamel: 125G (0.9%, 125G)
FreefallSirius: 100G (0.7%, 296G)
datadrivenbot: 100G (0.7%, 10,596G)
DrAntiSocial: 50G (0.4%, 6,099G)

purple bets:
Lydian_C: 1,052G (18.6%, 1,052G)
ColetteMSLP: 1,000G (17.6%, 42,465G)
BirbBrainsBot: 1,000G (17.6%, 114,685G)
Jam643d: 958G (16.9%, 958G)
FoxtrotNovemberCharlie: 526G (9.3%, 526G)
PotionDweller: 500G (8.8%, 5,292G)
AllInBot: 309G (5.4%, 309G)
Jahshine: 100G (1.8%, 5,053G)
CosmicTactician: 100G (1.8%, 6,839G)
CassiePhoenix: 100G (1.8%, 9,006G)
getthemoneyz: 26G (0.5%, 607,939G)
