Final Bets: white - 20 bets for 10,784G (46.6%, x1.15); purple - 24 bets for 12,364G (53.4%, x0.87)

white bets:
MrDiggs49: 1,732G (16.1%, 1,732G)
SkylerBunny: 1,200G (11.1%, 103,585G)
CorpusCav: 1,033G (9.6%, 18,584G)
BirbBrainsBot: 1,000G (9.3%, 13,055G)
Thyrandaal: 1,000G (9.3%, 19,646G)
TheAbandonedShoji: 1,000G (9.3%, 1,500G)
reinoe: 500G (4.6%, 7,419G)
ANFz: 412G (3.8%, 412G)
NicoSavoy: 380G (3.5%, 380G)
OneHundredFists: 328G (3.0%, 328G)
killth3kid: 316G (2.9%, 915G)
Meta_Five: 300G (2.8%, 6,277G)
Rytor: 300G (2.8%, 8,116G)
LeoNightFury: 276G (2.6%, 276G)
benticore: 250G (2.3%, 4,395G)
HASTERIOUS: 207G (1.9%, 4,158G)
Grandlanzer: 200G (1.9%, 13,768G)
MaimTrain: 200G (1.9%, 2,030G)
CosmicTactician: 100G (0.9%, 16,665G)
Jacecore: 50G (0.5%, 1,768G)

purple bets:
metagameface: 4,000G (32.4%, 9,315G)
Digitalsocrates: 1,376G (11.1%, 1,376G)
DeathTaxesAndAnime: 1,086G (8.8%, 1,086G)
chaotic_prodigy: 664G (5.4%, 664G)
bluuuuuuuh: 642G (5.2%, 1,284G)
ColetteMSLP: 640G (5.2%, 640G)
megakim: 500G (4.0%, 5,765G)
gorgewall: 407G (3.3%, 407G)
CT_5_Holy: 386G (3.1%, 386G)
wyonearth: 300G (2.4%, 1,297G)
Xeldena: 298G (2.4%, 298G)
Miku_Shikhu: 200G (1.6%, 5,033G)
Evewho: 200G (1.6%, 2,248G)
Angelomortis: 200G (1.6%, 619G)
gogofromtogo: 200G (1.6%, 6,350G)
regios91: 200G (1.6%, 1,796G)
nothclif: 200G (1.6%, 1,074G)
Flameatron: 200G (1.6%, 8,907G)
cogniv0r3: 200G (1.6%, 3,774G)
phoenix6107: 114G (0.9%, 114G)
Firesheath: 101G (0.8%, 4,067G)
datadrivenbot: 100G (0.8%, 33,513G)
s_o_b_e_q: 100G (0.8%, 1,678G)
getthemoneyz: 50G (0.4%, 805,532G)
