Final Bets: green - 15 bets for 14,742G (54.5%, x0.83); yellow - 16 bets for 12,283G (45.5%, x1.20)

green bets:
flacococo: 6,399G (43.4%, 6,399G)
ACSpree: 1,573G (10.7%, 3,147G)
Zeroroute: 1,485G (10.1%, 1,485G)
BirbBrainsBot: 1,000G (6.8%, 86,043G)
Sairentozon7: 1,000G (6.8%, 10,669G)
killth3kid: 700G (4.7%, 91,490G)
solomongrundy85: 600G (4.1%, 4,434G)
roqqqpsi: 526G (3.6%, 4,782G)
Treafa: 356G (2.4%, 712G)
TasisSai: 300G (2.0%, 2,615G)
getthemoneyz: 202G (1.4%, 1,270,693G)
gorgewall: 201G (1.4%, 5,030G)
Mysteriousdewd: 200G (1.4%, 5,235G)
SephDarkheart: 100G (0.7%, 17,786G)
WillFitzgerald: 100G (0.7%, 4,416G)

yellow bets:
reinoe: 3,000G (24.4%, 35,644G)
Error72: 2,186G (17.8%, 4,287G)
NIghtdew14: 1,818G (14.8%, 1,818G)
dogsandcatsand: 1,016G (8.3%, 1,016G)
NicoSavoy: 1,000G (8.1%, 187,079G)
Laserman1000: 800G (6.5%, 34,600G)
furrytomahawkk: 716G (5.8%, 716G)
Lythe_Caraker: 500G (4.1%, 148,923G)
Shalloween: 300G (2.4%, 48,894G)
superdevon1: 236G (1.9%, 4,739G)
Evewho: 200G (1.6%, 4,399G)
datadrivenbot: 200G (1.6%, 63,194G)
extinctrational: 200G (1.6%, 3,700G)
DustBirdEX: 100G (0.8%, 2,276G)
nhammen: 10G (0.1%, 5,889G)
tanarusasamiya: 1G (0.0%, 1,137G)
