Final Bets: brown - 11 bets for 17,042G (66.8%, x0.50); champion - 13 bets for 8,452G (33.2%, x2.02)

brown bets:
Shalloween: 13,663G (80.2%, 27,326G)
douchetron: 1,760G (10.3%, 3,452G)
KyleWonToLiveForever: 404G (2.4%, 404G)
Lythe_Caraker: 250G (1.5%, 148,266G)
gorgewall: 201G (1.2%, 8,082G)
mrpickins: 200G (1.2%, 5,070G)
datadrivenbot: 200G (1.2%, 46,522G)
mirapoix: 100G (0.6%, 43,899G)
Heroebal: 100G (0.6%, 4,119G)
poGpopE: 100G (0.6%, 11,158G)
Hasterious: 64G (0.4%, 6,465G)

champion bets:
kahjeethaswares: 2,000G (23.7%, 12,552G)
roofiepops: 1,551G (18.4%, 2,377G)
BirbBrainsBot: 1,000G (11.8%, 117,946G)
AllInBot: 623G (7.4%, 623G)
nebukin: 623G (7.4%, 623G)
solomongrundy85: 600G (7.1%, 2,188G)
vorap: 500G (5.9%, 129,668G)
getthemoneyz: 414G (4.9%, 1,402,038G)
superdevon1: 401G (4.7%, 40,198G)
Hirameki85: 240G (2.8%, 6,854G)
dtrain332: 200G (2.4%, 4,600G)
Treafa: 200G (2.4%, 2,275G)
Sans_from_Snowdin: 100G (1.2%, 21,956G)
