Final Bets: blue - 8 bets for 6,616G (33.8%, x1.96); champion - 20 bets for 12,974G (66.2%, x0.51)

blue bets:
KyleWonToLiveForever: 2,792G (42.2%, 2,792G)
TheChainNerd: 1,000G (15.1%, 32,546G)
killth3kid: 1,000G (15.1%, 96,113G)
Cryptopsy70: 600G (9.1%, 21,193G)
MagicBottle: 516G (7.8%, 17,116G)
Shalloween: 400G (6.0%, 63,914G)
randgridr: 230G (3.5%, 2,364G)
danielrogercardoso: 78G (1.2%, 478G)

champion bets:
Mysteriousdewd: 3,684G (28.4%, 3,684G)
DavenIII: 2,000G (15.4%, 2,761G)
fenaen: 1,200G (9.2%, 20,623G)
dogsandcatsand: 1,000G (7.7%, 7,039G)
BirbBrainsBot: 1,000G (7.7%, 153,972G)
HaateXIII: 676G (5.2%, 676G)
getthemoneyz: 594G (4.6%, 1,226,234G)
SephDarkheart: 404G (3.1%, 404G)
porkchop5158: 365G (2.8%, 365G)
CapnChaos12: 300G (2.3%, 5,289G)
TasisSai: 300G (2.3%, 588G)
ar_tactic: 250G (1.9%, 67,348G)
safira125: 250G (1.9%, 5,844G)
gorgewall: 201G (1.5%, 16,451G)
datadrivenbot: 200G (1.5%, 60,808G)
DeathTaxesAndAnime: 150G (1.2%, 1,459G)
CosmicTactician: 100G (0.8%, 46,115G)
letdowncity: 100G (0.8%, 7,764G)
raenrond: 100G (0.8%, 1,669G)
Kellios11: 100G (0.8%, 39,798G)
