Final Bets: brown - 15 bets for 16,383G (41.2%, x1.43); champion - 29 bets for 23,409G (58.8%, x0.70)

brown bets:
SirCherish: 3,000G (18.3%, 13,065G)
killth3kid: 2,000G (12.2%, 46,802G)
theNGUYENNER: 2,000G (12.2%, 5,475G)
NicoSavoy: 2,000G (12.2%, 18,935G)
leakimiko: 1,500G (9.2%, 56,198G)
powergems: 1,234G (7.5%, 5,630G)
mikesk1: 1,000G (6.1%, 5,912G)
cupholderr: 1,000G (6.1%, 55,640G)
ApplesauceBoss: 831G (5.1%, 831G)
superdevon1: 732G (4.5%, 7,326G)
sSwing: 586G (3.6%, 586G)
Miyokari: 200G (1.2%, 4,471G)
Firesheath: 100G (0.6%, 21,355G)
OneHundredFists: 100G (0.6%, 3,091G)
madman66666: 100G (0.6%, 4,253G)

champion bets:
reinoe: 3,107G (13.3%, 3,107G)
R_Raynos: 3,000G (12.8%, 49,118G)
manc0_: 2,000G (8.5%, 10,973G)
Mesmaster: 2,000G (8.5%, 103,981G)
Evewho: 1,197G (5.1%, 2,349G)
hisuikohaku: 1,100G (4.7%, 1,100G)
CorpusCav: 1,000G (4.3%, 17,870G)
EnemyController: 1,000G (4.3%, 229,986G)
ungabunga_bot: 1,000G (4.3%, 479,623G)
HaateXIII: 953G (4.1%, 953G)
Bioticism: 951G (4.1%, 951G)
getthemoneyz: 770G (3.3%, 672,737G)
Laserman1000: 682G (2.9%, 12,882G)
BirbBrainsBot: 660G (2.8%, 660G)
Dymntd: 500G (2.1%, 9,848G)
Pie108: 500G (2.1%, 11,017G)
yetichamp: 500G (2.1%, 904G)
Yasmosis: 447G (1.9%, 447G)
waterwatereverywhere: 444G (1.9%, 444G)
Ant_ihistamine: 256G (1.1%, 256G)
benticore: 240G (1.0%, 240G)
4shcrows: 204G (0.9%, 204G)
Communis: 200G (0.9%, 1,866G)
Jaritras: 198G (0.8%, 898G)
CosmicTactician: 100G (0.4%, 9,992G)
otakutaylor: 100G (0.4%, 100G)
datadrivenbot: 100G (0.4%, 13,853G)
MercurialForge: 100G (0.4%, 100G)
JIDkomu: 100G (0.4%, 8,548G)
