Final Bets: green - 5 bets for 6,695G (35.4%, x1.83); yellow - 21 bets for 12,224G (64.6%, x0.55)

green bets:
BoneMiser: 4,661G (69.6%, 9,323G)
Arcblazer23: 1,534G (22.9%, 3,069G)
Palladigm: 200G (3.0%, 3,901G)
reinoe: 200G (3.0%, 3,870G)
Jeeboheebo: 100G (1.5%, 9,778G)

yellow bets:
Estan_AD: 1,395G (11.4%, 2,790G)
Dexsana: 1,164G (9.5%, 1,164G)
BirbBrainsBot: 1,000G (8.2%, 78,895G)
Mesmaster: 1,000G (8.2%, 52,669G)
NovaKnight21: 1,000G (8.2%, 8,381G)
wooyuji: 1,000G (8.2%, 4,057G)
TheMM42: 1,000G (8.2%, 2,294G)
ungabunga_bot: 931G (7.6%, 510,115G)
Firesheath: 815G (6.7%, 815G)
otakutaylor: 572G (4.7%, 572G)
R_Raynos: 560G (4.6%, 560G)
getthemoneyz: 322G (2.6%, 678,760G)
twelfthrootoftwo: 300G (2.5%, 8,894G)
CorpusCav: 276G (2.3%, 8,276G)
byrdturbo: 269G (2.2%, 12,556G)
Lawndough: 116G (0.9%, 116G)
ChrisWado: 104G (0.9%, 104G)
ko2q: 100G (0.8%, 3,910G)
victoriolue: 100G (0.8%, 4,283G)
datadrivenbot: 100G (0.8%, 17,899G)
MalakiGenesys: 100G (0.8%, 783G)
