Final Bets: green - 23 bets for 26,784G (74.6%, x0.34); champion - 22 bets for 9,125G (25.4%, x2.94)

green bets:
LDSkinny: 6,271G (23.4%, 6,271G)
Pie108: 5,000G (18.7%, 146,122G)
coralreeferz: 4,500G (16.8%, 12,508G)
DeathTaxesAndAnime: 1,622G (6.1%, 3,181G)
roofiepops: 1,200G (4.5%, 15,978G)
red__lancer: 1,000G (3.7%, 31,729G)
CorpusCav: 1,000G (3.7%, 30,529G)
JumbocactuarX27: 1,000G (3.7%, 3,678G)
Laserman1000: 800G (3.0%, 84,600G)
sunderous: 538G (2.0%, 538G)
Nizaha: 501G (1.9%, 7,335G)
ForagerCats: 500G (1.9%, 37,374G)
kaydinv: 500G (1.9%, 1,706G)
CoderCalamity: 432G (1.6%, 1,443G)
mpghappiness: 382G (1.4%, 382G)
ungabunga_bot: 354G (1.3%, 332,757G)
Duckshut: 300G (1.1%, 837G)
HorusTaurus: 260G (1.0%, 260G)
Eyepoor_: 224G (0.8%, 224G)
jwchapm: 100G (0.4%, 131G)
datadrivenbot: 100G (0.4%, 14,097G)
lifeguard_dan: 100G (0.4%, 1,295G)
Firesheath: 100G (0.4%, 12,453G)

champion bets:
Mtueni: 2,000G (21.9%, 232,420G)
BirbBrainsBot: 1,000G (11.0%, 2,736G)
ikebr: 749G (8.2%, 749G)
reinoe: 600G (6.6%, 600G)
Shalloween: 580G (6.4%, 580G)
vorap: 500G (5.5%, 29,960G)
nedryerson01: 500G (5.5%, 7,039G)
ZephyrTempest: 456G (5.0%, 2,543G)
EnemyController: 400G (4.4%, 175,242G)
Cryptopsy70: 388G (4.3%, 34,265G)
getthemoneyz: 322G (3.5%, 609,657G)
FNCardascia_: 288G (3.2%, 288G)
klonoa331: 240G (2.6%, 240G)
WrathfulRemy: 232G (2.5%, 232G)
old_overholt_: 200G (2.2%, 2,104G)
belife42: 136G (1.5%, 136G)
RestIessNight: 120G (1.3%, 120G)
karmakamikaze: 104G (1.1%, 104G)
nifboy: 100G (1.1%, 4,286G)
mirapoix: 100G (1.1%, 3,625G)
SarrgeQc: 100G (1.1%, 3,543G)
DrAntiSocial: 10G (0.1%, 8,444G)
