Final Bets: blue - 16 bets for 18,955G (60.1%, x0.66); green - 23 bets for 12,583G (39.9%, x1.51)

blue bets:
z32o: 9,430G (49.7%, 9,430G)
Shakarak: 2,000G (10.6%, 10,895G)
leakimiko: 1,549G (8.2%, 51,660G)
Lydian_C: 1,377G (7.3%, 1,377G)
ko2q: 998G (5.3%, 998G)
Zmanwise: 812G (4.3%, 1,625G)
ELzukkor: 742G (3.9%, 1,485G)
sinnyil2: 580G (3.1%, 580G)
helpimabug: 500G (2.6%, 1,263G)
UmaiJam: 247G (1.3%, 2,470G)
KasugaiRoastedPeas: 200G (1.1%, 32,705G)
DonCardenio: 120G (0.6%, 120G)
Basmal: 100G (0.5%, 18,048G)
RezzaDV: 100G (0.5%, 1,048G)
SeedSC: 100G (0.5%, 162,950G)
BuffaloCrunch: 100G (0.5%, 15,516G)

green bets:
DeathTaxesAndAnime: 2,550G (20.3%, 5,056G)
SkylerBunny: 2,000G (15.9%, 72,252G)
BirbBrainsBot: 1,000G (7.9%, 16,450G)
bad1dea: 1,000G (7.9%, 256,546G)
inzo_bettingbot: 885G (7.0%, 22,135G)
regios91: 667G (5.3%, 667G)
Skarthe: 500G (4.0%, 6,212G)
JustSuperish: 500G (4.0%, 3,530G)
nomoment: 500G (4.0%, 17,405G)
RurouniGeo: 500G (4.0%, 5,370G)
SpaZmodeus: 333G (2.6%, 4,412G)
Orerries: 324G (2.6%, 9,528G)
TheRobbieRobster: 318G (2.5%, 318G)
kingchadking: 316G (2.5%, 316G)
getthemoneyz: 274G (2.2%, 400,414G)
reverv: 200G (1.6%, 6,572G)
Conome: 116G (0.9%, 116G)
ApplesauceBoss: 100G (0.8%, 2,395G)
Oshimi12: 100G (0.8%, 874G)
InOzWeTrust: 100G (0.8%, 1,226G)
Kraisor: 100G (0.8%, 1,304G)
datadrivenbot: 100G (0.8%, 15,947G)
chronoxtrigger: 100G (0.8%, 4,914G)
