Final Bets: red - 18 bets for 16,413G (29.3%, x2.41); blue - 34 bets for 39,575G (70.7%, x0.41)

red bets:
Aldrammech: 5,000G (30.5%, 83,613G)
Zbgs: 3,000G (18.3%, 60,525G)
Gelwain: 3,000G (18.3%, 3,820G)
lowlf: 1,202G (7.3%, 49,510G)
edgehead62888: 1,000G (6.1%, 4,927G)
Lordminsc: 701G (4.3%, 1,402G)
ANFz: 500G (3.0%, 12,935G)
DavenIII: 500G (3.0%, 2,680G)
Chrysaors: 386G (2.4%, 38,686G)
midori_ribbon: 224G (1.4%, 224G)
SQUiDSQUARKLIN: 200G (1.2%, 1,391G)
BadErosion: 200G (1.2%, 7,050G)
lastly: 100G (0.6%, 781G)
Nunissimo: 100G (0.6%, 1,000G)
Avin_Chaos: 100G (0.6%, 15,100G)
Lythe_Caraker: 100G (0.6%, 113,593G)
tmo50x: 50G (0.3%, 6,438G)
DixTrix: 50G (0.3%, 121G)

blue bets:
DeathTaxesAndAnime: 21,210G (53.6%, 40,590G)
Mesmaster: 3,000G (7.6%, 29,233G)
sinnyil2: 2,834G (7.2%, 2,834G)
fenaen: 1,500G (3.8%, 60,411G)
BirbBrainsBot: 1,000G (2.5%, 80,166G)
JumbocactuarX27: 1,000G (2.5%, 11,695G)
nifboy: 917G (2.3%, 917G)
Laserman1000: 823G (2.1%, 60,823G)
waterwatereverywhere: 673G (1.7%, 673G)
luminarii: 520G (1.3%, 20,204G)
SomeCallMeGON: 500G (1.3%, 5,487G)
killth3kid: 500G (1.3%, 38,980G)
Shalloween: 500G (1.3%, 26,801G)
CosmicTactician: 500G (1.3%, 4,325G)
Evewho: 500G (1.3%, 5,127G)
StreamraY: 400G (1.0%, 1,452G)
trigger15: 350G (0.9%, 1,332G)
vorap: 300G (0.8%, 15,995G)
rjA0zcOQ96: 300G (0.8%, 36,727G)
ungabunga_bot: 248G (0.6%, 279,618G)
PetitFoulard: 240G (0.6%, 240G)
richardserious: 220G (0.6%, 220G)
AllInBot: 215G (0.5%, 215G)
ACSpree: 212G (0.5%, 212G)
DrAntiSocial: 200G (0.5%, 4,627G)
StormclawGaming: 200G (0.5%, 16,500G)
ZephyrTempest: 101G (0.3%, 3,256G)
Jahshine: 100G (0.3%, 1,216G)
Firesheath: 100G (0.3%, 7,131G)
cgMcWhiskers: 100G (0.3%, 3,230G)
Bongomon7: 100G (0.3%, 3,618G)
datadrivenbot: 100G (0.3%, 8,662G)
HorusTaurus: 100G (0.3%, 9,366G)
daveb_: 12G (0.0%, 845G)
