Final Bets: white - 11 bets for 4,124G (39.4%, x1.54); black - 11 bets for 6,331G (60.6%, x0.65)

white bets:
reinoe: 1,000G (24.2%, 122,201G)
Zagorsek: 667G (16.2%, 1,335G)
killth3kid: 524G (12.7%, 4,705G)
fenaen: 500G (12.1%, 1,248G)
SephDarkheart: 384G (9.3%, 6,840G)
Mudrockk: 276G (6.7%, 276G)
roqqqpsi: 251G (6.1%, 1,676G)
datadrivenbot: 200G (4.8%, 40,941G)
Lydian_C: 121G (2.9%, 23,034G)
douchetron: 101G (2.4%, 2,662G)
Tupperwarez: 100G (2.4%, 900G)

black bets:
E_Ballard: 3,548G (56.0%, 3,548G)
letdowncity: 637G (10.1%, 637G)
BirbBrainsBot: 565G (8.9%, 113,297G)
Netmonmatt: 400G (6.3%, 4,861G)
Miku_Shikhu: 344G (5.4%, 344G)
AllInBot: 287G (4.5%, 287G)
dinin991: 168G (2.7%, 168G)
roofiepops: 111G (1.8%, 1,064G)
ArlanKels: 107G (1.7%, 2,691G)
LordMaxoss: 100G (1.6%, 6,031G)
getthemoneyz: 64G (1.0%, 1,405,518G)
