Final Bets: red - 25 bets for 23,590G (72.8%, x0.37); blue - 12 bets for 8,814G (27.2%, x2.68)

red bets:
DLJuggernaut: 3,889G (16.5%, 7,779G)
killth3kid: 2,991G (12.7%, 2,991G)
Evewho: 2,714G (11.5%, 5,323G)
NicoSavoy: 2,000G (8.5%, 9,498G)
Mesmaster: 2,000G (8.5%, 21,394G)
solomongrundy85: 1,927G (8.2%, 1,927G)
BirbBrainsBot: 1,000G (4.2%, 94,498G)
prince_rogers_nelson_: 1,000G (4.2%, 19,031G)
dogsandcatsand: 1,000G (4.2%, 20,068G)
superdevon1: 768G (3.3%, 2,196G)
Laserman1000: 500G (2.1%, 23,000G)
Digitalsocrates: 500G (2.1%, 18,924G)
ExecutedGiraffe: 452G (1.9%, 452G)
Monopool: 412G (1.7%, 412G)
Rinhander: 360G (1.5%, 360G)
DAC169: 300G (1.3%, 855G)
HaychDub: 300G (1.3%, 20,339G)
HuffFlex: 300G (1.3%, 1,754G)
JLinkletter: 280G (1.2%, 280G)
getthemoneyz: 256G (1.1%, 898,852G)
LAGBOT30000: 233G (1.0%, 2,330G)
danteangel7psn: 108G (0.5%, 108G)
AllInBot: 100G (0.4%, 100G)
datadrivenbot: 100G (0.4%, 35,771G)
alecttox: 100G (0.4%, 33,200G)

blue bets:
DeathTaxesAndAnime: 4,263G (48.4%, 8,360G)
SkylerBunny: 1,100G (12.5%, 89,396G)
Lydian_C: 746G (8.5%, 746G)
Rislyeu: 592G (6.7%, 592G)
OneHundredFists: 500G (5.7%, 55,041G)
rednecknazgul: 368G (4.2%, 368G)
pandasforsale: 340G (3.9%, 340G)
Nohurty: 260G (2.9%, 260G)
serperemagus: 244G (2.8%, 244G)
GladiatorLupe: 200G (2.3%, 1,715G)
gorgewall: 101G (1.1%, 8,143G)
HRak050: 100G (1.1%, 375G)
