Final Bets: yellow - 17 bets for 18,263G (56.9%, x0.76); brown - 17 bets for 13,811G (43.1%, x1.32)

yellow bets:
DLJuggernaut: 4,158G (22.8%, 20,793G)
killth3kid: 2,485G (13.6%, 2,485G)
Rislyeu: 1,514G (8.3%, 1,514G)
Lydian_C: 1,449G (7.9%, 2,843G)
NovaKnight21: 1,105G (6.1%, 1,105G)
NicoSavoy: 1,000G (5.5%, 7,249G)
Mesmaster: 1,000G (5.5%, 23,783G)
OneHundredFists: 1,000G (5.5%, 54,440G)
skillomono: 870G (4.8%, 870G)
Evewho: 648G (3.5%, 648G)
JLinkletter: 639G (3.5%, 639G)
Phi_Sig: 555G (3.0%, 8,987G)
CapnChaos12: 500G (2.7%, 12,807G)
Monopool: 500G (2.7%, 1,081G)
prince_rogers_nelson_: 448G (2.5%, 448G)
rednecknazgul: 292G (1.6%, 292G)
datadrivenbot: 100G (0.5%, 35,408G)

brown bets:
gooseyourself: 4,207G (30.5%, 8,415G)
SkylerBunny: 3,000G (21.7%, 99,632G)
Digitalsocrates: 1,005G (7.3%, 10,055G)
BirbBrainsBot: 1,000G (7.2%, 100,998G)
ExecutedGiraffe: 859G (6.2%, 859G)
superdevon1: 603G (4.4%, 5,031G)
abaven_alistair: 522G (3.8%, 522G)
CorpusCav: 412G (3.0%, 412G)
HaychDub: 400G (2.9%, 24,748G)
Sairentozon7: 332G (2.4%, 332G)
roofiepops: 300G (2.2%, 300G)
AllInBot: 256G (1.9%, 256G)
serperemagus: 244G (1.8%, 244G)
mr_kindaro: 204G (1.5%, 204G)
gorgewall: 201G (1.5%, 7,925G)
GladiatorLupe: 200G (1.4%, 1,945G)
getthemoneyz: 66G (0.5%, 900,442G)
