Final Bets: red - 24 bets for 15,478G (67.4%, x0.48); blue - 15 bets for 7,477G (32.6%, x2.07)

red bets:
toka222: 3,000G (19.4%, 103,305G)
Zbgs: 2,000G (12.9%, 36,148G)
SeniorBunk: 1,503G (9.7%, 12,072G)
roofiepops: 1,400G (9.0%, 7,055G)
Grandlanzer: 1,000G (6.5%, 7,766G)
gogofromtogo: 1,000G (6.5%, 11,464G)
Oobs56: 1,000G (6.5%, 6,372G)
BirbBrainsBot: 793G (5.1%, 64,846G)
gorgewall: 701G (4.5%, 19,815G)
Firesheath: 591G (3.8%, 591G)
LeoNightFury: 390G (2.5%, 390G)
DLJuggernaut: 350G (2.3%, 7,315G)
bokurakira: 300G (1.9%, 3,347G)
DeathTaxesAndAnime: 300G (1.9%, 8,035G)
benticore: 250G (1.6%, 2,589G)
Cuchulame: 150G (1.0%, 150G)
AllInBot: 100G (0.6%, 100G)
cloud92684: 100G (0.6%, 16,942G)
Heroebal: 100G (0.6%, 4,454G)
CorpusCav: 100G (0.6%, 6,791G)
datadrivenbot: 100G (0.6%, 28,729G)
ExTerminator48: 100G (0.6%, 1,077G)
ANFz: 100G (0.6%, 6,140G)
Sharosa: 50G (0.3%, 1,101G)

blue bets:
vorap: 1,000G (13.4%, 102,248G)
metagameface: 1,000G (13.4%, 12,739G)
pandasforsale: 976G (13.1%, 976G)
getthemoneyz: 660G (8.8%, 758,875G)
reinoe: 600G (8.0%, 50,300G)
Nizaha: 501G (6.7%, 9,225G)
LivingHitokiri: 500G (6.7%, 15,682G)
Baron_von_Scrub: 474G (6.3%, 28,726G)
Rislyeu: 436G (5.8%, 436G)
Digitalsocrates: 324G (4.3%, 324G)
E_Ballard: 300G (4.0%, 300G)
sSwing: 300G (4.0%, 300G)
Arcblazer23: 156G (2.1%, 156G)
aidanlucky7: 150G (2.0%, 156G)
RunicMagus: 100G (1.3%, 32,759G)
