Final Bets: green - 20 bets for 9,482G (35.9%, x1.78); yellow - 22 bets for 16,920G (64.1%, x0.56)

green bets:
NovaKnight21: 1,741G (18.4%, 3,483G)
bokurakira: 1,200G (12.7%, 3,492G)
gogofromtogo: 1,000G (10.5%, 11,947G)
BirbBrainsBot: 836G (8.8%, 65,229G)
DLJuggernaut: 600G (6.3%, 7,484G)
Jinxzers: 500G (5.3%, 13,279G)
Billybones5150: 500G (5.3%, 23,595G)
EnemyController: 500G (5.3%, 437,286G)
Baron_von_Scrub: 474G (5.0%, 28,252G)
gorgewall: 401G (4.2%, 20,154G)
Xcessive30: 400G (4.2%, 2,239G)
Grandlanzer: 300G (3.2%, 8,249G)
soren_of_tyto: 278G (2.9%, 278G)
CrownOfHorns: 148G (1.6%, 148G)
aidanlucky7: 104G (1.1%, 104G)
cloud92684: 100G (1.1%, 16,990G)
Heroebal: 100G (1.1%, 4,502G)
Flameatron: 100G (1.1%, 1,176G)
Monopool: 100G (1.1%, 3,443G)
datadrivenbot: 100G (1.1%, 28,777G)

yellow bets:
reinoe: 3,000G (17.7%, 49,700G)
toka222: 3,000G (17.7%, 104,754G)
Zbgs: 2,000G (11.8%, 37,114G)
lowlf: 1,116G (6.6%, 1,116G)
RunicMagus: 1,100G (6.5%, 32,659G)
NicoSavoy: 1,000G (5.9%, 20,509G)
Mesmaster: 1,000G (5.9%, 95,104G)
getthemoneyz: 844G (5.0%, 758,215G)
LivingHitokiri: 500G (3.0%, 15,182G)
Laserman1000: 500G (3.0%, 22,200G)
Oobs56: 500G (3.0%, 6,855G)
Stealthtoucan: 460G (2.7%, 9,210G)
Digitalsocrates: 324G (1.9%, 324G)
sSwing: 300G (1.8%, 300G)
E_Ballard: 300G (1.8%, 300G)
Cuchulame: 222G (1.3%, 222G)
maleblackfiora: 200G (1.2%, 445G)
Arcblazer23: 156G (0.9%, 156G)
AllInBot: 148G (0.9%, 148G)
CorpusCav: 100G (0.6%, 6,839G)
DeathTaxesAndAnime: 100G (0.6%, 8,180G)
Sharosa: 50G (0.3%, 1,125G)
