Final Bets: white - 17 bets for 10,989G (35.9%, x1.79); brown - 21 bets for 19,625G (64.1%, x0.56)

white bets:
metagameface: 2,000G (18.2%, 14,493G)
Firesheath: 1,376G (12.5%, 1,376G)
LivingHitokiri: 1,000G (9.1%, 28,026G)
BirbBrainsBot: 1,000G (9.1%, 64,055G)
gogofromtogo: 1,000G (9.1%, 9,755G)
NicoSavoy: 1,000G (9.1%, 23,259G)
LeoNightFury: 760G (6.9%, 760G)
cloud92684: 500G (4.6%, 17,374G)
bokurakira: 498G (4.5%, 3,325G)
Stealthtoucan: 474G (4.3%, 9,495G)
getthemoneyz: 380G (3.5%, 758,467G)
benticore: 300G (2.7%, 3,160G)
Xcessive30: 200G (1.8%, 2,181G)
gr8keeper: 200G (1.8%, 1,962G)
gorgewall: 101G (0.9%, 19,536G)
Monopool: 100G (0.9%, 3,843G)
Freezerman47: 100G (0.9%, 233G)

brown bets:
omegasuspekt: 5,259G (26.8%, 10,518G)
NovaKnight21: 3,637G (18.5%, 3,637G)
kaelsun: 2,422G (12.3%, 2,422G)
EnemyController: 2,000G (10.2%, 435,920G)
pandasforsale: 1,285G (6.5%, 1,285G)
Oobs56: 1,000G (5.1%, 5,635G)
E_Ballard: 968G (4.9%, 968G)
Rislyeu: 940G (4.8%, 940G)
Lionhermit: 344G (1.8%, 344G)
Flameatron: 300G (1.5%, 876G)
Arcblazer23: 300G (1.5%, 660G)
Rytor: 200G (1.0%, 5,966G)
ExTerminator48: 150G (0.8%, 975G)
soren_of_tyto: 116G (0.6%, 116G)
h00z0r: 104G (0.5%, 104G)
AllInBot: 100G (0.5%, 100G)
Cuchulame: 100G (0.5%, 100G)
Sharosa: 100G (0.5%, 1,553G)
datadrivenbot: 100G (0.5%, 28,519G)
poulol: 100G (0.5%, 5,446G)
maleblackfiora: 100G (0.5%, 477G)
