Final Bets: yellow - 10 bets for 8,648G (38.9%, x1.57); black - 20 bets for 13,563G (61.1%, x0.64)

yellow bets:
DeathTaxesAndAnime: 4,798G (55.5%, 9,408G)
killth3kid: 720G (8.3%, 720G)
Aldrammech: 693G (8.0%, 693G)
TasisSai: 500G (5.8%, 8,904G)
amsans1247: 500G (5.8%, 4,074G)
butterbelljedi: 492G (5.7%, 492G)
DesertWooder: 350G (4.0%, 2,875G)
DouglasDragonThePoet: 200G (2.3%, 3,147G)
LordTomS: 200G (2.3%, 200G)
JonnyCue: 195G (2.3%, 7,195G)

black bets:
nhammen: 5,000G (36.9%, 82,521G)
fenaen: 1,091G (8.0%, 1,091G)
BirbBrainsBot: 1,000G (7.4%, 82,821G)
dogsandcatsand: 1,000G (7.4%, 227,619G)
Nizaha: 684G (5.0%, 23,119G)
TheMurkGnome: 615G (4.5%, 615G)
coralreeferz: 550G (4.1%, 14,012G)
Lemonjohns: 522G (3.8%, 522G)
latebit: 514G (3.8%, 514G)
VolgraTheMoose: 501G (3.7%, 2,508G)
Mushufasa_: 500G (3.7%, 5,884G)
getthemoneyz: 262G (1.9%, 1,531,484G)
AllInBot: 229G (1.7%, 229G)
Laserman1000: 229G (1.7%, 1,729G)
Finewax: 200G (1.5%, 1,407G)
datadrivenbot: 200G (1.5%, 51,491G)
holdenmagronik: 150G (1.1%, 1,343G)
Gunz232323: 116G (0.9%, 116G)
Firesheath: 100G (0.7%, 24,922G)
DHaveWord: 100G (0.7%, 2,445G)
