Final Bets: purple - 15 bets for 28,820G (66.6%, x0.50); brown - 10 bets for 14,437G (33.4%, x2.00)

purple bets:
Aldrammech: 11,659G (40.5%, 11,659G)
E_Ballard: 5,509G (19.1%, 5,509G)
SkylerBunny: 3,000G (10.4%, 90,506G)
Shalloween: 2,000G (6.9%, 17,680G)
Thyrandaal: 1,234G (4.3%, 142,525G)
reinoe: 1,000G (3.5%, 80,936G)
BirbBrainsBot: 1,000G (3.5%, 128,388G)
dogsandcatsand: 1,000G (3.5%, 25,726G)
Wooplestein: 720G (2.5%, 720G)
AlenaZarek: 500G (1.7%, 51,136G)
letdowncity: 480G (1.7%, 15,766G)
roqqqpsi: 243G (0.8%, 256G)
AllInBot: 200G (0.7%, 200G)
TasisSai: 200G (0.7%, 13,669G)
ArlanKels: 75G (0.3%, 1,026G)

brown bets:
Forkmore: 5,976G (41.4%, 5,976G)
Zeroroute: 2,963G (20.5%, 2,963G)
Hasterious: 1,579G (10.9%, 1,579G)
douchetron: 1,089G (7.5%, 1,089G)
DustBirdEX: 1,073G (7.4%, 21,464G)
getthemoneyz: 556G (3.9%, 1,463,300G)
Lyner87: 501G (3.5%, 74,273G)
maximumcrit: 300G (2.1%, 6,755G)
reddwind_: 200G (1.4%, 9,595G)
datadrivenbot: 200G (1.4%, 44,110G)
