Final Bets: blue - 13 bets for 10,791G (51.4%, x0.94); yellow - 13 bets for 10,190G (48.6%, x1.06)

blue bets:
douchetron: 3,263G (30.2%, 3,263G)
SkylerBunny: 2,500G (23.2%, 87,506G)
DustBirdEX: 1,180G (10.9%, 23,606G)
Zbgs: 1,000G (9.3%, 8,208G)
VolgraTheMoose: 888G (8.2%, 888G)
Aldrammech: 556G (5.2%, 556G)
Othatmattkid: 247G (2.3%, 247G)
roqqqpsi: 243G (2.3%, 256G)
Hasterious: 236G (2.2%, 4,735G)
Wooplestein: 228G (2.1%, 228G)
AllInBot: 200G (1.9%, 200G)
datadrivenbot: 200G (1.9%, 44,509G)
ArlanKels: 50G (0.5%, 951G)

yellow bets:
Zeroroute: 1,594G (15.6%, 3,882G)
Shalloween: 1,500G (14.7%, 15,680G)
AlenaZarek: 1,050G (10.3%, 50,636G)
BirbBrainsBot: 1,000G (9.8%, 127,388G)
Forkmore: 1,000G (9.8%, 17,906G)
dogsandcatsand: 1,000G (9.8%, 24,726G)
DeathTaxesAndAnime: 816G (8.0%, 816G)
E_Ballard: 756G (7.4%, 756G)
getthemoneyz: 642G (6.3%, 1,464,410G)
maximumcrit: 300G (2.9%, 7,354G)
MMagnetMan: 232G (2.3%, 232G)
TasisSai: 200G (2.0%, 13,469G)
WillFitzgerald: 100G (1.0%, 10,630G)
