Final Bets: yellow - 18 bets for 16,796G (49.7%, x1.01); black - 11 bets for 17,026G (50.3%, x0.99)

yellow bets:
dogsandcatsand: 5,000G (29.8%, 26,195G)
Thyrandaal: 2,334G (13.9%, 141,291G)
SkylerBunny: 2,000G (11.9%, 85,837G)
Shalloween: 1,400G (8.3%, 20,138G)
Zeroroute: 1,265G (7.5%, 3,306G)
BirbBrainsBot: 1,000G (6.0%, 128,779G)
getthemoneyz: 758G (4.5%, 1,464,930G)
Aldrammech: 746G (4.4%, 746G)
AlenaZarek: 525G (3.1%, 51,997G)
roqqqpsi: 320G (1.9%, 337G)
MMagnetMan: 232G (1.4%, 232G)
Wooplestein: 228G (1.4%, 228G)
Hasterious: 224G (1.3%, 4,499G)
AllInBot: 200G (1.2%, 200G)
datadrivenbot: 200G (1.2%, 44,375G)
neocarbuncle: 160G (1.0%, 160G)
RetroGameCommander: 104G (0.6%, 104G)
WillFitzgerald: 100G (0.6%, 10,536G)

black bets:
DustBirdEX: 10,652G (62.6%, 21,305G)
E_Ballard: 2,075G (12.2%, 2,075G)
NotBalrog: 1,000G (5.9%, 12,192G)
VolgraTheMoose: 888G (5.2%, 888G)
douchetron: 629G (3.7%, 629G)
letdowncity: 480G (2.8%, 15,446G)
Rikrizen: 408G (2.4%, 8,167G)
rednecknazgul: 320G (1.9%, 320G)
Othatmattkid: 224G (1.3%, 224G)
TasisSai: 200G (1.2%, 13,481G)
ArlanKels: 150G (0.9%, 951G)
