Final Bets: black - 15 bets for 10,907G (36.7%, x1.72); champion - 15 bets for 18,791G (63.3%, x0.58)

black bets:
randgridr: 5,649G (51.8%, 11,299G)
NotBalrog: 1,000G (9.2%, 12,178G)
Aldrammech: 560G (5.1%, 560G)
Smashy: 500G (4.6%, 9,448G)
letdowncity: 480G (4.4%, 15,920G)
Othatmattkid: 445G (4.1%, 445G)
Lydian_C: 420G (3.9%, 1,850G)
maximumcrit: 400G (3.7%, 7,372G)
Calajo: 256G (2.3%, 256G)
roqqqpsi: 243G (2.2%, 256G)
ArlanKels: 223G (2.0%, 1,099G)
AllInBot: 200G (1.8%, 200G)
datadrivenbot: 200G (1.8%, 44,175G)
Rikrizen: 171G (1.6%, 8,569G)
neocarbuncle: 160G (1.5%, 160G)

champion bets:
Forkmore: 5,000G (26.6%, 18,965G)
Thyrandaal: 2,345G (12.5%, 138,957G)
Zeroroute: 2,041G (10.9%, 2,041G)
SkylerBunny: 2,000G (10.6%, 83,837G)
Shalloween: 1,400G (7.5%, 18,738G)
DustBirdEX: 1,272G (6.8%, 31,817G)
douchetron: 1,250G (6.7%, 1,250G)
BirbBrainsBot: 1,000G (5.3%, 127,779G)
AlenaZarek: 575G (3.1%, 51,472G)
nekojin: 500G (2.7%, 12,779G)
benticore: 500G (2.7%, 45,876G)
VolgraTheMoose: 376G (2.0%, 1,764G)
Wooplestein: 228G (1.2%, 228G)
TasisSai: 200G (1.1%, 13,678G)
getthemoneyz: 104G (0.6%, 1,464,172G)
