Final Bets: red - 15 bets for 8,985G (45.2%, x1.21); white - 22 bets for 10,899G (54.8%, x0.82)

red bets:
DudeMonkey77: 2,085G (23.2%, 2,085G)
dogsandcatsand: 1,425G (15.9%, 4,320G)
helpimabug: 1,001G (11.1%, 9,455G)
killth3kid: 1,000G (11.1%, 107,402G)
Aldrammech: 908G (10.1%, 908G)
MagicBottle: 504G (5.6%, 16,053G)
moonliquor: 420G (4.7%, 420G)
letdowncity: 368G (4.1%, 6,155G)
TasisSai: 324G (3.6%, 324G)
sososteve: 250G (2.8%, 3,287G)
Lythe_Caraker: 250G (2.8%, 146,113G)
datadrivenbot: 200G (2.2%, 55,867G)
nifboy: 100G (1.1%, 18,962G)
nhammen: 100G (1.1%, 12,314G)
SephDarkheart: 50G (0.6%, 25,330G)

white bets:
UmaiJam: 1,700G (15.6%, 78,902G)
VolgraTheMoose: 1,058G (9.7%, 1,058G)
LDSkinny: 1,000G (9.2%, 44,399G)
BirbBrainsBot: 1,000G (9.2%, 111,470G)
cam_ATS: 999G (9.2%, 48,173G)
Laserman1000: 600G (5.5%, 26,000G)
Nizaha: 528G (4.8%, 3,264G)
reinoe: 500G (4.6%, 54,437G)
opHendoslice: 500G (4.6%, 4,734G)
alterworlds: 445G (4.1%, 445G)
getthemoneyz: 412G (3.8%, 1,209,897G)
SkylerBunny: 412G (3.8%, 412G)
Digitalsocrates: 368G (3.4%, 4,760G)
ColetteMSLP: 300G (2.8%, 5,706G)
timthehoodie: 300G (2.8%, 984G)
gorgewall: 201G (1.8%, 28,213G)
GRRR12: 200G (1.8%, 1,439G)
fluffskull: 100G (0.9%, 2,310G)
danielrogercardoso: 100G (0.9%, 100G)
enkikavlar: 100G (0.9%, 6,189G)
raenrond: 50G (0.5%, 1,083G)
ChubbyBroCast: 26G (0.2%, 268G)
