Final Bets: black - 14 bets for 17,892G (48.9%, x1.05); champion - 17 bets for 18,704G (51.1%, x0.96)

black bets:
VolgraTheMoose: 4,001G (22.4%, 24,756G)
WhiteTigress: 3,000G (16.8%, 9,096G)
sinnyil2: 2,658G (14.9%, 5,316G)
Lord_Burrah: 2,000G (11.2%, 74,000G)
thunderducker: 1,300G (7.3%, 4,872G)
CamelCash007: 1,088G (6.1%, 1,088G)
Zeroroute: 1,001G (5.6%, 3,035G)
SephDarkheart: 1,000G (5.6%, 167,414G)
SkylerBunny: 592G (3.3%, 592G)
Sairentozon7: 444G (2.5%, 444G)
CapnChaos12: 300G (1.7%, 2,819G)
Leonidusx: 208G (1.2%, 208G)
datadrivenbot: 200G (1.1%, 59,345G)
ko2q: 100G (0.6%, 6,416G)

champion bets:
poorest_hobo: 5,873G (31.4%, 78,181G)
NicoSavoy: 4,000G (21.4%, 61,036G)
Thyrandaal: 3,000G (16.0%, 120,148G)
BirbBrainsBot: 1,000G (5.3%, 91,057G)
ruleof5: 1,000G (5.3%, 19,780G)
LDSkinny: 1,000G (5.3%, 17,792G)
getthemoneyz: 602G (3.2%, 1,761,437G)
dogsandcatsand: 456G (2.4%, 456G)
lowlf: 420G (2.2%, 1,940G)
Wonser: 336G (1.8%, 5,384G)
KasugaiRoastedPeas: 222G (1.2%, 7,735G)
Runeseeker22: 220G (1.2%, 1,559G)
CosmicTactician: 200G (1.1%, 44,255G)
HS39: 125G (0.7%, 246G)
AllInBot: 100G (0.5%, 100G)
krombobreaker: 100G (0.5%, 669G)
moonliquor: 50G (0.3%, 63,775G)
