Final Bets: red - 14 bets for 7,951G (31.6%, x2.16); blue - 22 bets for 17,198G (68.4%, x0.46)

red bets:
nifboy: 1,000G (12.6%, 6,670G)
thefyeman: 1,000G (12.6%, 18,559G)
Estan_AD: 824G (10.4%, 824G)
Jeeboheebo: 714G (9.0%, 714G)
Lali_Lulelo: 711G (8.9%, 711G)
Laserman1000: 669G (8.4%, 6,669G)
E_Ballard: 600G (7.5%, 600G)
DeathTaxesAndAnime: 549G (6.9%, 549G)
ColetteMSLP: 500G (6.3%, 31,868G)
NovaKnight21: 484G (6.1%, 484G)
sinnyil2: 400G (5.0%, 12,891G)
RoboticNomad: 200G (2.5%, 3,604G)
duckfist: 200G (2.5%, 3,379G)
foofermoofer: 100G (1.3%, 2,778G)

blue bets:
reinoe: 3,000G (17.4%, 22,905G)
killth3kid: 2,000G (11.6%, 70,791G)
Mesmaster: 2,000G (11.6%, 96,013G)
Evewho: 1,350G (7.8%, 1,350G)
mirapoix: 1,177G (6.8%, 1,177G)
Meta_Five: 1,000G (5.8%, 3,157G)
volgrathemoose: 1,000G (5.8%, 8,043G)
HaateXIII: 863G (5.0%, 863G)
SkylerBunny: 800G (4.7%, 56,671G)
mannequ1n: 584G (3.4%, 584G)
LeepingJJ: 512G (3.0%, 512G)
SQUiDSQUARKLIN: 500G (2.9%, 3,984G)
Baron_von_Scrub: 474G (2.8%, 4,590G)
joewcarson: 416G (2.4%, 416G)
Tekigi: 326G (1.9%, 326G)
Kyune: 296G (1.7%, 296G)
turquoise_mage: 200G (1.2%, 990G)
jwchapm: 200G (1.2%, 724G)
Edobean: 200G (1.2%, 800G)
CosmicTactician: 100G (0.6%, 12,572G)
rjA0zcOQ96: 100G (0.6%, 12,172G)
datadrivenbot: 100G (0.6%, 11,602G)
