Final Bets: red - 20 bets for 6,807G (32.0%, x2.12); blue - 19 bets for 14,461G (68.0%, x0.47)

red bets:
MagicBottle: 1,000G (14.7%, 3,676G)
OneHundredFists: 616G (9.0%, 616G)
ChaoreLance: 600G (8.8%, 600G)
BoneMiser: 500G (7.3%, 500G)
Rytor: 500G (7.3%, 1,804G)
vorap: 500G (7.3%, 147,096G)
Bilabrin: 446G (6.6%, 893G)
killth3kid: 444G (6.5%, 5,588G)
roofiepops: 408G (6.0%, 408G)
superdevon1: 336G (4.9%, 336G)
CosmicTactician: 300G (4.4%, 26,646G)
RampagingRobot: 300G (4.4%, 5,632G)
BirbBrainsBot: 128G (1.9%, 156,284G)
Lydian_C: 121G (1.8%, 165,354G)
null_sett: 104G (1.5%, 104G)
zah69: 104G (1.5%, 104G)
sandball: 100G (1.5%, 1,367G)
ANFz: 100G (1.5%, 12,505G)
datadrivenbot: 100G (1.5%, 46,475G)
Sans_from_Snowdin: 100G (1.5%, 28,712G)

blue bets:
EnemyController: 2,000G (13.8%, 1,381,171G)
Rilgon: 1,838G (12.7%, 1,838G)
SkylerBunny: 1,700G (11.8%, 504,620G)
cam_ATS: 1,500G (10.4%, 28,094G)
Forkmore: 1,092G (7.6%, 36,418G)
Zbgs: 1,000G (6.9%, 16,535G)
HaateXIII: 616G (4.3%, 616G)
prince_rogers_nelson_: 600G (4.1%, 600G)
Spartan_Paladin: 560G (3.9%, 49,060G)
Chuckolator: 545G (3.8%, 100,657G)
Mesmaster: 540G (3.7%, 540G)
twelfthrootoftwo: 500G (3.5%, 23,677G)
Evewho: 500G (3.5%, 12,733G)
run_with_stone_GUNs: 500G (3.5%, 26,728G)
Mathlexis: 350G (2.4%, 4,030G)
ArashiKurobara: 224G (1.5%, 224G)
safira125: 200G (1.4%, 5,277G)
RoverRuckus: 100G (0.7%, 1,000G)
getthemoneyz: 96G (0.7%, 1,114,454G)
