Final Bets: blue - 17 bets for 13,550G (58.2%, x0.72); yellow - 9 bets for 9,712G (41.8%, x1.40)

blue bets:
prince_rogers_nelson_: 3,574G (26.4%, 3,574G)
Rytor: 1,605G (11.8%, 1,605G)
EnemyController: 1,234G (9.1%, 1,382,200G)
Zeroroute: 1,025G (7.6%, 3,307G)
BirbBrainsBot: 1,000G (7.4%, 158,028G)
Sans_from_Snowdin: 1,000G (7.4%, 28,633G)
Mesmaster: 1,000G (7.4%, 3,216G)
ArashiKurobara: 574G (4.2%, 574G)
getthemoneyz: 538G (4.0%, 1,113,840G)
killth3kid: 500G (3.7%, 4,351G)
twelfthrootoftwo: 500G (3.7%, 23,042G)
Mathlexis: 500G (3.7%, 4,111G)
Ring_Wyrm: 100G (0.7%, 2,871G)
Temperedd: 100G (0.7%, 4,873G)
CosmicTactician: 100G (0.7%, 26,376G)
datadrivenbot: 100G (0.7%, 46,370G)
ChaoreLance: 100G (0.7%, 100G)

yellow bets:
SkylerBunny: 4,000G (41.2%, 507,543G)
kaidykat: 1,459G (15.0%, 145,964G)
Evewho: 1,000G (10.3%, 13,098G)
Forkmore: 759G (7.8%, 37,995G)
MagicBottle: 573G (5.9%, 573G)
run_with_stone_GUNs: 500G (5.1%, 27,111G)
Moshyhero: 500G (5.1%, 2,508G)
Oreo_Pizza: 500G (5.1%, 3,856G)
null_sett: 421G (4.3%, 421G)
