Final Bets: green - 18 bets for 9,331G (66.3%, x0.51); yellow - 10 bets for 4,744G (33.7%, x1.97)

green bets:
Mesmaster: 2,000G (21.4%, 66,147G)
Evewho: 1,102G (11.8%, 1,102G)
CorpusCav: 1,020G (10.9%, 10,662G)
NicoSavoy: 1,000G (10.7%, 68,396G)
BirbBrainsBot: 530G (5.7%, 132,016G)
reinoe: 500G (5.4%, 15,457G)
CapnChaos12: 500G (5.4%, 1,708G)
red_celt: 500G (5.4%, 12,654G)
serperemagus: 400G (4.3%, 795G)
StealthModeLocke: 332G (3.6%, 332G)
PotionDweller: 252G (2.7%, 252G)
Lythe_Caraker: 250G (2.7%, 125,552G)
bruubarg: 244G (2.6%, 244G)
brogan316: 200G (2.1%, 6,444G)
AlysSariel: 200G (2.1%, 1,935G)
gorgewall: 101G (1.1%, 11,162G)
datadrivenbot: 100G (1.1%, 22,039G)
rackgaming519: 100G (1.1%, 100G)

yellow bets:
sinnyil2: 2,140G (45.1%, 4,280G)
Estan_AD: 507G (10.7%, 507G)
AllInBot: 411G (8.7%, 411G)
Firesheath: 348G (7.3%, 348G)
genericco: 316G (6.7%, 316G)
Mr_Greed029: 256G (5.4%, 256G)
getthemoneyz: 234G (4.9%, 706,261G)
d4rr1n: 232G (4.9%, 232G)
kaidykat: 200G (4.2%, 2,402G)
GnielKnows: 100G (2.1%, 1,046G)
