Final Bets: purple - 16 bets for 6,987G (51.5%, x0.94); brown - 11 bets for 6,589G (48.5%, x1.06)

purple bets:
sinnyil2: 1,668G (23.9%, 3,337G)
argentbast: 1,000G (14.3%, 5,912G)
serperemagus: 963G (13.8%, 2,115G)
GnielKnows: 473G (6.8%, 473G)
Estan_AD: 368G (5.3%, 737G)
Firesheath: 348G (5.0%, 348G)
genericco: 316G (4.5%, 316G)
red_celt: 300G (4.3%, 12,808G)
kaidykat: 300G (4.3%, 2,426G)
Etce: 256G (3.7%, 256G)
Lythe_Caraker: 250G (3.6%, 125,679G)
bruubarg: 244G (3.5%, 244G)
gorgewall: 201G (2.9%, 11,012G)
datadrivenbot: 100G (1.4%, 22,202G)
AlysSariel: 100G (1.4%, 1,937G)
Onemancrowd: 100G (1.4%, 1,127G)

brown bets:
NicoSavoy: 2,000G (30.4%, 66,904G)
CorpusCav: 1,106G (16.8%, 11,517G)
BirbBrainsBot: 1,000G (15.2%, 131,285G)
getthemoneyz: 600G (9.1%, 706,936G)
StealthModeLocke: 501G (7.6%, 501G)
TheMM42: 500G (7.6%, 4,937G)
HASTERIOUS: 350G (5.3%, 7,014G)
d4rr1n: 232G (3.5%, 232G)
AllInBot: 100G (1.5%, 100G)
Mr_Greed029: 100G (1.5%, 100G)
aurosaerondo: 100G (1.5%, 392G)
