Final Bets: white - 14 bets for 6,349G (56.9%, x0.76); black - 12 bets for 4,813G (43.1%, x1.32)

white bets:
Laserman1000: 1,145G (18.0%, 1,145G)
BirbBrainsBot: 1,000G (15.8%, 173,669G)
TheChainNerd: 700G (11.0%, 6,974G)
toka222: 700G (11.0%, 47,728G)
eudes89: 500G (7.9%, 2,657G)
FriendSquirrel: 448G (7.1%, 448G)
Bryon_W: 444G (7.0%, 444G)
skillomono: 400G (6.3%, 2,049G)
getthemoneyz: 394G (6.2%, 685,844G)
go_pack: 300G (4.7%, 3,767G)
Dymntd: 100G (1.6%, 5,882G)
StealthModeLocke: 100G (1.6%, 40,749G)
zeando: 100G (1.6%, 2,213G)
roqqqpsi: 18G (0.3%, 1,892G)

black bets:
JumbocactuarX27: 1,706G (35.4%, 1,706G)
Draconis345: 1,000G (20.8%, 73,954G)
RagequitSA: 686G (14.3%, 686G)
ungabunga_bot: 277G (5.8%, 511,441G)
TheFALLofLindsay: 240G (5.0%, 240G)
Candina: 204G (4.2%, 204G)
Mtueni: 200G (4.2%, 12,332G)
E_Ballard: 100G (2.1%, 2,816G)
RunicMagus: 100G (2.1%, 33,313G)
CosmicTactician: 100G (2.1%, 8,388G)
datadrivenbot: 100G (2.1%, 18,154G)
Evewho: 100G (2.1%, 8,549G)
