Final Bets: blue - 9 bets for 8,272G (14.0%, x6.12); purple - 19 bets for 50,642G (86.0%, x0.16)

blue bets:
FriendSquirrel: 2,557G (30.9%, 5,015G)
pplvee1: 2,549G (30.8%, 2,549G)
killth3kid: 1,000G (12.1%, 93,441G)
JethroThrul: 856G (10.3%, 856G)
dantayystv: 500G (6.0%, 4,518G)
getthemoneyz: 298G (3.6%, 1,240,639G)
winteriscorning: 212G (2.6%, 212G)
BirbBrainsBot: 200G (2.4%, 200G)
Grandlanzer: 100G (1.2%, 70,925G)

purple bets:
soren_of_tyto: 24,288G (48.0%, 24,288G)
maicovisky: 7,037G (13.9%, 57,037G)
Nickyfive: 3,500G (6.9%, 33,537G)
SQUiDSQUARKLIN: 3,000G (5.9%, 18,148G)
joewcarson: 2,000G (3.9%, 45,893G)
ShintaroNayaka: 2,000G (3.9%, 11,354G)
Lord_Burrah: 1,890G (3.7%, 75,890G)
DeathTaxesAndAnime: 1,762G (3.5%, 3,455G)
roofiepops: 1,400G (2.8%, 7,046G)
TheChainNerd: 1,000G (2.0%, 19,368G)
alterworlds: 547G (1.1%, 547G)
Rytor: 500G (1.0%, 25,889G)
randgridr: 438G (0.9%, 438G)
ArashiKurobara: 304G (0.6%, 2,000G)
CosmicTactician: 300G (0.6%, 44,285G)
Forkmore: 276G (0.5%, 4,028G)
datadrivenbot: 200G (0.4%, 63,099G)
nhammen: 100G (0.2%, 9,125G)
Error72: 100G (0.2%, 6,833G)
