Final Bets: red - 10 bets for 9,659G (41.6%, x1.40); blue - 16 bets for 13,570G (58.4%, x0.71)

red bets:
edgehead62888: 2,522G (26.1%, 2,522G)
TasisSai: 2,454G (25.4%, 4,812G)
maximumcrit: 1,534G (15.9%, 1,534G)
SeniorBunk: 1,001G (10.4%, 22,000G)
JCBooBot: 1,000G (10.4%, 16,465G)
JonnyCue: 500G (5.2%, 3,383G)
rNdOrchestra: 248G (2.6%, 2,023G)
datadrivenbot: 200G (2.1%, 64,664G)
RuneS_77: 100G (1.0%, 17,348G)
CosmicTactician: 100G (1.0%, 33,428G)

blue bets:
DavenIII: 2,500G (18.4%, 97,188G)
LDSkinny: 1,577G (11.6%, 1,577G)
Nizaha: 1,500G (11.1%, 16,349G)
lowlf: 1,278G (9.4%, 1,278G)
RiffRoff: 1,000G (7.4%, 11,540G)
ruleof5: 1,000G (7.4%, 18,643G)
BirbBrainsBot: 1,000G (7.4%, 108,329G)
douchetron: 752G (5.5%, 752G)
Forkmore: 580G (4.3%, 8,218G)
skipsandwiches: 495G (3.6%, 495G)
latebit: 490G (3.6%, 490G)
Smashy: 440G (3.2%, 9,878G)
MagicBottle: 308G (2.3%, 308G)
JCBoorgo: 300G (2.2%, 3,109G)
Drusiform: 250G (1.8%, 11,925G)
AllInBot: 100G (0.7%, 100G)
