Final Bets: blue - 12 bets for 13,302G (77.9%, x0.28); white - 10 bets for 3,774G (22.1%, x3.52)

blue bets:
DavenIII: 7,500G (56.4%, 97,004G)
ruleof5: 2,000G (15.0%, 22,879G)
latebit: 1,049G (7.9%, 1,049G)
LDSkinny: 1,000G (7.5%, 3,069G)
maximumcrit: 851G (6.4%, 851G)
rNdOrchestra: 248G (1.9%, 783G)
datadrivenbot: 200G (1.5%, 63,993G)
PuzzleSecretary: 128G (1.0%, 128G)
Thyrandaal: 100G (0.8%, 24,359G)
Aldrammech: 100G (0.8%, 3,707G)
Raixelol: 100G (0.8%, 10,380G)
BirbBrainsBot: 26G (0.2%, 109,184G)

white bets:
JCBooBot: 1,000G (26.5%, 15,549G)
EnemyController: 666G (17.6%, 1,571,627G)
KasugaiRoastedPeas: 432G (11.4%, 432G)
JCBoorgo: 400G (10.6%, 3,513G)
Lord_Gwarth: 356G (9.4%, 356G)
MagicBottle: 308G (8.2%, 308G)
DeathTaxesAndAnime: 300G (7.9%, 3,763G)
AllInBot: 182G (4.8%, 182G)
RuneS_77: 100G (2.6%, 17,148G)
getthemoneyz: 30G (0.8%, 1,703,924G)
