Final Bets: blue - 10 bets for 13,101G (31.7%, x2.15); champion - 13 bets for 28,229G (68.3%, x0.46)

blue bets:
Thyrandaal: 4,000G (30.5%, 24,887G)
ruleof5: 3,000G (22.9%, 23,446G)
EnemyController: 2,000G (15.3%, 1,570,961G)
latebit: 1,347G (10.3%, 1,347G)
LDSkinny: 1,000G (7.6%, 4,353G)
BirbBrainsBot: 1,000G (7.6%, 109,191G)
Raixelol: 250G (1.9%, 10,408G)
CosmicTactician: 200G (1.5%, 33,765G)
JCBoorgo: 200G (1.5%, 3,113G)
getthemoneyz: 104G (0.8%, 1,703,894G)

champion bets:
SephDarkheart: 20,000G (70.8%, 130,944G)
douchetron: 1,787G (6.3%, 1,787G)
evontno: 1,100G (3.9%, 1,100G)
maximumcrit: 1,092G (3.9%, 1,092G)
JCBooBot: 1,000G (3.5%, 14,549G)
DLJuggernaut: 1,000G (3.5%, 18,873G)
flacococo: 734G (2.6%, 734G)
TasisSai: 552G (2.0%, 552G)
CapnChaos12: 300G (1.1%, 2,114G)
captainmilestw: 200G (0.7%, 1,977G)
datadrivenbot: 200G (0.7%, 64,050G)
PuzzleSecretary: 164G (0.6%, 164G)
AllInBot: 100G (0.4%, 100G)
