Final Bets: purple - 21 bets for 31,898G (83.4%, x0.20); brown - 17 bets for 6,329G (16.6%, x5.04)

purple bets:
E_Ballard: 12,026G (37.7%, 12,026G)
Lordminsc: 5,869G (18.4%, 11,738G)
killth3kid: 2,000G (6.3%, 29,391G)
metagameface: 2,000G (6.3%, 3,055G)
CorpusCav: 1,800G (5.6%, 12,800G)
HaplessOne: 1,234G (3.9%, 14,031G)
HaateXIII: 1,210G (3.8%, 2,373G)
Evewho: 1,207G (3.8%, 1,207G)
joewcarson: 1,001G (3.1%, 6,108G)
potgodtopdog: 777G (2.4%, 24,540G)
volgrathemoose: 500G (1.6%, 3,838G)
DustBirdEX: 445G (1.4%, 8,882G)
grayeternity: 400G (1.3%, 5,901G)
ACSpree: 384G (1.2%, 384G)
otakutaylor: 300G (0.9%, 3,652G)
bahamutlagooon: 186G (0.6%, 3,723G)
ungabunga_bot: 159G (0.5%, 472,773G)
Dymntd: 100G (0.3%, 6,036G)
vampyreinabox: 100G (0.3%, 652G)
Firesheath: 100G (0.3%, 22,336G)
rjA0zcOQ96: 100G (0.3%, 17,080G)

brown bets:
JumbocactuarX27: 1,000G (15.8%, 23,471G)
BirbBrainsBot: 844G (13.3%, 14,930G)
Theseawolf1: 500G (7.9%, 40,498G)
SQUiDSQUARKLIN: 500G (7.9%, 8,457G)
nifboy: 500G (7.9%, 3,530G)
CustomGameMaster: 500G (7.9%, 1,236G)
Estan_AD: 468G (7.4%, 468G)
getthemoneyz: 454G (7.2%, 676,734G)
Lali_Lulelo: 424G (6.7%, 424G)
jwchapm: 280G (4.4%, 280G)
Digitalsocrates: 204G (3.2%, 204G)
sSwing: 200G (3.2%, 6,951G)
Billybones5150: 200G (3.2%, 24,814G)
NicoSavoy: 100G (1.6%, 3,869G)
Ironzombie8: 100G (1.6%, 746G)
proper__noun__: 50G (0.8%, 4,108G)
FaytKion: 5G (0.1%, 127G)
