Final Bets: red - 25 bets for 17,552G (68.4%, x0.46); blue - 16 bets for 8,114G (31.6%, x2.16)

red bets:
Shalloween: 5,989G (34.1%, 11,745G)
BoneMiser: 2,323G (13.2%, 2,323G)
killth3kid: 2,000G (11.4%, 73,133G)
getthemoneyz: 1,000G (5.7%, 632,681G)
Lionhermit: 1,000G (5.7%, 23,988G)
Laserman1000: 880G (5.0%, 4,080G)
LanseDM: 592G (3.4%, 592G)
RestIessNight: 487G (2.8%, 487G)
ZephyrTempest: 456G (2.6%, 2,145G)
BirbBrainsBot: 438G (2.5%, 65,327G)
Archeious: 377G (2.1%, 419G)
Baron_von_Scrub: 364G (2.1%, 364G)
arch8000: 223G (1.3%, 4,467G)
twelfthrootoftwo: 200G (1.1%, 3,694G)
Linkn: 200G (1.1%, 3,669G)
caprinovoa: 112G (0.6%, 112G)
ANFz: 111G (0.6%, 29,818G)
ApplesauceBoss: 100G (0.6%, 6,546G)
gorgewall: 100G (0.6%, 6,457G)
CosmicTactician: 100G (0.6%, 25,729G)
GiggleStik: 100G (0.6%, 9,558G)
datadrivenbot: 100G (0.6%, 12,720G)
Setdevildog: 100G (0.6%, 900G)
ALY327: 100G (0.6%, 33,472G)
vampyreinabox: 100G (0.6%, 1,777G)

blue bets:
Mesmaster: 1,644G (20.3%, 1,644G)
leakimiko: 1,228G (15.1%, 8,190G)
Basmal: 1,000G (12.3%, 48,463G)
DeathTaxesAndAnime: 760G (9.4%, 760G)
Zeroroute: 604G (7.4%, 604G)
nifboy: 551G (6.8%, 551G)
EnemyController: 500G (6.2%, 195,564G)
Randy_Crackstick: 500G (6.2%, 1,000G)
luminarii: 300G (3.7%, 14,794G)
Oobs56: 250G (3.1%, 4,419G)
FNCardascia_: 232G (2.9%, 232G)
dinin991: 145G (1.8%, 145G)
OneHundredFists: 100G (1.2%, 464G)
Firesheath: 100G (1.2%, 10,849G)
ungabunga_bot: 100G (1.2%, 379,882G)
hisuikohaku: 100G (1.2%, 1,500G)
