Final Bets: white - 15 bets for 5,699G (29.8%, x2.36); black - 19 bets for 13,456G (70.2%, x0.42)

white bets:
BirbBrainsBot: 1,000G (17.5%, 65,855G)
Lionhermit: 1,000G (17.5%, 24,776G)
EnemyController: 500G (8.8%, 194,064G)
genericco: 500G (8.8%, 2,838G)
ZZ_Yoshi: 500G (8.8%, 3,420G)
RunicMagus: 400G (7.0%, 48,906G)
KasugaiRoastedPeas: 400G (7.0%, 7,463G)
SQUiDSQUARKLIN: 366G (6.4%, 366G)
getthemoneyz: 290G (5.1%, 633,158G)
Linkn: 200G (3.5%, 3,561G)
RestIessNight: 132G (2.3%, 132G)
ANFz: 111G (1.9%, 29,905G)
maakur_: 100G (1.8%, 122,828G)
Heroebal: 100G (1.8%, 6,804G)
vampyreinabox: 100G (1.8%, 1,856G)

black bets:
Shalloween: 7,402G (55.0%, 14,514G)
Zeroroute: 795G (5.9%, 795G)
DeathTaxesAndAnime: 760G (5.6%, 760G)
Archeious: 690G (5.1%, 767G)
Arlum: 508G (3.8%, 508G)
luminarii: 500G (3.7%, 14,657G)
OneHundredFists: 464G (3.4%, 464G)
Mesmaster: 461G (3.4%, 461G)
ZephyrTempest: 456G (3.4%, 2,239G)
FNCardascia_: 232G (1.7%, 232G)
arch8000: 217G (1.6%, 4,342G)
twelfthrootoftwo: 200G (1.5%, 3,884G)
ungabunga_bot: 171G (1.3%, 380,108G)
Realitydown: 100G (0.7%, 5,938G)
gorgewall: 100G (0.7%, 6,403G)
Firesheath: 100G (0.7%, 10,782G)
Randy_Crackstick: 100G (0.7%, 663G)
datadrivenbot: 100G (0.7%, 12,799G)
Kyune: 100G (0.7%, 2,264G)
