Final Bets: green - 13 bets for 8,526G (67.9%, x0.47); yellow - 8 bets for 4,024G (32.1%, x2.12)

green bets:
HaplessOne: 2,000G (23.5%, 78,200G)
HASTERIOUS: 1,504G (17.6%, 1,504G)
BirbBrainsBot: 1,000G (11.7%, 194,091G)
ungabunga_bot: 792G (9.3%, 160,004G)
mirapoix: 644G (7.6%, 644G)
leakimiko: 600G (7.0%, 600G)
rechaun: 471G (5.5%, 471G)
Treapvort: 404G (4.7%, 404G)
getthemoneyz: 314G (3.7%, 501,377G)
Lanshaft: 300G (3.5%, 584G)
Mandoragan: 300G (3.5%, 477G)
Cervani: 100G (1.2%, 2,897G)
datadrivenbot: 97G (1.1%, 100G)

yellow bets:
rocl: 1,000G (24.9%, 56,311G)
Zetchryn: 1,000G (24.9%, 9,321G)
madman66666: 643G (16.0%, 643G)
Phytik: 600G (14.9%, 10,264G)
CassiePhoenix: 256G (6.4%, 256G)
Lythe_Caraker: 250G (6.2%, 102,403G)
SeniorBunk: 175G (4.3%, 4,807G)
Tithonus: 100G (2.5%, 4,400G)
