Final Bets: red - 14 bets for 11,488G (50.7%, x0.97); yellow - 16 bets for 11,157G (49.3%, x1.03)

red bets:
exigency_44: 3,608G (31.4%, 3,608G)
dogsandcatsand: 1,577G (13.7%, 1,577G)
BirbBrainsBot: 1,000G (8.7%, 169,231G)
JumbocactuarX27: 1,000G (8.7%, 7,806G)
killth3kid: 748G (6.5%, 21,918G)
king_smashington: 535G (4.7%, 535G)
rNdOrchestra: 525G (4.6%, 525G)
krombobreaker: 500G (4.4%, 14,465G)
bringmoreknives: 500G (4.4%, 2,953G)
Lyner87: 439G (3.8%, 439G)
JonnyCue: 432G (3.8%, 432G)
CorpusCav: 400G (3.5%, 18,026G)
Riley331: 124G (1.1%, 124G)
galkife: 100G (0.9%, 85,274G)

yellow bets:
DavenIII: 1,773G (15.9%, 3,546G)
RunicMagus: 1,050G (9.4%, 13,679G)
Thyrandaal: 1,000G (9.0%, 189,639G)
LivingHitokiri: 1,000G (9.0%, 170,545G)
Arcblazer23: 1,000G (9.0%, 5,078G)
Rytor: 978G (8.8%, 978G)
ValensEXP_: 710G (6.4%, 710G)
SephDarkheart: 669G (6.0%, 669G)
latebit: 620G (5.6%, 620G)
Nizaha: 600G (5.4%, 15,873G)
roofiepops: 484G (4.3%, 484G)
AllInBot: 362G (3.2%, 362G)
bigbongsmoker: 344G (3.1%, 12,967G)
escobro: 248G (2.2%, 248G)
getthemoneyz: 218G (2.0%, 2,085,033G)
gorgewall: 101G (0.9%, 2,589G)
