Final Bets: black - 13 bets for 16,456G (54.0%, x0.85); champion - 26 bets for 14,034G (46.0%, x1.17)

black bets:
LDSkinny: 9,057G (55.0%, 9,057G)
HaateXIII: 1,608G (9.8%, 1,608G)
Sairentozon7: 1,312G (8.0%, 1,312G)
DeathTaxesAndAnime: 856G (5.2%, 856G)
DAC169: 807G (4.9%, 807G)
ExecutedGiraffe: 590G (3.6%, 590G)
killth3kid: 500G (3.0%, 12,557G)
SQUiDSQUARKLIN: 380G (2.3%, 380G)
Oobs56: 361G (2.2%, 361G)
Aldrammech: 304G (1.8%, 304G)
MrMarkPolo: 300G (1.8%, 2,348G)
IphoneDarkness: 200G (1.2%, 6,213G)
AllInBot: 181G (1.1%, 181G)

champion bets:
Rislyeu: 2,000G (14.3%, 11,196G)
toka222: 1,750G (12.5%, 28,189G)
OneHundredFists: 1,129G (8.0%, 2,521G)
autnagrag: 1,023G (7.3%, 1,023G)
TheChainNerd: 1,000G (7.1%, 14,902G)
BirbBrainsBot: 1,000G (7.1%, 33,967G)
Powerpinch: 1,000G (7.1%, 15,583G)
getthemoneyz: 742G (5.3%, 873,745G)
Cryptopsy70: 508G (3.6%, 3,398G)
Kalabain: 500G (3.6%, 10,485G)
TeaTime29: 500G (3.6%, 11,294G)
DLJuggernaut: 464G (3.3%, 464G)
RuneS_77: 300G (2.1%, 8,369G)
ivellioz: 250G (1.8%, 3,311G)
Angelomortis: 200G (1.4%, 1,146G)
reddwind_: 200G (1.4%, 6,058G)
Miku_Shikhu: 200G (1.4%, 15,175G)
Nohurty: 200G (1.4%, 2,443G)
KasugaiRoastedPeas: 200G (1.4%, 2,959G)
JumbocactuarX27: 200G (1.4%, 760G)
neerrm: 168G (1.2%, 168G)
E_Ballard: 100G (0.7%, 5,857G)
Tougou: 100G (0.7%, 3,064G)
Evewho: 100G (0.7%, 12,968G)
datadrivenbot: 100G (0.7%, 38,291G)
Quadh0nk: 100G (0.7%, 541G)
