Final Bets: white - 14 bets for 8,836G (36.9%, x1.71); black - 13 bets for 15,097G (63.1%, x0.59)

white bets:
SkylerBunny: 1,000G (11.3%, 555,051G)
BirbBrainsBot: 1,000G (11.3%, 177,109G)
Nickyfive: 1,000G (11.3%, 22,768G)
OneHundredFists: 1,000G (11.3%, 32,478G)
VolgraTheMoose: 788G (8.9%, 788G)
TheChainNerd: 661G (7.5%, 3,181G)
E_Ballard: 644G (7.3%, 644G)
Aldrammech: 586G (6.6%, 586G)
Digitalsocrates: 572G (6.5%, 572G)
killth3kid: 500G (5.7%, 2,758G)
Boultson1337: 407G (4.6%, 407G)
Zagorsek: 312G (3.5%, 312G)
sososteve: 200G (2.3%, 3,892G)
getthemoneyz: 166G (1.9%, 1,035,564G)

black bets:
Error72: 6,810G (45.1%, 13,620G)
Mesmaster: 3,000G (19.9%, 34,931G)
YaBoy125: 1,058G (7.0%, 35,267G)
BlackFireUK: 1,000G (6.6%, 45,688G)
DuraiPapers: 1,000G (6.6%, 53,108G)
Nizaha: 501G (3.3%, 8,067G)
CosmicTactician: 500G (3.3%, 22,414G)
Zetchryn: 396G (2.6%, 396G)
Rislyeu: 332G (2.2%, 332G)
Evewho: 200G (1.3%, 5,789G)
Firesheath: 100G (0.7%, 7,150G)
ApplesauceBoss: 100G (0.7%, 6,464G)
datadrivenbot: 100G (0.7%, 49,652G)
