Final Bets: yellow - 13 bets for 14,502G (60.3%, x0.66); champion - 18 bets for 9,530G (39.7%, x1.52)

yellow bets:
AllInBot: 4,875G (33.6%, 4,875G)
OneHundredFists: 4,069G (28.1%, 74,373G)
Lolthsmeat: 2,000G (13.8%, 5,365G)
superdevon1: 746G (5.1%, 746G)
CapnChaos12: 500G (3.4%, 20,296G)
krombobreaker: 500G (3.4%, 28,801G)
YowaneHaku: 500G (3.4%, 18,018G)
lowlf: 404G (2.8%, 6,116G)
7Cerulean7: 300G (2.1%, 2,716G)
resjudicata3: 200G (1.4%, 8,366G)
NicoSavoy: 200G (1.4%, 136,944G)
verythinice: 108G (0.7%, 4,578G)
Firesheath: 100G (0.7%, 4,332G)

champion bets:
CorpusCav: 1,700G (17.8%, 101,771G)
Mushufasa_: 1,234G (12.9%, 59,298G)
ExplanationMarkWow: 1,091G (11.4%, 2,182G)
BirbBrainsBot: 1,000G (10.5%, 18,225G)
TheBrett: 1,000G (10.5%, 23,721G)
Lydian_C: 648G (6.8%, 648G)
Evewho: 500G (5.2%, 62,836G)
DustBirdEX: 462G (4.8%, 4,402G)
Chuckolator: 284G (3.0%, 3,460G)
PopsLIVE: 248G (2.6%, 248G)
FE34923: 228G (2.4%, 228G)
gorgewall: 201G (2.1%, 5,686G)
datadrivenbot: 200G (2.1%, 82,886G)
ValensEXP_: 200G (2.1%, 28,441G)
getthemoneyz: 190G (2.0%, 2,206,552G)
Xenomorith: 144G (1.5%, 144G)
heropong: 100G (1.0%, 1,467G)
JethroThrul: 100G (1.0%, 1,521G)
