Final Bets: purple - 9 bets for 6,733G (48.1%, x1.08); brown - 12 bets for 7,257G (51.9%, x0.93)

purple bets:
Mesmaster: 2,000G (29.7%, 78,616G)
blastty: 1,133G (16.8%, 1,133G)
Mushufasa_: 1,000G (14.9%, 89,846G)
BirbBrainsBot: 1,000G (14.9%, 46,291G)
Raixelol: 600G (8.9%, 6,882G)
AshesSmashes: 439G (6.5%, 439G)
Kuocolaya: 245G (3.6%, 245G)
scsuperstar: 216G (3.2%, 216G)
getthemoneyz: 100G (1.5%, 2,043,271G)

brown bets:
NovaKnight21: 2,108G (29.0%, 2,108G)
SneakyCastro3: 1,007G (13.9%, 1,007G)
Leonidusx: 1,000G (13.8%, 207,314G)
lowlf: 584G (8.0%, 13,394G)
OneHundredFists: 552G (7.6%, 552G)
bufuman: 500G (6.9%, 2,384G)
AllInBot: 490G (6.8%, 490G)
Setsaku: 412G (5.7%, 412G)
datadrivenbot: 200G (2.8%, 73,982G)
Caster_Daily: 200G (2.8%, 2,205G)
MilesDong: 104G (1.4%, 104G)
iamEradicate: 100G (1.4%, 100G)
