Final Bets: red - 14 bets for 5,415G (56.8%, x0.76); green - 10 bets for 4,111G (43.2%, x1.32)

red bets:
Mesmaster: 1,000G (18.5%, 80,772G)
Leonidusx: 1,000G (18.5%, 206,314G)
Raixelol: 600G (11.1%, 7,529G)
lowlf: 584G (10.8%, 12,810G)
OneHundredFists: 552G (10.2%, 552G)
Mushufasa_: 500G (9.2%, 90,924G)
chrisk103: 200G (3.7%, 4,252G)
AllInBot: 200G (3.7%, 200G)
datadrivenbot: 200G (3.7%, 73,782G)
Setsaku: 168G (3.1%, 168G)
NicoSavoy: 111G (2.0%, 140,730G)
Caster_Daily: 100G (1.8%, 2,005G)
SneakyCastro3: 100G (1.8%, 100G)
ErraXIV: 100G (1.8%, 100G)

green bets:
BirbBrainsBot: 1,000G (24.3%, 47,369G)
AshesSmashes: 912G (22.2%, 912G)
NovaKnight21: 860G (20.9%, 860G)
Kuocolaya: 509G (12.4%, 509G)
Yangusburger: 200G (4.9%, 27,598G)
bufuman: 200G (4.9%, 1,884G)
getthemoneyz: 126G (3.1%, 2,043,379G)
MilesDong: 104G (2.5%, 104G)
MemoriesofFinal: 100G (2.4%, 37,311G)
blastty: 100G (2.4%, 2,354G)
