Final Bets: red - 14 bets for 5,726G (36.4%, x1.75); purple - 9 bets for 9,993G (63.6%, x0.57)

red bets:
bufuman: 1,684G (29.4%, 1,684G)
NovaKnight21: 860G (15.0%, 860G)
Raixelol: 600G (10.5%, 8,731G)
lowlf: 584G (10.2%, 13,689G)
Setsaku: 517G (9.0%, 517G)
JeffGoldblum_: 290G (5.1%, 290G)
AllInBot: 200G (3.5%, 200G)
datadrivenbot: 200G (3.5%, 74,083G)
chrisk103: 200G (3.5%, 4,204G)
ErraXIV: 176G (3.1%, 176G)
hecsec: 175G (3.1%, 175G)
Caster_Daily: 100G (1.7%, 1,985G)
NicoSavoy: 100G (1.7%, 140,703G)
getthemoneyz: 40G (0.7%, 2,042,253G)

purple bets:
blastty: 3,936G (39.4%, 3,936G)
Leonidusx: 2,000G (20.0%, 207,723G)
Mesmaster: 2,000G (20.0%, 79,535G)
BirbBrainsBot: 1,000G (10.0%, 45,369G)
Mushufasa_: 500G (5.0%, 92,050G)
AshesSmashes: 182G (1.8%, 182G)
Kuocolaya: 175G (1.8%, 175G)
MemoriesofFinal: 100G (1.0%, 37,286G)
VikusII: 100G (1.0%, 115G)
