Final Bets: green - 17 bets for 11,907G (55.3%, x0.81); yellow - 12 bets for 9,616G (44.7%, x1.24)

green bets:
DamnThatShark: 2,000G (16.8%, 20,284G)
MadnessR: 2,000G (16.8%, 11,019G)
Oobs56: 2,000G (16.8%, 21,551G)
gooseyourself: 1,243G (10.4%, 2,487G)
Bilabrin: 834G (7.0%, 834G)
Spartan_Paladin: 680G (5.7%, 56,686G)
Breakdown777: 508G (4.3%, 508G)
DarrenDinosaurs: 500G (4.2%, 7,090G)
NotBalrog: 500G (4.2%, 6,844G)
butterbelljedi: 427G (3.6%, 427G)
sir_uther115: 300G (2.5%, 5,943G)
joewcarson: 300G (2.5%, 300G)
HaateXIII: 250G (2.1%, 28,882G)
Baron_von_Scrub: 101G (0.8%, 14,689G)
fluffskull: 100G (0.8%, 2,485G)
datadrivenbot: 100G (0.8%, 44,106G)
getthemoneyz: 64G (0.5%, 1,010,213G)

yellow bets:
VolgraTheMoose: 2,863G (29.8%, 5,727G)
reinoe: 1,000G (10.4%, 8,572G)
BirbBrainsBot: 1,000G (10.4%, 34,702G)
GatsbysGhost: 1,000G (10.4%, 7,308G)
DeathTaxesAndAnime: 680G (7.1%, 680G)
Laserman1000: 568G (5.9%, 11,968G)
benticore: 549G (5.7%, 10,994G)
Neo_Exodus: 500G (5.2%, 2,793G)
prince_rogers_nelson_: 500G (5.2%, 6,967G)
holyonline: 456G (4.7%, 456G)
twelfthrootoftwo: 400G (4.2%, 2,523G)
Ring_Wyrm: 100G (1.0%, 731G)
