Final Bets: white - 13 bets for 8,747G (46.8%, x1.14); purple - 14 bets for 9,929G (53.2%, x0.88)

white bets:
fenaen: 3,195G (36.5%, 6,391G)
BirbBrainsBot: 1,000G (11.4%, 38,667G)
Laserman1000: 675G (7.7%, 13,375G)
fenixcrest: 600G (6.9%, 600G)
Evewho: 500G (5.7%, 2,414G)
Powermhero: 500G (5.7%, 26,731G)
reinoe: 500G (5.7%, 12,571G)
HaychDub: 500G (5.7%, 5,728G)
roofiepops: 356G (4.1%, 356G)
cam_ATS: 352G (4.0%, 352G)
gorgewall: 301G (3.4%, 15,671G)
prince_rogers_nelson_: 200G (2.3%, 7,586G)
getthemoneyz: 68G (0.8%, 1,008,261G)

purple bets:
AniZero: 2,222G (22.4%, 15,921G)
VolgraTheMoose: 2,001G (20.2%, 6,462G)
fluffskull: 1,000G (10.1%, 2,937G)
Digitalsocrates: 1,000G (10.1%, 38,723G)
Seaweed_B: 1,000G (10.1%, 1,000G)
Breakdown777: 508G (5.1%, 508G)
Shalloween: 500G (5.0%, 67,342G)
MadnessR: 300G (3.0%, 8,719G)
Kronikle: 300G (3.0%, 18,895G)
twelfthrootoftwo: 300G (3.0%, 3,346G)
DuraiPapers: 250G (2.5%, 1,720G)
Bilabrin: 248G (2.5%, 248G)
Ring_Wyrm: 200G (2.0%, 1,407G)
datadrivenbot: 100G (1.0%, 44,458G)
