Final Bets: blue - 21 bets for 28,260G (61.0%, x0.64); champion - 25 bets for 18,072G (39.0%, x1.56)

blue bets:
gooseyourself: 4,000G (14.2%, 21,716G)
Bioticism: 3,800G (13.4%, 8,892G)
alecttox: 3,510G (12.4%, 3,510G)
DeathTaxesAndAnime: 3,483G (12.3%, 6,830G)
HaplessOne: 2,500G (8.8%, 16,696G)
proper__noun__: 2,000G (7.1%, 3,739G)
R_Raynos: 1,965G (7.0%, 2,529G)
Laserman1000: 1,631G (5.8%, 79,531G)
Fenrislfr: 1,000G (3.5%, 25,148G)
superdevon1: 600G (2.1%, 600G)
moonliquor: 540G (1.9%, 540G)
KasugaiRoastedPeas: 500G (1.8%, 8,452G)
argentbast: 500G (1.8%, 6,873G)
Estan_AD: 390G (1.4%, 781G)
Bulleta: 350G (1.2%, 1,199G)
midori_ribbon: 350G (1.2%, 6,449G)
twelfthrootoftwo: 300G (1.1%, 4,882G)
genericco: 289G (1.0%, 289G)
cgMcWhiskers: 252G (0.9%, 252G)
electric_glass: 200G (0.7%, 5,984G)
Firesheath: 100G (0.4%, 9,167G)

champion bets:
Dymntd: 5,000G (27.7%, 40,161G)
leakimiko: 2,116G (11.7%, 26,450G)
MaouDono: 2,000G (11.1%, 12,406G)
ColetteMSLP: 1,000G (5.5%, 32,650G)
evdoggity: 1,000G (5.5%, 8,725G)
awokenshard: 1,000G (5.5%, 3,896G)
BirbBrainsBot: 739G (4.1%, 168,284G)
RyuTsuno: 547G (3.0%, 547G)
vorap: 500G (2.8%, 29,800G)
Triskiut: 500G (2.8%, 3,466G)
Yasmosis: 500G (2.8%, 642G)
corwinambrose: 500G (2.8%, 1,830G)
Wonser: 500G (2.8%, 2,963G)
ACSpree: 403G (2.2%, 403G)
Conome: 304G (1.7%, 304G)
CorpusCav: 300G (1.7%, 16,067G)
notazzie: 287G (1.6%, 574G)
superneol: 200G (1.1%, 591G)
belife42: 110G (0.6%, 2,010G)
RestIessNight: 108G (0.6%, 108G)
Heroebal: 100G (0.6%, 4,875G)
Arkreaver: 100G (0.6%, 11,263G)
datadrivenbot: 100G (0.6%, 11,009G)
fuukatron: 100G (0.6%, 561G)
getthemoneyz: 58G (0.3%, 614,502G)
