Final Bets: red - 28 bets for 18,044G (53.8%, x0.86); purple - 22 bets for 15,474G (46.2%, x1.17)

red bets:
Zeroroute: 2,253G (12.5%, 2,253G)
Pie108: 2,000G (11.1%, 176,472G)
aStatue: 1,600G (8.9%, 1,600G)
Aldrammech: 1,600G (8.9%, 1,600G)
Lord_Burrah: 1,300G (7.2%, 109,355G)
I_nod_my_head_when_I_lose: 1,000G (5.5%, 49,083G)
BirbBrainsBot: 1,000G (5.5%, 141,613G)
Grimmace45: 879G (4.9%, 8,793G)
sinnyil2: 872G (4.8%, 872G)
Nizaha: 501G (2.8%, 11,678G)
vorap: 500G (2.8%, 25,230G)
Jerboj: 500G (2.8%, 61,525G)
DLJuggernaut: 500G (2.8%, 8,842G)
CapnChaos12: 500G (2.8%, 51,928G)
HaateXIII: 500G (2.8%, 39,879G)
ZephyrTempest: 456G (2.5%, 2,845G)
coralreeferz: 450G (2.5%, 1,170G)
midori_ribbon: 300G (1.7%, 2,899G)
lobsterlobster: 240G (1.3%, 240G)
DustBirdEX: 222G (1.2%, 1,461G)
JarlBrolaf: 215G (1.2%, 215G)
Fenrislfr: 200G (1.1%, 2,810G)
eudes89: 104G (0.6%, 104G)
Evewho: 100G (0.6%, 12,020G)
ANFz: 100G (0.6%, 23,171G)
datadrivenbot: 100G (0.6%, 10,946G)
cougboi: 50G (0.3%, 22,116G)
daveb_: 2G (0.0%, 1,386G)

purple bets:
DeathTaxesAndAnime: 2,479G (16.0%, 4,861G)
Odin007_88: 1,939G (12.5%, 1,939G)
Lordminsc: 1,672G (10.8%, 1,672G)
WoooBlaaa: 1,442G (9.3%, 1,442G)
fenixcrest: 1,126G (7.3%, 11,266G)
Baron_von_Scrub: 1,111G (7.2%, 83,633G)
ACSpree: 1,000G (6.5%, 8,027G)
ColetteMSLP: 800G (5.2%, 42,801G)
Wonser: 788G (5.1%, 788G)
ungabunga_bot: 531G (3.4%, 288,405G)
Laserman1000: 528G (3.4%, 75,328G)
lijarkh: 500G (3.2%, 9,591G)
Firesheath: 400G (2.6%, 12,104G)
AmewTheFox: 205G (1.3%, 16,330G)
cgMcWhiskers: 200G (1.3%, 1,383G)
getthemoneyz: 138G (0.9%, 612,325G)
byrdturbo: 111G (0.7%, 5,880G)
hydroshade: 104G (0.7%, 104G)
ko2q: 100G (0.6%, 3,460G)
moonliquor: 100G (0.6%, 555G)
RunicMagus: 100G (0.6%, 43,617G)
astrozin11: 100G (0.6%, 3,104G)
