Final Bets: purple - 23 bets for 18,800G (39.0%, x1.56); champion - 34 bets for 29,397G (61.0%, x0.64)

purple bets:
ACSpree: 4,596G (24.4%, 9,193G)
DeathTaxesAndAnime: 3,953G (21.0%, 7,752G)
lowlf: 2,002G (10.6%, 54,941G)
killth3kid: 1,000G (5.3%, 47,993G)
sinnyil2: 872G (4.6%, 872G)
ColetteMSLP: 800G (4.3%, 43,734G)
Grimmace45: 791G (4.2%, 7,914G)
Wonser: 707G (3.8%, 707G)
Aldrammech: 600G (3.2%, 600G)
lijarkh: 500G (2.7%, 10,174G)
animefan112233: 500G (2.7%, 500G)
DLJuggernaut: 500G (2.7%, 8,342G)
I_nod_my_head_when_I_lose: 500G (2.7%, 48,083G)
cgMcWhiskers: 300G (1.6%, 1,616G)
emperor_knight: 250G (1.3%, 2,875G)
hydroshade: 225G (1.2%, 225G)
eudes89: 104G (0.6%, 104G)
ko2q: 100G (0.5%, 3,577G)
JarlBrolaf: 100G (0.5%, 100G)
Firesheath: 100G (0.5%, 12,570G)
bairen0: 100G (0.5%, 100G)
WoooBlaaa: 100G (0.5%, 3,123G)
Evewho: 100G (0.5%, 11,920G)

champion bets:
DrAntiSocial: 4,114G (14.0%, 4,114G)
MagicBottle: 3,615G (12.3%, 14,463G)
Pie108: 2,000G (6.8%, 174,472G)
evontno: 2,000G (6.8%, 4,530G)
Lordminsc: 1,811G (6.2%, 3,622G)
toka222: 1,650G (5.6%, 5,120G)
RunicMagus: 1,000G (3.4%, 43,734G)
Bioticism: 1,000G (3.4%, 4,977G)
ungabunga_bot: 1,000G (3.4%, 289,024G)
BirbBrainsBot: 1,000G (3.4%, 140,613G)
HaateXIII: 1,000G (3.4%, 39,379G)
Shalloween: 1,000G (3.4%, 32,887G)
JonnyCue: 1,000G (3.4%, 37,404G)
getthemoneyz: 666G (2.3%, 612,486G)
DustBirdEX: 619G (2.1%, 1,239G)
aStatue: 600G (2.0%, 600G)
Laserman1000: 544G (1.9%, 75,944G)
volgrathemoose: 501G (1.7%, 16,687G)
CapnChaos12: 500G (1.7%, 51,428G)
trigger15: 500G (1.7%, 5,357G)
AmewTheFox: 500G (1.7%, 16,569G)
Jerboj: 500G (1.7%, 61,025G)
ZephyrTempest: 456G (1.6%, 2,389G)
midori_ribbon: 400G (1.4%, 2,599G)
carsenhk: 250G (0.9%, 14,820G)
lobsterlobster: 240G (0.8%, 240G)
Mirrorclaw: 220G (0.7%, 220G)
byrdturbo: 111G (0.4%, 6,009G)
FriendSquirrel: 100G (0.3%, 22,417G)
moonliquor: 100G (0.3%, 672G)
datadrivenbot: 100G (0.3%, 10,846G)
Juggaloslip: 100G (0.3%, 550G)
ANFz: 100G (0.3%, 23,071G)
Moshiez: 100G (0.3%, 100G)
