Final Bets: green - 21 bets for 11,745G (48.0%, x1.08); yellow - 9 bets for 12,701G (52.0%, x0.92)

green bets:
NIghtdew14: 2,341G (19.9%, 2,341G)
Panushenko: 2,000G (17.0%, 7,333G)
dogsandcatsand: 1,350G (11.5%, 1,350G)
SkylerBunny: 764G (6.5%, 764G)
killth3kid: 752G (6.4%, 19,685G)
DustBirdEX: 616G (5.2%, 616G)
douchetron: 600G (5.1%, 600G)
Draconis345: 500G (4.3%, 13,883G)
Zeroroute: 413G (3.5%, 2,953G)
reinoe: 400G (3.4%, 400G)
resjudicata3: 344G (2.9%, 344G)
coralreeferz: 316G (2.7%, 316G)
Tarheels218: 296G (2.5%, 3,815G)
datadrivenbot: 200G (1.7%, 67,258G)
Docrad_: 200G (1.7%, 1,759G)
getthemoneyz: 152G (1.3%, 1,664,211G)
gorgewall: 101G (0.9%, 4,288G)
MinBetBot: 100G (0.9%, 6,959G)
chorisaurius: 100G (0.9%, 1,725G)
CosmicTactician: 100G (0.9%, 29,059G)
Twisted_Nutsatchel: 100G (0.9%, 22,766G)

yellow bets:
nhammen: 4,000G (31.5%, 82,472G)
MagicBottle: 3,544G (27.9%, 3,544G)
Mesmaster: 3,000G (23.6%, 14,953G)
BirbBrainsBot: 1,000G (7.9%, 46,865G)
ANFz: 559G (4.4%, 559G)
VolgraTheMoose: 250G (2.0%, 3,921G)
ff7g00ru: 148G (1.2%, 148G)
AllInBot: 100G (0.8%, 100G)
RunicMagus: 100G (0.8%, 7,608G)
