Final Bets: purple - 22 bets for 20,268G (81.3%, x0.23); brown - 13 bets for 4,666G (18.7%, x4.34)

purple bets:
Thyrandaal: 4,000G (19.7%, 485,361G)
Mesmaster: 3,000G (14.8%, 18,825G)
roofiepops: 2,098G (10.4%, 2,098G)
Valgram: 1,471G (7.3%, 1,471G)
pplvee1: 1,000G (4.9%, 6,205G)
BirbBrainsBot: 1,000G (4.9%, 48,156G)
nhammen: 1,000G (4.9%, 89,067G)
dogsandcatsand: 885G (4.4%, 885G)
Forkmore: 765G (3.8%, 765G)
killth3kid: 752G (3.7%, 19,208G)
MagicBottle: 600G (3.0%, 600G)
douchetron: 600G (3.0%, 600G)
HaateXIII: 500G (2.5%, 3,751G)
Smashy: 500G (2.5%, 1,990G)
Draconis345: 500G (2.5%, 13,566G)
NIghtdew14: 492G (2.4%, 492G)
Tarheels218: 296G (1.5%, 3,627G)
idioSyncr4zy: 209G (1.0%, 4,183G)
RunicMagus: 200G (1.0%, 7,600G)
KasugaiRoastedPeas: 200G (1.0%, 3,768G)
AllInBot: 100G (0.5%, 100G)
Twisted_Nutsatchel: 100G (0.5%, 22,666G)

brown bets:
SkylerBunny: 1,044G (22.4%, 1,044G)
DustBirdEX: 757G (16.2%, 757G)
ANFz: 470G (10.1%, 470G)
reinoe: 400G (8.6%, 400G)
ff7g00ru: 389G (8.3%, 389G)
resjudicata3: 344G (7.4%, 344G)
reddwind_: 300G (6.4%, 601G)
Amorial: 240G (5.1%, 240G)
datadrivenbot: 200G (4.3%, 67,131G)
regios91: 200G (4.3%, 11,879G)
getthemoneyz: 122G (2.6%, 1,664,425G)
MinBetBot: 100G (2.1%, 6,759G)
Docrad_: 100G (2.1%, 1,616G)
