Final Bets: red - 13 bets for 7,564G (51.1%, x0.96); yellow - 13 bets for 7,231G (48.9%, x1.05)

red bets:
Mesmaster: 2,000G (26.4%, 19,516G)
dogsandcatsand: 1,089G (14.4%, 1,089G)
douchetron: 742G (9.8%, 742G)
MagicBottle: 738G (9.8%, 738G)
NIghtdew14: 605G (8.0%, 605G)
Smashy: 500G (6.6%, 2,105G)
HaateXIII: 500G (6.6%, 3,866G)
Tarheels218: 400G (5.3%, 3,695G)
resjudicata3: 344G (4.5%, 344G)
datadrivenbot: 200G (2.6%, 66,931G)
regios91: 200G (2.6%, 11,679G)
AllInBot: 123G (1.6%, 123G)
roofiepops: 123G (1.6%, 2,581G)

yellow bets:
Virilikus: 2,000G (27.7%, 197,955G)
BirbBrainsBot: 1,000G (13.8%, 48,386G)
nhammen: 1,000G (13.8%, 89,297G)
SkylerBunny: 764G (10.6%, 764G)
DustBirdEX: 616G (8.5%, 616G)
pplvee1: 496G (6.9%, 6,435G)
ANFz: 428G (5.9%, 428G)
skipsandwiches: 336G (4.6%, 336G)
idioSyncr4zy: 211G (2.9%, 4,231G)
ff7g00ru: 148G (2.0%, 148G)
MinBetBot: 100G (1.4%, 6,659G)
SephDarkheart: 100G (1.4%, 112,044G)
getthemoneyz: 32G (0.4%, 1,664,303G)
