Final Bets: red - 14 bets for 16,891G (57.5%, x0.74); white - 18 bets for 12,479G (42.5%, x1.35)

red bets:
Virilikus: 5,000G (29.6%, 190,955G)
MagicBottle: 2,449G (14.5%, 2,449G)
Panushenko: 2,000G (11.8%, 7,285G)
Mesmaster: 2,000G (11.8%, 22,811G)
resjudicata3: 1,138G (6.7%, 1,138G)
Smashy: 1,000G (5.9%, 2,677G)
killth3kid: 752G (4.5%, 19,901G)
ANFz: 724G (4.3%, 724G)
SephDarkheart: 600G (3.6%, 111,844G)
Draconis345: 500G (3.0%, 13,681G)
reinoe: 400G (2.4%, 400G)
Skjodo: 128G (0.8%, 128G)
MinBetBot: 100G (0.6%, 6,459G)
Twisted_Nutsatchel: 100G (0.6%, 22,689G)

white bets:
nhammen: 2,000G (16.0%, 89,688G)
lowlf: 1,500G (12.0%, 4,573G)
DustBirdEX: 1,042G (8.4%, 1,042G)
NIghtdew14: 1,001G (8.0%, 1,001G)
BirbBrainsBot: 1,000G (8.0%, 48,077G)
loveyouallfriends: 1,000G (8.0%, 42,771G)
Forkmore: 941G (7.5%, 941G)
SkylerBunny: 764G (6.1%, 764G)
douchetron: 600G (4.8%, 600G)
getthemoneyz: 596G (4.8%, 1,664,617G)
technominari: 500G (4.0%, 85,989G)
Zeroroute: 500G (4.0%, 500G)
Docrad_: 413G (3.3%, 1,654G)
idioSyncr4zy: 201G (1.6%, 4,020G)
datadrivenbot: 200G (1.6%, 67,260G)
gorgewall: 101G (0.8%, 4,123G)
AllInBot: 100G (0.8%, 100G)
Speclesale1: 20G (0.2%, 1,000G)
