Final Bets: white - 20 bets for 24,085G (71.5%, x0.40); black - 14 bets for 9,581G (28.5%, x2.51)

white bets:
Mesmaster: 10,000G (41.5%, 71,733G)
CelestialLancer: 2,001G (8.3%, 15,743G)
Breakdown777: 2,000G (8.3%, 70,453G)
Evewho: 2,000G (8.3%, 12,447G)
HaplessOne: 1,060G (4.4%, 1,060G)
MagicBottle: 1,000G (4.2%, 7,555G)
phrossi_v: 1,000G (4.2%, 65,649G)
BirbBrainsBot: 1,000G (4.2%, 142,309G)
alterworlds: 640G (2.7%, 640G)
roofiepops: 549G (2.3%, 549G)
DuraiPapers: 500G (2.1%, 2,793G)
JLinkletter: 500G (2.1%, 7,828G)
killth3kid: 476G (2.0%, 2,235G)
just_here2: 400G (1.7%, 7,284G)
gorgewall: 301G (1.2%, 16,644G)
CosmicTactician: 300G (1.2%, 9,871G)
ericzubat: 128G (0.5%, 128G)
E_Ballard: 100G (0.4%, 10,624G)
serperemagus: 100G (0.4%, 6,223G)
IphoneDarkness: 30G (0.1%, 2,375G)

black bets:
TheGuesty: 1,738G (18.1%, 68,738G)
SkylerBunny: 1,500G (15.7%, 109,825G)
Nizaha: 1,001G (10.4%, 7,890G)
Shalloween: 875G (9.1%, 875G)
rednecknazgul: 808G (8.4%, 808G)
dogsandcatsand: 777G (8.1%, 16,536G)
DamnThatShark: 681G (7.1%, 681G)
eudes89: 500G (5.2%, 7,002G)
mpghappiness: 420G (4.4%, 4,243G)
Rislyeu: 402G (4.2%, 402G)
Yiroep2: 387G (4.0%, 387G)
DustBirdEX: 234G (2.4%, 1,829G)
getthemoneyz: 158G (1.6%, 997,689G)
Kellios11: 100G (1.0%, 7,637G)
