Final Bets: green - 34 bets for 33,107G (45.0%, x1.22); yellow - 10 bets for 40,441G (55.0%, x0.82)

green bets:
toka222: 5,000G (15.1%, 493,650G)
MattMan119: 4,182G (12.6%, 4,182G)
SquidgyXom: 2,018G (6.1%, 2,018G)
JumbocactuarX27: 1,542G (4.7%, 1,542G)
proper__noun__: 1,528G (4.6%, 1,528G)
TheChainNerd: 1,411G (4.3%, 1,411G)
reinoe: 1,407G (4.2%, 1,407G)
Baron_von_Scrub: 1,234G (3.7%, 22,976G)
Nizaha: 1,196G (3.6%, 1,196G)
sinnyil2: 1,140G (3.4%, 1,140G)
leakimiko: 1,100G (3.3%, 1,100G)
getthemoneyz: 1,000G (3.0%, 495,451G)
BirbBrainsBot: 1,000G (3.0%, 184,275G)
Mtueni: 1,000G (3.0%, 193,830G)
CapnChaos12: 964G (2.9%, 964G)
catfashions: 956G (2.9%, 956G)
SomeCallMeGON: 764G (2.3%, 764G)
HeroponThrawn: 744G (2.2%, 744G)
FreefallSirius: 708G (2.1%, 708G)
Laserman1000: 525G (1.6%, 21,325G)
Tougou: 500G (1.5%, 6,813G)
ShintaroNayaka: 500G (1.5%, 26,895G)
joewcarson: 500G (1.5%, 10,674G)
ZephyrTempest: 336G (1.0%, 76,430G)
Lanshaft: 308G (0.9%, 574G)
jhazor: 306G (0.9%, 3,067G)
killth3kid: 268G (0.8%, 1,268G)
benticore: 200G (0.6%, 3,655G)
ANFz: 200G (0.6%, 5,549G)
Mandoragan: 164G (0.5%, 164G)
MeleeWizard: 156G (0.5%, 156G)
Treapvort: 100G (0.3%, 2,994G)
FailCanceler: 100G (0.3%, 100G)
GingerDynomite: 50G (0.2%, 4,309G)

yellow bets:
YaBoy125: 36,250G (89.6%, 36,250G)
nifboy: 916G (2.3%, 916G)
elkydeluxe: 852G (2.1%, 852G)
datadrivenbot: 736G (1.8%, 879G)
Pie108: 700G (1.7%, 25,616G)
GargantuaCat: 313G (0.8%, 627G)
Lavatis: 200G (0.5%, 586G)
lohakilo: 200G (0.5%, 1,839G)
ungabunga_bot: 174G (0.4%, 158,505G)
SaintOmerville: 100G (0.2%, 2,882G)
