Final Bets: blue - 7 bets for 2,065G (17.4%, x4.74); yellow - 14 bets for 9,796G (82.6%, x0.21)

blue bets:
Cryptopsy70: 568G (27.5%, 15,544G)
killth3kid: 329G (15.9%, 3,295G)
CapnChaos12: 300G (14.5%, 19,013G)
DuraiPapers: 300G (14.5%, 5,960G)
Rinhander: 268G (13.0%, 268G)
AltimaMantoid: 200G (9.7%, 1,300G)
JumbocactuarX27: 100G (4.8%, 9,666G)

yellow bets:
Mesmaster: 3,000G (30.6%, 81,749G)
sinnyil2: 2,222G (22.7%, 21,293G)
ericzubat: 1,045G (10.7%, 1,045G)
BirbBrainsBot: 1,000G (10.2%, 100,896G)
Nizaha: 501G (5.1%, 13,078G)
joewcarson: 500G (5.1%, 15,394G)
Kronikle: 400G (4.1%, 11,995G)
brenogarwin: 304G (3.1%, 304G)
benticore: 250G (2.6%, 1,536G)
brewerspackers98: 200G (2.0%, 2,057G)
getthemoneyz: 124G (1.3%, 989,723G)
CosmicTactician: 100G (1.0%, 5,362G)
Grandlanzer: 100G (1.0%, 5,102G)
IphoneDarkness: 50G (0.5%, 3,354G)
