Final Bets: black - 17 bets for 8,402G (46.7%, x1.14); purple - 13 bets for 9,608G (53.3%, x0.87)

black bets:
LivingHitokiri: 3,000G (35.7%, 164,046G)
Lyner87: 1,301G (15.5%, 92,286G)
getthemoneyz: 572G (6.8%, 2,066,936G)
Dasutin23: 548G (6.5%, 10,791G)
CorpusCav: 500G (6.0%, 11,870G)
resjudicata3: 432G (5.1%, 432G)
gorgewall: 301G (3.6%, 4,382G)
silentkaster: 250G (3.0%, 2,628G)
killabandaid: 228G (2.7%, 228G)
AllInBot: 200G (2.4%, 200G)
mirapoix: 200G (2.4%, 4,565G)
iBardic: 200G (2.4%, 18,152G)
datadrivenbot: 200G (2.4%, 75,167G)
Lolthsmeat: 137G (1.6%, 137G)
Genkidou: 125G (1.5%, 1,354G)
MoonSugarFiend: 108G (1.3%, 108G)
latebit: 100G (1.2%, 9,670G)

purple bets:
ApplesNP: 2,810G (29.2%, 2,810G)
onehitslay: 1,927G (20.1%, 1,927G)
Mushufasa_: 1,000G (10.4%, 120,802G)
BirbBrainsBot: 1,000G (10.4%, 144,559G)
nifboy: 844G (8.8%, 2,062G)
DanielRKnealeArt: 666G (6.9%, 13,370G)
DarrenDinosaurs: 500G (5.2%, 10,778G)
mindblownnnn: 268G (2.8%, 268G)
Bae0w0: 193G (2.0%, 193G)
DeathTaxesAndAnime: 100G (1.0%, 2,188G)
RunicMagus: 100G (1.0%, 1,545G)
maakur_: 100G (1.0%, 8,075G)
Swish604: 100G (1.0%, 1,178G)
