Final Bets: blue - 15 bets for 9,709G (72.0%, x0.39); yellow - 11 bets for 3,780G (28.0%, x2.57)

blue bets:
DeathTaxesAndAnime: 2,222G (22.9%, 50,073G)
skipsandwiches: 2,020G (20.8%, 109,528G)
Shalloween: 1,000G (10.3%, 61,625G)
Evewho: 1,000G (10.3%, 29,644G)
HuffFlex: 500G (5.1%, 85,765G)
Lord_Gwarth: 500G (5.1%, 9,306G)
Breakdown777: 500G (5.1%, 2,808G)
ExplanationMarkWow: 444G (4.6%, 26,000G)
lijarkh: 344G (3.5%, 344G)
Grayv87: 317G (3.3%, 317G)
FuzzyTigers: 261G (2.7%, 261G)
gorgewall: 201G (2.1%, 10,265G)
datadrivenbot: 200G (2.1%, 85,995G)
Firesheath: 100G (1.0%, 7,389G)
TheBrett: 100G (1.0%, 1,961G)

yellow bets:
reinoe: 1,000G (26.5%, 97,963G)
krombobreaker: 500G (13.2%, 44,008G)
BirbBrainsBot: 496G (13.1%, 129,917G)
Zeroroute: 348G (9.2%, 348G)
squideater_: 300G (7.9%, 6,466G)
getthemoneyz: 236G (6.2%, 2,227,942G)
AllInBot: 200G (5.3%, 200G)
ruleof5: 200G (5.3%, 1,644G)
NicoSavoy: 200G (5.3%, 239,011G)
lygg_mubblez: 200G (5.3%, 769G)
joharbelwey: 100G (2.6%, 100G)
