Final Bets: red - 9 bets for 5,428G (29.4%, x2.40); blue - 13 bets for 13,035G (70.6%, x0.42)

red bets:
Aldrammech: 3,148G (58.0%, 3,148G)
actual_JP: 722G (13.3%, 722G)
Draconis345: 500G (9.2%, 7,423G)
roqqqpsi: 378G (7.0%, 2,524G)
resjudicata3: 280G (5.2%, 280G)
MinBetBot: 100G (1.8%, 18,498G)
DouglasDragonThePoet: 100G (1.8%, 1,077G)
northkoreancleetus: 100G (1.8%, 100G)
DesertWooder: 100G (1.8%, 680G)

blue bets:
DeathTaxesAndAnime: 3,218G (24.7%, 6,311G)
DavenIII: 2,626G (20.1%, 5,253G)
UmaiJam: 2,000G (15.3%, 23,575G)
KasugaiRoastedPeas: 1,237G (9.5%, 1,237G)
Jeeboheebo: 1,002G (7.7%, 24,645G)
NIghtdew14: 1,000G (7.7%, 6,722G)
ko2q: 636G (4.9%, 636G)
BirbBrainsBot: 440G (3.4%, 85,863G)
Aestheta: 300G (2.3%, 1,823G)
AllInBot: 200G (1.5%, 200G)
CosmicTactician: 200G (1.5%, 6,540G)
VolgraTheMoose: 100G (0.8%, 1,699G)
getthemoneyz: 76G (0.6%, 1,561,727G)
