Final Bets: blue - 10 bets for 12,395G (55.3%, x0.81); champion - 11 bets for 10,017G (44.7%, x1.24)

blue bets:
DavenIII: 5,482G (44.2%, 10,964G)
ko2q: 2,660G (21.5%, 2,660G)
Aldrammech: 1,357G (10.9%, 1,357G)
Thyrandaal: 1,000G (8.1%, 162,620G)
Nizaha: 696G (5.6%, 17,426G)
VolgraTheMoose: 501G (4.0%, 3,597G)
TheDeeyo: 298G (2.4%, 298G)
DesertWooder: 200G (1.6%, 1,291G)
ANFz: 101G (0.8%, 46,593G)
MinBetBot: 100G (0.8%, 18,029G)

champion bets:
douchetron: 3,296G (32.9%, 6,464G)
UmaiJam: 2,000G (20.0%, 23,833G)
roqqqpsi: 1,485G (14.8%, 2,700G)
BirbBrainsBot: 1,000G (10.0%, 89,128G)
actual_JP: 916G (9.1%, 916G)
AllInBot: 441G (4.4%, 441G)
RetroGameCommander: 238G (2.4%, 238G)
ar_tactic: 200G (2.0%, 82,816G)
getthemoneyz: 200G (2.0%, 1,563,094G)
northkoreancleetus: 141G (1.4%, 141G)
CosmicTactician: 100G (1.0%, 6,571G)
