Final Bets: white - 14 bets for 9,144G (41.3%, x1.42); black - 24 bets for 13,007G (58.7%, x0.70)

white bets:
fenaen: 1,862G (20.4%, 1,862G)
toka222: 1,600G (17.5%, 75,060G)
TheChainNerd: 1,425G (15.6%, 22,425G)
Aldrammech: 1,000G (10.9%, 34,539G)
CosmicTactician: 500G (5.5%, 4,898G)
OmnibotGamma: 500G (5.5%, 14,286G)
gr8keeper: 500G (5.5%, 553G)
StealthModeLocke: 486G (5.3%, 486G)
coralreeferz: 450G (4.9%, 6,639G)
NIghtdew14: 352G (3.8%, 352G)
cloud92684: 200G (2.2%, 13,306G)
DAC169: 133G (1.5%, 133G)
Firesheath: 100G (1.1%, 3,973G)
getthemoneyz: 36G (0.4%, 748,788G)

black bets:
skillomono: 2,233G (17.2%, 2,233G)
CorpusCav: 1,099G (8.4%, 2,198G)
LDSkinny: 1,000G (7.7%, 8,791G)
Vex_Novisk: 1,000G (7.7%, 26,069G)
Theseawolf1: 1,000G (7.7%, 48,870G)
BirbBrainsBot: 841G (6.5%, 8,513G)
E_Ballard: 600G (4.6%, 600G)
Laserman1000: 575G (4.4%, 21,975G)
NicoSavoy: 550G (4.2%, 550G)
aurosaerondo: 500G (3.8%, 1,055G)
DavenIII: 500G (3.8%, 2,183G)
bruubarg: 400G (3.1%, 3,317G)
Deathmaker06: 384G (3.0%, 384G)
TinchoT: 331G (2.5%, 331G)
benticore: 300G (2.3%, 757G)
CapnChaos12: 300G (2.3%, 18,191G)
nifboy: 250G (1.9%, 10,692G)
letdowncity: 250G (1.9%, 10,616G)
TeaTime29: 200G (1.5%, 3,003G)
serperemagus: 200G (1.5%, 2,073G)
AllInBot: 194G (1.5%, 194G)
AlenaZarek: 100G (0.8%, 38,489G)
Bongomon7: 100G (0.8%, 6,431G)
datadrivenbot: 100G (0.8%, 27,448G)
