Final Bets: purple - 14 bets for 10,959G (52.1%, x0.92); brown - 19 bets for 10,084G (47.9%, x1.09)

purple bets:
toka222: 4,500G (41.1%, 77,336G)
TheChainNerd: 1,452G (13.2%, 24,452G)
Aldrammech: 1,000G (9.1%, 35,961G)
NIghtdew14: 853G (7.8%, 853G)
E_Ballard: 600G (5.5%, 600G)
poulol: 600G (5.5%, 7,160G)
OmnibotGamma: 500G (4.6%, 14,997G)
AlenaZarek: 300G (2.7%, 38,389G)
CapnChaos12: 300G (2.7%, 17,891G)
CosmicTactician: 300G (2.7%, 5,609G)
letdowncity: 250G (2.3%, 10,366G)
TinchoT: 104G (0.9%, 104G)
Firesheath: 100G (0.9%, 4,115G)
datadrivenbot: 100G (0.9%, 27,348G)

brown bets:
roofiepops: 1,400G (13.9%, 15,307G)
CorpusCav: 1,099G (10.9%, 1,099G)
BirbBrainsBot: 1,000G (9.9%, 7,672G)
getthemoneyz: 1,000G (9.9%, 748,839G)
maakur_: 927G (9.2%, 927G)
coralreeferz: 750G (7.4%, 7,279G)
Baron_von_Scrub: 474G (4.7%, 12,995G)
benticore: 457G (4.5%, 457G)
bruubarg: 419G (4.2%, 2,917G)
Deathmaker06: 384G (3.8%, 384G)
NicoSavoy: 356G (3.5%, 356G)
Jinxzers: 318G (3.2%, 318G)
Grandlanzer: 300G (3.0%, 10,440G)
nifboy: 250G (2.5%, 10,442G)
HaateXIII: 250G (2.5%, 30,842G)
TeaTime29: 200G (2.0%, 2,803G)
serperemagus: 200G (2.0%, 1,873G)
pplvee1: 200G (2.0%, 200G)
AllInBot: 100G (1.0%, 100G)
