Final Bets: white - 18 bets for 25,434G (69.1%, x0.45); champion - 14 bets for 11,366G (30.9%, x2.24)

white bets:
E_Ballard: 5,198G (20.4%, 10,397G)
sinnyil2: 5,093G (20.0%, 10,187G)
SephDarkheart: 4,490G (17.7%, 4,490G)
nifboy: 2,309G (9.1%, 4,618G)
pplvee1: 1,283G (5.0%, 1,283G)
evdoggity: 1,000G (3.9%, 236,451G)
ANFz: 1,000G (3.9%, 60,947G)
BirbBrainsBot: 1,000G (3.9%, 120,219G)
RaIshtar: 1,000G (3.9%, 4,837G)
phoenix6107: 894G (3.5%, 3,576G)
EnemyController: 555G (2.2%, 1,467,574G)
killth3kid: 524G (2.1%, 3,792G)
randgridr: 496G (2.0%, 4,683G)
TasisSai: 200G (0.8%, 3,761G)
datadrivenbot: 200G (0.8%, 43,017G)
Hirameki85: 100G (0.4%, 2,306G)
nhammen: 50G (0.2%, 20,566G)
DouglasDragonThePoet: 42G (0.2%, 1,314G)

champion bets:
AlenaZarek: 7,058G (62.1%, 28,233G)
bruubarg: 1,000G (8.8%, 15,159G)
Oreo_Pizza: 500G (4.4%, 41,038G)
benticore: 500G (4.4%, 48,005G)
SeniorBunk: 408G (3.6%, 408G)
slotheye17: 386G (3.4%, 386G)
dogsandcatsand: 356G (3.1%, 356G)
ruleof5: 300G (2.6%, 9,560G)
Verrond: 284G (2.5%, 284G)
AllInBot: 200G (1.8%, 200G)
getthemoneyz: 144G (1.3%, 1,408,292G)
ArlanKels: 105G (0.9%, 2,119G)
mrpickins: 100G (0.9%, 7,171G)
Smugzug: 25G (0.2%, 2,556G)
