Final Bets: red - 19 bets for 12,577G (47.8%, x1.09); champion - 25 bets for 13,740G (52.2%, x0.92)

red bets:
joewcarson: 3,892G (30.9%, 3,892G)
Nickyfive: 1,436G (11.4%, 5,747G)
StealthModeLocke: 1,123G (8.9%, 1,123G)
TheChainNerd: 1,000G (8.0%, 16,706G)
Shalloween: 664G (5.3%, 664G)
serperemagus: 640G (5.1%, 640G)
HASTERIOUS: 637G (5.1%, 12,748G)
catfashions: 588G (4.7%, 588G)
tronfonne: 526G (4.2%, 526G)
HaateXIII: 500G (4.0%, 5,799G)
Laserman1000: 409G (3.3%, 2,509G)
Kronikle: 400G (3.2%, 20,104G)
helpimabug: 280G (2.2%, 280G)
isolatedchapelsix: 139G (1.1%, 1,396G)
maakur_: 100G (0.8%, 5,529G)
Estan_AD: 100G (0.8%, 1,994G)
Digitalsocrates: 100G (0.8%, 587G)
ShintaroNayaka: 33G (0.3%, 1,397G)
getthemoneyz: 10G (0.1%, 720,751G)

champion bets:
Kyune: 2,000G (14.6%, 19,244G)
UmaiJam: 1,667G (12.1%, 1,667G)
MADTheta: 1,000G (7.3%, 5,345G)
Dymntd: 1,000G (7.3%, 25,357G)
Evewho: 1,000G (7.3%, 3,801G)
red__lancer: 1,000G (7.3%, 76,470G)
foofermoofer: 930G (6.8%, 930G)
krasny1944: 750G (5.5%, 1,500G)
GrandmasterFrankerZ: 554G (4.0%, 554G)
bruubarg: 500G (3.6%, 3,835G)
baconbacon1207: 500G (3.6%, 8,756G)
volgrathemoose: 404G (2.9%, 404G)
TheMM42: 400G (2.9%, 10,281G)
moocaotao: 312G (2.3%, 625G)
BirbBrainsBot: 308G (2.2%, 160,532G)
Drusic: 300G (2.2%, 2,300G)
Saldarin: 280G (2.0%, 280G)
NeoKevlar: 200G (1.5%, 1,180G)
O_Heyno: 124G (0.9%, 124G)
AllInBot: 100G (0.7%, 100G)
Devrology101: 100G (0.7%, 833G)
LightSCT: 100G (0.7%, 100G)
datadrivenbot: 100G (0.7%, 21,274G)
HawkSick: 100G (0.7%, 2,536G)
roofiepops: 11G (0.1%, 7,846G)
