Final Bets: green - 28 bets for 20,714G (79.4%, x0.26); yellow - 11 bets for 5,382G (20.6%, x3.85)

green bets:
HaateXIII: 5,000G (24.1%, 104,910G)
Oreo_Pizza: 2,000G (9.7%, 7,144G)
HaplessOne: 1,526G (7.4%, 1,526G)
alrightbye: 1,484G (7.2%, 37,121G)
PotionDweller: 1,000G (4.8%, 12,338G)
ungabunga_bot: 1,000G (4.8%, 267,266G)
getthemoneyz: 1,000G (4.8%, 589,735G)
BirbBrainsBot: 1,000G (4.8%, 13,293G)
gooseyourself: 1,000G (4.8%, 16,522G)
EnemyController: 1,000G (4.8%, 147,144G)
TheMM42: 500G (2.4%, 15,599G)
CapnChaos12: 500G (2.4%, 46,303G)
ColetteMSLP: 500G (2.4%, 24,944G)
RageImmortaI: 500G (2.4%, 5,110G)
trigger15: 488G (2.4%, 488G)
rico_flex: 300G (1.4%, 26,498G)
ANFz: 256G (1.2%, 23,622G)
Nickyfive: 250G (1.2%, 500G)
ll_aja_ll: 200G (1.0%, 1,800G)
KasugaiRoastedPeas: 200G (1.0%, 8,818G)
kaidykat: 200G (1.0%, 377G)
nifboy: 198G (1.0%, 4,956G)
Odin007_88: 108G (0.5%, 108G)
Banzem: 104G (0.5%, 104G)
jkung8: 100G (0.5%, 100G)
DixTrix: 100G (0.5%, 1,000G)
datadrivenbot: 100G (0.5%, 2,549G)
jakeduhhsnake: 100G (0.5%, 124G)

yellow bets:
Pie108: 2,001G (37.2%, 254,392G)
sinnyil2: 1,400G (26.0%, 38,686G)
redrhinofever: 642G (11.9%, 642G)
Estan_AD: 538G (10.0%, 538G)
TheRylander: 200G (3.7%, 1,209G)
ZephyrTempest: 101G (1.9%, 759G)
SeniorBunk: 100G (1.9%, 4,337G)
Evewho: 100G (1.9%, 21,130G)
Squatting_Bear: 100G (1.9%, 842G)
L_M_D: 100G (1.9%, 100G)
potgodtopdog: 100G (1.9%, 11,037G)
