Final Bets: black - 25 bets for 19,542G (43.4%, x1.30); brown - 27 bets for 25,478G (56.6%, x0.77)

black bets:
Virilikus: 5,000G (25.6%, 65,656G)
Zeroroute: 4,683G (24.0%, 7,527G)
LanseDM: 1,000G (5.1%, 7,100G)
MagicBottle: 1,000G (5.1%, 5,062G)
DeathTaxesAndAnime: 979G (5.0%, 1,921G)
thevilmen: 700G (3.6%, 2,024G)
urieltheflameofgod: 659G (3.4%, 3,296G)
YaBoy125: 600G (3.1%, 600G)
Jonusfatson: 500G (2.6%, 1,798G)
MrDiggs49: 500G (2.6%, 8,879G)
TrueRhyme: 500G (2.6%, 3,175G)
I_nod_my_head_when_I_lose: 500G (2.6%, 13,268G)
Ausuri: 500G (2.6%, 13,305G)
TheGuesty: 350G (1.8%, 4,250G)
CCRUNNER149UWP: 333G (1.7%, 1,764G)
Aldrammech: 330G (1.7%, 3,303G)
ColetteMSLP: 300G (1.5%, 12,581G)
Baron_von_Scrub: 252G (1.3%, 3,889G)
alrightbye: 200G (1.0%, 4,525G)
rico_flex: 200G (1.0%, 2,215G)
RughSontos: 100G (0.5%, 827G)
oogthecaveman: 100G (0.5%, 3,154G)
BlinkFS: 100G (0.5%, 616G)
datadrivenbot: 100G (0.5%, 25,220G)
getthemoneyz: 56G (0.3%, 449,039G)

brown bets:
DejaPoo21: 5,652G (22.2%, 5,652G)
Bryon_W: 3,500G (13.7%, 33,184G)
catfashions: 3,295G (12.9%, 3,295G)
SolarisFall: 2,102G (8.3%, 21,021G)
HaplessOne: 2,000G (7.8%, 145,140G)
kai_shee: 1,001G (3.9%, 117,726G)
BirbBrainsBot: 1,000G (3.9%, 289,706G)
red__lancer: 1,000G (3.9%, 25,321G)
Shalloween: 800G (3.1%, 11,614G)
TheMurkGnome: 650G (2.6%, 650G)
NovaKnight21: 600G (2.4%, 4,684G)
Lanshaft: 600G (2.4%, 5,359G)
upvla: 568G (2.2%, 568G)
evdoggity: 416G (1.6%, 416G)
ZephyrTempest: 322G (1.3%, 38,477G)
CapnChaos12: 300G (1.2%, 5,807G)
EnemyController: 300G (1.2%, 36,007G)
Break3r: 284G (1.1%, 284G)
proper__noun__: 248G (1.0%, 248G)
Tithonus: 200G (0.8%, 14,408G)
Evewho: 200G (0.8%, 3,630G)
Generalunderdog: 104G (0.4%, 853G)
AllInBot: 100G (0.4%, 100G)
Lodrak: 100G (0.4%, 2,565G)
ApplesauceBoss: 100G (0.4%, 4,111G)
DrAntiSocial: 31G (0.1%, 1,824G)
ko2q: 5G (0.0%, 2,437G)
