Final Bets: white - 24 bets for 32,596G (51.8%, x0.93); brown - 16 bets for 30,329G (48.2%, x1.07)

white bets:
EnemyController: 9,000G (27.6%, 1,830,028G)
ApplesNP: 8,868G (27.2%, 8,868G)
E_Ballard: 2,826G (8.7%, 2,826G)
maakur_: 1,200G (3.7%, 1,200G)
Nizaha: 1,180G (3.6%, 1,180G)
AnthroMetal: 1,000G (3.1%, 15,398G)
old_overholt_: 1,000G (3.1%, 33,626G)
lowlf: 900G (2.8%, 900G)
killth3kid: 856G (2.6%, 50,249G)
Kronikle: 700G (2.1%, 30,581G)
ko2q: 600G (1.8%, 600G)
Zagorsek: 584G (1.8%, 584G)
DustBirdEX: 521G (1.6%, 1,957G)
bruubarg: 500G (1.5%, 6,030G)
Meta_Five: 500G (1.5%, 6,339G)
Lord_Burrah: 500G (1.5%, 171,500G)
sukotsuto: 400G (1.2%, 11,455G)
DrAntiSocial: 384G (1.2%, 384G)
Chuckolator: 277G (0.8%, 2,245G)
AllInBot: 200G (0.6%, 200G)
datadrivenbot: 200G (0.6%, 83,487G)
mizzmoonshine: 200G (0.6%, 1,063G)
Firesheath: 100G (0.3%, 3,820G)
ikiritofu: 100G (0.3%, 108G)

brown bets:
DavenIII: 7,500G (24.7%, 21,423G)
Sairentozon7: 7,270G (24.0%, 7,270G)
Mudrockk: 5,000G (16.5%, 15,521G)
Thyrandaal: 3,631G (12.0%, 7,120G)
holdenmagronik: 1,564G (5.2%, 3,128G)
Lushifah: 1,000G (3.3%, 15,146G)
BirbBrainsBot: 1,000G (3.3%, 183,982G)
CosmicTactician: 679G (2.2%, 679G)
Mushufasa_: 500G (1.6%, 36,402G)
krombobreaker: 500G (1.6%, 39,837G)
2b_yorha_b: 500G (1.6%, 28,125G)
Spartan_Paladin: 500G (1.6%, 3,526G)
Leonidusx: 200G (0.7%, 518,119G)
Finewax: 200G (0.7%, 5,219G)
getthemoneyz: 184G (0.6%, 2,202,942G)
gorgewall: 101G (0.3%, 4,399G)
