Final Bets: white - 13 bets for 24,306G (47.4%, x1.11); black - 33 bets for 26,986G (52.6%, x0.90)

white bets:
Aldrammech: 20,000G (82.3%, 63,052G)
KaetenLoL: 1,000G (4.1%, 2,354G)
ungabunga_bot: 760G (3.1%, 278,654G)
MaouDono: 546G (2.2%, 546G)
killth3kid: 500G (2.1%, 38,789G)
joewcarson: 500G (2.1%, 3,987G)
vorap: 250G (1.0%, 16,884G)
StreamraY: 200G (0.8%, 4,154G)
amadmet: 150G (0.6%, 3,749G)
AllInBot: 100G (0.4%, 100G)
FriendSquirrel: 100G (0.4%, 28,552G)
Firesheath: 100G (0.4%, 7,282G)
uwuslayer15: 100G (0.4%, 124G)

black bets:
proper__noun__: 4,000G (14.8%, 30,080G)
Chrysaors: 2,138G (7.9%, 42,768G)
Pie108: 2,000G (7.4%, 310,904G)
jakeduhhsnake: 2,000G (7.4%, 21,803G)
Lordminsc: 1,993G (7.4%, 1,993G)
nedryerson01: 1,264G (4.7%, 1,264G)
Nizaha: 1,001G (3.7%, 7,228G)
volgrathemoose: 1,001G (3.7%, 17,733G)
BirbBrainsBot: 1,000G (3.7%, 88,268G)
EnemyController: 1,000G (3.7%, 149,442G)
red__lancer: 1,000G (3.7%, 28,795G)
bairen0: 1,000G (3.7%, 10,323G)
SQUiDSQUARKLIN: 965G (3.6%, 965G)
getthemoneyz: 890G (3.3%, 601,666G)
Estan_AD: 843G (3.1%, 843G)
ZephyrTempest: 681G (2.5%, 4,542G)
Gelwain: 556G (2.1%, 556G)
HaateXIII: 500G (1.9%, 37,264G)
ANFz: 500G (1.9%, 12,222G)
VokrenTV: 500G (1.9%, 619G)
LivingHitokiri: 356G (1.3%, 356G)
rjA0zcOQ96: 300G (1.1%, 37,446G)
FoxtrotNovemberCharlie: 272G (1.0%, 272G)
ACSpree: 267G (1.0%, 267G)
geglash: 200G (0.7%, 1,093G)
midori_ribbon: 200G (0.7%, 896G)
WrathfulRemy: 108G (0.4%, 108G)
DixTrix: 100G (0.4%, 128G)
Evewho: 100G (0.4%, 7,767G)
CosmicTactician: 100G (0.4%, 3,930G)
datadrivenbot: 100G (0.4%, 8,594G)
DrAntiSocial: 50G (0.2%, 6,539G)
daveb_: 1G (0.0%, 1,768G)
