Final Bets: red - 10 bets for 5,330G (40.9%, x1.45); green - 10 bets for 7,710G (59.1%, x0.69)

red bets:
SkyridgeZero: 1,500G (28.1%, 38,459G)
BirbBrainsBot: 1,000G (18.8%, 126,588G)
SuzakuReii: 800G (15.0%, 1,848G)
prince_rogers_nelson_: 600G (11.3%, 600G)
VolgraTheMoose: 501G (9.4%, 3,864G)
getthemoneyz: 228G (4.3%, 1,106,479G)
gorgewall: 201G (3.8%, 28,593G)
placidphoenix: 200G (3.8%, 699G)
Evewho: 200G (3.8%, 1,816G)
CT_5_Holy: 100G (1.9%, 1,439G)

green bets:
sukotsuto: 2,000G (25.9%, 19,094G)
Ruvelia_BibeI: 2,000G (25.9%, 5,260G)
Mesmaster: 2,000G (25.9%, 131,297G)
ShintaroNayaka: 568G (7.4%, 568G)
joewcarson: 348G (4.5%, 348G)
Tithonus: 344G (4.5%, 344G)
ar_tactic: 150G (1.9%, 61,028G)
Sp1ral_b: 100G (1.3%, 212G)
datadrivenbot: 100G (1.3%, 47,251G)
Ring_Wyrm: 100G (1.3%, 1,533G)
