Final Bets: red - 5 bets for 180,439G (73.8%, x0.35); blue - 42 bets for 63,932G (26.2%, x2.82)

red bets:
AllInBot: 146,067G (81.0%, 146,067G)
reinoe: 18,217G (10.1%, 35,720G)
Keeby1: 15,062G (8.3%, 15,062G)
Aldrammech: 725G (0.4%, 725G)
BuffaloCrunch: 368G (0.2%, 368G)

blue bets:
sinnyil2: 11,934G (18.7%, 23,869G)
Shalloween: 8,046G (12.6%, 15,778G)
Lanshaft: 7,705G (12.1%, 7,705G)
toka222: 5,000G (7.8%, 524,128G)
kai_shee: 5,000G (7.8%, 127,203G)
KaLam1ty: 3,000G (4.7%, 7,821G)
Dothan89: 2,000G (3.1%, 17,997G)
joewcarson: 1,897G (3.0%, 1,897G)
Laserman1000: 1,745G (2.7%, 3,490G)
arch8000: 1,000G (1.6%, 6,607G)
ungabunga_bot: 1,000G (1.6%, 111,418G)
BirbBrainsBot: 1,000G (1.6%, 83,181G)
getthemoneyz: 1,000G (1.6%, 475,741G)
old_overholt_: 1,000G (1.6%, 6,661G)
MyFakeLife: 1,000G (1.6%, 27,201G)
I_nod_my_head_when_I_lose: 1,000G (1.6%, 23,555G)
urieltheflameofgod: 989G (1.5%, 9,892G)
Nizaha: 779G (1.2%, 779G)
Pie108: 700G (1.1%, 20,767G)
Chuckolator: 678G (1.1%, 6,581G)
datadrivenbot: 647G (1.0%, 12,072G)
volgrathemoose: 580G (0.9%, 580G)
mirapoix: 580G (0.9%, 580G)
ApplesauceBoss: 552G (0.9%, 552G)
Hamborn: 500G (0.8%, 25,313G)
HASTERIOUS: 488G (0.8%, 488G)
404namesnotfound: 454G (0.7%, 908G)
ko2q: 436G (0.7%, 436G)
DeathTaxesAndAnime: 424G (0.7%, 424G)
friendsquirrel: 420G (0.7%, 420G)
IndecisiveNinja: 408G (0.6%, 408G)
Baron_von_Scrub: 408G (0.6%, 408G)
RunicMagus: 336G (0.5%, 336G)
Vampire_Killer: 312G (0.5%, 312G)
lijarkh: 200G (0.3%, 5,062G)
athros13: 200G (0.3%, 2,271G)
NUMBER1DB: 116G (0.2%, 116G)
byrdturbo: 111G (0.2%, 4,626G)
Tougou: 100G (0.2%, 5,429G)
lawnboxer: 100G (0.2%, 24,878G)
daveb_: 77G (0.1%, 1,416G)
moonliquor: 10G (0.0%, 401G)
