High Risers:
1. Mindblownnnn: +11,622G
2. Minorfffanatic1: +4,370G
3. Willjin: +2,039G
4. Roofiepops: +2,031G
5. Corpuscav: +2,010G
6. J_52: +1,950G
7. Thesabretoothe: +1,522G
8. Haatexiii: +1,248G
9. Thunderducker: +1,207G
10. Xerxesmindbreaker: +1,054G
11. Laserman1000: +504G
12. Reddwind_: +504G
13. Hasterious: +500G
14. Yangusburger: +500G
15. Capnchaos12: +500G
16. Squidestsquid: +500G
17. Lijarkh: +437G
18. Ghazzzzzz: +400G
19. Ser_pyrro: +398G
20. Peeronid: +345G
21. Jherrichowulf: +308G
22. Ruleof5: +200G
23. Go2sleeptv: +200G
24. 7cerulean7: -30G
25. Playdeity: -63G
26. Valensexp_: -192G
27. Zachara: -200G
28. Lunar_kaos: -234G
29. Genkidou: -247G
30. Evewho: -349G
31. Whitetigress: -400G
32. Bufuman: -432G
33. Deathtaxesandanime: -457G
34. Scsuperstar: -500G
35. Lowlf: -560G
36. Chrisk103: -600G
37. Morsigil: -700G
38. Hecsec: -756G
39. Rune339: -1,000G
40. Snarkmage: -1,200G
41. Memoriesoffinal: -1,237G
42. Chuckolator: -1,288G
43. Gorgewall: -1,333G
44. Otakutaylor: -1,347G
45. Scotty297: -1,400G
46. Onehundredfists: -1,911G
47. Old_overholt_: -2,305G
48. Novaknight21: -2,412G
