Final Bets: red - 13 bets for 7,523G (60.1%, x0.66); blue - 13 bets for 4,986G (39.9%, x1.51)

red bets:
mindblownnnn: 2,000G (26.6%, 30,016G)
DeathTaxesAndAnime: 1,311G (17.4%, 1,311G)
lowlf: 1,212G (16.1%, 23,203G)
MemoriesofFinal: 1,000G (13.3%, 65,905G)
Scotty297: 400G (5.3%, 1,516G)
ValensEXP_: 392G (5.2%, 4,249G)
ser_pyrro: 308G (4.1%, 308G)
Evewho: 200G (2.7%, 4,049G)
chrisk103: 200G (2.7%, 7,423G)
otakutaylor: 200G (2.7%, 2,292G)
lunar_kaos: 100G (1.3%, 1,007G)
bufuman: 100G (1.3%, 540G)
hecsec: 100G (1.3%, 864G)

blue bets:
HaateXIII: 1,490G (29.9%, 1,490G)
thunderducker: 800G (16.0%, 800G)
BirbBrainsBot: 749G (15.0%, 149,270G)
Willjin: 600G (12.0%, 600G)
killabandaid: 232G (4.7%, 232G)
JherrichoWulf: 204G (4.1%, 204G)
AllInBot: 200G (4.0%, 200G)
old_overholt_: 200G (4.0%, 29,053G)
datadrivenbot: 200G (4.0%, 73,807G)
XerxesMindbreaker: 104G (2.1%, 104G)
gorgewall: 101G (2.0%, 2,176G)
J_52: 100G (2.0%, 2,772G)
getthemoneyz: 6G (0.1%, 2,067,157G)
