Final Bets: white - 13 bets for 6,729G (66.2%, x0.51); black - 9 bets for 3,430G (33.8%, x1.96)

white bets:
mindblownnnn: 3,000G (44.6%, 30,276G)
BirbBrainsBot: 1,000G (14.9%, 149,400G)
DeathTaxesAndAnime: 852G (12.7%, 852G)
killabandaid: 482G (7.2%, 482G)
getthemoneyz: 320G (4.8%, 2,066,656G)
chrisk103: 200G (3.0%, 7,023G)
Evewho: 200G (3.0%, 4,000G)
datadrivenbot: 200G (3.0%, 74,260G)
gorgewall: 101G (1.5%, 2,404G)
J_52: 100G (1.5%, 5,125G)
jaylyyy: 100G (1.5%, 100G)
lunar_kaos: 100G (1.5%, 982G)
minorfffanatic1: 74G (1.1%, 1,806G)

black bets:
roofiepops: 849G (24.8%, 849G)
OneHundredFists: 564G (16.4%, 564G)
CorpusCav: 500G (14.6%, 16,568G)
otakutaylor: 400G (11.7%, 1,792G)
lijarkh: 384G (11.2%, 1,910G)
ser_pyrro: 308G (9.0%, 308G)
AllInBot: 200G (5.8%, 200G)
Genkidou: 125G (3.6%, 2,073G)
XerxesMindbreaker: 100G (2.9%, 462G)
