Final Bets: blue - 7 bets for 2,013G (8.2%, x11.18); yellow - 18 bets for 22,498G (91.8%, x0.09)

blue bets:
BirbBrainsBot: 1,000G (49.7%, 115,776G)
roofiepops: 408G (20.3%, 408G)
LivingHitokiri: 300G (14.9%, 300G)
getthemoneyz: 150G (7.5%, 1,932,512G)
latebit: 100G (5.0%, 1,867G)
tripaplex: 30G (1.5%, 977G)
gingerfoo69: 25G (1.2%, 3,989G)

yellow bets:
Willjin: 6,000G (26.7%, 30,227G)
Mesmaster: 5,000G (22.2%, 242,521G)
onehitslay: 2,000G (8.9%, 5,996G)
MoonSugarFiend: 1,933G (8.6%, 1,933G)
bruubarg: 1,481G (6.6%, 18,481G)
Runeseeker22: 1,403G (6.2%, 14,039G)
Thyrandaal: 1,000G (4.4%, 12,814G)
Shalloween: 1,000G (4.4%, 7,352G)
SkylerBunny: 688G (3.1%, 688G)
ImmortalMage: 629G (2.8%, 629G)
SephDarkheart: 328G (1.5%, 328G)
ArrenJevleth: 300G (1.3%, 10,304G)
datadrivenbot: 200G (0.9%, 60,343G)
J_MacC1991: 124G (0.6%, 131G)
PantherIscariot: 111G (0.5%, 1,779G)
gorgewall: 101G (0.4%, 12,694G)
AllInBot: 100G (0.4%, 100G)
BartTradingCompany: 100G (0.4%, 8,172G)
