Final Bets: purple - 20 bets for 10,389G (29.1%, x2.44); champion - 13 bets for 25,329G (70.9%, x0.41)

purple bets:
TheMurkGnome: 2,834G (27.3%, 5,668G)
DeathTaxesAndAnime: 1,612G (15.5%, 3,161G)
BirbBrainsBot: 1,000G (9.6%, 50,611G)
killth3kid: 1,000G (9.6%, 103,898G)
ANFz: 1,000G (9.6%, 29,106G)
BoneMiser: 500G (4.8%, 500G)
dogsandcatsand: 400G (3.9%, 1,454G)
phoenix6107: 334G (3.2%, 372G)
ColetteMSLP: 300G (2.9%, 3,804G)
Blakelmenakle: 200G (1.9%, 1,861G)
PrancesWithWolves: 200G (1.9%, 861G)
HaateXIII: 200G (1.9%, 2,200G)
getthemoneyz: 158G (1.5%, 1,186,644G)
gorgewall: 101G (1.0%, 2,038G)
Ring_Wyrm: 100G (1.0%, 7,385G)
ar_tactic: 100G (1.0%, 67,490G)
Grandlanzer: 100G (1.0%, 57,387G)
danielrogercardoso: 100G (1.0%, 390G)
lewdylew: 100G (1.0%, 1,071G)
Nova_riety: 50G (0.5%, 2,156G)

champion bets:
Lydian_C: 12,000G (47.4%, 148,348G)
RaIshtar: 5,998G (23.7%, 5,998G)
nekojin: 1,880G (7.4%, 3,760G)
Spuzzmocker: 1,677G (6.6%, 1,677G)
GrandmasterFrankerZ: 1,001G (4.0%, 16,480G)
roofiepops: 666G (2.6%, 2,325G)
RampagingRobot: 500G (2.0%, 9,000G)
Lanshaft: 464G (1.8%, 5,311G)
Shalloween: 300G (1.2%, 60,302G)
NotBalrog: 300G (1.2%, 26,583G)
ArashiKurobara: 272G (1.1%, 11,034G)
Breakdown777: 260G (1.0%, 860G)
Hasterious: 11G (0.0%, 1,130G)
