Final Bets: red - 17 bets for 10,064G (65.6%, x0.52); blue - 15 bets for 5,272G (34.4%, x1.91)

red bets:
Thyrandaal: 3,116G (31.0%, 3,116G)
Rislyeu: 1,000G (9.9%, 9,424G)
BirbBrainsBot: 1,000G (9.9%, 125,081G)
ANFz: 512G (5.1%, 512G)
turbn: 500G (5.0%, 11,339G)
CosmicTactician: 500G (5.0%, 51,923G)
Rurk: 500G (5.0%, 7,768G)
HaateXIII: 500G (5.0%, 5,885G)
MagicBottle: 484G (4.8%, 20,650G)
killth3kid: 444G (4.4%, 129,973G)
roofiepops: 408G (4.1%, 408G)
Arashii85: 400G (4.0%, 10,984G)
DuneMeta: 200G (2.0%, 4,252G)
alekzanndrr: 200G (2.0%, 743G)
ThreeMileIsland: 100G (1.0%, 1,387G)
datadrivenbot: 100G (1.0%, 52,228G)
Twisted_Nutsatchel: 100G (1.0%, 6,540G)

blue bets:
DuraiPapers: 1,000G (19.0%, 8,993G)
Smokegiant: 1,000G (19.0%, 85,894G)
RampagingRobot: 800G (15.2%, 8,800G)
CelestialLancer: 500G (9.5%, 46,025G)
getthemoneyz: 304G (5.8%, 1,151,454G)
neerrm: 300G (5.7%, 53,047G)
HaychDub: 250G (4.7%, 3,285G)
n2ash: 212G (4.0%, 212G)
Evewho: 200G (3.8%, 21,572G)
Vagrance: 200G (3.8%, 441G)
DustBirdEX: 106G (2.0%, 1,838G)
Aquios_: 100G (1.9%, 1,673G)
enkikavlar: 100G (1.9%, 727G)
twelfthrootoftwo: 100G (1.9%, 13,477G)
Quadh0nk: 100G (1.9%, 4,608G)
