Final Bets: green - 17 bets for 9,074G (44.0%, x1.27); yellow - 12 bets for 11,546G (56.0%, x0.79)

green bets:
killth3kid: 1,000G (11.0%, 27,110G)
BirbBrainsBot: 1,000G (11.0%, 107,785G)
Qaz12301: 1,000G (11.0%, 2,396G)
Mesmaster: 1,000G (11.0%, 150,679G)
OneHundredFists: 915G (10.1%, 915G)
Rislyeu: 683G (7.5%, 683G)
superdevon1: 595G (6.6%, 2,978G)
Lionhermit: 583G (6.4%, 583G)
powergems: 364G (4.0%, 364G)
DustBirdEX: 345G (3.8%, 5,934G)
Valentine009: 290G (3.2%, 290G)
RaIshtar: 272G (3.0%, 272G)
Arcblazer23: 257G (2.8%, 257G)
HaateXIII: 250G (2.8%, 11,046G)
evontno: 250G (2.8%, 7,549G)
getthemoneyz: 170G (1.9%, 780,189G)
waterwatereverywhere: 100G (1.1%, 7,242G)

yellow bets:
YaBoy125: 4,794G (41.5%, 4,794G)
reinoe: 3,000G (26.0%, 56,888G)
flowinprose: 1,000G (8.7%, 126,676G)
BoneMiser: 600G (5.2%, 600G)
HASTERIOUS: 576G (5.0%, 11,530G)
CorpusCav: 555G (4.8%, 18,256G)
Laserman1000: 500G (4.3%, 22,400G)
VynxYukida: 120G (1.0%, 132G)
gorgewall: 101G (0.9%, 1,624G)
ApplesauceBoss: 100G (0.9%, 5,346G)
Grandlanzer: 100G (0.9%, 6,912G)
datadrivenbot: 100G (0.9%, 29,260G)
