Final Bets: green - 15 bets for 10,508G (39.2%, x1.55); yellow - 8 bets for 16,285G (60.8%, x0.65)

green bets:
randgridr: 2,354G (22.4%, 4,708G)
dtrain332: 1,000G (9.5%, 5,570G)
getthemoneyz: 1,000G (9.5%, 1,458,003G)
BirbBrainsBot: 1,000G (9.5%, 92,489G)
NovaKnight21: 962G (9.2%, 962G)
Laserman1000: 952G (9.1%, 952G)
silentkaster: 807G (7.7%, 807G)
killth3kid: 580G (5.5%, 11,067G)
prince_rogers_nelson_: 400G (3.8%, 400G)
flacococo: 383G (3.6%, 383G)
JDogg2K4: 369G (3.5%, 369G)
gorgewall: 201G (1.9%, 19,080G)
AllInBot: 200G (1.9%, 200G)
datadrivenbot: 200G (1.9%, 44,016G)
Firesheath: 100G (1.0%, 6,398G)

yellow bets:
SkylerBunny: 10,000G (61.4%, 106,629G)
DeathTaxesAndAnime: 2,756G (16.9%, 5,405G)
NicoSavoy: 2,000G (12.3%, 320,585G)
rednecknazgul: 909G (5.6%, 909G)
Wooplestein: 200G (1.2%, 3,486G)
ribbiks: 200G (1.2%, 6,344G)
holdenmagronik: 120G (0.7%, 3,215G)
ANFz: 100G (0.6%, 57,066G)
