Final Bets: purple - 4 bets for 46,938G (58.2%, x0.72); brown - 13 bets for 33,719G (41.8%, x1.39)

purple bets:
lastly: 45,338G (96.6%, 45,338G)
Aldrammech: 1,000G (2.1%, 8,278G)
Draconis345: 500G (1.1%, 6,042G)
Zephyrik: 100G (0.2%, 139G)

brown bets:
dogsandcatsand: 24,768G (73.5%, 47,632G)
thaetreis: 4,200G (12.5%, 19,195G)
Error72: 1,133G (3.4%, 1,133G)
BirbBrainsBot: 1,000G (3.0%, 138,989G)
ruleof5: 500G (1.5%, 7,995G)
DesertWooder: 496G (1.5%, 496G)
AllInBot: 477G (1.4%, 477G)
getthemoneyz: 382G (1.1%, 1,559,903G)
roqqqpsi: 262G (0.8%, 276G)
datadrivenbot: 200G (0.6%, 50,901G)
gorgewall: 101G (0.3%, 2,559G)
MinBetBot: 100G (0.3%, 17,011G)
LordTomS: 100G (0.3%, 3,109G)
