Final Bets: black - 19 bets for 20,754G (39.2%, x1.55); champion - 9 bets for 32,161G (60.8%, x0.65)

black bets:
Aldrammech: 13,331G (64.2%, 13,331G)
thaetreis: 1,200G (5.8%, 59,493G)
BirbBrainsBot: 1,000G (4.8%, 139,157G)
NIghtdew14: 750G (3.6%, 4,399G)
VolgraTheMoose: 546G (2.6%, 2,822G)
Draconis345: 500G (2.4%, 10,446G)
Eoika: 500G (2.4%, 5,806G)
SephDarkheart: 500G (2.4%, 66,557G)
Smashy: 392G (1.9%, 392G)
getthemoneyz: 388G (1.9%, 1,563,146G)
just_here2: 300G (1.4%, 7,053G)
roqqqpsi: 262G (1.3%, 276G)
onehitslay: 235G (1.1%, 235G)
datadrivenbot: 200G (1.0%, 51,388G)
Rytor: 200G (1.0%, 12,796G)
DesertWooder: 150G (0.7%, 850G)
MinBetBot: 100G (0.5%, 16,837G)
Zephyrik: 100G (0.5%, 328G)
foxfaeez: 100G (0.5%, 8,216G)

champion bets:
dogsandcatsand: 18,000G (56.0%, 21,036G)
AllInBot: 8,794G (27.3%, 8,794G)
LordTomS: 2,509G (7.8%, 2,509G)
ko2q: 875G (2.7%, 1,750G)
randgridr: 600G (1.9%, 600G)
ruleof5: 500G (1.6%, 7,579G)
Error72: 432G (1.3%, 432G)
ar_tactic: 250G (0.8%, 83,833G)
gorgewall: 201G (0.6%, 2,805G)
