Final Bets: purple - 16 bets for 15,374G (87.3%, x0.15); brown - 7 bets for 2,230G (12.7%, x6.89)

purple bets:
NIghtdew14: 4,299G (28.0%, 4,299G)
dantayystv: 3,000G (19.5%, 3,857G)
BoneMiser: 2,360G (15.4%, 2,360G)
BirbBrainsBot: 1,000G (6.5%, 68,570G)
Breakdown777: 938G (6.1%, 938G)
killth3kid: 736G (4.8%, 73,666G)
gorgewall: 544G (3.5%, 544G)
TasisSai: 409G (2.7%, 802G)
fenaen: 404G (2.6%, 404G)
TheMurkGnome: 356G (2.3%, 356G)
run_with_stone_GUNs: 324G (2.1%, 8,732G)
Grandlanzer: 300G (2.0%, 71,066G)
Mushufasa_: 300G (2.0%, 2,667G)
datadrivenbot: 200G (1.3%, 60,559G)
furrytomahawkk: 104G (0.7%, 104G)
fluffskull: 100G (0.7%, 2,175G)

brown bets:
Ring_Wyrm: 556G (24.9%, 556G)
soren_of_tyto: 500G (22.4%, 30,929G)
getthemoneyz: 316G (14.2%, 1,266,934G)
randgridr: 276G (12.4%, 276G)
superdevon1: 258G (11.6%, 5,171G)
Mysteriousdewd: 224G (10.0%, 224G)
DeathTaxesAndAnime: 100G (4.5%, 7,287G)
