Final Bets: white - 15 bets for 15,132G (52.2%, x0.92); purple - 19 bets for 13,866G (47.8%, x1.09)

white bets:
BoneMiser: 4,008G (26.5%, 4,008G)
Aldrammech: 3,635G (24.0%, 3,635G)
DeathTaxesAndAnime: 3,614G (23.9%, 7,087G)
electric_algus: 800G (5.3%, 48,170G)
killth3kid: 737G (4.9%, 73,773G)
Nohurty: 463G (3.1%, 463G)
cougboi: 433G (2.9%, 433G)
randgridr: 276G (1.8%, 276G)
Mysteriousdewd: 224G (1.5%, 224G)
TasisSai: 215G (1.4%, 422G)
serperemagus: 208G (1.4%, 208G)
datadrivenbot: 200G (1.3%, 60,685G)
RedRiderAyame: 119G (0.8%, 2,119G)
CosmicTactician: 100G (0.7%, 44,882G)
Foamsoldier: 100G (0.7%, 1,341G)

purple bets:
NIghtdew14: 3,056G (22.0%, 6,112G)
dantayystv: 3,000G (21.6%, 3,992G)
BirbBrainsBot: 1,000G (7.2%, 67,834G)
Choco_Joe: 1,000G (7.2%, 23,065G)
gorgewall: 924G (6.7%, 924G)
HaateXIII: 712G (5.1%, 712G)
TheMurkGnome: 605G (4.4%, 605G)
Shalloween: 600G (4.3%, 65,403G)
Mushufasa_: 500G (3.6%, 2,856G)
ValtonZenola: 468G (3.4%, 468G)
SkylerBunny: 452G (3.3%, 452G)
roofiepops: 355G (2.6%, 1,513G)
Ring_Wyrm: 250G (1.8%, 825G)
superdevon1: 233G (1.7%, 4,668G)
AndrewAlexander141: 200G (1.4%, 1,100G)
furrytomahawkk: 177G (1.3%, 177G)
getthemoneyz: 134G (1.0%, 1,266,490G)
Rikrizen: 100G (0.7%, 6,392G)
Firesheath: 100G (0.7%, 2,955G)
