Final Bets: white - 17 bets for 7,913G (50.4%, x0.98); brown - 17 bets for 7,786G (49.6%, x1.02)

white bets:
fenaen: 1,200G (15.2%, 13,590G)
ko2q: 1,000G (12.6%, 13,997G)
DemonRHK: 717G (9.1%, 717G)
Pie108: 700G (8.8%, 21,854G)
Lodrak: 572G (7.2%, 572G)
Draconis345: 500G (6.3%, 2,408G)
ShintaroNayaka: 500G (6.3%, 22,227G)
Theseawolf1: 500G (6.3%, 1,237G)
Laserman1000: 450G (5.7%, 1,945G)
waterwatereverywhere: 356G (4.5%, 356G)
CapnChaos12: 300G (3.8%, 1,882G)
datadrivenbot: 273G (3.5%, 368G)
killth3kid: 260G (3.3%, 11,926G)
SomeCallMeGON: 260G (3.3%, 260G)
ungabunga_bot: 125G (1.6%, 149,180G)
GrandmasterFrankerZ: 100G (1.3%, 2,845G)
ANFz: 100G (1.3%, 5,581G)

brown bets:
Dothan89: 2,000G (25.7%, 20,579G)
kai_shee: 1,001G (12.9%, 142,321G)
TheChainNerd: 1,000G (12.8%, 4,191G)
lifeguard_dan: 673G (8.6%, 673G)
maakur_: 508G (6.5%, 508G)
nifboy: 388G (5.0%, 3,882G)
BirbBrainsBot: 386G (5.0%, 181,326G)
catfashions: 300G (3.9%, 5,980G)
joewcarson: 276G (3.5%, 276G)
InOzWeTrust: 252G (3.2%, 252G)
ZephyrTempest: 226G (2.9%, 73,767G)
FoeSquirrel: 212G (2.7%, 212G)
Sauroc: 172G (2.2%, 172G)
HeroponThrawn: 136G (1.7%, 136G)
daveb_: 100G (1.3%, 2,507G)
ApplesauceBoss: 100G (1.3%, 5,243G)
getthemoneyz: 56G (0.7%, 500,937G)
