Final Bets: green - 26 bets for 16,037G (24.5%, x3.09); yellow - 26 bets for 49,546G (75.5%, x0.32)

green bets:
HaplessOne: 2,500G (15.6%, 88,100G)
Shakarak: 2,000G (12.5%, 19,298G)
DarrenDinosaurs: 1,829G (11.4%, 1,829G)
bpc2163: 1,000G (6.2%, 10,966G)
BirbBrainsBot: 1,000G (6.2%, 216,738G)
getthemoneyz: 1,000G (6.2%, 435,095G)
ungabunga_bot: 956G (6.0%, 19,988G)
WireLord: 691G (4.3%, 691G)
gamesage53: 656G (4.1%, 656G)
Shalloween: 600G (3.7%, 90,537G)
DeathTaxesAndAnime: 572G (3.6%, 572G)
DudeMonkey77: 531G (3.3%, 531G)
PatSouI: 344G (2.1%, 344G)
AdmiralPikachu: 300G (1.9%, 6,513G)
maichenambrai: 237G (1.5%, 237G)
OverlordCuddles: 232G (1.4%, 232G)
DrAntiSocial: 228G (1.4%, 228G)
robespyah: 226G (1.4%, 2,263G)
KasugaiRoastedPeas: 200G (1.2%, 27,485G)
electric_glass: 200G (1.2%, 3,034G)
mivvim: 185G (1.2%, 185G)
b0shii: 150G (0.9%, 855G)
tmo50x: 100G (0.6%, 1,322G)
ruined15: 100G (0.6%, 469G)
zepi_zza: 100G (0.6%, 1,204G)
datadrivenbot: 100G (0.6%, 17,248G)

yellow bets:
sinnyil2: 36,591G (73.9%, 73,183G)
HASTERIOUS: 2,999G (6.1%, 97,862G)
Tyerenex: 1,329G (2.7%, 2,659G)
Laserman1000: 1,031G (2.1%, 1,031G)
MoonSlayerRS: 1,011G (2.0%, 1,011G)
TrogdorTheMemeinator: 1,000G (2.0%, 3,224G)
Herecomedeth: 750G (1.5%, 37,058G)
Lodrak: 501G (1.0%, 32,967G)
reinoe: 500G (1.0%, 33,321G)
Maowiwowi: 435G (0.9%, 435G)
silentperogy: 400G (0.8%, 7,349G)
OneHundredFists: 374G (0.8%, 374G)
loveyouallfriends: 300G (0.6%, 17,974G)
AyeJaee: 300G (0.6%, 662G)
TinhShu: 300G (0.6%, 1,939G)
Pie108: 256G (0.5%, 5,053G)
JackOnFire1: 250G (0.5%, 3,980G)
ugoplatamia: 200G (0.4%, 5,698G)
TheOneRanger: 200G (0.4%, 9,876G)
AllInBot: 177G (0.4%, 177G)
Conome: 132G (0.3%, 132G)
BurlapChampion: 110G (0.2%, 1,430G)
ApplesauceBoss: 100G (0.2%, 3,587G)
chronoxtrigger: 100G (0.2%, 900G)
rico_flex: 100G (0.2%, 3,497G)
cougboi: 100G (0.2%, 6,795G)
