Final Bets: blue - 12 bets for 3,363G (25.9%, x2.86); green - 22 bets for 9,602G (74.1%, x0.35)

blue bets:
sinnyil2: 1,200G (35.7%, 42,147G)
AyeJaee: 475G (14.1%, 475G)
DrAntiSocial: 350G (10.4%, 755G)
Laserman1000: 239G (7.1%, 239G)
Ross_from_Cali: 222G (6.6%, 838G)
zepi_zza: 200G (5.9%, 1,559G)
electric_glass: 200G (5.9%, 3,302G)
timthehoodie: 177G (5.3%, 177G)
Maowiwowi: 100G (3.0%, 100G)
maichenambrai: 100G (3.0%, 1,160G)
cougboi: 50G (1.5%, 5,658G)
silentperogy: 50G (1.5%, 6,849G)

green bets:
Tyerenex: 1,319G (13.7%, 1,319G)
RongRongArts: 1,149G (12.0%, 1,149G)
OverlordCuddles: 1,072G (11.2%, 1,072G)
BirbBrainsBot: 1,000G (10.4%, 218,372G)
bad1dea: 1,000G (10.4%, 37,337G)
TrogdorTheMemeinator: 987G (10.3%, 1,974G)
roofiepops: 550G (5.7%, 4,992G)
0utlier: 420G (4.4%, 2,921G)
DudeMonkey77: 300G (3.1%, 300G)
loveyouallfriends: 300G (3.1%, 17,424G)
ugoplatamia: 200G (2.1%, 5,556G)
KasugaiRoastedPeas: 200G (2.1%, 27,703G)
Ramza63: 200G (2.1%, 2,647G)
BurlapChampion: 105G (1.1%, 1,377G)
AllInBot: 100G (1.0%, 100G)
tmo50x: 100G (1.0%, 1,644G)
chronoxtrigger: 100G (1.0%, 934G)
robespyah: 100G (1.0%, 3,108G)
ApplesauceBoss: 100G (1.0%, 3,517G)
getthemoneyz: 100G (1.0%, 437,902G)
datadrivenbot: 100G (1.0%, 17,587G)
TinhShu: 100G (1.0%, 1,706G)
