Final Bets: green - 6 bets for 2,579G (18.2%, x4.50); yellow - 11 bets for 11,596G (81.8%, x0.22)

green bets:
NovaKnight21: 731G (28.3%, 1,462G)
CT_5_Holy: 472G (18.3%, 472G)
letdowncity: 472G (18.3%, 12,190G)
prince_rogers_nelson_: 404G (15.7%, 404G)
maximumcrit: 300G (11.6%, 7,434G)
AllInBot: 200G (7.8%, 200G)

yellow bets:
randgridr: 3,811G (32.9%, 7,623G)
josephiroth_143: 2,000G (17.2%, 6,637G)
rednecknazgul: 1,808G (15.6%, 1,808G)
sinnyil2: 1,038G (9.0%, 1,038G)
BirbBrainsBot: 1,000G (8.6%, 100,995G)
RaIshtar: 670G (5.8%, 670G)
getthemoneyz: 508G (4.4%, 1,460,267G)
Chambs12: 260G (2.2%, 260G)
gorgewall: 201G (1.7%, 14,476G)
datadrivenbot: 200G (1.7%, 43,978G)
DouglasDragonThePoet: 100G (0.9%, 884G)
