Final Bets: purple - 7 bets for 3,719G (37.5%, x1.67); brown - 8 bets for 6,208G (62.5%, x0.60)

purple bets:
sinnyil2: 1,471G (39.6%, 1,471G)
BirbBrainsBot: 1,000G (26.9%, 98,995G)
getthemoneyz: 488G (13.1%, 1,459,701G)
RaIshtar: 300G (8.1%, 300G)
Chambs12: 260G (7.0%, 260G)
CT_5_Holy: 100G (2.7%, 1,594G)
resjudicata3: 100G (2.7%, 3,030G)

brown bets:
AllInBot: 2,021G (32.6%, 2,021G)
randgridr: 1,906G (30.7%, 3,812G)
DouglasDragonThePoet: 608G (9.8%, 608G)
Snowfats: 500G (8.1%, 11,927G)
letdowncity: 472G (7.6%, 14,708G)
maximumcrit: 300G (4.8%, 8,035G)
gorgewall: 201G (3.2%, 14,444G)
datadrivenbot: 200G (3.2%, 43,946G)
