Final Bets: yellow - 9 bets for 5,132G (30.8%, x2.25); white - 12 bets for 11,553G (69.2%, x0.44)

yellow bets:
MagicBottle: 1,000G (19.5%, 4,006G)
DamnThatShark: 1,000G (19.5%, 4,798G)
BirbBrainsBot: 1,000G (19.5%, 70,038G)
Aldrammech: 777G (15.1%, 777G)
Rytor: 500G (9.7%, 7,703G)
DavenIII: 500G (9.7%, 1,247G)
klefelix: 155G (3.0%, 155G)
ANFz: 100G (1.9%, 7,768G)
datadrivenbot: 100G (1.9%, 46,580G)

white bets:
Zbgs: 4,086G (35.4%, 4,086G)
Spartan_Paladin: 2,500G (21.6%, 50,517G)
pplvee1: 2,000G (17.3%, 49,212G)
E_Ballard: 676G (5.9%, 676G)
ShintaroNayaka: 560G (4.8%, 560G)
Laserman1000: 500G (4.3%, 11,900G)
Forkmore: 424G (3.7%, 424G)
roqqqpsi: 225G (1.9%, 22,519G)
getthemoneyz: 186G (1.6%, 1,075,875G)
PrancesWithWolves: 160G (1.4%, 250G)
neocarbuncle: 136G (1.2%, 136G)
nifboy: 100G (0.9%, 3,749G)
