Final Bets: purple - 15 bets for 8,283G (36.2%, x1.77); brown - 14 bets for 14,629G (63.8%, x0.57)

purple bets:
DavenIII: 2,330G (28.1%, 4,660G)
snkey: 1,000G (12.1%, 9,375G)
BaronHaynes: 1,000G (12.1%, 23,563G)
BirbBrainsBot: 1,000G (12.1%, 55,723G)
E_Ballard: 656G (7.9%, 2,196G)
ser_pyrro: 500G (6.0%, 4,444G)
upvla: 500G (6.0%, 500G)
pplvee1: 324G (3.9%, 324G)
brodeity: 272G (3.3%, 3,455G)
datadrivenbot: 200G (2.4%, 55,432G)
projekt_mike: 200G (2.4%, 9,325G)
Lyner87: 100G (1.2%, 103,336G)
CassiePhoenix: 100G (1.2%, 2,948G)
DracoknightZero: 100G (1.2%, 611G)
latebit: 1G (0.0%, 7,817G)

brown bets:
BappleTrees: 8,720G (59.6%, 8,720G)
silentkaster: 1,256G (8.6%, 1,256G)
VolgraTheMoose: 911G (6.2%, 911G)
Raixelol: 596G (4.1%, 17,513G)
krombobreaker: 500G (3.4%, 2,799G)
CosmicTactician: 500G (3.4%, 29,359G)
SeniorBunk: 500G (3.4%, 8,516G)
getthemoneyz: 468G (3.2%, 1,918,860G)
ValensEXP_: 326G (2.2%, 326G)
hotpocketsofficial: 236G (1.6%, 236G)
Ogema_theDream: 216G (1.5%, 216G)
aceof86: 200G (1.4%, 4,626G)
AllInBot: 100G (0.7%, 100G)
BartTradingCompany: 100G (0.7%, 3,640G)
