Final Bets: brown - 10 bets for 31,235G (68.3%, x0.46); champion - 20 bets for 14,506G (31.7%, x2.15)

brown bets:
BappleTrees: 28,034G (89.8%, 28,034G)
VolgraTheMoose: 720G (2.3%, 720G)
E_Ballard: 656G (2.1%, 656G)
skillomono: 540G (1.7%, 1,080G)
Craymel_Mage: 500G (1.6%, 2,798G)
Ogema_theDream: 384G (1.2%, 384G)
gorgewall: 101G (0.3%, 6,999G)
AllInBot: 100G (0.3%, 100G)
Lyner87: 100G (0.3%, 103,254G)
CosmicTactician: 100G (0.3%, 29,741G)

champion bets:
iBardic: 2,000G (13.8%, 13,344G)
foxfaeez: 1,893G (13.0%, 1,893G)
Error72: 1,001G (6.9%, 58,428G)
snkey: 1,000G (6.9%, 8,486G)
brodeity: 1,000G (6.9%, 2,378G)
BaronHaynes: 1,000G (6.9%, 20,498G)
Phi_Sig: 1,000G (6.9%, 32,455G)
BirbBrainsBot: 1,000G (6.9%, 52,140G)
ser_pyrro: 1,000G (6.9%, 2,183G)
Rytor: 934G (6.4%, 1,832G)
upvla: 500G (3.4%, 500G)
just_here2: 500G (3.4%, 41,529G)
hotpocketsofficial: 432G (3.0%, 432G)
Neech: 296G (2.0%, 296G)
ValensEXP_: 264G (1.8%, 771G)
datadrivenbot: 200G (1.4%, 55,254G)
getthemoneyz: 186G (1.3%, 1,918,939G)
BartTradingCompany: 100G (0.7%, 3,888G)
RunicMagus: 100G (0.7%, 8,947G)
latebit: 100G (0.7%, 7,797G)
