Final Bets: white - 13 bets for 14,984G (80.5%, x0.24); black - 8 bets for 3,622G (19.5%, x4.14)

white bets:
RunicMagus: 8,000G (53.4%, 23,993G)
rico_flex: 1,500G (10.0%, 25,272G)
killth3kid: 1,000G (6.7%, 112,133G)
DeathTaxesAndAnime: 888G (5.9%, 888G)
Evewho: 684G (4.6%, 684G)
Zagorsek: 664G (4.4%, 664G)
bahamutlagooon: 648G (4.3%, 12,979G)
randgridr: 500G (3.3%, 3,502G)
Firesheath: 428G (2.9%, 428G)
amiture: 272G (1.8%, 272G)
datadrivenbot: 200G (1.3%, 56,099G)
Jumza: 100G (0.7%, 362G)
nifboy: 100G (0.7%, 16,716G)

black bets:
ANFz: 1,000G (27.6%, 41,575G)
BirbBrainsBot: 1,000G (27.6%, 142,407G)
fluffskull: 558G (15.4%, 558G)
getthemoneyz: 378G (10.4%, 1,225,814G)
prince_rogers_nelson_: 336G (9.3%, 336G)
KasugaiRoastedPeas: 200G (5.5%, 11,284G)
TasisSai: 100G (2.8%, 183G)
raenrond: 50G (1.4%, 260G)
