Final Bets: red - 15 bets for 8,416G (66.2%, x0.51); green - 10 bets for 4,299G (33.8%, x1.96)

red bets:
DeathTaxesAndAnime: 1,894G (22.5%, 1,894G)
electric_algus: 1,000G (11.9%, 48,857G)
killth3kid: 1,000G (11.9%, 112,266G)
Firesheath: 917G (10.9%, 917G)
Evewho: 684G (8.1%, 684G)
bahamutlagooon: 598G (7.1%, 11,962G)
amiture: 580G (6.9%, 580G)
DudeMonkey77: 408G (4.8%, 408G)
randgridr: 340G (4.0%, 3,342G)
ThreeMileIsland: 224G (2.7%, 224G)
gorgewall: 201G (2.4%, 16,829G)
KasugaiRoastedPeas: 200G (2.4%, 11,911G)
datadrivenbot: 200G (2.4%, 56,126G)
victoriolue: 100G (1.2%, 3,717G)
Jumza: 70G (0.8%, 384G)

green bets:
BirbBrainsBot: 1,000G (23.3%, 147,677G)
NicoSavoy: 1,000G (23.3%, 143,721G)
Seaweed_B: 500G (11.6%, 10,108G)
getthemoneyz: 426G (9.9%, 1,228,511G)
letdowncity: 368G (8.6%, 6,173G)
Snoopiku: 350G (8.1%, 32,038G)
rico_flex: 300G (7.0%, 24,905G)
RunicMagus: 250G (5.8%, 1,000G)
TasisSai: 100G (2.3%, 710G)
moonliquor: 5G (0.1%, 2,077G)
