Final Bets: white - 12 bets for 13,575G (37.7%, x1.66); champion - 20 bets for 22,478G (62.3%, x0.60)

white bets:
old_overholt_: 4,358G (32.1%, 8,716G)
Nizaha: 3,895G (28.7%, 7,791G)
technominari: 1,000G (7.4%, 97,744G)
Shalloween: 1,000G (7.4%, 62,403G)
Sairentozon7: 712G (5.2%, 712G)
dogsandcatsand: 588G (4.3%, 2,007G)
Demon_Lord_Josh: 579G (4.3%, 579G)
ChiChiRodriguez: 475G (3.5%, 475G)
lowlf: 420G (3.1%, 3,815G)
TheBrett: 348G (2.6%, 348G)
RunicMagus: 100G (0.7%, 34,301G)
JethroThrul: 100G (0.7%, 2,726G)

champion bets:
Leonidusx: 10,000G (44.5%, 550,773G)
VolgraTheMoose: 2,302G (10.2%, 4,604G)
Zagorsek: 1,805G (8.0%, 1,805G)
tripaplex: 1,000G (4.4%, 42,051G)
BirbBrainsBot: 1,000G (4.4%, 118,633G)
killth3kid: 872G (3.9%, 29,555G)
E_Ballard: 716G (3.2%, 716G)
fenaen: 704G (3.1%, 36,406G)
DavenIII: 673G (3.0%, 6,733G)
getthemoneyz: 668G (3.0%, 2,225,266G)
Zetchryn: 492G (2.2%, 492G)
pplvee1: 480G (2.1%, 480G)
HorusTaurus: 456G (2.0%, 456G)
coralreeferz: 340G (1.5%, 340G)
DHaveWord: 224G (1.0%, 224G)
AllInBot: 200G (0.9%, 200G)
datadrivenbot: 200G (0.9%, 86,607G)
squideater_: 146G (0.6%, 146G)
nhammen: 100G (0.4%, 55,580G)
Firesheath: 100G (0.4%, 6,910G)
