Final Bets: red - 10 bets for 10,091G (55.6%, x0.80); blue - 14 bets for 8,068G (44.4%, x1.25)

red bets:
HASTERIOUS: 3,975G (39.4%, 3,975G)
J2DaBibbles: 1,688G (16.7%, 1,688G)
HaplessOne: 1,500G (14.9%, 75,539G)
BirbBrainsBot: 1,000G (9.9%, 183,618G)
Phytik: 739G (7.3%, 9,399G)
Lanshaft: 689G (6.8%, 1,379G)
getthemoneyz: 196G (1.9%, 499,140G)
gorgewall: 104G (1.0%, 104G)
BlinkFS: 100G (1.0%, 39,142G)
SaintOmerville: 100G (1.0%, 2,440G)

blue bets:
megaman2202: 2,631G (32.6%, 2,631G)
sinnyil2: 1,200G (14.9%, 42,177G)
rocl: 1,000G (12.4%, 66,221G)
YaBoy125: 777G (9.6%, 6,200G)
DustyRelic: 500G (6.2%, 22,960G)
ShintaroNayaka: 400G (5.0%, 15,838G)
Aneyus: 385G (4.8%, 19,256G)
Jeeboheebo: 313G (3.9%, 313G)
Dexsana: 268G (3.3%, 268G)
Sitiran: 160G (2.0%, 1,602G)
HeroponThrawn: 136G (1.7%, 136G)
Scotty297: 100G (1.2%, 100G)
powergems: 100G (1.2%, 8,377G)
datadrivenbot: 98G (1.2%, 100G)
