Final Bets: black - 10 bets for 11,109G (55.4%, x0.81); purple - 13 bets for 8,944G (44.6%, x1.24)

black bets:
YaBoy125: 7,956G (71.6%, 15,600G)
HASTERIOUS: 748G (6.7%, 748G)
itzover9001: 500G (4.5%, 14,773G)
ShintaroNayaka: 500G (4.5%, 17,265G)
datadrivenbot: 403G (3.6%, 404G)
Treapvort: 400G (3.6%, 400G)
Jeeboheebo: 208G (1.9%, 208G)
Aneyus: 194G (1.7%, 19,408G)
MetalSeadramon: 100G (0.9%, 4,732G)
Tithonus: 100G (0.9%, 6,159G)

purple bets:
kai_shee: 1,001G (11.2%, 141,547G)
volgrathemoose: 1,001G (11.2%, 9,323G)
TheChainNerd: 1,000G (11.2%, 7,624G)
BirbBrainsBot: 1,000G (11.2%, 186,664G)
getthemoneyz: 1,000G (11.2%, 500,760G)
leakimiko: 1,000G (11.2%, 1,000G)
HeroponThrawn: 648G (7.2%, 648G)
megaman2202: 641G (7.2%, 1,282G)
Lanshaft: 600G (6.7%, 600G)
diottt: 477G (5.3%, 477G)
exaltedhamster: 250G (2.8%, 6,081G)
Scotty297: 167G (1.9%, 167G)
Sitiran: 159G (1.8%, 1,591G)
