Final Bets: white - 33 bets for 61,609G (29.5%, x2.39); purple - 2 bets for 146,983G (70.5%, x0.42)

white bets:
HaateXIII: 14,659G (23.8%, 29,319G)
Mesmaster: 10,000G (16.2%, 73,759G)
Thyrandaal: 7,777G (12.6%, 14,811G)
Rytor: 4,619G (7.5%, 4,619G)
Mushufasa_: 4,000G (6.5%, 16,958G)
Wrath189: 2,578G (4.2%, 2,578G)
old_overholt_: 2,000G (3.2%, 5,647G)
Tarheels218: 2,000G (3.2%, 5,699G)
highelectricaltemperature: 1,596G (2.6%, 3,193G)
CorpusCav: 1,001G (1.6%, 7,781G)
ANFz: 1,000G (1.6%, 4,796G)
reinoe: 1,000G (1.6%, 20,280G)
BirbBrainsBot: 1,000G (1.6%, 9,919G)
lijarkh: 1,000G (1.6%, 6,584G)
E_Ballard: 824G (1.3%, 86,668G)
Nizaha: 792G (1.3%, 89,468G)
Aldrammech: 700G (1.1%, 700G)
getthemoneyz: 646G (1.0%, 1,797,668G)
thunderducker: 508G (0.8%, 508G)
krombobreaker: 500G (0.8%, 2,841G)
ForagerCats: 500G (0.8%, 16,182G)
thebluesman: 420G (0.7%, 958G)
Greggernaut: 414G (0.7%, 414G)
just_here2: 352G (0.6%, 26,780G)
Lord_Gwarth: 337G (0.5%, 3,025G)
CapnChaos12: 300G (0.5%, 3,285G)
poorest_hobo: 232G (0.4%, 232G)
resjudicata3: 200G (0.3%, 11,243G)
datadrivenbot: 200G (0.3%, 65,077G)
killth3kid: 200G (0.3%, 6,976G)
Yangusburger: 104G (0.2%, 104G)
brenogarwin: 100G (0.2%, 16,594G)
Zadckiel: 50G (0.1%, 263G)

purple bets:
VolgraTheMoose: 145,302G (98.9%, 290,605G)
dogsandcatsand: 1,681G (1.1%, 1,681G)
