Final Bets: black - 12 bets for 7,037G (52.7%, x0.90); brown - 11 bets for 6,321G (47.3%, x1.11)

black bets:
Mesmaster: 2,000G (28.4%, 120,502G)
BirbBrainsBot: 1,000G (14.2%, 115,574G)
Thyrandaal: 1,000G (14.2%, 16,293G)
YaBoy125: 624G (8.9%, 624G)
prince_rogers_nelson_: 600G (8.5%, 600G)
HaateXIII: 500G (7.1%, 3,508G)
reinoe: 500G (7.1%, 14,216G)
Klednar21: 231G (3.3%, 231G)
Evewho: 200G (2.8%, 10,925G)
getthemoneyz: 182G (2.6%, 1,106,549G)
SuzakuReii: 100G (1.4%, 4,750G)
Sans_from_Snowdin: 100G (1.4%, 24,646G)

brown bets:
SkylerBunny: 2,000G (31.6%, 516,812G)
UmaiJam: 1,300G (20.6%, 35,169G)
lowlf: 1,111G (17.6%, 92,948G)
Laserman1000: 500G (7.9%, 22,000G)
Arashii85: 400G (6.3%, 4,975G)
twelfthrootoftwo: 300G (4.7%, 16,795G)
Neo_Exodus: 200G (3.2%, 5,617G)
superdevon1: 160G (2.5%, 1,602G)
ar_tactic: 150G (2.4%, 61,137G)
Ring_Wyrm: 100G (1.6%, 3,147G)
datadrivenbot: 100G (1.6%, 48,183G)
