Final Bets: black - 13 bets for 5,514G (48.6%, x1.06); purple - 8 bets for 5,829G (51.4%, x0.95)

black bets:
killth3kid: 1,000G (18.1%, 100,074G)
Evewho: 823G (14.9%, 1,614G)
roqqqpsi: 742G (13.5%, 74,259G)
Cryptopsy70: 600G (10.9%, 21,074G)
Lanshaft: 468G (8.5%, 6,254G)
DustBirdEX: 456G (8.3%, 456G)
ZCKaiser: 316G (5.7%, 4,200G)
DavenIII: 308G (5.6%, 308G)
gorgewall: 201G (3.6%, 28,072G)
datadrivenbot: 200G (3.6%, 55,673G)
Shalloween: 200G (3.6%, 63,950G)
enkikavlar: 100G (1.8%, 6,643G)
CosmicTactician: 100G (1.8%, 42,885G)

purple bets:
OneHundredFists: 2,327G (39.9%, 4,563G)
BirbBrainsBot: 1,000G (17.2%, 105,123G)
HaateXIII: 664G (11.4%, 664G)
Zeroroute: 600G (10.3%, 600G)
Nizaha: 528G (9.1%, 6,895G)
getthemoneyz: 310G (5.3%, 1,210,137G)
IDruggedShamu: 300G (5.1%, 3,820G)
TasisSai: 100G (1.7%, 1,546G)
