Final Bets: white - 9 bets for 7,508G (42.0%, x1.38); black - 12 bets for 10,355G (58.0%, x0.73)

white bets:
gooseyourself: 1,674G (22.3%, 3,348G)
ACSpree: 1,225G (16.3%, 1,225G)
BirbBrainsBot: 1,000G (13.3%, 51,508G)
getthemoneyz: 1,000G (13.3%, 1,021,981G)
Draconis345: 1,000G (13.3%, 64,464G)
ShintaroNayaka: 719G (9.6%, 719G)
eudes89: 530G (7.1%, 530G)
alterworlds: 240G (3.2%, 240G)
Lydian_C: 120G (1.6%, 189,690G)

black bets:
CassiePhoenix: 2,065G (19.9%, 2,065G)
VolgraTheMoose: 2,001G (19.3%, 10,211G)
nifboy: 1,678G (16.2%, 1,678G)
BlackFireUK: 1,000G (9.7%, 31,074G)
cam_ATS: 1,000G (9.7%, 4,650G)
UmaiJam: 1,000G (9.7%, 3,440G)
prince_rogers_nelson_: 500G (4.8%, 14,050G)
twelfthrootoftwo: 500G (4.8%, 6,984G)
gorgewall: 401G (3.9%, 17,851G)
E_Ballard: 100G (1.0%, 18,118G)
datadrivenbot: 100G (1.0%, 45,805G)
nhammen: 10G (0.1%, 4,470G)
