Final Bets: red - 12 bets for 6,920G (77.6%, x0.29); blue - 7 bets for 1,992G (22.4%, x3.47)

red bets:
sinnyil2: 1,367G (19.8%, 2,735G)
AllInBot: 1,129G (16.3%, 1,129G)
latebit: 1,000G (14.5%, 3,911G)
SephDarkheart: 600G (8.7%, 164,943G)
SkylerBunny: 584G (8.4%, 584G)
Draconis345: 552G (8.0%, 18,526G)
killth3kid: 532G (7.7%, 2,029G)
CosmicTactician: 500G (7.2%, 38,462G)
MemoriesofFinal: 240G (3.5%, 240G)
datadrivenbot: 200G (2.9%, 63,927G)
Sinikt: 148G (2.1%, 148G)
BartTradingCompany: 68G (1.0%, 505G)

blue bets:
BirbBrainsBot: 1,000G (50.2%, 63,831G)
DLJuggernaut: 468G (23.5%, 468G)
Lydian_C: 123G (6.2%, 16,083G)
gorgewall: 101G (5.1%, 10,662G)
ko2q: 100G (5.0%, 5,748G)
Runeseeker22: 100G (5.0%, 949G)
Scurg: 100G (5.0%, 1,023G)
