Final Bets: purple - 28 bets for 37,001G (83.2%, x0.20); brown - 16 bets for 7,493G (16.8%, x4.94)

purple bets:
roofiepops: 14,543G (39.3%, 14,543G)
MoonSlayerRS: 5,415G (14.6%, 5,415G)
Aldrammech: 3,434G (9.3%, 3,434G)
YaBoy125: 2,371G (6.4%, 2,371G)
maakur_: 1,834G (5.0%, 1,834G)
Lodrak: 1,531G (4.1%, 1,531G)
RunicMagus: 1,280G (3.5%, 1,280G)
SWATb1gdog: 826G (2.2%, 826G)
datadrivenbot: 709G (1.9%, 22,966G)
Lanshaft: 600G (1.6%, 600G)
Pochitchi: 533G (1.4%, 533G)
HASTERIOUS: 507G (1.4%, 507G)
volgrathemoose: 501G (1.4%, 4,368G)
ThePuss: 427G (1.2%, 427G)
getthemoneyz: 426G (1.2%, 478,533G)
luminarii: 410G (1.1%, 13,094G)
JoeykinsGaming: 300G (0.8%, 4,046G)
rrokushoo: 300G (0.8%, 1,585G)
Tithonus: 200G (0.5%, 14,169G)
ungabunga_bot: 116G (0.3%, 112,320G)
AllInBot: 100G (0.3%, 100G)
Firesheath: 100G (0.3%, 2,584G)
RughSontos: 100G (0.3%, 2,008G)
Langrisser: 100G (0.3%, 2,981G)
ploikmjr: 100G (0.3%, 570G)
hutna: 100G (0.3%, 3,359G)
llamacatbutt: 100G (0.3%, 1,037G)
roqqqpsi: 38G (0.1%, 1,931G)

brown bets:
Shakarak: 1,717G (22.9%, 3,434G)
BirbBrainsBot: 1,000G (13.3%, 79,634G)
Nizaha: 644G (8.6%, 644G)
MirtaiAtana: 616G (8.2%, 616G)
DeathTaxesAndAnime: 581G (7.8%, 581G)
fenaen: 500G (6.7%, 7,821G)
CapnChaos12: 420G (5.6%, 420G)
madming25: 411G (5.5%, 411G)
kekkerscrew: 400G (5.3%, 14,491G)
DejaPoo21: 372G (5.0%, 372G)
ZephyrTempest: 232G (3.1%, 53,049G)
Kronikle: 200G (2.7%, 4,992G)
Tougou: 100G (1.3%, 4,904G)
ko2q: 100G (1.3%, 4,059G)
BlinkFS: 100G (1.3%, 15,153G)
astrozin11: 100G (1.3%, 9,769G)
