Final Bets: yellow - 14 bets for 16,721G (59.3%, x0.69); champion - 7 bets for 11,482G (40.7%, x1.46)

yellow bets:
ZephyrBurst83: 3,300G (19.7%, 3,300G)
UmaiJam: 3,000G (17.9%, 64,332G)
NIghtdew14: 2,500G (15.0%, 16,912G)
douchetron: 2,213G (13.2%, 4,340G)
RaIshtar: 1,742G (10.4%, 1,742G)
BirbBrainsBot: 1,000G (6.0%, 133,225G)
roqqqpsi: 757G (4.5%, 1,165G)
letdowncity: 480G (2.9%, 15,168G)
getthemoneyz: 460G (2.8%, 1,475,157G)
BoneMiser: 376G (2.2%, 376G)
WhattayaBrian: 280G (1.7%, 280G)
Mister_Quof: 224G (1.3%, 224G)
datadrivenbot: 200G (1.2%, 50,919G)
DouglasDragonThePoet: 189G (1.1%, 1,397G)

champion bets:
KasugaiRoastedPeas: 5,532G (48.2%, 5,532G)
maximumcrit: 2,000G (17.4%, 13,298G)
Zachara: 1,500G (13.1%, 137,500G)
E_Ballard: 1,124G (9.8%, 1,124G)
randgridr: 600G (5.2%, 600G)
AllInBot: 576G (5.0%, 576G)
SensualADC: 150G (1.3%, 1,917G)
