Final Bets: green - 15 bets for 11,426G (59.8%, x0.67); yellow - 11 bets for 7,690G (40.2%, x1.49)

green bets:
Thyrandaal: 2,800G (24.5%, 2,800G)
RunicMagus: 1,020G (8.9%, 61,896G)
BirbBrainsBot: 1,000G (8.8%, 96,785G)
Lord_Burrah: 1,000G (8.8%, 163,000G)
Sairentozon7: 1,000G (8.8%, 82,007G)
killth3kid: 820G (7.2%, 40,082G)
fenaen: 668G (5.8%, 22,829G)
just_here2: 532G (4.7%, 20,197G)
khelor_: 500G (4.4%, 11,711G)
ExplanationMarkWow: 500G (4.4%, 40,744G)
pplvee1: 468G (4.1%, 468G)
2b_yorha_b: 400G (3.5%, 16,336G)
getthemoneyz: 318G (2.8%, 2,170,738G)
mirapoix: 200G (1.8%, 4,054G)
datadrivenbot: 200G (1.8%, 83,151G)

yellow bets:
DavenIII: 2,500G (32.5%, 14,124G)
evontno: 1,457G (18.9%, 1,457G)
Lord_Gwarth: 1,000G (13.0%, 18,266G)
VolgraTheMoose: 952G (12.4%, 18,233G)
JonnyCue: 500G (6.5%, 11,673G)
AllInBot: 443G (5.8%, 443G)
heropong: 304G (4.0%, 304G)
Musashi45: 284G (3.7%, 284G)
maakur_: 100G (1.3%, 5,285G)
AbandonedHall: 100G (1.3%, 1,068G)
king_smashington: 50G (0.7%, 3,232G)
