Final Bets: blue - 2 bets for 18,617G (37.9%, x1.64); champion - 27 bets for 30,513G (62.1%, x0.61)

blue bets:
Thyrandaal: 17,827G (95.8%, 17,827G)
Sharosa: 790G (4.2%, 1,581G)

champion bets:
acid_flashback: 10,000G (32.8%, 37,033G)
actual_JP: 5,000G (16.4%, 17,293G)
AllInBot: 2,822G (9.2%, 2,822G)
Bryon_W: 1,936G (6.3%, 1,936G)
RunicMagus: 1,020G (3.3%, 64,368G)
BirbBrainsBot: 1,000G (3.3%, 95,468G)
Lord_Gwarth: 1,000G (3.3%, 17,519G)
Sairentozon7: 1,000G (3.3%, 81,190G)
VolgraTheMoose: 952G (3.1%, 17,566G)
killth3kid: 820G (2.7%, 39,494G)
heropong: 790G (2.6%, 790G)
old_overholt_: 500G (1.6%, 58,827G)
ioksee: 500G (1.6%, 1,600G)
ExplanationMarkWow: 500G (1.6%, 42,085G)
DejaPoo21: 500G (1.6%, 6,962G)
JonnyCue: 500G (1.6%, 15,484G)
2b_yorha_b: 400G (1.3%, 16,309G)
Musashi45: 284G (0.9%, 284G)
datadrivenbot: 200G (0.7%, 85,368G)
getthemoneyz: 166G (0.5%, 2,171,464G)
roofiepops: 123G (0.4%, 2,098G)
nhammen: 100G (0.3%, 59,253G)
maakur_: 100G (0.3%, 5,760G)
Error72: 100G (0.3%, 1,545G)
Firesheath: 100G (0.3%, 2,278G)
king_smashington: 50G (0.2%, 3,665G)
FuzzyTigers: 50G (0.2%, 2,140G)
