Final Bets: purple - 19 bets for 12,289G (48.5%, x1.06); brown - 16 bets for 13,042G (51.5%, x0.94)

purple bets:
killth3kid: 2,000G (16.3%, 73,953G)
Evewho: 1,225G (10.0%, 2,402G)
mpghappiness: 1,056G (8.6%, 1,056G)
nifboy: 1,000G (8.1%, 24,454G)
ungabunga_bot: 1,000G (8.1%, 443,748G)
ThePineappleSalesman: 1,000G (8.1%, 32,444G)
Dexsana: 1,000G (8.1%, 4,372G)
mannequ1n: 748G (6.1%, 748G)
EmperorBeef: 747G (6.1%, 248,747G)
BoneMiser: 683G (5.6%, 683G)
Velixtra: 500G (4.1%, 664G)
joewcarson: 200G (1.6%, 1,696G)
TheJonTerp: 200G (1.6%, 927G)
turquoise_mage: 200G (1.6%, 1,083G)
theanonymouslurker: 200G (1.6%, 769G)
benticore: 180G (1.5%, 1,793G)
getthemoneyz: 150G (1.2%, 655,488G)
CosmicTactician: 100G (0.8%, 12,376G)
datadrivenbot: 100G (0.8%, 11,888G)

brown bets:
HaateXIII: 2,523G (19.3%, 4,949G)
Kyune: 1,541G (11.8%, 1,541G)
MantisFinch: 1,500G (11.5%, 26,354G)
Setdevildog: 1,373G (10.5%, 2,373G)
ferroniss: 1,104G (8.5%, 1,104G)
BirbBrainsBot: 1,000G (7.7%, 165,655G)
Lionhermit: 1,000G (7.7%, 43,418G)
Mesmaster: 1,000G (7.7%, 115,818G)
volgrathemoose: 501G (3.8%, 3,561G)
ar_tactic: 500G (3.8%, 36,566G)
RoboticNomad: 400G (3.1%, 3,148G)
twelfthrootoftwo: 200G (1.5%, 1,778G)
E_Ballard: 100G (0.8%, 7,580G)
Dymntd: 100G (0.8%, 18,885G)
Firesheath: 100G (0.8%, 16,973G)
OneHundredFists: 100G (0.8%, 3,460G)
