Final Bets: green - 21 bets for 28,323G (65.6%, x0.52); black - 20 bets for 14,854G (34.4%, x1.91)

green bets:
toka222: 7,500G (26.5%, 73,500G)
DeathTaxesAndAnime: 4,820G (17.0%, 9,451G)
OneHundredFists: 2,608G (9.2%, 2,608G)
boxyID: 2,598G (9.2%, 2,598G)
SephDarkheart: 1,855G (6.5%, 1,855G)
randgridr: 1,723G (6.1%, 1,723G)
ShintaroNayaka: 1,080G (3.8%, 1,080G)
maximumcrit: 1,000G (3.5%, 7,886G)
JumbocactuarX27: 1,000G (3.5%, 32,046G)
pandasforsale: 666G (2.4%, 13,599G)
killth3kid: 608G (2.1%, 3,047G)
Laserman1000: 600G (2.1%, 3,700G)
nok____: 500G (1.8%, 3,030G)
Lord_Gwarth: 401G (1.4%, 401G)
ArashiKurobara: 360G (1.3%, 7,228G)
AllInBot: 304G (1.1%, 304G)
DesertWooder: 200G (0.7%, 2,803G)
datadrivenbot: 200G (0.7%, 49,134G)
douchetron: 100G (0.4%, 8,644G)
CosmicTactician: 100G (0.4%, 3,909G)
PoroTact: 100G (0.4%, 6,836G)

black bets:
latebit: 2,455G (16.5%, 4,814G)
DavenIII: 1,939G (13.1%, 3,232G)
Rytor: 1,621G (10.9%, 1,621G)
dogsandcatsand: 1,333G (9.0%, 95,516G)
coralreeferz: 1,250G (8.4%, 7,908G)
sparker9: 1,000G (6.7%, 11,310G)
BirbBrainsBot: 1,000G (6.7%, 11,833G)
Zagorsek: 833G (5.6%, 833G)
Zeroroute: 600G (4.0%, 600G)
skipsandwiches: 512G (3.4%, 512G)
VolgraTheMoose: 501G (3.4%, 3,462G)
fenaen: 492G (3.3%, 492G)
brokenknight201: 400G (2.7%, 400G)
Synahel: 200G (1.3%, 2,408G)
getthemoneyz: 156G (1.1%, 1,515,064G)
holdenmagronik: 150G (1.0%, 1,800G)
ArlanKels: 150G (1.0%, 2,495G)
nifboy: 100G (0.7%, 4,664G)
Wooplestein: 100G (0.7%, 3,566G)
dtrain332: 62G (0.4%, 6,204G)
