Final Bets: black - 16 bets for 11,678G (36.5%, x1.74); champion - 13 bets for 20,286G (63.5%, x0.58)

black bets:
DeathTaxesAndAnime: 2,361G (20.2%, 4,631G)
DavenIII: 2,078G (17.8%, 6,929G)
coralreeferz: 1,250G (10.7%, 10,291G)
JumbocactuarX27: 1,000G (8.6%, 31,046G)
BirbBrainsBot: 1,000G (8.6%, 13,740G)
dogsandcatsand: 1,000G (8.6%, 98,058G)
killth3kid: 608G (5.2%, 2,439G)
randgridr: 600G (5.1%, 600G)
getthemoneyz: 506G (4.3%, 1,515,361G)
SephDarkheart: 452G (3.9%, 452G)
boxyID: 260G (2.2%, 260G)
datadrivenbot: 200G (1.7%, 48,934G)
CosmicTactician: 100G (0.9%, 3,809G)
lastly: 100G (0.9%, 42,608G)
Synahel: 100G (0.9%, 2,769G)
dtrain332: 63G (0.5%, 6,322G)

champion bets:
maximumcrit: 5,000G (24.6%, 6,886G)
latebit: 4,842G (23.9%, 9,495G)
douchetron: 4,357G (21.5%, 8,544G)
Zeroroute: 1,744G (8.6%, 1,744G)
xBizzy: 1,067G (5.3%, 1,067G)
VolgraTheMoose: 1,001G (4.9%, 4,417G)
Forkmore: 777G (3.8%, 16,381G)
Eoika: 554G (2.7%, 5,540G)
ShintaroNayaka: 320G (1.6%, 320G)
Lord_Gwarth: 264G (1.3%, 264G)
AllInBot: 200G (1.0%, 200G)
holdenmagronik: 150G (0.7%, 2,086G)
dinin991: 10G (0.0%, 1,456G)
