High Risers:
1. Lord_gwarth: +9,658G
2. Arumz: +3,663G
3. Upvla: +3,453G
4. Dhaveword: +1,951G
5. Ruleof5: +1,696G
6. Latebit: +1,662G
7. Mudrockk: +1,165G
8. Chichirodriguez: +1,036G
9. Shalloween: +913G
10. Gorgewall: +849G
11. Wonser: +696G
12. Jabuamba: +666G
13. J_macc1991: +595G
14. Maakur_: +398G
15. Raixelol: +269G
16. Smugzug: +248G
17. Krombobreaker: +204G
18. Chuckolator: +157G
19. Dodecadeath: +66G
20. Ar_tactic: +48G
21. Stealthmodelocke: +4G
22. Nhammen: -9G
23. Douchetron: -10G
24. Cosmictactician: -33G
25. Killth3kid: -77G
26. Formerlydrdong: -77G
27. Gelwain: -100G
28. Belkra: -100G
29. Yangusburger: -200G
30. Novaknight21: -200G
31. Just_here2: -300G
32. 0v3rr8d: -300G
33. Peeronid: -300G
34. Biske13: -309G
35. Resjudicata3: -310G
36. Valensexp_: -336G
37. Lord_burrah: -416G
38. Corpuscav: -491G
39. Porotact: -500G
40. Khelor_: -518G
41. Squidsquarklin: -628G
42. Lowlf: -666G
43. Run_with_stone_guns: -680G
44. Kellios11: -700G
45. Runicmagus: -750G
46. Jonnycue: -841G
47. Firesheath: -895G
48. Ldskinny: -900G
49. Carledo: -921G
50. Phi_sig: -951G
51. Thyrandaal: -997G
52. Gooseyourself: -1,000G
53. Smashy: -1,000G
54. Laserman1000: -1,000G
55. Ericzubat: -1,005G
56. Skillomono: -1,140G
57. E_ballard: -1,300G
58. Sairentozon7: -1,315G
59. Zagorsek: -1,847G
60. Dogsandcatsand: -2,823G
61. Ser_pyrro: -3,701G
62. Skipsandwiches: -11,002G
