Final Bets: blue - 17 bets for 9,393G (59.1%, x0.69); black - 12 bets for 6,490G (40.9%, x1.45)

blue bets:
upvla: 1,800G (19.2%, 4,255G)
latebit: 1,500G (16.0%, 13,310G)
biske13: 1,000G (10.6%, 238,014G)
gorgewall: 940G (10.0%, 940G)
JumbocactuarX27: 637G (6.8%, 637G)
krombobreaker: 500G (5.3%, 2,728G)
Mudrockk: 500G (5.3%, 17,694G)
Lord_Gwarth: 500G (5.3%, 10,830G)
DHaveWord: 412G (4.4%, 11,877G)
arumz: 300G (3.2%, 33,856G)
Smugzug: 272G (2.9%, 1,821G)
killth3kid: 250G (2.7%, 12,325G)
khelor_: 200G (2.1%, 3,509G)
datadrivenbot: 200G (2.1%, 67,070G)
CorpusCav: 150G (1.6%, 1,670G)
J_MacC1991: 132G (1.4%, 765G)
Firesheath: 100G (1.1%, 3,063G)

black bets:
SQUiDSQUARKLIN: 1,553G (23.9%, 1,553G)
Sairentozon7: 1,000G (15.4%, 31,683G)
resjudicata3: 939G (14.5%, 939G)
AllInBot: 559G (8.6%, 559G)
douchetron: 533G (8.2%, 533G)
roofiepops: 436G (6.7%, 436G)
JonnyCue: 392G (6.0%, 392G)
BirbBrainsBot: 377G (5.8%, 73,020G)
ericzubat: 261G (4.0%, 261G)
Shalloween: 200G (3.1%, 2,447G)
getthemoneyz: 140G (2.2%, 1,981,564G)
dogsandcatsand: 100G (1.5%, 34,501G)
