Final Bets: white - 13 bets for 10,755G (37.8%, x1.64); black - 26 bets for 17,667G (62.2%, x0.61)

white bets:
Lanshaft: 5,612G (52.2%, 11,225G)
sinnyil2: 1,200G (11.2%, 16,900G)
PatSouI: 995G (9.3%, 995G)
misterprmiller: 500G (4.6%, 5,072G)
NovaKnight21: 480G (4.5%, 480G)
mirapoix: 452G (4.2%, 452G)
rjA0zcOQ96: 416G (3.9%, 416G)
alrightbye: 300G (2.8%, 3,063G)
ugoplatamia: 200G (1.9%, 31,129G)
KasugaiRoastedPeas: 200G (1.9%, 26,273G)
Evewho: 200G (1.9%, 2,948G)
Basmal: 100G (0.9%, 54,602G)
ApplesauceBoss: 100G (0.9%, 2,235G)

black bets:
Maeveen: 3,911G (22.1%, 3,911G)
kingchadking: 1,578G (8.9%, 1,578G)
EnemyController: 1,410G (8.0%, 1,410G)
BirbBrainsBot: 1,000G (5.7%, 126,325G)
bad1dea: 1,000G (5.7%, 348,585G)
getthemoneyz: 1,000G (5.7%, 406,216G)
WireLord: 1,000G (5.7%, 9,078G)
lowlf: 984G (5.6%, 984G)
GrayGhostGaming: 894G (5.1%, 894G)
superdevon1: 884G (5.0%, 8,845G)
Aldrammech: 600G (3.4%, 600G)
RongRongArts: 516G (2.9%, 516G)
TheRobbieRobster: 500G (2.8%, 5,578G)
Laserman1000: 500G (2.8%, 21,100G)
AllInBot: 354G (2.0%, 354G)
R_Raynos: 256G (1.4%, 256G)
herrshaun: 200G (1.1%, 3,283G)
FattyBearsteak: 200G (1.1%, 1,308G)
CorpusCav: 180G (1.0%, 1,801G)
Conome: 100G (0.6%, 1,823G)
lijarkh: 100G (0.6%, 3,562G)
jethrothrul: 100G (0.6%, 2,865G)
SeedSC: 100G (0.6%, 133,837G)
victoriolue: 100G (0.6%, 5,944G)
datadrivenbot: 100G (0.6%, 13,803G)
DHaveWord: 100G (0.6%, 1,744G)
