Final Bets: red - 11 bets for 5,263G (28.8%, x2.47); blue - 18 bets for 12,980G (71.2%, x0.41)

red bets:
maakur_: 1,081G (20.5%, 1,081G)
E_Ballard: 1,042G (19.8%, 1,042G)
ApplesauceBoss: 913G (17.3%, 913G)
Carledo: 904G (17.2%, 31,136G)
gorgewall: 376G (7.1%, 376G)
Breakdown777: 300G (5.7%, 6,920G)
getthemoneyz: 222G (4.2%, 844,638G)
DoctorFlame: 200G (3.8%, 200G)
nhammen: 100G (1.9%, 473G)
IphoneDarkness: 100G (1.9%, 1,704G)
nightjews: 25G (0.5%, 296G)

blue bets:
KasugaiRoastedPeas: 3,063G (23.6%, 6,126G)
VolgraTheMoose: 1,001G (7.7%, 10,729G)
edgehead62888: 1,000G (7.7%, 27,424G)
BlackFireUK: 1,000G (7.7%, 4,920G)
NovaKnight21: 991G (7.6%, 991G)
BirbBrainsBot: 959G (7.4%, 166,038G)
prince_rogers_nelson_: 849G (6.5%, 849G)
Rislyeu: 828G (6.4%, 828G)
TheChainNerd: 680G (5.2%, 680G)
conradharlock: 500G (3.9%, 6,979G)
josephiroth_143: 500G (3.9%, 6,914G)
LeoNightFury: 438G (3.4%, 438G)
just_here2: 371G (2.9%, 3,711G)
worldly_unbrain: 200G (1.5%, 6,158G)
Angelomortis: 200G (1.5%, 909G)
cam_ATS: 200G (1.5%, 1,988G)
Celdia: 100G (0.8%, 2,338G)
datadrivenbot: 100G (0.8%, 35,216G)
