Final Bets: blue - 8 bets for 9,330G (69.2%, x0.45); yellow - 10 bets for 4,158G (30.8%, x2.24)

blue bets:
Mysteriousdewd: 6,762G (72.5%, 6,762G)
Lythe_Caraker: 1,000G (10.7%, 146,392G)
AO110893: 500G (5.4%, 4,713G)
ColetteMSLP: 400G (4.3%, 4,771G)
enkikavlar: 288G (3.1%, 288G)
GBZero: 180G (1.9%, 180G)
Bojanges: 100G (1.1%, 9,100G)
E_Ballard: 100G (1.1%, 4,373G)

yellow bets:
BirbBrainsBot: 1,000G (24.1%, 45,867G)
reinoe: 1,000G (24.1%, 39,567G)
Evewho: 500G (12.0%, 2,451G)
safira125: 419G (10.1%, 419G)
YaBoy125: 417G (10.0%, 13,931G)
DamnThatShark: 276G (6.6%, 276G)
getthemoneyz: 246G (5.9%, 1,187,984G)
DuneMeta: 100G (2.4%, 5,997G)
Ring_Wyrm: 100G (2.4%, 7,497G)
hiros13gts: 100G (2.4%, 100G)
