Final Bets: white - 8 bets for 5,303G (60.1%, x0.66); purple - 9 bets for 3,514G (39.9%, x1.51)

white bets:
reinoe: 2,000G (37.7%, 38,567G)
YaBoy125: 1,000G (18.9%, 13,514G)
Evewho: 995G (18.8%, 1,951G)
Mysteriousdewd: 500G (9.4%, 9,776G)
enkikavlar: 416G (7.8%, 416G)
josephiroth_143: 192G (3.6%, 192G)
Ring_Wyrm: 100G (1.9%, 7,397G)
Bojanges: 100G (1.9%, 9,145G)

purple bets:
BirbBrainsBot: 1,000G (28.5%, 44,867G)
getthemoneyz: 708G (20.1%, 1,187,738G)
OrganicArtist: 444G (12.6%, 866G)
ColetteMSLP: 400G (11.4%, 4,949G)
GBZero: 260G (7.4%, 260G)
safira125: 252G (7.2%, 252G)
Lythe_Caraker: 250G (7.1%, 146,838G)
DuneMeta: 100G (2.8%, 5,897G)
AO110893: 100G (2.8%, 4,936G)
