Final Bets: blue - 12 bets for 4,619G (8.4%, x10.93); yellow - 24 bets for 50,502G (91.6%, x0.09)

blue bets:
ungabunga_bot: 1,000G (21.6%, 321,592G)
SaintOmerville: 625G (13.5%, 625G)
TheUnforgivenRage: 601G (13.0%, 601G)
onetrickwolf: 500G (10.8%, 34,693G)
sinnyil2: 500G (10.8%, 9,975G)
floopinthepig: 412G (8.9%, 412G)
Grimmace45: 320G (6.9%, 320G)
gggamezzz: 211G (4.6%, 211G)
KasugaiRoastedPeas: 200G (4.3%, 3,845G)
Heroebal: 100G (2.2%, 4,692G)
datadrivenbot: 100G (2.2%, 12,584G)
turquoise_mage: 50G (1.1%, 1,001G)

yellow bets:
Zhies1337: 22,137G (43.8%, 22,137G)
Mesmaster: 6,000G (11.9%, 66,576G)
HaplessOne: 5,555G (11.0%, 18,523G)
FNCardascia_: 2,369G (4.7%, 2,369G)
rico_flex: 1,500G (3.0%, 29,200G)
coralreeferz: 1,500G (3.0%, 11,557G)
SarrgeQc: 1,284G (2.5%, 1,284G)
volgrathemoose: 1,273G (2.5%, 2,546G)
fenaen: 1,197G (2.4%, 1,197G)
Shalloween: 1,024G (2.0%, 1,024G)
Lionhermit: 1,000G (2.0%, 30,362G)
BirbBrainsBot: 1,000G (2.0%, 189,412G)
Laserman1000: 800G (1.6%, 89,800G)
RunicMagus: 800G (1.6%, 33,037G)
getthemoneyz: 796G (1.6%, 603,223G)
DeathTaxesAndAnime: 688G (1.4%, 688G)
Breakdown777: 500G (1.0%, 17,425G)
vampyreinabox: 300G (0.6%, 2,694G)
Eyepoor_: 208G (0.4%, 208G)
ElectricLogan: 171G (0.3%, 171G)
maakur_: 100G (0.2%, 118,429G)
Bloody_Nips: 100G (0.2%, 182G)
Arlum: 100G (0.2%, 1,146G)
LorianFaust: 100G (0.2%, 253G)
