Final Bets: red - 15 bets for 11,032G (69.5%, x0.44); blue - 12 bets for 4,835G (30.5%, x2.28)

red bets:
DustBirdEX: 1,234G (11.2%, 25,566G)
toka222: 1,200G (10.9%, 81,552G)
TheChainNerd: 1,000G (9.1%, 14,074G)
BirbBrainsBot: 1,000G (9.1%, 1,606G)
Lionhermit: 1,000G (9.1%, 18,777G)
EnemyController: 1,000G (9.1%, 285,408G)
red__lancer: 1,000G (9.1%, 71,138G)
HaplessOne: 888G (8.0%, 149,344G)
fenaen: 700G (6.3%, 4,599G)
Tsuike: 491G (4.5%, 491G)
Laserman1000: 450G (4.1%, 2,012G)
Lolprinze: 389G (3.5%, 389G)
beowulfrulez: 280G (2.5%, 280G)
cloud92684: 200G (1.8%, 5,361G)
Reltz_: 200G (1.8%, 4,759G)

blue bets:
Baron_von_Scrub: 1,402G (29.0%, 2,804G)
JumbocactuarX27: 592G (12.2%, 592G)
HaateXIII: 565G (11.7%, 565G)
windsah: 500G (10.3%, 8,136G)
Cryptopsy70: 440G (9.1%, 882G)
ShintaroNayaka: 336G (6.9%, 336G)
StealthModeLocke: 300G (6.2%, 300G)
skillomono: 300G (6.2%, 2,473G)
RunicMagus: 100G (2.1%, 31,239G)
datadrivenbot: 100G (2.1%, 22,324G)
Nizaha: 100G (2.1%, 19,677G)
CosmicTactician: 100G (2.1%, 28,433G)
