Final Bets: purple - 18 bets for 10,127G (43.3%, x1.31); brown - 21 bets for 13,253G (56.7%, x0.76)

purple bets:
Gelwain: 1,342G (13.3%, 1,342G)
toka222: 1,100G (10.9%, 5,212G)
aStatue: 1,010G (10.0%, 1,010G)
Aldrammech: 1,000G (9.9%, 93,498G)
commandlistfgc: 1,000G (9.9%, 4,193G)
mesmaster: 1,000G (9.9%, 7,042G)
Lionhermit: 1,000G (9.9%, 24,783G)
volgrathemoose: 593G (5.9%, 593G)
Meta_Five: 500G (4.9%, 4,854G)
NovaKnight21: 380G (3.8%, 380G)
FoxtrotNovemberCharlie: 338G (3.3%, 338G)
ZephyrFirethorn: 184G (1.8%, 184G)
arch8000: 180G (1.8%, 6,021G)
Kellios11: 100G (1.0%, 14,330G)
lastly: 100G (1.0%, 3,889G)
duskps: 100G (1.0%, 17,106G)
Avittion: 100G (1.0%, 912G)
datadrivenbot: 100G (1.0%, 3,303G)

brown bets:
sinnyil2: 2,500G (18.9%, 63,423G)
fenaen: 1,500G (11.3%, 74,986G)
Lordminsc: 1,205G (9.1%, 39,963G)
Baron_von_Scrub: 1,111G (8.4%, 88,239G)
ungabunga_bot: 1,000G (7.5%, 270,835G)
BirbBrainsBot: 1,000G (7.5%, 33,543G)
gooseyourself: 1,000G (7.5%, 16,972G)
Nocturnal_Perspective: 1,000G (7.5%, 9,082G)
Breakdown777: 500G (3.8%, 29,667G)
superdevon1: 500G (3.8%, 5,005G)
leakimiko: 404G (3.0%, 404G)
ewan_e: 300G (2.3%, 9,486G)
MirtaiAtana: 292G (2.2%, 292G)
Estan_AD: 284G (2.1%, 284G)
TrueRhyme: 200G (1.5%, 364G)
ZephyrTempest: 101G (0.8%, 7,569G)
Sentwist: 100G (0.8%, 628G)
haigy: 100G (0.8%, 850G)
getthemoneyz: 56G (0.4%, 585,456G)
b0shii: 50G (0.4%, 2,940G)
DrAntiSocial: 50G (0.4%, 20,332G)
