Final Bets: purple - 13 bets for 7,904G (44.6%, x1.24); brown - 17 bets for 9,821G (55.4%, x0.80)

purple bets:
Thyrandaal: 2,000G (25.3%, 4,796G)
n2ash: 1,840G (23.3%, 1,840G)
BirbBrainsBot: 1,000G (12.7%, 75,273G)
Meta_Five: 1,000G (12.7%, 9,282G)
Digitalsocrates: 400G (5.1%, 2,017G)
DLJuggernaut: 359G (4.5%, 705G)
KyleWonToLiveForever: 312G (3.9%, 312G)
thewondertrickster: 209G (2.6%, 209G)
Blastinus: 200G (2.5%, 200G)
NightwolfXVI: 200G (2.5%, 581G)
ArashiKurobara: 184G (2.3%, 184G)
Evewho: 100G (1.3%, 4,378G)
cougboi: 100G (1.3%, 9,474G)

brown bets:
evontno: 1,832G (18.7%, 1,832G)
rockmem21: 1,290G (13.1%, 13,886G)
prince_rogers_nelson_: 1,220G (12.4%, 1,220G)
nifboy: 1,023G (10.4%, 1,023G)
Error72: 1,000G (10.2%, 21,491G)
sandball: 900G (9.2%, 900G)
VulcanPanderp: 434G (4.4%, 434G)
CosmicTactician: 400G (4.1%, 22,542G)
roofiepops: 396G (4.0%, 396G)
Arcblazer23: 316G (3.2%, 316G)
Magicandy: 300G (3.1%, 12,700G)
Oobs56: 200G (2.0%, 40,731G)
getthemoneyz: 106G (1.1%, 1,081,656G)
tcarvalho1693: 104G (1.1%, 104G)
Ring_Wyrm: 100G (1.0%, 5,459G)
diyahressem: 100G (1.0%, 2,106G)
datadrivenbot: 100G (1.0%, 44,803G)
