Final Bets: green - 16 bets for 13,109G (65.9%, x0.52); black - 12 bets for 6,785G (34.1%, x1.93)

green bets:
Thyrandaal: 5,684G (43.4%, 5,684G)
Lydian_C: 2,400G (18.3%, 183,117G)
BirbBrainsBot: 1,000G (7.6%, 74,516G)
evontno: 977G (7.5%, 977G)
nifboy: 556G (4.2%, 556G)
Laserman1000: 544G (4.1%, 21,044G)
Evewho: 500G (3.8%, 4,302G)
KyleWonToLiveForever: 312G (2.4%, 312G)
Blastinus: 200G (1.5%, 721G)
thewondertrickster: 200G (1.5%, 409G)
Forkmore: 200G (1.5%, 1,144G)
NightwolfXVI: 150G (1.1%, 964G)
maakur_: 100G (0.8%, 77,930G)
ArashiKurobara: 100G (0.8%, 100G)
datadrivenbot: 100G (0.8%, 44,832G)
Rilgon: 86G (0.7%, 432G)

black bets:
kaidykat: 1,473G (21.7%, 147,325G)
n2ash: 1,179G (17.4%, 5,679G)
kai_okarian: 1,000G (14.7%, 1,000G)
getthemoneyz: 672G (9.9%, 1,082,171G)
VulcanPanderp: 625G (9.2%, 625G)
sandball: 416G (6.1%, 416G)
Digitalsocrates: 400G (5.9%, 3,987G)
DLJuggernaut: 320G (4.7%, 320G)
Magicandy: 300G (4.4%, 13,466G)
Meta_Five: 200G (2.9%, 9,325G)
Ring_Wyrm: 100G (1.5%, 5,488G)
CosmicTactician: 100G (1.5%, 22,713G)
