Final Bets: red - 25 bets for 11,510G (40.9%, x1.45); blue - 19 bets for 16,648G (59.1%, x0.69)

red bets:
Jeeboheebo: 1,047G (9.1%, 1,047G)
kai_shee: 1,000G (8.7%, 91,095G)
TheChainNerd: 1,000G (8.7%, 34,096G)
BirbBrainsBot: 1,000G (8.7%, 185,127G)
Goust18: 1,000G (8.7%, 4,218G)
bad1dea: 1,000G (8.7%, 5,249G)
red__lancer: 1,000G (8.7%, 15,257G)
sinnyil2: 741G (6.4%, 741G)
HaplessOne: 500G (4.3%, 85,275G)
ungabunga_bot: 450G (3.9%, 14,103G)
ANFz: 424G (3.7%, 424G)
nomoment: 324G (2.8%, 324G)
getthemoneyz: 250G (2.2%, 426,165G)
ugoplatamia: 200G (1.7%, 18,724G)
yure1x: 200G (1.7%, 1,775G)
Jennero: 200G (1.7%, 1,717G)
smiggenator: 200G (1.7%, 645G)
EnemyController: 200G (1.7%, 10,491G)
InOzWeTrust: 134G (1.2%, 134G)
DrAntiSocial: 120G (1.0%, 2,723G)
soapydragonfly: 112G (1.0%, 112G)
moonliquor: 108G (0.9%, 108G)
maakur_: 100G (0.9%, 2,374G)
Nizaha: 100G (0.9%, 15,805G)
datadrivenbot: 100G (0.9%, 16,225G)

blue bets:
DudeMonkey77: 3,917G (23.5%, 7,834G)
KupoKel: 3,000G (18.0%, 13,623G)
Lodrak: 2,075G (12.5%, 2,075G)
UmaiJam: 1,778G (10.7%, 17,786G)
Zeroroute: 1,195G (7.2%, 1,195G)
Laserman1000: 730G (4.4%, 7,630G)
Lanshaft: 600G (3.6%, 4,497G)
jethrothrul: 544G (3.3%, 544G)
AllInBot: 542G (3.3%, 542G)
roofiepops: 500G (3.0%, 6,774G)
MoonSlayerRS: 376G (2.3%, 376G)
Sitiran: 229G (1.4%, 229G)
roqqqpsi: 222G (1.3%, 727G)
CorpusCav: 200G (1.2%, 5,105G)
alrightbye: 200G (1.2%, 2,412G)
ShintaroNayaka: 200G (1.2%, 24,609G)
Slowbrofist: 124G (0.7%, 124G)
Andrain: 116G (0.7%, 116G)
Firesheath: 100G (0.6%, 521G)
