Final Bets: white - 13 bets for 4,588G (20.1%, x3.97); purple - 14 bets for 18,215G (79.9%, x0.25)

white bets:
ungabunga_bot: 1,000G (21.8%, 255,305G)
stukerk: 802G (17.5%, 802G)
XalSmellsBad: 500G (10.9%, 15,016G)
Wesablo: 500G (10.9%, 12,112G)
Nocturnal_Perspective: 500G (10.9%, 6,953G)
ewan_e: 300G (6.5%, 6,971G)
alecttox: 228G (5.0%, 228G)
museofdoom: 200G (4.4%, 1,345G)
vorap: 200G (4.4%, 5,599G)
twelfthrootoftwo: 100G (2.2%, 5,598G)
datadrivenbot: 100G (2.2%, 1,353G)
blinkmachine: 100G (2.2%, 17,689G)
getthemoneyz: 58G (1.3%, 584,860G)

purple bets:
Anethum: 7,747G (42.5%, 15,494G)
Lydian_C: 2,400G (13.2%, 66,478G)
reinoe: 2,111G (11.6%, 4,222G)
R_Raynos: 1,323G (7.3%, 1,323G)
BirbBrainsBot: 1,000G (5.5%, 191,400G)
EnemyController: 1,000G (5.5%, 124,716G)
Gelwain: 548G (3.0%, 548G)
TheMurkGnome: 500G (2.7%, 21,388G)
TheRylander: 400G (2.2%, 1,022G)
GarbagePhoenix: 300G (1.6%, 2,805G)
b_bot: 250G (1.4%, 7,208G)
Jahshine: 220G (1.2%, 220G)
whiteonrice: 216G (1.2%, 216G)
smiggenator: 200G (1.1%, 1,103G)
