Final Bets: brown - 7 bets for 5,519G (18.8%, x4.32); champion - 17 bets for 23,850G (81.2%, x0.23)

brown bets:
SkylerBunny: 2,693G (48.8%, 5,282G)
BirbBrainsBot: 1,000G (18.1%, 120,172G)
bad1dea: 1,000G (18.1%, 343,878G)
SleepyBenzo: 232G (4.2%, 232G)
daftbird: 200G (3.6%, 1,676G)
KasugaiRoastedPeas: 200G (3.6%, 31,289G)
AllInBot: 194G (3.5%, 194G)

champion bets:
reinoe: 10,589G (44.4%, 10,589G)
ugoplatamia: 5,043G (21.1%, 25,218G)
sinnyil2: 1,500G (6.3%, 23,618G)
Rogueain: 1,188G (5.0%, 1,188G)
LASERJESUS1337: 1,000G (4.2%, 66,538G)
DudeMonkey77: 1,000G (4.2%, 29,183G)
Shalloween: 800G (3.4%, 55,163G)
DeathTaxesAndAnime: 524G (2.2%, 524G)
HaplessOne: 500G (2.1%, 30,561G)
thejoden: 500G (2.1%, 4,374G)
ColetteMSLP: 300G (1.3%, 9,555G)
HaateXIII: 250G (1.0%, 7,667G)
lavian94: 200G (0.8%, 4,131G)
robespyah: 156G (0.7%, 1,563G)
Mechapope1: 100G (0.4%, 3,164G)
ApplesauceBoss: 100G (0.4%, 4,519G)
datadrivenbot: 100G (0.4%, 13,561G)
