Final Bets: green - 17 bets for 7,329G (37.7%, x1.66); yellow - 12 bets for 12,136G (62.3%, x0.60)

green bets:
Thyrandaal: 1,387G (18.9%, 2,721G)
BirbBrainsBot: 1,000G (13.6%, 92,211G)
Laserman1000: 843G (11.5%, 8,943G)
thunderducker: 600G (8.2%, 3,374G)
getthemoneyz: 514G (7.0%, 1,921,288G)
Lyner87: 500G (6.8%, 107,244G)
Rytor: 500G (6.8%, 500G)
Dasutin23: 496G (6.8%, 6,374G)
SephDarkheart: 320G (4.4%, 320G)
TheDapperChangeling: 205G (2.8%, 6,461G)
CosmicTactician: 200G (2.7%, 32,586G)
datadrivenbot: 200G (2.7%, 60,489G)
ArrenJevleth: 200G (2.7%, 9,735G)
moocaotao: 100G (1.4%, 2,663G)
douchetron: 100G (1.4%, 12,922G)
latebit: 100G (1.4%, 7,609G)
Smugzug: 64G (0.9%, 1,256G)

yellow bets:
SkylerBunny: 2,283G (18.8%, 2,283G)
Raixelol: 1,676G (13.8%, 1,676G)
toka222: 1,550G (12.8%, 391,190G)
E_Ballard: 1,520G (12.5%, 1,520G)
CorpusCav: 1,200G (9.9%, 9,486G)
pplvee1: 1,002G (8.3%, 11,699G)
Shalloween: 1,000G (8.2%, 4,445G)
powergems: 1,000G (8.2%, 13,817G)
krombobreaker: 500G (4.1%, 12,614G)
AllInBot: 205G (1.7%, 205G)
BartTradingCompany: 100G (0.8%, 5,735G)
Afro_Gundam: 100G (0.8%, 205G)
