Final Bets: green - 17 bets for 15,885G (49.1%, x1.03); black - 15 bets for 16,437G (50.9%, x0.97)

green bets:
toka222: 10,000G (63.0%, 375,357G)
TheDapperChangeling: 1,143G (7.2%, 9,399G)
SephDarkheart: 973G (6.1%, 973G)
SkylerBunny: 672G (4.2%, 672G)
Laserman1000: 604G (3.8%, 12,404G)
Raixelol: 600G (3.8%, 9,821G)
Zbgs: 528G (3.3%, 19,966G)
Neinhartx: 200G (1.3%, 304G)
datadrivenbot: 200G (1.3%, 61,114G)
aceof86: 200G (1.3%, 5,479G)
Smugzug: 164G (1.0%, 2,069G)
gorgewall: 101G (0.6%, 9,513G)
AllInBot: 100G (0.6%, 100G)
Yangusburger: 100G (0.6%, 6,098G)
moocaotao: 100G (0.6%, 3,337G)
latebit: 100G (0.6%, 7,639G)
grishhammer: 100G (0.6%, 1,012G)

black bets:
Thyrandaal: 4,538G (27.6%, 8,899G)
Willjin: 3,000G (18.3%, 33,420G)
Afro_Gundam: 2,810G (17.1%, 2,810G)
CorpusCav: 1,200G (7.3%, 6,386G)
BirbBrainsBot: 1,000G (6.1%, 91,769G)
BaconLovingInfidel: 1,000G (6.1%, 1,408G)
E_Ballard: 672G (4.1%, 672G)
krombobreaker: 500G (3.0%, 12,848G)
ArrenJevleth: 500G (3.0%, 10,629G)
mrfripps: 439G (2.7%, 12,439G)
thunderducker: 300G (1.8%, 5,315G)
getthemoneyz: 178G (1.1%, 1,920,967G)
BartTradingCompany: 100G (0.6%, 5,781G)
Kellios11: 100G (0.6%, 4,547G)
CosmicTactician: 100G (0.6%, 33,388G)
