Final Bets: red - 37 bets for 17,019G (70.1%, x0.43); blue - 22 bets for 7,256G (29.9%, x2.35)

red bets:
RongRongArts: 1,100G (6.5%, 32,686G)
DejaPoo21: 1,000G (5.9%, 26,094G)
BirbBrainsBot: 1,000G (5.9%, 223,844G)
bad1dea: 1,000G (5.9%, 216,226G)
gooseyourself: 1,000G (5.9%, 7,230G)
DudeMonkey77: 1,000G (5.9%, 30,278G)
Virilikus: 1,000G (5.9%, 10,923G)
BadBlanket: 868G (5.1%, 868G)
TrogdorTheMemeinator: 848G (5.0%, 2,848G)
pandasforsale: 666G (3.9%, 12,416G)
Rastanar: 644G (3.8%, 644G)
Lanshaft: 580G (3.4%, 6,526G)
fenaen: 500G (2.9%, 3,101G)
Purpleyoshii: 500G (2.9%, 3,945G)
SerumD: 434G (2.6%, 434G)
DeathTaxesAndAnime: 412G (2.4%, 412G)
TheGuesty: 400G (2.4%, 5,210G)
wackyzachyy: 350G (2.1%, 1,035G)
Oshimi12: 345G (2.0%, 345G)
loveyouallfriends: 345G (2.0%, 345G)
ko2q: 332G (2.0%, 332G)
Fallenmagi: 326G (1.9%, 326G)
ZephyrTempest: 314G (1.8%, 2,936G)
Lazerkick: 300G (1.8%, 10,540G)
urieltheflameofgod: 300G (1.8%, 2,038G)
lunaticruin: 236G (1.4%, 236G)
Mechapope1: 200G (1.2%, 3,907G)
ShanksMcShiv: 160G (0.9%, 166G)
cougboi: 150G (0.9%, 1,620G)
TheRobbieRobster: 108G (0.6%, 108G)
ApplesauceBoss: 100G (0.6%, 10,348G)
victoriolue: 100G (0.6%, 4,453G)
Chompie: 100G (0.6%, 6,018G)
SpaZmodeus: 100G (0.6%, 3,635G)
AdmiralPikachu: 100G (0.6%, 23,551G)
ANFz: 100G (0.6%, 24,923G)
RughSontos: 1G (0.0%, 4,125G)

blue bets:
Axelrod: 1,038G (14.3%, 20,772G)
Lodrak: 1,001G (13.8%, 14,551G)
OmnibotGamma: 1,000G (13.8%, 8,376G)
manc0_: 500G (6.9%, 2,137G)
Shalloween: 500G (6.9%, 35,158G)
gum44: 500G (6.9%, 5,858G)
getthemoneyz: 396G (5.5%, 357,060G)
rjA0zcOQ96: 300G (4.1%, 1,688G)
kingchadking: 296G (4.1%, 296G)
electric_glass: 260G (3.6%, 260G)
RunicMagus: 250G (3.4%, 16,063G)
inzo_bettingbot: 200G (2.8%, 15,279G)
CorpusCav: 200G (2.8%, 9,176G)
greghatch: 132G (1.8%, 132G)
twelfthrootoftwo: 100G (1.4%, 4,956G)
Basmal: 100G (1.4%, 3,273G)
mirapoix: 100G (1.4%, 1,988G)
Bahamut64: 100G (1.4%, 4,130G)
Maeveen: 100G (1.4%, 10,232G)
SeedSC: 100G (1.4%, 102,439G)
dreadnxught: 50G (0.7%, 5,046G)
deesignal: 33G (0.5%, 5,979G)
