Final Bets: red - 22 bets for 6,315G (36.3%, x1.75); blue - 17 bets for 11,062G (63.7%, x0.57)

red bets:
itzover9001: 1,000G (15.8%, 76,592G)
Aldrammech: 1,000G (15.8%, 8,571G)
RunicMagus: 500G (7.9%, 34,177G)
SQUiDSQUARKLIN: 500G (7.9%, 7,259G)
DustBirdEX: 420G (6.7%, 420G)
killth3kid: 320G (5.1%, 27,030G)
TheMurkGnome: 300G (4.8%, 3,417G)
DLJuggernaut: 300G (4.8%, 16,606G)
Lythe_Caraker: 250G (4.0%, 108,510G)
DonCardenio: 240G (3.8%, 240G)
TheRylander: 212G (3.4%, 212G)
LivingHitokiri: 206G (3.3%, 206G)
avathesunqueen: 166G (2.6%, 166G)
ZephyrTempest: 101G (1.6%, 186,095G)
GarbagePhoenix: 100G (1.6%, 972G)
Evewho: 100G (1.6%, 2,902G)
Kellios11: 100G (1.6%, 12,873G)
mirapoix: 100G (1.6%, 3,772G)
Conome: 100G (1.6%, 6,585G)
FriendSquirrel: 100G (1.6%, 34,940G)
gorgewall: 100G (1.6%, 4,312G)
Banzem: 100G (1.6%, 100G)

blue bets:
Pie108: 2,000G (18.1%, 103,972G)
fenaen: 1,500G (13.6%, 73,114G)
ko2q: 1,467G (13.3%, 2,934G)
nifboy: 1,197G (10.8%, 1,197G)
Rytor: 1,000G (9.0%, 12,704G)
Lord_Burrah: 1,000G (9.0%, 89,428G)
kai_shee: 546G (4.9%, 5,461G)
HaateXIII: 500G (4.5%, 45,195G)
LDHaten: 441G (4.0%, 441G)
Ross_from_Cali: 411G (3.7%, 7,470G)
ShintaroNayaka: 400G (3.6%, 18,078G)
SquidgyXom: 200G (1.8%, 2,671G)
Tougou: 100G (0.9%, 16,513G)
rjA0zcOQ96: 100G (0.9%, 35,016G)
lastly: 100G (0.9%, 3,189G)
DrAntiSocial: 50G (0.5%, 25,569G)
b0shii: 50G (0.5%, 5,007G)
