Final Bets: white - 9 bets for 6,272G (19.5%, x4.13); black - 21 bets for 25,909G (80.5%, x0.24)

white bets:
nifboy: 2,859G (45.6%, 2,859G)
Lord_Gwarth: 1,000G (15.9%, 2,406G)
killth3kid: 552G (8.8%, 12,117G)
SephDarkheart: 424G (6.8%, 424G)
dogsandcatsand: 388G (6.2%, 388G)
getthemoneyz: 348G (5.5%, 1,443,900G)
AllInBot: 319G (5.1%, 319G)
gooblz: 282G (4.5%, 282G)
FoeSquirrel: 100G (1.6%, 14,174G)

black bets:
toka222: 5,000G (19.3%, 68,811G)
Shalloween: 5,000G (19.3%, 33,951G)
randgridr: 2,974G (11.5%, 5,948G)
HaateXIII: 2,791G (10.8%, 5,583G)
NIghtdew14: 2,239G (8.6%, 2,239G)
Thyrandaal: 1,111G (4.3%, 29,991G)
BirbBrainsBot: 1,000G (3.9%, 32,584G)
pplvee1: 1,000G (3.9%, 7,113G)
coralreeferz: 750G (2.9%, 12,435G)
E_Ballard: 704G (2.7%, 704G)
Nizaha: 608G (2.3%, 13,163G)
TheChainNerd: 504G (1.9%, 504G)
DarrenDinosaurs: 500G (1.9%, 5,637G)
LDSkinny: 496G (1.9%, 496G)
ShintaroNayaka: 300G (1.2%, 300G)
TasisSai: 200G (0.8%, 8,818G)
HolyDragoonXIV: 200G (0.8%, 334G)
datadrivenbot: 200G (0.8%, 46,440G)
Freezerman47: 132G (0.5%, 132G)
zarath79: 100G (0.4%, 304G)
Wooplestein: 100G (0.4%, 1,026G)
