Final Bets: purple - 15 bets for 16,432G (77.6%, x0.29); brown - 12 bets for 4,734G (22.4%, x3.47)

purple bets:
toka222: 6,969G (42.4%, 70,021G)
NIghtdew14: 2,781G (16.9%, 2,781G)
coralreeferz: 2,500G (15.2%, 12,617G)
LDSkinny: 616G (3.7%, 616G)
Nizaha: 608G (3.7%, 13,310G)
killth3kid: 552G (3.4%, 11,565G)
DarrenDinosaurs: 500G (3.0%, 5,758G)
dogsandcatsand: 388G (2.4%, 388G)
Lord_Gwarth: 350G (2.1%, 1,406G)
CapnChaos12: 300G (1.8%, 17,530G)
maximumcrit: 300G (1.8%, 4,982G)
AllInBot: 200G (1.2%, 200G)
datadrivenbot: 200G (1.2%, 46,488G)
holdenmagronik: 100G (0.6%, 1,155G)
getthemoneyz: 68G (0.4%, 1,443,552G)

brown bets:
E_Ballard: 874G (18.5%, 874G)
nifboy: 784G (16.6%, 784G)
BirbBrainsBot: 712G (15.0%, 32,826G)
TheChainNerd: 626G (13.2%, 626G)
Kronikle: 464G (9.8%, 2,858G)
SephDarkheart: 424G (9.0%, 424G)
HaateXIII: 250G (5.3%, 6,263G)
TasisSai: 200G (4.2%, 8,866G)
FoeSquirrel: 100G (2.1%, 14,074G)
Wooplestein: 100G (2.1%, 1,050G)
gooblz: 100G (2.1%, 100G)
jeffersonsa: 100G (2.1%, 322G)
