Final Bets: blue - 12 bets for 19,146G (39.3%, x1.54); brown - 19 bets for 29,530G (60.7%, x0.65)

blue bets:
Aldrammech: 13,836G (72.3%, 13,836G)
SkylerBunny: 2,000G (10.4%, 623,884G)
JLinkletter: 1,000G (5.2%, 9,358G)
Magicandy: 500G (2.6%, 5,685G)
TheChainNerd: 488G (2.5%, 5,488G)
odym82: 300G (1.6%, 1,401G)
powergems: 250G (1.3%, 12,900G)
LionelParks: 240G (1.3%, 240G)
GladiatorLupe: 200G (1.0%, 14,498G)
neocarbuncle: 132G (0.7%, 132G)
E_Ballard: 100G (0.5%, 15,852G)
Lordminsc: 100G (0.5%, 26,178G)

brown bets:
Hasterious: 9,572G (32.4%, 95,725G)
pplvee1: 6,183G (20.9%, 6,183G)
EnemyController: 2,345G (7.9%, 1,230,251G)
VolgraTheMoose: 2,001G (6.8%, 17,695G)
Breakdown777: 1,832G (6.2%, 3,664G)
ericzubat: 1,500G (5.1%, 2,572G)
kliffw: 1,400G (4.7%, 1,400G)
BirbBrainsBot: 1,000G (3.4%, 22,712G)
getthemoneyz: 758G (2.6%, 1,004,285G)
Laserman1000: 695G (2.4%, 13,695G)
perkisle: 500G (1.7%, 745G)
GatsbysGhost: 400G (1.4%, 9,209G)
cam_ATS: 344G (1.2%, 344G)
Oreo_Pizza: 250G (0.8%, 2,350G)
HaateXIII: 250G (0.8%, 33,601G)
Kronikle: 200G (0.7%, 25,058G)
Quadh0nk: 100G (0.3%, 1,566G)
Grandlanzer: 100G (0.3%, 3,155G)
datadrivenbot: 100G (0.3%, 44,308G)
