Final Bets: red - 25 bets for 20,457G (33.4%, x2.00); white - 12 bets for 40,842G (66.6%, x0.50)

red bets:
DLJuggernaut: 5,000G (24.4%, 53,458G)
thunderducker: 2,256G (11.0%, 10,942G)
nhammen: 2,200G (10.8%, 39,998G)
Runeseeker22: 1,347G (6.6%, 26,959G)
DeathTaxesAndAnime: 1,012G (4.9%, 1,012G)
GenZealot: 1,000G (4.9%, 25,299G)
BirbBrainsBot: 1,000G (4.9%, 11,849G)
TheBrett: 1,000G (4.9%, 15,217G)
reinoe: 748G (3.7%, 748G)
verythinice: 595G (2.9%, 595G)
krombobreaker: 500G (2.4%, 30,789G)
2b_yorha_b: 500G (2.4%, 39,890G)
Demon_Lord_Josh: 419G (2.0%, 419G)
Lolthsmeat: 372G (1.8%, 372G)
seppu777: 333G (1.6%, 975G)
CapnChaos12: 300G (1.5%, 17,375G)
Meanderandreturn: 300G (1.5%, 12,673G)
getthemoneyz: 286G (1.4%, 2,204,407G)
JethroThrul: 266G (1.3%, 2,667G)
resjudicata3: 200G (1.0%, 9,284G)
datadrivenbot: 200G (1.0%, 82,120G)
ValensEXP_: 200G (1.0%, 28,081G)
ExplanationMarkWow: 200G (1.0%, 6,716G)
Lydian_C: 123G (0.6%, 3,662G)
smallboops: 100G (0.5%, 3,429G)

white bets:
NicoSavoy: 25,000G (61.2%, 104,931G)
ApplesNP: 6,392G (15.7%, 6,392G)
OneHundredFists: 4,069G (10.0%, 73,576G)
MelTorefas: 2,539G (6.2%, 2,539G)
Rhyser76: 621G (1.5%, 621G)
xXTysongXx: 555G (1.4%, 555G)
YowaneHaku: 500G (1.2%, 14,644G)
Neech: 344G (0.8%, 1,582G)
calle888: 322G (0.8%, 322G)
AllInBot: 200G (0.5%, 200G)
SRG_Chugganomics: 200G (0.5%, 1,750G)
rkane398: 100G (0.2%, 1,075G)
