Final Bets: blue - 16 bets for 20,789G (50.7%, x0.97); champion - 16 bets for 20,177G (49.3%, x1.03)

blue bets:
Thyrandaal: 5,969G (28.7%, 5,969G)
Rytor: 2,000G (9.6%, 18,076G)
SkylerBunny: 1,947G (9.4%, 1,947G)
Aldrammech: 1,947G (9.4%, 1,947G)
Evewho: 1,741G (8.4%, 3,414G)
EnemyController: 1,111G (5.3%, 1,394,746G)
killth3kid: 1,000G (4.8%, 77,739G)
BirbBrainsBot: 1,000G (4.8%, 2,124G)
NicoSavoy: 1,000G (4.8%, 164,424G)
twelfthrootoftwo: 920G (4.4%, 1,805G)
TheMurkGnome: 806G (3.9%, 1,612G)
Blakelmenakle: 500G (2.4%, 4,481G)
joewcarson: 300G (1.4%, 37,525G)
randgridr: 248G (1.2%, 248G)
datadrivenbot: 200G (1.0%, 64,049G)
CosmicTactician: 100G (0.5%, 45,518G)

champion bets:
Virilikus: 5,000G (24.8%, 207,402G)
maddrave09: 4,000G (19.8%, 12,224G)
TasisSai: 2,724G (13.5%, 5,449G)
turbn: 1,635G (8.1%, 1,635G)
roofiepops: 1,400G (6.9%, 7,708G)
upvla: 1,219G (6.0%, 9,761G)
DeathTaxesAndAnime: 1,092G (5.4%, 1,092G)
Seaweed_B: 1,000G (5.0%, 1,325G)
ValtonZenola: 464G (2.3%, 464G)
RunicMagus: 404G (2.0%, 404G)
KyleWonToLiveForever: 360G (1.8%, 360G)
run_with_stone_GUNs: 312G (1.5%, 11,356G)
getthemoneyz: 216G (1.1%, 1,248,674G)
gorgewall: 201G (1.0%, 9,290G)
nhammen: 100G (0.5%, 2,162G)
raenrond: 50G (0.2%, 2,949G)
