Final Bets: black - 15 bets for 26,221G (72.9%, x0.37); champion - 8 bets for 9,761G (27.1%, x2.69)

black bets:
OverlordCuddles: 5,606G (21.4%, 5,606G)
Mesmaster: 5,000G (19.1%, 64,964G)
TheMM42: 3,909G (14.9%, 3,909G)
bruubarg: 3,165G (12.1%, 3,165G)
Kyune: 2,000G (7.6%, 16,990G)
Digitalsocrates: 1,587G (6.1%, 1,587G)
reinoe: 1,000G (3.8%, 14,893G)
moosemutt: 1,000G (3.8%, 2,496G)
CorpusCav: 1,000G (3.8%, 22,000G)
Sairentozon7: 853G (3.3%, 853G)
gorgewall: 401G (1.5%, 9,540G)
otakutaylor: 300G (1.1%, 3,050G)
Jeeboheebo: 200G (0.8%, 4,828G)
AllInBot: 100G (0.4%, 100G)
datadrivenbot: 100G (0.4%, 22,531G)

champion bets:
Luna_XIV: 4,279G (43.8%, 4,279G)
HawkSick: 2,000G (20.5%, 4,703G)
BirbBrainsBot: 1,000G (10.2%, 119,364G)
porkchop5158: 1,000G (10.2%, 8,826G)
argentbast: 500G (5.1%, 2,267G)
YaBoy125: 424G (4.3%, 424G)
Mudrockk: 300G (3.1%, 2,786G)
getthemoneyz: 258G (2.6%, 699,383G)
