Final Bets: green - 9 bets for 7,308G (37.1%, x1.70); yellow - 14 bets for 12,410G (62.9%, x0.59)

green bets:
Snoopiku: 3,000G (41.1%, 19,350G)
prince_rogers_nelson_: 1,399G (19.1%, 1,399G)
douchetron: 882G (12.1%, 882G)
Nizaha: 608G (8.3%, 12,731G)
getthemoneyz: 402G (5.5%, 1,427,078G)
BoneMiser: 360G (4.9%, 360G)
Hirameki85: 256G (3.5%, 11,761G)
gorgewall: 201G (2.8%, 6,772G)
AllInBot: 200G (2.7%, 200G)

yellow bets:
reinoe: 3,000G (24.2%, 138,022G)
sinnyil2: 2,153G (17.3%, 4,306G)
HaateXIII: 1,397G (11.3%, 1,397G)
superdevon1: 1,058G (8.5%, 26,470G)
ColetteMSLP: 1,000G (8.1%, 38,720G)
BirbBrainsBot: 1,000G (8.1%, 193,618G)
twelfthrootoftwo: 808G (6.5%, 1,586G)
ThreeMileIsland: 500G (4.0%, 9,807G)
Chambs12: 400G (3.2%, 3,072G)
poGpopE: 234G (1.9%, 234G)
mrpickins: 232G (1.9%, 4,291G)
MLWebz0r: 228G (1.8%, 10,750G)
CT_5_Holy: 200G (1.6%, 5,835G)
datadrivenbot: 200G (1.6%, 43,923G)
