Final Bets: yellow - 13 bets for 16,755G (67.6%, x0.48); black - 24 bets for 8,037G (32.4%, x2.08)

yellow bets:
Zxpr0jk: 9,351G (55.8%, 9,351G)
gorgewall: 1,709G (10.2%, 1,709G)
sinnyil2: 1,447G (8.6%, 2,895G)
roofiepops: 1,400G (8.4%, 18,473G)
TJ_FordCDN: 736G (4.4%, 736G)
Shalloween: 700G (4.2%, 5,047G)
ValtonZenola: 392G (2.3%, 392G)
joewcarson: 300G (1.8%, 6,086G)
Grandlanzer: 244G (1.5%, 244G)
CorpusCav: 176G (1.1%, 51,562G)
waterwatereverywhere: 100G (0.6%, 7,571G)
GrayGhostGaming: 100G (0.6%, 16,952G)
BreederLancet: 100G (0.6%, 790G)

black bets:
ANFz: 1,523G (18.9%, 3,046G)
BirbBrainsBot: 1,000G (12.4%, 117,968G)
Laserman1000: 593G (7.4%, 23,693G)
Kyune: 500G (6.2%, 25,058G)
killth3kid: 500G (6.2%, 41,475G)
HaateXIII: 500G (6.2%, 8,452G)
nifboy: 500G (6.2%, 7,800G)
vorap: 400G (5.0%, 117,585G)
benticore: 300G (3.7%, 3,517G)
silentperogy: 300G (3.7%, 27,575G)
RaIshtar: 284G (3.5%, 284G)
Qaz12301: 250G (3.1%, 782G)
MiseryKoss: 200G (2.5%, 2,837G)
getthemoneyz: 180G (2.2%, 783,214G)
richardserious: 131G (1.6%, 2,628G)
VulcanPanderp: 124G (1.5%, 124G)
cogniv0r3: 102G (1.3%, 2,050G)
ApplesauceBoss: 100G (1.2%, 3,513G)
CosmicTactician: 100G (1.2%, 2,337G)
Lythe_Caraker: 100G (1.2%, 120,934G)
datadrivenbot: 100G (1.2%, 30,308G)
Heroebal: 100G (1.2%, 5,485G)
foofermoofer: 100G (1.2%, 1,829G)
Nohurty: 50G (0.6%, 1,168G)
