Final Bets: black - 9 bets for 5,122G (11.5%, x7.68); champion - 14 bets for 39,340G (88.5%, x0.13)

black bets:
NicoSavoy: 2,000G (39.0%, 37,394G)
BirbBrainsBot: 1,000G (19.5%, 51,561G)
Aldrammech: 700G (13.7%, 700G)
killth3kid: 532G (10.4%, 532G)
thunderducker: 300G (5.9%, 5,973G)
getthemoneyz: 266G (5.2%, 1,756,191G)
minorfffanatic1: 165G (3.2%, 265G)
Firesheath: 100G (2.0%, 1,249G)
Sairentozon7: 59G (1.2%, 3,491G)

champion bets:
poorest_hobo: 28,670G (72.9%, 28,670G)
reinoe: 5,000G (12.7%, 70,968G)
BoneMiser: 1,255G (3.2%, 1,255G)
DustBirdEX: 1,150G (2.9%, 1,150G)
maximumcrit: 694G (1.8%, 694G)
SkylerBunny: 580G (1.5%, 580G)
krombobreaker: 500G (1.3%, 1,141G)
3ngag3: 326G (0.8%, 13,826G)
JonnyCue: 316G (0.8%, 316G)
twelfthrootoftwo: 300G (0.8%, 3,954G)
datadrivenbot: 200G (0.5%, 65,996G)
PuzzleSecretary: 148G (0.4%, 148G)
gorgewall: 101G (0.3%, 10,163G)
AllInBot: 100G (0.3%, 100G)
