Final Bets: yellow - 15 bets for 4,469G (4.6%, x20.85); champion - 16 bets for 93,187G (95.4%, x0.05)

yellow bets:
BirbBrainsBot: 1,000G (22.4%, 11,363G)
andrewaugust: 659G (14.7%, 659G)
Aestheta: 448G (10.0%, 2,242G)
Cryptopsy70: 416G (9.3%, 416G)
getthemoneyz: 292G (6.5%, 674,341G)
beowulfrulez: 272G (6.1%, 272G)
coralreeferz: 250G (5.6%, 11,563G)
benticore: 244G (5.5%, 244G)
metagameface: 232G (5.2%, 232G)
Vultuous: 200G (4.5%, 1,845G)
Miyokari: 150G (3.4%, 3,160G)
E_Ballard: 100G (2.2%, 2,429G)
Dymntd: 100G (2.2%, 9,763G)
gggamezzz: 100G (2.2%, 2,767G)
run_with_stone_GUNs: 6G (0.1%, 11,698G)

champion bets:
LDSkinny: 30,000G (32.2%, 46,075G)
BoneMiser: 19,194G (20.6%, 19,194G)
DavenIII: 14,152G (15.2%, 14,152G)
Hamborn: 10,000G (10.7%, 51,689G)
JumbocactuarX27: 7,252G (7.8%, 8,764G)
CosmicTactician: 4,685G (5.0%, 9,371G)
Zeroroute: 2,276G (2.4%, 2,276G)
ko2q: 1,839G (2.0%, 1,839G)
HaateXIII: 1,573G (1.7%, 1,573G)
bahamutlagooon: 552G (0.6%, 552G)
nifboy: 479G (0.5%, 479G)
tsukiyo2830: 361G (0.4%, 361G)
MirtaiAtana: 308G (0.3%, 308G)
ShintaroNayaka: 304G (0.3%, 304G)
ungabunga_bot: 112G (0.1%, 471,444G)
mannequ1n: 100G (0.1%, 5,146G)
