Final Bets: white - 12 bets for 7,699G (56.9%, x0.76); black - 11 bets for 5,826G (43.1%, x1.32)

white bets:
NicoSavoy: 3,629G (47.1%, 3,629G)
prince_rogers_nelson_: 600G (7.8%, 600G)
DeathTaxesAndAnime: 540G (7.0%, 2,535G)
helpimabug: 500G (6.5%, 1,785G)
silentkaster: 500G (6.5%, 10,400G)
twelfthrootoftwo: 500G (6.5%, 2,868G)
gamesage53: 500G (6.5%, 4,293G)
Laserman1000: 419G (5.4%, 1,819G)
gorgewall: 301G (3.9%, 5,602G)
Dellusionsx: 100G (1.3%, 10,384G)
datadrivenbot: 100G (1.3%, 48,353G)
moonliquor: 10G (0.1%, 6,560G)

black bets:
solomongrundy85: 1,281G (22.0%, 1,281G)
reinoe: 1,000G (17.2%, 23,994G)
BirbBrainsBot: 751G (12.9%, 75,257G)
E_Ballard: 588G (10.1%, 588G)
EnemyController: 500G (8.6%, 1,242,831G)
Grandlanzer: 400G (6.9%, 15,313G)
ruleof5: 300G (5.1%, 32,357G)
ColetteMSLP: 300G (5.1%, 1,334G)
getthemoneyz: 274G (4.7%, 1,009,895G)
DamnThatShark: 232G (4.0%, 232G)
Evewho: 200G (3.4%, 3,079G)
