Final Bets: red - 6 bets for 4,856G (29.3%, x2.41); champion - 14 bets for 11,702G (70.7%, x0.41)

red bets:
SkylerBunny: 2,000G (41.2%, 575,395G)
NicoSavoy: 1,450G (29.9%, 1,450G)
Laserman1000: 405G (8.3%, 1,505G)
gorgewall: 401G (8.3%, 4,798G)
ColetteMSLP: 300G (6.2%, 2,430G)
BlackfyreRoy: 300G (6.2%, 3,627G)

champion bets:
Mesmaster: 3,000G (25.6%, 242,639G)
nekojin: 2,838G (24.3%, 2,838G)
DamnThatShark: 1,039G (8.9%, 1,039G)
BirbBrainsBot: 1,000G (8.5%, 77,751G)
Arcblazer23: 743G (6.3%, 743G)
getthemoneyz: 638G (5.5%, 1,010,649G)
solomongrundy85: 548G (4.7%, 548G)
moonliquor: 500G (4.3%, 6,893G)
SuzakuReii: 300G (2.6%, 1,273G)
sososteve: 300G (2.6%, 2,126G)
twelfthrootoftwo: 300G (2.6%, 2,666G)
soren_of_tyto: 296G (2.5%, 296G)
datadrivenbot: 100G (0.9%, 48,453G)
delcake: 100G (0.9%, 929G)
