Final Bets: black - 11 bets for 6,422G (48.2%, x1.07); champion - 13 bets for 6,889G (51.8%, x0.93)

black bets:
EnemyController: 2,000G (31.1%, 1,790,294G)
Thyrandaal: 1,433G (22.3%, 1,433G)
dogsandcatsand: 608G (9.5%, 37,628G)
Raixelol: 600G (9.3%, 600G)
krombobreaker: 500G (7.8%, 10,658G)
Kellios11: 400G (6.2%, 3,914G)
SeniorBunk: 300G (4.7%, 5,767G)
Blastinus: 280G (4.4%, 280G)
datadrivenbot: 200G (3.1%, 59,662G)
moocaotao: 100G (1.6%, 2,744G)
latebit: 1G (0.0%, 6,921G)

champion bets:
ruleof5: 1,000G (14.5%, 16,947G)
thunderducker: 1,000G (14.5%, 4,224G)
reinoe: 1,000G (14.5%, 12,133G)
Sairentozon7: 1,000G (14.5%, 22,227G)
BirbBrainsBot: 648G (9.4%, 93,205G)
SephDarkheart: 560G (8.1%, 560G)
CorpusCav: 500G (7.3%, 8,818G)
Riley331: 435G (6.3%, 435G)
ArrenJevleth: 300G (4.4%, 11,836G)
getthemoneyz: 146G (2.1%, 1,919,956G)
AllInBot: 100G (1.5%, 100G)
BartTradingCompany: 100G (1.5%, 5,980G)
let_them_eat_the_rich: 100G (1.5%, 849G)
