Final Bets: purple - 15 bets for 10,228G (37.0%, x1.70); champion - 21 bets for 17,392G (63.0%, x0.59)

purple bets:
KasugaiRoastedPeas: 1,597G (15.6%, 1,597G)
E_Ballard: 1,136G (11.1%, 1,136G)
rockmem21: 1,000G (9.8%, 6,909G)
SkylerBunny: 1,000G (9.8%, 50,898G)
reinoe: 1,000G (9.8%, 143,861G)
BirbBrainsBot: 1,000G (9.8%, 91,445G)
Thyrandaal: 1,000G (9.8%, 176,057G)
Nizaha: 588G (5.7%, 22,368G)
ohhinm: 500G (4.9%, 3,243G)
RaIshtar: 500G (4.9%, 2,157G)
Xoomwaffle: 328G (3.2%, 2,959G)
getthemoneyz: 224G (2.2%, 1,392,698G)
silentkaster: 155G (1.5%, 14,455G)
ZCKaiser: 100G (1.0%, 16,957G)
dinin991: 100G (1.0%, 649G)

champion bets:
benticore: 2,181G (12.5%, 43,623G)
Shalloween: 2,000G (11.5%, 105,888G)
roofiepops: 1,407G (8.1%, 1,407G)
coralreeferz: 1,250G (7.2%, 31,325G)
SephDarkheart: 1,227G (7.1%, 1,227G)
VolgraTheMoose: 1,215G (7.0%, 2,431G)
CrownOfHorns: 1,215G (7.0%, 1,215G)
thaetreis: 1,200G (6.9%, 11,429G)
grininda: 1,000G (5.7%, 7,781G)
dogsandcatsand: 1,000G (5.7%, 11,558G)
Zagorsek: 626G (3.6%, 1,252G)
DustBirdEX: 516G (3.0%, 516G)
Lanshaft: 512G (2.9%, 22,786G)
DeathTaxesAndAnime: 450G (2.6%, 2,671G)
RageImmortaI: 312G (1.8%, 3,549G)
AllInBot: 280G (1.6%, 280G)
gorgewall: 201G (1.2%, 10,844G)
douchetron: 200G (1.1%, 5,854G)
Cyril_Jay: 200G (1.1%, 200G)
TasisSai: 200G (1.1%, 2,927G)
datadrivenbot: 200G (1.1%, 39,756G)
