Final Bets: green - 11 bets for 7,205G (42.3%, x1.37); yellow - 15 bets for 9,848G (57.7%, x0.73)

green bets:
LivingHitokiri: 1,966G (27.3%, 1,966G)
TheChainNerd: 1,000G (13.9%, 5,138G)
witchlight: 1,000G (13.9%, 16,386G)
Lordminsc: 734G (10.2%, 1,468G)
Anethum: 663G (9.2%, 1,327G)
Dexef: 555G (7.7%, 1,471G)
Baron_von_Scrub: 535G (7.4%, 21,076G)
xLumindia: 500G (6.9%, 1,909G)
otakutaylor: 100G (1.4%, 4,701G)
CustomGameMaster: 100G (1.4%, 1,460G)
roqqqpsi: 52G (0.7%, 5,281G)

yellow bets:
maakur_: 2,230G (22.6%, 2,230G)
ThePineappleSalesman: 1,000G (10.2%, 25,572G)
DustyRelic: 1,000G (10.2%, 11,572G)
getthemoneyz: 1,000G (10.2%, 675,259G)
Lionhermit: 1,000G (10.2%, 46,991G)
Lokenwow: 726G (7.4%, 726G)
SaintOmerville: 637G (6.5%, 637G)
E_Ballard: 600G (6.1%, 600G)
Bryon_W: 436G (4.4%, 436G)
Phytik: 312G (3.2%, 312G)
ungabunga_bot: 273G (2.8%, 473,412G)
BirbBrainsBot: 234G (2.4%, 5,562G)
RollingWithNat20: 200G (2.0%, 888G)
YaBoy125: 100G (1.0%, 1,476G)
datadrivenbot: 100G (1.0%, 13,493G)
