Final Bets: red - 36 bets for 18,813G (59.0%, x0.69); blue - 22 bets for 13,063G (41.0%, x1.44)

red bets:
Humble_Fabio: 1,774G (9.4%, 1,774G)
Zbgs: 1,500G (8.0%, 32,435G)
NovaKnight21: 1,256G (6.7%, 1,256G)
Lodrak: 1,001G (5.3%, 11,464G)
Zetchryn: 1,000G (5.3%, 12,796G)
reinoe: 1,000G (5.3%, 13,595G)
kai_shee: 1,000G (5.3%, 45,161G)
Laserman1000: 928G (4.9%, 928G)
roofiepops: 850G (4.5%, 4,130G)
ApplesauceBoss: 781G (4.2%, 781G)
regios91: 720G (3.8%, 720G)
Shakarak: 704G (3.7%, 704G)
sinnyil2: 672G (3.6%, 1,344G)
cheesetacular: 566G (3.0%, 566G)
LeepingJJ: 557G (3.0%, 4,825G)
EvilLego6: 500G (2.7%, 5,087G)
silentperogy: 500G (2.7%, 7,615G)
TheMurkGnome: 373G (2.0%, 373G)
MoonSlayerRS: 364G (1.9%, 364G)
Cataphract116: 352G (1.9%, 352G)
HaychDub: 300G (1.6%, 8,697G)
lunaticruin: 244G (1.3%, 244G)
afk9999: 224G (1.2%, 224G)
ugoplatamia: 200G (1.1%, 1,803G)
storyproblem: 200G (1.1%, 1,536G)
RayneShock: 200G (1.1%, 366G)
TheRobbieRobster: 144G (0.8%, 144G)
HEROScioN: 141G (0.7%, 1,416G)
InOzWeTrust: 112G (0.6%, 112G)
twelfthrootoftwo: 100G (0.5%, 3,606G)
Basmal: 100G (0.5%, 37,793G)
GrayGhostGaming: 100G (0.5%, 733G)
lifeguard_dan: 100G (0.5%, 788G)
richardserious: 100G (0.5%, 373G)
rico_flex: 100G (0.5%, 2,324G)
catfeath3r: 50G (0.3%, 2,327G)

blue bets:
leakimiko: 2,290G (17.5%, 28,628G)
DudeMonkey77: 1,000G (7.7%, 34,598G)
BirbBrainsBot: 1,000G (7.7%, 70,710G)
inzo_bettingbot: 1,000G (7.7%, 45,956G)
bad1dea: 1,000G (7.7%, 296,049G)
Zeroroute: 932G (7.1%, 932G)
IndecisiveNinja: 887G (6.8%, 887G)
Aldrammech: 879G (6.7%, 8,792G)
Tyerenex: 619G (4.7%, 4,130G)
TheChainNerd: 584G (4.5%, 584G)
Theseawolf1: 500G (3.8%, 7,082G)
Axelrod: 388G (3.0%, 38,899G)
Helllyesss: 373G (2.9%, 373G)
TheGuesty: 350G (2.7%, 4,965G)
I_nod_my_head_when_I_lose: 300G (2.3%, 14,286G)
timthehoodie: 248G (1.9%, 248G)
ThePineappleSalesman: 200G (1.5%, 1,845G)
ZephyrTempest: 194G (1.5%, 15,866G)
getthemoneyz: 118G (0.9%, 398,919G)
Mechapope1: 100G (0.8%, 3,540G)
jethrothrul: 100G (0.8%, 23,939G)
RughSontos: 1G (0.0%, 6,319G)
