Final Bets: black - 24 bets for 20,432G (67.4%, x0.48); brown - 18 bets for 9,896G (32.6%, x2.06)

black bets:
Nickyfive: 5,000G (24.5%, 19,466G)
sinnyil2: 3,500G (17.1%, 21,580G)
HaplessOne: 2,500G (12.2%, 80,992G)
volgrathemoose: 1,001G (4.9%, 13,838G)
lijarkh: 1,000G (4.9%, 12,928G)
BirbBrainsBot: 1,000G (4.9%, 203,400G)
KasugaiRoastedPeas: 990G (4.8%, 990G)
Aldrammech: 600G (2.9%, 600G)
getthemoneyz: 566G (2.8%, 500,167G)
fenaen: 516G (2.5%, 516G)
reinoe: 500G (2.4%, 3,727G)
Nizaha: 400G (2.0%, 400G)
sukotsuto: 400G (2.0%, 570G)
HaateXIII: 400G (2.0%, 400G)
HASTERIOUS: 396G (1.9%, 396G)
nifboy: 383G (1.9%, 7,673G)
urieltheflameofgod: 300G (1.5%, 13,625G)
Lavatis: 208G (1.0%, 208G)
GargantuaCat: 204G (1.0%, 204G)
datadrivenbot: 152G (0.7%, 212G)
CandyTamer: 116G (0.6%, 1,062G)
lastly: 100G (0.5%, 4,429G)
twelfthrootoftwo: 100G (0.5%, 965G)
carsenhk: 100G (0.5%, 1,970G)

brown bets:
Baron_von_Scrub: 3,791G (38.3%, 23,793G)
Anox_Skell: 1,131G (11.4%, 1,131G)
Mtueni: 1,000G (10.1%, 199,740G)
itzover9001: 587G (5.9%, 587G)
Theseawolf1: 500G (5.1%, 5,466G)
Fenrislfr: 407G (4.1%, 407G)
MalakoFox: 400G (4.0%, 19,799G)
TheMurkGnome: 350G (3.5%, 3,294G)
old_overholt_: 300G (3.0%, 1,893G)
CapnChaos12: 300G (3.0%, 1,890G)
FoeSquirrel: 220G (2.2%, 220G)
LazarusAjin: 200G (2.0%, 4,010G)
ANFz: 200G (2.0%, 5,901G)
SwaffleWaffles: 135G (1.4%, 3,391G)
ungabunga_bot: 115G (1.2%, 170,535G)
Lodrak: 100G (1.0%, 5,652G)
Lythe_Caraker: 100G (1.0%, 103,419G)
roqqqpsi: 60G (0.6%, 3,005G)
