Final Bets: white - 16 bets for 8,899G (25.1%, x2.98); black - 28 bets for 26,533G (74.9%, x0.34)

white bets:
Baron_von_Scrub: 2,020G (22.7%, 13,972G)
Mtueni: 2,000G (22.5%, 115,050G)
BirbBrainsBot: 1,000G (11.2%, 276,776G)
Zeroroute: 600G (6.7%, 600G)
Lodrak: 508G (5.7%, 508G)
nifboy: 500G (5.6%, 11,037G)
Jeeboheebo: 452G (5.1%, 452G)
kingchadking: 436G (4.9%, 436G)
ZephyrTempest: 331G (3.7%, 26,729G)
JustSuperish: 248G (2.8%, 248G)
kami_39: 204G (2.3%, 204G)
catfashions: 200G (2.2%, 845G)
GrayGhostGaming: 100G (1.1%, 2,200G)
SeedSC: 100G (1.1%, 141,999G)
Tougou: 100G (1.1%, 6,043G)
silentperogy: 100G (1.1%, 10,758G)

black bets:
toka222: 6,500G (24.5%, 517,102G)
Lanshaft: 4,028G (15.2%, 8,057G)
bpc2163: 2,000G (7.5%, 10,932G)
Shakarak: 1,500G (5.7%, 3,278G)
Lord_Burrah: 1,202G (4.5%, 87,902G)
OneHundredFists: 1,047G (3.9%, 1,047G)
mivvim: 1,009G (3.8%, 1,009G)
kai_shee: 1,001G (3.8%, 94,728G)
TheChainNerd: 1,000G (3.8%, 12,680G)
fenaen: 1,000G (3.8%, 4,274G)
rubenflonne: 625G (2.4%, 625G)
Laserman1000: 619G (2.3%, 13,119G)
DeathTaxesAndAnime: 612G (2.3%, 612G)
SomeCallMeGON: 500G (1.9%, 10,022G)
Pie108: 500G (1.9%, 7,114G)
joewcarson: 471G (1.8%, 471G)
Nickyfive: 452G (1.7%, 452G)
Draconis345: 332G (1.3%, 332G)
getthemoneyz: 308G (1.2%, 445,001G)
ShintaroNayaka: 300G (1.1%, 2,705G)
GreenAmbler: 300G (1.1%, 3,549G)
JumbocactuarX27: 292G (1.1%, 292G)
Grasnikk: 260G (1.0%, 260G)
ugoplatamia: 200G (0.8%, 28,541G)
ungabunga_bot: 175G (0.7%, 70,766G)
AllInBot: 100G (0.4%, 100G)
maakur_: 100G (0.4%, 5,453G)
datadrivenbot: 100G (0.4%, 23,568G)
