Final Bets: green - 15 bets for 7,098G (43.9%, x1.28); purple - 22 bets for 9,054G (56.1%, x0.78)

green bets:
JumbocactuarX27: 1,024G (14.4%, 1,024G)
kai_shee: 1,001G (14.1%, 97,058G)
TheChainNerd: 1,000G (14.1%, 12,868G)
Baron_von_Scrub: 665G (9.4%, 10,666G)
DeathTaxesAndAnime: 612G (8.6%, 612G)
Lodrak: 508G (7.2%, 508G)
Pie108: 500G (7.0%, 7,332G)
Nickyfive: 452G (6.4%, 452G)
fenaen: 300G (4.2%, 5,345G)
catfashions: 288G (4.1%, 288G)
JustSuperish: 248G (3.5%, 248G)
AllInBot: 189G (2.7%, 189G)
ungabunga_bot: 111G (1.6%, 70,781G)
Firesheath: 100G (1.4%, 3,864G)
maakur_: 100G (1.4%, 5,601G)

purple bets:
Zeroroute: 1,135G (12.5%, 1,135G)
BirbBrainsBot: 1,000G (11.0%, 275,297G)
Lord_Burrah: 1,000G (11.0%, 89,158G)
kingchadking: 808G (8.9%, 808G)
Lanshaft: 600G (6.6%, 11,614G)
Laserman1000: 600G (6.6%, 13,800G)
EnemyController: 500G (5.5%, 29,784G)
OneHundredFists: 500G (5.5%, 1,932G)
stalskegg: 393G (4.3%, 393G)
rubenflonne: 368G (4.1%, 368G)
Draconis345: 332G (3.7%, 332G)
ZephyrTempest: 329G (3.6%, 26,266G)
ShintaroNayaka: 300G (3.3%, 3,408G)
kami_39: 227G (2.5%, 227G)
ugoplatamia: 200G (2.2%, 29,006G)
urieltheflameofgod: 200G (2.2%, 3,303G)
Ausuri: 200G (2.2%, 1,934G)
SeedSC: 100G (1.1%, 141,984G)
GrayGhostGaming: 100G (1.1%, 2,089G)
datadrivenbot: 100G (1.1%, 23,616G)
GingerDynomite: 50G (0.6%, 100G)
getthemoneyz: 12G (0.1%, 444,766G)
