Final Bets: purple - 18 bets for 16,418G (69.3%, x0.44); brown - 18 bets for 7,267G (30.7%, x2.26)

purple bets:
Mesmaster: 3,000G (18.3%, 108,354G)
latebit: 2,364G (14.4%, 47,295G)
sinnyil2: 1,945G (11.8%, 1,945G)
Powermhero: 1,247G (7.6%, 56,747G)
EnemyController: 1,111G (6.8%, 1,686,252G)
lowlf: 1,062G (6.5%, 1,062G)
superdevon1: 801G (4.9%, 80,174G)
MADSUPERVILLAIN: 734G (4.5%, 734G)
Laserman1000: 732G (4.5%, 732G)
OneHundredFists: 684G (4.2%, 684G)
letdowncity: 548G (3.3%, 40,860G)
JonnyCue: 500G (3.0%, 14,878G)
iBardic: 500G (3.0%, 47,173G)
Lemonjohns: 420G (2.6%, 4,735G)
khelor_: 200G (1.2%, 1,795G)
datadrivenbot: 200G (1.2%, 65,134G)
macradarkstar: 200G (1.2%, 1,719G)
FriendlySkeleton: 170G (1.0%, 170G)

brown bets:
nhammen: 1,000G (13.8%, 447,581G)
BirbBrainsBot: 1,000G (13.8%, 66,179G)
E_Ballard: 840G (11.6%, 108,414G)
CorpusCav: 547G (7.5%, 3,547G)
silentkaster: 500G (6.9%, 3,869G)
Sairentozon7: 468G (6.4%, 468G)
Greggernaut: 376G (5.2%, 376G)
reddwind_: 364G (5.0%, 5,399G)
pepperbuster: 327G (4.5%, 327G)
bigbongsmoker: 282G (3.9%, 282G)
getthemoneyz: 268G (3.7%, 1,816,058G)
krombobreaker: 264G (3.6%, 9,477G)
AltimaMantoid: 258G (3.6%, 6,758G)
Zadckiel: 200G (2.8%, 560G)
Yangusburger: 200G (2.8%, 1,355G)
RobotOcelot: 150G (2.1%, 3,149G)
Lydian_C: 123G (1.7%, 23,979G)
greengreenss: 100G (1.4%, 100G)
