Final Bets: white - 19 bets for 9,625G (55.6%, x0.80); purple - 8 bets for 7,699G (44.4%, x1.25)

white bets:
sinnyil2: 1,403G (14.6%, 2,806G)
Lydian_C: 1,200G (12.5%, 23,907G)
Yangusburger: 1,105G (11.5%, 1,105G)
BirbBrainsBot: 1,000G (10.4%, 64,179G)
nhammen: 1,000G (10.4%, 445,585G)
letdowncity: 548G (5.7%, 41,328G)
JonnyCue: 500G (5.2%, 15,309G)
whelming_wave: 500G (5.2%, 1,531G)
Sairentozon7: 468G (4.9%, 468G)
RobotOcelot: 300G (3.1%, 2,849G)
pepperbuster: 284G (3.0%, 284G)
Greggernaut: 232G (2.4%, 232G)
khelor_: 200G (2.1%, 1,966G)
datadrivenbot: 200G (2.1%, 65,305G)
FriendlySkeleton: 200G (2.1%, 346G)
getthemoneyz: 144G (1.5%, 1,815,791G)
Powermhero: 141G (1.5%, 57,341G)
Zadckiel: 100G (1.0%, 160G)
macradarkstar: 100G (1.0%, 2,551G)

purple bets:
latebit: 2,466G (32.0%, 49,335G)
Mesmaster: 2,000G (26.0%, 110,915G)
Laserman1000: 1,490G (19.4%, 1,490G)
superdevon1: 797G (10.4%, 79,724G)
Lemonjohns: 420G (5.5%, 5,094G)
krombobreaker: 264G (3.4%, 9,322G)
AltimaMantoid: 203G (2.6%, 6,603G)
MADSUPERVILLAIN: 59G (0.8%, 959G)
