Final Bets: yellow - 13 bets for 6,387G (26.1%, x2.84); champion - 16 bets for 18,115G (73.9%, x0.35)

yellow bets:
Firesheath: 1,305G (20.4%, 1,305G)
MADSUPERVILLAIN: 900G (14.1%, 900G)
superdevon1: 815G (12.8%, 81,528G)
getthemoneyz: 714G (11.2%, 1,815,881G)
fattunaking: 521G (8.2%, 521G)
Sairentozon7: 468G (7.3%, 468G)
Lemonjohns: 420G (6.6%, 6,039G)
FriendlySkeleton: 292G (4.6%, 292G)
Greggernaut: 232G (3.6%, 232G)
macradarkstar: 212G (3.3%, 212G)
khelor_: 200G (3.1%, 1,566G)
iBardic: 200G (3.1%, 46,694G)
bigbongsmoker: 108G (1.7%, 108G)

champion bets:
Mesmaster: 5,000G (27.6%, 111,415G)
nhammen: 4,000G (22.1%, 449,590G)
windsah: 2,123G (11.7%, 2,123G)
NicoSavoy: 2,000G (11.0%, 8,977G)
JonnyCue: 1,000G (5.5%, 15,309G)
latebit: 1,000G (5.5%, 55,041G)
omegasuspekt: 779G (4.3%, 1,559G)
whelming_wave: 500G (2.8%, 1,531G)
AltimaMantoid: 357G (2.0%, 6,857G)
krombobreaker: 264G (1.5%, 9,388G)
pepperbuster: 224G (1.2%, 224G)
BirbBrainsBot: 224G (1.2%, 64,180G)
Yangusburger: 224G (1.2%, 224G)
datadrivenbot: 200G (1.1%, 64,905G)
RobotOcelot: 120G (0.7%, 120G)
Zadckiel: 100G (0.6%, 100G)
