Final Bets: red - 21 bets for 17,371G (56.0%, x0.79); blue - 22 bets for 13,658G (44.0%, x1.27)

red bets:
arch8000: 3,881G (22.3%, 3,881G)
Mesmaster: 3,000G (17.3%, 76,969G)
Mtueni: 2,000G (11.5%, 244,731G)
HaateXIII: 1,347G (7.8%, 2,643G)
Aldrammech: 1,000G (5.8%, 12,918G)
ungabunga_bot: 1,000G (5.8%, 355,028G)
BirbBrainsBot: 1,000G (5.8%, 46,662G)
getthemoneyz: 1,000G (5.8%, 630,266G)
hydroshade: 673G (3.9%, 673G)
gooseyourself: 531G (3.1%, 531G)
OmnibotGamma: 468G (2.7%, 468G)
PezPezzington: 300G (1.7%, 1,543G)
mpghappiness: 300G (1.7%, 300G)
Chuckolator: 221G (1.3%, 5,860G)
Kyune: 144G (0.8%, 144G)
ApplesauceBoss: 100G (0.6%, 6,953G)
Firesheath: 100G (0.6%, 12,693G)
jwchapm: 100G (0.6%, 684G)
brokenknight201: 100G (0.6%, 104G)
datadrivenbot: 100G (0.6%, 12,426G)
daveb_: 6G (0.0%, 1,037G)

blue bets:
killth3kid: 2,000G (14.6%, 42,917G)
scadooshlol: 2,000G (14.6%, 31,097G)
DeathTaxesAndAnime: 1,463G (10.7%, 2,870G)
Laserman1000: 1,000G (7.3%, 106,600G)
jakeduhhsnake: 1,000G (7.3%, 67,439G)
catfashions: 1,000G (7.3%, 20,337G)
Zeroroute: 979G (7.2%, 979G)
Baron_von_Scrub: 702G (5.1%, 702G)
CapnChaos12: 500G (3.7%, 49,717G)
ForagerCats: 500G (3.7%, 35,138G)
ZephyrTempest: 456G (3.3%, 1,069G)
KasugaiRoastedPeas: 400G (2.9%, 3,689G)
dorman_777: 346G (2.5%, 346G)
FoeSquirrel: 268G (2.0%, 537G)
alphara2: 200G (1.5%, 2,337G)
awokenshard: 200G (1.5%, 1,020G)
genericco: 144G (1.1%, 144G)
Jeeboheebo: 100G (0.7%, 16,002G)
rjA0zcOQ96: 100G (0.7%, 25,976G)
volgrathemoose: 100G (0.7%, 5,151G)
bahamutlagooon: 100G (0.7%, 284G)
MaverickUmbracato: 100G (0.7%, 100G)
