Final Bets: white - 16 bets for 14,713G (57.2%, x0.75); purple - 18 bets for 11,008G (42.8%, x1.34)

white bets:
jakeduhhsnake: 3,000G (20.4%, 61,771G)
Mesmaster: 3,000G (20.4%, 82,792G)
Arunic: 2,000G (13.6%, 10,268G)
gooseyourself: 1,188G (8.1%, 1,188G)
volgrathemoose: 1,001G (6.8%, 5,378G)
Aldrammech: 1,000G (6.8%, 14,060G)
BirbBrainsBot: 1,000G (6.8%, 48,640G)
Baron_von_Scrub: 934G (6.3%, 934G)
ZephyrTempest: 456G (3.1%, 2,245G)
genericco: 382G (2.6%, 382G)
getthemoneyz: 208G (1.4%, 629,516G)
Kyune: 144G (1.0%, 144G)
Jeeboheebo: 100G (0.7%, 15,192G)
brokenknight201: 100G (0.7%, 373G)
maakur_: 100G (0.7%, 126,068G)
datadrivenbot: 100G (0.7%, 12,359G)

purple bets:
DeathTaxesAndAnime: 2,073G (18.8%, 4,066G)
killth3kid: 2,000G (18.2%, 43,961G)
dorman_777: 1,127G (10.2%, 1,127G)
catfashions: 1,000G (9.1%, 19,651G)
Zeroroute: 700G (6.4%, 700G)
HaateXIII: 580G (5.3%, 580G)
KitchTowel: 504G (4.6%, 504G)
twelfthrootoftwo: 488G (4.4%, 488G)
OmnibotGamma: 468G (4.3%, 468G)
ShintaroNayaka: 400G (3.6%, 11,511G)
ungabunga_bot: 374G (3.4%, 355,527G)
MeotorMang: 300G (2.7%, 1,978G)
mpghappiness: 300G (2.7%, 300G)
hydroshade: 244G (2.2%, 244G)
carsenhk: 150G (1.4%, 15,731G)
Squatting_Bear: 100G (0.9%, 1,656G)
rjA0zcOQ96: 100G (0.9%, 26,111G)
bahamutlagooon: 100G (0.9%, 392G)
