Final Bets: white - 58 bets for 157,043G (92.6%, x0.08); black - 25 bets for 12,614G (7.4%, x12.45)

white bets:
SeedSC: 25,000G (15.9%, 175,728G)
LanseDM: 24,758G (15.8%, 24,758G)
Laserman1000: 17,953G (11.4%, 17,953G)
DeliciousSub: 9,759G (6.2%, 9,759G)
HaateXIII: 7,317G (4.7%, 9,756G)
Lodrak: 5,014G (3.2%, 5,014G)
AM3P_Batman: 5,000G (3.2%, 15,916G)
Shalloween: 5,000G (3.2%, 50,959G)
Snowfats: 4,370G (2.8%, 4,370G)
kingchadking: 4,170G (2.7%, 4,170G)
DustBirdEX: 4,140G (2.6%, 4,140G)
ZZ_Yoshi: 3,981G (2.5%, 3,981G)
slatios: 3,644G (2.3%, 3,644G)
sinnyil2: 3,269G (2.1%, 3,269G)
Mtueni: 3,000G (1.9%, 94,125G)
YaBoy125: 2,914G (1.9%, 19,430G)
robespyah: 2,209G (1.4%, 2,209G)
Dothan89: 2,165G (1.4%, 4,246G)
phrossi_v: 2,000G (1.3%, 22,967G)
dhekix: 1,622G (1.0%, 16,226G)
mirapoix: 1,500G (1.0%, 5,236G)
Draconis345: 1,377G (0.9%, 1,377G)
TheRobbieRobster: 1,061G (0.7%, 1,061G)
DonCardenio: 1,061G (0.7%, 1,061G)
Goust18: 1,000G (0.6%, 19,945G)
OneHundredFists: 1,000G (0.6%, 12,205G)
BirbBrainsBot: 1,000G (0.6%, 9,299G)
getthemoneyz: 1,000G (0.6%, 401,883G)
bad1dea: 1,000G (0.6%, 236,197G)
Zagorsek: 1,000G (0.6%, 290,644G)
Masta_Glenn: 1,000G (0.6%, 4,951G)
b_bot: 954G (0.6%, 954G)
stalskegg: 711G (0.5%, 711G)
RongRongArts: 621G (0.4%, 621G)
twelfthrootoftwo: 500G (0.3%, 2,718G)
jakoholic: 500G (0.3%, 560G)
rnark: 420G (0.3%, 5,598G)
MoonSlayerRS: 408G (0.3%, 408G)
SpaZmodeus: 333G (0.2%, 2,456G)
omegasuspekt: 320G (0.2%, 320G)
Maeveen: 300G (0.2%, 9,226G)
Lordminsc: 300G (0.2%, 17,076G)
Seeingeye24: 277G (0.2%, 277G)
Lythe_Caraker: 250G (0.2%, 47,812G)
GrayGhostGaming: 215G (0.1%, 215G)
Chuckolator: 214G (0.1%, 7,955G)
loveyouallfriends: 200G (0.1%, 7,445G)
rubenflonne: 200G (0.1%, 6,501G)
urieltheflameofgod: 184G (0.1%, 184G)
ShanksMcShiv: 122G (0.1%, 122G)
mayormcfunbags: 100G (0.1%, 1,989G)
Oshimi12: 100G (0.1%, 1,313G)
Lali_Lulelo: 100G (0.1%, 3,007G)
glastonberry48: 100G (0.1%, 1,019G)
powergems: 100G (0.1%, 7,939G)
datadrivenbot: 100G (0.1%, 17,918G)
CojiroFox: 100G (0.1%, 1,000G)
ThanatosXRagnarok: 30G (0.0%, 11,166G)

black bets:
Aldrammech: 1,084G (8.6%, 10,848G)
SkylerBunny: 1,000G (7.9%, 8,244G)
kai_shee: 1,000G (7.9%, 36,950G)
wackyzachyy: 1,000G (7.9%, 7,018G)
Shakarak: 1,000G (7.9%, 9,600G)
Basmal: 1,000G (7.9%, 17,752G)
hkbadboy: 1,000G (7.9%, 3,123G)
ApplesauceBoss: 758G (6.0%, 758G)
Zeroroute: 567G (4.5%, 567G)
SerumD: 500G (4.0%, 3,574G)
nomoment: 500G (4.0%, 18,246G)
technominari: 500G (4.0%, 77,753G)
EnemyController: 500G (4.0%, 16,571G)
DeathTaxesAndAnime: 452G (3.6%, 452G)
R_Raynos: 352G (2.8%, 352G)
Humble_Fabio: 333G (2.6%, 2,744G)
I_nod_my_head_when_I_lose: 200G (1.6%, 9,064G)
InOzWeTrust: 175G (1.4%, 175G)
HoopyFreud: 157G (1.2%, 157G)
WinnerBit: 136G (1.1%, 136G)
Yasmosis: 100G (0.8%, 4,296G)
Mechapope1: 100G (0.8%, 1,942G)
CorpusCav: 100G (0.8%, 8,338G)
ass_brains: 50G (0.4%, 2,863G)
silentperogy: 50G (0.4%, 5,927G)
