Final Bets: black - 30 bets for 10,893G (23.6%, x3.24); brown - 38 bets for 35,297G (76.4%, x0.31)

black bets:
wackyzachyy: 1,000G (9.2%, 18,468G)
inzo_bettingbot: 1,000G (9.2%, 32,584G)
SeedSC: 1,000G (9.2%, 153,004G)
BirbBrainsBot: 932G (8.6%, 6,299G)
bad1dea: 900G (8.3%, 233,197G)
urieltheflameofgod: 713G (6.5%, 713G)
LanseDM: 504G (4.6%, 504G)
arch8000: 500G (4.6%, 9,308G)
OneHundredFists: 500G (4.6%, 6,209G)
nomoment: 500G (4.6%, 24,323G)
R_Raynos: 352G (3.2%, 352G)
SpaZmodeus: 333G (3.1%, 2,025G)
Humble_Fabio: 333G (3.1%, 6,561G)
Lythe_Caraker: 250G (2.3%, 47,382G)
DeathTaxesAndAnime: 200G (1.8%, 5,879G)
Cataphract116: 200G (1.8%, 1,270G)
PiCurious: 200G (1.8%, 2,070G)
KasugaiRoastedPeas: 200G (1.8%, 34,095G)
mirapoix: 200G (1.8%, 3,990G)
DeliciousSub: 176G (1.6%, 176G)
TheRobbieRobster: 132G (1.2%, 132G)
commandlistfgc: 112G (1.0%, 112G)
robespyah: 108G (1.0%, 108G)
GrayGhostGaming: 104G (1.0%, 104G)
dhekix: 100G (0.9%, 14,404G)
Oshimi12: 100G (0.9%, 1,013G)
Yasmosis: 100G (0.9%, 5,568G)
Aremath: 100G (0.9%, 7,385G)
getthemoneyz: 24G (0.2%, 401,045G)
HoopyFreud: 20G (0.2%, 2,047G)

brown bets:
Zeroroute: 11,234G (31.8%, 18,342G)
HaateXIII: 4,157G (11.8%, 4,157G)
Lodrak: 2,770G (7.8%, 2,770G)
EnemyController: 2,000G (5.7%, 22,931G)
SolarisFall: 1,641G (4.6%, 16,413G)
MoonSlayerRS: 1,394G (3.9%, 1,394G)
sinnyil2: 1,200G (3.4%, 2,275G)
Axelrod: 1,072G (3.0%, 35,760G)
DudeMonkey77: 1,000G (2.8%, 33,347G)
omegasuspekt: 726G (2.1%, 726G)
SkylerBunny: 600G (1.7%, 20,964G)
CorpusCav: 500G (1.4%, 9,935G)
I_nod_my_head_when_I_lose: 500G (1.4%, 11,406G)
reinoe: 500G (1.4%, 8,276G)
Dothan89: 500G (1.4%, 1,900G)
Blain_Cooper: 500G (1.4%, 3,889G)
hkbadboy: 500G (1.4%, 15,925G)
Laserman1000: 500G (1.4%, 500G)
RongRongArts: 472G (1.3%, 472G)
DonCardenio: 465G (1.3%, 465G)
Dustmasc: 300G (0.8%, 1,602G)
silentperogy: 300G (0.8%, 6,626G)
DustBirdEX: 300G (0.8%, 1,224G)
Aeolus_000: 300G (0.8%, 1,125G)
Chuckolator: 258G (0.7%, 8,112G)
nofreewill: 200G (0.6%, 1,644G)
loveyouallfriends: 200G (0.6%, 7,894G)
Seeingeye24: 136G (0.4%, 136G)
mivvim: 132G (0.4%, 132G)
Snowfats: 120G (0.3%, 120G)
slatios: 112G (0.3%, 112G)
ShanksMcShiv: 108G (0.3%, 108G)
Tougou: 100G (0.3%, 3,644G)
Lordminsc: 100G (0.3%, 16,911G)
twelfthrootoftwo: 100G (0.3%, 2,188G)
RunicMagus: 100G (0.3%, 18,613G)
datadrivenbot: 100G (0.3%, 17,788G)
Mechapope1: 100G (0.3%, 3,114G)
