Final Bets: red - 16 bets for 11,624G (42.0%, x1.38); blue - 20 bets for 16,044G (58.0%, x0.72)

red bets:
HaateXIII: 2,185G (18.8%, 2,185G)
killth3kid: 2,000G (17.2%, 70,162G)
Evewho: 1,651G (14.2%, 3,238G)
nifboy: 1,000G (8.6%, 26,384G)
ungabunga_bot: 1,000G (8.6%, 448,798G)
CapnChaos12: 501G (4.3%, 501G)
odeblu: 500G (4.3%, 1,098G)
mpghappiness: 493G (4.2%, 493G)
timthehoodie: 451G (3.9%, 451G)
madming25: 420G (3.6%, 3,701G)
RoboticNomad: 400G (3.4%, 3,661G)
LazarusAjin: 400G (3.4%, 20,517G)
twelfthrootoftwo: 300G (2.6%, 2,057G)
ANFz: 123G (1.1%, 36,898G)
E_Ballard: 100G (0.9%, 7,951G)
Dymntd: 100G (0.9%, 18,827G)

blue bets:
Dexsana: 3,372G (21.0%, 3,372G)
HaplessOne: 2,345G (14.6%, 12,506G)
NovaKnight21: 2,247G (14.0%, 4,494G)
Lionhermit: 1,000G (6.2%, 41,558G)
BirbBrainsBot: 1,000G (6.2%, 167,758G)
theNGUYENNER: 1,000G (6.2%, 25,482G)
HorusTaurus: 1,000G (6.2%, 5,326G)
pandasforsale: 777G (4.8%, 25,688G)
Laserman1000: 666G (4.2%, 3,966G)
roofiepops: 576G (3.6%, 576G)
DustBirdEX: 345G (2.2%, 4,648G)
grayeternity: 300G (1.9%, 580G)
theanonymouslurker: 285G (1.8%, 285G)
CorpusCav: 250G (1.6%, 4,690G)
gorgewall: 201G (1.3%, 5,589G)
ferroniss: 200G (1.2%, 1,595G)
7Cerulean7: 180G (1.1%, 5,783G)
ihavenoideawhatname: 100G (0.6%, 100G)
SirCherish: 100G (0.6%, 5,363G)
datadrivenbot: 100G (0.6%, 11,348G)
