Final Bets: purple - 14 bets for 6,249G (41.8%, x1.39); brown - 20 bets for 8,683G (58.2%, x0.72)

purple bets:
Luna_XIV: 1,086G (17.4%, 1,086G)
nifboy: 1,000G (16.0%, 32,504G)
HaateXIII: 652G (10.4%, 652G)
RoboticNomad: 500G (8.0%, 1,861G)
Kyune: 500G (8.0%, 4,113G)
roofiepops: 444G (7.1%, 1,307G)
maakur_: 428G (6.8%, 428G)
BirbBrainsBot: 420G (6.7%, 170,829G)
Dexsana: 416G (6.7%, 416G)
odeblu: 300G (4.8%, 856G)
theanonymouslurker: 180G (2.9%, 916G)
ANFz: 123G (2.0%, 36,960G)
ihavenoideawhatname: 100G (1.6%, 100G)
SirCherish: 100G (1.6%, 5,771G)

brown bets:
mpghappiness: 1,123G (12.9%, 1,123G)
HaplessOne: 1,111G (12.8%, 16,535G)
Lionhermit: 1,000G (11.5%, 40,283G)
thanat0snihil: 800G (9.2%, 3,864G)
getthemoneyz: 716G (8.2%, 654,916G)
CapnChaos12: 585G (6.7%, 585G)
theNGUYENNER: 500G (5.8%, 26,057G)
grayeternity: 400G (4.6%, 1,719G)
YaBoy125: 380G (4.4%, 380G)
DustBirdEX: 342G (3.9%, 4,944G)
twelfthrootoftwo: 300G (3.5%, 1,627G)
edgehead62888: 284G (3.3%, 284G)
Scotty297: 212G (2.4%, 212G)
7Cerulean7: 210G (2.4%, 5,851G)
gorgewall: 201G (2.3%, 5,705G)
ungabunga_bot: 119G (1.4%, 448,329G)
E_Ballard: 100G (1.2%, 7,651G)
Dymntd: 100G (1.2%, 19,063G)
datadrivenbot: 100G (1.2%, 11,405G)
hisuikohaku: 100G (1.2%, 900G)
