Final Bets: purple - 17 bets for 12,987G (74.4%, x0.34); brown - 9 bets for 4,460G (25.6%, x2.91)

purple bets:
VolgraTheMoose: 2,001G (15.4%, 13,488G)
BaronHaynes: 1,500G (11.6%, 24,888G)
Evewho: 1,403G (10.8%, 1,403G)
Shalloween: 1,335G (10.3%, 2,671G)
BirbBrainsBot: 1,000G (7.7%, 172,955G)
MemoriesofFinal: 1,000G (7.7%, 3,604G)
Sairentozon7: 1,000G (7.7%, 31,641G)
mindblownnnn: 780G (6.0%, 780G)
Kronikle: 688G (5.3%, 21,320G)
sparker9: 500G (3.9%, 15,499G)
CorpusCav: 400G (3.1%, 13,383G)
Cryptopsy70: 388G (3.0%, 811G)
bigbongsmoker: 348G (2.7%, 13,041G)
J_MacC1991: 244G (1.9%, 244G)
datadrivenbot: 200G (1.5%, 75,583G)
maakur_: 100G (0.8%, 5,167G)
Belkra: 100G (0.8%, 1,481G)

brown bets:
SephDarkheart: 912G (20.4%, 912G)
gorgewall: 776G (17.4%, 776G)
Scotty297: 616G (13.8%, 616G)
Nizaha: 604G (13.5%, 16,014G)
AllInBot: 599G (13.4%, 599G)
getthemoneyz: 342G (7.7%, 2,088,356G)
wiznaibusthis: 311G (7.0%, 311G)
Blakelmenakle: 200G (4.5%, 14,465G)
FlavaFraze: 100G (2.2%, 1,299G)
