Final Bets: blue - 6 bets for 4,313G (35.4%, x1.83); green - 10 bets for 7,879G (64.6%, x0.55)

blue bets:
DuraiPapers: 3,000G (69.6%, 10,804G)
BirbBrainsBot: 612G (14.2%, 122,620G)
SaltiestMage: 500G (11.6%, 5,875G)
enkikavlar: 100G (2.3%, 2,176G)
OverlordSS4: 100G (2.3%, 1,348G)
moonliquor: 1G (0.0%, 4,093G)

green bets:
Arcblazer23: 3,233G (41.0%, 6,466G)
lowlf: 1,122G (14.2%, 96,770G)
Zachara: 1,100G (14.0%, 133,600G)
NicoSavoy: 1,000G (12.7%, 105,387G)
Tithonus: 534G (6.8%, 534G)
getthemoneyz: 268G (3.4%, 1,153,704G)
KasugaiRoastedPeas: 200G (2.5%, 17,964G)
Dragon_RW: 182G (2.3%, 182G)
TJ_FordCDN: 140G (1.8%, 140G)
datadrivenbot: 100G (1.3%, 52,384G)
