Final Bets: green - 10 bets for 3,675G (36.4%, x1.74); yellow - 11 bets for 6,408G (63.6%, x0.57)

green bets:
DeathTaxesAndAnime: 916G (24.9%, 916G)
gorgewall: 608G (16.5%, 608G)
TheMurkGnome: 418G (11.4%, 55,946G)
Lumberinjack: 400G (10.9%, 5,470G)
AllInBot: 375G (10.2%, 375G)
iBardic: 256G (7.0%, 256G)
Wooplestein: 252G (6.9%, 252G)
datadrivenbot: 200G (5.4%, 49,683G)
holdenmagronik: 150G (4.1%, 1,056G)
PantherIscariot: 100G (2.7%, 4,108G)

yellow bets:
ko2q: 1,250G (19.5%, 1,250G)
NovaKnight21: 1,048G (16.4%, 1,048G)
BirbBrainsBot: 1,000G (15.6%, 66,355G)
Nizaha: 680G (10.6%, 20,174G)
getthemoneyz: 518G (8.1%, 1,514,686G)
Shalloween: 500G (7.8%, 42,570G)
CT_5_Holy: 496G (7.7%, 496G)
prince_rogers_nelson_: 416G (6.5%, 416G)
twelfthrootoftwo: 200G (3.1%, 1,725G)
Drusiform: 200G (3.1%, 2,322G)
MonchoStrife: 100G (1.6%, 100G)
