Final Bets: black - 15 bets for 9,038G (28.8%, x2.47); brown - 19 bets for 22,369G (71.2%, x0.40)

black bets:
Thyrandaal: 2,000G (22.1%, 8,763G)
BirbBrainsBot: 1,000G (11.1%, 160,917G)
Mesmaster: 1,000G (11.1%, 78,677G)
skillomono: 1,000G (11.1%, 3,786G)
DLJuggernaut: 745G (8.2%, 1,491G)
TheChainNerd: 704G (7.8%, 704G)
DavenIII: 700G (7.7%, 2,567G)
RunicMagus: 500G (5.5%, 57,317G)
Xeldena: 435G (4.8%, 435G)
holyonline: 400G (4.4%, 36,214G)
getthemoneyz: 154G (1.7%, 933,687G)
CosmicTactician: 100G (1.1%, 29,573G)
Error72: 100G (1.1%, 10,249G)
E_Ballard: 100G (1.1%, 6,761G)
mrfripps: 100G (1.1%, 2,957G)

brown bets:
TheBlobZ: 13,204G (59.0%, 13,204G)
ShintaroNayaka: 2,000G (8.9%, 10,103G)
rechaun: 1,725G (7.7%, 1,725G)
Anasetsuken: 1,000G (4.5%, 7,265G)
DustBirdEX: 723G (3.2%, 723G)
TeaTime29: 500G (2.2%, 9,586G)
d4rr1n: 500G (2.2%, 7,273G)
JumbocactuarX27: 446G (2.0%, 446G)
serperemagus: 364G (1.6%, 364G)
Monopool: 354G (1.6%, 354G)
twelfthrootoftwo: 300G (1.3%, 1,385G)
run_with_stone_GUNs: 250G (1.1%, 21,010G)
Zachara: 230G (1.0%, 100,231G)
Tuckerism: 200G (0.9%, 3,587G)
xDachille: 173G (0.8%, 173G)
AllInBot: 100G (0.4%, 100G)
datadrivenbot: 100G (0.4%, 36,146G)
tom392: 100G (0.4%, 100G)
lastly: 100G (0.4%, 22,357G)
