Final Bets: purple - 18 bets for 7,557G (55.7%, x0.79); brown - 12 bets for 6,004G (44.3%, x1.26)

purple bets:
Firesheath: 1,114G (14.7%, 1,114G)
CorpusCav: 1,001G (13.2%, 27,683G)
BirbBrainsBot: 1,000G (13.2%, 114,463G)
Mesmaster: 1,000G (13.2%, 65,679G)
pallidsable: 500G (6.6%, 523G)
TheMM42: 406G (5.4%, 406G)
josephiroth_143: 302G (4.0%, 302G)
Mudrockk: 300G (4.0%, 3,106G)
old_overholt_: 300G (4.0%, 8,798G)
krasny1944: 300G (4.0%, 2,500G)
Tugboat1: 260G (3.4%, 260G)
bruubarg: 232G (3.1%, 232G)
brogan316: 200G (2.6%, 5,874G)
getthemoneyz: 192G (2.5%, 699,447G)
Sentwist: 150G (2.0%, 760G)
Estan_AD: 100G (1.3%, 2,880G)
datadrivenbot: 100G (1.3%, 22,945G)
aurosaerondo: 100G (1.3%, 565G)

brown bets:
sinnyil2: 1,169G (19.5%, 1,169G)
red_celt: 1,000G (16.7%, 10,807G)
StealthModeLocke: 994G (16.6%, 994G)
gooseyourself: 524G (8.7%, 524G)
Kyune: 500G (8.3%, 19,124G)
argentbast: 500G (8.3%, 2,648G)
zmoses: 500G (8.3%, 11,064G)
OverlordCuddles: 236G (3.9%, 236G)
kaidykat: 200G (3.3%, 2,874G)
neocarbuncle: 165G (2.7%, 165G)
P0jothen00b: 116G (1.9%, 116G)
AllInBot: 100G (1.7%, 100G)
