Final Bets: purple - 14 bets for 7,723G (50.2%, x0.99); brown - 11 bets for 7,656G (49.8%, x1.01)

purple bets:
Thyrandaal: 1,099G (14.2%, 1,099G)
BirbBrainsBot: 1,000G (12.9%, 109,275G)
Aldrammech: 1,000G (12.9%, 28,118G)
Monopool: 839G (10.9%, 839G)
Essonix: 809G (10.5%, 809G)
sSwing: 696G (9.0%, 6,024G)
dogsandcatsand: 658G (8.5%, 658G)
Laserman1000: 600G (7.8%, 24,600G)
benticore: 266G (3.4%, 5,327G)
pplvee1: 256G (3.3%, 256G)
gogofromtogo: 200G (2.6%, 1,339G)
HokTuey: 100G (1.3%, 938G)
ThePineappleSalesman: 100G (1.3%, 3,143G)
outer_monologue: 100G (1.3%, 1,719G)

brown bets:
DeathTaxesAndAnime: 1,776G (23.2%, 3,483G)
YaBoy125: 1,528G (20.0%, 1,528G)
reddwind_: 1,268G (16.6%, 1,268G)
sinnyil2: 1,208G (15.8%, 1,208G)
Polygamic: 656G (8.6%, 656G)
HaateXIII: 648G (8.5%, 648G)
Luizsanq: 172G (2.2%, 172G)
CosmicTactician: 100G (1.3%, 17,670G)
dinin991: 100G (1.3%, 809G)
E_Ballard: 100G (1.3%, 3,055G)
datadrivenbot: 100G (1.3%, 34,431G)
