Final Bets: blue - 14 bets for 6,871G (44.4%, x1.25); white - 8 bets for 8,592G (55.6%, x0.80)

blue bets:
OneHundredFists: 2,000G (29.1%, 13,610G)
BirbBrainsBot: 1,000G (14.6%, 142,483G)
prince_rogers_nelson_: 919G (13.4%, 919G)
hotpocketsofficial: 634G (9.2%, 634G)
getthemoneyz: 538G (7.8%, 1,943,109G)
AltimaMantoid: 308G (4.5%, 308G)
ValensEXP_: 296G (4.3%, 8,326G)
ser_pyrro: 240G (3.5%, 240G)
BappleTrees: 236G (3.4%, 236G)
khelor_: 200G (2.9%, 3,620G)
datadrivenbot: 200G (2.9%, 60,005G)
BartTradingCompany: 100G (1.5%, 7,355G)
gingerfoo69: 100G (1.5%, 4,705G)
MemoriesofFinal: 100G (1.5%, 8,022G)

white bets:
AllInBot: 4,705G (54.8%, 4,705G)
Leonidusx: 1,000G (11.6%, 35,976G)
superdevon1: 638G (7.4%, 1,276G)
Raixelol: 600G (7.0%, 19,585G)
KamikaziManiac: 500G (5.8%, 2,370G)
worldly_unbrain: 500G (5.8%, 9,909G)
Neech: 417G (4.9%, 417G)
Ogema_theDream: 232G (2.7%, 232G)
