Final Bets: red - 18 bets for 8,323G (65.3%, x0.53); blue - 7 bets for 4,430G (34.7%, x1.88)

red bets:
Mtueni: 1,000G (12.0%, 284,211G)
ungabunga_bot: 1,000G (12.0%, 265,631G)
getthemoneyz: 1,000G (12.0%, 600,056G)
Mesmaster: 1,000G (12.0%, 33,393G)
lijarkh: 680G (8.2%, 680G)
Bryon_W: 614G (7.4%, 614G)
Dexsana: 600G (7.2%, 7,220G)
Reductions: 441G (5.3%, 441G)
megaman2202: 396G (4.8%, 396G)
volgrathemoose: 364G (4.4%, 364G)
Anethum: 300G (3.6%, 2,363G)
worldly_unbrain: 200G (2.4%, 5,225G)
Jaritras: 200G (2.4%, 3,200G)
lobsterlobster: 120G (1.4%, 120G)
Odin007_88: 116G (1.4%, 116G)
datadrivenbot: 100G (1.2%, 4,070G)
Squatting_Bear: 100G (1.2%, 240G)
roqqqpsi: 92G (1.1%, 4,648G)

blue bets:
CassiePhoenix: 1,000G (22.6%, 9,198G)
BirbBrainsBot: 1,000G (22.6%, 59,316G)
gooseyourself: 1,000G (22.6%, 27,791G)
ColetteMSLP: 600G (13.5%, 22,397G)
PatSouI: 500G (11.3%, 24,574G)
SaintOmerville: 200G (4.5%, 16,067G)
ar_tactic: 130G (2.9%, 28,975G)
