High Risers:
1. Hotpocketsofficial: +6,026G
2. Thesabretoothe: +3,552G
3. Ibardic: +2,758G
4. Lokenwow: +2,004G
5. Bigbongsmoker: +2,004G
6. Brenogarwin: +1,943G
7. Volgrathemoose: +1,731G
8. Dracoknightzero: +1,722G
9. Altimamantoid: +1,410G
10. Douchetron: +1,400G
11. Raixelol: +1,006G
12. Ar_tactic: +1,000G
13. Thanatosxragnarok: +1,000G
14. Grininda: +1,000G
15. Desertwooder: +1,000G
16. Hasterious: +1,000G
17. Daveniii: +1,000G
18. Nifboy: +1,000G
19. Sephdarkheart: +924G
20. Mindblownnnn: +883G
21. Valensexp_: +864G
22. Gorgewall: +790G
23. Aly327: +700G
24. E_ballard: +700G
25. Mesmaster: +600G
26. Pplvee1: +600G
27. Zckaiser: +500G
28. Sairentozon7: +500G
29. Memoriesoffinal: +500G
30. Khelor_: +488G
31. Error72: +322G
32. Dinin991: +223G
33. Jeeboheebo: +200G
34. Just_here2: +100G
35. Tristar49: +14G
36. Alexmozg: -39G
37. 7cerulean7: -60G
38. Sweethat: -297G
39. Runeseeker22: -409G
40. Bappletrees: -450G
41. Pepperbuster: -586G
42. Leonidusx: -1,000G
43. Snkey: -6,234G
