Final Bets: purple - 6 bets for 6,392G (35.9%, x1.79); brown - 17 bets for 11,429G (64.1%, x0.56)

purple bets:
amiture: 3,000G (46.9%, 30,763G)
Mesmaster: 2,000G (31.3%, 62,605G)
getthemoneyz: 572G (8.9%, 1,448,861G)
ruleof5: 500G (7.8%, 13,251G)
douchetron: 220G (3.4%, 432G)
CT_5_Holy: 100G (1.6%, 2,001G)

brown bets:
fattunaking: 4,000G (35.0%, 16,070G)
BirbBrainsBot: 1,000G (8.7%, 61,083G)
Arkreaver: 1,000G (8.7%, 18,174G)
Calajo: 958G (8.4%, 958G)
superdevon1: 739G (6.5%, 36,960G)
prince_rogers_nelson_: 696G (6.1%, 696G)
randgridr: 564G (4.9%, 564G)
gorgewall: 508G (4.4%, 508G)
evontno: 500G (4.4%, 18,630G)
Wooplestein: 500G (4.4%, 1,876G)
AllInBot: 200G (1.7%, 200G)
Chompie: 200G (1.7%, 9,003G)
datadrivenbot: 200G (1.7%, 46,222G)
gooblz: 116G (1.0%, 116G)
daveb_: 111G (1.0%, 4,129G)
DeathRtopper: 100G (0.9%, 1,080G)
Hasterious: 37G (0.3%, 3,743G)
