Final Bets: white - 13 bets for 8,378G (42.6%, x1.35); champion - 10 bets for 11,297G (57.4%, x0.74)

white bets:
prince_rogers_nelson_: 1,230G (14.7%, 2,413G)
ColetteMSLP: 1,000G (11.9%, 24,478G)
Arkreaver: 1,000G (11.9%, 17,878G)
BirbBrainsBot: 1,000G (11.9%, 62,154G)
josephiroth_143: 1,000G (11.9%, 7,757G)
superdevon1: 764G (9.1%, 38,241G)
Calajo: 505G (6.0%, 505G)
EmmaEnema: 500G (6.0%, 1,884G)
CT_5_Holy: 500G (6.0%, 4,226G)
Wooplestein: 500G (6.0%, 1,769G)
Chompie: 300G (3.6%, 9,394G)
getthemoneyz: 42G (0.5%, 1,450,248G)
Hasterious: 37G (0.4%, 3,706G)

champion bets:
poGpopE: 6,196G (54.8%, 46,196G)
randgridr: 1,955G (17.3%, 1,955G)
Mesmaster: 1,000G (8.9%, 65,582G)
douchetron: 768G (6.8%, 1,506G)
gorgewall: 508G (4.5%, 508G)
AllInBot: 408G (3.6%, 408G)
datadrivenbot: 200G (1.8%, 46,162G)
gooblz: 116G (1.0%, 116G)
daveb_: 100G (0.9%, 4,310G)
dtrain332: 46G (0.4%, 4,610G)
