High Risers:
1. Latebit: +8,550G
2. Deathtaxesandanime: +8,307G
3. Joewcarson: +5,819G
4. Thunderducker: +4,996G
5. Capnchaos12: +4,072G
6. Ct_5_holy: +1,848G
7. Sephdarkheart: +1,841G
8. Whitetigress: +1,151G
9. Strifu: +1,072G
10. Old_overholt_: +974G
11. Jonnycue: +932G
12. Reinoe: +757G
13. Fenaen: +690G
14. Greggernaut: +556G
15. Holandrix: +465G
16. Lord_gwarth: +331G
17. Onehundredfists: +234G
18. Corpuscav: +181G
19. Ko2q: +175G
20. Daveb_: +168G
21. Tsuike: +157G
22. Mushufasa_: +119G
23. Vrayx7: +114G
24. Magikarppkmn: +73G
25. Generalunderdog: +34G
26. Yangusburger: +13G
27. Just_here2: +4G
28. Muffin_money: -8G
29. Macradarkstar: -92G
30. Ruleof5: -200G
31. Novaknight21: -200G
32. Nicosavoy: -275G
33. Nhammen: -300G
34. Killth3kid: -300G
35. Reddwind_: -300G
36. Squidsquarklin: -300G
37. Maakur_: -400G
38. Bruubarg: -500G
39. Lowlf: -500G
40. Highelectricaltemperature: -731G
41. Kronikle: -817G
42. Brenogarwin: -819G
43. J2dabibbles: -1,000G
44. Actual_jp: -1,000G
45. Sairentozon7: -1,000G
46. Memoriesoffinal: -1,000G
47. Dracoknightzero: -1,000G
48. Jeeboheebo: -1,167G
49. Cryptopsy70: -1,290G
50. Dljuggernaut: -1,343G
51. Kasugairoastedpeas: -1,486G
52. Leonidusx: -1,697G
53. Lijarkh: -2,000G
54. E_ballard: -2,028G
55. Runeseeker22: -3,509G
56. Thyrandaal: -5,560G
57. Dogsandcatsand: -5,943G
58. Haatexiii: -11,164G
59. Volgrathemoose: -15,556G
