Final Bets: white - 12 bets for 22,202G (63.9%, x0.57); black - 13 bets for 12,563G (36.1%, x1.77)

white bets:
HaateXIII: 11,164G (50.3%, 22,329G)
VolgraTheMoose: 6,019G (27.1%, 266,019G)
thunderducker: 1,123G (5.1%, 2,246G)
E_Ballard: 824G (3.7%, 93,889G)
Aldrammech: 700G (3.2%, 700G)
Kronikle: 608G (2.7%, 47,483G)
Mushufasa_: 500G (2.3%, 17,503G)
WhiteTigress: 500G (2.3%, 11,956G)
Runeseeker22: 248G (1.1%, 4,694G)
Greggernaut: 216G (1.0%, 216G)
datadrivenbot: 200G (0.9%, 65,409G)
ko2q: 100G (0.5%, 5,174G)

black bets:
dogsandcatsand: 5,894G (46.9%, 11,558G)
DeathTaxesAndAnime: 1,570G (12.5%, 1,570G)
BirbBrainsBot: 1,000G (8.0%, 5,653G)
getthemoneyz: 1,000G (8.0%, 1,794,499G)
NicoSavoy: 661G (5.3%, 661G)
fenaen: 560G (4.5%, 4,420G)
joewcarson: 508G (4.0%, 508G)
Lord_Gwarth: 500G (4.0%, 813G)
CapnChaos12: 472G (3.8%, 472G)
holandrix: 148G (1.2%, 148G)
Thyrandaal: 100G (0.8%, 29,634G)
macradarkstar: 100G (0.8%, 1,200G)
Yangusburger: 50G (0.4%, 2,370G)
