Final Bets: white - 12 bets for 7,326G (53.7%, x0.86); black - 13 bets for 6,309G (46.3%, x1.16)

white bets:
HorusTaurus: 2,000G (27.3%, 11,208G)
resjudicata3: 1,183G (16.1%, 1,183G)
tinytittyfiend: 1,000G (13.7%, 8,162G)
getthemoneyz: 690G (9.4%, 2,204,321G)
dogsandcatsand: 568G (7.8%, 568G)
DustBirdEX: 446G (6.1%, 446G)
thunderducker: 400G (5.5%, 11,773G)
Lolthsmeat: 356G (4.9%, 1,920G)
roofiepops: 233G (3.2%, 5,360G)
datadrivenbot: 200G (2.7%, 83,613G)
CorpusCav: 200G (2.7%, 40,306G)
king_smashington: 50G (0.7%, 3,529G)

black bets:
Mushufasa_: 1,234G (19.6%, 17,265G)
Forkmore: 1,000G (15.9%, 6,887G)
BirbBrainsBot: 1,000G (15.9%, 190,530G)
Tithonus: 584G (9.3%, 584G)
2b_yorha_b: 500G (7.9%, 37,062G)
AnthroMetal: 500G (7.9%, 5,363G)
ValensEXP_: 492G (7.8%, 2,838G)
AllInBot: 379G (6.0%, 379G)
AbandonedHall: 180G (2.9%, 180G)
FuzzyTigers: 140G (2.2%, 140G)
maakur_: 100G (1.6%, 2,017G)
MelTorefas: 100G (1.6%, 642G)
smallboops: 100G (1.6%, 2,318G)
