Final Bets: blue - 16 bets for 14,729G (45.1%, x1.22); green - 17 bets for 17,961G (54.9%, x0.82)

blue bets:
nhammen: 3,000G (20.4%, 15,630G)
king_smashington: 2,613G (17.7%, 2,613G)
Zeroroute: 1,569G (10.7%, 6,035G)
dogsandcatsand: 1,493G (10.1%, 1,493G)
Mushufasa_: 1,234G (8.4%, 16,540G)
BirbBrainsBot: 1,000G (6.8%, 189,943G)
Laserman1000: 600G (4.1%, 12,200G)
ExplanationMarkWow: 500G (3.4%, 53,065G)
technominari: 500G (3.4%, 91,312G)
AnthroMetal: 500G (3.4%, 4,363G)
2b_yorha_b: 500G (3.4%, 36,768G)
Lord_Gwarth: 500G (3.4%, 4,617G)
getthemoneyz: 220G (1.5%, 2,204,779G)
DeathTaxesAndAnime: 200G (1.4%, 5,528G)
ValensEXP_: 200G (1.4%, 2,046G)
maakur_: 100G (0.7%, 1,817G)

green bets:
DLJuggernaut: 5,000G (27.8%, 26,636G)
Thyrandaal: 4,646G (25.9%, 9,111G)
CorpusCav: 1,400G (7.8%, 40,892G)
thunderducker: 1,400G (7.8%, 12,117G)
DustBirdEX: 1,173G (6.5%, 1,173G)
tinytittyfiend: 1,000G (5.6%, 8,023G)
HorusTaurus: 1,000G (5.6%, 13,343G)
roofiepops: 885G (4.9%, 5,561G)
Tithonus: 308G (1.7%, 308G)
AllInBot: 200G (1.1%, 200G)
datadrivenbot: 200G (1.1%, 83,585G)
YowaneHaku: 200G (1.1%, 2,465G)
FuzzyTigers: 198G (1.1%, 198G)
gorgewall: 101G (0.6%, 8,982G)
tripaplex: 100G (0.6%, 4,760G)
latebit: 100G (0.6%, 9,310G)
DrAntiSocial: 50G (0.3%, 3,024G)
