Final Bets: yellow - 16 bets for 10,482G (40.4%, x1.48); brown - 30 bets for 15,471G (59.6%, x0.68)

yellow bets:
SkylerBunny: 2,100G (20.0%, 58,913G)
OneHundredFists: 2,000G (19.1%, 5,183G)
Shakarak: 1,000G (9.5%, 3,368G)
BirbBrainsBot: 1,000G (9.5%, 20,393G)
inzo_bettingbot: 1,000G (9.5%, 27,297G)
bad1dea: 1,000G (9.5%, 256,086G)
getthemoneyz: 548G (5.2%, 402,252G)
ezefeld: 362G (3.5%, 362G)
R_Raynos: 348G (3.3%, 348G)
ZephyrTempest: 224G (2.1%, 7,154G)
rubenflonne: 200G (1.9%, 9,504G)
Aeolus_000: 200G (1.9%, 1,583G)
DeliciousSub: 200G (1.9%, 19,033G)
SeedSC: 100G (1.0%, 160,820G)
Chompie: 100G (1.0%, 7,360G)
SpaZmodeus: 100G (1.0%, 4,048G)

brown bets:
sinnyil2: 2,537G (16.4%, 5,075G)
z32o: 2,309G (14.9%, 23,095G)
loveyouallfriends: 1,500G (9.7%, 5,568G)
leakimiko: 1,041G (6.7%, 34,712G)
Laserman1000: 991G (6.4%, 17,491G)
SolarisFall: 861G (5.6%, 17,230G)
HaychDub: 800G (5.2%, 19,925G)
Axelrod: 683G (4.4%, 13,674G)
OmnibotGamma: 600G (3.9%, 600G)
Lanshaft: 580G (3.7%, 7,196G)
DHaveWord: 522G (3.4%, 522G)
Arku_E: 500G (3.2%, 4,610G)
kingchadking: 312G (2.0%, 312G)
HighJayster: 232G (1.5%, 232G)
Oshimi12: 200G (1.3%, 1,590G)
rico_flex: 200G (1.3%, 1,608G)
TheRobbieRobster: 198G (1.3%, 198G)
Nerf_Vergil: 181G (1.2%, 181G)
Hirine: 116G (0.7%, 116G)
WoooBlaaa: 108G (0.7%, 108G)
ApplesauceBoss: 100G (0.6%, 2,291G)
victoriolue: 100G (0.6%, 4,436G)
ko2q: 100G (0.6%, 1,397G)
Basmal: 100G (0.6%, 17,636G)
WillFitzgerald: 100G (0.6%, 3,298G)
BuffaloCrunch: 100G (0.6%, 14,042G)
ANFz: 100G (0.6%, 23,402G)
iiLockdownV2: 100G (0.6%, 100G)
datadrivenbot: 100G (0.6%, 15,989G)
chronoxtrigger: 100G (0.6%, 3,600G)
