Final Bets: red - 10 bets for 6,228G (65.2%, x0.53); yellow - 7 bets for 3,329G (34.8%, x1.87)

red bets:
Evewho: 1,265G (20.3%, 1,265G)
solomongrundy85: 1,000G (16.1%, 4,372G)
BirbBrainsBot: 1,000G (16.1%, 105,364G)
Mesmaster: 1,000G (16.1%, 29,977G)
reinoe: 1,000G (16.1%, 24,194G)
Sairentozon7: 332G (5.3%, 332G)
Lydian_C: 230G (3.7%, 1,664G)
gorgewall: 201G (3.2%, 15,141G)
lastly: 100G (1.6%, 19,800G)
datadrivenbot: 100G (1.6%, 36,564G)

yellow bets:
rednecknazgul: 772G (23.2%, 772G)
Ring_Wyrm: 763G (22.9%, 763G)
prince_rogers_nelson_: 762G (22.9%, 762G)
fluffskull: 488G (14.7%, 488G)
NovaKnight21: 432G (13.0%, 432G)
AllInBot: 100G (3.0%, 100G)
getthemoneyz: 12G (0.4%, 903,656G)
