Final Bets: blue - 24 bets for 29,407G (61.0%, x0.64); champion - 26 bets for 18,771G (39.0%, x1.57)

blue bets:
sinnyil2: 7,057G (24.0%, 14,115G)
LDSkinny: 3,000G (10.2%, 53,684G)
Anethum: 3,000G (10.2%, 20,311G)
SkylerBunny: 3,000G (10.2%, 55,885G)
HaplessOne: 2,500G (8.5%, 27,550G)
Drusic: 2,000G (6.8%, 9,738G)
ACSpree: 1,041G (3.5%, 1,041G)
ColetteMSLP: 1,000G (3.4%, 45,380G)
BirbBrainsBot: 1,000G (3.4%, 29,964G)
Lionhermit: 1,000G (3.4%, 48,542G)
metagameface: 636G (2.2%, 636G)
gorgewall: 501G (1.7%, 4,627G)
Laserman1000: 500G (1.7%, 21,800G)
Breakdown777: 500G (1.7%, 11,609G)
sukotsuto: 500G (1.7%, 11,754G)
AUrato: 500G (1.7%, 4,334G)
EnemyController: 500G (1.7%, 235,663G)
gooseyourself: 484G (1.6%, 484G)
Mtueni: 200G (0.7%, 200G)
otakutaylor: 128G (0.4%, 128G)
Lolprinze: 100G (0.3%, 100G)
datadrivenbot: 100G (0.3%, 15,779G)
aeonicvector: 100G (0.3%, 1,086G)
getthemoneyz: 60G (0.2%, 673,194G)

champion bets:
Virilikus: 3,000G (16.0%, 164,969G)
Estan_AD: 2,270G (12.1%, 4,541G)
roofiepops: 1,475G (7.9%, 15,963G)
DarrenDinosaurs: 1,138G (6.1%, 1,138G)
mpghappiness: 1,001G (5.3%, 7,186G)
Evewho: 1,000G (5.3%, 21,812G)
ungabunga_bot: 1,000G (5.3%, 487,529G)
electric_glass: 1,000G (5.3%, 9,014G)
leakimiko: 1,000G (5.3%, 53,856G)
ANFz: 733G (3.9%, 733G)
TheGuesty: 649G (3.5%, 34,694G)
DustBirdEX: 543G (2.9%, 9,515G)
cougboi: 500G (2.7%, 12,660G)
Dymntd: 500G (2.7%, 4,555G)
Baron_von_Scrub: 474G (2.5%, 9,822G)
maakur_: 460G (2.5%, 460G)
nifboy: 340G (1.8%, 340G)
twelfthrootoftwo: 300G (1.6%, 10,989G)
Primeval_33: 200G (1.1%, 8,601G)
LeoNightFury: 200G (1.1%, 4,041G)
Arcblazer23: 200G (1.1%, 1,675G)
RunicMagus: 200G (1.1%, 45,395G)
CorpusCav: 200G (1.1%, 8,261G)
TheUnforgivenRage: 188G (1.0%, 188G)
Firesheath: 100G (0.5%, 27,149G)
v0geekay0v: 100G (0.5%, 100G)
