Final Bets: white - 14 bets for 8,491G (46.8%, x1.14); black - 16 bets for 9,648G (53.2%, x0.88)

white bets:
thunderducker: 1,500G (17.7%, 17,062G)
Zeroroute: 1,167G (13.7%, 4,670G)
Dasutin23: 1,000G (11.8%, 41,604G)
Zbgs: 1,000G (11.8%, 18,759G)
Greggernaut: 929G (10.9%, 929G)
roofiepops: 861G (10.1%, 861G)
krombobreaker: 500G (5.9%, 4,415G)
resjudicata3: 416G (4.9%, 416G)
mrfripps: 320G (3.8%, 6,073G)
KasugaiRoastedPeas: 200G (2.4%, 5,449G)
datadrivenbot: 200G (2.4%, 58,962G)
getthemoneyz: 198G (2.3%, 1,779,089G)
cloudycube: 100G (1.2%, 942G)
ko2q: 100G (1.2%, 6,718G)

black bets:
reinoe: 2,000G (20.7%, 81,665G)
BirbBrainsBot: 1,000G (10.4%, 147,120G)
technominari: 1,000G (10.4%, 77,013G)
dogsandcatsand: 1,000G (10.4%, 25,243G)
Thyrandaal: 1,000G (10.4%, 35,028G)
fattunaking: 981G (10.2%, 981G)
E_Ballard: 804G (8.3%, 95,786G)
MagikarpPKMN: 500G (5.2%, 3,516G)
AbandonedHall: 300G (3.1%, 1,736G)
Lumberinjack: 240G (2.5%, 240G)
Leonidusx: 200G (2.1%, 20,934G)
Kellios11: 200G (2.1%, 12,808G)
Lydian_C: 123G (1.3%, 9,793G)
AllInBot: 100G (1.0%, 100G)
Tougou: 100G (1.0%, 5,537G)
HS39: 100G (1.0%, 2,359G)
