Final Bets: purple - 24 bets for 9,204G (42.1%, x1.38); brown - 28 bets for 12,680G (57.9%, x0.73)

purple bets:
OneHundredFists: 1,000G (10.9%, 14,865G)
DudeMonkey77: 1,000G (10.9%, 42,967G)
OmnibotGamma: 1,000G (10.9%, 5,832G)
Ranmilia: 908G (9.9%, 1,816G)
MantisFinch: 708G (7.7%, 708G)
Lodrak: 640G (7.0%, 640G)
ToucansOfSoup: 500G (5.4%, 1,780G)
mizukouken: 500G (5.4%, 1,410G)
Athropos1: 328G (3.6%, 328G)
farshadows: 276G (3.0%, 552G)
cool____beans: 249G (2.7%, 249G)
nifboy: 236G (2.6%, 236G)
getthemoneyz: 232G (2.5%, 357,575G)
Baron_von_Scrub: 232G (2.5%, 232G)
roqqqpsi: 222G (2.4%, 559G)
Oshimi12: 200G (2.2%, 4,201G)
wackyzachyy: 164G (1.8%, 164G)
jaykaye: 158G (1.7%, 158G)
HRak050: 152G (1.7%, 152G)
ungabunga_bot: 149G (1.6%, 1,331G)
datadrivenbot: 100G (1.1%, 13,750G)
Tougou: 100G (1.1%, 3,319G)
SpaZmodeus: 100G (1.1%, 777G)
Avin_Chaos: 50G (0.5%, 683G)

brown bets:
volgrathemoose: 2,001G (15.8%, 4,829G)
Riot_Jayway: 1,111G (8.8%, 170,233G)
BirbBrainsBot: 1,000G (7.9%, 199,743G)
bad1dea: 1,000G (7.9%, 188,455G)
reinoe: 1,000G (7.9%, 9,273G)
AllInBot: 677G (5.3%, 677G)
Lanshaft: 560G (4.4%, 16,468G)
Dothan89: 531G (4.2%, 531G)
Ant_ihistamine: 531G (4.2%, 531G)
Evewho: 497G (3.9%, 4,978G)
just_one_more_bet: 423G (3.3%, 423G)
BadBlanket: 368G (2.9%, 368G)
gameman733: 300G (2.4%, 1,949G)
HaateXIII: 300G (2.4%, 8,438G)
tevoul: 276G (2.2%, 5,534G)
ZephyrTempest: 265G (2.1%, 6,320G)
CorpusCav: 246G (1.9%, 2,469G)
killth3kid: 224G (1.8%, 15,099G)
hrpufnsting: 216G (1.7%, 216G)
ELzukkor: 200G (1.6%, 4,235G)
GlenBrony: 200G (1.6%, 946G)
YesThisIsToshi: 150G (1.2%, 1,086G)
Jeardra: 104G (0.8%, 104G)
Zagorsek: 100G (0.8%, 278,616G)
Nizaha: 100G (0.8%, 8,951G)
SeraphPDH: 100G (0.8%, 6,378G)
I_nod_my_head_when_I_lose: 100G (0.8%, 17,599G)
rico_flex: 100G (0.8%, 2,591G)
