Final Bets: black - 12 bets for 4,671G (40.5%, x1.47); brown - 13 bets for 6,850G (59.5%, x0.68)

black bets:
YaBoy125: 1,844G (39.5%, 61,490G)
Laserman1000: 600G (12.8%, 3,500G)
Cryptopsy70: 564G (12.1%, 16,457G)
Nizaha: 501G (10.7%, 15,690G)
HaateXIII: 292G (6.3%, 2,216G)
ZCKaiser: 200G (4.3%, 1,403G)
AllInBot: 194G (4.2%, 194G)
Firesheath: 100G (2.1%, 14,038G)
nifboy: 100G (2.1%, 3,506G)
delcake: 100G (2.1%, 288G)
lastly: 100G (2.1%, 29,456G)
getthemoneyz: 76G (1.6%, 978,037G)

brown bets:
Evewho: 1,592G (23.2%, 1,592G)
actual_JP: 1,394G (20.4%, 1,394G)
BirbBrainsBot: 1,000G (14.6%, 82,243G)
placidphoenix: 720G (10.5%, 720G)
TheChainNerd: 545G (8.0%, 3,059G)
helpimabug: 500G (7.3%, 2,657G)
eudes89: 300G (4.4%, 6,612G)
jonassimple: 200G (2.9%, 200G)
CaptainGarlock: 200G (2.9%, 10,967G)
Thyrandaal: 100G (1.5%, 57,825G)
E_Ballard: 100G (1.5%, 7,976G)
CosmicTactician: 100G (1.5%, 7,479G)
CorpusCav: 99G (1.4%, 3,121G)
