Final Bets: red - 16 bets for 5,272G (20.2%, x3.95); blue - 16 bets for 20,821G (79.8%, x0.25)

red bets:
VolgraTheMoose: 1,001G (19.0%, 118,480G)
Zeroroute: 655G (12.4%, 655G)
getthemoneyz: 500G (9.5%, 1,877,900G)
lowlf: 476G (9.0%, 476G)
KasugaiRoastedPeas: 400G (7.6%, 1,993G)
snkey: 400G (7.6%, 68,013G)
Wonser: 344G (6.5%, 5,629G)
killth3kid: 300G (5.7%, 47,602G)
brodeity: 248G (4.7%, 248G)
ValensEXP_: 224G (4.2%, 2,528G)
mindblownnnn: 200G (3.8%, 200G)
Zerguzen: 124G (2.4%, 124G)
AllInBot: 100G (1.9%, 100G)
Chaide: 100G (1.9%, 100G)
Yangusburger: 100G (1.9%, 5,779G)
CorpusCav: 100G (1.9%, 25,857G)

blue bets:
HaateXIII: 5,833G (28.0%, 5,833G)
DeathTaxesAndAnime: 5,599G (26.9%, 10,980G)
CosmicTactician: 2,000G (9.6%, 33,185G)
minorfffanatic1: 1,420G (6.8%, 1,420G)
technominari: 1,000G (4.8%, 76,266G)
krombobreaker: 1,000G (4.8%, 3,993G)
BirbBrainsBot: 1,000G (4.8%, 106,748G)
Rislyeu: 1,000G (4.8%, 23,685G)
RonaldoTheGypsy: 500G (2.4%, 3,347G)
seppu777: 333G (1.6%, 11,894G)
farside00831: 300G (1.4%, 568G)
RobotOcelot: 252G (1.2%, 252G)
resjudicata3: 200G (1.0%, 20,256G)
datadrivenbot: 200G (1.0%, 57,762G)
Lydian_C: 123G (0.6%, 7,213G)
BartTradingCompany: 61G (0.3%, 612G)
