Final Bets: red - 13 bets for 5,001G (32.7%, x2.06); green - 18 bets for 10,291G (67.3%, x0.49)

red bets:
ungabunga_bot: 1,000G (20.0%, 317,691G)
BirbBrainsBot: 1,000G (20.0%, 175,506G)
Chuckolator: 604G (12.1%, 29,433G)
FNCardascia_: 543G (10.9%, 543G)
nok____: 500G (10.0%, 7,120G)
Estan_AD: 500G (10.0%, 6,473G)
getthemoneyz: 154G (3.1%, 605,945G)
Bioticism: 153G (3.1%, 307G)
Dustmasc: 136G (2.7%, 136G)
byrdturbo: 111G (2.2%, 10,105G)
iam_jkl: 100G (2.0%, 100G)
nifboy: 100G (2.0%, 5,037G)
Eyepoor_: 100G (2.0%, 100G)

green bets:
HaplessOne: 1,470G (14.3%, 25,741G)
kay0ss: 1,423G (13.8%, 1,423G)
BurlapChampion: 1,075G (10.4%, 1,075G)
EnemyController: 1,000G (9.7%, 167,211G)
Tithonus: 830G (8.1%, 830G)
SarrgeQc: 740G (7.2%, 740G)
Zeroroute: 600G (5.8%, 600G)
ZephyrTempest: 456G (4.4%, 5,858G)
linkblood4: 437G (4.2%, 437G)
Rislyeu: 400G (3.9%, 6,065G)
blandshee: 400G (3.9%, 1,559G)
astrozin11: 344G (3.3%, 7,144G)
MirtaiAtana: 296G (2.9%, 296G)
DHaveWord: 292G (2.8%, 292G)
lijarkh: 200G (1.9%, 24,512G)
Kyune: 120G (1.2%, 120G)
tsdZero: 108G (1.0%, 108G)
datadrivenbot: 100G (1.0%, 12,083G)
