Final Bets: purple - 15 bets for 6,089G (45.4%, x1.20); brown - 13 bets for 7,323G (54.6%, x0.83)

purple bets:
ColetteMSLP: 1,200G (19.7%, 24,120G)
reinoe: 1,000G (16.4%, 17,428G)
datadrivenbot: 630G (10.3%, 3,088G)
Jeeboheebo: 564G (9.3%, 564G)
skysa250: 500G (8.2%, 23,900G)
BirbBrainsBot: 401G (6.6%, 175,165G)
7Cerulean7: 300G (4.9%, 2,161G)
Boultson1337: 300G (4.9%, 571G)
Treapvort: 200G (3.3%, 2,232G)
DaveStrider55: 200G (3.3%, 1,414G)
Maeveen: 200G (3.3%, 2,416G)
AllInBot: 175G (2.9%, 175G)
ungabunga_bot: 171G (2.8%, 142,834G)
getthemoneyz: 148G (2.4%, 501,350G)
maakur_: 100G (1.6%, 3,352G)

brown bets:
HaplessOne: 1,500G (20.5%, 78,513G)
Faplo: 1,315G (18.0%, 1,315G)
Goust18: 1,041G (14.2%, 1,041G)
Lanshaft: 938G (12.8%, 938G)
mirapoix: 616G (8.4%, 616G)
ShintaroNayaka: 500G (6.8%, 15,455G)
Cataphract116: 300G (4.1%, 1,849G)
HASTERIOUS: 291G (4.0%, 1,164G)
PotionDweller: 272G (3.7%, 272G)
DHaveWord: 200G (2.7%, 3,257G)
PatSouI: 150G (2.0%, 19,342G)
Tithonus: 100G (1.4%, 11,773G)
TinhShu: 100G (1.4%, 3,474G)
