Final Bets: white - 16 bets for 16,669G (77.4%, x0.29); black - 14 bets for 4,872G (22.6%, x3.42)

white bets:
HaplessOne: 5,555G (33.3%, 96,251G)
Estan_AD: 2,603G (15.6%, 5,207G)
mannequ1n: 2,175G (13.0%, 4,266G)
Zeroroute: 1,610G (9.7%, 3,372G)
rico_flex: 1,000G (6.0%, 22,974G)
DLJuggernaut: 681G (4.1%, 2,065G)
E_Ballard: 600G (3.6%, 600G)
joewcarson: 500G (3.0%, 6,279G)
shs_: 500G (3.0%, 9,840G)
maakur_: 496G (3.0%, 496G)
TheUnforgivenRage: 304G (1.8%, 304G)
bahamutlagooon: 245G (1.5%, 12,245G)
Jampck: 100G (0.6%, 958G)
Lawndough: 100G (0.6%, 4,955G)
ungabunga_bot: 100G (0.6%, 532,169G)
datadrivenbot: 100G (0.6%, 18,640G)

black bets:
BirbBrainsBot: 1,000G (20.5%, 140,146G)
FoeSquirrel: 918G (18.8%, 918G)
DeathTaxesAndAnime: 532G (10.9%, 532G)
mistblade: 500G (10.3%, 15,581G)
ANFz: 441G (9.1%, 441G)
Tinglenator: 280G (5.7%, 280G)
wooyuji: 265G (5.4%, 265G)
getthemoneyz: 236G (4.8%, 681,813G)
holyonline: 200G (4.1%, 8,486G)
Dellusionsx: 100G (2.1%, 5,306G)
Breakdown777: 100G (2.1%, 1,927G)
Saldarin: 100G (2.1%, 4,628G)
itsZaes: 100G (2.1%, 745G)
Arbitae: 100G (2.1%, 112G)
