Final Bets: red - 26 bets for 16,304G (32.3%, x2.09); blue - 18 bets for 34,141G (67.7%, x0.48)

red bets:
lifeguard_dan: 2,635G (16.2%, 2,635G)
toka222: 2,500G (15.3%, 532,043G)
MagicBottle: 1,654G (10.1%, 1,654G)
ungabunga_bot: 1,000G (6.1%, 142,230G)
BirbBrainsBot: 1,000G (6.1%, 201,433G)
JumbocactuarX27: 941G (5.8%, 941G)
CapnChaos12: 837G (5.1%, 837G)
Shalloween: 800G (4.9%, 34,215G)
Lanshaft: 618G (3.8%, 618G)
FriendSquirrel: 500G (3.1%, 10,930G)
nifboy: 432G (2.6%, 432G)
roofiepops: 400G (2.5%, 400G)
arch8000: 395G (2.4%, 13,171G)
Firesheath: 348G (2.1%, 348G)
Slowbrofist: 332G (2.0%, 332G)
old_overholt_: 300G (1.8%, 6,767G)
Aka_Gilly: 300G (1.8%, 14,219G)
Chuckolator: 228G (1.4%, 3,243G)
HaateXIII: 223G (1.4%, 1,723G)
getthemoneyz: 210G (1.3%, 500,027G)
Jeeboheebo: 204G (1.3%, 204G)
FoeSquirrel: 200G (1.2%, 200G)
lawnboxer: 100G (0.6%, 16,884G)
datadrivenbot: 72G (0.4%, 100G)
godkone: 50G (0.3%, 630G)
asa_BONESCTY: 25G (0.2%, 1,000G)

blue bets:
AllInBot: 15,525G (45.5%, 15,525G)
reinoe: 9,713G (28.4%, 9,713G)
Shakarak: 2,000G (5.9%, 20,994G)
ratchety: 1,581G (4.6%, 1,581G)
kai_shee: 1,001G (2.9%, 132,918G)
UmbraKnights: 817G (2.4%, 817G)
WoooBlaaa: 718G (2.1%, 1,197G)
Nizaha: 668G (2.0%, 668G)
fenaen: 500G (1.5%, 12,253G)
Cryptopsy70: 360G (1.1%, 14,644G)
DudeMonkey77: 333G (1.0%, 3,282G)
JustSuperish: 276G (0.8%, 276G)
catfashions: 200G (0.6%, 2,813G)
ApplesauceBoss: 100G (0.3%, 4,104G)
ko2q: 100G (0.3%, 17,383G)
Tacobowl8: 100G (0.3%, 4,369G)
daveb_: 99G (0.3%, 1,924G)
JackOnFire1: 50G (0.1%, 2,550G)
