Final Bets: green - 16 bets for 33,471G (59.7%, x0.67); yellow - 33 bets for 22,569G (40.3%, x1.48)

green bets:
AllInBot: 22,939G (68.5%, 22,939G)
toka222: 3,000G (9.0%, 529,543G)
Shakarak: 2,000G (6.0%, 21,949G)
JackOnFire1: 1,287G (3.8%, 2,574G)
RionDoesThings: 834G (2.5%, 834G)
Skarthe: 672G (2.0%, 672G)
Bryon_W: 500G (1.5%, 8,958G)
reinoe: 500G (1.5%, 14,351G)
CapnChaos12: 448G (1.3%, 448G)
JustSuperish: 408G (1.2%, 408G)
Firesheath: 348G (1.0%, 348G)
Jeeboheebo: 204G (0.6%, 204G)
karmakamikaze: 104G (0.3%, 104G)
WoooBlaaa: 100G (0.3%, 1,540G)
daveb_: 77G (0.2%, 1,975G)
godkone: 50G (0.1%, 584G)

yellow bets:
VirulenceXT: 8,000G (35.4%, 109,947G)
Shalloween: 1,500G (6.6%, 33,415G)
old_overholt_: 1,000G (4.4%, 6,467G)
fenaen: 1,000G (4.4%, 12,492G)
BirbBrainsBot: 1,000G (4.4%, 200,433G)
Nizaha: 987G (4.4%, 987G)
ungabunga_bot: 971G (4.3%, 141,230G)
DarrenDinosaurs: 920G (4.1%, 920G)
Pie108: 700G (3.1%, 25,803G)
arch8000: 511G (2.3%, 12,776G)
FriendSquirrel: 500G (2.2%, 10,430G)
rico_flex: 500G (2.2%, 2,034G)
catfashions: 500G (2.2%, 2,909G)
urieltheflameofgod: 500G (2.2%, 15,452G)
getthemoneyz: 424G (1.9%, 499,817G)
JumbocactuarX27: 348G (1.5%, 348G)
ZephyrTempest: 335G (1.5%, 72,023G)
Slowbrofist: 332G (1.5%, 332G)
MagicBottle: 324G (1.4%, 324G)
Lanshaft: 300G (1.3%, 600G)
lifeguard_dan: 268G (1.2%, 268G)
Chuckolator: 263G (1.2%, 3,015G)
galkife: 250G (1.1%, 85,877G)
FoeSquirrel: 200G (0.9%, 200G)
nifboy: 176G (0.8%, 176G)
nedryerson01: 104G (0.5%, 104G)
Lodrak: 100G (0.4%, 5,164G)
ApplesauceBoss: 100G (0.4%, 4,152G)
Jordache7K: 100G (0.4%, 23,626G)
lawnboxer: 100G (0.4%, 16,784G)
phrossi_v: 100G (0.4%, 17,368G)
Tacobowl8: 100G (0.4%, 4,417G)
farshadows: 56G (0.2%, 112G)
