Final Bets: blue - 15 bets for 12,964G (55.5%, x0.80); yellow - 18 bets for 10,383G (44.5%, x1.25)

blue bets:
TheMM42: 5,000G (38.6%, 37,410G)
HaplessOne: 1,500G (11.6%, 104,159G)
sinnyil2: 1,320G (10.2%, 78,537G)
Nizaha: 1,181G (9.1%, 1,181G)
electric_glass: 803G (6.2%, 803G)
Laserman1000: 800G (6.2%, 33,100G)
sukotsuto: 500G (3.9%, 4,434G)
EnemyController: 500G (3.9%, 68,471G)
sparsuvar: 400G (3.1%, 585G)
Estan_AD: 250G (1.9%, 6,282G)
getthemoneyz: 220G (1.7%, 519,750G)
mastershango: 150G (1.2%, 1,669G)
xxnamexx: 140G (1.1%, 140G)
ANFz: 100G (0.8%, 11,141G)
victoriolue: 100G (0.8%, 899G)

yellow bets:
WireLord: 2,000G (19.3%, 57,786G)
Shalloween: 1,300G (12.5%, 56,031G)
DustBirdEX: 1,238G (11.9%, 16,238G)
Lydian_C: 1,200G (11.6%, 138,012G)
BirbBrainsBot: 1,000G (9.6%, 23,086G)
mirapoix: 837G (8.1%, 837G)
ungabunga_bot: 645G (6.2%, 174,158G)
DarrenDinosaurs: 436G (4.2%, 436G)
Tetsuwan_Melty: 385G (3.7%, 385G)
potgodtopdog: 300G (2.9%, 8,877G)
JackOnFire1: 284G (2.7%, 284G)
gorgewall: 128G (1.2%, 128G)
AllInBot: 124G (1.2%, 124G)
sage_the_kitsune: 104G (1.0%, 104G)
ndubya: 102G (1.0%, 102G)
FrozenFelid: 100G (1.0%, 10,747G)
kaidykat: 100G (1.0%, 663G)
Schilling381: 100G (1.0%, 100G)
