Final Bets: white - 13 bets for 15,467G (27.9%, x2.59); purple - 14 bets for 39,986G (72.1%, x0.39)

white bets:
helpimabug: 5,319G (34.4%, 10,638G)
Mesmaster: 2,202G (14.2%, 2,202G)
UmaiJam: 2,000G (12.9%, 53,055G)
NIghtdew14: 1,507G (9.7%, 1,507G)
Thyrandaal: 1,234G (8.0%, 104,480G)
BirbBrainsBot: 1,000G (6.5%, 90,570G)
pandasforsale: 666G (4.3%, 1,770G)
JDogg2K4: 522G (3.4%, 522G)
AllInBot: 503G (3.3%, 503G)
Treafa: 300G (1.9%, 591G)
tanarusasamiya: 100G (0.6%, 567G)
TimeJannies: 100G (0.6%, 812G)
getthemoneyz: 14G (0.1%, 1,457,739G)

purple bets:
sinnyil2: 31,179G (78.0%, 62,359G)
SkylerBunny: 3,000G (7.5%, 102,221G)
DeathTaxesAndAnime: 2,174G (5.4%, 4,264G)
Miku_Shikhu: 696G (1.7%, 696G)
douchetron: 607G (1.5%, 1,192G)
randgridr: 580G (1.5%, 580G)
Shalloween: 500G (1.3%, 17,029G)
flacococo: 276G (0.7%, 276G)
gorgewall: 201G (0.5%, 19,260G)
ribbiks: 200G (0.5%, 4,437G)
Wooplestein: 200G (0.5%, 4,509G)
datadrivenbot: 200G (0.5%, 44,282G)
Blastinus: 100G (0.3%, 1,194G)
dtrain332: 73G (0.2%, 6,398G)
