Final Bets: white - 24 bets for 22,173G (55.0%, x0.82); black - 19 bets for 18,131G (45.0%, x1.22)

white bets:
LivingHitokiri: 6,000G (27.1%, 162,449G)
Virilikus: 5,000G (22.5%, 177,930G)
dogsandcatsand: 1,230G (5.5%, 1,230G)
Mushufasa_: 1,000G (4.5%, 117,517G)
BirbBrainsBot: 1,000G (4.5%, 132,618G)
AniZero: 1,000G (4.5%, 35,041G)
3ngag3: 994G (4.5%, 15,994G)
Lord_Gwarth: 889G (4.0%, 889G)
killabandaid: 724G (3.3%, 724G)
fenaen: 620G (2.8%, 9,556G)
lowlf: 596G (2.7%, 21,753G)
CosmicTactician: 500G (2.3%, 20,675G)
DarrenDinosaurs: 500G (2.3%, 3,522G)
SephDarkheart: 400G (1.8%, 15,341G)
silentkaster: 300G (1.4%, 4,251G)
ribbiks: 284G (1.3%, 284G)
AllInBot: 200G (0.9%, 200G)
Blastinus: 200G (0.9%, 701G)
Evewho: 200G (0.9%, 6,491G)
dolzytwitch: 200G (0.9%, 2,067G)
Manarkzin: 100G (0.5%, 1,000G)
readdesert: 100G (0.5%, 805G)
ghazzzzzz: 100G (0.5%, 782G)
getthemoneyz: 36G (0.2%, 2,064,572G)

black bets:
OneHundredFists: 5,902G (32.6%, 11,574G)
RunicMagus: 1,840G (10.1%, 1,840G)
roofiepops: 1,653G (9.1%, 1,653G)
Rytor: 1,605G (8.9%, 3,211G)
E_Ballard: 1,260G (6.9%, 1,260G)
Willjin: 1,233G (6.8%, 1,233G)
Musashi45: 1,139G (6.3%, 1,139G)
krombobreaker: 685G (3.8%, 685G)
VolgraTheMoose: 501G (2.8%, 18,706G)
HorusTaurus: 500G (2.8%, 4,457G)
escobro: 400G (2.2%, 801G)
ValensEXP_: 384G (2.1%, 5,604G)
resjudicata3: 200G (1.1%, 2,546G)
datadrivenbot: 200G (1.1%, 75,657G)
MemoriesofFinal: 200G (1.1%, 52,546G)
SnarkMage: 128G (0.7%, 655G)
gorgewall: 101G (0.6%, 3,074G)
Strifu: 100G (0.6%, 4,650G)
Shalloween: 100G (0.6%, 2,146G)
