Final Bets: black - 11 bets for 20,026G (74.0%, x0.35); brown - 15 bets for 7,047G (26.0%, x2.84)

black bets:
nifboy: 15,964G (79.7%, 31,928G)
triniculo: 926G (4.6%, 926G)
Aldrammech: 880G (4.4%, 880G)
killth3kid: 512G (2.6%, 512G)
neocarbuncle: 433G (2.2%, 433G)
Hirameki85: 386G (1.9%, 386G)
AllInBot: 338G (1.7%, 338G)
Cyril_Jay: 204G (1.0%, 204G)
datadrivenbot: 200G (1.0%, 41,280G)
roofiepops: 133G (0.7%, 3,329G)
nhammen: 50G (0.2%, 16,833G)

brown bets:
SkylerBunny: 2,000G (28.4%, 41,226G)
coralreeferz: 1,250G (17.7%, 43,340G)
BirbBrainsBot: 1,000G (14.2%, 88,069G)
SephDarkheart: 643G (9.1%, 643G)
resjudicata3: 500G (7.1%, 2,324G)
letdowncity: 500G (7.1%, 2,940G)
getthemoneyz: 254G (3.6%, 1,389,521G)
holdenmagronik: 228G (3.2%, 590G)
TasisSai: 200G (2.8%, 2,441G)
Lydian_C: 121G (1.7%, 24,574G)
douchetron: 101G (1.4%, 3,323G)
Chaerie: 100G (1.4%, 1,000G)
ribbiks: 100G (1.4%, 7,739G)
DouglasDragonThePoet: 30G (0.4%, 2,353G)
chapchansan: 20G (0.3%, 1,325G)
