Final Bets: blue - 9 bets for 7,592G (81.7%, x0.22); yellow - 5 bets for 1,696G (18.3%, x4.48)

blue bets:
Evewho: 1,461G (19.2%, 1,461G)
bruubarg: 1,423G (18.7%, 1,423G)
helpimabug: 1,232G (16.2%, 2,465G)
Choco_Joe: 1,000G (13.2%, 21,865G)
BirbBrainsBot: 1,000G (13.2%, 123,095G)
Arcblazer23: 500G (6.6%, 5,305G)
amishninja: 500G (6.6%, 3,077G)
redrhinofever: 276G (3.6%, 1,816G)
datadrivenbot: 200G (2.6%, 56,770G)

yellow bets:
getthemoneyz: 648G (38.2%, 1,216,987G)
blastty: 332G (19.6%, 332G)
enkikavlar: 312G (18.4%, 312G)
superdevon1: 294G (17.3%, 2,942G)
hiros13gts: 110G (6.5%, 1,219G)
