Final Bets: purple - 23 bets for 11,365G (46.9%, x1.13); brown - 13 bets for 12,875G (53.1%, x0.88)

purple bets:
Zeroroute: 1,743G (15.3%, 1,743G)
rocl: 1,162G (10.2%, 11,620G)
ShintaroNayaka: 1,000G (8.8%, 25,332G)
BirbBrainsBot: 1,000G (8.8%, 180,251G)
bad1dea: 1,000G (8.8%, 1,141G)
Shalloween: 1,000G (8.8%, 83,357G)
Laserman1000: 700G (6.2%, 7,700G)
Lanshaft: 600G (5.3%, 4,805G)
jethrothrul: 544G (4.8%, 544G)
NovaKnight21: 492G (4.3%, 492G)
ungabunga_bot: 450G (4.0%, 13,269G)
HaychDub: 300G (2.6%, 2,412G)
ForagerCats: 276G (2.4%, 276G)
Whiskybrave: 200G (1.8%, 4,189G)
getthemoneyz: 176G (1.5%, 424,987G)
soapydragonfly: 108G (1.0%, 108G)
Cataphract116: 100G (0.9%, 2,998G)
SeedSC: 100G (0.9%, 137,143G)
Mechapope1: 100G (0.9%, 3,330G)
datadrivenbot: 100G (0.9%, 16,499G)
hamedont: 100G (0.9%, 803G)
ZephyrTempest: 100G (0.9%, 21,328G)
JackOnFire1: 14G (0.1%, 116G)

brown bets:
DudeMonkey77: 5,854G (45.5%, 11,709G)
sinnyil2: 3,252G (25.3%, 6,505G)
TheChainNerd: 1,000G (7.8%, 37,645G)
kai_shee: 1,000G (7.8%, 89,762G)
AllInBot: 349G (2.7%, 349G)
Baron_von_Scrub: 333G (2.6%, 14,960G)
ko2q: 328G (2.5%, 328G)
OttoRaynar: 236G (1.8%, 236G)
ugoplatamia: 200G (1.6%, 13,898G)
L2_Sentinel: 200G (1.6%, 13,259G)
tmo50x: 100G (0.8%, 2,622G)
markese: 22G (0.2%, 2,285G)
daveb_: 1G (0.0%, 979G)
