Final Bets: white - 17 bets for 23,154G (69.8%, x0.43); black - 19 bets for 10,024G (30.2%, x2.31)

white bets:
DeathTaxesAndAnime: 12,630G (54.5%, 24,765G)
Mesmaster: 3,000G (13.0%, 87,747G)
Zetchryn: 2,500G (10.8%, 6,847G)
gorgewall: 1,000G (4.3%, 16,304G)
Phytik: 1,000G (4.3%, 19,288G)
superdevon1: 686G (3.0%, 6,865G)
Jaritras: 431G (1.9%, 431G)
Dymntd: 369G (1.6%, 369G)
twelfthrootoftwo: 300G (1.3%, 3,143G)
ar_tactic: 250G (1.1%, 32,985G)
Bloody_Nips: 250G (1.1%, 847G)
Heroebal: 200G (0.9%, 6,654G)
chaotic_prodigy: 130G (0.6%, 130G)
witchlight: 104G (0.4%, 104G)
ungabunga_bot: 104G (0.4%, 318,330G)
datadrivenbot: 100G (0.4%, 13,158G)
OneHundredFists: 100G (0.4%, 1,140G)

black bets:
R_Raynos: 3,000G (29.9%, 46,468G)
Jerboj: 1,000G (10.0%, 44,733G)
HaplessOne: 999G (10.0%, 40,153G)
getthemoneyz: 578G (5.8%, 610,739G)
vorap: 500G (5.0%, 29,914G)
genericco: 500G (5.0%, 2,071G)
Kyune: 500G (5.0%, 1,504G)
Estan_AD: 500G (5.0%, 3,093G)
TheRedMelody: 456G (4.5%, 456G)
moonliquor: 453G (4.5%, 453G)
uwuslayer15: 300G (3.0%, 636G)
BirbBrainsBot: 260G (2.6%, 260G)
Lythe_Caraker: 250G (2.5%, 116,564G)
Wonser: 200G (2.0%, 4,327G)
RestIessNight: 120G (1.2%, 120G)
fd3sihk: 108G (1.1%, 108G)
Crymoreimo2: 100G (1.0%, 100G)
Yasmosis: 100G (1.0%, 910G)
carsenhk: 100G (1.0%, 11,313G)
