Final Bets: yellow - 24 bets for 20,445G (62.6%, x0.60); champion - 17 bets for 12,223G (37.4%, x1.67)

yellow bets:
Dexsana: 5,875G (28.7%, 5,875G)
Zetchryn: 2,500G (12.2%, 8,772G)
sinnyil2: 2,377G (11.6%, 2,377G)
HaplessOne: 1,500G (7.3%, 42,434G)
ungabunga_bot: 1,000G (4.9%, 318,987G)
ColetteMSLP: 1,000G (4.9%, 30,897G)
Mesmaster: 1,000G (4.9%, 89,971G)
Dymntd: 1,000G (4.9%, 3,480G)
pandasforsale: 888G (4.3%, 30,767G)
genericco: 500G (2.4%, 3,094G)
BirbBrainsBot: 439G (2.1%, 439G)
TimeNugget: 366G (1.8%, 366G)
Anethum: 300G (1.5%, 3,211G)
Kyune: 281G (1.4%, 281G)
TheRedMelody: 250G (1.2%, 1,500G)
itsadud: 228G (1.1%, 228G)
Crymoreimo2: 219G (1.1%, 219G)
carsenhk: 150G (0.7%, 11,498G)
RestIessNight: 120G (0.6%, 120G)
fd3sihk: 108G (0.5%, 108G)
Zhies1337: 104G (0.5%, 104G)
SulliedGraves: 100G (0.5%, 1,106G)
Firesheath: 100G (0.5%, 14,534G)
getthemoneyz: 40G (0.2%, 611,491G)

champion bets:
DeathTaxesAndAnime: 6,001G (49.1%, 12,000G)
gorgewall: 1,000G (8.2%, 16,349G)
Master_Metroid: 1,000G (8.2%, 5,670G)
ccordc: 807G (6.6%, 2,019G)
superdevon1: 558G (4.6%, 5,589G)
Wonser: 500G (4.1%, 4,405G)
midori_ribbon: 450G (3.7%, 2,149G)
VarkilTV: 400G (3.3%, 1,160G)
Jaritras: 260G (2.1%, 260G)
uwuslayer15: 228G (1.9%, 228G)
chaotic_prodigy: 219G (1.8%, 219G)
Heroebal: 200G (1.6%, 6,799G)
witchlight: 200G (1.6%, 1,228G)
moonliquor: 100G (0.8%, 777G)
datadrivenbot: 100G (0.8%, 13,162G)
Bioticism: 100G (0.8%, 1,470G)
Realitydown: 100G (0.8%, 2,103G)
