High Risers:
1. Nickyfive: +7,988G
2. Onehundredfists: +4,514G
3. Corpuscav: +4,293G
4. Smashy: +3,571G
5. Latebit: +3,150G
6. Nekojin: +2,845G
7. Hotpocketsofficial: +1,748G
8. Omegasuspekt: +1,594G
9. Yangusburger: +1,212G
10. Litarmada: +1,179G
11. Anfz: +1,167G
12. Smugzug: +1,050G
13. Just_here2: +1,000G
14. Dac169: +1,000G
15. Zagorsek: +1,000G
16. Gingerfoo69: +829G
17. Biske13: +781G
18. Thunderducker: +656G
19. Dasutin23: +625G
20. J_macc1991: +550G
21. Mirapoix: +467G
22. Zebobz: +341G
23. Gorgewall: +332G
24. Snkey: +235G
25. Heybtw: +185G
26. Loveyouallfriends: +157G
27. Sephdarkheart: +150G
28. King_smashington: +126G
29. Roofiepops: +112G
30. Foragercats: +103G
31. Willjin: +67G
32. Khelor_: +26G
33. Victoriolue: +17G
34. Richardserious: -77G
35. Kellios11: -79G
36. Maakur_: -157G
37. Lijarkh: -198G
38. Redmage4evah: -200G
39. Pantheriscariot: -200G
40. Silentkaster: -202G
41. Zenlion: -256G
42. Deathtaxesandanime: -289G
43. Upvla: -310G
44. Aceof86: -324G
45. Nicosavoy: -370G
46. Zeroroute: -371G
47. Ronaldothegypsy: -447G
48. Technominari: -500G
49. Bonemiser: -576G
50. Volgrathemoose: -603G
51. Reddwind_: -616G
52. Thyrandaal: -983G
53. Resjudicata3: -994G
54. Grayghostgaming: -1,000G
55. Laserman1000: -1,000G
56. Pplvee1: -1,000G
57. Powergems: -1,100G
58. Lyner87: -1,333G
59. Dogsandcatsand: -1,385G
60. Krombobreaker: -1,715G
61. Chuckolator: -2,062G
62. Whiskeypail: -2,393G
63. Shalloween: -7,105G
64. Reinoe: -7,175G
