Final Bets: purple - 11 bets for 7,536G (29.9%, x2.34); brown - 18 bets for 17,664G (70.1%, x0.43)

purple bets:
CorpusCav: 1,200G (15.9%, 12,056G)
lijarkh: 1,003G (13.3%, 1,003G)
BirbBrainsBot: 1,000G (13.3%, 90,434G)
powergems: 1,000G (13.3%, 11,417G)
getthemoneyz: 800G (10.6%, 1,928,749G)
upvla: 742G (9.8%, 742G)
thunderducker: 625G (8.3%, 5,271G)
reinoe: 620G (8.2%, 620G)
loveyouallfriends: 250G (3.3%, 39,019G)
hotpocketsofficial: 196G (2.6%, 1,448G)
BartTradingCompany: 100G (1.3%, 8,598G)

brown bets:
OneHundredFists: 5,030G (28.5%, 5,030G)
whiskeypail: 4,000G (22.6%, 5,211G)
Willjin: 3,000G (17.0%, 38,046G)
AllInBot: 971G (5.5%, 971G)
rottings0ul: 711G (4.0%, 711G)
resjudicata3: 552G (3.1%, 552G)
Dasutin23: 500G (2.8%, 9,295G)
krombobreaker: 500G (2.8%, 10,992G)
Smashy: 500G (2.8%, 3,140G)
latebit: 416G (2.4%, 416G)
Zeroroute: 392G (2.2%, 392G)
J_MacC1991: 350G (2.0%, 350G)
datadrivenbot: 200G (1.1%, 61,194G)
aceof86: 200G (1.1%, 2,379G)
Smugzug: 141G (0.8%, 741G)
maakur_: 100G (0.6%, 3,824G)
LitArmada: 100G (0.6%, 1,091G)
Chuckolator: 1G (0.0%, 22,460G)
