Final Bets: red - 10 bets for 7,421G (35.7%, x1.80); green - 17 bets for 13,385G (64.3%, x0.55)

red bets:
almost__sane: 4,000G (53.9%, 36,208G)
BirbBrainsBot: 956G (12.9%, 45,319G)
ko2q: 564G (7.6%, 564G)
KasugaiRoastedPeas: 552G (7.4%, 552G)
Demon_Lord_Josh: 506G (6.8%, 506G)
murderclan: 250G (3.4%, 1,168G)
2b_yorha_b: 200G (2.7%, 3,694G)
getthemoneyz: 182G (2.5%, 2,159,766G)
seppu777: 111G (1.5%, 2,794G)
DouglasDragonThePoet: 100G (1.3%, 6,642G)

green bets:
Thyrandaal: 2,919G (21.8%, 5,725G)
ANFz: 1,738G (13.0%, 1,738G)
resjudicata3: 1,686G (12.6%, 1,686G)
HASTERIOUS: 1,431G (10.7%, 1,431G)
Lord_Gwarth: 1,000G (7.5%, 17,895G)
Mushufasa_: 999G (7.5%, 999G)
DHaveWord: 581G (4.3%, 581G)
helpimabug: 557G (4.2%, 557G)
ExplanationMarkWow: 500G (3.7%, 23,262G)
krombobreaker: 500G (3.7%, 34,180G)
AltimaMantoid: 434G (3.2%, 13,134G)
TheBrett: 272G (2.0%, 7,685G)
AllInBot: 267G (2.0%, 267G)
datadrivenbot: 200G (1.5%, 82,756G)
gorgewall: 101G (0.8%, 7,137G)
cloudycube: 100G (0.7%, 518G)
heropong: 100G (0.7%, 2,297G)
