Final Bets: white - 15 bets for 5,667G (50.9%, x0.96); brown - 11 bets for 5,468G (49.1%, x1.04)

white bets:
maakur_: 1,404G (24.8%, 1,404G)
helpimabug: 788G (13.9%, 788G)
brokenknight201: 728G (12.8%, 728G)
resjudicata3: 556G (9.8%, 556G)
DHaveWord: 484G (8.5%, 484G)
TheBrett: 272G (4.8%, 7,913G)
seppu777: 222G (3.9%, 2,994G)
AllInBot: 200G (3.5%, 200G)
CosmicTactician: 200G (3.5%, 2,359G)
datadrivenbot: 200G (3.5%, 82,556G)
2b_yorha_b: 200G (3.5%, 4,555G)
BirbBrainsBot: 112G (2.0%, 47,043G)
gorgewall: 101G (1.8%, 7,036G)
AbandonedHall: 100G (1.8%, 714G)
cloudycube: 100G (1.8%, 918G)

brown bets:
Thyrandaal: 1,686G (30.8%, 3,306G)
ko2q: 1,040G (19.0%, 2,081G)
ANFz: 544G (9.9%, 544G)
ExplanationMarkWow: 500G (9.1%, 23,262G)
krombobreaker: 500G (9.1%, 33,680G)
Mushufasa_: 388G (7.1%, 388G)
Evewho: 200G (3.7%, 8,921G)
Demon_Lord_Josh: 200G (3.7%, 2,423G)
getthemoneyz: 160G (2.9%, 2,160,094G)
murderclan: 150G (2.7%, 1,619G)
DouglasDragonThePoet: 100G (1.8%, 7,322G)
