Final Bets: blue - 19 bets for 10,683G (52.6%, x0.90); brown - 15 bets for 9,636G (47.4%, x1.11)

blue bets:
Rislyeu: 2,035G (19.0%, 2,035G)
Zeroroute: 1,718G (16.1%, 3,927G)
TheMurkGnome: 1,000G (9.4%, 7,062G)
Aldrammech: 1,000G (9.4%, 10,031G)
ZicaX: 907G (8.5%, 907G)
Vacillents: 537G (5.0%, 537G)
Legionx13: 500G (4.7%, 3,330G)
NIghtdew14: 500G (4.7%, 5,843G)
killth3kid: 432G (4.0%, 8,169G)
Kronikle: 416G (3.9%, 11,113G)
Othatmattkid: 328G (3.1%, 1,328G)
alekzanndrr: 228G (2.1%, 228G)
innocent0125: 211G (2.0%, 211G)
gorgewall: 201G (1.9%, 7,793G)
AllInBot: 200G (1.9%, 200G)
silentkaster: 150G (1.4%, 15,369G)
Royal_Ruckus: 120G (1.1%, 120G)
nhammen: 100G (0.9%, 7,649G)
CosmicTactician: 100G (0.9%, 47,439G)

brown bets:
Thyrandaal: 2,000G (20.8%, 15,164G)
NicoSavoy: 2,000G (20.8%, 216,700G)
BirbBrainsBot: 1,000G (10.4%, 51,396G)
Laserman1000: 900G (9.3%, 39,300G)
randgridr: 828G (8.6%, 828G)
Treafa: 500G (5.2%, 1,836G)
prince_rogers_nelson_: 452G (4.7%, 452G)
Xoomwaffle: 450G (4.7%, 2,693G)
pandasforsale: 444G (4.6%, 23,753G)
RageImmortaI: 296G (3.1%, 998G)
Lemonjohns: 200G (2.1%, 1,705G)
Evewho: 200G (2.1%, 4,129G)
lyonslegacy: 150G (1.6%, 1,146G)
getthemoneyz: 116G (1.2%, 1,309,678G)
TasisSai: 100G (1.0%, 1,229G)
