Final Bets: red - 10 bets for 30,412G (86.9%, x0.15); white - 13 bets for 4,570G (13.1%, x6.65)

red bets:
toka222: 15,000G (49.3%, 89,747G)
TheChainNerd: 6,430G (21.1%, 25,722G)
Aldrammech: 2,227G (7.3%, 2,227G)
Lord_Burrah: 1,504G (4.9%, 76,504G)
E_Ballard: 1,097G (3.6%, 1,097G)
SephDarkheart: 1,000G (3.3%, 21,858G)
BirbBrainsBot: 1,000G (3.3%, 147,350G)
fenaen: 954G (3.1%, 954G)
killth3kid: 700G (2.3%, 107,350G)
CosmicTactician: 500G (1.6%, 38,698G)

white bets:
NovaKnight21: 1,000G (21.9%, 18,619G)
pplvee1: 848G (18.6%, 848G)
joewcarson: 500G (10.9%, 30,623G)
SQUiDSQUARKLIN: 400G (8.8%, 12,987G)
randgridr: 320G (7.0%, 16,553G)
getthemoneyz: 302G (6.6%, 1,270,136G)
benticore: 250G (5.5%, 17,997G)
Mysteriousdewd: 200G (4.4%, 4,529G)
lyans00: 200G (4.4%, 1,409G)
RedRiderAyame: 200G (4.4%, 1,152G)
datadrivenbot: 200G (4.4%, 59,027G)
Grandlanzer: 100G (2.2%, 74,873G)
Othatmattkid: 50G (1.1%, 1,352G)
