Final Bets: blue - 18 bets for 21,759G (88.7%, x0.13); green - 9 bets for 2,762G (11.3%, x7.88)

blue bets:
DavenIII: 6,874G (31.6%, 6,874G)
pplvee1: 5,332G (24.5%, 5,332G)
latebit: 1,936G (8.9%, 3,798G)
JumbocactuarX27: 1,500G (6.9%, 3,858G)
BirbBrainsBot: 1,000G (4.6%, 125,281G)
Nizaha: 892G (4.1%, 61,133G)
Riley331: 828G (3.8%, 828G)
ser_pyrro: 808G (3.7%, 808G)
LivingHitokiri: 500G (2.3%, 134,306G)
SephDarkheart: 400G (1.8%, 5,728G)
Lord_Gwarth: 316G (1.5%, 316G)
old_overholt_: 300G (1.4%, 28,882G)
brokenknight201: 300G (1.4%, 23,261G)
mirapoix: 200G (0.9%, 1,851G)
CosmicTactician: 200G (0.9%, 21,531G)
FoeSquirrel: 173G (0.8%, 346G)
galkife: 100G (0.5%, 81,639G)
leaferrm: 100G (0.5%, 2,606G)

green bets:
fenaen: 620G (22.4%, 9,917G)
Bae0w0: 600G (21.7%, 600G)
AnthroMetal: 500G (18.1%, 2,679G)
Scotty297: 250G (9.1%, 4,394G)
AllInBot: 200G (7.2%, 200G)
Zachara: 200G (7.2%, 144,300G)
getthemoneyz: 192G (7.0%, 2,059,813G)
maakur_: 100G (3.6%, 6,277G)
killabandaid: 100G (3.6%, 2,026G)
