Final Bets: purple - 15 bets for 11,333G (50.9%, x0.96); brown - 17 bets for 10,927G (49.1%, x1.04)

purple bets:
NicoSavoy: 4,119G (36.3%, 4,119G)
VolgraTheMoose: 1,501G (13.2%, 32,775G)
killth3kid: 808G (7.1%, 36,149G)
Laserman1000: 753G (6.6%, 14,953G)
lowlf: 640G (5.6%, 640G)
DuPlatypus: 591G (5.2%, 591G)
roofiepops: 520G (4.6%, 520G)
EvilLego6: 500G (4.4%, 29,043G)
krombobreaker: 500G (4.4%, 31,508G)
yagyuudarkness: 400G (3.5%, 2,191G)
CapnChaos12: 300G (2.6%, 4,894G)
Evewho: 200G (1.8%, 9,602G)
resjudicata3: 200G (1.8%, 1,658G)
datadrivenbot: 200G (1.8%, 80,532G)
gorgewall: 101G (0.9%, 8,296G)

brown bets:
nhammen: 3,000G (27.5%, 75,525G)
acid_flashback: 2,000G (18.3%, 24,300G)
latebit: 1,238G (11.3%, 1,238G)
RunicMagus: 1,020G (9.3%, 26,776G)
Chuckolator: 673G (6.2%, 673G)
Smashy: 412G (3.8%, 1,440G)
BirbBrainsBot: 337G (3.1%, 337G)
seppu777: 333G (3.0%, 18,905G)
getthemoneyz: 310G (2.8%, 2,134,794G)
TheBrett: 264G (2.4%, 2,202G)
Craymel_Mage: 232G (2.1%, 232G)
Demon_Lord_Josh: 208G (1.9%, 208G)
AllInBot: 200G (1.8%, 200G)
Leonidusx: 200G (1.8%, 422,108G)
Shalloween: 200G (1.8%, 13,655G)
AltimaMantoid: 200G (1.8%, 3,400G)
rkane398: 100G (0.9%, 100G)
