Final Bets: purple - 9 bets for 4,914G (28.8%, x2.47); brown - 11 bets for 12,138G (71.2%, x0.40)

purple bets:
latebit: 1,867G (38.0%, 3,662G)
BirbBrainsBot: 1,000G (20.4%, 147,161G)
Aldrammech: 700G (14.2%, 700G)
blorpy_: 506G (10.3%, 6,333G)
getthemoneyz: 240G (4.9%, 1,714,976G)
datadrivenbot: 200G (4.1%, 62,106G)
LeoNightFury: 200G (4.1%, 200G)
gorgewall: 101G (2.1%, 4,293G)
CosmicTactician: 100G (2.0%, 37,409G)

brown bets:
Narcius: 4,700G (38.7%, 319,829G)
silverChangeling: 1,735G (14.3%, 8,678G)
skillomono: 1,247G (10.3%, 1,247G)
VolgraTheMoose: 1,211G (10.0%, 35,704G)
maximumcrit: 1,000G (8.2%, 6,079G)
BoneMiser: 539G (4.4%, 539G)
Smashy: 500G (4.1%, 8,806G)
douchetron: 394G (3.2%, 394G)
neocarbuncle: 361G (3.0%, 361G)
idioSyncr4zy: 351G (2.9%, 7,038G)
AllInBot: 100G (0.8%, 100G)
