Final Bets: yellow - 16 bets for 15,269G (51.3%, x0.95); brown - 26 bets for 14,520G (48.7%, x1.05)

yellow bets:
Baron_von_Scrub: 5,000G (32.7%, 87,085G)
reinoe: 4,380G (28.7%, 8,761G)
sukotsuto: 1,544G (10.1%, 3,088G)
Eldente: 1,000G (6.5%, 12,651G)
Aldrammech: 1,000G (6.5%, 13,766G)
R_Raynos: 446G (2.9%, 446G)
Sovattaro: 400G (2.6%, 1,436G)
killth3kid: 316G (2.1%, 28,136G)
ewan_e: 300G (2.0%, 1,666G)
Evewho: 200G (1.3%, 3,656G)
dorman_777: 175G (1.1%, 175G)
CandyTamer: 116G (0.8%, 1,163G)
lastly: 100G (0.7%, 3,999G)
Tougou: 100G (0.7%, 16,346G)
Firesheath: 100G (0.7%, 10,681G)
nifboy: 92G (0.6%, 2,322G)

brown bets:
Mtueni: 2,000G (13.8%, 265,870G)
WireLord: 2,000G (13.8%, 40,713G)
itzover9001: 1,000G (6.9%, 76,574G)
BirbBrainsBot: 1,000G (6.9%, 161,384G)
ungabunga_bot: 1,000G (6.9%, 236,792G)
Madcow457: 1,000G (6.9%, 6,177G)
ethias91: 812G (5.6%, 16,252G)
kai_shee: 628G (4.3%, 6,282G)
SquidgyXom: 565G (3.9%, 565G)
TheMurkGnome: 542G (3.7%, 542G)
volgrathemoose: 501G (3.5%, 3,190G)
Justice0320: 473G (3.3%, 4,736G)
arch8000: 386G (2.7%, 12,893G)
gooseyourself: 368G (2.5%, 368G)
Jeeboheebo: 364G (2.5%, 364G)
TheRylander: 300G (2.1%, 1,137G)
GarbagePhoenix: 300G (2.1%, 1,556G)
EnemyController: 300G (2.1%, 107,103G)
Realitydown: 296G (2.0%, 296G)
LivingHitokiri: 140G (1.0%, 140G)
aznwanderor: 108G (0.7%, 108G)
ZephyrTempest: 101G (0.7%, 186,190G)
ThunderGodKhan: 100G (0.7%, 189G)
datadrivenbot: 100G (0.7%, 1,157G)
Pochitchi: 100G (0.7%, 7,013G)
getthemoneyz: 36G (0.2%, 574,628G)
