Final Bets: purple - 15 bets for 5,273G (20.3%, x3.92); brown - 24 bets for 20,655G (79.7%, x0.26)

purple bets:
megaman2202: 1,520G (28.8%, 3,041G)
TheChainNerd: 500G (9.5%, 3,685G)
onetrickwolf: 500G (9.5%, 5,580G)
getthemoneyz: 446G (8.5%, 573,385G)
aznwanderor: 353G (6.7%, 353G)
sukotsuto: 300G (5.7%, 10,964G)
Realitydown: 296G (5.6%, 296G)
toka222: 250G (4.7%, 4,196G)
TheRylander: 208G (3.9%, 208G)
CT_5_Holy: 200G (3.8%, 1,002G)
museofdoom: 200G (3.8%, 2,403G)
LivingHitokiri: 200G (3.8%, 1,220G)
Lali_Lulelo: 100G (1.9%, 16,016G)
DonCardenio: 100G (1.9%, 4,226G)
midori_ribbon: 100G (1.9%, 289G)

brown bets:
troublesometree: 4,720G (22.9%, 4,720G)
sinnyil2: 3,500G (16.9%, 108,974G)
Lord_Burrah: 2,904G (14.1%, 84,904G)
fenaen: 1,500G (7.3%, 78,554G)
JumbocactuarX27: 1,272G (6.2%, 1,272G)
BirbBrainsBot: 1,000G (4.8%, 144,807G)
EnemyController: 1,000G (4.8%, 98,326G)
PetitFoulard: 667G (3.2%, 667G)
SQUiDSQUARKLIN: 502G (2.4%, 8,957G)
joewcarson: 501G (2.4%, 8,235G)
catfashions: 500G (2.4%, 7,921G)
feDoran: 500G (2.4%, 17,129G)
Jerboj: 500G (2.4%, 53,734G)
ungabunga_bot: 302G (1.5%, 231,905G)
whiteonrice: 265G (1.3%, 265G)
ThePineappleSalesman: 200G (1.0%, 19,799G)
ProdigyAzn: 200G (1.0%, 200G)
ZephyrTempest: 101G (0.5%, 185,777G)
duskps: 100G (0.5%, 11,976G)
GarbagePhoenix: 100G (0.5%, 768G)
datadrivenbot: 100G (0.5%, 2,014G)
rjA0zcOQ96: 100G (0.5%, 36,416G)
nifboy: 71G (0.3%, 1,790G)
DrAntiSocial: 50G (0.2%, 27,036G)
