Final Bets: red - 17 bets for 8,798G (31.1%, x2.21); blue - 22 bets for 19,486G (68.9%, x0.45)

red bets:
killth3kid: 2,000G (22.7%, 45,239G)
Laserman1000: 1,065G (12.1%, 114,665G)
BirbBrainsBot: 1,000G (11.4%, 44,731G)
richardserious: 800G (9.1%, 3,629G)
getthemoneyz: 632G (7.2%, 624,861G)
DavenIII: 550G (6.3%, 3,974G)
Webb_MD: 443G (5.0%, 443G)
Cryptopsy70: 392G (4.5%, 27,607G)
Aneyus: 351G (4.0%, 35,134G)
DLJuggernaut: 350G (4.0%, 6,488G)
SerumD: 344G (3.9%, 344G)
Rytor: 300G (3.4%, 1,956G)
belife42: 147G (1.7%, 147G)
gggamezzz: 124G (1.4%, 124G)
maakur_: 100G (1.1%, 127,848G)
VentoLivre: 100G (1.1%, 793G)
MuguTheMangler: 100G (1.1%, 810G)

blue bets:
sinnyil2: 3,387G (17.4%, 3,387G)
roofiepops: 2,500G (12.8%, 13,321G)
Grimmace45: 2,195G (11.3%, 4,391G)
HaplessOne: 1,500G (7.7%, 44,477G)
leakimiko: 1,383G (7.1%, 2,712G)
HaateXIII: 1,121G (5.8%, 2,199G)
TheChainNerd: 1,000G (5.1%, 16,976G)
ungabunga_bot: 1,000G (5.1%, 342,356G)
RoboticNomad: 1,000G (5.1%, 2,164G)
DeathTaxesAndAnime: 830G (4.3%, 830G)
EnemyController: 500G (2.6%, 180,174G)
NovaKnight21: 452G (2.3%, 452G)
coralreeferz: 450G (2.3%, 17,223G)
Lydian_C: 420G (2.2%, 14,401G)
Baron_von_Scrub: 386G (2.0%, 386G)
Kronikle: 300G (1.5%, 1,534G)
joewcarson: 300G (1.5%, 13,287G)
ACSpree: 250G (1.3%, 25,699G)
ThePineappleSalesman: 200G (1.0%, 25,878G)
eudes89: 112G (0.6%, 112G)
datadrivenbot: 100G (0.5%, 12,331G)
CosmicTactician: 100G (0.5%, 21,802G)
