Final Bets: white - 10 bets for 6,396G (33.9%, x1.95); purple - 18 bets for 12,458G (66.1%, x0.51)

white bets:
SerumD: 1,088G (17.0%, 1,088G)
TheChainNerd: 1,000G (15.6%, 16,048G)
BirbBrainsBot: 1,000G (15.6%, 41,080G)
Lionhermit: 1,000G (15.6%, 29,044G)
HaplessOne: 666G (10.4%, 44,407G)
NovaKnight21: 452G (7.1%, 452G)
RoboticNomad: 400G (6.3%, 4,090G)
old_overholt_: 300G (4.7%, 3,637G)
EnemyController: 300G (4.7%, 180,848G)
getthemoneyz: 190G (3.0%, 623,177G)

purple bets:
DeathTaxesAndAnime: 3,216G (25.8%, 3,216G)
killth3kid: 2,000G (16.1%, 47,521G)
leakimiko: 1,350G (10.8%, 5,401G)
Shakarak: 1,200G (9.6%, 7,085G)
Who_lio42: 1,000G (8.0%, 6,199G)
FriendSquirrel: 785G (6.3%, 31,857G)
Grimmace45: 763G (6.1%, 7,633G)
rechaun: 567G (4.6%, 567G)
roofiepops: 444G (3.6%, 14,454G)
belife42: 223G (1.8%, 223G)
amiture: 200G (1.6%, 4,297G)
FoeSquirrel: 170G (1.4%, 340G)
alphara2: 112G (0.9%, 1,000G)
ungabunga_bot: 102G (0.8%, 340,896G)
Firesheath: 100G (0.8%, 13,765G)
datadrivenbot: 100G (0.8%, 12,647G)
CoderCalamity: 100G (0.8%, 2,336G)
ZephyrTempest: 26G (0.2%, 524G)
