Final Bets: blue - 10 bets for 8,031G (40.2%, x1.49); purple - 21 bets for 11,961G (59.8%, x0.67)

blue bets:
RoboticNomad: 1,845G (23.0%, 3,690G)
HaplessOne: 1,234G (15.4%, 43,741G)
Lionhermit: 1,000G (12.5%, 28,044G)
BirbBrainsBot: 1,000G (12.5%, 40,080G)
sinnyil2: 700G (8.7%, 8,437G)
EnemyController: 500G (6.2%, 180,548G)
old_overholt_: 500G (6.2%, 3,337G)
ZephyrTempest: 456G (5.7%, 537G)
NovaKnight21: 452G (5.6%, 452G)
SerumD: 344G (4.3%, 344G)

purple bets:
DeathTaxesAndAnime: 2,482G (20.8%, 4,867G)
killth3kid: 2,000G (16.7%, 48,552G)
leakimiko: 1,523G (12.7%, 6,094G)
Shakarak: 1,200G (10.0%, 7,701G)
rechaun: 858G (7.2%, 858G)
DavenIII: 770G (6.4%, 874G)
FriendSquirrel: 760G (6.4%, 32,260G)
belife42: 337G (2.8%, 337G)
alphara2: 300G (2.5%, 1,058G)
FoeSquirrel: 213G (1.8%, 427G)
getthemoneyz: 212G (1.8%, 622,987G)
0utlier: 200G (1.7%, 6,415G)
amiture: 200G (1.7%, 4,400G)
blastty: 200G (1.7%, 1,020G)
genericco: 140G (1.2%, 140G)
ungabunga_bot: 129G (1.1%, 340,948G)
gggamezzz: 124G (1.0%, 124G)
maakur_: 100G (0.8%, 127,700G)
datadrivenbot: 100G (0.8%, 12,698G)
Linkn: 100G (0.8%, 1,424G)
daveb_: 13G (0.1%, 1,030G)
