Final Bets: blue - 14 bets for 11,289G (24.5%, x3.08); green - 13 bets for 34,811G (75.5%, x0.32)

blue bets:
nekojin: 3,036G (26.9%, 5,953G)
AllInBot: 2,171G (19.2%, 2,171G)
JCBooBot: 1,000G (8.9%, 55,596G)
JonnyCue: 1,000G (8.9%, 10,541G)
E_Ballard: 788G (7.0%, 69,614G)
ko2q: 584G (5.2%, 584G)
Rikrizen: 575G (5.1%, 11,509G)
killth3kid: 540G (4.8%, 540G)
Zeroroute: 500G (4.4%, 500G)
thunderducker: 400G (3.5%, 1,849G)
Mushufasa_: 250G (2.2%, 4,537G)
MemoriesofFinal: 200G (1.8%, 930G)
Lord_Gwarth: 137G (1.2%, 2,915G)
krombobreaker: 108G (1.0%, 108G)

green bets:
pplvee1: 27,781G (79.8%, 54,473G)
VolgraTheMoose: 2,666G (7.7%, 27,801G)
CosmicTactician: 1,000G (2.9%, 41,955G)
BirbBrainsBot: 1,000G (2.9%, 84,313G)
CapnChaos12: 460G (1.3%, 460G)
poorest_hobo: 450G (1.3%, 49,395G)
Greggernaut: 400G (1.1%, 1,533G)
holdenmagronik: 368G (1.1%, 368G)
rocl: 212G (0.6%, 4,694G)
datadrivenbot: 200G (0.6%, 60,233G)
Absalom_20: 120G (0.3%, 6,631G)
Leonidusx: 104G (0.3%, 104G)
getthemoneyz: 50G (0.1%, 1,763,088G)
