Final Bets: white - 13 bets for 6,562G (43.2%, x1.31); brown - 20 bets for 8,625G (56.8%, x0.76)

white bets:
toka222: 1,500G (22.9%, 67,000G)
BirbBrainsBot: 1,000G (15.2%, 118,630G)
DLJuggernaut: 1,000G (15.2%, 15,501G)
TheChainNerd: 700G (10.7%, 700G)
Soltaker21: 500G (7.6%, 3,080G)
prince_rogers_nelson_: 460G (7.0%, 460G)
AllInBot: 302G (4.6%, 302G)
joewcarson: 300G (4.6%, 57,419G)
SQUiDSQUARKLIN: 200G (3.0%, 4,660G)
brokenknight201: 200G (3.0%, 1,228G)
velvetnightmarex: 200G (3.0%, 986G)
CosmicTactician: 100G (1.5%, 29,087G)
Grandlanzer: 100G (1.5%, 5,471G)

brown bets:
Draconis345: 1,000G (11.6%, 62,895G)
CaptainGarlock: 1,000G (11.6%, 28,626G)
ShintaroNayaka: 1,000G (11.6%, 12,233G)
holyonline: 1,000G (11.6%, 37,524G)
getthemoneyz: 866G (10.0%, 908,711G)
Belkra: 600G (7.0%, 1,185G)
coralreeferz: 565G (6.6%, 3,069G)
bruubarg: 364G (4.2%, 364G)
JumbocactuarX27: 360G (4.2%, 360G)
NovaKnight21: 350G (4.1%, 2,379G)
letdowncity: 300G (3.5%, 15,339G)
Anasetsuken: 216G (2.5%, 216G)
Xeldena: 204G (2.4%, 204G)
tom392: 200G (2.3%, 302G)
nifboy: 100G (1.2%, 4,570G)
E_Ballard: 100G (1.2%, 4,276G)
RuneS_77: 100G (1.2%, 10,438G)
Quadh0nk: 100G (1.2%, 1,408G)
datadrivenbot: 100G (1.2%, 35,295G)
serperemagus: 100G (1.2%, 1,936G)
