Final Bets: red - 20 bets for 31,749G (78.8%, x0.27); yellow - 24 bets for 8,564G (21.2%, x3.71)

red bets:
Bryon_W: 10,000G (31.5%, 30,537G)
UmaiJam: 5,637G (17.8%, 5,637G)
SolarisFall: 3,854G (12.1%, 19,271G)
Zeroroute: 2,630G (8.3%, 2,630G)
HaplessOne: 1,500G (4.7%, 145,142G)
I_nod_my_head_when_I_lose: 1,000G (3.1%, 13,177G)
LanseDM: 1,000G (3.1%, 3,630G)
Tsuike: 878G (2.8%, 878G)
Theseawolf1: 855G (2.7%, 855G)
JIDkomu: 709G (2.2%, 709G)
DeathTaxesAndAnime: 648G (2.0%, 648G)
catfashions: 634G (2.0%, 634G)
Goust18: 600G (1.9%, 13,569G)
thevilmen: 585G (1.8%, 585G)
lijarkh: 360G (1.1%, 360G)
CapnChaos12: 300G (0.9%, 5,457G)
Aldrammech: 243G (0.8%, 2,434G)
BlinkFS: 116G (0.4%, 116G)
Lythe_Caraker: 100G (0.3%, 48,076G)
datadrivenbot: 100G (0.3%, 25,379G)

yellow bets:
lowlf: 1,200G (14.0%, 26,470G)
BirbBrainsBot: 1,000G (11.7%, 290,742G)
ko2q: 820G (9.6%, 820G)
Mtueni: 700G (8.2%, 102,409G)
Lanshaft: 600G (7.0%, 6,818G)
oogthecaveman: 500G (5.8%, 3,450G)
Virilikus: 500G (5.8%, 81,320G)
Shalloween: 500G (5.8%, 10,209G)
Baron_von_Scrub: 356G (4.2%, 356G)
OmnibotGamma: 356G (4.2%, 356G)
waterwatereverywhere: 300G (3.5%, 300G)
V3rdeni: 300G (3.5%, 2,351G)
ZephyrTempest: 253G (3.0%, 38,826G)
getthemoneyz: 230G (2.7%, 449,451G)
electric_glass: 150G (1.8%, 1,165G)
byrdturbo: 111G (1.3%, 5,949G)
AllInBot: 100G (1.2%, 100G)
RughSontos: 100G (1.2%, 1,327G)
Lodrak: 100G (1.2%, 2,800G)
tmo50x: 100G (1.2%, 1,461G)
Evewho: 100G (1.2%, 2,889G)
EnemyController: 100G (1.2%, 32,707G)
cougboi: 50G (0.6%, 3,788G)
DrAntiSocial: 38G (0.4%, 1,449G)
