Final Bets: green - 13 bets for 5,442G (39.2%, x1.55); white - 15 bets for 8,431G (60.8%, x0.65)

green bets:
BirbBrainsBot: 1,000G (18.4%, 194,829G)
HaateXIII: 768G (14.1%, 768G)
Laserman1000: 700G (12.9%, 31,600G)
electric_algus: 500G (9.2%, 14,892G)
prince_rogers_nelson_: 500G (9.2%, 4,207G)
reddwind_: 495G (9.1%, 495G)
Evewho: 404G (7.4%, 404G)
getthemoneyz: 374G (6.9%, 942,478G)
gorgewall: 301G (5.5%, 16,358G)
AllInBot: 100G (1.8%, 100G)
Quadh0nk: 100G (1.8%, 1,099G)
butterbelljedi: 100G (1.8%, 100G)
itszaane: 100G (1.8%, 3,201G)

white bets:
sir_uther115: 2,000G (23.7%, 4,362G)
Thyrandaal: 2,000G (23.7%, 15,162G)
joewcarson: 1,000G (11.9%, 37,407G)
EmperorBeef: 986G (11.7%, 259,986G)
ZCKaiser: 500G (5.9%, 1,807G)
nifboy: 400G (4.7%, 400G)
nekojin: 252G (3.0%, 252G)
OtherBrand: 248G (2.9%, 248G)
alithesillybird: 200G (2.4%, 3,697G)
Frozeit: 200G (2.4%, 673G)
Grandlanzer: 200G (2.4%, 4,126G)
MadnessR: 145G (1.7%, 145G)
Firesheath: 100G (1.2%, 4,895G)
ko2q: 100G (1.2%, 9,486G)
datadrivenbot: 100G (1.2%, 38,848G)
