Final Bets: red - 11 bets for 16,157G (64.9%, x0.54); blue - 10 bets for 8,755G (35.1%, x1.85)

red bets:
DavenIII: 10,836G (67.1%, 108,363G)
Thyrandaal: 2,596G (16.1%, 2,596G)
BirbBrainsBot: 1,000G (6.2%, 100,299G)
Aldrammech: 500G (3.1%, 5,290G)
WhiteTigress: 428G (2.6%, 428G)
datadrivenbot: 200G (1.2%, 63,243G)
getthemoneyz: 184G (1.1%, 1,697,731G)
Lazarus_DS: 108G (0.7%, 108G)
FalseLobster: 104G (0.6%, 104G)
gorgewall: 101G (0.6%, 4,332G)
Scurg: 100G (0.6%, 2,463G)

blue bets:
latebit: 3,327G (38.0%, 5,525G)
Bryon_W: 1,000G (11.4%, 3,773G)
Sairentozon7: 1,000G (11.4%, 25,232G)
dogsandcatsand: 997G (11.4%, 997G)
ko2q: 931G (10.6%, 931G)
E_Ballard: 692G (7.9%, 692G)
Tarheels218: 308G (3.5%, 952G)
CosmicTactician: 200G (2.3%, 35,579G)
TheDeeyo: 200G (2.3%, 1,924G)
AllInBot: 100G (1.1%, 100G)
