Final Bets: yellow - 10 bets for 6,099G (29.1%, x2.43); champion - 16 bets for 14,829G (70.9%, x0.41)

yellow bets:
Lord_Burrah: 1,000G (16.4%, 89,389G)
BirbBrainsBot: 937G (15.4%, 101,034G)
FriendSquirrel: 784G (12.9%, 784G)
Tarheels218: 774G (12.7%, 774G)
getthemoneyz: 700G (11.5%, 1,698,006G)
Zbgs: 500G (8.2%, 12,110G)
Zeroroute: 500G (8.2%, 500G)
Lord_Gwarth: 500G (8.2%, 2,821G)
LASERJESUS1337: 296G (4.9%, 296G)
Chihuahua_Charity: 108G (1.8%, 108G)

champion bets:
sinnyil2: 3,260G (22.0%, 6,521G)
DavenIII: 3,000G (20.2%, 110,845G)
Willjin: 2,000G (13.5%, 10,380G)
TheDeeyo: 1,724G (11.6%, 1,724G)
Zephyrik: 1,500G (10.1%, 10,358G)
Sairentozon7: 1,000G (6.7%, 25,873G)
Forkmore: 580G (3.9%, 5,722G)
ko2q: 528G (3.6%, 528G)
skillomono: 428G (2.9%, 428G)
datadrivenbot: 200G (1.3%, 63,213G)
Lazarus_DS: 108G (0.7%, 108G)
gorgewall: 101G (0.7%, 3,391G)
AllInBot: 100G (0.7%, 100G)
CosmicTactician: 100G (0.7%, 35,422G)
Bongomon7: 100G (0.7%, 2,156G)
Thyrandaal: 100G (0.7%, 4,893G)
