Final Bets: red - 9 bets for 3,104G (17.9%, x4.57); green - 16 bets for 14,195G (82.1%, x0.22)

red bets:
Shakarak: 1,000G (32.2%, 3,661G)
Jahshine: 716G (23.1%, 716G)
BirbBrainsBot: 360G (11.6%, 141,098G)
perce90: 300G (9.7%, 600G)
Cataphract116: 250G (8.1%, 27,993G)
Dexsana: 200G (6.4%, 7,433G)
getthemoneyz: 156G (5.0%, 560,824G)
gorgewall: 100G (3.2%, 5,228G)
daveb_: 22G (0.7%, 2,864G)

green bets:
Lydian_C: 3,400G (24.0%, 117,283G)
Evewho: 2,444G (17.2%, 2,444G)
HaplessOne: 1,500G (10.6%, 131,946G)
CassiePhoenix: 1,065G (7.5%, 1,065G)
aStatue: 1,040G (7.3%, 1,040G)
ColetteMSLP: 1,000G (7.0%, 22,301G)
SpicyCherrySoda_: 1,000G (7.0%, 2,117G)
Tithonus: 800G (5.6%, 800G)
Laserman1000: 500G (3.5%, 41,900G)
SkyridgeZero: 500G (3.5%, 14,849G)
xYungAnarchyx: 300G (2.1%, 448G)
Mikumari12: 200G (1.4%, 3,177G)
ungabunga_bot: 146G (1.0%, 219,954G)
AllInBot: 100G (0.7%, 100G)
twelfthrootoftwo: 100G (0.7%, 6,881G)
datadrivenbot: 100G (0.7%, 806G)
