Final Bets: white - 9 bets for 6,414G (40.9%, x1.44); purple - 16 bets for 9,259G (59.1%, x0.69)

white bets:
HaplessOne: 2,222G (34.6%, 130,446G)
ungabunga_bot: 1,000G (15.6%, 219,808G)
BirbBrainsBot: 1,000G (15.6%, 142,744G)
Dexsana: 700G (10.9%, 8,348G)
getthemoneyz: 520G (8.1%, 561,537G)
aStatue: 500G (7.8%, 500G)
CassiePhoenix: 272G (4.2%, 272G)
vorap: 100G (1.6%, 9,446G)
perce90: 100G (1.6%, 1,972G)

purple bets:
Lydian_C: 3,400G (36.7%, 113,883G)
SpicyCherrySoda_: 1,117G (12.1%, 1,117G)
Jahshine: 1,000G (10.8%, 2,994G)
UmbraKnights: 600G (6.5%, 3,036G)
XalSmellsBad: 500G (5.4%, 15,996G)
Laserman1000: 500G (5.4%, 41,400G)
Bryon_W: 408G (4.4%, 408G)
Evewho: 384G (4.1%, 384G)
Tithonus: 300G (3.2%, 300G)
daveb_: 300G (3.2%, 2,965G)
ewan_e: 200G (2.2%, 1,565G)
xYungAnarchyx: 200G (2.2%, 200G)
AllInBot: 100G (1.1%, 100G)
gorgewall: 100G (1.1%, 5,685G)
datadrivenbot: 100G (1.1%, 706G)
DrAntiSocial: 50G (0.5%, 20,650G)
