Final Bets: red - 8 bets for 10,966G (26.3%, x2.80); brown - 16 bets for 30,736G (73.7%, x0.36)

red bets:
DustBirdEX: 3,598G (32.8%, 7,197G)
Virilikus: 3,000G (27.4%, 207,355G)
MagicBottle: 2,159G (19.7%, 2,159G)
SkylerBunny: 764G (7.0%, 764G)
douchetron: 500G (4.6%, 9,559G)
ANFz: 428G (3.9%, 428G)
AllInBot: 417G (3.8%, 417G)
MinBetBot: 100G (0.9%, 7,259G)

brown bets:
MonchoStrife: 24,659G (80.2%, 24,659G)
BirbBrainsBot: 1,000G (3.3%, 39,941G)
reinoe: 904G (2.9%, 904G)
ThreeMileIsland: 800G (2.6%, 800G)
Zeroroute: 796G (2.6%, 796G)
Laserman1000: 574G (1.9%, 5,174G)
Panushenko: 500G (1.6%, 6,833G)
Docrad_: 300G (1.0%, 648G)
ff7g00ru: 236G (0.8%, 236G)
datadrivenbot: 200G (0.7%, 67,055G)
Xignealx: 200G (0.7%, 1,606G)
getthemoneyz: 162G (0.5%, 1,661,177G)
FFMaster: 104G (0.3%, 104G)
gorgewall: 101G (0.3%, 5,249G)
Twisted_Nutsatchel: 100G (0.3%, 23,030G)
Valgram: 100G (0.3%, 1,099G)
