Final Bets: white - 14 bets for 6,608G (29.7%, x2.36); purple - 16 bets for 15,625G (70.3%, x0.42)

white bets:
gorgewall: 1,491G (22.6%, 1,491G)
Aldrammech: 1,000G (15.1%, 22,436G)
Virilikus: 1,000G (15.1%, 191,777G)
superdevon1: 810G (12.3%, 40,526G)
Forkmore: 777G (11.8%, 16,277G)
Ayntlerz: 554G (8.4%, 554G)
holandrix: 208G (3.1%, 208G)
holdenmagronik: 150G (2.3%, 2,600G)
PantherIscariot: 150G (2.3%, 857G)
getthemoneyz: 130G (2.0%, 1,514,735G)
Galeronis: 112G (1.7%, 112G)
E_Ballard: 100G (1.5%, 2,909G)
BirbBrainsBot: 76G (1.2%, 27,969G)
TheseJeans: 50G (0.8%, 1,455G)

purple bets:
latebit: 4,605G (29.5%, 4,605G)
reinoe: 3,000G (19.2%, 74,546G)
SephDarkheart: 1,524G (9.8%, 1,524G)
Shalloween: 1,400G (9.0%, 54,930G)
ColetteMSLP: 1,000G (6.4%, 37,957G)
NIghtdew14: 1,000G (6.4%, 3,393G)
Zeroroute: 600G (3.8%, 600G)
Laserman1000: 515G (3.3%, 5,715G)
ribbiks: 500G (3.2%, 6,353G)
ko2q: 452G (2.9%, 452G)
Blakelmenakle: 300G (1.9%, 11,162G)
AllInBot: 200G (1.3%, 200G)
datadrivenbot: 200G (1.3%, 50,061G)
ArlanKels: 139G (0.9%, 6,977G)
DHaveWord: 100G (0.6%, 2,264G)
dtrain332: 90G (0.6%, 9,018G)
