Final Bets: white - 11 bets for 15,734G (41.0%, x1.44); champion - 22 bets for 22,638G (59.0%, x0.70)

white bets:
DeathTaxesAndAnime: 9,423G (59.9%, 18,477G)
Lord_Burrah: 1,269G (8.1%, 84,269G)
Ayntlerz: 1,143G (7.3%, 1,143G)
ColetteMSLP: 1,000G (6.4%, 36,957G)
superdevon1: 831G (5.3%, 41,593G)
killth3kid: 616G (3.9%, 3,222G)
gorgewall: 592G (3.8%, 592G)
SephDarkheart: 460G (2.9%, 460G)
datadrivenbot: 200G (1.3%, 49,661G)
TheseJeans: 100G (0.6%, 1,712G)
Twisted_Nutsatchel: 100G (0.6%, 12,959G)

champion bets:
NicoSavoy: 5,311G (23.5%, 106,237G)
nhammen: 4,000G (17.7%, 44,969G)
NIghtdew14: 2,000G (8.8%, 3,786G)
Virilikus: 2,000G (8.8%, 191,142G)
thaetreis: 1,200G (5.3%, 43,142G)
BirbBrainsBot: 1,000G (4.4%, 29,542G)
Blakelmenakle: 1,000G (4.4%, 11,280G)
loveyouallfriends: 1,000G (4.4%, 21,680G)
Seaweed_B: 1,000G (4.4%, 67,795G)
sinnyil2: 832G (3.7%, 832G)
Zeroroute: 600G (2.7%, 600G)
coralreeferz: 548G (2.4%, 12,612G)
benticore: 500G (2.2%, 47,670G)
ko2q: 452G (2.0%, 452G)
Finewax: 250G (1.1%, 1,910G)
PantherIscariot: 250G (1.1%, 1,037G)
AllInBot: 200G (0.9%, 200G)
getthemoneyz: 116G (0.5%, 1,514,516G)
DHaveWord: 100G (0.4%, 2,164G)
rednecknazgul: 100G (0.4%, 1,688G)
Grandlanzer: 100G (0.4%, 130,752G)
dtrain332: 79G (0.3%, 7,928G)
