Final Bets: purple - 20 bets for 8,939G (67.7%, x0.48); brown - 12 bets for 4,262G (32.3%, x2.10)

purple bets:
LivingHitokiri: 1,878G (21.0%, 1,878G)
volgrathemoose: 1,001G (11.2%, 5,653G)
MantisFinch: 1,000G (11.2%, 27,451G)
BirbBrainsBot: 1,000G (11.2%, 38,951G)
Mirrorclaw: 956G (10.7%, 956G)
OverlordAnon: 611G (6.8%, 611G)
DustBirdEX: 333G (3.7%, 14,849G)
vorap: 300G (3.4%, 25,316G)
Anethum: 200G (2.2%, 3,123G)
museofdoom: 200G (2.2%, 534G)
lijarkh: 200G (2.2%, 954G)
Mudrockk: 200G (2.2%, 579G)
TheRylander: 200G (2.2%, 2,302G)
ZephyrTempest: 180G (2.0%, 1,200G)
ungabunga_bot: 180G (2.0%, 275,934G)
readdesert: 100G (1.1%, 2,755G)
datadrivenbot: 100G (1.1%, 4,273G)
Dymntd: 100G (1.1%, 5,469G)
LLMacaco: 100G (1.1%, 1,000G)
Squatting_Bear: 100G (1.1%, 183G)

brown bets:
Baron_von_Scrub: 1,111G (26.1%, 78,389G)
FriendSquirrel: 816G (19.1%, 29,515G)
Laserman1000: 600G (14.1%, 51,423G)
getthemoneyz: 444G (10.4%, 587,031G)
ewan_e: 400G (9.4%, 12,178G)
duskps: 200G (4.7%, 17,552G)
nuka1120: 200G (4.7%, 2,384G)
FoeSquirrel: 100G (2.3%, 8,950G)
maakur_: 100G (2.3%, 114,113G)
EnemyController: 100G (2.3%, 152,407G)
Powermhero: 100G (2.3%, 8,863G)
nifboy: 91G (2.1%, 2,276G)
