Final Bets: red - 17 bets for 16,323G (83.7%, x0.19); yellow - 10 bets for 3,176G (16.3%, x5.14)

red bets:
Shalloween: 3,881G (23.8%, 7,763G)
Forkmore: 2,222G (13.6%, 8,105G)
reinoe: 2,000G (12.3%, 26,981G)
gorgewall: 1,237G (7.6%, 1,237G)
BoneMiser: 1,211G (7.4%, 1,211G)
Nizaha: 872G (5.3%, 68,070G)
FoeSquirrel: 852G (5.2%, 1,705G)
CorpusCav: 700G (4.3%, 6,373G)
Tithonus: 632G (3.9%, 632G)
Dasutin23: 540G (3.3%, 11,724G)
fenaen: 512G (3.1%, 16,354G)
Craymel_Mage: 396G (2.4%, 396G)
AllInBot: 347G (2.1%, 347G)
ColetteMSLP: 300G (1.8%, 6,134G)
kilrazin: 299G (1.8%, 799G)
daveb_: 222G (1.4%, 2,876G)
maakur_: 100G (0.6%, 7,106G)

yellow bets:
resjudicata3: 646G (20.3%, 646G)
VolgraTheMoose: 501G (15.8%, 5,582G)
krombobreaker: 500G (15.7%, 15,214G)
silentkaster: 412G (13.0%, 412G)
hotpocketsofficial: 332G (10.5%, 332G)
old_overholt_: 300G (9.4%, 27,885G)
BirbBrainsBot: 193G (6.1%, 21,629G)
getthemoneyz: 142G (4.5%, 2,031,441G)
skipsandwiches: 100G (3.1%, 25,099G)
king_smashington: 50G (1.6%, 1,173G)
