Final Bets: white - 18 bets for 14,146G (64.5%, x0.55); black - 11 bets for 7,776G (35.5%, x1.82)

white bets:
CassiePhoenix: 3,065G (21.7%, 3,065G)
Lydian_C: 2,400G (17.0%, 71,409G)
WireLord: 2,000G (14.1%, 46,422G)
HaplessOne: 1,500G (10.6%, 139,327G)
BirbBrainsBot: 1,000G (7.1%, 154,515G)
Shakarak: 1,000G (7.1%, 22,053G)
NovaKnight21: 650G (4.6%, 1,722G)
getthemoneyz: 586G (4.1%, 567,980G)
upvla: 567G (4.0%, 2,468G)
nifboy: 220G (1.6%, 5,524G)
vorap: 208G (1.5%, 208G)
DaMadPanda182: 200G (1.4%, 10,535G)
ewan_e: 200G (1.4%, 1,065G)
perce90: 150G (1.1%, 503G)
DeathTaxesAndAnime: 100G (0.7%, 9,014G)
DubLG8150: 100G (0.7%, 400G)
CT_5_Holy: 100G (0.7%, 787G)
xYungAnarchyx: 100G (0.7%, 612G)

black bets:
Phytik: 5,000G (64.3%, 10,264G)
leakimiko: 684G (8.8%, 4,562G)
aStatue: 600G (7.7%, 600G)
XalSmellsBad: 500G (6.4%, 19,107G)
jtbirdACC: 293G (3.8%, 293G)
RubenFlonne: 200G (2.6%, 22,218G)
lastly: 100G (1.3%, 3,429G)
ungabunga_bot: 100G (1.3%, 218,354G)
datadrivenbot: 100G (1.3%, 1,696G)
HorusTaurus: 100G (1.3%, 410G)
roqqqpsi: 99G (1.3%, 4,994G)
