Final Bets: white - 12 bets for 4,602G (19.8%, x4.04); black - 8 bets for 18,609G (80.2%, x0.25)

white bets:
BirbBrainsBot: 1,000G (21.7%, 75,814G)
AllInBot: 564G (12.3%, 564G)
glideadon: 500G (10.9%, 3,699G)
Sairentozon7: 436G (9.5%, 436G)
maximumcrit: 420G (9.1%, 420G)
DustBirdEX: 400G (8.7%, 400G)
getthemoneyz: 354G (7.7%, 1,766,794G)
Runeseeker22: 208G (4.5%, 1,061G)
rolling_crow: 200G (4.3%, 8,093G)
datadrivenbot: 200G (4.3%, 64,641G)
arumz: 200G (4.3%, 3,585G)
Absalom_20: 120G (2.6%, 6,613G)

black bets:
DavenIII: 5,000G (26.9%, 32,708G)
reinoe: 5,000G (26.9%, 81,210G)
dogsandcatsand: 4,000G (21.5%, 5,345G)
katsupdog: 1,623G (8.7%, 1,623G)
thunderducker: 1,295G (7.0%, 1,295G)
JumbocactuarX27: 1,211G (6.5%, 1,211G)
cho_pin: 248G (1.3%, 1,790G)
douchetron: 232G (1.2%, 232G)
