Final Bets: purple - 8 bets for 3,818G (33.1%, x2.02); brown - 15 bets for 7,723G (66.9%, x0.49)

purple bets:
VolgraTheMoose: 932G (24.4%, 42,700G)
E_Ballard: 872G (22.8%, 872G)
lowlf: 644G (16.9%, 4,900G)
roofiepops: 520G (13.6%, 520G)
ExplanationMarkWow: 500G (13.1%, 25,150G)
AllInBot: 200G (5.2%, 200G)
DouglasDragonThePoet: 100G (2.6%, 6,636G)
king_smashington: 50G (1.3%, 1,119G)

brown bets:
CorpusCav: 1,070G (13.9%, 36,476G)
sireaulou: 1,041G (13.5%, 1,041G)
Mushufasa_: 1,000G (12.9%, 4,547G)
MoonSugarFiend: 1,000G (12.9%, 15,851G)
BirbBrainsBot: 695G (9.0%, 39,632G)
dogsandcatsand: 520G (6.7%, 520G)
krombobreaker: 500G (6.5%, 34,106G)
khelor_: 500G (6.5%, 7,203G)
getthemoneyz: 422G (5.5%, 2,159,781G)
DrAntiSocial: 332G (4.3%, 332G)
CosmicTactician: 200G (2.6%, 4,718G)
datadrivenbot: 200G (2.6%, 82,251G)
Lydian_C: 123G (1.6%, 4,797G)
Tithonus: 100G (1.3%, 3,560G)
AtmaDragoon: 20G (0.3%, 338G)
