Final Bets: white - 9 bets for 5,698G (25.9%, x2.86); black - 25 bets for 16,272G (74.1%, x0.35)

white bets:
HaateXIII: 2,104G (36.9%, 2,104G)
LeoNightFury: 1,000G (17.6%, 4,940G)
TheChainNerd: 684G (12.0%, 684G)
killth3kid: 500G (8.8%, 19,566G)
NovaKnight21: 408G (7.2%, 408G)
getthemoneyz: 388G (6.8%, 840,866G)
KyleWonToLiveForever: 277G (4.9%, 277G)
Grandlanzer: 200G (3.5%, 5,126G)
benticore: 137G (2.4%, 2,744G)

black bets:
Rislyeu: 4,662G (28.7%, 9,324G)
Sans_from_Snowdin: 2,739G (16.8%, 2,739G)
cam_ATS: 2,410G (14.8%, 2,410G)
DeathTaxesAndAnime: 1,000G (6.1%, 30,368G)
Sairentozon7: 1,000G (6.1%, 1,000G)
Angelomortis: 678G (4.2%, 678G)
nifboy: 616G (3.8%, 616G)
BirbBrainsBot: 458G (2.8%, 174,689G)
Saldarin: 328G (2.0%, 328G)
CrownOfHorns: 272G (1.7%, 272G)
ivellioz: 250G (1.5%, 2,752G)
Spuzzmocker: 215G (1.3%, 215G)
prince_rogers_nelson_: 200G (1.2%, 5,208G)
CaptainGarlock: 200G (1.2%, 435G)
ASkyNightly: 200G (1.2%, 204G)
s_o_b_e_q: 124G (0.8%, 124G)
Lydian_C: 120G (0.7%, 11,705G)
lastly: 100G (0.6%, 12,428G)
Celdia: 100G (0.6%, 2,168G)
Ring_Wyrm: 100G (0.6%, 1,237G)
Milkman153: 100G (0.6%, 2,990G)
Kellios11: 100G (0.6%, 8,745G)
BruddaShrine: 100G (0.6%, 379G)
datadrivenbot: 100G (0.6%, 35,111G)
IphoneDarkness: 100G (0.6%, 2,824G)
