Final Bets: blue - 13 bets for 13,482G (38.2%, x1.62); yellow - 9 bets for 21,841G (61.8%, x0.62)

blue bets:
randgridr: 3,658G (27.1%, 12,196G)
Aldrammech: 2,000G (14.8%, 59,592G)
Zeroroute: 1,234G (9.2%, 1,234G)
Thyrandaal: 1,234G (9.2%, 130,294G)
silentkaster: 1,133G (8.4%, 1,133G)
BirbBrainsBot: 1,000G (7.4%, 106,456G)
Lali_Lulelo: 1,000G (7.4%, 21,093G)
dogsandcatsand: 615G (4.6%, 615G)
NIghtdew14: 600G (4.5%, 600G)
pplvee1: 444G (3.3%, 2,480G)
Chambs12: 260G (1.9%, 260G)
datadrivenbot: 200G (1.5%, 44,519G)
getthemoneyz: 104G (0.8%, 1,453,310G)

yellow bets:
AllInBot: 7,105G (32.5%, 7,105G)
E_Ballard: 5,180G (23.7%, 5,180G)
reinoe: 5,000G (22.9%, 76,112G)
Shalloween: 1,200G (5.5%, 16,418G)
VolgraTheMoose: 944G (4.3%, 1,888G)
sinnyil2: 800G (3.7%, 800G)
Nizaha: 640G (2.9%, 640G)
maximumcrit: 500G (2.3%, 7,069G)
letdowncity: 472G (2.2%, 15,471G)
