Final Bets: red - 11 bets for 9,052G (37.6%, x1.66); blue - 16 bets for 15,032G (62.4%, x0.60)

red bets:
Forkmore: 4,198G (46.4%, 8,232G)
Nizaha: 736G (8.1%, 16,866G)
killth3kid: 696G (7.7%, 38,946G)
SkylerBunny: 692G (7.6%, 692G)
Aldrammech: 593G (6.6%, 5,937G)
SephDarkheart: 564G (6.2%, 102,472G)
getthemoneyz: 522G (5.8%, 1,616,865G)
letdowncity: 520G (5.7%, 31,180G)
AllInBot: 426G (4.7%, 426G)
MinBetBot: 100G (1.1%, 5,344G)
dtrain332: 5G (0.1%, 581G)

blue bets:
Thyrandaal: 5,000G (33.3%, 255,589G)
DeathTaxesAndAnime: 2,545G (16.9%, 4,991G)
nhammen: 1,339G (8.9%, 6,698G)
ko2q: 1,127G (7.5%, 1,127G)
BirbBrainsBot: 1,000G (6.7%, 82,945G)
VolgraTheMoose: 943G (6.3%, 943G)
ANFz: 934G (6.2%, 934G)
Gunz232323: 652G (4.3%, 1,304G)
resjudicata3: 400G (2.7%, 1,256G)
xBizzy: 244G (1.6%, 244G)
Scurg: 228G (1.5%, 228G)
datadrivenbot: 200G (1.3%, 63,968G)
MonchoStrife: 116G (0.8%, 259G)
Krinku: 104G (0.7%, 104G)
fesight: 100G (0.7%, 1,119G)
windsah: 100G (0.7%, 4,599G)
