Final Bets: blue - 13 bets for 9,797G (48.0%, x1.08); black - 13 bets for 10,628G (52.0%, x0.92)

blue bets:
Thyrandaal: 3,456G (35.3%, 264,502G)
dogsandcatsand: 1,234G (12.6%, 25,657G)
BirbBrainsBot: 1,000G (10.2%, 83,050G)
Tarheels218: 1,000G (10.2%, 8,023G)
killth3kid: 700G (7.1%, 38,019G)
Mesmaster: 680G (6.9%, 680G)
SephDarkheart: 564G (5.8%, 101,856G)
Aldrammech: 511G (5.2%, 5,119G)
AllInBot: 200G (2.0%, 200G)
fesight: 200G (2.0%, 1,273G)
MinBetBot: 100G (1.0%, 4,868G)
DarrenDinosaurs: 100G (1.0%, 2,473G)
getthemoneyz: 52G (0.5%, 1,617,023G)

black bets:
ANFz: 2,419G (22.8%, 4,838G)
Virilikus: 2,000G (18.8%, 224,896G)
itskage: 1,367G (12.9%, 5,469G)
DeathTaxesAndAnime: 1,125G (10.6%, 2,206G)
VolgraTheMoose: 1,001G (9.4%, 2,913G)
ColetteMSLP: 1,000G (9.4%, 28,268G)
Nizaha: 736G (6.9%, 16,856G)
maddrave09: 229G (2.2%, 229G)
ribbiks: 200G (1.9%, 2,255G)
porkbacon: 200G (1.9%, 5,322G)
datadrivenbot: 200G (1.9%, 64,337G)
gorgewall: 101G (1.0%, 3,349G)
Drusiform: 50G (0.5%, 4,496G)
