Final Bets: black - 15 bets for 14,617G (39.8%, x1.51); purple - 21 bets for 22,109G (60.2%, x0.66)

black bets:
manc0_: 6,170G (42.2%, 6,170G)
EnemyController: 2,222G (15.2%, 1,398,499G)
NicoSavoy: 2,000G (13.7%, 164,444G)
killth3kid: 1,000G (6.8%, 83,139G)
Virilikus: 1,000G (6.8%, 201,586G)
nhammen: 404G (2.8%, 404G)
prince_rogers_nelson_: 364G (2.5%, 364G)
getthemoneyz: 330G (2.3%, 1,249,162G)
ve11ion: 300G (2.1%, 561G)
randgridr: 248G (1.7%, 248G)
KasugaiRoastedPeas: 200G (1.4%, 18,392G)
Lydian_C: 123G (0.8%, 121,837G)
acid_flashback: 106G (0.7%, 710G)
mrfripps: 100G (0.7%, 5,398G)
raenrond: 50G (0.3%, 2,900G)

purple bets:
BoneMiser: 7,485G (33.9%, 7,485G)
RaIshtar: 1,800G (8.1%, 15,824G)
DeathTaxesAndAnime: 1,694G (7.7%, 3,322G)
amiture: 1,437G (6.5%, 1,437G)
fluffskull: 1,388G (6.3%, 1,388G)
Evewho: 1,256G (5.7%, 2,464G)
Draconis345: 1,000G (4.5%, 71,121G)
TheMurkGnome: 1,000G (4.5%, 6,159G)
Forkmore: 957G (4.3%, 957G)
Blakelmenakle: 677G (3.1%, 677G)
DavenIII: 585G (2.6%, 585G)
Zeroroute: 500G (2.3%, 500G)
roofiepops: 444G (2.0%, 2,882G)
RunicMagus: 404G (1.8%, 404G)
BirbBrainsBot: 361G (1.6%, 361G)
ColetteMSLP: 300G (1.4%, 2,008G)
gorgewall: 201G (0.9%, 6,572G)
maddrave09: 200G (0.9%, 11,799G)
datadrivenbot: 200G (0.9%, 64,575G)
TasisSai: 120G (0.5%, 236G)
nifboy: 100G (0.5%, 9,336G)
