Final Bets: white - 16 bets for 17,972G (61.5%, x0.63); black - 14 bets for 11,238G (38.5%, x1.60)

white bets:
Thyrandaal: 3,666G (20.4%, 161,200G)
bruubarg: 3,000G (16.7%, 23,359G)
gorgewall: 2,276G (12.7%, 2,276G)
Mesmaster: 2,000G (11.1%, 141,640G)
latebit: 1,372G (7.6%, 1,372G)
Shalloween: 1,156G (6.4%, 1,156G)
VolgraTheMoose: 1,001G (5.6%, 124,602G)
getthemoneyz: 1,000G (5.6%, 1,872,606G)
BirbBrainsBot: 1,000G (5.6%, 94,122G)
Raixelol: 548G (3.0%, 32,826G)
killth3kid: 300G (1.7%, 24,425G)
BooshPlays: 208G (1.2%, 208G)
TheSabretoothe: 167G (0.9%, 167G)
Yangusburger: 100G (0.6%, 5,930G)
akash7: 100G (0.6%, 843G)
BartTradingCompany: 78G (0.4%, 786G)

black bets:
snkey: 4,400G (39.2%, 45,553G)
Zeroroute: 2,762G (24.6%, 8,126G)
AllInBot: 628G (5.6%, 628G)
farside00831: 500G (4.4%, 589G)
CorpusCav: 500G (4.4%, 25,420G)
resjudicata3: 488G (4.3%, 488G)
lowlf: 476G (4.2%, 1,676G)
krombobreaker: 344G (3.1%, 344G)
bigbongsmoker: 280G (2.5%, 949G)
rNdOrchestra: 256G (2.3%, 1,169G)
CosmicTactician: 200G (1.8%, 30,551G)
datadrivenbot: 200G (1.8%, 57,727G)
projekt_mike: 104G (0.9%, 104G)
Chaide: 100G (0.9%, 100G)
