Final Bets: yellow - 13 bets for 7,614G (38.0%, x1.63); purple - 14 bets for 12,403G (62.0%, x0.61)

yellow bets:
YaBoy125: 2,687G (35.3%, 5,375G)
VolgraTheMoose: 1,001G (13.1%, 122,600G)
BirbBrainsBot: 1,000G (13.1%, 95,162G)
akash7: 687G (9.0%, 687G)
Raixelol: 548G (7.2%, 29,088G)
krombobreaker: 344G (4.5%, 344G)
killth3kid: 300G (3.9%, 23,736G)
projekt_mike: 260G (3.4%, 260G)
getthemoneyz: 210G (2.8%, 1,872,442G)
CosmicTactician: 200G (2.6%, 30,645G)
datadrivenbot: 200G (2.6%, 58,136G)
TheSabretoothe: 116G (1.5%, 116G)
BartTradingCompany: 61G (0.8%, 617G)

purple bets:
Thyrandaal: 2,666G (21.5%, 167,690G)
Zeroroute: 2,153G (17.4%, 7,427G)
Shalloween: 1,903G (15.3%, 3,806G)
latebit: 1,552G (12.5%, 1,552G)
bruubarg: 1,000G (8.1%, 25,846G)
Runeseeker22: 757G (6.1%, 15,141G)
Kronikle: 636G (5.1%, 36,308G)
SephDarkheart: 372G (3.0%, 6,279G)
BooshPlays: 354G (2.9%, 354G)
rNdOrchestra: 300G (2.4%, 1,911G)
CorpusCav: 250G (2.0%, 25,655G)
farside00831: 200G (1.6%, 1,878G)
AllInBot: 160G (1.3%, 160G)
nhammen: 100G (0.8%, 411,636G)
