Final Bets: yellow - 13 bets for 12,317G (30.1%, x2.32); champion - 19 bets for 28,631G (69.9%, x0.43)

yellow bets:
bruubarg: 5,546G (45.0%, 5,546G)
VolgraTheMoose: 1,001G (8.1%, 124,231G)
BirbBrainsBot: 1,000G (8.1%, 96,791G)
akash7: 800G (6.5%, 1,806G)
Runeseeker22: 719G (5.8%, 14,384G)
projekt_mike: 684G (5.6%, 684G)
dogsandcatsand: 564G (4.6%, 564G)
Raixelol: 548G (4.4%, 29,981G)
Shalloween: 500G (4.1%, 1,903G)
TheSabretoothe: 305G (2.5%, 305G)
killth3kid: 300G (2.4%, 24,225G)
CorpusCav: 250G (2.0%, 25,405G)
AllInBot: 100G (0.8%, 100G)

champion bets:
Mesmaster: 20,000G (69.9%, 138,336G)
Zeroroute: 1,687G (5.9%, 5,274G)
krombobreaker: 904G (3.2%, 904G)
gorgewall: 804G (2.8%, 804G)
resjudicata3: 786G (2.7%, 786G)
Laserman1000: 679G (2.4%, 3,979G)
pplvee1: 592G (2.1%, 592G)
thunderducker: 555G (1.9%, 9,300G)
Chaide: 500G (1.7%, 722G)
BoneMiser: 456G (1.6%, 456G)
latebit: 328G (1.1%, 328G)
farside00831: 300G (1.0%, 678G)
rNdOrchestra: 225G (0.8%, 1,611G)
CosmicTactician: 200G (0.7%, 30,971G)
datadrivenbot: 200G (0.7%, 58,462G)
getthemoneyz: 144G (0.5%, 1,872,784G)
Yangusburger: 100G (0.3%, 5,800G)
DeathTaxesAndAnime: 100G (0.3%, 5,412G)
BartTradingCompany: 71G (0.2%, 716G)
