Final Bets: red - 15 bets for 7,622G (65.6%, x0.52); yellow - 13 bets for 3,999G (34.4%, x1.91)

red bets:
BlackFireUK: 2,000G (26.2%, 22,296G)
DLJuggernaut: 1,000G (13.1%, 20,064G)
Laserman1000: 800G (10.5%, 4,900G)
fenaen: 700G (9.2%, 38,930G)
roqqqpsi: 557G (7.3%, 1,014G)
Cryptopsy70: 556G (7.3%, 18,836G)
killth3kid: 450G (5.9%, 5,041G)
CorpusCav: 428G (5.6%, 428G)
KittymanAdvance: 381G (5.0%, 381G)
muffin_money: 250G (3.3%, 9,271G)
AllInBot: 100G (1.3%, 100G)
Asedunu: 100G (1.3%, 100G)
CosmicTactician: 100G (1.3%, 8,638G)
ko2q: 100G (1.3%, 5,114G)
datadrivenbot: 100G (1.3%, 44,390G)

yellow bets:
TheChainNerd: 991G (24.8%, 1,983G)
OneHundredFists: 512G (12.8%, 512G)
BirbBrainsBot: 434G (10.9%, 64,889G)
dogsandcatsand: 364G (9.1%, 364G)
CapnChaos12: 300G (7.5%, 15,392G)
oops25: 300G (7.5%, 2,206G)
O_Heyno: 280G (7.0%, 280G)
DuraiPapers: 232G (5.8%, 232G)
reddwind_: 200G (5.0%, 3,003G)
Firesheath: 100G (2.5%, 14,252G)
Grandlanzer: 100G (2.5%, 8,092G)
mrfripps: 100G (2.5%, 6,361G)
getthemoneyz: 86G (2.2%, 968,895G)
