Final Bets: white - 14 bets for 16,690G (46.1%, x1.17); champion - 12 bets for 19,505G (53.9%, x0.86)

white bets:
twelfthrootoftwo: 5,424G (32.5%, 10,636G)
Lydian_C: 4,200G (25.2%, 99,434G)
NicoSavoy: 2,000G (12.0%, 173,081G)
BirbBrainsBot: 1,000G (6.0%, 105,372G)
UmaiJam: 1,000G (6.0%, 56,593G)
Deathmaker06: 1,000G (6.0%, 15,949G)
getthemoneyz: 494G (3.0%, 1,274,876G)
CT_5_Holy: 400G (2.4%, 1,379G)
Arcblazer23: 360G (2.2%, 360G)
GRRR12: 212G (1.3%, 212G)
Mysteriousdewd: 200G (1.2%, 746G)
datadrivenbot: 200G (1.2%, 59,302G)
Kronikle: 100G (0.6%, 3,012G)
Ring_Wyrm: 100G (0.6%, 18,045G)

champion bets:
Evewho: 14,075G (72.2%, 27,599G)
SkylerBunny: 2,000G (10.3%, 13,841G)
dantayystv: 1,000G (5.1%, 30,536G)
Laserman1000: 631G (3.2%, 26,731G)
randgridr: 500G (2.6%, 5,895G)
furrytomahawkk: 374G (1.9%, 374G)
ValtonZenola: 250G (1.3%, 2,728G)
Lythe_Caraker: 250G (1.3%, 149,027G)
superdevon1: 121G (0.6%, 2,422G)
dtrain332: 104G (0.5%, 104G)
Firesheath: 100G (0.5%, 7,232G)
RetroGameCommander: 100G (0.5%, 638G)
