Final Bets: red - 13 bets for 8,416G (85.9%, x0.16); blue - 4 bets for 1,380G (14.1%, x6.10)

red bets:
E_Ballard: 1,370G (16.3%, 1,370G)
Mushufasa_: 1,234G (14.7%, 16,840G)
DeathTaxesAndAnime: 976G (11.6%, 976G)
CosmicTactician: 917G (10.9%, 1,835G)
BirbBrainsBot: 603G (7.2%, 160,846G)
HorusTaurus: 569G (6.8%, 569G)
2b_yorha_b: 500G (5.9%, 37,060G)
khelor_: 500G (5.9%, 6,934G)
ValensEXP_: 495G (5.9%, 495G)
getthemoneyz: 400G (4.8%, 2,200,402G)
ar_tactic: 400G (4.8%, 70,727G)
Ogema_theDream: 252G (3.0%, 252G)
datadrivenbot: 200G (2.4%, 82,112G)

blue bets:
readdesert: 972G (70.4%, 972G)
AllInBot: 200G (14.5%, 200G)
rkane398: 108G (7.8%, 108G)
gongonono: 100G (7.2%, 4,278G)
