Final Bets: white - 14 bets for 12,897G (62.7%, x0.60); black - 13 bets for 7,679G (37.3%, x1.68)

white bets:
latebit: 5,867G (45.5%, 11,504G)
NovaKnight21: 1,808G (14.0%, 1,808G)
DustBirdEX: 1,160G (9.0%, 1,160G)
killth3kid: 796G (6.2%, 48,520G)
E_Ballard: 728G (5.6%, 50,500G)
Lanshaft: 620G (4.8%, 21,213G)
Lord_Gwarth: 500G (3.9%, 674G)
Lydian_C: 424G (3.3%, 3,317G)
Raixelol: 250G (1.9%, 9,330G)
datadrivenbot: 200G (1.6%, 67,520G)
AllInBot: 181G (1.4%, 181G)
foxfaeez: 163G (1.3%, 1,634G)
cloudycube: 100G (0.8%, 953G)
Aldrammech: 100G (0.8%, 25,972G)

black bets:
sinnyil2: 3,068G (40.0%, 6,137G)
BirbBrainsBot: 1,000G (13.0%, 165,962G)
Willjin: 1,000G (13.0%, 15,802G)
roqqqpsi: 610G (7.9%, 617G)
maximumcrit: 500G (6.5%, 4,902G)
Thyrandaal: 436G (5.7%, 436G)
dogsandcatsand: 400G (5.2%, 400G)
getthemoneyz: 260G (3.4%, 1,733,100G)
goth_Applebees_hostess: 104G (1.4%, 104G)
RunicMagus: 100G (1.3%, 6,758G)
nifboy: 100G (1.3%, 3,522G)
PandaKingEric: 100G (1.3%, 2,241G)
SephDarkheart: 1G (0.0%, 162,615G)
