Final Bets: red - 11 bets for 5,977G (50.0%, x1.00); blue - 10 bets for 5,987G (50.0%, x1.00)

red bets:
BaronHaynes: 2,000G (33.5%, 56,849G)
Laserman1000: 928G (15.5%, 928G)
Firesheath: 750G (12.5%, 750G)
Kronikle: 612G (10.2%, 42,726G)
pepperbuster: 500G (8.4%, 6,693G)
RobotOcelot: 259G (4.3%, 5,187G)
rocl: 228G (3.8%, 72,105G)
iBardic: 200G (3.3%, 51,409G)
ar_tactic: 200G (3.3%, 96,580G)
datadrivenbot: 200G (3.3%, 65,199G)
Tougou: 100G (1.7%, 7,057G)

blue bets:
gorgewall: 1,543G (25.8%, 1,543G)
BirbBrainsBot: 1,000G (16.7%, 27,655G)
reinoe: 1,000G (16.7%, 5,788G)
getthemoneyz: 988G (16.5%, 1,802,071G)
thunderducker: 444G (7.4%, 3,409G)
Strifu: 300G (5.0%, 3,781G)
Lolprinze: 260G (4.3%, 260G)
Smokegiant: 252G (4.2%, 252G)
Yangusburger: 100G (1.7%, 1,760G)
macradarkstar: 100G (1.7%, 2,510G)
