Final Bets: black - 12 bets for 10,506G (69.6%, x0.44); purple - 10 bets for 4,584G (30.4%, x2.29)

black bets:
RobotOcelot: 4,731G (45.0%, 4,731G)
latebit: 2,100G (20.0%, 60,925G)
BaronHaynes: 1,000G (9.5%, 55,294G)
pepperbuster: 1,000G (9.5%, 6,000G)
NicoSavoy: 316G (3.0%, 316G)
rNdOrchestra: 256G (2.4%, 1,776G)
Smokegiant: 252G (2.4%, 252G)
douchetron: 250G (2.4%, 1,317G)
datadrivenbot: 200G (1.9%, 65,202G)
DaveStrider55: 200G (1.9%, 4,462G)
gorgewall: 101G (1.0%, 3,147G)
macradarkstar: 100G (1.0%, 2,610G)

purple bets:
Mesmaster: 2,000G (43.6%, 81,937G)
BirbBrainsBot: 761G (16.6%, 30,245G)
Firesheath: 504G (11.0%, 504G)
Raixelol: 348G (7.6%, 574G)
minorfffanatic1: 273G (6.0%, 773G)
Leonidusx: 244G (5.3%, 244G)
OrgasmicToast: 128G (2.8%, 128G)
getthemoneyz: 126G (2.7%, 1,804,273G)
Yangusburger: 100G (2.2%, 1,810G)
Greggernaut: 100G (2.2%, 1,218G)
