Final Bets: red - 14 bets for 9,207G (49.8%, x1.01); yellow - 11 bets for 9,276G (50.2%, x0.99)

red bets:
OneHundredFists: 3,035G (33.0%, 3,035G)
moonliquor: 2,328G (25.3%, 2,328G)
CorpusCav: 825G (9.0%, 825G)
Cryptopsy70: 576G (6.3%, 21,736G)
rabbitlogik: 500G (5.4%, 7,911G)
roofiepops: 366G (4.0%, 2,466G)
DuraiPapers: 305G (3.3%, 3,305G)
amishninja: 300G (3.3%, 2,671G)
ColetteMSLP: 300G (3.3%, 1,875G)
Kronikle: 200G (2.2%, 3,623G)
josephiroth_143: 172G (1.9%, 172G)
Firesheath: 100G (1.1%, 11,922G)
Vultuous: 100G (1.1%, 3,478G)
nhammen: 100G (1.1%, 2,020G)

yellow bets:
KyleWonToLiveForever: 2,819G (30.4%, 2,819G)
reinoe: 2,000G (21.6%, 11,452G)
BirbBrainsBot: 1,000G (10.8%, 100,246G)
Oobs56: 1,000G (10.8%, 6,181G)
getthemoneyz: 516G (5.6%, 983,879G)
Nizaha: 501G (5.4%, 8,599G)
powergems: 500G (5.4%, 4,247G)
actual_JP: 476G (5.1%, 476G)
TheNiDDleR180: 264G (2.8%, 264G)
E_Ballard: 100G (1.1%, 10,720G)
King_Harb: 100G (1.1%, 7,580G)
