Final Bets: red - 5 bets for 5,972G (66.4%, x0.51); green - 11 bets for 3,024G (33.6%, x1.97)

red bets:
Evewho: 5,019G (84.0%, 9,842G)
getthemoneyz: 310G (5.2%, 1,227,624G)
DamnThatShark: 284G (4.8%, 284G)
superdevon1: 248G (4.2%, 2,486G)
Chuckolator: 111G (1.9%, 92,211G)

green bets:
CT_5_Holy: 626G (20.7%, 626G)
twelfthrootoftwo: 428G (14.2%, 428G)
Aquios_: 400G (13.2%, 508G)
Digitalsocrates: 376G (12.4%, 3,663G)
BirbBrainsBot: 333G (11.0%, 150,976G)
porkchop5158: 291G (9.6%, 291G)
datadrivenbot: 200G (6.6%, 59,458G)
hiros13gts: 120G (4.0%, 120G)
shineeyo: 100G (3.3%, 100G)
fluffskull: 100G (3.3%, 2,498G)
yukkuritime: 50G (1.7%, 242G)
