Final Bets: red - 21 bets for 30,793G (82.8%, x0.21); yellow - 14 bets for 6,390G (17.2%, x4.82)

red bets:
Thyrandaal: 16,536G (53.7%, 32,424G)
Snowfats: 2,000G (6.5%, 46,931G)
latebit: 2,000G (6.5%, 12,360G)
Chuckolator: 1,226G (4.0%, 1,226G)
CosmicTactician: 1,205G (3.9%, 1,205G)
LuckyLuckLuc2: 1,129G (3.7%, 1,129G)
Deathmaker06: 1,000G (3.2%, 39,413G)
TheBrett: 1,000G (3.2%, 14,612G)
Reddash9: 680G (2.2%, 680G)
Mesmaster: 556G (1.8%, 556G)
dogsandcatsand: 524G (1.7%, 524G)
ExplanationMarkWow: 500G (1.6%, 29,615G)
krombobreaker: 500G (1.6%, 30,573G)
ApplesNP: 450G (1.5%, 450G)
Lolthsmeat: 324G (1.1%, 1,530G)
tripaplex: 276G (0.9%, 276G)
Demon_Lord_Josh: 216G (0.7%, 216G)
AllInBot: 200G (0.6%, 200G)
datadrivenbot: 200G (0.6%, 81,617G)
Xenomorith: 171G (0.6%, 171G)
GiggleStik: 100G (0.3%, 10,917G)

yellow bets:
RunicMagus: 1,020G (16.0%, 40,136G)
skipsandwiches: 1,001G (15.7%, 70,486G)
theQueenfuta: 1,000G (15.6%, 7,363G)
VolgraTheMoose: 940G (14.7%, 41,255G)
seppu777: 555G (8.7%, 6,036G)
NicoSavoy: 544G (8.5%, 544G)
BirbBrainsBot: 301G (4.7%, 67,490G)
2b_yorha_b: 250G (3.9%, 9,752G)
Aaron2Nerdy: 220G (3.4%, 220G)
resjudicata3: 200G (3.1%, 9,407G)
gorgewall: 101G (1.6%, 5,366G)
Firesheath: 100G (1.6%, 3,510G)
DHaveWord: 100G (1.6%, 7,044G)
getthemoneyz: 58G (0.9%, 2,164,073G)
