Final Bets: white - 17 bets for 14,456G (57.5%, x0.74); black - 24 bets for 10,695G (42.5%, x1.35)

white bets:
TheMurkGnome: 3,249G (22.5%, 6,372G)
Rivonus: 2,000G (13.8%, 10,372G)
aznwanderor: 1,500G (10.4%, 2,432G)
coledot_: 1,180G (8.2%, 11,804G)
volgrathemoose: 1,001G (6.9%, 5,391G)
itzover9001: 1,000G (6.9%, 46,976G)
OmnibotGamma: 1,000G (6.9%, 4,988G)
Aldrammech: 1,000G (6.9%, 17,430G)
lijarkh: 500G (3.5%, 13,673G)
braumbles: 500G (3.5%, 86,808G)
XalSmellsBad: 500G (3.5%, 6,657G)
ungabunga_bot: 326G (2.3%, 214,914G)
ewan_e: 300G (2.1%, 1,191G)
AllInBot: 100G (0.7%, 100G)
avathesunqueen: 100G (0.7%, 100G)
Firesheath: 100G (0.7%, 9,541G)
SeniorBunk: 100G (0.7%, 5,004G)

black bets:
HaplessOne: 1,500G (14.0%, 127,440G)
Zeroroute: 1,412G (13.2%, 4,357G)
KasugaiRoastedPeas: 1,412G (13.2%, 15,090G)
Baron_von_Scrub: 1,111G (10.4%, 73,451G)
Laserman1000: 686G (6.4%, 46,586G)
HaateXIII: 500G (4.7%, 39,217G)
BirbBrainsBot: 474G (4.4%, 143,653G)
mirapoix: 412G (3.9%, 412G)
Cryptopsy70: 376G (3.5%, 24,645G)
Lanshaft: 368G (3.4%, 485G)
gorgewall: 300G (2.8%, 6,049G)
EnemyController: 300G (2.8%, 89,034G)
duskps: 300G (2.8%, 8,674G)
Realitydown: 288G (2.7%, 288G)
Nizaha: 201G (1.9%, 13,936G)
Evewho: 200G (1.9%, 1,482G)
feDoran: 200G (1.9%, 7,400G)
ZephyrTempest: 101G (0.9%, 181,030G)
DeathTaxesAndAnime: 100G (0.9%, 8,883G)
RunicMagus: 100G (0.9%, 31,363G)
Tougou: 100G (0.9%, 10,850G)
datadrivenbot: 100G (0.9%, 2,292G)
getthemoneyz: 88G (0.8%, 567,798G)
b0shii: 66G (0.6%, 4,492G)
