Final Bets: purple - 23 bets for 10,641G (44.5%, x1.25); champion - 16 bets for 13,268G (55.5%, x0.80)

purple bets:
roqqqpsi: 1,591G (15.0%, 14,467G)
Baron_von_Scrub: 1,111G (10.4%, 20,865G)
EnemyController: 1,000G (9.4%, 438,583G)
Digitalsocrates: 1,000G (9.4%, 3,574G)
volgrathemoose: 832G (7.8%, 832G)
Laserman1000: 700G (6.6%, 28,000G)
Aldrammech: 600G (5.6%, 600G)
Error72: 500G (4.7%, 4,445G)
Jinxzers: 500G (4.7%, 6,917G)
Firesheath: 478G (4.5%, 478G)
YaBoy125: 420G (3.9%, 28,703G)
CapnChaos12: 300G (2.8%, 18,307G)
noopockets: 280G (2.6%, 280G)
ravingsockmonkey: 213G (2.0%, 213G)
Nizaha: 201G (1.9%, 8,502G)
serperemagus: 172G (1.6%, 172G)
itsadud: 143G (1.3%, 143G)
OneHundredFists: 100G (0.9%, 28,327G)
maakur_: 100G (0.9%, 8,526G)
Evewho: 100G (0.9%, 12,585G)
CosmicTactician: 100G (0.9%, 1,944G)
mrfripps: 100G (0.9%, 123G)
datadrivenbot: 100G (0.9%, 28,272G)

champion bets:
toka222: 5,000G (37.7%, 107,916G)
goodnightrobo: 1,500G (11.3%, 5,517G)
Deathmaker06: 1,139G (8.6%, 1,139G)
Sharosa: 1,091G (8.2%, 1,091G)
BirbBrainsBot: 1,000G (7.5%, 62,089G)
metagameface: 1,000G (7.5%, 7,029G)
old_overholt_: 500G (3.8%, 15,535G)
Sungazes: 500G (3.8%, 3,624G)
coralreeferz: 463G (3.5%, 463G)
lifeguard_dan: 384G (2.9%, 384G)
gorgewall: 201G (1.5%, 19,222G)
CrownOfHorns: 148G (1.1%, 148G)
AllInBot: 100G (0.8%, 100G)
Kyune: 100G (0.8%, 32,674G)
E_Ballard: 100G (0.8%, 4,189G)
getthemoneyz: 42G (0.3%, 762,277G)
