Final Bets: green - 12 bets for 14,981G (53.0%, x0.89); yellow - 17 bets for 13,274G (47.0%, x1.13)

green bets:
douchetron: 5,072G (33.9%, 5,072G)
joewcarson: 5,000G (33.4%, 15,725G)
toka222: 1,509G (10.1%, 68,378G)
Zagorsek: 1,076G (7.2%, 1,076G)
JumbocactuarX27: 616G (4.1%, 616G)
WhiteTigress: 500G (3.3%, 1,576G)
DLJuggernaut: 408G (2.7%, 408G)
AllInBot: 200G (1.3%, 200G)
maddrave09: 200G (1.3%, 1,493G)
datadrivenbot: 200G (1.3%, 68,682G)
LordMaxoss: 100G (0.7%, 5,666G)
Lyner87: 100G (0.7%, 92,405G)

yellow bets:
JonnyCue: 1,611G (12.1%, 1,611G)
latebit: 1,600G (12.1%, 41,230G)
DavenIII: 1,535G (11.6%, 19,192G)
nhammen: 1,496G (11.3%, 14,963G)
Forkmore: 1,437G (10.8%, 1,437G)
Error72: 1,101G (8.3%, 1,101G)
skipsandwiches: 1,001G (7.5%, 18,008G)
BirbBrainsBot: 1,000G (7.5%, 90,589G)
Nickyfive: 1,000G (7.5%, 35,782G)
getthemoneyz: 320G (2.4%, 1,619,036G)
arctodus13: 300G (2.3%, 3,303G)
Kellios11: 200G (1.5%, 28,510G)
CosmicTactician: 200G (1.5%, 21,666G)
holdenmagronik: 150G (1.1%, 1,084G)
roofiepops: 123G (0.9%, 2,367G)
Brainstew29: 100G (0.8%, 37,111G)
fesight: 100G (0.8%, 2,237G)
