Final Bets: white - 12 bets for 12,249G (53.3%, x0.88); black - 19 bets for 10,731G (46.7%, x1.14)

white bets:
bruubarg: 5,000G (40.8%, 10,351G)
ExecutedGiraffe: 2,934G (24.0%, 2,934G)
NovaKnight21: 1,292G (10.5%, 1,292G)
Lydian_C: 1,200G (9.8%, 7,903G)
Nohurty: 662G (5.4%, 1,325G)
just_here2: 485G (4.0%, 4,859G)
dinin991: 176G (1.4%, 176G)
TaylorB503: 100G (0.8%, 4,807G)
Aldrammech: 100G (0.8%, 802G)
BruddaShrine: 100G (0.8%, 721G)
datadrivenbot: 100G (0.8%, 35,840G)
cogniv0r3: 100G (0.8%, 3,061G)

black bets:
roofiepops: 1,400G (13.0%, 6,379G)
mpghappiness: 1,001G (9.3%, 7,490G)
BirbBrainsBot: 1,000G (9.3%, 169,190G)
getthemoneyz: 1,000G (9.3%, 843,587G)
Thyrandaal: 1,000G (9.3%, 4,743G)
SkylerBunny: 1,000G (9.3%, 110,767G)
DeathTaxesAndAnime: 808G (7.5%, 808G)
sinnyil2: 720G (6.7%, 720G)
evdoggity: 500G (4.7%, 26,044G)
flowinprose: 500G (4.7%, 87,251G)
Oreo_Pizza: 450G (4.2%, 20,289G)
DustBirdEX: 328G (3.1%, 328G)
serperemagus: 324G (3.0%, 324G)
prince_rogers_nelson_: 200G (1.9%, 4,407G)
Celdia: 100G (0.9%, 5,047G)
ANFz: 100G (0.9%, 4,320G)
Flameatron: 100G (0.9%, 403G)
DejaPoo21: 100G (0.9%, 12,428G)
gggamezzz: 100G (0.9%, 3,878G)
