Final Bets: blue - 11 bets for 24,911G (47.0%, x1.13); yellow - 13 bets for 28,060G (53.0%, x0.89)

blue bets:
maakur_: 10,730G (43.1%, 10,730G)
KittymanAdvance: 7,488G (30.1%, 7,488G)
Thyrandaal: 2,000G (8.0%, 21,003G)
Breakdown777: 1,500G (6.0%, 75,373G)
DLJuggernaut: 1,234G (5.0%, 17,862G)
sinnyil2: 799G (3.2%, 28,060G)
serperemagus: 500G (2.0%, 1,527G)
Aldrammech: 328G (1.3%, 328G)
alterworlds: 132G (0.5%, 132G)
datadrivenbot: 100G (0.4%, 38,831G)
DeadGirlzREasy: 100G (0.4%, 10,007G)

yellow bets:
Baron_von_Scrub: 14,819G (52.8%, 14,819G)
KasugaiRoastedPeas: 4,685G (16.7%, 4,685G)
cam_ATS: 2,581G (9.2%, 28,403G)
VolgraTheMoose: 2,001G (7.1%, 67,470G)
BirbBrainsBot: 1,000G (3.6%, 16,875G)
TheChainNerd: 682G (2.4%, 682G)
DeathTaxesAndAnime: 620G (2.2%, 620G)
prince_rogers_nelson_: 500G (1.8%, 3,265G)
RaIshtar: 376G (1.3%, 376G)
getthemoneyz: 320G (1.1%, 953,399G)
d4rr1n: 200G (0.7%, 5,075G)
AllInBot: 176G (0.6%, 176G)
nappychicken: 100G (0.4%, 2,840G)
