Final Bets: red - 16 bets for 6,362G (60.6%, x0.65); blue - 9 bets for 4,128G (39.4%, x1.54)

red bets:
randgridr: 1,424G (22.4%, 1,424G)
AllInBot: 600G (9.4%, 600G)
EnemyController: 555G (8.7%, 1,461,173G)
VolgraTheMoose: 501G (7.9%, 10,180G)
killth3kid: 448G (7.0%, 502G)
Royal_Ruckus: 408G (6.4%, 408G)
TasisSai: 388G (6.1%, 388G)
boosted420: 300G (4.7%, 1,294G)
ColetteMSLP: 300G (4.7%, 2,813G)
RyanTheRebs: 290G (4.6%, 290G)
Treafa: 268G (4.2%, 804G)
lyonslegacy: 208G (3.3%, 208G)
datadrivenbot: 200G (3.1%, 32,966G)
NeonTarget: 200G (3.1%, 5,283G)
Vacillents: 172G (2.7%, 172G)
Legionx13: 100G (1.6%, 3,786G)

blue bets:
BirbBrainsBot: 1,000G (24.2%, 129,241G)
Laserman1000: 900G (21.8%, 900G)
dogsandcatsand: 600G (14.5%, 600G)
Thyrandaal: 500G (12.1%, 3,221G)
richardserious: 444G (10.8%, 444G)
getthemoneyz: 276G (6.7%, 1,332,294G)
braveboyblue: 208G (5.0%, 208G)
Miku_Shikhu: 100G (2.4%, 15,379G)
nhammen: 100G (2.4%, 6,860G)
