Final Bets: green - 11 bets for 17,067G (65.0%, x0.54); black - 14 bets for 9,174G (35.0%, x1.86)

green bets:
evontno: 5,800G (34.0%, 61,041G)
NeonTarget: 5,055G (29.6%, 5,055G)
Monopool: 1,799G (10.5%, 1,799G)
TasisSai: 1,573G (9.2%, 3,086G)
Vacillents: 1,109G (6.5%, 1,109G)
killth3kid: 583G (3.4%, 583G)
iBardic: 500G (2.9%, 1,074G)
lyonslegacy: 212G (1.2%, 212G)
AllInBot: 200G (1.2%, 200G)
Royal_Ruckus: 136G (0.8%, 136G)
moocaotao: 100G (0.6%, 3,603G)

black bets:
randgridr: 1,472G (16.0%, 1,472G)
maakur_: 1,237G (13.5%, 1,237G)
VolgraTheMoose: 1,001G (10.9%, 10,505G)
BirbBrainsBot: 1,000G (10.9%, 124,266G)
Laserman1000: 978G (10.7%, 978G)
dogsandcatsand: 600G (6.5%, 600G)
getthemoneyz: 596G (6.5%, 1,330,286G)
benticore: 500G (5.5%, 22,938G)
Treafa: 474G (5.2%, 949G)
Kronikle: 424G (4.6%, 13,049G)
ColetteMSLP: 300G (3.3%, 2,490G)
OtherBrand: 292G (3.2%, 1,792G)
datadrivenbot: 200G (2.2%, 33,483G)
Heroebal: 100G (1.1%, 4,350G)
