Final Bets: red - 17 bets for 7,496G (43.4%, x1.31); blue - 17 bets for 9,793G (56.6%, x0.77)

red bets:
DLJuggernaut: 1,568G (20.9%, 7,843G)
mpghappiness: 1,001G (13.4%, 1,584G)
Laserman1000: 883G (11.8%, 33,883G)
TheChainNerd: 700G (9.3%, 700G)
serperemagus: 676G (9.0%, 676G)
powergems: 428G (5.7%, 428G)
autnagrag: 400G (5.3%, 4,521G)
nedryerson01: 400G (5.3%, 10,836G)
Bilabrin: 340G (4.5%, 340G)
CapnChaos12: 300G (4.0%, 12,764G)
CaptainGarlock: 200G (2.7%, 13,821G)
Arcblazer23: 172G (2.3%, 172G)
AllInBot: 100G (1.3%, 100G)
datadrivenbot: 100G (1.3%, 36,071G)
E_Ballard: 100G (1.3%, 6,996G)
getthemoneyz: 78G (1.0%, 894,929G)
IphoneDarkness: 50G (0.7%, 1,915G)

blue bets:
red__lancer: 2,000G (20.4%, 88,550G)
fenaen: 1,200G (12.3%, 27,066G)
maakur_: 1,001G (10.2%, 1,001G)
reinoe: 1,000G (10.2%, 24,428G)
BirbBrainsBot: 1,000G (10.2%, 92,491G)
OneHundredFists: 1,000G (10.2%, 5,062G)
HaateXIII: 704G (7.2%, 704G)
Soltaker21: 500G (5.1%, 3,610G)
joewcarson: 300G (3.1%, 40,335G)
cam_ATS: 280G (2.9%, 280G)
docmitchphd: 208G (2.1%, 208G)
nifboy: 100G (1.0%, 2,349G)
ThePineappleSalesman: 100G (1.0%, 9,384G)
lastly: 100G (1.0%, 17,417G)
Grandlanzer: 100G (1.0%, 7,766G)
Flameatron: 100G (1.0%, 776G)
J_MacC1991: 100G (1.0%, 284G)
