Final Bets: white - 14 bets for 6,794G (38.0%, x1.63); black - 18 bets for 11,071G (62.0%, x0.61)

white bets:
BirbBrainsBot: 1,000G (14.7%, 94,062G)
CaptainGarlock: 1,000G (14.7%, 13,205G)
toka222: 1,000G (14.7%, 51,106G)
fenaen: 900G (13.2%, 28,549G)
TheChainNerd: 700G (10.3%, 700G)
killth3kid: 500G (7.4%, 7,147G)
serperemagus: 441G (6.5%, 441G)
ShintaroNayaka: 300G (4.4%, 16,204G)
autnagrag: 222G (3.3%, 4,380G)
Soltaker21: 200G (2.9%, 1,467G)
Belkra: 191G (2.8%, 2,235G)
getthemoneyz: 140G (2.1%, 895,054G)
AllInBot: 100G (1.5%, 100G)
Quadh0nk: 100G (1.5%, 923G)

black bets:
reinoe: 3,000G (27.1%, 22,193G)
DLJuggernaut: 1,507G (13.6%, 7,538G)
mpghappiness: 1,053G (9.5%, 1,053G)
red__lancer: 1,000G (9.0%, 91,697G)
Laserman1000: 845G (7.6%, 33,645G)
powergems: 773G (7.0%, 773G)
dodgeroll: 724G (6.5%, 3,622G)
brokenknight201: 500G (4.5%, 2,227G)
docmitchphd: 367G (3.3%, 367G)
IphoneDarkness: 300G (2.7%, 1,905G)
cam_ATS: 280G (2.5%, 280G)
Arcblazer23: 172G (1.6%, 172G)
lastly: 100G (0.9%, 17,394G)
E_Ballard: 100G (0.9%, 6,896G)
adrammallech: 100G (0.9%, 100G)
datadrivenbot: 100G (0.9%, 35,871G)
nifboy: 100G (0.9%, 2,507G)
J_MacC1991: 50G (0.5%, 442G)
