Final Bets: white - 17 bets for 8,938G (55.7%, x0.80); black - 13 bets for 7,114G (44.3%, x1.26)

white bets:
Nizaha: 1,455G (16.3%, 2,911G)
killth3kid: 1,000G (11.2%, 85,161G)
dogsandcatsand: 1,000G (11.2%, 9,099G)
roofiepops: 1,000G (11.2%, 3,348G)
bruubarg: 805G (9.0%, 805G)
extinctrational: 531G (5.9%, 531G)
dantayystv: 500G (5.6%, 3,139G)
amiture: 500G (5.6%, 1,962G)
roqqqpsi: 495G (5.5%, 49,512G)
reinoe: 416G (4.7%, 416G)
TasisSai: 284G (3.2%, 558G)
SephDarkheart: 276G (3.1%, 276G)
BoneMiser: 200G (2.2%, 2,446G)
datadrivenbot: 200G (2.2%, 63,645G)
DustBirdEX: 166G (1.9%, 3,234G)
CosmicTactician: 100G (1.1%, 44,952G)
nhammen: 10G (0.1%, 5,025G)

black bets:
DeathTaxesAndAnime: 2,151G (30.2%, 2,151G)
HaateXIII: 1,428G (20.1%, 2,856G)
Cryptopsy70: 896G (12.6%, 29,879G)
serperemagus: 755G (10.6%, 755G)
letdowncity: 384G (5.4%, 2,676G)
Blastinus: 288G (4.0%, 288G)
byrdturbo: 269G (3.8%, 19,682G)
BirbBrainsBot: 229G (3.2%, 47,885G)
peeronid: 200G (2.8%, 4,321G)
maddrave09: 200G (2.8%, 12,775G)
getthemoneyz: 114G (1.6%, 1,258,307G)
nifboy: 100G (1.4%, 7,467G)
lastly: 100G (1.4%, 31,126G)
