Final Bets: blue - 16 bets for 12,157G (62.9%, x0.59); green - 13 bets for 7,167G (37.1%, x1.70)

blue bets:
bruubarg: 2,381G (19.6%, 2,381G)
roqqqpsi: 1,956G (16.1%, 48,908G)
reinoe: 1,230G (10.1%, 1,230G)
killth3kid: 1,000G (8.2%, 86,604G)
books_books: 1,000G (8.2%, 26,606G)
Cryptopsy70: 886G (7.3%, 29,545G)
SephDarkheart: 817G (6.7%, 817G)
Hasterious: 714G (5.9%, 714G)
Nizaha: 536G (4.4%, 3,969G)
maddrave09: 500G (4.1%, 13,868G)
letdowncity: 384G (3.2%, 2,292G)
byrdturbo: 333G (2.7%, 18,993G)
datadrivenbot: 200G (1.6%, 63,933G)
Kronikle: 200G (1.6%, 3,490G)
nhammen: 10G (0.1%, 4,933G)
cam_ATS: 10G (0.1%, 46,317G)

green bets:
DeathTaxesAndAnime: 1,555G (21.7%, 1,555G)
extinctrational: 854G (11.9%, 854G)
BirbBrainsBot: 816G (11.4%, 46,656G)
Evewho: 732G (10.2%, 732G)
HaateXIII: 714G (10.0%, 714G)
Nohurty: 576G (8.0%, 576G)
dogsandcatsand: 500G (7.0%, 10,542G)
amiture: 500G (7.0%, 2,683G)
Blastinus: 366G (5.1%, 366G)
getthemoneyz: 228G (3.2%, 1,258,458G)
dantayystv: 200G (2.8%, 3,437G)
nifboy: 100G (1.4%, 7,267G)
DustBirdEX: 26G (0.4%, 3,494G)
