Final Bets: white - 9 bets for 7,403G (24.7%, x3.05); black - 22 bets for 22,554G (75.3%, x0.33)

white bets:
reinoe: 2,000G (27.0%, 67,889G)
gorgewall: 1,394G (18.8%, 1,394G)
JCBooBot: 1,000G (13.5%, 48,518G)
BirbBrainsBot: 1,000G (13.5%, 91,463G)
Mesmaster: 1,000G (13.5%, 72,314G)
Firesheath: 768G (10.4%, 768G)
Chuckolator: 125G (1.7%, 18,567G)
krombobreaker: 100G (1.4%, 1,439G)
getthemoneyz: 16G (0.2%, 1,763,874G)

black bets:
Thyrandaal: 4,000G (17.7%, 63,440G)
thunderducker: 2,266G (10.0%, 2,266G)
Kronikle: 2,038G (9.0%, 2,038G)
NicoSavoy: 2,000G (8.9%, 37,566G)
astrozin11: 1,746G (7.7%, 1,746G)
iBardic: 1,188G (5.3%, 1,188G)
WesSideVandal: 1,120G (5.0%, 1,120G)
skillomono: 1,000G (4.4%, 15,368G)
Shalloween: 1,000G (4.4%, 34,964G)
Starfire6789: 805G (3.6%, 805G)
Laserman1000: 800G (3.5%, 17,000G)
silentkaster: 755G (3.3%, 755G)
douchetron: 617G (2.7%, 617G)
MemoriesofFinal: 542G (2.4%, 542G)
latebit: 500G (2.2%, 500G)
Arcblazer23: 497G (2.2%, 497G)
Leonidusx: 416G (1.8%, 416G)
CosmicTactician: 400G (1.8%, 41,002G)
Wonser: 336G (1.5%, 10,345G)
Galeronis: 268G (1.2%, 565G)
PuzzleSecretary: 160G (0.7%, 3,089G)
AllInBot: 100G (0.4%, 100G)
