Final Bets: red - 13 bets for 10,039G (19.2%, x4.21); yellow - 13 bets for 42,254G (80.8%, x0.24)

red bets:
Thyrandaal: 3,000G (29.9%, 65,740G)
WesSideVandal: 1,120G (11.2%, 1,120G)
JCBooBot: 1,000G (10.0%, 48,505G)
BirbBrainsBot: 1,000G (10.0%, 89,463G)
Laserman1000: 863G (8.6%, 17,263G)
NicoSavoy: 700G (7.0%, 40,196G)
poorest_hobo: 600G (6.0%, 38,119G)
technominari: 500G (5.0%, 78,534G)
lowlf: 416G (4.1%, 5,844G)
thunderducker: 400G (4.0%, 3,360G)
getthemoneyz: 240G (2.4%, 1,762,858G)
CosmicTactician: 100G (1.0%, 40,933G)
krombobreaker: 100G (1.0%, 1,239G)

yellow bets:
reinoe: 15,000G (35.5%, 65,889G)
Mesmaster: 15,000G (35.5%, 66,314G)
Chuckolator: 2,646G (6.3%, 18,442G)
reddwind_: 2,000G (4.7%, 8,702G)
iBardic: 1,775G (4.2%, 1,775G)
sinnyil2: 1,550G (3.7%, 3,100G)
Firesheath: 1,526G (3.6%, 1,526G)
Starfire6789: 1,069G (2.5%, 1,069G)
gorgewall: 628G (1.5%, 628G)
latebit: 500G (1.2%, 500G)
skillomono: 300G (0.7%, 17,670G)
PuzzleSecretary: 160G (0.4%, 2,982G)
AllInBot: 100G (0.2%, 100G)
