Final Bets: blue - 20 bets for 11,054G (34.5%, x1.90); yellow - 22 bets for 21,030G (65.5%, x0.53)

blue bets:
GreatRedDragon: 1,720G (15.6%, 13,996G)
Aldrammech: 1,000G (9.0%, 45,478G)
PotionDweller: 1,000G (9.0%, 19,717G)
BirbBrainsBot: 1,000G (9.0%, 54,049G)
Meta_Five: 1,000G (9.0%, 12,966G)
Anox_Skell: 1,000G (9.0%, 8,019G)
nedryerson01: 665G (6.0%, 665G)
Tetsuwan_Melty: 635G (5.7%, 635G)
Dexsana: 600G (5.4%, 1,203G)
VySaika: 500G (4.5%, 17,700G)
Shalloween: 500G (4.5%, 55,229G)
killth3kid: 284G (2.6%, 2,939G)
HaateXIII: 250G (2.3%, 11,971G)
uncharreted: 200G (1.8%, 2,164G)
old_overholt_: 200G (1.8%, 4,980G)
ANFz: 100G (0.9%, 14,968G)
LazarusAjin: 100G (0.9%, 27,457G)
twelfthrootoftwo: 100G (0.9%, 5,942G)
datadrivenbot: 100G (0.9%, 591G)
GSaucer: 100G (0.9%, 400G)

yellow bets:
HaplessOne: 5,000G (23.8%, 115,063G)
madming25: 3,333G (15.8%, 11,106G)
DustBirdEX: 2,460G (11.7%, 7,460G)
Willjin: 2,000G (9.5%, 18,704G)
volgrathemoose: 1,500G (7.1%, 5,208G)
rocl: 1,000G (4.8%, 53,155G)
ungabunga_bot: 1,000G (4.8%, 202,425G)
Mtueni: 1,000G (4.8%, 262,669G)
getthemoneyz: 518G (2.5%, 525,102G)
joewcarson: 501G (2.4%, 1,968G)
DaveStrider55: 500G (2.4%, 4,979G)
ShintaroNayaka: 400G (1.9%, 18,370G)
roofiepops: 330G (1.6%, 4,188G)
EnemyController: 300G (1.4%, 71,802G)
moonliquor: 266G (1.3%, 266G)
Evewho: 200G (1.0%, 1,831G)
AllInBot: 178G (0.8%, 178G)
bradsmr: 150G (0.7%, 303G)
xxnamexx: 144G (0.7%, 144G)
OneHundredFists: 100G (0.5%, 4,965G)
gorgewall: 100G (0.5%, 3,469G)
DrAntiSocial: 50G (0.2%, 14,923G)
