Final Bets: green - 13 bets for 6,114G (56.1%, x0.78); yellow - 12 bets for 4,775G (43.9%, x1.28)

green bets:
DeadGirlzREasy: 1,535G (25.1%, 1,535G)
AniZero: 1,000G (16.4%, 33,401G)
OppressivelyMinty: 795G (13.0%, 795G)
Phi_Sig: 780G (12.8%, 1,560G)
DavenIII: 500G (8.2%, 1,960G)
sinnyil2: 500G (8.2%, 19,771G)
eudes89: 300G (4.9%, 9,718G)
Zachara: 204G (3.3%, 105,704G)
Firesheath: 100G (1.6%, 12,742G)
RuneS_77: 100G (1.6%, 8,102G)
Angelomortis: 100G (1.6%, 932G)
datadrivenbot: 100G (1.6%, 41,435G)
AltimaMantoid: 100G (1.6%, 2,300G)

yellow bets:
prince_rogers_nelson_: 1,000G (20.9%, 16,217G)
ZCKaiser: 690G (14.5%, 1,380G)
Laserman1000: 588G (12.3%, 62,488G)
Nizaha: 501G (10.5%, 19,844G)
joewcarson: 500G (10.5%, 48,101G)
Anasetsuken: 500G (10.5%, 11,691G)
RunicMagus: 400G (8.4%, 50,235G)
getthemoneyz: 184G (3.9%, 959,752G)
Azelgrim: 112G (2.3%, 112G)
AllInBot: 100G (2.1%, 100G)
mrfripps: 100G (2.1%, 5,007G)
d4rr1n: 100G (2.1%, 6,506G)
