Final Bets: purple - 16 bets for 8,491G (26.2%, x2.82); champion - 26 bets for 23,942G (73.8%, x0.35)

purple bets:
sinnyil2: 1,200G (14.1%, 19,459G)
toka222: 1,150G (13.5%, 47,547G)
Thyrandaal: 1,000G (11.8%, 38,554G)
killth3kid: 867G (10.2%, 8,676G)
HaateXIII: 780G (9.2%, 780G)
getthemoneyz: 528G (6.2%, 961,149G)
argentbast: 500G (5.9%, 5,174G)
Anasetsuken: 500G (5.9%, 11,167G)
ZCKaiser: 413G (4.9%, 827G)
TheChainNerd: 400G (4.7%, 3,400G)
OppressivelyMinty: 341G (4.0%, 341G)
Bryon_W: 300G (3.5%, 5,055G)
KasugaiRoastedPeas: 200G (2.4%, 480G)
Azelgrim: 112G (1.3%, 112G)
run_with_stone_GUNs: 100G (1.2%, 26,040G)
Alanaire: 100G (1.2%, 13,627G)

champion bets:
AniZero: 5,000G (20.9%, 29,652G)
serperemagus: 3,011G (12.6%, 3,011G)
Grandlanzer: 2,806G (11.7%, 2,806G)
DavenIII: 2,141G (8.9%, 2,141G)
eudes89: 2,000G (8.4%, 9,418G)
BoneMiser: 1,257G (5.3%, 1,257G)
RunicMagus: 1,200G (5.0%, 50,415G)
MattMan119: 849G (3.5%, 849G)
JumbocactuarX27: 620G (2.6%, 620G)
Laserman1000: 500G (2.1%, 63,300G)
joewcarson: 500G (2.1%, 47,536G)
Oreo_Pizza: 500G (2.1%, 20,415G)
coralreeferz: 500G (2.1%, 3,885G)
AltimaMantoid: 500G (2.1%, 2,000G)
vorap: 500G (2.1%, 148,072G)
CapnChaos12: 300G (1.3%, 12,760G)
RuneS_77: 300G (1.3%, 8,270G)
mikeyoffbeat: 300G (1.3%, 1,136G)
biffcake01: 300G (1.3%, 1,240G)
Tuckerism: 208G (0.9%, 208G)
silentkaster: 150G (0.6%, 2,795G)
AllInBot: 100G (0.4%, 100G)
CosmicTactician: 100G (0.4%, 4,854G)
Kronikle: 100G (0.4%, 16,895G)
datadrivenbot: 100G (0.4%, 41,555G)
DeathTaxesAndAnime: 100G (0.4%, 2,100G)
