Final Bets: blue - 14 bets for 6,666G (37.9%, x1.64); champion - 15 bets for 10,916G (62.1%, x0.61)

blue bets:
Shalloween: 1,200G (18.0%, 59,258G)
evdoggity: 1,000G (15.0%, 85,091G)
BirbBrainsBot: 1,000G (15.0%, 74,137G)
killth3kid: 734G (11.0%, 73,462G)
getthemoneyz: 642G (9.6%, 1,266,009G)
Ring_Wyrm: 560G (8.4%, 560G)
RunicMagus: 300G (4.5%, 5,195G)
randgridr: 280G (4.2%, 280G)
benticore: 250G (3.8%, 14,169G)
sososteve: 232G (3.5%, 232G)
Mysteriousdewd: 200G (3.0%, 869G)
TasisSai: 138G (2.1%, 272G)
CosmicTactician: 100G (1.5%, 46,210G)
Hasterious: 30G (0.5%, 3,051G)

champion bets:
reinoe: 3,000G (27.5%, 13,015G)
cougboi: 2,036G (18.7%, 2,036G)
DeathTaxesAndAnime: 1,562G (14.3%, 3,063G)
gorgewall: 1,001G (9.2%, 3,947G)
NicoSavoy: 1,000G (9.2%, 192,356G)
Forkmore: 500G (4.6%, 2,629G)
AND4H: 500G (4.6%, 3,181G)
fluffskull: 404G (3.7%, 404G)
winteriscorning: 200G (1.8%, 2,201G)
AndrewAlexander141: 200G (1.8%, 1,200G)
datadrivenbot: 200G (1.8%, 60,131G)
furrytomahawkk: 108G (1.0%, 108G)
nhammen: 100G (0.9%, 9,818G)
Firesheath: 100G (0.9%, 2,676G)
dlunas: 5G (0.0%, 100G)
