High Risers:
1. Gorgewall: +4,163G
2. Jonnycue: +3,782G
3. Old_overholt_: +3,556G
4. Evontno: +2,910G
5. Laserman1000: +2,443G
6. Corpuscav: +1,926G
7. Deathtaxesandanime: +1,827G
8. Dodecadeath: +1,661G
9. Cryptopsy70: +617G
10. Spartan_paladin: +581G
11. Cosmictactician: +420G
12. 0v3rr8d: +400G
13. Zbgs: +399G
14. Resjudicata3: +318G
15. Pplvee1: +244G
16. Lwtest: +232G
17. 3ngag3: +116G
18. Hhrriisstt: +66G
19. Mirapoix: +15G
20. Shadowninja25: +10G
21. Zckaiser: +4G
22. Hasterious: +1G
23. Krombobreaker: -12G
24. Conome: -100G
25. Chichirodriguez: -100G
26. Dustbirdex: -132G
27. Roofiepops: -192G
28. Saintomerville: -196G
29. Porotact: -196G
30. Runicmagus: -200G
31. Lythe_caraker: -261G
32. Smashy: -296G
33. Phi_sig: -400G
34. Friendsquirrel: -400G
35. Run_with_stone_guns: -418G
36. Moonliquor: -419G
37. Kellios11: -434G
38. Squidsquarklin: -500G
39. Maakur_: -523G
40. Shalloween: -597G
41. Raixelol: -601G
42. Lord_gwarth: -627G
43. Mudrockk: -666G
44. Killth3kid: -709G
45. J_macc1991: -724G
46. Joewcarson: -900G
47. Ct_5_holy: -914G
48. Douchetron: -940G
49. Aldrammech: -1,000G
50. Onehundredfists: -1,000G
51. King_smashington: -1,000G
52. Nizaha: -1,071G
53. Smugzug: -1,342G
54. Nicosavoy: -1,380G
55. Error72: -1,901G
56. Yangusburger: -2,200G
57. Lowlf: -2,208G
58. Sinnyil2: -2,500G
59. Rune339: -2,636G
60. Nhammen: -3,567G
61. Biske13: -4,400G
