Final Bets: white - 14 bets for 10,338G (49.4%, x1.03); brown - 15 bets for 10,607G (50.6%, x0.97)

white bets:
Thyrandaal: 5,000G (48.4%, 486,472G)
friskycc: 1,000G (9.7%, 2,643G)
BirbBrainsBot: 1,000G (9.7%, 53,844G)
killth3kid: 760G (7.4%, 15,014G)
rockmem21: 700G (6.8%, 13,704G)
Forkmore: 444G (4.3%, 2,008G)
BoneMiser: 412G (4.0%, 412G)
pandasforsale: 222G (2.1%, 7,040G)
KasugaiRoastedPeas: 200G (1.9%, 424G)
datadrivenbot: 200G (1.9%, 64,660G)
AllInBot: 100G (1.0%, 100G)
Aldrammech: 100G (1.0%, 48,120G)
Twisted_Nutsatchel: 100G (1.0%, 22,432G)
Docrad_: 100G (1.0%, 1,478G)

brown bets:
SkylerBunny: 2,000G (18.9%, 15,066G)
latebit: 1,500G (14.1%, 15,842G)
Lord_Gwarth: 1,337G (12.6%, 2,157G)
CapnChaos12: 1,091G (10.3%, 1,091G)
DarrenDinosaurs: 1,000G (9.4%, 4,806G)
E_Ballard: 668G (6.3%, 668G)
MagicBottle: 600G (5.7%, 600G)
getthemoneyz: 578G (5.4%, 1,672,989G)
pplvee1: 500G (4.7%, 500G)
reinoe: 500G (4.7%, 8,049G)
FFMaster: 292G (2.8%, 292G)
rNdOrchestra: 240G (2.3%, 8,945G)
gorgewall: 101G (1.0%, 5,703G)
RunicMagus: 100G (0.9%, 8,568G)
3ngag3: 100G (0.9%, 3,500G)
