Final Bets: red - 15 bets for 7,581G (33.8%, x1.96); brown - 17 bets for 14,868G (66.2%, x0.51)

red bets:
MagicBottle: 1,185G (15.6%, 1,185G)
Virilikus: 1,000G (13.2%, 193,224G)
KasugaiRoastedPeas: 924G (12.2%, 924G)
killth3kid: 760G (10.0%, 14,254G)
friskycc: 700G (9.2%, 1,643G)
pandasforsale: 666G (8.8%, 6,818G)
FFMaster: 577G (7.6%, 577G)
Smashy: 428G (5.6%, 10,192G)
Tarheels218: 304G (4.0%, 304G)
rNdOrchestra: 240G (3.2%, 9,179G)
Twisted_Nutsatchel: 200G (2.6%, 22,332G)
datadrivenbot: 200G (2.6%, 64,460G)
Docrad_: 200G (2.6%, 1,378G)
Aldrammech: 100G (1.3%, 48,520G)
3ngag3: 97G (1.3%, 4,097G)

brown bets:
Thyrandaal: 3,000G (20.2%, 482,466G)
Mesmaster: 2,000G (13.5%, 18,015G)
roofiepops: 1,852G (12.5%, 3,633G)
Lord_Gwarth: 1,337G (9.0%, 4,460G)
latebit: 1,200G (8.1%, 17,304G)
BirbBrainsBot: 1,000G (6.7%, 52,844G)
Forkmore: 1,000G (6.7%, 2,064G)
rockmem21: 810G (5.4%, 13,504G)
Lanshaft: 608G (4.1%, 8,965G)
reinoe: 500G (3.4%, 8,536G)
DarrenDinosaurs: 500G (3.4%, 6,281G)
CosmicTactician: 300G (2.0%, 30,032G)
CapnChaos12: 300G (2.0%, 2,654G)
getthemoneyz: 160G (1.1%, 1,673,552G)
gorgewall: 101G (0.7%, 6,801G)
AllInBot: 100G (0.7%, 100G)
RunicMagus: 100G (0.7%, 9,165G)
