Final Bets: green - 12 bets for 4,175G (7.3%, x12.68); purple - 25 bets for 52,954G (92.7%, x0.08)

green bets:
Aldrammech: 945G (22.6%, 9,452G)
Shalloween: 800G (19.2%, 29,923G)
Pie108: 700G (16.8%, 17,586G)
KasugaiRoastedPeas: 576G (13.8%, 576G)
getthemoneyz: 358G (8.6%, 476,901G)
DrAntiSocial: 296G (7.1%, 296G)
ApplesauceBoss: 100G (2.4%, 5,353G)
Lodrak: 100G (2.4%, 2,417G)
old_overholt_: 100G (2.4%, 9,574G)
Evewho: 100G (2.4%, 2,997G)
b0shii: 50G (1.2%, 2,965G)
rico_flex: 50G (1.2%, 3,713G)

purple bets:
Ragnarok784: 35,087G (66.3%, 70,174G)
upvla: 3,222G (6.1%, 34,835G)
OmnibotGamma: 1,801G (3.4%, 1,801G)
Firesheath: 1,547G (2.9%, 1,547G)
volgrathemoose: 1,501G (2.8%, 8,321G)
I_nod_my_head_when_I_lose: 1,000G (1.9%, 34,170G)
mpghappiness: 1,000G (1.9%, 2,551G)
BirbBrainsBot: 1,000G (1.9%, 53,546G)
datadrivenbot: 883G (1.7%, 25,115G)
Bulleta: 735G (1.4%, 735G)
PlatinumPlume: 654G (1.2%, 18,703G)
Lanshaft: 600G (1.1%, 600G)
HASTERIOUS: 588G (1.1%, 588G)
Dustmasc: 584G (1.1%, 584G)
pandasforsale: 480G (0.9%, 480G)
luminarii: 456G (0.9%, 12,748G)
ZephyrTempest: 377G (0.7%, 47,959G)
RunicMagus: 316G (0.6%, 316G)
TheGuesty: 300G (0.6%, 2,100G)
JoeykinsGaming: 256G (0.5%, 256G)
BlinkFS: 240G (0.5%, 240G)
ungabunga_bot: 122G (0.2%, 95,626G)
RughSontos: 100G (0.2%, 2,852G)
IndecisiveNinja: 100G (0.2%, 3,050G)
ko2q: 5G (0.0%, 3,447G)
