Final Bets: white - 27 bets for 15,282G (75.2%, x0.33); black - 9 bets for 5,053G (24.8%, x3.02)

white bets:
DustBirdEX: 1,479G (9.7%, 9,862G)
latebit: 1,300G (8.5%, 18,383G)
nifboy: 1,213G (7.9%, 1,213G)
Forkmore: 1,213G (7.9%, 1,213G)
TheDali23: 1,105G (7.2%, 1,105G)
BirbBrainsBot: 1,000G (6.5%, 66,629G)
Sairentozon7: 1,000G (6.5%, 79,338G)
getthemoneyz: 928G (6.1%, 1,618,394G)
Mesmaster: 828G (5.4%, 828G)
killth3kid: 692G (4.5%, 39,697G)
Aldrammech: 664G (4.3%, 664G)
E_Ballard: 588G (3.8%, 4,337G)
LDSkinny: 573G (3.7%, 573G)
AllInBot: 514G (3.4%, 514G)
silverChangeling: 412G (2.7%, 8,248G)
coralreeferz: 300G (2.0%, 300G)
xBizzy: 236G (1.5%, 483G)
zenlion: 228G (1.5%, 12,292G)
Chuckolator: 223G (1.5%, 936G)
datadrivenbot: 200G (1.3%, 63,080G)
ANFz: 101G (0.7%, 11,584G)
gorgewall: 101G (0.7%, 5,736G)
timthehoodie: 100G (0.7%, 2,312G)
HolyDragoonXIV: 100G (0.7%, 2,856G)
northkoreancleetus: 100G (0.7%, 4,262G)
Rikrizen: 83G (0.5%, 8,381G)
SephDarkheart: 1G (0.0%, 102,728G)

black bets:
DejaPoo21: 1,000G (19.8%, 12,129G)
amiture: 1,000G (19.8%, 8,964G)
ko2q: 877G (17.4%, 877G)
thaetreis: 600G (11.9%, 52,345G)
Strifu: 596G (11.8%, 1,169G)
Lanshaft: 580G (11.5%, 11,501G)
porkbacon: 200G (4.0%, 4,932G)
MinBetBot: 100G (2.0%, 3,937G)
resjudicata3: 100G (2.0%, 907G)
