Final Bets: white - 22 bets for 13,581G (67.2%, x0.49); purple - 14 bets for 6,638G (32.8%, x2.05)

white bets:
Zeroroute: 2,794G (20.6%, 2,794G)
loveyouallfriends: 2,000G (14.7%, 46,643G)
DustBirdEX: 1,185G (8.7%, 11,850G)
Thyrandaal: 1,000G (7.4%, 249,758G)
Virilikus: 1,000G (7.4%, 227,072G)
resjudicata3: 868G (6.4%, 868G)
Lanshaft: 580G (4.3%, 10,921G)
AllInBot: 578G (4.3%, 578G)
timthehoodie: 500G (3.7%, 1,995G)
Forkmore: 472G (3.5%, 472G)
TheDali23: 368G (2.7%, 368G)
latebit: 320G (2.4%, 22,933G)
windsah: 300G (2.2%, 4,916G)
just_one_more_bet: 268G (2.0%, 268G)
xBizzy: 236G (1.7%, 434G)
zenlion: 228G (1.7%, 12,472G)
datadrivenbot: 200G (1.5%, 63,038G)
porkbacon: 200G (1.5%, 4,921G)
coralreeferz: 150G (1.1%, 868G)
northkoreancleetus: 150G (1.1%, 4,473G)
ANFz: 101G (0.7%, 11,516G)
Rikrizen: 83G (0.6%, 8,363G)

purple bets:
ColetteMSLP: 1,000G (15.1%, 26,231G)
Sairentozon7: 1,000G (15.1%, 82,021G)
blorpy_: 889G (13.4%, 11,117G)
BirbBrainsBot: 761G (11.5%, 69,291G)
SkylerBunny: 680G (10.2%, 680G)
LDSkinny: 540G (8.1%, 540G)
DaveStrider55: 500G (7.5%, 6,435G)
amiture: 500G (7.5%, 8,856G)
twelfthrootoftwo: 300G (4.5%, 634G)
Kysune: 104G (1.6%, 104G)
MinBetBot: 100G (1.5%, 3,783G)
CosmicTactician: 100G (1.5%, 12,120G)
ko2q: 100G (1.5%, 1,807G)
getthemoneyz: 64G (1.0%, 1,618,323G)
