Final Bets: white - 6 bets for 1,932G (10.7%, x8.38); black - 16 bets for 16,182G (89.3%, x0.12)

white bets:
nekojin: 696G (36.0%, 696G)
DeathTaxesAndAnime: 636G (32.9%, 636G)
sososteve: 300G (15.5%, 3,302G)
AllInBot: 100G (5.2%, 100G)
ko2q: 100G (5.2%, 15,303G)
fluffskull: 100G (5.2%, 750G)

black bets:
prince_rogers_nelson_: 5,000G (30.9%, 18,662G)
Mesmaster: 3,000G (18.5%, 75,825G)
WitchHunterIX: 2,000G (12.4%, 13,933G)
Zachara: 1,000G (6.2%, 107,500G)
BirbBrainsBot: 1,000G (6.2%, 38,086G)
twelfthrootoftwo: 1,000G (6.2%, 4,439G)
BoneMiser: 929G (5.7%, 8,453G)
reinoe: 792G (4.9%, 792G)
DuraiPapers: 342G (2.1%, 342G)
red_celt: 272G (1.7%, 272G)
genericco: 228G (1.4%, 228G)
porkchop5158: 200G (1.2%, 3,846G)
AltimaMantoid: 189G (1.2%, 589G)
Evewho: 100G (0.6%, 1,973G)
victoriolue: 100G (0.6%, 5,667G)
Umbrellaexile: 30G (0.2%, 1,030G)
