Final Bets: black - 14 bets for 9,489G (46.6%, x1.15); purple - 10 bets for 10,893G (53.4%, x0.87)

black bets:
Zerguzen: 2,000G (21.1%, 3,409G)
Lord_Gwarth: 1,527G (16.1%, 1,527G)
skillomono: 1,282G (13.5%, 2,564G)
getthemoneyz: 1,000G (10.5%, 2,025,720G)
Laserman1000: 969G (10.2%, 19,969G)
MemoriesofFinal: 547G (5.8%, 30,547G)
Orrfieldmedic: 500G (5.3%, 3,601G)
DanielRKnealeArt: 500G (5.3%, 3,954G)
ValensEXP_: 356G (3.8%, 356G)
AllInBot: 200G (2.1%, 200G)
datadrivenbot: 200G (2.1%, 71,481G)
Rhyser76: 200G (2.1%, 1,116G)
scsuperstar: 108G (1.1%, 108G)
maakur_: 100G (1.1%, 6,455G)

purple bets:
Shalloween: 4,126G (37.9%, 8,253G)
SeniorBunk: 1,991G (18.3%, 1,991G)
3ngag3: 1,374G (12.6%, 1,374G)
BirbBrainsBot: 1,000G (9.2%, 178,401G)
DarrenDinosaurs: 600G (5.5%, 600G)
VolgraTheMoose: 501G (4.6%, 14,743G)
Mushufasa_: 500G (4.6%, 67,922G)
Spartan_Paladin: 500G (4.6%, 4,001G)
PukingGoombas: 300G (2.8%, 3,855G)
latebit: 1G (0.0%, 6,833G)
