Final Bets: green - 22 bets for 14,776G (51.3%, x0.95); yellow - 13 bets for 14,000G (48.7%, x1.06)

green bets:
sinnyil2: 4,288G (29.0%, 8,577G)
toka222: 1,500G (10.2%, 126,687G)
KasugaiRoastedPeas: 1,156G (7.8%, 1,156G)
ShintaroNayaka: 1,000G (6.8%, 1,000G)
BirbBrainsBot: 1,000G (6.8%, 166,403G)
nhammen: 1,000G (6.8%, 27,069G)
UmaiJam: 600G (4.1%, 600G)
Zagorsek: 588G (4.0%, 588G)
letdowncity: 528G (3.6%, 27,389G)
HaateXIII: 500G (3.4%, 6,743G)
nekojin: 492G (3.3%, 13,384G)
getthemoneyz: 424G (2.9%, 1,661,880G)
WhiteTigress: 300G (2.0%, 2,528G)
Tarheels218: 300G (2.0%, 1,511G)
Rytor: 200G (1.4%, 2,737G)
datadrivenbot: 200G (1.4%, 67,106G)
TheUnforgivenRage: 200G (1.4%, 7,957G)
Raixelol: 100G (0.7%, 4,117G)
Tougou: 100G (0.7%, 4,110G)
ko2q: 100G (0.7%, 1,028G)
AtmaDragoon: 100G (0.7%, 233G)
Treafa: 100G (0.7%, 2,874G)

yellow bets:
dogsandcatsand: 3,913G (28.0%, 7,674G)
reinoe: 3,000G (21.4%, 234,558G)
douchetron: 2,040G (14.6%, 2,040G)
timthehoodie: 1,000G (7.1%, 1,722G)
Shalloween: 1,000G (7.1%, 12,740G)
DeathTaxesAndAnime: 812G (5.8%, 812G)
Laserman1000: 633G (4.5%, 3,233G)
PuzzleSecretary: 502G (3.6%, 502G)
cho_pin: 500G (3.6%, 7,292G)
UnparalleledDev: 300G (2.1%, 1,061G)
AllInBot: 100G (0.7%, 100G)
Valgram: 100G (0.7%, 1,798G)
wildetrys: 100G (0.7%, 850G)
