Player: !Black
Team: Black Team
Palettes: Black/Red



Oreo Pizza
Monster
Aquarius
61
79
Black Goblin










CapnChaos12
Monster
Scorpio
76
77
Gobbledeguck










EnemyController
Monster
Pisces
47
57
Goblin










FoeSquirrel
Monster
Scorpio
66
65
Black Goblin







