Player: !Purple
Team: Purple Team
Palettes: Purple/Yellow



Laserman1000
Monster
Capricorn
52
74
Gobbledeguck










Megaman2202
Monster
Virgo
78
73
Goblin










Itszaane
Monster
Taurus
61
71
Black Goblin










Killth3kid
Monster
Aquarius
56
53
Black Goblin







