Player: !White
Team: White Team
Palettes: White/Blue



SSwing
Monster
Taurus
64
66
Black Goblin










Reinoe
Monster
Capricorn
68
72
Gobbledeguck










Phi Sig
Monster
Capricorn
62
77
Goblin










LeepingJJ
Monster
Serpentarius
56
74
Black Goblin







