Final Bets: blue - 16 bets for 8,378G (45.3%, x1.21); green - 16 bets for 10,128G (54.7%, x0.83)

blue bets:
Mesmaster: 2,000G (23.9%, 41,335G)
joewcarson: 1,084G (12.9%, 1,084G)
Rislyeu: 652G (7.8%, 652G)
volgrathemoose: 601G (7.2%, 1,203G)
ApplesauceBoss: 599G (7.1%, 599G)
killth3kid: 548G (6.5%, 8,888G)
Nizaha: 501G (6.0%, 8,811G)
EnemyController: 500G (6.0%, 242,097G)
TheUnforgivenRage: 500G (6.0%, 3,258G)
Jeeboheebo: 440G (5.3%, 440G)
SerumD: 300G (3.6%, 4,813G)
MalakiGenesys: 200G (2.4%, 1,607G)
aeonicvector: 153G (1.8%, 1,275G)
maakur_: 100G (1.2%, 3,587G)
GnielKnows: 100G (1.2%, 818G)
datadrivenbot: 100G (1.2%, 18,015G)

green bets:
Estan_AD: 3,244G (32.0%, 6,489G)
Setdevildog: 1,270G (12.5%, 1,270G)
BirbBrainsBot: 1,000G (9.9%, 70,706G)
Lionhermit: 1,000G (9.9%, 48,761G)
JumbocactuarX27: 952G (9.4%, 952G)
Theseawolf1: 500G (4.9%, 49,281G)
fenaen: 396G (3.9%, 396G)
Lali_Lulelo: 348G (3.4%, 348G)
SQUiDSQUARKLIN: 300G (3.0%, 4,413G)
CorpusCav: 300G (3.0%, 6,833G)
nifboy: 250G (2.5%, 7,233G)
ungabunga_bot: 188G (1.9%, 494,855G)
O_Heyno: 150G (1.5%, 2,072G)
E_Ballard: 100G (1.0%, 16,579G)
AUrato: 100G (1.0%, 3,920G)
getthemoneyz: 30G (0.3%, 675,691G)
