Final Bets: green - 15 bets for 6,710G (37.2%, x1.69); yellow - 16 bets for 11,321G (62.8%, x0.59)

green bets:
HaateXIII: 1,256G (18.7%, 1,256G)
TheChainNerd: 1,200G (17.9%, 1,200G)
pandasforsale: 999G (14.9%, 3,050G)
mpghappiness: 988G (14.7%, 988G)
Anasetsuken: 400G (6.0%, 4,997G)
evdoggity: 300G (4.5%, 26,564G)
letdowncity: 300G (4.5%, 18,243G)
Aldrammech: 263G (3.9%, 2,634G)
getthemoneyz: 242G (3.6%, 940,750G)
ZCKaiser: 239G (3.6%, 2,398G)
DustBirdEX: 123G (1.8%, 860G)
Quadh0nk: 100G (1.5%, 1,831G)
moocaotao: 100G (1.5%, 5,902G)
GrayGhostGaming: 100G (1.5%, 10,607G)
wafflereaper212: 100G (1.5%, 927G)

yellow bets:
cam_ATS: 3,456G (30.5%, 26,621G)
Breakdown777: 1,500G (13.2%, 60,439G)
YaBoy125: 1,052G (9.3%, 1,052G)
Thyrandaal: 1,031G (9.1%, 1,031G)
BirbBrainsBot: 1,000G (8.8%, 191,882G)
Rislyeu: 1,000G (8.8%, 60,150G)
Saouri: 600G (5.3%, 600G)
sukotsuto: 500G (4.4%, 17,629G)
fluffskull: 300G (2.6%, 740G)
DeadGirlzREasy: 180G (1.6%, 10,780G)
AllInBot: 151G (1.3%, 151G)
livvexx: 151G (1.3%, 151G)
CosmicTactician: 100G (0.9%, 2,991G)
Ring_Wyrm: 100G (0.9%, 3,178G)
Yiroep2: 100G (0.9%, 1,865G)
datadrivenbot: 100G (0.9%, 37,538G)
