Final Bets: purple - 13 bets for 5,512G (46.3%, x1.16); brown - 12 bets for 6,402G (53.7%, x0.86)

purple bets:
mpghappiness: 1,081G (19.6%, 1,081G)
Rislyeu: 1,000G (18.1%, 59,743G)
BirbBrainsBot: 999G (18.1%, 191,475G)
sukotsuto: 500G (9.1%, 18,532G)
Thyrandaal: 352G (6.4%, 352G)
getthemoneyz: 320G (5.8%, 940,172G)
letdowncity: 300G (5.4%, 17,647G)
Aldrammech: 266G (4.8%, 2,663G)
wafflereaper212: 200G (3.6%, 727G)
ZCKaiser: 194G (3.5%, 1,944G)
AllInBot: 100G (1.8%, 100G)
moocaotao: 100G (1.8%, 5,706G)
Quadh0nk: 100G (1.8%, 1,631G)

brown bets:
Breakdown777: 1,500G (23.4%, 63,150G)
roofiepops: 1,260G (19.7%, 1,260G)
Mosses76: 1,000G (15.6%, 33,334G)
HaateXIII: 756G (11.8%, 756G)
nifboy: 692G (10.8%, 692G)
DustBirdEX: 360G (5.6%, 360G)
cam_ATS: 234G (3.7%, 28,818G)
fluffskull: 200G (3.1%, 408G)
GrayGhostGaming: 100G (1.6%, 9,628G)
Ring_Wyrm: 100G (1.6%, 3,480G)
datadrivenbot: 100G (1.6%, 37,718G)
Yiroep2: 100G (1.6%, 1,824G)
