Final Bets: white - 22 bets for 9,377G (53.2%, x0.88); brown - 13 bets for 8,239G (46.8%, x1.14)

white bets:
Yiroep2: 1,810G (19.3%, 1,810G)
Breakdown777: 1,500G (16.0%, 65,438G)
Rislyeu: 1,000G (10.7%, 58,743G)
fluffskull: 966G (10.3%, 966G)
nifboy: 692G (7.4%, 692G)
Ring_Wyrm: 500G (5.3%, 3,636G)
Thyrandaal: 352G (3.8%, 352G)
cam_ATS: 345G (3.7%, 28,785G)
letdowncity: 300G (3.2%, 17,546G)
DustBirdEX: 300G (3.2%, 1,115G)
Aldrammech: 255G (2.7%, 2,556G)
KasugaiRoastedPeas: 200G (2.1%, 2,840G)
ZCKaiser: 186G (2.0%, 1,866G)
roofiepops: 147G (1.6%, 2,374G)
YaBoy125: 124G (1.3%, 1,676G)
AllInBot: 100G (1.1%, 100G)
Quadh0nk: 100G (1.1%, 1,597G)
CosmicTactician: 100G (1.1%, 2,850G)
DeathTaxesAndAnime: 100G (1.1%, 2,636G)
datadrivenbot: 100G (1.1%, 37,870G)
livvexx: 100G (1.1%, 598G)
serperemagus: 100G (1.1%, 5,647G)

brown bets:
HaateXIII: 2,346G (28.5%, 2,346G)
Baron_von_Scrub: 1,111G (13.5%, 44,798G)
BirbBrainsBot: 1,000G (12.1%, 189,476G)
TheChainNerd: 700G (8.5%, 700G)
Sairentozon7: 647G (7.9%, 647G)
EnemyController: 500G (6.1%, 577,747G)
sukotsuto: 500G (6.1%, 17,632G)
mpghappiness: 492G (6.0%, 492G)
Mosses76: 321G (3.9%, 34,261G)
DeadGirlzREasy: 250G (3.0%, 10,457G)
getthemoneyz: 172G (2.1%, 939,730G)
E_Ballard: 100G (1.2%, 5,651G)
wafflereaper212: 100G (1.2%, 427G)
