Final Bets: white - 19 bets for 10,317G (27.5%, x2.64); purple - 30 bets for 27,200G (72.5%, x0.38)

white bets:
SkylerBunny: 2,000G (19.4%, 511,780G)
Aldrammech: 1,910G (18.5%, 1,910G)
pplvee1: 1,000G (9.7%, 54,020G)
serperemagus: 991G (9.6%, 991G)
DLJuggernaut: 513G (5.0%, 513G)
killth3kid: 500G (4.8%, 3,324G)
Evewho: 500G (4.8%, 9,723G)
helpimabug: 436G (4.2%, 436G)
Seaweed_B: 400G (3.9%, 1,487G)
NightwolfXVI: 354G (3.4%, 354G)
joewcarson: 344G (3.3%, 344G)
ColetteMSLP: 300G (2.9%, 3,362G)
dem0nj0ns: 300G (2.9%, 2,739G)
KasugaiRoastedPeas: 200G (1.9%, 18,176G)
getthemoneyz: 188G (1.8%, 1,103,553G)
Lydian_C: 121G (1.2%, 179,228G)
ANFz: 100G (1.0%, 3,419G)
DaKoopa49: 94G (0.9%, 1,094G)
silentkaster: 66G (0.6%, 9,516G)

purple bets:
DuraiPapers: 3,427G (12.6%, 3,427G)
Hasterious: 3,025G (11.1%, 3,025G)
Thyrandaal: 2,575G (9.5%, 2,575G)
Baron_von_Scrub: 2,468G (9.1%, 20,236G)
red__lancer: 2,000G (7.4%, 106,891G)
cactus_tony_: 1,430G (5.3%, 1,430G)
Breakdown777: 1,228G (4.5%, 2,456G)
Lemonjohns: 1,161G (4.3%, 1,161G)
prince_rogers_nelson_: 1,055G (3.9%, 1,055G)
MagicBottle: 1,000G (3.7%, 4,194G)
BirbBrainsBot: 1,000G (3.7%, 109,526G)
roofiepops: 922G (3.4%, 922G)
n2ash: 724G (2.7%, 2,928G)
fluffskull: 708G (2.6%, 708G)
Yiroep2: 502G (1.8%, 502G)
Arcblazer23: 500G (1.8%, 9,813G)
Sans_from_Snowdin: 500G (1.8%, 15,529G)
Forkmore: 420G (1.5%, 3,764G)
sososteve: 400G (1.5%, 3,403G)
HaychDub: 350G (1.3%, 4,030G)
KyleWonToLiveForever: 316G (1.2%, 316G)
Magicandy: 300G (1.1%, 15,371G)
thewondertrickster: 292G (1.1%, 585G)
casteia: 200G (0.7%, 1,918G)
turbn: 197G (0.7%, 197G)
nhammen: 100G (0.4%, 4,915G)
Ring_Wyrm: 100G (0.4%, 1,508G)
maakur_: 100G (0.4%, 76,351G)
victoriolue: 100G (0.4%, 4,154G)
datadrivenbot: 100G (0.4%, 47,852G)
