Final Bets: white - 6 bets for 4,016G (29.0%, x2.44); black - 17 bets for 9,818G (71.0%, x0.41)

white bets:
WireLord: 1,000G (24.9%, 31,058G)
BirbBrainsBot: 1,000G (24.9%, 295,251G)
SeedSC: 1,000G (24.9%, 179,000G)
nifboy: 500G (12.5%, 6,987G)
JIDkomu: 416G (10.4%, 416G)
SaintOmerville: 100G (2.5%, 100G)

black bets:
kingchadking: 2,751G (28.0%, 2,751G)
HASTERIOUS: 1,314G (13.4%, 1,314G)
reinoe: 1,000G (10.2%, 15,572G)
CCRUNNER149UWP: 888G (9.0%, 2,791G)
sinnyil2: 508G (5.2%, 508G)
KasugaiRoastedPeas: 500G (5.1%, 15,974G)
wurstwaesserchen: 500G (5.1%, 11,371G)
BlinkFS: 445G (4.5%, 445G)
getthemoneyz: 398G (4.1%, 448,545G)
Part_Ways: 300G (3.1%, 1,763G)
ColetteMSLP: 300G (3.1%, 11,203G)
samtimemc: 260G (2.6%, 260G)
roqqqpsi: 222G (2.3%, 1,041G)
mayormcfunbags: 132G (1.3%, 132G)
AllInBot: 100G (1.0%, 100G)
Aneyus: 100G (1.0%, 9,895G)
jackkrause: 100G (1.0%, 1,392G)
