Final Bets: green - 26 bets for 14,461G (57.5%, x0.74); yellow - 17 bets for 10,668G (42.5%, x1.36)

green bets:
KabukiJake: 1,861G (12.9%, 1,861G)
HaplessOne: 1,234G (8.5%, 105,493G)
HaateXIII: 1,062G (7.3%, 1,062G)
skillomono: 1,000G (6.9%, 1,000G)
getthemoneyz: 1,000G (6.9%, 682,225G)
BirbBrainsBot: 1,000G (6.9%, 120,688G)
OneHundredFists: 996G (6.9%, 1,953G)
Strifu: 778G (5.4%, 1,527G)
killth3kid: 600G (4.1%, 5,979G)
Estan_AD: 595G (4.1%, 1,191G)
helpimabug: 500G (3.5%, 3,869G)
maakur_: 492G (3.4%, 492G)
CorpusCav: 414G (2.9%, 7,114G)
gorgewall: 412G (2.8%, 412G)
ANFz: 316G (2.2%, 316G)
sukotsuto: 300G (2.1%, 16,143G)
GladiatorLupe: 300G (2.1%, 8,692G)
Moshyhero: 300G (2.1%, 3,998G)
Inosukeanu: 250G (1.7%, 523G)
Arcblazer23: 227G (1.6%, 227G)
maleblackfiora: 224G (1.5%, 224G)
otakutaylor: 200G (1.4%, 4,003G)
Evewho: 100G (0.7%, 2,325G)
nekojin: 100G (0.7%, 100G)
datadrivenbot: 100G (0.7%, 18,114G)
Kyune: 100G (0.7%, 1,916G)

yellow bets:
sinnyil2: 3,142G (29.5%, 6,285G)
Meta_Five: 1,500G (14.1%, 10,111G)
Realitydown: 1,000G (9.4%, 1,864G)
argentbast: 1,000G (9.4%, 6,800G)
DaveStrider55: 540G (5.1%, 540G)
SkyridgeZero: 500G (4.7%, 18,101G)
tronfonne: 500G (4.7%, 6,894G)
King_Harb: 500G (4.7%, 2,397G)
benticore: 400G (3.7%, 4,178G)
FriendSquirrel: 332G (3.1%, 332G)
thethorndog1: 300G (2.8%, 7,121G)
Lolprinze: 228G (2.1%, 228G)
ungabunga_bot: 226G (2.1%, 508,607G)
KasugaiRoastedPeas: 200G (1.9%, 1,688G)
rjA0zcOQ96: 100G (0.9%, 2,019G)
StealthModeLocke: 100G (0.9%, 40,556G)
CosmicTactician: 100G (0.9%, 9,360G)
