Final Bets: white - 18 bets for 8,528G (37.8%, x1.65); brown - 22 bets for 14,052G (62.2%, x0.61)

white bets:
HaplessOne: 1,500G (17.6%, 102,259G)
ungabunga_bot: 1,000G (11.7%, 511,629G)
BirbBrainsBot: 1,000G (11.7%, 118,426G)
killth3kid: 600G (7.0%, 5,666G)
Dexsana: 600G (7.0%, 3,679G)
Lolprinze: 510G (6.0%, 510G)
King_Harb: 500G (5.9%, 2,783G)
reinoe: 500G (5.9%, 500G)
sukotsuto: 400G (4.7%, 16,259G)
nifboy: 372G (4.4%, 372G)
ANFz: 316G (3.7%, 316G)
Lawndough: 278G (3.3%, 278G)
Moshyhero: 250G (2.9%, 2,448G)
Meta_Five: 200G (2.3%, 13,035G)
getthemoneyz: 198G (2.3%, 682,092G)
neocarbuncle: 104G (1.2%, 104G)
Inosukeanu: 100G (1.2%, 100G)
Evewho: 100G (1.2%, 2,477G)

brown bets:
rjA0zcOQ96: 2,279G (16.2%, 2,279G)
Mesmaster: 2,000G (14.2%, 51,863G)
maakur_: 1,711G (12.2%, 1,711G)
helpimabug: 1,214G (8.6%, 2,428G)
tronfonne: 1,069G (7.6%, 8,733G)
elburritofuerte: 1,000G (7.1%, 6,329G)
Firesheath: 572G (4.1%, 572G)
JLinkletter: 500G (3.6%, 1,049G)
argentbast: 500G (3.6%, 9,133G)
Breakdown777: 500G (3.6%, 2,941G)
Strifu: 475G (3.4%, 933G)
HaateXIII: 432G (3.1%, 432G)
CorpusCav: 400G (2.8%, 7,200G)
otakutaylor: 300G (2.1%, 2,903G)
arbusTV: 300G (2.1%, 1,000G)
KabukiJake: 200G (1.4%, 200G)
StealthModeLocke: 100G (0.7%, 40,592G)
CosmicTactician: 100G (0.7%, 9,196G)
mannequ1n: 100G (0.7%, 7,248G)
Kyune: 100G (0.7%, 2,212G)
datadrivenbot: 100G (0.7%, 17,888G)
nekojin: 100G (0.7%, 100G)
