Final Bets: yellow - 21 bets for 14,020G (51.1%, x0.96); brown - 22 bets for 13,410G (48.9%, x1.05)

yellow bets:
maakur_: 2,749G (19.6%, 2,749G)
argentbast: 2,500G (17.8%, 9,436G)
Strifu: 1,221G (8.7%, 1,221G)
Mesmaster: 1,000G (7.1%, 53,077G)
Meta_Five: 800G (5.7%, 12,835G)
HaateXIII: 694G (5.0%, 694G)
killth3kid: 600G (4.3%, 5,066G)
Estan_AD: 556G (4.0%, 556G)
SkyridgeZero: 500G (3.6%, 19,267G)
King_Harb: 500G (3.6%, 2,283G)
Oobs56: 500G (3.6%, 3,122G)
sukotsuto: 400G (2.9%, 15,859G)
ungabunga_bot: 372G (2.7%, 510,629G)
Moshyhero: 350G (2.5%, 2,198G)
ANFz: 316G (2.3%, 316G)
thethorndog1: 300G (2.1%, 7,647G)
Lolprinze: 232G (1.7%, 232G)
KasugaiRoastedPeas: 200G (1.4%, 1,959G)
Lawndough: 124G (0.9%, 124G)
mannequ1n: 100G (0.7%, 7,309G)
getthemoneyz: 6G (0.0%, 681,894G)

brown bets:
tronfonne: 3,000G (22.4%, 9,382G)
helpimabug: 1,582G (11.8%, 3,165G)
elburritofuerte: 1,500G (11.2%, 6,936G)
Dexsana: 1,200G (8.9%, 3,079G)
BirbBrainsBot: 1,000G (7.5%, 117,426G)
DLJuggernaut: 999G (7.4%, 999G)
reinoe: 500G (3.7%, 500G)
Kyune: 500G (3.7%, 2,273G)
CorpusCav: 443G (3.3%, 7,443G)
YaBoy125: 400G (3.0%, 400G)
arbusTV: 400G (3.0%, 1,182G)
KabukiJake: 321G (2.4%, 321G)
twelfthrootoftwo: 300G (2.2%, 12,864G)
Breakdown777: 300G (2.2%, 3,248G)
JLinkletter: 200G (1.5%, 1,352G)
nekojin: 161G (1.2%, 161G)
neocarbuncle: 104G (0.8%, 104G)
Inosukeanu: 100G (0.7%, 100G)
skillomono: 100G (0.7%, 100G)
datadrivenbot: 100G (0.7%, 17,949G)
CosmicTactician: 100G (0.7%, 9,257G)
otakutaylor: 100G (0.7%, 3,085G)
