Final Bets: red - 14 bets for 12,039G (48.8%, x1.05); blue - 16 bets for 12,639G (51.2%, x0.95)

red bets:
Mesmaster: 5,000G (41.5%, 142,716G)
dogsandcatsand: 1,563G (13.0%, 1,563G)
RobotOcelot: 1,000G (8.3%, 22,550G)
ZombiFrancis: 877G (7.3%, 17,540G)
Zagorsek: 656G (5.4%, 656G)
silentkaster: 590G (4.9%, 590G)
Raixelol: 536G (4.5%, 536G)
DouglasDragonThePoet: 536G (4.5%, 1,072G)
krombobreaker: 531G (4.4%, 531G)
AllInBot: 266G (2.2%, 266G)
datadrivenbot: 200G (1.7%, 55,995G)
Verriand: 100G (0.8%, 100G)
formerlydrdong: 100G (0.8%, 1,961G)
BartTradingCompany: 84G (0.7%, 841G)

blue bets:
nekojin: 3,202G (25.3%, 6,279G)
Greggernaut: 3,000G (23.7%, 38,704G)
Lord_Gwarth: 1,122G (8.9%, 1,122G)
Firesheath: 1,120G (8.9%, 1,120G)
BirbBrainsBot: 1,000G (7.9%, 39,306G)
Zbgs: 1,000G (7.9%, 29,447G)
Laserman1000: 636G (5.0%, 3,236G)
getthemoneyz: 396G (3.1%, 1,853,707G)
ValensEXP_: 328G (2.6%, 328G)
Yangusburger: 236G (1.9%, 236G)
gorgewall: 101G (0.8%, 3,817G)
DeathTaxesAndAnime: 100G (0.8%, 8,436G)
nhammen: 100G (0.8%, 434,120G)
RubenFlonne: 100G (0.8%, 10,288G)
Sietaha: 100G (0.8%, 3,439G)
roqqqpsi: 98G (0.8%, 1,092G)
