Final Bets: white - 15 bets for 9,359G (66.7%, x0.50); black - 9 bets for 4,676G (33.3%, x2.00)

white bets:
HorusTaurus: 2,000G (21.4%, 11,661G)
Phytik: 1,000G (10.7%, 17,288G)
Mesmaster: 1,000G (10.7%, 53,483G)
BirbBrainsBot: 1,000G (10.7%, 154,976G)
getthemoneyz: 904G (9.7%, 608,698G)
ccordc: 873G (9.3%, 1,747G)
ungabunga_bot: 854G (9.1%, 291,323G)
aStatue: 600G (6.4%, 600G)
Rislyeu: 300G (3.2%, 779G)
FoxtrotNovemberCharlie: 284G (3.0%, 284G)
Zachara: 200G (2.1%, 43,800G)
datadrivenbot: 100G (1.1%, 11,495G)
jwchapm: 100G (1.1%, 820G)
CosmicTactician: 100G (1.1%, 10,333G)
belife42: 44G (0.5%, 444G)

black bets:
Shakarak: 1,200G (25.7%, 15,986G)
Dexsana: 1,000G (21.4%, 23,466G)
HaplessOne: 666G (14.2%, 11,830G)
Lydian_C: 600G (12.8%, 600G)
TheChainNerd: 376G (8.0%, 376G)
ko2q: 324G (6.9%, 324G)
mayormcfunbags: 260G (5.6%, 260G)
Estan_AD: 200G (4.3%, 1,206G)
DrAntiSocial: 50G (1.1%, 8,209G)
