Final Bets: red - 12 bets for 6,120G (21.1%, x3.73); blue - 20 bets for 22,848G (78.9%, x0.27)

red bets:
resjudicata3: 2,244G (36.7%, 2,244G)
HaateXIII: 1,882G (30.8%, 1,882G)
AllInBot: 468G (7.6%, 468G)
biske13: 324G (5.3%, 324G)
killth3kid: 250G (4.1%, 12,992G)
silentkaster: 250G (4.1%, 1,136G)
Leonidusx: 200G (3.3%, 37,811G)
MoonSugarFiend: 104G (1.7%, 104G)
BartTradingCompany: 100G (1.6%, 9,709G)
DZMaven: 100G (1.6%, 1,000G)
J_52: 100G (1.6%, 542G)
getthemoneyz: 98G (1.6%, 1,942,900G)

blue bets:
Smashy: 9,777G (42.8%, 19,554G)
VolgraTheMoose: 2,176G (9.5%, 2,176G)
old_overholt_: 2,000G (8.8%, 32,662G)
CorpusCav: 1,400G (6.1%, 25,017G)
roofiepops: 1,110G (4.9%, 1,110G)
OneHundredFists: 1,039G (4.5%, 1,039G)
DeathTaxesAndAnime: 1,001G (4.4%, 24,732G)
BirbBrainsBot: 1,000G (4.4%, 172,231G)
Nizaha: 836G (3.7%, 67,651G)
Willjin: 608G (2.7%, 608G)
krombobreaker: 500G (2.2%, 7,475G)
seppu777: 222G (1.0%, 12,749G)
Wonser: 206G (0.9%, 405G)
Lyner87: 200G (0.9%, 102,412G)
datadrivenbot: 200G (0.9%, 63,777G)
robespyah: 172G (0.8%, 172G)
gorgewall: 101G (0.4%, 6,164G)
nhammen: 100G (0.4%, 363,970G)
RunicMagus: 100G (0.4%, 13,854G)
BaronHaynes: 100G (0.4%, 20,687G)
