Final Bets: green - 13 bets for 6,759G (28.2%, x2.55); yellow - 17 bets for 17,203G (71.8%, x0.39)

green bets:
CorpusCav: 1,400G (20.7%, 25,392G)
Lythe_Caraker: 1,000G (14.8%, 158,716G)
silentkaster: 886G (13.1%, 886G)
resjudicata3: 584G (8.6%, 584G)
getthemoneyz: 560G (8.3%, 1,942,802G)
J2DaBibbles: 555G (8.2%, 555G)
BaronHaynes: 500G (7.4%, 20,714G)
biske13: 324G (4.8%, 324G)
killth3kid: 250G (3.7%, 12,742G)
Lyner87: 200G (3.0%, 102,466G)
roofiepops: 200G (3.0%, 1,407G)
Leonidusx: 200G (3.0%, 37,611G)
AllInBot: 100G (1.5%, 100G)

yellow bets:
Smashy: 11,086G (64.4%, 22,173G)
OneHundredFists: 1,317G (7.7%, 1,317G)
BirbBrainsBot: 1,000G (5.8%, 172,499G)
Nizaha: 836G (4.9%, 67,875G)
DavenIII: 632G (3.7%, 632G)
VolgraTheMoose: 501G (2.9%, 2,759G)
krombobreaker: 500G (2.9%, 7,609G)
robespyah: 218G (1.3%, 218G)
tripaplex: 200G (1.2%, 6,334G)
datadrivenbot: 200G (1.2%, 63,831G)
king_smashington: 108G (0.6%, 108G)
MoonSugarFiend: 104G (0.6%, 104G)
gorgewall: 101G (0.6%, 6,191G)
BartTradingCompany: 100G (0.6%, 9,609G)
nhammen: 100G (0.6%, 363,997G)
RunicMagus: 100G (0.6%, 13,881G)
DZMaven: 100G (0.6%, 900G)
