Final Bets: purple - 10 bets for 8,006G (42.1%, x1.38); brown - 14 bets for 11,016G (57.9%, x0.73)

purple bets:
DavenIII: 2,500G (31.2%, 76,742G)
AllInBot: 1,354G (16.9%, 1,354G)
JumbocactuarX27: 924G (11.5%, 924G)
WhiteTigress: 700G (8.7%, 1,608G)
douchetron: 600G (7.5%, 600G)
SephDarkheart: 600G (7.5%, 124,809G)
Bryon_W: 500G (6.2%, 12,294G)
getthemoneyz: 416G (5.2%, 1,700,859G)
reddwind_: 312G (3.9%, 704G)
IndecisiveNinja: 100G (1.2%, 5,912G)

brown bets:
nekojin: 2,960G (26.9%, 5,805G)
dogsandcatsand: 2,238G (20.3%, 4,389G)
mangowarfare: 1,000G (9.1%, 12,648G)
Sairentozon7: 1,000G (9.1%, 21,577G)
NovaKnight21: 1,000G (9.1%, 9,146G)
Forkmore: 580G (5.3%, 6,094G)
maximumcrit: 500G (4.5%, 2,377G)
Thyrandaal: 404G (3.7%, 404G)
CapnChaos12: 300G (2.7%, 1,246G)
CosmicTactician: 300G (2.7%, 32,013G)
BirbBrainsBot: 234G (2.1%, 101,963G)
datadrivenbot: 200G (1.8%, 63,313G)
gongonono: 150G (1.4%, 4,839G)
muffin_money: 150G (1.4%, 11,422G)
