Final Bets: green - 18 bets for 12,049G (47.6%, x1.10); yellow - 25 bets for 13,258G (52.4%, x0.91)

green bets:
Nizaha: 3,767G (31.3%, 7,534G)
DejaPoo21: 1,445G (12.0%, 1,445G)
JIDkomu: 1,425G (11.8%, 2,850G)
YaBoy125: 975G (8.1%, 975G)
Lordminsc: 700G (5.8%, 10,201G)
volgrathemoose: 548G (4.5%, 548G)
KingofTricksters: 500G (4.1%, 3,103G)
I_nod_my_head_when_I_lose: 500G (4.1%, 8,904G)
Vampire_Killer: 500G (4.1%, 7,975G)
EnemyController: 500G (4.1%, 32,750G)
Jordache7K: 333G (2.8%, 20,651G)
Aldrammech: 251G (2.1%, 2,514G)
Tithonus: 200G (1.7%, 14,172G)
ApplesauceBoss: 100G (0.8%, 5,668G)
lijarkh: 100G (0.8%, 1,341G)
datadrivenbot: 100G (0.8%, 25,242G)
rico_flex: 100G (0.8%, 1,879G)
ko2q: 5G (0.0%, 2,018G)

yellow bets:
maakur_: 2,876G (21.7%, 2,876G)
BirbBrainsBot: 1,000G (7.5%, 292,773G)
SeedSC: 1,000G (7.5%, 184,318G)
reinoe: 1,000G (7.5%, 9,749G)
LanseDM: 688G (5.2%, 688G)
Langrisser: 624G (4.7%, 624G)
Zeroroute: 600G (4.5%, 600G)
CapnChaos12: 500G (3.8%, 4,585G)
Shalloween: 500G (3.8%, 12,258G)
waterwatereverywhere: 482G (3.6%, 482G)
kingchadking: 464G (3.5%, 464G)
upvla: 423G (3.2%, 2,248G)
getthemoneyz: 414G (3.1%, 446,515G)
red_celt: 400G (3.0%, 10,176G)
Meanderandreturn: 400G (3.0%, 7,095G)
BlinkFS: 300G (2.3%, 6,552G)
b0shii: 275G (2.1%, 2,015G)
celbhar: 250G (1.9%, 1,760G)
ZephyrTempest: 250G (1.9%, 39,441G)
HEROScioN: 176G (1.3%, 176G)
byrdturbo: 169G (1.3%, 6,641G)
AllInBot: 163G (1.2%, 163G)
Jerboj: 104G (0.8%, 104G)
Lodrak: 100G (0.8%, 3,462G)
RughSontos: 100G (0.8%, 1,472G)
