Final Bets: red - 23 bets for 16,965G (52.7%, x0.90); yellow - 22 bets for 15,246G (47.3%, x1.11)

red bets:
Zeroroute: 2,281G (13.4%, 2,281G)
Aldrammech: 2,191G (12.9%, 2,191G)
Virilikus: 2,000G (11.8%, 59,984G)
Nizaha: 1,884G (11.1%, 1,884G)
Mtueni: 1,000G (5.9%, 106,447G)
BlinkFS: 1,000G (5.9%, 5,325G)
BirbBrainsBot: 1,000G (5.9%, 293,439G)
SeedSC: 1,000G (5.9%, 185,984G)
DejaPoo21: 633G (3.7%, 633G)
I_nod_my_head_when_I_lose: 500G (2.9%, 8,661G)
Vampire_Killer: 500G (2.9%, 7,433G)
DHaveWord: 360G (2.1%, 360G)
Baron_von_Scrub: 352G (2.1%, 352G)
Jerboj: 350G (2.1%, 350G)
Jordache7K: 333G (2.0%, 20,237G)
ZephyrTempest: 311G (1.8%, 39,499G)
CapnChaos12: 300G (1.8%, 4,739G)
EnemyController: 300G (1.8%, 33,023G)
Vyroxe: 220G (1.3%, 220G)
DrAntiSocial: 142G (0.8%, 2,537G)
HEROScioN: 108G (0.6%, 108G)
datadrivenbot: 100G (0.6%, 25,118G)
ApplesauceBoss: 100G (0.6%, 5,368G)

yellow bets:
HASTERIOUS: 4,731G (31.0%, 4,731G)
DeathTaxesAndAnime: 1,550G (10.2%, 3,050G)
upvla: 1,316G (8.6%, 1,316G)
LanseDM: 935G (6.1%, 935G)
Shalloween: 700G (4.6%, 11,591G)
Lanshaft: 600G (3.9%, 8,692G)
getthemoneyz: 550G (3.6%, 448,019G)
volgrathemoose: 548G (3.6%, 548G)
waterwatereverywhere: 527G (3.5%, 527G)
KingofTricksters: 500G (3.3%, 2,482G)
MrDiggs49: 500G (3.3%, 9,426G)
kingchadking: 464G (3.0%, 464G)
b0shii: 444G (2.9%, 1,865G)
lijarkh: 360G (2.4%, 360G)
Ant_ihistamine: 348G (2.3%, 348G)
Langrisser: 336G (2.2%, 1,540G)
Snowfats: 250G (1.6%, 3,528G)
AllInBot: 176G (1.2%, 176G)
byrdturbo: 111G (0.7%, 7,340G)
RughSontos: 100G (0.7%, 1,736G)
CannonballKuriboh: 100G (0.7%, 1,349G)
cougboi: 100G (0.7%, 3,988G)
