Final Bets: red - 13 bets for 4,285G (47.5%, x1.11); yellow - 9 bets for 4,739G (52.5%, x0.90)

red bets:
roqqqpsi: 1,118G (26.1%, 5,082G)
BirbBrainsBot: 632G (14.7%, 33,338G)
ColetteMSLP: 500G (11.7%, 23,437G)
alecttox: 500G (11.7%, 5,580G)
Dexsana: 500G (11.7%, 7,559G)
CassiePhoenix: 288G (6.7%, 288G)
FoxtrotNovemberCharlie: 148G (3.5%, 148G)
nuka1120: 104G (2.4%, 104G)
getthemoneyz: 102G (2.4%, 584,577G)
DrAntiSocial: 100G (2.3%, 23,007G)
datadrivenbot: 100G (2.3%, 2,730G)
twelfthrootoftwo: 100G (2.3%, 1,676G)
Jaritras: 93G (2.2%, 1,101G)

yellow bets:
aStatue: 1,222G (25.8%, 1,222G)
Lydian_C: 1,200G (25.3%, 51,342G)
Sovattaro: 1,000G (21.1%, 2,650G)
potgodtopdog: 444G (9.4%, 13,583G)
ungabunga_bot: 325G (6.9%, 275,749G)
Odin007_88: 232G (4.9%, 232G)
summmmmmmmmm: 112G (2.4%, 112G)
Reductions: 104G (2.2%, 104G)
HorusTaurus: 100G (2.1%, 573G)
