Final Bets: black - 6 bets for 1,612G (23.4%, x3.27); purple - 5 bets for 5,267G (76.6%, x0.31)

black bets:
Raixelol: 600G (37.2%, 5,586G)
Twisted_Nutsatchel: 250G (15.5%, 7,121G)
BirbBrainsBot: 218G (13.5%, 98,156G)
datadrivenbot: 200G (12.4%, 70,437G)
gingerfoo69: 200G (12.4%, 7,772G)
getthemoneyz: 144G (8.9%, 1,985,426G)

purple bets:
Chihuahua_Charity: 2,500G (47.5%, 19,496G)
NicoSavoy: 2,000G (38.0%, 124,439G)
DouglasDragonThePoet: 467G (8.9%, 1,868G)
AllInBot: 200G (3.8%, 200G)
MemoriesofFinal: 100G (1.9%, 31,812G)
