Final Bets: black - 19 bets for 13,077G (44.0%, x1.27); champion - 30 bets for 16,637G (56.0%, x0.79)

black bets:
MMagnetMan: 3,155G (24.1%, 3,155G)
sinnyil2: 2,290G (17.5%, 4,580G)
manc0_: 2,000G (15.3%, 36,972G)
electric_glass: 1,000G (7.6%, 10,821G)
holyonline: 1,000G (7.6%, 7,111G)
Laserman1000: 773G (5.9%, 15,173G)
Estan_AD: 576G (4.4%, 576G)
byrdturbo: 333G (2.5%, 16,241G)
FlohIristhrae: 300G (2.3%, 4,546G)
Oobs56: 250G (1.9%, 5,346G)
CrownOfHorns: 248G (1.9%, 248G)
tronfonne: 224G (1.7%, 224G)
itsZaes: 200G (1.5%, 200G)
KasugaiRoastedPeas: 200G (1.5%, 1,825G)
CandyTamer: 128G (1.0%, 1,843G)
rjA0zcOQ96: 100G (0.8%, 3,264G)
bluuuuuuuh: 100G (0.8%, 4,770G)
datadrivenbot: 100G (0.8%, 18,265G)
Evewho: 100G (0.8%, 1,520G)

champion bets:
HaplessOne: 1,780G (10.7%, 6,780G)
leakimiko: 1,500G (9.0%, 53,091G)
daget91: 1,119G (6.7%, 1,119G)
Berylcross: 1,083G (6.5%, 1,083G)
BirbBrainsBot: 1,000G (6.0%, 151,204G)
NicoSavoy: 1,000G (6.0%, 32,341G)
benticore: 800G (4.8%, 4,511G)
nekojin: 762G (4.6%, 762G)
alecttox: 661G (4.0%, 661G)
moocaotao: 603G (3.6%, 1,206G)
Firesheath: 584G (3.5%, 584G)
Drusic: 500G (3.0%, 5,315G)
vorap: 500G (3.0%, 58,366G)
reinoe: 500G (3.0%, 500G)
EnemyController: 500G (3.0%, 252,203G)
Lolprinze: 500G (3.0%, 2,500G)
jakeduhhsnake: 476G (2.9%, 476G)
CorpusCav: 400G (2.4%, 400G)
ungabunga_bot: 344G (2.1%, 531,391G)
IanTheWoodchuck: 336G (2.0%, 336G)
twelfthrootoftwo: 300G (1.8%, 15,556G)
nifboy: 250G (1.5%, 3,864G)
Zhies1337: 230G (1.4%, 230G)
AmaninAmide: 200G (1.2%, 4,950G)
ZZ_Yoshi: 180G (1.1%, 42,752G)
getthemoneyz: 152G (0.9%, 681,263G)
waterwatereverywhere: 100G (0.6%, 3,479G)
OneHundredFists: 100G (0.6%, 3,651G)
Heroebal: 100G (0.6%, 3,708G)
Ross_from_Cali: 77G (0.5%, 2,408G)
