Final Bets: green - 9 bets for 5,373G (26.4%, x2.78); yellow - 17 bets for 14,950G (73.6%, x0.36)

green bets:
nifboy: 1,000G (18.6%, 8,331G)
BirbBrainsBot: 1,000G (18.6%, 141,740G)
JumbocactuarX27: 1,000G (18.6%, 44,568G)
red__lancer: 1,000G (18.6%, 110,029G)
CassiePhoenix: 468G (8.7%, 468G)
Legitimized: 468G (8.7%, 468G)
kai_shee: 216G (4.0%, 216G)
Lydian_C: 121G (2.3%, 76,031G)
nebukin: 100G (1.9%, 534G)

yellow bets:
coralreeferz: 5,512G (36.9%, 11,024G)
sinnyil2: 1,837G (12.3%, 3,675G)
RaIshtar: 1,200G (8.0%, 67,011G)
Lord_Burrah: 1,027G (6.9%, 81,207G)
Zetchryn: 1,000G (6.7%, 8,225G)
NIghtdew14: 1,000G (6.7%, 13,554G)
DeathTaxesAndAnime: 874G (5.8%, 874G)
getthemoneyz: 812G (5.4%, 1,332,418G)
ShintaroNayaka: 400G (2.7%, 10,320G)
Xoomwaffle: 280G (1.9%, 280G)
AllInBot: 200G (1.3%, 200G)
datadrivenbot: 200G (1.3%, 33,346G)
Scurg: 200G (1.3%, 924G)
Dragon_RW: 108G (0.7%, 108G)
DHaveWord: 100G (0.7%, 5,288G)
nhammen: 100G (0.7%, 11,855G)
Bongomon7: 100G (0.7%, 10,736G)
