Final Bets: purple - 23 bets for 7,679G (41.3%, x1.42); brown - 26 bets for 10,934G (58.7%, x0.70)

purple bets:
Lodrak: 1,001G (13.0%, 4,828G)
DudeMonkey77: 1,000G (13.0%, 47,405G)
Dexef: 999G (13.0%, 6,879G)
Aldrammech: 659G (8.6%, 659G)
bad1dea: 600G (7.8%, 190,070G)
BirbBrainsBot: 568G (7.4%, 201,309G)
Axelrod: 328G (4.3%, 10,947G)
PetitFoulard: 233G (3.0%, 233G)
Maeveen: 200G (2.6%, 5,926G)
ELzukkor: 200G (2.6%, 5,457G)
gameman733: 200G (2.6%, 1,967G)
Arunic: 200G (2.6%, 3,654G)
rubenflonne: 200G (2.6%, 3,900G)
Oshimi12: 200G (2.6%, 3,223G)
ZephyrTempest: 191G (2.5%, 7,662G)
CorpusCav: 156G (2.0%, 1,560G)
HRak050: 152G (2.0%, 152G)
MrDiggs49: 127G (1.7%, 127G)
Jordache7K: 111G (1.4%, 14,233G)
Jeardra: 104G (1.4%, 104G)
inquisitor_kadan: 100G (1.3%, 100G)
AlenaZarek: 100G (1.3%, 13,196G)
silentperogy: 50G (0.7%, 5,902G)

brown bets:
typicalfanboy: 1,098G (10.0%, 1,098G)
SeriousFaceFace: 1,000G (9.1%, 8,356G)
Winterharte: 1,000G (9.1%, 20,329G)
nifboy: 965G (8.8%, 965G)
TheChainNerd: 763G (7.0%, 763G)
getthemoneyz: 712G (6.5%, 355,469G)
Aeolus_000: 683G (6.2%, 683G)
red_celt: 625G (5.7%, 625G)
Lanshaft: 560G (5.1%, 17,976G)
fenaen: 542G (5.0%, 542G)
MoonSlayerRS: 531G (4.9%, 1,063G)
leakimiko: 493G (4.5%, 9,868G)
roofiepops: 312G (2.9%, 312G)
Lazerkick: 300G (2.7%, 12,811G)
killth3kid: 224G (2.0%, 6,362G)
KasugaiRoastedPeas: 200G (1.8%, 30,899G)
wackyzachyy: 104G (1.0%, 104G)
ungabunga_bot: 100G (0.9%, 1,431G)
WillFitzgerald: 100G (0.9%, 2,410G)
maakur_: 100G (0.9%, 56,523G)
Nizaha: 100G (0.9%, 5,367G)
denamda: 100G (0.9%, 17,968G)
datadrivenbot: 100G (0.9%, 13,216G)
Zagorsek: 100G (0.9%, 278,851G)
sean004: 100G (0.9%, 1,733G)
roqqqpsi: 22G (0.2%, 694G)
