Final Bets: white - 17 bets for 7,550G (45.8%, x1.18); purple - 7 bets for 8,940G (54.2%, x0.84)

white bets:
DeathTaxesAndAnime: 1,227G (16.3%, 1,227G)
EnemyController: 1,111G (14.7%, 1,802,775G)
BirbBrainsBot: 1,000G (13.2%, 101,855G)
getthemoneyz: 564G (7.5%, 2,176,678G)
seppu777: 555G (7.4%, 1,490G)
Mushufasa_: 500G (6.6%, 8,500G)
technominari: 500G (6.6%, 81,499G)
Lolthsmeat: 340G (4.5%, 340G)
resjudicata3: 300G (4.0%, 10,105G)
Rune339: 272G (3.6%, 272G)
scsuperstar: 268G (3.5%, 268G)
AllInBot: 200G (2.6%, 200G)
ValensEXP_: 200G (2.6%, 5,550G)
datadrivenbot: 200G (2.6%, 88,375G)
FuzzyTigers: 112G (1.5%, 112G)
gorgewall: 101G (1.3%, 7,011G)
Sharosa: 100G (1.3%, 2,487G)

purple bets:
CorpusCav: 4,000G (44.7%, 74,085G)
Arcblazer23: 2,396G (26.8%, 2,396G)
QuestMoreLand: 1,068G (11.9%, 2,137G)
NicoSavoy: 568G (6.4%, 568G)
Deathmaker06: 500G (5.6%, 37,402G)
J2Reed: 208G (2.3%, 208G)
Evewho: 200G (2.2%, 12,194G)
