Final Bets: white - 18 bets for 11,449G (56.9%, x0.76); black - 20 bets for 8,662G (43.1%, x1.32)

white bets:
urieltheflameofgod: 2,000G (17.5%, 35,803G)
kai_shee: 2,000G (17.5%, 152,360G)
Shalloween: 1,200G (10.5%, 46,879G)
BirbBrainsBot: 1,000G (8.7%, 132,230G)
JumbocactuarX27: 1,000G (8.7%, 8,314G)
HaateXIII: 750G (6.6%, 13,691G)
bakchormee777: 536G (4.7%, 536G)
joewcarson: 500G (4.4%, 2,656G)
reinoe: 500G (4.4%, 9,219G)
BroHamma: 500G (4.4%, 6,526G)
leakimiko: 352G (3.1%, 352G)
TheChainNerd: 324G (2.8%, 324G)
nifboy: 198G (1.7%, 4,953G)
carsenhk: 150G (1.3%, 6,986G)
Sentwist: 150G (1.3%, 1,140G)
AllInBot: 100G (0.9%, 100G)
mexskacin: 100G (0.9%, 6,433G)
portmanteur: 89G (0.8%, 1,790G)

black bets:
roofiepops: 1,600G (18.5%, 9,813G)
DavenIII: 1,074G (12.4%, 1,074G)
Pie108: 1,000G (11.5%, 73,497G)
Laserman1000: 860G (9.9%, 32,560G)
getthemoneyz: 698G (8.1%, 553,227G)
VySaika: 500G (5.8%, 14,403G)
Creggers: 485G (5.6%, 485G)
Estan_AD: 322G (3.7%, 322G)
WoooBlaaa: 316G (3.6%, 316G)
MynenARS: 296G (3.4%, 296G)
sukotsuto: 277G (3.2%, 277G)
regios91: 232G (2.7%, 232G)
old_overholt_: 200G (2.3%, 3,884G)
ItsMyCoolName: 200G (2.3%, 3,332G)
marin1987: 120G (1.4%, 120G)
SQUiDSQUARKLIN: 116G (1.3%, 116G)
brenogarwin: 116G (1.3%, 116G)
RunicMagus: 100G (1.2%, 31,665G)
Sans_from_Snowdin: 100G (1.2%, 1,806G)
b0shii: 50G (0.6%, 5,479G)
