Final Bets: purple - 17 bets for 9,806G (43.8%, x1.28); champion - 21 bets for 12,592G (56.2%, x0.78)

purple bets:
killth3kid: 2,000G (20.4%, 38,288G)
JoeykinsGaming: 1,398G (14.3%, 13,982G)
ungabunga_bot: 1,000G (10.2%, 352,774G)
BirbBrainsBot: 1,000G (10.2%, 47,561G)
Mesmaster: 1,000G (10.2%, 72,513G)
RoboticNomad: 500G (5.1%, 6,887G)
proper__noun__: 500G (5.1%, 8,101G)
luminarii: 500G (5.1%, 11,772G)
CorpusCav: 476G (4.9%, 32,780G)
MrDiggs49: 280G (2.9%, 280G)
FNCardascia_: 224G (2.3%, 224G)
benticore: 220G (2.2%, 220G)
KasugaiRoastedPeas: 200G (2.0%, 4,162G)
Snoopiku: 200G (2.0%, 2,534G)
awokenshard: 108G (1.1%, 108G)
jwchapm: 100G (1.0%, 371G)
RestIessNight: 100G (1.0%, 1,306G)

champion bets:
sinnyil2: 3,933G (31.2%, 7,866G)
Shakarak: 1,200G (9.5%, 6,607G)
EnemyController: 1,000G (7.9%, 185,298G)
Grimmace45: 934G (7.4%, 12,934G)
vorap: 800G (6.4%, 29,080G)
DeathTaxesAndAnime: 736G (5.8%, 736G)
nifboy: 500G (4.0%, 9,148G)
CapnChaos12: 500G (4.0%, 49,721G)
amiture: 500G (4.0%, 9,151G)
carsenhk: 500G (4.0%, 14,894G)
Jeeboheebo: 404G (3.2%, 404G)
Rislyeu: 400G (3.2%, 12,197G)
alphara2: 400G (3.2%, 1,458G)
getthemoneyz: 120G (1.0%, 626,477G)
maakur_: 100G (0.8%, 125,804G)
Firesheath: 100G (0.8%, 13,671G)
FriendSquirrel: 100G (0.8%, 29,572G)
datadrivenbot: 100G (0.8%, 12,167G)
Kyune: 100G (0.8%, 2,093G)
Eyepoor_: 100G (0.8%, 4,243G)
ZephyrTempest: 65G (0.5%, 1,304G)
