Final Bets: purple - 31 bets for 27,929G (75.6%, x0.32); brown - 15 bets for 9,019G (24.4%, x3.10)

purple bets:
LASERJESUS1337: 5,000G (17.9%, 80,083G)
jicchi: 4,702G (16.8%, 4,702G)
NicoSavoy: 2,701G (9.7%, 2,701G)
nifboy: 1,888G (6.8%, 1,888G)
FNCardascia_: 1,471G (5.3%, 2,943G)
CorpusCav: 1,162G (4.2%, 7,470G)
volgrathemoose: 1,001G (3.6%, 8,139G)
BirbBrainsBot: 1,000G (3.6%, 128,420G)
twelfthrootoftwo: 1,000G (3.6%, 1,252G)
HaateXIII: 919G (3.3%, 919G)
blastty: 881G (3.2%, 1,728G)
getthemoneyz: 750G (2.7%, 647,653G)
Miyokari: 600G (2.1%, 1,208G)
carsenhk: 599G (2.1%, 20,707G)
CapnChaos12: 500G (1.8%, 53,046G)
ZephyrTempest: 456G (1.6%, 1,090G)
potgodtopdog: 444G (1.6%, 14,867G)
maakur_: 404G (1.4%, 404G)
YaBoy125: 368G (1.3%, 368G)
Theseawolf1: 340G (1.2%, 340G)
RestIessNight: 300G (1.1%, 1,284G)
marin1987: 285G (1.0%, 285G)
Kyune: 250G (0.9%, 3,755G)
LivingHitokiri: 200G (0.7%, 7,716G)
LKHetzel: 108G (0.4%, 108G)
Tougou: 100G (0.4%, 9,818G)
CosmicTactician: 100G (0.4%, 17,694G)
pstud: 100G (0.4%, 1,087G)
SuicideKing_XIX: 100G (0.4%, 800G)
bahamutlagooon: 100G (0.4%, 1,449G)
datadrivenbot: 100G (0.4%, 14,255G)

brown bets:
SkylerBunny: 3,000G (33.3%, 53,805G)
theNGUYENNER: 1,000G (11.1%, 1,702G)
Mesmaster: 1,000G (11.1%, 50,884G)
HaplessOne: 666G (7.4%, 36,077G)
ungabunga_bot: 621G (6.9%, 426,049G)
Evewho: 528G (5.9%, 528G)
EnemyController: 500G (5.5%, 213,256G)
moonliquor: 500G (5.5%, 9,816G)
pandasforsale: 333G (3.7%, 25,595G)
DustBirdEX: 321G (3.6%, 3,352G)
rico_flex: 150G (1.7%, 38,987G)
benticore: 100G (1.1%, 5,607G)
SirCherish: 100G (1.1%, 3,760G)
cupholderr: 100G (1.1%, 1,309G)
mannequ1n: 100G (1.1%, 3,729G)
