Final Bets: blue - 21 bets for 10,262G (57.8%, x0.73); yellow - 20 bets for 7,480G (42.2%, x1.37)

blue bets:
BenYuPoker: 1,933G (18.8%, 3,867G)
Treapvort: 1,360G (13.3%, 1,360G)
catfashions: 1,000G (9.7%, 4,875G)
friendsquirrel: 961G (9.4%, 9,349G)
MoonSlayerRS: 908G (8.8%, 908G)
joewcarson: 636G (6.2%, 636G)
waterwatereverywhere: 552G (5.4%, 1,084G)
DavenIII: 500G (4.9%, 22,317G)
z32o: 500G (4.9%, 3,447G)
ShintaroNayaka: 300G (2.9%, 6,671G)
UmaiJam: 216G (2.1%, 2,164G)
AllInBot: 206G (2.0%, 206G)
SomeCallMeGON: 200G (1.9%, 10,498G)
JumbocactuarX27: 200G (1.9%, 2,226G)
Maeveen: 135G (1.3%, 1,883G)
ungabunga_bot: 123G (1.2%, 84,431G)
DrAntiSocial: 120G (1.2%, 1,212G)
mexskacin: 112G (1.1%, 112G)
MeleeWizard: 100G (1.0%, 1,998G)
jethrothrul: 100G (1.0%, 3,624G)
red_celt: 100G (1.0%, 10,603G)

yellow bets:
SkylerBunny: 2,423G (32.4%, 4,847G)
DeathTaxesAndAnime: 871G (11.6%, 871G)
Baron_von_Scrub: 844G (11.3%, 844G)
TheChainNerd: 544G (7.3%, 544G)
kekkerscrew: 500G (6.7%, 3,822G)
MagicBottle: 500G (6.7%, 5,562G)
gikokiko: 300G (4.0%, 4,506G)
red__lancer: 300G (4.0%, 23,634G)
ZephyrTempest: 205G (2.7%, 36,047G)
ScarletSpiderBen: 200G (2.7%, 2,273G)
ThePineappleSalesman: 200G (2.7%, 2,965G)
getthemoneyz: 126G (1.7%, 445,095G)
HeroponThrawn: 112G (1.5%, 112G)
tmo50x: 107G (1.4%, 1,072G)
datadrivenbot: 100G (1.3%, 25,575G)
CidDurai: 100G (1.3%, 3,323G)
BirbBrainsBot: 31G (0.4%, 275,487G)
WinnerBit: 10G (0.1%, 3,262G)
ko2q: 5G (0.1%, 2,347G)
daveb_: 2G (0.0%, 1,568G)
