Final Bets: green - 19 bets for 12,319G (63.6%, x0.57); yellow - 13 bets for 7,062G (36.4%, x1.74)

green bets:
proper__noun__: 2,208G (17.9%, 11,043G)
Lionhermit: 1,500G (12.2%, 14,654G)
TheRedMelody: 1,283G (10.4%, 1,283G)
ungabunga_bot: 1,000G (8.1%, 372,447G)
BirbBrainsBot: 1,000G (8.1%, 73,971G)
Grimmace45: 964G (7.8%, 9,640G)
Nova_riety: 780G (6.3%, 780G)
HaplessOne: 777G (6.3%, 16,951G)
Rislyeu: 600G (4.9%, 600G)
ZephyrTempest: 456G (3.7%, 2,881G)
getthemoneyz: 416G (3.4%, 635,826G)
WrathfulRemy: 300G (2.4%, 1,954G)
dogsandcatsand: 220G (1.8%, 220G)
sukotsuto: 200G (1.6%, 1,629G)
caprinovoa: 200G (1.6%, 1,209G)
bahamutlagooon: 115G (0.9%, 273G)
FriendSquirrel: 100G (0.8%, 31,442G)
maakur_: 100G (0.8%, 125,080G)
brokenknight201: 100G (0.8%, 483G)

yellow bets:
killth3kid: 2,000G (28.3%, 88,658G)
DeathTaxesAndAnime: 1,152G (16.3%, 1,152G)
Pie108: 1,000G (14.2%, 136,926G)
Phi_Sig: 555G (7.9%, 141,205G)
NovaKnight21: 460G (6.5%, 460G)
ShintaroNayaka: 400G (5.7%, 9,300G)
Cryptopsy70: 392G (5.6%, 22,814G)
Squatting_Bear: 300G (4.2%, 2,092G)
alphara2: 253G (3.6%, 253G)
Kyune: 250G (3.5%, 5,129G)
Heroebal: 100G (1.4%, 6,722G)
mannequ1n: 100G (1.4%, 243G)
datadrivenbot: 100G (1.4%, 11,736G)
