Final Bets: purple - 25 bets for 22,826G (81.8%, x0.22); brown - 14 bets for 5,087G (18.2%, x4.49)

purple bets:
Nickyfive: 4,870G (21.3%, 9,740G)
Zeroroute: 3,018G (13.2%, 4,997G)
reinoe: 2,000G (8.8%, 17,153G)
Lord_Burrah: 1,400G (6.1%, 90,400G)
Ficklebeast: 1,000G (4.4%, 6,218G)
BirbBrainsBot: 1,000G (4.4%, 131,855G)
soapydragonfly: 1,000G (4.4%, 5,140G)
bad1dea: 1,000G (4.4%, 345,777G)
kai_shee: 1,000G (4.4%, 34,074G)
RongRongArts: 875G (3.8%, 875G)
Treapvort: 713G (3.1%, 713G)
Kennymillennium: 612G (2.7%, 612G)
nomoment: 608G (2.7%, 608G)
Lanshaft: 600G (2.6%, 600G)
CamelCash007: 570G (2.5%, 570G)
Laserman1000: 518G (2.3%, 5,918G)
HaplessOne: 500G (2.2%, 31,413G)
Rastanar: 445G (1.9%, 445G)
Aeolus_000: 300G (1.3%, 5,805G)
Firesheath: 296G (1.3%, 296G)
Club_Sodar: 200G (0.9%, 573G)
SeedSC: 100G (0.4%, 134,931G)
maakur_: 100G (0.4%, 6,560G)
datadrivenbot: 100G (0.4%, 14,582G)
daveb_: 1G (0.0%, 1,075G)

brown bets:
TheChainNerd: 1,000G (19.7%, 44,591G)
Lodrak: 744G (14.6%, 744G)
kingchadking: 627G (12.3%, 627G)
waterwatereverywhere: 400G (7.9%, 1,120G)
Cryptopsy70: 352G (6.9%, 811G)
DustBirdEX: 344G (6.8%, 344G)
SomeCallMeGON: 300G (5.9%, 1,590G)
Baron_von_Scrub: 300G (5.9%, 300G)
Pie108: 256G (5.0%, 256G)
joewcarson: 200G (3.9%, 4,234G)
yure1x: 200G (3.9%, 772G)
orlandu_lv: 136G (2.7%, 136G)
AllInBot: 132G (2.6%, 132G)
getthemoneyz: 96G (1.9%, 403,786G)
