Final Bets: black - 21 bets for 9,178G (45.6%, x1.19); brown - 18 bets for 10,940G (54.4%, x0.84)

black bets:
sinnyil2: 1,200G (13.1%, 62,722G)
BirbBrainsBot: 1,000G (10.9%, 129,855G)
bad1dea: 1,000G (10.9%, 343,777G)
kai_shee: 1,000G (10.9%, 32,074G)
Shalloween: 800G (8.7%, 60,174G)
Zeroroute: 500G (5.4%, 500G)
NovaKnight21: 484G (5.3%, 484G)
Treapvort: 464G (5.1%, 464G)
waterwatereverywhere: 400G (4.4%, 4,344G)
kingchadking: 372G (4.1%, 372G)
Aeolus_000: 300G (3.3%, 5,505G)
Firesheath: 296G (3.2%, 296G)
Pie108: 256G (2.8%, 1,320G)
orlandu_lv: 234G (2.5%, 1,461G)
silentperogy: 200G (2.2%, 6,022G)
getthemoneyz: 172G (1.9%, 404,175G)
soapydragonfly: 100G (1.1%, 100G)
lastly: 100G (1.1%, 1,112G)
datadrivenbot: 100G (1.1%, 14,382G)
LASERJESUS1337: 100G (1.1%, 68,136G)
yure1x: 100G (1.1%, 2,026G)

brown bets:
Lodrak: 2,041G (18.7%, 2,041G)
reinoe: 2,000G (18.3%, 15,153G)
ShintaroNayaka: 1,894G (17.3%, 1,894G)
Lord_Burrah: 1,000G (9.1%, 88,000G)
DustBirdEX: 888G (8.1%, 888G)
Lanshaft: 600G (5.5%, 600G)
RongRongArts: 520G (4.8%, 520G)
Laserman1000: 500G (4.6%, 5,400G)
ANFz: 384G (3.5%, 384G)
SomeCallMeGON: 300G (2.7%, 3,651G)
Club_Sodar: 212G (1.9%, 212G)
AllInBot: 100G (0.9%, 100G)
JumbocactuarX27: 100G (0.9%, 1,546G)
maakur_: 100G (0.9%, 6,360G)
SeedSC: 100G (0.9%, 134,731G)
SeriousFaceFace: 100G (0.9%, 1,582G)
GrayGhostGaming: 100G (0.9%, 647G)
daveb_: 1G (0.0%, 1,073G)
