Final Bets: blue - 13 bets for 12,617G (72.4%, x0.38); green - 13 bets for 4,805G (27.6%, x2.63)

blue bets:
Zeroroute: 2,991G (23.7%, 6,190G)
toka222: 2,500G (19.8%, 93,758G)
benticore: 2,128G (16.9%, 42,576G)
latebit: 1,000G (7.9%, 41,100G)
BirbBrainsBot: 1,000G (7.9%, 98,398G)
douchetron: 600G (4.8%, 600G)
E_Ballard: 600G (4.8%, 600G)
LDSkinny: 544G (4.3%, 544G)
HaateXIII: 500G (4.0%, 4,332G)
triniculo: 288G (2.3%, 288G)
Tarheels218: 244G (1.9%, 244G)
northkoreancleetus: 200G (1.6%, 839G)
getthemoneyz: 22G (0.2%, 1,622,890G)

green bets:
Nizaha: 740G (15.4%, 7,803G)
Laserman1000: 600G (12.5%, 12,500G)
ArrenJevleth: 600G (12.5%, 8,516G)
CosmicTactician: 500G (10.4%, 17,168G)
RunicMagus: 500G (10.4%, 5,289G)
DeathTaxesAndAnime: 450G (9.4%, 2,266G)
Smashy: 404G (8.4%, 7,929G)
butterbelljedi: 320G (6.7%, 320G)
JonnyCue: 260G (5.4%, 260G)
datadrivenbot: 200G (4.2%, 66,728G)
AllInBot: 150G (3.1%, 150G)
THE_REAL_SEADOG: 79G (1.6%, 2,591G)
PuzzleSecretary: 2G (0.0%, 111G)
