Final Bets: white - 11 bets for 5,565G (34.1%, x1.93); brown - 13 bets for 10,751G (65.9%, x0.52)

white bets:
DeathTaxesAndAnime: 1,138G (20.4%, 1,138G)
BirbBrainsBot: 1,000G (18.0%, 44,721G)
JonnyCue: 880G (15.8%, 880G)
DustBirdEX: 556G (10.0%, 556G)
latebit: 493G (8.9%, 493G)
actual_JP: 412G (7.4%, 412G)
Smashy: 372G (6.7%, 2,561G)
Lumberinjack: 300G (5.4%, 4,549G)
AllInBot: 200G (3.6%, 200G)
getthemoneyz: 114G (2.0%, 1,557,184G)
brenogarwin: 100G (1.8%, 1,102G)

brown bets:
acid_flashback: 2,500G (23.3%, 9,023G)
SkylerBunny: 2,300G (21.4%, 307,766G)
JumbocactuarX27: 1,000G (9.3%, 30,513G)
Nickyfive: 1,000G (9.3%, 7,059G)
Seaweed_B: 1,000G (9.3%, 65,139G)
Nizaha: 688G (6.4%, 20,304G)
DesertWooder: 600G (5.6%, 2,934G)
SephDarkheart: 488G (4.5%, 19,065G)
DavenIII: 410G (3.8%, 410G)
CapnChaos12: 300G (2.8%, 11,967G)
Pbjellytimez: 215G (2.0%, 215G)
holdenmagronik: 150G (1.4%, 2,966G)
DouglasDragonThePoet: 100G (0.9%, 1,908G)
