High Risers:
1. Thyrandaal: +4,049G
2. Latebit: +2,626G
3. Nicosavoy: +2,600G
4. Raixelol: +1,940G
5. Kasugairoastedpeas: +1,522G
6. Corpuscav: +1,290G
7. Heroebal: +1,192G
8. Chaorelance: +1,004G
9. Robotocelot: +1,000G
10. Grininda: +1,000G
11. Thunderducker: +941G
12. Sinnyil2: +900G
13. Puzzlesecretary: +858G
14. Chuckolator: +684G
15. Altimamantoid: +599G
16. Laserman1000: +558G
17. Whitetigress: +504G
18. Archknightx: +500G
19. Stealthmodelocke: +500G
20. Victoriolue: +500G
21. Aly327: +500G
22. Gut922: +500G
23. Sairentozon7: +500G
24. Go2sleeptv: +500G
25. Lemonjohns: +500G
26. Onehundredfists: +500G
27. Dem0nj0ns: +388G
28. Yangusburger: +380G
29. Enemycontroller: +300G
30. Ar_tactic: +300G
31. Reinoe: +160G
32. Seaweed_b: +104G
33. Hasterious: +100G
34. Sobid: +51G
35. Lijarkh: +37G
36. Lowlf: +8G
37. Segomod: -16G
38. Alcibiadeez: -26G
39. Treafa: -182G
40. Immortalmage: -192G
41. Oreo_pizza: -200G
42. Ct_5_holy: -300G
43. Upvla: -361G
44. Killth3kid: -423G
45. Memoriesoffinal: -444G
46. Sietaha: -683G
47. Reddwind_: -746G
48. Kronikle: -757G
49. Greggernaut: -1,000G
50. 3ngag3: -1,000G
51. Dcmoragn315: -1,000G
52. Holdenmagronik: -1,000G
53. Deathtaxesandanime: -1,116G
54. Runeseeker22: -1,232G
55. Turquoise_mage: -1,521G
56. Zpawz: -1,920G
57. Skylerbunny: -2,000G
58. Velvet_muffins: -2,237G
