Final Bets: purple - 7 bets for 1,659G (11.2%, x7.89); brown - 13 bets for 13,096G (88.8%, x0.13)

purple bets:
thunderducker: 455G (27.4%, 9,356G)
Sietaha: 400G (24.1%, 3,746G)
killth3kid: 250G (15.1%, 14,523G)
getthemoneyz: 234G (14.1%, 1,840,827G)
Segomod: 200G (12.1%, 7,626G)
DeathTaxesAndAnime: 100G (6.0%, 10,085G)
alcibiadeez: 20G (1.2%, 683G)

brown bets:
reinoe: 5,211G (39.8%, 5,211G)
velvet_muffins: 2,022G (15.4%, 2,022G)
Treafa: 1,004G (7.7%, 1,004G)
Kronikle: 1,000G (7.6%, 35,185G)
Thyrandaal: 1,000G (7.6%, 124,838G)
NicoSavoy: 1,000G (7.6%, 5,923G)
CorpusCav: 500G (3.8%, 15,752G)
Runeseeker22: 500G (3.8%, 4,566G)
MemoriesofFinal: 200G (1.5%, 5,544G)
datadrivenbot: 200G (1.5%, 55,742G)
BirbBrainsBot: 200G (1.5%, 200G)
PuzzleSecretary: 196G (1.5%, 196G)
BartTradingCompany: 63G (0.5%, 639G)
