Final Bets: white - 22 bets for 25,218G (77.8%, x0.29); black - 18 bets for 7,213G (22.2%, x3.50)

white bets:
dogsandcatsand: 7,777G (30.8%, 23,374G)
Virilikus: 4,000G (15.9%, 228,287G)
J2DaBibbles: 2,500G (9.9%, 9,721G)
Forkmore: 2,145G (8.5%, 4,207G)
ko2q: 1,348G (5.3%, 2,697G)
resjudicata3: 1,004G (4.0%, 1,004G)
Tarheels218: 1,000G (4.0%, 8,595G)
Nizaha: 736G (2.9%, 13,912G)
VolgraTheMoose: 720G (2.9%, 720G)
killth3kid: 700G (2.8%, 38,078G)
letdowncity: 524G (2.1%, 31,972G)
skillomono: 473G (1.9%, 946G)
Lydian_C: 388G (1.5%, 388G)
ribbiks: 300G (1.2%, 2,705G)
windsah: 259G (1.0%, 5,259G)
xBizzy: 244G (1.0%, 1,342G)
AllInBot: 200G (0.8%, 200G)
Starfire6789: 200G (0.8%, 1,733G)
datadrivenbot: 200G (0.8%, 64,884G)
Gunz232323: 200G (0.8%, 2,539G)
Twisted_Nutsatchel: 200G (0.8%, 16,077G)
Lyner87: 100G (0.4%, 90,284G)

black bets:
Thyrandaal: 2,000G (27.7%, 264,355G)
reinoe: 1,000G (13.9%, 161,133G)
BirbBrainsBot: 1,000G (13.9%, 85,234G)
Mesmaster: 416G (5.8%, 416G)
getthemoneyz: 378G (5.2%, 1,617,843G)
brokenknight201: 300G (4.2%, 16,510G)
koeeh: 300G (4.2%, 1,011G)
Raixelol: 288G (4.0%, 288G)
porkbacon: 250G (3.5%, 5,505G)
TrogdorTheMemeinator: 240G (3.3%, 240G)
WhiteTigress: 200G (2.8%, 2,287G)
Chuckolator: 200G (2.8%, 2,564G)
maddrave09: 140G (1.9%, 1,058G)
gorgewall: 101G (1.4%, 2,945G)
MinBetBot: 100G (1.4%, 4,881G)
DarrenDinosaurs: 100G (1.4%, 2,586G)
Valgram: 100G (1.4%, 379G)
CosmicTactician: 100G (1.4%, 19,709G)
