Final Bets: purple - 10 bets for 6,489G (46.9%, x1.13); brown - 13 bets for 7,340G (53.1%, x0.88)

purple bets:
sinnyil2: 2,500G (38.5%, 30,834G)
BirbBrainsBot: 1,000G (15.4%, 83,925G)
Alaquane: 645G (9.9%, 645G)
cactus_tony_: 500G (7.7%, 5,165G)
killth3kid: 480G (7.4%, 10,199G)
Zagorsek: 436G (6.7%, 436G)
JethroThrul: 328G (5.1%, 328G)
DeathTaxesAndAnime: 300G (4.6%, 2,215G)
Grandlanzer: 200G (3.1%, 10,319G)
grimm_noir: 100G (1.5%, 2,939G)

brown bets:
actual_JP: 1,938G (26.4%, 1,938G)
Nickyfive: 1,701G (23.2%, 3,402G)
evdoggity: 1,000G (13.6%, 64,274G)
Dasutin23: 1,000G (13.6%, 22,863G)
Magicandy: 400G (5.4%, 6,401G)
joewcarson: 300G (4.1%, 1,286G)
Flameatron: 300G (4.1%, 1,313G)
Nizaha: 201G (2.7%, 7,654G)
RunicMagus: 150G (2.0%, 38,511G)
nifboy: 100G (1.4%, 7,845G)
datadrivenbot: 100G (1.4%, 46,091G)
extinctrational: 100G (1.4%, 495G)
getthemoneyz: 50G (0.7%, 1,015,373G)
