Final Bets: green - 14 bets for 6,998G (39.5%, x1.53); champion - 13 bets for 10,711G (60.5%, x0.65)

green bets:
Nickyfive: 1,309G (18.7%, 2,619G)
BirbBrainsBot: 1,000G (14.3%, 82,991G)
Dasutin23: 1,000G (14.3%, 25,524G)
EizanTayama: 1,000G (14.3%, 7,769G)
Shalloween: 500G (7.1%, 68,146G)
joewcarson: 500G (7.1%, 3,640G)
killth3kid: 480G (6.9%, 10,786G)
Alaquane: 224G (3.2%, 224G)
Nizaha: 201G (2.9%, 8,167G)
JethroThrul: 200G (2.9%, 977G)
extinctrational: 200G (2.9%, 1,441G)
getthemoneyz: 184G (2.6%, 1,014,635G)
ApplesauceBoss: 100G (1.4%, 11,759G)
cactus_tony_: 100G (1.4%, 5,007G)

champion bets:
WalkerNash: 3,914G (36.5%, 39,149G)
reinoe: 2,000G (18.7%, 12,729G)
RunicMagus: 1,200G (11.2%, 38,994G)
Magicandy: 1,000G (9.3%, 6,455G)
RaIshtar: 794G (7.4%, 794G)
Laserman1000: 500G (4.7%, 10,700G)
coralreeferz: 500G (4.7%, 7,235G)
synra609: 200G (1.9%, 400G)
Evewho: 200G (1.9%, 6,678G)
Carledo: 103G (1.0%, 88,858G)
biffcake01: 100G (0.9%, 4,647G)
JumbocactuarX27: 100G (0.9%, 9,954G)
datadrivenbot: 100G (0.9%, 46,234G)
