Final Bets: white - 10 bets for 9,029G (43.5%, x1.30); black - 16 bets for 11,751G (56.5%, x0.77)

white bets:
Geffro1908: 2,833G (31.4%, 2,833G)
katsupdog: 1,412G (15.6%, 1,412G)
gorgewall: 1,303G (14.4%, 1,303G)
DeathTaxesAndAnime: 1,031G (11.4%, 1,031G)
Digitalsocrates: 1,000G (11.1%, 2,749G)
neerrm: 1,000G (11.1%, 3,707G)
7Cerulean7: 150G (1.7%, 6,071G)
nhammen: 100G (1.1%, 922G)
Spuzzmocker: 100G (1.1%, 143G)
s_o_b_e_q: 100G (1.1%, 4,628G)

black bets:
vorap: 2,500G (21.3%, 119,617G)
flowinprose: 2,000G (17.0%, 126,186G)
reinoe: 1,421G (12.1%, 1,421G)
CorpusCav: 1,010G (8.6%, 19,188G)
Rislyeu: 1,000G (8.5%, 15,956G)
getthemoneyz: 1,000G (8.5%, 801,368G)
Nohurty: 565G (4.8%, 1,130G)
NeoKevlar: 500G (4.3%, 1,700G)
OneHundredFists: 491G (4.2%, 491G)
KyleWonToLiveForever: 324G (2.8%, 324G)
BirbBrainsBot: 280G (2.4%, 171,407G)
gr8keeper: 200G (1.7%, 2,416G)
Angelomortis: 160G (1.4%, 427G)
Evewho: 100G (0.9%, 8,484G)
datadrivenbot: 100G (0.9%, 31,862G)
ivellioz: 100G (0.9%, 456G)
