Final Bets: red - 14 bets for 10,438G (45.4%, x1.20); green - 7 bets for 12,561G (54.6%, x0.83)

red bets:
DeathTaxesAndAnime: 2,876G (27.6%, 5,640G)
sinnyil2: 2,751G (26.4%, 5,502G)
gr8keeper: 1,216G (11.6%, 1,216G)
CorpusCav: 1,010G (9.7%, 18,178G)
katsupdog: 500G (4.8%, 3,250G)
Ross_from_Cali: 411G (3.9%, 4,598G)
Rislyeu: 400G (3.8%, 17,656G)
gorgewall: 301G (2.9%, 1,999G)
Nohurty: 283G (2.7%, 283G)
Evewho: 200G (1.9%, 8,654G)
ivellioz: 150G (1.4%, 256G)
DAC169: 140G (1.3%, 140G)
datadrivenbot: 100G (1.0%, 31,762G)
s_o_b_e_q: 100G (1.0%, 4,508G)

green bets:
flowinprose: 10,000G (79.6%, 122,186G)
BirbBrainsBot: 1,000G (8.0%, 171,127G)
sSwing: 517G (4.1%, 5,337G)
getthemoneyz: 516G (4.1%, 800,368G)
OneHundredFists: 320G (2.5%, 320G)
Geffro1908: 108G (0.9%, 108G)
Spuzzmocker: 100G (0.8%, 173G)
