Final Bets: yellow - 13 bets for 6,188G (33.1%, x2.02); champion - 15 bets for 12,492G (66.9%, x0.50)

yellow bets:
Zeroroute: 2,441G (39.4%, 7,664G)
BirbBrainsBot: 1,000G (16.2%, 106,165G)
JumbocactuarX27: 1,000G (16.2%, 3,617G)
TheChainNerd: 567G (9.2%, 7,390G)
benticore: 300G (4.8%, 3,299G)
getthemoneyz: 180G (2.9%, 989,153G)
Tougou: 100G (1.6%, 2,841G)
ApplesauceBoss: 100G (1.6%, 13,220G)
linkin1900: 100G (1.6%, 112G)
Gatsbysghost: 100G (1.6%, 100G)
maakur_: 100G (1.6%, 24,475G)
lastly: 100G (1.6%, 27,914G)
ericzubat: 100G (1.6%, 402G)

champion bets:
cam_ATS: 2,001G (16.0%, 22,426G)
DavenIII: 2,000G (16.0%, 19,311G)
mpghappiness: 1,385G (11.1%, 1,385G)
soren_of_tyto: 1,220G (9.8%, 1,220G)
Lydian_C: 1,200G (9.6%, 26,458G)
DuraiPapers: 1,148G (9.2%, 2,296G)
serperemagus: 1,000G (8.0%, 19,359G)
prince_rogers_nelson_: 826G (6.6%, 826G)
AltimaMantoid: 751G (6.0%, 751G)
pplvee1: 284G (2.3%, 284G)
Nizaha: 201G (1.6%, 12,226G)
josephiroth_143: 172G (1.4%, 172G)
Tacobowl8: 104G (0.8%, 104G)
Kellios11: 100G (0.8%, 9,250G)
CosmicTactician: 100G (0.8%, 6,381G)
