Final Bets: black - 15 bets for 7,960G (39.2%, x1.55); purple - 12 bets for 12,333G (60.8%, x0.65)

black bets:
g1nger4le: 2,435G (30.6%, 4,870G)
DeathTaxesAndAnime: 1,790G (22.5%, 1,790G)
Nizaha: 656G (8.2%, 25,323G)
helpimabug: 584G (7.3%, 584G)
Zagorsek: 544G (6.8%, 544G)
JonnyCue: 487G (6.1%, 487G)
DesertWooder: 302G (3.8%, 3,024G)
Hirameki85: 264G (3.3%, 16,370G)
TheArcanum: 209G (2.6%, 209G)
AllInBot: 200G (2.5%, 200G)
holdenmagronik: 150G (1.9%, 1,621G)
datadrivenbot: 100G (1.3%, 48,581G)
Firesheath: 100G (1.3%, 5,258G)
StrawbreeRed: 100G (1.3%, 735G)
dtrain332: 39G (0.5%, 3,952G)

purple bets:
dogsandcatsand: 5,000G (40.5%, 77,250G)
amiture: 2,000G (16.2%, 44,048G)
ColetteMSLP: 1,000G (8.1%, 16,964G)
BirbBrainsBot: 1,000G (8.1%, 186,312G)
lyans00: 1,000G (8.1%, 3,255G)
Shalloween: 1,000G (8.1%, 28,116G)
TasisSai: 500G (4.1%, 25,445G)
ZCKaiser: 348G (2.8%, 10,958G)
maximumcrit: 292G (2.4%, 292G)
TheseJeans: 100G (0.8%, 1,001G)
getthemoneyz: 54G (0.4%, 1,502,506G)
ArlanKels: 39G (0.3%, 1,966G)
