Final Bets: green - 13 bets for 6,464G (37.4%, x1.67); purple - 16 bets for 10,799G (62.6%, x0.60)

green bets:
ShanksMcShiv: 1,650G (25.5%, 1,650G)
BirbBrainsBot: 1,000G (15.5%, 186,957G)
dogsandcatsand: 1,000G (15.5%, 80,477G)
DeathTaxesAndAnime: 860G (13.3%, 860G)
TasisSai: 500G (7.7%, 25,768G)
RunicMagus: 464G (7.2%, 464G)
Shalloween: 300G (4.6%, 28,761G)
TheArcanum: 204G (3.2%, 204G)
getthemoneyz: 116G (1.8%, 1,502,541G)
EmmaEnema: 100G (1.5%, 5,421G)
JonnyCue: 100G (1.5%, 100G)
BaronHaynes: 100G (1.5%, 5,368G)
ArlanKels: 70G (1.1%, 1,991G)

purple bets:
g1nger4le: 2,435G (22.5%, 2,435G)
amiture: 2,000G (18.5%, 45,339G)
latebit: 1,093G (10.1%, 1,093G)
ColetteMSLP: 1,000G (9.3%, 17,609G)
Miku_Shikhu: 712G (6.6%, 712G)
helpimabug: 584G (5.4%, 584G)
DesertWooder: 544G (5.0%, 2,722G)
dtrain332: 500G (4.6%, 3,913G)
maximumcrit: 480G (4.4%, 480G)
lyans00: 400G (3.7%, 3,900G)
StrawbreeRed: 300G (2.8%, 635G)
AllInBot: 200G (1.9%, 200G)
datadrivenbot: 200G (1.9%, 48,481G)
holdenmagronik: 150G (1.4%, 1,471G)
gorgewall: 101G (0.9%, 7,105G)
daveb_: 100G (0.9%, 3,422G)
