Final Bets: black - 16 bets for 11,306G (55.1%, x0.81); brown - 16 bets for 9,203G (44.9%, x1.23)

black bets:
thefyeman: 3,000G (26.5%, 25,360G)
HaateXIII: 1,365G (12.1%, 1,365G)
megaman2202: 1,071G (9.5%, 2,142G)
lobsterlobster: 1,000G (8.8%, 7,362G)
metagameface: 900G (8.0%, 1,766G)
JumbocactuarX27: 528G (4.7%, 528G)
killth3kid: 500G (4.4%, 6,643G)
OmnibotGamma: 500G (4.4%, 22,934G)
TheChainNerd: 488G (4.3%, 488G)
thunderducker: 400G (3.5%, 2,258G)
bahamutlagooon: 372G (3.3%, 7,448G)
Miyokari: 350G (3.1%, 12,802G)
nifboy: 332G (2.9%, 332G)
CapnChaos12: 300G (2.7%, 2,931G)
datadrivenbot: 100G (0.9%, 15,275G)
Sairentozon7: 100G (0.9%, 876G)

brown bets:
ungabunga_bot: 1,000G (10.9%, 483,388G)
BirbBrainsBot: 1,000G (10.9%, 25,602G)
E_Ballard: 1,000G (10.9%, 6,795G)
Lionhermit: 1,000G (10.9%, 54,105G)
DavenIII: 1,000G (10.9%, 31,327G)
Estan_AD: 848G (9.2%, 1,696G)
Rislyeu: 500G (5.4%, 3,526G)
EnemyController: 500G (5.4%, 229,276G)
CorpusCav: 467G (5.1%, 17,815G)
maakur_: 452G (4.9%, 452G)
joewcarson: 432G (4.7%, 432G)
coralreeferz: 348G (3.8%, 348G)
getthemoneyz: 256G (2.8%, 671,924G)
KasugaiRoastedPeas: 200G (2.2%, 2,613G)
benticore: 100G (1.1%, 2,331G)
CosmicTactician: 100G (1.1%, 8,765G)
