Final Bets: red - 17 bets for 10,599G (42.7%, x1.34); white - 17 bets for 14,232G (57.3%, x0.74)

red bets:
prince_rogers_nelson_: 2,945G (27.8%, 5,891G)
DuraiPapers: 1,004G (9.5%, 2,008G)
TeaTime29: 1,000G (9.4%, 14,661G)
JumbocactuarX27: 1,000G (9.4%, 3,309G)
DusterW: 980G (9.2%, 980G)
Cryptopsy70: 556G (5.2%, 20,651G)
Anasetsuken: 500G (4.7%, 18,055G)
HaateXIII: 500G (4.7%, 2,639G)
killth3kid: 450G (4.2%, 7,010G)
nifboy: 440G (4.2%, 440G)
CrownOfHorns: 304G (2.9%, 304G)
TheChainNerd: 250G (2.4%, 3,412G)
autnagrag: 222G (2.1%, 1,839G)
getthemoneyz: 148G (1.4%, 966,118G)
maakur_: 100G (0.9%, 25,297G)
CosmicTactician: 100G (0.9%, 8,623G)
datadrivenbot: 100G (0.9%, 44,614G)

white bets:
Mesmaster: 5,000G (35.1%, 108,105G)
joewcarson: 3,000G (21.1%, 61,827G)
BlackFireUK: 1,000G (7.0%, 24,111G)
BirbBrainsBot: 1,000G (7.0%, 58,432G)
actual_JP: 952G (6.7%, 952G)
OneHundredFists: 819G (5.8%, 819G)
EnemyController: 500G (3.5%, 609,692G)
Asedunu: 500G (3.5%, 1,589G)
CorpusCav: 400G (2.8%, 1,379G)
ZCKaiser: 200G (1.4%, 1,681G)
old_overholt_: 200G (1.4%, 34,496G)
AllInBot: 161G (1.1%, 161G)
Grandlanzer: 100G (0.7%, 9,210G)
Firesheath: 100G (0.7%, 14,738G)
fluffskull: 100G (0.7%, 1,982G)
mrfripps: 100G (0.7%, 6,287G)
oops25: 100G (0.7%, 1,500G)
