Final Bets: white - 15 bets for 20,384G (58.7%, x0.70); champion - 23 bets for 14,340G (41.3%, x1.42)

white bets:
joewcarson: 6,000G (29.4%, 64,061G)
Mesmaster: 5,000G (24.5%, 111,829G)
Azelgrim: 3,000G (14.7%, 4,624G)
OneHundredFists: 1,429G (7.0%, 1,429G)
Thyrandaal: 1,000G (4.9%, 66,213G)
EnemyController: 1,000G (4.9%, 610,064G)
JumbocactuarX27: 1,000G (4.9%, 2,309G)
evdoggity: 500G (2.5%, 20,545G)
killth3kid: 450G (2.2%, 6,560G)
AllInBot: 281G (1.4%, 281G)
TheChainNerd: 215G (1.1%, 3,162G)
Grandlanzer: 200G (1.0%, 8,284G)
CorpusCav: 153G (0.8%, 1,677G)
maakur_: 100G (0.5%, 25,197G)
fluffskull: 56G (0.3%, 2,056G)

champion bets:
Oobs56: 1,718G (12.0%, 1,718G)
actual_JP: 1,661G (11.6%, 1,661G)
autnagrag: 1,617G (11.3%, 1,617G)
prince_rogers_nelson_: 1,473G (10.3%, 2,946G)
DuraiPapers: 1,004G (7.0%, 1,004G)
BlackFireUK: 1,000G (7.0%, 24,856G)
dogsandcatsand: 1,000G (7.0%, 6,833G)
InOzWeTrust: 765G (5.3%, 765G)
BirbBrainsBot: 513G (3.6%, 59,177G)
ivellioz: 500G (3.5%, 8,353G)
TeaTime29: 500G (3.5%, 13,661G)
docmitchphd: 500G (3.5%, 2,466G)
nifboy: 440G (3.1%, 440G)
CrownOfHorns: 304G (2.1%, 304G)
gorgewall: 301G (2.1%, 21,518G)
DeadGirlzREasy: 228G (1.6%, 228G)
Xcessive30: 224G (1.6%, 224G)
oops25: 174G (1.2%, 1,574G)
DusterW: 108G (0.8%, 108G)
Firesheath: 100G (0.7%, 14,812G)
datadrivenbot: 100G (0.7%, 44,514G)
CosmicTactician: 100G (0.7%, 8,523G)
getthemoneyz: 10G (0.1%, 965,970G)
