Final Bets: green - 16 bets for 18,615G (82.2%, x0.22); yellow - 12 bets for 4,029G (17.8%, x4.62)

green bets:
Mesmaster: 5,000G (26.9%, 109,562G)
reinoe: 3,000G (16.1%, 14,136G)
moonliquor: 2,366G (12.7%, 2,366G)
maleblackfiora: 1,500G (8.1%, 9,186G)
TheGuesty: 1,353G (7.3%, 62,353G)
Nizaha: 1,001G (5.4%, 16,127G)
Thyrandaal: 1,000G (5.4%, 60,811G)
HaateXIII: 516G (2.8%, 516G)
Belkra: 514G (2.8%, 514G)
richardserious: 500G (2.7%, 4,814G)
muffin_money: 500G (2.7%, 12,969G)
twelfthrootoftwo: 500G (2.7%, 1,856G)
AllInBot: 365G (2.0%, 365G)
LAGBOT30000: 300G (1.6%, 1,578G)
biffcake01: 100G (0.5%, 4,106G)
datadrivenbot: 100G (0.5%, 43,527G)

yellow bets:
BirbBrainsBot: 1,000G (24.8%, 73,710G)
Rislyeu: 750G (18.6%, 55,961G)
DLJuggernaut: 500G (12.4%, 16,404G)
getthemoneyz: 356G (8.8%, 972,107G)
Pyrotyk: 300G (7.4%, 964G)
fluffskull: 276G (6.9%, 276G)
DuraiPapers: 240G (6.0%, 240G)
run_with_stone_GUNs: 200G (5.0%, 26,998G)
BStarTV: 108G (2.7%, 108G)
E_Ballard: 100G (2.5%, 7,703G)
Koorndog: 100G (2.5%, 535G)
CorpusCav: 99G (2.5%, 2,809G)
