Final Bets: red - 12 bets for 7,086G (25.1%, x2.98); green - 18 bets for 21,115G (74.9%, x0.34)

red bets:
Rislyeu: 2,000G (28.2%, 53,711G)
MagicBottle: 1,000G (14.1%, 15,748G)
Thyrandaal: 1,000G (14.1%, 60,681G)
Virilikus: 1,000G (14.1%, 158,561G)
OneHundredFists: 516G (7.3%, 516G)
reinoe: 500G (7.1%, 14,439G)
Baron_von_Scrub: 420G (5.9%, 420G)
BStarTV: 341G (4.8%, 341G)
Aldrammech: 100G (1.4%, 1,559G)
Vultuous: 100G (1.4%, 3,091G)
CorpusCav: 99G (1.4%, 2,611G)
nhammen: 10G (0.1%, 2,201G)

green bets:
sinnyil2: 5,826G (27.6%, 5,826G)
Mesmaster: 5,000G (23.7%, 108,915G)
moonliquor: 2,385G (11.3%, 2,385G)
butterbelljedi: 2,000G (9.5%, 7,288G)
BirbBrainsBot: 1,000G (4.7%, 72,364G)
DuraiPapers: 741G (3.5%, 741G)
maleblackfiora: 700G (3.3%, 9,511G)
TheGuesty: 569G (2.7%, 62,569G)
old_overholt_: 500G (2.4%, 31,009G)
muffin_money: 500G (2.4%, 13,077G)
Pyrotyk: 400G (1.9%, 560G)
getthemoneyz: 350G (1.7%, 971,483G)
Phi_Sig: 344G (1.6%, 344G)
silentkaster: 300G (1.4%, 7,758G)
livvexx: 200G (0.9%, 2,768G)
AllInBot: 100G (0.5%, 100G)
mpghappiness: 100G (0.5%, 9,021G)
datadrivenbot: 100G (0.5%, 43,701G)
