Final Bets: white - 20 bets for 8,655G (50.6%, x0.97); brown - 12 bets for 8,434G (49.4%, x1.03)

white bets:
Aldrammech: 1,000G (11.6%, 28,686G)
BirbBrainsBot: 1,000G (11.6%, 103,898G)
Lionhermit: 1,000G (11.6%, 1,383G)
sinnyil2: 940G (10.9%, 940G)
OneHundredFists: 850G (9.8%, 850G)
Laserman1000: 500G (5.8%, 21,900G)
getthemoneyz: 460G (5.3%, 773,509G)
wyonearth: 458G (5.3%, 458G)
Flameatron: 400G (4.6%, 4,120G)
Vaxaldan: 344G (4.0%, 344G)
pplvee1: 325G (3.8%, 1,581G)
Breakdown777: 300G (3.5%, 8,827G)
HaateXIII: 250G (2.9%, 14,264G)
gr8keeper: 200G (2.3%, 3,780G)
soren_of_tyto: 128G (1.5%, 128G)
MiseryKoss: 100G (1.2%, 5,260G)
Kyune: 100G (1.2%, 23,067G)
maakur_: 100G (1.2%, 5,098G)
datadrivenbot: 100G (1.2%, 29,295G)
UnholyCorsair: 100G (1.2%, 5,281G)

brown bets:
Digitalsocrates: 1,839G (21.8%, 1,839G)
SkylerBunny: 1,500G (17.8%, 87,667G)
roofiepops: 1,400G (16.6%, 18,522G)
Theseawolf1: 1,000G (11.9%, 38,892G)
nifboy: 500G (5.9%, 6,563G)
Dymntd: 500G (5.9%, 37,986G)
Baron_von_Scrub: 474G (5.6%, 45,122G)
Cryptopsy70: 472G (5.6%, 3,156G)
pandasforsale: 444G (5.3%, 3,229G)
bahamutlagooon: 104G (1.2%, 10,437G)
Firesheath: 101G (1.2%, 11,079G)
TheMM42: 100G (1.2%, 11,654G)
