Final Bets: blue - 17 bets for 14,341G (61.6%, x0.62); brown - 18 bets for 8,943G (38.4%, x1.60)

blue bets:
Lydian_C: 6,353G (44.3%, 12,458G)
JustSuperish: 2,024G (14.1%, 2,024G)
PatSouI: 1,986G (13.8%, 1,986G)
lijarkh: 788G (5.5%, 788G)
perkisle: 700G (4.9%, 700G)
slatios: 647G (4.5%, 647G)
BoneMiser: 552G (3.8%, 552G)
rechaun: 284G (2.0%, 284G)
SeedSC: 250G (1.7%, 72,417G)
Treapvort: 200G (1.4%, 11,364G)
InOzWeTrust: 116G (0.8%, 116G)
Aislingeach: 100G (0.7%, 5,677G)
McGooferson: 100G (0.7%, 1,023G)
kingchadking: 100G (0.7%, 24,084G)
Maeveen: 100G (0.7%, 8,328G)
getthemoneyz: 36G (0.3%, 410,021G)
ko2q: 5G (0.0%, 1,834G)

brown bets:
leakimiko: 1,063G (11.9%, 35,454G)
BirbBrainsBot: 1,000G (11.2%, 83,769G)
bad1dea: 1,000G (11.2%, 308,001G)
guering: 1,000G (11.2%, 5,746G)
robespyah: 970G (10.8%, 970G)
UmaiJam: 825G (9.2%, 8,259G)
Goust18: 600G (6.7%, 16,935G)
KingGoldenPanda: 500G (5.6%, 8,250G)
SpaZmodeus: 333G (3.7%, 3,410G)
ShintaroNayaka: 300G (3.4%, 6,362G)
jhazor: 297G (3.3%, 297G)
Etce: 244G (2.7%, 244G)
rubenflonne: 200G (2.2%, 6,633G)
ugoplatamia: 200G (2.2%, 4,306G)
PlatinumPlume: 111G (1.2%, 11,114G)
Oshimi12: 100G (1.1%, 2,202G)
Aneyus: 100G (1.1%, 10,823G)
RongRongArts: 100G (1.1%, 9,330G)
