Final Bets: purple - 17 bets for 12,810G (73.3%, x0.36); brown - 12 bets for 4,657G (26.7%, x2.75)

purple bets:
evontno: 3,001G (23.4%, 49,407G)
NovaKnight21: 2,000G (15.6%, 9,868G)
DeathTaxesAndAnime: 1,184G (9.2%, 1,184G)
sinnyil2: 1,155G (9.0%, 2,311G)
maakur_: 1,068G (8.3%, 1,068G)
BirbBrainsBot: 1,000G (7.8%, 126,144G)
upvla: 789G (6.2%, 7,820G)
JiroDoge: 501G (3.9%, 501G)
SeniorBunk: 500G (3.9%, 4,365G)
Zetchryn: 436G (3.4%, 436G)
roqqqpsi: 225G (1.8%, 1,503G)
gorgewall: 201G (1.6%, 8,027G)
AllInBot: 200G (1.6%, 200G)
datadrivenbot: 200G (1.6%, 34,309G)
Legionx13: 150G (1.2%, 4,676G)
triniculo: 100G (0.8%, 1,227G)
Yesh_EP: 100G (0.8%, 313G)

brown bets:
iBardic: 771G (16.6%, 771G)
Laserman1000: 600G (12.9%, 600G)
dogsandcatsand: 596G (12.8%, 30,719G)
getthemoneyz: 522G (11.2%, 1,338,111G)
Oreo_Pizza: 500G (10.7%, 28,837G)
benticore: 500G (10.7%, 23,922G)
Strifu: 434G (9.3%, 434G)
Scurg: 200G (4.3%, 1,790G)
silentkaster: 200G (4.3%, 15,085G)
JDogg2K4: 184G (4.0%, 184G)
Miku_Shikhu: 100G (2.1%, 16,080G)
DouglasDragonThePoet: 50G (1.1%, 1,427G)
