Final Bets: yellow - 15 bets for 9,200G (49.9%, x1.00); purple - 15 bets for 9,232G (50.1%, x1.00)

yellow bets:
SkylerBunny: 2,500G (27.2%, 60,297G)
dogsandcatsand: 2,000G (21.7%, 32,068G)
DeathTaxesAndAnime: 1,322G (14.4%, 1,322G)
BirbBrainsBot: 1,000G (10.9%, 127,826G)
benticore: 500G (5.4%, 23,320G)
Thyrandaal: 316G (3.4%, 316G)
Monopool: 300G (3.3%, 1,716G)
getthemoneyz: 212G (2.3%, 1,337,260G)
gorgewall: 201G (2.2%, 7,698G)
AllInBot: 200G (2.2%, 200G)
roqqqpsi: 199G (2.2%, 1,331G)
triniculo: 150G (1.6%, 1,133G)
nhammen: 100G (1.1%, 2,561G)
ANFz: 100G (1.1%, 45,619G)
braveboyblue: 100G (1.1%, 204G)

purple bets:
evontno: 2,200G (23.8%, 50,328G)
Lord_Burrah: 2,000G (21.7%, 80,000G)
Oreo_Pizza: 1,500G (16.2%, 28,986G)
Laserman1000: 600G (6.5%, 600G)
JiroDoge: 439G (4.8%, 2,196G)
Zetchryn: 436G (4.7%, 436G)
Scurg: 400G (4.3%, 1,490G)
JDogg2K4: 331G (3.6%, 331G)
ohhinm: 300G (3.2%, 1,981G)
Strifu: 272G (2.9%, 272G)
furrytomahawkk: 200G (2.2%, 3,913G)
Legionx13: 200G (2.2%, 4,385G)
datadrivenbot: 200G (2.2%, 33,982G)
iBardic: 104G (1.1%, 104G)
DouglasDragonThePoet: 50G (0.5%, 1,367G)
