Final Bets: green - 12 bets for 14,083G (63.9%, x0.56); yellow - 11 bets for 7,949G (36.1%, x1.77)

green bets:
Error72: 8,958G (63.6%, 17,565G)
cam_ATS: 1,111G (7.9%, 44,481G)
killth3kid: 1,000G (7.1%, 79,791G)
BirbBrainsBot: 1,000G (7.1%, 31,929G)
ArashiKurobara: 500G (3.6%, 5,013G)
joewcarson: 400G (2.8%, 34,217G)
getthemoneyz: 314G (2.2%, 1,257,130G)
Shalloween: 300G (2.1%, 53,661G)
datadrivenbot: 200G (1.4%, 62,850G)
nifboy: 100G (0.7%, 7,442G)
CosmicTactician: 100G (0.7%, 43,396G)
Grandlanzer: 100G (0.7%, 71,454G)

yellow bets:
ShintaroNayaka: 2,568G (32.3%, 2,568G)
Nickyfive: 1,500G (18.9%, 26,788G)
LavyWays: 1,000G (12.6%, 141,667G)
TheChainNerd: 1,000G (12.6%, 16,358G)
randgridr: 500G (6.3%, 6,242G)
Zagorsek: 469G (5.9%, 469G)
run_with_stone_GUNs: 312G (3.9%, 6,538G)
biffcake01: 200G (2.5%, 1,838G)
RageImmortaI: 200G (2.5%, 857G)
SephDarkheart: 100G (1.3%, 7,456G)
izlude_: 100G (1.3%, 2,100G)
