Final Bets: red - 12 bets for 5,717G (39.9%, x1.51); green - 16 bets for 8,617G (60.1%, x0.66)

red bets:
fenaen: 1,200G (21.0%, 32,640G)
TheChainNerd: 1,000G (17.5%, 15,093G)
killth3kid: 1,000G (17.5%, 78,355G)
dogsandcatsand: 496G (8.7%, 8,231G)
Zetchryn: 428G (7.5%, 428G)
ArashiKurobara: 312G (5.5%, 5,212G)
RageImmortaI: 284G (5.0%, 284G)
Grasnikk: 250G (4.4%, 1,215G)
AltimaMantoid: 247G (4.3%, 2,747G)
biffcake01: 200G (3.5%, 1,438G)
datadrivenbot: 200G (3.5%, 62,910G)
CosmicTactician: 100G (1.7%, 43,987G)

green bets:
red__lancer: 2,000G (23.2%, 110,689G)
BirbBrainsBot: 1,000G (11.6%, 32,175G)
DavenIII: 961G (11.2%, 961G)
midnight_blues3: 800G (9.3%, 15,295G)
nhammen: 720G (8.4%, 720G)
ShintaroNayaka: 652G (7.6%, 652G)
maakur_: 528G (6.1%, 528G)
letdowncity: 384G (4.5%, 4,749G)
Shalloween: 300G (3.5%, 54,475G)
Grandlanzer: 300G (3.5%, 71,510G)
Forkmore: 288G (3.3%, 1,248G)
xLilAsia: 226G (2.6%, 2,265G)
gorgewall: 201G (2.3%, 2,746G)
neerrm: 125G (1.5%, 10,784G)
SephDarkheart: 100G (1.2%, 7,498G)
getthemoneyz: 32G (0.4%, 1,257,362G)
