Final Bets: red - 6 bets for 11,809G (40.0%, x1.50); champion - 22 bets for 17,727G (60.0%, x0.67)

red bets:
neerrm: 10,659G (90.3%, 10,659G)
Shalloween: 400G (3.4%, 54,172G)
ZombiFrancis: 300G (2.5%, 7,041G)
Foamsoldier: 200G (1.7%, 1,941G)
muffin_money: 150G (1.3%, 8,000G)
CosmicTactician: 100G (0.8%, 44,220G)

champion bets:
midnight_blues3: 6,618G (37.3%, 13,237G)
fenaen: 1,200G (6.8%, 34,342G)
Lord_Burrah: 1,122G (6.3%, 78,122G)
DLJuggernaut: 1,117G (6.3%, 1,117G)
TheChainNerd: 1,000G (5.6%, 16,342G)
BirbBrainsBot: 1,000G (5.6%, 31,306G)
E_Ballard: 1,000G (5.6%, 7,329G)
nhammen: 850G (4.8%, 850G)
ShintaroNayaka: 652G (3.7%, 652G)
joewcarson: 500G (2.8%, 34,447G)
letdowncity: 384G (2.2%, 4,331G)
run_with_stone_GUNs: 321G (1.8%, 6,439G)
ArashiKurobara: 312G (1.8%, 5,826G)
CapnChaos12: 300G (1.7%, 7,836G)
RageImmortaI: 284G (1.6%, 1,182G)
gorgewall: 201G (1.1%, 2,527G)
biffcake01: 200G (1.1%, 1,539G)
datadrivenbot: 200G (1.1%, 63,193G)
TasisSai: 170G (1.0%, 334G)
SephDarkheart: 100G (0.6%, 7,372G)
QZork: 100G (0.6%, 100G)
getthemoneyz: 96G (0.5%, 1,257,584G)
