Final Bets: purple - 11 bets for 8,081G (62.7%, x0.60); brown - 11 bets for 4,814G (37.3%, x1.68)

purple bets:
resjudicata3: 1,049G (13.0%, 2,058G)
Nickyfive: 1,000G (12.4%, 10,056G)
BirbBrainsBot: 1,000G (12.4%, 28,640G)
Sairentozon7: 1,000G (12.4%, 37,497G)
Leonidusx: 1,000G (12.4%, 207,667G)
dogsandcatsand: 700G (8.7%, 13,299G)
lowlf: 576G (7.1%, 14,572G)
CorpusCav: 500G (6.2%, 8,262G)
ericzubat: 500G (6.2%, 46,421G)
holdenmagronik: 456G (5.6%, 456G)
arumz: 300G (3.7%, 36,584G)

brown bets:
upvla: 886G (18.4%, 886G)
Nizaha: 872G (18.1%, 67,451G)
nifboy: 832G (17.3%, 1,775G)
Mushufasa_: 500G (10.4%, 72,015G)
thunderducker: 454G (9.4%, 10,040G)
SephDarkheart: 376G (7.8%, 41,219G)
getthemoneyz: 294G (6.1%, 2,033,084G)
AllInBot: 200G (4.2%, 200G)
old_overholt_: 200G (4.2%, 27,223G)
Firesheath: 100G (2.1%, 3,359G)
king_smashington: 100G (2.1%, 939G)
