Final Bets: red - 20 bets for 11,618G (57.9%, x0.73); green - 10 bets for 8,443G (42.1%, x1.38)

red bets:
roofiepops: 1,953G (16.8%, 1,953G)
aStatue: 1,223G (10.5%, 1,223G)
volgrathemoose: 1,001G (8.6%, 5,735G)
Aldrammech: 1,000G (8.6%, 50,542G)
MrDiggs49: 1,000G (8.6%, 9,518G)
YaBoy125: 946G (8.1%, 946G)
DustBirdEX: 777G (6.7%, 13,344G)
potgodtopdog: 666G (5.7%, 12,727G)
LivingHitokiri: 500G (4.3%, 3,093G)
EnemyController: 500G (4.3%, 149,509G)
Anethum: 416G (3.6%, 416G)
ZephyrTempest: 400G (3.4%, 756G)
Reductions: 308G (2.7%, 308G)
Tetsuwan_Melty: 220G (1.9%, 220G)
Mirrorclaw: 200G (1.7%, 200G)
ungabunga_bot: 108G (0.9%, 279,015G)
plus_flora: 100G (0.9%, 100G)
datadrivenbot: 100G (0.9%, 4,160G)
Jerboj: 100G (0.9%, 46,301G)
OverlordAnon: 100G (0.9%, 100G)

green bets:
Baron_von_Scrub: 2,500G (29.6%, 78,039G)
Pie108: 2,000G (23.7%, 269,378G)
MantisFinch: 1,000G (11.8%, 20,856G)
BirbBrainsBot: 1,000G (11.8%, 40,861G)
gooseyourself: 1,000G (11.8%, 25,536G)
nuka1120: 300G (3.6%, 1,716G)
TheRylander: 236G (2.8%, 236G)
thaetreis: 201G (2.4%, 201G)
KasugaiRoastedPeas: 200G (2.4%, 7,791G)
getthemoneyz: 6G (0.1%, 588,113G)
