Final Bets: black - 20 bets for 11,034G (54.9%, x0.82); brown - 18 bets for 9,076G (45.1%, x1.22)

black bets:
reinoe: 2,000G (18.1%, 22,871G)
Baron_von_Scrub: 1,111G (10.1%, 81,479G)
Aldrammech: 1,000G (9.1%, 49,542G)
EnemyController: 1,000G (9.1%, 149,009G)
LivingHitokiri: 1,000G (9.1%, 2,593G)
ungabunga_bot: 776G (7.0%, 278,907G)
TheRylander: 561G (5.1%, 561G)
rawb2: 515G (4.7%, 515G)
nuka1120: 500G (4.5%, 2,129G)
roofiepops: 496G (4.5%, 496G)
thaetreis: 478G (4.3%, 478G)
Anethum: 416G (3.8%, 416G)
Lythe_Caraker: 250G (2.3%, 114,176G)
midori_ribbon: 250G (2.3%, 854G)
museofdoom: 212G (1.9%, 212G)
Tetsuwan_Melty: 108G (1.0%, 108G)
plus_flora: 100G (0.9%, 100G)
Squatting_Bear: 100G (0.9%, 108G)
datadrivenbot: 100G (0.9%, 4,060G)
ZephyrTempest: 61G (0.6%, 412G)

brown bets:
Pie108: 2,000G (22.0%, 272,130G)
gooseyourself: 1,000G (11.0%, 26,912G)
MrDiggs49: 1,000G (11.0%, 8,518G)
BirbBrainsBot: 1,000G (11.0%, 42,237G)
HaateXIII: 1,000G (11.0%, 95,029G)
DustBirdEX: 666G (7.3%, 12,567G)
aStatue: 600G (6.6%, 600G)
volgrathemoose: 501G (5.5%, 4,734G)
YaBoy125: 332G (3.7%, 332G)
Mirrorclaw: 200G (2.2%, 200G)
getthemoneyz: 158G (1.7%, 588,121G)
FriendSquirrel: 100G (1.1%, 29,065G)
DeathTaxesAndAnime: 100G (1.1%, 7,890G)
ass_brains: 100G (1.1%, 4,940G)
Realitydown: 100G (1.1%, 10,865G)
vorap: 100G (1.1%, 23,493G)
nifboy: 69G (0.8%, 1,736G)
tmo50x: 50G (0.6%, 5,982G)
