Final Bets: green - 14 bets for 6,140G (34.2%, x1.92); black - 12 bets for 11,790G (65.8%, x0.52)

green bets:
sinnyil2: 1,500G (24.4%, 123,312G)
Mesmaster: 1,000G (16.3%, 19,609G)
HaplessOne: 777G (12.7%, 12,114G)
HawkSick: 672G (10.9%, 672G)
getthemoneyz: 540G (8.8%, 587,270G)
mirapoix: 300G (4.9%, 14,124G)
Estan_AD: 288G (4.7%, 288G)
jakeduhhsnake: 250G (4.1%, 2,508G)
helpimabug: 200G (3.3%, 2,895G)
twelfthrootoftwo: 200G (3.3%, 3,764G)
Pink_LuigiX: 144G (2.3%, 144G)
perce90: 112G (1.8%, 112G)
datadrivenbot: 100G (1.6%, 4,001G)
BirbBrainsBot: 57G (0.9%, 38,038G)

black bets:
Lydian_C: 4,200G (35.6%, 51,221G)
midori_ribbon: 2,500G (21.2%, 15,461G)
cgMcWhiskers: 1,742G (14.8%, 1,742G)
HaateXIII: 1,000G (8.5%, 74,148G)
ewan_e: 1,000G (8.5%, 13,000G)
R_Raynos: 411G (3.5%, 411G)
vorap: 300G (2.5%, 20,667G)
AmewTheFox: 200G (1.7%, 1,033G)
ungabunga_bot: 137G (1.2%, 258,979G)
Jerboj: 100G (0.8%, 55,098G)
Evewho: 100G (0.8%, 13,690G)
Dymntd: 100G (0.8%, 924G)
