Final Bets: green - 9 bets for 4,607G (40.6%, x1.46); yellow - 18 bets for 6,740G (59.4%, x0.68)

green bets:
TheChainNerd: 1,179G (25.6%, 9,179G)
BirbBrainsBot: 1,000G (21.7%, 171,189G)
NIghtdew14: 750G (16.3%, 8,109G)
AllInBot: 622G (13.5%, 622G)
killth3kid: 500G (10.9%, 19,138G)
BlackfyreRoy: 350G (7.6%, 350G)
Seawalker777: 100G (2.2%, 424G)
Lawndough: 100G (2.2%, 408G)
getthemoneyz: 6G (0.1%, 727,811G)

yellow bets:
RaIshtar: 1,000G (14.8%, 10,347G)
powergems: 864G (12.8%, 864G)
superdevon1: 789G (11.7%, 5,262G)
coralreeferz: 650G (9.6%, 11,843G)
NovaKnight21: 588G (8.7%, 588G)
LeoNightFury: 500G (7.4%, 3,260G)
HaateXIII: 500G (7.4%, 1,768G)
ShintaroNayaka: 400G (5.9%, 7,017G)
Evewho: 300G (4.5%, 4,337G)
nifboy: 250G (3.7%, 11,633G)
Banzem: 224G (3.3%, 224G)
thenextlantern: 200G (3.0%, 312G)
RunicMagus: 100G (1.5%, 29,939G)
E_Ballard: 100G (1.5%, 6,896G)
datadrivenbot: 100G (1.5%, 20,924G)
Corky_McCorkscrew: 100G (1.5%, 947G)
DrAntiSocial: 50G (0.7%, 18,815G)
zepharoth89: 25G (0.4%, 272G)
