Final Bets: blue - 8 bets for 3,460G (48.9%, x1.04); purple - 9 bets for 3,611G (51.1%, x0.96)

blue bets:
Breakdown777: 1,414G (40.9%, 1,414G)
Laserman1000: 500G (14.5%, 25,600G)
DustBirdEX: 345G (10.0%, 3,423G)
NightwolfXVI: 300G (8.7%, 3,241G)
klefelix: 300G (8.7%, 2,135G)
brokenknight201: 300G (8.7%, 2,965G)
gorgewall: 201G (5.8%, 2,050G)
Quadh0nk: 100G (2.9%, 6,133G)

purple bets:
Evewho: 1,000G (27.7%, 6,015G)
BirbBrainsBot: 1,000G (27.7%, 29,481G)
Baron_von_Scrub: 608G (16.8%, 608G)
megamax667: 276G (7.6%, 9,476G)
regios91: 200G (5.5%, 3,863G)
PrancesWithWolves: 200G (5.5%, 454G)
Lydian_C: 121G (3.4%, 157,337G)
getthemoneyz: 106G (2.9%, 1,181,957G)
nhammen: 100G (2.8%, 13,531G)
