Final Bets: black - 18 bets for 5,924G (40.2%, x1.49); purple - 12 bets for 8,830G (59.8%, x0.67)

black bets:
fenaen: 1,500G (25.3%, 69,803G)
itzover9001: 1,000G (16.9%, 68,943G)
whiteonrice: 350G (5.9%, 3,050G)
R_Raynos: 344G (5.8%, 344G)
RunicMagus: 300G (5.1%, 66,736G)
GarbagePhoenix: 300G (5.1%, 2,313G)
TheRylander: 300G (5.1%, 8,565G)
Realitydown: 296G (5.0%, 296G)
ANFz: 252G (4.3%, 22,872G)
lavian94: 236G (4.0%, 236G)
TheMurkGnome: 233G (3.9%, 23,374G)
TheMM42: 200G (3.4%, 10,696G)
smurphy000000: 108G (1.8%, 108G)
avathesunqueen: 104G (1.8%, 104G)
ZephyrTempest: 101G (1.7%, 187,064G)
Kellios11: 100G (1.7%, 13,048G)
datadrivenbot: 100G (1.7%, 1,804G)
Bojanges: 100G (1.7%, 3,585G)

purple bets:
Pie108: 2,000G (22.7%, 119,125G)
leakimiko: 1,918G (21.7%, 7,673G)
Shalloween: 1,200G (13.6%, 60,902G)
ungabunga_bot: 1,000G (11.3%, 245,160G)
BirbBrainsBot: 1,000G (11.3%, 170,813G)
kai_shee: 630G (7.1%, 6,303G)
getthemoneyz: 474G (5.4%, 578,821G)
Jahshine: 250G (2.8%, 4,883G)
pLifer: 108G (1.2%, 108G)
GrayGhostGaming: 100G (1.1%, 7,803G)
Scotty297: 100G (1.1%, 1,833G)
b0shii: 50G (0.6%, 8,049G)
