Final Bets: white - 16 bets for 22,803G (85.5%, x0.17); black - 7 bets for 3,865G (14.5%, x5.90)

white bets:
serperemagus: 11,980G (52.5%, 11,980G)
Moshyhero: 5,000G (21.9%, 14,441G)
dogsandcatsand: 1,000G (4.4%, 12,118G)
JumbocactuarX27: 1,000G (4.4%, 8,813G)
ShintaroNayaka: 580G (2.5%, 580G)
Bryon_W: 500G (2.2%, 2,118G)
CosmicTactician: 500G (2.2%, 21,375G)
twelfthrootoftwo: 500G (2.2%, 19,391G)
sparker9: 400G (1.8%, 8,663G)
joewcarson: 360G (1.6%, 360G)
korrill1454: 300G (1.3%, 429G)
ArashiKurobara: 232G (1.0%, 232G)
gorgewall: 201G (0.9%, 27,048G)
DuneMeta: 100G (0.4%, 100G)
datadrivenbot: 100G (0.4%, 47,040G)
IphoneDarkness: 50G (0.2%, 4,466G)

black bets:
NIghtdew14: 1,000G (25.9%, 4,491G)
BirbBrainsBot: 1,000G (25.9%, 165,549G)
TheChainNerd: 727G (18.8%, 7,273G)
SQUiDSQUARKLIN: 428G (11.1%, 428G)
E_Ballard: 420G (10.9%, 420G)
getthemoneyz: 190G (4.9%, 1,113,441G)
maakur_: 100G (2.6%, 74,447G)
