Final Bets: blue - 10 bets for 12,153G (57.9%, x0.73); yellow - 15 bets for 8,838G (42.1%, x1.38)

blue bets:
SkylerBunny: 5,000G (41.1%, 553,223G)
Gelwain: 2,000G (16.5%, 10,535G)
HaateXIII: 1,500G (12.3%, 5,004G)
VolgraTheMoose: 1,352G (11.1%, 2,705G)
evdoggity: 1,000G (8.2%, 61,156G)
CosmicTactician: 600G (4.9%, 22,552G)
sparker9: 300G (2.5%, 16,441G)
Nizaha: 201G (1.7%, 6,615G)
datadrivenbot: 100G (0.8%, 49,281G)
fluffskull: 100G (0.8%, 604G)

yellow bets:
Rislyeu: 1,191G (13.5%, 1,191G)
YaBoy125: 1,089G (12.3%, 36,317G)
reinoe: 1,000G (11.3%, 14,364G)
BirbBrainsBot: 1,000G (11.3%, 178,817G)
OneHundredFists: 1,000G (11.3%, 31,779G)
RaIshtar: 800G (9.1%, 6,370G)
ColetteMSLP: 668G (7.6%, 668G)
Zetchryn: 396G (4.5%, 396G)
DustBirdEX: 345G (3.9%, 4,250G)
sososteve: 300G (3.4%, 2,641G)
JLinkletter: 276G (3.1%, 276G)
getthemoneyz: 250G (2.8%, 1,036,246G)
maldis40: 200G (2.3%, 3,272G)
Magicandy: 200G (2.3%, 7,338G)
cam_ATS: 123G (1.4%, 20,483G)
