High Risers:
1. Brokenknight201: +9,264G
2. Baronhaynes: +5,028G
3. Awakeninfinity: +3,755G
4. Ko2q: +2,103G
5. Dogsandcatsand: +876G
6. Krombobreaker: +872G
7. Reinoe: +530G
8. Gorgewall: +55G
9. 3ngag3: +4G
10. Ar_tactic: -200G
11. Foragercats: -200G
12. Hentaiwriter: -200G
13. Aly327: -300G
14. Smashy: -300G
15. Hasterious: -300G
16. Jeeboheebo: -300G
17. Captainadmiralspatula: -300G
18. Cassiephoenix: -400G
19. Sairentozon7: -516G
20. Lijarkh: -597G
21. Gongonono: -791G
22. Absalom_20: -898G
23. Zckaiser: -1,000G
24. Bigbongsmoker: -1,003G
25. Formerlydrdong: -1,100G
26. Superdevon1: -1,168G
27. Brenogarwin: -1,270G
28. 7cerulean7: -1,543G
29. Volgrathemoose: -2,147G
30. Fantastadon: -2,425G
31. Raixelol: -2,814G
32. E_ballard: -3,707G
33. Novaknight21: -4,453G
34. Altimamantoid: -5,232G
35. Ibardic: -12,771G
