Final Bets: yellow - 13 bets for 9,749G (43.0%, x1.33); purple - 20 bets for 12,927G (57.0%, x0.75)

yellow bets:
BenYuPoker: 1,922G (19.7%, 3,844G)
jethrothrul: 1,371G (14.1%, 1,371G)
Shakarak: 1,200G (12.3%, 27,136G)
Numbersborne: 1,000G (10.3%, 7,144G)
BirbBrainsBot: 1,000G (10.3%, 218,220G)
bad1dea: 1,000G (10.3%, 36,377G)
WireLord: 1,000G (10.3%, 2,693G)
getthemoneyz: 574G (5.9%, 438,889G)
Jayelldee: 200G (2.1%, 200G)
JackOnFire1: 150G (1.5%, 5,800G)
InOzWeTrust: 132G (1.4%, 132G)
herrshaun: 100G (1.0%, 624G)
SeniorBunk: 100G (1.0%, 4,459G)

purple bets:
Zetchryn: 2,000G (15.5%, 3,441G)
Treapvort: 1,253G (9.7%, 1,253G)
upvla: 1,219G (9.4%, 26,054G)
sinnyil2: 1,200G (9.3%, 47,591G)
UmaiJam: 1,141G (8.8%, 11,418G)
leakimiko: 1,006G (7.8%, 33,548G)
helpimabug: 1,001G (7.7%, 10,601G)
rurouni318: 1,000G (7.7%, 1,000G)
Goust18: 600G (4.6%, 11,791G)
DustBirdEX: 500G (3.9%, 6,462G)
LOKITHUS: 500G (3.9%, 12,567G)
DaveStrider55: 444G (3.4%, 444G)
Cataphract116: 250G (1.9%, 2,782G)
Chompie: 200G (1.5%, 4,907G)
lavian94: 132G (1.0%, 132G)
AllInBot: 100G (0.8%, 100G)
Aneyus: 100G (0.8%, 9,750G)
bahumat989: 100G (0.8%, 2,268G)
datadrivenbot: 100G (0.8%, 18,484G)
ungabunga_bot: 81G (0.6%, 25,439G)
