Final Bets: red - 11 bets for 6,623G (33.8%, x1.96); blue - 18 bets for 12,999G (66.2%, x0.51)

red bets:
Aldrammech: 1,000G (15.1%, 20,665G)
silentkaster: 1,000G (15.1%, 12,943G)
Mesmaster: 1,000G (15.1%, 64,809G)
superdevon1: 759G (11.5%, 37,954G)
killth3kid: 608G (9.2%, 608G)
Xoomwaffle: 592G (8.9%, 592G)
Lanshaft: 552G (8.3%, 18,525G)
TheChainNerd: 504G (7.6%, 504G)
JDogg2K4: 308G (4.7%, 308G)
AllInBot: 200G (3.0%, 200G)
CT_5_Holy: 100G (1.5%, 4,742G)

blue bets:
DeathTaxesAndAnime: 2,570G (19.8%, 5,041G)
NicoSavoy: 2,566G (19.7%, 128,315G)
coralreeferz: 1,206G (9.3%, 1,206G)
dogsandcatsand: 1,111G (8.5%, 95,698G)
BirbBrainsBot: 1,000G (7.7%, 190,196G)
amiture: 1,000G (7.7%, 50,090G)
VolgraTheMoose: 933G (7.2%, 933G)
silverChangeling: 627G (4.8%, 627G)
Laserman1000: 559G (4.3%, 5,759G)
braveboyblue: 374G (2.9%, 374G)
gorgewall: 201G (1.5%, 6,432G)
Wooplestein: 200G (1.5%, 740G)
datadrivenbot: 200G (1.5%, 46,711G)
Lumberinjack: 104G (0.8%, 104G)
terminusterminal: 100G (0.8%, 12,400G)
Drusiform: 95G (0.7%, 476G)
ArlanKels: 81G (0.6%, 2,707G)
getthemoneyz: 72G (0.6%, 1,504,436G)
