Final Bets: blue - 18 bets for 11,470G (22.1%, x3.52); champion - 20 bets for 40,402G (77.9%, x0.28)

blue bets:
NicoSavoy: 2,659G (23.2%, 132,957G)
Rislyeu: 2,659G (23.2%, 7,919G)
Aldrammech: 1,000G (8.7%, 20,126G)
BirbBrainsBot: 1,000G (8.7%, 187,442G)
Zbgs: 1,000G (8.7%, 1,989G)
NIghtdew14: 500G (4.4%, 3,357G)
dogsandcatsand: 444G (3.9%, 96,596G)
Xoomwaffle: 336G (2.9%, 336G)
VolgraTheMoose: 325G (2.8%, 1,237G)
JDogg2K4: 308G (2.7%, 308G)
Hirameki85: 268G (2.3%, 16,070G)
Calajo: 260G (2.3%, 2,120G)
gorgewall: 201G (1.8%, 6,482G)
getthemoneyz: 172G (1.5%, 1,504,061G)
Firesheath: 100G (0.9%, 5,720G)
terminusterminal: 100G (0.9%, 12,041G)
Treafa: 74G (0.6%, 3,422G)
Hasterious: 64G (0.6%, 6,495G)

champion bets:
douchetron: 10,199G (25.2%, 19,999G)
amiture: 10,000G (24.8%, 49,600G)
Mesmaster: 10,000G (24.8%, 63,096G)
AllInBot: 1,883G (4.7%, 1,883G)
Salvasti: 1,238G (3.1%, 1,238G)
DeathTaxesAndAnime: 1,119G (2.8%, 1,119G)
ko2q: 956G (2.4%, 1,913G)
holandrix: 768G (1.9%, 768G)
Zagorsek: 759G (1.9%, 759G)
sinnyil2: 750G (1.9%, 6,611G)
superdevon1: 741G (1.8%, 37,098G)
Lanshaft: 552G (1.4%, 17,224G)
silverChangeling: 318G (0.8%, 1,274G)
latebit: 215G (0.5%, 215G)
datadrivenbot: 200G (0.5%, 46,457G)
Galeronis: 187G (0.5%, 187G)
coralreeferz: 150G (0.4%, 2,408G)
Lumberinjack: 145G (0.4%, 145G)
roofiepops: 123G (0.3%, 19,581G)
daveb_: 99G (0.2%, 5,043G)
