Final Bets: red - 28 bets for 23,215G (61.5%, x0.62); blue - 29 bets for 14,505G (38.5%, x1.60)

red bets:
SkylerBunny: 5,000G (21.5%, 56,396G)
wackyzachyy: 3,710G (16.0%, 24,738G)
rockmem21: 2,562G (11.0%, 51,257G)
alecttox: 2,000G (8.6%, 12,517G)
DudeMonkey77: 1,000G (4.3%, 26,329G)
lunatickzero: 1,000G (4.3%, 8,789G)
BirbBrainsBot: 1,000G (4.3%, 14,473G)
bad1dea: 1,000G (4.3%, 247,950G)
SolarisFall: 880G (3.8%, 17,617G)
leakimiko: 853G (3.7%, 28,443G)
Zeroroute: 500G (2.2%, 500G)
nomoment: 500G (2.2%, 16,892G)
LASERJESUS1337: 400G (1.7%, 9,874G)
Spartan_Paladin: 400G (1.7%, 12,800G)
TheMurkGnome: 359G (1.5%, 10,855G)
newbie404: 330G (1.4%, 330G)
DustBirdEX: 300G (1.3%, 704G)
ZephyrTempest: 282G (1.2%, 4,271G)
inzo24: 216G (0.9%, 216G)
DeliciousSub: 200G (0.9%, 12,607G)
byrdturbo: 111G (0.5%, 3,712G)
SeedSC: 100G (0.4%, 153,755G)
victoriolue: 100G (0.4%, 3,890G)
chronoxtrigger: 100G (0.4%, 3,383G)
guering: 100G (0.4%, 116G)
DejaPoo21: 100G (0.4%, 27,756G)
cougboi: 100G (0.4%, 1,486G)
getthemoneyz: 12G (0.1%, 395,885G)

blue bets:
sinnyil2: 1,200G (8.3%, 16,654G)
omegasuspekt: 1,111G (7.7%, 9,821G)
Riot_Jayway: 1,111G (7.7%, 187,009G)
DeathTaxesAndAnime: 1,003G (6.9%, 1,003G)
OneHundredFists: 1,000G (6.9%, 3,586G)
fenaen: 1,000G (6.9%, 2,322G)
LordSDB: 1,000G (6.9%, 5,888G)
HASTERIOUS: 1,000G (6.9%, 64,929G)
Oshimi12: 804G (5.5%, 804G)
kingchadking: 688G (4.7%, 688G)
OmnibotGamma: 600G (4.1%, 600G)
rnark: 555G (3.8%, 3,310G)
Lazerkick: 500G (3.4%, 12,925G)
HighJayster: 318G (2.2%, 318G)
EvilLego6: 300G (2.1%, 6,511G)
Hirine: 300G (2.1%, 6,235G)
Baron_von_Scrub: 289G (2.0%, 289G)
loveyouallfriends: 281G (1.9%, 281G)
Axelrod: 213G (1.5%, 10,660G)
ensiron: 204G (1.4%, 204G)
Aka_Gilly: 200G (1.4%, 4,000G)
TheRobbieRobster: 116G (0.8%, 116G)
Conome: 112G (0.8%, 112G)
ApplesauceBoss: 100G (0.7%, 2,679G)
BadBlanket: 100G (0.7%, 1,670G)
StarTreky: 100G (0.7%, 100G)
rrazzoug: 100G (0.7%, 7,556G)
Chompie: 100G (0.7%, 7,094G)
datadrivenbot: 100G (0.7%, 15,905G)
