Final Bets: white - 36 bets for 18,581G (46.5%, x1.15); black - 22 bets for 21,393G (53.5%, x0.87)

white bets:
rockmem21: 2,563G (13.8%, 51,273G)
wackyzachyy: 2,000G (10.8%, 30,002G)
LordSDB: 1,000G (5.4%, 3,638G)
BirbBrainsBot: 1,000G (5.4%, 16,150G)
inzo_bettingbot: 1,000G (5.4%, 16,859G)
bad1dea: 1,000G (5.4%, 249,627G)
DudeMonkey77: 1,000G (5.4%, 26,954G)
LASERJESUS1337: 1,000G (5.4%, 11,180G)
leakimiko: 896G (4.8%, 29,890G)
cheezybuda: 836G (4.5%, 836G)
Axelrod: 522G (2.8%, 10,447G)
loveyouallfriends: 517G (2.8%, 517G)
Zeroroute: 500G (2.7%, 500G)
DeathTaxesAndAnime: 432G (2.3%, 432G)
ApplesauceBoss: 308G (1.7%, 308G)
kingchadking: 308G (1.7%, 308G)
alrightbye: 300G (1.6%, 5,814G)
TheMurkGnome: 300G (1.6%, 11,482G)
Lazerkick: 300G (1.6%, 12,005G)
getthemoneyz: 294G (1.6%, 396,027G)
Baron_von_Scrub: 264G (1.4%, 264G)
Oshimi12: 264G (1.4%, 264G)
newbie404: 224G (1.2%, 224G)
ZephyrTempest: 220G (1.2%, 4,676G)
Madcow457: 213G (1.1%, 213G)
ensiron: 204G (1.1%, 204G)
rico_flex: 200G (1.1%, 957G)
alecttox: 150G (0.8%, 13,467G)
TheRobbieRobster: 116G (0.6%, 116G)
SpaZmodeus: 100G (0.5%, 3,024G)
Chompie: 100G (0.5%, 7,099G)
DejaPoo21: 100G (0.5%, 27,818G)
chronoxtrigger: 100G (0.5%, 3,550G)
datadrivenbot: 100G (0.5%, 15,910G)
Aka_Gilly: 100G (0.5%, 4,116G)
guering: 50G (0.3%, 283G)

black bets:
toka222: 6,500G (30.4%, 420,071G)
SkylerBunny: 2,500G (11.7%, 61,624G)
Sypheck: 1,875G (8.8%, 1,875G)
OneHundredFists: 1,586G (7.4%, 1,586G)
OmnibotGamma: 1,231G (5.8%, 1,231G)
Laserman1000: 1,200G (5.6%, 18,200G)
sinnyil2: 1,200G (5.6%, 12,954G)
Riot_Jayway: 1,111G (5.2%, 185,398G)
SeedSC: 1,000G (4.7%, 153,922G)
Hirine: 600G (2.8%, 5,535G)
Lanshaft: 580G (2.7%, 7,081G)
HighJayster: 468G (2.2%, 468G)
DustBirdEX: 400G (1.9%, 1,207G)
powergems: 300G (1.4%, 6,616G)
Aeolus_000: 200G (0.9%, 1,322G)
Conome: 112G (0.5%, 112G)
ANFz: 100G (0.5%, 22,917G)
victoriolue: 100G (0.5%, 3,852G)
Dansnoopit: 100G (0.5%, 100G)
WillFitzgerald: 100G (0.5%, 2,172G)
cougboi: 100G (0.5%, 1,548G)
deesignal: 30G (0.1%, 4,461G)
