Final Bets: green - 18 bets for 12,424G (67.7%, x0.48); yellow - 9 bets for 5,927G (32.3%, x2.10)

green bets:
pplvee1: 5,000G (40.2%, 29,618G)
Breakdown777: 1,889G (15.2%, 3,778G)
TheChainNerd: 1,262G (10.2%, 6,311G)
DeathTaxesAndAnime: 943G (7.6%, 1,850G)
run_with_stone_GUNs: 501G (4.0%, 10,030G)
serperemagus: 500G (4.0%, 31,382G)
GBZero: 418G (3.4%, 418G)
prince_rogers_nelson_: 304G (2.4%, 304G)
gorgewall: 301G (2.4%, 3,595G)
Miku_Shikhu: 250G (2.0%, 14,863G)
datadrivenbot: 200G (1.6%, 56,086G)
NightwolfXVI: 200G (1.6%, 2,398G)
Grandlanzer: 200G (1.6%, 45,298G)
nhammen: 100G (0.8%, 8,700G)
xLilAsia: 100G (0.8%, 100G)
mpghappiness: 100G (0.8%, 1,205G)
E_Ballard: 100G (0.8%, 7,877G)
SephDarkheart: 56G (0.5%, 5,667G)

yellow bets:
ShintaroNayaka: 2,525G (42.6%, 2,525G)
BirbBrainsBot: 1,000G (16.9%, 170,823G)
DudeMonkey77: 700G (11.8%, 700G)
BlackFireUK: 512G (8.6%, 512G)
getthemoneyz: 490G (8.3%, 1,168,825G)
DavenIII: 300G (5.1%, 534G)
twelfthrootoftwo: 200G (3.4%, 6,364G)
Jampck: 100G (1.7%, 7,442G)
Thyrandaal: 100G (1.7%, 10,899G)
