Final Bets: yellow - 8 bets for 9,795G (35.6%, x1.81); champion - 20 bets for 17,744G (64.4%, x0.55)

yellow bets:
LordSDB: 4,000G (40.8%, 65,650G)
ShintaroNayaka: 1,945G (19.9%, 1,945G)
killth3kid: 1,278G (13.0%, 127,896G)
Aldrammech: 1,246G (12.7%, 1,246G)
Mathlexis: 548G (5.6%, 548G)
BlackFireUK: 500G (5.1%, 2,300G)
Andrain: 200G (2.0%, 845G)
getthemoneyz: 78G (0.8%, 1,175,702G)

champion bets:
SephDarkheart: 4,901G (27.6%, 4,901G)
xLilAsia: 2,208G (12.4%, 2,208G)
BoneMiser: 1,200G (6.8%, 2,000G)
mpghappiness: 1,001G (5.6%, 4,258G)
DudeMonkey77: 1,000G (5.6%, 6,585G)
BirbBrainsBot: 1,000G (5.6%, 178,763G)
Forkmore: 1,000G (5.6%, 32,608G)
YaBoy125: 1,000G (5.6%, 3,592G)
DavenIII: 1,000G (5.6%, 10,911G)
Breakdown777: 778G (4.4%, 1,557G)
Zeroroute: 600G (3.4%, 600G)
GBZero: 500G (2.8%, 1,359G)
Shalloween: 400G (2.3%, 68,213G)
safira125: 232G (1.3%, 232G)
gorgewall: 201G (1.1%, 4,608G)
tbm24x: 200G (1.1%, 849G)
datadrivenbot: 200G (1.1%, 55,522G)
Lydian_C: 123G (0.7%, 144,043G)
nhammen: 100G (0.6%, 11,039G)
a_mo22: 100G (0.6%, 2,981G)
