Final Bets: red - 16 bets for 28,786G (88.1%, x0.14); yellow - 13 bets for 3,888G (11.9%, x7.40)

red bets:
reinoe: 20,000G (69.5%, 60,360G)
gogofromtogo: 2,304G (8.0%, 2,304G)
volgrathemoose: 2,001G (7.0%, 10,520G)
argentbast: 1,000G (3.5%, 2,533G)
FriendSquirrel: 800G (2.8%, 3,228G)
wyonearth: 590G (2.0%, 590G)
letdowncity: 500G (1.7%, 10,080G)
theshinyakuma: 300G (1.0%, 1,306G)
Breakdown777: 300G (1.0%, 9,041G)
just_here2: 200G (0.7%, 885G)
TeaTime29: 200G (0.7%, 620G)
NovaKnight21: 200G (0.7%, 17,961G)
silentkaster: 169G (0.6%, 578G)
Tougou: 100G (0.3%, 2,798G)
datadrivenbot: 100G (0.3%, 29,880G)
daveb_: 22G (0.1%, 1,950G)

yellow bets:
BirbBrainsBot: 1,000G (25.7%, 112,524G)
LeepingJJ: 948G (24.4%, 948G)
Baron_von_Scrub: 474G (12.2%, 35,598G)
bruubarg: 400G (10.3%, 6,541G)
MADTheta: 250G (6.4%, 7,241G)
Lydian_C: 216G (5.6%, 216G)
nok____: 104G (2.7%, 18,405G)
E_Ballard: 100G (2.6%, 1,624G)
maakur_: 100G (2.6%, 5,055G)
Flameatron: 100G (2.6%, 224G)
Error72: 100G (2.6%, 1,742G)
mrfripps: 50G (1.3%, 2,023G)
getthemoneyz: 46G (1.2%, 783,022G)
