Final Bets: purple - 16 bets for 8,395G (30.1%, x2.32); brown - 13 bets for 19,514G (69.9%, x0.43)

purple bets:
Mesmaster: 3,000G (35.7%, 81,399G)
BirbBrainsBot: 1,000G (11.9%, 105,995G)
roqqqpsi: 728G (8.7%, 728G)
HaychDub: 500G (6.0%, 38,063G)
Oobs56: 500G (6.0%, 4,629G)
MagicBottle: 412G (4.9%, 412G)
gorgewall: 401G (4.8%, 20,478G)
DuraiPapers: 400G (4.8%, 7,128G)
rednecknazgul: 300G (3.6%, 300G)
getthemoneyz: 296G (3.5%, 986,488G)
dinin991: 258G (3.1%, 258G)
GatsbysGhost: 200G (2.4%, 2,262G)
Kronikle: 100G (1.2%, 4,735G)
CosmicTactician: 100G (1.2%, 8,130G)
E_Ballard: 100G (1.2%, 10,769G)
nifboy: 100G (1.2%, 4,075G)

brown bets:
Rislyeu: 10,000G (51.2%, 43,684G)
VolgraTheMoose: 4,001G (20.5%, 33,787G)
Laserman1000: 1,055G (5.4%, 2,110G)
MrFlabyo: 1,000G (5.1%, 20,066G)
OneHundredFists: 1,000G (5.1%, 17,372G)
Theseawolf1: 1,000G (5.1%, 39,577G)
Cryptopsy70: 572G (2.9%, 18,082G)
old_overholt_: 300G (1.5%, 35,311G)
ericzubat: 186G (1.0%, 186G)
Evewho: 100G (0.5%, 5,457G)
Firesheath: 100G (0.5%, 12,010G)
RunicMagus: 100G (0.5%, 65,553G)
ThisGuyLovesMath: 100G (0.5%, 1,509G)
