Final Bets: yellow - 19 bets for 24,346G (47.3%, x1.11); black - 10 bets for 27,103G (52.7%, x0.90)

yellow bets:
OneHundredFists: 9,469G (38.9%, 18,568G)
Mesmaster: 5,000G (20.5%, 81,818G)
VolgraTheMoose: 4,001G (16.4%, 33,015G)
CelestialLancer: 1,500G (6.2%, 18,593G)
BirbBrainsBot: 1,000G (4.1%, 105,688G)
butterbelljedi: 500G (2.1%, 5,866G)
killth3kid: 472G (1.9%, 569G)
MagicBottle: 412G (1.7%, 412G)
getthemoneyz: 404G (1.7%, 986,289G)
DuraiPapers: 300G (1.2%, 6,474G)
Lythe_Caraker: 250G (1.0%, 109,622G)
sososteve: 200G (0.8%, 1,143G)
old_overholt_: 200G (0.8%, 35,140G)
IphoneDarkness: 130G (0.5%, 3,673G)
Helllyesss: 108G (0.4%, 108G)
Firesheath: 100G (0.4%, 12,122G)
Kronikle: 100G (0.4%, 4,685G)
CosmicTactician: 100G (0.4%, 7,968G)
Evewho: 100G (0.4%, 5,519G)

black bets:
Rislyeu: 10,000G (36.9%, 48,944G)
toka222: 10,000G (36.9%, 57,879G)
DavenIII: 2,000G (7.4%, 29,420G)
Laserman1000: 1,528G (5.6%, 1,528G)
Baron_von_Scrub: 1,099G (4.1%, 1,099G)
phrossi_v: 1,000G (3.7%, 65,281G)
Oobs56: 1,000G (3.7%, 4,939G)
ericzubat: 276G (1.0%, 276G)
ANFz: 100G (0.4%, 1,143G)
E_Ballard: 100G (0.4%, 10,669G)
