Final Bets: white - 16 bets for 5,011G (39.0%, x1.56); brown - 20 bets for 7,840G (61.0%, x0.64)

white bets:
Rislyeu: 824G (16.4%, 824G)
killth3kid: 700G (14.0%, 101,677G)
MagicBottle: 536G (10.7%, 12,233G)
Aldrammech: 444G (8.9%, 444G)
RunicMagus: 432G (8.6%, 432G)
Arcblazer23: 364G (7.3%, 364G)
run_with_stone_GUNs: 332G (6.6%, 8,988G)
superdevon1: 318G (6.3%, 6,378G)
Seaweed_B: 236G (4.7%, 4,428G)
nsm013: 200G (4.0%, 16,403G)
datadrivenbot: 200G (4.0%, 56,497G)
Xoomwaffle: 112G (2.2%, 112G)
LuckyLuckLuc2: 111G (2.2%, 2,003G)
nhammen: 100G (2.0%, 9,210G)
moonliquor: 100G (2.0%, 14,690G)
getthemoneyz: 2G (0.0%, 1,282,408G)

brown bets:
Cryptopsy70: 1,555G (19.8%, 51,859G)
twelfthrootoftwo: 1,042G (13.3%, 2,045G)
BirbBrainsBot: 1,000G (12.8%, 137,393G)
silentkaster: 500G (6.4%, 16,312G)
fluffskull: 424G (5.4%, 424G)
Digitalsocrates: 420G (5.4%, 3,842G)
letdowncity: 412G (5.3%, 10,189G)
ThreeMileIsland: 395G (5.0%, 395G)
DustBirdEX: 369G (4.7%, 2,649G)
Rurk: 304G (3.9%, 304G)
gorgewall: 201G (2.6%, 5,742G)
shineeyo: 200G (2.6%, 10,628G)
Evewho: 200G (2.6%, 2,033G)
Skincrawler: 185G (2.4%, 185G)
Lydian_C: 121G (1.5%, 91,202G)
dtrain332: 112G (1.4%, 112G)
victoriolue: 100G (1.3%, 3,296G)
seibaru: 100G (1.3%, 100G)
furrytomahawkk: 100G (1.3%, 3,879G)
Kellios11: 100G (1.3%, 32,355G)
