Final Bets: blue - 10 bets for 2,530G (11.5%, x7.69); yellow - 21 bets for 19,465G (88.5%, x0.13)

blue bets:
farside00831: 700G (27.7%, 766G)
technominari: 500G (19.8%, 93,445G)
AllInBot: 307G (12.1%, 307G)
xGlaive: 300G (11.9%, 1,455G)
Zachara: 200G (7.9%, 141,000G)
Lydian_C: 123G (4.9%, 4,657G)
mirapoix: 100G (4.0%, 9,087G)
Jabuamba: 100G (4.0%, 1,664G)
2b_yorha_b: 100G (4.0%, 1,000G)
BlizzWulf: 100G (4.0%, 6,500G)

yellow bets:
Leonidusx: 2,000G (10.3%, 328,673G)
AltimaMantoid: 2,000G (10.3%, 20,400G)
Willjin: 2,000G (10.3%, 30,760G)
ser_pyrro: 2,000G (10.3%, 11,120G)
reinoe: 2,000G (10.3%, 45,422G)
Zagorsek: 1,115G (5.7%, 1,115G)
latebit: 1,111G (5.7%, 5,360G)
BirbBrainsBot: 1,000G (5.1%, 32,795G)
sireaulou: 1,000G (5.1%, 3,183G)
krombobreaker: 1,000G (5.1%, 30,569G)
Lord_Gwarth: 811G (4.2%, 811G)
dogsandcatsand: 748G (3.8%, 15,806G)
getthemoneyz: 604G (3.1%, 2,097,338G)
Laserman1000: 518G (2.7%, 10,918G)
ValensEXP_: 408G (2.1%, 408G)
silentkaster: 350G (1.8%, 24,082G)
NeoXianWu_: 200G (1.0%, 253G)
datadrivenbot: 200G (1.0%, 78,527G)
daveb_: 199G (1.0%, 4,209G)
gorgewall: 101G (0.5%, 2,552G)
skipsandwiches: 100G (0.5%, 160,566G)
