Final Bets: yellow - 11 bets for 6,132G (42.1%, x1.38); white - 14 bets for 8,435G (57.9%, x0.73)

yellow bets:
TheMurkGnome: 1,578G (25.7%, 1,578G)
Mushufasa_: 1,234G (20.1%, 34,594G)
DeathTaxesAndAnime: 1,111G (18.1%, 28,435G)
SensualOnix: 500G (8.2%, 5,187G)
WireLord: 412G (6.7%, 412G)
lijarkh: 340G (5.5%, 340G)
Deeps_one: 236G (3.8%, 236G)
xXTysongXx: 204G (3.3%, 204G)
gorgewall: 201G (3.3%, 8,065G)
datadrivenbot: 200G (3.3%, 84,994G)
verythinice: 116G (1.9%, 6,980G)

white bets:
Chihuahua_Charity: 1,895G (22.5%, 1,895G)
AllInBot: 1,628G (19.3%, 1,628G)
HaplessOne: 1,111G (13.2%, 4,092G)
BirbBrainsBot: 1,000G (11.9%, 72,540G)
YowaneHaku: 750G (8.9%, 5,018G)
superdevon1: 388G (4.6%, 2,846G)
getthemoneyz: 366G (4.3%, 2,216,614G)
ar_tactic: 350G (4.1%, 64,682G)
Zachara: 200G (2.4%, 1,400G)
NicoSavoy: 200G (2.4%, 166,241G)
Leonidusx: 200G (2.4%, 543,237G)
ZPawZ: 124G (1.5%, 124G)
Lydian_C: 123G (1.5%, 3,136G)
TheBrett: 100G (1.2%, 30,089G)
