Final Bets: red - 10 bets for 5,939G (41.0%, x1.44); white - 11 bets for 8,543G (59.0%, x0.70)

red bets:
ValtonZenola: 1,500G (25.3%, 11,033G)
helpimabug: 1,217G (20.5%, 2,435G)
BirbBrainsBot: 1,000G (16.8%, 122,112G)
getthemoneyz: 746G (12.6%, 1,215,596G)
MagicBottle: 508G (8.6%, 17,827G)
enkikavlar: 312G (5.3%, 312G)
Valdimar_5467: 200G (3.4%, 5,786G)
KasugaiRoastedPeas: 200G (3.4%, 11,818G)
superdevon1: 144G (2.4%, 2,881G)
hiros13gts: 112G (1.9%, 112G)

white bets:
ThreeMileIsland: 1,931G (22.6%, 1,931G)
Snoopiku: 1,639G (19.2%, 32,781G)
lowlf: 1,111G (13.0%, 144,680G)
sukotsuto: 1,000G (11.7%, 27,515G)
DaKoopa49: 824G (9.6%, 824G)
Evewho: 579G (6.8%, 1,643G)
HaateXIII: 500G (5.9%, 3,910G)
byrdturbo: 420G (4.9%, 17,304G)
nok____: 218G (2.6%, 5,218G)
datadrivenbot: 200G (2.3%, 56,178G)
Lydian_C: 121G (1.4%, 147,802G)
