Final Bets: green - 25 bets for 24,492G (56.6%, x0.77); yellow - 27 bets for 18,808G (43.4%, x1.30)

green bets:
onetrickwolf: 7,866G (32.1%, 7,866G)
Kennymillennium: 3,720G (15.2%, 3,720G)
rockmem21: 2,136G (8.7%, 42,728G)
Drakel: 2,000G (8.2%, 5,055G)
CCRUNNER149UWP: 1,111G (4.5%, 14,255G)
RongRongArts: 1,100G (4.5%, 22,691G)
Shalloween: 1,000G (4.1%, 60,109G)
pandasforsale: 999G (4.1%, 7,199G)
Bubbafun: 600G (2.4%, 1,069G)
CorpusCav: 526G (2.1%, 4,786G)
JophesMannhoh: 500G (2.0%, 5,077G)
TheGuesty: 500G (2.0%, 6,418G)
HaplessOne: 500G (2.0%, 45,163G)
ensiron: 420G (1.7%, 8,333G)
fenixcrest: 308G (1.3%, 6,161G)
astrozin11: 304G (1.2%, 7,704G)
MrFlabyo: 200G (0.8%, 20,086G)
shiokenstar: 100G (0.4%, 1,527G)
Oshimi12: 100G (0.4%, 1,236G)
Nizaha: 100G (0.4%, 8,185G)
Lordminsc: 100G (0.4%, 16,942G)
Seeingeye24: 100G (0.4%, 1,739G)
datadrivenbot: 100G (0.4%, 16,208G)
WillFitzgerald: 100G (0.4%, 2,816G)
daveb_: 2G (0.0%, 1,550G)

yellow bets:
OmnibotGamma: 4,414G (23.5%, 4,414G)
SkylerBunny: 2,000G (10.6%, 57,389G)
toka222: 1,350G (7.2%, 408,253G)
DeathTaxesAndAnime: 1,229G (6.5%, 1,229G)
NovaKnight21: 1,105G (5.9%, 1,105G)
kai_shee: 1,000G (5.3%, 34,740G)
BirbBrainsBot: 1,000G (5.3%, 1,856G)
bad1dea: 1,000G (5.3%, 232,712G)
Axelrod: 695G (3.7%, 13,906G)
omegasuspekt: 555G (3.0%, 5,426G)
rubenflonne: 500G (2.7%, 7,453G)
Theseawolf1: 500G (2.7%, 5,331G)
hkbadboy: 500G (2.7%, 3,712G)
getthemoneyz: 456G (2.4%, 396,937G)
ko2q: 451G (2.4%, 451G)
Aurilliux: 280G (1.5%, 280G)
Pie108: 240G (1.3%, 1,145G)
lunaticruin: 240G (1.3%, 240G)
ZephyrTempest: 229G (1.2%, 3,190G)
RurouniGeo: 220G (1.2%, 220G)
robespyah: 200G (1.1%, 881G)
JIDkomu: 132G (0.7%, 132G)
WoooBlaaa: 112G (0.6%, 112G)
denamda: 100G (0.5%, 18,469G)
maakur_: 100G (0.5%, 3,285G)
BadBlanket: 100G (0.5%, 1,725G)
sinnyil2: 100G (0.5%, 1,572G)
