Final Bets: green - 12 bets for 5,154G (21.6%, x3.62); champion - 14 bets for 18,671G (78.4%, x0.28)

green bets:
Draconis345: 1,000G (19.4%, 55,976G)
BirbBrainsBot: 1,000G (19.4%, 17,001G)
dogsandcatsand: 576G (11.2%, 18,747G)
benticore: 500G (9.7%, 19,578G)
Zbgs: 452G (8.8%, 452G)
skipsandwiches: 448G (8.7%, 448G)
SephDarkheart: 316G (6.1%, 54,671G)
boosted420: 300G (5.8%, 2,571G)
getthemoneyz: 212G (4.1%, 1,299,537G)
MattMan119: 150G (2.9%, 584G)
DouglasDragonThePoet: 100G (1.9%, 2,020G)
Joaneyy: 100G (1.9%, 100G)

champion bets:
TheChainNerd: 7,003G (37.5%, 70,030G)
Sairentozon7: 4,905G (26.3%, 4,905G)
Zeroroute: 2,164G (11.6%, 2,164G)
NIghtdew14: 1,500G (8.0%, 8,944G)
AllInBot: 999G (5.4%, 999G)
RyanTheRebs: 500G (2.7%, 3,937G)
Xoomwaffle: 500G (2.7%, 5,210G)
TasisSai: 400G (2.1%, 10,160G)
datadrivenbot: 200G (1.1%, 33,389G)
nhammen: 100G (0.5%, 14,532G)
Kellios11: 100G (0.5%, 28,812G)
lastly: 100G (0.5%, 31,009G)
iBardic: 100G (0.5%, 100G)
nifboy: 100G (0.5%, 3,840G)
