Final Bets: red - 17 bets for 21,046G (69.7%, x0.43); blue - 8 bets for 9,149G (30.3%, x2.30)

red bets:
Firesheath: 8,213G (39.0%, 8,213G)
gorgewall: 2,771G (13.2%, 2,771G)
NicoSavoy: 2,000G (9.5%, 41,334G)
fattunaking: 1,717G (8.2%, 1,717G)
sinnyil2: 1,048G (5.0%, 1,048G)
BirbBrainsBot: 1,000G (4.8%, 87,823G)
Laserman1000: 802G (3.8%, 17,202G)
iBardic: 513G (2.4%, 513G)
Powermhero: 500G (2.4%, 26,000G)
Lifebregin: 500G (2.4%, 4,500G)
BaronHaynes: 500G (2.4%, 65,915G)
lowlf: 416G (2.0%, 5,271G)
Cryptopsy70: 340G (1.6%, 340G)
MemoriesofFinal: 244G (1.2%, 244G)
datadrivenbot: 200G (1.0%, 64,137G)
getthemoneyz: 182G (0.9%, 1,761,057G)
Leonidusx: 100G (0.5%, 460G)

blue bets:
AllInBot: 4,886G (53.4%, 4,886G)
JCBoorgo: 1,131G (12.4%, 1,131G)
JCBooBot: 1,000G (10.9%, 49,547G)
OneHundredFists: 680G (7.4%, 680G)
DavenIII: 520G (5.7%, 520G)
thunderducker: 452G (4.9%, 452G)
Treafa: 380G (4.2%, 384G)
ko2q: 100G (1.1%, 15,273G)
