Final Bets: red - 12 bets for 11,210G (64.5%, x0.55); blue - 11 bets for 6,173G (35.5%, x1.82)

red bets:
DavenIII: 3,000G (26.8%, 85,622G)
NIghtdew14: 2,000G (17.8%, 4,800G)
VolgraTheMoose: 1,001G (8.9%, 50,165G)
maximumcrit: 1,000G (8.9%, 6,238G)
dogsandcatsand: 917G (8.2%, 917G)
killth3kid: 792G (7.1%, 52,393G)
Forkmore: 600G (5.4%, 600G)
SephDarkheart: 600G (5.4%, 153,682G)
Sye990: 500G (4.5%, 20,927G)
dcmoragn315: 500G (4.5%, 3,222G)
datadrivenbot: 200G (1.8%, 66,516G)
mirapoix: 100G (0.9%, 6,161G)

blue bets:
BirbBrainsBot: 1,000G (16.2%, 158,833G)
Willjin: 1,000G (16.2%, 16,708G)
Shalloween: 1,000G (16.2%, 17,733G)
E_Ballard: 724G (11.7%, 48,590G)
absalom_20: 604G (9.8%, 604G)
Thyrandaal: 432G (7.0%, 432G)
whelming_wave: 429G (6.9%, 429G)
WhiteTigress: 400G (6.5%, 12,592G)
getthemoneyz: 384G (6.2%, 1,733,023G)
AllInBot: 100G (1.6%, 100G)
RunicMagus: 100G (1.6%, 6,672G)
