Final Bets: purple - 9 bets for 22,601G (76.3%, x0.31); brown - 11 bets for 7,008G (23.7%, x3.23)

purple bets:
bruubarg: 18,296G (81.0%, 18,296G)
InOzWeTrust: 1,393G (6.2%, 1,393G)
Willjin: 1,000G (4.4%, 17,024G)
killth3kid: 792G (3.5%, 50,517G)
Shalloween: 400G (1.8%, 19,349G)
maximumcrit: 396G (1.8%, 396G)
Lydian_C: 123G (0.5%, 4,761G)
gorgewall: 101G (0.4%, 20,889G)
AllInBot: 100G (0.4%, 100G)

brown bets:
DavenIII: 2,500G (35.7%, 80,122G)
reinoe: 1,000G (14.3%, 25,906G)
BirbBrainsBot: 1,000G (14.3%, 161,126G)
dcmoragn315: 750G (10.7%, 3,619G)
whelming_wave: 500G (7.1%, 1,946G)
Thyrandaal: 432G (6.2%, 432G)
WhiteTigress: 300G (4.3%, 14,261G)
datadrivenbot: 200G (2.9%, 66,411G)
getthemoneyz: 126G (1.8%, 1,733,595G)
RunicMagus: 100G (1.4%, 7,976G)
SephDarkheart: 100G (1.4%, 154,059G)
