Final Bets: green - 8 bets for 5,098G (23.4%, x3.28); yellow - 16 bets for 16,703G (76.6%, x0.31)

green bets:
E_Ballard: 2,659G (52.2%, 2,659G)
getthemoneyz: 1,000G (19.6%, 2,182,981G)
PopsLIVE: 500G (9.8%, 4,955G)
JonnyCue: 476G (9.3%, 15,891G)
gorgewall: 201G (3.9%, 5,438G)
Widewalk: 112G (2.2%, 112G)
CosmicTactician: 100G (2.0%, 3,550G)
FuzzyTigers: 50G (1.0%, 993G)

yellow bets:
Nizaha: 6,247G (37.4%, 12,495G)
old_overholt_: 3,000G (18.0%, 62,392G)
CorpusCav: 2,000G (12.0%, 69,545G)
BirbBrainsBot: 1,000G (6.0%, 115,293G)
Lord_Gwarth: 1,000G (6.0%, 3,433G)
Thyrandaal: 788G (4.7%, 788G)
Laserman1000: 650G (3.9%, 12,150G)
2b_yorha_b: 400G (2.4%, 22,557G)
tripaplex: 300G (1.8%, 10,891G)
KGenjy: 300G (1.8%, 5,377G)
DHaveWord: 208G (1.2%, 208G)
AllInBot: 200G (1.2%, 200G)
ChiChiRodriguez: 200G (1.2%, 879G)
Evewho: 200G (1.2%, 7,296G)
datadrivenbot: 200G (1.2%, 87,146G)
nhammen: 10G (0.1%, 42,555G)
