Final Bets: yellow - 15 bets for 8,077G (36.0%, x1.78); champion - 16 bets for 14,365G (64.0%, x0.56)

yellow bets:
BirbBrainsBot: 1,000G (12.4%, 114,309G)
old_overholt_: 1,000G (12.4%, 65,191G)
Mesmaster: 1,000G (12.4%, 5,151G)
RagequitSA: 765G (9.5%, 765G)
tripaplex: 700G (8.7%, 10,783G)
Nizaha: 668G (8.3%, 16,518G)
Laserman1000: 600G (7.4%, 13,800G)
Lord_Gwarth: 500G (6.2%, 6,894G)
KGenjy: 400G (5.0%, 5,355G)
2b_yorha_b: 400G (5.0%, 22,240G)
getthemoneyz: 322G (4.0%, 2,181,428G)
daveb_: 222G (2.7%, 8,558G)
Evewho: 200G (2.5%, 7,691G)
ChiChiRodriguez: 200G (2.5%, 2,129G)
maakur_: 100G (1.2%, 2,027G)

champion bets:
AllInBot: 5,587G (38.9%, 5,587G)
CorpusCav: 2,000G (13.9%, 60,785G)
E_Ballard: 1,984G (13.8%, 1,984G)
FuzzyTigers: 973G (6.8%, 973G)
DeathTaxesAndAnime: 956G (6.7%, 956G)
dogsandcatsand: 548G (3.8%, 4,843G)
ColetteMSLP: 504G (3.5%, 13,670G)
ExplanationMarkWow: 500G (3.5%, 45,300G)
silentkaster: 300G (2.1%, 29,493G)
MelloHeart: 200G (1.4%, 200G)
resjudicata3: 200G (1.4%, 19,092G)
datadrivenbot: 200G (1.4%, 86,850G)
Widewalk: 112G (0.8%, 112G)
gorgewall: 101G (0.7%, 5,576G)
heropong: 100G (0.7%, 1,778G)
nhammen: 100G (0.7%, 42,561G)
