Final Bets: blue - 21 bets for 53,402G (65.5%, x0.53); white - 18 bets for 28,176G (34.5%, x1.90)

blue bets:
HaplessOne: 26,868G (50.3%, 26,868G)
DeathTaxesAndAnime: 6,534G (12.2%, 12,813G)
jakeduhhsnake: 5,000G (9.4%, 73,086G)
Xenomorith: 2,492G (4.7%, 2,492G)
happyfundude: 2,000G (3.7%, 23,443G)
IISylaxII: 1,934G (3.6%, 1,934G)
reinoe: 1,910G (3.6%, 7,640G)
KasugaiRoastedPeas: 1,234G (2.3%, 3,341G)
Dexsana: 1,029G (1.9%, 1,029G)
TheMM42: 1,000G (1.9%, 8,360G)
Laserman1000: 800G (1.5%, 86,300G)
gorgewall: 500G (0.9%, 18,227G)
HASTERIOUS: 500G (0.9%, 10,019G)
kaidykat: 400G (0.7%, 1,882G)
TimeNugget: 301G (0.6%, 1,207G)
twelfthrootoftwo: 300G (0.6%, 2,925G)
SimplyRed: 200G (0.4%, 635G)
zeventhing: 100G (0.2%, 100G)
Bioticism: 100G (0.2%, 1,604G)
chaotic_prodigy: 100G (0.2%, 100G)
datadrivenbot: 100G (0.2%, 13,279G)

white bets:
Jerboj: 10,000G (35.5%, 57,633G)
R_Raynos: 10,000G (35.5%, 46,314G)
Mesmaster: 3,000G (10.6%, 94,919G)
Crymoreimo2: 1,100G (3.9%, 1,100G)
TheRedMelody: 918G (3.3%, 918G)
sinnyil2: 628G (2.2%, 628G)
ungabunga_bot: 620G (2.2%, 319,753G)
getthemoneyz: 602G (2.1%, 611,030G)
moonliquor: 280G (1.0%, 280G)
BirbBrainsBot: 200G (0.7%, 200G)
RestIessNight: 120G (0.4%, 120G)
fd3sihk: 108G (0.4%, 108G)
OneHundredFists: 100G (0.4%, 2,210G)
Heroebal: 100G (0.4%, 7,914G)
GiggleStik: 100G (0.4%, 5,172G)
Dymntd: 100G (0.4%, 4,284G)
madman66666: 100G (0.4%, 1,074G)
SulliedGraves: 100G (0.4%, 1,306G)
