Final Bets: white - 18 bets for 16,916G (73.2%, x0.37); black - 13 bets for 6,189G (26.8%, x2.73)

white bets:
Mesmaster: 5,000G (29.6%, 65,044G)
gooseyourself: 2,652G (15.7%, 5,304G)
killth3kid: 2,000G (11.8%, 62,624G)
BirbBrainsBot: 1,000G (5.9%, 187,093G)
Bloody_Nips: 1,000G (5.9%, 1,100G)
WrathfulRemy: 1,000G (5.9%, 6,239G)
edgehead62888: 786G (4.6%, 786G)
powergems: 600G (3.5%, 10,130G)
FNCardascia_: 594G (3.5%, 594G)
ungabunga_bot: 531G (3.1%, 322,831G)
sukotsuto: 500G (3.0%, 2,261G)
Rislyeu: 365G (2.2%, 730G)
Squatting_Bear: 300G (1.8%, 4,139G)
Chao_Garden: 200G (1.2%, 7,433G)
gggamezzz: 162G (1.0%, 162G)
Lydian_C: 120G (0.7%, 1,751G)
datadrivenbot: 100G (0.6%, 12,167G)
getthemoneyz: 6G (0.0%, 599,640G)

black bets:
Lord_Burrah: 1,000G (16.2%, 106,834G)
Zhies1337: 1,000G (16.2%, 12,601G)
HaplessOne: 999G (16.1%, 16,982G)
Meta_Five: 500G (8.1%, 6,807G)
HaateXIII: 500G (8.1%, 5,557G)
FoeSquirrel: 444G (7.2%, 888G)
TheGuesty: 411G (6.6%, 22,411G)
Baron_von_Scrub: 337G (5.4%, 337G)
Grimmace45: 320G (5.2%, 320G)
hydroshade: 224G (3.6%, 224G)
Eyepoor_: 204G (3.3%, 435G)
Sentwist: 150G (2.4%, 1,051G)
MirtaiAtana: 100G (1.6%, 5,202G)
