Final Bets: blue - 19 bets for 26,002G (74.9%, x0.34); black - 15 bets for 8,733G (25.1%, x2.98)

blue bets:
Zhies1337: 10,483G (40.3%, 10,483G)
Mesmaster: 3,000G (11.5%, 59,314G)
HaplessOne: 2,500G (9.6%, 14,884G)
HaateXIII: 2,173G (8.4%, 4,261G)
WrathfulRemy: 1,000G (3.8%, 6,123G)
TheGuesty: 1,000G (3.8%, 26,468G)
ungabunga_bot: 1,000G (3.8%, 322,323G)
BirbBrainsBot: 1,000G (3.8%, 186,018G)
edgehead62888: 731G (2.8%, 731G)
DeathTaxesAndAnime: 684G (2.6%, 684G)
Breakdown777: 500G (1.9%, 18,145G)
getthemoneyz: 486G (1.9%, 601,119G)
Eyepoor_: 404G (1.6%, 1,137G)
HorusTaurus: 333G (1.3%, 2,481G)
FNCardascia_: 208G (0.8%, 208G)
Bloody_Nips: 200G (0.8%, 597G)
MirtaiAtana: 100G (0.4%, 3,811G)
LorianFaust: 100G (0.4%, 711G)
datadrivenbot: 100G (0.4%, 12,464G)

black bets:
Grimmace45: 1,750G (20.0%, 1,750G)
LordSDB: 1,500G (17.2%, 2,289G)
NovaKnight21: 1,024G (11.7%, 2,049G)
Lord_Burrah: 1,000G (11.5%, 109,567G)
Lydian_C: 600G (6.9%, 600G)
SarrgeQc: 501G (5.7%, 3,368G)
ACSpree: 500G (5.7%, 1,266G)
nedryerson01: 400G (4.6%, 8,188G)
Rislyeu: 400G (4.6%, 3,130G)
Meta_Five: 300G (3.4%, 9,367G)
Odin007_88: 248G (2.8%, 248G)
FoeSquirrel: 160G (1.8%, 320G)
Sentwist: 150G (1.7%, 1,426G)
gggamezzz: 100G (1.1%, 634G)
Squatting_Bear: 100G (1.1%, 4,486G)
