Final Bets: white - 12 bets for 13,523G (68.1%, x0.47); black - 13 bets for 6,346G (31.9%, x2.13)

white bets:
Thyrandaal: 10,000G (73.9%, 269,213G)
killth3kid: 700G (5.2%, 37,672G)
Lydian_C: 585G (4.3%, 585G)
Kronikle: 524G (3.9%, 14,586G)
Aldrammech: 509G (3.8%, 5,098G)
TrogdorTheMemeinator: 500G (3.7%, 2,911G)
datadrivenbot: 200G (1.5%, 65,583G)
TheDali23: 104G (0.8%, 104G)
gorgewall: 101G (0.7%, 3,162G)
Brainstew29: 100G (0.7%, 37,494G)
Treafa: 100G (0.7%, 7,060G)
ko2q: 100G (0.7%, 3,573G)

black bets:
DeathTaxesAndAnime: 3,270G (51.5%, 6,412G)
BirbBrainsBot: 1,000G (15.8%, 84,418G)
getthemoneyz: 372G (5.9%, 1,618,725G)
koeeh: 300G (4.7%, 2,784G)
AllInBot: 200G (3.2%, 200G)
Gunz232323: 200G (3.2%, 1,589G)
maddrave09: 200G (3.2%, 1,248G)
porkbacon: 200G (3.2%, 5,579G)
ProteinBiscuit: 200G (3.2%, 2,472G)
Krinku: 104G (1.6%, 2,991G)
MinBetBot: 100G (1.6%, 5,372G)
DarrenDinosaurs: 100G (1.6%, 3,229G)
ribbiks: 100G (1.6%, 2,493G)
