Final Bets: white - 16 bets for 8,375G (33.3%, x2.00); purple - 19 bets for 16,785G (66.7%, x0.50)

white bets:
killth3kid: 2,000G (23.9%, 11,938G)
EnemyController: 1,000G (11.9%, 230,228G)
Virilikus: 1,000G (11.9%, 137,069G)
E_Ballard: 965G (11.5%, 965G)
TheKillerNacho: 541G (6.5%, 541G)
eudes89: 500G (6.0%, 6,094G)
getthemoneyz: 408G (4.9%, 673,506G)
vorap: 400G (4.8%, 48,815G)
CorpusCav: 300G (3.6%, 13,889G)
bahamutlagooon: 254G (3.0%, 5,097G)
Ungaiii: 228G (2.7%, 228G)
twelfthrootoftwo: 200G (2.4%, 5,025G)
cupholderr: 200G (2.4%, 58,369G)
ungabunga_bot: 179G (2.1%, 471,780G)
Evewho: 100G (1.2%, 1,071G)
Antipathics: 100G (1.2%, 1,988G)

purple bets:
HaateXIII: 4,257G (25.4%, 4,257G)
Zeroroute: 2,997G (17.9%, 2,997G)
nifboy: 1,628G (9.7%, 1,628G)
itsdigitalbro: 1,500G (8.9%, 12,976G)
SeedSC: 1,234G (7.4%, 229,654G)
BirbBrainsBot: 1,000G (6.0%, 13,502G)
Lionhermit: 1,000G (6.0%, 50,858G)
mpghappiness: 742G (4.4%, 742G)
CCRUNNER149UWP: 585G (3.5%, 585G)
Ironzombie8: 400G (2.4%, 2,606G)
ApplesauceBoss: 320G (1.9%, 320G)
jtrap666: 300G (1.8%, 1,623G)
metagameface: 244G (1.5%, 244G)
otakutaylor: 139G (0.8%, 139G)
FaytKion: 129G (0.8%, 129G)
CosmicTactician: 100G (0.6%, 11,280G)
datadrivenbot: 100G (0.6%, 13,514G)
RunicMagus: 100G (0.6%, 48,092G)
moonliquor: 10G (0.1%, 6,993G)
