Final Bets: red - 32 bets for 15,792G (22.0%, x3.54); yellow - 9 bets for 55,905G (78.0%, x0.28)

red bets:
SeedSC: 2,000G (12.7%, 166,194G)
DeathTaxesAndAnime: 1,220G (7.7%, 2,394G)
MantisFinch: 1,127G (7.1%, 2,254G)
BirbBrainsBot: 1,000G (6.3%, 271,659G)
Ausuri: 1,000G (6.3%, 8,738G)
getthemoneyz: 744G (4.7%, 443,877G)
Lodrak: 740G (4.7%, 740G)
Baron_von_Scrub: 629G (4.0%, 629G)
Nizaha: 608G (3.9%, 608G)
Lanshaft: 604G (3.8%, 604G)
superdevon1: 500G (3.2%, 500G)
Faplo: 500G (3.2%, 1,118G)
Pie108: 500G (3.2%, 8,574G)
kingchadking: 460G (2.9%, 460G)
ANFz: 456G (2.9%, 456G)
maakur_: 424G (2.7%, 424G)
rockmem21: 405G (2.6%, 405G)
roofiepops: 400G (2.5%, 3,605G)
ZephyrTempest: 326G (2.1%, 33,643G)
HaateXIII: 308G (2.0%, 308G)
JumbocactuarX27: 304G (1.9%, 304G)
Slowbrofist: 280G (1.8%, 280G)
JustSuperish: 256G (1.6%, 256G)
GreatRedDragon: 256G (1.6%, 256G)
Chuckolator: 225G (1.4%, 1,661G)
Jerboj: 114G (0.7%, 114G)
friendsquirrel: 100G (0.6%, 7,392G)
BlinkFS: 100G (0.6%, 418G)
datadrivenbot: 100G (0.6%, 25,058G)
Cataphract116: 100G (0.6%, 1,784G)
ko2q: 5G (0.0%, 1,797G)
daveb_: 1G (0.0%, 1,474G)

yellow bets:
sinnyil2: 53,301G (95.3%, 106,603G)
YaBoy125: 854G (1.5%, 854G)
TheChainNerd: 552G (1.0%, 552G)
RughSontos: 546G (1.0%, 546G)
mivvim: 252G (0.5%, 252G)
AllInBot: 100G (0.2%, 100G)
IndecisiveNinja: 100G (0.2%, 3,821G)
jethrothrul: 100G (0.2%, 1,083G)
ungabunga_bot: 100G (0.2%, 84,809G)
