Final Bets: red - 33 bets for 32,279G (52.2%, x0.92); champion - 19 bets for 29,544G (47.8%, x1.09)

red bets:
Mtueni: 5,000G (15.5%, 99,539G)
Arunic: 4,000G (12.4%, 18,923G)
Nizaha: 3,473G (10.8%, 6,947G)
mirapoix: 1,602G (5.0%, 1,602G)
waterwatereverywhere: 1,363G (4.2%, 2,674G)
GreatRedDragon: 1,162G (3.6%, 1,162G)
MantisFinch: 1,061G (3.3%, 4,244G)
JustSuperish: 1,040G (3.2%, 1,040G)
TheChainNerd: 1,000G (3.1%, 2,493G)
ungabunga_bot: 1,000G (3.1%, 84,653G)
BirbBrainsBot: 1,000G (3.1%, 276,280G)
Shalloween: 1,000G (3.1%, 9,796G)
SeedSC: 1,000G (3.1%, 174,355G)
rockmem21: 974G (3.0%, 974G)
HaateXIII: 949G (2.9%, 949G)
JumbocactuarX27: 937G (2.9%, 937G)
Slowbrofist: 863G (2.7%, 863G)
oogthecaveman: 737G (2.3%, 737G)
OneHundredFists: 594G (1.8%, 594G)
superdevon1: 500G (1.5%, 500G)
LDSkinny: 500G (1.5%, 4,203G)
jethrothrul: 462G (1.4%, 924G)
roofiepops: 440G (1.4%, 4,585G)
Eldente: 384G (1.2%, 384G)
ZephyrTempest: 351G (1.1%, 35,173G)
Chuckolator: 233G (0.7%, 2,797G)
KasugaiRoastedPeas: 200G (0.6%, 17,879G)
Lodrak: 100G (0.3%, 5,134G)
datadrivenbot: 100G (0.3%, 25,520G)
maakur_: 100G (0.3%, 2,133G)
ANFz: 100G (0.3%, 2,325G)
BlinkFS: 50G (0.2%, 826G)
daveb_: 4G (0.0%, 1,485G)

champion bets:
sinnyil2: 16,430G (55.6%, 32,860G)
DeathTaxesAndAnime: 3,457G (11.7%, 6,780G)
old_overholt_: 2,713G (9.2%, 2,713G)
UmaiJam: 1,643G (5.6%, 1,643G)
Shakarak: 1,344G (4.5%, 2,636G)
Laserman1000: 754G (2.6%, 15,054G)
Lanshaft: 600G (2.0%, 2,422G)
kingchadking: 460G (1.6%, 460G)
coralreeferz: 400G (1.4%, 14,353G)
DudeMonkey77: 332G (1.1%, 332G)
AllInBot: 308G (1.0%, 308G)
Jerboj: 308G (1.0%, 308G)
DrAntiSocial: 272G (0.9%, 272G)
Wonser: 164G (0.6%, 164G)
Firesheath: 100G (0.3%, 1,046G)
friendsquirrel: 100G (0.3%, 7,854G)
IndecisiveNinja: 100G (0.3%, 3,668G)
Sitiran: 54G (0.2%, 108G)
ko2q: 5G (0.0%, 1,817G)
