Final Bets: red - 12 bets for 4,554G (37.9%, x1.64); green - 10 bets for 7,471G (62.1%, x0.61)

red bets:
killth3kid: 680G (14.9%, 36,099G)
SkylerBunny: 676G (14.8%, 676G)
superdevon1: 647G (14.2%, 64,799G)
nekojin: 500G (11.0%, 22,050G)
HaateXIII: 500G (11.0%, 2,747G)
neocarbuncle: 434G (9.5%, 434G)
ko2q: 416G (9.1%, 416G)
AllInBot: 200G (4.4%, 200G)
datadrivenbot: 200G (4.4%, 56,480G)
ANFz: 101G (2.2%, 10,853G)
arctodus13: 100G (2.2%, 100G)
resjudicata3: 100G (2.2%, 4,524G)

green bets:
Mesmaster: 2,000G (26.8%, 9,340G)
DeathTaxesAndAnime: 1,687G (22.6%, 1,687G)
BirbBrainsBot: 1,000G (13.4%, 47,009G)
Tarheels218: 1,000G (13.4%, 9,555G)
gorgewall: 708G (9.5%, 708G)
douchetron: 600G (8.0%, 600G)
blandshee: 200G (2.7%, 1,837G)
MinBetBot: 100G (1.3%, 22,573G)
red_celt: 100G (1.3%, 1,051G)
getthemoneyz: 76G (1.0%, 1,612,765G)
