Final Bets: white - 8 bets for 4,234G (25.1%, x2.98); purple - 17 bets for 12,615G (74.9%, x0.34)

white bets:
gorgewall: 1,140G (26.9%, 1,140G)
braveboyblue: 1,000G (23.6%, 7,032G)
getthemoneyz: 618G (14.6%, 1,612,811G)
nekojin: 500G (11.8%, 21,550G)
silentperogy: 300G (7.1%, 32,568G)
neocarbuncle: 276G (6.5%, 276G)
blandshee: 200G (4.7%, 1,959G)
datadrivenbot: 200G (4.7%, 56,280G)

purple bets:
Mesmaster: 2,000G (15.9%, 10,559G)
resjudicata3: 2,000G (15.9%, 4,424G)
red_celt: 1,112G (8.8%, 1,112G)
BirbBrainsBot: 1,000G (7.9%, 47,619G)
Tarheels218: 1,000G (7.9%, 10,165G)
douchetron: 970G (7.7%, 970G)
WhiteTigress: 700G (5.5%, 2,398G)
SkylerBunny: 676G (5.4%, 676G)
superdevon1: 641G (5.1%, 64,152G)
technominari: 500G (4.0%, 88,022G)
HaateXIII: 500G (4.0%, 2,247G)
zenlion: 500G (4.0%, 11,724G)
ko2q: 416G (3.3%, 416G)
AllInBot: 200G (1.6%, 200G)
nok____: 200G (1.6%, 3,173G)
MinBetBot: 100G (0.8%, 22,634G)
arctodus13: 100G (0.8%, 100G)
