Final Bets: green - 19 bets for 11,871G (62.6%, x0.60); yellow - 11 bets for 7,097G (37.4%, x1.67)

green bets:
NicoSavoy: 5,000G (42.1%, 175,764G)
ACSpree: 1,100G (9.3%, 1,100G)
BirbBrainsBot: 1,000G (8.4%, 131,130G)
twelfthrootoftwo: 742G (6.3%, 1,455G)
killth3kid: 700G (5.9%, 104,895G)
Nizaha: 540G (4.5%, 540G)
Digitalsocrates: 416G (3.5%, 3,217G)
TasisSai: 304G (2.6%, 304G)
shineeyo: 300G (2.5%, 11,411G)
getthemoneyz: 270G (2.3%, 1,276,873G)
Snowfats: 250G (2.1%, 3,366G)
furrytomahawkk: 232G (2.0%, 232G)
flacococo: 216G (1.8%, 216G)
gorgewall: 201G (1.7%, 5,369G)
datadrivenbot: 200G (1.7%, 57,340G)
fluffskull: 100G (0.8%, 22,666G)
Othatmattkid: 100G (0.8%, 1,369G)
Miku_Shikhu: 100G (0.8%, 8,600G)
Lythe_Caraker: 100G (0.8%, 147,891G)

yellow bets:
Error72: 1,661G (23.4%, 1,661G)
EnemyController: 1,111G (15.7%, 1,423,690G)
NIghtdew14: 1,000G (14.1%, 3,972G)
HaateXIII: 728G (10.3%, 728G)
superdevon1: 719G (10.1%, 8,996G)
helpimabug: 488G (6.9%, 488G)
DamnThatShark: 312G (4.4%, 312G)
Rurk: 300G (4.2%, 300G)
RageImmortaI: 292G (4.1%, 2,468G)
beefstax: 286G (4.0%, 286G)
Treafa: 200G (2.8%, 2,699G)
