Final Bets: blue - 15 bets for 7,223G (28.7%, x2.49); green - 16 bets for 17,982G (71.3%, x0.40)

blue bets:
twelfthrootoftwo: 2,049G (28.4%, 4,019G)
Error72: 1,022G (14.1%, 2,004G)
Rurk: 773G (10.7%, 773G)
killth3kid: 700G (9.7%, 105,317G)
superdevon1: 373G (5.2%, 7,471G)
hemeroidcream: 355G (4.9%, 1,002G)
beefstax: 345G (4.8%, 345G)
RageImmortaI: 292G (4.0%, 1,983G)
Snowfats: 250G (3.5%, 3,435G)
furrytomahawkk: 232G (3.2%, 232G)
BlueAbs: 208G (2.9%, 208G)
Othatmattkid: 200G (2.8%, 1,329G)
Skincrawler: 200G (2.8%, 268G)
dtrain332: 112G (1.6%, 112G)
Zenmaza: 112G (1.6%, 112G)

green bets:
NicoSavoy: 8,000G (44.5%, 175,456G)
flacococo: 1,190G (6.6%, 1,190G)
EnemyController: 1,111G (6.2%, 1,425,010G)
BirbBrainsBot: 1,000G (5.6%, 131,069G)
getthemoneyz: 1,000G (5.6%, 1,276,914G)
Sairentozon7: 1,000G (5.6%, 11,134G)
fluffskull: 900G (5.0%, 22,760G)
TasisSai: 783G (4.4%, 783G)
Rislyeu: 750G (4.2%, 3,143G)
Nizaha: 540G (3.0%, 540G)
helpimabug: 492G (2.7%, 492G)
Digitalsocrates: 416G (2.3%, 4,263G)
shineeyo: 300G (1.7%, 11,392G)
nsm013: 200G (1.1%, 16,064G)
datadrivenbot: 200G (1.1%, 57,843G)
Firesheath: 100G (0.6%, 3,899G)
