High Risers:
1. Resjudicata3: +17,102G
2. Bruubarg: +2,562G
3. Snkey: +2,089G
4. Biske13: +886G
5. Anfz: +880G
6. J_macc1991: +839G
7. Shadowninja25: +692G
8. Latebit: +657G
9. Nekojin: +602G
10. Miku_shikhu: +455G
11. Tarheels218: +444G
12. Volgrathemoose: +395G
13. Bonemiser: +304G
14. Smugzug: +280G
15. Zagorsek: +268G
16. Maakur_: +215G
17. Sephdarkheart: +208G
18. Kellios11: +130G
19. Douchetron: +90G
20. King_smashington: +79G
21. Gingerfoo69: +79G
22. Gorgewall: +58G
23. Corpuscav: +45G
24. Deathtaxesandanime: +39G
25. Grayghostgaming: +4G
26. Shalloween: +4G
27. Loveyouallfriends: -100G
28. Laserman1000: -100G
29. Daveb_: -119G
30. Valensexp_: -123G
31. Puzzlesecretary: -134G
32. Trogdorthememeinator: -159G
33. Arrenjevleth: -174G
34. Dhaveword: -200G
35. Reddwind_: -200G
36. Chichirodriguez: -200G
37. Humbertogeovane: -239G
38. Cosmictactician: -300G
39. Novaknight21: -300G
40. Roofiepops: -350G
41. Smashy: -396G
42. Brokenknight201: -400G
43. Heybtw: -445G
44. Cho_pin: -500G
45. Zerguzen: -505G
46. Lowlf: -508G
47. Run_with_stone_guns: -588G
48. Lijarkh: -669G
49. Colettemslp: -747G
50. Toka222: -800G
51. Framciz: -988G
52. Technominari: -1,000G
53. Phi_sig: -1,000G
54. Dogsandcatsand: -1,000G
55. Pplvee1: -1,000G
56. Onehundredfists: -1,000G
57. Enemycontroller: -1,111G
58. Afro_gundam: -1,185G
59. Krombobreaker: -1,326G
60. Willjin: -2,021G
61. Runicmagus: -2,100G
62. Sinnyil2: -2,400G
63. Thunderducker: -2,979G
64. Thyrandaal: -7,115G
