Final Bets: purple - 11 bets for 9,201G (55.5%, x0.80); brown - 17 bets for 7,370G (44.5%, x1.25)

purple bets:
Willjin: 4,000G (43.5%, 42,988G)
Thyrandaal: 2,234G (24.3%, 11,905G)
BirbBrainsBot: 1,000G (10.9%, 92,195G)
krombobreaker: 500G (5.4%, 12,725G)
roofiepops: 458G (5.0%, 458G)
getthemoneyz: 366G (4.0%, 1,924,907G)
Zerguzen: 232G (2.5%, 232G)
heyBtw: 110G (1.2%, 3,443G)
gorgewall: 101G (1.1%, 9,416G)
AllInBot: 100G (1.1%, 100G)
latebit: 100G (1.1%, 1,903G)

brown bets:
ANFz: 1,348G (18.3%, 1,348G)
CorpusCav: 1,200G (16.3%, 9,930G)
snkey: 1,000G (13.6%, 8,080G)
SephDarkheart: 515G (7.0%, 515G)
VolgraTheMoose: 501G (6.8%, 4,538G)
Miku_Shikhu: 500G (6.8%, 16,055G)
BoneMiser: 460G (6.2%, 460G)
biske13: 316G (4.3%, 316G)
ShadowNinja25: 300G (4.1%, 1,715G)
ArrenJevleth: 300G (4.1%, 12,626G)
ValensEXP_: 280G (3.8%, 1,582G)
datadrivenbot: 200G (2.7%, 61,718G)
BartTradingCompany: 100G (1.4%, 7,505G)
douchetron: 100G (1.4%, 12,923G)
gingerfoo69: 100G (1.4%, 100G)
maakur_: 100G (1.4%, 4,135G)
J_MacC1991: 50G (0.7%, 2,576G)
