Final Bets: yellow - 23 bets for 11,341G (60.2%, x0.66); white - 9 bets for 7,487G (39.8%, x1.51)

yellow bets:
thunderducker: 1,844G (16.3%, 3,617G)
Thyrandaal: 1,234G (10.9%, 6,449G)
CorpusCav: 1,200G (10.6%, 9,028G)
BirbBrainsBot: 1,000G (8.8%, 89,559G)
nekojin: 912G (8.0%, 912G)
Laserman1000: 680G (6.0%, 6,980G)
reinoe: 616G (5.4%, 616G)
lijarkh: 545G (4.8%, 545G)
krombobreaker: 500G (4.4%, 12,740G)
getthemoneyz: 474G (4.2%, 1,923,825G)
BoneMiser: 460G (4.1%, 460G)
roofiepops: 404G (3.6%, 404G)
ValensEXP_: 280G (2.5%, 1,372G)
datadrivenbot: 200G (1.8%, 61,568G)
Smugzug: 164G (1.4%, 2,166G)
AllInBot: 159G (1.4%, 159G)
daveb_: 144G (1.3%, 4,691G)
VolgraTheMoose: 100G (0.9%, 5,167G)
latebit: 100G (0.9%, 1,704G)
maakur_: 100G (0.9%, 4,319G)
PuzzleSecretary: 100G (0.9%, 604G)
king_smashington: 100G (0.9%, 1,012G)
gingerfoo69: 25G (0.2%, 200G)

white bets:
resjudicata3: 2,000G (26.7%, 24,463G)
Zagorsek: 1,450G (19.4%, 1,450G)
Shalloween: 1,319G (17.6%, 1,319G)
snkey: 1,036G (13.8%, 10,357G)
RunicMagus: 750G (10.0%, 11,470G)
ArrenJevleth: 500G (6.7%, 12,401G)
Zerguzen: 232G (3.1%, 232G)
BartTradingCompany: 100G (1.3%, 7,589G)
heyBtw: 100G (1.3%, 3,233G)
