Final Bets: green - 27 bets for 23,979G (55.6%, x0.80); yellow - 12 bets for 19,136G (44.4%, x1.25)

green bets:
Zbgs: 3,500G (14.6%, 45,585G)
toka222: 3,000G (12.5%, 41,871G)
Lionhermit: 2,500G (10.4%, 48,195G)
leakimiko: 1,500G (6.3%, 43,024G)
HaplessOne: 1,234G (5.1%, 64,170G)
DavenIII: 1,200G (5.0%, 8,587G)
BirbBrainsBot: 1,000G (4.2%, 76,617G)
red__lancer: 1,000G (4.2%, 34,609G)
TheUnforgivenRage: 1,000G (4.2%, 5,173G)
Mtueni: 1,000G (4.2%, 6,218G)
imafella: 946G (3.9%, 1,892G)
megaman2202: 916G (3.8%, 1,832G)
Nickyfive: 888G (3.7%, 888G)
ChrisWado: 700G (2.9%, 2,243G)
JumbocactuarX27: 552G (2.3%, 552G)
Ross_from_Cali: 511G (2.1%, 5,981G)
rechaun: 476G (2.0%, 476G)
go_pack: 400G (1.7%, 468G)
getthemoneyz: 388G (1.6%, 671,987G)
DLJuggernaut: 328G (1.4%, 328G)
otakutaylor: 200G (0.8%, 2,307G)
rottings0ul: 200G (0.8%, 1,608G)
Dellusionsx: 140G (0.6%, 140G)
GnielKnows: 100G (0.4%, 859G)
Aestheta: 100G (0.4%, 3,151G)
datadrivenbot: 100G (0.4%, 19,431G)
lifeguard_dan: 100G (0.4%, 2,585G)

yellow bets:
rocl: 9,893G (51.7%, 19,786G)
Zeroroute: 2,197G (11.5%, 2,197G)
DustBirdEX: 2,192G (11.5%, 2,192G)
ShintaroNayaka: 1,370G (7.2%, 1,370G)
Verxl: 1,222G (6.4%, 2,444G)
FriendSquirrel: 1,033G (5.4%, 1,033G)
ungabunga_bot: 331G (1.7%, 495,402G)
nifboy: 250G (1.3%, 2,625G)
morgan_webbs_thong: 248G (1.3%, 248G)
O_Heyno: 200G (1.0%, 1,358G)
smiggenator: 100G (0.5%, 847G)
brokenknight201: 100G (0.5%, 2,110G)
