Final Bets: red - 16 bets for 8,038G (48.8%, x1.05); blue - 13 bets for 8,427G (51.2%, x0.95)

red bets:
Sairentozon7: 1,152G (14.3%, 1,152G)
Aldrammech: 1,000G (12.4%, 5,031G)
ANFz: 897G (11.2%, 897G)
jakeduhhsnake: 801G (10.0%, 801G)
d4rr1n: 717G (8.9%, 717G)
HASTERIOUS: 571G (7.1%, 11,423G)
GeeGXP: 500G (6.2%, 11,649G)
killth3kid: 500G (6.2%, 11,749G)
luminarii: 450G (5.6%, 20,647G)
bruubarg: 400G (5.0%, 4,480G)
CapnChaos12: 300G (3.7%, 2,731G)
Kyune: 250G (3.1%, 19,027G)
Vex_Novisk: 200G (2.5%, 8,107G)
datadrivenbot: 100G (1.2%, 22,052G)
MADTheta: 100G (1.2%, 675G)
Seawalker777: 100G (1.2%, 696G)

blue bets:
sinnyil2: 3,968G (47.1%, 7,936G)
BirbBrainsBot: 1,000G (11.9%, 119,149G)
volgrathemoose: 718G (8.5%, 1,436G)
Laserman1000: 600G (7.1%, 6,400G)
Baron_von_Scrub: 508G (6.0%, 508G)
EnemyController: 500G (5.9%, 319,482G)
KonzeraLive: 300G (3.6%, 13,412G)
HaateXIII: 250G (3.0%, 3,317G)
gorgewall: 201G (2.4%, 9,311G)
jpTawok: 132G (1.6%, 2,656G)
maakur_: 100G (1.2%, 4,284G)
aeonicvector: 100G (1.2%, 1,269G)
letdowncity: 50G (0.6%, 2,004G)
