Final Bets: green - 9 bets for 5,617G (34.9%, x1.86); yellow - 17 bets for 10,456G (65.1%, x0.54)

green bets:
SkylerBunny: 1,500G (26.7%, 519,335G)
FriendSquirrel: 1,333G (23.7%, 1,333G)
amiture: 1,000G (17.8%, 16,858G)
BStarTV: 500G (8.9%, 5,067G)
MagicBottle: 448G (8.0%, 448G)
RageImmortaI: 400G (7.1%, 777G)
KasugaiRoastedPeas: 200G (3.6%, 15,188G)
Dustmasc: 136G (2.4%, 136G)
ANFz: 100G (1.8%, 6,775G)

yellow bets:
DeathTaxesAndAnime: 1,732G (16.6%, 1,732G)
EnemyController: 1,500G (14.3%, 1,364,620G)
Rilgon: 1,401G (13.4%, 9,342G)
E_Ballard: 1,179G (11.3%, 1,179G)
Zagorsek: 1,100G (10.5%, 1,100G)
BirbBrainsBot: 1,000G (9.6%, 105,480G)
mpghappiness: 601G (5.7%, 601G)
Combo_Nerd: 500G (4.8%, 2,006G)
placidphoenix: 363G (3.5%, 363G)
Shalloween: 300G (2.9%, 72,324G)
Forkmore: 250G (2.4%, 1,044G)
Firesheath: 100G (1.0%, 16,369G)
nhammen: 100G (1.0%, 3,303G)
ApplesauceBoss: 100G (1.0%, 10,017G)
datadrivenbot: 100G (1.0%, 46,833G)
Grandlanzer: 100G (1.0%, 35,972G)
getthemoneyz: 30G (0.3%, 1,100,721G)
