Final Bets: blue - 15 bets for 8,209G (33.2%, x2.01); champion - 15 bets for 16,527G (66.8%, x0.50)

blue bets:
UmaiJam: 1,300G (15.8%, 30,261G)
fenaen: 1,200G (14.6%, 26,896G)
BirbBrainsBot: 1,000G (12.2%, 107,667G)
Seaweed_B: 1,000G (12.2%, 7,511G)
Shalloween: 800G (9.7%, 72,778G)
Combo_Nerd: 715G (8.7%, 3,823G)
getthemoneyz: 594G (7.2%, 1,101,944G)
E_Ballard: 400G (4.9%, 400G)
sparker9: 400G (4.9%, 5,549G)
Neo_Exodus: 300G (3.7%, 3,407G)
Firesheath: 100G (1.2%, 16,323G)
nifboy: 100G (1.2%, 6,244G)
Dragon_RW: 100G (1.2%, 1,929G)
ANFz: 100G (1.2%, 6,575G)
SuzakuReii: 100G (1.2%, 5,038G)

champion bets:
Zbgs: 6,883G (41.6%, 6,883G)
SkylerBunny: 2,000G (12.1%, 516,281G)
Rilgon: 1,818G (11.0%, 9,090G)
kaidykat: 1,408G (8.5%, 140,807G)
fenixcrest: 1,100G (6.7%, 1,100G)
ArashiKurobara: 716G (4.3%, 716G)
KasugaiRoastedPeas: 500G (3.0%, 14,788G)
NightwolfXVI: 500G (3.0%, 872G)
Laserman1000: 500G (3.0%, 20,100G)
Lemonjohns: 402G (2.4%, 402G)
maleblackfiora: 300G (1.8%, 1,182G)
DeathTaxesAndAnime: 100G (0.6%, 1,245G)
nhammen: 100G (0.6%, 3,454G)
datadrivenbot: 100G (0.6%, 47,199G)
RageImmortaI: 100G (0.6%, 367G)
