Final Bets: blue - 10 bets for 17,627G (54.2%, x0.85); yellow - 18 bets for 14,895G (45.8%, x1.18)

blue bets:
mattcorn7: 9,449G (53.6%, 9,449G)
JumbocactuarX27: 5,593G (31.7%, 5,593G)
Dragon_RW: 797G (4.5%, 797G)
CorpusCav: 500G (2.8%, 5,821G)
captainmilestw: 494G (2.8%, 494G)
KasugaiRoastedPeas: 200G (1.1%, 18,996G)
datadrivenbot: 200G (1.1%, 59,249G)
Gunz232323: 150G (0.9%, 898G)
getthemoneyz: 144G (0.8%, 1,590,089G)
RuneS_77: 100G (0.6%, 15,476G)

yellow bets:
douchetron: 5,713G (38.4%, 5,713G)
latebit: 2,173G (14.6%, 2,173G)
BirbBrainsBot: 1,000G (6.7%, 182,016G)
Lillifen: 975G (6.5%, 975G)
E_Ballard: 787G (5.3%, 787G)
Nizaha: 700G (4.7%, 10,451G)
dogsandcatsand: 520G (3.5%, 520G)
fenaen: 512G (3.4%, 5,184G)
nekojin: 500G (3.4%, 21,873G)
TheDeeyo: 500G (3.4%, 7,145G)
mpghappiness: 415G (2.8%, 415G)
nhammen: 300G (2.0%, 3,785G)
AllInBot: 200G (1.3%, 200G)
northkoreancleetus: 200G (1.3%, 1,525G)
MinBetBot: 100G (0.7%, 22,395G)
skillomono: 100G (0.7%, 2,489G)
Tarheels218: 100G (0.7%, 248G)
nifboy: 100G (0.7%, 2,368G)
