Final Bets: green - 20 bets for 16,468G (86.9%, x0.15); yellow - 10 bets for 2,489G (13.1%, x6.62)

green bets:
DavenIII: 3,513G (21.3%, 5,405G)
randgridr: 2,728G (16.6%, 2,728G)
douchetron: 1,696G (10.3%, 3,327G)
latebit: 1,289G (7.8%, 2,528G)
JumbocactuarX27: 1,000G (6.1%, 32,983G)
BirbBrainsBot: 1,000G (6.1%, 15,667G)
Nizaha: 660G (4.0%, 21,657G)
killth3kid: 612G (3.7%, 1,823G)
E_Ballard: 508G (3.1%, 508G)
TasisSai: 500G (3.0%, 25,012G)
Gunz232323: 500G (3.0%, 1,014G)
fenaen: 492G (3.0%, 492G)
Rytor: 412G (2.5%, 412G)
brokenknight201: 400G (2.4%, 400G)
Lord_Gwarth: 317G (1.9%, 317G)
Laserman1000: 300G (1.8%, 1,700G)
TheArcanum: 204G (1.2%, 833G)
datadrivenbot: 200G (1.2%, 50,124G)
Error72: 100G (0.6%, 1,684G)
ArlanKels: 37G (0.2%, 1,867G)

yellow bets:
flacococo: 754G (30.3%, 754G)
AllInBot: 426G (17.1%, 426G)
ArashiKurobara: 360G (14.5%, 7,893G)
ShintaroNayaka: 320G (12.9%, 320G)
coralreeferz: 250G (10.0%, 11,712G)
powergems: 125G (5.0%, 2,019G)
ohhinm: 100G (4.0%, 4,153G)
R3V_Mario: 100G (4.0%, 1,000G)
silverChangeling: 50G (2.0%, 1,188G)
getthemoneyz: 4G (0.2%, 1,515,097G)
