Final Bets: white - 12 bets for 13,310G (51.6%, x0.94); black - 16 bets for 12,500G (48.4%, x1.06)

white bets:
Nizaha: 9,393G (70.6%, 18,787G)
WireLord: 1,318G (9.9%, 1,318G)
Arisonius: 500G (3.8%, 1,035G)
reinoe: 500G (3.8%, 6,201G)
CapnChaos12: 464G (3.5%, 464G)
ungabunga_bot: 331G (2.5%, 145,715G)
tinyjeans: 300G (2.3%, 1,062G)
Scotty297: 104G (0.8%, 104G)
Tougou: 100G (0.8%, 6,776G)
Firesheath: 100G (0.8%, 9,632G)
carsenhk: 100G (0.8%, 135G)
Roelath: 100G (0.8%, 413G)

black bets:
leakimiko: 3,329G (26.6%, 3,329G)
sinnyil2: 2,500G (20.0%, 48,913G)
BirbBrainsBot: 1,000G (8.0%, 186,146G)
ericzubat: 1,000G (8.0%, 1,000G)
HASTERIOUS: 966G (7.7%, 966G)
waterwatereverywhere: 639G (5.1%, 639G)
getthemoneyz: 618G (4.9%, 500,446G)
datadrivenbot: 596G (4.8%, 609G)
LAGBOT30000: 472G (3.8%, 9,457G)
Shalloween: 400G (3.2%, 31,389G)
ZephyrTempest: 305G (2.4%, 76,003G)
NoNotBees: 250G (2.0%, 10,240G)
GrandmasterFrankerZ: 150G (1.2%, 1,471G)
a_mo22: 125G (1.0%, 4,973G)
ApplesauceBoss: 100G (0.8%, 3,382G)
cougboi: 50G (0.4%, 14,374G)
