Final Bets: blue - 17 bets for 15,431G (71.1%, x0.41); green - 11 bets for 6,275G (28.9%, x2.46)

blue bets:
leakimiko: 3,437G (22.3%, 3,437G)
Nizaha: 2,348G (15.2%, 4,697G)
roofiepops: 1,699G (11.0%, 1,699G)
Shalloween: 1,500G (9.7%, 31,215G)
KaLam1ty: 1,500G (9.7%, 21,076G)
HASTERIOUS: 978G (6.3%, 978G)
mirapoix: 961G (6.2%, 961G)
ericzubat: 500G (3.2%, 2,065G)
LAGBOT30000: 473G (3.1%, 9,462G)
CapnChaos12: 464G (3.0%, 464G)
Scotty297: 367G (2.4%, 367G)
tinyjeans: 362G (2.3%, 362G)
NoNotBees: 250G (1.6%, 10,506G)
datadrivenbot: 242G (1.6%, 244G)
GrandmasterFrankerZ: 150G (1.0%, 1,631G)
Arisonius: 100G (0.6%, 793G)
Roelath: 100G (0.6%, 313G)

green bets:
sinnyil2: 1,200G (19.1%, 54,673G)
ungabunga_bot: 1,000G (15.9%, 145,271G)
BirbBrainsBot: 1,000G (15.9%, 189,792G)
WireLord: 905G (14.4%, 905G)
DustBirdEX: 666G (10.6%, 3,639G)
Treapvort: 522G (8.3%, 522G)
waterwatereverywhere: 300G (4.8%, 2,093G)
ZephyrTempest: 286G (4.6%, 77,069G)
getthemoneyz: 196G (3.1%, 502,147G)
Tougou: 100G (1.6%, 6,576G)
ApplesauceBoss: 100G (1.6%, 3,488G)
