Final Bets: purple - 13 bets for 13,042G (56.5%, x0.77); brown - 15 bets for 10,054G (43.5%, x1.30)

purple bets:
nhammen: 4,000G (30.7%, 80,005G)
Narcius: 2,900G (22.2%, 308,345G)
E_Ballard: 1,168G (9.0%, 1,168G)
BirbBrainsBot: 1,000G (7.7%, 58,102G)
Drusiform: 1,000G (7.7%, 9,450G)
Blastinus: 756G (5.8%, 756G)
Forkmore: 733G (5.6%, 733G)
Skjodo: 500G (3.8%, 1,926G)
getthemoneyz: 380G (2.9%, 1,673,929G)
Amorial: 244G (1.9%, 244G)
DeathTaxesAndAnime: 200G (1.5%, 5,631G)
Thyrandaal: 100G (0.8%, 481,556G)
theBinklive: 61G (0.5%, 246G)

brown bets:
evontno: 2,485G (24.7%, 2,485G)
Mesmaster: 2,000G (19.9%, 19,192G)
braveboyblue: 1,000G (9.9%, 12,936G)
rNdOrchestra: 843G (8.4%, 8,430G)
reinoe: 788G (7.8%, 788G)
dogsandcatsand: 656G (6.5%, 656G)
MagicBottle: 600G (6.0%, 600G)
AllInBot: 469G (4.7%, 469G)
CapnChaos12: 300G (3.0%, 4,198G)
Smokegiant: 252G (2.5%, 252G)
datadrivenbot: 200G (2.0%, 64,097G)
daveb_: 133G (1.3%, 5,189G)
3ngag3: 128G (1.3%, 1,928G)
MinBetBot: 100G (1.0%, 6,881G)
RunicMagus: 100G (1.0%, 5,447G)
