Final Bets: black - 19 bets for 17,655G (68.7%, x0.46); brown - 7 bets for 8,051G (31.3%, x2.19)

black bets:
Narcius: 3,600G (20.4%, 308,475G)
Skjodo: 2,519G (14.3%, 2,519G)
reinoe: 1,810G (10.3%, 1,810G)
dogsandcatsand: 1,423G (8.1%, 2,791G)
Amorial: 1,314G (7.4%, 1,314G)
BirbBrainsBot: 1,000G (5.7%, 56,102G)
Drusiform: 1,000G (5.7%, 7,750G)
rNdOrchestra: 979G (5.5%, 9,796G)
RunicMagus: 800G (4.5%, 6,077G)
Shalloween: 500G (2.8%, 16,338G)
HaateXIII: 500G (2.8%, 3,671G)
sinnyil2: 480G (2.7%, 960G)
Blastinus: 456G (2.6%, 456G)
CapnChaos12: 300G (1.7%, 4,287G)
getthemoneyz: 256G (1.5%, 1,673,707G)
Smokegiant: 252G (1.4%, 252G)
datadrivenbot: 200G (1.1%, 64,156G)
3ngag3: 166G (0.9%, 2,166G)
AllInBot: 100G (0.6%, 100G)

brown bets:
evontno: 6,209G (77.1%, 6,209G)
Lanshaft: 604G (7.5%, 7,576G)
MagicBottle: 600G (7.5%, 600G)
Lord_Gwarth: 337G (4.2%, 4,441G)
gorgewall: 101G (1.3%, 4,550G)
MinBetBot: 100G (1.2%, 7,088G)
docmitchphd: 100G (1.2%, 6,565G)
