Final Bets: blue - 11 bets for 11,467G (24.0%, x3.17); purple - 15 bets for 36,305G (76.0%, x0.32)

blue bets:
Wrath189: 6,265G (54.6%, 6,265G)
Aldrammech: 1,582G (13.8%, 1,582G)
Smashy: 1,000G (8.7%, 7,716G)
thunderducker: 512G (4.5%, 512G)
BaronHaynes: 500G (4.4%, 65,367G)
highelectricaltemperature: 500G (4.4%, 8,653G)
Tsuike: 376G (3.3%, 376G)
Greggernaut: 220G (1.9%, 220G)
Zeroroute: 204G (1.8%, 204G)
old_overholt_: 200G (1.7%, 11,059G)
RobotOcelot: 108G (0.9%, 108G)

purple bets:
Thyrandaal: 19,129G (52.7%, 37,509G)
Mesmaster: 10,000G (27.5%, 99,326G)
Tarheels218: 1,500G (4.1%, 9,170G)
snkey: 1,000G (2.8%, 6,415G)
BirbBrainsBot: 1,000G (2.8%, 15,006G)
NicoSavoy: 997G (2.7%, 997G)
pepperbuster: 953G (2.6%, 953G)
CorpusCav: 500G (1.4%, 10,059G)
CapnChaos12: 300G (0.8%, 4,950G)
krombobreaker: 248G (0.7%, 6,183G)
poorest_hobo: 232G (0.6%, 232G)
resjudicata3: 200G (0.6%, 16,164G)
datadrivenbot: 200G (0.6%, 65,475G)
getthemoneyz: 26G (0.1%, 1,799,308G)
alcibiadeez: 20G (0.1%, 802G)
