Final Bets: purple - 8 bets for 3,988G (46.1%, x1.17); brown - 7 bets for 4,670G (53.9%, x0.85)

purple bets:
Baron_von_Scrub: 2,375G (59.6%, 2,375G)
Aldrammech: 1,000G (25.1%, 15,242G)
ungabunga_bot: 109G (2.7%, 518,122G)
ChrisWado: 104G (2.6%, 104G)
Arbitae: 100G (2.5%, 100G)
jwchapm: 100G (2.5%, 1,089G)
ar_tactic: 100G (2.5%, 42,348G)
datadrivenbot: 100G (2.5%, 17,701G)

brown bets:
BirbBrainsBot: 1,000G (21.4%, 96,514G)
getthemoneyz: 1,000G (21.4%, 685,079G)
volgrathemoose: 871G (18.7%, 1,743G)
E_Ballard: 600G (12.8%, 600G)
killth3kid: 555G (11.9%, 10,348G)
Estan_AD: 544G (11.6%, 544G)
ko2q: 100G (2.1%, 6,107G)
