Final Bets: green - 23 bets for 17,401G (63.8%, x0.57); yellow - 16 bets for 9,881G (36.2%, x1.76)

green bets:
mirapoix: 4,874G (28.0%, 4,874G)
MoonSlayerRS: 1,972G (11.3%, 1,972G)
Nickyfive: 1,504G (8.6%, 3,009G)
Aldrammech: 1,000G (5.7%, 46,173G)
Pochitchi: 1,000G (5.7%, 9,100G)
volgrathemoose: 1,000G (5.7%, 1,000G)
EnemyController: 1,000G (5.7%, 74,037G)
Phytik: 984G (5.7%, 9,148G)
DustBirdEX: 952G (5.5%, 17,952G)
Dasutin23: 724G (4.2%, 724G)
GrandmasterFrankerZ: 420G (2.4%, 9,148G)
Lanshaft: 348G (2.0%, 1,931G)
Aneyus: 265G (1.5%, 26,536G)
Lythe_Caraker: 250G (1.4%, 104,723G)
Mikumari12: 204G (1.2%, 204G)
PotionDweller: 200G (1.1%, 10,569G)
Tetsuwan_Melty: 104G (0.6%, 104G)
mexskacin: 100G (0.6%, 5,698G)
DeathTaxesAndAnime: 100G (0.6%, 11,934G)
twelfthrootoftwo: 100G (0.6%, 4,889G)
druggeddwarf: 100G (0.6%, 516G)
Tougou: 100G (0.6%, 3,634G)
datadrivenbot: 100G (0.6%, 686G)

yellow bets:
HaplessOne: 2,000G (20.2%, 112,118G)
Baron_von_Scrub: 1,111G (11.2%, 81,505G)
BirbBrainsBot: 1,000G (10.1%, 51,019G)
bradsmr: 1,000G (10.1%, 1,000G)
ForagerCats: 1,000G (10.1%, 45,668G)
nedryerson01: 699G (7.1%, 699G)
nifboy: 524G (5.3%, 13,124G)
alrightbye: 523G (5.3%, 26,191G)
ungabunga_bot: 453G (4.6%, 199,951G)
roofiepops: 452G (4.6%, 452G)
getthemoneyz: 332G (3.4%, 525,499G)
Andrain: 220G (2.2%, 220G)
AllInBot: 197G (2.0%, 197G)
rico_flex: 150G (1.5%, 13,413G)
daveb_: 120G (1.2%, 1,191G)
GSaucer: 100G (1.0%, 100G)
