Final Bets: purple - 12 bets for 6,087G (24.0%, x3.17); brown - 30 bets for 19,269G (76.0%, x0.32)

purple bets:
Lanshaft: 1,013G (16.6%, 1,013G)
Tyerenex: 1,000G (16.4%, 8,403G)
Lord_Burrah: 1,000G (16.4%, 97,409G)
getthemoneyz: 862G (14.2%, 461,184G)
ungabunga_bot: 503G (8.3%, 86,264G)
Aldrammech: 497G (8.2%, 4,977G)
mirapoix: 411G (6.8%, 823G)
ColetteMSLP: 400G (6.6%, 15,208G)
Aka_Gilly: 200G (3.3%, 10,102G)
RunicMagus: 100G (1.6%, 2,320G)
twelfthrootoftwo: 100G (1.6%, 5,830G)
LordMaxoss: 1G (0.0%, 110G)

brown bets:
leakimiko: 2,548G (13.2%, 31,861G)
coledot_: 1,806G (9.4%, 9,032G)
Zeroroute: 1,381G (7.2%, 1,381G)
loveyouallfriends: 1,000G (5.2%, 23,771G)
OneHundredFists: 1,000G (5.2%, 2,828G)
Faplo: 999G (5.2%, 1,999G)
SkylerBunny: 829G (4.3%, 829G)
datadrivenbot: 818G (4.2%, 24,274G)
Evewho: 814G (4.2%, 814G)
Lodrak: 749G (3.9%, 749G)
BirbBrainsBot: 690G (3.6%, 23,371G)
HaateXIII: 547G (2.8%, 547G)
volgrathemoose: 522G (2.7%, 1,044G)
rockmem21: 512G (2.7%, 1,708G)
I_nod_my_head_when_I_lose: 500G (2.6%, 21,604G)
CorpusCav: 500G (2.6%, 10,685G)
TheMurkGnome: 500G (2.6%, 5,224G)
reinoe: 500G (2.6%, 18,415G)
Virilikus: 500G (2.6%, 60,557G)
proper__noun__: 432G (2.2%, 432G)
MoonSlayerRS: 420G (2.2%, 420G)
ZephyrTempest: 355G (1.8%, 45,013G)
red__lancer: 318G (1.7%, 30,318G)
Tithonus: 300G (1.6%, 14,673G)
JustSuperish: 200G (1.0%, 3,140G)
BlinkFS: 124G (0.6%, 124G)
DrAntiSocial: 105G (0.5%, 3,352G)
AllInBot: 100G (0.5%, 100G)
ko2q: 100G (0.5%, 5,234G)
wollise89: 100G (0.5%, 736G)
