Final Bets: yellow - 12 bets for 5,865G (28.1%, x2.56); champion - 16 bets for 15,040G (71.9%, x0.39)

yellow bets:
HASTERIOUS: 1,237G (21.1%, 12,375G)
reinoe: 1,045G (17.8%, 1,045G)
BirbBrainsBot: 1,000G (17.1%, 59,965G)
killth3kid: 756G (12.9%, 12,702G)
maakur_: 684G (11.7%, 684G)
polyrhythmic_drop: 300G (5.1%, 977G)
rNdOrchestra: 299G (5.1%, 8,299G)
getthemoneyz: 144G (2.5%, 1,673,914G)
MinBetBot: 100G (1.7%, 6,956G)
neerrm: 100G (1.7%, 23,146G)
Drusiform: 100G (1.7%, 9,224G)
Thyrandaal: 100G (1.7%, 482,128G)

champion bets:
toka222: 6,500G (43.2%, 177,687G)
Narcius: 4,400G (29.3%, 299,957G)
VolgraTheMoose: 635G (4.2%, 2,399G)
MagicBottle: 600G (4.0%, 600G)
peanutvendor: 486G (3.2%, 486G)
Skjodo: 462G (3.1%, 462G)
armake: 319G (2.1%, 319G)
Amorial: 315G (2.1%, 315G)
CapnChaos12: 300G (2.0%, 5,681G)
Omally_: 200G (1.3%, 200G)
datadrivenbot: 200G (1.3%, 64,058G)
dogsandcatsand: 170G (1.1%, 1,226G)
daveb_: 133G (0.9%, 4,676G)
Mao420: 120G (0.8%, 1,472G)
AllInBot: 100G (0.7%, 100G)
SephDarkheart: 100G (0.7%, 122,089G)
