Final Bets: white - 23 bets for 18,622G (65.5%, x0.53); brown - 16 bets for 9,826G (34.5%, x1.90)

white bets:
Lydian_C: 2,094G (11.2%, 2,094G)
DaMadPanda182: 2,000G (10.7%, 16,819G)
HaateXIII: 1,613G (8.7%, 3,164G)
HaplessOne: 1,500G (8.1%, 11,684G)
ungabunga_bot: 1,000G (5.4%, 425,856G)
BirbBrainsBot: 1,000G (5.4%, 160,616G)
E_Ballard: 1,000G (5.4%, 3,282G)
manc0_: 1,000G (5.4%, 6,515G)
FoeSquirrel: 847G (4.5%, 1,694G)
RestIessNight: 846G (4.5%, 846G)
Laserman1000: 811G (4.4%, 4,711G)
waterwatereverywhere: 716G (3.8%, 716G)
getthemoneyz: 646G (3.5%, 655,876G)
Who_lio42: 599G (3.2%, 15,882G)
Maldoree: 584G (3.1%, 584G)
Estan_AD: 500G (2.7%, 16,263G)
DarrenDinosaurs: 500G (2.7%, 2,379G)
maakur_: 416G (2.2%, 416G)
twelfthrootoftwo: 300G (1.6%, 1,474G)
DaveKap: 229G (1.2%, 229G)
cupholderr: 220G (1.2%, 220G)
gorgewall: 101G (0.5%, 6,908G)
datadrivenbot: 100G (0.5%, 12,601G)

brown bets:
happyfundude: 1,997G (20.3%, 1,997G)
JumbocactuarX27: 1,000G (10.2%, 20,502G)
Lionhermit: 1,000G (10.2%, 53,227G)
catfashions: 1,000G (10.2%, 15,010G)
Mesmaster: 1,000G (10.2%, 52,368G)
Chuckolator: 869G (8.8%, 10,678G)
superdevon1: 608G (6.2%, 6,087G)
moonliquor: 500G (5.1%, 16,632G)
Lali_Lulelo: 498G (5.1%, 498G)
Tithonus: 312G (3.2%, 312G)
LeepingJJ: 292G (3.0%, 292G)
FearsBrood: 250G (2.5%, 800G)
KasugaiRoastedPeas: 200G (2.0%, 1,187G)
RunicMagus: 100G (1.0%, 45,970G)
SulliedGraves: 100G (1.0%, 2,972G)
Avin_Chaos: 100G (1.0%, 17,504G)
