Final Bets: white - 9 bets for 9,545G (50.3%, x0.99); black - 14 bets for 9,435G (49.7%, x1.01)

white bets:
DLJuggernaut: 5,000G (52.4%, 55,784G)
NovaKnight21: 2,423G (25.4%, 2,423G)
lowlf: 692G (7.2%, 1,545G)
ColetteMSLP: 520G (5.4%, 3,282G)
Runeseeker22: 388G (4.1%, 388G)
datadrivenbot: 200G (2.1%, 83,422G)
getthemoneyz: 122G (1.3%, 2,202,568G)
Sharosa: 100G (1.0%, 3,369G)
Firesheath: 100G (1.0%, 2,673G)

black bets:
JethroThrul: 1,329G (14.1%, 1,329G)
CorpusCav: 1,300G (13.8%, 62,767G)
HaplessOne: 1,111G (11.8%, 3,476G)
Snowfats: 1,000G (10.6%, 59,229G)
BirbBrainsBot: 1,000G (10.6%, 185,044G)
Lythe_Caraker: 828G (8.8%, 828G)
AllInBot: 632G (6.7%, 632G)
Evewho: 500G (5.3%, 21,379G)
2b_yorha_b: 500G (5.3%, 32,223G)
YowaneHaku: 455G (4.8%, 455G)
superdevon1: 376G (4.0%, 376G)
AbandonedHall: 200G (2.1%, 2,472G)
verythinice: 104G (1.1%, 500G)
TheBrett: 100G (1.1%, 19,031G)
