Final Bets: blue - 13 bets for 5,461G (32.3%, x2.09); purple - 16 bets for 11,424G (67.7%, x0.48)

blue bets:
roqqqpsi: 1,927G (35.3%, 17,523G)
SkylerBunny: 1,000G (18.3%, 80,130G)
Aldrammech: 600G (11.0%, 600G)
RunicMagus: 600G (11.0%, 34,412G)
nifboy: 500G (9.2%, 12,758G)
Flameatron: 300G (5.5%, 803G)
ko2q: 100G (1.8%, 2,391G)
ANFz: 100G (1.8%, 1,927G)
CosmicTactician: 100G (1.8%, 2,654G)
datadrivenbot: 100G (1.8%, 29,291G)
CorpusCav: 100G (1.8%, 10,300G)
getthemoneyz: 32G (0.6%, 768,840G)
daveb_: 2G (0.0%, 1,476G)

purple bets:
toka222: 1,800G (15.8%, 133,182G)
DeathTaxesAndAnime: 1,348G (11.8%, 1,348G)
Grandlanzer: 1,313G (11.5%, 1,313G)
reinoe: 1,000G (8.8%, 61,794G)
DLJuggernaut: 1,000G (8.8%, 2,467G)
MADTheta: 1,000G (8.8%, 11,392G)
BirbBrainsBot: 913G (8.0%, 105,975G)
Lali_Lulelo: 553G (4.8%, 553G)
gogofromtogo: 500G (4.4%, 7,032G)
Milkman153: 500G (4.4%, 1,570G)
volgrathemoose: 480G (4.2%, 480G)
Baron_von_Scrub: 474G (4.1%, 41,750G)
mistermastergreg: 200G (1.8%, 1,131G)
zepharoth89: 143G (1.3%, 7,177G)
maakur_: 100G (0.9%, 6,208G)
MiseryKoss: 100G (0.9%, 830G)
