Final Bets: white - 15 bets for 13,877G (62.3%, x0.61); black - 14 bets for 8,409G (37.7%, x1.65)

white bets:
Thyrandaal: 3,000G (21.6%, 124,555G)
NicoSavoy: 2,000G (14.4%, 68,453G)
reinoe: 2,000G (14.4%, 62,477G)
Firesheath: 1,772G (12.8%, 1,772G)
Aldrammech: 1,076G (7.8%, 1,076G)
BirbBrainsBot: 1,000G (7.2%, 92,688G)
AllInBot: 620G (4.5%, 620G)
Zeroroute: 500G (3.6%, 500G)
poorest_hobo: 453G (3.3%, 89,119G)
Lord_Gwarth: 416G (3.0%, 1,066G)
CosmicTactician: 400G (2.9%, 43,130G)
Runeseeker22: 220G (1.6%, 1,954G)
astrozin11: 200G (1.4%, 1,886G)
Absalom_20: 120G (0.9%, 7,838G)
dinin991: 100G (0.7%, 1,473G)

black bets:
WhiteTigress: 2,440G (29.0%, 2,440G)
sinnyil2: 1,052G (12.5%, 1,052G)
Zbgs: 1,000G (11.9%, 17,741G)
E_Ballard: 792G (9.4%, 66,802G)
thunderducker: 777G (9.2%, 4,446G)
Forkmore: 600G (7.1%, 600G)
getthemoneyz: 308G (3.7%, 1,762,132G)
CapnChaos12: 300G (3.6%, 1,520G)
Luna_XIV: 244G (2.9%, 244G)
Leonidusx: 212G (2.5%, 212G)
arumz: 200G (2.4%, 853G)
datadrivenbot: 200G (2.4%, 59,652G)
WesSideVandal: 184G (2.2%, 184G)
krombobreaker: 100G (1.2%, 2,238G)
