Final Bets: blue - 7 bets for 3,119G (18.3%, x4.46); champion - 16 bets for 13,912G (81.7%, x0.22)

blue bets:
KasugaiRoastedPeas: 1,200G (38.5%, 8,640G)
Valdimar_5467: 688G (22.1%, 688G)
AND4H: 500G (16.0%, 1,193G)
ColetteMSLP: 300G (9.6%, 5,415G)
BirbBrainsBot: 211G (6.8%, 72,799G)
Lydian_C: 120G (3.8%, 150,930G)
ThreeMileIsland: 100G (3.2%, 216G)

champion bets:
Evewho: 7,720G (55.5%, 15,139G)
evdoggity: 2,000G (14.4%, 109,785G)
electric_algus: 666G (4.8%, 36,813G)
Laserman1000: 600G (4.3%, 24,400G)
HaateXIII: 500G (3.6%, 5,106G)
SuzakuReii: 454G (3.3%, 454G)
Bojanges: 391G (2.8%, 7,826G)
Digitalsocrates: 360G (2.6%, 2,925G)
twelfthrootoftwo: 300G (2.2%, 10,865G)
moocaotao: 225G (1.6%, 4,845G)
prince_rogers_nelson_: 225G (1.6%, 5,053G)
datadrivenbot: 200G (1.4%, 54,646G)
hiros13gts: 104G (0.7%, 104G)
cougboi: 100G (0.7%, 17,005G)
recneps567: 47G (0.3%, 2,375G)
getthemoneyz: 20G (0.1%, 1,200,299G)
