Final Bets: red - 21 bets for 20,136G (86.5%, x0.16); blue - 11 bets for 3,154G (13.5%, x6.38)

red bets:
JumbocactuarX27: 4,534G (22.5%, 4,534G)
latebit: 2,000G (9.9%, 53,456G)
thunderducker: 1,831G (9.1%, 1,831G)
pplvee1: 1,743G (8.7%, 1,743G)
roofiepops: 1,586G (7.9%, 1,586G)
athros13: 1,267G (6.3%, 1,267G)
Laserman1000: 1,242G (6.2%, 1,242G)
snkey: 1,000G (5.0%, 8,558G)
Lord_Gwarth: 946G (4.7%, 946G)
E_Ballard: 820G (4.1%, 96,133G)
Nizaha: 784G (3.9%, 91,302G)
DLJuggernaut: 488G (2.4%, 488G)
CapnChaos12: 300G (1.5%, 1,495G)
SephDarkheart: 300G (1.5%, 7,286G)
pepperbuster: 250G (1.2%, 250G)
krombobreaker: 244G (1.2%, 244G)
killth3kid: 200G (1.0%, 6,603G)
datadrivenbot: 200G (1.0%, 66,964G)
resjudicata3: 200G (1.0%, 18,560G)
gorgewall: 101G (0.5%, 2,113G)
Thyrandaal: 100G (0.5%, 23,406G)

blue bets:
JonnyCue: 840G (26.6%, 840G)
brokenknight201: 700G (22.2%, 15,490G)
KasugaiRoastedPeas: 480G (15.2%, 480G)
DracoknightZero: 212G (6.7%, 212G)
AbandonedHall: 200G (6.3%, 2,765G)
BirbBrainsBot: 200G (6.3%, 200G)
aeonicvector: 172G (5.5%, 172G)
RunicMagus: 100G (3.2%, 1,683G)
HS39: 100G (3.2%, 416G)
Tarheels218: 100G (3.2%, 5,147G)
Yangusburger: 50G (1.6%, 1,143G)
