Final Bets: white - 10 bets for 4,091G (35.9%, x1.79); black - 17 bets for 7,303G (64.1%, x0.56)

white bets:
BirbBrainsBot: 1,000G (24.4%, 172,540G)
nhammen: 1,000G (24.4%, 333,518G)
DavenIII: 577G (14.1%, 1,155G)
lowlf: 520G (12.7%, 520G)
getthemoneyz: 258G (6.3%, 1,947,487G)
killth3kid: 250G (6.1%, 14,715G)
tripaplex: 220G (5.4%, 220G)
AllInBot: 135G (3.3%, 135G)
grishhammer: 130G (3.2%, 1,305G)
latebit: 1G (0.0%, 3,824G)

black bets:
CorpusCav: 1,200G (16.4%, 19,928G)
Nizaha: 832G (11.4%, 71,329G)
Raixelol: 808G (11.1%, 808G)
upvla: 777G (10.6%, 2,240G)
Smashy: 588G (8.1%, 588G)
Runeseeker22: 571G (7.8%, 11,424G)
holdenmagronik: 436G (6.0%, 10,519G)
AltimaMantoid: 355G (4.9%, 25,355G)
SephDarkheart: 340G (4.7%, 24,781G)
ValensEXP_: 312G (4.3%, 3,898G)
ericzubat: 283G (3.9%, 283G)
Musashi45: 200G (2.7%, 1,023G)
datadrivenbot: 200G (2.7%, 65,761G)
gorgewall: 101G (1.4%, 5,546G)
BartTradingCompany: 100G (1.4%, 10,877G)
maakur_: 100G (1.4%, 4,408G)
SnarkMage: 100G (1.4%, 100G)
