Final Bets: red - 16 bets for 6,943G (28.7%, x2.48); blue - 16 bets for 17,208G (71.3%, x0.40)

red bets:
MrFlabyo: 2,000G (28.8%, 326,761G)
killth3kid: 1,191G (17.2%, 117,136G)
Gelwain: 600G (8.6%, 600G)
TheChainNerd: 537G (7.7%, 5,374G)
xLilAsia: 500G (7.2%, 5,851G)
skillomono: 400G (5.8%, 17,972G)
ZCKaiser: 300G (4.3%, 300G)
RampagingRobot: 300G (4.3%, 1,500G)
safira125: 232G (3.3%, 232G)
benticore: 228G (3.3%, 4,564G)
silentkaster: 200G (2.9%, 10,123G)
gorgewall: 101G (1.5%, 4,096G)
lawnboxer: 100G (1.4%, 19,466G)
Jampck: 100G (1.4%, 10,904G)
nsm013: 100G (1.4%, 9,796G)
getthemoneyz: 54G (0.8%, 1,173,355G)

blue bets:
DeathTaxesAndAnime: 4,009G (23.3%, 7,861G)
toka222: 2,800G (16.3%, 107,843G)
Breakdown777: 2,379G (13.8%, 4,759G)
NovaKnight21: 2,000G (11.6%, 25,542G)
VolgraTheMoose: 1,001G (5.8%, 3,555G)
LDSkinny: 1,000G (5.8%, 52,479G)
BirbBrainsBot: 1,000G (5.8%, 173,370G)
nifboy: 844G (4.9%, 844G)
Laserman1000: 677G (3.9%, 13,977G)
SephDarkheart: 375G (2.2%, 375G)
Shalloween: 300G (1.7%, 67,752G)
BoneMiser: 200G (1.2%, 17,356G)
DuneMeta: 200G (1.2%, 3,296G)
sandball: 200G (1.2%, 1,310G)
Lydian_C: 123G (0.7%, 147,659G)
Miku_Shikhu: 100G (0.6%, 16,502G)
