Final Bets: purple - 11 bets for 30,634G (77.8%, x0.29); brown - 10 bets for 8,756G (22.2%, x3.50)

purple bets:
BoneMiser: 17,037G (55.6%, 17,037G)
DeathTaxesAndAnime: 6,200G (20.2%, 12,158G)
Andrain: 2,170G (7.1%, 2,170G)
nifboy: 1,846G (6.0%, 1,846G)
AniZero: 1,000G (3.3%, 15,754G)
Shalloween: 800G (2.6%, 68,242G)
MagicBottle: 488G (1.6%, 16,898G)
Aldrammech: 392G (1.3%, 392G)
gorgewall: 301G (1.0%, 4,106G)
RampagingRobot: 300G (1.0%, 1,000G)
E_Ballard: 100G (0.3%, 7,685G)

brown bets:
MrFlabyo: 2,000G (22.8%, 324,761G)
toka222: 2,000G (22.8%, 111,770G)
BirbBrainsBot: 1,000G (11.4%, 173,140G)
Theseawolf1: 1,000G (11.4%, 42,046G)
Breakdown777: 715G (8.2%, 1,430G)
Gelwain: 600G (6.9%, 600G)
getthemoneyz: 558G (6.4%, 1,173,305G)
Luna_XIV: 333G (3.8%, 333G)
ZCKaiser: 300G (3.4%, 300G)
benticore: 250G (2.9%, 4,336G)
