Final Bets: white - 13 bets for 13,247G (48.2%, x1.08); purple - 9 bets for 14,251G (51.8%, x0.93)

white bets:
Zeroroute: 2,364G (17.8%, 6,483G)
skillomono: 2,000G (15.1%, 18,672G)
toka222: 1,500G (11.3%, 104,770G)
Aldrammech: 1,326G (10.0%, 1,326G)
fenaen: 1,200G (9.1%, 44,204G)
killth3kid: 1,178G (8.9%, 117,836G)
ANFz: 1,024G (7.7%, 1,024G)
AniZero: 1,000G (7.5%, 17,671G)
DudeMonkey77: 700G (5.3%, 700G)
RampagingRobot: 375G (2.8%, 1,575G)
ZCKaiser: 300G (2.3%, 789G)
getthemoneyz: 180G (1.4%, 1,172,719G)
lastly: 100G (0.8%, 36,624G)

purple bets:
nifboy: 6,247G (43.8%, 6,247G)
DeathTaxesAndAnime: 3,481G (24.4%, 6,826G)
BoneMiser: 2,000G (14.0%, 21,707G)
Shalloween: 700G (4.9%, 67,471G)
Breakdown777: 648G (4.5%, 1,297G)
SephDarkheart: 403G (2.8%, 403G)
gorgewall: 301G (2.1%, 3,991G)
DuneMeta: 300G (2.1%, 4,358G)
BirbBrainsBot: 171G (1.2%, 173,771G)
