Final Bets: white - 16 bets for 5,793G (35.7%, x1.80); black - 14 bets for 10,425G (64.3%, x0.56)

white bets:
NovaKnight21: 1,000G (17.3%, 4,792G)
HaplessOne: 666G (11.5%, 252,166G)
BirbBrainsBot: 638G (11.0%, 163,870G)
Aldrammech: 600G (10.4%, 600G)
krasny1944: 504G (8.7%, 6,504G)
catfashions: 500G (8.6%, 3,877G)
volgrathemoose: 400G (6.9%, 400G)
ANFz: 364G (6.3%, 364G)
Anomandaris__: 335G (5.8%, 335G)
TheMM42: 200G (3.5%, 10,235G)
beowulfrulez: 100G (1.7%, 3,736G)
letdowncity: 100G (1.7%, 4,701G)
Kyune: 100G (1.7%, 19,036G)
datadrivenbot: 100G (1.7%, 21,863G)
littlebilly3: 100G (1.7%, 480G)
getthemoneyz: 86G (1.5%, 717,579G)

black bets:
gooseyourself: 2,801G (26.9%, 5,602G)
argentbast: 1,000G (9.6%, 3,299G)
NicoSavoy: 1,000G (9.6%, 70,809G)
LASERJESUS1337: 1,000G (9.6%, 75,039G)
ShintaroNayaka: 783G (7.5%, 783G)
Kronikle: 700G (6.7%, 14,675G)
ThePineappleSalesman: 647G (6.2%, 647G)
Baron_von_Scrub: 474G (4.5%, 10,638G)
DustBirdEX: 456G (4.4%, 4,393G)
AllInBot: 433G (4.2%, 433G)
Lanshaft: 416G (4.0%, 4,091G)
RaIshtar: 262G (2.5%, 262G)
Lythe_Caraker: 250G (2.4%, 123,195G)
megakim: 203G (1.9%, 203G)
