Final Bets: blue - 14 bets for 11,645G (24.8%, x3.03); champion - 23 bets for 35,329G (75.2%, x0.33)

blue bets:
Aldrammech: 4,227G (36.3%, 4,227G)
ANFz: 1,000G (8.6%, 4,441G)
argentbast: 1,000G (8.6%, 4,826G)
Nickyfive: 933G (8.0%, 3,733G)
Lordminsc: 700G (6.0%, 3,320G)
Shalloween: 652G (5.6%, 652G)
LazarusAjin: 500G (4.3%, 25,277G)
gooseyourself: 500G (4.3%, 12,014G)
Baron_von_Scrub: 474G (4.1%, 10,790G)
DustBirdEX: 456G (3.9%, 5,948G)
Lanshaft: 416G (3.6%, 5,233G)
volgrathemoose: 400G (3.4%, 400G)
nifboy: 250G (2.1%, 6,879G)
nok____: 137G (1.2%, 16,237G)

champion bets:
AllInBot: 12,111G (34.3%, 12,111G)
dogsandcatsand: 3,857G (10.9%, 3,857G)
catfashions: 3,220G (9.1%, 3,220G)
HaateXIII: 2,254G (6.4%, 2,254G)
bruubarg: 1,675G (4.7%, 1,675G)
krasny1944: 1,415G (4.0%, 1,415G)
GrandmasterFrankerZ: 1,376G (3.9%, 1,376G)
Anomandaris__: 1,343G (3.8%, 1,343G)
NovaKnight21: 1,068G (3.0%, 2,137G)
TheMM42: 1,000G (2.8%, 11,383G)
BirbBrainsBot: 1,000G (2.8%, 162,971G)
EnemyController: 1,000G (2.8%, 322,104G)
LASERJESUS1337: 1,000G (2.8%, 80,439G)
Laserman1000: 820G (2.3%, 8,820G)
Reltz_: 400G (1.1%, 10,904G)
kaidykat: 400G (1.1%, 5,401G)
Breakdown777: 300G (0.8%, 5,611G)
SQUiDSQUARKLIN: 300G (0.8%, 3,082G)
getthemoneyz: 214G (0.6%, 716,330G)
dinin991: 200G (0.6%, 750G)
fluffywormhole: 176G (0.5%, 4,403G)
maakur_: 100G (0.3%, 5,332G)
datadrivenbot: 100G (0.3%, 21,678G)
