High Risers:
1. Livinghitokiri: +10,941G
2. Run_with_stone_guns: +3,435G
3. Mushufasa_: +3,116G
4. Resjudicata3: +2,189G
5. Reinoe: +2,149G
6. Memoriesoffinal: +1,960G
7. Phi_sig: +1,754G
8. Smashy: +1,540G
9. Lord_gwarth: +1,487G
10. Valensexp_: +1,456G
11. Lijarkh: +1,387G
12. Cosmictactician: +1,351G
13. Thyrandaal: +1,004G
14. Lube_squid: +1,004G
15. Krombobreaker: +976G
16. Willjin: +837G
17. Grasnikk: +804G
18. Lowlf: +756G
19. Applesnp: +727G
20. Fenaen: +624G
21. Manarkzin: +579G
22. Blastinus: +563G
23. Baronhaynes: +560G
24. Colettemslp: +506G
25. Dogsandcatsand: +504G
26. Oreo_pizza: +500G
27. Redmage4evah: +500G
28. Huffflex: +500G
29. Anizero: +500G
30. Laserman1000: +500G
31. 3ngag3: +500G
32. Forkmore: +500G
33. Vorap: +500G
34. 0v3rr8d: +500G
35. Error72: +500G
36. Fluffywormhole: +500G
37. Squidsquarklin: +500G
38. Mokura3rd: +500G
39. Runicmagus: +500G
40. Ladycyan: +500G
41. Mirapoix: +400G
42. Snarkmage: +376G
43. Galkife: +375G
44. Corpuscav: +275G
45. Kilrazin: +258G
46. Deathtaxesandanime: +228G
47. Blackacebb: +208G
48. Volgrathemoose: +143G
49. Maakur_: +115G
50. Whitetigress: +100G
51. Evewho: +100G
52. Killabandaid: +96G
53. Darrendinosaurs: +79G
54. Sephdarkheart: +67G
55. Lunar_kn1ght: +45G
56. Anfz: +43G
57. Strifu: -100G
58. Ghazzzzzz: -105G
59. Kronikle: -164G
60. Pplvee1: -200G
61. Dasutin23: -200G
62. Horustaurus: -200G
63. Flavafraze: -218G
64. Friendsquirrel: -220G
65. J_52: -300G
66. Ribbiks: -302G
67. Ldskinny: -367G
68. Just_here2: -396G
69. Joewcarson: -400G
70. Formerlydrdong: -496G
71. Technominari: -500G
72. Onehundredfists: -607G
73. Shalloween: -700G
74. Gorgewall: -718G
75. Foragercats: -1,000G
76. Evdoggity: -1,000G
77. Haatexiii: -1,000G
78. Nizaha: -1,447G
79. Virilikus: -1,618G
80. Silentkaster: -1,650G
81. Luckyluckluc2: -2,099G
82. Lyner87: -2,207G
83. Foesquirrel: -4,163G
