Player: !Purple
Team: Purple Team
Palettes: Purple/Yellow



JumbocactuarX27
Monster
Cancer
46
71
Plague










Lanshaft
Monster
Sagittarius
68
41
Plague










DustBirdEX
Monster
Libra
38
68
Plague










Seef2208
Male
Scorpio
45
56
Oracle
Draw Out
Catch
Equip Sword
Jump+3

Heaven's Cloud

Triangle Hat
Silk Robe
Battle Boots

Spell Absorb, Foxbird, Sleep
Bizen Boat
