Final Bets: black - 26 bets for 29,484G (72.4%, x0.38); brown - 9 bets for 11,213G (27.6%, x2.63)

black bets:
Virilikus: 5,557G (18.8%, 120,948G)
sinnyil2: 5,556G (18.8%, 123,434G)
JackOnFire1: 2,488G (8.4%, 9,953G)
Shalloween: 2,400G (8.1%, 50,072G)
KaLam1ty: 2,000G (6.8%, 26,112G)
Lordminsc: 1,205G (4.1%, 40,856G)
fenaen: 1,001G (3.4%, 32,167G)
volgrathemoose: 1,001G (3.4%, 4,517G)
Aldrammech: 1,000G (3.4%, 38,746G)
BirbBrainsBot: 1,000G (3.4%, 104,634G)
EnemyController: 1,000G (3.4%, 69,505G)
Tyerenex: 1,000G (3.4%, 19,415G)
ungabunga_bot: 852G (2.9%, 194,607G)
thevilmen: 799G (2.7%, 799G)
aStatue: 500G (1.7%, 10,160G)
getthemoneyz: 402G (1.4%, 548,504G)
SWATb1gdog: 400G (1.4%, 3,979G)
Cryptopsy70: 372G (1.3%, 24,593G)
VySaika: 250G (0.8%, 17,452G)
ZephyrTempest: 101G (0.3%, 171,310G)
AllInBot: 100G (0.3%, 100G)
ANFz: 100G (0.3%, 16,843G)
twelfthrootoftwo: 100G (0.3%, 7,012G)
Evewho: 100G (0.3%, 1,559G)
datadrivenbot: 100G (0.3%, 181G)
amhamor: 100G (0.3%, 100G)

brown bets:
GreatRedDragon: 3,395G (30.3%, 20,395G)
gorgewall: 3,099G (27.6%, 3,099G)
MantisFinch: 2,114G (18.9%, 4,229G)
Baron_von_Scrub: 1,111G (9.9%, 116,635G)
Vampire_Killer: 500G (4.5%, 22,451G)
Meta_Five: 500G (4.5%, 10,295G)
theFalseTruth: 332G (3.0%, 332G)
Ungaiii: 112G (1.0%, 112G)
DrAntiSocial: 50G (0.4%, 20,402G)
