Final Bets: blue - 21 bets for 13,538G (40.8%, x1.45); brown - 16 bets for 19,625G (59.2%, x0.69)

blue bets:
Virilikus: 2,000G (14.8%, 115,391G)
Tyerenex: 1,500G (11.1%, 18,915G)
upvla: 1,234G (9.1%, 7,410G)
LordSDB: 1,050G (7.8%, 10,192G)
Aldrammech: 1,000G (7.4%, 38,246G)
BirbBrainsBot: 1,000G (7.4%, 103,634G)
KaLam1ty: 1,000G (7.4%, 24,112G)
ungabunga_bot: 798G (5.9%, 193,755G)
EnemyController: 750G (5.5%, 69,005G)
aStatue: 500G (3.7%, 10,160G)
VySaika: 500G (3.7%, 17,702G)
SWATb1gdog: 500G (3.7%, 3,579G)
roofiepops: 460G (3.4%, 3,680G)
Cataphract116: 300G (2.2%, 30,819G)
ll_aja_ll: 220G (1.6%, 220G)
Dexsana: 200G (1.5%, 3,716G)
getthemoneyz: 126G (0.9%, 548,102G)
AllInBot: 100G (0.7%, 100G)
IronMongrel: 100G (0.7%, 2,571G)
amhamor: 100G (0.7%, 100G)
datadrivenbot: 100G (0.7%, 100G)

brown bets:
JackOnFire1: 3,732G (19.0%, 7,465G)
sinnyil2: 3,500G (17.8%, 117,878G)
Baron_von_Scrub: 3,333G (17.0%, 120,056G)
MantisFinch: 2,572G (13.1%, 10,288G)
volgrathemoose: 1,500G (7.6%, 3,516G)
theFalseTruth: 1,205G (6.1%, 1,205G)
leakimiko: 724G (3.7%, 9,055G)
Laserman1000: 700G (3.6%, 30,800G)
Mandoragan: 616G (3.1%, 616G)
I_nod_my_head_when_I_lose: 500G (2.5%, 46,240G)
Vampire_Killer: 500G (2.5%, 23,766G)
killth3kid: 292G (1.5%, 4,140G)
gorgewall: 200G (1.0%, 12,252G)
ZephyrTempest: 101G (0.5%, 171,709G)
Evewho: 100G (0.5%, 1,959G)
DrAntiSocial: 50G (0.3%, 21,033G)
