Final Bets: white - 17 bets for 18,125G (58.3%, x0.71); black - 23 bets for 12,959G (41.7%, x1.40)

white bets:
Shakarak: 7,465G (41.2%, 7,465G)
DudeMonkey77: 2,839G (15.7%, 2,839G)
KasugaiRoastedPeas: 1,200G (6.6%, 2,774G)
mirapoix: 1,196G (6.6%, 1,196G)
catfashions: 1,000G (5.5%, 42,378G)
fenaen: 977G (5.4%, 977G)
Pie108: 700G (3.9%, 15,381G)
HaateXIII: 591G (3.3%, 591G)
ApplesauceBoss: 508G (2.8%, 508G)
old_overholt_: 500G (2.8%, 10,244G)
Bulleta: 264G (1.5%, 264G)
datadrivenbot: 235G (1.3%, 25,458G)
rico_flex: 200G (1.1%, 3,125G)
DrAntiSocial: 150G (0.8%, 1,218G)
Lodrak: 100G (0.6%, 3,268G)
organizing_secrets: 100G (0.6%, 524G)
friendsquirrel: 100G (0.6%, 3,233G)

black bets:
HASTERIOUS: 1,508G (11.6%, 1,508G)
sinnyil2: 1,200G (9.3%, 5,882G)
Snowfats: 1,174G (9.1%, 1,174G)
kai_shee: 1,001G (7.7%, 124,376G)
MantisFinch: 1,000G (7.7%, 16,805G)
Ragnarok784: 1,000G (7.7%, 79,163G)
ungabunga_bot: 1,000G (7.7%, 91,943G)
BirbBrainsBot: 1,000G (7.7%, 52,654G)
Shalloween: 700G (5.4%, 24,636G)
Lanshaft: 600G (4.6%, 600G)
Lazerkick: 589G (4.5%, 589G)
Laserman1000: 500G (3.9%, 22,400G)
Goust18: 500G (3.9%, 10,952G)
LDSkinny: 352G (2.7%, 352G)
ZephyrTempest: 235G (1.8%, 48,465G)
nifboy: 156G (1.2%, 156G)
wollise89: 108G (0.8%, 344G)
IndecisiveNinja: 100G (0.8%, 3,280G)
Firesheath: 100G (0.8%, 1,286G)
EnemyController: 100G (0.8%, 40,454G)
getthemoneyz: 26G (0.2%, 475,752G)
roqqqpsi: 9G (0.1%, 909G)
ko2q: 1G (0.0%, 1,017G)
