Final Bets: blue - 15 bets for 17,688G (61.6%, x0.62); brown - 25 bets for 11,040G (38.4%, x1.60)

blue bets:
HawkSick: 5,632G (31.8%, 5,632G)
Zbgs: 2,000G (11.3%, 33,780G)
fenaen: 1,864G (10.5%, 1,864G)
DeathTaxesAndAnime: 1,444G (8.2%, 2,832G)
I_nod_my_head_when_I_lose: 1,000G (5.7%, 32,092G)
Dothan89: 1,000G (5.7%, 7,659G)
Conome: 959G (5.4%, 959G)
datadrivenbot: 831G (4.7%, 23,994G)
Pie108: 700G (4.0%, 17,809G)
Lanshaft: 600G (3.4%, 600G)
Bulleta: 494G (2.8%, 494G)
ko2q: 404G (2.3%, 404G)
Cryptopsy70: 360G (2.0%, 10,590G)
joewcarson: 300G (1.7%, 2,523G)
organizing_secrets: 100G (0.6%, 400G)

brown bets:
sinnyil2: 1,200G (10.9%, 9,075G)
Aldrammech: 1,060G (9.6%, 10,603G)
kai_shee: 1,001G (9.1%, 126,975G)
BirbBrainsBot: 1,000G (9.1%, 52,924G)
catfashions: 1,000G (9.1%, 43,576G)
ungabunga_bot: 766G (6.9%, 92,009G)
Shalloween: 700G (6.3%, 27,015G)
HASTERIOUS: 584G (5.3%, 584G)
Laserman1000: 500G (4.5%, 22,800G)
Lord_Burrah: 500G (4.5%, 99,364G)
DudeMonkey77: 348G (3.2%, 348G)
HaateXIII: 332G (3.0%, 332G)
DrAntiSocial: 300G (2.7%, 1,160G)
mirapoix: 300G (2.7%, 1,425G)
Lazerkick: 272G (2.5%, 272G)
ZephyrTempest: 250G (2.3%, 47,459G)
nifboy: 156G (1.4%, 156G)
getthemoneyz: 154G (1.4%, 475,094G)
RughSontos: 100G (0.9%, 2,333G)
Firesheath: 100G (0.9%, 1,686G)
IndecisiveNinja: 100G (0.9%, 3,424G)
oogthecaveman: 100G (0.9%, 6,097G)
ApplesauceBoss: 100G (0.9%, 5,629G)
EnemyController: 100G (0.9%, 40,594G)
roqqqpsi: 17G (0.2%, 899G)
