Final Bets: purple - 20 bets for 9,360G (48.6%, x1.06); brown - 18 bets for 9,898G (51.4%, x0.95)

purple bets:
SkylerBunny: 1,998G (21.3%, 1,998G)
kai_shee: 1,000G (10.7%, 43,138G)
SleepyBenzo: 1,000G (10.7%, 4,960G)
leakimiko: 957G (10.2%, 31,915G)
ensiron: 619G (6.6%, 619G)
Shalloween: 500G (5.3%, 50,667G)
DeathTaxesAndAnime: 476G (5.1%, 476G)
NovaKnight21: 456G (4.9%, 456G)
waterwatereverywhere: 400G (4.3%, 3,653G)
volgrathemoose: 400G (4.3%, 1,425G)
fenaen: 352G (3.8%, 352G)
alrightbye: 300G (3.2%, 6,702G)
rechaun: 292G (3.1%, 292G)
SpaZmodeus: 264G (2.8%, 264G)
smiggenator: 100G (1.1%, 704G)
maakur_: 100G (1.1%, 4,301G)
datadrivenbot: 100G (1.1%, 17,181G)
getthemoneyz: 40G (0.4%, 410,106G)
ko2q: 5G (0.1%, 1,427G)
daveb_: 1G (0.0%, 1,917G)

brown bets:
BadBlanket: 1,291G (13.0%, 1,291G)
sinnyil2: 1,200G (12.1%, 7,803G)
lastly: 1,111G (11.2%, 1,111G)
BirbBrainsBot: 1,000G (10.1%, 79,873G)
inzo_bettingbot: 1,000G (10.1%, 55,558G)
bad1dea: 1,000G (10.1%, 306,467G)
Drakel: 500G (5.1%, 6,964G)
AFoolishPaper: 500G (5.1%, 5,498G)
ShintaroNayaka: 500G (5.1%, 4,811G)
HaplessOne: 500G (5.1%, 19,575G)
cheesetacular: 318G (3.2%, 318G)
Cataphract116: 224G (2.3%, 224G)
ugoplatamia: 200G (2.0%, 5,713G)
SomeCallMeGON: 200G (2.0%, 1,608G)
Generalunderdog: 104G (1.1%, 104G)
Nizaha: 100G (1.0%, 2,273G)
demented_game_show_host: 100G (1.0%, 1,000G)
Avin_Chaos: 50G (0.5%, 8,433G)
