Final Bets: white - 14 bets for 7,925G (55.5%, x0.80); black - 14 bets for 6,352G (44.5%, x1.25)

white bets:
SkylerBunny: 2,300G (29.0%, 221,250G)
douchetron: 1,147G (14.5%, 1,147G)
pandasforsale: 1,022G (12.9%, 1,022G)
ShanksMcShiv: 577G (7.3%, 577G)
gorgewall: 548G (6.9%, 548G)
pplvee1: 452G (5.7%, 3,401G)
AllInBot: 445G (5.6%, 445G)
silverChangeling: 374G (4.7%, 374G)
Grandlanzer: 300G (3.8%, 128,721G)
Lumberinjack: 231G (2.9%, 231G)
datadrivenbot: 200G (2.5%, 48,146G)
AugnosMusic: 129G (1.6%, 1,290G)
Firesheath: 100G (1.3%, 1,555G)
Phillippus: 100G (1.3%, 1,556G)

black bets:
Nizaha: 1,300G (20.5%, 8,544G)
DeathTaxesAndAnime: 1,061G (16.7%, 2,081G)
LDHaten: 1,000G (15.7%, 12,647G)
BirbBrainsBot: 1,000G (15.7%, 170,370G)
g4ryo4k: 500G (7.9%, 14,373G)
Chompie: 400G (6.3%, 9,377G)
ar_tactic: 250G (3.9%, 82,672G)
rednecknazgul: 200G (3.1%, 3,389G)
LordTomS: 200G (3.1%, 5,043G)
flacococo: 156G (2.5%, 156G)
Dustmasc: 136G (2.1%, 136G)
xBizzy: 100G (1.6%, 100G)
getthemoneyz: 44G (0.7%, 1,491,874G)
moonliquor: 5G (0.1%, 46,669G)
