Player: !Black
Team: Black Team
Palettes: Black/Red



Nizaha
Male
Pisces
48
54
Thief
Summon Magic
Speed Save
Attack UP
Move-MP Up

Kunai

Leather Hat
Adaman Vest
Setiemson

Gil Taking, Steal Weapon, Steal Status
Titan, Carbunkle, Bahamut, Odin, Leviathan, Silf, Fairy



ArchKnightX
Monster
Gemini
61
63
Pisco Demon










Powergems
Monster
Gemini
67
47
Red Chocobo










RaIshtar
Monster
Pisces
65
38
Byblos







