Final Bets: purple - 11 bets for 5,532G (40.4%, x1.48); brown - 19 bets for 8,170G (59.6%, x0.68)

purple bets:
datkins728: 2,000G (36.2%, 8,361G)
TheChainNerd: 1,000G (18.1%, 9,527G)
MrPhuui: 500G (9.0%, 9,501G)
DavenIII: 500G (9.0%, 2,001G)
FoeSquirrel: 425G (7.7%, 850G)
Dexsana: 380G (6.9%, 380G)
PetitFoulard: 248G (4.5%, 248G)
ungabunga_bot: 179G (3.2%, 344,410G)
maakur_: 100G (1.8%, 128,069G)
ZephyrTempest: 100G (1.8%, 2,006G)
CoderCalamity: 100G (1.8%, 3,166G)

brown bets:
ShintaroNayaka: 1,328G (16.3%, 7,924G)
BirbBrainsBot: 1,000G (12.2%, 44,475G)
Lionhermit: 1,000G (12.2%, 36,331G)
JumbocactuarX27: 743G (9.1%, 743G)
Arunic: 500G (6.1%, 8,169G)
z32o: 500G (6.1%, 2,950G)
DustBirdEX: 454G (5.6%, 1,608G)
FNCardascia_: 395G (4.8%, 395G)
getthemoneyz: 358G (4.4%, 623,094G)
hydroshade: 317G (3.9%, 317G)
Practice_Pad: 300G (3.7%, 467G)
Smashy: 300G (3.7%, 2,535G)
nifboy: 250G (3.1%, 7,148G)
Eyepoor_: 250G (3.1%, 4,900G)
witchlight: 100G (1.2%, 643G)
FriendSquirrel: 100G (1.2%, 35,387G)
datadrivenbot: 100G (1.2%, 12,199G)
RoboticNomad: 100G (1.2%, 1,054G)
bahamutlagooon: 75G (0.9%, 1,348G)
