Final Bets: brown - 18 bets for 14,772G (58.9%, x0.70); champion - 24 bets for 10,292G (41.1%, x1.44)

brown bets:
rechaun: 4,544G (30.8%, 4,544G)
JumbocactuarX27: 2,769G (18.7%, 5,538G)
Dexsana: 1,601G (10.8%, 1,601G)
DavenIII: 1,592G (10.8%, 1,592G)
sinnyil2: 1,077G (7.3%, 1,077G)
Smashy: 500G (3.4%, 4,697G)
ShintaroNayaka: 400G (2.7%, 9,151G)
Baron_von_Scrub: 344G (2.3%, 344G)
elelor: 316G (2.1%, 316G)
nifboy: 250G (1.7%, 8,462G)
TheRedMelody: 250G (1.7%, 1,683G)
Eyepoor_: 250G (1.7%, 4,319G)
RoboticNomad: 200G (1.4%, 200G)
bahamutlagooon: 200G (1.4%, 1,955G)
FoeSquirrel: 179G (1.2%, 358G)
FriendSquirrel: 100G (0.7%, 35,297G)
Evewho: 100G (0.7%, 7,162G)
datadrivenbot: 100G (0.7%, 12,109G)

champion bets:
HaplessOne: 1,111G (10.8%, 38,421G)
ungabunga_bot: 1,000G (9.7%, 343,755G)
BirbBrainsBot: 1,000G (9.7%, 45,934G)
kai_shee: 1,000G (9.7%, 13,068G)
Lionhermit: 1,000G (9.7%, 38,956G)
FNCardascia_: 665G (6.5%, 665G)
DustBirdEX: 512G (5.0%, 2,051G)
MrPhuui: 500G (4.9%, 8,001G)
Estan_AD: 500G (4.9%, 9,801G)
getthemoneyz: 492G (4.8%, 623,876G)
NovaKnight21: 452G (4.4%, 452G)
Lydian_C: 420G (4.1%, 15,501G)
jlockwood815: 359G (3.5%, 359G)
SerumD: 250G (2.4%, 3,778G)
ThePineappleSalesman: 200G (1.9%, 25,964G)
VeryVert: 152G (1.5%, 152G)
Practice_Pad: 132G (1.3%, 132G)
maakur_: 100G (1.0%, 128,477G)
Truewarrior71: 100G (1.0%, 100G)
Lyner87: 100G (1.0%, 67,962G)
ZephyrTempest: 88G (0.9%, 1,763G)
witchlight: 76G (0.7%, 766G)
DrAntiSocial: 50G (0.5%, 8,584G)
daveb_: 33G (0.3%, 1,675G)
