Final Bets: yellow - 11 bets for 7,552G (46.2%, x1.16); purple - 13 bets for 8,788G (53.8%, x0.86)

yellow bets:
RaIshtar: 2,000G (26.5%, 8,227G)
sinnyil2: 1,704G (22.6%, 3,409G)
NovaKnight21: 1,000G (13.2%, 11,104G)
BirbBrainsBot: 1,000G (13.2%, 179,382G)
moocaotao: 572G (7.6%, 572G)
s_o_b_e_q: 500G (6.6%, 5,784G)
CrownOfHorns: 260G (3.4%, 260G)
gorgewall: 201G (2.7%, 11,128G)
getthemoneyz: 136G (1.8%, 799,972G)
Freezerman47: 128G (1.7%, 128G)
HASTERIOUS: 51G (0.7%, 1,035G)

purple bets:
ValtonZenola: 2,731G (31.1%, 2,731G)
LASERJESUS1337: 2,000G (22.8%, 61,951G)
twelfthrootoftwo: 1,000G (11.4%, 13,900G)
Laserman1000: 871G (9.9%, 32,571G)
mirapoix: 592G (6.7%, 1,184G)
Roenoth: 322G (3.7%, 322G)
OneHundredFists: 320G (3.6%, 320G)
gogofromtogo: 200G (2.3%, 3,265G)
Evewho: 200G (2.3%, 9,358G)
KasugaiRoastedPeas: 200G (2.3%, 4,006G)
TeaTime29: 152G (1.7%, 152G)
CorpusCav: 100G (1.1%, 19,785G)
datadrivenbot: 100G (1.1%, 31,247G)
