Final Bets: yellow - 10 bets for 9,926G (56.6%, x0.77); champion - 14 bets for 7,619G (43.4%, x1.30)

yellow bets:
sinnyil2: 2,696G (27.2%, 5,392G)
s_o_b_e_q: 2,500G (25.2%, 6,366G)
LASERJESUS1337: 2,000G (20.1%, 59,951G)
NovaKnight21: 1,000G (10.1%, 12,268G)
CrownOfHorns: 563G (5.7%, 563G)
wyonearth: 300G (3.0%, 3,368G)
Freezerman47: 277G (2.8%, 277G)
moocaotao: 238G (2.4%, 238G)
Digitalsocrates: 200G (2.0%, 4,032G)
TeaTime29: 152G (1.5%, 152G)

champion bets:
RaIshtar: 1,200G (15.8%, 10,554G)
CorpusCav: 1,140G (15.0%, 19,685G)
twelfthrootoftwo: 1,000G (13.1%, 12,900G)
BirbBrainsBot: 1,000G (13.1%, 180,546G)
Laserman1000: 700G (9.2%, 31,700G)
mirapoix: 592G (7.8%, 592G)
vorap: 500G (6.6%, 117,117G)
luckyreads: 500G (6.6%, 1,000G)
OneHundredFists: 320G (4.2%, 320G)
gorgewall: 201G (2.6%, 11,362G)
Evewho: 200G (2.6%, 9,158G)
Roenoth: 100G (1.3%, 100G)
datadrivenbot: 100G (1.3%, 31,147G)
getthemoneyz: 66G (0.9%, 800,130G)
