Final Bets: purple - 17 bets for 8,391G (50.6%, x0.98); brown - 10 bets for 8,205G (49.4%, x1.02)

purple bets:
SkylerBunny: 1,500G (17.9%, 103,713G)
Digitalsocrates: 1,000G (11.9%, 4,745G)
BirbBrainsBot: 1,000G (11.9%, 70,230G)
reinoe: 1,000G (11.9%, 16,574G)
Evewho: 628G (7.5%, 628G)
OneHundredFists: 524G (6.2%, 524G)
killth3kid: 500G (6.0%, 12,745G)
superdevon1: 500G (6.0%, 500G)
serperemagus: 415G (4.9%, 415G)
HASTERIOUS: 302G (3.6%, 6,041G)
ChronoG: 244G (2.9%, 244G)
silentkaster: 200G (2.4%, 700G)
aidanlucky7: 178G (2.1%, 178G)
fluffskull: 100G (1.2%, 712G)
Kronikle: 100G (1.2%, 19,433G)
datadrivenbot: 100G (1.2%, 37,669G)
Ring_Wyrm: 100G (1.2%, 1,028G)

brown bets:
DeathTaxesAndAnime: 3,077G (37.5%, 6,034G)
Draconis345: 1,000G (12.2%, 60,524G)
Kalabain: 1,000G (12.2%, 19,087G)
CaptainGarlock: 1,000G (12.2%, 18,381G)
getthemoneyz: 720G (8.8%, 889,444G)
electric_algus: 600G (7.3%, 20,361G)
genericco: 384G (4.7%, 384G)
Spuzzmocker: 224G (2.7%, 224G)
AllInBot: 100G (1.2%, 100G)
Sans_from_Snowdin: 100G (1.2%, 21,226G)
