Final Bets: red - 15 bets for 5,890G (44.8%, x1.23); brown - 11 bets for 7,255G (55.2%, x0.81)

red bets:
CaptainGarlock: 1,000G (17.0%, 18,704G)
BirbBrainsBot: 1,000G (17.0%, 70,906G)
electric_algus: 800G (13.6%, 19,375G)
Evewho: 628G (10.7%, 628G)
killth3kid: 500G (8.5%, 14,187G)
Mesmaster: 500G (8.5%, 5,186G)
serperemagus: 236G (4.0%, 236G)
mr_kindaro: 204G (3.5%, 204G)
abaven_alistair: 204G (3.5%, 204G)
cougboi: 200G (3.4%, 18,622G)
Ring_Wyrm: 150G (2.5%, 893G)
almontys: 148G (2.5%, 148G)
Lydian_C: 120G (2.0%, 14,873G)
datadrivenbot: 100G (1.7%, 37,369G)
fluffskull: 100G (1.7%, 860G)

brown bets:
Kalabain: 2,000G (27.6%, 23,203G)
AllInBot: 1,959G (27.0%, 1,959G)
Draconis345: 1,000G (13.8%, 60,551G)
superdevon1: 824G (11.4%, 824G)
OneHundredFists: 404G (5.6%, 404G)
Oobs56: 316G (4.4%, 316G)
HASTERIOUS: 286G (3.9%, 5,739G)
SincereName: 200G (2.8%, 986G)
silentkaster: 104G (1.4%, 104G)
DeathTaxesAndAnime: 100G (1.4%, 12,213G)
getthemoneyz: 62G (0.9%, 890,781G)
