Final Bets: blue - 11 bets for 3,795G (32.6%, x2.07); champion - 12 bets for 7,847G (67.4%, x0.48)

blue bets:
blastty: 961G (25.3%, 961G)
ko2q: 790G (20.8%, 790G)
Nizaha: 732G (19.3%, 15,134G)
amiture: 284G (7.5%, 284G)
Gunz232323: 249G (6.6%, 249G)
datadrivenbot: 200G (5.3%, 64,931G)
BirbBrainsBot: 191G (5.0%, 81,989G)
MinBetBot: 100G (2.6%, 5,128G)
mirapoix: 100G (2.6%, 3,151G)
fesight: 100G (2.6%, 1,359G)
getthemoneyz: 88G (2.3%, 1,615,693G)

champion bets:
Tarheels218: 2,000G (25.5%, 11,610G)
ArrenJevleth: 1,272G (16.2%, 2,544G)
SephDarkheart: 1,000G (12.7%, 104,738G)
resjudicata3: 1,000G (12.7%, 4,909G)
superdevon1: 748G (9.5%, 74,873G)
nekojin: 550G (7.0%, 14,351G)
Mesmaster: 412G (5.3%, 412G)
latebit: 328G (4.2%, 30,846G)
AllInBot: 200G (2.5%, 200G)
Lord_Gwarth: 137G (1.7%, 943G)
CosmicTactician: 100G (1.3%, 19,761G)
DeathTaxesAndAnime: 100G (1.3%, 2,710G)
