Final Bets: blue - 19 bets for 11,623G (29.3%, x2.41); green - 27 bets for 28,004G (70.7%, x0.42)

blue bets:
sinnyil2: 2,300G (19.8%, 121,727G)
braumbles: 2,000G (17.2%, 62,040G)
Aldrammech: 1,000G (8.6%, 37,077G)
getthemoneyz: 1,000G (8.6%, 547,910G)
BirbBrainsBot: 1,000G (8.6%, 103,880G)
I_nod_my_head_when_I_lose: 750G (6.5%, 46,715G)
superdevon1: 600G (5.2%, 5,385G)
leakimiko: 533G (4.6%, 7,627G)
ColetteMSLP: 500G (4.3%, 28,957G)
Shalloween: 500G (4.3%, 48,172G)
VySaika: 500G (4.3%, 16,614G)
Fenrislfr: 208G (1.8%, 208G)
ANFz: 151G (1.3%, 16,373G)
ZephyrTempest: 101G (0.9%, 172,042G)
AllInBot: 100G (0.9%, 100G)
gorgewall: 100G (0.9%, 11,700G)
DubLG8150: 100G (0.9%, 800G)
smurphy000000: 100G (0.9%, 842G)
LeepingJJ: 80G (0.7%, 2,360G)

green bets:
SWATb1gdog: 4,994G (17.8%, 4,994G)
ko2q: 4,050G (14.5%, 8,101G)
Virilikus: 3,000G (10.7%, 108,079G)
roofiepops: 2,212G (7.9%, 2,212G)
GreatRedDragon: 2,172G (7.8%, 31,456G)
ethias91: 2,000G (7.1%, 13,338G)
SkylerBunny: 1,500G (5.4%, 60,065G)
Lordminsc: 1,205G (4.3%, 43,086G)
powergems: 1,200G (4.3%, 22,392G)
PatSouI: 1,000G (3.6%, 17,574G)
KaLam1ty: 1,000G (3.6%, 22,177G)
Nizaha: 501G (1.8%, 3,778G)
aStatue: 500G (1.8%, 500G)
Vampire_Killer: 400G (1.4%, 24,349G)
Cryptopsy70: 372G (1.3%, 24,237G)
ungabunga_bot: 325G (1.2%, 193,639G)
ll_aja_ll: 306G (1.1%, 306G)
killth3kid: 296G (1.1%, 4,247G)
Larkspir: 200G (0.7%, 1,041G)
Evewho: 200G (0.7%, 2,074G)
Mandoragan: 116G (0.4%, 116G)
Lavatis: 100G (0.4%, 3,250G)
twelfthrootoftwo: 100G (0.4%, 7,296G)
datadrivenbot: 100G (0.4%, 100G)
Soy_Soda_Pop: 100G (0.4%, 939G)
DrAntiSocial: 50G (0.2%, 21,106G)
daveb_: 5G (0.0%, 1,901G)
