Final Bets: blue - 14 bets for 7,763G (53.0%, x0.89); white - 14 bets for 6,871G (47.0%, x1.13)

blue bets:
JumbocactuarX27: 1,247G (16.1%, 1,247G)
kai_shee: 1,001G (12.9%, 142,610G)
JonnyCue: 1,000G (12.9%, 2,767G)
catfashions: 733G (9.4%, 733G)
Zaicao: 710G (9.1%, 1,000G)
Lanshaft: 600G (7.7%, 11,982G)
datadrivenbot: 536G (6.9%, 3,717G)
deenglow: 500G (6.4%, 25,756G)
Laserman1000: 500G (6.4%, 10,500G)
Cataphract116: 288G (3.7%, 288G)
ungabunga_bot: 265G (3.4%, 134,606G)
HaateXIII: 250G (3.2%, 2,717G)
Kojigawatz: 100G (1.3%, 3,658G)
daveb_: 33G (0.4%, 4,092G)

white bets:
sinnyil2: 1,200G (17.5%, 26,880G)
BirbBrainsBot: 1,000G (14.6%, 133,379G)
reinoe: 1,000G (14.6%, 12,794G)
volgrathemoose: 793G (11.5%, 793G)
UmaiJam: 600G (8.7%, 600G)
getthemoneyz: 598G (8.7%, 491,661G)
nifboy: 500G (7.3%, 1,060G)
ZephyrTempest: 286G (4.2%, 55,435G)
jame3200: 246G (3.6%, 1,463G)
benticore: 200G (2.9%, 2,047G)
AllInBot: 173G (2.5%, 173G)
tmo50x: 100G (1.5%, 2,618G)
Lodrak: 100G (1.5%, 7,829G)
DrAntiSocial: 75G (1.1%, 3,171G)
