Final Bets: purple - 16 bets for 8,797G (60.1%, x0.66); brown - 12 bets for 5,849G (39.9%, x1.50)

purple bets:
reinoe: 1,500G (17.1%, 18,840G)
OneHundredFists: 1,016G (11.5%, 1,016G)
mindblownnnn: 1,000G (11.4%, 4,999G)
gorgewall: 996G (11.3%, 996G)
SQUiDSQUARKLIN: 721G (8.2%, 721G)
AllInBot: 565G (6.4%, 565G)
Lythe_Caraker: 500G (5.7%, 185,253G)
onehitslay: 500G (5.7%, 3,450G)
Zagorsek: 456G (5.2%, 456G)
Smashy: 336G (3.8%, 336G)
superdevon1: 332G (3.8%, 332G)
DeathTaxesAndAnime: 200G (2.3%, 1,603G)
SnarkMage: 200G (2.3%, 3,514G)
resjudicata3: 200G (2.3%, 2,712G)
datadrivenbot: 200G (2.3%, 71,932G)
genkidou: 75G (0.9%, 888G)

brown bets:
BirbBrainsBot: 1,000G (17.1%, 183,739G)
DarrenDinosaurs: 600G (10.3%, 600G)
ValensEXP_: 583G (10.0%, 583G)
getthemoneyz: 516G (8.8%, 2,023,577G)
technominari: 500G (8.5%, 80,506G)
Shalloween: 500G (8.5%, 13,240G)
Zerguzen: 500G (8.5%, 7,033G)
DanielRKnealeArt: 500G (8.5%, 5,375G)
ericzubat: 500G (8.5%, 10,299G)
silentkaster: 250G (4.3%, 2,110G)
FlavaFraze: 200G (3.4%, 200G)
CosmicTactician: 200G (3.4%, 28,092G)
