Final Bets: white - 15 bets for 25,586G (78.8%, x0.27); purple - 10 bets for 6,882G (21.2%, x3.72)

white bets:
NicoSavoy: 15,000G (58.6%, 99,058G)
Rune339: 1,734G (6.8%, 3,468G)
mindblownnnn: 1,357G (5.3%, 5,664G)
Zagorsek: 1,334G (5.2%, 1,334G)
technominari: 1,000G (3.9%, 80,006G)
upvla: 1,000G (3.9%, 5,236G)
BirbBrainsBot: 1,000G (3.9%, 181,739G)
superdevon1: 967G (3.8%, 967G)
krombobreaker: 500G (2.0%, 17,480G)
DanielRKnealeArt: 500G (2.0%, 4,375G)
ValensEXP_: 356G (1.4%, 356G)
helpimabug: 268G (1.0%, 268G)
killth3kid: 250G (1.0%, 11,799G)
datadrivenbot: 200G (0.8%, 72,215G)
getthemoneyz: 120G (0.5%, 2,022,947G)

purple bets:
AllInBot: 1,646G (23.9%, 1,646G)
SQUiDSQUARKLIN: 1,200G (17.4%, 1,200G)
DarrenDinosaurs: 1,049G (15.2%, 1,049G)
seppu777: 777G (11.3%, 15,443G)
evontno: 500G (7.3%, 11,547G)
reinoe: 500G (7.3%, 20,837G)
DeathTaxesAndAnime: 410G (6.0%, 1,736G)
adellraynes: 300G (4.4%, 1,000G)
SnarkMage: 300G (4.4%, 3,905G)
resjudicata3: 200G (2.9%, 2,995G)
