Final Bets: white - 14 bets for 23,043G (60.9%, x0.64); black - 15 bets for 14,802G (39.1%, x1.56)

white bets:
flacococo: 6,568G (28.5%, 6,568G)
tinytittyfiend: 5,000G (21.7%, 13,822G)
gorgewall: 2,955G (12.8%, 2,955G)
DeathTaxesAndAnime: 1,779G (7.7%, 1,779G)
maximumcrit: 1,712G (7.4%, 1,712G)
DarrenDinosaurs: 1,189G (5.2%, 1,189G)
reinoe: 1,000G (4.3%, 82,333G)
Nizaha: 664G (2.9%, 24,250G)
resjudicata3: 656G (2.8%, 656G)
TasisSai: 500G (2.2%, 20,610G)
AllInBot: 404G (1.8%, 404G)
JonnyCue: 210G (0.9%, 210G)
Gunz232323: 206G (0.9%, 206G)
datadrivenbot: 200G (0.9%, 49,692G)

black bets:
thaetreis: 4,200G (28.4%, 36,426G)
Shalloween: 2,400G (16.2%, 44,291G)
latebit: 1,601G (10.8%, 3,140G)
ShintaroNayaka: 1,509G (10.2%, 1,509G)
fluffskull: 1,091G (7.4%, 1,091G)
BirbBrainsBot: 1,000G (6.8%, 22,488G)
Zeroroute: 600G (4.1%, 600G)
Phi_Sig: 555G (3.7%, 108,339G)
ko2q: 448G (3.0%, 448G)
Forkmore: 404G (2.7%, 12,805G)
getthemoneyz: 276G (1.9%, 1,515,948G)
Lord_Gwarth: 268G (1.8%, 268G)
SuppleThink: 200G (1.4%, 3,530G)
RunicMagus: 150G (1.0%, 2,007G)
itsonlyspencer: 100G (0.7%, 1,897G)
