Final Bets: red - 11 bets for 9,546G (51.5%, x0.94); black - 19 bets for 8,984G (48.5%, x1.06)

red bets:
gorgewall: 2,260G (23.7%, 2,260G)
RaIshtar: 1,253G (13.1%, 1,253G)
thaetreis: 1,200G (12.6%, 48,087G)
dogsandcatsand: 1,000G (10.5%, 103,567G)
DeathTaxesAndAnime: 884G (9.3%, 884G)
superdevon1: 851G (8.9%, 42,574G)
latebit: 746G (7.8%, 7,466G)
Kronikle: 484G (5.1%, 6,056G)
SephDarkheart: 456G (4.8%, 456G)
maximumcrit: 312G (3.3%, 312G)
silverChangeling: 100G (1.0%, 1,162G)

black bets:
ko2q: 2,119G (23.6%, 4,238G)
BirbBrainsBot: 1,000G (11.1%, 25,516G)
Zeroroute: 600G (6.7%, 600G)
DarrenDinosaurs: 588G (6.5%, 588G)
Laserman1000: 539G (6.0%, 5,239G)
tinytittyfiend: 500G (5.6%, 9,993G)
TasisSai: 500G (5.6%, 20,488G)
ShintaroNayaka: 500G (5.6%, 4,036G)
SuppleThink: 500G (5.6%, 4,254G)
Shalloween: 400G (4.5%, 50,849G)
Lord_Gwarth: 350G (3.9%, 1,582G)
butterbelljedi: 288G (3.2%, 288G)
muffin_money: 250G (2.8%, 7,143G)
AllInBot: 200G (2.2%, 200G)
datadrivenbot: 200G (2.2%, 49,475G)
getthemoneyz: 142G (1.6%, 1,516,268G)
JonnyCue: 104G (1.2%, 104G)
Gunz232323: 104G (1.2%, 104G)
itsonlyspencer: 100G (1.1%, 2,129G)
