Final Bets: white - 12 bets for 6,402G (41.2%, x1.43); brown - 13 bets for 9,135G (58.8%, x0.70)

white bets:
bruubarg: 1,236G (19.3%, 16,236G)
Lydian_C: 1,200G (18.7%, 16,194G)
LordSDB: 1,000G (15.6%, 9,760G)
HaateXIII: 688G (10.7%, 688G)
Evewho: 600G (9.4%, 600G)
fluffskull: 549G (8.6%, 549G)
Sairentozon7: 308G (4.8%, 308G)
Chompie: 300G (4.7%, 10,677G)
gorgewall: 201G (3.1%, 3,239G)
cougboi: 120G (1.9%, 16,675G)
GrayGhostGaming: 100G (1.6%, 7,515G)
datadrivenbot: 100G (1.6%, 36,217G)

brown bets:
AllInBot: 2,760G (30.2%, 2,760G)
Firesheath: 1,530G (16.7%, 1,530G)
OneHundredFists: 1,051G (11.5%, 2,062G)
BirbBrainsBot: 1,000G (10.9%, 32,711G)
NicoSavoy: 1,000G (10.9%, 5,737G)
sinnyil2: 600G (6.6%, 4,525G)
CrownOfHorns: 276G (3.0%, 276G)
HASTERIOUS: 214G (2.3%, 4,297G)
getthemoneyz: 204G (2.2%, 870,094G)
bannana_slug_: 200G (2.2%, 2,705G)
serperemagus: 100G (1.1%, 2,363G)
aidanlucky7: 100G (1.1%, 108G)
Ring_Wyrm: 100G (1.1%, 995G)
