Final Bets: black - 19 bets for 9,593G (25.1%, x2.98); champion - 31 bets for 28,569G (74.9%, x0.34)

black bets:
moonliquor: 1,000G (10.4%, 13,257G)
BirbBrainsBot: 1,000G (10.4%, 95,217G)
DeathTaxesAndAnime: 976G (10.2%, 976G)
electric_algus: 800G (8.3%, 45,929G)
getthemoneyz: 778G (8.1%, 1,274,987G)
gorgewall: 651G (6.8%, 651G)
Aldrammech: 644G (6.7%, 644G)
cougboi: 641G (6.7%, 641G)
Mushufasa_: 500G (5.2%, 1,679G)
PrancesWithWolves: 495G (5.2%, 495G)
roofiepops: 460G (4.8%, 460G)
Xoomwaffle: 450G (4.7%, 2,890G)
KasugaiRoastedPeas: 301G (3.1%, 18,463G)
dem0nj0ns: 261G (2.7%, 261G)
Seaweed_B: 236G (2.5%, 1,100G)
fluffskull: 100G (1.0%, 3,749G)
nhammen: 100G (1.0%, 7,482G)
mrfripps: 100G (1.0%, 6,188G)
InfiniteContinues: 100G (1.0%, 100G)

champion bets:
ThreeMileIsland: 3,282G (11.5%, 3,282G)
Mesmaster: 3,000G (10.5%, 88,467G)
NicoSavoy: 3,000G (10.5%, 182,542G)
pallidsable: 2,453G (8.6%, 2,453G)
RaIshtar: 2,000G (7.0%, 30,723G)
SkylerBunny: 2,000G (7.0%, 24,315G)
reinoe: 1,500G (5.3%, 38,824G)
Treafa: 1,000G (3.5%, 4,438G)
amiture: 1,000G (3.5%, 13,742G)
Evewho: 772G (2.7%, 772G)
MagicBottle: 766G (2.7%, 766G)
Laserman1000: 715G (2.5%, 30,515G)
OhEnou: 700G (2.5%, 700G)
escobro: 700G (2.5%, 7,602G)
dogsandcatsand: 609G (2.1%, 609G)
twelfthrootoftwo: 572G (2.0%, 572G)
loveyouallfriends: 571G (2.0%, 571G)
TasisSai: 500G (1.8%, 8,952G)
dantayystv: 500G (1.8%, 17,457G)
brogan316: 500G (1.8%, 5,718G)
Firesheath: 460G (1.6%, 460G)
Rislyeu: 419G (1.5%, 419G)
ForestMagi: 330G (1.2%, 330G)
BlueAbs: 204G (0.7%, 204G)
Mysteriousdewd: 200G (0.7%, 9,267G)
datadrivenbot: 200G (0.7%, 60,432G)
lijerrr: 200G (0.7%, 1,443G)
dtrain332: 116G (0.4%, 116G)
moocaotao: 100G (0.4%, 5,164G)
Heroebal: 100G (0.4%, 5,884G)
rednecknazgul: 100G (0.4%, 20,204G)
