Final Bets: red - 10 bets for 8,075G (46.0%, x1.17); blue - 14 bets for 9,462G (54.0%, x0.85)

red bets:
Mushufasa_: 2,000G (24.8%, 51,169G)
SkyridgeZero: 1,500G (18.6%, 42,898G)
ser_pyrro: 1,160G (14.4%, 1,160G)
CassiePhoenix: 1,011G (12.5%, 1,011G)
BirbBrainsBot: 1,000G (12.4%, 20,029G)
getthemoneyz: 400G (5.0%, 2,031,971G)
3ngag3: 368G (4.6%, 3,448G)
hotpocketsofficial: 336G (4.2%, 336G)
Ominnous: 200G (2.5%, 24,604G)
MemoriesofFinal: 100G (1.2%, 39,950G)

blue bets:
NemhainRuaidhe: 1,000G (10.6%, 1,000G)
withpaint: 1,000G (10.6%, 1,000G)
hecsec: 1,000G (10.6%, 1,000G)
ErraXIV: 1,000G (10.6%, 1,000G)
JeffGoldblum_: 1,000G (10.6%, 1,000G)
upvla: 904G (9.6%, 904G)
DeathTaxesAndAnime: 828G (8.8%, 828G)
nifboy: 820G (8.7%, 9,084G)
Raixelol: 600G (6.3%, 5,000G)
rocl: 424G (4.5%, 7,394G)
AllInBot: 314G (3.3%, 314G)
Genkidou: 212G (2.2%, 212G)
otakutaylor: 200G (2.1%, 2,224G)
Setsaku: 160G (1.7%, 160G)
