Final Bets: green - 9 bets for 8,493G (21.3%, x3.70); champion - 17 bets for 31,444G (78.7%, x0.27)

green bets:
AllInBot: 4,750G (55.9%, 4,750G)
otakutaylor: 1,000G (11.8%, 5,663G)
BirbBrainsBot: 1,000G (11.8%, 23,066G)
getthemoneyz: 454G (5.3%, 2,034,416G)
escobro: 417G (4.9%, 417G)
hotpocketsofficial: 336G (4.0%, 336G)
randgridr: 336G (4.0%, 724G)
withpaint: 100G (1.2%, 100G)
hecsec: 100G (1.2%, 100G)

champion bets:
Mushufasa_: 20,000G (63.6%, 48,184G)
ItsHyrax: 2,472G (7.9%, 2,472G)
Leonidusx: 2,000G (6.4%, 207,514G)
Rune339: 1,093G (3.5%, 10,938G)
upvla: 1,048G (3.3%, 1,048G)
NemhainRuaidhe: 1,044G (3.3%, 1,044G)
nifboy: 820G (2.6%, 2,992G)
DeathTaxesAndAnime: 720G (2.3%, 2,956G)
Raixelol: 600G (1.9%, 3,201G)
ivfioivii: 509G (1.6%, 509G)
Genkidou: 300G (1.0%, 1,826G)
khelor_: 200G (0.6%, 5,630G)
robmortar: 174G (0.6%, 174G)
Setsaku: 164G (0.5%, 164G)
JeffGoldblum_: 100G (0.3%, 100G)
MemoriesofFinal: 100G (0.3%, 40,409G)
ErraXIV: 100G (0.3%, 100G)
