Final Bets: purple - 24 bets for 12,989G (24.7%, x3.05); brown - 22 bets for 39,564G (75.3%, x0.33)

purple bets:
Cheridium: 2,997G (23.1%, 2,997G)
sanhiei: 2,556G (19.7%, 2,556G)
AlenaZarek: 1,809G (13.9%, 1,809G)
DudeMonkey77: 1,000G (7.7%, 1,000G)
DeathTaxesAndAnime: 921G (7.1%, 921G)
Laserman1000: 488G (3.8%, 488G)
getthemoneyz: 458G (3.5%, 436,085G)
maichenambrai: 386G (3.0%, 386G)
alecttox: 292G (2.2%, 32,492G)
DrAntiSocial: 282G (2.2%, 282G)
Pie108: 256G (2.0%, 5,227G)
BurlapChampion: 200G (1.5%, 3,766G)
b0shii: 200G (1.5%, 507G)
electric_glass: 150G (1.2%, 2,782G)
InOzWeTrust: 132G (1.0%, 132G)
AllInBot: 124G (1.0%, 124G)
Vilarus: 120G (0.9%, 120G)
zepi_zza: 109G (0.8%, 409G)
ApplesauceBoss: 100G (0.8%, 3,862G)
chronoxtrigger: 100G (0.8%, 995G)
Lali_Lulelo: 100G (0.8%, 1,147G)
TinhShu: 100G (0.8%, 1,788G)
JudgeSkrapz: 59G (0.5%, 1,886G)
silentperogy: 50G (0.4%, 8,299G)

brown bets:
HASTERIOUS: 19,999G (50.5%, 81,623G)
Shakarak: 8,220G (20.8%, 16,119G)
sinnyil2: 1,500G (3.8%, 70,855G)
UmaiJam: 1,411G (3.6%, 14,112G)
RunicMagus: 1,200G (3.0%, 36,943G)
BirbBrainsBot: 1,000G (2.5%, 214,367G)
reinoe: 1,000G (2.5%, 32,586G)
TrogdorTheMemeinator: 957G (2.4%, 957G)
KasugaiRoastedPeas: 540G (1.4%, 15,365G)
z32o: 539G (1.4%, 539G)
Lodrak: 501G (1.3%, 34,146G)
Rastanar: 500G (1.3%, 6,803G)
MoonSlayerRS: 388G (1.0%, 388G)
DarrenDinosaurs: 384G (1.0%, 384G)
SkylerBunny: 320G (0.8%, 320G)
Tyerenex: 307G (0.8%, 307G)
evdoggity: 248G (0.6%, 248G)
ugoplatamia: 200G (0.5%, 12,526G)
datadrivenbot: 100G (0.3%, 17,103G)
rico_flex: 100G (0.3%, 1,896G)
Maowiwowi: 100G (0.3%, 100G)
ungabunga_bot: 50G (0.1%, 19,507G)
