Final Bets: red - 16 bets for 14,042G (24.3%, x3.12); brown - 36 bets for 43,767G (75.7%, x0.32)

red bets:
OneHundredFists: 5,619G (40.0%, 5,619G)
maichenambrai: 1,204G (8.6%, 1,204G)
DeathTaxesAndAnime: 1,072G (7.6%, 1,072G)
reinoe: 1,000G (7.1%, 34,521G)
mirapoix: 988G (7.0%, 988G)
DudeMonkey77: 800G (5.7%, 800G)
AlenaZarek: 740G (5.3%, 740G)
sanhiei: 719G (5.1%, 719G)
Vilarus: 624G (4.4%, 624G)
AllInBot: 522G (3.7%, 522G)
BurlapChampion: 250G (1.8%, 3,866G)
Rastanar: 200G (1.4%, 7,467G)
silentperogy: 100G (0.7%, 7,949G)
ApplesauceBoss: 100G (0.7%, 3,773G)
zepi_zza: 100G (0.7%, 1,222G)
getthemoneyz: 4G (0.0%, 435,043G)

brown bets:
HASTERIOUS: 18,999G (43.4%, 88,121G)
Shakarak: 3,000G (6.9%, 18,318G)
HaplessOne: 2,500G (5.7%, 96,811G)
DarrenDinosaurs: 1,763G (4.0%, 1,763G)
upvla: 1,219G (2.8%, 19,547G)
WireLord: 1,217G (2.8%, 1,217G)
sinnyil2: 1,200G (2.7%, 70,347G)
RRazza: 1,027G (2.3%, 1,027G)
Laserman1000: 1,025G (2.3%, 1,025G)
alecttox: 1,000G (2.3%, 33,000G)
ungabunga_bot: 1,000G (2.3%, 19,151G)
BirbBrainsBot: 1,000G (2.3%, 217,278G)
TrogdorTheMemeinator: 1,000G (2.3%, 2,414G)
chronoxtrigger: 916G (2.1%, 916G)
Tyerenex: 823G (1.9%, 2,495G)
b0shii: 720G (1.6%, 720G)
omegasuspekt: 681G (1.6%, 1,362G)
KasugaiRoastedPeas: 600G (1.4%, 17,487G)
z32o: 580G (1.3%, 580G)
Lodrak: 501G (1.1%, 33,808G)
JudgeSkrapz: 360G (0.8%, 1,800G)
AdmiralPikachu: 300G (0.7%, 8,587G)
rico_flex: 300G (0.7%, 3,390G)
Pie108: 256G (0.6%, 4,971G)
OverlordCuddles: 204G (0.5%, 204G)
ugoplatamia: 200G (0.5%, 7,308G)
TinhShu: 200G (0.5%, 1,736G)
loveyouallfriends: 200G (0.5%, 15,137G)
electric_glass: 150G (0.3%, 3,153G)
cougboi: 150G (0.3%, 6,842G)
mivvim: 140G (0.3%, 140G)
MrDiggs49: 136G (0.3%, 136G)
Lali_Lulelo: 100G (0.2%, 1,530G)
datadrivenbot: 100G (0.2%, 17,147G)
Conome: 100G (0.2%, 2,140G)
Imakuni: 100G (0.2%, 1,414G)
