Final Bets: purple - 18 bets for 8,130G (35.0%, x1.85); brown - 15 bets for 15,069G (65.0%, x0.54)

purple bets:
killth3kid: 2,000G (24.6%, 76,052G)
LeepingJJ: 1,307G (16.1%, 1,307G)
twelfthrootoftwo: 892G (11.0%, 892G)
E_Ballard: 600G (7.4%, 600G)
RoboticNomad: 570G (7.0%, 570G)
rjA0zcOQ96: 500G (6.2%, 12,809G)
ungabunga_bot: 426G (5.2%, 441,460G)
vorap: 300G (3.7%, 39,923G)
turquoise_mage: 208G (2.6%, 208G)
TheJonTerp: 200G (2.5%, 839G)
mikesk1: 200G (2.5%, 5,403G)
Dexsana: 200G (2.5%, 1,139G)
rico_flex: 200G (2.5%, 25,138G)
ANFz: 123G (1.5%, 36,297G)
ferroniss: 104G (1.3%, 104G)
theanonymouslurker: 100G (1.2%, 100G)
mannequ1n: 100G (1.2%, 723G)
datadrivenbot: 100G (1.2%, 11,684G)

brown bets:
volgrathemoose: 3,114G (20.7%, 6,228G)
Evewho: 2,050G (13.6%, 4,021G)
Mesmaster: 2,000G (13.3%, 112,124G)
TheChainNerd: 1,253G (8.3%, 1,253G)
BirbBrainsBot: 1,000G (6.6%, 162,439G)
Lionhermit: 1,000G (6.6%, 37,588G)
gooseyourself: 805G (5.3%, 1,610G)
ColetteMSLP: 800G (5.3%, 35,145G)
SamaelMerihem: 581G (3.9%, 581G)
roofiepops: 572G (3.8%, 572G)
genericco: 500G (3.3%, 5,839G)
NovaKnight21: 484G (3.2%, 484G)
Baron_von_Scrub: 474G (3.1%, 10,741G)
maakur_: 428G (2.8%, 428G)
getthemoneyz: 8G (0.1%, 652,889G)
