Final Bets: black - 12 bets for 5,713G (32.2%, x2.10); purple - 23 bets for 12,016G (67.8%, x0.48)

black bets:
killth3kid: 2,000G (35.0%, 77,759G)
Mesmaster: 1,000G (17.5%, 111,838G)
theNGUYENNER: 500G (8.8%, 21,916G)
NovaKnight21: 484G (8.5%, 484G)
Lali_Lulelo: 416G (7.3%, 416G)
cupholderr: 300G (5.3%, 33,869G)
Eyepoor_: 250G (4.4%, 1,697G)
potgodtopdog: 222G (3.9%, 20,606G)
EnemyController: 200G (3.5%, 229,424G)
GrandmasterFrankerZ: 200G (3.5%, 1,100G)
ANFz: 111G (1.9%, 36,715G)
getthemoneyz: 30G (0.5%, 653,762G)

purple bets:
HaateXIII: 1,816G (15.1%, 3,561G)
gooseyourself: 1,092G (9.1%, 2,185G)
volgrathemoose: 1,056G (8.8%, 2,113G)
nifboy: 1,000G (8.3%, 15,120G)
Lionhermit: 1,000G (8.3%, 36,588G)
Maldoree: 642G (5.3%, 642G)
E_Ballard: 600G (5.0%, 600G)
Evewho: 564G (4.7%, 564G)
rjA0zcOQ96: 500G (4.2%, 13,736G)
Baron_von_Scrub: 474G (3.9%, 10,080G)
ungabunga_bot: 450G (3.7%, 442,150G)
Dexsana: 416G (3.5%, 416G)
RoboticNomad: 300G (2.5%, 2,312G)
mikesk1: 300G (2.5%, 6,121G)
twelfthrootoftwo: 300G (2.5%, 2,888G)
LeepingJJ: 292G (2.4%, 292G)
mannequ1n: 248G (2.1%, 248G)
turquoise_mage: 208G (1.7%, 208G)
BirbBrainsBot: 208G (1.7%, 163,153G)
TheJonTerp: 200G (1.7%, 1,553G)
Awakeninfinity: 150G (1.2%, 803G)
theanonymouslurker: 100G (0.8%, 100G)
datadrivenbot: 100G (0.8%, 11,769G)
