Final Bets: white - 20 bets for 12,347G (59.4%, x0.68); black - 12 bets for 8,436G (40.6%, x1.46)

white bets:
flowinprose: 5,000G (40.5%, 124,303G)
Aldrammech: 1,000G (8.1%, 15,954G)
Rislyeu: 750G (6.1%, 5,470G)
gorgewall: 596G (4.8%, 596G)
letdowncity: 500G (4.0%, 15,875G)
shs_: 500G (4.0%, 12,514G)
Kyune: 500G (4.0%, 30,784G)
sukotsuto: 500G (4.0%, 19,824G)
JoeykinsGaming: 500G (4.0%, 16,402G)
joewcarson: 400G (3.2%, 5,087G)
CosmicTactician: 400G (3.2%, 6,692G)
zanderriv: 300G (2.4%, 5,222G)
DrPoopersMD: 300G (2.4%, 2,818G)
kaidykat: 294G (2.4%, 5,898G)
Shinzutalos: 200G (1.6%, 200G)
getthemoneyz: 170G (1.4%, 800,579G)
soren_of_tyto: 136G (1.1%, 136G)
Firesheath: 101G (0.8%, 2,937G)
datadrivenbot: 100G (0.8%, 32,337G)
CorpusCav: 100G (0.8%, 18,429G)

black bets:
Zbgs: 3,000G (35.6%, 46,978G)
twelfthrootoftwo: 1,000G (11.9%, 17,910G)
BirbBrainsBot: 1,000G (11.9%, 165,386G)
UmaiJam: 1,000G (11.9%, 17,291G)
reinoe: 600G (7.1%, 600G)
MADTheta: 500G (5.9%, 6,783G)
skillomono: 400G (4.7%, 4,272G)
Error72: 380G (4.5%, 380G)
CandyTamer: 256G (3.0%, 739G)
Grandlanzer: 100G (1.2%, 11,734G)
Flameatron: 100G (1.2%, 2,876G)
nhammen: 100G (1.2%, 1,007G)
