Final Bets: blue - 17 bets for 17,639G (64.1%, x0.56); green - 17 bets for 9,889G (35.9%, x1.78)

blue bets:
Aldrammech: 5,000G (28.3%, 17,247G)
HaateXIII: 2,924G (16.6%, 5,735G)
Velixtra: 1,500G (8.5%, 2,545G)
Bryon_W: 1,455G (8.2%, 1,455G)
KasugaiRoastedPeas: 1,236G (7.0%, 1,236G)
moonliquor: 1,000G (5.7%, 23,357G)
bahamutlagooon: 1,000G (5.7%, 3,551G)
E_Ballard: 916G (5.2%, 916G)
maakur_: 625G (3.5%, 625G)
catfashions: 564G (3.2%, 564G)
Breakdown777: 500G (2.8%, 17,047G)
Kronikle: 416G (2.4%, 416G)
ungabunga_bot: 103G (0.6%, 422,979G)
EnemyController: 100G (0.6%, 235,064G)
datadrivenbot: 100G (0.6%, 13,718G)
ko2q: 100G (0.6%, 992G)
foofermoofer: 100G (0.6%, 2,520G)

green bets:
Lordminsc: 1,132G (11.4%, 2,264G)
BirbBrainsBot: 1,000G (10.1%, 142,180G)
fenaen: 1,000G (10.1%, 3,473G)
Mesmaster: 1,000G (10.1%, 47,495G)
Mtueni: 1,000G (10.1%, 227,656G)
Lionhermit: 1,000G (10.1%, 30,083G)
concles: 666G (6.7%, 13,474G)
volgrathemoose: 501G (5.1%, 27,683G)
Who_lio42: 500G (5.1%, 17,326G)
DustBirdEX: 484G (4.9%, 484G)
ZephyrTempest: 456G (4.6%, 5,878G)
getthemoneyz: 346G (3.5%, 648,332G)
Eyepoor_: 300G (3.0%, 1,959G)
sukotsuto: 200G (2.0%, 7,235G)
reshiramdude16: 104G (1.1%, 104G)
JohnLoco: 100G (1.0%, 1,447G)
SirCherish: 100G (1.0%, 3,617G)
