Final Bets: purple - 12 bets for 10,650G (58.7%, x0.70); brown - 8 bets for 7,483G (41.3%, x1.42)

purple bets:
HaplessOne: 3,568G (33.5%, 3,568G)
OneHundredFists: 2,050G (19.2%, 28,916G)
LivingHitokiri: 1,000G (9.4%, 149,973G)
getthemoneyz: 1,000G (9.4%, 2,111,102G)
fattunaking: 928G (8.7%, 928G)
superdevon1: 704G (6.6%, 704G)
iBardic: 400G (3.8%, 11,490G)
ColetteMSLP: 300G (2.8%, 2,287G)
AllInBot: 200G (1.9%, 200G)
DeathTaxesAndAnime: 200G (1.9%, 6,078G)
datadrivenbot: 200G (1.9%, 81,592G)
readdesert: 100G (0.9%, 868G)

brown bets:
Mesmaster: 2,000G (26.7%, 11,186G)
Mushufasa_: 1,234G (16.5%, 146,648G)
BirbBrainsBot: 1,000G (13.4%, 91,413G)
CassiePhoenix: 941G (12.6%, 941G)
MemoriesofFinal: 708G (9.5%, 708G)
Willjin: 600G (8.0%, 30,951G)
pepperbuster: 500G (6.7%, 30,000G)
Lolthsmeat: 500G (6.7%, 2,734G)
