Final Bets: black - 11 bets for 5,888G (25.0%, x3.00); champion - 10 bets for 17,688G (75.0%, x0.33)

black bets:
Brainstew29: 1,000G (17.0%, 38,042G)
BirbBrainsBot: 1,000G (17.0%, 31,233G)
AllInBot: 761G (12.9%, 761G)
HaateXIII: 705G (12.0%, 705G)
latebit: 500G (8.5%, 19,222G)
iBardic: 500G (8.5%, 1,100G)
Laserman1000: 490G (8.3%, 2,690G)
Lydian_C: 420G (7.1%, 8,665G)
silverChangeling: 212G (3.6%, 212G)
getthemoneyz: 150G (2.5%, 1,515,892G)
DesertWooder: 150G (2.5%, 2,412G)

champion bets:
Firesheath: 10,000G (56.5%, 25,000G)
douchetron: 2,567G (14.5%, 5,034G)
Kronikle: 2,000G (11.3%, 8,824G)
DeathTaxesAndAnime: 1,363G (7.7%, 2,673G)
Drusiform: 426G (2.4%, 426G)
rNdOrchestra: 421G (2.4%, 421G)
PantherIscariot: 300G (1.7%, 3,338G)
Treafa: 250G (1.4%, 1,276G)
gorgewall: 201G (1.1%, 5,541G)
flacococo: 160G (0.9%, 160G)
