Final Bets: green - 7 bets for 4,443G (83.5%, x0.20); yellow - 2 bets for 877G (16.5%, x5.07)

green bets:
Aldrammech: 1,382G (31.1%, 1,382G)
maakur_: 811G (18.3%, 811G)
AllInBot: 646G (14.5%, 646G)
killth3kid: 624G (14.0%, 5,935G)
Lanshaft: 556G (12.5%, 15,685G)
blorpy_: 324G (7.3%, 4,056G)
douchetron: 100G (2.3%, 19,722G)

yellow bets:
Nizaha: 676G (77.1%, 19,733G)
gorgewall: 201G (22.9%, 1,681G)
