Final Bets: green - 12 bets for 10,343G (29.0%, x2.44); yellow - 17 bets for 25,276G (71.0%, x0.41)

green bets:
prince_rogers_nelson_: 4,082G (39.5%, 4,082G)
douchetron: 2,862G (27.7%, 5,612G)
rednecknazgul: 704G (6.8%, 704G)
AllInBot: 617G (6.0%, 617G)
randgridr: 560G (5.4%, 560G)
MiseryKoss: 395G (3.8%, 395G)
LAGBOT30000: 335G (3.2%, 6,712G)
Arcblazer23: 288G (2.8%, 288G)
TheseJeans: 200G (1.9%, 1,141G)
Firesheath: 100G (1.0%, 6,408G)
cuatro1915: 100G (1.0%, 421G)
DHaveWord: 100G (1.0%, 3,603G)

yellow bets:
Mesmaster: 5,000G (19.8%, 40,197G)
evontno: 3,000G (11.9%, 24,030G)
poGpopE: 2,999G (11.9%, 44,034G)
resjudicata3: 2,457G (9.7%, 2,457G)
UmaiJam: 2,000G (7.9%, 40,900G)
NicoSavoy: 2,000G (7.9%, 342,488G)
Chambs12: 1,408G (5.6%, 2,816G)
Lydian_C: 1,200G (4.7%, 4,754G)
BirbBrainsBot: 1,000G (4.0%, 52,687G)
getthemoneyz: 1,000G (4.0%, 1,447,239G)
gorgewall: 678G (2.7%, 678G)
Foamsoldier: 630G (2.5%, 630G)
NIghtdew14: 600G (2.4%, 600G)
NovaKnight21: 504G (2.0%, 504G)
benticore: 500G (2.0%, 46,352G)
datadrivenbot: 200G (0.8%, 46,653G)
Brainstew29: 100G (0.4%, 9,720G)
