Final Bets: red - 14 bets for 6,366G (37.5%, x1.67); blue - 14 bets for 10,628G (62.5%, x0.60)

red bets:
evontno: 1,096G (17.2%, 1,096G)
BirbBrainsBot: 1,000G (15.7%, 173,431G)
OneHundredFists: 1,000G (15.7%, 32,539G)
EnemyController: 1,000G (15.7%, 1,266,530G)
Hasterious: 619G (9.7%, 61,997G)
killth3kid: 500G (7.9%, 5,037G)
sososteve: 300G (4.7%, 3,385G)
Magicandy: 200G (3.1%, 8,230G)
muffin_money: 150G (2.4%, 7,267G)
Baron_von_Scrub: 101G (1.6%, 23,290G)
Firesheath: 100G (1.6%, 5,955G)
maakur_: 100G (1.6%, 76,873G)
CosmicTactician: 100G (1.6%, 21,342G)
datadrivenbot: 100G (1.6%, 48,750G)

blue bets:
E_Ballard: 1,972G (18.6%, 1,972G)
TheChainNerd: 1,516G (14.3%, 1,516G)
SkylerBunny: 1,000G (9.4%, 548,977G)
Mesmaster: 1,000G (9.4%, 33,101G)
Dasutin23: 1,000G (9.4%, 33,424G)
Nizaha: 958G (9.0%, 958G)
getthemoneyz: 736G (6.9%, 1,037,008G)
Rislyeu: 596G (5.6%, 596G)
JumbocactuarX27: 500G (4.7%, 2,799G)
Oobs56: 500G (4.7%, 14,344G)
yeepeekayeahmf: 350G (3.3%, 3,016G)
sparker9: 300G (2.8%, 17,289G)
nifboy: 100G (0.9%, 2,205G)
Djorama: 100G (0.9%, 7,975G)
