Final Bets: blue - 17 bets for 21,718G (63.9%, x0.56); black - 20 bets for 12,259G (36.1%, x1.77)

blue bets:
Digitalsocrates: 6,945G (32.0%, 13,890G)
Mesmaster: 3,000G (13.8%, 30,700G)
adadaika: 2,370G (10.9%, 2,370G)
reinoe: 2,000G (9.2%, 12,700G)
TheChainNerd: 1,520G (7.0%, 1,520G)
Dasutin23: 1,000G (4.6%, 32,226G)
sparker9: 1,000G (4.6%, 17,508G)
Zetchryn: 929G (4.3%, 929G)
HaychDub: 675G (3.1%, 675G)
Nizaha: 501G (2.3%, 7,714G)
Laserman1000: 500G (2.3%, 5,300G)
Rislyeu: 328G (1.5%, 328G)
odym82: 300G (1.4%, 1,379G)
Lythe_Caraker: 250G (1.2%, 99,396G)
Aquios_: 200G (0.9%, 1,200G)
datadrivenbot: 100G (0.5%, 48,692G)
livvexx: 100G (0.5%, 2,366G)

black bets:
SkylerBunny: 2,500G (20.4%, 549,027G)
dogsandcatsand: 2,191G (17.9%, 4,382G)
evontno: 1,090G (8.9%, 1,090G)
bruubarg: 901G (7.3%, 901G)
Zagorsek: 889G (7.3%, 889G)
holyonline: 794G (6.5%, 794G)
E_Ballard: 640G (5.2%, 640G)
DuraiPapers: 500G (4.1%, 47,054G)
brokenknight201: 500G (4.1%, 4,721G)
maldis40: 300G (2.4%, 3,057G)
roqqqpsi: 292G (2.4%, 29,287G)
BirbBrainsBot: 282G (2.3%, 171,496G)
benticore: 250G (2.0%, 2,383G)
muffin_money: 250G (2.0%, 8,011G)
Moshyhero: 200G (1.6%, 6,943G)
Evewho: 200G (1.6%, 6,804G)
getthemoneyz: 180G (1.5%, 1,037,439G)
nifboy: 100G (0.8%, 2,178G)
CosmicTactician: 100G (0.8%, 21,542G)
Firesheath: 100G (0.8%, 6,110G)
