Final Bets: blue - 27 bets for 18,839G (50.5%, x0.98); champion - 19 bets for 18,447G (49.5%, x1.02)

blue bets:
Mesmaster: 3,000G (15.9%, 32,393G)
reinoe: 2,000G (10.6%, 13,829G)
SkylerBunny: 1,500G (8.0%, 546,527G)
Aquios_: 1,313G (7.0%, 1,313G)
JumbocactuarX27: 1,211G (6.4%, 1,211G)
Dasutin23: 1,000G (5.3%, 32,790G)
DuraiPapers: 1,000G (5.3%, 46,554G)
BirbBrainsBot: 1,000G (5.3%, 171,214G)
adadaika: 1,000G (5.3%, 3,708G)
Laserman1000: 582G (3.1%, 5,582G)
Rislyeu: 513G (2.7%, 513G)
Nizaha: 501G (2.7%, 8,001G)
killth3kid: 500G (2.7%, 4,222G)
sparker9: 500G (2.7%, 17,072G)
holyonline: 468G (2.5%, 468G)
Zetchryn: 453G (2.4%, 453G)
TheChainNerd: 358G (1.9%, 2,378G)
bruubarg: 316G (1.7%, 316G)
Zagorsek: 312G (1.7%, 312G)
yeepeekayeahmf: 300G (1.6%, 3,553G)
maldis40: 300G (1.6%, 2,757G)
Moshyhero: 200G (1.1%, 6,743G)
muffin_money: 150G (0.8%, 7,761G)
CosmicTactician: 100G (0.5%, 21,442G)
Zalerah: 100G (0.5%, 2,762G)
datadrivenbot: 100G (0.5%, 48,748G)
alecttox: 62G (0.3%, 34,065G)

champion bets:
Digitalsocrates: 8,905G (48.3%, 17,810G)
dogsandcatsand: 2,191G (11.9%, 2,191G)
pplvee1: 1,500G (8.1%, 13,903G)
Baron_von_Scrub: 1,111G (6.0%, 23,303G)
YaBoy125: 1,101G (6.0%, 36,708G)
E_Ballard: 644G (3.5%, 644G)
aviner42: 512G (2.8%, 512G)
AlenaZarek: 500G (2.7%, 39,743G)
Arcblazer23: 312G (1.7%, 312G)
odym82: 300G (1.6%, 1,548G)
roqqqpsi: 289G (1.6%, 28,995G)
Lythe_Caraker: 250G (1.4%, 99,537G)
Evewho: 200G (1.1%, 6,604G)
sososteve: 200G (1.1%, 3,680G)
peeronid: 108G (0.6%, 108G)
maakur_: 100G (0.5%, 76,773G)
Miku_Shikhu: 100G (0.5%, 11,131G)
livvexx: 100G (0.5%, 2,422G)
getthemoneyz: 24G (0.1%, 1,037,259G)
