Final Bets: red - 20 bets for 36,728G (63.4%, x0.58); green - 31 bets for 21,231G (36.6%, x1.73)

red bets:
sinnyil2: 21,842G (59.5%, 43,685G)
RongRongArts: 5,352G (14.6%, 10,705G)
reinoe: 2,000G (5.4%, 19,679G)
upvla: 1,219G (3.3%, 23,474G)
Goust18: 1,130G (3.1%, 1,130G)
Zeroroute: 1,000G (2.7%, 7,514G)
pandasforsale: 666G (1.8%, 17,506G)
OrgasmicToast: 442G (1.2%, 442G)
evdoggity: 400G (1.1%, 4,384G)
CorpusCav: 400G (1.1%, 5,172G)
Maeveen: 300G (0.8%, 300G)
0utlier: 300G (0.8%, 4,724G)
SkylerBunny: 300G (0.8%, 300G)
Aeolus_000: 300G (0.8%, 5,987G)
LAGBOT30000: 269G (0.7%, 5,387G)
TheMurkGnome: 208G (0.6%, 208G)
rubenflonne: 200G (0.5%, 8,505G)
electric_glass: 200G (0.5%, 4,306G)
ApplesauceBoss: 100G (0.3%, 1,512G)
datadrivenbot: 100G (0.3%, 16,369G)

green bets:
Shakarak: 10,000G (47.1%, 40,114G)
Shalloween: 2,000G (9.4%, 78,319G)
BirbBrainsBot: 1,000G (4.7%, 148,624G)
bad1dea: 1,000G (4.7%, 365,852G)
HaplessOne: 1,000G (4.7%, 31,893G)
YaBoy125: 727G (3.4%, 727G)
Lanshaft: 600G (2.8%, 2,165G)
DHaveWord: 551G (2.6%, 1,883G)
mirapoix: 468G (2.2%, 468G)
AllInBot: 455G (2.1%, 455G)
ungabunga_bot: 350G (1.6%, 7,096G)
ZephyrTempest: 274G (1.3%, 20,023G)
samtimemc: 250G (1.2%, 2,241G)
compton64: 243G (1.1%, 2,430G)
hyvi_: 220G (1.0%, 1,207G)
getthemoneyz: 202G (1.0%, 416,306G)
ugoplatamia: 200G (0.9%, 15,277G)
b0shii: 200G (0.9%, 200G)
Chompie: 200G (0.9%, 8,100G)
oogthecaveman: 200G (0.9%, 1,751G)
belphepeppers: 200G (0.9%, 1,156G)
byrdturbo: 111G (0.5%, 1,607G)
NUMBER1DB: 104G (0.5%, 104G)
chronoxtrigger: 100G (0.5%, 4,034G)
BuffaloCrunch: 100G (0.5%, 16,108G)
Melbraega: 100G (0.5%, 130G)
Gyarz: 100G (0.5%, 15,073G)
SeedSC: 100G (0.5%, 137,392G)
DrAntiSocial: 65G (0.3%, 1,317G)
Sitiran: 61G (0.3%, 611G)
dreadnxught: 50G (0.2%, 3,130G)
