Final Bets: green - 15 bets for 6,885G (22.6%, x3.42); yellow - 28 bets for 23,536G (77.4%, x0.29)

green bets:
Baron_von_Scrub: 2,500G (36.3%, 84,259G)
Aldrammech: 1,000G (14.5%, 45,765G)
Breakdown777: 500G (7.3%, 30,483G)
Jerboj: 500G (7.3%, 48,966G)
SquidgyXom: 456G (6.6%, 456G)
Anethum: 416G (6.0%, 416G)
DustBirdEX: 333G (4.8%, 11,476G)
midori_ribbon: 264G (3.8%, 264G)
TheRylander: 236G (3.4%, 236G)
getthemoneyz: 180G (2.6%, 589,421G)
potgodtopdog: 122G (1.8%, 13,959G)
OverlordAnon: 100G (1.5%, 100G)
duskps: 100G (1.5%, 17,471G)
Squatting_Bear: 100G (1.5%, 302G)
nifboy: 78G (1.1%, 1,962G)

yellow bets:
Fenrislfr: 2,368G (10.1%, 2,368G)
Pie108: 2,000G (8.5%, 267,943G)
reinoe: 2,000G (8.5%, 20,802G)
HaateXIII: 2,000G (8.5%, 92,239G)
volgrathemoose: 1,501G (6.4%, 3,999G)
fenaen: 1,500G (6.4%, 66,049G)
Mirrorclaw: 1,272G (5.4%, 1,272G)
madming25: 1,234G (5.2%, 4,745G)
aStatue: 1,068G (4.5%, 1,068G)
BirbBrainsBot: 1,000G (4.2%, 40,973G)
Billybones5150: 1,000G (4.2%, 15,008G)
skysa250: 1,000G (4.2%, 60,183G)
Lionhermit: 1,000G (4.2%, 24,742G)
pandasforsale: 666G (2.8%, 33,518G)
ungabunga_bot: 568G (2.4%, 275,567G)
baconbacon1207: 500G (2.1%, 19,276G)
FireisWet: 500G (2.1%, 1,741G)
EnemyController: 500G (2.1%, 150,148G)
ZephyrTempest: 455G (1.9%, 1,823G)
haigy: 350G (1.5%, 2,755G)
action_otter: 200G (0.8%, 208G)
museofdoom: 200G (0.8%, 379G)
mirapoix: 200G (0.8%, 1,402G)
nuka1120: 104G (0.4%, 104G)
ApplesauceBoss: 100G (0.4%, 4,776G)
CosmicTactician: 100G (0.4%, 3,637G)
datadrivenbot: 100G (0.4%, 3,591G)
DrAntiSocial: 50G (0.2%, 20,642G)
