Final Bets: red - 14 bets for 8,848G (65.3%, x0.53); blue - 9 bets for 4,701G (34.7%, x1.88)

red bets:
HaplessOne: 2,000G (22.6%, 119,986G)
leakimiko: 1,081G (12.2%, 13,523G)
getthemoneyz: 1,000G (11.3%, 546,767G)
Willjin: 1,000G (11.3%, 14,791G)
reinoe: 781G (8.8%, 781G)
BirbBrainsBot: 709G (8.0%, 86,407G)
Jeeboheebo: 704G (8.0%, 704G)
aStatue: 623G (7.0%, 623G)
KasugaiRoastedPeas: 420G (4.7%, 12,677G)
Masta_Glenn: 200G (2.3%, 1,736G)
AllInBot: 125G (1.4%, 125G)
pLifer: 100G (1.1%, 2,622G)
datadrivenbot: 100G (1.1%, 644G)
daveb_: 5G (0.1%, 1,690G)

blue bets:
Lydian_C: 1,200G (25.5%, 151,414G)
Evewho: 1,157G (24.6%, 1,157G)
Shakarak: 600G (12.8%, 600G)
R_Raynos: 447G (9.5%, 447G)
YaBoy125: 416G (8.8%, 416G)
Slowbrofist: 372G (7.9%, 372G)
ungabunga_bot: 309G (6.6%, 211,857G)
TimeJannies: 100G (2.1%, 19,627G)
Tithonus: 100G (2.1%, 4,877G)
