Final Bets: purple - 21 bets for 21,085G (58.1%, x0.72); brown - 17 bets for 15,232G (41.9%, x1.38)

purple bets:
Mtueni: 6,000G (28.5%, 100,261G)
coralreeferz: 4,000G (19.0%, 11,353G)
Lydian_C: 2,185G (10.4%, 4,285G)
RongRongArts: 1,100G (5.2%, 50,108G)
Grasnikk: 1,000G (4.7%, 7,170G)
MoonSlayerRS: 893G (4.2%, 893G)
leakimiko: 833G (4.0%, 16,667G)
Dexef: 777G (3.7%, 3,422G)
volgrathemoose: 628G (3.0%, 628G)
slatios: 600G (2.8%, 4,992G)
KetabrakBemos: 600G (2.8%, 2,710G)
NovaKnight21: 408G (1.9%, 408G)
z32o: 388G (1.8%, 388G)
genoguy: 308G (1.5%, 308G)
fenixcrest: 304G (1.4%, 6,086G)
PrudishDuckling: 276G (1.3%, 276G)
rechaun: 272G (1.3%, 272G)
JumbocactuarX27: 240G (1.1%, 240G)
ko2q: 120G (0.6%, 120G)
Carledo: 103G (0.5%, 3,113G)
WinnerBit: 50G (0.2%, 2,667G)

brown bets:
megaman2202: 5,217G (34.3%, 20,870G)
LordSDB: 2,500G (16.4%, 3,534G)
TheChainNerd: 2,444G (16.0%, 24,449G)
thaetreis: 1,313G (8.6%, 2,626G)
BirbBrainsBot: 1,000G (6.6%, 203,163G)
HaplessOne: 996G (6.5%, 16,592G)
getthemoneyz: 412G (2.7%, 353,414G)
ZephyrTempest: 223G (1.5%, 477G)
Treapvort: 200G (1.3%, 6,154G)
Maeveen: 200G (1.3%, 10,112G)
gum44: 200G (1.3%, 1,446G)
rjA0zcOQ96: 106G (0.7%, 1,994G)
AllInBot: 100G (0.7%, 100G)
maakur_: 100G (0.7%, 56,857G)
Cataphract116: 100G (0.7%, 1,867G)
Humble_Fabio: 99G (0.6%, 1,115G)
roqqqpsi: 22G (0.1%, 1,532G)
