Final Bets: red - 17 bets for 10,163G (56.2%, x0.78); blue - 16 bets for 7,915G (43.8%, x1.28)

red bets:
SQUiDSQUARKLIN: 2,690G (26.5%, 2,690G)
joewcarson: 1,705G (16.8%, 1,705G)
TheGuesty: 1,500G (14.8%, 41,766G)
Estan_AD: 671G (6.6%, 1,342G)
BoneMiser: 600G (5.9%, 600G)
killth3kid: 500G (4.9%, 12,968G)
Baron_von_Scrub: 474G (4.7%, 16,367G)
aeonicvector: 400G (3.9%, 519G)
GrandmasterFrankerZ: 372G (3.7%, 372G)
Breakdown777: 300G (3.0%, 4,843G)
Milkman153: 286G (2.8%, 286G)
cloud92684: 165G (1.6%, 165G)
CorpusCav: 100G (1.0%, 21,035G)
moocaotao: 100G (1.0%, 2,975G)
nifboy: 100G (1.0%, 7,706G)
Evewho: 100G (1.0%, 7,821G)
datadrivenbot: 100G (1.0%, 22,743G)

blue bets:
volgrathemoose: 1,747G (22.1%, 3,494G)
BirbBrainsBot: 1,000G (12.6%, 119,617G)
Lionhermit: 1,000G (12.6%, 11,485G)
ThePineappleSalesman: 893G (11.3%, 893G)
FriendSquirrel: 891G (11.3%, 891G)
Lanshaft: 404G (5.1%, 2,121G)
HASTERIOUS: 404G (5.1%, 8,083G)
Sairentozon7: 400G (5.1%, 1,286G)
DaMadPanda182: 300G (3.8%, 23,050G)
fluffywormhole: 276G (3.5%, 276G)
AllInBot: 100G (1.3%, 100G)
EnemyController: 100G (1.3%, 318,807G)
passermine: 100G (1.3%, 1,521G)
benticore: 100G (1.3%, 1,328G)
serperemagus: 100G (1.3%, 1,435G)
l0rdspug: 100G (1.3%, 1,255G)
