Final Bets: blue - 16 bets for 5,403G (17.7%, x4.64); purple - 19 bets for 25,068G (82.3%, x0.22)

blue bets:
BirbBrainsBot: 1,000G (18.5%, 121,472G)
EnemyController: 1,000G (18.5%, 317,831G)
joewcarson: 697G (12.9%, 697G)
killth3kid: 500G (9.3%, 12,527G)
Lanshaft: 404G (7.5%, 4,194G)
SQUiDSQUARKLIN: 340G (6.3%, 340G)
skillomono: 300G (5.6%, 8,603G)
fluffywormhole: 276G (5.1%, 276G)
LightSCT: 200G (3.7%, 1,635G)
cloud92684: 116G (2.1%, 116G)
AllInBot: 100G (1.9%, 100G)
FoeSquirrel: 100G (1.9%, 1,444G)
Rislyeu: 100G (1.9%, 5,974G)
argentbast: 100G (1.9%, 1,962G)
Digitalsocrates: 100G (1.9%, 2,951G)
getthemoneyz: 70G (1.3%, 700,348G)

purple bets:
CorpusCav: 10,980G (43.8%, 21,961G)
moocaotao: 3,821G (15.2%, 3,821G)
volgrathemoose: 2,044G (8.2%, 4,088G)
HaateXIII: 1,500G (6.0%, 3,238G)
gooseyourself: 1,024G (4.1%, 1,024G)
mpghappiness: 1,001G (4.0%, 26,254G)
twelfthrootoftwo: 1,000G (4.0%, 35,784G)
Candina: 999G (4.0%, 21,190G)
ANFz: 500G (2.0%, 2,952G)
crookedjay: 500G (2.0%, 1,000G)
TheGuesty: 430G (1.7%, 42,430G)
gorgewall: 201G (0.8%, 14,102G)
GladiatorLupe: 200G (0.8%, 2,617G)
serperemagus: 200G (0.8%, 1,693G)
otakutaylor: 200G (0.8%, 2,866G)
Sairentozon7: 168G (0.7%, 2,142G)
lastly: 100G (0.4%, 13,205G)
nifboy: 100G (0.4%, 7,491G)
datadrivenbot: 100G (0.4%, 22,848G)
