High Risers:
1. dogsandcatsand: +5,595G
2. resjudicata3: +1,744G
3. khelor_: +1,733G
4. Smashy: +1,399G
5. krombobreaker: +964G
6. bigbongsmoker: +760G
7. otakutaylor: +672G
8. CosmicTactician: +520G
9. AniZero: +519G
10. Dasutin23: +477G
11. OrbitalHeel: +469G
12. gorgewall: +195G
13. Sharosa: +92G
14. Einswolf: +85G
15. maakur_: +57G
16. DuPlatypus: +11G
17. HuffFlex: +4G
18. Lolthsmeat: +4G
19. upvla: +4G
20. NicoSavoy: +4G
21. baumgrattler: -11G
22. OneHundredFists: -96G
23. brokenknight201: -187G
24. roofiepops: -193G
25. Spartan_Paladin: -220G
26. ruleof5: -300G
27. Chuckolator: -300G
28. TheBrett: -339G
29. Cryptopsy70: -396G
30. joewcarson: -400G
31. lotharek: -464G
32. ANFz: -500G
33. Laserman1000: -532G
34. Lord_Gwarth: -546G
35. lowlf: -616G
36. highelectricaltemperature: -751G
37. chaosdesigned: -775G
38. Chihuahua_Charity: -1,000G
39. fluffywormhole: -1,000G
40. lijarkh: -1,000G
41. TheSabretoothe: -1,000G
42. Girfred: -1,000G
43. ghazzzzzz: -1,000G
44. skipsandwiches: -1,001G
45. Lythe_Caraker: -1,021G
46. skillomono: -1,043G
47. readdesert: -1,100G
48. DeathTaxesAndAnime: -1,300G
49. Thyrandaal: -1,397G
50. ValensEXP_: -1,761G
51. ExplanationMarkWow: -1,800G
52. technominari: -2,000G
53. sireaulou: -2,000G
54. reinoe: -2,194G
55. 2b_yorha_b: -2,800G
56. evontno: -2,916G
57. Shalloween: -5,442G
58. killth3kid: -9,377G
