Final Bets: red - 19 bets for 13,588G (30.2%, x2.31); purple - 23 bets for 31,377G (69.8%, x0.43)

red bets:
dogsandcatsand: 2,672G (19.7%, 2,672G)
NotBalrog: 2,000G (14.7%, 22,300G)
toka222: 1,500G (11.0%, 63,727G)
skipsandwiches: 1,478G (10.9%, 1,478G)
sir_uther115: 1,000G (7.4%, 11,179G)
BirbBrainsBot: 1,000G (7.4%, 133,301G)
Zeroroute: 600G (4.4%, 600G)
sith_will_smith: 500G (3.7%, 2,549G)
neerrm: 500G (3.7%, 29,629G)
killth3kid: 460G (3.4%, 683G)
KyleWonToLiveForever: 392G (2.9%, 392G)
ayeayex3: 256G (1.9%, 256G)
getthemoneyz: 226G (1.7%, 1,331,603G)
Scurg: 204G (1.5%, 204G)
Legionx13: 200G (1.5%, 2,338G)
shineeyo: 200G (1.5%, 10,055G)
datadrivenbot: 200G (1.5%, 35,332G)
lastly: 100G (0.7%, 34,060G)
ohhinm: 100G (0.7%, 3,931G)

purple bets:
Zetchryn: 9,452G (30.1%, 9,452G)
prince_rogers_nelson_: 5,000G (15.9%, 7,077G)
RaIshtar: 5,000G (15.9%, 83,278G)
helpimabug: 2,275G (7.3%, 4,551G)
nifboy: 1,846G (5.9%, 1,846G)
turbn: 1,370G (4.4%, 1,370G)
JumbocactuarX27: 1,000G (3.2%, 47,691G)
HaateXIII: 812G (2.6%, 812G)
Nizaha: 556G (1.8%, 15,365G)
lyonslegacy: 512G (1.6%, 512G)
MXsora: 500G (1.6%, 2,391G)
Laserman1000: 496G (1.6%, 2,796G)
UnderOneLight: 433G (1.4%, 433G)
Chuckolator: 433G (1.4%, 8,450G)
pplvee1: 403G (1.3%, 403G)
CapnChaos12: 300G (1.0%, 5,842G)
athros13: 268G (0.9%, 11,930G)
AllInBot: 200G (0.6%, 200G)
Lydian_C: 121G (0.4%, 95,359G)
nhammen: 100G (0.3%, 10,197G)
TasisSai: 100G (0.3%, 1,670G)
Bongomon7: 100G (0.3%, 11,342G)
Thyrandaal: 100G (0.3%, 1,590G)
