Final Bets: red - 9 bets for 2,910G (35.9%, x1.78); yellow - 9 bets for 5,189G (64.1%, x0.56)

red bets:
BirbBrainsBot: 1,000G (34.4%, 77,029G)
HuffFlex: 500G (17.2%, 12,299G)
dantayystv: 392G (13.5%, 392G)
upvla: 322G (11.1%, 1,239G)
Smokegiant: 232G (8.0%, 232G)
Mysteriousdewd: 228G (7.8%, 228G)
VolgraTheMoose: 100G (3.4%, 6,900G)
Pakars: 100G (3.4%, 26,674G)
getthemoneyz: 36G (1.2%, 1,268,859G)

yellow bets:
cam_ATS: 1,847G (35.6%, 48,617G)
NIghtdew14: 1,000G (19.3%, 7,160G)
NicoSavoy: 1,000G (19.3%, 191,983G)
ayeayex3: 500G (9.6%, 1,070G)
DamnThatShark: 304G (5.9%, 304G)
furrytomahawkk: 212G (4.1%, 212G)
datadrivenbot: 200G (3.9%, 61,848G)
Lydian_C: 121G (2.3%, 95,761G)
TheMM42: 5G (0.1%, 11,658G)
