Final Bets: red - 22 bets for 14,601G (67.1%, x0.49); blue - 16 bets for 7,147G (32.9%, x2.04)

red bets:
joewcarson: 2,000G (13.7%, 35,406G)
prince_rogers_nelson_: 1,952G (13.4%, 1,952G)
ShintaroNayaka: 1,500G (10.3%, 1,500G)
BlackFireUK: 1,000G (6.8%, 18,289G)
BirbBrainsBot: 1,000G (6.8%, 61,786G)
getthemoneyz: 958G (6.6%, 966,900G)
Laserman1000: 771G (5.3%, 7,471G)
UmaiJam: 600G (4.1%, 600G)
NovaKnight21: 545G (3.7%, 545G)
TheChainNerd: 502G (3.4%, 502G)
ivellioz: 500G (3.4%, 1,195G)
Sans_from_Snowdin: 500G (3.4%, 11,453G)
Angelomortis: 470G (3.2%, 470G)
fluffskull: 467G (3.2%, 467G)
killth3kid: 450G (3.1%, 4,779G)
roofiepops: 336G (2.3%, 336G)
CapnChaos12: 300G (2.1%, 12,655G)
run_with_stone_GUNs: 250G (1.7%, 26,176G)
nekojin: 200G (1.4%, 1,475G)
Firesheath: 100G (0.7%, 12,895G)
pancake11112: 100G (0.7%, 100G)
datadrivenbot: 100G (0.7%, 44,130G)

blue bets:
Digitalsocrates: 1,000G (14.0%, 62,000G)
bruubarg: 1,000G (14.0%, 22,948G)
toka222: 1,000G (14.0%, 36,334G)
nifboy: 667G (9.3%, 667G)
Cryptopsy70: 556G (7.8%, 22,591G)
EnemyController: 500G (7.0%, 605,045G)
HaateXIII: 400G (5.6%, 2,653G)
Anasetsuken: 400G (5.6%, 17,673G)
serperemagus: 400G (5.6%, 6,303G)
Lythe_Caraker: 250G (3.5%, 109,382G)
AltimaMantoid: 224G (3.1%, 224G)
Kronikle: 200G (2.8%, 16,817G)
ZCKaiser: 200G (2.8%, 1,268G)
DeathTaxesAndAnime: 150G (2.1%, 3,788G)
AllInBot: 100G (1.4%, 100G)
Lordminsc: 100G (1.4%, 3,782G)
