Final Bets: green - 16 bets for 7,864G (29.9%, x2.34); yellow - 20 bets for 18,440G (70.1%, x0.43)

green bets:
sinnyil2: 1,200G (15.3%, 85,985G)
z32o: 1,069G (13.6%, 1,069G)
JackOnFire1: 1,060G (13.5%, 10,602G)
Bryon_W: 1,000G (12.7%, 39,671G)
mivvim: 757G (9.6%, 757G)
Baron_von_Scrub: 565G (7.2%, 11,062G)
getthemoneyz: 478G (6.1%, 440,235G)
DrAntiSocial: 400G (5.1%, 1,706G)
Dothan89: 376G (4.8%, 376G)
gikokiko: 241G (3.1%, 241G)
ugoplatamia: 200G (2.5%, 17,942G)
mexskacin: 168G (2.1%, 168G)
SeedSC: 100G (1.3%, 141,219G)
datadrivenbot: 100G (1.3%, 21,992G)
rjA0zcOQ96: 100G (1.3%, 5,618G)
ungabunga_bot: 50G (0.6%, 48,591G)

yellow bets:
icy_blue20: 5,379G (29.2%, 5,379G)
leakimiko: 1,992G (10.8%, 24,907G)
BenYuPoker: 1,926G (10.4%, 3,852G)
waterwatereverywhere: 1,495G (8.1%, 2,932G)
bad1dea: 1,203G (6.5%, 39,789G)
BirbBrainsBot: 1,000G (5.4%, 247,015G)
Lord_Burrah: 1,000G (5.4%, 91,000G)
ForagerCats: 684G (3.7%, 684G)
hales_bopp_it: 608G (3.3%, 3,042G)
Lanshaft: 600G (3.3%, 4,676G)
jethrothrul: 580G (3.1%, 580G)
kingchadking: 516G (2.8%, 516G)
daveb_: 344G (1.9%, 344G)
ZephyrTempest: 338G (1.8%, 28,080G)
AllInBot: 250G (1.4%, 250G)
holyonline: 200G (1.1%, 5,773G)
Nickyfive: 200G (1.1%, 1,128G)
TinhShu: 100G (0.5%, 1,680G)
WinnerBit: 20G (0.1%, 1,362G)
ko2q: 5G (0.0%, 1,449G)
