Final Bets: yellow - 15 bets for 5,014G (21.1%, x3.75); black - 20 bets for 18,794G (78.9%, x0.27)

yellow bets:
BirbBrainsBot: 1,000G (19.9%, 141,765G)
toka222: 1,000G (19.9%, 132,424G)
flowinprose: 500G (10.0%, 133,864G)
volgrathemoose: 400G (8.0%, 2,362G)
Saldarin: 308G (6.1%, 308G)
SQUiDSQUARKLIN: 300G (6.0%, 3,415G)
Lythe_Caraker: 250G (5.0%, 124,262G)
Kyune: 250G (5.0%, 28,636G)
getthemoneyz: 206G (4.1%, 789,677G)
Flameatron: 200G (4.0%, 4,541G)
KasugaiRoastedPeas: 200G (4.0%, 3,110G)
CosmicTactician: 100G (2.0%, 1,973G)
the_leezy: 100G (2.0%, 100G)
Ring_Wyrm: 100G (2.0%, 1,191G)
d4rr1n: 100G (2.0%, 5,359G)

black bets:
twelfthrootoftwo: 8,887G (47.3%, 8,887G)
gorgewall: 1,938G (10.3%, 1,938G)
Qaz12301: 1,313G (7.0%, 5,252G)
HaychDub: 1,189G (6.3%, 2,379G)
CorpusCav: 1,020G (5.4%, 3,908G)
DeathTaxesAndAnime: 667G (3.5%, 1,309G)
outer_monologue: 554G (2.9%, 554G)
theshinyakuma: 500G (2.7%, 2,140G)
Cryptopsy70: 476G (2.5%, 1,339G)
CapnChaos12: 300G (1.6%, 16,744G)
joewcarson: 300G (1.6%, 4,377G)
NeoKevlar: 300G (1.6%, 5,189G)
HaateXIII: 250G (1.3%, 7,143G)
pplvee1: 207G (1.1%, 2,077G)
Nizaha: 201G (1.1%, 12,359G)
ar_tactic: 200G (1.1%, 55,118G)
HASTERIOUS: 192G (1.0%, 3,850G)
ApplesauceBoss: 100G (0.5%, 4,021G)
Tougou: 100G (0.5%, 2,558G)
datadrivenbot: 100G (0.5%, 29,810G)
