Final Bets: white - 16 bets for 7,479G (35.9%, x1.78); black - 20 bets for 13,335G (64.1%, x0.56)

white bets:
sinnyil2: 1,200G (16.0%, 28,320G)
reinoe: 1,000G (13.4%, 7,473G)
manc0_: 1,000G (13.4%, 15,477G)
Ross_from_Cali: 934G (12.5%, 934G)
Estan_AD: 820G (11.0%, 1,640G)
CorpusCav: 500G (6.7%, 17,126G)
theNGUYENNER: 500G (6.7%, 8,582G)
Rislyeu: 366G (4.9%, 366G)
sSwing: 298G (4.0%, 298G)
Ungaiii: 228G (3.0%, 228G)
BirbBrainsBot: 129G (1.7%, 234G)
MercurialForge: 104G (1.4%, 104G)
otakutaylor: 100G (1.3%, 100G)
Practice_Pad: 100G (1.3%, 703G)
ScootyPff: 100G (1.3%, 100G)
Communis: 100G (1.3%, 2,004G)

black bets:
Mesmaster: 3,000G (22.5%, 102,771G)
NicoSavoy: 3,000G (22.5%, 18,380G)
R_Raynos: 1,000G (7.5%, 49,873G)
getthemoneyz: 970G (7.3%, 672,856G)
Evewho: 941G (7.1%, 1,846G)
ungabunga_bot: 900G (6.7%, 480,954G)
stukerk: 800G (6.0%, 3,582G)
Dexsana: 574G (4.3%, 574G)
ApplesauceBoss: 360G (2.7%, 360G)
midori_ribbon: 333G (2.5%, 333G)
Malicious52: 300G (2.2%, 894G)
Aestheta: 234G (1.8%, 234G)
Powermhero: 210G (1.6%, 4,610G)
pstud: 200G (1.5%, 6,591G)
Heroebal: 100G (0.7%, 4,786G)
victoriolue: 100G (0.7%, 2,055G)
ko2q: 100G (0.7%, 1,566G)
datadrivenbot: 100G (0.7%, 13,723G)
red_celt: 100G (0.7%, 10,939G)
daveb_: 13G (0.1%, 801G)
