Final Bets: purple - 44 bets for 43,920G (76.7%, x0.30); champion - 35 bets for 13,372G (23.3%, x3.28)

purple bets:
KasugaiRoastedPeas: 5,812G (13.2%, 5,812G)
leakimiko: 4,424G (10.1%, 4,424G)
superdevon1: 4,160G (9.5%, 4,160G)
volgrathemoose: 3,001G (6.8%, 11,005G)
fenaen: 2,320G (5.3%, 2,320G)
TheChainNerd: 2,000G (4.6%, 14,985G)
OmnibotGamma: 2,000G (4.6%, 12,195G)
Ranmilia: 1,686G (3.8%, 1,686G)
Lord_Burrah: 1,288G (2.9%, 95,288G)
MagicBottle: 1,179G (2.7%, 1,179G)
Aldrammech: 1,000G (2.3%, 9,350G)
IndecisiveNinja: 1,000G (2.3%, 11,484G)
BirbBrainsBot: 1,000G (2.3%, 224,956G)
WireLord: 1,000G (2.3%, 12,192G)
Anomandaris__: 1,000G (2.3%, 11,101G)
gooseyourself: 1,000G (2.3%, 6,385G)
Jeeboheebo: 888G (2.0%, 888G)
ungabunga_bot: 858G (2.0%, 170,302G)
elkydeluxe: 600G (1.4%, 6,614G)
Scotobot: 600G (1.4%, 3,637G)
Wonser: 500G (1.1%, 1,334G)
AlenaZarek: 500G (1.1%, 3,574G)
Vampire_Killer: 500G (1.1%, 2,812G)
Zetchryn: 500G (1.1%, 28,111G)
LAGBOT30000: 460G (1.0%, 9,218G)
luminarii: 456G (1.0%, 19,944G)
Sairentozon7: 451G (1.0%, 3,715G)
jhazor: 441G (1.0%, 4,413G)
TinhShu: 400G (0.9%, 5,449G)
nifboy: 398G (0.9%, 9,961G)
MirtaiAtana: 353G (0.8%, 353G)
Tugboat1: 337G (0.8%, 337G)
SacrificialToast: 300G (0.7%, 9,418G)
roqqqpsi: 246G (0.6%, 1,120G)
SaintOmerville: 200G (0.5%, 4,037G)
TheMM42: 200G (0.5%, 2,964G)
ericzubat: 130G (0.3%, 138G)
datadrivenbot: 129G (0.3%, 175G)
Carledo: 103G (0.2%, 3,168G)
lastly: 100G (0.2%, 5,963G)
LordMaxoss: 100G (0.2%, 1,814G)
Lanshaft: 100G (0.2%, 1,946G)
Lordminsc: 100G (0.2%, 4,028G)
exaltedhamster: 100G (0.2%, 6,160G)

champion bets:
Zeroroute: 2,446G (18.3%, 2,446G)
DeathTaxesAndAnime: 2,226G (16.6%, 2,226G)
edgehead62888: 1,000G (7.5%, 5,171G)
ll_aja_ll: 716G (5.4%, 716G)
joewcarson: 501G (3.7%, 5,314G)
MrDiggs49: 500G (3.7%, 5,714G)
SkylerBunny: 500G (3.7%, 2,290G)
YaBoy125: 401G (3.0%, 401G)
DustBirdEX: 350G (2.6%, 12,395G)
TheGuesty: 338G (2.5%, 5,638G)
Aka_Gilly: 300G (2.2%, 15,620G)
Shalloween: 300G (2.2%, 22,788G)
alrightbye: 300G (2.2%, 12,877G)
Adam1949: 300G (2.2%, 2,012G)
HaychDub: 300G (2.2%, 6,094G)
onetrickwolf: 268G (2.0%, 268G)
Chuckolator: 264G (2.0%, 6,356G)
flowinprose: 250G (1.9%, 13,977G)
ExecutedGiraffe: 204G (1.5%, 204G)
itsonlyspencer: 204G (1.5%, 204G)
SomeCallMeGON: 200G (1.5%, 2,271G)
Lavatis: 200G (1.5%, 1,911G)
roofiepops: 200G (1.5%, 4,116G)
RunicMagus: 150G (1.1%, 722G)
ThePuss: 144G (1.1%, 244G)
Lodrak: 100G (0.7%, 4,952G)
Bryon_W: 100G (0.7%, 3,291G)
ThePanda1016: 100G (0.7%, 4,869G)
ko2q: 100G (0.7%, 19,956G)
DejaPoo21: 100G (0.7%, 13,110G)
Aremath: 100G (0.7%, 6,580G)
CapnChaos12: 100G (0.7%, 3,144G)
SpookyCookieMonster: 50G (0.4%, 1,777G)
DrAntiSocial: 50G (0.4%, 3,857G)
HoopyFreud: 10G (0.1%, 3,197G)
