Final Bets: red - 18 bets for 6,667G (59.4%, x0.68); green - 10 bets for 4,557G (40.6%, x1.46)

red bets:
BirbBrainsBot: 1,000G (15.0%, 83,891G)
DavenIII: 1,000G (15.0%, 7,496G)
ungabunga_bot: 823G (12.3%, 407,754G)
DustBirdEX: 634G (9.5%, 5,465G)
TheChainNerd: 436G (6.5%, 436G)
ShintaroNayaka: 400G (6.0%, 12,391G)
YaBoy125: 360G (5.4%, 360G)
Eyepoor_: 300G (4.5%, 4,268G)
Estan_AD: 250G (3.7%, 3,135G)
mannequ1n: 208G (3.1%, 208G)
Miyokari: 208G (3.1%, 208G)
bahamutlagooon: 200G (3.0%, 5,438G)
Practice_Pad: 200G (3.0%, 1,635G)
AeglosCrescens: 200G (3.0%, 1,744G)
getthemoneyz: 148G (2.2%, 642,332G)
GrayGhostGaming: 100G (1.5%, 3,024G)
datadrivenbot: 100G (1.5%, 12,582G)
Realitydown: 100G (1.5%, 4,607G)

green bets:
PatSouI: 2,000G (43.9%, 41,442G)
sukotsuto: 604G (13.3%, 604G)
ZephyrTempest: 456G (10.0%, 1,067G)
sinnyil2: 400G (8.8%, 1,802G)
FoeSquirrel: 352G (7.7%, 352G)
benticore: 224G (4.9%, 224G)
josephiroth_143: 221G (4.8%, 221G)
FriendSquirrel: 100G (2.2%, 27,080G)
maakur_: 100G (2.2%, 122,077G)
rjA0zcOQ96: 100G (2.2%, 28,298G)
