Final Bets: red - 15 bets for 8,223G (58.0%, x0.72); blue - 12 bets for 5,960G (42.0%, x1.38)

red bets:
nifboy: 1,920G (23.3%, 1,920G)
DarrenDinosaurs: 996G (12.1%, 996G)
VolgraTheMoose: 994G (12.1%, 994G)
prince_rogers_nelson_: 592G (7.2%, 592G)
Thyrandaal: 555G (6.7%, 14,931G)
killth3kid: 528G (6.4%, 4,593G)
randgridr: 496G (6.0%, 3,989G)
AllInBot: 482G (5.9%, 482G)
douchetron: 328G (4.0%, 328G)
BirbBrainsBot: 319G (3.9%, 125,081G)
RageImmortaI: 312G (3.8%, 2,644G)
gorgewall: 201G (2.4%, 4,693G)
DAC169: 200G (2.4%, 1,193G)
datadrivenbot: 200G (2.4%, 42,480G)
Hirameki85: 100G (1.2%, 4,600G)

blue bets:
E_Ballard: 1,666G (28.0%, 1,666G)
sinnyil2: 1,039G (17.4%, 1,039G)
upvla: 600G (10.1%, 600G)
Lanshaft: 516G (8.7%, 17,334G)
Seaweed_B: 500G (8.4%, 9,960G)
reinoe: 500G (8.4%, 124,901G)
coralreeferz: 250G (4.2%, 4,315G)
scottydeluxe: 240G (4.0%, 240G)
getthemoneyz: 194G (3.3%, 1,405,855G)
ArlanKels: 182G (3.1%, 1,217G)
PrancesWithWolves: 150G (2.5%, 1,521G)
Lydian_C: 123G (2.1%, 11,889G)
