Final Bets: brown - 10 bets for 8,433G (59.3%, x0.69); champion - 10 bets for 5,780G (40.7%, x1.46)

brown bets:
ArrenJevleth: 3,176G (37.7%, 10,589G)
Firesheath: 1,988G (23.6%, 1,988G)
TheMurkGnome: 1,689G (20.0%, 15,153G)
LAGBOT30000: 500G (5.9%, 8,979G)
Krinku: 380G (4.5%, 380G)
datadrivenbot: 200G (2.4%, 64,318G)
CT_5_Holy: 200G (2.4%, 3,635G)
MinBetBot: 100G (1.2%, 9,048G)
AllInBot: 100G (1.2%, 100G)
ko2q: 100G (1.2%, 1,486G)

champion bets:
Drusiform: 1,000G (17.3%, 16,082G)
BirbBrainsBot: 1,000G (17.3%, 139,943G)
BaronHaynes: 1,000G (17.3%, 22,810G)
Willjin: 1,000G (17.3%, 17,018G)
superdevon1: 745G (12.9%, 74,522G)
getthemoneyz: 324G (5.6%, 1,635,033G)
Aestheta: 260G (4.5%, 260G)
WhiteTigress: 200G (3.5%, 885G)
koeeh: 150G (2.6%, 423G)
gorgewall: 101G (1.7%, 9,192G)
