Final Bets: red - 20 bets for 9,653G (47.5%, x1.11); blue - 18 bets for 10,686G (52.5%, x0.90)

red bets:
nifboy: 1,004G (10.4%, 1,004G)
BirbBrainsBot: 1,000G (10.4%, 174,330G)
Lord_Gwarth: 985G (10.2%, 985G)
E_Ballard: 936G (9.7%, 936G)
DouglasDragonThePoet: 846G (8.8%, 846G)
fenaen: 688G (7.1%, 40,397G)
Shalloween: 600G (6.2%, 58,301G)
holdenmagronik: 500G (5.2%, 3,404G)
2b_yorha_b: 500G (5.2%, 32,222G)
khelor_: 500G (5.2%, 2,423G)
tinytittyfiend: 500G (5.2%, 22,163G)
DarrenDinosaurs: 308G (3.2%, 308G)
almost__sane: 300G (3.1%, 1,092G)
getthemoneyz: 276G (2.9%, 2,205,802G)
Evewho: 200G (2.1%, 20,469G)
CosmicTactician: 200G (2.1%, 1,241G)
Firesheath: 100G (1.0%, 2,017G)
FuzzyTigers: 100G (1.0%, 418G)
heropong: 100G (1.0%, 1,039G)
smallboops: 10G (0.1%, 749G)

blue bets:
Leonidusx: 2,000G (18.7%, 507,685G)
Mushufasa_: 1,234G (11.5%, 17,006G)
CorpusCav: 1,200G (11.2%, 44,574G)
roofiepops: 1,199G (11.2%, 1,199G)
killth3kid: 844G (7.9%, 39,276G)
DrAntiSocial: 567G (5.3%, 567G)
dogsandcatsand: 564G (5.3%, 3,829G)
DavenIII: 500G (4.7%, 22,292G)
old_overholt_: 500G (4.7%, 46,854G)
FriendSquirrel: 412G (3.9%, 412G)
Sharosa: 300G (2.8%, 300G)
AllInBot: 266G (2.5%, 266G)
resjudicata3: 200G (1.9%, 10,201G)
mizzmoonshine: 200G (1.9%, 525G)
ValensEXP_: 200G (1.9%, 2,270G)
datadrivenbot: 200G (1.9%, 82,369G)
HorusTaurus: 200G (1.9%, 9,444G)
readdesert: 100G (0.9%, 1,114G)
