Final Bets: green - 14 bets for 7,347G (31.4%, x2.18); yellow - 14 bets for 16,025G (68.6%, x0.46)

green bets:
UmaiJam: 1,500G (20.4%, 52,988G)
DeathTaxesAndAnime: 1,353G (18.4%, 1,353G)
SkylerBunny: 1,000G (13.6%, 495,850G)
BirbBrainsBot: 867G (11.8%, 164,600G)
safira125: 500G (6.8%, 2,973G)
getthemoneyz: 410G (5.6%, 1,112,590G)
Chronolynx42: 323G (4.4%, 32,365G)
JLinkletter: 288G (3.9%, 288G)
benticore: 250G (3.4%, 3,643G)
ArashiKurobara: 232G (3.2%, 232G)
jojo2k: 212G (2.9%, 212G)
gorgewall: 201G (2.7%, 27,340G)
DaKoopa49: 111G (1.5%, 1,323G)
ar_tactic: 100G (1.4%, 61,979G)

yellow bets:
run_with_stone_GUNs: 5,000G (31.2%, 29,695G)
prince_rogers_nelson_: 4,151G (25.9%, 4,151G)
CosmicTactician: 2,000G (12.5%, 22,464G)
ShintaroNayaka: 1,440G (9.0%, 1,440G)
AniZero: 1,000G (6.2%, 7,218G)
FriendSquirrel: 964G (6.0%, 1,892G)
E_Ballard: 420G (2.6%, 420G)
NIghtdew14: 384G (2.4%, 384G)
Finewax: 166G (1.0%, 166G)
nifboy: 100G (0.6%, 1,883G)
Sans_from_Snowdin: 100G (0.6%, 30,297G)
nhammen: 100G (0.6%, 5,670G)
datadrivenbot: 100G (0.6%, 47,101G)
serperemagus: 100G (0.6%, 20,289G)
