Final Bets: red - 14 bets for 8,708G (61.9%, x0.62); white - 16 bets for 5,357G (38.1%, x1.63)

red bets:
FriendSquirrel: 1,652G (19.0%, 3,240G)
fenaen: 1,200G (13.8%, 26,593G)
mpghappiness: 1,032G (11.9%, 1,032G)
JumbocactuarX27: 1,000G (11.5%, 12,317G)
AniZero: 1,000G (11.5%, 8,589G)
prince_rogers_nelson_: 889G (10.2%, 889G)
killth3kid: 444G (5.1%, 7,547G)
getthemoneyz: 420G (4.8%, 1,111,950G)
DaKoopa49: 320G (3.7%, 320G)
gorgewall: 201G (2.3%, 28,386G)
joewcarson: 200G (2.3%, 3,810G)
ar_tactic: 150G (1.7%, 61,879G)
jojo2k: 100G (1.1%, 1,049G)
IphoneDarkness: 100G (1.1%, 4,404G)

white bets:
BirbBrainsBot: 1,000G (18.7%, 165,014G)
TheChainNerd: 918G (17.1%, 9,189G)
BoneMiser: 500G (9.3%, 500G)
brokenknight201: 500G (9.3%, 1,077G)
JLinkletter: 427G (8.0%, 427G)
roofiepops: 408G (7.6%, 408G)
sparker9: 400G (7.5%, 7,666G)
GladiatorLupe: 304G (5.7%, 304G)
safira125: 200G (3.7%, 5,576G)
nhammen: 100G (1.9%, 5,464G)
Rytor: 100G (1.9%, 2,733G)
CosmicTactician: 100G (1.9%, 22,729G)
Quadh0nk: 100G (1.9%, 5,570G)
datadrivenbot: 100G (1.9%, 47,281G)
Sans_from_Snowdin: 100G (1.9%, 30,677G)
DuneMeta: 100G (1.9%, 1,644G)
