High Risers:
1. Mesmaster: +31,656G
2. Reinoe: +13,927G
3. Shalloween: +7,660G
4. Nhammen: +7,320G
5. Resjudicata3: +6,552G
6. Phi_sig: +3,820G
7. Tarheels218: +3,435G
8. Baconbacon1207: +3,271G
9. Volgrathemoose: +2,958G
10. Robotocelot: +2,443G
11. Zeroroute: +2,340G
12. Zagorsek: +2,327G
13. Nizaha: +1,965G
14. Thunderducker: +1,320G
15. Runicmagus: +1,283G
16. Aneruen: +1,253G
17. Sephdarkheart: +1,193G
18. Error72: +1,147G
19. Acid_flashback: +902G
20. Lemonjohns: +687G
21. Kellios11: +554G
22. Timthehoodie: +485G
23. Laserman1000: +395G
24. Technominari: +318G
25. Nekojin: +312G
26. Krombobreaker: +245G
27. Rottings0ul: +146G
28. Lydian_c: +141G
29. Yangusburger: +90G
30. Pantheriscariot: +59G
31. Chuckolator: +49G
32. Cosmictactician: +37G
33. Just_here2: +4G
34. Thyrandaal: +4G
35. Anfz: -29G
36. Dogsandcatsand: -44G
37. Victoriolue: -200G
38. Reddwind_: -200G
39. E_ballard: -215G
40. Scurg: -300G
41. Cryptopsy70: -348G
42. Deathtaxesandanime: -387G
43. Maakur_: -400G
44. Fattunaking: -400G
45. Mirapoix: -400G
46. Killth3kid: -500G
47. Moshyhero: -500G
48. Memoriesoffinal: -500G
49. Altimamantoid: -728G
50. Lord_gwarth: -756G
51. Foragercats: -775G
52. Arcblazer23: -786G
53. Kronikle: -900G
54. Corpuscav: -909G
55. Baronhaynes: -1,000G
56. Ruleof5: -1,000G
57. Minorfffanatic1: -1,002G
58. Zerguzen: -1,135G
59. Firesheath: -1,255G
60. Greggernaut: -1,265G
61. Virilikus: -3,000G
62. Lansedm: -4,000G
63. Lijarkh: -82,804G
