Final Bets: black - 21 bets for 26,425G (62.1%, x0.61); champion - 16 bets for 16,159G (37.9%, x1.64)

black bets:
nhammen: 10,000G (37.8%, 437,879G)
Virilikus: 3,000G (11.4%, 214,191G)
AltimaMantoid: 1,138G (4.3%, 1,138G)
DeathTaxesAndAnime: 1,001G (3.8%, 11,526G)
CorpusCav: 1,001G (3.8%, 5,792G)
ForagerCats: 1,000G (3.8%, 15,273G)
resjudicata3: 1,000G (3.8%, 11,791G)
Zeroroute: 936G (3.5%, 3,600G)
E_Ballard: 868G (3.3%, 131,356G)
minorfffanatic1: 864G (3.3%, 864G)
Arcblazer23: 849G (3.2%, 849G)
Nizaha: 816G (3.1%, 83,598G)
thunderducker: 777G (2.9%, 2,852G)
Thyrandaal: 612G (2.3%, 612G)
Lord_Gwarth: 555G (2.1%, 6,939G)
MemoriesofFinal: 500G (1.9%, 1,824G)
ColetteMSLP: 428G (1.6%, 428G)
Dasutin23: 428G (1.6%, 428G)
killth3kid: 250G (0.9%, 16,339G)
getthemoneyz: 202G (0.8%, 1,818,407G)
datadrivenbot: 200G (0.8%, 65,201G)

champion bets:
Mesmaster: 5,000G (30.9%, 167,602G)
VolgraTheMoose: 2,001G (12.4%, 122,096G)
baconbacon1207: 2,000G (12.4%, 101,038G)
Zagorsek: 1,126G (7.0%, 1,126G)
BirbBrainsBot: 1,000G (6.2%, 80,766G)
RobotOcelot: 1,000G (6.2%, 11,557G)
Greggernaut: 1,000G (6.2%, 14,104G)
Aneruen: 766G (4.7%, 766G)
technominari: 500G (3.1%, 85,050G)
Lemonjohns: 420G (2.6%, 4,069G)
Kellios11: 400G (2.5%, 2,908G)
krombobreaker: 280G (1.7%, 7,645G)
timthehoodie: 250G (1.5%, 942G)
rottings0ul: 200G (1.2%, 1,424G)
Zerguzen: 116G (0.7%, 116G)
RunicMagus: 100G (0.6%, 9,842G)
