Player: !Red
Team: Red Team
Palettes: Red/Brown



Trainer Athropos1
Male
Libra
78
77
Chemist
Basic Skill
Earplug
Beastmaster
Move+1

Cute Bag

Holy Miter
Judo Outfit
Germinas Boots

Potion, Hi-Potion, X-Potion, Hi-Ether, Antidote, Phoenix Down
Heal, Tickle, Yell, Wish, Scream



Rurk
Monster
Aries
70
60
Red Dragon










Kapu
Monster
Pisces
41
63
Juravis










Clippopo
Monster
Libra
71
66
Swine







