Final Bets: green - 17 bets for 8,999G (47.7%, x1.10); yellow - 19 bets for 9,876G (52.3%, x0.91)

green bets:
Slowbrofist: 3,598G (40.0%, 3,598G)
LanseDM: 1,157G (12.9%, 1,157G)
fenaen: 1,067G (11.9%, 1,067G)
reinoe: 500G (5.6%, 9,185G)
RunicMagus: 424G (4.7%, 424G)
nifboy: 388G (4.3%, 9,704G)
HaateXIII: 275G (3.1%, 1,579G)
Cataphract116: 270G (3.0%, 8,903G)
Kurtis_E_Flush_: 212G (2.4%, 212G)
Anox_Skell: 200G (2.2%, 604G)
Slider1012: 200G (2.2%, 565G)
elkydeluxe: 200G (2.2%, 1,122G)
OverlordSS4: 108G (1.2%, 108G)
GingerDynomite: 100G (1.1%, 729G)
gorgewall: 100G (1.1%, 1,153G)
ericzubat: 100G (1.1%, 100G)
SquidgyXom: 100G (1.1%, 2,706G)

yellow bets:
HaplessOne: 1,500G (15.2%, 77,676G)
MantisFinch: 1,000G (10.1%, 27,235G)
ungabunga_bot: 1,000G (10.1%, 172,555G)
BirbBrainsBot: 1,000G (10.1%, 207,860G)
HASTERIOUS: 934G (9.5%, 2,832G)
mirapoix: 652G (6.6%, 652G)
Zeroroute: 600G (6.1%, 600G)
Nizaha: 588G (6.0%, 588G)
JackOnFire1: 350G (3.5%, 7,014G)
ZephyrTempest: 328G (3.3%, 85,802G)
CapnChaos12: 300G (3.0%, 2,207G)
getthemoneyz: 300G (3.0%, 505,571G)
rico_flex: 250G (2.5%, 3,436G)
itzover9001: 242G (2.5%, 242G)
mastershango: 205G (2.1%, 205G)
nedryerson01: 200G (2.0%, 2,342G)
Lavatis: 200G (2.0%, 3,309G)
braumbles: 133G (1.3%, 887G)
datadrivenbot: 94G (1.0%, 100G)
