Final Bets: yellow - 16 bets for 101,011G (85.8%, x0.17); black - 27 bets for 16,763G (14.2%, x6.03)

yellow bets:
flowinprose: 93,686G (92.7%, 93,686G)
Aldrammech: 1,081G (1.1%, 1,081G)
Scornhub: 1,000G (1.0%, 1,000G)
nifboy: 1,000G (1.0%, 45,226G)
BirbBrainsBot: 1,000G (1.0%, 125,874G)
getthemoneyz: 614G (0.6%, 834,959G)
roofiepops: 541G (0.5%, 6,285G)
evdoggity: 500G (0.5%, 12,026G)
killth3kid: 500G (0.5%, 15,812G)
TinchoT: 364G (0.4%, 364G)
gogofromtogo: 200G (0.2%, 1,860G)
Kalabain: 116G (0.1%, 116G)
Spuzzmocker: 108G (0.1%, 108G)
gorgewall: 101G (0.1%, 4,227G)
Celdia: 100G (0.1%, 786G)
ANFz: 100G (0.1%, 3,513G)

black bets:
Rislyeu: 3,052G (18.2%, 3,052G)
ivellioz: 3,004G (17.9%, 3,004G)
DeathTaxesAndAnime: 1,549G (9.2%, 3,039G)
Riot_Jayway: 1,111G (6.6%, 214,153G)
Digitalsocrates: 1,000G (6.0%, 19,397G)
Theseawolf1: 1,000G (6.0%, 42,446G)
HaychDub: 992G (5.9%, 992G)
ZZ_Yoshi: 632G (3.8%, 632G)
foofermoofer: 524G (3.1%, 524G)
mpghappiness: 460G (2.7%, 460G)
s_o_b_e_q: 443G (2.6%, 443G)
skillomono: 400G (2.4%, 3,892G)
OneHundredFists: 364G (2.2%, 364G)
Ring_Wyrm: 336G (2.0%, 336G)
HASTERIOUS: 214G (1.3%, 4,299G)
ar_tactic: 200G (1.2%, 60,934G)
MrJamDango: 200G (1.2%, 3,324G)
DAC169: 176G (1.0%, 176G)
benticore: 176G (1.0%, 3,534G)
Coolguye: 150G (0.9%, 2,751G)
Thyrandaal: 148G (0.9%, 148G)
Lydian_C: 120G (0.7%, 7,914G)
mrfripps: 112G (0.7%, 112G)
CosmicTactician: 100G (0.6%, 15,336G)
Miku_Shikhu: 100G (0.6%, 2,472G)
Grandlanzer: 100G (0.6%, 2,819G)
datadrivenbot: 100G (0.6%, 34,055G)
