Final Bets: yellow - 16 bets for 14,984G (70.3%, x0.42); white - 12 bets for 6,318G (29.7%, x2.37)

yellow bets:
Shalloween: 4,000G (26.7%, 106,155G)
mpghappiness: 2,200G (14.7%, 4,315G)
sinnyil2: 2,014G (13.4%, 4,029G)
SkylerBunny: 2,000G (13.3%, 44,576G)
fenaen: 899G (6.0%, 2,412G)
RaIshtar: 600G (4.0%, 3,940G)
Nizaha: 588G (3.9%, 21,192G)
killth3kid: 508G (3.4%, 1,711G)
RedRiderAyame: 500G (3.3%, 13,514G)
Cyril_Jay: 367G (2.4%, 367G)
MMagnetMan: 365G (2.4%, 365G)
Webb_MD: 324G (2.2%, 324G)
Treafa: 308G (2.1%, 693G)
datadrivenbot: 200G (1.3%, 40,427G)
nhammen: 81G (0.5%, 16,913G)
DouglasDragonThePoet: 30G (0.2%, 1,788G)

white bets:
InOzWeTrust: 2,153G (34.1%, 2,153G)
rockmem21: 1,000G (15.8%, 8,026G)
DustBirdEX: 516G (8.2%, 516G)
Lanshaft: 512G (8.1%, 21,146G)
ArlanKels: 500G (7.9%, 4,548G)
ohhinm: 447G (7.1%, 447G)
SephDarkheart: 376G (6.0%, 376G)
mrpickins: 250G (4.0%, 5,112G)
AllInBot: 200G (3.2%, 200G)
TasisSai: 200G (3.2%, 1,469G)
douchetron: 101G (1.6%, 4,587G)
BirbBrainsBot: 63G (1.0%, 91,830G)
