Final Bets: white - 25 bets for 94,983G (78.5%, x0.27); black - 24 bets for 25,959G (21.5%, x3.66)

white bets:
LivingHitokiri: 66,383G (69.9%, 132,766G)
CorpusCav: 5,000G (5.3%, 13,404G)
Forkmore: 4,875G (5.1%, 9,751G)
MemoriesofFinal: 3,000G (3.2%, 45,517G)
RunicMagus: 2,612G (2.7%, 2,612G)
Willjin: 2,000G (2.1%, 5,451G)
Lord_Gwarth: 1,057G (1.1%, 1,057G)
ribbiks: 1,024G (1.1%, 1,024G)
VolgraTheMoose: 1,001G (1.1%, 17,314G)
Mushufasa_: 1,000G (1.1%, 95,239G)
CosmicTactician: 1,000G (1.1%, 21,614G)
Smashy: 1,000G (1.1%, 9,598G)
Spartan_Paladin: 935G (1.0%, 935G)
beowulfrulez: 756G (0.8%, 756G)
killth3kid: 644G (0.7%, 23,001G)
lowlf: 592G (0.6%, 15,687G)
lijarkh: 384G (0.4%, 384G)
ColetteMSLP: 300G (0.3%, 6,347G)
Musashi45: 256G (0.3%, 256G)
escobro: 244G (0.3%, 244G)
regios91: 220G (0.2%, 220G)
AllInBot: 200G (0.2%, 200G)
ShadowNinja25: 200G (0.2%, 808G)
HorusTaurus: 200G (0.2%, 3,838G)
XerxesMindbreaker: 100G (0.1%, 104G)

black bets:
JonnyCue: 7,342G (28.3%, 7,342G)
Nizaha: 5,896G (22.7%, 11,792G)
Leonidusx: 2,000G (7.7%, 211,572G)
Lyner87: 1,301G (5.0%, 99,611G)
BirbBrainsBot: 1,000G (3.9%, 135,504G)
Virilikus: 1,000G (3.9%, 186,964G)
OneHundredFists: 1,000G (3.9%, 10,009G)
dogsandcatsand: 724G (2.8%, 724G)
fenaen: 620G (2.4%, 9,676G)
krombobreaker: 560G (2.2%, 560G)
Dasutin23: 548G (2.1%, 10,328G)
getthemoneyz: 538G (2.1%, 2,065,733G)
technominari: 500G (1.9%, 89,014G)
resjudicata3: 500G (1.9%, 6,153G)
mirapoix: 500G (1.9%, 3,958G)
Twisted_Nutsatchel: 500G (1.9%, 5,147G)
ValensEXP_: 384G (1.5%, 4,914G)
killabandaid: 220G (0.8%, 220G)
Shalloween: 200G (0.8%, 3,112G)
Evewho: 200G (0.8%, 6,660G)
chrisk103: 200G (0.8%, 7,907G)
gorgewall: 101G (0.4%, 3,255G)
Mhorzak: 100G (0.4%, 3,566G)
Smugzug: 25G (0.1%, 2,611G)
