Final Bets: blue - 18 bets for 19,122G (41.9%, x1.39); yellow - 22 bets for 26,500G (58.1%, x0.72)

blue bets:
LivingHitokiri: 5,000G (26.1%, 147,413G)
Leonidusx: 3,000G (15.7%, 208,572G)
MemoriesofFinal: 2,000G (10.5%, 47,589G)
Mushufasa_: 2,000G (10.5%, 94,512G)
Strifu: 1,365G (7.1%, 2,677G)
ribbiks: 639G (3.3%, 639G)
lowlf: 592G (3.1%, 16,590G)
krombobreaker: 560G (2.9%, 560G)
Dasutin23: 548G (2.9%, 9,232G)
DustBirdEX: 500G (2.6%, 1,924G)
Smashy: 500G (2.6%, 8,871G)
CorpusCav: 500G (2.6%, 15,397G)
killabandaid: 495G (2.6%, 495G)
ValensEXP_: 384G (2.0%, 5,011G)
ColetteMSLP: 300G (1.6%, 6,805G)
XerxesMindbreaker: 295G (1.5%, 295G)
escobro: 244G (1.3%, 244G)
ShadowNinja25: 200G (1.0%, 988G)

yellow bets:
Virilikus: 10,000G (37.7%, 175,964G)
Nizaha: 4,793G (18.1%, 9,586G)
Willjin: 1,500G (5.7%, 4,998G)
Lord_Gwarth: 1,346G (5.1%, 1,346G)
RunicMagus: 1,050G (4.0%, 2,276G)
CosmicTactician: 1,000G (3.8%, 20,887G)
BirbBrainsBot: 1,000G (3.8%, 135,756G)
JonnyCue: 955G (3.6%, 955G)
Evewho: 500G (1.9%, 6,710G)
HaateXIII: 500G (1.9%, 4,237G)
Twisted_Nutsatchel: 500G (1.9%, 4,647G)
old_overholt_: 500G (1.9%, 26,578G)
technominari: 500G (1.9%, 88,014G)
Spartan_Paladin: 484G (1.8%, 484G)
dolzytwitch: 400G (1.5%, 2,533G)
getthemoneyz: 284G (1.1%, 2,065,813G)
Musashi45: 260G (1.0%, 260G)
AllInBot: 200G (0.8%, 200G)
resjudicata3: 200G (0.8%, 5,353G)
Smugzug: 200G (0.8%, 2,486G)
silentkaster: 200G (0.8%, 3,321G)
SnarkMage: 128G (0.5%, 330G)
