Final Bets: red - 8 bets for 3,940G (35.2%, x1.84); brown - 9 bets for 7,264G (64.8%, x0.54)

red bets:
AllInBot: 1,471G (37.3%, 1,471G)
BirbBrainsBot: 1,000G (25.4%, 47,656G)
Chihuahua_Charity: 500G (12.7%, 12,493G)
hotpocketsofficial: 336G (8.5%, 336G)
ko2q: 309G (7.8%, 618G)
JeffGoldblum_: 214G (5.4%, 214G)
MemoriesofFinal: 100G (2.5%, 37,047G)
getthemoneyz: 10G (0.3%, 2,042,262G)

brown bets:
otakutaylor: 1,851G (25.5%, 1,851G)
DHaveWord: 1,847G (25.4%, 3,622G)
Setsaku: 1,066G (14.7%, 1,066G)
Mushufasa_: 1,000G (13.8%, 93,801G)
shinji202: 700G (9.6%, 117,739G)
ColetteMSLP: 300G (4.1%, 1,150G)
chrisk103: 200G (2.8%, 4,522G)
datadrivenbot: 200G (2.8%, 74,262G)
hecsec: 100G (1.4%, 308G)
