Final Bets: purple - 16 bets for 8,155G (48.8%, x1.05); brown - 16 bets for 8,572G (51.2%, x0.95)

purple bets:
SkylerBunny: 2,000G (24.5%, 37,955G)
fluffskull: 992G (12.2%, 992G)
Xoomwaffle: 881G (10.8%, 881G)
killth3kid: 500G (6.1%, 500G)
Error72: 500G (6.1%, 2,737G)
resjudicata3: 500G (6.1%, 4,455G)
superdevon1: 494G (6.1%, 16,477G)
poGpopE: 476G (5.8%, 476G)
DLJuggernaut: 384G (4.7%, 384G)
SQUiDSQUARKLIN: 300G (3.7%, 10,536G)
Treafa: 250G (3.1%, 1,022G)
Miku_Shikhu: 200G (2.5%, 1,122G)
datadrivenbot: 200G (2.5%, 40,207G)
mrpickins: 200G (2.5%, 464G)
DeathTaxesAndAnime: 200G (2.5%, 2,205G)
roqqqpsi: 78G (1.0%, 1,576G)

brown bets:
E_Ballard: 1,306G (15.2%, 1,306G)
BirbBrainsBot: 1,000G (11.7%, 46,089G)
Thyrandaal: 1,000G (11.7%, 73,104G)
benticore: 1,000G (11.7%, 35,375G)
SephDarkheart: 780G (9.1%, 780G)
Zagorsek: 722G (8.4%, 1,444G)
ohhinm: 600G (7.0%, 7,308G)
DarrenDinosaurs: 500G (5.8%, 8,340G)
Lord_Gwarth: 500G (5.8%, 2,175G)
ArlanKels: 212G (2.5%, 212G)
getthemoneyz: 202G (2.4%, 1,372,967G)
AllInBot: 200G (2.3%, 200G)
ribbiks: 200G (2.3%, 3,524G)
douchetron: 176G (2.1%, 176G)
RaIshtar: 100G (1.2%, 6,411G)
nhammen: 74G (0.9%, 7,458G)
