Final Bets: red - 13 bets for 6,870G (34.6%, x1.89); blue - 16 bets for 12,991G (65.4%, x0.53)

red bets:
twelfthrootoftwo: 1,766G (25.7%, 3,463G)
waterwatereverywhere: 1,000G (14.6%, 6,841G)
Yarby: 1,000G (14.6%, 1,000G)
fluffskull: 600G (8.7%, 3,108G)
Aldrammech: 484G (7.0%, 484G)
killth3kid: 448G (6.5%, 448G)
DamnThatShark: 432G (6.3%, 432G)
josephiroth_143: 274G (4.0%, 274G)
ZicaX: 232G (3.4%, 1,163G)
gorgewall: 201G (2.9%, 8,201G)
datadrivenbot: 200G (2.9%, 35,463G)
Lydian_C: 121G (1.8%, 46,736G)
SUGRboi: 112G (1.6%, 112G)

blue bets:
roqqqpsi: 2,078G (16.0%, 2,078G)
Mesmaster: 2,000G (15.4%, 22,682G)
HaateXIII: 1,296G (10.0%, 1,296G)
getthemoneyz: 1,000G (7.7%, 1,325,120G)
dtrain332: 975G (7.5%, 975G)
thaetreis: 950G (7.3%, 25,611G)
Laserman1000: 873G (6.7%, 33,273G)
BirbBrainsBot: 863G (6.6%, 90,302G)
TasisSai: 677G (5.2%, 1,328G)
LAGBOT30000: 586G (4.5%, 11,720G)
randgridr: 412G (3.2%, 3,266G)
Thyrandaal: 393G (3.0%, 393G)
nifboy: 356G (2.7%, 712G)
BlueAbs: 232G (1.8%, 232G)
AllInBot: 200G (1.5%, 200G)
Cypruss904: 100G (0.8%, 2,526G)
