Final Bets: purple - 16 bets for 9,495G (52.1%, x0.92); brown - 15 bets for 8,728G (47.9%, x1.09)

purple bets:
Lydian_C: 2,400G (25.3%, 69,655G)
Jahshine: 1,000G (10.5%, 3,436G)
EnemyController: 1,000G (10.5%, 127,142G)
Laserman1000: 759G (8.0%, 52,559G)
reinoe: 600G (6.3%, 600G)
pandasforsale: 555G (5.8%, 17,914G)
TheRylander: 530G (5.6%, 530G)
TheMurkGnome: 500G (5.3%, 19,888G)
XalSmellsBad: 500G (5.3%, 14,660G)
Anethum: 400G (4.2%, 15,712G)
R_Raynos: 348G (3.7%, 348G)
ANFz: 253G (2.7%, 22,236G)
Estan_AD: 250G (2.6%, 2,536G)
KasugaiRoastedPeas: 200G (2.1%, 4,339G)
datadrivenbot: 100G (1.1%, 1,401G)
museofdoom: 100G (1.1%, 822G)

brown bets:
skuldar: 1,546G (17.7%, 1,546G)
Shalloween: 1,200G (13.7%, 73,393G)
HaplessOne: 1,111G (12.7%, 201,394G)
ungabunga_bot: 1,000G (11.5%, 250,902G)
BirbBrainsBot: 1,000G (11.5%, 185,531G)
alrightbye: 779G (8.9%, 38,983G)
Nocturnal_Perspective: 500G (5.7%, 5,745G)
getthemoneyz: 392G (4.5%, 584,018G)
Realitydown: 300G (3.4%, 300G)
ewan_e: 300G (3.4%, 5,139G)
TheMM42: 200G (2.3%, 13,630G)
twelfthrootoftwo: 100G (1.1%, 7,072G)
GarbagePhoenix: 100G (1.1%, 1,618G)
jaylyyy: 100G (1.1%, 100G)
Firesheath: 100G (1.1%, 11,531G)
