Final Bets: green - 7 bets for 3,425G (22.5%, x3.45); yellow - 8 bets for 11,805G (77.5%, x0.29)

green bets:
BirbBrainsBot: 1,000G (29.2%, 124,190G)
CorpusCav: 865G (25.3%, 865G)
getthemoneyz: 580G (16.9%, 991,772G)
Sairentozon7: 376G (11.0%, 376G)
rednecknazgul: 304G (8.9%, 304G)
redrhinofever: 200G (5.8%, 1,875G)
Neo_Exodus: 100G (2.9%, 212G)

yellow bets:
YaBoy125: 3,916G (33.2%, 39,168G)
HaateXIII: 1,904G (16.1%, 1,904G)
reinoe: 1,275G (10.8%, 1,275G)
serperemagus: 1,256G (10.6%, 1,256G)
prince_rogers_nelson_: 1,211G (10.3%, 1,211G)
gooseyourself: 1,135G (9.6%, 2,271G)
Digitalsocrates: 1,000G (8.5%, 43,703G)
Kaynin_Shadowwalker: 108G (0.9%, 108G)
