Final Bets: red - 15 bets for 7,102G (22.4%, x3.47); yellow - 28 bets for 24,640G (77.6%, x0.29)

red bets:
BirbBrainsBot: 1,000G (14.1%, 214,764G)
bad1dea: 1,000G (14.1%, 32,934G)
kai_shee: 1,000G (14.1%, 107,459G)
GreatRedDragon: 1,000G (14.1%, 10,008G)
Lanshaft: 600G (8.4%, 2,246G)
soapydragonfly: 500G (7.0%, 9,911G)
Elson_Vi: 349G (4.9%, 1,849G)
nomoment: 328G (4.6%, 328G)
Baron_von_Scrub: 314G (4.4%, 10,884G)
IcePattern: 300G (4.2%, 22,464G)
ugoplatamia: 200G (2.8%, 12,214G)
Aka_Gilly: 200G (2.8%, 6,956G)
ZephyrTempest: 173G (2.4%, 20,003G)
ANFz: 100G (1.4%, 2,358G)
getthemoneyz: 38G (0.5%, 435,174G)

yellow bets:
Mtueni: 5,000G (20.3%, 103,095G)
fenaen: 3,208G (13.0%, 3,208G)
Aldrammech: 3,186G (12.9%, 3,186G)
Shalloween: 2,000G (8.1%, 102,198G)
Shakarak: 2,000G (8.1%, 30,248G)
Zeroroute: 1,325G (5.4%, 4,087G)
catfashions: 1,033G (4.2%, 1,033G)
ungabunga_bot: 1,000G (4.1%, 22,263G)
sinnyil2: 836G (3.4%, 1,673G)
jethrothrul: 556G (2.3%, 556G)
Phi_Sig: 555G (2.3%, 46,940G)
Lodrak: 501G (2.0%, 34,673G)
Vampire_Killer: 500G (2.0%, 5,489G)
fenixcrest: 426G (1.7%, 4,267G)
RunicMagus: 400G (1.6%, 32,089G)
MoonSlayerRS: 384G (1.6%, 384G)
urieltheflameofgod: 316G (1.3%, 316G)
SkylerBunny: 312G (1.3%, 312G)
KasugaiRoastedPeas: 200G (0.8%, 16,001G)
b0shii: 200G (0.8%, 563G)
JIDkomu: 152G (0.6%, 152G)
DrAntiSocial: 123G (0.5%, 2,696G)
AllInBot: 100G (0.4%, 100G)
Jam643d: 100G (0.4%, 974G)
datadrivenbot: 100G (0.4%, 16,732G)
Alc_Trinity: 100G (0.4%, 38,796G)
roqqqpsi: 22G (0.1%, 2,570G)
ko2q: 5G (0.0%, 1,420G)
