Final Bets: blue - 11 bets for 13,280G (34.4%, x1.90); champion - 17 bets for 25,286G (65.6%, x0.53)

blue bets:
Snowfats: 9,063G (68.2%, 9,063G)
Shalloween: 1,300G (9.8%, 15,570G)
Laserman1000: 896G (6.7%, 896G)
valcrist91: 621G (4.7%, 621G)
SephDarkheart: 600G (4.5%, 118,042G)
datadrivenbot: 200G (1.5%, 64,095G)
peanutvendor: 200G (1.5%, 721G)
MinBetBot: 100G (0.8%, 7,578G)
goth_Applebees_hostess: 100G (0.8%, 100G)
Bongomon7: 100G (0.8%, 1,795G)
CosmicTactician: 100G (0.8%, 29,063G)

champion bets:
DavenIII: 15,000G (59.3%, 68,904G)
nhammen: 2,000G (7.9%, 79,646G)
MagicBottle: 1,718G (6.8%, 1,718G)
BirbBrainsBot: 1,000G (4.0%, 56,394G)
rNdOrchestra: 800G (3.2%, 5,816G)
Nizaha: 744G (2.9%, 7,942G)
getthemoneyz: 608G (2.4%, 1,670,891G)
brokenknight201: 600G (2.4%, 4,378G)
CapnChaos12: 540G (2.1%, 540G)
JonnyCue: 500G (2.0%, 2,833G)
kononeko: 500G (2.0%, 2,429G)
Error72: 480G (1.9%, 480G)
lowlf: 344G (1.4%, 1,502G)
theBinklive: 238G (0.9%, 953G)
AllInBot: 100G (0.4%, 100G)
Thyrandaal: 100G (0.4%, 484,681G)
HASTERIOUS: 14G (0.1%, 1,454G)
