High Risers:
1. reinoe: +8,479G
2. holdenmagronik: +8,337G
3. Sairentozon7: +7,819G
4. thunderducker: +6,797G
5. lowlf: +4,949G
6. tinytittyfiend: +3,980G
7. seppu777: +1,506G
8. roofiepops: +1,506G
9. DuPlatypus: +1,096G
10. Nizaha: +818G
11. Lord_Gwarth: +800G
12. Shalloween: +777G
13. DLJuggernaut: +745G
14. AbandonedHall: +718G
15. ValensEXP_: +615G
16. CorpusCav: +540G
17. Chuckolator: +527G
18. CT_5_Holy: +336G
19. Bongomon7: +314G
20. Creggers: +293G
21. Cryptopsy70: +235G
22. brokenknight201: +127G
23. DavenIII: +6G
24. ZCKaiser: +4G
25. upvla: +4G
26. KGenjy: -46G
27. DHaveWord: -47G
28. Smashy: -53G
29. GeNoFPaniC: -88G
30. nekojin: -96G
31. TheBrett: -98G
32. Lolthsmeat: -125G
33. mizzmoonshine: -177G
34. SephDarkheart: -229G
35. gorgewall: -232G
36. BuffaloCrunch: -300G
37. CapnChaos12: -300G
38. 2b_yorha_b: -385G
39. Forkmore: -393G
40. OneHundredFists: -396G
41. DeathTaxesAndAnime: -400G
42. Laserman1000: -500G
43. RedRiderAyame: -500G
44. nifboy: -547G
45. heropong: -627G
46. Firesheath: -700G
47. dogsandcatsand: -706G
48. resjudicata3: -878G
49. SQUiDSQUARKLIN: -900G
50. killth3kid: -988G
51. Snowfats: -1,000G
52. Smugzug: -1,255G
53. Dasutin23: -1,372G
54. fenaen: -1,496G
55. old_overholt_: -2,670G
56. Leonidusx: -3,000G
57. Yangusburger: -3,000G
58. pplvee1: -3,333G
59. RunicMagus: -4,697G
60. latebit: -7,698G
61. EmperorBeef: -9,616G
62. Willjin: -16,300G
