Final Bets: green - 13 bets for 8,649G (35.9%, x1.79); yellow - 20 bets for 15,462G (64.1%, x0.56)

green bets:
latebit: 1,465G (16.9%, 73,269G)
AllInBot: 1,106G (12.8%, 1,106G)
BirbBrainsBot: 1,000G (11.6%, 116,295G)
Sairentozon7: 1,000G (11.6%, 23,992G)
nifboy: 868G (10.0%, 2,231G)
dogsandcatsand: 784G (9.1%, 784G)
DLJuggernaut: 616G (7.1%, 616G)
Smashy: 449G (5.2%, 449G)
Lolthsmeat: 409G (4.7%, 409G)
DavenIII: 400G (4.6%, 400G)
argentbast: 248G (2.9%, 248G)
mizzmoonshine: 204G (2.4%, 204G)
Firesheath: 100G (1.2%, 3,168G)

yellow bets:
reinoe: 5,000G (32.3%, 46,842G)
Shalloween: 1,889G (12.2%, 1,889G)
RunicMagus: 1,020G (6.6%, 26,164G)
tinytittyfiend: 1,000G (6.5%, 7,382G)
Lord_Gwarth: 1,000G (6.5%, 3,441G)
TheBrett: 687G (4.4%, 687G)
Nizaha: 632G (4.1%, 9,440G)
maakur_: 616G (4.0%, 616G)
2b_yorha_b: 613G (4.0%, 613G)
CT_5_Holy: 600G (3.9%, 600G)
NicoSavoy: 520G (3.4%, 520G)
Smugzug: 328G (2.1%, 2,379G)
KGenjy: 308G (2.0%, 308G)
CorpusCav: 300G (1.9%, 31,138G)
brokenknight201: 216G (1.4%, 216G)
DuPlatypus: 200G (1.3%, 617G)
datadrivenbot: 200G (1.3%, 78,428G)
GeNoFPaniC: 200G (1.3%, 728G)
gorgewall: 101G (0.7%, 14,829G)
getthemoneyz: 32G (0.2%, 2,119,689G)
