Final Bets: red - 13 bets for 17,027G (59.4%, x0.68); purple - 19 bets for 11,651G (40.6%, x1.46)

red bets:
latebit: 3,472G (20.4%, 69,453G)
Shalloween: 3,166G (18.6%, 3,166G)
Nizaha: 2,353G (13.8%, 9,413G)
thunderducker: 2,000G (11.7%, 10,274G)
Lord_Gwarth: 1,500G (8.8%, 4,615G)
BirbBrainsBot: 1,000G (5.9%, 114,590G)
Sairentozon7: 1,000G (5.9%, 23,287G)
lowlf: 620G (3.6%, 14,689G)
maakur_: 616G (3.6%, 616G)
Lolthsmeat: 485G (2.8%, 485G)
EmperorBeef: 379G (2.2%, 199,879G)
getthemoneyz: 336G (2.0%, 2,120,182G)
AbandonedHall: 100G (0.6%, 747G)

purple bets:
DLJuggernaut: 3,466G (29.7%, 6,798G)
NicoSavoy: 1,182G (10.1%, 1,182G)
RunicMagus: 1,020G (8.8%, 24,007G)
holdenmagronik: 1,000G (8.6%, 10,931G)
dogsandcatsand: 788G (6.8%, 788G)
resjudicata3: 712G (6.1%, 1,398G)
tinytittyfiend: 500G (4.3%, 7,941G)
SephDarkheart: 448G (3.8%, 448G)
ValensEXP_: 428G (3.7%, 2,031G)
Smugzug: 332G (2.8%, 2,579G)
KGenjy: 290G (2.5%, 290G)
TheBrett: 232G (2.0%, 232G)
2b_yorha_b: 228G (2.0%, 228G)
DuPlatypus: 220G (1.9%, 220G)
mizzmoonshine: 204G (1.8%, 204G)
AllInBot: 200G (1.7%, 200G)
datadrivenbot: 200G (1.7%, 78,349G)
gorgewall: 101G (0.9%, 14,788G)
Bongomon7: 100G (0.9%, 4,761G)
