Final Bets: purple - 13 bets for 10,426G (46.5%, x1.15); brown - 15 bets for 11,976G (53.5%, x0.87)

purple bets:
RaIshtar: 2,614G (25.1%, 2,614G)
Virilikus: 2,000G (19.2%, 197,178G)
twelfthrootoftwo: 1,472G (14.1%, 1,472G)
Aldrammech: 1,152G (11.0%, 1,152G)
E_Ballard: 1,035G (9.9%, 1,035G)
Lanshaft: 500G (4.8%, 19,491G)
cowlander: 500G (4.8%, 4,425G)
Monopool: 254G (2.4%, 254G)
Seaweed_B: 252G (2.4%, 9,165G)
gorgewall: 201G (1.9%, 16,370G)
datadrivenbot: 200G (1.9%, 37,965G)
getthemoneyz: 146G (1.4%, 1,360,573G)
Twisted_Nutsatchel: 100G (1.0%, 13,260G)

brown bets:
NIghtdew14: 3,000G (25.1%, 40,565G)
NicoSavoy: 2,000G (16.7%, 268,313G)
VolgraTheMoose: 1,367G (11.4%, 2,735G)
BirbBrainsBot: 1,000G (8.4%, 6,193G)
Digitalsocrates: 987G (8.2%, 987G)
HaateXIII: 856G (7.1%, 856G)
Nizaha: 580G (4.8%, 23,149G)
TasisSai: 500G (4.2%, 6,814G)
YaBoy125: 400G (3.3%, 400G)
nhammen: 400G (3.3%, 2,724G)
CapnChaos12: 300G (2.5%, 18,330G)
AllInBot: 200G (1.7%, 200G)
douchetron: 156G (1.3%, 156G)
daveb_: 122G (1.0%, 4,416G)
Hirameki85: 108G (0.9%, 108G)
