Final Bets: white - 17 bets for 15,744G (59.8%, x0.67); champion - 19 bets for 10,584G (40.2%, x1.49)

white bets:
HaateXIII: 4,460G (28.3%, 4,460G)
NicoSavoy: 2,000G (12.7%, 270,106G)
Thyrandaal: 1,555G (9.9%, 67,923G)
VolgraTheMoose: 1,000G (6.4%, 4,298G)
Seaweed_B: 1,000G (6.4%, 10,525G)
BirbBrainsBot: 1,000G (6.4%, 6,055G)
skipsandwiches: 1,000G (6.4%, 18,569G)
CapnChaos12: 500G (3.2%, 19,119G)
Rytor: 500G (3.2%, 16,458G)
RaIshtar: 500G (3.2%, 7,456G)
fluffskull: 464G (2.9%, 464G)
Zagorsek: 440G (2.8%, 440G)
YaBoy125: 400G (2.5%, 400G)
Grandlanzer: 300G (1.9%, 111,087G)
douchetron: 224G (1.4%, 441G)
gorgewall: 201G (1.3%, 17,105G)
LiqwidB: 200G (1.3%, 2,294G)

champion bets:
Virilikus: 3,000G (28.3%, 192,975G)
acedude1981: 1,000G (9.4%, 30,720G)
Digitalsocrates: 866G (8.2%, 866G)
cowlander: 750G (7.1%, 7,540G)
Monopool: 723G (6.8%, 723G)
LAGBOT30000: 572G (5.4%, 10,447G)
Lanshaft: 500G (4.7%, 20,707G)
TasisSai: 500G (4.7%, 6,835G)
getthemoneyz: 490G (4.6%, 1,360,031G)
randgridr: 480G (4.5%, 4,936G)
Arcblazer23: 391G (3.7%, 391G)
Smashy: 300G (2.8%, 9,311G)
AllInBot: 200G (1.9%, 200G)
datadrivenbot: 200G (1.9%, 37,996G)
GladiatorLupe: 200G (1.9%, 607G)
Hirameki85: 108G (1.0%, 108G)
ribbiks: 104G (1.0%, 104G)
daveb_: 100G (0.9%, 4,194G)
Twisted_Nutsatchel: 100G (0.9%, 13,275G)
