Final Bets: blue - 16 bets for 5,934G (27.5%, x2.64); champion - 19 bets for 15,675G (72.5%, x0.38)

blue bets:
holyonline: 947G (16.0%, 947G)
Lodrak: 572G (9.6%, 572G)
lastly: 500G (8.4%, 10,096G)
catfashions: 500G (8.4%, 6,716G)
Draconis345: 500G (8.4%, 1,535G)
IndecisiveNinja: 424G (7.1%, 424G)
HaateXIII: 388G (6.5%, 388G)
JumbocactuarX27: 356G (6.0%, 356G)
Meta_Five: 300G (5.1%, 9,940G)
FoeSquirrel: 299G (5.0%, 1,511G)
joewcarson: 276G (4.7%, 276G)
SomeCallMeGON: 256G (4.3%, 256G)
run_with_stone_guns: 208G (3.5%, 208G)
dictatorhowells: 200G (3.4%, 2,288G)
LazarusAjin: 108G (1.8%, 108G)
popotinha1889: 100G (1.7%, 100G)

champion bets:
leakimiko: 3,587G (22.9%, 3,587G)
sinnyil2: 2,500G (15.9%, 37,577G)
maakur_: 1,466G (9.4%, 1,466G)
ko2q: 1,000G (6.4%, 13,326G)
ShintaroNayaka: 1,000G (6.4%, 21,420G)
BirbBrainsBot: 1,000G (6.4%, 182,760G)
b0shii: 757G (4.8%, 757G)
Pie108: 700G (4.5%, 24,487G)
Anomandaris__: 600G (3.8%, 7,534G)
waterwatereverywhere: 524G (3.3%, 1,028G)
nifboy: 500G (3.2%, 4,109G)
HeroponThrawn: 393G (2.5%, 393G)
ZephyrTempest: 366G (2.3%, 73,828G)
DrAntiSocial: 348G (2.2%, 348G)
Laserman1000: 344G (2.2%, 344G)
baconbacon1207: 300G (1.9%, 15,843G)
Sauroc: 112G (0.7%, 112G)
Tithonus: 100G (0.6%, 4,937G)
datadrivenbot: 78G (0.5%, 100G)
