Final Bets: white - 9 bets for 5,358G (25.3%, x2.95); black - 17 bets for 15,815G (74.7%, x0.34)

white bets:
prince_rogers_nelson_: 1,987G (37.1%, 1,987G)
twelfthrootoftwo: 1,482G (27.7%, 1,482G)
jeffersonsa: 500G (9.3%, 1,729G)
SephDarkheart: 420G (7.8%, 15,476G)
Finewax: 357G (6.7%, 357G)
DAC169: 200G (3.7%, 2,451G)
datadrivenbot: 200G (3.7%, 45,493G)
Chambs12: 112G (2.1%, 112G)
ANFz: 100G (1.9%, 58,271G)

black bets:
Shalloween: 4,000G (25.3%, 40,015G)
NicoSavoy: 3,110G (19.7%, 311,047G)
kahjeethaswares: 2,319G (14.7%, 2,319G)
BirbBrainsBot: 1,000G (6.3%, 177,567G)
nekojin: 1,000G (6.3%, 18,186G)
VolgraTheMoose: 832G (5.3%, 832G)
AllInBot: 629G (4.0%, 629G)
Lanshaft: 528G (3.3%, 25,499G)
Hirameki85: 500G (3.2%, 6,999G)
coralreeferz: 450G (2.8%, 8,892G)
douchetron: 376G (2.4%, 376G)
iBardic: 240G (1.5%, 240G)
getthemoneyz: 224G (1.4%, 1,424,150G)
tanarusasamiya: 213G (1.3%, 213G)
ArlanKels: 158G (1.0%, 1,584G)
acid_flashback: 132G (0.8%, 3,318G)
TheGrizz113: 104G (0.7%, 104G)
