Final Bets: blue - 11 bets for 5,060G (56.0%, x0.78); white - 9 bets for 3,968G (44.0%, x1.28)

blue bets:
VolgraTheMoose: 1,001G (19.8%, 121,801G)
BirbBrainsBot: 1,000G (19.8%, 180,210G)
Sairentozon7: 984G (19.4%, 984G)
Raixelol: 512G (10.1%, 512G)
getthemoneyz: 432G (8.5%, 1,834,305G)
bigbongsmoker: 252G (5.0%, 5,904G)
BartTradingCompany: 247G (4.9%, 2,471G)
killth5: 200G (4.0%, 1,016G)
datadrivenbot: 200G (4.0%, 55,917G)
FriendlySkeleton: 132G (2.6%, 2,577G)
Error72: 100G (2.0%, 70,354G)

white bets:
upvla: 1,219G (30.7%, 6,677G)
E_Ballard: 896G (22.6%, 137,626G)
Zeroroute: 848G (21.4%, 2,829G)
krombobreaker: 304G (7.7%, 7,166G)
Leonidusx: 200G (5.0%, 17,793G)
lwtest: 200G (5.0%, 4,045G)
gorgewall: 101G (2.5%, 4,638G)
maakur_: 100G (2.5%, 8,636G)
Miku_Shikhu: 100G (2.5%, 5,304G)
