Final Bets: blue - 8 bets for 5,629G (45.6%, x1.19); champion - 12 bets for 6,713G (54.4%, x0.84)

blue bets:
dogsandcatsand: 3,000G (53.3%, 9,142G)
BirbBrainsBot: 1,000G (17.8%, 180,994G)
Kellios11: 560G (9.9%, 1,120G)
Bae0w0: 469G (8.3%, 469G)
bigbongsmoker: 252G (4.5%, 6,077G)
getthemoneyz: 148G (2.6%, 1,834,644G)
projekt_mike: 100G (1.8%, 798G)
killth5: 100G (1.8%, 1,173G)

champion bets:
Error72: 1,001G (14.9%, 70,432G)
Leonidusx: 1,000G (14.9%, 17,593G)
Rytor: 1,000G (14.9%, 36,725G)
E_Ballard: 896G (13.3%, 136,730G)
Sairentozon7: 756G (11.3%, 756G)
Zeroroute: 693G (10.3%, 1,981G)
rocl: 364G (5.4%, 5,244G)
krombobreaker: 304G (4.5%, 6,862G)
BartTradingCompany: 266G (4.0%, 2,665G)
datadrivenbot: 200G (3.0%, 56,074G)
FriendlySkeleton: 132G (2.0%, 2,681G)
gorgewall: 101G (1.5%, 4,537G)
