Final Bets: red - 3 bets for 1,337G (25.1%, x2.99); blue - 8 bets for 3,999G (74.9%, x0.33)

red bets:
getthemoneyz: 814G (60.9%, 1,670,350G)
WhiteTigress: 400G (29.9%, 4,833G)
Lydian_C: 123G (9.2%, 4,710G)

blue bets:
Sairentozon7: 1,000G (25.0%, 28,769G)
Rislyeu: 750G (18.8%, 10,803G)
CT_5_Holy: 697G (17.4%, 697G)
BirbBrainsBot: 526G (13.2%, 52,810G)
TheSyffy: 377G (9.4%, 377G)
AllInBot: 349G (8.7%, 349G)
datadrivenbot: 200G (5.0%, 64,977G)
MinBetBot: 100G (2.5%, 7,213G)
