Final Bets: white - 17 bets for 8,088G (69.6%, x0.44); purple - 9 bets for 3,526G (30.4%, x2.29)

white bets:
fenixcrest: 1,171G (14.5%, 1,171G)
ArashiKurobara: 1,000G (12.4%, 17,849G)
OtherBrand: 1,000G (12.4%, 1,776G)
notsashasia: 811G (10.0%, 8,811G)
ShintaroNayaka: 675G (8.3%, 6,755G)
FriendSquirrel: 610G (7.5%, 610G)
superdevon1: 567G (7.0%, 567G)
MagicBottle: 484G (6.0%, 17,153G)
DeathTaxesAndAnime: 405G (5.0%, 796G)
CapnChaos12: 300G (3.7%, 7,902G)
CosmicTactician: 200G (2.5%, 50,293G)
datadrivenbot: 200G (2.5%, 51,480G)
casteia: 200G (2.5%, 975G)
silentkaster: 168G (2.1%, 13,068G)
nifboy: 100G (1.2%, 5,151G)
E_Ballard: 100G (1.2%, 2,044G)
phoenix6107: 97G (1.2%, 195G)

purple bets:
BirbBrainsBot: 1,000G (28.4%, 138,341G)
Nizaha: 508G (14.4%, 4,851G)
HaateXIII: 500G (14.2%, 4,100G)
DavenIII: 489G (13.9%, 489G)
safira125: 365G (10.4%, 365G)
RampagingRobot: 203G (5.8%, 7,203G)
getthemoneyz: 198G (5.6%, 1,161,306G)
SephDarkheart: 163G (4.6%, 163G)
Dragon_RW: 100G (2.8%, 4,432G)
