Final Bets: white - 14 bets for 5,169G (30.5%, x2.27); black - 14 bets for 11,757G (69.5%, x0.44)

white bets:
ungabunga_bot: 1,000G (19.3%, 409,927G)
JumbocactuarX27: 1,000G (19.3%, 5,770G)
BirbBrainsBot: 513G (9.9%, 87,535G)
ZephyrTempest: 456G (8.8%, 1,634G)
DustBirdEX: 456G (8.8%, 7,010G)
Miyokari: 400G (7.7%, 2,459G)
Eyepoor_: 300G (5.8%, 4,575G)
benticore: 224G (4.3%, 224G)
sukotsuto: 200G (3.9%, 755G)
turquoise_mage: 200G (3.9%, 200G)
getthemoneyz: 116G (2.2%, 641,799G)
josephiroth_143: 104G (2.0%, 104G)
FriendSquirrel: 100G (1.9%, 26,243G)
datadrivenbot: 100G (1.9%, 12,284G)

black bets:
Mesmaster: 3,452G (29.4%, 3,452G)
sinnyil2: 1,757G (14.9%, 1,757G)
astrozin11: 1,374G (11.7%, 1,374G)
DavenIII: 1,000G (8.5%, 4,770G)
Lionhermit: 1,000G (8.5%, 42,475G)
nifboy: 977G (8.3%, 977G)
ShintaroNayaka: 800G (6.8%, 12,278G)
arch8000: 436G (3.7%, 436G)
RustyTyrano: 279G (2.4%, 2,079G)
dogsandcatsand: 224G (1.9%, 224G)
mannequ1n: 208G (1.8%, 208G)
GrayGhostGaming: 100G (0.9%, 3,246G)
CosmicTactician: 100G (0.9%, 24,162G)
DrAntiSocial: 50G (0.4%, 8,299G)
