Final Bets: black - 10 bets for 14,952G (57.9%, x0.73); brown - 19 bets for 10,868G (42.1%, x1.38)

black bets:
Mesmaster: 5,709G (38.2%, 5,709G)
nifboy: 4,489G (30.0%, 4,489G)
killth3kid: 2,000G (13.4%, 70,954G)
Lionhermit: 1,000G (6.7%, 42,557G)
MirtaiAtana: 804G (5.4%, 804G)
sukotsuto: 236G (1.6%, 236G)
benticore: 224G (1.5%, 224G)
turquoise_mage: 200G (1.3%, 285G)
mannequ1n: 200G (1.3%, 966G)
getthemoneyz: 90G (0.6%, 640,903G)

brown bets:
lowlf: 2,002G (18.4%, 43,262G)
DavenIII: 1,500G (13.8%, 8,651G)
DeathTaxesAndAnime: 1,250G (11.5%, 2,451G)
BirbBrainsBot: 1,000G (9.2%, 85,022G)
JumbocactuarX27: 1,000G (9.2%, 3,770G)
volgrathemoose: 501G (4.6%, 2,718G)
Miyokari: 500G (4.6%, 2,264G)
ZephyrTempest: 456G (4.2%, 722G)
DustBirdEX: 443G (4.1%, 8,379G)
ShintaroNayaka: 400G (3.7%, 13,126G)
josephiroth_143: 332G (3.1%, 332G)
elelor: 320G (2.9%, 320G)
Eyepoor_: 300G (2.8%, 4,775G)
powergems: 250G (2.3%, 7,697G)
ungabunga_bot: 214G (2.0%, 407,970G)
maakur_: 100G (0.9%, 120,811G)
CosmicTactician: 100G (0.9%, 24,149G)
GrayGhostGaming: 100G (0.9%, 3,333G)
datadrivenbot: 100G (0.9%, 12,127G)
