Final Bets: red - 18 bets for 8,028G (36.7%, x1.72); blue - 24 bets for 13,830G (63.3%, x0.58)

red bets:
Jeeboheebo: 2,020G (25.2%, 17,556G)
maakur_: 1,191G (14.8%, 1,191G)
OmnibotGamma: 1,000G (12.5%, 8,453G)
getthemoneyz: 1,000G (12.5%, 403,472G)
DarrenDinosaurs: 972G (12.1%, 972G)
ColetteMSLP: 300G (3.7%, 9,684G)
cheesetacular: 244G (3.0%, 244G)
ugoplatamia: 200G (2.5%, 8,495G)
Anomandaris__: 200G (2.5%, 1,493G)
regios91: 200G (2.5%, 2,563G)
AllInBot: 100G (1.2%, 100G)
BadBlanket: 100G (1.2%, 4,887G)
ig_ats: 100G (1.2%, 104G)
greghatch: 100G (1.2%, 1,595G)
Nizaha: 100G (1.2%, 16,751G)
richardserious: 100G (1.2%, 572G)
Legendaryax4: 100G (1.2%, 346G)
daveb_: 1G (0.0%, 1,136G)

blue bets:
mexskacin: 1,435G (10.4%, 1,435G)
Shalloween: 1,400G (10.1%, 42,499G)
Tougou: 1,299G (9.4%, 1,299G)
madman_clinton: 1,119G (8.1%, 1,119G)
JonnyCue: 1,000G (7.2%, 39,485G)
BirbBrainsBot: 1,000G (7.2%, 117,925G)
bad1dea: 1,000G (7.2%, 330,126G)
Axelrod: 1,000G (7.2%, 41,036G)
Lionhermit: 853G (6.2%, 853G)
Lali_Lulelo: 708G (5.1%, 708G)
nifboy: 612G (4.4%, 612G)
nomoment: 500G (3.6%, 17,930G)
DustBirdEX: 300G (2.2%, 1,788G)
MynenARS: 280G (2.0%, 280G)
ZephyrTempest: 233G (1.7%, 21,799G)
mirapoix: 200G (1.4%, 2,132G)
Nanovolt: 168G (1.2%, 168G)
Fumil: 112G (0.8%, 112G)
byrdturbo: 111G (0.8%, 2,536G)
RughSontos: 100G (0.7%, 3,121G)
datadrivenbot: 100G (0.7%, 15,235G)
captltrl: 100G (0.7%, 100G)
smiggenator: 100G (0.7%, 631G)
volgrathemoose: 100G (0.7%, 6,451G)
