Final Bets: green - 21 bets for 9,931G (45.1%, x1.22); black - 24 bets for 12,106G (54.9%, x0.82)

green bets:
OmnibotGamma: 1,000G (10.1%, 11,621G)
BirbBrainsBot: 1,000G (10.1%, 121,914G)
bad1dea: 1,000G (10.1%, 334,067G)
inzo_bettingbot: 1,000G (10.1%, 55,435G)
Axelrod: 1,000G (10.1%, 42,393G)
Shalloween: 1,000G (10.1%, 43,721G)
reinoe: 924G (9.3%, 924G)
DarrenDinosaurs: 500G (5.0%, 7,777G)
Lali_Lulelo: 396G (4.0%, 396G)
TheGuesty: 350G (3.5%, 3,404G)
mirapoix: 300G (3.0%, 3,372G)
ZephyrTempest: 223G (2.2%, 22,746G)
ugoplatamia: 200G (2.0%, 8,198G)
joewcarson: 200G (2.0%, 1,394G)
FattyBearsteak: 200G (2.0%, 5,460G)
getthemoneyz: 122G (1.2%, 404,084G)
Fumil: 116G (1.2%, 116G)
captltrl: 100G (1.0%, 100G)
twelfthrootoftwo: 100G (1.0%, 2,885G)
astrozin11: 100G (1.0%, 13,274G)
DejaPoo21: 100G (1.0%, 27,908G)

black bets:
Aldrammech: 2,402G (19.8%, 24,021G)
cheesetacular: 1,743G (14.4%, 1,743G)
sinnyil2: 1,200G (9.9%, 5,737G)
kai_shee: 1,000G (8.3%, 41,565G)
Lord_Burrah: 1,000G (8.3%, 94,110G)
DustBirdEX: 800G (6.6%, 5,199G)
Rytor: 500G (4.1%, 7,307G)
EnemyController: 500G (4.1%, 1,742G)
eltejongrande: 455G (3.8%, 455G)
Legendaryax4: 400G (3.3%, 518G)
maakur_: 356G (2.9%, 356G)
nifboy: 240G (2.0%, 240G)
KasugaiRoastedPeas: 200G (1.7%, 31,889G)
ar_tactic: 200G (1.7%, 23,440G)
Nanovolt: 150G (1.2%, 357G)
madman_clinton: 136G (1.1%, 136G)
AnthraX85: 124G (1.0%, 124G)
AllInBot: 100G (0.8%, 100G)
BadBlanket: 100G (0.8%, 5,178G)
Nizaha: 100G (0.8%, 15,141G)
regios91: 100G (0.8%, 1,808G)
lastly: 100G (0.8%, 1,312G)
datadrivenbot: 100G (0.8%, 15,254G)
ko2q: 100G (0.8%, 2,116G)
