Final Bets: blue - 13 bets for 8,304G (56.9%, x0.76); yellow - 13 bets for 6,283G (43.1%, x1.32)

blue bets:
Mesmaster: 3,000G (36.1%, 82,058G)
biffcake01: 1,189G (14.3%, 1,189G)
Digitalsocrates: 1,000G (12.0%, 53,070G)
killth3kid: 818G (9.9%, 8,185G)
ValtonZenola: 500G (6.0%, 3,067G)
mpghappiness: 420G (5.1%, 8,453G)
TheChainNerd: 309G (3.7%, 1,729G)
O_Heyno: 268G (3.2%, 268G)
silentkaster: 200G (2.4%, 2,300G)
butterbelljedi: 200G (2.4%, 200G)
Evewho: 200G (2.4%, 2,341G)
DAC169: 100G (1.2%, 1,433G)
datadrivenbot: 100G (1.2%, 42,277G)

yellow bets:
SamaelMerihem: 1,666G (26.5%, 4,970G)
Baron_von_Scrub: 1,423G (22.6%, 1,423G)
Cryptopsy70: 544G (8.7%, 18,761G)
BlackFireUK: 500G (8.0%, 14,538G)
CosmicTactician: 500G (8.0%, 5,998G)
serperemagus: 500G (8.0%, 1,342G)
WitchHunterIX: 300G (4.8%, 15,363G)
cheesy_e: 200G (3.2%, 1,078G)
porkchop5158: 200G (3.2%, 2,030G)
DeathTaxesAndAnime: 150G (2.4%, 2,069G)
AllInBot: 100G (1.6%, 100G)
Nizaha: 100G (1.6%, 21,480G)
IphoneDarkness: 100G (1.6%, 3,320G)
