Final Bets: green - 25 bets for 26,028G (85.1%, x0.18); yellow - 15 bets for 4,566G (14.9%, x5.70)

green bets:
Mesmaster: 9,630G (37.0%, 9,630G)
killth3kid: 2,000G (7.7%, 80,320G)
RunicMagus: 1,600G (6.1%, 50,906G)
DeathTaxesAndAnime: 1,518G (5.8%, 2,977G)
astrozin11: 1,243G (4.8%, 1,243G)
Laserman1000: 1,129G (4.3%, 1,129G)
Estan_AD: 1,078G (4.1%, 2,156G)
Aldrammech: 1,000G (3.8%, 28,456G)
mirapoix: 964G (3.7%, 964G)
leakimiko: 879G (3.4%, 8,791G)
nifboy: 866G (3.3%, 866G)
Arlum: 758G (2.9%, 758G)
Archeious: 691G (2.7%, 814G)
Billybones5150: 500G (1.9%, 22,948G)
luminarii: 450G (1.7%, 13,385G)
KasugaiRoastedPeas: 300G (1.2%, 8,535G)
EnemyController: 300G (1.2%, 192,854G)
ewan_e: 256G (1.0%, 256G)
arch8000: 247G (0.9%, 4,946G)
ANFz: 111G (0.4%, 30,701G)
caprinovoa: 108G (0.4%, 108G)
maakur_: 100G (0.4%, 122,672G)
gorgewall: 100G (0.4%, 6,263G)
Setdevildog: 100G (0.4%, 208G)
datadrivenbot: 100G (0.4%, 12,526G)

yellow bets:
Lionhermit: 1,000G (21.9%, 16,197G)
BirbBrainsBot: 954G (20.9%, 58,320G)
SodaAddict: 400G (8.8%, 1,000G)
Baron_von_Scrub: 364G (8.0%, 364G)
Kyune: 342G (7.5%, 684G)
SQUiDSQUARKLIN: 276G (6.0%, 276G)
getthemoneyz: 272G (6.0%, 630,616G)
FNCardascia_: 228G (5.0%, 228G)
Evode: 212G (4.6%, 212G)
RestIessNight: 132G (2.9%, 132G)
dinin991: 100G (2.2%, 770G)
twelfthrootoftwo: 100G (2.2%, 2,659G)
ZephyrTempest: 86G (1.9%, 1,720G)
DrAntiSocial: 50G (1.1%, 7,502G)
joewcarson: 50G (1.1%, 5,695G)
