Final Bets: red - 21 bets for 16,085G (77.7%, x0.29); blue - 5 bets for 4,623G (22.3%, x3.48)

red bets:
DavenIII: 3,269G (20.3%, 6,539G)
Lyner87: 2,020G (12.6%, 91,021G)
upvla: 1,234G (7.7%, 8,343G)
sinnyil2: 1,200G (7.5%, 190,317G)
BirbBrainsBot: 1,000G (6.2%, 170,788G)
CosmicTactician: 1,000G (6.2%, 25,999G)
Sairentozon7: 1,000G (6.2%, 28,080G)
Zbgs: 1,000G (6.2%, 6,414G)
latebit: 733G (4.6%, 733G)
getthemoneyz: 488G (3.0%, 2,075,424G)
JumbocactuarX27: 476G (3.0%, 476G)
run_with_stone_GUNs: 456G (2.8%, 8,465G)
FriendSquirrel: 400G (2.5%, 400G)
MemoriesofFinal: 357G (2.2%, 357G)
bigbongsmoker: 340G (2.1%, 9,969G)
brokenknight201: 300G (1.9%, 24,832G)
PuzzleSecretary: 212G (1.3%, 212G)
datadrivenbot: 200G (1.2%, 75,869G)
VynxYukida: 200G (1.2%, 960G)
LDSkinny: 100G (0.6%, 2,342G)
HorusTaurus: 100G (0.6%, 8,940G)

blue bets:
AllInBot: 1,566G (33.9%, 1,566G)
dogsandcatsand: 1,216G (26.3%, 1,216G)
Musashi45: 921G (19.9%, 921G)
RunicMagus: 684G (14.8%, 684G)
Genkidou: 236G (5.1%, 1,405G)
