Final Bets: black - 5 bets for 8,472G (70.1%, x0.43); purple - 9 bets for 3,612G (29.9%, x2.35)

black bets:
pplvee1: 5,746G (67.8%, 11,493G)
Lyner87: 2,000G (23.6%, 93,432G)
MemoriesofFinal: 362G (4.3%, 362G)
AllInBot: 264G (3.1%, 264G)
LDSkinny: 100G (1.2%, 2,372G)

purple bets:
BirbBrainsBot: 1,000G (27.7%, 169,556G)
skipsandwiches: 464G (12.8%, 109,784G)
Musashi45: 397G (11.0%, 397G)
getthemoneyz: 392G (10.9%, 2,074,879G)
PuzzleSecretary: 375G (10.4%, 720G)
randgridr: 344G (9.5%, 6,724G)
Genkidou: 240G (6.6%, 1,444G)
datadrivenbot: 200G (5.5%, 75,915G)
VynxYukida: 200G (5.5%, 894G)
