Final Bets: white - 22 bets for 12,931G (68.5%, x0.46); black - 16 bets for 5,942G (31.5%, x2.18)

white bets:
Zeroroute: 1,607G (12.4%, 4,304G)
BirbBrainsBot: 1,000G (7.7%, 112,572G)
exaltedhamster: 1,000G (7.7%, 14,947G)
Dexsana: 1,000G (7.7%, 4,560G)
Evewho: 890G (6.9%, 1,747G)
HaplessOne: 888G (6.9%, 99,319G)
Rislyeu: 865G (6.7%, 1,730G)
volgrathemoose: 818G (6.3%, 818G)
Estan_AD: 650G (5.0%, 650G)
ApplesauceBoss: 625G (4.8%, 625G)
mpghappiness: 625G (4.8%, 625G)
zzaanexx: 563G (4.4%, 2,816G)
Drusic: 500G (3.9%, 3,127G)
JLinkletter: 400G (3.1%, 6,386G)
DLJuggernaut: 332G (2.6%, 332G)
GladiatorLupe: 300G (2.3%, 4,600G)
ungabunga_bot: 260G (2.0%, 508,975G)
brokenknight201: 200G (1.5%, 2,153G)
Jampck: 108G (0.8%, 108G)
datadrivenbot: 100G (0.8%, 18,862G)
mannequ1n: 100G (0.8%, 9,579G)
beneeto: 100G (0.8%, 200G)

black bets:
Draconis345: 1,000G (16.8%, 70,712G)
bahamutlagooon: 600G (10.1%, 3,933G)
neocarbuncle: 598G (10.1%, 598G)
powergems: 555G (9.3%, 12,257G)
DustBirdEX: 524G (8.8%, 524G)
jakeduhhsnake: 448G (7.5%, 448G)
LionelParks: 380G (6.4%, 380G)
jicchi: 353G (5.9%, 353G)
marin1987: 300G (5.0%, 4,655G)
EnemyController: 300G (5.0%, 246,417G)
benticore: 200G (3.4%, 2,815G)
Digitalsocrates: 200G (3.4%, 2,207G)
DoublePrizes: 170G (2.9%, 170G)
getthemoneyz: 114G (1.9%, 681,791G)
maakur_: 100G (1.7%, 2,454G)
Kyune: 100G (1.7%, 2,739G)
