Final Bets: purple - 27 bets for 19,324G (79.6%, x0.26); brown - 11 bets for 4,943G (20.4%, x3.91)

purple bets:
bahamutlagooon: 3,000G (15.5%, 5,239G)
Zeroroute: 2,701G (14.0%, 2,701G)
HaplessOne: 2,222G (11.5%, 98,431G)
Digitalsocrates: 1,321G (6.8%, 2,642G)
jicchi: 1,121G (5.8%, 1,121G)
EnemyController: 1,000G (5.2%, 247,070G)
Draconis345: 1,000G (5.2%, 72,888G)
Evewho: 857G (4.4%, 857G)
DustBirdEX: 832G (4.3%, 1,664G)
Phytik: 654G (3.4%, 654G)
volgrathemoose: 588G (3.0%, 588G)
Drusic: 500G (2.6%, 2,627G)
JLinkletter: 500G (2.6%, 5,986G)
CorpusCav: 415G (2.1%, 5,415G)
thethorndog1: 400G (2.1%, 8,220G)
neocarbuncle: 400G (2.1%, 1,899G)
mpghappiness: 368G (1.9%, 368G)
GladiatorLupe: 300G (1.6%, 4,300G)
GeeGXP: 204G (1.1%, 204G)
LionelParks: 200G (1.0%, 1,207G)
ungabunga_bot: 133G (0.7%, 508,715G)
Jampck: 108G (0.6%, 108G)
otakutaylor: 100G (0.5%, 2,215G)
maakur_: 100G (0.5%, 2,672G)
datadrivenbot: 100G (0.5%, 18,762G)
Kyune: 100G (0.5%, 2,957G)
mannequ1n: 100G (0.5%, 9,479G)

brown bets:
sinnyil2: 1,200G (24.3%, 24,097G)
BirbBrainsBot: 1,000G (20.2%, 111,572G)
getthemoneyz: 740G (15.0%, 682,039G)
Dexsana: 400G (8.1%, 3,560G)
ApplesauceBoss: 368G (7.4%, 368G)
Baron_von_Scrub: 353G (7.1%, 5,393G)
DLJuggernaut: 332G (6.7%, 332G)
waterwatereverywhere: 300G (6.1%, 2,760G)
Tougou: 100G (2.0%, 6,279G)
jakeduhhsnake: 100G (2.0%, 1,423G)
DoublePrizes: 50G (1.0%, 540G)
