Final Bets: black - 19 bets for 12,294G (54.1%, x0.85); purple - 19 bets for 10,429G (45.9%, x1.18)

black bets:
bahamutlagooon: 3,000G (24.4%, 6,746G)
Zeroroute: 2,035G (16.6%, 2,035G)
Draconis345: 1,000G (8.1%, 73,884G)
neocarbuncle: 1,000G (8.1%, 2,371G)
DoublePrizes: 638G (5.2%, 638G)
DLJuggernaut: 578G (4.7%, 578G)
powergems: 555G (4.5%, 13,465G)
marin1987: 500G (4.1%, 5,308G)
Rislyeu: 433G (3.5%, 433G)
LionelParks: 400G (3.3%, 2,189G)
JLinkletter: 400G (3.3%, 6,484G)
HaateXIII: 392G (3.2%, 2,820G)
GladiatorLupe: 300G (2.4%, 4,377G)
LAGBOT30000: 239G (1.9%, 23,979G)
jicchi: 212G (1.7%, 1,212G)
tronfonne: 208G (1.7%, 208G)
GeeGXP: 204G (1.7%, 204G)
datadrivenbot: 100G (0.8%, 18,862G)
zzaanexx: 100G (0.8%, 2,253G)

purple bets:
EnemyController: 1,500G (14.4%, 248,066G)
DustBirdEX: 1,285G (12.3%, 2,571G)
HaplessOne: 1,111G (10.7%, 98,999G)
ungabunga_bot: 1,000G (9.6%, 508,165G)
BirbBrainsBot: 1,000G (9.6%, 109,572G)
mpghappiness: 804G (7.7%, 804G)
CorpusCav: 711G (6.8%, 5,171G)
volgrathemoose: 588G (5.6%, 588G)
Estan_AD: 548G (5.3%, 548G)
Evewho: 344G (3.3%, 344G)
Digitalsocrates: 300G (2.9%, 2,980G)
jakeduhhsnake: 250G (2.4%, 2,303G)
getthemoneyz: 202G (1.9%, 680,821G)
benticore: 200G (1.9%, 3,398G)
Kyune: 200G (1.9%, 2,883G)
Jampck: 136G (1.3%, 136G)
otakutaylor: 100G (1.0%, 2,389G)
maakur_: 100G (1.0%, 2,698G)
DrAntiSocial: 50G (0.5%, 17,006G)
