Final Bets: red - 20 bets for 11,311G (53.8%, x0.86); blue - 10 bets for 9,704G (46.2%, x1.17)

red bets:
latebit: 3,305G (29.2%, 82,639G)
Lord_Burrah: 1,500G (13.3%, 175,000G)
NovaKnight21: 993G (8.8%, 993G)
nifboy: 872G (7.7%, 872G)
LeoNightFury: 500G (4.4%, 1,768G)
Lord_Gwarth: 500G (4.4%, 4,265G)
AllInBot: 498G (4.4%, 498G)
Cryptopsy70: 400G (3.5%, 400G)
acid_flashback: 398G (3.5%, 398G)
HorusTaurus: 360G (3.2%, 360G)
maleblackfiora: 300G (2.7%, 1,184G)
heropong: 272G (2.4%, 272G)
grimthegameking: 269G (2.4%, 269G)
Ogema_theDream: 244G (2.2%, 773G)
mirapoix: 200G (1.8%, 4,817G)
CosmicTactician: 200G (1.8%, 22,989G)
datadrivenbot: 200G (1.8%, 81,244G)
Sharosa: 100G (0.9%, 841G)
Bongomon7: 100G (0.9%, 3,714G)
Thyrandaal: 100G (0.9%, 170,108G)

blue bets:
E_Ballard: 3,567G (36.8%, 3,567G)
dogsandcatsand: 2,453G (25.3%, 4,811G)
Musashi45: 772G (8.0%, 772G)
Shalloween: 728G (7.5%, 728G)
Forkmore: 588G (6.1%, 588G)
BirbBrainsBot: 420G (4.3%, 139,015G)
bigbongsmoker: 400G (4.1%, 8,413G)
DavenIII: 400G (4.1%, 400G)
scsuperstar: 250G (2.6%, 2,918G)
getthemoneyz: 126G (1.3%, 2,130,014G)
