Final Bets: red - 11 bets for 15,645G (48.0%, x1.08); brown - 22 bets for 16,973G (52.0%, x0.92)

red bets:
CosmicTactician: 10,000G (63.9%, 13,586G)
dogsandcatsand: 2,409G (15.4%, 2,409G)
E_Ballard: 828G (5.3%, 828G)
Musashi45: 642G (4.1%, 642G)
bigbongsmoker: 404G (2.6%, 7,376G)
Cryptopsy70: 400G (2.6%, 549G)
AltimaMantoid: 300G (1.9%, 14,900G)
AbandonedHall: 262G (1.7%, 262G)
lotharek: 200G (1.3%, 7,671G)
scsuperstar: 100G (0.6%, 2,547G)
Sharosa: 100G (0.6%, 612G)

brown bets:
DLJuggernaut: 3,445G (20.3%, 3,445G)
latebit: 1,948G (11.5%, 97,437G)
HorusTaurus: 1,848G (10.9%, 1,848G)
SephDarkheart: 1,336G (7.9%, 2,672G)
Shalloween: 1,253G (7.4%, 1,253G)
BirbBrainsBot: 1,000G (5.9%, 137,741G)
Lord_Gwarth: 1,000G (5.9%, 5,042G)
NovaKnight21: 900G (5.3%, 900G)
Laserman1000: 639G (3.8%, 12,639G)
maakur_: 624G (3.7%, 624G)
LeoNightFury: 500G (2.9%, 4,117G)
xGlaive: 490G (2.9%, 490G)
ShadowNinja25: 406G (2.4%, 406G)
Forkmore: 324G (1.9%, 324G)
getthemoneyz: 224G (1.3%, 2,129,157G)
AllInBot: 200G (1.2%, 200G)
datadrivenbot: 200G (1.2%, 81,319G)
grimthegameking: 186G (1.1%, 186G)
KinniQuacks: 150G (0.9%, 1,595G)
Thyrandaal: 100G (0.6%, 170,173G)
xUnhingedMoose: 100G (0.6%, 100G)
MoonSugarFiend: 100G (0.6%, 12,666G)
