Final Bets: red - 18 bets for 6,356G (20.6%, x3.86); yellow - 24 bets for 24,524G (79.4%, x0.26)

red bets:
LanseDM: 1,030G (16.2%, 1,030G)
reinoe: 1,000G (15.7%, 26,941G)
ungabunga_bot: 734G (11.5%, 403,851G)
roofiepops: 601G (9.5%, 601G)
nifboy: 528G (8.3%, 528G)
DavenIII: 500G (7.9%, 10,006G)
TheChainNerd: 440G (6.9%, 440G)
genericco: 263G (4.1%, 263G)
rico_flex: 200G (3.1%, 42,127G)
ZephyrTempest: 181G (2.8%, 3,638G)
VeolaDrum: 177G (2.8%, 177G)
getthemoneyz: 102G (1.6%, 639,051G)
Firesheath: 100G (1.6%, 16,457G)
FriendSquirrel: 100G (1.6%, 25,804G)
NicoSavoy: 100G (1.6%, 100G)
Jerboj: 100G (1.6%, 37,234G)
mannequ1n: 100G (1.6%, 958G)
RestIessNight: 100G (1.6%, 1,092G)

yellow bets:
Mesmaster: 5,000G (20.4%, 15,408G)
katgreen: 4,000G (16.3%, 6,259G)
Evewho: 2,112G (8.6%, 4,142G)
killth3kid: 2,000G (8.2%, 44,817G)
Grimmace45: 1,781G (7.3%, 3,563G)
DeathTaxesAndAnime: 1,172G (4.8%, 2,299G)
Pie108: 1,000G (4.1%, 132,924G)
BirbBrainsBot: 1,000G (4.1%, 87,211G)
EnemyController: 1,000G (4.1%, 195,601G)
JumbocactuarX27: 1,000G (4.1%, 10,465G)
Kithmar796: 700G (2.9%, 1,757G)
Legionofwar: 672G (2.7%, 672G)
LASERJESUS1337: 500G (2.0%, 95,848G)
SquidgyXom: 454G (1.9%, 4,542G)
luminarii: 450G (1.8%, 15,702G)
FNCardascia_: 415G (1.7%, 415G)
duckfist: 300G (1.2%, 2,311G)
xxnamexx: 268G (1.1%, 268G)
bahamutlagooon: 200G (0.8%, 1,186G)
maakur_: 100G (0.4%, 120,928G)
AlenaZarek: 100G (0.4%, 46,142G)
Wolvaroo: 100G (0.4%, 1,266G)
Bongomon7: 100G (0.4%, 6,420G)
datadrivenbot: 100G (0.4%, 12,447G)
