Final Bets: red - 13 bets for 12,055G (65.2%, x0.53); purple - 9 bets for 6,426G (34.8%, x1.88)

red bets:
reinoe: 2,500G (20.7%, 120,261G)
Thyrandaal: 1,234G (10.2%, 18,807G)
EnemyController: 1,234G (10.2%, 1,568,293G)
maximumcrit: 1,000G (8.3%, 6,510G)
BirbBrainsBot: 1,000G (8.3%, 104,646G)
DavenIII: 1,000G (8.3%, 106,568G)
roqqqpsi: 945G (7.8%, 7,883G)
Nizaha: 760G (6.3%, 15,006G)
getthemoneyz: 662G (5.5%, 1,702,350G)
SkylerBunny: 520G (4.3%, 520G)
JonnyCue: 500G (4.1%, 4,025G)
HaateXIII: 500G (4.1%, 6,753G)
datadrivenbot: 200G (1.7%, 64,574G)

purple bets:
dogsandcatsand: 1,176G (18.3%, 1,176G)
douchetron: 1,100G (17.1%, 1,100G)
Sairentozon7: 1,000G (15.6%, 22,627G)
Shalloween: 1,000G (15.6%, 17,862G)
Laserman1000: 757G (11.8%, 7,657G)
Kronikle: 564G (8.8%, 18,218G)
reddwind_: 312G (4.9%, 4,104G)
resjudicata3: 300G (4.7%, 5,276G)
AllInBot: 217G (3.4%, 217G)
