Final Bets: green - 15 bets for 7,005G (61.2%, x0.63); black - 5 bets for 4,438G (38.8%, x1.58)

green bets:
TheChainNerd: 1,000G (14.3%, 18,853G)
loveyouallfriends: 1,000G (14.3%, 13,617G)
randgridr: 1,000G (14.3%, 2,248G)
RaIshtar: 832G (11.9%, 832G)
TheMurkGnome: 540G (7.7%, 540G)
ayeayex3: 500G (7.1%, 1,575G)
dogsandcatsand: 496G (7.1%, 6,226G)
getthemoneyz: 396G (5.7%, 1,253,811G)
letdowncity: 380G (5.4%, 3,107G)
ColetteMSLP: 300G (4.3%, 2,794G)
maleblackfiora: 200G (2.9%, 1,228G)
datadrivenbot: 200G (2.9%, 63,504G)
izlude_: 150G (2.1%, 850G)
daveb_: 10G (0.1%, 957G)
cam_ATS: 1G (0.0%, 43,423G)

black bets:
DeathTaxesAndAnime: 2,827G (63.7%, 5,545G)
BirbBrainsBot: 1,000G (22.5%, 22,620G)
dantayystv: 411G (9.3%, 411G)
CosmicTactician: 100G (2.3%, 42,093G)
SephDarkheart: 100G (2.3%, 7,221G)
