Final Bets: white - 92 bets for 568,781G (47.3%, x1.12); brown - 70 bets for 634,839G (52.7%, x0.90)

white bets:
EnemyController: 111,111G (19.5%, 912,390G)
Zagorsek: 100,000G (17.6%, 494,276G)
toka222: 75,000G (13.2%, 247,744G)
BlackFireUK: 40,000G (7.0%, 92,871G)
cam_ATS: 21,160G (3.7%, 42,321G)
Evewho: 15,870G (2.8%, 31,741G)
old_overholt_: 15,000G (2.6%, 33,976G)
KasugaiRoastedPeas: 12,436G (2.2%, 12,436G)
ValtonZenola: 11,832G (2.1%, 11,832G)
Riot_Jayway: 11,111G (2.0%, 241,097G)
Digitalsocrates: 10,000G (1.8%, 38,411G)
TheGuesty: 10,000G (1.8%, 20,000G)
bruubarg: 10,000G (1.8%, 23,918G)
Laserman1000: 10,000G (1.8%, 50,000G)
Deathmaker06: 8,390G (1.5%, 8,390G)
Breakdown777: 7,369G (1.3%, 14,739G)
CapnChaos12: 5,041G (0.9%, 5,041G)
CelestialLancer: 5,000G (0.9%, 35,078G)
HASTERIOUS: 4,462G (0.8%, 44,621G)
RunicMagus: 4,000G (0.7%, 42,955G)
mistblade: 3,931G (0.7%, 3,931G)
CosmicTactician: 3,832G (0.7%, 7,664G)
nekojin: 3,396G (0.6%, 3,396G)
VolgraTheMoose: 3,389G (0.6%, 6,778G)
Lordminsc: 3,000G (0.5%, 12,824G)
Aldrammech: 2,918G (0.5%, 2,918G)
Strifu: 2,886G (0.5%, 2,886G)
solomongrundy85: 2,739G (0.5%, 2,739G)
letdowncity: 2,392G (0.4%, 11,964G)
ar_tactic: 2,000G (0.4%, 61,820G)
Kronikle: 2,000G (0.4%, 11,111G)
brokenknight201: 2,000G (0.4%, 10,668G)
Grandlanzer: 1,945G (0.3%, 1,945G)
UmaiJam: 1,842G (0.3%, 1,842G)
Jeeboheebo: 1,806G (0.3%, 1,806G)
DLJuggernaut: 1,712G (0.3%, 1,712G)
argentbast: 1,500G (0.3%, 1,500G)
Ungaiii: 1,416G (0.2%, 1,416G)
TheMM42: 1,410G (0.2%, 1,410G)
holyonline: 1,400G (0.2%, 1,400G)
helpimabug: 1,256G (0.2%, 1,256G)
lawnboxer: 1,240G (0.2%, 1,240G)
LAGBOT30000: 1,228G (0.2%, 1,228G)
metagameface: 1,228G (0.2%, 1,228G)
HaplessOne: 1,140G (0.2%, 1,140G)
Mermydon: 1,083G (0.2%, 1,083G)
roofiepops: 1,080G (0.2%, 1,080G)
BoneMiser: 1,018G (0.2%, 1,018G)
GrayGhostGaming: 1,000G (0.2%, 4,243G)
Magicandy: 1,000G (0.2%, 2,726G)
prince_rogers_nelson_: 1,000G (0.2%, 4,728G)
Firesheath: 1,000G (0.2%, 6,792G)
tinytittyfiend: 1,000G (0.2%, 19,270G)
rjA0zcOQ96: 1,000G (0.2%, 5,254G)
DavenIII: 1,000G (0.2%, 1,815G)
powergems: 1,000G (0.2%, 10,787G)
reddwind_: 1,000G (0.2%, 7,923G)
Flameatron: 1,000G (0.2%, 3,422G)
Zbgs: 1,000G (0.2%, 13,042G)
athros13: 1,000G (0.2%, 8,039G)
BuffaloCrunch: 913G (0.2%, 913G)
Tougou: 741G (0.1%, 741G)
nhammen: 686G (0.1%, 1,372G)
DeathTaxesAndAnime: 676G (0.1%, 676G)
reinoe: 600G (0.1%, 600G)
gooseyourself: 600G (0.1%, 600G)
E_Ballard: 536G (0.1%, 536G)
run_with_stone_GUNs: 500G (0.1%, 32,094G)
IphoneDarkness: 500G (0.1%, 1,398G)
DuraiPapers: 500G (0.1%, 2,180G)
killth3kid: 480G (0.1%, 480G)
CorpusCav: 452G (0.1%, 452G)
J2DaBibbles: 444G (0.1%, 444G)
MagicBottle: 420G (0.1%, 420G)
Ring_Wyrm: 400G (0.1%, 400G)
JumbocactuarX27: 400G (0.1%, 400G)
Soy_Soda_Pop: 335G (0.1%, 658G)
Sairentozon7: 316G (0.1%, 8,696G)
livvexx: 300G (0.1%, 2,293G)
GladiatorLupe: 300G (0.1%, 16,820G)
LunaArgenteus: 281G (0.0%, 281G)
FrostWalrusMan: 277G (0.0%, 277G)
ericzubat: 269G (0.0%, 269G)
Estan_AD: 250G (0.0%, 5,072G)
Drgnmstr366: 250G (0.0%, 4,140G)
josephiroth_143: 172G (0.0%, 172G)
fluffskull: 114G (0.0%, 2,402G)
FriendSquirrel: 100G (0.0%, 3,500G)
FoeSquirrel: 100G (0.0%, 4,315G)
datadrivenbot: 100G (0.0%, 44,718G)
Bioticism: 100G (0.0%, 11,280G)
kolding: 100G (0.0%, 100G)

brown bets:
RongRongArts: 395,957G (62.4%, 791,914G)
SkylerBunny: 85,504G (13.5%, 171,009G)
Mesmaster: 20,000G (3.2%, 96,900G)
Chronolynx42: 12,838G (2.0%, 25,677G)
Lydian_C: 9,571G (1.5%, 18,767G)
evdoggity: 8,268G (1.3%, 16,212G)
MrFlabyo: 7,561G (1.2%, 37,809G)
Carledo: 7,380G (1.2%, 61,501G)
fenaen: 7,000G (1.1%, 26,781G)
kaidykat: 5,000G (0.8%, 87,733G)
HaychDub: 5,000G (0.8%, 35,417G)
Zeroroute: 4,119G (0.6%, 40,412G)
mirapoix: 4,001G (0.6%, 4,001G)
Sye990: 3,926G (0.6%, 3,926G)
Shalloween: 3,752G (0.6%, 3,752G)
ZCKaiser: 3,562G (0.6%, 3,562G)
Nizaha: 3,001G (0.5%, 15,614G)
electric_algus: 3,000G (0.5%, 11,075G)
NWOW_44: 3,000G (0.5%, 30,164G)
Zachara: 2,967G (0.5%, 115,934G)
Chuckolator: 2,575G (0.4%, 52,152G)
Meta_Five: 2,500G (0.4%, 63,129G)
maakur_: 2,198G (0.3%, 2,198G)
Kellios11: 2,141G (0.3%, 4,282G)
Hamborn: 2,000G (0.3%, 72,826G)
lowlf: 1,842G (0.3%, 1,842G)
Yiroep2: 1,774G (0.3%, 1,774G)
sukotsuto: 1,500G (0.2%, 19,463G)
TheChainNerd: 1,498G (0.2%, 1,498G)
Rislyeu: 1,479G (0.2%, 2,958G)
nifboy: 1,450G (0.2%, 1,450G)
serperemagus: 1,316G (0.2%, 1,316G)
ALY327: 1,000G (0.2%, 36,500G)
HaateXIII: 1,000G (0.2%, 10,769G)
BirbBrainsBot: 1,000G (0.2%, 161,138G)
Lyner87: 1,000G (0.2%, 41,769G)
just_here2: 1,000G (0.2%, 9,749G)
benticore: 1,000G (0.2%, 3,432G)
NovaKnight21: 1,000G (0.2%, 15,899G)
sinnyil2: 824G (0.1%, 824G)
neocarbuncle: 501G (0.1%, 3,435G)
Dymntd: 500G (0.1%, 26,541G)
TeaTime29: 500G (0.1%, 12,092G)
JLinkletter: 500G (0.1%, 11,696G)
windsah: 500G (0.1%, 4,550G)
RageImmortaI: 500G (0.1%, 6,567G)
ColetteMSLP: 500G (0.1%, 3,923G)
actual_JP: 484G (0.1%, 484G)
Baron_von_Scrub: 448G (0.1%, 448G)
Lanshaft: 436G (0.1%, 436G)
DustBirdEX: 388G (0.1%, 388G)
dogsandcatsand: 380G (0.1%, 380G)
ForagerCats: 360G (0.1%, 360G)
Phi_Sig: 352G (0.1%, 352G)
phrossi_v: 348G (0.1%, 348G)
Oreo_Pizza: 344G (0.1%, 344G)
JoeykinsX: 304G (0.0%, 304G)
0v3rr8d: 300G (0.0%, 4,781G)
soren_of_tyto: 284G (0.0%, 284G)
DamnThatShark: 220G (0.0%, 220G)
ruebyy: 216G (0.0%, 216G)
biffcake01: 200G (0.0%, 2,222G)
ThrillhouseMAX: 150G (0.0%, 807G)
OverlordSS4: 100G (0.0%, 1,561G)
moocaotao: 100G (0.0%, 598G)
RampantMind: 100G (0.0%, 354G)
OtherBrand: 100G (0.0%, 5,126G)
MrMarkPolo: 100G (0.0%, 3,226G)
megaman2202: 100G (0.0%, 12,619G)
getthemoneyz: 20G (0.0%, 1,004,572G)
