Final Bets: green - 11 bets for 19,634G (72.2%, x0.38); yellow - 10 bets for 7,551G (27.8%, x2.60)

green bets:
Digitalsocrates: 12,991G (66.2%, 25,473G)
NovaKnight21: 1,303G (6.6%, 1,303G)
victoriolue: 1,149G (5.9%, 1,149G)
BirbBrainsBot: 1,000G (5.1%, 156,774G)
sinnyil2: 860G (4.4%, 860G)
serperemagus: 793G (4.0%, 793G)
getthemoneyz: 690G (3.5%, 1,031,298G)
CT_5_Holy: 328G (1.7%, 328G)
twelfthrootoftwo: 300G (1.5%, 2,663G)
Lydian_C: 120G (0.6%, 219,603G)
DeathTaxesAndAnime: 100G (0.5%, 4,915G)

yellow bets:
bruubarg: 2,222G (29.4%, 2,222G)
BlackFireUK: 1,000G (13.2%, 54,792G)
Mesmaster: 1,000G (13.2%, 33,084G)
ACSpree: 1,000G (13.2%, 9,976G)
prince_rogers_nelson_: 600G (7.9%, 600G)
gamesage53: 578G (7.7%, 578G)
neerrm: 500G (6.6%, 8,443G)
gorgewall: 301G (4.0%, 8,842G)
Lythe_Caraker: 250G (3.3%, 98,306G)
datadrivenbot: 100G (1.3%, 49,387G)
