Final Bets: white - 8 bets for 4,510G (26.2%, x2.82); black - 15 bets for 12,709G (73.8%, x0.35)

white bets:
DrAntiSocial: 1,376G (30.5%, 1,376G)
TheChainNerd: 1,000G (22.2%, 21,000G)
Aldrammech: 1,000G (22.2%, 32,336G)
DustBirdEX: 584G (12.9%, 584G)
aurosaerondo: 214G (4.7%, 214G)
Jinxzers: 136G (3.0%, 136G)
gr8keeper: 100G (2.2%, 1,169G)
datadrivenbot: 100G (2.2%, 26,710G)

black bets:
Zetchryn: 5,246G (41.3%, 5,246G)
coralreeferz: 1,350G (10.6%, 7,918G)
E_Ballard: 1,115G (8.8%, 1,115G)
BirbBrainsBot: 1,000G (7.9%, 8,680G)
skillomono: 1,000G (7.9%, 5,033G)
DavenIII: 550G (4.3%, 600G)
Just_Data: 500G (3.9%, 49,067G)
fenaen: 468G (3.7%, 468G)
jaik1231: 390G (3.1%, 781G)
NicoSavoy: 356G (2.8%, 356G)
benticore: 250G (2.0%, 1,197G)
getthemoneyz: 184G (1.4%, 748,862G)
AllInBot: 100G (0.8%, 100G)
Firesheath: 100G (0.8%, 1,316G)
zepharoth89: 100G (0.8%, 1,098G)
