Final Bets: purple - 13 bets for 6,728G (61.7%, x0.62); brown - 10 bets for 4,174G (38.3%, x1.61)

purple bets:
CorpusCav: 2,000G (29.7%, 127,749G)
skinny666: 1,000G (14.9%, 5,306G)
Runeseeker22: 905G (13.5%, 18,118G)
YowaneHaku: 500G (7.4%, 7,110G)
lowlf: 416G (6.2%, 416G)
scsuperstar: 322G (4.8%, 322G)
gorgewall: 301G (4.5%, 8,511G)
old_overholt_: 300G (4.5%, 7,075G)
Genkidou: 284G (4.2%, 284G)
AllInBot: 200G (3.0%, 200G)
NicoSavoy: 200G (3.0%, 226,046G)
datadrivenbot: 200G (3.0%, 86,439G)
J_52: 100G (1.5%, 1,487G)

brown bets:
BirbBrainsBot: 1,000G (24.0%, 100,942G)
KyleWonToLiveForever: 1,000G (24.0%, 3,612G)
Lionhermit: 500G (12.0%, 8,294G)
getthemoneyz: 454G (10.9%, 2,218,205G)
Jehudy7: 400G (9.6%, 5,833G)
squideater_: 300G (7.2%, 3,541G)
ValensEXP_: 200G (4.8%, 26,317G)
verythinice: 120G (2.9%, 120G)
DeathTaxesAndAnime: 100G (2.4%, 24,345G)
poisonous_thots: 100G (2.4%, 1,011G)
