Final Bets: red - 13 bets for 12,087G (63.1%, x0.58); blue - 13 bets for 7,069G (36.9%, x1.71)

red bets:
prince_rogers_nelson_: 3,000G (24.8%, 13,906G)
amiture: 2,000G (16.5%, 7,589G)
Hirameki85: 1,663G (13.8%, 1,663G)
SkylerBunny: 1,500G (12.4%, 59,035G)
AllInBot: 998G (8.3%, 998G)
MLWebz0r: 662G (5.5%, 662G)
readdesert: 550G (4.6%, 550G)
resjudicata3: 526G (4.4%, 526G)
superdevon1: 512G (4.2%, 17,093G)
TheseJeans: 200G (1.7%, 913G)
datadrivenbot: 200G (1.7%, 41,175G)
scottydeluxe: 176G (1.5%, 176G)
mrpickins: 100G (0.8%, 3,445G)

blue bets:
Laserman1000: 1,315G (18.6%, 1,315G)
getthemoneyz: 1,000G (14.1%, 1,379,955G)
BirbBrainsBot: 1,000G (14.1%, 56,979G)
douchetron: 825G (11.7%, 1,618G)
Cypruss904: 500G (7.1%, 2,479G)
josephiroth_143: 500G (7.1%, 4,206G)
reinoe: 500G (7.1%, 124,253G)
slotheye17: 428G (6.1%, 428G)
SUGRboi: 350G (5.0%, 7,916G)
Treafa: 250G (3.5%, 2,427G)
gorgewall: 201G (2.8%, 14,226G)
Firesheath: 100G (1.4%, 11,087G)
Grandlanzer: 100G (1.4%, 112,535G)
