Final Bets: purple - 18 bets for 22,440G (79.7%, x0.25); brown - 9 bets for 5,700G (20.3%, x3.94)

purple bets:
E_Ballard: 5,333G (23.8%, 5,333G)
Mesmaster: 4,000G (17.8%, 246,220G)
roqqqpsi: 3,837G (17.1%, 17,442G)
reinoe: 2,000G (8.9%, 18,785G)
Nizaha: 1,001G (4.5%, 8,359G)
red__lancer: 1,000G (4.5%, 101,362G)
twelfthrootoftwo: 1,000G (4.5%, 4,787G)
VolgraTheMoose: 966G (4.3%, 966G)
sinnyil2: 509G (2.3%, 28,043G)
killth3kid: 480G (2.1%, 8,739G)
GrayGhostGaming: 416G (1.9%, 416G)
Sairentozon7: 388G (1.7%, 388G)
roofiepops: 368G (1.6%, 368G)
muffin_money: 350G (1.6%, 8,659G)
Yiroep2: 300G (1.3%, 906G)
O_Heyno: 292G (1.3%, 292G)
datadrivenbot: 100G (0.4%, 47,031G)
Firesheath: 100G (0.4%, 2,523G)

brown bets:
DuraiPapers: 3,000G (52.6%, 32,308G)
BirbBrainsBot: 1,000G (17.5%, 78,289G)
DustBirdEX: 456G (8.0%, 2,798G)
GatsbysGhost: 300G (5.3%, 4,038G)
butterbelljedi: 232G (4.1%, 232G)
getthemoneyz: 212G (3.7%, 1,014,595G)
Evewho: 200G (3.5%, 5,347G)
BeyondWithinX: 200G (3.5%, 1,392G)
BlackfyreRoy: 100G (1.8%, 1,025G)
