Final Bets: green - 18 bets for 17,325G (64.0%, x0.56); yellow - 13 bets for 9,736G (36.0%, x1.78)

green bets:
rechaun: 10,476G (60.5%, 20,953G)
nifboy: 1,139G (6.6%, 1,139G)
mpghappiness: 1,001G (5.8%, 7,847G)
JumbocactuarX27: 1,000G (5.8%, 4,134G)
megaman2202: 750G (4.3%, 4,020G)
ugedakka: 529G (3.1%, 529G)
CorpusCav: 436G (2.5%, 436G)
TheChainNerd: 434G (2.5%, 2,434G)
AllInBot: 298G (1.7%, 298G)
CosmicTactician: 200G (1.2%, 5,164G)
actual_JP: 200G (1.2%, 3,894G)
Grandlanzer: 200G (1.2%, 9,804G)
pancake11112: 190G (1.1%, 190G)
maakur_: 100G (0.6%, 24,308G)
Chronolynx42: 100G (0.6%, 1,223G)
datadrivenbot: 100G (0.6%, 44,071G)
cam_ATS: 100G (0.6%, 33,435G)
getthemoneyz: 72G (0.4%, 974,216G)

yellow bets:
joewcarson: 2,000G (20.5%, 39,494G)
soren_of_tyto: 1,095G (11.2%, 1,095G)
prince_rogers_nelson_: 1,000G (10.3%, 8,741G)
red__lancer: 1,000G (10.3%, 93,764G)
EnemyController: 1,000G (10.3%, 611,929G)
serperemagus: 843G (8.7%, 843G)
Magicandy: 512G (5.3%, 1,024G)
fluffskull: 501G (5.1%, 501G)
NovaKnight21: 496G (5.1%, 496G)
DLJuggernaut: 424G (4.4%, 848G)
gorgewall: 401G (4.1%, 19,442G)
BirbBrainsBot: 364G (3.7%, 75,348G)
E_Ballard: 100G (1.0%, 9,106G)
