High Risers:
1. OneHundredFists: +29,984G
2. JethroThrul: +7,513G
3. WireLord: +3,024G
4. gorgewall: +2,224G
5. skinny666: +2,146G
6. E_Ballard: +1,728G
7. Sairentozon7: +1,473G
8. heropong: +1,171G
9. Eibons_book: +1,000G
10. Gilghana: +742G
11. reinoe: +232G
12. SensualOnix: +182G
13. DocZombiee: +149G
14. Deeps_one: +76G
15. MemoriesofFinal: +4G
16. lijarkh: +4G
17. MoonSugarFiend: -123G
18. ColetteMSLP: -168G
19. ruleof5: -200G
20. Willjin: -244G
21. NovaKnight21: -300G
22. VolgraTheMoose: -317G
23. reddwind_: -396G
24. CassiePhoenix: -400G
25. Genkidou: -500G
26. BoneMiser: -1,000G
27. LuckyLuckLuc2: -1,015G
28. IaibOaob: -1,122G
29. king_smashington: -1,811G
30. Evewho: -2,036G
31. HaplessOne: -3,333G
32. TheBrett: -3,696G
33. YowaneHaku: -4,444G
34. CorpusCav: -5,294G
35. Mushufasa_: -5,870G
36. NicoSavoy: -17,472G
