Final Bets: red - 20 bets for 7,606G (33.8%, x1.96); blue - 21 bets for 14,909G (66.2%, x0.51)

red bets:
HaplessOne: 1,111G (14.6%, 101,575G)
volgrathemoose: 842G (11.1%, 1,684G)
Baron_von_Scrub: 808G (10.6%, 808G)
Firesheath: 568G (7.5%, 568G)
GladiatorLupe: 500G (6.6%, 6,409G)
Evewho: 500G (6.6%, 3,140G)
Arcblazer23: 500G (6.6%, 4,670G)
BirbBrainsBot: 455G (6.0%, 104,412G)
helpimabug: 356G (4.7%, 356G)
getthemoneyz: 322G (4.2%, 679,484G)
otakutaylor: 300G (3.9%, 5,351G)
HaychDub: 300G (3.9%, 5,729G)
LionelParks: 224G (2.9%, 224G)
SamaelMerihem: 220G (2.9%, 220G)
StealthModeLocke: 100G (1.3%, 40,792G)
Error72: 100G (1.3%, 4,370G)
interalia: 100G (1.3%, 383G)
dude1ko: 100G (1.3%, 100G)
neocarbuncle: 100G (1.3%, 100G)
Meta_Five: 100G (1.3%, 9,915G)

blue bets:
Estan_AD: 3,415G (22.9%, 6,831G)
CCRUNNER149UWP: 2,717G (18.2%, 5,434G)
OneHundredFists: 2,683G (18.0%, 5,262G)
edgehead62888: 1,000G (6.7%, 4,801G)
argentbast: 500G (3.4%, 5,892G)
JLinkletter: 500G (3.4%, 4,000G)
CorpusCav: 450G (3.0%, 4,729G)
HaateXIII: 428G (2.9%, 428G)
ZZ_Yoshi: 400G (2.7%, 30,348G)
ApplesauceBoss: 368G (2.5%, 368G)
tronfonne: 359G (2.4%, 359G)
FriendSquirrel: 332G (2.2%, 332G)
vorap: 300G (2.0%, 48,598G)
Strifu: 236G (1.6%, 236G)
Lolprinze: 228G (1.5%, 228G)
itsZaes: 222G (1.5%, 1,254G)
bahamutlagooon: 208G (1.4%, 10,437G)
beneeto: 200G (1.3%, 200G)
ungabunga_bot: 163G (1.1%, 508,141G)
maakur_: 100G (0.7%, 2,437G)
datadrivenbot: 100G (0.7%, 19,078G)
