Final Bets: red - 17 bets for 10,655G (66.9%, x0.49); blue - 10 bets for 5,267G (33.1%, x2.02)

red bets:
OneHundredFists: 2,000G (18.8%, 51,352G)
Thyrandaal: 1,863G (17.5%, 1,863G)
HASTERIOUS: 1,210G (11.4%, 1,210G)
BirbBrainsBot: 1,000G (9.4%, 157,015G)
Digitalsocrates: 1,000G (9.4%, 38,514G)
TheMM42: 1,000G (9.4%, 17,381G)
Laserman1000: 508G (4.8%, 20,208G)
DLJuggernaut: 464G (4.4%, 2,323G)
gorgewall: 301G (2.8%, 16,939G)
HaychDub: 300G (2.8%, 26,458G)
Grandlanzer: 200G (1.9%, 5,352G)
ScarletSpiderBen: 200G (1.9%, 3,281G)
twelfthrootoftwo: 200G (1.9%, 4,988G)
getthemoneyz: 138G (1.3%, 930,233G)
LAGBOT30000: 121G (1.1%, 1,211G)
datadrivenbot: 100G (0.9%, 36,406G)
cougboi: 50G (0.5%, 18,735G)

blue bets:
Evewho: 1,034G (19.6%, 1,034G)
metagameface: 939G (17.8%, 939G)
superdevon1: 789G (15.0%, 3,159G)
kaelsun: 697G (13.2%, 697G)
EnemyController: 500G (9.5%, 576,612G)
Aka_Gilly: 500G (9.5%, 55,839G)
NicoSavoy: 308G (5.8%, 308G)
Rytor: 200G (3.8%, 3,531G)
kaidykat: 200G (3.8%, 29,725G)
AllInBot: 100G (1.9%, 100G)
