Final Bets: blue - 10 bets for 19,013G (61.5%, x0.63); yellow - 13 bets for 11,896G (38.5%, x1.60)

blue bets:
CorpusCav: 10,000G (52.6%, 132,311G)
Runeseeker22: 4,670G (24.6%, 18,683G)
verythinice: 2,470G (13.0%, 4,844G)
squideater_: 500G (2.6%, 5,595G)
AbandonedHall: 288G (1.5%, 288G)
Genkidou: 284G (1.5%, 740G)
gorgewall: 201G (1.1%, 8,184G)
chrisk103: 200G (1.1%, 8,910G)
datadrivenbot: 200G (1.1%, 87,486G)
ValensEXP_: 200G (1.1%, 27,821G)

yellow bets:
DeathTaxesAndAnime: 6,971G (58.6%, 13,670G)
BirbBrainsBot: 1,000G (8.4%, 94,670G)
skinny666: 1,000G (8.4%, 2,691G)
Sairentozon7: 708G (6.0%, 708G)
Lionhermit: 500G (4.2%, 7,695G)
DustBirdEX: 440G (3.7%, 440G)
powergems: 333G (2.8%, 15,539G)
AllInBot: 200G (1.7%, 200G)
NicoSavoy: 200G (1.7%, 233,270G)
poisonous_thots: 200G (1.7%, 691G)
getthemoneyz: 144G (1.2%, 2,216,981G)
chaosdesigned: 100G (0.8%, 3,514G)
MrJamDango: 100G (0.8%, 5,435G)
