Final Bets: black - 11 bets for 11,267G (58.2%, x0.72); purple - 11 bets for 8,083G (41.8%, x1.39)

black bets:
bruubarg: 5,000G (44.4%, 23,546G)
twelfthrootoftwo: 1,806G (16.0%, 1,806G)
NIghtdew14: 1,080G (9.6%, 2,161G)
BirbBrainsBot: 1,000G (8.9%, 190,567G)
pplvee1: 541G (4.8%, 541G)
prince_rogers_nelson_: 432G (3.8%, 432G)
letdowncity: 420G (3.7%, 2,547G)
randgridr: 356G (3.2%, 356G)
Error72: 304G (2.7%, 304G)
getthemoneyz: 278G (2.5%, 1,303,715G)
DouglasDragonThePoet: 50G (0.4%, 467G)

purple bets:
TheChainNerd: 4,564G (56.5%, 30,433G)
Nickyfive: 1,500G (18.6%, 18,320G)
DustBirdEX: 559G (6.9%, 9,551G)
boosted420: 300G (3.7%, 994G)
Xoomwaffle: 236G (2.9%, 236G)
JLinkletter: 204G (2.5%, 204G)
AllInBot: 200G (2.5%, 200G)
datadrivenbot: 200G (2.5%, 28,438G)
skipsandwiches: 120G (1.5%, 120G)
VolgraTheMoose: 100G (1.2%, 5,309G)
CosmicTactician: 100G (1.2%, 42,489G)
