Final Bets: white - 31 bets for 60,642G (27.6%, x2.62); black - 8 bets for 158,996G (72.4%, x0.38)

white bets:
Mesmaster: 16,025G (26.4%, 16,025G)
nhammen: 15,000G (24.7%, 52,022G)
Thyrandaal: 10,000G (16.5%, 359,235G)
roofiepops: 3,960G (6.5%, 3,960G)
Kronikle: 1,500G (2.5%, 16,979G)
BirbBrainsBot: 1,000G (1.6%, 40,413G)
Smashy: 1,000G (1.6%, 2,313G)
flacococo: 1,000G (1.6%, 13,787G)
Sairentozon7: 1,000G (1.6%, 30,520G)
Tarheels218: 1,000G (1.6%, 2,378G)
sinnyil2: 952G (1.6%, 952G)
Zeroroute: 852G (1.4%, 2,664G)
killth3kid: 752G (1.2%, 20,945G)
just_here2: 600G (1.0%, 44,151G)
douchetron: 600G (1.0%, 600G)
Phi_Sig: 555G (0.9%, 120,539G)
reddwind_: 536G (0.9%, 536G)
getthemoneyz: 512G (0.8%, 1,661,847G)
CapnChaos12: 500G (0.8%, 14,344G)
CosmicTactician: 500G (0.8%, 26,476G)
powergems: 500G (0.8%, 1,539G)
HaateXIII: 500G (0.8%, 3,486G)
dark_god_Uthuru: 372G (0.6%, 372G)
PuzzleSecretary: 261G (0.4%, 261G)
Amorial: 240G (0.4%, 240G)
Skjodo: 213G (0.4%, 213G)
JCBoorgo: 200G (0.3%, 1,423G)
datadrivenbot: 200G (0.3%, 66,977G)
AllInBot: 112G (0.2%, 112G)
Aldrammech: 100G (0.2%, 31,722G)
FFMaster: 100G (0.2%, 100G)

black bets:
reinoe: 153,277G (96.4%, 153,277G)
KasugaiRoastedPeas: 2,004G (1.3%, 2,004G)
MagicBottle: 1,249G (0.8%, 1,249G)
Panushenko: 1,229G (0.8%, 1,229G)
dogsandcatsand: 736G (0.5%, 736G)
resjudicata3: 300G (0.2%, 2,443G)
gorgewall: 101G (0.1%, 5,520G)
MinBetBot: 100G (0.1%, 7,499G)
