Final Bets: red - 8 bets for 10,726G (34.4%, x1.91); purple - 23 bets for 20,444G (65.6%, x0.52)

red bets:
SkylerBunny: 5,244G (48.9%, 5,244G)
Zeroroute: 3,608G (33.6%, 12,443G)
DustBirdEX: 1,123G (10.5%, 2,247G)
Tarheels218: 296G (2.8%, 4,867G)
AllInBot: 154G (1.4%, 154G)
gorgewall: 101G (0.9%, 6,254G)
Aldrammech: 100G (0.9%, 32,260G)
CosmicTactician: 100G (0.9%, 28,768G)

purple bets:
Panushenko: 4,451G (21.8%, 4,451G)
Mesmaster: 3,188G (15.6%, 3,188G)
dogsandcatsand: 2,003G (9.8%, 2,003G)
reinoe: 1,540G (7.5%, 1,540G)
BirbBrainsBot: 1,000G (4.9%, 41,337G)
ColetteMSLP: 1,000G (4.9%, 24,017G)
nhammen: 1,000G (4.9%, 84,247G)
Sairentozon7: 1,000G (4.9%, 29,060G)
douchetron: 924G (4.5%, 924G)
MagicBottle: 600G (2.9%, 600G)
just_here2: 600G (2.9%, 44,882G)
Smashy: 500G (2.4%, 3,833G)
JCBoorgo: 379G (1.9%, 3,795G)
getthemoneyz: 376G (1.8%, 1,663,011G)
PuzzleSecretary: 350G (1.7%, 605G)
CapnChaos12: 300G (1.5%, 16,428G)
FFMaster: 300G (1.5%, 1,789G)
butterbelljedi: 300G (1.5%, 7,101G)
datadrivenbot: 200G (1.0%, 67,162G)
daveb_: 133G (0.7%, 4,550G)
MinBetBot: 100G (0.5%, 7,660G)
Thyrandaal: 100G (0.5%, 470,985G)
Valgram: 100G (0.5%, 1,446G)
