Final Bets: purple - 25 bets for 10,119G (35.2%, x1.84); brown - 8 bets for 18,597G (64.8%, x0.54)

purple bets:
roofiepops: 1,400G (13.8%, 4,059G)
BirbBrainsBot: 1,000G (9.9%, 83,638G)
getthemoneyz: 1,000G (9.9%, 823,784G)
Vagrance: 942G (9.3%, 942G)
Rislyeu: 524G (5.2%, 524G)
EnemyController: 500G (4.9%, 547,578G)
JLinkletter: 500G (4.9%, 2,315G)
Baron_von_Scrub: 474G (4.7%, 36,084G)
DLJuggernaut: 400G (4.0%, 2,750G)
benticore: 368G (3.6%, 368G)
gorgewall: 356G (3.5%, 356G)
DustBirdEX: 324G (3.2%, 324G)
Oobs56: 300G (3.0%, 300G)
DAC169: 299G (3.0%, 299G)
Anak761: 250G (2.5%, 7,349G)
BlackJack3D6: 228G (2.3%, 228G)
ivellioz: 216G (2.1%, 216G)
Grandlanzer: 200G (2.0%, 2,861G)
ChronoG: 200G (2.0%, 3,176G)
Flameatron: 200G (2.0%, 2,192G)
Miku_Shikhu: 116G (1.1%, 116G)
Kalabain: 112G (1.1%, 112G)
Evewho: 100G (1.0%, 14,163G)
datadrivenbot: 100G (1.0%, 33,101G)
TheMM42: 10G (0.1%, 5,904G)

brown bets:
DeathTaxesAndAnime: 11,289G (60.7%, 22,136G)
cogniv0r3: 2,310G (12.4%, 2,310G)
Digitalsocrates: 1,602G (8.6%, 1,602G)
sinnyil2: 1,200G (6.5%, 9,761G)
nifboy: 1,000G (5.4%, 40,056G)
gogofromtogo: 596G (3.2%, 596G)
Rytor: 500G (2.7%, 18,707G)
CosmicTactician: 100G (0.5%, 17,534G)
