Final Bets: blue - 9 bets for 5,926G (41.3%, x1.42); yellow - 15 bets for 8,434G (58.7%, x0.70)

blue bets:
Mesmaster: 2,000G (33.7%, 80,687G)
Lydian_C: 1,200G (20.2%, 33,676G)
latebit: 1,200G (20.2%, 62,964G)
Raixelol: 348G (5.9%, 1,901G)
getthemoneyz: 318G (5.4%, 1,801,482G)
rocl: 228G (3.8%, 73,409G)
Greggernaut: 224G (3.8%, 224G)
minorfffanatic1: 208G (3.5%, 208G)
BaronHaynes: 200G (3.4%, 57,590G)

yellow bets:
thunderducker: 1,342G (15.9%, 6,713G)
pepperbuster: 1,000G (11.9%, 4,000G)
BirbBrainsBot: 1,000G (11.9%, 26,957G)
helpimabug: 870G (10.3%, 1,740G)
calle888: 759G (9.0%, 759G)
ColetteMSLP: 705G (8.4%, 705G)
NicoSavoy: 536G (6.4%, 536G)
Firesheath: 504G (6.0%, 504G)
douchetron: 434G (5.1%, 434G)
Leonidusx: 414G (4.9%, 414G)
krombobreaker: 256G (3.0%, 11,747G)
RobotOcelot: 213G (2.5%, 4,269G)
datadrivenbot: 200G (2.4%, 65,999G)
gorgewall: 101G (1.2%, 3,347G)
Yangusburger: 100G (1.2%, 1,971G)
