Final Bets: purple - 24 bets for 17,014G (86.2%, x0.16); brown - 9 bets for 2,721G (13.8%, x6.25)

purple bets:
EnemyController: 5,000G (29.4%, 587,554G)
Thyrandaal: 2,000G (11.8%, 59,618G)
NovaKnight21: 1,476G (8.7%, 2,953G)
killth3kid: 1,288G (7.6%, 12,884G)
OppressivelyMinty: 1,000G (5.9%, 3,254G)
Draconis345: 1,000G (5.9%, 54,841G)
HASTERIOUS: 899G (5.3%, 44,984G)
ColetteMSLP: 623G (3.7%, 623G)
fenaen: 600G (3.5%, 35,404G)
TheChainNerd: 500G (2.9%, 2,000G)
getthemoneyz: 468G (2.8%, 959,230G)
Baron_von_Scrub: 404G (2.4%, 404G)
d4rr1n: 300G (1.8%, 8,775G)
fluffskull: 252G (1.5%, 252G)
Azelgrim: 204G (1.2%, 204G)
CT_5_Holy: 200G (1.2%, 910G)
Ring_Wyrm: 100G (0.6%, 3,766G)
Avin_Chaos: 100G (0.6%, 16,703G)
Firesheath: 100G (0.6%, 9,625G)
ANFz: 100G (0.6%, 4,175G)
Quadh0nk: 100G (0.6%, 2,589G)
datadrivenbot: 100G (0.6%, 38,960G)
just_here2: 100G (0.6%, 8,820G)
IphoneDarkness: 100G (0.6%, 3,939G)

brown bets:
BirbBrainsBot: 553G (20.3%, 23,945G)
shs_: 500G (18.4%, 12,564G)
reinoe: 500G (18.4%, 11,444G)
dogsandcatsand: 352G (12.9%, 352G)
benticore: 292G (10.7%, 5,845G)
Yiroep2: 224G (8.2%, 224G)
AllInBot: 100G (3.7%, 100G)
nifboy: 100G (3.7%, 3,203G)
Koorndog: 100G (3.7%, 609G)
