Final Bets: blue - 13 bets for 9,345G (57.3%, x0.75); purple - 12 bets for 6,971G (42.7%, x1.34)

blue bets:
SkylerBunny: 2,500G (26.8%, 86,092G)
Aldrammech: 1,001G (10.7%, 1,001G)
Laserman1000: 928G (9.9%, 928G)
randgridr: 858G (9.2%, 858G)
Forkmore: 777G (8.3%, 24,450G)
E_Ballard: 764G (8.2%, 764G)
Lydian_C: 670G (7.2%, 1,646G)
sinnyil2: 555G (5.9%, 2,233G)
coralreeferz: 528G (5.7%, 5,546G)
Chambs12: 264G (2.8%, 1,011G)
datadrivenbot: 200G (2.1%, 46,023G)
ArlanKels: 200G (2.1%, 1,646G)
Firesheath: 100G (1.1%, 3,423G)

purple bets:
douchetron: 1,504G (21.6%, 1,504G)
ColetteMSLP: 1,000G (14.3%, 23,299G)
BirbBrainsBot: 1,000G (14.3%, 121,875G)
KidaCray: 820G (11.8%, 820G)
RunicMagus: 500G (7.2%, 2,683G)
maximumcrit: 500G (7.2%, 11,542G)
Zagorsek: 426G (6.1%, 853G)
prince_rogers_nelson_: 404G (5.8%, 404G)
getthemoneyz: 216G (3.1%, 1,464,166G)
gorgewall: 201G (2.9%, 11,289G)
AllInBot: 200G (2.9%, 200G)
kahjeethaswares: 200G (2.9%, 5,734G)
