Final Bets: red - 10 bets for 8,088G (41.2%, x1.43); white - 23 bets for 11,544G (58.8%, x0.70)

red bets:
JumbocactuarX27: 2,344G (29.0%, 2,344G)
TheChainNerd: 1,781G (22.0%, 8,485G)
kai_shee: 1,001G (12.4%, 130,340G)
volgrathemoose: 1,001G (12.4%, 8,269G)
MoonSlayerRS: 553G (6.8%, 553G)
nifboy: 500G (6.2%, 10,723G)
nomoment: 332G (4.1%, 332G)
waterwatereverywhere: 320G (4.0%, 320G)
MirtaiAtana: 156G (1.9%, 156G)
DrAntiSocial: 100G (1.2%, 1,529G)

white bets:
mexskacin: 1,617G (14.0%, 1,617G)
BirbBrainsBot: 1,000G (8.7%, 59,328G)
catfashions: 1,000G (8.7%, 4,914G)
arch8000: 1,000G (8.7%, 5,699G)
Laserman1000: 974G (8.4%, 18,874G)
joewcarson: 910G (7.9%, 910G)
datadrivenbot: 825G (7.1%, 22,527G)
RubenFlonne: 693G (6.0%, 693G)
SomeCallMeGON: 600G (5.2%, 6,140G)
NovaKnight21: 600G (5.2%, 3,109G)
Draconis345: 500G (4.3%, 5,056G)
ZephyrTempest: 318G (2.8%, 51,410G)
Kobold_Jager: 250G (2.2%, 2,917G)
Jennero: 204G (1.8%, 204G)
sandball: 200G (1.7%, 2,743G)
getthemoneyz: 146G (1.3%, 471,346G)
AllInBot: 130G (1.1%, 130G)
wollise89: 100G (0.9%, 822G)
Sauroc: 100G (0.9%, 4,946G)
maakur_: 100G (0.9%, 4,214G)
IndecisiveNinja: 100G (0.9%, 5,176G)
Slowbrofist: 100G (0.9%, 1,387G)
Ross_from_Cali: 77G (0.7%, 2,624G)
