Final Bets: white - 19 bets for 12,720G (39.4%, x1.54); black - 14 bets for 19,568G (60.6%, x0.65)

white bets:
moonliquor: 2,364G (18.6%, 2,364G)
Grimmace45: 1,798G (14.1%, 17,984G)
NicoSavoy: 1,142G (9.0%, 1,142G)
HaplessOne: 1,111G (8.7%, 15,009G)
concles: 1,000G (7.9%, 17,340G)
Estan_AD: 1,000G (7.9%, 24,198G)
Mesmaster: 1,000G (7.9%, 67,909G)
superdevon1: 739G (5.8%, 2,958G)
DeathTaxesAndAnime: 504G (4.0%, 504G)
Baron_von_Scrub: 474G (3.7%, 13,443G)
ungabunga_bot: 337G (2.6%, 429,587G)
timthehoodie: 250G (2.0%, 1,786G)
gorgewall: 201G (1.6%, 8,191G)
cupholderr: 200G (1.6%, 2,000G)
theNGUYENNER: 200G (1.6%, 7,314G)
ApplesauceBoss: 100G (0.8%, 9,535G)
datadrivenbot: 100G (0.8%, 12,580G)
ZZ_Yoshi: 100G (0.8%, 2,003G)
FoeSquirrel: 100G (0.8%, 7,826G)

black bets:
Ungaiii: 9,424G (48.2%, 9,424G)
HaateXIII: 2,290G (11.7%, 4,491G)
reinoe: 2,000G (10.2%, 19,014G)
LDSkinny: 1,000G (5.1%, 30,974G)
BirbBrainsBot: 1,000G (5.1%, 163,758G)
getthemoneyz: 758G (3.9%, 654,658G)
ko2q: 724G (3.7%, 724G)
sinnyil2: 600G (3.1%, 11,422G)
shs_: 500G (2.6%, 9,501G)
wisponp: 484G (2.5%, 484G)
Oobs56: 300G (1.5%, 2,682G)
Kyune: 288G (1.5%, 288G)
victoriolue: 100G (0.5%, 2,110G)
chaotic_prodigy: 100G (0.5%, 100G)
