Final Bets: red - 12 bets for 4,384G (36.4%, x1.74); champion - 12 bets for 7,645G (63.6%, x0.57)

red bets:
ll_aja_ll: 1,000G (22.8%, 2,500G)
HaplessOne: 604G (13.8%, 81,204G)
Anethum: 597G (13.6%, 597G)
Oreo_Pizza: 500G (11.4%, 14,137G)
ThePuss: 500G (11.4%, 1,461G)
Estan_AD: 313G (7.1%, 313G)
LordMaxoss: 216G (4.9%, 216G)
Anox_Skell: 200G (4.6%, 413G)
GrandmasterFrankerZ: 200G (4.6%, 3,836G)
fuukatron: 104G (2.4%, 104G)
Evewho: 100G (2.3%, 2,187G)
madman66666: 50G (1.1%, 378G)

champion bets:
JackOnFire1: 2,636G (34.5%, 10,546G)
sinnyil2: 1,200G (15.7%, 34,091G)
BirbBrainsBot: 1,000G (13.1%, 199,121G)
ungabunga_bot: 1,000G (13.1%, 166,491G)
ZephyrTempest: 331G (4.3%, 86,154G)
mastershango: 325G (4.3%, 325G)
NovaKnight21: 308G (4.0%, 308G)
itzover9001: 232G (3.0%, 232G)
Chuckolator: 214G (2.8%, 5,997G)
L2_Sentinel: 200G (2.6%, 23,193G)
jjones032109: 100G (1.3%, 1,040G)
datadrivenbot: 99G (1.3%, 100G)
