Final Bets: red - 18 bets for 18,302G (57.5%, x0.74); green - 18 bets for 13,547G (42.5%, x1.35)

red bets:
E_Ballard: 7,896G (43.1%, 7,896G)
DavenIII: 3,500G (19.1%, 17,024G)
proper__noun__: 1,683G (9.2%, 3,367G)
Lionhermit: 1,000G (5.5%, 39,464G)
CorpusCav: 700G (3.8%, 5,296G)
HaplessOne: 666G (3.6%, 2,940G)
cupholderr: 500G (2.7%, 46,335G)
Baron_von_Scrub: 474G (2.6%, 9,069G)
Boultson1337: 400G (2.2%, 850G)
ApplesauceBoss: 304G (1.7%, 304G)
DeathTaxesAndAnime: 300G (1.6%, 3,051G)
HaychDub: 250G (1.4%, 6,097G)
ungabunga_bot: 129G (0.7%, 454,176G)
RunicMagus: 100G (0.5%, 51,057G)
rjA0zcOQ96: 100G (0.5%, 13,168G)
mannequ1n: 100G (0.5%, 4,080G)
yetichamp: 100G (0.5%, 400G)
CosmicTactician: 100G (0.5%, 12,059G)

green bets:
HaateXIII: 2,665G (19.7%, 5,227G)
killth3kid: 2,000G (14.8%, 86,356G)
mpghappiness: 1,674G (12.4%, 1,674G)
toka222: 1,200G (8.9%, 14,210G)
Grimmace45: 1,175G (8.7%, 39,192G)
nifboy: 1,000G (7.4%, 3,312G)
BirbBrainsBot: 1,000G (7.4%, 190,299G)
ColetteMSLP: 600G (4.4%, 34,769G)
getthemoneyz: 564G (4.2%, 670,234G)
RoboticNomad: 400G (3.0%, 1,754G)
DustBirdEX: 345G (2.5%, 7,227G)
CapnChaos12: 320G (2.4%, 320G)
CrownOfHorns: 104G (0.8%, 104G)
Jeeboheebo: 100G (0.7%, 4,844G)
gggamezzz: 100G (0.7%, 2,045G)
datadrivenbot: 100G (0.7%, 12,385G)
brokenknight201: 100G (0.7%, 1,496G)
Communis: 100G (0.7%, 624G)
