Final Bets: white - 18 bets for 8,732G (38.9%, x1.57); black - 22 bets for 13,688G (61.1%, x0.64)

white bets:
Zeroroute: 1,187G (13.6%, 1,187G)
JonnyCue: 1,000G (11.5%, 36,661G)
OmnibotGamma: 1,000G (11.5%, 2,484G)
Shalloween: 1,000G (11.5%, 39,361G)
volgrathemoose: 1,000G (11.5%, 9,654G)
alrightbye: 935G (10.7%, 46,793G)
ColetteMSLP: 500G (5.7%, 20,927G)
feDoran: 400G (4.6%, 7,217G)
jaylyyy: 300G (3.4%, 307G)
nedryerson01: 300G (3.4%, 1,972G)
nifboy: 260G (3.0%, 6,521G)
duskps: 200G (2.3%, 8,855G)
EnemyController: 200G (2.3%, 83,497G)
AllInBot: 100G (1.1%, 100G)
MMagnetMan: 100G (1.1%, 100G)
Evewho: 100G (1.1%, 1,535G)
datadrivenbot: 100G (1.1%, 1,879G)
DrAntiSocial: 50G (0.6%, 23,803G)

black bets:
Pie108: 2,000G (14.6%, 95,461G)
Lordminsc: 1,505G (11.0%, 53,403G)
fenaen: 1,500G (11.0%, 56,320G)
BirbBrainsBot: 1,000G (7.3%, 150,226G)
JumbocactuarX27: 1,000G (7.3%, 3,216G)
MantisFinch: 1,000G (7.3%, 14,435G)
ungabunga_bot: 829G (6.1%, 215,551G)
avathesunqueen: 810G (5.9%, 810G)
SquidgyXom: 752G (5.5%, 3,761G)
TheGuesty: 500G (3.7%, 24,694G)
XalSmellsBad: 500G (3.7%, 13,204G)
xYungAnarchyx: 458G (3.3%, 458G)
getthemoneyz: 320G (2.3%, 566,884G)
Nizaha: 301G (2.2%, 14,503G)
perce90: 300G (2.2%, 809G)
ko2q: 200G (1.5%, 4,354G)
DonCardenio: 200G (1.5%, 5,057G)
summmmmmmmmm: 112G (0.8%, 112G)
ZephyrTempest: 101G (0.7%, 181,005G)
Ashintar: 100G (0.7%, 207G)
monkgonnacarry: 100G (0.7%, 1,790G)
CandyTamer: 100G (0.7%, 1,041G)
