Final Bets: white - 19 bets for 6,710G (17.2%, x4.83); black - 16 bets for 32,415G (82.8%, x0.21)

white bets:
BirbBrainsBot: 1,000G (14.9%, 82,943G)
Evewho: 1,000G (14.9%, 1,719G)
Mesmaster: 1,000G (14.9%, 94,630G)
BStarTV: 500G (7.5%, 8,712G)
actual_JP: 464G (6.9%, 464G)
EnemyController: 400G (6.0%, 622,232G)
triniculo: 268G (4.0%, 268G)
DuraiPapers: 264G (3.9%, 264G)
getthemoneyz: 258G (3.8%, 981,376G)
butterbelljedi: 250G (3.7%, 6,978G)
muffin_money: 250G (3.7%, 13,386G)
Magicandy: 200G (3.0%, 4,442G)
old_overholt_: 200G (3.0%, 33,855G)
AllInBot: 157G (2.3%, 157G)
E_Ballard: 100G (1.5%, 10,521G)
ThisGuyLovesMath: 100G (1.5%, 100G)
ANFz: 100G (1.5%, 2,169G)
twelfthrootoftwo: 100G (1.5%, 800G)
CorpusCav: 99G (1.5%, 1,146G)

black bets:
BoneMiser: 10,882G (33.6%, 10,882G)
VolgraTheMoose: 5,001G (15.4%, 44,516G)
moonliquor: 5,000G (15.4%, 6,189G)
Virilikus: 3,000G (9.3%, 158,627G)
OneHundredFists: 2,850G (8.8%, 2,850G)
YaBoy125: 1,655G (5.1%, 55,195G)
Laserman1000: 1,373G (4.2%, 2,746G)
Digitalsocrates: 1,000G (3.1%, 51,701G)
Rytor: 445G (1.4%, 445G)
gorgewall: 401G (1.2%, 15,548G)
Kronikle: 200G (0.6%, 19,638G)
ericzubat: 188G (0.6%, 188G)
itsadud: 120G (0.4%, 120G)
Firesheath: 100G (0.3%, 14,447G)
Gatsbysghost: 100G (0.3%, 100G)
IphoneDarkness: 100G (0.3%, 3,272G)
