Final Bets: white - 13 bets for 14,514G (56.0%, x0.79); brown - 19 bets for 11,423G (44.0%, x1.27)

white bets:
Thyrandaal: 5,000G (34.4%, 52,124G)
NicoSavoy: 2,679G (18.5%, 2,679G)
BaronHaynes: 1,000G (6.9%, 59,412G)
BirbBrainsBot: 1,000G (6.9%, 14,303G)
DavenIII: 1,000G (6.9%, 2,786G)
Aldrammech: 918G (6.3%, 918G)
E_Ballard: 824G (5.7%, 85,322G)
thunderducker: 672G (4.6%, 672G)
Phi_Sig: 555G (3.8%, 55,110G)
poorest_hobo: 308G (2.1%, 308G)
Vahn_Blade: 200G (1.4%, 22,475G)
minorfffanatic1: 186G (1.3%, 686G)
getthemoneyz: 172G (1.2%, 1,798,670G)

brown bets:
sinnyil2: 3,244G (28.4%, 6,488G)
Mesmaster: 2,000G (17.5%, 100,888G)
Mudrockk: 1,000G (8.8%, 17,595G)
AniZero: 666G (5.8%, 17,388G)
Leonidusx: 660G (5.8%, 660G)
ANFz: 500G (4.4%, 6,474G)
CorpusCav: 500G (4.4%, 5,761G)
Smashy: 500G (4.4%, 5,103G)
reinoe: 500G (4.4%, 36,508G)
Greggernaut: 415G (3.6%, 415G)
pepperbuster: 273G (2.4%, 273G)
krombobreaker: 252G (2.2%, 6,674G)
datadrivenbot: 200G (1.8%, 65,107G)
AltimaMantoid: 200G (1.8%, 2,200G)
Zerguzen: 112G (1.0%, 112G)
gorgewall: 101G (0.9%, 4,795G)
Kellios11: 100G (0.9%, 3,556G)
RagequitSA: 100G (0.9%, 1,536G)
RunicMagus: 100G (0.9%, 3,090G)
