Final Bets: white - 14 bets for 5,312G (24.7%, x3.05); black - 30 bets for 16,188G (75.3%, x0.33)

white bets:
BirbBrainsBot: 1,000G (18.8%, 91,643G)
SeriousFaceFace: 1,000G (18.8%, 10,344G)
getthemoneyz: 572G (10.8%, 544,332G)
SquidgyXom: 500G (9.4%, 22,249G)
JumbocactuarX27: 500G (9.4%, 11,299G)
Shalloween: 300G (5.6%, 51,110G)
DLJuggernaut: 300G (5.6%, 17,951G)
alrightbye: 290G (5.5%, 29,040G)
Tekenu: 250G (4.7%, 1,943G)
KasugaiRoastedPeas: 200G (3.8%, 8,894G)
AllInBot: 100G (1.9%, 100G)
ANFz: 100G (1.9%, 14,903G)
IndecisiveNinja: 100G (1.9%, 121,737G)
rico_flex: 100G (1.9%, 13,113G)

black bets:
JonnyCue: 2,000G (12.4%, 10,802G)
kai_shee: 2,000G (12.4%, 136,704G)
sinnyil2: 1,300G (8.0%, 108,621G)
fenaen: 1,001G (6.2%, 36,313G)
Pie108: 1,000G (6.2%, 62,606G)
ShintaroNayaka: 1,000G (6.2%, 19,322G)
roofiepops: 1,000G (6.2%, 6,313G)
Sans_from_Snowdin: 988G (6.1%, 988G)
leakimiko: 702G (4.3%, 11,709G)
ko2q: 516G (3.2%, 516G)
sparsuvar: 500G (3.1%, 1,684G)
Laserman1000: 500G (3.1%, 20,600G)
VanishMantle: 420G (2.6%, 420G)
catfashions: 400G (2.5%, 5,594G)
Justice0320: 380G (2.3%, 3,802G)
TheChainNerd: 316G (2.0%, 316G)
joewcarson: 316G (2.0%, 316G)
killth3kid: 288G (1.8%, 3,163G)
Ant_ihistamine: 252G (1.6%, 252G)
Nizaha: 201G (1.2%, 2,497G)
EnemyController: 200G (1.2%, 65,525G)
regios91: 176G (1.1%, 176G)
ungabunga_bot: 108G (0.7%, 209,362G)
ZephyrTempest: 101G (0.6%, 166,301G)
Tithonus: 100G (0.6%, 3,759G)
CapnSauce420: 100G (0.6%, 100G)
datadrivenbot: 100G (0.6%, 1,481G)
glastonberry48: 100G (0.6%, 2,549G)
Overglock: 100G (0.6%, 100G)
roqqqpsi: 23G (0.1%, 1,178G)
