Final Bets: red - 18 bets for 6,609G (50.3%, x0.99); blue - 14 bets for 6,537G (49.7%, x1.01)

red bets:
BirbBrainsBot: 807G (12.2%, 41,709G)
VolgraTheMoose: 806G (12.2%, 806G)
CT_5_Holy: 606G (9.2%, 606G)
reinoe: 600G (9.1%, 600G)
Laserman1000: 554G (8.4%, 5,954G)
amiture: 500G (7.6%, 6,789G)
CosmicTactician: 500G (7.6%, 21,640G)
Shalloween: 400G (6.1%, 77,241G)
Rislyeu: 344G (5.2%, 344G)
getthemoneyz: 328G (5.0%, 1,068,663G)
benticore: 250G (3.8%, 9,927G)
Nizaha: 201G (3.0%, 8,975G)
Evewho: 200G (3.0%, 7,257G)
cactus_tony_: 108G (1.6%, 208G)
elnobueno: 104G (1.6%, 330G)
Baron_von_Scrub: 101G (1.5%, 7,868G)
placidphoenix: 100G (1.5%, 4,157G)
datadrivenbot: 100G (1.5%, 48,217G)

blue bets:
E_Ballard: 1,786G (27.3%, 1,786G)
Nickyfive: 1,500G (22.9%, 28,472G)
Theseawolf1: 1,000G (15.3%, 32,643G)
extinctrational: 606G (9.3%, 606G)
SomthingMore: 400G (6.1%, 21,798G)
Rilgon: 220G (3.4%, 220G)
gorgewall: 201G (3.1%, 26,716G)
Meta_Five: 200G (3.1%, 39,308G)
porkchop5158: 124G (1.9%, 124G)
Digitalsocrates: 100G (1.5%, 2,946G)
fluffskull: 100G (1.5%, 915G)
rmelzer1986: 100G (1.5%, 284G)
silentkaster: 100G (1.5%, 11,200G)
Ring_Wyrm: 100G (1.5%, 3,358G)
