Final Bets: blue - 11 bets for 4,717G (44.7%, x1.24); green - 10 bets for 5,842G (55.3%, x0.81)

blue bets:
reinoe: 1,256G (26.6%, 1,256G)
dogsandcatsand: 1,068G (22.6%, 6,068G)
E_Ballard: 664G (14.1%, 664G)
YaBoy125: 384G (8.1%, 3,840G)
Zagorsek: 320G (6.8%, 320G)
extinctrational: 224G (4.7%, 224G)
gorgewall: 201G (4.3%, 26,603G)
fluffskull: 200G (4.2%, 1,143G)
rmelzer1986: 200G (4.2%, 521G)
maakur_: 100G (2.1%, 76,389G)
silentkaster: 100G (2.1%, 11,128G)

green bets:
Baron_von_Scrub: 1,111G (19.0%, 9,344G)
BlackFireUK: 1,000G (17.1%, 31,135G)
getthemoneyz: 870G (14.9%, 1,069,742G)
BirbBrainsBot: 647G (11.1%, 42,725G)
Arcblazer23: 628G (10.7%, 1,256G)
Nizaha: 501G (8.6%, 8,961G)
Rislyeu: 485G (8.3%, 485G)
sososteve: 350G (6.0%, 2,460G)
muffin_money: 150G (2.6%, 6,825G)
datadrivenbot: 100G (1.7%, 47,960G)
