Final Bets: blue - 16 bets for 10,769G (52.3%, x0.91); champion - 12 bets for 9,819G (47.7%, x1.10)

blue bets:
SkylerBunny: 4,000G (37.1%, 515,964G)
dogsandcatsand: 1,000G (9.3%, 5,057G)
RampagingRobot: 904G (8.4%, 904G)
E_Ballard: 664G (6.2%, 664G)
Laserman1000: 659G (6.1%, 6,159G)
HaateXIII: 592G (5.5%, 592G)
DLJuggernaut: 581G (5.4%, 581G)
extinctrational: 501G (4.7%, 501G)
Chuckolator: 455G (4.2%, 121,878G)
Arcblazer23: 312G (2.9%, 312G)
fluffskull: 300G (2.8%, 1,339G)
gorgewall: 201G (1.9%, 27,230G)
rmelzer1986: 200G (1.9%, 873G)
Meta_Five: 200G (1.9%, 39,486G)
maakur_: 100G (0.9%, 76,569G)
datadrivenbot: 100G (0.9%, 48,048G)

champion bets:
KasugaiRoastedPeas: 2,260G (23.0%, 2,260G)
sososteve: 1,460G (14.9%, 1,460G)
Theseawolf1: 1,000G (10.2%, 34,257G)
BirbBrainsBot: 1,000G (10.2%, 41,440G)
ShintaroNayaka: 921G (9.4%, 921G)
Zagorsek: 806G (8.2%, 806G)
VolgraTheMoose: 727G (7.4%, 727G)
getthemoneyz: 586G (6.0%, 1,068,735G)
Nizaha: 501G (5.1%, 7,459G)
benticore: 250G (2.5%, 9,284G)
cactus_tony_: 208G (2.1%, 208G)
letdowncity: 100G (1.0%, 8,525G)
