Final Bets: white - 11 bets for 8,795G (36.4%, x1.75); purple - 26 bets for 15,359G (63.6%, x0.57)

white bets:
NIghtdew14: 2,500G (28.4%, 16,797G)
reinoe: 2,000G (22.7%, 147,566G)
Rytor: 1,283G (14.6%, 12,834G)
BirbBrainsBot: 1,000G (11.4%, 43,535G)
killth3kid: 676G (7.7%, 26,501G)
Aldrammech: 297G (3.4%, 2,975G)
resjudicata3: 292G (3.3%, 292G)
AllInBot: 278G (3.2%, 278G)
neocarbuncle: 268G (3.0%, 268G)
ANFz: 101G (1.1%, 10,651G)
Drusiform: 100G (1.1%, 9,177G)

purple bets:
Virilikus: 5,000G (32.6%, 252,297G)
EnemyController: 1,111G (7.2%, 1,569,408G)
DeathTaxesAndAnime: 1,064G (6.9%, 1,064G)
VolgraTheMoose: 1,001G (6.5%, 5,922G)
RunicMagus: 800G (5.2%, 4,719G)
Nizaha: 716G (4.7%, 11,318G)
E_Ballard: 580G (3.8%, 580G)
Lanshaft: 576G (3.8%, 13,687G)
dogsandcatsand: 540G (3.5%, 540G)
nhammen: 527G (3.4%, 5,275G)
Rilgon: 500G (3.3%, 4,898G)
powergems: 460G (3.0%, 460G)
getthemoneyz: 366G (2.4%, 1,609,248G)
Lillifen: 306G (2.0%, 306G)
twelfthrootoftwo: 300G (2.0%, 3,599G)
Amorial: 232G (1.5%, 232G)
datadrivenbot: 200G (1.3%, 55,731G)
GGDeeOfficial: 181G (1.2%, 905G)
TheDeeyo: 167G (1.1%, 167G)
Tarheels218: 116G (0.8%, 116G)
Skjodo: 116G (0.8%, 116G)
MinBetBot: 100G (0.7%, 23,527G)
ko2q: 100G (0.7%, 655G)
CosmicTactician: 100G (0.7%, 5,949G)
lwtest: 100G (0.7%, 1,432G)
Gyrolin: 100G (0.7%, 1,431G)
