High Risers:
1. Thunderducker: +6,210G
2. Mesmaster: +4,426G
3. Nicosavoy: +3,436G
4. Lowlf: +3,107G
5. Davestrider55: +3,067G
6. Airking990: +920G
7. 3ngag3: +917G
8. Nifboy: +725G
9. Valensexp_: +654G
10. Zachara: +650G
11. Laserman1000: +534G
12. Novaknight21: +493G
13. Lythe_caraker: +246G
14. Nekojin: +170G
15. Kilrazin: +92G
16. Hotpocketsofficial: +83G
17. Chuckolator: +5G
18. Firesheath: -78G
19. Shadowninja25: -79G
20. Ogema_thedream: -127G
21. 0v3rr8d: -200G
22. Lube_squid: -200G
23. Reddwind_: -200G
24. Evewho: -232G
25. Genkidou: -283G
26. Thesabretoothe: -289G
27. Nhammen: -300G
28. Latebit: -300G
29. Corpuscav: -305G
30. Khelor_: -307G
31. Porotact: -356G
32. Colettemslp: -378G
33. Helpimabug: -460G
34. Old_overholt_: -700G
35. Onehundredfists: -756G
36. Kronikle: -800G
37. Resjudicata3: -872G
38. Treafa: -1,000G
39. Farside00831: -1,000G
40. Deathtaxesandanime: -1,412G
41. Gorgewall: -1,531G
42. Nok____: -1,600G
43. Douchetron: -3,406G
44. Sairentozon7: -4,296G
45. Duchesssx: -7,994G
