Final Bets: green - 16 bets for 9,262G (20.4%, x3.91); yellow - 9 bets for 36,223G (79.6%, x0.26)

green bets:
CorpusCav: 1,500G (16.2%, 3,000G)
BirbBrainsBot: 1,000G (10.8%, 17,165G)
nok____: 1,000G (10.8%, 7,000G)
Sairentozon7: 1,000G (10.8%, 46,857G)
DeathTaxesAndAnime: 828G (8.9%, 828G)
Firesheath: 670G (7.2%, 670G)
Laserman1000: 646G (7.0%, 24,846G)
OneHundredFists: 536G (5.8%, 536G)
Genkidou: 383G (4.1%, 383G)
3ngag3: 364G (3.9%, 364G)
getthemoneyz: 362G (3.9%, 2,033,143G)
hotpocketsofficial: 332G (3.6%, 832G)
Ogema_theDream: 236G (2.5%, 236G)
farside00831: 200G (2.2%, 4,654G)
kilrazin: 104G (1.1%, 104G)
gorgewall: 101G (1.1%, 2,345G)

yellow bets:
Mesmaster: 12,477G (34.4%, 12,477G)
duchesssx: 10,000G (27.6%, 43,020G)
NicoSavoy: 10,000G (27.6%, 118,165G)
thunderducker: 2,000G (5.5%, 5,904G)
nekojin: 666G (1.8%, 666G)
douchetron: 412G (1.1%, 412G)
helpimabug: 268G (0.7%, 268G)
AllInBot: 200G (0.6%, 200G)
khelor_: 200G (0.6%, 7,546G)
