Final Bets: white - 11 bets for 5,283G (25.7%, x2.89); black - 10 bets for 15,256G (74.3%, x0.35)

white bets:
duchesssx: 1,000G (18.9%, 45,577G)
Sairentozon7: 1,000G (18.9%, 45,861G)
DeathTaxesAndAnime: 828G (15.7%, 828G)
OneHundredFists: 536G (10.1%, 536G)
hotpocketsofficial: 500G (9.5%, 500G)
farside00831: 500G (9.5%, 4,454G)
getthemoneyz: 356G (6.7%, 2,032,781G)
AllInBot: 251G (4.8%, 251G)
BirbBrainsBot: 107G (2.0%, 16,165G)
kilrazin: 104G (2.0%, 104G)
gorgewall: 101G (1.9%, 2,244G)

black bets:
Mesmaster: 7,833G (51.3%, 15,667G)
NovaKnight21: 2,000G (13.1%, 17,494G)
thunderducker: 2,000G (13.1%, 6,415G)
CorpusCav: 1,500G (9.8%, 1,500G)
Laserman1000: 600G (3.9%, 24,200G)
khelor_: 500G (3.3%, 7,597G)
3ngag3: 364G (2.4%, 364G)
Ogema_theDream: 236G (1.5%, 236G)
Genkidou: 112G (0.7%, 112G)
NicoSavoy: 111G (0.7%, 120,722G)
