Final Bets: black - 13 bets for 6,864G (47.1%, x1.13); champion - 11 bets for 7,724G (52.9%, x0.89)

black bets:
OneHundredFists: 1,982G (28.9%, 3,887G)
DeathTaxesAndAnime: 828G (12.1%, 828G)
BirbBrainsBot: 820G (11.9%, 17,385G)
douchetron: 758G (11.0%, 758G)
lowlf: 576G (8.4%, 17,242G)
CorpusCav: 360G (5.2%, 4,745G)
hotpocketsofficial: 332G (4.8%, 1,247G)
Ogema_theDream: 236G (3.4%, 236G)
Zachara: 214G (3.1%, 143,964G)
khelor_: 200G (2.9%, 7,839G)
lube_squid: 200G (2.9%, 10,722G)
Evewho: 200G (2.9%, 2,454G)
getthemoneyz: 158G (2.3%, 2,032,046G)

champion bets:
thunderducker: 4,000G (51.8%, 8,363G)
nifboy: 816G (10.6%, 12,045G)
TheSabretoothe: 800G (10.4%, 800G)
PoroTact: 484G (6.3%, 484G)
airking990: 390G (5.0%, 781G)
3ngag3: 367G (4.8%, 1,367G)
ColetteMSLP: 350G (4.5%, 3,651G)
AllInBot: 200G (2.6%, 200G)
Genkidou: 112G (1.5%, 112G)
kilrazin: 104G (1.3%, 104G)
gorgewall: 101G (1.3%, 1,925G)
