Final Bets: white - 16 bets for 10,763G (42.0%, x1.38); black - 21 bets for 14,878G (58.0%, x0.72)

white bets:
Shakarak: 2,000G (18.6%, 27,599G)
E_Ballard: 1,980G (18.4%, 1,980G)
Lali_Lulelo: 1,490G (13.8%, 1,490G)
dogsandcatsand: 1,000G (9.3%, 16,214G)
FriendSquirrel: 940G (8.7%, 940G)
volgrathemoose: 917G (8.5%, 1,834G)
tronfonne: 600G (5.6%, 660G)
Estan_AD: 516G (4.8%, 516G)
CapnChaos12: 300G (2.8%, 3,581G)
EnemyController: 300G (2.8%, 242,511G)
KabukiJake: 200G (1.9%, 200G)
CandyTamer: 120G (1.1%, 1,574G)
maakur_: 100G (0.9%, 1,409G)
otakutaylor: 100G (0.9%, 2,442G)
datadrivenbot: 100G (0.9%, 17,944G)
a_mo22: 100G (0.9%, 959G)

black bets:
Mesmaster: 3,000G (20.2%, 24,273G)
SkylerBunny: 1,500G (10.1%, 55,147G)
Kyune: 1,122G (7.5%, 1,122G)
toka222: 1,100G (7.4%, 55,758G)
BirbBrainsBot: 1,000G (6.7%, 61,704G)
NicoSavoy: 1,000G (6.7%, 27,117G)
Lionhermit: 1,000G (6.7%, 52,359G)
Virilikus: 1,000G (6.7%, 165,426G)
Laserman1000: 600G (4.0%, 26,600G)
ThePineappleSalesman: 500G (3.4%, 26,609G)
Rislyeu: 500G (3.4%, 2,796G)
HaateXIII: 500G (3.4%, 6,243G)
ungabunga_bot: 396G (2.7%, 496,875G)
getthemoneyz: 386G (2.6%, 675,523G)
ANFz: 304G (2.0%, 304G)
nifboy: 250G (1.7%, 4,017G)
thethorndog1: 216G (1.5%, 216G)
PukingGoombas: 200G (1.3%, 1,000G)
MalakiGenesys: 104G (0.7%, 104G)
FoeSquirrel: 100G (0.7%, 3,031G)
twelfthrootoftwo: 100G (0.7%, 7,915G)
