Final Bets: green - 13 bets for 6,822G (37.2%, x1.69); yellow - 11 bets for 11,496G (62.8%, x0.59)

green bets:
maakur_: 2,356G (34.5%, 2,356G)
dogsandcatsand: 993G (14.6%, 993G)
Lydian_C: 690G (10.1%, 77,894G)
Miku_Shikhu: 473G (6.9%, 473G)
randgridr: 460G (6.7%, 460G)
MattMan119: 400G (5.9%, 8,150G)
ArashiKurobara: 336G (4.9%, 2,670G)
AllInBot: 314G (4.6%, 314G)
Lord_Gwarth: 250G (3.7%, 2,118G)
datadrivenbot: 200G (2.9%, 32,682G)
holdenmagronik: 150G (2.2%, 613G)
BakuretsuLa: 100G (1.5%, 100G)
Error72: 100G (1.5%, 2,659G)

yellow bets:
coralreeferz: 3,500G (30.4%, 37,402G)
Thyrandaal: 1,400G (12.2%, 31,182G)
TheChainNerd: 1,318G (11.5%, 1,318G)
Lord_Burrah: 1,000G (8.7%, 84,994G)
BirbBrainsBot: 1,000G (8.7%, 185,550G)
J2DaBibbles: 1,000G (8.7%, 21,330G)
iBardic: 622G (5.4%, 622G)
benticore: 500G (4.3%, 26,015G)
getthemoneyz: 436G (3.8%, 1,334,489G)
DavenIII: 372G (3.2%, 372G)
SephDarkheart: 348G (3.0%, 59,942G)
