Final Bets: blue - 11 bets for 8,519G (48.4%, x1.07); brown - 18 bets for 9,083G (51.6%, x0.94)

blue bets:
Lydian_C: 4,200G (49.3%, 81,120G)
Lord_Burrah: 1,535G (18.0%, 83,535G)
TheChainNerd: 728G (8.5%, 728G)
JumbocactuarX27: 500G (5.9%, 18,340G)
randgridr: 460G (5.4%, 460G)
MattMan119: 300G (3.5%, 8,996G)
Treafa: 280G (3.3%, 280G)
AllInBot: 200G (2.3%, 200G)
Othatmattkid: 200G (2.3%, 1,083G)
BakuretsuLa: 100G (1.2%, 100G)
getthemoneyz: 16G (0.2%, 1,334,714G)

brown bets:
powergems: 2,000G (22.0%, 14,776G)
skipsandwiches: 1,082G (11.9%, 2,123G)
NovaKnight21: 1,000G (11.0%, 7,228G)
BirbBrainsBot: 1,000G (11.0%, 185,203G)
dogsandcatsand: 749G (8.2%, 3,749G)
RaIshtar: 500G (5.5%, 1,957G)
brokenknight201: 484G (5.3%, 484G)
ShintaroNayaka: 400G (4.4%, 7,620G)
SephDarkheart: 348G (3.8%, 60,094G)
ArashiKurobara: 336G (3.7%, 3,443G)
Lord_Gwarth: 250G (2.8%, 2,094G)
iBardic: 224G (2.5%, 224G)
holdenmagronik: 200G (2.2%, 892G)
datadrivenbot: 200G (2.2%, 33,142G)
Bongomon7: 100G (1.1%, 6,647G)
ruleof5: 100G (1.1%, 856G)
Error72: 100G (1.1%, 2,444G)
nhammen: 10G (0.1%, 5,965G)
