Final Bets: red - 41 bets for 23,753G (54.8%, x0.83); blue - 25 bets for 19,612G (45.2%, x1.21)

red bets:
RongRongArts: 2,959G (12.5%, 2,959G)
UmaiJam: 2,510G (10.6%, 2,510G)
FattyBearsteak: 1,500G (6.3%, 4,420G)
TheRobbieRobster: 1,239G (5.2%, 1,239G)
NovaKnight21: 1,089G (4.6%, 1,089G)
sinnyil2: 1,076G (4.5%, 1,076G)
Theseawolf1: 1,000G (4.2%, 4,671G)
rnark: 1,000G (4.2%, 4,277G)
Lionhermit: 1,000G (4.2%, 9,589G)
TheOneRanger: 1,000G (4.2%, 8,314G)
roofiepops: 820G (3.5%, 820G)
DeathTaxesAndAnime: 726G (3.1%, 726G)
AllInBot: 593G (2.5%, 593G)
SolarisFall: 559G (2.4%, 559G)
Phi_Sig: 555G (2.3%, 44,255G)
Laserman1000: 507G (2.1%, 507G)
Tougou: 500G (2.1%, 6,347G)
LordSDB: 500G (2.1%, 6,062G)
Tyerenex: 500G (2.1%, 1,630G)
RunicMagus: 500G (2.1%, 22,776G)
EnemyController: 428G (1.8%, 428G)
MrDiggs49: 400G (1.7%, 3,329G)
lunaticruin: 390G (1.6%, 390G)
hzor: 359G (1.5%, 359G)
hyvi_: 337G (1.4%, 337G)
galkife: 250G (1.1%, 65,350G)
Cataphract116: 200G (0.8%, 842G)
ApplesauceBoss: 100G (0.4%, 4,143G)
Basmal: 100G (0.4%, 53,349G)
denamda: 100G (0.4%, 17,136G)
BadBlanket: 100G (0.4%, 2,613G)
IroncladWarbear: 100G (0.4%, 348G)
HashtagRob_: 100G (0.4%, 100G)
loveyouallfriends: 100G (0.4%, 10,208G)
victoriolue: 100G (0.4%, 5,005G)
Nanovolt: 100G (0.4%, 457G)
datadrivenbot: 100G (0.4%, 14,632G)
KaLam1ty: 100G (0.4%, 3,675G)
joewcarson: 100G (0.4%, 1,244G)
sixstop: 50G (0.2%, 1,686G)
Sairentozon7: 6G (0.0%, 4,314G)

blue bets:
DudeMonkey77: 5,082G (25.9%, 50,824G)
Aldrammech: 2,909G (14.8%, 29,096G)
reinoe: 2,000G (10.2%, 4,724G)
Shalloween: 1,200G (6.1%, 48,428G)
OmnibotGamma: 1,000G (5.1%, 2,930G)
BirbBrainsBot: 1,000G (5.1%, 132,807G)
bad1dea: 1,000G (5.1%, 343,536G)
Axelrod: 1,000G (5.1%, 46,645G)
omegasuspekt: 609G (3.1%, 609G)
dynasti: 442G (2.3%, 442G)
kingchadking: 352G (1.8%, 352G)
HaychDub: 350G (1.8%, 3,586G)
RRazza: 340G (1.7%, 340G)
Adam1949: 326G (1.7%, 326G)
Goust18: 324G (1.7%, 324G)
getthemoneyz: 312G (1.6%, 399,521G)
CorpusCav: 250G (1.3%, 3,467G)
FuManXou: 212G (1.1%, 212G)
ugoplatamia: 200G (1.0%, 10,114G)
SeniorBunk: 200G (1.0%, 8,010G)
HEROScioN: 104G (0.5%, 104G)
urieltheflameofgod: 100G (0.5%, 1,022G)
SeedSC: 100G (0.5%, 118,449G)
silentperogy: 100G (0.5%, 4,570G)
WillFitzgerald: 100G (0.5%, 236G)
