Final Bets: red - 27 bets for 15,440G (45.7%, x1.19); yellow - 27 bets for 18,342G (54.3%, x0.84)

red bets:
Laserman1000: 1,594G (10.3%, 1,594G)
NovaKnight21: 1,584G (10.3%, 3,169G)
HASTERIOUS: 1,500G (9.7%, 65,291G)
lunaticruin: 1,043G (6.8%, 1,043G)
TheOneRanger: 1,000G (6.5%, 10,234G)
UmaiJam: 916G (5.9%, 4,582G)
HashtagRob_: 906G (5.9%, 906G)
ensiron: 841G (5.4%, 841G)
urieltheflameofgod: 812G (5.3%, 812G)
sinnyil2: 648G (4.2%, 648G)
YaBoy125: 560G (3.6%, 560G)
reinoe: 524G (3.4%, 524G)
waterwatereverywhere: 400G (2.6%, 5,641G)
Vyroxe: 370G (2.4%, 370G)
upvla: 360G (2.3%, 2,971G)
kingchadking: 352G (2.3%, 352G)
Goust18: 324G (2.1%, 324G)
dynasti: 320G (2.1%, 320G)
Aeolus_000: 300G (1.9%, 5,011G)
galkife: 250G (1.6%, 65,556G)
EnemyController: 236G (1.5%, 236G)
AllInBot: 100G (0.6%, 100G)
loveyouallfriends: 100G (0.6%, 10,291G)
victoriolue: 100G (0.6%, 4,788G)
datadrivenbot: 100G (0.6%, 14,415G)
WillFitzgerald: 100G (0.6%, 236G)
TJ_FordCDN: 100G (0.6%, 3,767G)

yellow bets:
Aldrammech: 3,316G (18.1%, 33,160G)
DeathTaxesAndAnime: 3,207G (17.5%, 3,207G)
Shalloween: 1,300G (7.1%, 44,174G)
RRazza: 1,084G (5.9%, 1,084G)
RunicMagus: 1,050G (5.7%, 23,209G)
DarrenDinosaurs: 1,000G (5.5%, 6,649G)
BirbBrainsBot: 1,000G (5.5%, 130,753G)
Axelrod: 1,000G (5.5%, 43,591G)
FattyBearsteak: 800G (4.4%, 5,941G)
RongRongArts: 508G (2.8%, 508G)
nomoment: 500G (2.7%, 11,474G)
Adam1949: 446G (2.4%, 446G)
bad1dea: 400G (2.2%, 342,482G)
Tyerenex: 400G (2.2%, 2,574G)
WireLord: 364G (2.0%, 364G)
PatSouI: 320G (1.7%, 320G)
ZephyrTempest: 270G (1.5%, 24,127G)
hzor: 260G (1.4%, 260G)
ugoplatamia: 200G (1.1%, 10,461G)
V3rdeni: 200G (1.1%, 1,623G)
TheRobbieRobster: 164G (0.9%, 164G)
ApplesauceBoss: 100G (0.5%, 4,499G)
silentperogy: 100G (0.5%, 4,489G)
sixstop: 100G (0.5%, 1,727G)
Oobs56: 100G (0.5%, 3,615G)
getthemoneyz: 78G (0.4%, 398,445G)
portmanteur: 75G (0.4%, 254G)
