Final Bets: red - 13 bets for 11,861G (52.0%, x0.92); blue - 16 bets for 10,967G (48.0%, x1.08)

red bets:
DavenIII: 3,780G (31.9%, 8,401G)
Thyrandaal: 1,811G (15.3%, 10,742G)
flacococo: 1,358G (11.4%, 1,358G)
BirbBrainsBot: 1,000G (8.4%, 169,598G)
ohhinm: 962G (8.1%, 962G)
maddrave09: 689G (5.8%, 689G)
killth3kid: 544G (4.6%, 16,082G)
getthemoneyz: 510G (4.3%, 1,424,301G)
Shalloween: 383G (3.2%, 766G)
dogsandcatsand: 376G (3.2%, 13,441G)
Lord_Gwarth: 236G (2.0%, 236G)
cho_pin: 112G (0.9%, 112G)
jeffersonsa: 100G (0.8%, 916G)

blue bets:
E_Ballard: 3,509G (32.0%, 3,509G)
sinnyil2: 1,517G (13.8%, 3,035G)
Legitimized: 1,381G (12.6%, 1,381G)
Lydian_C: 1,200G (10.9%, 9,889G)
TheChainNerd: 796G (7.3%, 796G)
AllInBot: 548G (5.0%, 548G)
ShintaroNayaka: 500G (4.6%, 12,849G)
roqqqpsi: 428G (3.9%, 1,712G)
randgridr: 200G (1.8%, 11,960G)
TasisSai: 200G (1.8%, 1,548G)
datadrivenbot: 200G (1.8%, 48,132G)
roofiepops: 123G (1.1%, 9,369G)
DHaveWord: 100G (0.9%, 2,987G)
RuneS_77: 100G (0.9%, 11,218G)
Error72: 100G (0.9%, 3,979G)
ArlanKels: 65G (0.6%, 2,176G)
