Final Bets: blue - 10 bets for 8,987G (58.4%, x0.71); yellow - 10 bets for 6,412G (41.6%, x1.40)

blue bets:
AllInBot: 2,661G (29.6%, 2,661G)
sinnyil2: 2,473G (27.5%, 4,946G)
Lydian_C: 1,200G (13.4%, 11,176G)
TasisSai: 666G (7.4%, 1,307G)
Nizaha: 600G (6.7%, 14,376G)
killth3kid: 544G (6.1%, 14,994G)
SephDarkheart: 416G (4.6%, 17,591G)
datadrivenbot: 200G (2.2%, 48,524G)
DHaveWord: 150G (1.7%, 3,086G)
roqqqpsi: 77G (0.9%, 1,556G)

yellow bets:
NovaKnight21: 1,647G (25.7%, 1,647G)
Shalloween: 1,166G (18.2%, 1,166G)
BirbBrainsBot: 1,000G (15.6%, 169,624G)
Thyrandaal: 777G (12.1%, 9,942G)
HaateXIII: 500G (7.8%, 2,419G)
fenaen: 500G (7.8%, 8,742G)
ruleof5: 300G (4.7%, 11,213G)
randgridr: 250G (3.9%, 13,120G)
cho_pin: 144G (2.2%, 144G)
getthemoneyz: 128G (2.0%, 1,423,163G)
