Final Bets: white - 12 bets for 10,952G (71.0%, x0.41); purple - 12 bets for 4,484G (29.0%, x2.44)

white bets:
DavenIII: 4,626G (42.2%, 7,710G)
Shalloween: 1,400G (12.8%, 2,800G)
sinnyil2: 1,236G (11.3%, 2,473G)
BirbBrainsBot: 1,000G (9.1%, 171,026G)
E_Ballard: 688G (6.3%, 688G)
Thyrandaal: 555G (5.1%, 11,031G)
killth3kid: 544G (5.0%, 14,450G)
ruleof5: 300G (2.7%, 11,637G)
roqqqpsi: 221G (2.0%, 1,479G)
getthemoneyz: 166G (1.5%, 1,423,342G)
ScottyDeluxe: 116G (1.1%, 759G)
DHaveWord: 100G (0.9%, 2,936G)

purple bets:
randgridr: 1,000G (22.3%, 13,470G)
dogsandcatsand: 1,000G (22.3%, 15,038G)
HaateXIII: 500G (11.2%, 3,120G)
SephDarkheart: 416G (9.3%, 17,175G)
cho_pin: 346G (7.7%, 346G)
TasisSai: 326G (7.3%, 641G)
AllInBot: 200G (4.5%, 200G)
datadrivenbot: 200G (4.5%, 48,324G)
holdenmagronik: 150G (3.3%, 1,066G)
Lydian_C: 123G (2.7%, 9,976G)
roofiepops: 123G (2.7%, 9,578G)
jeffersonsa: 100G (2.2%, 100G)
