Final Bets: white - 24 bets for 17,486G (79.8%, x0.25); black - 10 bets for 4,414G (20.2%, x3.96)

white bets:
TheUnforgivenRage: 3,814G (21.8%, 3,814G)
Zeroroute: 1,931G (11.0%, 4,271G)
thethorndog1: 1,322G (7.6%, 1,322G)
metagameface: 1,115G (6.4%, 1,115G)
BirbBrainsBot: 1,000G (5.7%, 59,327G)
EnemyController: 1,000G (5.7%, 243,795G)
Evewho: 1,000G (5.7%, 17,309G)
Estan_AD: 883G (5.0%, 883G)
ZZ_Yoshi: 800G (4.6%, 30,654G)
DeathTaxesAndAnime: 800G (4.6%, 3,751G)
Laserman1000: 729G (4.2%, 30,929G)
Strifu: 500G (2.9%, 1,608G)
Drusic: 500G (2.9%, 3,105G)
twelfthrootoftwo: 500G (2.9%, 8,888G)
CapnChaos12: 300G (1.7%, 1,596G)
MalakiGenesys: 250G (1.4%, 1,399G)
alecttox: 240G (1.4%, 240G)
TheJonTerp: 200G (1.1%, 3,458G)
getthemoneyz: 102G (0.6%, 670,158G)
Conome: 100G (0.6%, 4,881G)
datadrivenbot: 100G (0.6%, 18,617G)
OneHundredFists: 100G (0.6%, 21,561G)
cougboi: 100G (0.6%, 14,257G)
otakutaylor: 100G (0.6%, 1,946G)

black bets:
ungabunga_bot: 1,000G (22.7%, 498,191G)
mpghappiness: 777G (17.6%, 777G)
ColetteMSLP: 600G (13.6%, 44,609G)
electric_glass: 509G (11.5%, 18,714G)
NovaKnight21: 500G (11.3%, 3,852G)
YaBoy125: 420G (9.5%, 10,424G)
ANFz: 308G (7.0%, 308G)
victoriolue: 100G (2.3%, 3,400G)
Firesheath: 100G (2.3%, 29,042G)
Digitalsocrates: 100G (2.3%, 1,746G)
