High Risers:
1. NicoSavoy: +11,809G
2. reinoe: +5,848G
3. nhammen: +4,521G
4. Mushufasa_: +3,932G
5. evdoggity: +2,204G
6. killth3kid: +1,815G
7. krombobreaker: +1,019G
8. mirapoix: +1,004G
9. galkife: +1,000G
10. nickforcongress: +1,000G
11. 3ngag3: +992G
12. lube_squid: +800G
13. crazyguy1588: +793G
14. ExplanationMarkWow: +768G
15. BlizzWulf: +746G
16. Tarheels218: +608G
17. DeathTaxesAndAnime: +601G
18. ValensEXP_: +580G
19. MemoriesofFinal: +578G
20. StealthModeLocke: +504G
21. Willjin: +501G
22. BuffaloCrunch: +500G
23. upvla: +500G
24. Dasutin23: +500G
25. HaateXIII: +500G
26. solomongrundy85: +500G
27. opHendoslice: +500G
28. soren_of_tyto: +500G
29. Aldrammech: +500G
30. fattunaking: +500G
31. Smashy: +500G
32. scsuperstar: +500G
33. seppu777: +408G
34. Genkidou: +383G
35. OneHundredFists: +327G
36. ghazzzzzz: +218G
37. RikiNom: +218G
38. just_here2: +200G
39. Laserman1000: +198G
40. Zagorsek: +155G
41. Lolthsmeat: +127G
42. kilrazin: -85G
43. PopsLIVE: -93G
44. CosmicTactician: -106G
45. dogsandcatsand: -163G
46. HASTERIOUS: -173G
47. bufuman: -282G
48. AltimaMantoid: -300G
49. lijarkh: -392G
50. gorgewall: -405G
51. Phi_Sig: -500G
52. silentkaster: -646G
53. Shalloween: -800G
54. Jabuamba: -879G
55. gooseyourself: -1,000G
56. ruleof5: -1,000G
57. BaronHaynes: -1,000G
58. ayeCoop: -1,048G
59. ApplesNP: -1,052G
60. resjudicata3: -1,186G
61. CorpusCav: -1,311G
62. latebit: -1,641G
63. Perfect_Patrick: -1,685G
64. ShreddySpaghetti: -2,309G
65. technominari: -2,541G
66. iBluntDouble: -13,236G
