Final Bets: red - 8 bets for 4,874G (28.6%, x2.50); blue - 15 bets for 12,177G (71.4%, x0.40)

red bets:
Thyrandaal: 1,000G (20.5%, 38,101G)
gooseyourself: 884G (18.1%, 1,769G)
Alaquane: 804G (16.5%, 804G)
maakur_: 696G (14.3%, 696G)
getthemoneyz: 600G (12.3%, 954,604G)
AllInBot: 362G (7.4%, 362G)
Aldrammech: 328G (6.7%, 328G)
KasugaiRoastedPeas: 200G (4.1%, 2,685G)

blue bets:
cam_ATS: 3,000G (24.6%, 24,635G)
RaIshtar: 1,733G (14.2%, 1,733G)
Breakdown777: 1,500G (12.3%, 74,607G)
BirbBrainsBot: 1,000G (8.2%, 21,392G)
KittymanAdvance: 1,000G (8.2%, 15,423G)
d4rr1n: 1,000G (8.2%, 7,212G)
TheChainNerd: 800G (6.6%, 1,600G)
Anak761: 500G (4.1%, 8,719G)
prince_rogers_nelson_: 500G (4.1%, 4,013G)
beowulfrulez: 308G (2.5%, 308G)
O_Heyno: 300G (2.5%, 2,468G)
AkiriXx: 204G (1.7%, 204G)
alterworlds: 132G (1.1%, 132G)
nhammen: 100G (0.8%, 1,548G)
datadrivenbot: 100G (0.8%, 38,644G)
