Final Bets: white - 21 bets for 16,475G (72.8%, x0.37); black - 13 bets for 6,144G (27.2%, x2.68)

white bets:
NicoSavoy: 3,000G (18.2%, 39,774G)
Mesmaster: 3,000G (18.2%, 241,287G)
VolgraTheMoose: 1,957G (11.9%, 1,957G)
snkey: 1,332G (8.1%, 13,319G)
triniculo: 1,019G (6.2%, 1,019G)
BirbBrainsBot: 1,000G (6.1%, 59,675G)
Sairentozon7: 1,000G (6.1%, 5,483G)
ser_pyrro: 700G (4.2%, 2,055G)
Smugzug: 572G (3.5%, 1,145G)
Dasutin23: 484G (2.9%, 8,459G)
Zeroroute: 436G (2.6%, 436G)
FoeSquirrel: 315G (1.9%, 630G)
CosmicTactician: 300G (1.8%, 30,217G)
AllInBot: 266G (1.6%, 266G)
DracoknightZero: 260G (1.6%, 260G)
datadrivenbot: 200G (1.2%, 59,917G)
radishchef: 200G (1.2%, 2,499G)
MonkMagnus: 132G (0.8%, 132G)
Chuckolator: 102G (0.6%, 24,570G)
grishhammer: 100G (0.6%, 858G)
latebit: 100G (0.6%, 4,114G)

black bets:
ShintaroNayaka: 1,392G (22.7%, 1,392G)
CorpusCav: 1,249G (20.3%, 9,249G)
Spartan_Paladin: 700G (11.4%, 17,745G)
Chihuahua_Charity: 681G (11.1%, 681G)
SephDarkheart: 522G (8.5%, 522G)
let_them_eat_the_rich: 500G (8.1%, 4,021G)
Meta_Five: 332G (5.4%, 332G)
escobro: 224G (3.6%, 224G)
getthemoneyz: 144G (2.3%, 1,917,454G)
acid_flashback: 131G (2.1%, 4,383G)
BartTradingCompany: 100G (1.6%, 5,399G)
J_MacC1991: 100G (1.6%, 398G)
leaferrm: 69G (1.1%, 2,301G)
