Final Bets: white - 7 bets for 4,637G (71.5%, x0.40); black - 4 bets for 1,844G (28.5%, x2.51)

white bets:
prince_rogers_nelson_: 1,498G (32.3%, 1,498G)
ShintaroNayaka: 881G (19.0%, 881G)
BirbBrainsBot: 861G (18.6%, 124,721G)
dogsandcatsand: 464G (10.0%, 2,766G)
O_Heyno: 400G (8.6%, 6,388G)
byrdturbo: 333G (7.2%, 19,013G)
datadrivenbot: 200G (4.3%, 55,994G)

black bets:
Evewho: 672G (36.4%, 672G)
RaIshtar: 500G (27.1%, 12,941G)
getthemoneyz: 438G (23.8%, 1,218,427G)
DustBirdEX: 234G (12.7%, 2,884G)
