Final Bets: yellow - 10 bets for 5,331G (31.4%, x2.19); purple - 13 bets for 11,663G (68.6%, x0.46)

yellow bets:
Firesheath: 1,201G (22.5%, 1,201G)
khelor_: 700G (13.1%, 7,646G)
DeathTaxesAndAnime: 700G (13.1%, 2,440G)
resjudicata3: 700G (13.1%, 1,373G)
upvla: 600G (11.3%, 600G)
Laserman1000: 500G (9.4%, 23,700G)
Belkra: 318G (6.0%, 318G)
old_overholt_: 300G (5.6%, 26,005G)
getthemoneyz: 212G (4.0%, 2,032,482G)
MemoriesofFinal: 100G (1.9%, 41,404G)

purple bets:
nhammen: 5,000G (42.9%, 264,885G)
thunderducker: 1,400G (12.0%, 5,768G)
latebit: 1,111G (9.5%, 5,627G)
BirbBrainsBot: 1,000G (8.6%, 13,379G)
Sairentozon7: 1,000G (8.6%, 46,700G)
CorpusCav: 500G (4.3%, 3,355G)
3ngag3: 470G (4.0%, 470G)
helpimabug: 333G (2.9%, 333G)
AllInBot: 248G (2.1%, 248G)
farside00831: 200G (1.7%, 4,859G)
datadrivenbot: 200G (1.7%, 71,809G)
gorgewall: 101G (0.9%, 3,601G)
galkife: 100G (0.9%, 77,099G)
