Final Bets: purple - 10 bets for 2,650G (11.7%, x7.56); champion - 12 bets for 20,031G (88.3%, x0.13)

purple bets:
thunderducker: 700G (26.4%, 6,408G)
lowlf: 576G (21.7%, 14,135G)
AllInBot: 361G (13.6%, 361G)
Belkra: 256G (9.7%, 256G)
datadrivenbot: 200G (7.5%, 71,900G)
getthemoneyz: 156G (5.9%, 2,032,270G)
gorgewall: 101G (3.8%, 3,647G)
MemoriesofFinal: 100G (3.8%, 41,304G)
CT_Remix: 100G (3.8%, 1,329G)
galkife: 100G (3.8%, 77,645G)

champion bets:
ruleof5: 10,000G (49.9%, 21,897G)
nhammen: 4,000G (20.0%, 268,170G)
latebit: 1,111G (5.5%, 6,135G)
helpimabug: 985G (4.9%, 985G)
CorpusCav: 800G (4.0%, 4,584G)
3ngag3: 685G (3.4%, 685G)
resjudicata3: 598G (3.0%, 1,173G)
Firesheath: 592G (3.0%, 592G)
nekojin: 588G (2.9%, 588G)
Laserman1000: 500G (2.5%, 23,200G)
NicoSavoy: 111G (0.6%, 118,450G)
BirbBrainsBot: 61G (0.3%, 13,836G)
