Final Bets: red - 23 bets for 15,078G (60.0%, x0.67); blue - 16 bets for 10,033G (40.0%, x1.50)

red bets:
Baron_von_Scrub: 2,821G (18.7%, 5,642G)
Nizaha: 2,125G (14.1%, 4,251G)
DeathTaxesAndAnime: 1,892G (12.5%, 3,710G)
SkylerBunny: 1,200G (8.0%, 501,181G)
MagicBottle: 1,000G (6.6%, 9,781G)
Sans_from_Snowdin: 1,000G (6.6%, 28,194G)
NIghtdew14: 750G (5.0%, 4,032G)
cam_ATS: 555G (3.7%, 24,055G)
BoneMiser: 504G (3.3%, 504G)
Forkmore: 500G (3.3%, 5,725G)
reinoe: 500G (3.3%, 12,124G)
RampagingRobot: 445G (3.0%, 2,045G)
killth3kid: 444G (2.9%, 1,736G)
Lythe_Caraker: 250G (1.7%, 142,981G)
casteia: 200G (1.3%, 1,434G)
getthemoneyz: 192G (1.3%, 1,109,877G)
Grandlanzer: 100G (0.7%, 37,837G)
ANFz: 100G (0.7%, 4,373G)
datadrivenbot: 100G (0.7%, 46,439G)
OtherBrand: 100G (0.7%, 1,689G)
Twisted_Nutsatchel: 100G (0.7%, 4,764G)
Ring_Wyrm: 100G (0.7%, 2,776G)
klefelix: 100G (0.7%, 123G)

blue bets:
Mesmaster: 2,000G (19.9%, 131,540G)
prince_rogers_nelson_: 1,472G (14.7%, 1,472G)
TheChainNerd: 1,471G (14.7%, 9,809G)
BirbBrainsBot: 1,000G (10.0%, 142,952G)
AniZero: 555G (5.5%, 8,384G)
moonliquor: 500G (5.0%, 1,011G)
Evewho: 500G (5.0%, 3,011G)
twelfthrootoftwo: 500G (5.0%, 13,238G)
Shalloween: 400G (4.0%, 75,486G)
null_sett: 300G (3.0%, 987G)
Rilgon: 294G (2.9%, 294G)
safira125: 250G (2.5%, 681G)
benticore: 250G (2.5%, 4,580G)
Seaweed_B: 208G (2.1%, 208G)
CosmicTactician: 200G (2.0%, 26,635G)
daveb_: 133G (1.3%, 1,220G)
