Final Bets: red - 8 bets for 3,751G (66.9%, x0.49); blue - 3 bets for 1,853G (33.1%, x2.02)

red bets:
NovaKnight21: 1,449G (38.6%, 1,449G)
douchetron: 630G (16.8%, 630G)
ko2q: 586G (15.6%, 586G)
BirbBrainsBot: 368G (9.8%, 39,564G)
Lemonjohns: 328G (8.7%, 328G)
AllInBot: 200G (5.3%, 200G)
nifboy: 100G (2.7%, 6,260G)
getthemoneyz: 90G (2.4%, 1,514,317G)

blue bets:
DeathTaxesAndAnime: 1,135G (61.3%, 2,226G)
gorgewall: 618G (33.4%, 2,218G)
Brainstew29: 100G (5.4%, 37,443G)
