Final Bets: brown - 15 bets for 13,223G (40.3%, x1.48); champion - 15 bets for 19,553G (59.7%, x0.68)

brown bets:
DLJuggernaut: 2,869G (21.7%, 8,694G)
Evewho: 2,067G (15.6%, 4,054G)
KasugaiRoastedPeas: 2,000G (15.1%, 7,217G)
Sairentozon7: 1,297G (9.8%, 1,297G)
Lydian_C: 1,200G (9.1%, 17,864G)
sinnyil2: 1,200G (9.1%, 12,232G)
BirbBrainsBot: 1,000G (7.6%, 31,318G)
Mesmaster: 320G (2.4%, 320G)
Digitalsocrates: 300G (2.3%, 7,215G)
getthemoneyz: 252G (1.9%, 865,333G)
CaptainGarlock: 250G (1.9%, 1,190G)
KyleWonToLiveForever: 152G (1.1%, 152G)
tanarusasamiya: 116G (0.9%, 2,716G)
AllInBot: 100G (0.8%, 100G)
AtmaDragoon: 100G (0.8%, 561G)

champion bets:
OneHundredFists: 4,591G (23.5%, 9,003G)
prince_rogers_nelson_: 3,870G (19.8%, 7,741G)
SkylerBunny: 3,000G (15.3%, 108,386G)
NicoSavoy: 2,396G (12.3%, 4,793G)
metagameface: 1,000G (5.1%, 12,810G)
mr_kindaro: 1,000G (5.1%, 2,903G)
nifboy: 926G (4.7%, 926G)
DeathTaxesAndAnime: 844G (4.3%, 844G)
letdowncity: 500G (2.6%, 18,742G)
Laserman1000: 500G (2.6%, 23,100G)
fluffskull: 333G (1.7%, 333G)
gorgewall: 201G (1.0%, 2,326G)
DAC169: 192G (1.0%, 192G)
Flameatron: 100G (0.5%, 1,835G)
datadrivenbot: 100G (0.5%, 35,432G)
