Final Bets: purple - 22 bets for 15,112G (60.0%, x0.67); brown - 18 bets for 10,058G (40.0%, x1.50)

purple bets:
sinnyil2: 2,500G (16.5%, 19,971G)
DeathTaxesAndAnime: 1,812G (12.0%, 3,554G)
DaveStrider55: 1,266G (8.4%, 1,266G)
WireLord: 1,000G (6.6%, 22,429G)
BirbBrainsBot: 1,000G (6.6%, 282,962G)
SeedSC: 1,000G (6.6%, 183,883G)
Ausuri: 1,000G (6.6%, 12,562G)
HaplessOne: 1,000G (6.6%, 151,826G)
pandasforsale: 666G (4.4%, 14,873G)
rico_flex: 555G (3.7%, 2,142G)
I_nod_my_head_when_I_lose: 500G (3.3%, 14,657G)
luminarii: 448G (3.0%, 15,052G)
b0shii: 444G (2.9%, 937G)
DarrenDinosaurs: 404G (2.7%, 404G)
TheMurkGnome: 346G (2.3%, 9,270G)
ZephyrTempest: 342G (2.3%, 38,708G)
Tyerenex: 256G (1.7%, 256G)
mexskacin: 220G (1.5%, 220G)
DrAntiSocial: 103G (0.7%, 2,472G)
twelfthrootoftwo: 100G (0.7%, 7,263G)
datadrivenbot: 100G (0.7%, 25,109G)
Sup_Johnny: 50G (0.3%, 997G)

brown bets:
YaBoy125: 1,408G (14.0%, 1,408G)
upvla: 1,219G (12.1%, 3,697G)
Zagorsek: 1,000G (9.9%, 348,202G)
samtimemc: 754G (7.5%, 754G)
getthemoneyz: 754G (7.5%, 448,647G)
LAGBOT30000: 739G (7.3%, 14,787G)
SkylerBunny: 700G (7.0%, 2,680G)
moonliquor: 682G (6.8%, 682G)
rubenflonne: 500G (5.0%, 5,286G)
Zhyyn: 500G (5.0%, 9,021G)
Aldrammech: 309G (3.1%, 3,097G)
CapnChaos12: 300G (3.0%, 5,956G)
Sungazes: 300G (3.0%, 2,064G)
BlinkFS: 300G (3.0%, 1,177G)
silentperogy: 200G (2.0%, 13,077G)
ungabunga_bot: 193G (1.9%, 86,171G)
AllInBot: 100G (1.0%, 100G)
RughSontos: 100G (1.0%, 1,334G)
