Final Bets: green - 13 bets for 7,218G (56.4%, x0.77); yellow - 13 bets for 5,576G (43.6%, x1.29)

green bets:
flowinprose: 2,000G (27.7%, 66,463G)
BirbBrainsBot: 1,000G (13.9%, 2,476G)
HaplessOne: 1,000G (13.9%, 91,952G)
getthemoneyz: 918G (12.7%, 516,188G)
Dexsana: 700G (9.7%, 13,217G)
reinoe: 500G (6.9%, 15,220G)
leakimiko: 300G (4.2%, 300G)
KasugaiRoastedPeas: 200G (2.8%, 10,980G)
Mikumari12: 200G (2.8%, 567G)
Jeeboheebo: 100G (1.4%, 14,434G)
R_Raynos: 100G (1.4%, 9,578G)
CassiePhoenix: 100G (1.4%, 2,329G)
datadrivenbot: 100G (1.4%, 506G)

yellow bets:
volgrathemoose: 2,001G (35.9%, 154,648G)
ungabunga_bot: 1,000G (17.9%, 178,000G)
aStatue: 500G (9.0%, 500G)
roqqqpsi: 432G (7.7%, 432G)
Meanderandreturn: 400G (7.2%, 6,985G)
Aneyus: 263G (4.7%, 26,343G)
SpookyCookieMonster: 200G (3.6%, 2,473G)
elijahrockers: 200G (3.6%, 1,184G)
7Cerulean7: 180G (3.2%, 2,709G)
AllInBot: 100G (1.8%, 100G)
twelfthrootoftwo: 100G (1.8%, 3,235G)
gorgewall: 100G (1.8%, 1,670G)
MynenARS: 100G (1.8%, 1,045G)
