Final Bets: white - 22 bets for 10,094G (50.0%, x1.00); black - 19 bets for 10,100G (50.0%, x1.00)

white bets:
catfashions: 2,000G (19.8%, 6,565G)
jakeduhhsnake: 1,250G (12.4%, 19,647G)
joewcarson: 1,000G (9.9%, 1,760G)
Mtueni: 1,000G (9.9%, 265,457G)
deenglow: 1,000G (9.9%, 55,131G)
killth3kid: 500G (5.0%, 43,172G)
ANFz: 500G (5.0%, 10,218G)
getthemoneyz: 428G (4.2%, 602,251G)
Chrysaors: 357G (3.5%, 35,753G)
FoxtrotNovemberCharlie: 272G (2.7%, 272G)
Anethum: 271G (2.7%, 1,359G)
SQUiDSQUARKLIN: 248G (2.5%, 248G)
mpghappiness: 200G (2.0%, 2,712G)
ACSpree: 200G (2.0%, 2,513G)
dorman_777: 161G (1.6%, 161G)
rawb2: 158G (1.6%, 158G)
marrrrrrrrrrrrrrrrrrrr: 137G (1.4%, 137G)
BirbBrainsBot: 112G (1.1%, 75,840G)
Malcreos: 100G (1.0%, 174G)
Firesheath: 100G (1.0%, 8,795G)
tmo50x: 50G (0.5%, 5,473G)
richardserious: 50G (0.5%, 1,075G)

black bets:
Pie108: 2,000G (19.8%, 302,109G)
fenaen: 1,500G (14.9%, 70,404G)
TheChainNerd: 1,000G (9.9%, 6,900G)
Mesmaster: 1,000G (9.9%, 18,037G)
HaateXIII: 500G (5.0%, 41,545G)
Estan_AD: 466G (4.6%, 932G)
DKC_Jinouga: 447G (4.4%, 447G)
Sitiran: 440G (4.4%, 4,407G)
JumbocactuarX27: 400G (4.0%, 14,440G)
gggamezzz: 387G (3.8%, 775G)
Pink_LuigiX: 354G (3.5%, 354G)
ZephyrTempest: 342G (3.4%, 2,282G)
KasugaiRoastedPeas: 300G (3.0%, 1,727G)
ungabunga_bot: 293G (2.9%, 285,068G)
skuldar: 239G (2.4%, 239G)
AllInBot: 132G (1.3%, 132G)
nifboy: 100G (1.0%, 3,136G)
Avin_Chaos: 100G (1.0%, 15,941G)
FriendSquirrel: 100G (1.0%, 25,929G)
