Final Bets: green - 22 bets for 12,164G (41.7%, x1.40); brown - 20 bets for 17,032G (58.3%, x0.71)

green bets:
Pie108: 2,000G (16.4%, 301,289G)
HorusTaurus: 2,000G (16.4%, 4,404G)
Mesmaster: 1,000G (8.2%, 17,975G)
ACSpree: 800G (6.6%, 2,929G)
funtasytv: 773G (6.4%, 773G)
Chrysaors: 738G (6.1%, 36,934G)
lastly: 652G (5.4%, 652G)
Nickyfive: 508G (4.2%, 508G)
ANFz: 500G (4.1%, 9,222G)
HaateXIII: 500G (4.1%, 40,278G)
Sitiran: 438G (3.6%, 4,386G)
joewcarson: 400G (3.3%, 4,027G)
SomeCallMeGON: 400G (3.3%, 8,195G)
SQUiDSQUARKLIN: 300G (2.5%, 1,671G)
getthemoneyz: 254G (2.1%, 602,729G)
Who_lio42: 200G (1.6%, 495G)
gggamezzz: 153G (1.3%, 153G)
AllInBot: 147G (1.2%, 147G)
ZephyrTempest: 101G (0.8%, 1,388G)
maakur_: 100G (0.8%, 110,215G)
datadrivenbot: 100G (0.8%, 8,356G)
Estan_AD: 100G (0.8%, 1,080G)

brown bets:
sinnyil2: 2,228G (13.1%, 4,457G)
catfashions: 2,000G (11.7%, 6,962G)
fenaen: 1,500G (8.8%, 68,944G)
coralreeferz: 1,500G (8.8%, 15,471G)
TheChainNerd: 1,000G (5.9%, 2,426G)
Avin_Chaos: 1,000G (5.9%, 16,369G)
BirbBrainsBot: 1,000G (5.9%, 77,451G)
jakeduhhsnake: 1,000G (5.9%, 21,431G)
JumbocactuarX27: 1,000G (5.9%, 15,586G)
ShintaroNayaka: 830G (4.9%, 830G)
datkins728: 823G (4.8%, 823G)
Jerboj: 500G (2.9%, 61,229G)
edgehead62888: 500G (2.9%, 10,273G)
arch8000: 500G (2.9%, 6,731G)
skuldar: 431G (2.5%, 431G)
ungabunga_bot: 385G (2.3%, 284,230G)
marrrrrrrrrrrrrrrrrrrr: 323G (1.9%, 923G)
museofdoom: 300G (1.8%, 5,073G)
dorman_777: 112G (0.7%, 112G)
nifboy: 100G (0.6%, 2,983G)
