Final Bets: white - 23 bets for 28,504G (76.6%, x0.31); brown - 7 bets for 8,724G (23.4%, x3.27)

white bets:
nhammen: 10,000G (35.1%, 423,318G)
reinoe: 6,251G (21.9%, 12,503G)
thunderducker: 3,000G (10.5%, 8,162G)
CorpusCav: 1,200G (4.2%, 9,986G)
BirbBrainsBot: 1,000G (3.5%, 76,728G)
upvla: 1,000G (3.5%, 1,000G)
loveyouallfriends: 1,000G (3.5%, 33,110G)
Raixelol: 600G (2.1%, 600G)
krombobreaker: 500G (1.8%, 12,988G)
TheDapperChangeling: 434G (1.5%, 434G)
Runeseeker22: 411G (1.4%, 8,231G)
Zagorsek: 408G (1.4%, 408G)
latebit: 404G (1.4%, 404G)
ValensEXP_: 371G (1.3%, 371G)
let_them_eat_the_rich: 330G (1.2%, 330G)
AltimaMantoid: 300G (1.1%, 2,900G)
Neech: 300G (1.1%, 1,300G)
acid_flashback: 287G (1.0%, 5,749G)
datadrivenbot: 200G (0.7%, 58,844G)
aceof86: 200G (0.7%, 6,472G)
getthemoneyz: 108G (0.4%, 1,921,636G)
BartTradingCompany: 100G (0.4%, 5,324G)
grishhammer: 100G (0.4%, 1,883G)

brown bets:
DeathTaxesAndAnime: 3,796G (43.5%, 7,444G)
NovaKnight21: 2,075G (23.8%, 4,151G)
Thyrandaal: 1,534G (17.6%, 3,008G)
Zeroroute: 795G (9.1%, 5,306G)
Xeiphyer: 224G (2.6%, 224G)
mizzmoonshine: 200G (2.3%, 1,200G)
AllInBot: 100G (1.1%, 100G)
