Final Bets: green - 24 bets for 14,801G (59.6%, x0.68); yellow - 12 bets for 10,028G (40.4%, x1.48)

green bets:
Mesmaster: 2,630G (17.8%, 2,630G)
SkylerBunny: 2,000G (13.5%, 106,651G)
OneHundredFists: 2,000G (13.5%, 24,474G)
Meta_Five: 1,805G (12.2%, 1,805G)
BirbBrainsBot: 1,000G (6.8%, 60,501G)
getthemoneyz: 780G (5.3%, 882,090G)
HaychDub: 750G (5.1%, 19,658G)
prince_rogers_nelson_: 527G (3.6%, 527G)
Grandlanzer: 500G (3.4%, 9,958G)
killth3kid: 500G (3.4%, 12,236G)
Nohurty: 422G (2.9%, 844G)
GladiatorLupe: 307G (2.1%, 307G)
cougboi: 250G (1.7%, 16,360G)
JumbocactuarX27: 200G (1.4%, 2,937G)
JLinkletter: 200G (1.4%, 2,198G)
HASTERIOUS: 180G (1.2%, 3,609G)
moocaotao: 100G (0.7%, 1,338G)
Ring_Wyrm: 100G (0.7%, 673G)
CosmicTactician: 100G (0.7%, 25,121G)
ChronoG: 100G (0.7%, 5,091G)
datadrivenbot: 100G (0.7%, 38,583G)
Miku_Shikhu: 100G (0.7%, 19,567G)
mrfripps: 100G (0.7%, 1,722G)
kintaru_oe: 50G (0.3%, 794G)

yellow bets:
DeathTaxesAndAnime: 2,591G (25.8%, 5,081G)
Evewho: 2,001G (20.0%, 3,925G)
Rislyeu: 1,585G (15.8%, 1,585G)
Lydian_C: 1,200G (12.0%, 15,060G)
Digitalsocrates: 1,000G (10.0%, 2,566G)
superdevon1: 492G (4.9%, 4,922G)
electric_algus: 400G (4.0%, 4,048G)
CaptainGarlock: 250G (2.5%, 6,595G)
AllInBot: 209G (2.1%, 209G)
E_Ballard: 100G (1.0%, 2,646G)
fluffskull: 100G (1.0%, 307G)
DAC169: 100G (1.0%, 1,329G)
