Final Bets: white - 15 bets for 9,434G (51.3%, x0.95); black - 13 bets for 8,963G (48.7%, x1.05)

white bets:
Laserman1000: 1,911G (20.3%, 67,911G)
YaBoy125: 1,676G (17.8%, 55,889G)
WitchHunterIX: 1,500G (15.9%, 18,310G)
HuffFlex: 1,000G (10.6%, 3,176G)
serperemagus: 884G (9.4%, 884G)
RaIshtar: 844G (8.9%, 844G)
reddwind_: 496G (5.3%, 496G)
gorgewall: 301G (3.2%, 21,045G)
KasugaiRoastedPeas: 200G (2.1%, 3,526G)
Lydian_C: 120G (1.3%, 13,517G)
getthemoneyz: 102G (1.1%, 948,982G)
AllInBot: 100G (1.1%, 100G)
EmperorBeef: 100G (1.1%, 196,761G)
Quadh0nk: 100G (1.1%, 2,177G)
datadrivenbot: 100G (1.1%, 39,210G)

black bets:
SkylerBunny: 3,000G (33.5%, 125,599G)
BirbBrainsBot: 1,000G (11.2%, 6,196G)
EnemyController: 1,000G (11.2%, 585,678G)
prince_rogers_nelson_: 1,000G (11.2%, 9,815G)
Creggers: 1,000G (11.2%, 14,251G)
kaelsun: 812G (9.1%, 812G)
Dexsana: 300G (3.3%, 3,849G)
HaychDub: 250G (2.8%, 37,057G)
alithesillybird: 200G (2.2%, 5,794G)
MadnessR: 101G (1.1%, 2,686G)
Firesheath: 100G (1.1%, 9,134G)
DAC169: 100G (1.1%, 1,220G)
Lythe_Caraker: 100G (1.1%, 114,797G)
