Final Bets: green - 9 bets for 4,228G (62.8%, x0.59); yellow - 6 bets for 2,506G (37.2%, x1.69)

green bets:
Lydian_C: 1,200G (28.4%, 7,129G)
gorgewall: 712G (16.8%, 712G)
Mesmaster: 696G (16.5%, 696G)
KasugaiRoastedPeas: 688G (16.3%, 688G)
AllInBot: 300G (7.1%, 300G)
xBizzy: 232G (5.5%, 232G)
datadrivenbot: 200G (4.7%, 58,947G)
MinBetBot: 100G (2.4%, 21,810G)
ko2q: 100G (2.4%, 2,031G)

yellow bets:
Sairentozon7: 1,000G (39.9%, 91,271G)
superdevon1: 704G (28.1%, 70,468G)
BirbBrainsBot: 424G (16.9%, 50,320G)
getthemoneyz: 178G (7.1%, 1,616,250G)
DAC169: 100G (4.0%, 910G)
CT_5_Holy: 100G (4.0%, 2,673G)
