Final Bets: red - 13 bets for 7,807G (77.3%, x0.29); blue - 5 bets for 2,297G (22.7%, x3.40)

red bets:
NovaKnight21: 2,000G (25.6%, 22,826G)
Sairentozon7: 1,000G (12.8%, 56,187G)
BirbBrainsBot: 1,000G (12.8%, 9,844G)
getthemoneyz: 1,000G (12.8%, 1,344,630G)
victoriolue: 600G (7.7%, 600G)
iBardic: 500G (6.4%, 15,494G)
randgridr: 472G (6.0%, 16,849G)
twelfthrootoftwo: 354G (4.5%, 695G)
dem0nj0ns: 260G (3.3%, 260G)
AllInBot: 200G (2.6%, 200G)
datadrivenbot: 200G (2.6%, 35,011G)
Lydian_C: 121G (1.5%, 84,120G)
Lemonjohns: 100G (1.3%, 2,943G)

blue bets:
douchetron: 884G (38.5%, 1,734G)
ColetteMSLP: 750G (32.7%, 20,506G)
superdevon1: 463G (20.2%, 9,275G)
readdesert: 100G (4.4%, 2,184G)
ruleof5: 100G (4.4%, 5,124G)
