Final Bets: black - 15 bets for 18,966G (23.8%, x3.21); brown - 23 bets for 60,866G (76.2%, x0.31)

black bets:
TheChainNerd: 6,596G (34.8%, 65,966G)
reinoe: 5,000G (26.4%, 56,817G)
AllInBot: 2,240G (11.8%, 2,240G)
BirbBrainsBot: 1,000G (5.3%, 15,706G)
dantayystv: 1,000G (5.3%, 17,669G)
Seaweed_B: 747G (3.9%, 747G)
getthemoneyz: 538G (2.8%, 1,304,096G)
Aldrammech: 476G (2.5%, 476G)
randgridr: 368G (1.9%, 368G)
gorgewall: 301G (1.6%, 9,044G)
DAC169: 200G (1.1%, 5,851G)
hiros13gts: 200G (1.1%, 1,475G)
TasisSai: 100G (0.5%, 9,009G)
Firesheath: 100G (0.5%, 13,275G)
Blastinus: 100G (0.5%, 709G)

brown bets:
NicoSavoy: 10,000G (16.4%, 206,570G)
Twisted_Nutsatchel: 8,043G (13.2%, 8,043G)
upvla: 8,000G (13.1%, 9,332G)
NIghtdew14: 6,029G (9.9%, 12,058G)
Virilikus: 6,000G (9.9%, 208,918G)
RaIshtar: 5,000G (8.2%, 28,729G)
SkylerBunny: 4,000G (6.6%, 60,663G)
fluffskull: 3,843G (6.3%, 3,843G)
HaateXIII: 2,364G (3.9%, 2,364G)
Zeroroute: 1,555G (2.6%, 1,555G)
Laserman1000: 878G (1.4%, 33,278G)
Xoomwaffle: 750G (1.2%, 3,331G)
dtrain332: 737G (1.2%, 737G)
DamnThatShark: 688G (1.1%, 688G)
TheMurkGnome: 615G (1.0%, 3,595G)
dogsandcatsand: 572G (0.9%, 572G)
prince_rogers_nelson_: 436G (0.7%, 436G)
run_with_stone_GUNs: 348G (0.6%, 7,517G)
dolzytwitch: 300G (0.5%, 3,252G)
Othatmattkid: 208G (0.3%, 208G)
DeathTaxesAndAnime: 200G (0.3%, 3,064G)
AsceticGamer: 200G (0.3%, 1,298G)
victoriolue: 100G (0.2%, 2,183G)
