Final Bets: green - 14 bets for 13,024G (61.6%, x0.62); yellow - 12 bets for 8,125G (38.4%, x1.60)

green bets:
sinnyil2: 2,500G (19.2%, 99,913G)
Lydian_C: 2,400G (18.4%, 156,917G)
kai_shee: 2,000G (15.4%, 132,514G)
HaplessOne: 1,500G (11.5%, 116,565G)
aStatue: 1,159G (8.9%, 1,159G)
NovaKnight21: 794G (6.1%, 794G)
R_Raynos: 602G (4.6%, 602G)
RubenFlonne: 500G (3.8%, 18,221G)
Goust18: 500G (3.8%, 4,536G)
Jeeboheebo: 348G (2.7%, 348G)
Powermhero: 250G (1.9%, 8,400G)
getthemoneyz: 188G (1.4%, 546,018G)
AllInBot: 183G (1.4%, 183G)
Evewho: 100G (0.8%, 368G)

yellow bets:
Shakarak: 2,728G (33.6%, 2,728G)
rocl: 1,000G (12.3%, 53,236G)
ItsMyCoolName: 1,000G (12.3%, 1,000G)
BirbBrainsBot: 1,000G (12.3%, 87,840G)
YaBoy125: 816G (10.0%, 816G)
sukotsuto: 500G (6.2%, 3,051G)
ungabunga_bot: 312G (3.8%, 211,339G)
mastershango: 300G (3.7%, 11,116G)
byrdturbo: 169G (2.1%, 8,870G)
pLifer: 100G (1.2%, 761G)
datadrivenbot: 100G (1.2%, 784G)
Jahshine: 100G (1.2%, 100G)
