Final Bets: green - 12 bets for 5,064G (19.7%, x4.07); champion - 18 bets for 20,586G (80.3%, x0.25)

green bets:
Lydian_C: 1,200G (23.7%, 153,014G)
ColetteMSLP: 1,000G (19.7%, 40,375G)
Shakarak: 600G (11.8%, 600G)
RubenFlonne: 500G (9.9%, 20,119G)
KasugaiRoastedPeas: 420G (8.3%, 14,097G)
Slowbrofist: 372G (7.3%, 372G)
roqqqpsi: 340G (6.7%, 1,546G)
YaBoy125: 232G (4.6%, 948G)
Tithonus: 100G (2.0%, 5,277G)
ItsMyCoolName: 100G (2.0%, 100G)
juno_vivi: 100G (2.0%, 1,610G)
Evewho: 100G (2.0%, 1,257G)

champion bets:
HaplessOne: 5,000G (24.3%, 119,756G)
Willjin: 3,000G (14.6%, 15,253G)
sinnyil2: 2,500G (12.1%, 103,603G)
kai_shee: 2,000G (9.7%, 135,061G)
R_Raynos: 1,322G (6.4%, 1,322G)
uncharreted: 1,314G (6.4%, 2,191G)
leakimiko: 1,170G (5.7%, 14,635G)
BirbBrainsBot: 1,000G (4.9%, 86,161G)
Mikumari12: 791G (3.8%, 791G)
Jeeboheebo: 565G (2.7%, 565G)
aStatue: 500G (2.4%, 500G)
Masta_Glenn: 500G (2.4%, 2,013G)
Chuckolator: 424G (2.1%, 24,122G)
AllInBot: 100G (0.5%, 100G)
TimeJannies: 100G (0.5%, 19,602G)
ungabunga_bot: 100G (0.5%, 211,832G)
datadrivenbot: 100G (0.5%, 619G)
pLifer: 100G (0.5%, 2,597G)
