Final Bets: red - 24 bets for 12,682G (52.2%, x0.92); blue - 14 bets for 11,636G (47.8%, x1.09)

red bets:
OneHundredFists: 3,093G (24.4%, 3,093G)
Tougou: 1,015G (8.0%, 1,015G)
Lord_Burrah: 1,000G (7.9%, 93,696G)
getthemoneyz: 786G (6.2%, 412,684G)
ig_ats: 759G (6.0%, 759G)
lunaticruin: 756G (6.0%, 756G)
Lanshaft: 600G (4.7%, 6,947G)
HaplessOne: 500G (3.9%, 32,555G)
EnemyController: 400G (3.2%, 10,300G)
yure1x: 400G (3.2%, 1,694G)
ApplesauceBoss: 384G (3.0%, 384G)
CorpusCav: 333G (2.6%, 5,000G)
Goust18: 328G (2.6%, 328G)
ko2q: 324G (2.6%, 324G)
MrDiggs49: 300G (2.4%, 2,009G)
Maeveen: 300G (2.4%, 300G)
CapnChaos12: 300G (2.4%, 1,935G)
DrAntiSocial: 300G (2.4%, 748G)
ugoplatamia: 200G (1.6%, 24,834G)
KasugaiRoastedPeas: 200G (1.6%, 27,049G)
NUMBER1DB: 104G (0.8%, 104G)
friendsquirrel: 100G (0.8%, 1,263G)
Conome: 100G (0.8%, 2,281G)
datadrivenbot: 100G (0.8%, 15,110G)

blue bets:
Lodrak: 5,136G (44.1%, 10,272G)
upvla: 1,000G (8.6%, 21,694G)
BirbBrainsBot: 1,000G (8.6%, 141,372G)
bad1dea: 1,000G (8.6%, 358,353G)
kai_shee: 1,000G (8.6%, 28,927G)
Laserman1000: 800G (6.9%, 8,700G)
DeathTaxesAndAnime: 709G (6.1%, 709G)
ZephyrTempest: 267G (2.3%, 18,122G)
old_overholt_: 200G (1.7%, 1,694G)
Snowfats: 124G (1.1%, 124G)
AllInBot: 100G (0.9%, 100G)
BadBlanket: 100G (0.9%, 4,909G)
maakur_: 100G (0.9%, 5,241G)
Nizaha: 100G (0.9%, 16,070G)
