Final Bets: yellow - 15 bets for 22,370G (29.3%, x2.41); champion - 22 bets for 53,867G (70.7%, x0.42)

yellow bets:
E_Ballard: 7,960G (35.6%, 7,960G)
Master_Metroid: 5,000G (22.4%, 12,994G)
Miyokari: 3,100G (13.9%, 5,590G)
RunicMagus: 2,000G (8.9%, 50,595G)
elelor: 1,064G (4.8%, 1,064G)
leakimiko: 1,000G (4.5%, 26,580G)
Baron_von_Scrub: 474G (2.1%, 4,871G)
gooseyourself: 460G (2.1%, 460G)
ungabunga_bot: 383G (1.7%, 433,608G)
Smashy: 300G (1.3%, 2,700G)
mannequ1n: 244G (1.1%, 244G)
tabletz21: 151G (0.7%, 951G)
b0shii: 123G (0.5%, 13,596G)
datadrivenbot: 100G (0.4%, 11,720G)
popotinha1889: 11G (0.0%, 284G)

champion bets:
theNGUYENNER: 20,000G (37.1%, 52,100G)
ACSpree: 12,861G (23.9%, 25,722G)
cam_ATS: 5,436G (10.1%, 5,436G)
Grimmace45: 4,174G (7.7%, 16,696G)
toka222: 2,000G (3.7%, 6,383G)
fenaen: 1,200G (2.2%, 8,246G)
foofermoofer: 1,118G (2.1%, 1,118G)
rico_flex: 1,100G (2.0%, 31,043G)
roqqqpsi: 1,034G (1.9%, 4,700G)
BirbBrainsBot: 1,000G (1.9%, 159,922G)
Lionhermit: 1,000G (1.9%, 35,114G)
Laserman1000: 904G (1.7%, 9,204G)
ThePineappleSalesman: 500G (0.9%, 27,905G)
dogsandcatsand: 328G (0.6%, 328G)
ShintaroNayaka: 300G (0.6%, 300G)
Ross_from_Cali: 240G (0.4%, 240G)
Lionheart817: 200G (0.4%, 529G)
getthemoneyz: 122G (0.2%, 654,544G)
gggamezzz: 100G (0.2%, 566G)
ko2q: 100G (0.2%, 2,156G)
timthehoodie: 100G (0.2%, 2,719G)
Jampck: 50G (0.1%, 995G)
