Final Bets: purple - 3 bets for 614G (13.7%, x6.31); brown - 6 bets for 3,874G (86.3%, x0.16)

purple bets:
lowlf: 360G (58.6%, 1,157G)
BirbBrainsBot: 140G (22.8%, 97,075G)
getthemoneyz: 114G (18.6%, 1,695,422G)

brown bets:
skipsandwiches: 1,254G (32.4%, 1,254G)
superdevon1: 1,219G (31.5%, 121,907G)
amiture: 1,000G (25.8%, 12,850G)
datadrivenbot: 200G (5.2%, 64,665G)
gorgewall: 101G (2.6%, 4,959G)
AllInBot: 100G (2.6%, 100G)
