Final Bets: green - 14 bets for 6,705G (34.4%, x1.90); yellow - 10 bets for 12,759G (65.6%, x0.53)

green bets:
reinoe: 2,000G (29.8%, 110,323G)
Drusiform: 1,000G (14.9%, 2,706G)
getthemoneyz: 1,000G (14.9%, 1,543,994G)
BirbBrainsBot: 1,000G (14.9%, 14,748G)
LAGBOT30000: 258G (3.8%, 2,584G)
DesertWooder: 236G (3.5%, 236G)
AllInBot: 200G (3.0%, 200G)
Usurpationblitz: 200G (3.0%, 1,408G)
datadrivenbot: 200G (3.0%, 49,634G)
placidphoenix: 156G (2.3%, 156G)
holdenmagronik: 150G (2.2%, 2,260G)
peefingers: 104G (1.6%, 104G)
PantherIscariot: 101G (1.5%, 2,062G)
Brainstew29: 100G (1.5%, 37,585G)

yellow bets:
DeathTaxesAndAnime: 2,636G (20.7%, 5,170G)
SkylerBunny: 2,300G (18.0%, 314,138G)
NicoSavoy: 2,135G (16.7%, 106,776G)
Mesmaster: 2,000G (15.7%, 6,110G)
ko2q: 1,960G (15.4%, 1,960G)
douchetron: 883G (6.9%, 883G)
dtrain332: 344G (2.7%, 344G)
gorgewall: 201G (1.6%, 2,486G)
twelfthrootoftwo: 200G (1.6%, 5,624G)
Firesheath: 100G (0.8%, 24,830G)
