Final Bets: green - 8 bets for 10,103G (37.4%, x1.68); champion - 20 bets for 16,934G (62.6%, x0.60)

green bets:
PhaseLoss: 4,706G (46.6%, 9,412G)
Zeroroute: 2,405G (23.8%, 2,405G)
Aldrammech: 800G (7.9%, 800G)
killth3kid: 668G (6.6%, 16,380G)
superdevon1: 667G (6.6%, 66,781G)
Drusiform: 500G (4.9%, 19,744G)
Lillifen: 257G (2.5%, 257G)
MinBetBot: 100G (1.0%, 22,426G)

champion bets:
latebit: 5,000G (29.5%, 9,827G)
HaateXIII: 1,533G (9.1%, 1,533G)
randgridr: 1,501G (8.9%, 1,501G)
NIghtdew14: 1,500G (8.9%, 19,622G)
Lord_Burrah: 1,234G (7.3%, 79,234G)
BirbBrainsBot: 1,000G (5.9%, 183,876G)
Mesmaster: 834G (4.9%, 834G)
Nizaha: 708G (4.2%, 15,292G)
AllInBot: 691G (4.1%, 691G)
douchetron: 600G (3.5%, 600G)
dogsandcatsand: 528G (3.1%, 528G)
skillomono: 484G (2.9%, 484G)
getthemoneyz: 298G (1.8%, 1,591,873G)
timthehoodie: 250G (1.5%, 840G)
datadrivenbot: 200G (1.2%, 59,494G)
Chuckolator: 164G (1.0%, 15,259G)
Tarheels218: 108G (0.6%, 108G)
gorgewall: 101G (0.6%, 4,930G)
ANFz: 100G (0.6%, 43,848G)
Miku_Shikhu: 100G (0.6%, 7,567G)
