Final Bets: purple - 23 bets for 10,577G (33.4%, x2.00); brown - 26 bets for 21,132G (66.6%, x0.50)

purple bets:
ANFz: 1,382G (13.1%, 1,382G)
OmnibotGamma: 1,372G (13.0%, 1,372G)
Nizaha: 1,245G (11.8%, 2,491G)
mirapoix: 1,000G (9.5%, 7,814G)
Lanshaft: 600G (5.7%, 600G)
waterwatereverywhere: 596G (5.6%, 596G)
Pie108: 500G (4.7%, 10,086G)
Vampire_Killer: 500G (4.7%, 9,033G)
SeedSC: 420G (4.0%, 187,670G)
Cryptopsy70: 356G (3.4%, 8,171G)
Baron_von_Scrub: 353G (3.3%, 4,577G)
HaateXIII: 312G (2.9%, 312G)
Aldrammech: 253G (2.4%, 2,536G)
b0shii: 244G (2.3%, 244G)
ZephyrTempest: 229G (2.2%, 39,351G)
Chuckolator: 223G (2.1%, 4,010G)
mexskacin: 216G (2.0%, 216G)
Evewho: 200G (1.9%, 4,573G)
BirbBrainsBot: 180G (1.7%, 292,172G)
regios91: 164G (1.6%, 164G)
RughSontos: 100G (0.9%, 1,000G)
BlinkFS: 100G (0.9%, 3,469G)
getthemoneyz: 32G (0.3%, 445,642G)

brown bets:
Zeroroute: 4,350G (20.6%, 9,036G)
maakur_: 2,193G (10.4%, 2,193G)
kingchadking: 2,162G (10.2%, 2,162G)
Lodrak: 2,004G (9.5%, 2,004G)
Dothan89: 1,663G (7.9%, 3,261G)
volgrathemoose: 1,419G (6.7%, 1,419G)
lowlf: 1,000G (4.7%, 26,900G)
sinnyil2: 796G (3.8%, 796G)
Meta_Five: 621G (2.9%, 6,217G)
Shalloween: 600G (2.8%, 7,468G)
upvla: 564G (2.7%, 564G)
UmaiJam: 560G (2.7%, 560G)
luminarii: 496G (2.3%, 14,000G)
BenYuPoker: 400G (1.9%, 400G)
catfashions: 396G (1.9%, 396G)
madming25: 385G (1.8%, 385G)
Break3r: 280G (1.3%, 280G)
moonliquor: 224G (1.1%, 224G)
0utlier: 200G (0.9%, 6,181G)
KasugaiRoastedPeas: 200G (0.9%, 17,396G)
Jordache7K: 111G (0.5%, 20,302G)
Jonusfatson: 108G (0.5%, 108G)
AllInBot: 100G (0.5%, 100G)
ApplesauceBoss: 100G (0.5%, 5,675G)
RunicMagus: 100G (0.5%, 1,171G)
datadrivenbot: 100G (0.5%, 25,762G)
