Final Bets: green - 14 bets for 10,977G (30.7%, x2.26); champion - 29 bets for 24,793G (69.3%, x0.44)

green bets:
metagameface: 3,000G (27.3%, 11,653G)
Virilikus: 3,000G (27.3%, 179,078G)
TheChainNerd: 1,166G (10.6%, 56,166G)
Evewho: 1,000G (9.1%, 9,215G)
reinoe: 1,000G (9.1%, 53,308G)
Baron_von_Scrub: 474G (4.3%, 24,628G)
powergems: 352G (3.2%, 352G)
byrdturbo: 269G (2.5%, 18,702G)
old_overholt_: 200G (1.8%, 14,740G)
TinchoT: 116G (1.1%, 116G)
CosmicTactician: 100G (0.9%, 1,537G)
ANFz: 100G (0.9%, 7,914G)
ZombiFrancis: 100G (0.9%, 265G)
Kyune: 100G (0.9%, 32,609G)

champion bets:
rico_flex: 6,713G (27.1%, 20,345G)
HaateXIII: 2,500G (10.1%, 17,849G)
roofiepops: 1,444G (5.8%, 20,021G)
Shalloween: 1,322G (5.3%, 2,645G)
cloud92684: 1,000G (4.0%, 11,770G)
Jinxzers: 1,000G (4.0%, 10,094G)
BirbBrainsBot: 1,000G (4.0%, 61,027G)
EnemyController: 1,000G (4.0%, 437,886G)
Candina: 999G (4.0%, 75,533G)
tronfonne: 831G (3.4%, 831G)
AllInBot: 820G (3.3%, 820G)
Oobs56: 750G (3.0%, 5,430G)
ravingsockmonkey: 519G (2.1%, 519G)
Nizaha: 501G (2.0%, 8,034G)
Flameatron: 500G (2.0%, 1,541G)
Error72: 500G (2.0%, 3,314G)
Xcessive30: 475G (1.9%, 475G)
E_Ballard: 460G (1.9%, 460G)
coralreeferz: 380G (1.5%, 380G)
aznwanderor: 364G (1.5%, 364G)
getthemoneyz: 326G (1.3%, 760,375G)
CapnChaos12: 300G (1.2%, 18,372G)
nifboy: 250G (1.0%, 12,401G)
CandyTamer: 248G (1.0%, 839G)
kaelsun: 236G (1.0%, 236G)
CorpusCav: 100G (0.4%, 7,069G)
d4rr1n: 100G (0.4%, 7,078G)
datadrivenbot: 100G (0.4%, 28,730G)
daveb_: 55G (0.2%, 1,818G)
