Final Bets: purple - 15 bets for 8,711G (70.8%, x0.41); brown - 8 bets for 3,585G (29.2%, x2.43)

purple bets:
douchetron: 2,097G (24.1%, 2,097G)
DustBirdEX: 1,470G (16.9%, 2,940G)
skipsandwiches: 1,001G (11.5%, 2,250G)
dogsandcatsand: 1,000G (11.5%, 70,718G)
getthemoneyz: 874G (10.0%, 1,659,630G)
Draconis345: 500G (5.7%, 15,527G)
resjudicata3: 410G (4.7%, 410G)
docmitchphd: 300G (3.4%, 4,531G)
coralreeferz: 250G (2.9%, 2,095G)
datadrivenbot: 200G (2.3%, 70,740G)
BirbBrainsBot: 200G (2.3%, 200G)
DouglasDragonThePoet: 109G (1.3%, 765G)
RunicMagus: 100G (1.1%, 11,579G)
Bongomon7: 100G (1.1%, 4,740G)
reddwind_: 100G (1.1%, 38,562G)

brown bets:
Bryon_W: 1,000G (27.9%, 11,045G)
Zagorsek: 986G (27.5%, 986G)
SeniorBunk: 500G (13.9%, 18,571G)
MrPhuui: 500G (13.9%, 7,908G)
JonnyCue: 264G (7.4%, 264G)
AllInBot: 135G (3.8%, 135G)
Thyrandaal: 100G (2.8%, 310,958G)
ko2q: 100G (2.8%, 2,840G)
