Final Bets: green - 16 bets for 11,245G (40.2%, x1.49); yellow - 15 bets for 16,709G (59.8%, x0.67)

green bets:
RampagingRobot: 1,985G (17.7%, 20,985G)
roqqqpsi: 1,907G (17.0%, 17,342G)
UmaiJam: 1,800G (16.0%, 80,004G)
BirbBrainsBot: 857G (7.6%, 118,595G)
E_Ballard: 846G (7.5%, 846G)
Zagorsek: 805G (7.2%, 805G)
Lanshaft: 700G (6.2%, 1,374G)
Firesheath: 684G (6.1%, 684G)
killth3kid: 444G (3.9%, 133,289G)
DustBirdEX: 345G (3.1%, 2,522G)
CITOtheMOSQUITO: 250G (2.2%, 1,211G)
safira125: 220G (2.0%, 220G)
getthemoneyz: 152G (1.4%, 1,154,325G)
nifboy: 100G (0.9%, 5,064G)
muffin_money: 100G (0.9%, 9,535G)
butterbelljedi: 50G (0.4%, 2,345G)

yellow bets:
neerrm: 11,000G (65.8%, 51,127G)
gorgewall: 1,048G (6.3%, 1,048G)
Draconis345: 1,000G (6.0%, 49,613G)
DeathTaxesAndAnime: 784G (4.7%, 784G)
Nizaha: 504G (3.0%, 6,313G)
moonliquor: 500G (3.0%, 2,536G)
Shalloween: 500G (3.0%, 70,467G)
twelfthrootoftwo: 500G (3.0%, 18,850G)
fluffskull: 200G (1.2%, 1,093G)
RageImmortaI: 168G (1.0%, 168G)
phoenix6107: 104G (0.6%, 104G)
Baron_von_Scrub: 101G (0.6%, 27,867G)
Ring_Wyrm: 100G (0.6%, 5,834G)
SuzakuReii: 100G (0.6%, 2,524G)
datadrivenbot: 100G (0.6%, 51,704G)
