Final Bets: green - 14 bets for 5,280G (28.3%, x2.54); yellow - 15 bets for 13,395G (71.7%, x0.39)

green bets:
fenaen: 1,115G (21.1%, 1,115G)
JumbocactuarX27: 1,083G (20.5%, 2,166G)
MirtaiAtana: 500G (9.5%, 7,719G)
Drusic: 500G (9.5%, 10,526G)
TheChainNerd: 484G (9.2%, 484G)
coralreeferz: 350G (6.6%, 14,639G)
Kyune: 250G (4.7%, 1,481G)
LaserRamon: 250G (4.7%, 6,465G)
FriendSquirrel: 200G (3.8%, 1,700G)
getthemoneyz: 172G (3.3%, 672,641G)
jtrap666: 150G (2.8%, 378G)
Tekenu: 124G (2.3%, 124G)
mannequ1n: 100G (1.9%, 6,650G)
FaytKion: 2G (0.0%, 7,010G)

yellow bets:
toka222: 3,800G (28.4%, 16,457G)
catfashions: 3,643G (27.2%, 3,643G)
HaplessOne: 1,234G (9.2%, 19,294G)
Lionhermit: 1,000G (7.5%, 46,466G)
DustBirdEX: 901G (6.7%, 10,360G)
ko2q: 861G (6.4%, 861G)
BirbBrainsBot: 738G (5.5%, 27,105G)
nifboy: 328G (2.4%, 328G)
daveb_: 200G (1.5%, 1,955G)
ungabunga_bot: 198G (1.5%, 480,518G)
foofermoofer: 142G (1.1%, 142G)
CosmicTactician: 100G (0.7%, 7,995G)
LeoNightFury: 100G (0.7%, 5,747G)
FoeSquirrel: 100G (0.7%, 6,057G)
DrAntiSocial: 50G (0.4%, 14,248G)
