Final Bets: white - 15 bets for 6,254G (35.8%, x1.79); purple - 20 bets for 11,214G (64.2%, x0.56)

white bets:
toka222: 1,450G (23.2%, 18,756G)
TsukikageRyu: 1,290G (20.6%, 1,290G)
HaplessOne: 666G (10.6%, 22,591G)
Estan_AD: 654G (10.5%, 654G)
catfashions: 500G (8.0%, 5,808G)
Kyune: 324G (5.2%, 324G)
klonoa331: 313G (5.0%, 313G)
bahamutlagooon: 300G (4.8%, 6,007G)
daveb_: 133G (2.1%, 1,295G)
Tekenu: 124G (2.0%, 124G)
CosmicTactician: 100G (1.6%, 8,403G)
mannequ1n: 100G (1.6%, 6,783G)
Realitydown: 100G (1.6%, 3,004G)
ko2q: 100G (1.6%, 1,157G)
foofermoofer: 100G (1.6%, 269G)

purple bets:
DavenIII: 3,500G (31.2%, 20,696G)
CapnChaos12: 1,145G (10.2%, 1,145G)
ungabunga_bot: 1,000G (8.9%, 480,007G)
BirbBrainsBot: 1,000G (8.9%, 25,672G)
Lionhermit: 1,000G (8.9%, 45,217G)
AUrato: 694G (6.2%, 1,388G)
DustBirdEX: 543G (4.8%, 10,060G)
fenaen: 516G (4.6%, 516G)
jtrap666: 312G (2.8%, 312G)
JumbocactuarX27: 262G (2.3%, 524G)
potgodtopdog: 222G (2.0%, 36,048G)
Corky_McCorkscrew: 200G (1.8%, 733G)
eudes89: 200G (1.8%, 4,886G)
O_Heyno: 150G (1.3%, 954G)
nifboy: 100G (0.9%, 2,269G)
RagequitSA: 100G (0.9%, 2,305G)
holyonline: 100G (0.9%, 6,692G)
FoeSquirrel: 100G (0.9%, 5,932G)
getthemoneyz: 68G (0.6%, 672,237G)
FaytKion: 2G (0.0%, 7,008G)
