Final Bets: white - 7 bets for 7,101G (89.3%, x0.12); black - 3 bets for 852G (10.7%, x8.33)

white bets:
NicoSavoy: 4,000G (56.3%, 190,771G)
BirbBrainsBot: 1,000G (14.1%, 77,977G)
getthemoneyz: 500G (7.0%, 1,272,265G)
dem0nj0ns: 500G (7.0%, 1,671G)
dantayystv: 500G (7.0%, 3,511G)
Lemonjohns: 400G (5.6%, 2,999G)
VolgraTheMoose: 201G (2.8%, 7,080G)

black bets:
randgridr: 452G (53.1%, 452G)
datadrivenbot: 200G (23.5%, 61,911G)
Mysteriousdewd: 200G (23.5%, 1,217G)
