Final Bets: red - 13 bets for 8,412G (69.7%, x0.44); blue - 7 bets for 3,665G (30.3%, x2.30)

red bets:
Mushufasa_: 5,000G (59.4%, 14,370G)
Rune339: 850G (10.1%, 8,506G)
old_overholt_: 500G (5.9%, 48,882G)
seppu777: 333G (4.0%, 1,645G)
scsuperstar: 272G (3.2%, 272G)
superdevon1: 268G (3.2%, 2,682G)
AllInBot: 200G (2.4%, 200G)
heropong: 200G (2.4%, 1,688G)
datadrivenbot: 200G (2.4%, 81,750G)
ValensEXP_: 200G (2.4%, 2,114G)
HASTERIOUS: 177G (2.1%, 3,548G)
PantherIscariot: 111G (1.3%, 3,718G)
gorgewall: 101G (1.2%, 9,134G)

blue bets:
NicoSavoy: 1,703G (46.5%, 1,703G)
DeathTaxesAndAnime: 992G (27.1%, 992G)
JethroThrul: 500G (13.6%, 1,000G)
getthemoneyz: 258G (7.0%, 2,212,160G)
FuzzyTigers: 100G (2.7%, 940G)
YowaneHaku: 100G (2.7%, 328G)
BirbBrainsBot: 12G (0.3%, 177,526G)
