Final Bets: blue - 9 bets for 3,375G (24.9%, x3.02); green - 11 bets for 10,189G (75.1%, x0.33)

blue bets:
BirbBrainsBot: 1,000G (29.6%, 175,766G)
getthemoneyz: 580G (17.2%, 2,211,656G)
ruleof5: 572G (16.9%, 572G)
Deeps_one: 500G (14.8%, 5,443G)
b0lt: 212G (6.3%, 1,110G)
Evewho: 200G (5.9%, 18,301G)
PantherIscariot: 111G (3.3%, 3,540G)
verythinice: 100G (3.0%, 4,110G)
TheBrett: 100G (3.0%, 19,260G)

green bets:
HaplessOne: 4,246G (41.7%, 4,246G)
Leonidusx: 2,000G (19.6%, 490,362G)
superdevon1: 1,702G (16.7%, 1,702G)
YowaneHaku: 505G (5.0%, 505G)
Mushufasa_: 500G (4.9%, 9,667G)
AllInBot: 238G (2.3%, 238G)
gorgewall: 201G (2.0%, 8,915G)
resjudicata3: 200G (2.0%, 2,812G)
ValensEXP_: 200G (2.0%, 2,055G)
datadrivenbot: 200G (2.0%, 81,691G)
JethroThrul: 197G (1.9%, 1,971G)
