Final Bets: red - 8 bets for 3,852G (27.8%, x2.59); blue - 14 bets for 9,984G (72.2%, x0.39)

red bets:
TheChainNerd: 1,000G (26.0%, 26,730G)
BirbBrainsBot: 1,000G (26.0%, 163,976G)
Laserman1000: 600G (15.6%, 26,500G)
Zeroroute: 588G (15.3%, 588G)
Kithmar796: 240G (6.2%, 240G)
dtrain332: 200G (5.2%, 2,359G)
Xoomwaffle: 124G (3.2%, 124G)
nhammen: 100G (2.6%, 11,775G)

blue bets:
NovaKnight21: 2,000G (20.0%, 8,620G)
latebit: 1,216G (12.2%, 1,216G)
LDSkinny: 1,000G (10.0%, 22,788G)
JumbocactuarX27: 1,000G (10.0%, 28,187G)
maakur_: 854G (8.6%, 854G)
dogsandcatsand: 854G (8.6%, 854G)
datadrivenbot: 768G (7.7%, 40,717G)
skillomono: 646G (6.5%, 646G)
Creggers: 500G (5.0%, 40,786G)
ArashiKurobara: 332G (3.3%, 1,573G)
getthemoneyz: 214G (2.1%, 1,286,626G)
AllInBot: 200G (2.0%, 200G)
BlueAbs: 200G (2.0%, 3,678G)
Evewho: 200G (2.0%, 4,198G)
