Final Bets: white - 17 bets for 15,690G (32.0%, x2.13); champion - 28 bets for 33,397G (68.0%, x0.47)

white bets:
sinnyil2: 3,300G (21.0%, 138,092G)
Zachara: 2,686G (17.1%, 60,686G)
kai_shee: 2,000G (12.7%, 145,178G)
OmnibotGamma: 1,423G (9.1%, 2,847G)
TheMurkGnome: 1,218G (7.8%, 16,582G)
Aldrammech: 1,000G (6.4%, 11,373G)
Pie108: 1,000G (6.4%, 72,591G)
braumbles: 1,000G (6.4%, 69,131G)
Ungaiii: 612G (3.9%, 612G)
Lavatis: 501G (3.2%, 2,507G)
DonCardenio: 200G (1.3%, 5,037G)
0utlier: 200G (1.3%, 3,252G)
8bitnit: 150G (1.0%, 789G)
ApplesauceBoss: 100G (0.6%, 9,980G)
placeholdercats: 100G (0.6%, 2,307G)
7Cerulean7: 100G (0.6%, 3,058G)
FriendSquirrel: 100G (0.6%, 35,302G)

champion bets:
gooseyourself: 9,244G (27.7%, 18,127G)
Dymntd: 4,011G (12.0%, 4,011G)
marin1987: 3,226G (9.7%, 3,226G)
AllInBot: 3,045G (9.1%, 3,045G)
HaplessOne: 2,500G (7.5%, 130,797G)
Lordminsc: 1,505G (4.5%, 47,389G)
alrightbye: 1,348G (4.0%, 44,963G)
Nizaha: 1,001G (3.0%, 2,562G)
ungabunga_bot: 1,000G (3.0%, 214,979G)
BirbBrainsBot: 1,000G (3.0%, 129,084G)
EnemyController: 1,000G (3.0%, 76,178G)
volgrathemoose: 772G (2.3%, 772G)
b0shii: 555G (1.7%, 4,694G)
getthemoneyz: 552G (1.7%, 555,199G)
joewcarson: 501G (1.5%, 6,564G)
trigger15: 400G (1.2%, 733G)
Cryptopsy70: 372G (1.1%, 24,343G)
Aneyus: 275G (0.8%, 27,534G)
lijarkh: 200G (0.6%, 15,232G)
Snowfats: 140G (0.4%, 140G)
twelfthrootoftwo: 100G (0.3%, 7,822G)
DeathTaxesAndAnime: 100G (0.3%, 14,961G)
Evewho: 100G (0.3%, 2,394G)
datadrivenbot: 100G (0.3%, 495G)
Lythe_Caraker: 100G (0.3%, 108,514G)
Tougou: 100G (0.3%, 8,995G)
Oobs56: 100G (0.3%, 4,447G)
DrAntiSocial: 50G (0.1%, 21,407G)
