Final Bets: green - 19 bets for 12,269G (53.4%, x0.87); brown - 11 bets for 10,698G (46.6%, x1.15)

green bets:
Forkmore: 4,669G (38.1%, 4,669G)
Sairentozon7: 1,000G (8.2%, 78,766G)
Nizaha: 724G (5.9%, 18,365G)
killth3kid: 692G (5.6%, 42,272G)
pandasforsale: 666G (5.4%, 19,635G)
Lanshaft: 576G (4.7%, 13,950G)
SephDarkheart: 552G (4.5%, 105,169G)
muffin_money: 550G (4.5%, 7,300G)
Gunz232323: 500G (4.1%, 4,745G)
RaIshtar: 497G (4.1%, 497G)
timthehoodie: 300G (2.4%, 1,424G)
amiture: 280G (2.3%, 280G)
getthemoneyz: 280G (2.3%, 1,619,592G)
PantherIscariot: 222G (1.8%, 5,811G)
butterbelljedi: 200G (1.6%, 1,312G)
datadrivenbot: 200G (1.6%, 63,610G)
Aldrammech: 160G (1.3%, 1,602G)
gorgewall: 101G (0.8%, 5,425G)
MinBetBot: 100G (0.8%, 3,144G)

brown bets:
AllInBot: 3,161G (29.5%, 3,161G)
Mesmaster: 2,000G (18.7%, 18,947G)
Tarheels218: 1,500G (14.0%, 18,311G)
BirbBrainsBot: 1,000G (9.3%, 66,749G)
dogsandcatsand: 729G (6.8%, 729G)
Laserman1000: 662G (6.2%, 3,862G)
letdowncity: 516G (4.8%, 30,387G)
LordTomS: 500G (4.7%, 11,424G)
Drusiform: 500G (4.7%, 7,053G)
dark_god_Uthuru: 100G (0.9%, 229G)
ko2q: 30G (0.3%, 1,464G)
