Final Bets: green - 16 bets for 17,384G (48.9%, x1.05); champion - 13 bets for 18,167G (51.1%, x0.96)

green bets:
Forkmore: 8,740G (50.3%, 8,740G)
Nickyfive: 2,500G (14.4%, 50,920G)
ColetteMSLP: 1,000G (5.8%, 29,690G)
getthemoneyz: 892G (5.1%, 1,619,836G)
Nizaha: 724G (4.2%, 18,996G)
Lanshaft: 576G (3.3%, 14,452G)
SephDarkheart: 552G (3.2%, 103,650G)
amiture: 524G (3.0%, 524G)
sinnyil2: 500G (2.9%, 9,112G)
Chuckolator: 352G (2.0%, 352G)
muffin_money: 250G (1.4%, 7,780G)
AllInBot: 200G (1.2%, 200G)
datadrivenbot: 200G (1.2%, 63,784G)
Aldrammech: 174G (1.0%, 1,742G)
MinBetBot: 100G (0.6%, 3,231G)
dark_god_Uthuru: 100G (0.6%, 129G)

champion bets:
reinoe: 10,000G (55.0%, 130,149G)
Mesmaster: 2,000G (11.0%, 16,947G)
arctodus13: 1,179G (6.5%, 1,179G)
Galeronis: 1,071G (5.9%, 1,071G)
BirbBrainsBot: 1,000G (5.5%, 65,749G)
timthehoodie: 600G (3.3%, 1,686G)
dogsandcatsand: 556G (3.1%, 556G)
letdowncity: 516G (2.8%, 29,871G)
nekojin: 500G (2.8%, 14,692G)
PantherIscariot: 444G (2.4%, 6,005G)
gorgewall: 101G (0.6%, 5,513G)
nifboy: 100G (0.6%, 2,131G)
Brainstew29: 100G (0.6%, 37,932G)
