Final Bets: green - 9 bets for 8,265G (17.3%, x4.79); brown - 18 bets for 39,578G (82.7%, x0.21)

green bets:
duchesssx: 3,000G (36.3%, 13,739G)
lowlf: 1,201G (14.5%, 20,663G)
TheMM42: 1,000G (12.1%, 15,223G)
Evewho: 1,000G (12.1%, 17,512G)
BirbBrainsBot: 1,000G (12.1%, 115,907G)
serperemagus: 464G (5.6%, 464G)
notsashasia: 200G (2.4%, 2,607G)
GladiatorLupe: 200G (2.4%, 13,977G)
HawkSick: 200G (2.4%, 2,458G)

brown bets:
EnemyController: 10,001G (25.3%, 621,949G)
holyonline: 10,000G (25.3%, 42,019G)
reinoe: 6,519G (16.5%, 6,519G)
Mesmaster: 3,000G (7.6%, 67,596G)
rNdOrchestra: 2,001G (5.1%, 2,001G)
SkylerBunny: 2,000G (5.1%, 116,936G)
docmitchphd: 1,500G (3.8%, 2,953G)
CorpusCav: 1,166G (2.9%, 1,166G)
prince_rogers_nelson_: 714G (1.8%, 714G)
Laserman1000: 675G (1.7%, 6,575G)
Critsngrits: 500G (1.3%, 500G)
foofermoofer: 340G (0.9%, 340G)
Rislyeu: 304G (0.8%, 304G)
cheesy_e: 300G (0.8%, 400G)
ThisGuyLovesMath: 200G (0.5%, 2,059G)
getthemoneyz: 138G (0.3%, 990,105G)
Lydian_C: 120G (0.3%, 24,367G)
Grandlanzer: 100G (0.3%, 6,540G)
