High Risers:
1. Thyrandaal: +58,235G
2. Lord_Burrah: +38,531G
3. king_smashington: +19,981G
4. nok____: +18,808G
5. Error72: +18,389G
6. silentkaster: +14,212G
7. latebit: +13,092G
8. krombobreaker: +11,559G
9. VolgraTheMoose: +5,712G
10. leaferrm: +5,348G
11. MMagnetMan: +5,303G
12. upvla: +4,725G
13. mirapoix: +4,401G
14. Nizaha: +4,358G
15. CosmicTactician: +4,299G
16. fenaen: +4,200G
17. nekojin: +4,007G
18. gorgewall: +3,962G
19. joewcarson: +3,543G
20. wiznaibusthis: +3,518G
21. killth3kid: +3,068G
22. ExplanationMarkWow: +2,605G
23. Lolthsmeat: +1,961G
24. ShadowNinja25: +1,912G
25. Shalloween: +1,536G
26. resjudicata3: +1,235G
27. Willjin: +1,204G
28. redmage4evah: +1,004G
29. Zachara: +1,000G
30. Lyner87: +912G
31. SQUiDSQUARKLIN: +781G
32. Lord_Gwarth: +716G
33. ValensEXP_: +711G
34. Lifebregin: +600G
35. galkife: +504G
36. ar_tactic: +500G
37. HaateXIII: +500G
38. ANFz: +500G
39. Zagorsek: +500G
40. Aldrammech: +500G
41. E_Ballard: +500G
42. DLJuggernaut: +474G
43. run_with_stone_GUNs: +390G
44. SephDarkheart: +353G
45. Gelwain: +304G
46. RunicMagus: +300G
47. otakutaylor: +251G
48. ayeayex3: +200G
49. maakur_: +112G
50. Hojosu: +85G
51. scsuperstar: -221G
52. gooseyourself: -296G
53. Farseli_: -400G
54. lowlf: -604G
55. roofiepops: -1,000G
56. Twisted_Nutsatchel: -1,000G
57. DanielRKnealeArt: -1,777G
58. NovaKnight21: -2,300G
59. TakzSeason: -2,986G
60. dogsandcatsand: -3,660G
61. Phi_Sig: -16,235G
62. pplvee1: -37,772G
63. nhammen: -239,327G
