Final Bets: brown - 15 bets for 13,498G (45.9%, x1.18); champion - 16 bets for 15,893G (54.1%, x0.85)

brown bets:
pplvee1: 7,521G (55.7%, 15,043G)
Twisted_Nutsatchel: 1,172G (8.7%, 1,172G)
NovaKnight21: 1,000G (7.4%, 10,870G)
BirbBrainsBot: 1,000G (7.4%, 1,585G)
DanielRKnealeArt: 777G (5.8%, 11,844G)
joewcarson: 400G (3.0%, 4,403G)
ValensEXP_: 396G (2.9%, 1,503G)
getthemoneyz: 230G (1.7%, 2,094,040G)
silentkaster: 201G (1.5%, 26,249G)
AllInBot: 200G (1.5%, 200G)
ShadowNinja25: 200G (1.5%, 3,344G)
gorgewall: 101G (0.7%, 5,898G)
mirapoix: 100G (0.7%, 5,848G)
CosmicTactician: 100G (0.7%, 31,497G)
nhammen: 100G (0.7%, 1,991G)

champion bets:
latebit: 5,154G (32.4%, 10,106G)
VolgraTheMoose: 3,730G (23.5%, 37,307G)
Willjin: 1,202G (7.6%, 1,202G)
krombobreaker: 1,000G (6.3%, 34,068G)
nok____: 1,000G (6.3%, 22,382G)
resjudicata3: 787G (5.0%, 1,545G)
Shalloween: 600G (3.8%, 19,568G)
Lolthsmeat: 500G (3.1%, 1,984G)
ExplanationMarkWow: 500G (3.1%, 6,220G)
SephDarkheart: 416G (2.6%, 8,674G)
SQUiDSQUARKLIN: 300G (1.9%, 3,381G)
wiznaibusthis: 200G (1.3%, 3,693G)
datadrivenbot: 200G (1.3%, 75,885G)
TakzSeason: 104G (0.7%, 104G)
Hojosu: 100G (0.6%, 100G)
king_smashington: 100G (0.6%, 21,628G)
