Final Bets: white - 8 bets for 5,215G (37.8%, x1.65); black - 12 bets for 8,588G (62.2%, x0.61)

white bets:
Thyrandaal: 1,809G (34.7%, 1,809G)
BirbBrainsBot: 1,000G (19.2%, 197,698G)
dogsandcatsand: 767G (14.7%, 767G)
getthemoneyz: 522G (10.0%, 1,903,518G)
loveyouallfriends: 433G (8.3%, 433G)
gongonono: 300G (5.8%, 5,524G)
FoeSquirrel: 284G (5.4%, 568G)
CosmicTactician: 100G (1.9%, 30,864G)

black bets:
LDSkinny: 5,000G (58.2%, 31,063G)
ColetteMSLP: 757G (8.8%, 757G)
FriendSquirrel: 696G (8.1%, 696G)
run_with_stone_GUNs: 652G (7.6%, 19,946G)
AllInBot: 342G (4.0%, 342G)
bigbongsmoker: 316G (3.7%, 4,067G)
Ogema_theDream: 216G (2.5%, 216G)
datadrivenbot: 200G (2.3%, 59,425G)
Craymel_Mage: 108G (1.3%, 108G)
gorgewall: 101G (1.2%, 4,331G)
BartTradingCompany: 100G (1.2%, 627G)
maakur_: 100G (1.2%, 8,480G)
