Final Bets: red - 23 bets for 17,495G (63.7%, x0.57); blue - 18 bets for 9,950G (36.3%, x1.76)

red bets:
killth3kid: 2,000G (11.4%, 11,056G)
eudes89: 2,000G (11.4%, 3,908G)
toka222: 2,000G (11.4%, 11,169G)
Nickyfive: 1,525G (8.7%, 1,525G)
AUrato: 1,511G (8.6%, 1,511G)
roofiepops: 1,444G (8.3%, 7,365G)
CapnChaos12: 1,003G (5.7%, 1,003G)
Mudrockk: 1,000G (5.7%, 3,758G)
maakur_: 783G (4.5%, 783G)
sinnyil2: 700G (4.0%, 54,935G)
JumbocactuarX27: 577G (3.3%, 577G)
DLJuggernaut: 500G (2.9%, 6,650G)
catfashions: 500G (2.9%, 5,156G)
TheChainNerd: 484G (2.8%, 484G)
Kronikle: 400G (2.3%, 3,840G)
Nizaha: 201G (1.1%, 4,028G)
Legothas: 200G (1.1%, 682G)
ungabunga_bot: 167G (1.0%, 479,888G)
GrayGhostGaming: 100G (0.6%, 7,353G)
foofermoofer: 100G (0.6%, 1,350G)
datadrivenbot: 100G (0.6%, 15,198G)
Kellios11: 100G (0.6%, 16,424G)
Realitydown: 100G (0.6%, 2,183G)

blue bets:
ShintaroNayaka: 1,152G (11.6%, 1,152G)
ko2q: 1,019G (10.2%, 1,019G)
SkylerBunny: 1,000G (10.1%, 52,835G)
BirbBrainsBot: 1,000G (10.1%, 26,425G)
nifboy: 923G (9.3%, 923G)
Grimmace45: 882G (8.9%, 29,428G)
E_Ballard: 649G (6.5%, 649G)
gooseyourself: 580G (5.8%, 1,161G)
YaBoy125: 505G (5.1%, 2,893G)
FriendSquirrel: 500G (5.0%, 500G)
Zoomopie: 483G (4.9%, 1,933G)
fenaen: 457G (4.6%, 457G)
bahamutlagooon: 307G (3.1%, 6,145G)
vampyreinabox: 191G (1.9%, 191G)
Firesheath: 100G (1.0%, 25,773G)
mannequ1n: 100G (1.0%, 6,566G)
tmo50x: 100G (1.0%, 8,368G)
FaytKion: 2G (0.0%, 7,044G)
