Final Bets: white - 16 bets for 13,917G (20.8%, x3.80); black - 8 bets for 52,835G (79.2%, x0.26)

white bets:
reinoe: 3,000G (21.6%, 19,140G)
VolgraTheMoose: 2,065G (14.8%, 2,065G)
moonliquor: 1,000G (7.2%, 4,564G)
nifboy: 1,000G (7.2%, 8,580G)
BirbBrainsBot: 1,000G (7.2%, 78,236G)
cam_ATS: 1,000G (7.2%, 45,847G)
furrytomahawkk: 688G (4.9%, 688G)
pandasforsale: 666G (4.8%, 26,787G)
SkylerBunny: 663G (4.8%, 663G)
Ring_Wyrm: 564G (4.1%, 564G)
getthemoneyz: 534G (3.8%, 1,269,458G)
bruubarg: 524G (3.8%, 524G)
HuffFlex: 500G (3.6%, 10,849G)
byrdturbo: 269G (1.9%, 25,506G)
twelfthrootoftwo: 244G (1.8%, 480G)
datadrivenbot: 200G (1.4%, 61,527G)

black bets:
Smokegiant: 47,906G (90.7%, 47,906G)
DeiNomine: 1,780G (3.4%, 1,780G)
NicoSavoy: 1,000G (1.9%, 197,222G)
superdevon1: 629G (1.2%, 629G)
Firesheath: 615G (1.2%, 615G)
letdowncity: 400G (0.8%, 400G)
DamnThatShark: 384G (0.7%, 988G)
Lydian_C: 121G (0.2%, 89,623G)
