Final Bets: blue - 7 bets for 8,525G (28.9%, x2.46); green - 18 bets for 21,014G (71.1%, x0.41)

blue bets:
SkylerBunny: 3,349G (39.3%, 32,125G)
Evewho: 2,357G (27.6%, 4,622G)
NicoSavoy: 1,000G (11.7%, 183,539G)
Firesheath: 811G (9.5%, 811G)
BoneMiser: 600G (7.0%, 600G)
DamnThatShark: 308G (3.6%, 308G)
blorpy_: 100G (1.2%, 1,048G)

green bets:
Lydian_C: 4,200G (20.0%, 119,547G)
Smokegiant: 3,553G (16.9%, 3,553G)
books_books: 3,000G (14.3%, 27,507G)
prince_rogers_nelson_: 2,139G (10.2%, 2,139G)
twelfthrootoftwo: 1,146G (5.5%, 2,249G)
Zachara: 1,101G (5.2%, 129,601G)
getthemoneyz: 1,000G (4.8%, 1,274,816G)
dantayystv: 1,000G (4.8%, 34,910G)
Draconis345: 1,000G (4.8%, 62,367G)
Mesmaster: 1,000G (4.8%, 90,367G)
KyleWonToLiveForever: 376G (1.8%, 376G)
BirbBrainsBot: 348G (1.7%, 108,026G)
randgridr: 296G (1.4%, 296G)
GRRR12: 212G (1.0%, 212G)
Mysteriousdewd: 200G (1.0%, 1,392G)
datadrivenbot: 200G (1.0%, 57,562G)
superdevon1: 143G (0.7%, 1,435G)
RetroGameCommander: 100G (0.5%, 1,549G)
