Final Bets: red - 27 bets for 27,101G (70.7%, x0.41); blue - 26 bets for 11,231G (29.3%, x2.41)

red bets:
sinnyil2: 10,081G (37.2%, 10,081G)
CorpusCav: 5,000G (18.4%, 10,000G)
reinoe: 1,279G (4.7%, 1,279G)
TheChainNerd: 1,000G (3.7%, 10,085G)
passermine: 1,000G (3.7%, 12,607G)
thefyeman: 1,000G (3.7%, 39,387G)
StealthModeLocke: 970G (3.6%, 970G)
Firesheath: 949G (3.5%, 949G)
E_Ballard: 600G (2.2%, 600G)
killth3kid: 600G (2.2%, 1,330G)
ibrakadabra_legend: 500G (1.8%, 23,042G)
Bryon_W: 500G (1.8%, 3,854G)
FlohIristhrae: 500G (1.8%, 8,313G)
Baron_von_Scrub: 474G (1.7%, 8,344G)
Cryptopsy70: 452G (1.7%, 4,712G)
DLJuggernaut: 368G (1.4%, 368G)
cloud92684: 320G (1.2%, 320G)
JumbocactuarX27: 304G (1.1%, 304G)
eudes89: 284G (1.0%, 284G)
old_overholt_: 200G (0.7%, 9,408G)
bruubarg: 120G (0.4%, 120G)
Kyune: 100G (0.4%, 16,471G)
MADTheta: 100G (0.4%, 883G)
Jeeboheebo: 100G (0.4%, 2,650G)
Moshyhero: 100G (0.4%, 1,187G)
CosmicTactician: 100G (0.4%, 23,947G)
datadrivenbot: 100G (0.4%, 24,016G)

blue bets:
LDSkinny: 1,330G (11.8%, 1,330G)
Drusic: 1,000G (8.9%, 7,681G)
DavenIII: 1,000G (8.9%, 1,684G)
BirbBrainsBot: 1,000G (8.9%, 45,318G)
FriendSquirrel: 764G (6.8%, 764G)
skillomono: 687G (6.1%, 687G)
Laserman1000: 678G (6.0%, 6,678G)
Zeroroute: 600G (5.3%, 600G)
fenaen: 600G (5.3%, 6,648G)
goodnightrobo: 500G (4.5%, 3,681G)
nifboy: 424G (3.8%, 424G)
holyonline: 400G (3.6%, 7,086G)
CapnChaos12: 392G (3.5%, 392G)
MattMan119: 342G (3.0%, 342G)
HaateXIII: 250G (2.2%, 6,039G)
Kronikle: 200G (1.8%, 13,386G)
Arcblazer23: 136G (1.2%, 136G)
roqqqpsi: 128G (1.1%, 12,814G)
FoeSquirrel: 100G (0.9%, 1,972G)
Nizaha: 100G (0.9%, 16,884G)
bluuuuuuuh: 100G (0.9%, 4,670G)
RunicMagus: 100G (0.9%, 34,894G)
kintaru_oe: 100G (0.9%, 7,346G)
Kellios11: 100G (0.9%, 9,977G)
a_mo22: 100G (0.9%, 1,763G)
asherban: 100G (0.9%, 5,302G)
