Final Bets: green - 5 bets for 1,682G (25.3%, x2.95); purple - 6 bets for 4,964G (74.7%, x0.34)

green bets:
BirbBrainsBot: 1,000G (59.5%, 59,261G)
Raixelol: 316G (18.8%, 25,394G)
getthemoneyz: 166G (9.9%, 1,761,618G)
AllInBot: 100G (5.9%, 100G)
Vultuous: 100G (5.9%, 3,570G)

purple bets:
NovaKnight21: 3,875G (78.1%, 3,875G)
Sairentozon7: 436G (8.8%, 436G)
MemoriesofFinal: 232G (4.7%, 232G)
datadrivenbot: 200G (4.0%, 64,707G)
Absalom_20: 120G (2.4%, 7,644G)
gorgewall: 101G (2.0%, 13,390G)
