Final Bets: green - 19 bets for 8,111G (77.0%, x0.30); yellow - 7 bets for 2,424G (23.0%, x3.35)

green bets:
DeathTaxesAndAnime: 1,373G (16.9%, 2,694G)
Tithonus: 1,296G (16.0%, 1,296G)
cougboi: 1,000G (12.3%, 9,555G)
BirbBrainsBot: 610G (7.5%, 47,490G)
LanseDM: 600G (7.4%, 600G)
CosmicTactician: 500G (6.2%, 23,560G)
reinoe: 500G (6.2%, 8,421G)
electric_algus: 400G (4.9%, 24,090G)
getthemoneyz: 304G (3.7%, 1,068,191G)
Shalloween: 300G (3.7%, 74,102G)
sparker9: 300G (3.7%, 8,858G)
Rilgon: 220G (2.7%, 220G)
RampagingRobot: 108G (1.3%, 108G)
nhammen: 100G (1.2%, 1,163G)
datadrivenbot: 100G (1.2%, 46,778G)
Firesheath: 100G (1.2%, 8,914G)
Quadh0nk: 100G (1.2%, 5,359G)
rmelzer1986: 100G (1.2%, 549G)
Aquios_: 100G (1.2%, 3,703G)

yellow bets:
BoneMiser: 888G (36.6%, 3,943G)
prince_rogers_nelson_: 600G (24.8%, 600G)
NIghtdew14: 400G (16.5%, 2,142G)
RunicMagus: 200G (8.3%, 52,003G)
YaBoy125: 136G (5.6%, 1,360G)
maakur_: 100G (4.1%, 76,946G)
Kaynin_Shadowwalker: 100G (4.1%, 2,806G)
