Final Bets: white - 9 bets for 3,347G (24.5%, x3.08); brown - 17 bets for 10,298G (75.5%, x0.33)

white bets:
prince_rogers_nelson_: 1,054G (31.5%, 1,054G)
DustBirdEX: 724G (21.6%, 724G)
killth3kid: 500G (14.9%, 12,393G)
Tithonus: 324G (9.7%, 324G)
GatsbysGhost: 300G (9.0%, 2,401G)
YaBoy125: 181G (5.4%, 1,815G)
fluffskull: 100G (3.0%, 787G)
ANFz: 100G (3.0%, 6,514G)
getthemoneyz: 64G (1.9%, 1,069,814G)

brown bets:
OneHundredFists: 2,001G (19.4%, 22,379G)
Mesmaster: 2,000G (19.4%, 102,721G)
powergems: 1,500G (14.6%, 14,326G)
CosmicTactician: 1,000G (9.7%, 23,060G)
DeathTaxesAndAnime: 826G (8.0%, 826G)
BirbBrainsBot: 633G (6.1%, 46,780G)
Spartan_Paladin: 600G (5.8%, 51,622G)
electric_algus: 300G (2.9%, 24,717G)
placidphoenix: 240G (2.3%, 240G)
Rilgon: 224G (2.2%, 224G)
Zxpr0jk: 212G (2.1%, 212G)
rmelzer1986: 204G (2.0%, 204G)
RunicMagus: 200G (1.9%, 52,272G)
RampagingRobot: 108G (1.0%, 108G)
BoneMiser: 100G (1.0%, 12,145G)
datadrivenbot: 100G (1.0%, 46,554G)
casteia: 50G (0.5%, 1,000G)
