Final Bets: green - 13 bets for 45,727G (83.5%, x0.20); yellow - 13 bets for 9,049G (16.5%, x5.05)

green bets:
Zagorsek: 32,896G (71.9%, 32,896G)
snkey: 5,454G (11.9%, 54,548G)
DavenIII: 2,500G (5.5%, 15,694G)
latebit: 2,500G (5.5%, 48,882G)
JumbocactuarX27: 1,017G (2.2%, 1,017G)
douchetron: 260G (0.6%, 260G)
killth3kid: 250G (0.5%, 6,612G)
Strifu: 200G (0.4%, 2,446G)
bigbongsmoker: 200G (0.4%, 1,807G)
datadrivenbot: 200G (0.4%, 66,116G)
Firesheath: 100G (0.2%, 793G)
FoeSquirrel: 100G (0.2%, 3,223G)
Zadckiel: 50G (0.1%, 1,948G)

yellow bets:
nhammen: 2,300G (25.4%, 390,157G)
bruubarg: 2,000G (22.1%, 21,088G)
BirbBrainsBot: 1,000G (11.1%, 55,215G)
Nizaha: 796G (8.8%, 85,984G)
thunderducker: 777G (8.6%, 2,338G)
letdowncity: 548G (6.1%, 39,573G)
getthemoneyz: 490G (5.4%, 1,815,586G)
RobotOcelot: 432G (4.8%, 432G)
CapnChaos12: 300G (3.3%, 2,964G)
Powermhero: 106G (1.2%, 55,846G)
DeathTaxesAndAnime: 100G (1.1%, 3,923G)
Thyrandaal: 100G (1.1%, 55,595G)
macradarkstar: 100G (1.1%, 847G)
