Final Bets: white - 20 bets for 48,221G (39.6%, x1.53); champion - 20 bets for 73,586G (60.4%, x0.66)

white bets:
bruubarg: 12,806G (26.6%, 22,806G)
nhammen: 10,000G (20.7%, 390,526G)
Forkmore: 10,000G (20.7%, 63,490G)
latebit: 5,000G (10.4%, 47,010G)
holandrix: 3,059G (6.3%, 3,059G)
BirbBrainsBot: 1,000G (2.1%, 58,656G)
Shalloween: 1,000G (2.1%, 15,321G)
Dasutin23: 1,000G (2.1%, 30,295G)
E_Ballard: 832G (1.7%, 112,259G)
Nizaha: 796G (1.7%, 85,978G)
Aldrammech: 500G (1.0%, 9,589G)
WhiteTigress: 500G (1.0%, 19,449G)
CapnChaos12: 300G (0.6%, 2,962G)
getthemoneyz: 288G (0.6%, 1,816,025G)
douchetron: 260G (0.5%, 260G)
killth3kid: 250G (0.5%, 8,685G)
old_overholt_: 200G (0.4%, 10,748G)
bigbongsmoker: 200G (0.4%, 3,134G)
joewcarson: 200G (0.4%, 4,206G)
ko2q: 30G (0.1%, 1,666G)

champion bets:
Zagorsek: 28,001G (38.1%, 28,001G)
VolgraTheMoose: 21,000G (28.5%, 173,172G)
Leonidusx: 10,000G (13.6%, 16,182G)
DavenIII: 5,000G (6.8%, 13,693G)
snkey: 3,400G (4.6%, 42,053G)
Strifu: 1,828G (2.5%, 1,828G)
letdowncity: 548G (0.7%, 42,007G)
Snowfats: 500G (0.7%, 14,874G)
jquestionmark: 500G (0.7%, 1,543G)
JumbocactuarX27: 400G (0.5%, 400G)
CorpusCav: 400G (0.5%, 3,269G)
Lord_Gwarth: 350G (0.5%, 4,714G)
SephDarkheart: 312G (0.4%, 312G)
Kellios11: 300G (0.4%, 2,374G)
SQUiDSQUARKLIN: 300G (0.4%, 4,078G)
macradarkstar: 299G (0.4%, 299G)
datadrivenbot: 200G (0.3%, 66,041G)
MagikarpPKMN: 132G (0.2%, 132G)
Thyrandaal: 100G (0.1%, 55,117G)
Firesheath: 16G (0.0%, 1,624G)
