Final Bets: blue - 21 bets for 11,564G (50.2%, x0.99); yellow - 13 bets for 11,461G (49.8%, x1.01)

blue bets:
thevilmen: 1,675G (14.5%, 1,675G)
ungabunga_bot: 1,000G (8.6%, 113,910G)
BirbBrainsBot: 1,000G (8.6%, 90,969G)
SkylerBunny: 1,000G (8.6%, 2,325G)
ForagerCats: 1,000G (8.6%, 5,349G)
Laserman1000: 916G (7.9%, 9,916G)
Nizaha: 648G (5.6%, 648G)
IndecisiveNinja: 604G (5.2%, 604G)
Aldrammech: 600G (5.2%, 600G)
Lanshaft: 600G (5.2%, 9,601G)
datadrivenbot: 452G (3.9%, 15,697G)
regios91: 442G (3.8%, 442G)
rico_flex: 346G (3.0%, 346G)
DrAntiSocial: 328G (2.8%, 328G)
b0shii: 280G (2.4%, 280G)
KasugaiRoastedPeas: 200G (1.7%, 5,026G)
getthemoneyz: 178G (1.5%, 478,692G)
ApplesauceBoss: 100G (0.9%, 4,343G)
twelfthrootoftwo: 100G (0.9%, 2,992G)
daveb_: 55G (0.5%, 2,071G)
BlackSuitSpiderman: 40G (0.3%, 750G)

yellow bets:
toka222: 5,000G (43.6%, 544,566G)
Baron_von_Scrub: 1,795G (15.7%, 3,591G)
roofiepops: 1,011G (8.8%, 1,011G)
kekkerscrew: 1,000G (8.7%, 24,031G)
NovaKnight21: 600G (5.2%, 5,624G)
moonliquor: 443G (3.9%, 443G)
DeathTaxesAndAnime: 424G (3.7%, 424G)
DudeMonkey77: 333G (2.9%, 3,815G)
HaateXIII: 250G (2.2%, 2,199G)
SeniorBunk: 200G (1.7%, 5,727G)
OverlordSS4: 158G (1.4%, 158G)
AllInBot: 147G (1.3%, 147G)
Tougou: 100G (0.9%, 5,562G)
