Final Bets: white - 14 bets for 11,347G (51.9%, x0.93); brown - 9 bets for 10,503G (48.1%, x1.08)

white bets:
Thyrandaal: 5,364G (47.3%, 5,364G)
pplvee1: 2,000G (17.6%, 12,192G)
VolgraTheMoose: 1,001G (8.8%, 12,068G)
randgridr: 500G (4.4%, 500G)
Rytor: 376G (3.3%, 376G)
getthemoneyz: 364G (3.2%, 1,338,120G)
Yepyeyeye: 300G (2.6%, 1,725G)
JiroDoge: 250G (2.2%, 1,375G)
silentkaster: 250G (2.2%, 14,201G)
skipsandwiches: 244G (2.2%, 244G)
AllInBot: 200G (1.8%, 200G)
datadrivenbot: 200G (1.8%, 33,929G)
roqqqpsi: 198G (1.7%, 1,323G)
dinin991: 100G (0.9%, 1,074G)

brown bets:
Lydian_C: 4,200G (40.0%, 30,399G)
reinoe: 2,000G (19.0%, 69,255G)
nhammen: 1,520G (14.5%, 3,023G)
dogsandcatsand: 1,000G (9.5%, 21,700G)
BirbBrainsBot: 533G (5.1%, 124,117G)
NIghtdew14: 500G (4.8%, 20,150G)
ohhinm: 500G (4.8%, 1,019G)
DouglasDragonThePoet: 150G (1.4%, 2,354G)
Error72: 100G (1.0%, 7,215G)
