Final Bets: green - 19 bets for 7,639G (25.1%, x2.98); champion - 20 bets for 22,776G (74.9%, x0.34)

green bets:
Shalloween: 1,000G (13.1%, 63,473G)
bad1dea: 1,000G (13.1%, 346,823G)
BirbBrainsBot: 995G (13.0%, 131,275G)
Bryon_W: 793G (10.4%, 793G)
JustSuperish: 554G (7.3%, 554G)
JumbocactuarX27: 500G (6.5%, 7,331G)
klonoa331: 325G (4.3%, 325G)
EnemyController: 312G (4.1%, 3,312G)
PasDeSeul: 300G (3.9%, 1,389G)
Rastanar: 300G (3.9%, 3,177G)
Anethum: 268G (3.5%, 268G)
Slowbrofist: 258G (3.4%, 258G)
ZephyrTempest: 221G (2.9%, 17,269G)
Numbersborne: 216G (2.8%, 216G)
yure1x: 197G (2.6%, 197G)
BadBlanket: 100G (1.3%, 2,863G)
Bongomon7: 100G (1.3%, 3,858G)
maakur_: 100G (1.3%, 4,593G)
datadrivenbot: 100G (1.3%, 15,091G)

champion bets:
ShintaroNayaka: 7,000G (30.7%, 8,712G)
HASTERIOUS: 4,436G (19.5%, 78,932G)
ANFz: 2,031G (8.9%, 4,062G)
Zachara: 2,000G (8.8%, 52,000G)
Error72: 1,500G (6.6%, 5,132G)
DudeMonkey77: 1,000G (4.4%, 26,953G)
TheChainNerd: 1,000G (4.4%, 44,664G)
lunaticruin: 756G (3.3%, 756G)
Lodrak: 748G (3.3%, 748G)
Lanshaft: 600G (2.6%, 1,302G)
SeriousFaceFace: 400G (1.8%, 982G)
Cataphract116: 300G (1.3%, 2,500G)
urieltheflameofgod: 200G (0.9%, 4,971G)
V3rdeni: 200G (0.9%, 204G)
rrazzoug: 200G (0.9%, 1,277G)
AllInBot: 100G (0.4%, 100G)
Nizaha: 100G (0.4%, 15,228G)
Jahshine: 100G (0.4%, 100G)
halnco: 100G (0.4%, 1,979G)
ko2q: 5G (0.0%, 1,687G)
