Final Bets: green - 13 bets for 11,634G (34.7%, x1.88); yellow - 37 bets for 21,887G (65.3%, x0.53)

green bets:
itzover9001: 5,922G (50.9%, 5,922G)
leakimiko: 1,996G (17.2%, 24,954G)
Aldrammech: 1,000G (8.6%, 5,973G)
LordSDB: 750G (6.4%, 3,575G)
ApplesauceBoss: 604G (5.2%, 604G)
getthemoneyz: 450G (3.9%, 610,387G)
Estan_AD: 312G (2.7%, 312G)
Evewho: 100G (0.9%, 9,183G)
mirapoix: 100G (0.9%, 3,381G)
Aremath: 100G (0.9%, 2,951G)
ANFz: 100G (0.9%, 22,042G)
honestmistake_: 100G (0.9%, 108G)
Bioticism: 100G (0.9%, 1,908G)

yellow bets:
Zeroroute: 2,262G (10.3%, 2,262G)
Shalloween: 2,000G (9.1%, 31,173G)
toka222: 1,450G (6.6%, 12,808G)
Baron_von_Scrub: 1,111G (5.1%, 93,766G)
HaateXIII: 1,000G (4.6%, 24,990G)
lijarkh: 1,000G (4.6%, 14,292G)
killth3kid: 1,000G (4.6%, 63,314G)
ungabunga_bot: 1,000G (4.6%, 285,110G)
BirbBrainsBot: 1,000G (4.6%, 147,563G)
gooseyourself: 1,000G (4.6%, 8,906G)
reinoe: 1,000G (4.6%, 9,443G)
ColetteMSLP: 800G (3.7%, 45,985G)
superdevon1: 678G (3.1%, 17,420G)
CoderCalamity: 673G (3.1%, 2,244G)
Tougou: 500G (2.3%, 10,674G)
Breakdown777: 500G (2.3%, 19,912G)
Dymntd: 500G (2.3%, 4,308G)
gorgewall: 500G (2.3%, 15,346G)
Arlum: 472G (2.2%, 3,150G)
ZephyrTempest: 456G (2.1%, 3,427G)
Grimmace45: 351G (1.6%, 351G)
RyuTsuno: 312G (1.4%, 312G)
joewcarson: 300G (1.4%, 2,822G)
Who_lio42: 300G (1.4%, 1,784G)
Wonser: 292G (1.3%, 292G)
jhaller2: 250G (1.1%, 4,919G)
itsdigitalbro: 150G (0.7%, 259G)
genericco: 137G (0.6%, 137G)
b0shii: 123G (0.6%, 15,526G)
thalessenador: 120G (0.5%, 120G)
bairen0: 100G (0.5%, 104G)
nifboy: 100G (0.5%, 7,704G)
ko2q: 100G (0.5%, 4,768G)
datadrivenbot: 100G (0.5%, 10,851G)
electric_glass: 100G (0.5%, 6,865G)
ZZ_Yoshi: 100G (0.5%, 65,220G)
cougboi: 50G (0.2%, 21,699G)
