Final Bets: purple - 12 bets for 7,882G (62.7%, x0.60); brown - 10 bets for 4,690G (37.3%, x1.68)

purple bets:
coralreeferz: 2,500G (31.7%, 20,126G)
BirbBrainsBot: 1,000G (12.7%, 117,627G)
JumbocactuarX27: 1,000G (12.7%, 9,996G)
Lord_Burrah: 1,000G (12.7%, 90,923G)
DHaveWord: 796G (10.1%, 796G)
Anethum: 673G (8.5%, 673G)
getthemoneyz: 212G (2.7%, 550,395G)
FreefallSirius: 200G (2.5%, 1,766G)
BroHamma: 200G (2.5%, 1,675G)
ZephyrTempest: 101G (1.3%, 172,983G)
AllInBot: 100G (1.3%, 100G)
marin1987: 100G (1.3%, 116G)

brown bets:
kai_shee: 2,000G (42.6%, 158,753G)
DavenIII: 1,321G (28.2%, 1,321G)
joewcarson: 501G (10.7%, 2,280G)
NovaKnight21: 356G (7.6%, 356G)
nifboy: 130G (2.8%, 3,260G)
ungabunga_bot: 107G (2.3%, 206,716G)
lastly: 100G (2.1%, 2,599G)
Tithonus: 100G (2.1%, 1,468G)
DrAntiSocial: 50G (1.1%, 21,912G)
GingerDynomite: 25G (0.5%, 6,407G)
