Final Bets: red - 21 bets for 6,744G (47.8%, x1.09); blue - 16 bets for 7,354G (52.2%, x0.92)

red bets:
TheChainNerd: 2,000G (29.7%, 51,896G)
Aldrammech: 1,000G (14.8%, 9,479G)
Nizaha: 501G (7.4%, 9,292G)
Baron_von_Scrub: 474G (7.0%, 30,084G)
HASTERIOUS: 418G (6.2%, 8,364G)
moonliquor: 360G (5.3%, 360G)
waterwatereverywhere: 300G (4.4%, 9,007G)
rabbitlogik: 220G (3.3%, 220G)
getthemoneyz: 204G (3.0%, 759,590G)
Stealthtoucan: 167G (2.5%, 3,356G)
ApplesauceBoss: 100G (1.5%, 5,578G)
CandyTamer: 100G (1.5%, 1,232G)
CorpusCav: 100G (1.5%, 11,431G)
CosmicTactician: 100G (1.5%, 3,973G)
Kyune: 100G (1.5%, 22,593G)
zanderriv: 100G (1.5%, 937G)
datadrivenbot: 100G (1.5%, 29,904G)
E_Ballard: 100G (1.5%, 1,829G)
dirtpigishbrown: 100G (1.5%, 100G)
FriendSquirrel: 100G (1.5%, 1,140G)
Flameatron: 100G (1.5%, 1,088G)

blue bets:
TheGuesty: 1,000G (13.6%, 48,109G)
BirbBrainsBot: 1,000G (13.6%, 67,534G)
sinnyil2: 827G (11.2%, 1,655G)
RaIshtar: 800G (10.9%, 5,602G)
LanseDM: 600G (8.2%, 600G)
DAC169: 439G (6.0%, 1,551G)
metagameface: 413G (5.6%, 413G)
MagicBottle: 380G (5.2%, 380G)
StealthModeLocke: 376G (5.1%, 376G)
gogofromtogo: 348G (4.7%, 348G)
SeniorBunk: 300G (4.1%, 9,405G)
skillomono: 300G (4.1%, 4,624G)
Grandlanzer: 220G (3.0%, 220G)
holyonline: 200G (2.7%, 6,652G)
gorgewall: 101G (1.4%, 16,955G)
MiseryKoss: 50G (0.7%, 1,546G)
