Final Bets: green - 16 bets for 12,804G (37.0%, x1.70); champion - 29 bets for 21,755G (63.0%, x0.59)

green bets:
MagicBottle: 4,401G (34.4%, 4,401G)
RaIshtar: 1,500G (11.7%, 7,691G)
CorpusCav: 1,001G (7.8%, 13,120G)
Aldrammech: 1,000G (7.8%, 6,910G)
BirbBrainsBot: 1,000G (7.8%, 70,248G)
Spartan_Paladin: 950G (7.4%, 60,957G)
E_Ballard: 630G (4.9%, 630G)
Baron_von_Scrub: 474G (3.7%, 29,340G)
byrdturbo: 420G (3.3%, 20,127G)
electric_algus: 400G (3.1%, 4,826G)
StealthModeLocke: 376G (2.9%, 376G)
spootoo: 200G (1.6%, 872G)
CrownOfHorns: 152G (1.2%, 152G)
maakur_: 100G (0.8%, 8,158G)
moocaotao: 100G (0.8%, 2,148G)
MiseryKoss: 100G (0.8%, 1,548G)

champion bets:
Mesmaster: 4,000G (18.4%, 117,399G)
metagameface: 2,885G (13.3%, 2,885G)
Candina: 2,000G (9.2%, 72,040G)
sinnyil2: 1,676G (7.7%, 1,676G)
roofiepops: 1,400G (6.4%, 10,797G)
DeathTaxesAndAnime: 1,285G (5.9%, 1,285G)
Kronikle: 1,000G (4.6%, 16,365G)
EnemyController: 1,000G (4.6%, 448,639G)
Rislyeu: 894G (4.1%, 894G)
serperemagus: 766G (3.5%, 766G)
sSwing: 561G (2.6%, 561G)
HaateXIII: 500G (2.3%, 11,769G)
Sungazes: 499G (2.3%, 6,289G)
benticore: 400G (1.8%, 4,513G)
HASTERIOUS: 399G (1.8%, 7,985G)
gogofromtogo: 377G (1.7%, 377G)
zanderriv: 300G (1.4%, 810G)
Flameatron: 300G (1.4%, 1,194G)
CandyTamer: 252G (1.2%, 597G)
gorgewall: 201G (0.9%, 17,712G)
BigGlorious: 200G (0.9%, 1,000G)
getthemoneyz: 160G (0.7%, 757,761G)
Tougou: 100G (0.5%, 1,828G)
CosmicTactician: 100G (0.5%, 3,873G)
cloud92684: 100G (0.5%, 15,070G)
drlancemackraken: 100G (0.5%, 2,327G)
datadrivenbot: 100G (0.5%, 29,968G)
ANFz: 100G (0.5%, 3,640G)
foofermoofer: 100G (0.5%, 2,066G)
