Final Bets: red - 18 bets for 6,896G (50.6%, x0.98); yellow - 8 bets for 6,734G (49.4%, x1.02)

red bets:
SSJ_BigDaddy: 1,000G (14.5%, 1,000G)
BirbBrainsBot: 1,000G (14.5%, 19,423G)
Nizaha: 580G (8.4%, 23,808G)
douchetron: 578G (8.4%, 1,134G)
amiture: 500G (7.3%, 4,930G)
SUGRboi: 500G (7.3%, 7,627G)
randgridr: 484G (7.0%, 4,789G)
letdowncity: 436G (6.3%, 436G)
superdevon1: 379G (5.5%, 3,791G)
TasisSai: 300G (4.4%, 5,651G)
thehotrefrigerator: 208G (3.0%, 208G)
gorgewall: 201G (2.9%, 15,764G)
AllInBot: 200G (2.9%, 200G)
datadrivenbot: 200G (2.9%, 37,521G)
IMMASHAARK: 124G (1.8%, 124G)
mrpickins: 100G (1.5%, 1,819G)
ribbiks: 100G (1.5%, 1,091G)
getthemoneyz: 6G (0.1%, 1,362,583G)

yellow bets:
prince_rogers_nelson_: 3,076G (45.7%, 6,152G)
HaateXIII: 1,267G (18.8%, 1,267G)
Zbgs: 1,000G (14.9%, 8,418G)
pandasforsale: 666G (9.9%, 17,834G)
unclebearboy: 300G (4.5%, 10,708G)
Zachara: 225G (3.3%, 137,225G)
readdesert: 100G (1.5%, 1,325G)
Klednar21: 100G (1.5%, 761G)
