Final Bets: blue - 9 bets for 4,645G (58.3%, x0.72); yellow - 4 bets for 3,327G (41.7%, x1.40)

blue bets:
leakimiko: 1,018G (21.9%, 6,789G)
BirbBrainsBot: 1,000G (21.5%, 57,248G)
Mesmaster: 1,000G (21.5%, 33,856G)
roqqqpsi: 634G (13.6%, 2,882G)
LordSDB: 550G (11.8%, 2,245G)
ungabunga_bot: 233G (5.0%, 265,428G)
datadrivenbot: 100G (2.2%, 3,900G)
CassiePhoenix: 100G (2.2%, 8,896G)
getthemoneyz: 10G (0.2%, 600,403G)

yellow bets:
ko2q: 1,710G (51.4%, 3,420G)
Odin007_88: 785G (23.6%, 785G)
Reductions: 476G (14.3%, 952G)
R_Raynos: 356G (10.7%, 356G)
