Final Bets: green - 12 bets for 7,965G (58.5%, x0.71); yellow - 9 bets for 5,655G (41.5%, x1.41)

green bets:
DarrenDinosaurs: 2,729G (34.3%, 2,729G)
SkylerBunny: 1,500G (18.8%, 578,010G)
Breakdown777: 1,391G (17.5%, 1,391G)
DejaPoo21: 690G (8.7%, 12,319G)
benticore: 576G (7.2%, 11,521G)
O_Heyno: 288G (3.6%, 288G)
getthemoneyz: 212G (2.7%, 1,024,695G)
BirbBrainsBot: 179G (2.2%, 85,312G)
extinctrational: 100G (1.3%, 100G)
Avin_Chaos: 100G (1.3%, 13,300G)
fluffskull: 100G (1.3%, 943G)
datadrivenbot: 100G (1.3%, 45,182G)

yellow bets:
KyleWonToLiveForever: 1,710G (30.2%, 1,710G)
gamesage53: 1,148G (20.3%, 1,148G)
DustBirdEX: 789G (14.0%, 5,197G)
superdevon1: 600G (10.6%, 5,759G)
nifboy: 492G (8.7%, 492G)
TheChainNerd: 492G (8.7%, 492G)
Moshyhero: 224G (4.0%, 224G)
holoatomos: 100G (1.8%, 100G)
Grandlanzer: 100G (1.8%, 6,114G)
