Final Bets: red - 9 bets for 4,815G (22.6%, x3.43); champion - 14 bets for 16,534G (77.4%, x0.29)

red bets:
Aldrammech: 1,000G (20.8%, 6,241G)
Meta_Five: 1,000G (20.8%, 77,744G)
benticore: 915G (19.0%, 9,154G)
Magicandy: 616G (12.8%, 616G)
Shalloween: 500G (10.4%, 61,140G)
nifboy: 492G (10.2%, 492G)
holoatomos: 100G (2.1%, 386G)
extinctrational: 100G (2.1%, 100G)
getthemoneyz: 92G (1.9%, 1,022,651G)

champion bets:
Grandlanzer: 4,160G (25.2%, 4,160G)
EnemyController: 2,700G (16.3%, 1,222,732G)
serperemagus: 2,000G (12.1%, 10,102G)
SkylerBunny: 1,700G (10.3%, 581,819G)
OneHundredFists: 1,049G (6.3%, 2,058G)
BirbBrainsBot: 1,000G (6.0%, 82,085G)
HaateXIII: 1,000G (6.0%, 22,551G)
superdevon1: 990G (6.0%, 6,604G)
Breakdown777: 516G (3.1%, 516G)
Avin_Chaos: 500G (3.0%, 13,200G)
Rahlyn: 419G (2.5%, 419G)
ar_tactic: 200G (1.2%, 53,900G)
the_jester87: 200G (1.2%, 482G)
datadrivenbot: 100G (0.6%, 45,356G)
