Final Bets: white - 7 bets for 6,932G (47.4%, x1.11); brown - 9 bets for 7,683G (52.6%, x0.90)

white bets:
mindblownnnn: 4,722G (68.1%, 4,722G)
Raixelol: 600G (8.7%, 13,563G)
CorpusCav: 500G (7.2%, 18,874G)
getthemoneyz: 482G (7.0%, 2,047,221G)
resjudicata3: 300G (4.3%, 1,372G)
Genkidou: 228G (3.3%, 1,773G)
MemoriesofFinal: 100G (1.4%, 41,780G)

brown bets:
randgridr: 2,145G (27.9%, 2,145G)
Lydian_C: 1,200G (15.6%, 5,735G)
Mushufasa_: 1,000G (13.0%, 101,779G)
LivingHitokiri: 1,000G (13.0%, 84,719G)
BirbBrainsBot: 1,000G (13.0%, 96,723G)
otakutaylor: 529G (6.9%, 529G)
LeoNightFury: 441G (5.7%, 441G)
Musashi45: 248G (3.2%, 248G)
gilgamensche: 120G (1.6%, 120G)
