Final Bets: white - 11 bets for 7,001G (51.9%, x0.93); black - 13 bets for 6,485G (48.1%, x1.08)

white bets:
SkylerBunny: 2,000G (28.6%, 520,603G)
DeathTaxesAndAnime: 1,049G (15.0%, 1,049G)
amiture: 1,000G (14.3%, 4,789G)
E_Ballard: 905G (12.9%, 905G)
Baron_von_Scrub: 827G (11.8%, 827G)
Laserman1000: 500G (7.1%, 10,900G)
getthemoneyz: 270G (3.9%, 1,076,255G)
ar_tactic: 150G (2.1%, 55,837G)
letdowncity: 100G (1.4%, 9,924G)
nhammen: 100G (1.4%, 850G)
itsadud: 100G (1.4%, 16,518G)

black bets:
EnemyController: 1,234G (19.0%, 1,351,963G)
BlackFireUK: 1,000G (15.4%, 19,885G)
BirbBrainsBot: 1,000G (15.4%, 75,040G)
DLJuggernaut: 927G (14.3%, 927G)
RampagingRobot: 500G (7.7%, 3,500G)
neocarbuncle: 400G (6.2%, 715G)
username123132: 362G (5.6%, 362G)
reinoe: 304G (4.7%, 304G)
Lythe_Caraker: 250G (3.9%, 142,298G)
Forkmore: 208G (3.2%, 208G)
datadrivenbot: 100G (1.5%, 46,233G)
SuzakuReii: 100G (1.5%, 1,248G)
Lemonjohns: 100G (1.5%, 100G)
