Final Bets: red - 18 bets for 12,154G (66.7%, x0.50); green - 19 bets for 6,064G (33.3%, x2.00)

red bets:
Dexsana: 2,666G (21.9%, 2,666G)
stukerk: 1,575G (13.0%, 1,575G)
SirCherish: 1,038G (8.5%, 1,038G)
theNGUYENNER: 1,000G (8.2%, 9,359G)
RestIessNight: 725G (6.0%, 725G)
HaateXIII: 706G (5.8%, 1,385G)
Shalloween: 628G (5.2%, 628G)
4shcrows: 606G (5.0%, 606G)
lijarkh: 500G (4.1%, 18,096G)
Velixtra: 500G (4.1%, 1,073G)
Setdevildog: 500G (4.1%, 3,000G)
sinnyil2: 500G (4.1%, 24,427G)
gorgewall: 356G (2.9%, 356G)
DeathTaxesAndAnime: 300G (2.5%, 1,430G)
Kyune: 250G (2.1%, 3,784G)
MrBusiness: 104G (0.9%, 104G)
ANFz: 100G (0.8%, 33,024G)
datadrivenbot: 100G (0.8%, 12,830G)

green bets:
SkylerBunny: 1,000G (16.5%, 48,505G)
ungabunga_bot: 1,000G (16.5%, 430,351G)
MrDiggs49: 1,000G (16.5%, 6,644G)
arch8000: 444G (7.3%, 444G)
Lionhermit: 400G (6.6%, 35,722G)
ZephyrTempest: 316G (5.2%, 6,321G)
CapnChaos12: 300G (4.9%, 2,313G)
rNdOrchestra: 216G (3.6%, 216G)
KasugaiRoastedPeas: 200G (3.3%, 1,070G)
sukotsuto: 200G (3.3%, 5,755G)
cupholderr: 200G (3.3%, 4,651G)
getthemoneyz: 172G (2.8%, 648,300G)
sir_sugarboogerz: 100G (1.6%, 100G)
FriendSquirrel: 100G (1.6%, 23,213G)
mannequ1n: 100G (1.6%, 7,062G)
HawkSick: 100G (1.6%, 4,423G)
CorpusCav: 99G (1.6%, 3,000G)
BirbBrainsBot: 67G (1.1%, 141,888G)
b0shii: 50G (0.8%, 13,454G)
