Final Bets: black - 18 bets for 13,354G (57.5%, x0.74); brown - 10 bets for 9,859G (42.5%, x1.35)

black bets:
Thyrandaal: 5,000G (37.4%, 24,921G)
BirbBrainsBot: 1,000G (7.5%, 9,266G)
NicoSavoy: 984G (7.4%, 984G)
getthemoneyz: 756G (5.7%, 1,797,026G)
Aldrammech: 700G (5.2%, 2,384G)
dogsandcatsand: 664G (5.0%, 664G)
KasugaiRoastedPeas: 601G (4.5%, 601G)
Mushufasa_: 500G (3.7%, 18,156G)
krombobreaker: 500G (3.7%, 3,990G)
technominari: 500G (3.7%, 81,697G)
SephDarkheart: 401G (3.0%, 401G)
CorpusCav: 400G (3.0%, 6,135G)
JonnyCue: 348G (2.6%, 348G)
CapnChaos12: 300G (2.2%, 3,685G)
killth3kid: 200G (1.5%, 6,062G)
datadrivenbot: 200G (1.5%, 65,181G)
arumz: 200G (1.5%, 4,736G)
ko2q: 100G (0.7%, 4,820G)

brown bets:
VolgraTheMoose: 2,001G (20.3%, 257,329G)
TheNaClKnight: 2,000G (20.3%, 10,158G)
DeathTaxesAndAnime: 1,876G (19.0%, 1,876G)
BaronHaynes: 1,500G (15.2%, 64,923G)
sinnyil2: 538G (5.5%, 1,076G)
Smashy: 500G (5.1%, 7,498G)
Sairentozon7: 464G (4.7%, 464G)
Wonser: 448G (4.5%, 448G)
highelectricaltemperature: 300G (3.0%, 2,510G)
poorest_hobo: 232G (2.4%, 232G)
