Final Bets: red - 14 bets for 7,038G (67.5%, x0.48); blue - 7 bets for 3,393G (32.5%, x2.07)

red bets:
TasisSai: 1,761G (25.0%, 3,454G)
getthemoneyz: 886G (12.6%, 1,268,169G)
ACSpree: 707G (10.0%, 707G)
roofiepops: 697G (9.9%, 697G)
BirbBrainsBot: 685G (9.7%, 62,953G)
LanseDM: 600G (8.5%, 600G)
moonliquor: 500G (7.1%, 1,517G)
neocarbuncle: 252G (3.6%, 252G)
benticore: 250G (3.6%, 12,443G)
datadrivenbot: 200G (2.8%, 62,134G)
Grandlanzer: 200G (2.8%, 72,727G)
nhammen: 100G (1.4%, 9,719G)
lastly: 100G (1.4%, 31,915G)
CosmicTactician: 100G (1.4%, 43,339G)

blue bets:
mpghappiness: 1,201G (35.4%, 2,355G)
dogsandcatsand: 1,000G (29.5%, 16,959G)
amiture: 500G (14.7%, 7,832G)
letdowncity: 292G (8.6%, 3,987G)
Lemonjohns: 200G (5.9%, 3,026G)
SephDarkheart: 100G (2.9%, 24,484G)
DeathTaxesAndAnime: 100G (2.9%, 7,112G)
