Final Bets: purple - 13 bets for 5,023G (43.3%, x1.31); champion - 18 bets for 6,574G (56.7%, x0.76)

purple bets:
NIghtdew14: 1,083G (21.6%, 10,837G)
MMagnetMan: 992G (19.7%, 2,216G)
maakur_: 536G (10.7%, 536G)
Zeroroute: 500G (10.0%, 500G)
Lemonjohns: 500G (10.0%, 3,138G)
TasisSai: 300G (6.0%, 3,308G)
Treafa: 250G (5.0%, 2,572G)
HyC81: 248G (4.9%, 248G)
gorgewall: 201G (4.0%, 5,740G)
E_Ballard: 200G (4.0%, 1,008G)
CosmicTactician: 100G (2.0%, 43,965G)
SephDarkheart: 100G (2.0%, 21,084G)
Hasterious: 13G (0.3%, 1,374G)

champion bets:
BirbBrainsBot: 1,000G (15.2%, 65,058G)
Sairentozon7: 1,000G (15.2%, 7,325G)
RaIshtar: 1,000G (15.2%, 35,344G)
amiture: 500G (7.6%, 7,968G)
dem0nj0ns: 500G (7.6%, 851G)
Digitalsocrates: 412G (6.3%, 10,400G)
letdowncity: 392G (6.0%, 3,695G)
Breakdown777: 316G (4.8%, 316G)
DamnThatShark: 296G (4.5%, 296G)
DeiNomine: 245G (3.7%, 245G)
datadrivenbot: 200G (3.0%, 61,347G)
getthemoneyz: 140G (2.1%, 1,268,329G)
Lydian_C: 123G (1.9%, 104,947G)
DeathTaxesAndAnime: 100G (1.5%, 7,507G)
nhammen: 100G (1.5%, 10,467G)
Valdimar_5467: 100G (1.5%, 7,042G)
nifboy: 100G (1.5%, 9,425G)
moonliquor: 50G (0.8%, 2,896G)
