Final Bets: white - 22 bets for 15,541G (63.3%, x0.58); black - 12 bets for 8,994G (36.7%, x1.73)

white bets:
Zbgs: 4,000G (25.7%, 38,937G)
WireLord: 2,000G (12.9%, 43,721G)
TheMurkGnome: 1,059G (6.8%, 1,059G)
BirbBrainsBot: 1,000G (6.4%, 78,759G)
getthemoneyz: 1,000G (6.4%, 473,864G)
lijarkh: 1,000G (6.4%, 3,264G)
b0shii: 781G (5.0%, 781G)
Laserman1000: 700G (4.5%, 7,800G)
datadrivenbot: 623G (4.0%, 20,197G)
JIDkomu: 608G (3.9%, 608G)
galkife: 500G (3.2%, 89,974G)
prcammy: 500G (3.2%, 900G)
ZephyrTempest: 306G (2.0%, 51,454G)
DeathTaxesAndAnime: 300G (1.9%, 2,021G)
TheMM42: 300G (1.9%, 702G)
alecttox: 200G (1.3%, 47,267G)
nifboy: 164G (1.1%, 164G)
Lordminsc: 100G (0.6%, 7,762G)
electric_glass: 100G (0.6%, 3,494G)
Langrisser: 100G (0.6%, 6,877G)
rjA0zcOQ96: 100G (0.6%, 8,067G)
silentperogy: 100G (0.6%, 17,604G)

black bets:
Dothan89: 3,000G (33.4%, 28,942G)
AllInBot: 2,458G (27.3%, 2,458G)
Nizaha: 644G (7.2%, 644G)
Slowbrofist: 633G (7.0%, 633G)
waterwatereverywhere: 545G (6.1%, 545G)
z32o: 500G (5.6%, 7,823G)
ungabunga_bot: 404G (4.5%, 105,788G)
SquidgyXom: 400G (4.4%, 1,781G)
Tithonus: 200G (2.2%, 14,246G)
ko2q: 100G (1.1%, 5,374G)
ApplesauceBoss: 100G (1.1%, 4,102G)
LordMaxoss: 10G (0.1%, 215G)
