Final Bets: red - 10 bets for 2,493G (17.2%, x4.81); blue - 12 bets for 11,996G (82.8%, x0.21)

red bets:
ShintaroNayaka: 451G (18.1%, 451G)
SephDarkheart: 448G (18.0%, 5,318G)
roqqqpsi: 333G (13.4%, 351G)
SQUiDSQUARKLIN: 300G (12.0%, 3,522G)
getthemoneyz: 280G (11.2%, 1,514,839G)
AllInBot: 200G (8.0%, 200G)
datadrivenbot: 200G (8.0%, 47,381G)
Galeronis: 112G (4.5%, 112G)
Bongomon7: 100G (4.0%, 4,503G)
dtrain332: 69G (2.8%, 6,957G)

blue bets:
dogsandcatsand: 4,000G (33.3%, 100,183G)
LDSkinny: 1,602G (13.4%, 1,602G)
Error72: 1,404G (11.7%, 1,404G)
randgridr: 1,084G (9.0%, 1,084G)
JumbocactuarX27: 1,000G (8.3%, 34,098G)
BirbBrainsBot: 1,000G (8.3%, 11,926G)
DavenIII: 594G (5.0%, 594G)
twelfthrootoftwo: 500G (4.2%, 3,571G)
dinin991: 339G (2.8%, 339G)
DesertWooder: 200G (1.7%, 715G)
holdenmagronik: 150G (1.3%, 1,331G)
ohhinm: 123G (1.0%, 3,877G)
