Final Bets: black - 18 bets for 13,031G (72.1%, x0.39); brown - 7 bets for 5,044G (27.9%, x2.58)

black bets:
dogsandcatsand: 5,000G (38.4%, 96,064G)
RaIshtar: 1,348G (10.3%, 1,348G)
ShintaroNayaka: 1,299G (10.0%, 1,299G)
BirbBrainsBot: 1,000G (7.7%, 11,373G)
maximumcrit: 1,000G (7.7%, 5,572G)
NovaKnight21: 890G (6.8%, 890G)
Lord_Gwarth: 706G (5.4%, 706G)
DavenIII: 372G (2.9%, 372G)
DesertWooder: 250G (1.9%, 1,698G)
AllInBot: 200G (1.5%, 200G)
datadrivenbot: 200G (1.5%, 47,623G)
ar_tactic: 200G (1.5%, 81,741G)
latebit: 124G (1.0%, 124G)
Galeronis: 112G (0.9%, 112G)
PoroTact: 100G (0.8%, 6,624G)
ohhinm: 100G (0.8%, 4,004G)
brenogarwin: 100G (0.8%, 764G)
getthemoneyz: 30G (0.2%, 1,515,231G)

brown bets:
randgridr: 1,896G (37.6%, 3,792G)
VolgraTheMoose: 1,254G (24.9%, 2,508G)
JumbocactuarX27: 1,000G (19.8%, 34,726G)
SephDarkheart: 448G (8.9%, 448G)
holdenmagronik: 276G (5.5%, 862G)
Error72: 100G (2.0%, 1,975G)
dtrain332: 70G (1.4%, 7,010G)
