Final Bets: black - 13 bets for 7,522G (34.5%, x1.90); champion - 14 bets for 14,272G (65.5%, x0.53)

black bets:
NovaKnight21: 1,234G (16.4%, 1,234G)
maximumcrit: 1,000G (13.3%, 4,959G)
SomthingMore: 1,000G (13.3%, 52,956G)
BirbBrainsBot: 1,000G (13.3%, 11,625G)
Zagorsek: 675G (9.0%, 675G)
LDSkinny: 592G (7.9%, 1,500G)
placeholdercats: 584G (7.8%, 584G)
dogsandcatsand: 444G (5.9%, 98,267G)
NIghtdew14: 300G (4.0%, 300G)
holdenmagronik: 276G (3.7%, 940G)
DesertWooder: 200G (2.7%, 2,097G)
getthemoneyz: 148G (2.0%, 1,515,231G)
dtrain332: 69G (0.9%, 6,982G)

champion bets:
douchetron: 7,494G (52.5%, 14,695G)
UmaiJam: 3,000G (21.0%, 49,052G)
JumbocactuarX27: 1,000G (7.0%, 33,726G)
SephDarkheart: 719G (5.0%, 719G)
Lord_Gwarth: 500G (3.5%, 979G)
RaIshtar: 328G (2.3%, 328G)
latebit: 276G (1.9%, 276G)
AllInBot: 200G (1.4%, 200G)
datadrivenbot: 200G (1.4%, 47,821G)
Galeronis: 155G (1.1%, 155G)
PoroTact: 100G (0.7%, 6,723G)
ohhinm: 100G (0.7%, 4,164G)
dinin991: 100G (0.7%, 598G)
brenogarwin: 100G (0.7%, 803G)
