Final Bets: green - 9 bets for 7,346G (33.4%, x2.00); yellow - 16 bets for 14,677G (66.6%, x0.50)

green bets:
latebit: 1,500G (20.4%, 29,313G)
Aldrammech: 1,246G (17.0%, 12,468G)
Zeroroute: 1,204G (16.4%, 1,204G)
KyleWonToLiveForever: 1,000G (13.6%, 3,183G)
DeathTaxesAndAnime: 879G (12.0%, 879G)
killth3kid: 712G (9.7%, 41,841G)
Forkmore: 504G (6.9%, 8,604G)
AllInBot: 201G (2.7%, 201G)
brenogarwin: 100G (1.4%, 281G)

yellow bets:
nhammen: 3,000G (20.4%, 21,828G)
dogsandcatsand: 2,186G (14.9%, 4,287G)
douchetron: 1,329G (9.1%, 1,329G)
ForagerCats: 1,274G (8.7%, 2,549G)
MonchoStrife: 1,268G (8.6%, 1,268G)
BirbBrainsBot: 1,000G (6.8%, 100,617G)
Tarheels218: 925G (6.3%, 925G)
VolgraTheMoose: 835G (5.7%, 835G)
SephDarkheart: 572G (3.9%, 107,403G)
ArrenJevleth: 500G (3.4%, 12,665G)
silentkaster: 500G (3.4%, 2,592G)
itskage: 318G (2.2%, 3,187G)
iBardic: 268G (1.8%, 268G)
JonnyCue: 264G (1.8%, 264G)
getthemoneyz: 238G (1.6%, 1,625,230G)
mrfripps: 200G (1.4%, 4,074G)
