Final Bets: purple - 15 bets for 11,900G (66.1%, x0.51); brown - 7 bets for 6,105G (33.9%, x1.95)

purple bets:
douchetron: 2,969G (24.9%, 2,969G)
latebit: 2,000G (16.8%, 26,313G)
NicoSavoy: 1,824G (15.3%, 36,484G)
Aldrammech: 1,010G (8.5%, 10,100G)
killth3kid: 716G (6.0%, 40,421G)
SephDarkheart: 572G (4.8%, 107,969G)
HASTERIOUS: 560G (4.7%, 560G)
Oreo_Pizza: 500G (4.2%, 51,032G)
ArrenJevleth: 500G (4.2%, 13,209G)
BoneMiser: 304G (2.6%, 304G)
itskage: 301G (2.5%, 3,012G)
JonnyCue: 264G (2.2%, 264G)
AllInBot: 149G (1.3%, 149G)
Drakel: 127G (1.1%, 1,275G)
Valgram: 104G (0.9%, 104G)

brown bets:
dogsandcatsand: 2,993G (49.0%, 5,870G)
BirbBrainsBot: 1,000G (16.4%, 101,607G)
DeathTaxesAndAnime: 800G (13.1%, 800G)
Zeroroute: 600G (9.8%, 600G)
getthemoneyz: 440G (7.2%, 1,625,557G)
brenogarwin: 144G (2.4%, 144G)
MonchoStrife: 128G (2.1%, 2,834G)
