Final Bets: red - 10 bets for 19,848G (80.2%, x0.25); blue - 9 bets for 4,894G (19.8%, x4.06)

red bets:
helpimabug: 14,063G (70.9%, 28,126G)
Sairentozon7: 1,000G (5.0%, 17,052G)
BirbBrainsBot: 1,000G (5.0%, 191,140G)
UmaiJam: 1,000G (5.0%, 61,690G)
WitchHunterIX: 1,000G (5.0%, 20,196G)
Powermhero: 873G (4.4%, 22,873G)
AllInBot: 366G (1.8%, 366G)
boosted420: 300G (1.5%, 457G)
lastly: 150G (0.8%, 38,820G)
getthemoneyz: 96G (0.5%, 1,305,230G)

blue bets:
leakimiko: 1,630G (33.3%, 1,630G)
JLinkletter: 1,266G (25.9%, 1,266G)
prince_rogers_nelson_: 620G (12.7%, 620G)
superdevon1: 557G (11.4%, 11,157G)
KasugaiRoastedPeas: 200G (4.1%, 10,810G)
Evewho: 200G (4.1%, 5,690G)
datadrivenbot: 200G (4.1%, 30,170G)
Lydian_C: 121G (2.5%, 80,705G)
CT_5_Holy: 100G (2.0%, 5,474G)
