Final Bets: red - 24 bets for 17,707G (77.8%, x0.29); green - 12 bets for 5,062G (22.2%, x3.50)

red bets:
Lydian_C: 4,340G (24.5%, 49,319G)
Dothan89: 4,193G (23.7%, 8,223G)
spacecaptainapple: 2,154G (12.2%, 2,154G)
sinnyil2: 1,500G (8.5%, 16,937G)
Jeeboheebo: 1,002G (5.7%, 7,755G)
LanseDM: 516G (2.9%, 516G)
AlenaZarek: 500G (2.8%, 19,918G)
HaateXIII: 500G (2.8%, 3,568G)
cnkakashi: 449G (2.5%, 449G)
luminarii: 381G (2.2%, 13,193G)
Aeolus_000: 300G (1.7%, 6,097G)
Vampire_Killer: 288G (1.6%, 288G)
EnemyController: 244G (1.4%, 244G)
ANFz: 200G (1.1%, 16,115G)
ugoplatamia: 200G (1.1%, 13,825G)
JIDkomu: 140G (0.8%, 140G)
AllInBot: 100G (0.6%, 100G)
Tithonus: 100G (0.6%, 9,117G)
ApplesauceBoss: 100G (0.6%, 2,499G)
rjA0zcOQ96: 100G (0.6%, 2,657G)
DHaveWord: 100G (0.6%, 2,615G)
datadrivenbot: 100G (0.6%, 13,816G)
Nizaha: 100G (0.6%, 15,777G)
old_overholt_: 100G (0.6%, 1,235G)

green bets:
BirbBrainsBot: 1,000G (19.8%, 130,246G)
HASTERIOUS: 1,000G (19.8%, 77,658G)
Axelrod: 1,000G (19.8%, 33,281G)
Shalloween: 600G (11.9%, 55,009G)
Cryptopsy70: 352G (7.0%, 3,571G)
DustBirdEX: 340G (6.7%, 340G)
Evewho: 200G (4.0%, 5,574G)
mayormcfunbags: 186G (3.7%, 186G)
getthemoneyz: 134G (2.6%, 403,395G)
ZephyrTempest: 100G (2.0%, 19,275G)
Tanookium: 100G (2.0%, 8,788G)
silentperogy: 50G (1.0%, 4,722G)
