Final Bets: green - 17 bets for 21,278G (84.0%, x0.19); yellow - 8 bets for 4,061G (16.0%, x5.24)

green bets:
UmaiJam: 8,364G (39.3%, 8,364G)
gogofromtogo: 2,105G (9.9%, 2,105G)
TheChainNerd: 1,864G (8.8%, 48,604G)
YaBoy125: 1,604G (7.5%, 20,057G)
gooseyourself: 1,498G (7.0%, 2,997G)
metagameface: 1,203G (5.7%, 1,203G)
superdevon1: 690G (3.2%, 2,760G)
dinin991: 538G (2.5%, 538G)
killth3kid: 500G (2.3%, 22,117G)
joewcarson: 500G (2.3%, 6,312G)
brokenknight201: 500G (2.3%, 500G)
LeoNightFury: 482G (2.3%, 482G)
Baron_von_Scrub: 474G (2.2%, 36,829G)
wyonearth: 300G (1.4%, 1,347G)
AmaninAmide: 300G (1.4%, 3,706G)
josephiroth_143: 256G (1.2%, 256G)
datadrivenbot: 100G (0.5%, 30,400G)

yellow bets:
NovaKnight21: 1,119G (27.6%, 1,119G)
BirbBrainsBot: 1,000G (24.6%, 94,046G)
Zeroroute: 600G (14.8%, 600G)
E_Ballard: 588G (14.5%, 588G)
RaIshtar: 268G (6.6%, 268G)
SQUiDSQUARKLIN: 256G (6.3%, 256G)
Lydian_C: 120G (3.0%, 4,536G)
getthemoneyz: 110G (2.7%, 764,061G)
