Final Bets: white - 20 bets for 6,802G (29.5%, x2.39); black - 23 bets for 16,238G (70.5%, x0.42)

white bets:
DeathTaxesAndAnime: 1,084G (15.9%, 2,127G)
Jeeboheebo: 1,000G (14.7%, 5,579G)
sSwing: 924G (13.6%, 924G)
volgrathemoose: 509G (7.5%, 2,602G)
Aldrammech: 500G (7.4%, 8,554G)
FriendSquirrel: 432G (6.4%, 432G)
CorpusCav: 400G (5.9%, 11,875G)
gorgewall: 301G (4.4%, 16,873G)
EnemyController: 300G (4.4%, 447,918G)
CandyTamer: 252G (3.7%, 367G)
d4rr1n: 200G (2.9%, 6,805G)
FoeSquirrel: 100G (1.5%, 2,253G)
cloud92684: 100G (1.5%, 15,355G)
Lythe_Caraker: 100G (1.5%, 119,024G)
CosmicTactician: 100G (1.5%, 5,173G)
drlancemackraken: 100G (1.5%, 2,403G)
E_Ballard: 100G (1.5%, 1,519G)
datadrivenbot: 100G (1.5%, 30,094G)
moocaotao: 100G (1.5%, 1,681G)
Evewho: 100G (1.5%, 6,045G)

black bets:
old_overholt_: 2,000G (12.3%, 22,128G)
bruubarg: 1,623G (10.0%, 1,623G)
moonliquor: 1,605G (9.9%, 1,605G)
Lord_Burrah: 1,500G (9.2%, 95,500G)
roofiepops: 1,400G (8.6%, 10,717G)
kaelsun: 1,045G (6.4%, 1,045G)
BirbBrainsBot: 1,000G (6.2%, 65,110G)
Lionhermit: 1,000G (6.2%, 5,383G)
fenaen: 909G (5.6%, 1,818G)
gogofromtogo: 736G (4.5%, 736G)
Nizaha: 501G (3.1%, 9,892G)
benticore: 500G (3.1%, 2,503G)
HASTERIOUS: 429G (2.6%, 8,591G)
LeepingJJ: 316G (1.9%, 316G)
kaidykat: 310G (1.9%, 6,202G)
Breakdown777: 300G (1.8%, 4,406G)
CapnChaos12: 300G (1.8%, 15,642G)
getthemoneyz: 264G (1.6%, 759,550G)
maakur_: 100G (0.6%, 7,718G)
T8T3R: 100G (0.6%, 1,847G)
spootoo: 100G (0.6%, 1,349G)
Flameatron: 100G (0.6%, 1,347G)
poulol: 100G (0.6%, 6,432G)
