Final Bets: blue - 13 bets for 29,048G (76.2%, x0.31); purple - 18 bets for 9,064G (23.8%, x3.20)

blue bets:
dogsandcatsand: 13,940G (48.0%, 27,335G)
Thyrandaal: 5,000G (17.2%, 189,478G)
nhammen: 3,000G (10.3%, 78,464G)
Nizaha: 1,570G (5.4%, 3,141G)
2b_yorha_b: 1,000G (3.4%, 12,889G)
BirbBrainsBot: 1,000G (3.4%, 96,871G)
ruleof5: 1,000G (3.4%, 55,935G)
killth3kid: 776G (2.7%, 42,835G)
MemoriesofFinal: 650G (2.2%, 650G)
old_overholt_: 500G (1.7%, 51,259G)
Meta_Five: 280G (1.0%, 2,067G)
Genkidou: 260G (0.9%, 1,401G)
getthemoneyz: 72G (0.2%, 2,113,325G)

purple bets:
Mesmaster: 2,200G (24.3%, 2,200G)
DaveStrider55: 1,365G (15.1%, 1,365G)
maakur_: 608G (6.7%, 608G)
KGenjy: 502G (5.5%, 502G)
Einswolf: 500G (5.5%, 1,987G)
krombobreaker: 500G (5.5%, 15,204G)
Lolthsmeat: 500G (5.5%, 8,700G)
TheBrett: 500G (5.5%, 1,834G)
CorpusCav: 444G (4.9%, 34,142G)
Shalloween: 400G (4.4%, 10,194G)
lijarkh: 308G (3.4%, 5,425G)
DuPlatypus: 300G (3.3%, 1,522G)
AllInBot: 200G (2.2%, 200G)
Sharosa: 200G (2.2%, 2,436G)
datadrivenbot: 200G (2.2%, 79,189G)
daveb_: 133G (1.5%, 4,561G)
yagyuudarkness: 104G (1.1%, 104G)
king_smashington: 100G (1.1%, 600G)
