Final Bets: red - 13 bets for 12,395G (55.8%, x0.79); blue - 13 bets for 9,831G (44.2%, x1.26)

red bets:
DustBirdEX: 3,661G (29.5%, 7,323G)
SkylerBunny: 2,200G (17.7%, 212,361G)
latebit: 1,097G (8.9%, 2,152G)
BirbBrainsBot: 1,000G (8.1%, 140,305G)
Aldrammech: 1,000G (8.1%, 10,751G)
douchetron: 799G (6.4%, 799G)
itskage: 589G (4.8%, 5,895G)
powergems: 569G (4.6%, 569G)
Lanshaft: 568G (4.6%, 14,813G)
DesertWooder: 500G (4.0%, 1,160G)
AllInBot: 200G (1.6%, 200G)
PantherIscariot: 111G (0.9%, 3,541G)
ANFz: 101G (0.8%, 44,786G)

blue bets:
DeathTaxesAndAnime: 5,290G (53.8%, 10,374G)
Amorial: 1,228G (12.5%, 1,228G)
Drusiform: 824G (8.4%, 1,648G)
Zeroroute: 600G (6.1%, 600G)
dogsandcatsand: 508G (5.2%, 508G)
reinoe: 500G (5.1%, 171,068G)
datadrivenbot: 200G (2.0%, 53,640G)
TheDeeyo: 184G (1.9%, 184G)
getthemoneyz: 122G (1.2%, 1,564,022G)
MinBetBot: 100G (1.0%, 18,761G)
Firesheath: 100G (1.0%, 24,177G)
CT_5_Holy: 100G (1.0%, 2,614G)
wkhumes: 75G (0.8%, 125G)
