Final Bets: white - 15 bets for 6,759G (23.8%, x3.20); black - 14 bets for 21,638G (76.2%, x0.31)

white bets:
Aldrammech: 1,000G (14.8%, 7,751G)
powergems: 865G (12.8%, 865G)
TheDeeyo: 810G (12.0%, 810G)
Laserman1000: 694G (10.3%, 3,294G)
itskage: 580G (8.6%, 5,808G)
evontno: 500G (7.4%, 500G)
Amorial: 500G (7.4%, 3,254G)
BirbBrainsBot: 459G (6.8%, 138,305G)
nobbletv: 400G (5.9%, 2,964G)
Gunz232323: 241G (3.6%, 241G)
AllInBot: 200G (3.0%, 200G)
getthemoneyz: 180G (2.7%, 1,563,682G)
latebit: 180G (2.7%, 1,226G)
Firesheath: 100G (1.5%, 24,203G)
wkhumes: 50G (0.7%, 291G)

black bets:
SkylerBunny: 6,000G (27.7%, 211,582G)
reinoe: 5,000G (23.1%, 176,435G)
Zeroroute: 2,641G (12.2%, 2,641G)
HaateXIII: 1,983G (9.2%, 1,983G)
douchetron: 1,168G (5.4%, 1,168G)
Shalloween: 1,000G (4.6%, 14,034G)
Thyrandaal: 1,000G (4.6%, 216,706G)
Drusiform: 843G (3.9%, 1,687G)
DustBirdEX: 572G (2.6%, 572G)
Lanshaft: 568G (2.6%, 12,677G)
dogsandcatsand: 563G (2.6%, 563G)
MinBetBot: 100G (0.5%, 18,787G)
datadrivenbot: 100G (0.5%, 54,081G)
ANFz: 100G (0.5%, 44,584G)
