Final Bets: red - 31 bets for 16,390G (39.4%, x1.54); blue - 38 bets for 25,216G (60.6%, x0.65)

red bets:
OmnibotGamma: 4,594G (28.0%, 4,594G)
SkylerBunny: 1,200G (7.3%, 71,877G)
Baron_von_Scrub: 1,035G (6.3%, 1,035G)
Grasnikk: 1,000G (6.1%, 2,834G)
getthemoneyz: 1,000G (6.1%, 392,642G)
Laserman1000: 800G (4.9%, 17,800G)
Axelrod: 682G (4.2%, 13,659G)
Phi_Sig: 555G (3.4%, 45,014G)
Shakarak: 539G (3.3%, 1,058G)
HaateXIII: 500G (3.1%, 8,336G)
TheRobbieRobster: 500G (3.1%, 2,050G)
ensiron: 500G (3.1%, 6,483G)
nomoment: 500G (3.1%, 19,631G)
roofiepops: 300G (1.8%, 300G)
Wizard_01: 300G (1.8%, 25,583G)
HaychDub: 300G (1.8%, 24,834G)
Lazerkick: 300G (1.8%, 13,501G)
ko2q: 244G (1.5%, 244G)
lunaticruin: 240G (1.5%, 240G)
Evewho: 200G (1.2%, 5,075G)
mirapoix: 150G (0.9%, 7,181G)
Snowfats: 150G (0.9%, 5,203G)
Tougou: 100G (0.6%, 3,995G)
BadBlanket: 100G (0.6%, 3,202G)
maakur_: 100G (0.6%, 2,914G)
LOKITHUS: 100G (0.6%, 9,575G)
oogthecaveman: 100G (0.6%, 4,935G)
SeedSC: 100G (0.6%, 150,392G)
jethrothrul: 100G (0.6%, 31,347G)
SpaZmodeus: 100G (0.6%, 2,523G)
daveb_: 1G (0.0%, 1,551G)

blue bets:
rockmem21: 4,243G (16.8%, 42,439G)
Mtueni: 3,000G (11.9%, 97,460G)
HaplessOne: 2,000G (7.9%, 36,473G)
kingchadking: 1,805G (7.2%, 1,805G)
Sotehr: 1,265G (5.0%, 2,530G)
DudeMonkey77: 1,000G (4.0%, 28,647G)
DeathTaxesAndAnime: 1,000G (4.0%, 31,053G)
BirbBrainsBot: 1,000G (4.0%, 16,311G)
kai_shee: 1,000G (4.0%, 31,462G)
Lodrak: 802G (3.2%, 802G)
Shalloween: 800G (3.2%, 55,118G)
Faplo: 780G (3.1%, 780G)
buddychrist10: 766G (3.0%, 766G)
Lanshaft: 580G (2.3%, 7,741G)
IndecisiveNinja: 526G (2.1%, 526G)
ricky_ortease: 517G (2.1%, 10,487G)
Zeroroute: 500G (2.0%, 500G)
Deathmaker06: 500G (2.0%, 26,309G)
inzo24: 400G (1.6%, 5,209G)
luminarii: 380G (1.5%, 7,888G)
tone_t: 300G (1.2%, 8,905G)
Oshimi12: 200G (0.8%, 1,360G)
0utlier: 200G (0.8%, 608G)
lijarkh: 200G (0.8%, 6,148G)
nerdynel17: 180G (0.7%, 180G)
urieltheflameofgod: 180G (0.7%, 180G)
AnthraX85: 112G (0.4%, 112G)
ApplesauceBoss: 100G (0.4%, 5,048G)
WoooBlaaa: 100G (0.4%, 104G)
PlatinumPlume: 100G (0.4%, 7,677G)
ANFz: 100G (0.4%, 23,655G)
chronoxtrigger: 100G (0.4%, 2,541G)
rico_flex: 100G (0.4%, 801G)
BuffaloCrunch: 100G (0.4%, 12,889G)
Lythe_Caraker: 100G (0.4%, 50,349G)
gum44: 100G (0.4%, 2,488G)
GrayGhostGaming: 50G (0.2%, 512G)
noztril: 30G (0.1%, 811G)
