Final Bets: blue - 9 bets for 9,043G (46.6%, x1.15); green - 18 bets for 10,361G (53.4%, x0.87)

blue bets:
ko2q: 3,476G (38.4%, 6,953G)
AllInBot: 1,229G (13.6%, 1,229G)
ColetteMSLP: 1,000G (11.1%, 27,703G)
dogsandcatsand: 1,000G (11.1%, 132,077G)
killth3kid: 624G (6.9%, 5,011G)
coralreeferz: 550G (6.1%, 5,918G)
JonnyCue: 500G (5.5%, 3,901G)
rednecknazgul: 364G (4.0%, 364G)
maximumcrit: 300G (3.3%, 18,515G)

green bets:
DeathTaxesAndAnime: 2,463G (23.8%, 4,830G)
LordTomS: 1,477G (14.3%, 1,477G)
BirbBrainsBot: 1,000G (9.7%, 48,791G)
getthemoneyz: 1,000G (9.7%, 1,514,888G)
E_Ballard: 722G (7.0%, 722G)
Nizaha: 672G (6.5%, 18,717G)
Ayntlerz: 600G (5.8%, 600G)
Lanshaft: 556G (5.4%, 16,489G)
Laserman1000: 428G (4.1%, 2,428G)
SUGRboi: 350G (3.4%, 7,704G)
datadrivenbot: 200G (1.9%, 51,247G)
amsans1247: 200G (1.9%, 397G)
twelfthrootoftwo: 200G (1.9%, 4,222G)
Drusiform: 116G (1.1%, 116G)
ArlanKels: 114G (1.1%, 5,707G)
douchetron: 100G (1.0%, 20,806G)
hdyehy: 100G (1.0%, 100G)
Aeriyah: 63G (0.6%, 1,269G)
