Final Bets: purple - 12 bets for 8,453G (54.6%, x0.83); brown - 10 bets for 7,040G (45.4%, x1.20)

purple bets:
XerxesMindbreaker: 3,273G (38.7%, 3,273G)
BirbBrainsBot: 1,000G (11.8%, 165,879G)
Morsigil: 1,000G (11.8%, 4,783G)
resjudicata3: 793G (9.4%, 1,555G)
Raixelol: 600G (7.1%, 600G)
krombobreaker: 500G (5.9%, 22,918G)
lijarkh: 388G (4.6%, 2,867G)
chrisk103: 299G (3.5%, 7,200G)
datadrivenbot: 200G (2.4%, 76,099G)
MemoriesofFinal: 200G (2.4%, 3,281G)
FlavaFraze: 100G (1.2%, 1,252G)
scsuperstar: 100G (1.2%, 1,859G)

brown bets:
AllInBot: 1,851G (26.3%, 1,851G)
latebit: 1,842G (26.2%, 3,612G)
iBluntDouble: 822G (11.7%, 822G)
Nizaha: 604G (8.6%, 8,996G)
Laserman1000: 513G (7.3%, 11,413G)
NicoSavoy: 484G (6.9%, 484G)
DustBirdEX: 424G (6.0%, 424G)
bigbongsmoker: 348G (4.9%, 8,482G)
Bluebirdzontwitch: 100G (1.4%, 1,670G)
getthemoneyz: 52G (0.7%, 2,084,491G)
