Final Bets: red - 16 bets for 10,353G (48.8%, x1.05); yellow - 6 bets for 10,848G (51.2%, x0.95)

red bets:
latebit: 2,970G (28.7%, 5,824G)
BirbBrainsBot: 1,000G (9.7%, 164,879G)
Morsigil: 1,000G (9.7%, 3,783G)
DustBirdEX: 933G (9.0%, 933G)
resjudicata3: 762G (7.4%, 762G)
Nizaha: 604G (5.8%, 9,721G)
Raixelol: 600G (5.8%, 600G)
krombobreaker: 500G (4.8%, 22,418G)
lijarkh: 388G (3.7%, 2,479G)
bigbongsmoker: 348G (3.4%, 8,900G)
iBluntDouble: 300G (2.9%, 1,809G)
datadrivenbot: 200G (1.9%, 75,899G)
DocSTN: 200G (1.9%, 1,171G)
Evewho: 200G (1.9%, 2,369G)
MemoriesofFinal: 200G (1.9%, 3,081G)
getthemoneyz: 148G (1.4%, 2,084,553G)

yellow bets:
AllInBot: 4,074G (37.6%, 4,074G)
fattunaking: 3,632G (33.5%, 3,632G)
ser_pyrro: 1,000G (9.2%, 3,216G)
NicoSavoy: 958G (8.8%, 958G)
Laserman1000: 629G (5.8%, 12,029G)
seppu777: 555G (5.1%, 1,198G)
