Final Bets: green - 13 bets for 10,869G (78.6%, x0.27); yellow - 6 bets for 2,964G (21.4%, x3.67)

green bets:
reinoe: 3,000G (27.6%, 41,924G)
latebit: 1,352G (12.4%, 67,618G)
pplvee1: 1,248G (11.5%, 1,248G)
HaplessOne: 1,111G (10.2%, 6,954G)
BirbBrainsBot: 1,000G (9.2%, 100,947G)
E_Ballard: 812G (7.5%, 812G)
Runeseeker22: 566G (5.2%, 11,326G)
Mushufasa_: 500G (4.6%, 152,037G)
khelor_: 500G (4.6%, 1,359G)
Lolthsmeat: 280G (2.6%, 1,193G)
AllInBot: 200G (1.8%, 200G)
datadrivenbot: 200G (1.8%, 82,131G)
scsuperstar: 100G (0.9%, 1,884G)

yellow bets:
ayeCoop: 1,163G (39.2%, 1,163G)
SephDarkheart: 537G (18.1%, 537G)
run_with_stone_GUNs: 480G (16.2%, 6,426G)
Lord_Gwarth: 376G (12.7%, 376G)
Lyner87: 316G (10.7%, 316G)
getthemoneyz: 92G (3.1%, 2,111,777G)
