Final Bets: purple - 9 bets for 10,161G (46.9%, x1.13); brown - 13 bets for 11,505G (53.1%, x0.88)

purple bets:
DLJuggernaut: 4,684G (46.1%, 9,368G)
AniZero: 1,775G (17.5%, 40,123G)
BlackFireUK: 1,000G (9.8%, 26,864G)
TheChainNerd: 574G (5.6%, 3,238G)
OneHundredFists: 528G (5.2%, 528G)
ShintaroNayaka: 504G (5.0%, 504G)
Anasetsuken: 500G (4.9%, 16,189G)
NovaKnight21: 496G (4.9%, 496G)
datadrivenbot: 100G (1.0%, 44,621G)

brown bets:
joewcarson: 2,000G (17.4%, 36,238G)
red__lancer: 2,000G (17.4%, 90,764G)
DavenIII: 1,500G (13.0%, 9,570G)
BirbBrainsBot: 1,000G (8.7%, 71,997G)
JumbocactuarX27: 1,000G (8.7%, 5,914G)
Magicandy: 927G (8.1%, 927G)
Baron_von_Scrub: 717G (6.2%, 717G)
Etce: 700G (6.1%, 700G)
EnemyController: 500G (4.3%, 609,874G)
AllInBot: 331G (2.9%, 331G)
getthemoneyz: 330G (2.9%, 973,043G)
Grandlanzer: 300G (2.6%, 8,778G)
CosmicTactician: 200G (1.7%, 4,956G)
