Final Bets: blue - 16 bets for 10,946G (65.1%, x0.54); champion - 10 bets for 5,877G (34.9%, x1.86)

blue bets:
ACSpree: 1,721G (15.7%, 3,442G)
randgridr: 1,326G (12.1%, 1,326G)
killth3kid: 1,000G (9.1%, 73,634G)
upvla: 1,000G (9.1%, 2,045G)
RaIshtar: 1,000G (9.1%, 29,799G)
SkylerBunny: 1,000G (9.1%, 9,289G)
Laserman1000: 889G (8.1%, 32,289G)
VolgraTheMoose: 648G (5.9%, 648G)
NIghtdew14: 500G (4.6%, 6,814G)
TasisSai: 462G (4.2%, 906G)
prince_rogers_nelson_: 450G (4.1%, 450G)
Mushufasa_: 450G (4.1%, 450G)
datadrivenbot: 200G (1.8%, 62,286G)
nhammen: 100G (0.9%, 11,451G)
Kellios11: 100G (0.9%, 36,784G)
CosmicTactician: 100G (0.9%, 44,149G)

champion bets:
pplvee1: 1,533G (26.1%, 3,006G)
AlenaZarek: 1,500G (25.5%, 34,404G)
E_Ballard: 1,000G (17.0%, 11,425G)
BirbBrainsBot: 753G (12.8%, 69,071G)
brokenknight201: 300G (5.1%, 2,631G)
gorgewall: 201G (3.4%, 10,815G)
Evewho: 200G (3.4%, 2,118G)
maleblackfiora: 200G (3.4%, 1,421G)
Nightehawke: 108G (1.8%, 108G)
getthemoneyz: 82G (1.4%, 1,266,614G)
