Final Bets: red - 8 bets for 1,873G (20.1%, x3.97); blue - 14 bets for 7,437G (79.9%, x0.25)

red bets:
Sitiran: 568G (30.3%, 5,682G)
getthemoneyz: 400G (21.4%, 753,503G)
gorgewall: 201G (10.7%, 19,850G)
TeaTime29: 200G (10.7%, 675G)
dowdlron: 166G (8.9%, 166G)
AllInBot: 138G (7.4%, 138G)
daveb_: 100G (5.3%, 2,484G)
Kyune: 100G (5.3%, 33,009G)

blue bets:
Rislyeu: 1,528G (20.5%, 1,528G)
Digitalsocrates: 1,000G (13.4%, 4,763G)
BirbBrainsBot: 1,000G (13.4%, 36,486G)
reinoe: 1,000G (13.4%, 41,497G)
benticore: 789G (10.6%, 789G)
CassiePhoenix: 716G (9.6%, 716G)
HASTERIOUS: 528G (7.1%, 10,563G)
itsdigitalbro: 252G (3.4%, 252G)
DustyRelic: 116G (1.6%, 116G)
gr8keeper: 108G (1.5%, 577G)
YaBoy125: 100G (1.3%, 22,714G)
Evewho: 100G (1.3%, 13,104G)
datadrivenbot: 100G (1.3%, 27,882G)
Klednar21: 100G (1.3%, 320G)
