Final Bets: purple - 16 bets for 8,092G (20.0%, x4.00); champion - 18 bets for 32,400G (80.0%, x0.25)

purple bets:
evontno: 3,464G (42.8%, 3,464G)
NicoSavoy: 1,000G (12.4%, 187,951G)
killth3kid: 680G (8.4%, 70,000G)
RedRiderAyame: 400G (4.9%, 2,980G)
Digitalsocrates: 400G (4.9%, 400G)
dantayystv: 385G (4.8%, 385G)
Xoomwaffle: 340G (4.2%, 3,484G)
run_with_stone_GUNs: 316G (3.9%, 10,513G)
RageImmortaI: 284G (3.5%, 284G)
datadrivenbot: 200G (2.5%, 62,349G)
Lydian_C: 123G (1.5%, 114,995G)
ANFz: 100G (1.2%, 41,561G)
moocaotao: 100G (1.2%, 4,765G)
CosmicTactician: 100G (1.2%, 43,745G)
KSops: 100G (1.2%, 845G)
Treafa: 100G (1.2%, 705G)

champion bets:
SkylerBunny: 8,517G (26.3%, 17,035G)
loveyouallfriends: 6,723G (20.8%, 6,723G)
MagicBottle: 5,043G (15.6%, 5,043G)
roofiepops: 4,929G (15.2%, 4,929G)
shineeyo: 1,238G (3.8%, 2,476G)
Conome: 1,001G (3.1%, 5,531G)
Mudrockk: 1,000G (3.1%, 6,622G)
BirbBrainsBot: 1,000G (3.1%, 48,269G)
ValtonZenola: 804G (2.5%, 804G)
powergems: 555G (1.7%, 9,256G)
Rislyeu: 500G (1.5%, 10,981G)
getthemoneyz: 300G (0.9%, 1,261,269G)
superdevon1: 178G (0.5%, 1,783G)
DustBirdEX: 151G (0.5%, 4,551G)
TasisSai: 150G (0.5%, 295G)
EnemyController: 111G (0.3%, 1,400,701G)
nifboy: 100G (0.3%, 8,002G)
DeathTaxesAndAnime: 100G (0.3%, 16,466G)
