Final Bets: white - 16 bets for 8,003G (39.4%, x1.54); brown - 18 bets for 12,320G (60.6%, x0.65)

white bets:
latebit: 1,681G (21.0%, 1,681G)
roqqqpsi: 927G (11.6%, 4,031G)
Nizaha: 820G (10.2%, 77,362G)
Shalloween: 760G (9.5%, 760G)
dogsandcatsand: 540G (6.7%, 540G)
Smashy: 524G (6.5%, 12,125G)
CapnChaos12: 488G (6.1%, 488G)
holdenmagronik: 388G (4.8%, 5,348G)
getthemoneyz: 366G (4.6%, 1,815,416G)
Rytor: 300G (3.7%, 23,595G)
thebluesman: 260G (3.2%, 19,260G)
killth3kid: 250G (3.1%, 16,895G)
BoneMiser: 200G (2.5%, 2,418G)
datadrivenbot: 200G (2.5%, 61,603G)
CorpusCav: 199G (2.5%, 3,110G)
nhammen: 100G (1.2%, 410,306G)

brown bets:
neerrm: 2,666G (21.6%, 2,666G)
reinoe: 2,000G (16.2%, 20,197G)
Zbgs: 1,500G (12.2%, 19,622G)
BirbBrainsBot: 1,000G (8.1%, 119,662G)
E_Ballard: 888G (7.2%, 132,163G)
roofiepops: 664G (5.4%, 664G)
fenaen: 572G (4.6%, 5,480G)
Blastinus: 480G (3.9%, 480G)
lowlf: 464G (3.8%, 5,432G)
SephDarkheart: 340G (2.8%, 340G)
acrusade: 300G (2.4%, 1,206G)
krombobreaker: 292G (2.4%, 4,157G)
FoeSquirrel: 278G (2.3%, 556G)
Runeseeker22: 260G (2.1%, 806G)
arumz: 200G (1.6%, 25,607G)
PuzzleSecretary: 184G (1.5%, 184G)
bigbongsmoker: 132G (1.1%, 3,738G)
Error72: 100G (0.8%, 64,981G)
