Final Bets: red - 5 bets for 2,217G (24.3%, x3.11); blue - 15 bets for 6,894G (75.7%, x0.32)

red bets:
bruubarg: 1,000G (45.1%, 4,904G)
dem0nj0ns: 500G (22.6%, 1,415G)
reddwind_: 400G (18.0%, 1,445G)
CassiePhoenix: 300G (13.5%, 3,825G)
BartTradingCompany: 17G (0.8%, 175G)

blue bets:
ColetteMSLP: 1,535G (22.3%, 1,535G)
SephDarkheart: 1,118G (16.2%, 1,118G)
AllInBot: 680G (9.9%, 680G)
BirbBrainsBot: 675G (9.8%, 162,995G)
khelor_: 500G (7.3%, 3,382G)
snkey: 481G (7.0%, 481G)
Leonidusx: 468G (6.8%, 468G)
gorgewall: 301G (4.4%, 3,602G)
AltimaMantoid: 300G (4.4%, 5,700G)
aceof86: 200G (2.9%, 2,076G)
datadrivenbot: 200G (2.9%, 57,898G)
Josan2964: 168G (2.4%, 168G)
MemoriesofFinal: 122G (1.8%, 2,486G)
hotpocketsofficial: 116G (1.7%, 116G)
getthemoneyz: 30G (0.4%, 1,893,904G)
