Final Bets: white - 24 bets for 23,236G (82.0%, x0.22); black - 15 bets for 5,085G (18.0%, x4.57)

white bets:
Shalloween: 5,000G (21.5%, 70,355G)
Chronolynx42: 4,304G (18.5%, 43,043G)
Breakdown777: 2,907G (12.5%, 5,815G)
Oreo_Pizza: 2,126G (9.1%, 2,126G)
MagicBottle: 1,000G (4.3%, 3,041G)
BirbBrainsBot: 1,000G (4.3%, 104,567G)
DeathTaxesAndAnime: 982G (4.2%, 1,926G)
DudeMonkey77: 684G (2.9%, 684G)
prince_rogers_nelson_: 600G (2.6%, 600G)
VolgraTheMoose: 524G (2.3%, 524G)
HaateXIII: 500G (2.2%, 8,383G)
Thyrandaal: 468G (2.0%, 468G)
Lanshaft: 448G (1.9%, 448G)
ArashiKurobara: 400G (1.7%, 607G)
sparker9: 400G (1.7%, 3,935G)
Aldrammech: 376G (1.6%, 376G)
DustBirdEX: 345G (1.5%, 6,838G)
getthemoneyz: 324G (1.4%, 1,104,025G)
Yiroep2: 248G (1.1%, 248G)
flacococo: 200G (0.9%, 200G)
GrayGhostGaming: 100G (0.4%, 2,262G)
Grandlanzer: 100G (0.4%, 35,967G)
datadrivenbot: 100G (0.4%, 46,284G)
silentkaster: 100G (0.4%, 10,608G)

black bets:
chaotic_prodigy: 1,215G (23.9%, 1,215G)
Baron_von_Scrub: 1,111G (21.8%, 26,456G)
mpghappiness: 716G (14.1%, 716G)
E_Ballard: 400G (7.9%, 400G)
Rilgon: 277G (5.4%, 555G)
Forkmore: 212G (4.2%, 212G)
Skincrawler: 200G (3.9%, 731G)
reinoe: 200G (3.9%, 2,735G)
nekojin: 150G (2.9%, 3,774G)
HuffFlex: 104G (2.0%, 104G)
Kellios11: 100G (2.0%, 48,712G)
nifboy: 100G (2.0%, 6,787G)
DuraiPapers: 100G (2.0%, 2,126G)
maakur_: 100G (2.0%, 76,201G)
SuzakuReii: 100G (2.0%, 5,570G)
