Final Bets: white - 18 bets for 9,942G (33.1%, x2.02); brown - 17 bets for 20,127G (66.9%, x0.49)

white bets:
SkylerBunny: 2,500G (25.1%, 522,728G)
Lanshaft: 1,564G (15.7%, 1,564G)
MagicBottle: 1,000G (10.1%, 2,260G)
BirbBrainsBot: 1,000G (10.1%, 107,997G)
zmoses: 902G (9.1%, 902G)
jojo2k: 520G (5.2%, 520G)
Shalloween: 500G (5.0%, 72,195G)
Aldrammech: 376G (3.8%, 376G)
Yiroep2: 248G (2.5%, 248G)
Forkmore: 212G (2.1%, 212G)
silentkaster: 200G (2.0%, 9,702G)
Skincrawler: 200G (2.0%, 1,156G)
getthemoneyz: 170G (1.7%, 1,104,984G)
nekojin: 150G (1.5%, 3,474G)
demented_game_show_host: 100G (1.0%, 1,092G)
E_Ballard: 100G (1.0%, 1,397G)
Blastinus: 100G (1.0%, 1,030G)
nifboy: 100G (1.0%, 6,836G)

brown bets:
kliffw: 4,337G (21.5%, 4,337G)
Oreo_Pizza: 3,953G (19.6%, 3,953G)
Breakdown777: 3,623G (18.0%, 7,246G)
Thyrandaal: 3,422G (17.0%, 3,422G)
DeathTaxesAndAnime: 740G (3.7%, 740G)
DudeMonkey77: 684G (3.4%, 684G)
VolgraTheMoose: 524G (2.6%, 524G)
Chronolynx42: 500G (2.5%, 36,641G)
DuraiPapers: 500G (2.5%, 6,185G)
HaateXIII: 500G (2.5%, 7,492G)
DustBirdEX: 456G (2.3%, 6,298G)
username123132: 284G (1.4%, 284G)
KasugaiRoastedPeas: 200G (1.0%, 11,562G)
ArashiKurobara: 104G (0.5%, 104G)
GrayGhostGaming: 100G (0.5%, 2,084G)
datadrivenbot: 100G (0.5%, 46,278G)
SuzakuReii: 100G (0.5%, 5,270G)
