Final Bets: brown - 25 bets for 9,066G (9.5%, x9.55); champion - 27 bets for 86,540G (90.5%, x0.10)

brown bets:
BirbBrainsBot: 1,000G (11.0%, 107,828G)
Chronolynx42: 1,000G (11.0%, 35,782G)
ScurvyMitch: 950G (10.5%, 18,178G)
Meta_Five: 600G (6.6%, 17,736G)
getthemoneyz: 558G (6.2%, 1,105,422G)
mpghappiness: 524G (5.8%, 524G)
Oreo_Pizza: 500G (5.5%, 5,406G)
KasugaiRoastedPeas: 400G (4.4%, 9,661G)
zmoses: 388G (4.3%, 388G)
Aldrammech: 376G (4.1%, 376G)
flacococo: 366G (4.0%, 366G)
gooseyourself: 344G (3.8%, 344G)
LAGBOT30000: 300G (3.3%, 4,355G)
SuzakuReii: 300G (3.3%, 5,319G)
placidphoenix: 244G (2.7%, 244G)
jojo2k: 208G (2.3%, 208G)
Skincrawler: 200G (2.2%, 956G)
chaotic_prodigy: 108G (1.2%, 108G)
E_Ballard: 100G (1.1%, 1,375G)
demented_game_show_host: 100G (1.1%, 892G)
Blastinus: 100G (1.1%, 830G)
silentkaster: 100G (1.1%, 9,919G)
mrfripps: 100G (1.1%, 4,537G)
DudeMonkey77: 100G (1.1%, 1,871G)
benticore: 100G (1.1%, 5,584G)

champion bets:
SkylerBunny: 20,000G (23.1%, 521,142G)
skillomono: 10,000G (11.6%, 35,743G)
Error72: 9,172G (10.6%, 18,345G)
DustBirdEX: 6,902G (8.0%, 6,902G)
Breakdown777: 6,395G (7.4%, 12,790G)
Laserman1000: 5,300G (6.1%, 20,300G)
galkife: 5,000G (5.8%, 50,383G)
fenaen: 5,000G (5.8%, 30,272G)
DuraiPapers: 4,888G (5.6%, 5,432G)
SQUiDSQUARKLIN: 4,732G (5.5%, 4,732G)
sinnyil2: 2,157G (2.5%, 2,157G)
VolgraTheMoose: 1,434G (1.7%, 1,434G)
Zagorsek: 1,344G (1.6%, 1,344G)
Shalloween: 600G (0.7%, 74,188G)
Thyrandaal: 468G (0.5%, 468G)
Yiroep2: 454G (0.5%, 454G)
Lanshaft: 448G (0.5%, 448G)
MagicBottle: 444G (0.5%, 444G)
Rilgon: 405G (0.5%, 405G)
DeathTaxesAndAnime: 380G (0.4%, 2,025G)
Grandlanzer: 300G (0.3%, 35,989G)
Forkmore: 212G (0.2%, 212G)
ArashiKurobara: 104G (0.1%, 104G)
gorgewall: 101G (0.1%, 29,016G)
nifboy: 100G (0.1%, 6,736G)
GrayGhostGaming: 100G (0.1%, 2,216G)
datadrivenbot: 100G (0.1%, 46,410G)
