Final Bets: white - 12 bets for 6,034G (41.6%, x1.41); black - 15 bets for 8,481G (58.4%, x0.71)

white bets:
Lordminsc: 1,205G (20.0%, 43,830G)
Baron_von_Scrub: 1,111G (18.4%, 88,136G)
Aldrammech: 1,000G (16.6%, 101,498G)
aStatue: 600G (9.9%, 600G)
killth3kid: 500G (8.3%, 28,327G)
mesmaster: 470G (7.8%, 470G)
MirtaiAtana: 346G (5.7%, 346G)
commandlistfgc: 327G (5.4%, 327G)
arch8000: 175G (2.9%, 5,860G)
CapnSauce420: 150G (2.5%, 5,788G)
datadrivenbot: 100G (1.7%, 3,435G)
tmo50x: 50G (0.8%, 6,362G)

black bets:
fenaen: 1,500G (17.7%, 64,462G)
ungabunga_bot: 1,000G (11.8%, 270,596G)
BirbBrainsBot: 1,000G (11.8%, 29,244G)
JarlBrolaf: 1,000G (11.8%, 9,866G)
OverlordAnon: 500G (5.9%, 870G)
reinoe: 500G (5.9%, 18,205G)
rico_flex: 500G (5.9%, 23,799G)
Breakdown777: 500G (5.9%, 29,914G)
Lionhermit: 500G (5.9%, 24,557G)
ZephyrTempest: 400G (4.7%, 4,108G)
baconbacon1207: 400G (4.7%, 19,999G)
FoxtrotNovemberCharlie: 303G (3.6%, 303G)
getthemoneyz: 178G (2.1%, 583,607G)
Sykper: 100G (1.2%, 529G)
GenieMilenko: 100G (1.2%, 3,024G)
