Final Bets: purple - 15 bets for 6,861G (6.6%, x14.08); champion - 24 bets for 96,602G (93.4%, x0.07)

purple bets:
MirtaiAtana: 1,303G (19.0%, 1,303G)
Aldrammech: 1,000G (14.6%, 97,498G)
TheKillerNacho: 872G (12.7%, 872G)
JarlBrolaf: 789G (11.5%, 789G)
Meta_Five: 500G (7.3%, 5,654G)
Lionhermit: 500G (7.3%, 24,323G)
OverlordAnon: 500G (7.3%, 1,026G)
ZephyrTempest: 400G (5.8%, 6,247G)
mesmaster: 200G (2.9%, 5,104G)
RunicMagus: 200G (2.9%, 61,309G)
arch8000: 168G (2.4%, 5,604G)
getthemoneyz: 118G (1.7%, 586,046G)
pandasforsale: 111G (1.6%, 31,219G)
Kellios11: 100G (1.5%, 13,493G)
duskps: 100G (1.5%, 17,460G)

champion bets:
HaateXIII: 71,771G (74.3%, 95,695G)
alecttox: 6,500G (6.7%, 6,500G)
onetrickwolf: 3,000G (3.1%, 13,192G)
commandlistfgc: 2,963G (3.1%, 2,963G)
superdevon1: 2,243G (2.3%, 4,486G)
fenaen: 1,500G (1.6%, 76,862G)
Lordminsc: 1,205G (1.2%, 39,326G)
baconbacon1207: 1,000G (1.0%, 17,384G)
ungabunga_bot: 1,000G (1.0%, 269,469G)
BirbBrainsBot: 1,000G (1.0%, 32,725G)
JIDkomu: 1,000G (1.0%, 9,147G)
aStatue: 600G (0.6%, 600G)
Nickyfive: 500G (0.5%, 500G)
Breakdown777: 500G (0.5%, 29,401G)
leakimiko: 404G (0.4%, 404G)
NovaKnight21: 380G (0.4%, 380G)
volgrathemoose: 352G (0.4%, 352G)
FoxtrotNovemberCharlie: 126G (0.1%, 252G)
Squatting_Bear: 108G (0.1%, 108G)
Sykper: 100G (0.1%, 100G)
Jaritras: 100G (0.1%, 812G)
troublesometree: 100G (0.1%, 2,011G)
datadrivenbot: 100G (0.1%, 3,428G)
DrAntiSocial: 50G (0.1%, 21,289G)
