Final Bets: blue - 12 bets for 6,998G (73.2%, x0.37); yellow - 5 bets for 2,562G (26.8%, x2.73)

blue bets:
NicoSavoy: 2,000G (28.6%, 40,014G)
BirbBrainsBot: 1,000G (14.3%, 56,643G)
E_Ballard: 768G (11.0%, 59,320G)
Firesheath: 760G (10.9%, 760G)
thunderducker: 594G (8.5%, 594G)
getthemoneyz: 544G (7.8%, 1,756,478G)
MemoriesofFinal: 504G (7.2%, 504G)
PuzzleSecretary: 225G (3.2%, 225G)
Absalom_20: 202G (2.9%, 202G)
datadrivenbot: 200G (2.9%, 65,193G)
gorgewall: 101G (1.4%, 15,463G)
AllInBot: 100G (1.4%, 100G)

yellow bets:
superdevon1: 849G (33.1%, 84,916G)
blorpy_: 622G (24.3%, 7,781G)
maximumcrit: 420G (16.4%, 420G)
Mushufasa_: 400G (15.6%, 2,802G)
minorfffanatic1: 271G (10.6%, 271G)
