Final Bets: red - 19 bets for 20,510G (52.2%, x0.91); green - 8 bets for 18,764G (47.8%, x1.09)

red bets:
Fenrislfr: 10,000G (48.8%, 27,064G)
DeathTaxesAndAnime: 1,492G (7.3%, 2,927G)
superdevon1: 1,162G (5.7%, 1,162G)
ungabunga_bot: 1,000G (4.9%, 289,975G)
BirbBrainsBot: 1,000G (4.9%, 166,583G)
Mesmaster: 1,000G (4.9%, 49,424G)
alecttox: 1,000G (4.9%, 5,684G)
awokenshard: 800G (3.9%, 2,680G)
crimson_hellkite: 500G (2.4%, 13,292G)
XalSmellsBad: 500G (2.4%, 29,508G)
moonliquor: 368G (1.8%, 368G)
astrozin11: 368G (1.8%, 4,194G)
Estan_AD: 324G (1.6%, 324G)
Bulleta: 280G (1.4%, 280G)
Jaritras: 244G (1.2%, 244G)
getthemoneyz: 172G (0.8%, 613,445G)
datadrivenbot: 100G (0.5%, 10,936G)
belife42: 100G (0.5%, 1,880G)
Bioticism: 100G (0.5%, 11,312G)

green bets:
MaouDono: 10,406G (55.5%, 10,406G)
R_Raynos: 6,096G (32.5%, 11,954G)
ACSpree: 812G (4.3%, 812G)
argentbast: 400G (2.1%, 6,394G)
twelfthrootoftwo: 300G (1.6%, 4,054G)
vorap: 300G (1.6%, 29,611G)
HaychDub: 250G (1.3%, 10,751G)
KasugaiRoastedPeas: 200G (1.1%, 8,864G)
