Final Bets: green - 16 bets for 12,378G (52.6%, x0.90); yellow - 12 bets for 11,164G (47.4%, x1.11)

green bets:
douchetron: 4,500G (36.4%, 4,500G)
thaetreis: 2,400G (19.4%, 52,594G)
moonliquor: 1,000G (8.1%, 51,137G)
BirbBrainsBot: 1,000G (8.1%, 176,782G)
nhammen: 1,000G (8.1%, 2,692G)
Nizaha: 704G (5.7%, 8,073G)
gamesage53: 319G (2.6%, 319G)
Lord_Gwarth: 296G (2.4%, 3,847G)
Lillifen: 208G (1.7%, 208G)
AllInBot: 200G (1.6%, 200G)
Cyrus_Cross: 200G (1.6%, 870G)
datadrivenbot: 200G (1.6%, 59,477G)
gorgewall: 101G (0.8%, 6,154G)
DHaveWord: 100G (0.8%, 3,617G)
northkoreancleetus: 100G (0.8%, 1,571G)
getthemoneyz: 50G (0.4%, 1,589,786G)

yellow bets:
MrFlabyo: 3,000G (26.9%, 274,278G)
DeathTaxesAndAnime: 2,005G (18.0%, 2,005G)
Rilgon: 1,423G (12.7%, 7,116G)
Drusiform: 1,000G (9.0%, 23,690G)
coralreeferz: 1,000G (9.0%, 32,070G)
dogsandcatsand: 992G (8.9%, 1,947G)
Woodstock_hobbs_: 700G (6.3%, 863G)
JonnyCue: 498G (4.5%, 498G)
latebit: 196G (1.8%, 196G)
Gunz232323: 150G (1.3%, 786G)
MinBetBot: 100G (0.9%, 22,313G)
defmacro: 100G (0.9%, 1,000G)
