Final Bets: white - 16 bets for 26,404G (90.1%, x0.11); black - 9 bets for 2,894G (9.9%, x9.12)

white bets:
MrFlabyo: 10,000G (37.9%, 271,278G)
douchetron: 8,559G (32.4%, 8,559G)
Mesmaster: 1,466G (5.6%, 1,466G)
DeathTaxesAndAnime: 1,032G (3.9%, 1,032G)
fenaen: 931G (3.5%, 931G)
BirbBrainsBot: 821G (3.1%, 177,684G)
killth3kid: 668G (2.5%, 13,229G)
gamesage53: 607G (2.3%, 607G)
moonliquor: 500G (1.9%, 52,039G)
AllInBot: 380G (1.4%, 380G)
defmacro: 300G (1.1%, 900G)
nhammen: 300G (1.1%, 3,594G)
Cyrus_Cross: 300G (1.1%, 1,050G)
JonnyCue: 240G (0.9%, 240G)
datadrivenbot: 200G (0.8%, 59,657G)
RuneS_77: 100G (0.4%, 17,646G)

black bets:
Nizaha: 704G (24.3%, 8,708G)
superdevon1: 683G (23.6%, 68,327G)
dogsandcatsand: 487G (16.8%, 955G)
pplvee1: 476G (16.4%, 8,740G)
getthemoneyz: 158G (5.5%, 1,589,831G)
Lord_Gwarth: 137G (4.7%, 4,118G)
MinBetBot: 100G (3.5%, 22,213G)
peeronid: 100G (3.5%, 14,767G)
northkoreancleetus: 49G (1.7%, 1,661G)
