Final Bets: white - 28 bets for 20,361G (43.0%, x1.33); brown - 24 bets for 27,035G (57.0%, x0.75)

white bets:
toka222: 7,500G (36.8%, 509,203G)
wackyzachyy: 2,500G (12.3%, 8,601G)
reinoe: 2,000G (9.8%, 19,674G)
sinnyil2: 1,300G (6.4%, 47,745G)
Lanshaft: 1,000G (4.9%, 4,743G)
Aldrammech: 926G (4.5%, 9,262G)
red__lancer: 500G (2.5%, 18,354G)
HaplessOne: 500G (2.5%, 17,956G)
volgrathemoose: 472G (2.3%, 472G)
rechaun: 454G (2.2%, 454G)
newbie404: 431G (2.1%, 431G)
Skarthe: 300G (1.5%, 1,124G)
Numbersborne: 285G (1.4%, 285G)
SeedSC: 250G (1.2%, 77,230G)
TheGuesty: 250G (1.2%, 1,118G)
Jordache7K: 222G (1.1%, 14,059G)
ugoplatamia: 200G (1.0%, 10,198G)
nerdynel17: 199G (1.0%, 2,699G)
slackerbird: 166G (0.8%, 2,766G)
RathFGC: 151G (0.7%, 151G)
getthemoneyz: 150G (0.7%, 404,296G)
BadBlanket: 100G (0.5%, 2,840G)
kingchadking: 100G (0.5%, 23,921G)
Nizaha: 100G (0.5%, 8,711G)
maakur_: 100G (0.5%, 2,544G)
datadrivenbot: 100G (0.5%, 16,484G)
GrayGhostGaming: 100G (0.5%, 717G)
ko2q: 5G (0.0%, 1,496G)

brown bets:
SolarisFall: 12,488G (46.2%, 12,488G)
DudeMonkey77: 3,581G (13.2%, 35,816G)
DeathTaxesAndAnime: 2,230G (8.2%, 4,454G)
Axelrod: 2,069G (7.7%, 41,397G)
dantetouhou: 1,000G (3.7%, 28,920G)
bad1dea: 800G (3.0%, 313,922G)
BirbBrainsBot: 755G (2.8%, 103,544G)
Laserman1000: 613G (2.3%, 6,513G)
DustBirdEX: 571G (2.1%, 1,905G)
EnemyController: 400G (1.5%, 13,628G)
ApplesauceBoss: 348G (1.3%, 348G)
OmnibotGamma: 308G (1.1%, 308G)
Maeveen: 300G (1.1%, 7,600G)
mirapoix: 300G (1.1%, 2,333G)
SleepyBenzo: 220G (0.8%, 220G)
rubenflonne: 200G (0.7%, 5,569G)
TheRobbieRobster: 152G (0.6%, 152G)
greghatch: 100G (0.4%, 1,489G)
Basmal: 100G (0.4%, 37,946G)
Aneyus: 100G (0.4%, 10,698G)
RunicMagus: 100G (0.4%, 22,233G)
ANFz: 100G (0.4%, 21,388G)
old_overholt_: 100G (0.4%, 2,259G)
jethrothrul: 100G (0.4%, 1,411G)
