Final Bets: blue - 16 bets for 19,821G (71.5%, x0.40); green - 9 bets for 7,909G (28.5%, x2.51)

blue bets:
Thyrandaal: 9,999G (50.4%, 208,592G)
DeathTaxesAndAnime: 1,441G (7.3%, 1,441G)
DustBirdEX: 1,271G (6.4%, 2,543G)
ColetteMSLP: 1,000G (5.0%, 28,068G)
BirbBrainsBot: 1,000G (5.0%, 58,895G)
Wooplestein: 759G (3.8%, 759G)
superdevon1: 698G (3.5%, 34,919G)
killth3kid: 648G (3.3%, 6,969G)
ko2q: 616G (3.1%, 616G)
XalSmellsBad: 500G (2.5%, 24,619G)
Kronikle: 492G (2.5%, 13,277G)
Rislyeu: 400G (2.0%, 400G)
getthemoneyz: 396G (2.0%, 1,557,952G)
Gyrolin: 300G (1.5%, 2,117G)
gorgewall: 201G (1.0%, 4,810G)
Firesheath: 100G (0.5%, 23,829G)

green bets:
SkylerBunny: 2,500G (31.6%, 311,759G)
Smashy: 1,690G (21.4%, 1,690G)
AllInBot: 1,570G (19.9%, 1,570G)
Nizaha: 696G (8.8%, 15,714G)
VolgraTheMoose: 501G (6.3%, 2,409G)
Chuckolator: 379G (4.8%, 379G)
Lumberinjack: 362G (4.6%, 362G)
PantherIscariot: 111G (1.4%, 6,313G)
MinBetBot: 100G (1.3%, 17,752G)
