Final Bets: red - 11 bets for 5,734G (44.0%, x1.27); blue - 12 bets for 7,307G (56.0%, x0.78)

red bets:
Evewho: 1,482G (25.8%, 1,482G)
BirbBrainsBot: 1,000G (17.4%, 42,770G)
Spuzzmocker: 969G (16.9%, 969G)
itsadud: 600G (10.5%, 2,956G)
HaateXIII: 500G (8.7%, 24,367G)
TheChainNerd: 329G (5.7%, 2,329G)
Flameatron: 300G (5.2%, 368G)
getthemoneyz: 268G (4.7%, 1,009,624G)
josephiroth_143: 176G (3.1%, 176G)
twelfthrootoftwo: 100G (1.7%, 3,015G)
O_Heyno: 10G (0.2%, 788G)

blue bets:
Digitalsocrates: 1,999G (27.4%, 40,678G)
DeathTaxesAndAnime: 1,330G (18.2%, 1,330G)
thaetreis: 1,277G (17.5%, 1,277G)
Laserman1000: 700G (9.6%, 14,200G)
Grandlanzer: 700G (9.6%, 2,268G)
Nizaha: 501G (6.9%, 14,118G)
KasugaiRoastedPeas: 200G (2.7%, 8,890G)
ar_tactic: 200G (2.7%, 54,576G)
Firesheath: 100G (1.4%, 23,809G)
nifboy: 100G (1.4%, 1,295G)
GrayGhostGaming: 100G (1.4%, 1,395G)
datadrivenbot: 100G (1.4%, 44,632G)
