Final Bets: green - 22 bets for 14,082G (62.0%, x0.61); yellow - 13 bets for 8,624G (38.0%, x1.63)

green bets:
gooseyourself: 3,092G (22.0%, 6,063G)
kai_shee: 2,000G (14.2%, 136,151G)
ColetteMSLP: 1,000G (7.1%, 30,822G)
ungabunga_bot: 1,000G (7.1%, 209,155G)
BirbBrainsBot: 1,000G (7.1%, 87,115G)
J2DaBibbles: 1,000G (7.1%, 13,022G)
leakimiko: 607G (4.3%, 12,145G)
DavenIII: 550G (3.9%, 4,444G)
Laserman1000: 505G (3.6%, 23,305G)
SomeCallMeGON: 500G (3.6%, 10,322G)
JumbocactuarX27: 500G (3.6%, 8,617G)
Justice0320: 314G (2.2%, 3,141G)
Cataphract116: 300G (2.1%, 31,842G)
getthemoneyz: 292G (2.1%, 544,868G)
Aneyus: 271G (1.9%, 27,189G)
CassiePhoenix: 268G (1.9%, 268G)
AllInBot: 201G (1.4%, 201G)
PinKPonG: 200G (1.4%, 1,471G)
CapnSauce420: 150G (1.1%, 941G)
marin1987: 116G (0.8%, 116G)
Tekenu: 116G (0.8%, 116G)
datadrivenbot: 100G (0.7%, 1,099G)

yellow bets:
ko2q: 2,053G (23.8%, 2,053G)
upvla: 1,234G (14.3%, 29,103G)
Zeroroute: 1,205G (14.0%, 1,205G)
Draconis345: 1,000G (11.6%, 82,810G)
MattMan119: 1,000G (11.6%, 7,434G)
fenaen: 500G (5.8%, 37,580G)
nifboy: 489G (5.7%, 9,795G)
catfashions: 480G (5.6%, 480G)
PetitFoulard: 262G (3.0%, 262G)
ZephyrTempest: 101G (1.2%, 165,551G)
Arkreaver: 100G (1.2%, 11,400G)
lifeguard_dan: 100G (1.2%, 1,761G)
Lavatis: 100G (1.2%, 2,914G)
