Final Bets: white - 14 bets for 8,693G (45.1%, x1.22); black - 17 bets for 10,589G (54.9%, x0.82)

white bets:
kai_shee: 2,000G (23.0%, 137,376G)
fenaen: 1,001G (11.5%, 37,080G)
SomeCallMeGON: 1,000G (11.5%, 10,628G)
ungabunga_bot: 1,000G (11.5%, 209,767G)
Draconis345: 1,000G (11.5%, 81,810G)
Laserman1000: 514G (5.9%, 23,614G)
NovaKnight21: 500G (5.8%, 3,089G)
pretho: 400G (4.6%, 528G)
Justice0320: 333G (3.8%, 3,333G)
AllInBot: 324G (3.7%, 324G)
PetitFoulard: 220G (2.5%, 220G)
Lavatis: 200G (2.3%, 2,814G)
ZephyrTempest: 101G (1.2%, 165,450G)
datadrivenbot: 100G (1.2%, 1,160G)

black bets:
upvla: 1,234G (11.7%, 27,869G)
ColetteMSLP: 1,000G (9.4%, 31,434G)
DavenIII: 1,000G (9.4%, 4,781G)
BirbBrainsBot: 1,000G (9.4%, 87,727G)
EnemyController: 1,000G (9.4%, 58,189G)
Willjin: 800G (7.6%, 20,975G)
leakimiko: 751G (7.1%, 12,517G)
getthemoneyz: 736G (7.0%, 545,047G)
MattMan119: 500G (4.7%, 6,434G)
nedryerson01: 500G (4.7%, 4,161G)
JumbocactuarX27: 500G (4.7%, 8,923G)
catfashions: 480G (4.5%, 480G)
nifboy: 465G (4.4%, 9,306G)
Aneyus: 273G (2.6%, 27,355G)
PinKPonG: 200G (1.9%, 1,593G)
lifeguard_dan: 100G (0.9%, 1,661G)
tmo50x: 50G (0.5%, 4,872G)
