Final Bets: red - 16 bets for 7,153G (38.4%, x1.61); blue - 12 bets for 11,497G (61.6%, x0.62)

red bets:
Zeroroute: 1,645G (23.0%, 1,645G)
TheMurkGnome: 1,316G (18.4%, 1,316G)
HaateXIII: 872G (12.2%, 872G)
Treafa: 708G (9.9%, 708G)
prince_rogers_nelson_: 480G (6.7%, 480G)
superdevon1: 351G (4.9%, 3,512G)
gorgewall: 301G (4.2%, 6,631G)
DAC169: 200G (2.8%, 1,248G)
dtrain332: 200G (2.8%, 2,445G)
datadrivenbot: 200G (2.8%, 34,216G)
Grandlanzer: 200G (2.8%, 93,897G)
KasugaiRoastedPeas: 200G (2.8%, 10,739G)
JDogg2K4: 180G (2.5%, 180G)
Miku_Shikhu: 100G (1.4%, 11,861G)
Legionx13: 100G (1.4%, 4,004G)
TasisSai: 100G (1.4%, 573G)

blue bets:
RaIshtar: 5,000G (43.5%, 81,083G)
randgridr: 1,380G (12.0%, 1,380G)
Meta_Five: 1,000G (8.7%, 19,665G)
getthemoneyz: 1,000G (8.7%, 1,327,145G)
BirbBrainsBot: 1,000G (8.7%, 92,172G)
twelfthrootoftwo: 727G (6.3%, 727G)
EnemyController: 555G (4.8%, 1,459,796G)
Whiskybrave: 300G (2.6%, 5,929G)
AllInBot: 200G (1.7%, 200G)
iBardic: 135G (1.2%, 135G)
Heroebal: 100G (0.9%, 2,708G)
nhammen: 100G (0.9%, 3,761G)
