Final Bets: purple - 21 bets for 14,409G (29.5%, x2.39); brown - 19 bets for 34,501G (70.5%, x0.42)

purple bets:
volgrathemoose: 3,477G (24.1%, 6,955G)
DavenIII: 1,825G (12.7%, 3,650G)
JumbocactuarX27: 1,651G (11.5%, 1,651G)
nifboy: 1,192G (8.3%, 1,192G)
TheChainNerd: 881G (6.1%, 881G)
CapnChaos12: 698G (4.8%, 698G)
Legitamte: 666G (4.6%, 6,374G)
moonliquor: 500G (3.5%, 1,251G)
Dymntd: 500G (3.5%, 7,053G)
Theseawolf1: 500G (3.5%, 55,130G)
EnemyController: 500G (3.5%, 254,554G)
skillomono: 400G (2.8%, 1,562G)
tronfonne: 389G (2.7%, 778G)
joewcarson: 300G (2.1%, 3,298G)
Kyune: 250G (1.7%, 2,832G)
bruubarg: 200G (1.4%, 500G)
Kezia444: 104G (0.7%, 104G)
getthemoneyz: 102G (0.7%, 684,555G)
E_Ballard: 100G (0.7%, 14,279G)
Jampck: 100G (0.7%, 1,073G)
zeando: 74G (0.5%, 1,574G)

brown bets:
LDSkinny: 23,857G (69.1%, 47,714G)
KasugaiRoastedPeas: 1,368G (4.0%, 1,368G)
Tsuike: 1,321G (3.8%, 2,642G)
mirapoix: 1,053G (3.1%, 1,053G)
ungabunga_bot: 1,000G (2.9%, 502,605G)
BirbBrainsBot: 1,000G (2.9%, 167,206G)
gabbagooluigi: 770G (2.2%, 770G)
Firesheath: 596G (1.7%, 596G)
maakur_: 504G (1.5%, 504G)
gorgewall: 501G (1.5%, 12,207G)
sinnyil2: 500G (1.4%, 1,399G)
richardserious: 500G (1.4%, 4,902G)
Lanshaft: 388G (1.1%, 1,998G)
benticore: 250G (0.7%, 5,677G)
HaateXIII: 250G (0.7%, 1,103G)
LAGBOT30000: 235G (0.7%, 23,549G)
roqqqpsi: 188G (0.5%, 1,714G)
tk0002: 120G (0.3%, 196G)
alecttox: 100G (0.3%, 6,205G)
