Final Bets: white - 22 bets for 20,913G (63.5%, x0.57); black - 14 bets for 12,013G (36.5%, x1.74)

white bets:
Thyrandaal: 5,000G (23.9%, 234,923G)
Willjin: 3,000G (14.3%, 40,658G)
nhammen: 2,000G (9.6%, 40,924G)
dogsandcatsand: 1,879G (9.0%, 3,685G)
thunderducker: 1,877G (9.0%, 3,682G)
BirbBrainsBot: 1,000G (4.8%, 48,841G)
killth3kid: 768G (3.7%, 42,445G)
3ngag3: 747G (3.6%, 747G)
TheBrett: 697G (3.3%, 697G)
MemoriesofFinal: 615G (2.9%, 615G)
superdevon1: 612G (2.9%, 2,449G)
CorpusCav: 531G (2.5%, 27,531G)
run_with_stone_GUNs: 472G (2.3%, 7,794G)
JonnyCue: 444G (2.1%, 5,279G)
AllInBot: 366G (1.8%, 366G)
wiznaibusthis: 300G (1.4%, 918G)
MoonSugarFiend: 120G (0.6%, 5,102G)
ayeCoop: 108G (0.5%, 108G)
maakur_: 100G (0.5%, 9,310G)
king_smashington: 100G (0.5%, 1,233G)
Lord_Gwarth: 100G (0.5%, 1,286G)
Smugzug: 77G (0.4%, 936G)

black bets:
bigbongsmoker: 3,303G (27.5%, 33,035G)
skipsandwiches: 2,002G (16.7%, 177,082G)
LDSkinny: 877G (7.3%, 877G)
nifboy: 860G (7.2%, 860G)
ko2q: 808G (6.7%, 1,616G)
Firesheath: 620G (5.2%, 620G)
Nizaha: 616G (5.1%, 12,801G)
goth_Applebees_hostess: 600G (5.0%, 3,808G)
Dasutin23: 564G (4.7%, 15,973G)
thebluesman: 539G (4.5%, 3,539G)
holdenmagronik: 472G (3.9%, 472G)
getthemoneyz: 352G (2.9%, 2,094,199G)
Shalloween: 200G (1.7%, 6,975G)
datadrivenbot: 200G (1.7%, 79,666G)
