Final Bets: red - 21 bets for 13,548G (32.6%, x2.07); purple - 22 bets for 28,005G (67.4%, x0.48)

red bets:
Shakarak: 3,000G (22.1%, 29,993G)
TrogdorTheMemeinator: 1,235G (9.1%, 1,235G)
Shalloween: 1,004G (7.4%, 96,178G)
BirbBrainsBot: 1,000G (7.4%, 213,991G)
bad1dea: 1,000G (7.4%, 32,706G)
Aldrammech: 998G (7.4%, 9,987G)
superdevon1: 866G (6.4%, 8,663G)
rubenflonne: 639G (4.7%, 639G)
getthemoneyz: 554G (4.1%, 436,318G)
EnemyController: 500G (3.7%, 15,827G)
WireLord: 400G (3.0%, 400G)
0utlier: 350G (2.6%, 1,148G)
Treapvort: 336G (2.5%, 336G)
electric_glass: 333G (2.5%, 2,605G)
SkylerBunny: 320G (2.4%, 320G)
alecttox: 305G (2.3%, 33,305G)
OverlordCuddles: 208G (1.5%, 208G)
ugoplatamia: 200G (1.5%, 6,059G)
AllInBot: 100G (0.7%, 100G)
ApplesauceBoss: 100G (0.7%, 3,034G)
ALY327: 100G (0.7%, 1,467G)

purple bets:
HASTERIOUS: 10,209G (36.5%, 101,725G)
HaplessOne: 5,000G (17.9%, 91,835G)
PotionDweller: 2,500G (8.9%, 18,041G)
LuckyLuckLuc2: 2,222G (7.9%, 18,211G)
upvla: 1,219G (4.4%, 19,851G)
technominari: 1,000G (3.6%, 88,147G)
DarrenDinosaurs: 1,000G (3.6%, 12,583G)
Adam1949: 750G (2.7%, 6,500G)
RongRongArts: 528G (1.9%, 528G)
DeathTaxesAndAnime: 500G (1.8%, 4,695G)
Goust18: 500G (1.8%, 12,299G)
rico_flex: 500G (1.8%, 3,135G)
Laserman1000: 385G (1.4%, 385G)
DHaveWord: 340G (1.2%, 340G)
pedrossj: 300G (1.1%, 300G)
DrAntiSocial: 232G (0.8%, 232G)
herrshaun: 220G (0.8%, 220G)
astrozin11: 187G (0.7%, 14,787G)
Tristar49: 113G (0.4%, 113G)
zepi_zza: 100G (0.4%, 2,063G)
HashtagRob_: 100G (0.4%, 2,199G)
datadrivenbot: 100G (0.4%, 17,645G)
