Final Bets: red - 16 bets for 29,511G (54.9%, x0.82); green - 14 bets for 24,261G (45.1%, x1.22)

red bets:
boxyID: 19,651G (66.6%, 19,651G)
Rislyeu: 2,000G (6.8%, 7,698G)
NIghtdew14: 1,500G (5.1%, 6,919G)
JDogg2K4: 1,155G (3.9%, 1,155G)
Aldrammech: 1,000G (3.4%, 24,665G)
reinoe: 1,000G (3.4%, 78,366G)
Xoomwaffle: 622G (2.1%, 622G)
braveboyblue: 500G (1.7%, 1,086G)
HaateXIII: 500G (1.7%, 3,404G)
sinnyil2: 350G (1.2%, 7,061G)
Hirameki85: 268G (0.9%, 17,946G)
Lord_Gwarth: 264G (0.9%, 264G)
gorgewall: 201G (0.7%, 7,144G)
Brainstew29: 200G (0.7%, 13,056G)
datadrivenbot: 200G (0.7%, 47,511G)
ANFz: 100G (0.3%, 57,821G)

green bets:
NicoSavoy: 9,344G (38.5%, 116,800G)
Thyrandaal: 5,555G (22.9%, 93,559G)
EnemyController: 2,222G (9.2%, 1,544,690G)
amiture: 2,000G (8.2%, 47,026G)
BirbBrainsBot: 1,000G (4.1%, 189,273G)
superdevon1: 741G (3.1%, 37,099G)
blorpy_: 698G (2.9%, 8,734G)
randgridr: 600G (2.5%, 600G)
Lanshaft: 552G (2.3%, 18,537G)
coralreeferz: 544G (2.2%, 544G)
Laserman1000: 500G (2.1%, 5,800G)
getthemoneyz: 230G (0.9%, 1,503,856G)
AllInBot: 200G (0.8%, 200G)
ArlanKels: 75G (0.3%, 2,512G)
