Final Bets: red - 16 bets for 15,710G (68.2%, x0.47); blue - 12 bets for 7,313G (31.8%, x2.15)

red bets:
HaateXIII: 7,899G (50.3%, 15,798G)
TheChainNerd: 1,500G (9.5%, 48,330G)
iBardic: 1,000G (6.4%, 1,000G)
aznwanderor: 1,000G (6.4%, 6,036G)
mirapoix: 872G (5.6%, 872G)
Laserman1000: 788G (5.0%, 30,588G)
BlueAbs: 500G (3.2%, 3,001G)
Lythe_Caraker: 500G (3.2%, 140,954G)
NIghtdew14: 488G (3.1%, 488G)
SephDarkheart: 312G (2.0%, 45,844G)
gorgewall: 201G (1.3%, 4,327G)
Blaster_Bomb: 200G (1.3%, 2,591G)
datadrivenbot: 200G (1.3%, 28,825G)
nifboy: 100G (0.6%, 6,579G)
CosmicTactician: 100G (0.6%, 43,876G)
captainmilestw: 50G (0.3%, 382G)

blue bets:
Zeroroute: 1,625G (22.2%, 3,497G)
EnemyController: 1,111G (15.2%, 1,451,684G)
BirbBrainsBot: 1,000G (13.7%, 195,811G)
coralreeferz: 884G (12.1%, 884G)
MagicBottle: 548G (7.5%, 19,446G)
getthemoneyz: 534G (7.3%, 1,305,020G)
JumbocactuarX27: 500G (6.8%, 33,503G)
Cryptopsy70: 304G (4.2%, 3,366G)
athros13: 268G (3.7%, 16,653G)
TasisSai: 219G (3.0%, 431G)
AllInBot: 200G (2.7%, 200G)
DouglasDragonThePoet: 120G (1.6%, 271G)
