Final Bets: white - 11 bets for 5,676G (46.3%, x1.16); purple - 17 bets for 6,581G (53.7%, x0.86)

white bets:
Aldrammech: 1,260G (22.2%, 1,260G)
BirbBrainsBot: 1,000G (17.6%, 123,755G)
nhammen: 756G (13.3%, 1,511G)
DeathTaxesAndAnime: 736G (13.0%, 736G)
dogsandcatsand: 596G (10.5%, 28,872G)
DejaPoo21: 500G (8.8%, 12,640G)
SeniorBunk: 300G (5.3%, 4,303G)
Xoomwaffle: 276G (4.9%, 3,656G)
brokenknight201: 200G (3.5%, 1,637G)
DouglasDragonThePoet: 50G (0.9%, 1,039G)
getthemoneyz: 2G (0.0%, 1,337,895G)

purple bets:
Lord_Burrah: 1,615G (24.5%, 82,615G)
triniculo: 917G (13.9%, 917G)
IDruggedShamu: 628G (9.5%, 628G)
Oreo_Pizza: 500G (7.6%, 31,042G)
roqqqpsi: 433G (6.6%, 1,733G)
JDogg2K4: 376G (5.7%, 376G)
Grandlanzer: 300G (4.6%, 96,325G)
JiroDoge: 264G (4.0%, 1,057G)
skipsandwiches: 248G (3.8%, 248G)
AllInBot: 200G (3.0%, 200G)
Miku_Shikhu: 200G (3.0%, 15,448G)
furrytomahawkk: 200G (3.0%, 2,796G)
datadrivenbot: 200G (3.0%, 34,311G)
BoneMiser: 200G (3.0%, 24,346G)
Legionx13: 100G (1.5%, 4,670G)
lastly: 100G (1.5%, 33,199G)
NovaKnight21: 100G (1.5%, 9,468G)
