High Risers:
1. Hotpocketsofficial: +8,666G
2. Arcblazer23: +6,887G
3. Reinoe: +6,566G
4. Chihuahua_charity: +6,423G
5. Anizero: +6,405G
6. Benticore: +5,624G
7. Dasutin23: +3,766G
8. Corpuscav: +2,793G
9. Smashy: +2,771G
10. Zbgs: +2,536G
11. Sinnyil2: +2,041G
12. Lowlf: +1,834G
13. Rytor: +1,743G
14. Krombobreaker: +1,546G
15. Nicosavoy: +1,112G
16. Phi_sig: +1,044G
17. Byrdturbo: +1,004G
18. Galkife: +1,000G
19. Fenaen: +1,000G
20. Bappletrees: +938G
21. Snowfats: +923G
22. Dac169: +833G
23. Dogsandcatsand: +732G
24. Colettemslp: +697G
25. Volgrathemoose: +615G
26. Nhammen: +564G
27. Grayghostgaming: +504G
28. Acid_flashback: +504G
29. Lythe_caraker: +500G
30. Myfakelife: +500G
31. Redmage4evah: +500G
32. Brokenknight201: +500G
33. Dem0nj0ns: +500G
34. Rabbitlogik: +500G
35. Aldrammech: +500G
36. Lord_gwarth: +433G
37. Deathtaxesandanime: +408G
38. Powergems: +400G
39. Ribbiks: +341G
40. Poorest_hobo: +309G
41. Technominari: +300G
42. Fluffskull: +300G
43. Seppu777: +159G
44. Mindblownnnn: +148G
45. Whitetigress: +100G
46. Runicmagus: +64G
47. Tacobouteverything: +40G
48. Maakur_: +32G
49. Twisted_nutsatchel: -49G
50. E_ballard: -96G
51. Formerlydrdong: -100G
52. Chuckolator: -195G
53. Nobodysomeone: -197G
54. Dracoknightzero: -213G
55. Laserman1000: -229G
56. Valensexp_: -256G
57. J2dabibbles: -287G
58. Ruleof5: -300G
59. Memoriesoffinal: -376G
60. Skylerbunny: -393G
61. Error72: -400G
62. Rocl: -400G
63. Sietaha: -433G
64. Upvla: -444G
65. Latebit: -525G
66. Heybtw: -537G
67. Cosmictactician: -666G
68. Snkey: -748G
69. Ldskinny: -800G
70. Jaritras: -828G
71. Willjin: -900G
72. Killth3kid: -907G
73. Gooseyourself: -1,000G
74. Seaweed_b: -1,000G
75. Aly327: -1,000G
76. Leonidusx: -1,000G
77. Trogdorthememeinator: -1,000G
78. Pepperbuster: -1,480G
79. Roofiepops: -1,509G
80. Spartan_paladin: -1,541G
81. Anfz: -1,697G
82. Old_overholt_: -1,800G
83. Thunderducker: -1,942G
84. Thyrandaal: -3,555G
85. Resjudicata3: -6,154G
86. Virilikus: -8,861G
87. Mesmaster: -8,885G
