Final Bets: white - 14 bets for 13,300G (37.8%, x1.65); black - 19 bets for 21,899G (62.2%, x0.61)

white bets:
Arcblazer23: 4,520G (34.0%, 4,520G)
DeathTaxesAndAnime: 2,356G (17.7%, 2,356G)
Jaritras: 1,963G (14.8%, 1,963G)
Rytor: 1,464G (11.0%, 2,872G)
BirbBrainsBot: 1,000G (7.5%, 33,911G)
Dasutin23: 472G (3.5%, 472G)
hotpocketsofficial: 331G (2.5%, 331G)
Chihuahua_Charity: 240G (1.8%, 240G)
BappleTrees: 224G (1.7%, 224G)
DAC169: 200G (1.5%, 6,401G)
datadrivenbot: 200G (1.5%, 58,121G)
heyBtw: 124G (0.9%, 124G)
acid_flashback: 106G (0.8%, 3,555G)
BartTradingCompany: 100G (0.8%, 3,143G)

black bets:
AniZero: 5,000G (22.8%, 22,303G)
thunderducker: 2,000G (9.1%, 9,574G)
Virilikus: 2,000G (9.1%, 262,562G)
Spartan_Paladin: 1,500G (6.8%, 13,529G)
CorpusCav: 1,447G (6.6%, 1,447G)
VolgraTheMoose: 1,137G (5.2%, 1,137G)
latebit: 1,082G (4.9%, 1,082G)
Thyrandaal: 1,077G (4.9%, 2,113G)
ANFz: 1,000G (4.6%, 6,868G)
getthemoneyz: 1,000G (4.6%, 1,920,901G)
krombobreaker: 943G (4.3%, 943G)
Shalloween: 816G (3.7%, 816G)
Twisted_Nutsatchel: 660G (3.0%, 660G)
dogsandcatsand: 592G (2.7%, 592G)
AllInBot: 589G (2.7%, 589G)
rocl: 400G (1.8%, 7,281G)
J2DaBibbles: 300G (1.4%, 300G)
ValensEXP_: 256G (1.2%, 2,820G)
tacobouteverything: 100G (0.5%, 1,121G)
