Final Bets: purple - 18 bets for 13,123G (43.1%, x1.32); brown - 18 bets for 17,295G (56.9%, x0.76)

purple bets:
AniZero: 5,000G (38.1%, 17,303G)
Dasutin23: 1,249G (9.5%, 1,249G)
BirbBrainsBot: 1,000G (7.6%, 35,558G)
hotpocketsofficial: 876G (6.7%, 876G)
sinnyil2: 700G (5.3%, 88,687G)
CorpusCav: 656G (5.0%, 656G)
Chihuahua_Charity: 635G (4.8%, 635G)
Smashy: 500G (3.8%, 4,115G)
Spartan_Paladin: 500G (3.8%, 12,029G)
latebit: 380G (2.9%, 380G)
heyBtw: 328G (2.5%, 328G)
Snowfats: 328G (2.5%, 328G)
killth3kid: 300G (2.3%, 34,473G)
DracoknightZero: 260G (2.0%, 2,754G)
acid_flashback: 111G (0.8%, 3,730G)
AllInBot: 100G (0.8%, 100G)
tacobouteverything: 100G (0.8%, 1,021G)
ANFz: 100G (0.8%, 5,868G)

brown bets:
Virilikus: 4,000G (23.1%, 260,562G)
DeathTaxesAndAnime: 3,179G (18.4%, 6,235G)
Rytor: 2,694G (15.6%, 5,283G)
thunderducker: 1,400G (8.1%, 7,574G)
Mesmaster: 1,000G (5.8%, 232,086G)
getthemoneyz: 830G (4.8%, 1,919,901G)
BappleTrees: 593G (3.4%, 593G)
Phi_Sig: 555G (3.2%, 28,132G)
Thyrandaal: 528G (3.1%, 1,036G)
roofiepops: 474G (2.7%, 2,733G)
OneHundredFists: 424G (2.5%, 424G)
krombobreaker: 392G (2.3%, 392G)
J2DaBibbles: 300G (1.7%, 300G)
Chuckolator: 266G (1.5%, 24,213G)
ribbiks: 200G (1.2%, 1,739G)
datadrivenbot: 200G (1.2%, 58,450G)
Twisted_Nutsatchel: 160G (0.9%, 160G)
BartTradingCompany: 100G (0.6%, 3,308G)
