Final Bets: white - 11 bets for 9,387G (31.7%, x2.15); champion - 13 bets for 20,201G (68.3%, x0.46)

white bets:
Mesmaster: 5,000G (53.3%, 46,504G)
BirbBrainsBot: 1,000G (10.7%, 50,928G)
dantayystv: 754G (8.0%, 754G)
killth3kid: 684G (7.3%, 68,750G)
blastty: 578G (6.2%, 578G)
DamnThatShark: 500G (5.3%, 2,851G)
Digitalsocrates: 404G (4.3%, 3,745G)
Hasterious: 166G (1.8%, 3,330G)
byrdturbo: 111G (1.2%, 23,280G)
Firesheath: 100G (1.1%, 2,441G)
getthemoneyz: 90G (1.0%, 1,264,290G)

champion bets:
evontno: 10,069G (49.8%, 33,964G)
GRRR12: 5,896G (29.2%, 5,896G)
randgridr: 1,037G (5.1%, 5,187G)
Evewho: 744G (3.7%, 744G)
dem0nj0ns: 519G (2.6%, 519G)
Treafa: 500G (2.5%, 1,053G)
bruubarg: 352G (1.7%, 352G)
Lemonjohns: 300G (1.5%, 2,141G)
Spuzzmocker: 204G (1.0%, 204G)
BoneMiser: 200G (1.0%, 18,273G)
datadrivenbot: 200G (1.0%, 63,451G)
fluffskull: 100G (0.5%, 2,729G)
DeathTaxesAndAnime: 80G (0.4%, 17,933G)
