Final Bets: white - 15 bets for 7,592G (54.5%, x0.83); black - 13 bets for 6,334G (45.5%, x1.20)

white bets:
sinnyil2: 2,500G (32.9%, 109,971G)
Aldrammech: 1,000G (13.2%, 17,075G)
MMagnetMan: 1,000G (13.2%, 6,936G)
Breakdown777: 500G (6.6%, 25,780G)
Belivalan: 498G (6.6%, 498G)
skuldar: 467G (6.2%, 467G)
NovaKnight21: 376G (5.0%, 376G)
TheRylander: 300G (4.0%, 1,911G)
Faplo: 250G (3.3%, 1,144G)
Anethum: 200G (2.6%, 4,956G)
roqqqpsi: 101G (1.3%, 5,093G)
maakur_: 100G (1.3%, 111,941G)
WrathfulRemy: 100G (1.3%, 100G)
Evewho: 100G (1.3%, 12,045G)
datadrivenbot: 100G (1.3%, 2,324G)

black bets:
Baron_von_Scrub: 1,111G (17.5%, 74,201G)
lijarkh: 1,000G (15.8%, 5,275G)
ungabunga_bot: 1,000G (15.8%, 262,703G)
BirbBrainsBot: 1,000G (15.8%, 191,583G)
getthemoneyz: 690G (10.9%, 584,970G)
Laserman1000: 674G (10.6%, 48,874G)
nifboy: 257G (4.1%, 6,431G)
ZephyrTempest: 101G (1.6%, 189,330G)
DrAntiSocial: 101G (1.6%, 23,053G)
mirapoix: 100G (1.6%, 1,612G)
Realitydown: 100G (1.6%, 2,216G)
midori_ribbon: 100G (1.6%, 846G)
Ultimate_Infinity: 100G (1.6%, 100G)
