Final Bets: green - 18 bets for 12,789G (70.8%, x0.41); yellow - 8 bets for 5,281G (29.2%, x2.42)

green bets:
InOzWeTrust: 3,120G (24.4%, 3,120G)
DeathTaxesAndAnime: 1,866G (14.6%, 3,660G)
Dasutin23: 1,000G (7.8%, 32,641G)
BirbBrainsBot: 1,000G (7.8%, 138,703G)
reinoe: 1,000G (7.8%, 186,958G)
CorpusCav: 999G (7.8%, 7,560G)
ko2q: 672G (5.3%, 672G)
Aldrammech: 644G (5.0%, 644G)
brokenknight201: 600G (4.7%, 4,421G)
dogsandcatsand: 512G (4.0%, 512G)
AllInBot: 461G (3.6%, 461G)
getthemoneyz: 204G (1.6%, 1,565,907G)
twelfthrootoftwo: 200G (1.6%, 1,497G)
PantherIscariot: 111G (0.9%, 3,556G)
mirapoix: 100G (0.8%, 4,579G)
moocaotao: 100G (0.8%, 3,864G)
arkivegoof: 100G (0.8%, 816G)
ANFz: 100G (0.8%, 43,165G)

yellow bets:
SkylerBunny: 2,800G (53.0%, 208,933G)
itskage: 700G (13.3%, 7,009G)
douchetron: 600G (11.4%, 600G)
Lanshaft: 568G (10.8%, 10,763G)
northkoreancleetus: 290G (5.5%, 290G)
Lydian_C: 123G (2.3%, 18,861G)
MinBetBot: 100G (1.9%, 18,952G)
timthehoodie: 100G (1.9%, 548G)
