Final Bets: white - 14 bets for 9,421G (70.5%, x0.42); black - 10 bets for 3,943G (29.5%, x2.39)

white bets:
SkylerBunny: 3,000G (31.8%, 215,714G)
Dasutin23: 1,000G (10.6%, 31,641G)
BirbBrainsBot: 1,000G (10.6%, 137,703G)
itskage: 870G (9.2%, 8,704G)
killth3kid: 660G (7.0%, 12,125G)
Aldrammech: 644G (6.8%, 644G)
coralreeferz: 576G (6.1%, 28,787G)
dogsandcatsand: 512G (5.4%, 512G)
blorpy_: 480G (5.1%, 6,012G)
timthehoodie: 250G (2.7%, 790G)
Lydian_C: 123G (1.3%, 19,159G)
ANFz: 121G (1.3%, 43,065G)
northkoreancleetus: 100G (1.1%, 992G)
richardserious: 85G (0.9%, 1,218G)

black bets:
DeathTaxesAndAnime: 1,794G (45.5%, 1,794G)
Lanshaft: 568G (14.4%, 12,139G)
reddwind_: 564G (14.3%, 8,408G)
getthemoneyz: 306G (7.8%, 1,565,703G)
AllInBot: 200G (5.1%, 200G)
PantherIscariot: 111G (2.8%, 3,445G)
MinBetBot: 100G (2.5%, 19,194G)
skillomono: 100G (2.5%, 3,173G)
moocaotao: 100G (2.5%, 3,764G)
twelfthrootoftwo: 100G (2.5%, 1,297G)
