Final Bets: blue - 16 bets for 10,861G (58.4%, x0.71); purple - 11 bets for 7,730G (41.6%, x1.41)

blue bets:
ko2q: 2,385G (22.0%, 4,771G)
DeathTaxesAndAnime: 1,763G (16.2%, 1,763G)
CorpusCav: 1,000G (9.2%, 6,161G)
itskage: 934G (8.6%, 9,347G)
killth3kid: 660G (6.1%, 12,556G)
AllInBot: 632G (5.8%, 632G)
getthemoneyz: 624G (5.7%, 1,567,669G)
Lanshaft: 568G (5.2%, 13,068G)
reddwind_: 564G (5.2%, 9,700G)
SephDarkheart: 508G (4.7%, 55,509G)
latebit: 414G (3.8%, 414G)
twelfthrootoftwo: 300G (2.8%, 1,026G)
nebukin: 208G (1.9%, 208G)
gorgewall: 101G (0.9%, 3,469G)
KSops: 100G (0.9%, 5,950G)
northkoreancleetus: 100G (0.9%, 1,132G)

purple bets:
SkylerBunny: 3,000G (38.8%, 204,814G)
Forkmore: 1,000G (12.9%, 1,992G)
BirbBrainsBot: 1,000G (12.9%, 139,603G)
KyleWonToLiveForever: 1,000G (12.9%, 8,984G)
Gunz232323: 624G (8.1%, 624G)
NovaKnight21: 572G (7.4%, 572G)
Lydian_C: 123G (1.6%, 17,866G)
PantherIscariot: 111G (1.4%, 4,444G)
MinBetBot: 100G (1.3%, 19,499G)
nifboy: 100G (1.3%, 2,400G)
moocaotao: 100G (1.3%, 4,294G)
