Final Bets: red - 19 bets for 15,506G (77.6%, x0.29); blue - 10 bets for 4,465G (22.4%, x3.47)

red bets:
Mesmaster: 5,000G (32.2%, 164,892G)
SkylerBunny: 2,000G (12.9%, 28,127G)
resjudicata3: 1,042G (6.7%, 1,042G)
BirbBrainsBot: 1,000G (6.4%, 187,925G)
Thyrandaal: 1,000G (6.4%, 98,429G)
idioSyncr4zy: 639G (4.1%, 6,394G)
latebit: 627G (4.0%, 627G)
fenaen: 576G (3.7%, 8,937G)
Chuckolator: 564G (3.6%, 564G)
pepperbuster: 489G (3.2%, 489G)
Lemonjohns: 420G (2.7%, 2,141G)
holdenmagronik: 388G (2.5%, 2,643G)
reddwind_: 380G (2.5%, 2,723G)
NicoSavoy: 360G (2.3%, 360G)
krombobreaker: 312G (2.0%, 312G)
BartTradingCompany: 244G (1.6%, 2,446G)
datadrivenbot: 200G (1.3%, 55,350G)
Powermhero: 165G (1.1%, 54,965G)
CorpusCav: 100G (0.6%, 6,684G)

blue bets:
Shalloween: 1,143G (25.6%, 1,143G)
bigbongsmoker: 688G (15.4%, 688G)
Zagorsek: 648G (14.5%, 648G)
getthemoneyz: 458G (10.3%, 1,836,345G)
SephDarkheart: 356G (8.0%, 1,466G)
Lord_Gwarth: 337G (7.5%, 1,119G)
lijarkh: 312G (7.0%, 312G)
Sietaha: 300G (6.7%, 1,172G)
Lydian_C: 123G (2.8%, 14,169G)
Miku_Shikhu: 100G (2.2%, 5,009G)
