Final Bets: red - 16 bets for 10,875G (36.6%, x1.73); yellow - 24 bets for 18,842G (63.4%, x0.58)

red bets:
snkey: 3,949G (36.3%, 39,490G)
nifboy: 1,000G (9.2%, 4,576G)
DeathTaxesAndAnime: 984G (9.0%, 984G)
Zeroroute: 814G (7.5%, 814G)
Zagorsek: 771G (7.1%, 771G)
nekojin: 664G (6.1%, 664G)
idioSyncr4zy: 592G (5.4%, 5,924G)
resjudicata3: 566G (5.2%, 566G)
BirbBrainsBot: 295G (2.7%, 188,444G)
bigbongsmoker: 260G (2.4%, 260G)
killth3kid: 250G (2.3%, 12,079G)
holandrix: 215G (2.0%, 215G)
BartTradingCompany: 183G (1.7%, 1,836G)
FriendlySkeleton: 132G (1.2%, 2,417G)
Miku_Shikhu: 100G (0.9%, 4,909G)
velvet_muffins: 100G (0.9%, 3,800G)

yellow bets:
Mesmaster: 5,000G (26.5%, 179,491G)
SkylerBunny: 3,000G (15.9%, 32,827G)
latebit: 1,354G (7.2%, 1,354G)
NicoSavoy: 1,352G (7.2%, 1,352G)
Lemonjohns: 1,000G (5.3%, 2,012G)
Smashy: 1,000G (5.3%, 5,166G)
RobotOcelot: 1,000G (5.3%, 24,335G)
fenaen: 576G (3.1%, 9,226G)
ForagerCats: 500G (2.7%, 14,462G)
Runeseeker22: 500G (2.7%, 6,120G)
Sairentozon7: 484G (2.6%, 484G)
CT_5_Holy: 433G (2.3%, 8,660G)
holdenmagronik: 388G (2.1%, 3,347G)
Tarheels218: 372G (2.0%, 1,691G)
krombobreaker: 371G (2.0%, 371G)
lijarkh: 312G (1.7%, 312G)
MemoriesofFinal: 260G (1.4%, 1,000G)
escobro: 216G (1.1%, 216G)
datadrivenbot: 200G (1.1%, 55,046G)
Sietaha: 200G (1.1%, 204G)
pepperbuster: 100G (0.5%, 690G)
RagnaStream: 100G (0.5%, 100G)
CorpusCav: 100G (0.5%, 5,415G)
getthemoneyz: 24G (0.1%, 1,835,182G)
