Final Bets: brown - 21 bets for 16,290G (36.3%, x1.75); champion - 20 bets for 28,548G (63.7%, x0.57)

brown bets:
SkylerBunny: 3,000G (18.4%, 29,628G)
nekojin: 1,814G (11.1%, 1,814G)
Shalloween: 1,476G (9.1%, 2,952G)
E_Ballard: 1,281G (7.9%, 1,281G)
krombobreaker: 1,058G (6.5%, 1,058G)
nifboy: 1,000G (6.1%, 7,429G)
RobotOcelot: 1,000G (6.1%, 25,939G)
Smashy: 1,000G (6.1%, 4,767G)
upvla: 567G (3.5%, 6,036G)
Chuckolator: 564G (3.5%, 564G)
dogsandcatsand: 552G (3.4%, 3,939G)
Runeseeker22: 500G (3.1%, 5,620G)
Sairentozon7: 484G (3.0%, 484G)
Lemonjohns: 384G (2.4%, 384G)
getthemoneyz: 360G (2.2%, 1,835,072G)
SephDarkheart: 356G (2.2%, 1,509G)
killth3kid: 250G (1.5%, 12,512G)
escobro: 216G (1.3%, 216G)
datadrivenbot: 200G (1.2%, 54,766G)
formerlydrdong: 128G (0.8%, 2,566G)
spacecowboyK: 100G (0.6%, 1,000G)

champion bets:
Mesmaster: 10,000G (35.0%, 167,191G)
Thyrandaal: 5,000G (17.5%, 96,937G)
snkey: 4,700G (16.5%, 53,629G)
DeathTaxesAndAnime: 1,346G (4.7%, 2,689G)
Lythe_Caraker: 1,000G (3.5%, 161,733G)
BirbBrainsBot: 1,000G (3.5%, 186,955G)
skazi: 900G (3.2%, 1,000G)
Zeroroute: 891G (3.1%, 2,973G)
technominari: 500G (1.8%, 84,140G)
Leonidusx: 500G (1.8%, 16,680G)
Tarheels218: 372G (1.3%, 2,112G)
NicoSavoy: 360G (1.3%, 360G)
idioSyncr4zy: 330G (1.2%, 6,603G)
zelaxi: 320G (1.1%, 800G)
lijarkh: 312G (1.1%, 312G)
bigbongsmoker: 260G (0.9%, 877G)
BartTradingCompany: 253G (0.9%, 2,537G)
Sietaha: 204G (0.7%, 204G)
CorpusCav: 200G (0.7%, 5,487G)
RagnaStream: 100G (0.4%, 100G)
