Final Bets: purple - 12 bets for 5,772G (35.2%, x1.84); brown - 9 bets for 10,630G (64.8%, x0.54)

purple bets:
E_Ballard: 1,168G (20.2%, 1,168G)
prince_rogers_nelson_: 1,100G (19.1%, 1,100G)
RaIshtar: 800G (13.9%, 9,877G)
getthemoneyz: 730G (12.6%, 1,073,956G)
BirbBrainsBot: 523G (9.1%, 60,747G)
gorgewall: 301G (5.2%, 26,792G)
twelfthrootoftwo: 300G (5.2%, 6,547G)
ColetteMSLP: 300G (5.2%, 2,414G)
Evewho: 200G (3.5%, 1,815G)
PrancesWithWolves: 150G (2.6%, 168G)
datadrivenbot: 100G (1.7%, 47,093G)
josephiroth_143: 100G (1.7%, 1,548G)

brown bets:
Lydian_C: 4,200G (39.5%, 193,411G)
Mesmaster: 2,000G (18.8%, 108,871G)
VolgraTheMoose: 1,752G (16.5%, 3,504G)
Ruvelia_BibeI: 1,000G (9.4%, 5,377G)
ForagerCats: 1,000G (9.4%, 15,530G)
reinoe: 300G (2.8%, 300G)
Magicandy: 200G (1.9%, 12,112G)
Heyndog: 100G (0.9%, 337G)
CT_5_Holy: 78G (0.7%, 1,569G)
