Final Bets: purple - 10 bets for 11,751G (36.8%, x1.71); brown - 16 bets for 20,142G (63.2%, x0.58)

purple bets:
Aldrammech: 7,830G (66.6%, 7,830G)
Zeroroute: 1,616G (13.8%, 3,814G)
letdowncity: 524G (4.5%, 30,154G)
CaptainGarlock: 500G (4.3%, 14,064G)
bruubarg: 500G (4.3%, 2,103G)
JonnyCue: 264G (2.2%, 264G)
muffin_money: 150G (1.3%, 14,099G)
northkoreancleetus: 140G (1.2%, 140G)
Valgram: 127G (1.1%, 127G)
AllInBot: 100G (0.9%, 100G)

brown bets:
dogsandcatsand: 6,132G (30.4%, 12,025G)
MonchoStrife: 3,132G (15.5%, 3,132G)
douchetron: 1,560G (7.7%, 1,560G)
gorgewall: 1,400G (7.0%, 1,400G)
Mesmaster: 1,021G (5.1%, 1,021G)
ArrenJevleth: 1,000G (5.0%, 13,081G)
getthemoneyz: 1,000G (5.0%, 1,626,111G)
BirbBrainsBot: 1,000G (5.0%, 100,804G)
ForagerCats: 965G (4.8%, 1,930G)
Nizaha: 740G (3.7%, 11,074G)
SephDarkheart: 572G (2.8%, 109,471G)
arctodus13: 500G (2.5%, 2,904G)
reinoe: 500G (2.5%, 216,417G)
butterbelljedi: 320G (1.6%, 320G)
Blastinus: 200G (1.0%, 1,690G)
nhammen: 100G (0.5%, 23,278G)
