Final Bets: black - 17 bets for 40,018G (75.1%, x0.33); champion - 10 bets for 13,271G (24.9%, x3.02)

black bets:
latebit: 23,800G (59.5%, 23,800G)
Drusiform: 4,730G (11.8%, 9,461G)
sinnyil2: 4,482G (11.2%, 8,964G)
ColetteMSLP: 1,000G (2.5%, 23,697G)
butterbelljedi: 1,000G (2.5%, 4,342G)
BirbBrainsBot: 1,000G (2.5%, 112,233G)
killth3kid: 716G (1.8%, 39,498G)
Aldrammech: 672G (1.7%, 672G)
Mesmaster: 604G (1.5%, 604G)
SephDarkheart: 572G (1.4%, 110,851G)
muffin_money: 450G (1.1%, 12,806G)
soren_of_tyto: 294G (0.7%, 294G)
itskage: 291G (0.7%, 2,915G)
AllInBot: 141G (0.4%, 141G)
MinBetBot: 100G (0.2%, 8,003G)
Thyrandaal: 100G (0.2%, 278,546G)
getthemoneyz: 66G (0.2%, 1,629,736G)

champion bets:
MonchoStrife: 5,525G (41.6%, 5,525G)
northkoreancleetus: 1,605G (12.1%, 1,605G)
arctodus13: 1,550G (11.7%, 3,046G)
gorgewall: 1,044G (7.9%, 1,044G)
reinoe: 1,000G (7.5%, 216,709G)
Nizaha: 744G (5.6%, 10,107G)
douchetron: 669G (5.0%, 669G)
Zeroroute: 600G (4.5%, 600G)
letdowncity: 524G (3.9%, 28,721G)
nhammen: 10G (0.1%, 23,440G)
