Final Bets: white - 25 bets for 31,807G (86.0%, x0.16); brown - 11 bets for 5,171G (14.0%, x6.15)

white bets:
Lydian_C: 5,587G (17.6%, 10,955G)
sinnyil2: 5,373G (16.9%, 5,373G)
fenaen: 3,000G (9.4%, 71,585G)
DeathTaxesAndAnime: 2,208G (6.9%, 4,330G)
Pie108: 2,000G (6.3%, 299,641G)
ShintaroNayaka: 2,000G (6.3%, 11,807G)
Shakarak: 2,000G (6.3%, 8,912G)
TheChainNerd: 1,907G (6.0%, 3,815G)
ACSpree: 1,017G (3.2%, 1,017G)
JonnyCue: 1,000G (3.1%, 27,665G)
JumbocactuarX27: 1,000G (3.1%, 11,563G)
Estan_AD: 648G (2.0%, 648G)
killth3kid: 500G (1.6%, 43,966G)
CapnChaos12: 500G (1.6%, 46,378G)
Rodzilla2273: 500G (1.6%, 2,190G)
MirrorTwin: 500G (1.6%, 4,915G)
SomeCallMeGON: 400G (1.3%, 6,850G)
ZephyrTempest: 400G (1.3%, 1,978G)
haigy: 350G (1.1%, 1,584G)
ko2q: 300G (0.9%, 300G)
gggamezzz: 217G (0.7%, 435G)
nifboy: 100G (0.3%, 1,903G)
lastly: 100G (0.3%, 894G)
snakeddL: 100G (0.3%, 108G)
maakur_: 100G (0.3%, 110,320G)

brown bets:
ungabunga_bot: 1,000G (19.3%, 284,134G)
BirbBrainsBot: 1,000G (19.3%, 72,557G)
Anethum: 709G (13.7%, 709G)
Shalloween: 500G (9.7%, 66,882G)
Lionhermit: 500G (9.7%, 27,605G)
IndecisiveNinja: 472G (9.1%, 472G)
arch8000: 300G (5.8%, 3,173G)
Pink_LuigiX: 268G (5.2%, 268G)
getthemoneyz: 222G (4.3%, 603,619G)
AllInBot: 100G (1.9%, 100G)
babieapple: 100G (1.9%, 238G)
