High Risers:
1. Nifboy: +1,631G
2. Deathtaxesandanime: +1,524G
3. Dhaveword: +579G
4. Thunderducker: +428G
5. Raixelol: +379G
6. Zachara: +303G
7. Gingerfoo69: +185G
8. Genkidou: +20G
9. Vidmonkey: +4G
10. Rhyser76: -28G
11. Leonidusx: -48G
12. Memoriesoffinal: -63G
13. Gilgamensche: -183G
14. Nicosavoy: -200G
15. Go2sleeptv: -200G
16. Lijarkh: -200G
17. Khelor_: -208G
18. Ar_tactic: -296G
19. Rune339: -300G
20. Bigbongsmoker: -300G
21. Cassiephoenix: -367G
22. Colettemslp: -491G
23. Ser_pyrro: -564G
24. Ayeayex3: -600G
25. Upvla: -900G
26. Otakutaylor: -1,249G
27. Lydian_c: -1,449G
28. Forkmore: -1,637G
29. Corpuscav: -1,650G
30. Onehundredfists: -2,216G
