Final Bets: yellow - 5 bets for 2,363G (37.0%, x1.70); purple - 7 bets for 4,024G (63.0%, x0.59)

yellow bets:
nifboy: 1,497G (63.4%, 1,497G)
DHaveWord: 416G (17.6%, 13,856G)
MemoriesofFinal: 200G (8.5%, 30,216G)
datadrivenbot: 200G (8.5%, 71,404G)
genkidou: 50G (2.1%, 270G)

purple bets:
ColetteMSLP: 1,007G (25.0%, 1,007G)
Leonidusx: 1,000G (24.9%, 145,410G)
BirbBrainsBot: 753G (18.7%, 188,489G)
otakutaylor: 742G (18.4%, 742G)
AllInBot: 268G (6.7%, 268G)
khelor_: 200G (5.0%, 5,627G)
getthemoneyz: 54G (1.3%, 2,020,735G)
