Final Bets: white - 16 bets for 13,526G (70.9%, x0.41); black - 10 bets for 5,542G (29.1%, x2.44)

white bets:
reinoe: 3,000G (22.2%, 71,416G)
pplvee1: 2,500G (18.5%, 5,628G)
BoneMiser: 2,098G (15.5%, 2,098G)
ShintaroNayaka: 2,000G (14.8%, 12,209G)
Breakdown777: 1,020G (7.5%, 1,020G)
DejaPoo21: 500G (3.7%, 13,140G)
nhammen: 500G (3.7%, 500G)
Aldrammech: 484G (3.6%, 484G)
roqqqpsi: 285G (2.1%, 300G)
Xoomwaffle: 272G (2.0%, 3,511G)
skipsandwiches: 244G (1.8%, 244G)
datadrivenbot: 200G (1.5%, 34,014G)
Lydian_C: 123G (0.9%, 58,858G)
DouglasDragonThePoet: 100G (0.7%, 2,075G)
gongonono: 100G (0.7%, 786G)
silentkaster: 100G (0.7%, 14,464G)

black bets:
BirbBrainsBot: 1,000G (18.0%, 120,693G)
dantayystv: 1,000G (18.0%, 25,998G)
NIghtdew14: 1,000G (18.0%, 17,283G)
dogsandcatsand: 781G (14.1%, 21,781G)
VolgraTheMoose: 501G (9.0%, 10,566G)
getthemoneyz: 468G (8.4%, 1,336,946G)
Thyrandaal: 312G (5.6%, 312G)
AllInBot: 200G (3.6%, 200G)
JDogg2K4: 180G (3.2%, 180G)
JiroDoge: 100G (1.8%, 1,452G)
