Final Bets: red - 12 bets for 6,757G (44.2%, x1.26); blue - 11 bets for 8,543G (55.8%, x0.79)

red bets:
Shakarak: 1,500G (22.2%, 12,555G)
HASTERIOUS: 1,370G (20.3%, 1,370G)
datadrivenbot: 1,000G (14.8%, 2,914G)
TheKillerNacho: 648G (9.6%, 648G)
Aldrammech: 600G (8.9%, 600G)
DustBirdEX: 600G (8.9%, 2,779G)
DudeMonkey77: 333G (4.9%, 2,074G)
itzover9001: 204G (3.0%, 204G)
Aneyus: 191G (2.8%, 19,162G)
Jordache7K: 111G (1.6%, 23,878G)
Tougou: 100G (1.5%, 5,127G)
dictatorhowells: 100G (1.5%, 957G)

blue bets:
Nizaha: 3,710G (43.4%, 3,710G)
fenaen: 1,001G (11.7%, 13,283G)
alrightbye: 1,000G (11.7%, 10,718G)
mirapoix: 620G (7.3%, 620G)
roofiepops: 600G (7.0%, 1,564G)
DarrenDinosaurs: 424G (5.0%, 424G)
HaateXIII: 380G (4.4%, 380G)
luminarii: 308G (3.6%, 17,692G)
CapnChaos12: 300G (3.5%, 1,659G)
ko2q: 100G (1.2%, 17,580G)
Evewho: 100G (1.2%, 555G)
