Final Bets: white - 13 bets for 7,103G (26.3%, x2.81); black - 25 bets for 19,952G (73.7%, x0.36)

white bets:
Slowbrofist: 3,957G (55.7%, 3,957G)
TheKillerNacho: 672G (9.5%, 672G)
Aldrammech: 600G (8.4%, 600G)
datadrivenbot: 554G (7.8%, 914G)
Shalloween: 500G (7.0%, 46,126G)
roofiepops: 200G (2.8%, 2,441G)
ThePuss: 120G (1.7%, 120G)
LazarusAjin: 100G (1.4%, 1,324G)
ko2q: 100G (1.4%, 17,759G)
florafauna: 100G (1.4%, 1,138G)
GrandmasterFrankerZ: 100G (1.4%, 100G)
DrAntiSocial: 50G (0.7%, 1,989G)
electric_glass: 50G (0.7%, 2,614G)

black bets:
Lanshaft: 5,187G (26.0%, 10,374G)
Mtueni: 4,000G (20.0%, 187,026G)
MoonSlayerRS: 1,407G (7.1%, 1,407G)
ungabunga_bot: 1,000G (5.0%, 140,049G)
BirbBrainsBot: 1,000G (5.0%, 207,248G)
Baron_von_Scrub: 635G (3.2%, 5,829G)
mirapoix: 620G (3.1%, 620G)
DustBirdEX: 600G (3.0%, 2,363G)
powergems: 500G (2.5%, 7,757G)
luminarii: 444G (2.2%, 17,564G)
DarrenDinosaurs: 424G (2.1%, 424G)
itzover9001: 409G (2.0%, 409G)
V3rdeni: 400G (2.0%, 2,383G)
HaateXIII: 380G (1.9%, 380G)
ZephyrTempest: 374G (1.9%, 75,878G)
RunicMagus: 356G (1.8%, 356G)
HASTERIOUS: 356G (1.8%, 356G)
Evewho: 324G (1.6%, 324G)
CapnChaos12: 300G (1.5%, 1,596G)
getthemoneyz: 286G (1.4%, 498,867G)
phrossi_v: 250G (1.3%, 16,868G)
KasugaiRoastedPeas: 200G (1.0%, 8,990G)
lijarkh: 200G (1.0%, 1,134G)
rico_flex: 200G (1.0%, 1,056G)
alrightbye: 100G (0.5%, 12,513G)
