Final Bets: blue - 19 bets for 11,676G (53.9%, x0.86); yellow - 12 bets for 9,999G (46.1%, x1.17)

blue bets:
Nizaha: 3,322G (28.5%, 6,644G)
upvla: 1,234G (10.6%, 35,209G)
J2DaBibbles: 1,017G (8.7%, 1,017G)
BirbBrainsBot: 1,000G (8.6%, 208,064G)
itzover9001: 810G (6.9%, 810G)
HASTERIOUS: 705G (6.0%, 705G)
DudeMonkey77: 666G (5.7%, 1,996G)
datadrivenbot: 463G (4.0%, 483G)
luminarii: 463G (4.0%, 17,945G)
Lordminsc: 424G (3.6%, 424G)
CapnChaos12: 300G (2.6%, 1,703G)
ZephyrTempest: 257G (2.2%, 76,171G)
ungabunga_bot: 211G (1.8%, 140,865G)
FoeSquirrel: 204G (1.7%, 204G)
rico_flex: 200G (1.7%, 827G)
electric_glass: 100G (0.9%, 2,464G)
LazarusAjin: 100G (0.9%, 1,224G)
ko2q: 100G (0.9%, 17,659G)
dictatorhowells: 100G (0.9%, 757G)

yellow bets:
Lanshaft: 6,110G (61.1%, 12,221G)
sinnyil2: 1,200G (12.0%, 53,567G)
mirapoix: 620G (6.2%, 620G)
DustBirdEX: 600G (6.0%, 1,977G)
Baron_von_Scrub: 474G (4.7%, 5,581G)
roofiepops: 300G (3.0%, 2,241G)
spit8866: 222G (2.2%, 222G)
ThePuss: 175G (1.8%, 175G)
rjA0zcOQ96: 100G (1.0%, 8,282G)
GrandmasterFrankerZ: 100G (1.0%, 100G)
florafauna: 60G (0.6%, 1,130G)
getthemoneyz: 38G (0.4%, 498,667G)
