Final Bets: white - 17 bets for 21,244G (84.4%, x0.19); black - 8 bets for 3,937G (15.6%, x5.40)

white bets:
pplvee1: 12,012G (56.5%, 23,554G)
SephDarkheart: 2,218G (10.4%, 2,218G)
Lord_Burrah: 1,440G (6.8%, 90,440G)
readdesert: 1,050G (4.9%, 1,050G)
nhammen: 882G (4.2%, 1,764G)
TheChainNerd: 752G (3.5%, 752G)
RaIshtar: 516G (2.4%, 516G)
AllInBot: 487G (2.3%, 487G)
killth3kid: 484G (2.3%, 5,708G)
fenaen: 440G (2.1%, 440G)
holdenmagronik: 212G (1.0%, 2,417G)
Kithmar796: 200G (0.9%, 779G)
datadrivenbot: 200G (0.9%, 35,582G)
Lydian_C: 121G (0.6%, 63,589G)
Thyrandaal: 100G (0.5%, 67,315G)
Grandlanzer: 100G (0.5%, 109,138G)
DouglasDragonThePoet: 30G (0.1%, 3,114G)

black bets:
pandasforsale: 999G (25.4%, 19,566G)
dogsandcatsand: 666G (16.9%, 19,898G)
getthemoneyz: 528G (13.4%, 1,347,307G)
DLJuggernaut: 500G (12.7%, 1,986G)
RedRiderAyame: 400G (10.2%, 11,426G)
ArashiKurobara: 344G (8.7%, 731G)
Shalloween: 300G (7.6%, 238,235G)
BirbBrainsBot: 200G (5.1%, 200G)
