Final Bets: white - 8 bets for 4,914G (29.2%, x2.42); black - 12 bets for 11,908G (70.8%, x0.41)

white bets:
dogsandcatsand: 1,114G (22.7%, 2,229G)
ColetteMSLP: 1,037G (21.1%, 1,037G)
prince_rogers_nelson_: 1,032G (21.0%, 1,032G)
BirbBrainsBot: 1,000G (20.4%, 38,333G)
gorgewall: 401G (8.2%, 19,722G)
AltimaMantoid: 200G (4.1%, 1,597G)
CosmicTactician: 100G (2.0%, 7,367G)
IphoneDarkness: 30G (0.6%, 3,668G)

black bets:
Digitalsocrates: 3,000G (25.2%, 61,682G)
Breakdown777: 1,500G (12.6%, 77,881G)
Zachara: 1,500G (12.6%, 109,000G)
BlackFireUK: 1,000G (8.4%, 13,927G)
Bryon_W: 1,000G (8.4%, 4,755G)
ForagerCats: 1,000G (8.4%, 4,650G)
CassiePhoenix: 900G (7.6%, 900G)
Laserman1000: 700G (5.9%, 73,700G)
DuraiPapers: 608G (5.1%, 608G)
joewcarson: 500G (4.2%, 43,811G)
AllInBot: 100G (0.8%, 100G)
Thyrandaal: 100G (0.8%, 62,968G)
