Final Bets: green - 24 bets for 11,081G (32.3%, x2.10); yellow - 35 bets for 23,277G (67.7%, x0.48)

green bets:
volgrathemoose: 1,501G (13.5%, 12,847G)
jakeduhhsnake: 1,000G (9.0%, 69,570G)
BirbBrainsBot: 1,000G (9.0%, 170,698G)
Mtueni: 1,000G (9.0%, 250,592G)
Chuckolator: 668G (6.0%, 21,291G)
Aldrammech: 600G (5.4%, 600G)
getthemoneyz: 574G (5.2%, 610,483G)
HaateXIII: 500G (4.5%, 13,544G)
Dymntd: 500G (4.5%, 12,423G)
deenglow: 500G (4.5%, 55,510G)
RestIessNight: 500G (4.5%, 4,775G)
ZephyrTempest: 456G (4.1%, 3,219G)
Odin007_88: 444G (4.0%, 2,730G)
CoderCalamity: 353G (3.2%, 353G)
cgMcWhiskers: 244G (2.2%, 244G)
TrueRhyme: 220G (2.0%, 220G)
SeniorBunk: 200G (1.8%, 2,255G)
bairen0: 165G (1.5%, 165G)
awokenshard: 136G (1.2%, 159G)
dorman_777: 120G (1.1%, 120G)
nifboy: 100G (0.9%, 8,508G)
Bioticism: 100G (0.9%, 3,685G)
Tougou: 100G (0.9%, 11,845G)
rico_flex: 100G (0.9%, 26,128G)

yellow bets:
HASTERIOUS: 4,174G (17.9%, 16,697G)
Pie108: 2,000G (8.6%, 200,484G)
reinoe: 2,000G (8.6%, 25,431G)
Evewho: 1,489G (6.4%, 7,449G)
Shalloween: 1,432G (6.2%, 1,432G)
ewan_e: 1,170G (5.0%, 1,170G)
HorusTaurus: 1,000G (4.3%, 3,725G)
Lionhermit: 1,000G (4.3%, 45,096G)
HaplessOne: 888G (3.8%, 13,968G)
DeathTaxesAndAnime: 763G (3.3%, 1,497G)
Laserman1000: 562G (2.4%, 73,462G)
RunicMagus: 550G (2.4%, 38,064G)
fenaen: 502G (2.2%, 502G)
SarrgeQc: 501G (2.2%, 938G)
Nizaha: 501G (2.2%, 13,036G)
Breakdown777: 500G (2.1%, 17,828G)
run_with_STONE_GUNS: 500G (2.1%, 3,741G)
EnemyController: 500G (2.1%, 161,774G)
CorpusCav: 400G (1.7%, 14,147G)
midori_ribbon: 388G (1.7%, 388G)
ungabunga_bot: 315G (1.4%, 292,064G)
Baron_von_Scrub: 300G (1.3%, 300G)
twelfthrootoftwo: 300G (1.3%, 6,884G)
SQUiDSQUARKLIN: 260G (1.1%, 260G)
mirapoix: 200G (0.9%, 2,300G)
vampyreinabox: 163G (0.7%, 163G)
byrdturbo: 111G (0.5%, 7,061G)
eudes89: 108G (0.5%, 108G)
ANFz: 100G (0.4%, 25,377G)
ko2q: 100G (0.4%, 3,485G)
DrAntiSocial: 100G (0.4%, 9,844G)
datadrivenbot: 100G (0.4%, 11,305G)
CosmicTactician: 100G (0.4%, 11,970G)
maakur_: 100G (0.4%, 113,318G)
DLJuggernaut: 100G (0.4%, 1,295G)
