Final Bets: green - 18 bets for 12,575G (68.5%, x0.46); yellow - 17 bets for 5,787G (31.5%, x2.17)

green bets:
HASTERIOUS: 1,440G (11.5%, 1,440G)
sinnyil2: 1,300G (10.3%, 119,930G)
upvla: 1,234G (9.8%, 20,267G)
Baron_von_Scrub: 1,111G (8.8%, 115,194G)
Aldrammech: 1,000G (8.0%, 38,160G)
MantisFinch: 1,000G (8.0%, 13,032G)
flowinprose: 1,000G (8.0%, 94,813G)
ungabunga_bot: 1,000G (8.0%, 202,437G)
BirbBrainsBot: 1,000G (8.0%, 107,168G)
waterwatereverywhere: 888G (7.1%, 888G)
DHaveWord: 529G (4.2%, 529G)
Cryptopsy70: 372G (3.0%, 24,160G)
Luizhzim1812: 200G (1.6%, 1,000G)
ZephyrTempest: 101G (0.8%, 170,661G)
ANFz: 100G (0.8%, 18,142G)
Tougou: 100G (0.8%, 5,823G)
LazarusAjin: 100G (0.8%, 26,757G)
datadrivenbot: 100G (0.8%, 520G)

yellow bets:
fenaen: 1,001G (17.3%, 34,409G)
Pie108: 1,000G (17.3%, 69,152G)
VySaika: 500G (8.6%, 12,549G)
Lionhermit: 500G (8.6%, 13,064G)
AllInBot: 445G (7.7%, 445G)
roqqqpsi: 370G (6.4%, 1,683G)
ShintaroNayaka: 300G (5.2%, 18,238G)
killth3kid: 292G (5.0%, 2,328G)
braumbles: 250G (4.3%, 61,121G)
Nizaha: 201G (3.5%, 4,584G)
SerumD: 200G (3.5%, 2,689G)
run_with_stone_guns: 154G (2.7%, 3,083G)
Lavatis: 150G (2.6%, 4,193G)
getthemoneyz: 124G (2.1%, 550,104G)
twelfthrootoftwo: 100G (1.7%, 5,992G)
Legitimized: 100G (1.7%, 22,967G)
Evewho: 100G (1.7%, 3,092G)
