Final Bets: green - 12 bets for 7,032G (62.6%, x0.60); yellow - 12 bets for 4,210G (37.4%, x1.67)

green bets:
LanseDM: 2,500G (35.6%, 29,436G)
Mesmaster: 1,500G (21.3%, 34,753G)
reinoe: 1,000G (14.2%, 28,208G)
utopia_games: 1,000G (14.2%, 6,007G)
twelfthrootoftwo: 300G (4.3%, 9,867G)
otakutaylor: 132G (1.9%, 132G)
Lawndough: 100G (1.4%, 3,817G)
thethorndog1: 100G (1.4%, 1,075G)
datadrivenbot: 100G (1.4%, 16,391G)
victoriolue: 100G (1.4%, 3,893G)
Strifu: 100G (1.4%, 992G)
Sairentozon7: 100G (1.4%, 2,809G)

yellow bets:
BirbBrainsBot: 1,000G (23.8%, 46,878G)
alecttox: 593G (14.1%, 593G)
Lolprinze: 513G (12.2%, 513G)
NovaKnight21: 508G (12.1%, 508G)
Kyune: 332G (7.9%, 332G)
Phytik: 316G (7.5%, 316G)
getthemoneyz: 244G (5.8%, 673,943G)
BlackfyreRoy: 204G (4.8%, 204G)
Digitalsocrates: 200G (4.8%, 668G)
OneHundredFists: 100G (2.4%, 2,083G)
ko2q: 100G (2.4%, 802G)
Communis: 100G (2.4%, 2,164G)
