Final Bets: red - 9 bets for 3,274G (15.0%, x5.68); blue - 19 bets for 18,600G (85.0%, x0.18)

red bets:
Evewho: 937G (28.6%, 1,875G)
ColetteMSLP: 600G (18.3%, 23,902G)
thevilmen: 500G (15.3%, 2,942G)
getthemoneyz: 492G (15.0%, 497,522G)
Phytik: 300G (9.2%, 6,460G)
gloomdog: 171G (5.2%, 171G)
Jerboj: 100G (3.1%, 47,847G)
datadrivenbot: 99G (3.0%, 100G)
Scotty297: 75G (2.3%, 1,722G)

blue bets:
HASTERIOUS: 5,044G (27.1%, 9,892G)
sinnyil2: 2,500G (13.4%, 30,395G)
Shalloween: 2,000G (10.8%, 37,486G)
HaplessOne: 2,000G (10.8%, 86,483G)
Lydian_C: 1,200G (6.5%, 55,041G)
BirbBrainsBot: 1,000G (5.4%, 196,884G)
WireLord: 1,000G (5.4%, 8,189G)
Dexsana: 1,000G (5.4%, 2,730G)
YaBoy125: 600G (3.2%, 600G)
Chuckolator: 388G (2.1%, 4,308G)
waterwatereverywhere: 356G (1.9%, 356G)
ungabunga_bot: 347G (1.9%, 150,514G)
CapnChaos12: 300G (1.6%, 1,601G)
Treapvort: 200G (1.1%, 2,911G)
KasugaiRoastedPeas: 200G (1.1%, 6,529G)
Slider1012: 165G (0.9%, 165G)
Tithonus: 100G (0.5%, 7,367G)
Lythe_Caraker: 100G (0.5%, 100,498G)
gorgewall: 100G (0.5%, 3,165G)
