Final Bets: purple - 15 bets for 12,153G (76.9%, x0.30); brown - 13 bets for 3,645G (23.1%, x3.33)

purple bets:
EnemyController: 5,000G (41.1%, 1,357,450G)
RaIshtar: 1,500G (12.3%, 3,608G)
Nizaha: 1,001G (8.2%, 6,585G)
DudeMonkey77: 985G (8.1%, 985G)
DeathTaxesAndAnime: 796G (6.5%, 796G)
Digitalsocrates: 500G (4.1%, 2,490G)
EizanTayama: 500G (4.1%, 7,254G)
mrfripps: 439G (3.6%, 439G)
DuraiPapers: 388G (3.2%, 388G)
ChaoreLance: 300G (2.5%, 1,952G)
TurtleFactz: 250G (2.1%, 1,580G)
datadrivenbot: 200G (1.6%, 51,055G)
ZCKaiser: 129G (1.1%, 1,293G)
CosmicTactician: 100G (0.8%, 50,859G)
phoenix6107: 65G (0.5%, 130G)

brown bets:
Shalloween: 800G (21.9%, 67,631G)
BirbBrainsBot: 706G (19.4%, 145,839G)
Spartan_Paladin: 500G (13.7%, 47,500G)
DavenIII: 500G (13.7%, 3,559G)
ArashiKurobara: 274G (7.5%, 16,530G)
Evewho: 200G (5.5%, 19,002G)
getthemoneyz: 142G (3.9%, 1,162,714G)
nsm013: 100G (2.7%, 10,178G)
E_Ballard: 100G (2.7%, 2,083G)
nhammen: 100G (2.7%, 10,559G)
Linkn: 100G (2.7%, 4,994G)
Alanaire: 100G (2.7%, 32,553G)
SephDarkheart: 23G (0.6%, 2,335G)
