Final Bets: purple - 21 bets for 8,900G (45.9%, x1.18); brown - 15 bets for 10,501G (54.1%, x0.85)

purple bets:
lowlf: 1,001G (11.2%, 31,820G)
ungabunga_bot: 1,000G (11.2%, 409,441G)
BirbBrainsBot: 1,000G (11.2%, 95,129G)
SkylerBunny: 1,000G (11.2%, 53,195G)
Lionhermit: 1,000G (11.2%, 32,200G)
Fenrislfr: 698G (7.8%, 698G)
CustomGameMaster: 655G (7.4%, 655G)
getthemoneyz: 388G (4.4%, 646,525G)
gorgewall: 300G (3.4%, 9,806G)
joewcarson: 300G (3.4%, 6,618G)
twelfthrootoftwo: 300G (3.4%, 1,016G)
RunicMagus: 250G (2.8%, 45,350G)
Kaynin_Shadowwalker: 200G (2.2%, 663G)
GeeGXP: 104G (1.2%, 104G)
NicoSavoy: 104G (1.2%, 104G)
maakur_: 100G (1.1%, 118,649G)
MaverickUmbracato: 100G (1.1%, 100G)
Hoffrandexpress: 100G (1.1%, 254G)
Firesheath: 100G (1.1%, 19,442G)
JIDkomu: 100G (1.1%, 3,334G)
datadrivenbot: 100G (1.1%, 12,420G)

brown bets:
HaateXIII: 2,517G (24.0%, 4,936G)
Mesmaster: 2,000G (19.0%, 27,286G)
Laserman1000: 1,067G (10.2%, 1,067G)
volgrathemoose: 1,001G (9.5%, 7,409G)
genericco: 528G (5.0%, 528G)
TheGuesty: 512G (4.9%, 29,512G)
shs_: 500G (4.8%, 8,479G)
DarrenDinosaurs: 460G (4.4%, 460G)
ZephyrTempest: 456G (4.3%, 3,141G)
CorpusCav: 400G (3.8%, 6,241G)
Aneyus: 338G (3.2%, 33,803G)
Kyune: 250G (2.4%, 2,492G)
Estan_AD: 250G (2.4%, 1,395G)
FNCardascia_: 122G (1.2%, 244G)
ko2q: 100G (1.0%, 2,356G)
