Final Bets: green - 24 bets for 17,329G (63.8%, x0.57); yellow - 20 bets for 9,831G (36.2%, x1.76)

green bets:
SkylerBunny: 5,000G (28.9%, 88,507G)
sinnyil2: 2,101G (12.1%, 4,203G)
metagameface: 2,000G (11.5%, 11,034G)
FriendSquirrel: 1,084G (6.3%, 1,084G)
mpghappiness: 1,001G (5.8%, 15,532G)
reinoe: 1,000G (5.8%, 65,274G)
StealthModeLocke: 961G (5.5%, 961G)
OneHundredFists: 576G (3.3%, 576G)
LeoNightFury: 506G (2.9%, 506G)
silentperogy: 500G (2.9%, 24,490G)
Digitalsocrates: 500G (2.9%, 1,515G)
MalakiGenesys: 399G (2.3%, 1,999G)
Kothn: 269G (1.6%, 19,408G)
GeeGXP: 232G (1.3%, 232G)
NeoKevlar: 200G (1.2%, 5,201G)
Powermhero: 200G (1.2%, 13,800G)
Sharosa: 100G (0.6%, 507G)
Mill_Matter: 100G (0.6%, 256G)
CosmicTactician: 100G (0.6%, 5,167G)
spootoo: 100G (0.6%, 1,219G)
Evewho: 100G (0.6%, 7,767G)
datadrivenbot: 100G (0.6%, 30,488G)
Flameatron: 100G (0.6%, 1,320G)
computerghoul: 100G (0.6%, 100G)

yellow bets:
CorpusCav: 1,007G (10.2%, 7,157G)
NovaKnight21: 1,000G (10.2%, 4,960G)
BirbBrainsBot: 1,000G (10.2%, 75,099G)
getthemoneyz: 1,000G (10.2%, 758,720G)
Lionhermit: 1,000G (10.2%, 6,486G)
Mesmaster: 1,000G (10.2%, 126,867G)
DeathTaxesAndAnime: 842G (8.6%, 842G)
DAC169: 652G (6.6%, 652G)
EnemyController: 500G (5.1%, 452,699G)
Estan_AD: 384G (3.9%, 384G)
moonliquor: 360G (3.7%, 360G)
jakeduhhsnake: 296G (3.0%, 296G)
Arcblazer23: 160G (1.6%, 160G)
Firesheath: 101G (1.0%, 906G)
gorgewall: 101G (1.0%, 17,961G)
cogniv0r3: 100G (1.0%, 100G)
AmaninAmide: 100G (1.0%, 3,506G)
MiseryKoss: 100G (1.0%, 2,893G)
Stryfe002: 100G (1.0%, 100G)
alecttox: 28G (0.3%, 14,378G)
