Final Bets: green - 15 bets for 7,032G (74.4%, x0.34); yellow - 7 bets for 2,418G (25.6%, x2.91)

green bets:
SephDarkheart: 1,272G (18.1%, 1,272G)
BirbBrainsBot: 1,000G (14.2%, 9,569G)
3ngag3: 1,000G (14.2%, 21,000G)
NicoSavoy: 1,000G (14.2%, 9,703G)
poorest_hobo: 617G (8.8%, 617G)
bruubarg: 500G (7.1%, 18,849G)
ForagerCats: 500G (7.1%, 13,662G)
ValensEXP_: 300G (4.3%, 1,880G)
Mushufasa_: 200G (2.8%, 4,802G)
VMuliadi: 175G (2.5%, 2,321G)
roqqqpsi: 147G (2.1%, 1,637G)
gorgewall: 101G (1.4%, 4,831G)
rottings0ul: 100G (1.4%, 1,462G)
DeathTaxesAndAnime: 100G (1.4%, 8,609G)
TheSabretoothe: 20G (0.3%, 1,172G)

yellow bets:
Neech: 893G (36.9%, 893G)
Sietaha: 455G (18.8%, 4,556G)
getthemoneyz: 336G (13.9%, 1,843,236G)
ColetteMSLP: 300G (12.4%, 5,224G)
iBardic: 200G (8.3%, 1,287G)
BartTradingCompany: 134G (5.5%, 1,341G)
Ogema_theDream: 100G (4.1%, 100G)
