Final Bets: black - 9 bets for 11,991G (61.1%, x0.64); purple - 11 bets for 7,622G (38.9%, x1.57)

black bets:
leakimiko: 7,916G (66.0%, 15,523G)
UmbraKnights: 1,000G (8.3%, 8,551G)
xxnamexx: 655G (5.5%, 655G)
ko2q: 592G (4.9%, 592G)
Dexsana: 500G (4.2%, 2,908G)
AllInBot: 485G (4.0%, 485G)
Jeeboheebo: 380G (3.2%, 380G)
lobsterlobster: 363G (3.0%, 363G)
datadrivenbot: 100G (0.8%, 7,195G)

purple bets:
Shakarak: 2,000G (26.2%, 19,293G)
ungabunga_bot: 1,000G (13.1%, 285,799G)
Mesmaster: 1,000G (13.1%, 16,634G)
FoxtrotNovemberCharlie: 819G (10.7%, 819G)
Rislyeu: 800G (10.5%, 13,636G)
HaplessOne: 666G (8.7%, 7,501G)
getthemoneyz: 430G (5.6%, 604,653G)
BirbBrainsBot: 384G (5.0%, 78,122G)
Pink_LuigiX: 260G (3.4%, 260G)
RubenFlonne: 200G (2.6%, 13,716G)
roqqqpsi: 63G (0.8%, 3,177G)
