Final Bets: purple - 23 bets for 14,848G (64.7%, x0.55); brown - 15 bets for 8,116G (35.3%, x1.83)

purple bets:
Mesmaster: 3,000G (20.2%, 71,407G)
Dexsana: 2,000G (13.5%, 6,663G)
Realitydown: 1,390G (9.4%, 1,390G)
BirbBrainsBot: 1,000G (6.7%, 127,008G)
getthemoneyz: 1,000G (6.7%, 683,792G)
Estan_AD: 770G (5.2%, 1,540G)
ungabunga_bot: 742G (5.0%, 518,432G)
Firesheath: 576G (3.9%, 576G)
TheUnforgivenRage: 518G (3.5%, 518G)
Kyune: 500G (3.4%, 1,196G)
wooyuji: 500G (3.4%, 1,799G)
Sairentozon7: 500G (3.4%, 1,267G)
neocarbuncle: 400G (2.7%, 2,905G)
old_overholt_: 300G (2.0%, 4,781G)
Moshyhero: 300G (2.0%, 2,122G)
twelfthrootoftwo: 300G (2.0%, 18,536G)
Lolprinze: 232G (1.6%, 232G)
KasugaiRoastedPeas: 200G (1.3%, 1,671G)
Inosukeanu: 200G (1.3%, 1,303G)
itsZaes: 120G (0.8%, 1,469G)
Killing_Moon: 100G (0.7%, 1,185G)
Lawndough: 100G (0.7%, 2,277G)
datadrivenbot: 100G (0.7%, 18,431G)

brown bets:
sinnyil2: 2,897G (35.7%, 5,794G)
nifboy: 880G (10.8%, 880G)
P0jothen00b: 782G (9.6%, 782G)
DoublePrizes: 600G (7.4%, 600G)
CorpusCav: 506G (6.2%, 9,506G)
zmoses: 500G (6.2%, 12,112G)
reinoe: 500G (6.2%, 6,612G)
GnielKnows: 435G (5.4%, 4,357G)
tronfonne: 216G (2.7%, 216G)
Tugboat1: 200G (2.5%, 4,494G)
AmaninAmide: 200G (2.5%, 3,010G)
StealthModeLocke: 100G (1.2%, 42,726G)
MADTheta: 100G (1.2%, 436G)
aidanlucky7: 100G (1.2%, 1,000G)
B3lial: 100G (1.2%, 2,281G)
