2020-01-16 00:29:47.651: This tournament's Skill Drop is: Jump+2
2020-01-16 01:28:35.675: This tournament's Skill Drop is: DiamondArmlet
2020-01-16 02:11:39.711: This tournament's Skill Drop is: Ochu
2020-01-16 03:05:04.489: This tournament's Skill Drop is: Concentrate
2020-01-16 04:04:06.109: This tournament's Skill Drop is: MagicDefenseUP
2020-01-16 04:55:21.143: This tournament's Skill Drop is: AngelRing
2020-01-16 06:04:14.957: This tournament's Skill Drop is: PASave
2020-01-16 06:47:06.794: This tournament's Skill Drop is: 108Gems
2020-01-16 07:32:33.962: This tournament's Skill Drop is: BlueMagic
2020-01-16 08:27:16.192: This tournament's Skill Drop is: Doublehand
2020-01-16 09:13:36.506: This tournament's Skill Drop is: PiscoDemon
2020-01-16 10:01:50.717: This tournament's Skill Drop is: ShortCharge
2020-01-16 10:45:11.475: This tournament's Skill Drop is: MartialArts
2020-01-16 11:27:18.638: This tournament's Skill Drop is: Ochu
2020-01-16 12:12:02.331: This tournament's Skill Drop is: HPRestore
2020-01-16 13:01:46.443: You may now !fight to enter the tournament! This tournament's Skill Drop is: Skeleton
2020-01-16 13:55:50.679: You may now !fight to enter the tournament! This tournament's Skill Drop is: RedDragon
2020-01-16 13:56:39.741: You may now !fight to enter the tournament! This tournament's Skill Drop is: BladeGrasp
2020-01-16 13:57:32.67: You may now !fight to enter the tournament! This tournament's Skill Drop is: ShortCharge
2020-01-16 14:48:01.56: You may now !fight to enter the tournament! This tournament's Skill Drop is: Ochu
2020-01-16 15:37:05.789: You may now !fight to enter the tournament! This tournament's Skill Drop is: AbsorbUsedMP
2020-01-16 16:21:39.351: You may now !fight to enter the tournament! This tournament's Skill Drop is: MeatboneSlash
2020-01-16 17:03:48.386: You may now !fight to enter the tournament! This tournament's Skill Drop is: GerminasBoots
2020-01-16 17:52:24.627: You may now !fight to enter the tournament! This tournament's Skill Drop is: FeatherMantle
2020-01-16 18:44:52.158: You may now !fight to enter the tournament! This tournament's Skill Drop is: FeatherMantle
2020-01-16 18:49:21.256: You may now !fight to enter the tournament! This tournament's Skill Drop is: Goblin
2020-01-16 18:50:54.972: You may now !fight to enter the tournament! This tournament's Skill Drop is: Wyvern
2020-01-16 19:47:44.266: You may now !fight to enter the tournament! This tournament's Skill Drop is: Elemental
2020-01-16 20:34:00.358: You may now !fight to enter the tournament! This tournament's Skill Drop is: Ghoul
2020-01-16 21:20:46.983: You may now !fight to enter the tournament! This tournament's Skill Drop is: DualWield
2020-01-16 22:13:47.57: You may now !fight to enter the tournament! This tournament's Skill Drop is: CounterFlood
2020-01-16 22:59:58.278: You may now !fight to enter the tournament! This tournament's Skill Drop is: CounterTackle
2020-01-16 23:50:20.643: You may now !fight to enter the tournament! This tournament's Skill Drop is: NeutralZodiac
