2020-05-02 00:44:53.67: You may now !fight to enter the tournament! This tournament's Skill Drop is: Ghost
2020-05-02 01:44:02.315: You may now !fight to enter the tournament! This tournament's Skill Drop is: AttackUP
2020-05-02 02:34:33.062: Bot successfully reinitialized.
2020-05-02 03:35:15.989: Bot successfully reinitialized.
2020-05-02 04:25:03.874: You may now !fight to enter the tournament! This tournament's Skill Drop is: Gobbledeguck
2020-05-02 05:11:40.652: You may now !fight to enter the tournament! This tournament's Skill Drop is: Hydra
2020-05-02 06:03:32.479: You may now !fight to enter the tournament! This tournament's Skill Drop is: GenjiGauntlet
2020-05-02 06:10:04.297: Bot successfully reinitialized.
2020-05-02 06:52:25.07: You may now !fight to enter the tournament! This tournament's Skill Drop is: UltimaDemon
2020-05-02 07:39:59.457: You may now !fight to enter the tournament! This tournament's Skill Drop is: HalveMP
2020-05-02 08:25:24.995: You may now !fight to enter the tournament! This tournament's Skill Drop is: Ghost
2020-05-02 09:07:41.326: You may now !fight to enter the tournament! This tournament's Skill Drop is: RedChocobo
2020-05-02 09:52:27.472: You may now !fight to enter the tournament! This tournament's Skill Drop is: Sing
2020-05-02 10:48:16.083: Bot successfully reinitialized.
2020-05-02 11:36:40.63: Bot successfully reinitialized.
2020-05-02 12:29:36.339: You may now !fight to enter the tournament! This tournament's Skill Drop is: Dryad
2020-05-02 13:17:34.694: You may now !fight to enter the tournament! This tournament's Skill Drop is: EquipBow
2020-05-02 14:05:58.899: You may now !fight to enter the tournament! This tournament's Skill Drop is: GearedUp
2020-05-02 14:59:01.014: You may now !fight to enter the tournament! This tournament's Skill Drop is: ShortCharge
2020-05-02 15:46:45.881: You may now !fight to enter the tournament! This tournament's Skill Drop is: Move+1
2020-05-02 16:34:06.349: You may now !fight to enter the tournament! This tournament's Skill Drop is: MPRestore
2020-05-02 17:27:13.911: You may now !fight to enter the tournament! This tournament's Skill Drop is: Goblin
2020-05-02 18:26:55.107: You may now !fight to enter the tournament! This tournament's Skill Drop is: WildBoar
2020-05-02 19:19:12.259: You may now !fight to enter the tournament! This tournament's Skill Drop is: RubberShoes
2020-05-02 20:11:54.344: You may now !fight to enter the tournament! This tournament's Skill Drop is: Dance
2020-05-02 21:08:05.059: You may now !fight to enter the tournament! This tournament's Skill Drop is: Counter
2020-05-02 21:54:59.468: You may now !fight to enter the tournament! This tournament's Skill Drop is: Elemental
2020-05-02 23:04:54.971: You may now !fight to enter the tournament! This tournament's Skill Drop is: Trent
2020-05-02 23:50:06.87: You may now !fight to enter the tournament! This tournament's Skill Drop is: ShortCharge
