2020-01-13 00:14:21.177: This tournament's Skill Drop is: Taiju
2020-01-13 00:54:50.44: This tournament's Skill Drop is: YinYangMagic
2020-01-13 01:37:22.626: This tournament's Skill Drop is: Malboro
2020-01-13 02:18:59.843: This tournament's Skill Drop is: Behemoth
2020-01-13 03:02:38.727: This tournament's Skill Drop is: EquipArmor
2020-01-13 03:48:38.496: This tournament's Skill Drop is: Move-MPUp
2020-01-13 04:28:24.611: This tournament's Skill Drop is: BlueDragon
2020-01-13 05:15:29.827: This tournament's Skill Drop is: EquipPolearm
2020-01-13 05:52:37.495: This tournament's Skill Drop is: DefenseRing
2020-01-13 06:28:18.863: This tournament's Skill Drop is: Goblin
2020-01-13 07:14:40.028: This tournament's Skill Drop is: Cockatrice
2020-01-13 07:52:47.358: This tournament's Skill Drop is: EquipSword
2020-01-13 08:39:28.78: This tournament's Skill Drop is: FloatingEye
2020-01-13 09:20:16.771: This tournament's Skill Drop is: Vampire
2020-01-13 10:07:24.379: This tournament's Skill Drop is: MagicRing
2020-01-13 10:48:12.329: This tournament's Skill Drop is: MagicGauntlet
2020-01-13 11:33:01.469: This tournament's Skill Drop is: KingBehemoth
2020-01-13 12:12:17.67: This tournament's Skill Drop is: PunchArt
2020-01-13 12:51:20.631: This tournament's Skill Drop is: Malboro
2020-01-13 13:42:52.958: This tournament's Skill Drop is: BladeGrasp
2020-01-13 14:20:48.095: This tournament's Skill Drop is: Swine
2020-01-13 14:59:17.813: This tournament's Skill Drop is: Ahriman
2020-01-13 15:41:13.907: This tournament's Skill Drop is: Ahriman
2020-01-13 16:29:32.977: This tournament's Skill Drop is: Move+1
2020-01-13 17:11:48.921: This tournament's Skill Drop is: WizardMantle
2020-01-13 17:12:08.383: This tournament's Skill Drop is: MagicDefenseUP
2020-01-13 17:12:22.735: This tournament's Skill Drop is: LeatherMantle
2020-01-13 17:12:40.634: This tournament's Skill Drop is: SpikeShoes
2020-01-13 17:15:40.32: This tournament's Skill Drop is: EquipArmor
2020-01-13 18:02:17.016: This tournament's Skill Drop is: Dance
2020-01-13 18:39:35.033: This tournament's Skill Drop is: Explosive
2020-01-13 19:24:07.188: This tournament's Skill Drop is: Throw
2020-01-13 20:03:13.056: This tournament's Skill Drop is: FaithBoost
2020-01-13 20:52:15.579: This tournament's Skill Drop is: IgnoreTerrain
2020-01-13 21:35:25.514: This tournament's Skill Drop is: AngelRing
2020-01-13 22:27:07.966: This tournament's Skill Drop is: BasicSkill
2020-01-13 23:08:57.904: This tournament's Skill Drop is: BlackChocobo
2020-01-13 23:56:48.508: This tournament's Skill Drop is: BlueDragon
