Final Bets: blue - 14 bets for 10,875G (60.3%, x0.66); green - 13 bets for 7,158G (39.7%, x1.52)

blue bets:
Thyrandaal: 5,555G (51.1%, 195,644G)
JermZzZzZz: 1,358G (12.5%, 1,358G)
BirbBrainsBot: 1,000G (9.2%, 60,556G)
TheBrett: 656G (6.0%, 656G)
AllInBot: 619G (5.7%, 619G)
khelor_: 384G (3.5%, 384G)
getthemoneyz: 264G (2.4%, 2,099,231G)
argentbast: 244G (2.2%, 244G)
seppu777: 222G (2.0%, 2,400G)
MemoriesofFinal: 200G (1.8%, 1,064G)
ayeCoop: 112G (1.0%, 112G)
gorgewall: 101G (0.9%, 4,198G)
nhammen: 100G (0.9%, 62,531G)
7Cerulean7: 60G (0.6%, 1,330G)

green bets:
skillomono: 1,394G (19.5%, 2,788G)
Belkra: 1,068G (14.9%, 1,068G)
Vincent_SG: 1,000G (14.0%, 2,230G)
Kronikle: 692G (9.7%, 21,066G)
krombobreaker: 600G (8.4%, 11,178G)
ExplanationMarkWow: 500G (7.0%, 14,344G)
CorpusCav: 400G (5.6%, 30,410G)
Einswolf: 300G (4.2%, 4,215G)
lotharek: 300G (4.2%, 8,441G)
dem0nj0ns: 300G (4.2%, 6,129G)
DuPlatypus: 204G (2.8%, 204G)
datadrivenbot: 200G (2.8%, 78,418G)
DocSTN: 200G (2.8%, 760G)
