Final Bets: green - 17 bets for 14,797G (32.3%, x2.09); brown - 11 bets for 30,993G (67.7%, x0.48)

green bets:
LivingHitokiri: 5,000G (33.8%, 113,210G)
thunderducker: 1,836G (12.4%, 1,836G)
BirbBrainsBot: 1,000G (6.8%, 60,783G)
dem0nj0ns: 1,000G (6.8%, 6,285G)
lotharek: 1,000G (6.8%, 7,597G)
khelor_: 884G (6.0%, 884G)
TheBrett: 712G (4.8%, 712G)
Kronikle: 696G (4.7%, 22,621G)
CorpusCav: 624G (4.2%, 31,118G)
krombobreaker: 600G (4.1%, 13,326G)
ExplanationMarkWow: 500G (3.4%, 15,604G)
argentbast: 250G (1.7%, 543G)
Belkra: 200G (1.4%, 2,091G)
datadrivenbot: 200G (1.4%, 78,522G)
JermZzZzZz: 108G (0.7%, 108G)
gorgewall: 101G (0.7%, 4,300G)
getthemoneyz: 86G (0.6%, 2,099,399G)

brown bets:
OneHundredFists: 11,468G (37.0%, 22,488G)
Runeseeker22: 7,125G (23.0%, 7,125G)
Thyrandaal: 5,555G (17.9%, 191,089G)
Vincent_SG: 2,500G (8.1%, 3,872G)
DocSTN: 1,364G (4.4%, 1,364G)
ayeCoop: 1,112G (3.6%, 1,112G)
ColetteMSLP: 1,060G (3.4%, 1,060G)
AllInBot: 445G (1.4%, 445G)
DuPlatypus: 204G (0.7%, 204G)
RunicMagus: 100G (0.3%, 35,469G)
7Cerulean7: 60G (0.2%, 1,307G)
