Final Bets: white - 20 bets for 16,395G (72.3%, x0.38); purple - 16 bets for 6,283G (27.7%, x2.61)

white bets:
cam_ATS: 7,490G (45.7%, 7,490G)
NovaKnight21: 2,000G (12.2%, 13,378G)
TheChainNerd: 1,903G (11.6%, 50,527G)
skillomono: 1,526G (9.3%, 1,526G)
killth3kid: 500G (3.0%, 44,053G)
letdowncity: 500G (3.0%, 16,369G)
cgMcWhiskers: 500G (3.0%, 3,330G)
reddwind_: 372G (2.3%, 744G)
TeaTime29: 300G (1.8%, 799G)
Nizaha: 201G (1.2%, 10,487G)
RunicMagus: 200G (1.2%, 26,491G)
MiseryKoss: 200G (1.2%, 7,385G)
Firesheath: 101G (0.6%, 7,673G)
Luizsanq: 100G (0.6%, 972G)
Flameatron: 100G (0.6%, 3,207G)
datadrivenbot: 100G (0.6%, 29,744G)
Grandlanzer: 100G (0.6%, 2,591G)
RuneS_77: 100G (0.6%, 7,968G)
raventwynn: 100G (0.6%, 2,840G)
daveb_: 2G (0.0%, 1,370G)

purple bets:
mpghappiness: 1,001G (15.9%, 14,212G)
BirbBrainsBot: 1,000G (15.9%, 128,719G)
LeepingJJ: 816G (13.0%, 816G)
theshinyakuma: 604G (9.6%, 604G)
DLJuggernaut: 412G (6.6%, 412G)
MagicBottle: 384G (6.1%, 384G)
getthemoneyz: 340G (5.4%, 786,001G)
zepharoth89: 306G (4.9%, 6,128G)
gogofromtogo: 288G (4.6%, 288G)
benticore: 250G (4.0%, 2,277G)
Lydian_C: 224G (3.6%, 224G)
Valentine009: 208G (3.3%, 208G)
pplvee1: 200G (3.2%, 3,832G)
E_Ballard: 100G (1.6%, 2,220G)
Nohurty: 100G (1.6%, 2,086G)
Belkra: 50G (0.8%, 100G)
