Final Bets: white - 11 bets for 4,201G (17.4%, x4.76); black - 19 bets for 19,992G (82.6%, x0.21)

white bets:
TheChainNerd: 756G (18.0%, 756G)
DarrenDinosaurs: 730G (17.4%, 730G)
mirapoix: 584G (13.9%, 584G)
killth3kid: 488G (11.6%, 8,293G)
Lord_Gwarth: 337G (8.0%, 1,536G)
Cryptopsy70: 324G (7.7%, 619G)
TasisSai: 300G (7.1%, 7,498G)
GatsbysGhost: 236G (5.6%, 236G)
AllInBot: 200G (4.8%, 200G)
getthemoneyz: 146G (3.5%, 1,352,479G)
Thyrandaal: 100G (2.4%, 66,961G)

black bets:
BoneMiser: 6,124G (30.6%, 6,124G)
RaIshtar: 3,509G (17.6%, 3,509G)
NicoSavoy: 2,000G (10.0%, 251,931G)
upvla: 1,219G (6.1%, 2,538G)
Meta_Five: 1,000G (5.0%, 24,066G)
BirbBrainsBot: 1,000G (5.0%, 3,553G)
fenaen: 644G (3.2%, 644G)
Nizaha: 572G (2.9%, 11,476G)
nhammen: 567G (2.8%, 567G)
ohhinm: 500G (2.5%, 6,982G)
Creggers: 500G (2.5%, 21,321G)
Finewax: 474G (2.4%, 474G)
roofiepops: 474G (2.4%, 2,066G)
Miku_Shikhu: 432G (2.2%, 432G)
kanyo810: 264G (1.3%, 264G)
holdenmagronik: 212G (1.1%, 1,795G)
gorgewall: 201G (1.0%, 14,900G)
datadrivenbot: 200G (1.0%, 36,665G)
Firesheath: 100G (0.5%, 13,340G)
