Final Bets: green - 25 bets for 36,728G (77.4%, x0.29); brown - 14 bets for 10,701G (22.6%, x3.43)

green bets:
BoneMiser: 11,146G (30.3%, 11,146G)
SirCherish: 10,831G (29.5%, 10,831G)
Estan_AD: 5,101G (13.9%, 10,202G)
gooseyourself: 1,321G (3.6%, 1,321G)
volgrathemoose: 1,001G (2.7%, 5,788G)
cupholderr: 1,000G (2.7%, 46,590G)
CorpusCav: 700G (1.9%, 7,713G)
CustomGameMaster: 615G (1.7%, 615G)
Aldrammech: 600G (1.6%, 600G)
roofiepops: 580G (1.6%, 580G)
ungabunga_bot: 577G (1.6%, 464,051G)
RoboticNomad: 500G (1.4%, 5,543G)
Rastanar: 500G (1.4%, 12,727G)
DHaveWord: 400G (1.1%, 5,423G)
mpghappiness: 328G (0.9%, 328G)
VySaika: 268G (0.7%, 268G)
NicoSavoy: 260G (0.7%, 260G)
Chao_Garden: 200G (0.5%, 6,963G)
Miyokari: 200G (0.5%, 4,650G)
E_Ballard: 100G (0.3%, 2,776G)
ko2q: 100G (0.3%, 993G)
pstud: 100G (0.3%, 2,955G)
GnielKnows: 100G (0.3%, 1,590G)
datadrivenbot: 100G (0.3%, 11,760G)
LaReece: 100G (0.3%, 237G)

brown bets:
Baron_von_Scrub: 2,552G (23.8%, 8,208G)
nifboy: 1,545G (14.4%, 3,031G)
toka222: 1,200G (11.2%, 23,129G)
ThePineappleSalesman: 1,000G (9.3%, 31,834G)
BirbBrainsBot: 1,000G (9.3%, 198,143G)
Mesmaster: 1,000G (9.3%, 131,475G)
TheFALLofLindsay: 712G (6.7%, 712G)
Lokenwow: 504G (4.7%, 990G)
theNGUYENNER: 500G (4.7%, 9,052G)
RunicMagus: 200G (1.9%, 51,442G)
Eyepoor_: 200G (1.9%, 3,752G)
Baboolian: 100G (0.9%, 100G)
CT_5_Holy: 100G (0.9%, 553G)
getthemoneyz: 88G (0.8%, 671,457G)
