Final Bets: green - 16 bets for 8,870G (54.1%, x0.85); yellow - 10 bets for 7,540G (45.9%, x1.18)

green bets:
DavenIII: 2,000G (22.5%, 2,824G)
BirbBrainsBot: 1,000G (11.3%, 68,533G)
BlackFireUK: 1,000G (11.3%, 25,700G)
TheChainNerd: 891G (10.0%, 891G)
Laserman1000: 800G (9.0%, 4,500G)
Oobs56: 706G (8.0%, 706G)
Nizaha: 501G (5.6%, 17,764G)
roqqqpsi: 500G (5.6%, 500G)
getthemoneyz: 498G (5.6%, 969,955G)
KittymanAdvance: 238G (2.7%, 238G)
DuraiPapers: 236G (2.7%, 236G)
AllInBot: 100G (1.1%, 100G)
maakur_: 100G (1.1%, 24,057G)
Firesheath: 100G (1.1%, 14,052G)
IphoneDarkness: 100G (1.1%, 4,166G)
Link1nr: 100G (1.1%, 517G)

yellow bets:
YaBoy125: 4,192G (55.6%, 83,857G)
EnemyController: 1,000G (13.3%, 611,642G)
OneHundredFists: 512G (6.8%, 512G)
DLJuggernaut: 500G (6.6%, 24,703G)
roofiepops: 336G (4.5%, 336G)
ColetteMSLP: 300G (4.0%, 1,810G)
Rytor: 300G (4.0%, 1,543G)
brewerspackers98: 200G (2.7%, 1,963G)
ko2q: 100G (1.3%, 7,601G)
datadrivenbot: 100G (1.3%, 44,189G)
