Final Bets: red - 20 bets for 11,054G (40.7%, x1.45); blue - 16 bets for 16,075G (59.3%, x0.69)

red bets:
Shalloween: 3,090G (28.0%, 3,090G)
dogsandcatsand: 1,655G (15.0%, 3,247G)
BirbBrainsBot: 1,000G (9.0%, 105,848G)
NicoSavoy: 1,000G (9.0%, 19,276G)
Raixelol: 548G (5.0%, 26,054G)
krombobreaker: 500G (4.5%, 9,373G)
Lord_Gwarth: 496G (4.5%, 496G)
roofiepops: 474G (4.3%, 10,796G)
getthemoneyz: 346G (3.1%, 1,875,513G)
brodeity: 330G (3.0%, 330G)
killth3kid: 300G (2.7%, 48,037G)
akash7: 212G (1.9%, 7,612G)
datadrivenbot: 200G (1.8%, 57,401G)
silentkaster: 200G (1.8%, 1,827G)
rNdOrchestra: 170G (1.5%, 1,705G)
Chuckolator: 162G (1.5%, 7,015G)
khelor_: 132G (1.2%, 132G)
Thyrandaal: 100G (0.9%, 3,529G)
DeathTaxesAndAnime: 100G (0.9%, 3,101G)
BartTradingCompany: 39G (0.4%, 398G)

blue bets:
NovaKnight21: 11,133G (69.3%, 22,267G)
upvla: 789G (4.9%, 36,836G)
BoneMiser: 663G (4.1%, 663G)
velvet_muffins: 601G (3.7%, 601G)
Runeseeker22: 502G (3.1%, 10,051G)
Dasutin23: 456G (2.8%, 14,499G)
Wonser: 344G (2.1%, 8,346G)
AltimaMantoid: 305G (1.9%, 6,105G)
CorpusCav: 300G (1.9%, 25,930G)
ValensEXP_: 224G (1.4%, 3,212G)
CosmicTactician: 200G (1.2%, 35,908G)
farside00831: 200G (1.2%, 2,523G)
J_MacC1991: 108G (0.7%, 108G)
AllInBot: 100G (0.6%, 100G)
DracoknightZero: 100G (0.6%, 4,195G)
minorfffanatic1: 50G (0.3%, 1,774G)
