Final Bets: white - 22 bets for 22,988G (73.9%, x0.35); black - 17 bets for 8,113G (26.1%, x2.83)

white bets:
Greggernaut: 5,000G (21.8%, 73,879G)
Thyrandaal: 3,564G (15.5%, 3,564G)
Shalloween: 1,896G (8.2%, 3,792G)
DeathTaxesAndAnime: 1,591G (6.9%, 1,591G)
Wonser: 1,500G (6.5%, 7,658G)
Lord_Gwarth: 1,217G (5.3%, 1,217G)
nekojin: 1,038G (4.5%, 2,036G)
BirbBrainsBot: 1,000G (4.4%, 106,302G)
NicoSavoy: 1,000G (4.4%, 19,730G)
zenlion: 1,000G (4.4%, 25,993G)
upvla: 890G (3.9%, 36,047G)
latebit: 847G (3.7%, 1,662G)
getthemoneyz: 542G (2.4%, 1,875,982G)
AltimaMantoid: 400G (1.7%, 5,400G)
DaveStrider55: 348G (1.5%, 348G)
killth3kid: 300G (1.3%, 49,285G)
rNdOrchestra: 300G (1.3%, 1,952G)
Regular_Obbi: 248G (1.1%, 248G)
Yangusburger: 100G (0.4%, 5,802G)
farside00831: 100G (0.4%, 2,123G)
BartTradingCompany: 57G (0.2%, 577G)
minorfffanatic1: 50G (0.2%, 1,674G)

black bets:
khelor_: 1,201G (14.8%, 1,201G)
roofiepops: 1,000G (12.3%, 12,768G)
brodeity: 1,000G (12.3%, 2,003G)
Chaide: 825G (10.2%, 825G)
Runeseeker22: 542G (6.7%, 10,841G)
krombobreaker: 500G (6.2%, 11,454G)
lowlf: 480G (5.9%, 480G)
J_MacC1991: 400G (4.9%, 400G)
AllInBot: 371G (4.6%, 371G)
iBardic: 364G (4.5%, 364G)
CorpusCav: 300G (3.7%, 25,330G)
akash7: 286G (3.5%, 8,786G)
highelectricaltemperature: 220G (2.7%, 5,526G)
datadrivenbot: 200G (2.5%, 57,492G)
silentkaster: 200G (2.5%, 1,918G)
velvet_muffins: 124G (1.5%, 124G)
nhammen: 100G (1.2%, 413,837G)
