Player: !Red
Team: Red Team
Palettes: Red/Brown



Rikrizen
Monster
Aries
54
68
Byblos










Witchhunterix
Female
Taurus
51
58
Lancer
Dance
Catch
Magic Defense UP
Lava Walking

Cypress Rod
Ice Shield
Crystal Helmet
White Robe
Germinas Boots

Level Jump5, Vertical Jump7
Disillusion, Obsidian Blade



ShinoGuy
Monster
Virgo
56
47
Coeurl










Shs
Monster
Pisces
74
53
Holy Dragon







