Final Bets: red - 48 bets for 33,414G (74.1%, x0.35); blue - 24 bets for 11,709G (25.9%, x2.85)

red bets:
AniZero: 3,000G (9.0%, 19,565G)
Virilikus: 3,000G (9.0%, 38,360G)
RyuTsuno: 2,710G (8.1%, 2,710G)
fenaen: 2,680G (8.0%, 2,680G)
Lazerkick: 2,500G (7.5%, 9,151G)
sinnyil2: 1,683G (5.0%, 3,366G)
EvilLego6: 1,500G (4.5%, 4,330G)
DeathTaxesAndAnime: 1,300G (3.9%, 2,562G)
Tyerenex: 1,235G (3.7%, 2,471G)
mirapoix: 1,050G (3.1%, 1,050G)
Lodrak: 1,001G (3.0%, 9,657G)
OneHundredFists: 1,000G (3.0%, 21,518G)
Lord_Burrah: 1,000G (3.0%, 76,590G)
sect_cor: 800G (2.4%, 19,432G)
Vampire_Killer: 750G (2.2%, 12,560G)
Ranmilia: 515G (1.5%, 515G)
gooseyourself: 500G (1.5%, 4,248G)
Riot_Jayway: 500G (1.5%, 191,174G)
Lionhermit: 496G (1.5%, 496G)
spit8866: 477G (1.4%, 477G)
WinnerBit: 444G (1.3%, 444G)
SeraphPDH: 400G (1.2%, 8,556G)
roofiepops: 400G (1.2%, 7,456G)
MoonSlayerRS: 324G (1.0%, 324G)
ColetteMSLP: 300G (0.9%, 9,385G)
anthrax85: 300G (0.9%, 382G)
catfeath3r: 300G (0.9%, 1,167G)
SolarisFall: 288G (0.9%, 288G)
ZZ_Yoshi: 242G (0.7%, 242G)
AllInBot: 232G (0.7%, 232G)
killth3kid: 228G (0.7%, 17,107G)
roffgar: 212G (0.6%, 212G)
CorpusCav: 202G (0.6%, 2,026G)
mpghappiness: 200G (0.6%, 5,816G)
ugoplatamia: 200G (0.6%, 6,529G)
Kyton786: 200G (0.6%, 2,427G)
ko2q: 125G (0.4%, 125G)
MrDiggs49: 120G (0.4%, 120G)
ungabunga_bot: 100G (0.3%, 1,576G)
Lali_Lulelo: 100G (0.3%, 4,697G)
ANFz: 100G (0.3%, 22,969G)
Kellios11: 100G (0.3%, 7,835G)
Viola03773: 100G (0.3%, 1,670G)
BadBlanket: 100G (0.3%, 2,348G)
datadrivenbot: 100G (0.3%, 13,859G)
Bahamut64: 100G (0.3%, 5,339G)
victoriolue: 100G (0.3%, 2,544G)
Avin_Chaos: 100G (0.3%, 1,267G)

blue bets:
Zeroroute: 1,159G (9.9%, 1,159G)
OmnibotGamma: 1,000G (8.5%, 7,081G)
BirbBrainsBot: 1,000G (8.5%, 192,482G)
bad1dea: 1,000G (8.5%, 181,629G)
kai_shee: 1,000G (8.5%, 29,405G)
SkylerBunny: 1,000G (8.5%, 75,664G)
HighJayster: 728G (6.2%, 728G)
Baron_von_Scrub: 600G (5.1%, 600G)
typicalfanboy: 581G (5.0%, 581G)
DejaPoo21: 500G (4.3%, 23,763G)
Winnosh: 400G (3.4%, 1,596G)
Shalloween: 400G (3.4%, 33,052G)
Evewho: 374G (3.2%, 3,741G)
Humble_Fabio: 333G (2.8%, 2,420G)
LDSkinny: 296G (2.5%, 296G)
HaplessOne: 250G (2.1%, 29,180G)
KasugaiRoastedPeas: 200G (1.7%, 30,053G)
ForagerCats: 200G (1.7%, 11,060G)
nerdynel17: 180G (1.5%, 180G)
Jeardra: 108G (0.9%, 108G)
SWATb1gdog: 100G (0.9%, 1,751G)
CBeardsley: 100G (0.9%, 768G)
chronoxtrigger: 100G (0.9%, 1,500G)
DaKoopa49: 100G (0.9%, 1,481G)
