Final Bets: white - 37 bets for 23,148G (57.9%, x0.73); black - 34 bets for 16,859G (42.1%, x1.37)

white bets:
RongRongArts: 4,133G (17.9%, 8,266G)
Shalloween: 1,500G (6.5%, 31,052G)
SkylerBunny: 1,500G (6.5%, 76,743G)
DaKoopa49: 1,105G (4.8%, 1,105G)
OmnibotGamma: 1,000G (4.3%, 7,121G)
HaychDub: 1,000G (4.3%, 7,794G)
DudeMonkey77: 1,000G (4.3%, 47,797G)
Eoika: 1,000G (4.3%, 4,283G)
DejaPoo21: 1,000G (4.3%, 25,342G)
Virilikus: 1,000G (4.3%, 38,411G)
M0nk3yNutz: 874G (3.8%, 874G)
mirapoix: 853G (3.7%, 853G)
spit8866: 644G (2.8%, 644G)
Oshimi12: 600G (2.6%, 5,120G)
anthrax85: 600G (2.6%, 993G)
typicalfanboy: 500G (2.2%, 500G)
Zeroroute: 500G (2.2%, 500G)
OneHundredFists: 500G (2.2%, 23,947G)
Evewho: 500G (2.2%, 3,367G)
CorpusCav: 379G (1.6%, 1,897G)
RunicMagus: 350G (1.5%, 16,709G)
ko2q: 345G (1.5%, 345G)
ColetteMSLP: 300G (1.3%, 9,802G)
kingchadking: 272G (1.2%, 272G)
HighJayster: 220G (1.0%, 220G)
ugoplatamia: 200G (0.9%, 6,807G)
rubenflonne: 200G (0.9%, 2,095G)
ForagerCats: 200G (0.9%, 10,660G)
nerdynel17: 180G (0.8%, 180G)
chronoxtrigger: 100G (0.4%, 1,400G)
denamda: 100G (0.4%, 17,835G)
mpghappiness: 100G (0.4%, 5,786G)
Bahamut64: 100G (0.4%, 5,174G)
datadrivenbot: 100G (0.4%, 13,998G)
Cataphract116: 100G (0.4%, 1,094G)
WinnerBit: 60G (0.3%, 570G)
Humble_Fabio: 33G (0.1%, 2,329G)

black bets:
HASTERIOUS: 2,000G (11.9%, 67,874G)
SeedSC: 2,000G (11.9%, 79,437G)
IcePattern: 1,500G (8.9%, 22,794G)
Lodrak: 1,001G (5.9%, 9,011G)
BirbBrainsBot: 1,000G (5.9%, 192,522G)
bad1dea: 1,000G (5.9%, 181,669G)
Lazerkick: 1,000G (5.9%, 10,547G)
kai_shee: 1,000G (5.9%, 29,449G)
BenYuPoker: 536G (3.2%, 536G)
evdoggity: 500G (3.0%, 1,307G)
sinnyil2: 500G (3.0%, 6,013G)
reinoe: 500G (3.0%, 9,832G)
Vampire_Killer: 500G (3.0%, 13,343G)
SWATb1gdog: 300G (1.8%, 1,963G)
helpimabug: 292G (1.7%, 292G)
Break3r: 272G (1.6%, 272G)
Faplo: 250G (1.5%, 882G)
ZephyrTempest: 233G (1.4%, 4,589G)
killth3kid: 228G (1.4%, 16,959G)
wackyzachyy: 220G (1.3%, 220G)
AllInBot: 200G (1.2%, 200G)
Kyton786: 200G (1.2%, 2,297G)
RyuTsuno: 200G (1.2%, 3,868G)
AM3P_Batman: 200G (1.2%, 23,043G)
Aeolus_000: 200G (1.2%, 704G)
Meta_Five: 200G (1.2%, 6,866G)
ra1kia: 124G (0.7%, 124G)
Hirine: 108G (0.6%, 108G)
ungabunga_bot: 103G (0.6%, 1,509G)
ANFz: 100G (0.6%, 22,804G)
Viola03773: 100G (0.6%, 1,609G)
SpaZmodeus: 100G (0.6%, 2,685G)
BadBlanket: 100G (0.6%, 2,283G)
getthemoneyz: 92G (0.5%, 356,527G)
