Final Bets: red - 41 bets for 19,522G (49.6%, x1.01); yellow - 30 bets for 19,803G (50.4%, x0.99)

red bets:
AniZero: 3,000G (15.4%, 22,176G)
alecttox: 2,000G (10.2%, 8,552G)
EvilLego6: 1,000G (5.1%, 4,912G)
SeedSC: 1,000G (5.1%, 78,997G)
kai_shee: 1,000G (5.1%, 27,449G)
fenaen: 904G (4.6%, 3,619G)
BenYuPoker: 819G (4.2%, 819G)
HaychDub: 800G (4.1%, 8,626G)
RunicMagus: 750G (3.8%, 16,314G)
HighJayster: 578G (3.0%, 578G)
leakimiko: 506G (2.6%, 10,124G)
typicalfanboy: 500G (2.6%, 500G)
Kyton786: 500G (2.6%, 2,201G)
DeliciousSub: 500G (2.6%, 9,911G)
catfeath3r: 500G (2.6%, 1,247G)
DaKoopa49: 500G (2.6%, 1,910G)
SolarisFall: 438G (2.2%, 438G)
Athropos1: 328G (1.7%, 328G)
AllInBot: 304G (1.6%, 304G)
ColetteMSLP: 300G (1.5%, 10,176G)
evdoggity: 300G (1.5%, 1,227G)
spit8866: 300G (1.5%, 1,269G)
helpimabug: 292G (1.5%, 292G)
ugoplatamia: 200G (1.0%, 7,057G)
BadBlanket: 200G (1.0%, 2,235G)
Cataphract116: 200G (1.0%, 1,219G)
AM3P_Batman: 200G (1.0%, 22,843G)
ungabunga_bot: 169G (0.9%, 1,306G)
Hirine: 164G (0.8%, 164G)
MrDiggs49: 162G (0.8%, 162G)
ko2q: 108G (0.6%, 108G)
Tougou: 100G (0.5%, 4,525G)
ANFz: 100G (0.5%, 22,756G)
Kellios11: 100G (0.5%, 7,870G)
RyuTsuno: 100G (0.5%, 3,928G)
Bahamut64: 100G (0.5%, 5,247G)
denamda: 100G (0.5%, 17,960G)
Lali_Lulelo: 100G (0.5%, 4,732G)
datadrivenbot: 100G (0.5%, 14,123G)
chronoxtrigger: 100G (0.5%, 1,373G)
RongRongArts: 100G (0.5%, 11,380G)

yellow bets:
Virilikus: 3,000G (15.1%, 39,139G)
OneHundredFists: 2,000G (10.1%, 23,311G)
SkylerBunny: 1,500G (7.6%, 78,875G)
Zeroroute: 1,313G (6.6%, 1,313G)
Lodrak: 1,001G (5.1%, 7,009G)
OmnibotGamma: 1,000G (5.0%, 6,849G)
BirbBrainsBot: 1,000G (5.0%, 192,042G)
anthrax85: 1,000G (5.0%, 1,950G)
DudeMonkey77: 1,000G (5.0%, 48,525G)
bad1dea: 1,000G (5.0%, 181,189G)
Winnosh: 796G (4.0%, 796G)
Tyerenex: 726G (3.7%, 726G)
Shalloween: 600G (3.0%, 33,184G)
Evewho: 500G (2.5%, 2,985G)
Ranmilia: 444G (2.2%, 444G)
SpaZmodeus: 333G (1.7%, 2,485G)
MoonSlayerRS: 324G (1.6%, 324G)
SWATb1gdog: 300G (1.5%, 1,163G)
Lazerkick: 300G (1.5%, 9,885G)
Oshimi12: 300G (1.5%, 5,713G)
kingchadking: 272G (1.4%, 272G)
ZephyrTempest: 208G (1.1%, 4,487G)
CorpusCav: 200G (1.0%, 1,973G)
nerdynel17: 180G (0.9%, 180G)
sect_cor: 150G (0.8%, 19,712G)
wackyzachyy: 108G (0.5%, 108G)
Faplo: 100G (0.5%, 684G)
Aeolus_000: 100G (0.5%, 504G)
WinnerBit: 30G (0.2%, 599G)
getthemoneyz: 18G (0.1%, 356,013G)
