Final Bets: white - 19 bets for 15,116G (71.3%, x0.40); black - 13 bets for 6,092G (28.7%, x2.48)

white bets:
Mesmaster: 5,000G (33.1%, 253,517G)
CorpusCav: 2,000G (13.2%, 39,522G)
Thyrandaal: 2,000G (13.2%, 69,318G)
BirbBrainsBot: 1,000G (6.6%, 2,745G)
Nizaha: 844G (5.6%, 77,764G)
seppu777: 777G (5.1%, 16,612G)
Chilltron: 750G (5.0%, 3,575G)
JonnyCue: 598G (4.0%, 598G)
Craymel_Mage: 500G (3.3%, 2,036G)
resjudicata3: 308G (2.0%, 308G)
killth3kid: 250G (1.7%, 11,606G)
escobro: 232G (1.5%, 232G)
dinin991: 200G (1.3%, 3,039G)
AllInBot: 156G (1.0%, 156G)
wildetrys: 101G (0.7%, 2,497G)
BartTradingCompany: 100G (0.7%, 11,025G)
enigmabyss: 100G (0.7%, 100G)
Neinhartx: 100G (0.7%, 339G)
nhammen: 100G (0.7%, 314,533G)

black bets:
DeathTaxesAndAnime: 1,164G (19.1%, 1,164G)
robespyah: 1,000G (16.4%, 3,649G)
getthemoneyz: 1,000G (16.4%, 1,958,412G)
nifboy: 760G (12.5%, 5,047G)
Zagorsek: 679G (11.1%, 679G)
CapnChaos12: 300G (4.9%, 1,585G)
old_overholt_: 300G (4.9%, 28,944G)
VolgraTheMoose: 201G (3.3%, 3,890G)
Yangusburger: 200G (3.3%, 11,304G)
gingerfoo69: 187G (3.1%, 187G)
gorgewall: 101G (1.7%, 3,302G)
DAC169: 100G (1.6%, 1,975G)
MemoriesofFinal: 100G (1.6%, 24,693G)
