Final Bets: white - 14 bets for 16,610G (61.0%, x0.64); champion - 17 bets for 10,598G (39.0%, x1.57)

white bets:
Mesmaster: 10,000G (60.2%, 259,336G)
CorpusCav: 1,007G (6.1%, 39,460G)
old_overholt_: 1,000G (6.0%, 28,835G)
BirbBrainsBot: 1,000G (6.0%, 4,684G)
Nizaha: 848G (5.1%, 76,734G)
CapnChaos12: 528G (3.2%, 528G)
evontno: 500G (3.0%, 719G)
ColetteMSLP: 400G (2.4%, 8,665G)
Twisted_Nutsatchel: 334G (2.0%, 334G)
escobro: 301G (1.8%, 1,533G)
killth3kid: 250G (1.5%, 11,778G)
getthemoneyz: 242G (1.5%, 1,958,125G)
DAC169: 100G (0.6%, 1,795G)
maakur_: 100G (0.6%, 4,046G)

champion bets:
HaateXIII: 2,430G (22.9%, 2,430G)
DeathTaxesAndAnime: 1,479G (14.0%, 2,900G)
VolgraTheMoose: 1,005G (9.5%, 3,478G)
resjudicata3: 915G (8.6%, 915G)
nifboy: 760G (7.2%, 6,064G)
seppu777: 666G (6.3%, 17,312G)
Laserman1000: 550G (5.2%, 10,950G)
lowlf: 536G (5.1%, 12,955G)
Lord_Gwarth: 500G (4.7%, 3,068G)
xenocalypse: 363G (3.4%, 363G)
douchetron: 348G (3.3%, 348G)
SephDarkheart: 348G (3.3%, 29,153G)
AllInBot: 297G (2.8%, 297G)
gorgewall: 101G (1.0%, 3,019G)
BartTradingCompany: 100G (0.9%, 11,337G)
nhammen: 100G (0.9%, 313,511G)
Firesheath: 100G (0.9%, 2,349G)
