Final Bets: white - 10 bets for 7,263G (37.9%, x1.64); black - 17 bets for 11,913G (62.1%, x0.61)

white bets:
SkylerBunny: 2,000G (27.5%, 213,485G)
AllInBot: 912G (12.6%, 912G)
DeathTaxesAndAnime: 912G (12.6%, 912G)
getthemoneyz: 906G (12.5%, 1,515,491G)
blorpy_: 654G (9.0%, 8,177G)
Aldrammech: 600G (8.3%, 600G)
Galeronis: 529G (7.3%, 1,029G)
reinoe: 500G (6.9%, 60,745G)
Drusiform: 150G (2.1%, 1,079G)
CosmicTactician: 100G (1.4%, 5,254G)

black bets:
ko2q: 1,512G (12.7%, 1,512G)
latebit: 1,500G (12.6%, 7,103G)
prince_rogers_nelson_: 1,317G (11.1%, 1,317G)
BirbBrainsBot: 1,000G (8.4%, 57,006G)
nhammen: 1,000G (8.4%, 72,269G)
superdevon1: 975G (8.2%, 48,794G)
Zeroroute: 844G (7.1%, 844G)
DarrenDinosaurs: 833G (7.0%, 833G)
gorgewall: 604G (5.1%, 604G)
E_Ballard: 528G (4.4%, 1,103G)
TasisSai: 500G (4.2%, 9,609G)
silentkaster: 500G (4.2%, 12,407G)
BaronHaynes: 300G (2.5%, 13,647G)
datadrivenbot: 200G (1.7%, 51,115G)
douchetron: 100G (0.8%, 21,174G)
Firesheath: 100G (0.8%, 29,694G)
amsans1247: 100G (0.8%, 1,311G)
