Final Bets: white - 22 bets for 19,834G (74.7%, x0.34); brown - 16 bets for 6,724G (25.3%, x2.95)

white bets:
DeathTaxesAndAnime: 2,288G (11.5%, 4,488G)
Lordminsc: 2,021G (10.2%, 4,042G)
Nizaha: 2,001G (10.1%, 9,848G)
Mesmaster: 2,000G (10.1%, 50,165G)
fenaen: 1,659G (8.4%, 3,319G)
Lord_Burrah: 1,500G (7.6%, 114,000G)
Estan_AD: 1,004G (5.1%, 1,004G)
HaateXIII: 1,000G (5.0%, 60,034G)
BirbBrainsBot: 1,000G (5.0%, 157,411G)
JumbocactuarX27: 1,000G (5.0%, 25,657G)
astrozin11: 982G (5.0%, 982G)
sinnyil2: 884G (4.5%, 884G)
Odin007_88: 612G (3.1%, 612G)
Jerboj: 500G (2.5%, 61,738G)
Kronikle: 380G (1.9%, 380G)
cgMcWhiskers: 240G (1.2%, 240G)
getthemoneyz: 230G (1.2%, 608,396G)
byrdturbo: 169G (0.9%, 6,621G)
ANFz: 100G (0.5%, 25,251G)
maakur_: 100G (0.5%, 113,370G)
nifboy: 100G (0.5%, 9,142G)
ZephyrTempest: 64G (0.3%, 1,298G)

brown bets:
Pie108: 2,000G (29.7%, 178,234G)
SarrgeQc: 1,010G (15.0%, 11,663G)
genericco: 799G (11.9%, 799G)
Gelwain: 568G (8.4%, 568G)
hydroshade: 500G (7.4%, 3,516G)
ungabunga_bot: 297G (4.4%, 287,963G)
proper__noun__: 288G (4.3%, 288G)
coralreeferz: 250G (3.7%, 5,864G)
benticore: 200G (3.0%, 3,290G)
trigger15: 200G (3.0%, 6,600G)
animefan112233: 112G (1.7%, 112G)
DrAntiSocial: 100G (1.5%, 9,513G)
vampyreinabox: 100G (1.5%, 1,122G)
Bioticism: 100G (1.5%, 2,958G)
datadrivenbot: 100G (1.5%, 11,022G)
RestIessNight: 100G (1.5%, 100G)
