Final Bets: white - 17 bets for 11,260G (65.9%, x0.52); black - 12 bets for 5,830G (34.1%, x1.93)

white bets:
NicoSavoy: 2,000G (17.8%, 3,201G)
whelming_wave: 1,037G (9.2%, 10,375G)
KasugaiRoastedPeas: 1,020G (9.1%, 1,020G)
VolgraTheMoose: 1,001G (8.9%, 126,913G)
fattunaking: 1,000G (8.9%, 6,112G)
BirbBrainsBot: 1,000G (8.9%, 82,201G)
Nizaha: 812G (7.2%, 82,083G)
latebit: 576G (5.1%, 576G)
Snowfats: 500G (4.4%, 7,241G)
CorpusCav: 500G (4.4%, 7,868G)
nifboy: 500G (4.4%, 6,231G)
SephDarkheart: 336G (3.0%, 5,650G)
timthehoodie: 297G (2.6%, 297G)
krombobreaker: 280G (2.5%, 8,793G)
datadrivenbot: 200G (1.8%, 64,975G)
gorgewall: 101G (0.9%, 4,629G)
3ngag3: 100G (0.9%, 1,800G)

black bets:
Mesmaster: 2,000G (34.3%, 138,970G)
E_Ballard: 868G (14.9%, 124,083G)
Kronikle: 616G (10.6%, 35,787G)
lijarkh: 596G (10.2%, 10,139G)
dogsandcatsand: 532G (9.1%, 532G)
DracoknightZero: 370G (6.3%, 370G)
acid_flashback: 280G (4.8%, 280G)
Yangusburger: 200G (3.4%, 10,156G)
rottings0ul: 100G (1.7%, 1,480G)
Tarheels218: 100G (1.7%, 3,755G)
Firesheath: 100G (1.7%, 2,985G)
getthemoneyz: 68G (1.2%, 1,818,430G)
