Final Bets: red - 16 bets for 11,969G (61.0%, x0.64); blue - 12 bets for 7,654G (39.0%, x1.56)

red bets:
NicoSavoy: 5,000G (41.8%, 49,439G)
HaateXIII: 1,906G (15.9%, 1,906G)
MemoriesofFinal: 1,000G (8.4%, 60,727G)
bufuman: 1,000G (8.4%, 3,738G)
lowlf: 600G (5.0%, 28,732G)
Grasnikk: 500G (4.2%, 3,051G)
seppu777: 464G (3.9%, 464G)
otakutaylor: 300G (2.5%, 8,268G)
killabandaid: 228G (1.9%, 228G)
iBardic: 200G (1.7%, 16,916G)
datadrivenbot: 200G (1.7%, 74,442G)
getthemoneyz: 166G (1.4%, 2,069,262G)
hecsec: 104G (0.9%, 104G)
gorgewall: 101G (0.8%, 2,633G)
ghazzzzzz: 100G (0.8%, 815G)
Soar2344: 100G (0.8%, 1,000G)

blue bets:
thunderducker: 1,677G (21.9%, 1,677G)
OneHundredFists: 1,001G (13.1%, 15,753G)
BirbBrainsBot: 1,000G (13.1%, 149,955G)
Arcblazer23: 1,000G (13.1%, 2,976G)
CorpusCav: 555G (7.3%, 13,472G)
ANFz: 537G (7.0%, 537G)
krombobreaker: 500G (6.5%, 5,657G)
upvla: 400G (5.2%, 4,893G)
lijarkh: 384G (5.0%, 1,274G)
AllInBot: 200G (2.6%, 200G)
Evewho: 200G (2.6%, 6,854G)
ShadowNinja25: 200G (2.6%, 757G)
