Final Bets: blue - 14 bets for 13,736G (50.7%, x0.97); green - 13 bets for 13,372G (49.3%, x1.03)

blue bets:
thunderducker: 3,000G (21.8%, 7,176G)
bufuman: 2,038G (14.8%, 2,038G)
otakutaylor: 2,000G (14.6%, 6,314G)
MemoriesofFinal: 2,000G (14.6%, 61,473G)
NicoSavoy: 2,000G (14.6%, 42,748G)
BirbBrainsBot: 1,000G (7.3%, 151,293G)
DeathTaxesAndAnime: 575G (4.2%, 2,727G)
CapnChaos12: 300G (2.2%, 7,962G)
killabandaid: 263G (1.9%, 263G)
datadrivenbot: 200G (1.5%, 74,144G)
getthemoneyz: 136G (1.0%, 2,068,604G)
hecsec: 104G (0.8%, 104G)
ghazzzzzz: 100G (0.7%, 515G)
Soar2344: 20G (0.1%, 870G)

green bets:
Runeseeker22: 5,771G (43.2%, 5,771G)
mindblownnnn: 2,000G (15.0%, 7,315G)
CorpusCav: 1,155G (8.6%, 14,068G)
Scotty297: 822G (6.1%, 822G)
WhiteTigress: 800G (6.0%, 22,894G)
gorgewall: 768G (5.7%, 768G)
lowlf: 600G (4.5%, 24,710G)
ValensEXP_: 392G (2.9%, 5,204G)
AllInBot: 374G (2.8%, 374G)
gingerfoo69: 250G (1.9%, 9,862G)
Evewho: 200G (1.5%, 6,844G)
SnarkMage: 132G (1.0%, 2,313G)
kilrazin: 108G (0.8%, 108G)
