Final Bets: white - 11 bets for 3,259G (25.9%, x2.86); brown - 11 bets for 9,337G (74.1%, x0.35)

white bets:
gorgewall: 1,557G (47.8%, 1,557G)
ValensEXP_: 392G (12.0%, 5,607G)
killabandaid: 228G (7.0%, 228G)
datadrivenbot: 200G (6.1%, 73,944G)
chrisk103: 200G (6.1%, 7,507G)
getthemoneyz: 138G (4.2%, 2,068,468G)
SnarkMage: 132G (4.1%, 2,449G)
XerxesMindbreaker: 104G (3.2%, 104G)
bufuman: 104G (3.2%, 104G)
hecsec: 104G (3.2%, 104G)
gingerfoo69: 100G (3.1%, 10,119G)

brown bets:
mindblownnnn: 2,000G (21.4%, 9,369G)
MemoriesofFinal: 2,000G (21.4%, 59,473G)
NicoSavoy: 1,000G (10.7%, 40,752G)
thunderducker: 1,000G (10.7%, 4,176G)
Mesmaster: 788G (8.4%, 788G)
AllInBot: 758G (8.1%, 758G)
Runeseeker22: 584G (6.3%, 11,699G)
CorpusCav: 500G (5.4%, 15,254G)
otakutaylor: 400G (4.3%, 4,314G)
kilrazin: 219G (2.3%, 219G)
BirbBrainsBot: 88G (0.9%, 150,293G)
