Final Bets: purple - 20 bets for 8,408G (33.4%, x1.99); brown - 26 bets for 16,733G (66.6%, x0.50)

purple bets:
Nizaha: 2,001G (23.8%, 28,220G)
JackOnFire1: 1,182G (14.1%, 9,853G)
Firesheath: 753G (9.0%, 753G)
Timesout4u: 600G (7.1%, 1,767G)
roofiepops: 555G (6.6%, 2,278G)
ApplesauceBoss: 456G (5.4%, 456G)
luminarii: 344G (4.1%, 10,856G)
Jonusfatson: 300G (3.6%, 704G)
Pie108: 258G (3.1%, 9,573G)
Meanderandreturn: 250G (3.0%, 508G)
Slowbrofist: 244G (2.9%, 244G)
NUMBER1DB: 242G (2.9%, 242G)
soapydragonfly: 228G (2.7%, 228G)
0utlier: 224G (2.7%, 224G)
old_overholt_: 220G (2.6%, 220G)
HawkSick: 200G (2.4%, 1,228G)
AlenaZarek: 150G (1.8%, 1,530G)
SeedSC: 100G (1.2%, 142,594G)
gikokiko: 100G (1.2%, 100G)
urieltheflameofgod: 1G (0.0%, 928G)

brown bets:
Zeroroute: 2,002G (12.0%, 4,451G)
Laserman1000: 1,650G (9.9%, 3,300G)
Evewho: 1,340G (8.0%, 1,340G)
kai_shee: 1,001G (6.0%, 93,075G)
ungabunga_bot: 1,000G (6.0%, 53,374G)
ShintaroNayaka: 1,000G (6.0%, 12,098G)
BirbBrainsBot: 1,000G (6.0%, 247,802G)
bad1dea: 1,000G (6.0%, 35,572G)
ANFz: 979G (5.9%, 979G)
kingchadking: 829G (5.0%, 829G)
Shalloween: 735G (4.4%, 1,442G)
Lanshaft: 600G (3.6%, 9,397G)
mirapoix: 500G (3.0%, 6,275G)
EnemyController: 400G (2.4%, 24,817G)
DarrenDinosaurs: 388G (2.3%, 388G)
ZephyrTempest: 365G (2.2%, 25,950G)
DrAntiSocial: 352G (2.1%, 352G)
JumbocactuarX27: 292G (1.7%, 292G)
getthemoneyz: 272G (1.6%, 438,685G)
ugoplatamia: 200G (1.2%, 14,452G)
HaateXIII: 200G (1.2%, 7,277G)
Aremath: 200G (1.2%, 5,766G)
joewcarson: 128G (0.8%, 128G)
AllInBot: 100G (0.6%, 100G)
Lodrak: 100G (0.6%, 3,176G)
datadrivenbot: 100G (0.6%, 22,166G)
