Final Bets: red - 29 bets for 17,075G (65.7%, x0.52); white - 18 bets for 8,915G (34.3%, x1.92)

red bets:
TheChainNerd: 2,458G (14.4%, 2,458G)
Zeroroute: 2,041G (12.0%, 3,380G)
Anethum: 1,137G (6.7%, 1,137G)
Evewho: 1,070G (6.3%, 4,281G)
BirbBrainsBot: 1,000G (5.9%, 250,286G)
bad1dea: 1,000G (5.9%, 38,032G)
EnemyController: 1,000G (5.9%, 24,218G)
Mtueni: 1,000G (5.9%, 119,371G)
Shalloween: 882G (5.2%, 1,731G)
AllInBot: 710G (4.2%, 710G)
AlenaZarek: 690G (4.0%, 690G)
Jonusfatson: 500G (2.9%, 808G)
ApplesauceBoss: 456G (2.7%, 456G)
ungabunga_bot: 370G (2.2%, 53,561G)
roofiepops: 348G (2.0%, 348G)
ZephyrTempest: 335G (2.0%, 26,809G)
luminarii: 320G (1.9%, 9,672G)
Slowbrofist: 244G (1.4%, 244G)
0utlier: 224G (1.3%, 224G)
Aremath: 200G (1.2%, 6,340G)
Meanderandreturn: 200G (1.2%, 200G)
HawkSick: 200G (1.2%, 2,045G)
Nizaha: 100G (0.6%, 24,714G)
Tougou: 100G (0.6%, 5,736G)
Lodrak: 100G (0.6%, 3,225G)
SeedSC: 100G (0.6%, 142,731G)
datadrivenbot: 100G (0.6%, 22,215G)
maakur_: 100G (0.6%, 2,523G)
getthemoneyz: 90G (0.5%, 439,634G)

white bets:
Maowiwowi: 1,207G (13.5%, 1,207G)
mirapoix: 1,000G (11.2%, 6,026G)
HaateXIII: 1,000G (11.2%, 9,501G)
Laserman1000: 804G (9.0%, 4,104G)
JackOnFire1: 774G (8.7%, 15,494G)
Lanshaft: 600G (6.7%, 9,692G)
Shakarak: 600G (6.7%, 600G)
DarrenDinosaurs: 500G (5.6%, 2,763G)
MattMan119: 500G (5.6%, 18,359G)
fenaen: 400G (4.5%, 7,406G)
urieltheflameofgod: 340G (3.8%, 340G)
ANFz: 300G (3.4%, 2,340G)
soapydragonfly: 271G (3.0%, 543G)
DrAntiSocial: 214G (2.4%, 833G)
ugoplatamia: 200G (2.2%, 14,152G)
rjA0zcOQ96: 100G (1.1%, 5,496G)
maichenambrai: 100G (1.1%, 5,387G)
ko2q: 5G (0.1%, 2,559G)
