Final Bets: blue - 10 bets for 4,983G (26.0%, x2.84); green - 13 bets for 14,154G (74.0%, x0.35)

blue bets:
Zerguzen: 1,042G (20.9%, 1,042G)
BirbBrainsBot: 1,000G (20.1%, 163,997G)
getthemoneyz: 576G (11.6%, 2,014,907G)
Laserman1000: 542G (10.9%, 11,142G)
CorpusCav: 500G (10.0%, 4,346G)
ser_pyrro: 500G (10.0%, 2,518G)
Shalloween: 300G (6.0%, 4,913G)
AllInBot: 297G (6.0%, 297G)
daveb_: 122G (2.4%, 4,364G)
scsuperstar: 104G (2.1%, 104G)

green bets:
powergems: 4,656G (32.9%, 9,313G)
latebit: 2,865G (20.2%, 5,619G)
VolgraTheMoose: 1,005G (7.1%, 14,190G)
gorgewall: 988G (7.0%, 988G)
upvla: 900G (6.4%, 5,477G)
nifboy: 796G (5.6%, 7,315G)
technominari: 500G (3.5%, 78,375G)
krombobreaker: 500G (3.5%, 9,388G)
ericzubat: 500G (3.5%, 1,577G)
evontno: 500G (3.5%, 8,664G)
DarrenDinosaurs: 500G (3.5%, 4,445G)
tripaplex: 244G (1.7%, 244G)
datadrivenbot: 200G (1.4%, 70,559G)
