Final Bets: red - 15 bets for 9,819G (24.2%, x3.12); yellow - 15 bets for 30,678G (75.8%, x0.32)

red bets:
Lydian_C: 2,400G (24.4%, 69,817G)
RongRongArts: 2,000G (20.4%, 466,022G)
Nickyfive: 1,301G (13.2%, 1,301G)
Pink_LuigiX: 966G (9.8%, 966G)
ungabunga_bot: 590G (6.0%, 263,257G)
itzover9001: 523G (5.3%, 523G)
FriendSquirrel: 500G (5.1%, 28,662G)
ZephyrTempest: 400G (4.1%, 3,630G)
RuneS_77: 300G (3.1%, 5,347G)
SquidgyXom: 256G (2.6%, 256G)
FireisWet: 183G (1.9%, 183G)
skullshatterer: 100G (1.0%, 104G)
datadrivenbot: 100G (1.0%, 4,122G)
definitely_not_shroud: 100G (1.0%, 100G)
HeroponThrawn: 100G (1.0%, 4,579G)

yellow bets:
sinnyil2: 21,211G (69.1%, 42,423G)
loveyouallfriends: 3,000G (9.8%, 56,618G)
DustBirdEX: 1,235G (4.0%, 14,543G)
BirbBrainsBot: 1,000G (3.3%, 64,567G)
Lionhermit: 1,000G (3.3%, 24,873G)
volgrathemoose: 572G (1.9%, 572G)
JumbocactuarX27: 500G (1.6%, 8,613G)
toka222: 450G (1.5%, 2,436G)
Anethum: 400G (1.3%, 2,923G)
TheChainNerd: 356G (1.2%, 356G)
getthemoneyz: 246G (0.8%, 603,101G)
troublesometree: 208G (0.7%, 208G)
EizanTayama: 200G (0.7%, 1,987G)
SaintOmerville: 200G (0.7%, 14,463G)
CosmicTactician: 100G (0.3%, 3,903G)
