Player: !Yellow
Team: Yellow Team
Palettes: Yellow/Black



Meta Five
Monster
Taurus
69
46
Trent










Latebit
Monster
Pisces
51
57
Sekhret










FoeSquirrel
Female
Virgo
72
41
Wizard
Jump
Counter Tackle
Equip Axe
Retreat

Morning Star

Headgear
Clothes
Reflect Ring

Fire, Fire 2, Bolt 4, Ice 3, Empower, Frog
Level Jump8, Vertical Jump8



Killth3kid
Monster
Sagittarius
77
49
Blue Dragon







