Final Bets: red - 33 bets for 76,152G (88.5%, x0.13); blue - 21 bets for 9,920G (11.5%, x7.68)

red bets:
SkylerBunny: 11,897G (15.6%, 47,588G)
Spartan_Paladin: 8,000G (10.5%, 48,031G)
Tougou: 7,872G (10.3%, 7,872G)
sinnyil2: 7,458G (9.8%, 14,917G)
coralreeferz: 7,020G (9.2%, 14,041G)
defaultlybrave: 5,000G (6.6%, 11,100G)
JumbocactuarX27: 4,671G (6.1%, 4,671G)
nifboy: 3,749G (4.9%, 3,749G)
proper__noun__: 3,086G (4.1%, 3,086G)
DeathTaxesAndAnime: 2,416G (3.2%, 4,738G)
DavenIII: 2,102G (2.8%, 2,102G)
Grimmace45: 2,018G (2.6%, 2,018G)
CorpusCav: 2,000G (2.6%, 30,092G)
HorusTaurus: 1,423G (1.9%, 1,423G)
fenaen: 1,411G (1.9%, 1,411G)
Lord_Burrah: 1,171G (1.5%, 104,171G)
JarlBrolaf: 754G (1.0%, 754G)
vampyreinabox: 700G (0.9%, 700G)
Baron_von_Scrub: 622G (0.8%, 622G)
EnemyController: 495G (0.7%, 174,495G)
WrathfulRemy: 413G (0.5%, 413G)
Estan_AD: 348G (0.5%, 348G)
LAGBOT30000: 291G (0.4%, 29,134G)
Fenrislfr: 276G (0.4%, 276G)
Duckshut: 200G (0.3%, 2,201G)
belife42: 136G (0.2%, 136G)
karmakamikaze: 108G (0.1%, 108G)
Yesh_EP: 100G (0.1%, 400G)
TheFALLofLindsay: 100G (0.1%, 1,000G)
datadrivenbot: 100G (0.1%, 14,423G)
Firesheath: 100G (0.1%, 12,702G)
jwchapm: 100G (0.1%, 100G)
daveb_: 15G (0.0%, 1,137G)

blue bets:
Pie108: 2,000G (20.2%, 136,990G)
killth3kid: 2,000G (20.2%, 58,245G)
BirbBrainsBot: 1,000G (10.1%, 3,332G)
CapnChaos12: 500G (5.0%, 52,701G)
Mtueni: 500G (5.0%, 231,648G)
ungabunga_bot: 491G (4.9%, 331,699G)
ZephyrTempest: 456G (4.6%, 516G)
Bahamut64: 400G (4.0%, 14,149G)
elelor: 312G (3.1%, 312G)
vorap: 300G (3.0%, 30,055G)
evdoggity: 300G (3.0%, 3,495G)
Arlum: 294G (3.0%, 294G)
CoderCalamity: 283G (2.9%, 283G)
Kronikle: 200G (2.0%, 2,631G)
KasugaiRoastedPeas: 200G (2.0%, 2,180G)
carsenhk: 150G (1.5%, 10,798G)
genericco: 136G (1.4%, 136G)
kaidykat: 100G (1.0%, 1,851G)
mpghappiness: 100G (1.0%, 2,254G)
megaman2202: 100G (1.0%, 7,740G)
getthemoneyz: 98G (1.0%, 611,089G)
