Final Bets: green - 18 bets for 15,920G (71.0%, x0.41); yellow - 14 bets for 6,498G (29.0%, x2.45)

green bets:
Shalloween: 3,000G (18.8%, 234,913G)
Zagorsek: 2,419G (15.2%, 2,419G)
NicoSavoy: 2,000G (12.6%, 262,307G)
thehotrefrigerator: 1,841G (11.6%, 1,841G)
reinoe: 1,000G (6.3%, 79,385G)
skipsandwiches: 1,000G (6.3%, 10,780G)
fenaen: 900G (5.7%, 5,745G)
coralreeferz: 550G (3.5%, 30,993G)
nhammen: 536G (3.4%, 536G)
RaIshtar: 520G (3.3%, 520G)
JumbocactuarX27: 500G (3.1%, 23,913G)
killth3kid: 488G (3.1%, 12,482G)
Lord_Gwarth: 250G (1.6%, 591G)
holdenmagronik: 216G (1.4%, 1,331G)
AllInBot: 200G (1.3%, 200G)
cocoaking09: 200G (1.3%, 3,452G)
datadrivenbot: 200G (1.3%, 37,118G)
Firesheath: 100G (0.6%, 14,506G)

yellow bets:
pplvee1: 1,000G (15.4%, 30,406G)
NIghtdew14: 1,000G (15.4%, 38,392G)
getthemoneyz: 948G (14.6%, 1,351,529G)
HaateXIII: 852G (13.1%, 852G)
Nizaha: 576G (8.9%, 15,037G)
benticore: 500G (7.7%, 36,405G)
dogsandcatsand: 333G (5.1%, 21,435G)
Practice_Pad: 272G (4.2%, 272G)
CallMeTripsG: 252G (3.9%, 252G)
gorgewall: 201G (3.1%, 15,756G)
BirbBrainsBot: 200G (3.1%, 200G)
Legionx13: 200G (3.1%, 4,901G)
ribbiks: 100G (1.5%, 1,063G)
roqqqpsi: 64G (1.0%, 1,286G)
