Final Bets: purple - 15 bets for 6,935G (53.9%, x0.86); brown - 11 bets for 5,937G (46.1%, x1.17)

purple bets:
BirbBrainsBot: 1,000G (14.4%, 152,582G)
JumbocactuarX27: 1,000G (14.4%, 2,018G)
getthemoneyz: 732G (10.6%, 794,655G)
TeaTime29: 630G (9.1%, 630G)
superdevon1: 549G (7.9%, 5,491G)
Evewho: 524G (7.6%, 524G)
proper__noun__: 500G (7.2%, 2,278G)
skillomono: 500G (7.2%, 2,969G)
ShintaroNayaka: 400G (5.8%, 400G)
Flameatron: 300G (4.3%, 4,728G)
benticore: 250G (3.6%, 5,404G)
pplvee1: 250G (3.6%, 2,646G)
lastly: 100G (1.4%, 14,995G)
CosmicTactician: 100G (1.4%, 4,309G)
datadrivenbot: 100G (1.4%, 31,993G)

brown bets:
FriendSquirrel: 1,436G (24.2%, 1,436G)
sinnyil2: 1,258G (21.2%, 2,516G)
rocl: 1,029G (17.3%, 1,029G)
nifboy: 500G (8.4%, 8,889G)
Apeljoose: 400G (6.7%, 2,426G)
pandasforsale: 367G (6.2%, 367G)
gogofromtogo: 300G (5.1%, 300G)
Belkra: 216G (3.6%, 324G)
zepharoth89: 211G (3.6%, 4,232G)
Lydian_C: 120G (2.0%, 3,853G)
Grandlanzer: 100G (1.7%, 7,540G)
