Final Bets: blue - 10 bets for 4,066G (31.9%, x2.14); purple - 22 bets for 8,696G (68.1%, x0.47)

blue bets:
FriendSquirrel: 1,004G (24.7%, 1,004G)
sinnyil2: 964G (23.7%, 964G)
superdevon1: 482G (11.9%, 4,829G)
Cryptopsy70: 480G (11.8%, 1,053G)
CapnChaos12: 300G (7.4%, 16,837G)
ShintaroNayaka: 300G (7.4%, 1,702G)
nifboy: 250G (6.1%, 7,889G)
conradharlock: 136G (3.3%, 136G)
CosmicTactician: 100G (2.5%, 4,424G)
proper__noun__: 50G (1.2%, 3,249G)

purple bets:
BirbBrainsBot: 1,000G (11.5%, 154,560G)
JumbocactuarX27: 1,000G (11.5%, 1,674G)
edgehead62888: 1,000G (11.5%, 41,824G)
KasugaiRoastedPeas: 663G (7.6%, 663G)
LDSkinny: 560G (6.4%, 560G)
powergems: 500G (5.7%, 2,555G)
skillomono: 500G (5.7%, 3,397G)
gogofromtogo: 455G (5.2%, 455G)
StealthModeLocke: 396G (4.6%, 396G)
getthemoneyz: 332G (3.8%, 795,744G)
pandasforsale: 320G (3.7%, 320G)
EnemyController: 300G (3.4%, 475,028G)
pplvee1: 300G (3.4%, 3,093G)
benticore: 250G (2.9%, 5,518G)
brokenknight201: 200G (2.3%, 987G)
Flameatron: 200G (2.3%, 5,269G)
Rytor: 200G (2.3%, 6,822G)
Lydian_C: 120G (1.4%, 3,675G)
Grandlanzer: 100G (1.1%, 7,724G)
datadrivenbot: 100G (1.1%, 32,031G)
E_Ballard: 100G (1.1%, 3,399G)
TinchoT: 100G (1.1%, 8,159G)
