Final Bets: purple - 9 bets for 7,525G (33.2%, x2.01); brown - 15 bets for 15,110G (66.8%, x0.50)

purple bets:
DLJuggernaut: 5,000G (66.4%, 33,118G)
fenaen: 680G (9.0%, 29,675G)
lowlf: 668G (8.9%, 5,225G)
AllInBot: 452G (6.0%, 452G)
datadrivenbot: 200G (2.7%, 87,112G)
KGenjy: 200G (2.7%, 2,869G)
Lydian_C: 124G (1.6%, 8,534G)
gorgewall: 101G (1.3%, 6,352G)
DeathTaxesAndAnime: 100G (1.3%, 6,485G)

brown bets:
nhammen: 6,000G (39.7%, 37,135G)
dogsandcatsand: 2,504G (16.6%, 2,504G)
CorpusCav: 2,000G (13.2%, 68,208G)
old_overholt_: 1,000G (6.6%, 61,496G)
BirbBrainsBot: 1,000G (6.6%, 113,121G)
CosmicTactician: 536G (3.5%, 536G)
2b_yorha_b: 400G (2.6%, 21,708G)
Lolthsmeat: 348G (2.3%, 2,247G)
getthemoneyz: 322G (2.1%, 2,182,478G)
CapnChaos12: 300G (2.0%, 11,833G)
resjudicata3: 200G (1.3%, 15,096G)
Evewho: 200G (1.3%, 7,731G)
maakur_: 100G (0.7%, 2,878G)
heropong: 100G (0.7%, 2,439G)
MoonSugarFiend: 100G (0.7%, 43,121G)
