Final Bets: black - 15 bets for 6,555G (26.0%, x2.85); brown - 24 bets for 18,685G (74.0%, x0.35)

black bets:
sinnyil2: 1,560G (23.8%, 1,560G)
Rislyeu: 1,114G (17.0%, 1,114G)
KyleWonToLiveForever: 764G (11.7%, 764G)
HaateXIII: 500G (7.6%, 19,900G)
Cryptopsy70: 468G (7.1%, 2,734G)
Shalloween: 416G (6.3%, 416G)
DustBirdEX: 345G (5.3%, 6,028G)
benticore: 316G (4.8%, 316G)
metagameface: 284G (4.3%, 284G)
roqqqpsi: 220G (3.4%, 22,046G)
Kyune: 200G (3.1%, 32,821G)
Evewho: 100G (1.5%, 10,328G)
Monopool: 100G (1.5%, 690G)
CosmicTactician: 100G (1.5%, 1,185G)
getthemoneyz: 68G (1.0%, 760,914G)

brown bets:
toka222: 5,000G (26.8%, 109,893G)
roofiepops: 1,400G (7.5%, 20,609G)
rico_flex: 1,111G (5.9%, 33,569G)
coralreeferz: 1,081G (5.8%, 1,081G)
Jinxzers: 1,000G (5.4%, 7,512G)
BirbBrainsBot: 1,000G (5.4%, 61,510G)
red__lancer: 1,000G (5.4%, 71,232G)
Candina: 999G (5.3%, 72,523G)
Wonser: 932G (5.0%, 1,832G)
ravingsockmonkey: 874G (4.7%, 874G)
E_Ballard: 616G (3.3%, 616G)
Phi_Sig: 555G (3.0%, 144,820G)
skillomono: 477G (2.6%, 477G)
Baron_von_Scrub: 474G (2.5%, 24,697G)
volgrathemoose: 452G (2.4%, 452G)
luminarii: 450G (2.4%, 19,637G)
HASTERIOUS: 395G (2.1%, 7,902G)
kaelsun: 236G (1.3%, 236G)
Mokura3rd: 200G (1.1%, 1,236G)
gorgewall: 101G (0.5%, 18,687G)
AllInBot: 100G (0.5%, 100G)
Flameatron: 100G (0.5%, 104G)
datadrivenbot: 100G (0.5%, 28,376G)
Cuchulame: 32G (0.2%, 1,117G)
