Final Bets: red - 8 bets for 5,464G (26.5%, x2.77); blue - 21 bets for 15,150G (73.5%, x0.36)

red bets:
DeathTaxesAndAnime: 1,278G (23.4%, 1,278G)
killth3kid: 1,000G (18.3%, 102,381G)
Rilgon: 824G (15.1%, 1,649G)
Spartan_Paladin: 690G (12.6%, 46,198G)
Zeroroute: 600G (11.0%, 600G)
MagicBottle: 504G (9.2%, 15,248G)
Digitalsocrates: 368G (6.7%, 1,951G)
Evewho: 200G (3.7%, 17,251G)

blue bets:
VolgraTheMoose: 2,022G (13.3%, 2,022G)
helpimabug: 1,932G (12.8%, 1,932G)
UmaiJam: 1,700G (11.2%, 77,202G)
enkikavlar: 1,551G (10.2%, 1,551G)
fenaen: 1,200G (7.9%, 33,670G)
evdoggity: 1,000G (6.6%, 91,867G)
notsashasia: 1,000G (6.6%, 7,507G)
BirbBrainsBot: 1,000G (6.6%, 112,312G)
ShintaroNayaka: 632G (4.2%, 632G)
Laserman1000: 600G (4.0%, 25,000G)
HuffFlex: 500G (3.3%, 10,037G)
CosmicTactician: 500G (3.3%, 45,301G)
RageImmortaI: 284G (1.9%, 1,252G)
OtherBrand: 272G (1.8%, 272G)
winteriscorning: 204G (1.3%, 204G)
gorgewall: 201G (1.3%, 26,068G)
datadrivenbot: 200G (1.3%, 56,466G)
ACSpree: 150G (1.0%, 4,755G)
SephDarkheart: 136G (0.9%, 23,375G)
Gearran: 50G (0.3%, 193G)
getthemoneyz: 16G (0.1%, 1,210,600G)
