Final Bets: white - 10 bets for 3,900G (39.9%, x1.51); brown - 7 bets for 5,883G (60.1%, x0.66)

white bets:
ANFz: 1,000G (25.6%, 29,670G)
BirbBrainsBot: 1,000G (25.6%, 113,718G)
Seaweed_B: 500G (12.8%, 5,855G)
Digitalsocrates: 368G (9.4%, 4,251G)
Evewho: 200G (5.1%, 16,906G)
ThreeMileIsland: 200G (5.1%, 224G)
winteriscorning: 200G (5.1%, 1,745G)
datadrivenbot: 200G (5.1%, 55,746G)
Gearran: 140G (3.6%, 140G)
getthemoneyz: 92G (2.4%, 1,210,963G)

brown bets:
DeathTaxesAndAnime: 2,946G (50.1%, 5,777G)
Breakdown777: 1,037G (17.6%, 1,037G)
NIghtdew14: 1,000G (17.0%, 6,518G)
DudeMonkey77: 400G (6.8%, 400G)
ACSpree: 200G (3.4%, 5,240G)
run_with_stone_GUNs: 200G (3.4%, 12,723G)
mpghappiness: 100G (1.7%, 17,069G)
