Final Bets: green - 14 bets for 9,149G (68.2%, x0.47); white - 10 bets for 4,263G (31.8%, x2.15)

green bets:
KyleWonToLiveForever: 2,013G (22.0%, 2,013G)
DeathTaxesAndAnime: 1,443G (15.8%, 2,831G)
ANFz: 1,000G (10.9%, 31,178G)
reinoe: 1,000G (10.9%, 51,218G)
NIghtdew14: 750G (8.2%, 5,518G)
MagicBottle: 504G (5.5%, 16,342G)
run_with_stone_GUNs: 500G (5.5%, 12,523G)
getthemoneyz: 480G (5.2%, 1,211,102G)
ColetteMSLP: 400G (4.4%, 5,472G)
Breakdown777: 308G (3.4%, 308G)
ACSpree: 250G (2.7%, 5,040G)
gorgewall: 201G (2.2%, 25,465G)
datadrivenbot: 200G (2.2%, 56,048G)
IDruggedShamu: 100G (1.1%, 5,989G)

white bets:
enkikavlar: 1,037G (24.3%, 1,037G)
BirbBrainsBot: 1,000G (23.5%, 115,226G)
ThreeMileIsland: 526G (12.3%, 526G)
DarrenDinosaurs: 516G (12.1%, 516G)
Digitalsocrates: 368G (8.6%, 4,806G)
Seaweed_B: 216G (5.1%, 6,609G)
Evewho: 200G (4.7%, 17,208G)
winteriscorning: 200G (4.7%, 2,047G)
mpghappiness: 100G (2.3%, 16,969G)
Gearran: 100G (2.3%, 351G)
