Final Bets: green - 8 bets for 11,216G (52.5%, x0.90); yellow - 16 bets for 10,139G (47.5%, x1.11)

green bets:
The_Fryman: 4,459G (39.8%, 4,459G)
Mesmaster: 2,000G (17.8%, 221,015G)
Firesheath: 1,330G (11.9%, 1,330G)
DeathTaxesAndAnime: 1,211G (10.8%, 1,211G)
thunderducker: 592G (5.3%, 592G)
DHaveWord: 553G (4.9%, 1,086G)
ko2q: 536G (4.8%, 536G)
Laserman1000: 535G (4.8%, 10,835G)

yellow bets:
AllInBot: 1,967G (19.4%, 1,967G)
Sietaha: 1,065G (10.5%, 21,306G)
BirbBrainsBot: 1,000G (9.9%, 38,398G)
latebit: 1,000G (9.9%, 8,252G)
Lythe_Caraker: 1,000G (9.9%, 163,915G)
Shalloween: 828G (8.2%, 1,657G)
Raixelol: 588G (5.8%, 32,873G)
krombobreaker: 500G (4.9%, 5,611G)
mindblownnnn: 500G (4.9%, 5,581G)
silentkaster: 380G (3.7%, 380G)
getthemoneyz: 302G (3.0%, 1,915,640G)
threedope: 269G (2.7%, 947G)
Chihuahua_Charity: 240G (2.4%, 240G)
Moshyhero: 200G (2.0%, 11,151G)
datadrivenbot: 200G (2.0%, 58,660G)
BartTradingCompany: 100G (1.0%, 3,927G)
