Final Bets: purple - 12 bets for 6,918G (21.0%, x3.76); champion - 17 bets for 26,030G (79.0%, x0.27)

purple bets:
SkylerBunny: 2,675G (38.7%, 2,675G)
MagicBottle: 1,308G (18.9%, 1,308G)
killth3kid: 736G (10.6%, 26,028G)
Foamsoldier: 712G (10.3%, 712G)
MechMantis: 346G (5.0%, 346G)
lowlf: 316G (4.6%, 316G)
AllInBot: 241G (3.5%, 241G)
getthemoneyz: 184G (2.7%, 1,661,649G)
MinBetBot: 100G (1.4%, 7,000G)
Aldrammech: 100G (1.4%, 12,938G)
brenogarwin: 100G (1.4%, 558G)
Wooplestein: 100G (1.4%, 2,143G)

champion bets:
SephDarkheart: 10,000G (38.4%, 109,958G)
DavenIII: 5,000G (19.2%, 75,083G)
HASTERIOUS: 2,134G (8.2%, 2,134G)
E_Ballard: 1,437G (5.5%, 2,875G)
BirbBrainsBot: 1,000G (3.8%, 16,135G)
nhammen: 1,000G (3.8%, 60,483G)
douchetron: 812G (3.1%, 812G)
RunicMagus: 750G (2.9%, 10,619G)
Lifebregin: 700G (2.7%, 700G)
ShanksMcShiv: 699G (2.7%, 699G)
FriendSquirrel: 644G (2.5%, 644G)
JonnyCue: 500G (1.9%, 2,187G)
ar_tactic: 450G (1.7%, 79,721G)
Lord_Gwarth: 332G (1.3%, 332G)
flacococo: 272G (1.0%, 272G)
datadrivenbot: 200G (0.8%, 68,661G)
IndecisiveNinja: 100G (0.4%, 5,286G)
