Final Bets: red - 10 bets for 5,402G (81.0%, x0.23); blue - 4 bets for 1,266G (19.0%, x4.27)

red bets:
Eyepoor_: 1,870G (34.6%, 1,870G)
ungabunga_bot: 1,000G (18.5%, 402,745G)
BirbBrainsBot: 1,000G (18.5%, 86,826G)
ShintaroNayaka: 400G (7.4%, 6,838G)
CorpusCav: 400G (7.4%, 39,799G)
CT_5_Holy: 232G (4.3%, 232G)
KasugaiRoastedPeas: 200G (3.7%, 14,532G)
datadrivenbot: 100G (1.9%, 12,691G)
getthemoneyz: 100G (1.9%, 645,235G)
Kyune: 100G (1.9%, 3,126G)

blue bets:
HaplessOne: 666G (52.6%, 25,264G)
LivingHitokiri: 300G (23.7%, 300G)
SaintOmerville: 200G (15.8%, 3,304G)
gary_corson: 100G (7.9%, 4,905G)
