Final Bets: yellow - 13 bets for 8,068G (34.6%, x1.89); black - 18 bets for 15,266G (65.4%, x0.53)

yellow bets:
DeathTaxesAndAnime: 1,567G (19.4%, 3,073G)
Lordminsc: 1,505G (18.7%, 36,874G)
Grimmace45: 1,270G (15.7%, 5,082G)
ungabunga_bot: 1,000G (12.4%, 309,136G)
BirbBrainsBot: 1,000G (12.4%, 175,814G)
WrathfulRemy: 400G (5.0%, 1,133G)
Squatting_Bear: 300G (3.7%, 2,798G)
catfashions: 300G (3.7%, 3,343G)
midori_ribbon: 200G (2.5%, 1,919G)
run_with_STONE_GUNS: 200G (2.5%, 2,179G)
getthemoneyz: 126G (1.6%, 608,227G)
maakur_: 100G (1.2%, 117,380G)
ANFz: 100G (1.2%, 27,564G)

black bets:
Mesmaster: 3,000G (19.7%, 43,767G)
volgrathemoose: 2,348G (15.4%, 4,696G)
Pie108: 2,000G (13.1%, 162,875G)
HaateXIII: 1,319G (8.6%, 2,588G)
Baron_von_Scrub: 1,196G (7.8%, 1,196G)
Lionhermit: 1,000G (6.6%, 39,853G)
DLJuggernaut: 906G (5.9%, 906G)
VarkilTV: 549G (3.6%, 549G)
SarrgeQc: 501G (3.3%, 1,776G)
evdoggity: 500G (3.3%, 5,837G)
Dymntd: 500G (3.3%, 18,066G)
Breakdown777: 500G (3.3%, 18,883G)
gorgewall: 300G (2.0%, 17,341G)
ACSpree: 268G (1.8%, 268G)
uncharreted: 108G (0.7%, 108G)
datadrivenbot: 100G (0.7%, 12,880G)
Arlum: 100G (0.7%, 455G)
ZephyrTempest: 71G (0.5%, 1,421G)
