Final Bets: green - 18 bets for 20,578G (68.3%, x0.47); yellow - 17 bets for 9,569G (31.7%, x2.15)

green bets:
SirCherish: 10,000G (48.6%, 10,000G)
Mesmaster: 3,000G (14.6%, 102,959G)
NicoSavoy: 2,000G (9.7%, 17,801G)
leakimiko: 1,000G (4.9%, 55,131G)
ungabunga_bot: 990G (4.8%, 480,462G)
thaetreis: 876G (4.3%, 876G)
CorpusCav: 500G (2.4%, 18,470G)
4shcrows: 447G (2.2%, 447G)
Dexsana: 424G (2.1%, 424G)
benticore: 240G (1.2%, 481G)
gorgewall: 201G (1.0%, 4,557G)
mikesk1: 200G (1.0%, 4,912G)
Happybobby1623: 200G (1.0%, 657G)
datadrivenbot: 100G (0.5%, 13,952G)
Dymntd: 100G (0.5%, 9,668G)
Yasmosis: 100G (0.5%, 979G)
otakutaylor: 100G (0.5%, 100G)
Setdevildog: 100G (0.5%, 3,231G)

yellow bets:
killth3kid: 2,000G (20.9%, 45,246G)
cupholderr: 1,000G (10.5%, 54,340G)
BirbBrainsBot: 1,000G (10.5%, 1,006G)
kaydinv: 1,000G (10.5%, 6,204G)
pandasforsale: 666G (7.0%, 26,239G)
Rislyeu: 640G (6.7%, 640G)
Ant_ihistamine: 561G (5.9%, 561G)
Pie108: 500G (5.2%, 10,867G)
PatSouI: 420G (4.4%, 39,384G)
yetichamp: 400G (4.2%, 1,254G)
Ungaiii: 294G (3.1%, 294G)
sSwing: 284G (3.0%, 284G)
galkife: 250G (2.6%, 8,523G)
MercurialForge: 224G (2.3%, 224G)
grayeternity: 200G (2.1%, 864G)
Firesheath: 100G (1.0%, 21,255G)
getthemoneyz: 30G (0.3%, 673,116G)
