Final Bets: white - 14 bets for 5,752G (28.5%, x2.51); black - 21 bets for 14,409G (71.5%, x0.40)

white bets:
killth3kid: 2,000G (34.8%, 43,246G)
manc0_: 1,000G (17.4%, 12,373G)
Mesmaster: 1,000G (17.4%, 104,354G)
Rislyeu: 312G (5.4%, 312G)
theNGUYENNER: 200G (3.5%, 3,275G)
cupholderr: 200G (3.5%, 53,340G)
NicoSavoy: 200G (3.5%, 18,731G)
Setdevildog: 200G (3.5%, 3,278G)
getthemoneyz: 140G (2.4%, 673,086G)
Dymntd: 100G (1.7%, 9,715G)
otakutaylor: 100G (1.7%, 147G)
Firesheath: 100G (1.7%, 21,155G)
mikesk1: 100G (1.7%, 5,005G)
SirCherish: 100G (1.7%, 14,650G)

black bets:
pandasforsale: 7,777G (54.0%, 25,573G)
HaateXIII: 810G (5.6%, 1,620G)
thaetreis: 641G (4.4%, 1,283G)
Dexsana: 621G (4.3%, 621G)
benticore: 593G (4.1%, 593G)
Pie108: 500G (3.5%, 10,367G)
CorpusCav: 444G (3.1%, 18,703G)
alecttox: 429G (3.0%, 429G)
ApplesauceBoss: 312G (2.2%, 312G)
Yasmosis: 300G (2.1%, 1,026G)
Ross_from_Cali: 244G (1.7%, 244G)
Ungaiii: 228G (1.6%, 228G)
sSwing: 220G (1.5%, 220G)
yetichamp: 200G (1.4%, 854G)
4shcrows: 200G (1.4%, 659G)
BirbBrainsBot: 200G (1.4%, 200G)
grayeternity: 200G (1.4%, 664G)
ungabunga_bot: 186G (1.3%, 480,922G)
MercurialForge: 104G (0.7%, 104G)
datadrivenbot: 100G (0.7%, 13,999G)
OneHundredFists: 100G (0.7%, 2,972G)
