Final Bets: purple - 10 bets for 11,054G (94.9%, x0.05); brown - 3 bets for 594G (5.1%, x18.61)

purple bets:
carnivalnights: 2,586G (23.4%, 2,586G)
rocl: 2,000G (18.1%, 68,548G)
Error72: 2,000G (18.1%, 78,629G)
popotinha1889: 1,004G (9.1%, 1,004G)
BirbBrainsBot: 1,000G (9.0%, 39,655G)
getthemoneyz: 1,000G (9.0%, 1,810,210G)
gorgewall: 704G (6.4%, 704G)
MemoriesofFinal: 304G (2.8%, 304G)
krombobreaker: 256G (2.3%, 10,523G)
datadrivenbot: 200G (1.8%, 65,577G)

brown bets:
Raixelol: 352G (59.3%, 390G)
pepperbuster: 142G (23.9%, 2,642G)
Tarheels218: 100G (16.8%, 8,424G)
