Final Bets: red - 14 bets for 8,923G (74.0%, x0.35); blue - 6 bets for 3,130G (26.0%, x2.85)

red bets:
roofiepops: 2,149G (24.1%, 2,149G)
killth3kid: 1,000G (11.2%, 32,173G)
getthemoneyz: 1,000G (11.2%, 1,717,008G)
resjudicata3: 1,000G (11.2%, 2,748G)
MagicBottle: 616G (6.9%, 616G)
Laserman1000: 600G (6.7%, 13,700G)
Forkmore: 600G (6.7%, 600G)
maximumcrit: 500G (5.6%, 4,882G)
Lythe_Caraker: 500G (5.6%, 158,462G)
douchetron: 354G (4.0%, 354G)
corysteam: 204G (2.3%, 204G)
datadrivenbot: 200G (2.2%, 62,552G)
absalom_20: 100G (1.1%, 100G)
nifboy: 100G (1.1%, 4,070G)

blue bets:
BirbBrainsBot: 1,000G (31.9%, 157,337G)
CT_5_Holy: 803G (25.7%, 3,132G)
blorpy_: 606G (19.4%, 7,583G)
Thyrandaal: 400G (12.8%, 29,745G)
AllInBot: 221G (7.1%, 221G)
Tarheels218: 100G (3.2%, 1,077G)
