Final Bets: green - 8 bets for 5,569G (47.3%, x1.11); yellow - 16 bets for 6,198G (52.7%, x0.90)

green bets:
resjudicata3: 2,165G (38.9%, 2,165G)
OneHundredFists: 1,169G (21.0%, 1,169G)
BirbBrainsBot: 1,000G (18.0%, 175,051G)
RikiNom: 500G (9.0%, 3,453G)
getthemoneyz: 336G (6.0%, 2,210,015G)
DirkC_Fenrir84: 222G (4.0%, 444G)
FuzzyTigers: 132G (2.4%, 132G)
JethroThrul: 45G (0.8%, 450G)

yellow bets:
Mushufasa_: 1,234G (19.9%, 11,589G)
verythinice: 1,000G (16.1%, 4,061G)
Rune339: 703G (11.3%, 7,037G)
HaplessOne: 600G (9.7%, 600G)
Chuckolator: 456G (7.4%, 456G)
superdevon1: 368G (5.9%, 368G)
heropong: 328G (5.3%, 328G)
Genkidou: 280G (4.5%, 1,346G)
AllInBot: 200G (3.2%, 200G)
NicoSavoy: 200G (3.2%, 8,801G)
datadrivenbot: 200G (3.2%, 82,074G)
ValensEXP_: 200G (3.2%, 1,953G)
Deeps_one: 128G (2.1%, 128G)
gorgewall: 101G (1.6%, 8,583G)
YowaneHaku: 100G (1.6%, 100G)
Jehudy7: 100G (1.6%, 100G)
