Final Bets: black - 13 bets for 22,115G (80.0%, x0.25); purple - 13 bets for 5,512G (20.0%, x4.01)

black bets:
TheBrett: 13,000G (58.8%, 17,873G)
YaBoy125: 2,991G (13.5%, 2,991G)
HaplessOne: 1,544G (7.0%, 1,544G)
verythinice: 1,261G (5.7%, 1,261G)
Mushufasa_: 1,234G (5.6%, 9,501G)
ValensEXP_: 831G (3.8%, 831G)
WireLord: 409G (1.8%, 1,293G)
AllInBot: 200G (0.9%, 200G)
NicoSavoy: 200G (0.9%, 4,479G)
datadrivenbot: 200G (0.9%, 81,898G)
YowaneHaku: 100G (0.5%, 100G)
Jehudy7: 100G (0.5%, 100G)
JethroThrul: 45G (0.2%, 450G)

purple bets:
OneHundredFists: 1,431G (26.0%, 2,753G)
BirbBrainsBot: 1,000G (18.1%, 179,132G)
Willjin: 600G (10.9%, 32,771G)
Chuckolator: 456G (8.3%, 456G)
superdevon1: 368G (6.7%, 368G)
getthemoneyz: 340G (6.2%, 2,211,167G)
heropong: 328G (6.0%, 328G)
Rhyser76: 224G (4.1%, 224G)
b0lt: 212G (3.8%, 2,414G)
resjudicata3: 200G (3.6%, 2,377G)
Deeps_one: 128G (2.3%, 128G)
DirkC_Fenrir84: 125G (2.3%, 250G)
FuzzyTigers: 100G (1.8%, 617G)
