High Risers:
1. Worldly_unbrain: +5,326G
2. Raixelol: +5,124G
3. Colettemslp: +4,272G
4. Deathtaxesandanime: +2,633G
5. Dogsandcatsand: +2,198G
6. Skipsandwiches: +1,781G
7. Seppu777: +1,421G
8. Sephdarkheart: +941G
9. Khelor_: +593G
10. 77summer: +193G
11. Nifboy: +160G
12. Rune339: +92G
13. Ar_tactic: +4G
14. Memoriesoffinal: +3G
15. Daveb_: -72G
16. Gingerfoo69: -96G
17. Ftk___: -241G
18. Aly327: -300G
19. Jeeboheebo: -300G
20. Reddwind_: -300G
21. Brenogarwin: -320G
22. 3ngag3: -336G
23. Davestrider55: -386G
24. Hasterious: -400G
25. Prince_rogers_nelson_: -400G
26. Krombobreaker: -500G
27. Just_here2: -696G
28. E_ballard: -1,000G
29. Volgrathemoose: -1,300G
30. Zachara: -1,500G
31. Leonidusx: -1,543G
32. Bruubarg: -1,549G
33. Dreygyron: -1,596G
34. Cassiephoenix: -1,967G
35. Smashy: -2,000G
36. Altimamantoid: -2,054G
37. Valensexp_: -2,825G
38. Nicosavoy: -3,000G
39. Novaknight21: -3,228G
