High Risers:
1. Deathtaxesandanime: +19,735G
2. Onehundredfists: +7,906G
3. Huffflex: +6,018G
4. Novaknight21: +3,210G
5. Reddwind_: +2,395G
6. Mesmaster: +1,987G
7. Memoriesoffinal: +1,640G
8. Robespyah: +1,413G
9. Raixelol: +1,292G
10. Terrymagdalene: +1,000G
11. Wonser: +805G
12. Nekojin: +629G
13. Gingerfoo69: +565G
14. Polkagrandma: +478G
15. Candina: +399G
16. Latebit: +269G
17. Valensexp_: +159G
18. Jabuamba: +115G
19. Davestrider55: +86G
20. Neech: +85G
21. Tripaplex: +58G
22. 0v3rr8d: +4G
23. Victoriolue: -100G
24. Dracoknightzero: -100G
25. Haatexiii: -190G
26. Douchetron: -200G
27. Firesheath: -203G
28. Superdevon1: -267G
29. Ribbiks: -280G
30. Seppu777: -300G
31. 3ngag3: -332G
32. Whitetigress: -400G
33. Prince_rogers_nelson_: -401G
34. Colettemslp: -600G
35. Kronikle: -660G
36. Johannjfs: -697G
37. Lowlf: -989G
38. Thesabretoothe: -1,000G
39. Rocl: -1,374G
40. Roofiepops: -1,424G
41. Laserman1000: -1,500G
42. Corpuscav: -1,576G
43. Chuckolator: -1,734G
44. Minorfffanatic1: -1,996G
45. Ruleof5: -3,000G
46. Sinnyil2: -3,532G
47. Nicosavoy: -4,000G
48. Arcblazer23: -4,700G
