Final Bets: green - 6 bets for 1,864G (15.4%, x5.50); yellow - 13 bets for 10,249G (84.6%, x0.18)

green bets:
ThePineappleSalesman: 543G (29.1%, 543G)
Error72: 340G (18.2%, 340G)
Breakdown777: 300G (16.1%, 3,287G)
bruubarg: 297G (15.9%, 297G)
Saldarin: 276G (14.8%, 276G)
getthemoneyz: 108G (5.8%, 713,721G)

yellow bets:
volgrathemoose: 5,325G (52.0%, 10,651G)
krasny1944: 1,000G (9.8%, 6,000G)
Draconis345: 1,000G (9.8%, 61,710G)
BirbBrainsBot: 631G (6.2%, 157,995G)
CorpusCav: 512G (5.0%, 512G)
BlackJack3D6: 448G (4.4%, 448G)
otakutaylor: 300G (2.9%, 4,179G)
Etce: 256G (2.5%, 256G)
roqqqpsi: 239G (2.3%, 23,998G)
Banzem: 238G (2.3%, 238G)
AllInBot: 100G (1.0%, 100G)
CosmicTactician: 100G (1.0%, 17,870G)
datadrivenbot: 100G (1.0%, 21,956G)
