Final Bets: white - 11 bets for 5,202G (42.0%, x1.38); purple - 9 bets for 7,174G (58.0%, x0.73)

white bets:
Nizaha: 1,001G (19.2%, 8,792G)
metagameface: 1,000G (19.2%, 7,236G)
coralreeferz: 750G (14.4%, 8,062G)
Laserman1000: 501G (9.6%, 10,801G)
Shalloween: 500G (9.6%, 64,116G)
killth3kid: 480G (9.2%, 10,741G)
getthemoneyz: 370G (7.1%, 1,013,658G)
ewan_e: 200G (3.8%, 3,687G)
Magicandy: 200G (3.8%, 8,898G)
nifboy: 100G (1.9%, 7,844G)
datadrivenbot: 100G (1.9%, 46,788G)

purple bets:
powergems: 1,250G (17.4%, 11,790G)
DuraiPapers: 1,200G (16.7%, 34,183G)
Arcblazer23: 1,094G (15.2%, 1,094G)
superdevon1: 1,000G (13.9%, 2,419G)
ShintaroNayaka: 1,000G (13.9%, 13,716G)
BirbBrainsBot: 1,000G (13.9%, 77,129G)
neerrm: 280G (3.9%, 280G)
docmitchphd: 200G (2.8%, 1,966G)
RunicMagus: 150G (2.1%, 43,202G)
