Final Bets: green - 7 bets for 8,442G (21.1%, x3.74); champion - 13 bets for 31,580G (78.9%, x0.27)

green bets:
superdevon1: 4,636G (54.9%, 92,720G)
Willjin: 2,000G (23.7%, 43,426G)
3ngag3: 1,072G (12.7%, 25,072G)
MemoriesofFinal: 400G (4.7%, 400G)
Chihuahua_Charity: 220G (2.6%, 220G)
Vultuous: 100G (1.2%, 1,211G)
getthemoneyz: 14G (0.2%, 1,730,746G)

champion bets:
NicoSavoy: 26,437G (83.7%, 26,437G)
BirbBrainsBot: 1,000G (3.2%, 195,052G)
DeathTaxesAndAnime: 856G (2.7%, 856G)
DaveStrider55: 592G (1.9%, 592G)
WhiteTigress: 500G (1.6%, 16,705G)
Mushufasa_: 500G (1.6%, 3,139G)
AllInBot: 476G (1.5%, 476G)
ar_tactic: 350G (1.1%, 80,597G)
soren_of_tyto: 268G (0.8%, 268G)
datadrivenbot: 200G (0.6%, 66,825G)
FoxMime: 200G (0.6%, 839G)
gorgewall: 101G (0.3%, 21,089G)
Ouzuki: 100G (0.3%, 100G)
