Final Bets: blue - 15 bets for 7,745G (47.0%, x1.13); yellow - 8 bets for 8,750G (53.0%, x0.89)

blue bets:
Lydian_C: 1,200G (15.5%, 5,679G)
sinnyil2: 1,077G (13.9%, 1,077G)
BirbBrainsBot: 1,000G (12.9%, 141,467G)
killth3kid: 720G (9.3%, 39,044G)
SkylerBunny: 700G (9.0%, 700G)
fattunaking: 611G (7.9%, 611G)
Kronikle: 528G (6.8%, 17,491G)
helpimabug: 516G (6.7%, 1,033G)
Laserman1000: 514G (6.6%, 11,414G)
northkoreancleetus: 300G (3.9%, 3,782G)
datadrivenbot: 200G (2.6%, 65,673G)
koeeh: 108G (1.4%, 108G)
gorgewall: 101G (1.3%, 9,041G)
MinBetBot: 100G (1.3%, 8,922G)
getthemoneyz: 70G (0.9%, 1,635,960G)

yellow bets:
Firesheath: 3,759G (43.0%, 3,759G)
neerrm: 1,789G (20.4%, 1,789G)
silverChangeling: 1,281G (14.6%, 12,817G)
Chuckolator: 772G (8.8%, 772G)
ArrenJevleth: 500G (5.7%, 12,564G)
Aestheta: 300G (3.4%, 1,134G)
Vahn_Blade: 249G (2.8%, 249G)
AllInBot: 100G (1.1%, 100G)
