Final Bets: black - 27 bets for 38,611G (78.5%, x0.27); purple - 19 bets for 10,606G (21.5%, x3.64)

black bets:
evontno: 8,405G (21.8%, 8,405G)
Mesmaster: 5,000G (12.9%, 34,849G)
Lordminsc: 4,012G (10.4%, 8,025G)
proper__noun__: 3,000G (7.8%, 41,434G)
toka222: 2,500G (6.5%, 4,894G)
leakimiko: 2,098G (5.4%, 13,988G)
gooseyourself: 2,000G (5.2%, 18,831G)
hydroshade: 1,927G (5.0%, 1,927G)
Grimmace45: 1,247G (3.2%, 6,239G)
Lydian_C: 1,132G (2.9%, 1,132G)
nok____: 1,081G (2.8%, 1,081G)
BirbBrainsBot: 1,000G (2.6%, 124,582G)
DeathTaxesAndAnime: 808G (2.1%, 808G)
Zeroroute: 803G (2.1%, 803G)
ShintaroNayaka: 771G (2.0%, 771G)
edgehead62888: 500G (1.3%, 12,548G)
DustBirdEX: 436G (1.1%, 436G)
sukotsuto: 313G (0.8%, 627G)
joewcarson: 300G (0.8%, 4,338G)
eco1327: 207G (0.5%, 11,007G)
AmewTheFox: 200G (0.5%, 26,644G)
Clydethecamel: 200G (0.5%, 213G)
museofdoom: 200G (0.5%, 26,601G)
ungabunga_bot: 171G (0.4%, 288,463G)
ANFz: 100G (0.3%, 21,288G)
maakur_: 100G (0.3%, 113,739G)
thalessenador: 100G (0.3%, 100G)

purple bets:
Pie108: 2,000G (18.9%, 215,580G)
HorusTaurus: 2,000G (18.9%, 6,826G)
Shakarak: 1,200G (11.3%, 12,879G)
ACSpree: 700G (6.6%, 1,830G)
aStatue: 600G (5.7%, 600G)
DavenIII: 580G (5.5%, 580G)
catfashions: 512G (4.8%, 512G)
killth3kid: 500G (4.7%, 45,013G)
SeriousFaceFace: 500G (4.7%, 14,343G)
ZephyrTempest: 400G (3.8%, 784G)
tmo50x: 300G (2.8%, 8,858G)
DLJuggernaut: 300G (2.8%, 10,689G)
mpghappiness: 200G (1.9%, 3,367G)
Anethum: 200G (1.9%, 2,127G)
getthemoneyz: 188G (1.8%, 610,609G)
daveb_: 122G (1.2%, 2,141G)
marrrrrrrrrrrrrrrrrrrr: 104G (1.0%, 104G)
nifboy: 100G (0.9%, 5,318G)
RoboticNomad: 100G (0.9%, 100G)
