Final Bets: white - 9 bets for 6,603G (51.1%, x0.96); black - 13 bets for 6,324G (48.9%, x1.04)

white bets:
gorgewall: 2,472G (37.4%, 2,472G)
BirbBrainsBot: 1,000G (15.1%, 48,228G)
killth3kid: 1,000G (15.1%, 110,387G)
getthemoneyz: 550G (8.3%, 1,186,107G)
Aldrammech: 500G (7.6%, 6,232G)
Ic3lion84: 500G (7.6%, 948G)
RageImmortaI: 280G (4.2%, 2,995G)
VolgraTheMoose: 201G (3.0%, 6,167G)
nhammen: 100G (1.5%, 12,457G)

black bets:
ANFz: 1,000G (15.8%, 27,113G)
Theseawolf1: 1,000G (15.8%, 33,532G)
RampagingRobot: 1,000G (15.8%, 9,978G)
Thyrandaal: 839G (13.3%, 839G)
Breakdown777: 596G (9.4%, 596G)
baconbacon1207: 500G (7.9%, 12,596G)
ZCKaiser: 300G (4.7%, 5,168G)
ArashiKurobara: 268G (4.2%, 8,976G)
Shalloween: 200G (3.2%, 59,373G)
ACSpree: 200G (3.2%, 8,644G)
Grandlanzer: 200G (3.2%, 55,612G)
Lydian_C: 121G (1.9%, 157,903G)
mpghappiness: 100G (1.6%, 18,750G)
