Final Bets: purple - 15 bets for 30,963G (82.8%, x0.21); brown - 14 bets for 6,432G (17.2%, x4.81)

purple bets:
neerrm: 21,546G (69.6%, 21,546G)
Thyrandaal: 1,715G (5.5%, 1,715G)
TheMurkGnome: 1,262G (4.1%, 1,262G)
VolgraTheMoose: 1,001G (3.2%, 5,966G)
killth3kid: 1,000G (3.2%, 109,387G)
ANFz: 1,000G (3.2%, 28,157G)
Laserman1000: 680G (2.2%, 25,080G)
Breakdown777: 609G (2.0%, 1,218G)
ArashiKurobara: 500G (1.6%, 9,256G)
Aldrammech: 500G (1.6%, 5,732G)
RageImmortaI: 400G (1.3%, 2,715G)
ShintaroNayaka: 300G (1.0%, 3,605G)
ChaoreLance: 200G (0.6%, 4,210G)
ar_tactic: 150G (0.5%, 65,733G)
danielrogercardoso: 100G (0.3%, 100G)

brown bets:
mpghappiness: 1,001G (15.6%, 18,854G)
BirbBrainsBot: 1,000G (15.5%, 47,228G)
RampagingRobot: 522G (8.1%, 11,022G)
getthemoneyz: 512G (8.0%, 1,185,557G)
ACSpree: 500G (7.8%, 8,853G)
Theseawolf1: 500G (7.8%, 34,576G)
Oobs56: 500G (7.8%, 44,045G)
gorgewall: 460G (7.2%, 460G)
roofiepops: 420G (6.5%, 420G)
ZCKaiser: 300G (4.7%, 5,451G)
enkikavlar: 296G (4.6%, 296G)
Shalloween: 200G (3.1%, 59,582G)
Lydian_C: 121G (1.9%, 158,029G)
nhammen: 100G (1.6%, 12,357G)
