High Risers:
1. Shalloween: +17,290G
2. reinoe: +5,064G
3. killth3kid: +2,893G
4. ruleof5: +2,794G
5. TheBrett: +2,084G
6. OneHundredFists: +1,611G
7. silentkaster: +1,560G
8. Rhyser76: +1,543G
9. CorpusCav: +1,408G
10. ValensEXP_: +1,360G
11. 2b_yorha_b: +1,309G
12. CapnChaos12: +1,034G
13. Lolthsmeat: +1,023G
14. Gobizku: +1,004G
15. Lord_Gwarth: +1,004G
16. sinnyil2: +1,000G
17. Thyrandaal: +1,000G
18. Lythe_Caraker: +821G
19. NicoSavoy: +762G
20. KGenjy: +733G
21. krombobreaker: +633G
22. GenZealot: +504G
23. JonnyCue: +501G
24. Leonidusx: +500G
25. StealthModeLocke: +500G
26. BuffaloCrunch: +500G
27. galkife: +500G
28. GiggleStik: +500G
29. 3ngag3: +500G
30. HASTERIOUS: +500G
31. ANFz: +500G
32. Laserman1000: +500G
33. FatTunaKing: +500G
34. lijarkh: +500G
35. Firesheath: +500G
36. Mesmaster: +500G
37. smallboops: +500G
38. Xenomorith: +500G
39. YowaneHaku: +472G
40. lowlf: +465G
41. PantherIscariot: +465G
42. Lionhermit: +392G
43. xXTysongXx: +367G
44. Arcblazer23: +275G
45. NovaKnight21: +100G
46. reddwind_: +100G
47. DeathTaxesAndAnime: +100G
48. Jehudy7: +100G
49. PopsLIVE: +57G
50. verythinice: -96G
51. calle888: -99G
52. Meanderandreturn: -104G
53. thunderducker: -193G
54. technominari: -200G
55. JethroThrul: -237G
56. tinytittyfiend: -348G
57. WireLord: -356G
58. resjudicata3: -543G
59. superdevon1: -566G
60. gorgewall: -571G
61. nhammen: -800G
62. latebit: -1,000G
63. Chuckolator: -1,028G
64. Humble_Fabio: -1,154G
65. Mushufasa_: -1,236G
66. Lydian_C: -1,246G
67. Evewho: -2,063G
68. MemoriesofFinal: -2,358G
69. MelTorefas: -2,396G
70. DLJuggernaut: -5,300G
71. ExplanationMarkWow: -5,778G
72. kilrazin: -6,455G
