Final Bets: purple - 21 bets for 12,692G (70.9%, x0.41); brown - 10 bets for 5,205G (29.1%, x2.44)

purple bets:
kilrazin: 2,000G (15.8%, 5,175G)
Mushufasa_: 1,234G (9.7%, 59,419G)
randgridr: 1,095G (8.6%, 1,095G)
DustBirdEX: 1,021G (8.0%, 1,021G)
DeathTaxesAndAnime: 1,016G (8.0%, 1,016G)
thunderducker: 600G (4.7%, 600G)
Mesmaster: 596G (4.7%, 596G)
ExplanationMarkWow: 500G (3.9%, 5,660G)
krombobreaker: 500G (3.9%, 30,764G)
tinytittyfiend: 500G (3.9%, 2,699G)
Evewho: 500G (3.9%, 60,278G)
CorpusCav: 500G (3.9%, 98,421G)
WireLord: 497G (3.9%, 497G)
superdevon1: 479G (3.8%, 2,399G)
MelTorefas: 400G (3.2%, 3,000G)
gorgewall: 301G (2.4%, 5,376G)
verythinice: 253G (2.0%, 253G)
resjudicata3: 200G (1.6%, 9,145G)
NicoSavoy: 200G (1.6%, 136,585G)
datadrivenbot: 200G (1.6%, 83,282G)
JethroThrul: 100G (0.8%, 1,745G)

brown bets:
BirbBrainsBot: 1,000G (19.2%, 15,691G)
TheBrett: 1,000G (19.2%, 20,305G)
killth3kid: 860G (16.5%, 9,172G)
AllInBot: 575G (11.0%, 575G)
ValensEXP_: 504G (9.7%, 27,213G)
Shalloween: 400G (7.7%, 73,948G)
Lythe_Caraker: 332G (6.4%, 332G)
CapnChaos12: 300G (5.8%, 17,242G)
Meanderandreturn: 200G (3.8%, 12,145G)
getthemoneyz: 34G (0.7%, 2,206,071G)
