Final Bets: blue - 12 bets for 13,964G (44.3%, x1.26); green - 16 bets for 17,546G (55.7%, x0.80)

blue bets:
OneHundredFists: 4,069G (29.1%, 82,105G)
kilrazin: 3,175G (22.7%, 3,175G)
CorpusCav: 2,000G (14.3%, 98,421G)
thunderducker: 1,100G (7.9%, 1,100G)
BirbBrainsBot: 1,000G (7.2%, 18,129G)
WireLord: 900G (6.4%, 900G)
Humble_Fabio: 777G (5.6%, 1,833G)
getthemoneyz: 234G (1.7%, 2,206,154G)
gorgewall: 201G (1.4%, 5,575G)
resjudicata3: 200G (1.4%, 9,445G)
ValensEXP_: 200G (1.4%, 28,942G)
verythinice: 108G (0.8%, 108G)

green bets:
Shalloween: 4,000G (22.8%, 75,423G)
reinoe: 3,793G (21.6%, 3,793G)
AllInBot: 1,977G (11.3%, 1,977G)
Mushufasa_: 1,234G (7.0%, 58,685G)
killth3kid: 1,000G (5.7%, 11,269G)
YowaneHaku: 1,000G (5.7%, 15,866G)
DustBirdEX: 940G (5.4%, 940G)
Lythe_Caraker: 642G (3.7%, 642G)
ExplanationMarkWow: 500G (2.8%, 5,160G)
krombobreaker: 500G (2.8%, 30,764G)
tinytittyfiend: 500G (2.8%, 2,199G)
superdevon1: 480G (2.7%, 1,920G)
randgridr: 380G (2.2%, 1,380G)
Meanderandreturn: 300G (1.7%, 13,133G)
datadrivenbot: 200G (1.1%, 83,082G)
JethroThrul: 100G (0.6%, 1,645G)
