Final Bets: red - 7 bets for 5,347G (36.3%, x1.75); blue - 8 bets for 9,375G (63.7%, x0.57)

red bets:
NIghtdew14: 2,000G (37.4%, 41,810G)
BirbBrainsBot: 1,000G (18.7%, 43,487G)
NovaKnight21: 786G (14.7%, 786G)
upvla: 567G (10.6%, 14,356G)
prince_rogers_nelson_: 548G (10.2%, 548G)
getthemoneyz: 238G (4.5%, 1,370,844G)
douchetron: 208G (3.9%, 208G)

blue bets:
neerrm: 4,444G (47.4%, 51,608G)
RaIshtar: 1,438G (15.3%, 1,438G)
AllInBot: 1,017G (10.8%, 1,017G)
ForagerCats: 1,000G (10.7%, 5,771G)
superdevon1: 946G (10.1%, 15,774G)
ruleof5: 300G (3.2%, 11,284G)
datadrivenbot: 200G (2.1%, 39,202G)
DouglasDragonThePoet: 30G (0.3%, 2,538G)
