Final Bets: black - 9 bets for 6,145G (86.1%, x0.16); purple - 4 bets for 993G (13.9%, x6.19)

black bets:
BirbBrainsBot: 1,000G (16.3%, 65,425G)
getthemoneyz: 1,000G (16.3%, 966,857G)
NicoSavoy: 1,000G (16.3%, 16,166G)
bruubarg: 1,000G (16.3%, 20,409G)
sososteve: 1,000G (16.3%, 2,960G)
Spuzzmocker: 516G (8.4%, 516G)
gorgewall: 301G (4.9%, 20,970G)
DuraiPapers: 228G (3.7%, 228G)
datadrivenbot: 100G (1.6%, 42,374G)

purple bets:
letdowncity: 300G (30.2%, 21,055G)
KyleWonToLiveForever: 272G (27.4%, 272G)
AltimaMantoid: 216G (21.8%, 216G)
AllInBot: 205G (20.6%, 205G)
