Final Bets: purple - 19 bets for 15,256G (66.5%, x0.50); brown - 7 bets for 7,678G (33.5%, x1.99)

purple bets:
E_Ballard: 4,086G (26.8%, 4,086G)
edgehead62888: 1,640G (10.7%, 1,640G)
cam_ATS: 1,200G (7.9%, 1,200G)
BirbBrainsBot: 1,000G (6.6%, 159,580G)
Dexsana: 1,000G (6.6%, 5,528G)
theNGUYENNER: 1,000G (6.6%, 26,103G)
ungabunga_bot: 929G (6.1%, 428,531G)
Eyepoor_: 784G (5.1%, 784G)
Practice_Pad: 660G (4.3%, 660G)
cupholderr: 500G (3.3%, 18,255G)
Artea_: 500G (3.3%, 13,886G)
Scotty297: 500G (3.3%, 3,565G)
ApplesNP: 316G (2.1%, 316G)
Mudrockk: 300G (2.0%, 8,438G)
twelfthrootoftwo: 300G (2.0%, 2,667G)
foofermoofer: 200G (1.3%, 699G)
getthemoneyz: 188G (1.2%, 656,028G)
datadrivenbot: 100G (0.7%, 11,630G)
roqqqpsi: 53G (0.3%, 2,694G)

brown bets:
Estan_AD: 3,520G (45.8%, 7,041G)
HaplessOne: 1,250G (16.3%, 22,647G)
LDSkinny: 1,000G (13.0%, 30,174G)
reinoe: 1,000G (13.0%, 33,047G)
zmoses: 500G (6.5%, 6,585G)
Miyokari: 250G (3.3%, 6,222G)
imafella: 158G (2.1%, 633G)
