Final Bets: red - 18 bets for 12,776G (50.0%, x1.00); green - 16 bets for 12,782G (50.0%, x1.00)

red bets:
dogsandcatsand: 2,710G (21.2%, 5,315G)
RaIshtar: 2,000G (15.7%, 25,090G)
TheChainNerd: 1,500G (11.7%, 38,626G)
BirbBrainsBot: 1,000G (7.8%, 194,933G)
killth3kid: 819G (6.4%, 819G)
FriendSquirrel: 572G (4.5%, 572G)
Zeroroute: 500G (3.9%, 500G)
Xoomwaffle: 477G (3.7%, 477G)
TasisSai: 475G (3.7%, 932G)
CassiePhoenix: 464G (3.6%, 464G)
joewcarson: 400G (3.1%, 26,989G)
Error72: 361G (2.8%, 361G)
ArashiKurobara: 336G (2.6%, 2,486G)
SephDarkheart: 312G (2.4%, 46,311G)
benticore: 250G (2.0%, 21,073G)
AllInBot: 200G (1.6%, 200G)
DouglasDragonThePoet: 200G (1.6%, 232G)
boosted420: 200G (1.6%, 2,963G)

green bets:
upvla: 2,200G (17.2%, 25,036G)
Shalloween: 2,000G (15.6%, 101,085G)
ShintaroNayaka: 1,500G (11.7%, 7,249G)
coralreeferz: 1,250G (9.8%, 10,910G)
Creggers: 1,000G (7.8%, 61,962G)
red__lancer: 1,000G (7.8%, 107,823G)
randgridr: 777G (6.1%, 777G)
skipsandwiches: 757G (5.9%, 757G)
furrytomahawkk: 634G (5.0%, 634G)
MagicBottle: 544G (4.3%, 19,071G)
DavenIII: 376G (2.9%, 752G)
datadrivenbot: 200G (1.6%, 27,025G)
GladiatorLupe: 200G (1.6%, 1,598G)
getthemoneyz: 144G (1.1%, 1,306,377G)
WorkKnight: 100G (0.8%, 100G)
CosmicTactician: 100G (0.8%, 43,292G)
