Final Bets: purple - 14 bets for 12,580G (46.6%, x1.15); brown - 11 bets for 14,443G (53.4%, x0.87)

purple bets:
Narcius: 4,200G (33.4%, 312,489G)
Forkmore: 1,847G (14.7%, 1,847G)
powergems: 1,557G (12.4%, 1,557G)
killth3kid: 1,000G (7.9%, 44,940G)
reinoe: 1,000G (7.9%, 16,722G)
blorpy_: 945G (7.5%, 11,815G)
Lanshaft: 612G (4.9%, 16,084G)
nekojin: 508G (4.0%, 508G)
neocarbuncle: 210G (1.7%, 2,399G)
Blastinus: 200G (1.6%, 1,884G)
datadrivenbot: 200G (1.6%, 61,697G)
gorgewall: 101G (0.8%, 3,252G)
AllInBot: 100G (0.8%, 100G)
Aldrammech: 100G (0.8%, 4,902G)

brown bets:
dogsandcatsand: 6,911G (47.9%, 13,551G)
NovaKnight21: 1,645G (11.4%, 1,645G)
silverChangeling: 1,072G (7.4%, 7,150G)
BirbBrainsBot: 1,000G (6.9%, 122,805G)
PhaseLoss: 970G (6.7%, 970G)
HaateXIII: 788G (5.5%, 788G)
E_Ballard: 720G (5.0%, 44,572G)
SephDarkheart: 600G (4.2%, 128,582G)
CosmicTactician: 500G (3.5%, 34,076G)
getthemoneyz: 128G (0.9%, 1,704,465G)
theBinklive: 109G (0.8%, 437G)
