Final Bets: green - 18 bets for 13,888G (49.6%, x1.02); champion - 15 bets for 14,100G (50.4%, x0.98)

green bets:
Narcius: 4,400G (31.7%, 316,463G)
Zbgs: 1,500G (10.8%, 12,118G)
killth3kid: 1,000G (7.2%, 43,732G)
SkylerBunny: 1,000G (7.2%, 10,417G)
BirbBrainsBot: 1,000G (7.2%, 125,281G)
latebit: 748G (5.4%, 748G)
E_Ballard: 720G (5.2%, 44,274G)
MagicBottle: 549G (4.0%, 549G)
pplvee1: 516G (3.7%, 516G)
nekojin: 512G (3.7%, 875G)
brenogarwin: 413G (3.0%, 413G)
silverChangeling: 375G (2.7%, 9,397G)
Lord_Gwarth: 337G (2.4%, 2,158G)
CosmicTactician: 300G (2.2%, 35,298G)
datadrivenbot: 200G (1.4%, 61,240G)
theBinklive: 132G (1.0%, 531G)
Aldrammech: 100G (0.7%, 4,806G)
getthemoneyz: 86G (0.6%, 1,704,509G)

champion bets:
dogsandcatsand: 3,141G (22.3%, 6,160G)
Tarheels218: 2,505G (17.8%, 2,505G)
maximumcrit: 2,000G (14.2%, 5,833G)
sinnyil2: 1,122G (8.0%, 2,244G)
Forkmore: 1,015G (7.2%, 1,015G)
blorpy_: 908G (6.4%, 11,362G)
ANFz: 671G (4.8%, 671G)
Lanshaft: 612G (4.3%, 16,490G)
Kastavar: 590G (4.2%, 590G)
SeniorBunk: 461G (3.3%, 21,461G)
KasugaiRoastedPeas: 436G (3.1%, 436G)
Starfire6789: 228G (1.6%, 228G)
neocarbuncle: 210G (1.5%, 2,785G)
gorgewall: 101G (0.7%, 3,264G)
AllInBot: 100G (0.7%, 100G)
