Final Bets: blue - 15 bets for 9,102G (64.6%, x0.55); green - 11 bets for 4,981G (35.4%, x1.83)

blue bets:
Shalloween: 1,700G (18.7%, 56,517G)
dogsandcatsand: 1,265G (13.9%, 2,481G)
Blakelmenakle: 1,000G (11.0%, 12,005G)
Creggers: 1,000G (11.0%, 24,774G)
killth3kid: 700G (7.7%, 105,373G)
gorgewall: 588G (6.5%, 588G)
Nizaha: 544G (6.0%, 4,789G)
Zenmaza: 500G (5.5%, 3,804G)
TasisSai: 477G (5.2%, 936G)
CapnChaos12: 300G (3.3%, 6,552G)
RageImmortaI: 296G (3.3%, 787G)
dem0nj0ns: 232G (2.5%, 232G)
AllInBot: 200G (2.2%, 200G)
Wonser: 200G (2.2%, 1,595G)
VanciousRex: 100G (1.1%, 941G)

green bets:
maakur_: 1,935G (38.8%, 1,935G)
datadrivenbot: 908G (18.2%, 54,729G)
toka222: 500G (10.0%, 68,031G)
roqqqpsi: 366G (7.3%, 3,329G)
getthemoneyz: 314G (6.3%, 1,273,294G)
Treafa: 250G (5.0%, 1,201G)
benticore: 250G (5.0%, 17,719G)
Evewho: 200G (4.0%, 19,974G)
DaKoopa49: 100G (2.0%, 849G)
Miku_Shikhu: 100G (2.0%, 10,991G)
BirbBrainsBot: 58G (1.2%, 151,145G)
