Final Bets: red - 23 bets for 15,564G (69.7%, x0.43); brown - 13 bets for 6,769G (30.3%, x2.30)

red bets:
Shalloween: 2,000G (12.9%, 17,243G)
Smashy: 2,000G (12.9%, 2,000G)
reinoe: 2,000G (12.9%, 20,064G)
pepperbuster: 1,500G (9.6%, 10,050G)
minorfffanatic1: 1,258G (8.1%, 1,258G)
CorpusCav: 1,123G (7.2%, 1,123G)
RobotOcelot: 782G (5.0%, 782G)
Aldrammech: 700G (4.5%, 700G)
Powermhero: 610G (3.9%, 53,610G)
thunderducker: 512G (3.3%, 512G)
poorest_hobo: 495G (3.2%, 495G)
docmitchphd: 322G (2.1%, 322G)
MemoriesofFinal: 300G (1.9%, 300G)
Laserman1000: 262G (1.7%, 2,062G)
krombobreaker: 252G (1.6%, 9,208G)
AltimaMantoid: 250G (1.6%, 750G)
silentkaster: 250G (1.6%, 1,156G)
Greggernaut: 224G (1.4%, 224G)
datadrivenbot: 200G (1.3%, 65,464G)
killth3kid: 200G (1.3%, 5,117G)
roofiepops: 123G (0.8%, 2,043G)
gorgewall: 101G (0.6%, 3,679G)
ANFz: 100G (0.6%, 4,503G)

brown bets:
Mesmaster: 2,000G (29.5%, 89,353G)
neerrm: 1,456G (21.5%, 1,456G)
Zagorsek: 1,266G (18.7%, 1,266G)
ColetteMSLP: 416G (6.1%, 416G)
Raixelol: 348G (5.1%, 2,679G)
joewcarson: 300G (4.4%, 7,955G)
nok____: 200G (3.0%, 4,405G)
Leonidusx: 200G (3.0%, 3,349G)
getthemoneyz: 162G (2.4%, 1,801,786G)
BirbBrainsBot: 121G (1.8%, 26,389G)
Firesheath: 100G (1.5%, 3,358G)
Zadckiel: 100G (1.5%, 145G)
resjudicata3: 100G (1.5%, 12,772G)
