Final Bets: blue - 19 bets for 9,514G (38.1%, x1.62); yellow - 22 bets for 15,432G (61.9%, x0.62)

blue bets:
Aldrammech: 1,369G (14.4%, 1,369G)
dogsandcatsand: 1,107G (11.6%, 1,107G)
fenaen: 1,065G (11.2%, 1,065G)
BirbBrainsBot: 1,000G (10.5%, 70,123G)
catfashions: 1,000G (10.5%, 10,834G)
Pie108: 700G (7.4%, 25,535G)
Ranmilia: 565G (5.9%, 565G)
arch8000: 500G (5.3%, 3,552G)
getthemoneyz: 426G (4.5%, 473,128G)
HaateXIII: 348G (3.7%, 348G)
Breakdown777: 300G (3.2%, 8,357G)
Chuckolator: 286G (3.0%, 6,312G)
KasugaiRoastedPeas: 200G (2.1%, 14,981G)
a_mo22: 125G (1.3%, 5,702G)
b0shii: 123G (1.3%, 1,389G)
ApplesauceBoss: 100G (1.1%, 3,382G)
Kojigawatz: 100G (1.1%, 100G)
maakur_: 100G (1.1%, 8,393G)
organizing_secrets: 100G (1.1%, 740G)

yellow bets:
Shakarak: 5,000G (32.4%, 28,354G)
Baron_von_Scrub: 2,112G (13.7%, 9,152G)
volgrathemoose: 1,001G (6.5%, 3,865G)
datadrivenbot: 736G (4.8%, 25,528G)
waterwatereverywhere: 727G (4.7%, 727G)
Laserman1000: 666G (4.3%, 3,466G)
Kobold_Jager: 608G (3.9%, 608G)
NovaKnight21: 600G (3.9%, 7,044G)
Lanshaft: 600G (3.9%, 5,352G)
ungabunga_bot: 544G (3.5%, 111,081G)
Conome: 490G (3.2%, 490G)
VySaika: 381G (2.5%, 381G)
DudeMonkey77: 333G (2.2%, 6,030G)
RunicMagus: 328G (2.1%, 328G)
CapnChaos12: 300G (1.9%, 1,690G)
roqqqpsi: 212G (1.4%, 965G)
ko2q: 200G (1.3%, 5,958G)
rico_flex: 150G (1.0%, 2,017G)
AllInBot: 144G (0.9%, 144G)
oogthecaveman: 100G (0.6%, 5,554G)
lunchboxtac: 100G (0.6%, 356G)
mpghappiness: 100G (0.6%, 398G)
