Final Bets: green - 18 bets for 8,320G (53.9%, x0.85); yellow - 6 bets for 7,111G (46.1%, x1.17)

green bets:
LDSkinny: 1,187G (14.3%, 2,374G)
nifboy: 1,156G (13.9%, 1,156G)
BirbBrainsBot: 1,000G (12.0%, 87,699G)
DavenIII: 1,000G (12.0%, 7,719G)
Belkra: 760G (9.1%, 760G)
getthemoneyz: 636G (7.6%, 895,396G)
cam_ATS: 547G (6.6%, 547G)
joewcarson: 400G (4.8%, 43,353G)
ShintaroNayaka: 400G (4.8%, 11,688G)
gorgewall: 201G (2.4%, 9,805G)
KasugaiRoastedPeas: 200G (2.4%, 2,421G)
CosmicTactician: 200G (2.4%, 25,047G)
autnagrag: 133G (1.6%, 6,915G)
AllInBot: 100G (1.2%, 100G)
Quadh0nk: 100G (1.2%, 1,672G)
J_MacC1991: 100G (1.2%, 100G)
datadrivenbot: 100G (1.2%, 36,180G)
mrfripps: 100G (1.2%, 2,373G)

yellow bets:
powergems: 2,047G (28.8%, 2,047G)
Lord_Burrah: 1,900G (26.7%, 82,900G)
TheChainNerd: 1,680G (23.6%, 3,380G)
SQUiDSQUARKLIN: 884G (12.4%, 884G)
BlackFireUK: 500G (7.0%, 26,931G)
serperemagus: 100G (1.4%, 3,849G)
