Final Bets: red - 15 bets for 8,242G (62.0%, x0.61); blue - 7 bets for 5,049G (38.0%, x1.63)

red bets:
Tarheels218: 1,541G (18.7%, 1,541G)
latebit: 1,100G (13.3%, 38,816G)
BirbBrainsBot: 1,000G (12.1%, 100,480G)
LDSkinny: 1,000G (12.1%, 1,339G)
skipsandwiches: 1,000G (12.1%, 18,728G)
killth3kid: 712G (8.6%, 49,162G)
CosmicTactician: 500G (6.1%, 18,561G)
DesertWooder: 406G (4.9%, 406G)
Lord_Gwarth: 316G (3.8%, 316G)
MonchoStrife: 172G (2.1%, 172G)
muffin_money: 150G (1.8%, 14,520G)
Valgram: 144G (1.7%, 144G)
AllInBot: 100G (1.2%, 100G)
northkoreancleetus: 100G (1.2%, 859G)
PuzzleSecretary: 1G (0.0%, 116G)

blue bets:
DavenIII: 2,607G (51.6%, 7,903G)
Forkmore: 1,224G (24.2%, 2,401G)
SephDarkheart: 568G (11.2%, 100,209G)
fesight: 200G (4.0%, 2,945G)
datadrivenbot: 200G (4.0%, 67,093G)
thephunbaba: 150G (3.0%, 150G)
DragonLord_Carter: 100G (2.0%, 637G)
