Final Bets: black - 7 bets for 6,223G (58.3%, x0.72); purple - 9 bets for 4,454G (41.7%, x1.40)

black bets:
Smokegiant: 2,481G (39.9%, 2,481G)
TheChainNerd: 2,271G (36.5%, 4,542G)
Draconis345: 1,000G (16.1%, 49,930G)
AllInBot: 200G (3.2%, 200G)
Lydian_C: 121G (1.9%, 67,273G)
JumbocactuarX27: 100G (1.6%, 4,359G)
DouglasDragonThePoet: 50G (0.8%, 765G)

purple bets:
lastly: 1,000G (22.5%, 31,425G)
BirbBrainsBot: 1,000G (22.5%, 183,508G)
BakuretsuLa: 690G (15.5%, 690G)
ShintaroNayaka: 500G (11.2%, 8,321G)
RaIshtar: 500G (11.2%, 4,324G)
skipsandwiches: 264G (5.9%, 264G)
ohhinm: 200G (4.5%, 3,287G)
datadrivenbot: 200G (4.5%, 31,684G)
Belkra: 100G (2.2%, 716G)
