Final Bets: blue - 8 bets for 1,591G (15.1%, x5.64); black - 10 bets for 8,970G (84.9%, x0.18)

blue bets:
BirbBrainsBot: 345G (21.7%, 25,486G)
dantayystv: 300G (18.9%, 25,619G)
getthemoneyz: 246G (15.5%, 1,302,191G)
AllInBot: 200G (12.6%, 200G)
dtrain332: 200G (12.6%, 2,182G)
DeathTaxesAndAnime: 100G (6.3%, 3,031G)
letdowncity: 100G (6.3%, 6,543G)
DHaveWord: 100G (6.3%, 9,447G)

black bets:
moonliquor: 5,000G (55.7%, 24,480G)
helpimabug: 1,132G (12.6%, 1,132G)
randgridr: 1,000G (11.1%, 6,121G)
Evewho: 500G (5.6%, 4,327G)
TheMurkGnome: 317G (3.5%, 2,805G)
ColetteMSLP: 300G (3.3%, 4,253G)
soapydragonfly: 300G (3.3%, 579G)
datadrivenbot: 200G (2.2%, 30,931G)
Lydian_C: 121G (1.3%, 65,791G)
Arkreaver: 100G (1.1%, 10,268G)
