Final Bets: red - 15 bets for 11,856G (68.3%, x0.46); blue - 11 bets for 5,499G (31.7%, x2.16)

red bets:
gorgewall: 2,840G (24.0%, 2,840G)
Forkmore: 2,000G (16.9%, 99,291G)
Leonidusx: 2,000G (16.9%, 131,017G)
maakur_: 1,012G (8.5%, 1,012G)
BirbBrainsBot: 1,000G (8.4%, 162,749G)
Sairentozon7: 1,000G (8.4%, 22,293G)
loveyouallfriends: 1,000G (8.4%, 39,543G)
killth3kid: 250G (2.1%, 6,854G)
AllInBot: 200G (1.7%, 200G)
datadrivenbot: 200G (1.7%, 72,977G)
J_MacC1991: 140G (1.2%, 4,008G)
LuckyLuckLuc2: 111G (0.9%, 5,397G)
MemoriesofFinal: 100G (0.8%, 31,766G)
Lord_Gwarth: 2G (0.0%, 3,726G)
latebit: 1G (0.0%, 3,165G)

blue bets:
dogsandcatsand: 1,000G (18.2%, 42,704G)
ko2q: 961G (17.5%, 1,923G)
skillomono: 626G (11.4%, 626G)
Raixelol: 600G (10.9%, 8,904G)
Zerguzen: 521G (9.5%, 521G)
krombobreaker: 500G (9.1%, 9,542G)
skipsandwiches: 432G (7.9%, 432G)
Carledo: 333G (6.1%, 131,287G)
silentkaster: 300G (5.5%, 2,408G)
khelor_: 200G (3.6%, 5,425G)
getthemoneyz: 26G (0.5%, 2,015,719G)
