Final Bets: black - 7 bets for 2,754G (45.3%, x1.21); purple - 4 bets for 3,323G (54.7%, x0.83)

black bets:
Zetchryn: 1,000G (36.3%, 10,868G)
BirbBrainsBot: 638G (23.2%, 6,461G)
getthemoneyz: 316G (11.5%, 1,249,417G)
dem0nj0ns: 300G (10.9%, 1,215G)
datadrivenbot: 200G (7.3%, 62,956G)
Lemonjohns: 200G (7.3%, 917G)
Vultuous: 100G (3.6%, 4,924G)

purple bets:
Evewho: 1,593G (47.9%, 1,593G)
dantayystv: 900G (27.1%, 2,001G)
RoboticNomad: 705G (21.2%, 705G)
superdevon1: 125G (3.8%, 1,253G)
