Final Bets: black - 12 bets for 4,468G (51.4%, x0.95); purple - 6 bets for 4,233G (48.6%, x1.06)

black bets:
ungabunga_bot: 1,000G (22.4%, 418,459G)
superdevon1: 949G (21.2%, 9,496G)
NovaKnight21: 468G (10.5%, 468G)
Miyokari: 400G (9.0%, 2,073G)
DustBirdEX: 356G (8.0%, 5,756G)
twelfthrootoftwo: 300G (6.7%, 2,202G)
bahamutlagooon: 200G (4.5%, 1,092G)
Cataphract116: 200G (4.5%, 18,693G)
JackOnFire1: 181G (4.1%, 363G)
getthemoneyz: 162G (3.6%, 645,339G)
Practice_Pad: 152G (3.4%, 152G)
datadrivenbot: 100G (2.2%, 13,365G)

purple bets:
LivingHitokiri: 1,462G (34.5%, 1,462G)
HaplessOne: 1,111G (26.2%, 26,434G)
BirbBrainsBot: 1,000G (23.6%, 109,464G)
Eyepoor_: 260G (6.1%, 260G)
Hoffrandexpress: 200G (4.7%, 1,317G)
belife42: 200G (4.7%, 4,561G)
