Final Bets: purple - 16 bets for 15,172G (50.8%, x0.97); brown - 15 bets for 14,699G (49.2%, x1.03)

purple bets:
lastly: 7,189G (47.4%, 7,189G)
leakimiko: 1,553G (10.2%, 31,068G)
Lord_Burrah: 1,000G (6.6%, 98,180G)
roofiepops: 850G (5.6%, 14,272G)
HaateXIII: 759G (5.0%, 759G)
sinnyil2: 700G (4.6%, 4,219G)
datadrivenbot: 610G (4.0%, 26,018G)
z32o: 500G (3.3%, 6,867G)
Theseawolf1: 500G (3.3%, 7,536G)
ColetteMSLP: 400G (2.6%, 19,700G)
RunicMagus: 316G (2.1%, 316G)
moonliquor: 279G (1.8%, 279G)
ungabunga_bot: 216G (1.4%, 98,993G)
ApplesauceBoss: 100G (0.7%, 6,469G)
ko2q: 100G (0.7%, 1,978G)
Firesheath: 100G (0.7%, 336G)

brown bets:
Lanshaft: 4,032G (27.4%, 8,064G)
Aldrammech: 2,951G (20.1%, 29,517G)
coledot_: 2,755G (18.7%, 9,185G)
BirbBrainsBot: 1,000G (6.8%, 57,928G)
Pie108: 700G (4.8%, 26,050G)
DarrenDinosaurs: 500G (3.4%, 3,373G)
proper__noun__: 500G (3.4%, 3,177G)
getthemoneyz: 460G (3.1%, 480,869G)
upvla: 422G (2.9%, 40,094G)
DrAntiSocial: 356G (2.4%, 356G)
b0shii: 333G (2.3%, 952G)
ZephyrTempest: 254G (1.7%, 47,829G)
Faplo: 236G (1.6%, 236G)
RughSontos: 100G (0.7%, 3,419G)
Slowbrofist: 100G (0.7%, 2,884G)
