Final Bets: white - 17 bets for 14,206G (72.7%, x0.38); black - 12 bets for 5,346G (27.3%, x2.66)

white bets:
Virilikus: 5,000G (35.2%, 153,195G)
Thyrandaal: 3,456G (24.3%, 51,958G)
docmitchphd: 1,338G (9.4%, 1,338G)
EnemyController: 1,000G (7.0%, 604,697G)
Baron_von_Scrub: 653G (4.6%, 653G)
cam_ATS: 500G (3.5%, 22,172G)
killth3kid: 440G (3.1%, 440G)
TheChainNerd: 436G (3.1%, 436G)
gorgewall: 301G (2.1%, 22,716G)
butterbelljedi: 225G (1.6%, 225G)
CosmicTactician: 200G (1.4%, 6,721G)
AllInBot: 157G (1.1%, 157G)
BStarTV: 150G (1.1%, 1,337G)
maakur_: 100G (0.7%, 24,135G)
ko2q: 100G (0.7%, 3,795G)
datadrivenbot: 100G (0.7%, 42,887G)
cougboi: 50G (0.4%, 20,601G)

black bets:
sinnyil2: 1,249G (23.4%, 1,249G)
BirbBrainsBot: 840G (15.7%, 53,634G)
OneHundredFists: 784G (14.7%, 784G)
Nizaha: 501G (9.4%, 35,270G)
evontno: 500G (9.4%, 2,059G)
getthemoneyz: 372G (7.0%, 962,115G)
Flameatron: 300G (5.6%, 11,868G)
ZCKaiser: 200G (3.7%, 1,593G)
Grandlanzer: 200G (3.7%, 7,340G)
nekojin: 200G (3.7%, 2,524G)
JRHiga: 100G (1.9%, 1,204G)
twelfthrootoftwo: 100G (1.9%, 2,094G)
