Final Bets: red - 14 bets for 5,297G (48.7%, x1.05); purple - 10 bets for 5,570G (51.3%, x0.95)

red bets:
BirbBrainsBot: 1,000G (18.9%, 83,938G)
JumbocactuarX27: 1,000G (18.9%, 6,252G)
DavenIII: 550G (10.4%, 8,192G)
Miyokari: 500G (9.4%, 799G)
benticore: 449G (8.5%, 449G)
TheChainNerd: 432G (8.2%, 432G)
LivingHitokiri: 304G (5.7%, 304G)
dogsandcatsand: 224G (4.2%, 224G)
404namesnotfound: 220G (4.2%, 220G)
mannequ1n: 208G (3.9%, 208G)
getthemoneyz: 110G (2.1%, 643,046G)
nifboy: 100G (1.9%, 989G)
datadrivenbot: 100G (1.9%, 12,472G)
bahamutlagooon: 100G (1.9%, 5,173G)

purple bets:
LDSkinny: 1,000G (18.0%, 22,344G)
hydroshade: 1,000G (18.0%, 13,564G)
ungabunga_bot: 1,000G (18.0%, 405,466G)
jwchapm: 788G (14.1%, 788G)
sinnyil2: 676G (12.1%, 676G)
ZephyrTempest: 456G (8.2%, 1,725G)
Eyepoor_: 250G (4.5%, 4,723G)
Estan_AD: 250G (4.5%, 2,840G)
maakur_: 100G (1.8%, 123,121G)
DrAntiSocial: 50G (0.9%, 8,520G)
