Final Bets: green - 16 bets for 10,656G (69.5%, x0.44); black - 7 bets for 4,677G (30.5%, x2.28)

green bets:
DaveStrider55: 2,266G (21.3%, 2,266G)
Dexsana: 1,205G (11.3%, 1,205G)
PatSouI: 1,000G (9.4%, 35,750G)
ungabunga_bot: 1,000G (9.4%, 360,188G)
leakimiko: 1,000G (9.4%, 13,963G)
BirbBrainsBot: 1,000G (9.4%, 75,311G)
FNCardascia_: 815G (7.6%, 815G)
Error72: 606G (5.7%, 606G)
getthemoneyz: 424G (4.0%, 635,513G)
Rislyeu: 400G (3.8%, 1,269G)
Cataphract116: 250G (2.3%, 23,517G)
ibrakadabra_legend: 200G (1.9%, 10,194G)
ar_tactic: 150G (1.4%, 31,960G)
Practice_Pad: 140G (1.3%, 140G)
Jeeboheebo: 100G (0.9%, 13,856G)
datadrivenbot: 100G (0.9%, 10,848G)

black bets:
rechaun: 2,220G (47.5%, 2,220G)
megaman2202: 941G (20.1%, 941G)
HaplessOne: 666G (14.2%, 36,635G)
Eyepoor_: 450G (9.6%, 4,405G)
twelfthrootoftwo: 200G (4.3%, 1,112G)
RionDoesThings: 100G (2.1%, 1,549G)
belife42: 100G (2.1%, 1,058G)
