Final Bets: red - 25 bets for 9,751G (58.7%, x0.70); champion - 12 bets for 6,863G (41.3%, x1.42)

red bets:
Thyrandaal: 2,000G (20.5%, 146,147G)
reinoe: 1,000G (10.3%, 73,111G)
E_Ballard: 796G (8.2%, 53,479G)
dogsandcatsand: 703G (7.2%, 4,703G)
Tarheels218: 641G (6.6%, 641G)
killth3kid: 552G (5.7%, 2,338G)
latebit: 512G (5.3%, 512G)
mattcorn7: 426G (4.4%, 426G)
skipsandwiches: 384G (3.9%, 4,616G)
roqqqpsi: 331G (3.4%, 420G)
KasugaiRoastedPeas: 300G (3.1%, 9,744G)
CosmicTactician: 300G (3.1%, 45,184G)
Breakdown777: 248G (2.5%, 248G)
Runeseeker22: 228G (2.3%, 1,839G)
datadrivenbot: 200G (2.1%, 58,896G)
ar_tactic: 150G (1.5%, 79,275G)
WesSideVandal: 132G (1.4%, 132G)
Lydian_C: 123G (1.3%, 11,463G)
krombobreaker: 116G (1.2%, 116G)
VolgraTheMoose: 105G (1.1%, 24,937G)
Verathis: 104G (1.1%, 104G)
AllInBot: 100G (1.0%, 100G)
Aldrammech: 100G (1.0%, 16,432G)
Leonidusx: 100G (1.0%, 9,812G)
Vultuous: 100G (1.0%, 3,323G)

champion bets:
JumbocactuarX27: 1,452G (21.2%, 1,452G)
BirbBrainsBot: 1,000G (14.6%, 131,093G)
AbandonedHall: 916G (13.3%, 916G)
Zeroroute: 870G (12.7%, 4,584G)
ShintaroNayaka: 864G (12.6%, 864G)
Nizaha: 776G (11.3%, 27,489G)
Carledo: 333G (4.9%, 76,914G)
katsupdog: 200G (2.9%, 200G)
getthemoneyz: 152G (2.2%, 1,775,584G)
ko2q: 100G (1.5%, 16,246G)
nifboy: 100G (1.5%, 1,859G)
butterbelljedi: 100G (1.5%, 852G)
