Final Bets: red - 12 bets for 17,935G (75.6%, x0.32); blue - 18 bets for 5,789G (24.4%, x3.10)

red bets:
PatSouI: 11,691G (65.2%, 23,382G)
HaplessOne: 1,500G (8.4%, 82,092G)
mirapoix: 1,373G (7.7%, 2,746G)
Zetchryn: 1,000G (5.6%, 15,434G)
leakimiko: 815G (4.5%, 815G)
deenglow: 500G (2.8%, 30,000G)
CassiePhoenix: 348G (1.9%, 348G)
jhazor: 228G (1.3%, 228G)
Mandoragan: 147G (0.8%, 147G)
datadrivenbot: 133G (0.7%, 134G)
Tithonus: 100G (0.6%, 4,523G)
ungabunga_bot: 100G (0.6%, 161,531G)

blue bets:
rocl: 1,000G (17.3%, 48,166G)
BirbBrainsBot: 1,000G (17.3%, 192,739G)
HASTERIOUS: 527G (9.1%, 527G)
DeathTaxesAndAnime: 514G (8.9%, 514G)
Willjin: 500G (8.6%, 10,492G)
rechaun: 336G (5.8%, 336G)
Lanshaft: 300G (5.2%, 910G)
Anox_Skell: 204G (3.5%, 204G)
Goust18: 200G (3.5%, 11,603G)
Cataphract116: 200G (3.5%, 6,809G)
madman66666: 200G (3.5%, 1,728G)
getthemoneyz: 176G (3.0%, 500,872G)
brenogarwin: 116G (2.0%, 116G)
Tekenu: 112G (1.9%, 112G)
SpookyCookieMonster: 104G (1.8%, 104G)
Dexsana: 100G (1.7%, 3,444G)
Treapvort: 100G (1.7%, 1,802G)
Evewho: 100G (1.7%, 2,350G)
