Final Bets: red - 12 bets for 14,944G (59.7%, x0.68); blue - 12 bets for 10,102G (40.3%, x1.48)

red bets:
prince_rogers_nelson_: 6,117G (40.9%, 6,117G)
reinoe: 2,000G (13.4%, 62,512G)
Shalloween: 2,000G (13.4%, 110,326G)
DeathTaxesAndAnime: 1,216G (8.1%, 1,216G)
BirbBrainsBot: 1,000G (6.7%, 191,427G)
WitchHunterIX: 1,000G (6.7%, 21,828G)
superdevon1: 524G (3.5%, 10,484G)
porkchop5158: 500G (3.3%, 35,962G)
gorgewall: 201G (1.3%, 5,251G)
getthemoneyz: 186G (1.2%, 1,305,916G)
moonliquor: 100G (0.7%, 21,468G)
CT_5_Holy: 100G (0.7%, 6,004G)

blue bets:
HaateXIII: 3,418G (33.8%, 3,418G)
SkylerBunny: 3,000G (29.7%, 46,735G)
pandasforsale: 999G (9.9%, 28,966G)
JLinkletter: 796G (7.9%, 796G)
roofiepops: 468G (4.6%, 468G)
Cryptopsy70: 300G (3.0%, 304G)
benticore: 250G (2.5%, 21,151G)
Lythe_Caraker: 250G (2.5%, 142,899G)
AllInBot: 200G (2.0%, 200G)
datadrivenbot: 200G (2.0%, 29,495G)
Lydian_C: 121G (1.2%, 73,015G)
nifboy: 100G (1.0%, 4,121G)
