Final Bets: blue - 10 bets for 6,520G (25.6%, x2.91); green - 13 bets for 18,981G (74.4%, x0.34)

blue bets:
DeathTaxesAndAnime: 1,197G (18.4%, 1,197G)
BirbBrainsBot: 1,000G (15.3%, 189,302G)
Shalloween: 1,000G (15.3%, 106,538G)
twelfthrootoftwo: 918G (14.1%, 918G)
Firesheath: 823G (12.6%, 823G)
Smokegiant: 500G (7.7%, 6,946G)
amiture: 500G (7.7%, 804G)
getthemoneyz: 382G (5.9%, 1,305,081G)
nifboy: 100G (1.5%, 4,309G)
furrytomahawkk: 100G (1.5%, 476G)

green bets:
HaateXIII: 11,908G (62.7%, 11,908G)
SkylerBunny: 3,500G (18.4%, 56,268G)
superdevon1: 551G (2.9%, 11,039G)
jquantho: 500G (2.6%, 1,745G)
loveyouallfriends: 500G (2.6%, 9,811G)
JLinkletter: 468G (2.5%, 468G)
prince_rogers_nelson_: 424G (2.2%, 424G)
AllInBot: 340G (1.8%, 340G)
Cryptopsy70: 300G (1.6%, 304G)
datadrivenbot: 200G (1.1%, 29,812G)
Lydian_C: 121G (0.6%, 74,654G)
moonliquor: 100G (0.5%, 20,864G)
dtrain332: 69G (0.4%, 136G)
