Final Bets: white - 11 bets for 9,934G (60.5%, x0.65); brown - 11 bets for 6,478G (39.5%, x1.53)

white bets:
Lydian_C: 4,200G (42.3%, 74,696G)
SkylerBunny: 3,000G (30.2%, 57,470G)
superdevon1: 561G (5.6%, 11,232G)
twelfthrootoftwo: 544G (5.5%, 544G)
Firesheath: 484G (4.9%, 484G)
furrytomahawkk: 376G (3.8%, 376G)
BoneMiser: 304G (3.1%, 304G)
datadrivenbot: 200G (2.0%, 29,881G)
dtrain332: 160G (1.6%, 160G)
nifboy: 100G (1.0%, 4,209G)
moonliquor: 5G (0.1%, 20,902G)

brown bets:
jquantho: 1,917G (29.6%, 1,917G)
BirbBrainsBot: 889G (13.7%, 188,302G)
DeathTaxesAndAnime: 704G (10.9%, 704G)
JLinkletter: 629G (9.7%, 629G)
prince_rogers_nelson_: 570G (8.8%, 570G)
Smokegiant: 500G (7.7%, 6,446G)
AllInBot: 457G (7.1%, 457G)
Cryptopsy70: 300G (4.6%, 407G)
nekojin: 250G (3.9%, 6,126G)
getthemoneyz: 162G (2.5%, 1,304,699G)
loveyouallfriends: 100G (1.5%, 9,983G)
