Final Bets: red - 28 bets for 16,850G (63.7%, x0.57); blue - 11 bets for 9,609G (36.3%, x1.75)

red bets:
Zeroroute: 1,740G (10.3%, 5,614G)
Zerguzen: 1,449G (8.6%, 1,449G)
bigbongsmoker: 1,312G (7.8%, 1,312G)
RunicMagus: 1,020G (6.1%, 17,206G)
krombobreaker: 1,000G (5.9%, 28,827G)
BirbBrainsBot: 1,000G (5.9%, 27,783G)
Shalloween: 1,000G (5.9%, 8,234G)
Reddash9: 927G (5.5%, 927G)
FriendSquirrel: 904G (5.4%, 904G)
Snowfats: 846G (5.0%, 846G)
killth3kid: 764G (4.5%, 33,834G)
Zagorsek: 616G (3.7%, 616G)
helpimabug: 550G (3.3%, 1,100G)
ExplanationMarkWow: 500G (3.0%, 16,330G)
resjudicata3: 480G (2.8%, 480G)
run_with_stone_GUNs: 472G (2.8%, 13,500G)
SephDarkheart: 424G (2.5%, 3,802G)
Genkidou: 400G (2.4%, 3,259G)
ColetteMSLP: 300G (1.8%, 3,143G)
Einswolf: 200G (1.2%, 200G)
datadrivenbot: 200G (1.2%, 78,676G)
getthemoneyz: 168G (1.0%, 2,093,782G)
bufuman: 116G (0.7%, 116G)
hecsec: 108G (0.6%, 108G)
ShreddySpaghetti: 104G (0.6%, 104G)
Sharosa: 100G (0.6%, 1,661G)
latebit: 100G (0.6%, 35,239G)
TheBrett: 50G (0.3%, 2,528G)

blue bets:
randgridr: 3,482G (36.2%, 6,965G)
Lord_Gwarth: 1,239G (12.9%, 1,239G)
E_Ballard: 1,000G (10.4%, 1,000G)
escobro: 1,000G (10.4%, 3,169G)
Laserman1000: 900G (9.4%, 9,600G)
Willjin: 700G (7.3%, 38,871G)
AllInBot: 492G (5.1%, 492G)
baumgrattler: 246G (2.6%, 246G)
ANFz: 200G (2.1%, 2,326G)
silentkaster: 200G (2.1%, 23,849G)
CorpusCav: 150G (1.6%, 6,245G)
