Final Bets: green - 18 bets for 10,737G (43.4%, x1.31); yellow - 19 bets for 14,016G (56.6%, x0.77)

green bets:
gooseyourself: 5,000G (46.6%, 86,833G)
krombobreaker: 1,000G (9.3%, 27,827G)
Zeroroute: 968G (9.0%, 3,874G)
silentkaster: 750G (7.0%, 24,200G)
sireaulou: 500G (4.7%, 1,067G)
FriendSquirrel: 408G (3.8%, 408G)
Snowfats: 344G (3.2%, 344G)
Zerguzen: 284G (2.6%, 284G)
Demon_Lord_Josh: 246G (2.3%, 246G)
Reddash9: 204G (1.9%, 204G)
Einswolf: 200G (1.9%, 200G)
datadrivenbot: 200G (1.9%, 78,476G)
bufuman: 116G (1.1%, 116G)
hecsec: 108G (1.0%, 108G)
ShreddySpaghetti: 104G (1.0%, 104G)
getthemoneyz: 104G (1.0%, 2,093,614G)
gorgewall: 101G (0.9%, 3,356G)
latebit: 100G (0.9%, 35,139G)

yellow bets:
Thyrandaal: 5,000G (35.7%, 257,248G)
AllInBot: 1,355G (9.7%, 1,355G)
BirbBrainsBot: 1,000G (7.1%, 26,783G)
Shalloween: 1,000G (7.1%, 7,234G)
killth3kid: 764G (5.5%, 33,070G)
MemoriesofFinal: 715G (5.1%, 715G)
helpimabug: 550G (3.9%, 550G)
ExplanationMarkWow: 500G (3.6%, 15,830G)
Spartan_Paladin: 500G (3.6%, 4,000G)
Lord_Gwarth: 500G (3.6%, 3,412G)
escobro: 500G (3.6%, 4,923G)
run_with_stone_GUNs: 472G (3.4%, 12,981G)
SephDarkheart: 424G (3.0%, 3,378G)
iBluntDouble: 220G (1.6%, 220G)
MoonSugarFiend: 116G (0.8%, 1,047G)
Sharosa: 100G (0.7%, 1,561G)
TheBrett: 100G (0.7%, 2,478G)
NicoSavoy: 100G (0.7%, 51,530G)
baumgrattler: 100G (0.7%, 677G)
