Final Bets: black - 11 bets for 20,532G (66.8%, x0.50); purple - 24 bets for 10,189G (33.2%, x2.02)

black bets:
fattunaking: 5,902G (28.7%, 5,902G)
latebit: 5,146G (25.1%, 34,309G)
Thyrandaal: 5,000G (24.4%, 258,633G)
ExplanationMarkWow: 1,000G (4.9%, 17,169G)
resjudicata3: 984G (4.8%, 984G)
killth3kid: 764G (3.7%, 32,517G)
dogsandcatsand: 752G (3.7%, 11,064G)
silentkaster: 400G (1.9%, 24,007G)
Zerguzen: 284G (1.4%, 284G)
datadrivenbot: 200G (1.0%, 78,658G)
ShreddySpaghetti: 100G (0.5%, 213G)

purple bets:
nhammen: 2,000G (19.6%, 30,661G)
BirbBrainsBot: 1,000G (9.8%, 28,634G)
krombobreaker: 1,000G (9.8%, 28,738G)
CorpusCav: 600G (5.9%, 7,292G)
Willjin: 600G (5.9%, 38,898G)
AllInBot: 553G (5.4%, 553G)
Laserman1000: 500G (4.9%, 11,653G)
Lord_Gwarth: 500G (4.9%, 4,120G)
hecsec: 451G (4.4%, 451G)
Zeroroute: 436G (4.3%, 436G)
getthemoneyz: 310G (3.0%, 2,093,617G)
Spartan_Paladin: 300G (2.9%, 6,108G)
helpimabug: 280G (2.7%, 1,991G)
bufuman: 238G (2.3%, 238G)
Reddash9: 204G (2.0%, 204G)
Einswolf: 200G (2.0%, 200G)
Shalloween: 200G (2.0%, 9,561G)
rNdOrchestra: 176G (1.7%, 1,850G)
Riley331: 124G (1.2%, 124G)
MoonSugarFiend: 116G (1.1%, 1,177G)
gorgewall: 101G (1.0%, 3,413G)
Demon_Lord_Josh: 100G (1.0%, 100G)
Sharosa: 100G (1.0%, 1,689G)
baumgrattler: 100G (1.0%, 917G)
