Final Bets: white - 13 bets for 10,378G (54.4%, x0.84); black - 15 bets for 8,696G (45.6%, x1.19)

white bets:
YaBoy125: 2,015G (19.4%, 2,015G)
red__lancer: 2,000G (19.3%, 87,330G)
BirbBrainsBot: 1,000G (9.6%, 170,997G)
flowinprose: 1,000G (9.6%, 85,366G)
prince_rogers_nelson_: 1,000G (9.6%, 8,341G)
OneHundredFists: 793G (7.6%, 1,792G)
superdevon1: 734G (7.1%, 7,343G)
Sairentozon7: 592G (5.7%, 592G)
evdoggity: 500G (4.8%, 23,544G)
ThePineappleSalesman: 400G (3.9%, 400G)
dinin991: 124G (1.2%, 124G)
alterworlds: 120G (1.2%, 120G)
Ring_Wyrm: 100G (1.0%, 532G)

black bets:
HaateXIII: 2,271G (26.1%, 4,542G)
SkylerBunny: 2,000G (23.0%, 115,497G)
cogniv0r3: 1,895G (21.8%, 1,895G)
Dymntd: 500G (5.7%, 35,667G)
Rytor: 500G (5.7%, 2,665G)
pandasforsale: 332G (3.8%, 332G)
thenextlantern: 228G (2.6%, 228G)
serperemagus: 228G (2.6%, 228G)
getthemoneyz: 122G (1.4%, 840,828G)
nhammen: 120G (1.4%, 120G)
Celdia: 100G (1.1%, 3,674G)
DeathTaxesAndAnime: 100G (1.1%, 2,112G)
E_Ballard: 100G (1.1%, 3,054G)
datadrivenbot: 100G (1.1%, 35,794G)
Grandlanzer: 100G (1.1%, 3,768G)
