Final Bets: green - 12 bets for 14,901G (52.9%, x0.89); yellow - 24 bets for 13,270G (47.1%, x1.12)

green bets:
E_Ballard: 5,158G (34.6%, 5,158G)
ApplesNP: 3,000G (20.1%, 8,132G)
skillomono: 1,514G (10.2%, 3,029G)
SeniorBunk: 1,500G (10.1%, 123,681G)
Demon_Lord_Josh: 736G (4.9%, 736G)
Sairentozon7: 688G (4.6%, 688G)
nifboy: 608G (4.1%, 608G)
krombobreaker: 500G (3.4%, 33,145G)
JonnyCue: 496G (3.3%, 7,464G)
murderclan: 300G (2.0%, 666G)
gorgewall: 201G (1.3%, 8,143G)
NicoSavoy: 200G (1.3%, 176,559G)

yellow bets:
CorpusCav: 2,000G (15.1%, 116,817G)
Mushufasa_: 1,234G (9.3%, 37,269G)
evontno: 1,141G (8.6%, 1,141G)
DeathTaxesAndAnime: 1,111G (8.4%, 12,639G)
BirbBrainsBot: 1,000G (7.5%, 78,800G)
HorusTaurus: 1,000G (7.5%, 2,054G)
ExplanationMarkWow: 768G (5.8%, 22,768G)
mirapoix: 552G (4.2%, 552G)
getthemoneyz: 536G (4.0%, 2,212,625G)
Breakdown777: 500G (3.8%, 1,252G)
tinytittyfiend: 500G (3.8%, 2,842G)
squideater_: 500G (3.8%, 8,147G)
Lord_Gwarth: 500G (3.8%, 6,712G)
DarrenDinosaurs: 328G (2.5%, 328G)
MrJamDango: 300G (2.3%, 4,671G)
AllInBot: 200G (1.5%, 200G)
datadrivenbot: 200G (1.5%, 86,188G)
DocZombiee: 200G (1.5%, 535G)
xXTysongXx: 200G (1.5%, 204G)
lygg_mubblez: 100G (0.8%, 100G)
TheBrett: 100G (0.8%, 30,822G)
FuzzyTigers: 100G (0.8%, 1,530G)
king_smashington: 100G (0.8%, 2,637G)
ANFz: 100G (0.8%, 8,368G)
