Final Bets: red - 16 bets for 8,104G (48.9%, x1.05); blue - 10 bets for 8,470G (51.1%, x0.96)

red bets:
RunicMagus: 2,000G (24.7%, 71,098G)
SkylerBunny: 1,150G (14.2%, 1,150G)
killth3kid: 1,011G (12.5%, 101,165G)
BirbBrainsBot: 1,000G (12.3%, 172,597G)
Digitalsocrates: 740G (9.1%, 740G)
MagicBottle: 488G (6.0%, 15,494G)
Shalloween: 300G (3.7%, 65,353G)
phoenix6107: 273G (3.4%, 1,093G)
DustBirdEX: 234G (2.9%, 3,678G)
KasugaiRoastedPeas: 200G (2.5%, 17,303G)
DaKoopa49: 200G (2.5%, 1,153G)
getthemoneyz: 108G (1.3%, 1,166,643G)
nifboy: 100G (1.2%, 5,362G)
RampagingRobot: 100G (1.2%, 2,109G)
fluffskull: 100G (1.2%, 3,544G)
Grandlanzer: 100G (1.2%, 48,608G)

blue bets:
DeathTaxesAndAnime: 3,646G (43.0%, 7,150G)
LanseDM: 2,600G (30.7%, 2,600G)
gorgewall: 1,244G (14.7%, 1,244G)
prince_rogers_nelson_: 308G (3.6%, 308G)
RageImmortaI: 172G (2.0%, 172G)
nhammen: 100G (1.2%, 10,173G)
Miku_Shikhu: 100G (1.2%, 17,782G)
alekzanndrr: 100G (1.2%, 216G)
Ring_Wyrm: 100G (1.2%, 795G)
ChaoreLance: 100G (1.2%, 3,692G)
