Final Bets: purple - 20 bets for 11,618G (43.2%, x1.32); brown - 8 bets for 15,279G (56.8%, x0.76)

purple bets:
DeathTaxesAndAnime: 2,476G (21.3%, 4,855G)
nifboy: 1,577G (13.6%, 1,577G)
MMagnetMan: 1,136G (9.8%, 1,136G)
getthemoneyz: 930G (8.0%, 1,556,536G)
Nizaha: 688G (5.9%, 21,481G)
oldmanbody: 679G (5.8%, 679G)
KasugaiRoastedPeas: 668G (5.7%, 668G)
JonnyCue: 623G (5.4%, 623G)
DesertWooder: 500G (4.3%, 2,451G)
Smashy: 376G (3.2%, 5,289G)
ArashiKurobara: 372G (3.2%, 3,784G)
foxfaeez: 327G (2.8%, 327G)
Lumberinjack: 300G (2.6%, 5,129G)
Lord_Gwarth: 250G (2.2%, 3,512G)
Scurg: 216G (1.9%, 216G)
coralreeferz: 150G (1.3%, 22,495G)
CosmicTactician: 100G (0.9%, 5,487G)
actual_JP: 100G (0.9%, 3,584G)
Firesheath: 100G (0.9%, 23,859G)
DouglasDragonThePoet: 50G (0.4%, 2,109G)

brown bets:
MrFlabyo: 10,000G (65.4%, 278,940G)
BirbBrainsBot: 1,000G (6.5%, 47,384G)
nhammen: 1,000G (6.5%, 204,523G)
Thyrandaal: 1,000G (6.5%, 178,688G)
DavenIII: 960G (6.3%, 1,921G)
AllInBot: 629G (4.1%, 629G)
E_Ballard: 540G (3.5%, 540G)
holdenmagronik: 150G (1.0%, 2,526G)
