Final Bets: white - 25 bets for 10,179G (47.8%, x1.09); brown - 4 bets for 11,112G (52.2%, x0.92)

white bets:
flacococo: 1,478G (14.5%, 1,478G)
DeathTaxesAndAnime: 1,166G (11.5%, 1,166G)
BirbBrainsBot: 1,000G (9.8%, 49,122G)
DavenIII: 795G (7.8%, 2,651G)
killth3kid: 636G (6.2%, 994G)
nifboy: 552G (5.4%, 552G)
oldmanbody: 427G (4.2%, 427G)
Rytor: 420G (4.1%, 420G)
amsans1247: 411G (4.0%, 411G)
Smashy: 376G (3.7%, 4,537G)
captainmilestw: 314G (3.1%, 314G)
CapnChaos12: 300G (2.9%, 12,293G)
Lumberinjack: 300G (2.9%, 3,829G)
coralreeferz: 250G (2.5%, 21,095G)
Lord_Gwarth: 250G (2.5%, 3,433G)
Scurg: 216G (2.1%, 216G)
AllInBot: 200G (2.0%, 200G)
CosmicTactician: 200G (2.0%, 5,287G)
holdenmagronik: 150G (1.5%, 2,787G)
DesertWooder: 150G (1.5%, 1,551G)
MMagnetMan: 132G (1.3%, 132G)
JonnyCue: 128G (1.3%, 128G)
getthemoneyz: 124G (1.2%, 1,555,210G)
foxfaeez: 104G (1.0%, 104G)
DouglasDragonThePoet: 100G (1.0%, 1,959G)

brown bets:
MrFlabyo: 10,000G (90.0%, 289,478G)
latebit: 524G (4.7%, 1,029G)
SephDarkheart: 488G (4.4%, 26,194G)
nhammen: 100G (0.9%, 206,261G)
