Final Bets: blue - 23 bets for 17,146G (41.4%, x1.42); black - 17 bets for 24,268G (58.6%, x0.71)

blue bets:
EnemyController: 2,222G (13.0%, 1,798,811G)
holdenmagronik: 1,601G (9.3%, 1,601G)
Nizaha: 1,541G (9.0%, 6,166G)
JonnyCue: 1,011G (5.9%, 1,011G)
pplvee1: 1,005G (5.9%, 36,996G)
BirbBrainsBot: 1,000G (5.8%, 115,178G)
Lord_Gwarth: 1,000G (5.8%, 2,393G)
Sairentozon7: 1,000G (5.8%, 24,861G)
killth3kid: 788G (4.6%, 43,438G)
dogsandcatsand: 784G (4.6%, 784G)
xGlaive: 743G (4.3%, 1,487G)
fenaen: 648G (3.8%, 12,122G)
Laserman1000: 500G (2.9%, 5,400G)
SQUiDSQUARKLIN: 500G (2.9%, 10,039G)
krombobreaker: 500G (2.9%, 16,172G)
ValensEXP_: 428G (2.5%, 428G)
DavenIII: 400G (2.3%, 400G)
lotharek: 400G (2.3%, 1,190G)
Smugzug: 328G (1.9%, 2,807G)
getthemoneyz: 240G (1.4%, 2,116,979G)
TheBrett: 232G (1.4%, 232G)
AbandonedHall: 152G (0.9%, 152G)
Lydian_C: 123G (0.7%, 3,389G)

black bets:
E_Ballard: 15,848G (65.3%, 15,848G)
KinniQuacks: 1,500G (6.2%, 7,374G)
AllInBot: 1,071G (4.4%, 1,071G)
RunicMagus: 1,020G (4.2%, 30,533G)
nifboy: 868G (3.6%, 3,151G)
DLJuggernaut: 616G (2.5%, 616G)
mirapoix: 504G (2.1%, 504G)
CosmicTactician: 500G (2.1%, 36,553G)
joewcarson: 500G (2.1%, 17,056G)
DHaveWord: 468G (1.9%, 468G)
DuPlatypus: 300G (1.2%, 895G)
PopsLIVE: 236G (1.0%, 236G)
TakzSeason: 233G (1.0%, 233G)
mizzmoonshine: 204G (0.8%, 204G)
datadrivenbot: 200G (0.8%, 78,940G)
maakur_: 100G (0.4%, 1,384G)
wiznaibusthis: 100G (0.4%, 746G)
