Final Bets: red - 12 bets for 20,875G (76.7%, x0.30); blue - 12 bets for 6,347G (23.3%, x3.29)

red bets:
Lydian_C: 9,981G (47.8%, 9,981G)
VynxYukida: 4,000G (19.2%, 10,231G)
UmaiJam: 2,000G (9.6%, 10,029G)
Jeeboheebo: 1,216G (5.8%, 1,216G)
Zetchryn: 1,000G (4.8%, 4,440G)
TheChainNerd: 1,000G (4.8%, 21,361G)
run_with_stone_GUNs: 500G (2.4%, 9,219G)
ShintaroNayaka: 400G (1.9%, 3,376G)
LeoNightFury: 252G (1.2%, 252G)
lanouh: 225G (1.1%, 225G)
gorgewall: 201G (1.0%, 20,756G)
datadrivenbot: 100G (0.5%, 25,512G)

blue bets:
DavenIII: 2,395G (37.7%, 2,395G)
BirbBrainsBot: 1,000G (15.8%, 13,242G)
YaBoy125: 785G (12.4%, 785G)
Nelrith: 396G (6.2%, 396G)
LivingHitokiri: 364G (5.7%, 364G)
letdowncity: 300G (4.7%, 8,944G)
getthemoneyz: 230G (3.6%, 746,808G)
AllInBot: 217G (3.4%, 217G)
gogofromtogo: 200G (3.2%, 468G)
cloud92684: 200G (3.2%, 10,226G)
serperemagus: 160G (2.5%, 160G)
RunicMagus: 100G (1.6%, 29,464G)
