Final Bets: white - 13 bets for 23,431G (69.5%, x0.44); black - 15 bets for 10,306G (30.5%, x2.27)

white bets:
Lydian_C: 18,206G (77.7%, 18,206G)
NIghtdew14: 1,500G (6.4%, 10,077G)
TheChainNerd: 1,328G (5.7%, 22,328G)
cloud92684: 500G (2.1%, 9,526G)
LeoNightFury: 460G (2.0%, 460G)
YaBoy125: 448G (1.9%, 448G)
CosmicTactician: 300G (1.3%, 12,215G)
TeaTime29: 200G (0.9%, 1,819G)
serperemagus: 160G (0.7%, 160G)
lanouh: 104G (0.4%, 104G)
AllInBot: 100G (0.4%, 100G)
Nelrith: 100G (0.4%, 100G)
zepharoth89: 25G (0.1%, 1,175G)

black bets:
E_Ballard: 1,424G (13.8%, 1,424G)
GeeGXP: 1,183G (11.5%, 1,183G)
Zetchryn: 1,000G (9.7%, 5,142G)
Sharosa: 1,000G (9.7%, 1,398G)
BirbBrainsBot: 1,000G (9.7%, 11,242G)
getthemoneyz: 1,000G (9.7%, 746,078G)
RunicMagus: 800G (7.8%, 29,364G)
VynxYukida: 800G (7.8%, 12,084G)
LivingHitokiri: 509G (4.9%, 509G)
Baron_von_Scrub: 474G (4.6%, 16,287G)
FriendSquirrel: 404G (3.9%, 404G)
letdowncity: 300G (2.9%, 8,344G)
gogofromtogo: 212G (2.1%, 212G)
MoonChow: 100G (1.0%, 100G)
datadrivenbot: 100G (1.0%, 25,442G)
