Final Bets: green - 13 bets for 11,484G (60.6%, x0.65); black - 14 bets for 7,452G (39.4%, x1.54)

green bets:
noopockets: 5,063G (44.1%, 5,063G)
VynxYukida: 1,600G (13.9%, 15,028G)
Sharosa: 1,000G (8.7%, 6,749G)
BirbBrainsBot: 1,000G (8.7%, 13,408G)
twelfthrootoftwo: 1,000G (8.7%, 36,010G)
GeeGXP: 500G (4.4%, 4,089G)
Lydian_C: 420G (3.7%, 2,842G)
letdowncity: 300G (2.6%, 9,381G)
Nelrith: 189G (1.6%, 189G)
getthemoneyz: 108G (0.9%, 749,050G)
KyleWonToLiveForever: 104G (0.9%, 104G)
AllInBot: 100G (0.9%, 100G)
datadrivenbot: 100G (0.9%, 25,730G)

black bets:
Zetchryn: 2,000G (26.8%, 9,206G)
RunicMagus: 1,100G (14.8%, 31,946G)
LeoNightFury: 819G (11.0%, 819G)
E_Ballard: 600G (8.1%, 600G)
DavenIII: 500G (6.7%, 2,664G)
YaBoy125: 448G (6.0%, 448G)
gogofromtogo: 402G (5.4%, 402G)
serperemagus: 303G (4.1%, 303G)
nifboy: 250G (3.4%, 10,561G)
cloud92684: 240G (3.2%, 240G)
gorgewall: 201G (2.7%, 20,358G)
brokenknight201: 200G (2.7%, 951G)
TeaTime29: 200G (2.7%, 2,055G)
zepharoth89: 189G (2.5%, 989G)
