Final Bets: blue - 21 bets for 15,954G (35.0%, x1.86); green - 21 bets for 29,643G (65.0%, x0.54)

blue bets:
Zagorsek: 3,734G (23.4%, 3,734G)
CorpusCav: 1,500G (9.4%, 39,053G)
JayceXIV: 1,410G (8.8%, 1,410G)
nifboy: 1,292G (8.1%, 1,292G)
Mushufasa_: 1,234G (7.7%, 14,101G)
tinytittyfiend: 1,000G (6.3%, 4,483G)
getthemoneyz: 1,000G (6.3%, 2,204,982G)
reinoe: 1,000G (6.3%, 7,647G)
ruleof5: 754G (4.7%, 754G)
WireLord: 688G (4.3%, 688G)
ColetteMSLP: 516G (3.2%, 5,469G)
Demon_Lord_Josh: 400G (2.5%, 8,966G)
rocl: 332G (2.1%, 332G)
Zerguzen: 292G (1.8%, 292G)
datadrivenbot: 200G (1.3%, 83,197G)
FuzzyTigers: 140G (0.9%, 140G)
murderclan: 112G (0.7%, 112G)
CosmicTactician: 100G (0.6%, 2,098G)
MelTorefas: 100G (0.6%, 325G)
verythinice: 100G (0.6%, 953G)
smallboops: 50G (0.3%, 2,218G)

green bets:
OneHundredFists: 7,310G (24.7%, 14,335G)
E_Ballard: 3,864G (13.0%, 3,864G)
AllInBot: 3,506G (11.8%, 3,506G)
Thyrandaal: 2,532G (8.5%, 4,965G)
b0lt: 1,926G (6.5%, 3,852G)
Nizaha: 1,801G (6.1%, 3,603G)
Zeroroute: 1,140G (3.8%, 6,708G)
Evewho: 1,000G (3.4%, 17,194G)
BirbBrainsBot: 1,000G (3.4%, 189,555G)
nhammen: 1,000G (3.4%, 11,071G)
HorusTaurus: 1,000G (3.4%, 16,881G)
dogsandcatsand: 568G (1.9%, 3,246G)
2b_yorha_b: 500G (1.7%, 36,600G)
ExplanationMarkWow: 500G (1.7%, 51,658G)
technominari: 500G (1.7%, 91,705G)
Snowfats: 500G (1.7%, 57,892G)
TheBrett: 308G (1.0%, 17,166G)
tripaplex: 288G (1.0%, 288G)
ValensEXP_: 200G (0.7%, 3,740G)
resjudicata3: 100G (0.3%, 3,129G)
king_smashington: 100G (0.3%, 6,974G)
