Final Bets: blue - 18 bets for 17,671G (54.3%, x0.84); yellow - 24 bets for 14,882G (45.7%, x1.19)

blue bets:
Aldrammech: 7,869G (44.5%, 7,869G)
Jahshine: 4,000G (22.6%, 8,260G)
omegasuspekt: 1,111G (6.3%, 12,264G)
itzover9001: 1,000G (5.7%, 77,291G)
KasugaiRoastedPeas: 600G (3.4%, 600G)
Larkspir: 500G (2.8%, 5,342G)
killth3kid: 312G (1.8%, 22,634G)
gorgewall: 301G (1.7%, 9,313G)
potgodtopdog: 300G (1.7%, 10,304G)
Anethum: 288G (1.6%, 288G)
getthemoneyz: 232G (1.3%, 566,735G)
ewan_e: 208G (1.2%, 208G)
gary_corson: 200G (1.1%, 2,632G)
museofdoom: 200G (1.1%, 800G)
trigger15: 200G (1.1%, 232G)
electric_glass: 150G (0.8%, 1,853G)
TheRylander: 100G (0.6%, 100G)
smurphy000000: 100G (0.6%, 585G)

yellow bets:
Pie108: 2,000G (13.4%, 101,240G)
sinnyil2: 1,700G (11.4%, 91,889G)
Zeroroute: 1,634G (11.0%, 4,595G)
TheMurkGnome: 1,580G (10.6%, 1,580G)
BirbBrainsBot: 1,000G (6.7%, 147,509G)
XalSmellsBad: 1,000G (6.7%, 19,177G)
feDoran: 1,000G (6.7%, 15,130G)
Grimmace45: 500G (3.4%, 2,777G)
MalakoFox: 500G (3.4%, 43,683G)
vorap: 500G (3.4%, 7,083G)
aznwanderor: 500G (3.4%, 8,328G)
EnemyController: 500G (3.4%, 96,147G)
ungabunga_bot: 461G (3.1%, 213,182G)
Sogeki_Dan: 300G (2.0%, 1,554G)
Snoopiku: 250G (1.7%, 3,641G)
SquidgyXom: 244G (1.6%, 244G)
DontBackseatGame: 208G (1.4%, 208G)
whiteonrice: 204G (1.4%, 204G)
duskps: 200G (1.3%, 13,693G)
JoeykinsGaming: 200G (1.3%, 9,800G)
ZephyrTempest: 101G (0.7%, 185,772G)
datadrivenbot: 100G (0.7%, 1,678G)
GarbagePhoenix: 100G (0.7%, 1,182G)
Bojanges: 100G (0.7%, 1,211G)
