Final Bets: green - 16 bets for 9,345G (73.0%, x0.37); yellow - 6 bets for 3,450G (27.0%, x2.71)

green bets:
NicoSavoy: 2,353G (25.2%, 2,353G)
DaveStrider55: 1,218G (13.0%, 1,218G)
FatTunaKing: 1,017G (10.9%, 1,017G)
helpimabug: 862G (9.2%, 1,724G)
resjudicata3: 619G (6.6%, 619G)
randgridr: 500G (5.4%, 8,348G)
Genkidou: 500G (5.4%, 2,586G)
Deeps_one: 500G (5.4%, 3,620G)
bigbongsmoker: 374G (4.0%, 748G)
AllInBot: 366G (3.9%, 366G)
TheBrett: 268G (2.9%, 6,256G)
datadrivenbot: 200G (2.1%, 82,888G)
DirkC_Fenrir84: 200G (2.1%, 2,131G)
Sharosa: 164G (1.8%, 164G)
Chuckolator: 103G (1.1%, 1,098G)
gorgewall: 101G (1.1%, 7,501G)

yellow bets:
BirbBrainsBot: 1,000G (29.0%, 5,969G)
b0lt: 946G (27.4%, 946G)
Zachara: 800G (23.2%, 119,800G)
IaibOaob: 350G (10.1%, 20,539G)
getthemoneyz: 344G (10.0%, 2,140,635G)
placidphoenix: 10G (0.3%, 1,019G)
