Final Bets: green - 7 bets for 2,946G (31.9%, x2.14); purple - 5 bets for 6,294G (68.1%, x0.47)

green bets:
BirbBrainsBot: 997G (33.8%, 54,984G)
ShintaroNayaka: 620G (21.0%, 620G)
maakur_: 620G (21.0%, 620G)
brokenknight201: 300G (10.2%, 978G)
getthemoneyz: 198G (6.7%, 1,187,578G)
AndrewAlexander141: 110G (3.7%, 1,210G)
VolgraTheMoose: 101G (3.4%, 5,347G)

purple bets:
RaIshtar: 3,070G (48.8%, 3,070G)
edgehead62888: 2,000G (31.8%, 12,229G)
Breakdown777: 592G (9.4%, 592G)
Thyrandaal: 532G (8.5%, 532G)
mpghappiness: 100G (1.6%, 4,523G)
