Final Bets: purple - 10 bets for 11,230G (71.5%, x0.40); brown - 10 bets for 4,487G (28.5%, x2.50)

purple bets:
toka222: 3,099G (27.6%, 116,149G)
nhammen: 2,000G (17.8%, 37,710G)
Tarheels218: 1,211G (10.8%, 1,211G)
SeniorBunk: 1,000G (8.9%, 7,327G)
BirbBrainsBot: 1,000G (8.9%, 166,623G)
Drusiform: 1,000G (8.9%, 7,939G)
killth3kid: 732G (6.5%, 22,611G)
SkylerBunny: 732G (6.5%, 732G)
kahjeethaswares: 268G (2.4%, 268G)
AllInBot: 188G (1.7%, 188G)

brown bets:
douchetron: 1,127G (25.1%, 1,127G)
MagicBottle: 1,067G (23.8%, 1,067G)
resjudicata3: 701G (15.6%, 701G)
iBardic: 500G (11.1%, 2,483G)
getthemoneyz: 396G (8.8%, 1,656,211G)
datadrivenbot: 200G (4.5%, 67,352G)
Lifebregin: 188G (4.2%, 188G)
3ngag3: 108G (2.4%, 108G)
ko2q: 100G (2.2%, 2,009G)
Tougou: 100G (2.2%, 3,767G)
