Final Bets: brown - 11 bets for 20,723G (54.1%, x0.85); champion - 18 bets for 17,577G (45.9%, x1.18)

brown bets:
MagicBottle: 9,663G (46.6%, 9,663G)
Tugboat1: 7,786G (37.6%, 7,786G)
BirbBrainsBot: 1,000G (4.8%, 166,826G)
killth3kid: 732G (3.5%, 21,147G)
getthemoneyz: 320G (1.5%, 1,657,244G)
Lifebregin: 317G (1.5%, 1,317G)
lowlf: 308G (1.5%, 308G)
Jaritras: 230G (1.1%, 1,378G)
AllInBot: 167G (0.8%, 167G)
3ngag3: 100G (0.5%, 500G)
nhammen: 100G (0.5%, 38,635G)

champion bets:
sinnyil2: 6,124G (34.8%, 12,248G)
Forkmore: 2,479G (14.1%, 4,862G)
reinoe: 2,000G (11.4%, 222,379G)
SeniorBunk: 1,400G (8.0%, 5,400G)
Shalloween: 1,000G (5.7%, 17,019G)
DLJuggernaut: 815G (4.6%, 815G)
xBizzy: 635G (3.6%, 635G)
douchetron: 600G (3.4%, 600G)
brando84back: 548G (3.1%, 548G)
Treafa: 500G (2.8%, 2,962G)
mrfripps: 500G (2.8%, 4,062G)
Tarheels218: 276G (1.6%, 276G)
datadrivenbot: 200G (1.1%, 67,760G)
nifboy: 100G (0.6%, 4,491G)
ljkio: 100G (0.6%, 1,485G)
Tougou: 100G (0.6%, 3,929G)
iBardic: 100G (0.6%, 5,905G)
B3lial: 100G (0.6%, 104G)
