Final Bets: yellow - 17 bets for 7,161G (61.7%, x0.62); champion - 11 bets for 4,454G (38.3%, x1.61)

yellow bets:
fenaen: 1,815G (25.3%, 1,815G)
BirbBrainsBot: 1,000G (14.0%, 53,688G)
E_Ballard: 1,000G (14.0%, 4,109G)
TheMM42: 651G (9.1%, 651G)
NIghtdew14: 500G (7.0%, 2,227G)
Cryptopsy70: 464G (6.5%, 2,166G)
joewcarson: 300G (4.2%, 6,433G)
SQUiDSQUARKLIN: 300G (4.2%, 1,053G)
nifboy: 250G (3.5%, 17,239G)
gogofromtogo: 200G (2.8%, 1,556G)
GladiatorLupe: 200G (2.8%, 4,928G)
maakur_: 100G (1.4%, 10,363G)
datadrivenbot: 100G (1.4%, 28,287G)
d4rr1n: 100G (1.4%, 6,814G)
mrfripps: 100G (1.4%, 1,192G)
getthemoneyz: 56G (0.8%, 759,805G)
zepharoth89: 25G (0.3%, 3,925G)

champion bets:
EnemyController: 1,000G (22.5%, 437,048G)
Candina: 999G (22.4%, 73,370G)
LivingHitokiri: 500G (11.2%, 4,044G)
volgrathemoose: 500G (11.2%, 1,375G)
FriendSquirrel: 412G (9.3%, 412G)
JumbocactuarX27: 343G (7.7%, 863G)
Xcessive30: 200G (4.5%, 809G)
eudes89: 200G (4.5%, 9,624G)
AllInBot: 100G (2.2%, 100G)
Bongomon7: 100G (2.2%, 5,732G)
CosmicTactician: 100G (2.2%, 3,679G)
