High Risers:
1. Thyrandaal: +38,527G
2. Leonidusx: +38,306G
3. Willjin: +30,476G
4. Pplvee1: +11,835G
5. Dogsandcatsand: +7,697G
6. Onehundredfists: +6,795G
7. Rytor: +4,641G
8. Memoriesoffinal: +4,289G
9. Ruleof5: +3,910G
10. Raixelol: +3,755G
11. Mirapoix: +3,514G
12. J_macc1991: +3,375G
13. Jonomytho: +3,019G
14. Laserman1000: +2,577G
15. Zbgs: +2,456G
16. Anfz: +2,238G
17. Douchetron: +1,736G
18. Krombobreaker: +1,576G
19. Hotpocketsofficial: +1,551G
20. Shadowninja25: +1,545G
21. Roofiepops: +1,496G
22. Rune339: +1,382G
23. Corpuscav: +1,345G
24. Khelor_: +956G
25. Lyner87: +647G
26. Nicosavoy: +642G
27. Asedunu: +444G
28. Tithonus: +415G
29. Evontno: +379G
30. Litarmada: +271G
31. Maakur_: +153G
32. Smashy: +146G
33. Deathtaxesandanime: +21G
34. Archknightx: +4G
35. Grayghostgaming: +4G
36. Johannjfs: -25G
37. Zagorsek: -80G
38. Valensexp_: -99G
39. Soren_of_tyto: -100G
40. Ribbiks: -100G
41. Chuckolator: -103G
42. Silentkaster: -137G
43. Reddwind_: -200G
44. Lowlf: -300G
45. Run_with_stone_guns: -300G
46. Xsifthewolf: -300G
47. Forkmore: -400G
48. Shalloween: -430G
49. Ar_tactic: -450G
50. Nhammen: -509G
51. Gorgewall: -745G
52. Sinnyil2: -815G
53. Jabuamba: -882G
54. Lord_gwarth: -940G
55. Greggernaut: -1,000G
56. And4h: -1,000G
57. Nickyfive: -1,000G
58. Runicmagus: -1,047G
59. Latebit: -2,257G
60. Loveyouallfriends: -5,722G
61. Biske13: -175,365G
