Final Bets: red - 16 bets for 9,642G (64.7%, x0.55); blue - 11 bets for 5,268G (35.3%, x1.83)

red bets:
CorpusCav: 1,056G (11.0%, 1,056G)
Smashy: 1,000G (10.4%, 5,154G)
Zbgs: 1,000G (10.4%, 6,197G)
Willjin: 1,000G (10.4%, 6,153G)
Leonidusx: 1,000G (10.4%, 94,268G)
Laserman1000: 800G (8.3%, 4,900G)
Tithonus: 760G (7.9%, 760G)
J_MacC1991: 505G (5.2%, 505G)
Lord_Gwarth: 500G (5.2%, 1,829G)
getthemoneyz: 470G (4.9%, 1,988,759G)
AllInBot: 353G (3.7%, 353G)
silentkaster: 350G (3.6%, 2,246G)
ValensEXP_: 348G (3.6%, 4,416G)
datadrivenbot: 200G (2.1%, 71,930G)
khelor_: 200G (2.1%, 1,739G)
MemoriesofFinal: 100G (1.0%, 30,031G)

blue bets:
pplvee1: 1,001G (19.0%, 18,418G)
BirbBrainsBot: 1,000G (19.0%, 146,255G)
roofiepops: 704G (13.4%, 704G)
Zagorsek: 682G (12.9%, 682G)
dogsandcatsand: 672G (12.8%, 42,970G)
krombobreaker: 500G (9.5%, 4,575G)
Zerguzen: 260G (4.9%, 260G)
Jonomytho: 161G (3.1%, 161G)
ar_tactic: 150G (2.8%, 98,418G)
johannjfs: 137G (2.6%, 137G)
latebit: 1G (0.0%, 2,781G)
