Final Bets: green - 13 bets for 16,865G (44.9%, x1.23); white - 10 bets for 20,671G (55.1%, x0.82)

green bets:
HaplessOne: 8,796G (52.2%, 11,729G)
LivingHitokiri: 3,000G (17.8%, 166,090G)
Sairentozon7: 1,000G (5.9%, 38,504G)
BirbBrainsBot: 1,000G (5.9%, 132,220G)
DeathTaxesAndAnime: 896G (5.3%, 896G)
getthemoneyz: 664G (3.9%, 2,128,521G)
reddwind_: 488G (2.9%, 488G)
lijarkh: 316G (1.9%, 316G)
resjudicata3: 200G (1.2%, 2,709G)
datadrivenbot: 200G (1.2%, 78,158G)
grimthegameking: 104G (0.6%, 104G)
gorgewall: 101G (0.6%, 12,695G)
GeNoFPaniC: 100G (0.6%, 100G)

white bets:
ApplesNP: 10,000G (48.4%, 85,771G)
AllInBot: 7,973G (38.6%, 7,973G)
iBardic: 631G (3.1%, 631G)
pepperbuster: 562G (2.7%, 30,562G)
Lolthsmeat: 462G (2.2%, 462G)
bigbongsmoker: 396G (1.9%, 3,726G)
heropong: 272G (1.3%, 272G)
LadyCyan: 175G (0.8%, 175G)
xGlaive: 100G (0.5%, 4,988G)
Sharosa: 100G (0.5%, 2,155G)
