Final Bets: white - 24 bets for 65,080G (24.4%, x3.11); brown - 3 bets for 202,127G (75.6%, x0.32)

white bets:
MemoriesofFinal: 10,000G (15.4%, 30,011G)
Willjin: 10,000G (15.4%, 22,715G)
latebit: 6,235G (9.6%, 6,235G)
Sairentozon7: 5,000G (7.7%, 18,580G)
pepperbuster: 5,000G (7.7%, 25,679G)
Lord_Gwarth: 4,851G (7.5%, 4,851G)
Rune339: 3,357G (5.2%, 6,714G)
Phi_Sig: 3,333G (5.1%, 21,814G)
Lyner87: 2,500G (3.8%, 113,988G)
otakutaylor: 2,449G (3.8%, 2,449G)
khelor_: 2,000G (3.1%, 4,813G)
CassiePhoenix: 1,681G (2.6%, 3,363G)
JumbocactuarX27: 1,645G (2.5%, 1,645G)
Error72: 1,001G (1.5%, 30,658G)
RunicMagus: 1,000G (1.5%, 12,146G)
reddwind_: 1,000G (1.5%, 5,204G)
projekt_mike: 1,000G (1.5%, 11,737G)
nok____: 1,000G (1.5%, 5,146G)
powergems: 600G (0.9%, 3,603G)
DustBirdEX: 420G (0.6%, 420G)
bigbongsmoker: 336G (0.5%, 336G)
getthemoneyz: 272G (0.4%, 2,017,621G)
AllInBot: 200G (0.3%, 200G)
datadrivenbot: 200G (0.3%, 72,089G)

brown bets:
BirbBrainsBot: 200,776G (99.3%, 200,776G)
Zachara: 991G (0.5%, 142,991G)
ValensEXP_: 360G (0.2%, 6,356G)
