Final Bets: blue - 18 bets for 21,152G (81.9%, x0.22); yellow - 8 bets for 4,686G (18.1%, x4.51)

blue bets:
lijarkh: 5,137G (24.3%, 5,137G)
thunderducker: 4,000G (18.9%, 14,480G)
ApplesNP: 2,000G (9.5%, 12,548G)
NicoSavoy: 1,702G (8.0%, 1,702G)
reinoe: 1,500G (7.1%, 54,115G)
CorpusCav: 1,034G (4.9%, 34,046G)
TheBrett: 1,000G (4.7%, 4,172G)
sireaulou: 1,000G (4.7%, 4,158G)
Mesmaster: 819G (3.9%, 819G)
Firesheath: 620G (2.9%, 620G)
khelor_: 500G (2.4%, 2,834G)
RikiNom: 422G (2.0%, 422G)
Lolthsmeat: 390G (1.8%, 390G)
scsuperstar: 228G (1.1%, 228G)
AllInBot: 200G (0.9%, 200G)
ValensEXP_: 200G (0.9%, 1,657G)
DeathTaxesAndAnime: 200G (0.9%, 2,445G)
datadrivenbot: 200G (0.9%, 81,466G)

yellow bets:
sinnyil2: 1,200G (25.6%, 183,698G)
BirbBrainsBot: 1,000G (21.3%, 21,811G)
LuckyLuckLuc2: 777G (16.6%, 11,625G)
seppu777: 690G (14.7%, 690G)
Laserman1000: 589G (12.6%, 10,789G)
getthemoneyz: 190G (4.1%, 2,087,266G)
bufuman: 120G (2.6%, 120G)
VynxYukida: 120G (2.6%, 120G)
