Final Bets: black - 15 bets for 13,531G (73.5%, x0.36); purple - 9 bets for 4,886G (26.5%, x2.77)

black bets:
RaIshtar: 4,000G (29.6%, 10,561G)
Thyrandaal: 2,222G (16.4%, 10,025G)
pplvee1: 1,262G (9.3%, 1,262G)
BirbBrainsBot: 1,000G (7.4%, 127,992G)
ShintaroNayaka: 800G (5.9%, 9,276G)
DavenIII: 700G (5.2%, 1,001G)
prince_rogers_nelson_: 604G (4.5%, 604G)
douchetron: 598G (4.4%, 598G)
Chambs12: 555G (4.1%, 555G)
dtrain332: 492G (3.6%, 492G)
DouglasDragonThePoet: 486G (3.6%, 486G)
Smashy: 300G (2.2%, 5,161G)
AllInBot: 200G (1.5%, 200G)
datadrivenbot: 200G (1.5%, 45,484G)
Netmonmatt: 112G (0.8%, 112G)

purple bets:
ColetteMSLP: 1,000G (20.5%, 29,340G)
TheChainNerd: 978G (20.0%, 978G)
randgridr: 938G (19.2%, 6,254G)
getthemoneyz: 904G (18.5%, 1,403,614G)
SephDarkheart: 396G (8.1%, 10,717G)
RyanTheRebs: 236G (4.8%, 236G)
ohhinm: 234G (4.8%, 1,295G)
Bongomon7: 100G (2.0%, 8,121G)
dinin991: 100G (2.0%, 511G)
