Final Bets: red - 8 bets for 8,763G (40.7%, x1.46); purple - 18 bets for 12,774G (59.3%, x0.69)

red bets:
NIghtdew14: 2,500G (28.5%, 31,312G)
UmaiJam: 1,800G (20.5%, 87,893G)
RaIshtar: 1,234G (14.1%, 6,561G)
BirbBrainsBot: 1,000G (11.4%, 126,992G)
TheChainNerd: 921G (10.5%, 3,686G)
prince_rogers_nelson_: 608G (6.9%, 608G)
randgridr: 500G (5.7%, 8,852G)
AllInBot: 200G (2.3%, 200G)

purple bets:
E_Ballard: 4,827G (37.8%, 4,827G)
ColetteMSLP: 1,000G (7.8%, 32,109G)
Smashy: 1,000G (7.8%, 4,861G)
Draconis345: 1,000G (7.8%, 46,112G)
RyanTheRebs: 890G (7.0%, 890G)
dogsandcatsand: 860G (6.7%, 860G)
ShintaroNayaka: 500G (3.9%, 8,476G)
pplvee1: 412G (3.2%, 412G)
SephDarkheart: 396G (3.1%, 11,814G)
douchetron: 344G (2.7%, 344G)
dtrain332: 304G (2.4%, 304G)
DouglasDragonThePoet: 276G (2.2%, 276G)
ohhinm: 234G (1.8%, 1,943G)
getthemoneyz: 230G (1.8%, 1,406,117G)
datadrivenbot: 200G (1.6%, 45,284G)
dinin991: 101G (0.8%, 788G)
Bongomon7: 100G (0.8%, 8,398G)
Chambs12: 100G (0.8%, 100G)
