Final Bets: purple - 17 bets for 11,412G (49.9%, x1.00); brown - 20 bets for 11,437G (50.1%, x1.00)

purple bets:
DeathTaxesAndAnime: 2,852G (25.0%, 5,594G)
TheChainNerd: 1,500G (13.1%, 30,891G)
HaateXIII: 1,183G (10.4%, 1,183G)
BlackFireUK: 1,178G (10.3%, 2,357G)
Digitalsocrates: 738G (6.5%, 738G)
Aldrammech: 604G (5.3%, 604G)
cam_ATS: 559G (4.9%, 559G)
theshinyakuma: 500G (4.4%, 10,556G)
EnemyController: 500G (4.4%, 533,538G)
KasugaiRoastedPeas: 428G (3.8%, 428G)
Nohurty: 304G (2.7%, 608G)
SQUiDSQUARKLIN: 300G (2.6%, 7,504G)
getthemoneyz: 218G (1.9%, 805,044G)
twelfthrootoftwo: 200G (1.8%, 2,056G)
DAC169: 148G (1.3%, 148G)
lastly: 100G (0.9%, 16,087G)
Tougou: 100G (0.9%, 3,096G)

brown bets:
conradharlock: 1,261G (11.0%, 1,261G)
volgrathemoose: 1,001G (8.8%, 6,005G)
Theseawolf1: 1,000G (8.7%, 29,489G)
BirbBrainsBot: 1,000G (8.7%, 3,167G)
UmaiJam: 1,000G (8.7%, 17,138G)
Thyrandaal: 1,000G (8.7%, 12,819G)
Rislyeu: 800G (7.0%, 10,733G)
dogsandcatsand: 750G (6.6%, 13,001G)
Shinzutalos: 602G (5.3%, 602G)
Nizaha: 501G (4.4%, 17,064G)
letdowncity: 500G (4.4%, 22,712G)
metagameface: 320G (2.8%, 320G)
MrDiggs49: 304G (2.7%, 304G)
skillomono: 300G (2.6%, 2,506G)
s_o_b_e_q: 250G (2.2%, 5,694G)
KyleWonToLiveForever: 246G (2.2%, 246G)
HASTERIOUS: 201G (1.8%, 4,028G)
gorgewall: 201G (1.8%, 4,593G)
Miku_Shikhu: 100G (0.9%, 2,428G)
datadrivenbot: 100G (0.9%, 33,276G)
