Final Bets: red - 16 bets for 14,783G (62.7%, x0.60); brown - 18 bets for 8,813G (37.3%, x1.68)

red bets:
the_leezy: 4,867G (32.9%, 4,867G)
metagameface: 2,326G (15.7%, 2,326G)
TheChainNerd: 1,500G (10.1%, 29,343G)
EnemyController: 1,000G (6.8%, 531,538G)
KyleWonToLiveForever: 787G (5.3%, 787G)
DeathTaxesAndAnime: 728G (4.9%, 728G)
Aldrammech: 600G (4.1%, 600G)
roofiepops: 600G (4.1%, 600G)
Phi_Sig: 555G (3.8%, 177,480G)
old_overholt_: 500G (3.4%, 26,866G)
Digitalsocrates: 372G (2.5%, 372G)
killth3kid: 316G (2.1%, 2,171G)
cam_ATS: 232G (1.6%, 232G)
twelfthrootoftwo: 200G (1.4%, 1,946G)
Tougou: 100G (0.7%, 2,993G)
Evewho: 100G (0.7%, 4,258G)

brown bets:
Shinzutalos: 1,301G (14.8%, 1,301G)
BirbBrainsBot: 1,000G (11.3%, 4,428G)
UmaiJam: 1,000G (11.3%, 17,986G)
Thyrandaal: 1,000G (11.3%, 16,602G)
conradharlock: 1,000G (11.3%, 4,278G)
Rislyeu: 700G (7.9%, 11,531G)
Nizaha: 501G (5.7%, 17,793G)
aznwanderor: 451G (5.1%, 451G)
Nohurty: 304G (3.4%, 304G)
gorgewall: 301G (3.4%, 4,934G)
roqqqpsi: 255G (2.9%, 25,588G)
Miku_Shikhu: 250G (2.8%, 2,709G)
HASTERIOUS: 200G (2.3%, 4,018G)
KasugaiRoastedPeas: 200G (2.3%, 792G)
lastly: 100G (1.1%, 16,169G)
Ring_Wyrm: 100G (1.1%, 1,462G)
datadrivenbot: 100G (1.1%, 33,361G)
s_o_b_e_q: 50G (0.6%, 7,068G)
