Final Bets: green - 6 bets for 7,582G (35.4%, x1.83); yellow - 14 bets for 13,854G (64.6%, x0.55)

green bets:
VolgraTheMoose: 3,668G (48.4%, 7,336G)
AllInBot: 1,401G (18.5%, 1,401G)
superdevon1: 1,065G (14.0%, 26,631G)
E_Ballard: 788G (10.4%, 788G)
getthemoneyz: 618G (8.2%, 1,494,218G)
ArlanKels: 42G (0.6%, 1,406G)

yellow bets:
Mesmaster: 3,000G (21.7%, 21,617G)
NIghtdew14: 2,500G (18.0%, 14,734G)
Error72: 1,916G (13.8%, 3,758G)
NicoSavoy: 1,102G (8.0%, 110,208G)
ColetteMSLP: 1,000G (7.2%, 15,223G)
randgridr: 1,000G (7.2%, 15,610G)
BirbBrainsBot: 1,000G (7.2%, 182,941G)
maximumcrit: 1,000G (7.2%, 7,881G)
letdowncity: 492G (3.6%, 14,626G)
rednecknazgul: 352G (2.5%, 352G)
datadrivenbot: 200G (1.4%, 48,553G)
DouglasDragonThePoet: 176G (1.3%, 888G)
EmmaEnema: 100G (0.7%, 2,607G)
xBizzy: 16G (0.1%, 164G)
