Final Bets: purple - 4 bets for 3,336G (22.5%, x3.45); brown - 10 bets for 11,502G (77.5%, x0.29)

purple bets:
nhammen: 2,000G (60.0%, 35,277G)
SkylerBunny: 736G (22.1%, 736G)
SeniorBunk: 500G (15.0%, 9,480G)
AllInBot: 100G (3.0%, 100G)

brown bets:
toka222: 4,000G (34.8%, 115,108G)
silentkaster: 3,000G (26.1%, 6,045G)
DLJuggernaut: 1,202G (10.5%, 1,202G)
getthemoneyz: 1,000G (8.7%, 1,655,787G)
Firesheath: 728G (6.3%, 728G)
BirbBrainsBot: 528G (4.6%, 170,145G)
Laserman1000: 444G (3.9%, 4,444G)
brando84back: 300G (2.6%, 1,253G)
Lifebregin: 200G (1.7%, 1,200G)
ko2q: 100G (0.9%, 1,188G)
