Final Bets: white - 16 bets for 10,010G (63.3%, x0.58); black - 12 bets for 5,816G (36.7%, x1.72)

white bets:
holandrix: 2,052G (20.5%, 2,052G)
DeathTaxesAndAnime: 1,464G (14.6%, 2,871G)
pandasforsale: 999G (10.0%, 13,373G)
getthemoneyz: 918G (9.2%, 1,514,197G)
NovaKnight21: 738G (7.4%, 738G)
Laserman1000: 600G (6.0%, 3,600G)
randgridr: 600G (6.0%, 9,249G)
douchetron: 560G (5.6%, 560G)
Dymntd: 500G (5.0%, 26,623G)
AllInBot: 490G (4.9%, 490G)
Arcblazer23: 288G (2.9%, 288G)
Gunz232323: 250G (2.5%, 985G)
outer_monologue: 200G (2.0%, 1,963G)
datadrivenbot: 200G (2.0%, 49,517G)
gorgewall: 101G (1.0%, 6,087G)
silverChangeling: 50G (0.5%, 932G)

black bets:
ko2q: 1,118G (19.2%, 1,118G)
BirbBrainsBot: 1,000G (17.2%, 31,172G)
Artea_: 1,000G (17.2%, 6,112G)
superdevon1: 832G (14.3%, 41,602G)
Zexerous: 500G (8.6%, 1,162G)
fattunaking: 376G (6.5%, 376G)
Wooplestein: 252G (4.3%, 252G)
PantherIscariot: 222G (3.8%, 2,865G)
winteriscorning: 200G (3.4%, 3,063G)
zenlion: 116G (2.0%, 116G)
Firesheath: 100G (1.7%, 21,509G)
rednecknazgul: 100G (1.7%, 1,902G)
