Final Bets: green - 20 bets for 17,175G (68.2%, x0.47); yellow - 11 bets for 8,015G (31.8%, x2.14)

green bets:
sinnyil2: 3,880G (22.6%, 7,761G)
proper__noun__: 2,215G (12.9%, 2,215G)
DavenIII: 1,584G (9.2%, 3,169G)
HaplessOne: 1,234G (7.2%, 45,885G)
Rislyeu: 1,000G (5.8%, 4,090G)
JumbocactuarX27: 1,000G (5.8%, 4,343G)
Mesmaster: 1,000G (5.8%, 90,732G)
HaateXIII: 783G (4.6%, 1,536G)
CoderCalamity: 581G (3.4%, 1,163G)
CapnChaos12: 500G (2.9%, 55,047G)
EnemyController: 500G (2.9%, 170,135G)
leakimiko: 492G (2.9%, 492G)
BoneMiser: 476G (2.8%, 476G)
ZephyrTempest: 456G (2.7%, 3,082G)
ttLYNCH09: 444G (2.6%, 2,971G)
hydroshade: 394G (2.3%, 789G)
Eyepoor_: 220G (1.3%, 220G)
TinhShu: 216G (1.3%, 216G)
nifboy: 100G (0.6%, 6,221G)
datadrivenbot: 100G (0.6%, 13,506G)

yellow bets:
killth3kid: 2,000G (25.0%, 55,351G)
Pie108: 2,000G (25.0%, 156,053G)
TheChainNerd: 1,000G (12.5%, 15,519G)
ungabunga_bot: 1,000G (12.5%, 332,455G)
FNCardascia_: 949G (11.8%, 949G)
Aka_Gilly: 400G (5.0%, 45,745G)
BirbBrainsBot: 200G (2.5%, 200G)
CorpusCav: 200G (2.5%, 29,995G)
maakur_: 100G (1.2%, 119,112G)
volgrathemoose: 100G (1.2%, 2,559G)
getthemoneyz: 66G (0.8%, 605,134G)
