Final Bets: white - 18 bets for 9,793G (45.6%, x1.19); brown - 16 bets for 11,702G (54.4%, x0.84)

white bets:
sinnyil2: 1,200G (12.3%, 9,494G)
ungabunga_bot: 1,000G (10.2%, 332,732G)
EnemyController: 1,000G (10.2%, 171,756G)
Mesmaster: 1,000G (10.2%, 84,414G)
FNCardascia_: 752G (7.7%, 752G)
BirbBrainsBot: 696G (7.1%, 696G)
HaateXIII: 687G (7.0%, 687G)
BoneMiser: 588G (6.0%, 588G)
proper__noun__: 540G (5.5%, 540G)
joewcarson: 500G (5.1%, 3,528G)
DavenIII: 500G (5.1%, 935G)
SQUiDSQUARKLIN: 300G (3.1%, 981G)
ShintaroNayaka: 300G (3.1%, 4,537G)
Eyepoor_: 220G (2.2%, 220G)
getthemoneyz: 210G (2.1%, 605,834G)
Firesheath: 100G (1.0%, 13,533G)
vampyreinabox: 100G (1.0%, 1,276G)
datadrivenbot: 100G (1.0%, 13,229G)

brown bets:
Kyune: 2,148G (18.4%, 2,148G)
killth3kid: 2,000G (17.1%, 66,206G)
Pie108: 2,000G (17.1%, 162,470G)
HaplessOne: 1,500G (12.8%, 45,696G)
clesseses: 1,000G (8.5%, 11,184G)
CapnChaos12: 500G (4.3%, 54,047G)
gggamezzz: 498G (4.3%, 498G)
leakimiko: 492G (4.2%, 492G)
ZephyrTempest: 456G (3.9%, 3,323G)
dogsandcatsand: 350G (3.0%, 1,154G)
CoderCalamity: 226G (1.9%, 754G)
Lydian_C: 120G (1.0%, 8,184G)
eudes89: 112G (1.0%, 112G)
maakur_: 100G (0.9%, 119,533G)
nifboy: 100G (0.9%, 5,771G)
CosmicTactician: 100G (0.9%, 19,981G)
