Final Bets: green - 16 bets for 9,037G (43.6%, x1.29); yellow - 9 bets for 11,693G (56.4%, x0.77)

green bets:
RunicMagus: 2,150G (23.8%, 11,252G)
BirbBrainsBot: 1,000G (11.1%, 165,544G)
getthemoneyz: 1,000G (11.1%, 2,084,203G)
killth3kid: 752G (8.3%, 19,937G)
Nizaha: 604G (6.7%, 17,815G)
VolgraTheMoose: 501G (5.5%, 12,673G)
krombobreaker: 500G (5.5%, 17,318G)
skipsandwiches: 468G (5.2%, 124,517G)
JonnyCue: 432G (4.8%, 432G)
SephDarkheart: 408G (4.5%, 408G)
Smugzug: 406G (4.5%, 5,076G)
Chihuahua_Charity: 292G (3.2%, 292G)
tripaplex: 200G (2.2%, 2,785G)
PopsLIVE: 120G (1.3%, 2,843G)
wiznaibusthis: 104G (1.2%, 104G)
FlavaFraze: 100G (1.1%, 1,028G)

yellow bets:
LivingHitokiri: 5,000G (42.8%, 172,735G)
Thyrandaal: 2,000G (17.1%, 190,408G)
resjudicata3: 1,954G (16.7%, 3,832G)
E_Ballard: 768G (6.6%, 768G)
killabandaid: 652G (5.6%, 652G)
AllInBot: 530G (4.5%, 530G)
Cryptopsy70: 388G (3.3%, 388G)
Genkidou: 300G (2.6%, 1,258G)
gorgewall: 101G (0.9%, 4,093G)
