Final Bets: white - 13 bets for 13,379G (37.2%, x1.69); black - 16 bets for 22,563G (62.8%, x0.59)

white bets:
Thyrandaal: 3,000G (22.4%, 28,811G)
killth3kid: 2,814G (21.0%, 42,814G)
HaateXIII: 2,094G (15.7%, 2,094G)
Zeroroute: 1,697G (12.7%, 1,697G)
Drusiform: 1,000G (7.5%, 8,448G)
dogsandcatsand: 688G (5.1%, 688G)
Tarheels218: 538G (4.0%, 538G)
skipsandwiches: 360G (2.7%, 4,458G)
MagicBottle: 324G (2.4%, 3,235G)
GladiatorLupe: 316G (2.4%, 316G)
resjudicata3: 300G (2.2%, 7,821G)
datadrivenbot: 200G (1.5%, 60,652G)
getthemoneyz: 48G (0.4%, 1,712,323G)

black bets:
Forkmore: 5,618G (24.9%, 11,016G)
Narcius: 4,400G (19.5%, 324,463G)
maximumcrit: 4,209G (18.7%, 4,209G)
sinnyil2: 1,673G (7.4%, 1,673G)
BirbBrainsBot: 1,000G (4.4%, 142,447G)
Sairentozon7: 1,000G (4.4%, 10,442G)
douchetron: 855G (3.8%, 855G)
WhiteTigress: 800G (3.5%, 9,349G)
blorpy_: 715G (3.2%, 8,946G)
theBinklive: 503G (2.2%, 2,015G)
VolgraTheMoose: 501G (2.2%, 34,367G)
Smashy: 500G (2.2%, 5,921G)
gorgewall: 301G (1.3%, 4,328G)
neocarbuncle: 288G (1.3%, 288G)
AllInBot: 100G (0.4%, 100G)
nifboy: 100G (0.4%, 2,090G)
