Final Bets: red - 15 bets for 4,427G (28.5%, x2.51); blue - 18 bets for 11,096G (71.5%, x0.40)

red bets:
inzo_bettingbot: 1,000G (22.6%, 30,562G)
SpaZmodeus: 736G (16.6%, 736G)
unclebearboy: 602G (13.6%, 602G)
BoneMiser: 548G (12.4%, 548G)
Oshimi12: 403G (9.1%, 403G)
getthemoneyz: 278G (6.3%, 401,530G)
Orerries: 208G (4.7%, 208G)
twelfthrootoftwo: 100G (2.3%, 3,310G)
Basmal: 100G (2.3%, 29,288G)
Treapvort: 100G (2.3%, 18,769G)
b_bot: 100G (2.3%, 2,233G)
InOzWeTrust: 100G (2.3%, 3,419G)
byrdturbo: 69G (1.6%, 3,029G)
PasDeSeul: 50G (1.1%, 2,112G)
Humble_Fabio: 33G (0.7%, 292G)

blue bets:
Gelwain: 3,005G (27.1%, 30,059G)
WireLord: 1,079G (9.7%, 1,079G)
leakimiko: 992G (8.9%, 33,091G)
Lydian_C: 919G (8.3%, 1,803G)
RongRongArts: 854G (7.7%, 854G)
UmaiJam: 808G (7.3%, 8,088G)
waterwatereverywhere: 688G (6.2%, 688G)
TheRobbieRobster: 429G (3.9%, 429G)
bad1dea: 400G (3.6%, 241,753G)
Bulleta: 350G (3.2%, 8,215G)
RRazza: 336G (3.0%, 336G)
BirbBrainsBot: 267G (2.4%, 13,967G)
KasugaiRoastedPeas: 200G (1.8%, 30,350G)
CorpusCav: 200G (1.8%, 9,669G)
Meowyster_: 200G (1.8%, 442G)
nextwins: 169G (1.5%, 819G)
datadrivenbot: 100G (0.9%, 18,056G)
mirapoix: 100G (0.9%, 3,499G)
