Final Bets: white - 18 bets for 12,697G (54.1%, x0.85); black - 16 bets for 10,760G (45.9%, x1.18)

white bets:
leakimiko: 2,598G (20.5%, 32,483G)
TheRobbieRobster: 1,793G (14.1%, 1,793G)
KupoKel: 1,733G (13.6%, 21,733G)
BoneMiser: 1,637G (12.9%, 1,637G)
Goust18: 1,000G (7.9%, 15,645G)
MalakoFox: 1,000G (7.9%, 11,103G)
UmaiJam: 756G (6.0%, 7,569G)
Treapvort: 500G (3.9%, 18,868G)
Bulleta: 300G (2.4%, 8,055G)
Lydian_C: 300G (2.4%, 4,368G)
theatheologist: 222G (1.7%, 5,799G)
Orerries: 208G (1.6%, 208G)
Meowyster_: 200G (1.6%, 401G)
BadBlanket: 100G (0.8%, 2,126G)
Basmal: 100G (0.8%, 29,188G)
datadrivenbot: 100G (0.8%, 17,996G)
TheOneRanger: 100G (0.8%, 2,033G)
PasDeSeul: 50G (0.4%, 2,062G)

black bets:
sinnyil2: 2,446G (22.7%, 4,893G)
RongRongArts: 1,195G (11.1%, 1,195G)
BirbBrainsBot: 1,000G (9.3%, 13,074G)
bad1dea: 1,000G (9.3%, 240,913G)
inzo_bettingbot: 1,000G (9.3%, 31,550G)
SeedSC: 1,000G (9.3%, 91,954G)
getthemoneyz: 546G (5.1%, 401,868G)
WireLord: 509G (4.7%, 509G)
RRazza: 336G (3.1%, 336G)
b_bot: 300G (2.8%, 2,968G)
Oshimi12: 296G (2.8%, 296G)
Humble_Fabio: 292G (2.7%, 292G)
SpaZmodeus: 252G (2.3%, 252G)
KasugaiRoastedPeas: 200G (1.9%, 30,430G)
Billybones5150: 200G (1.9%, 1,799G)
Zachara: 188G (1.7%, 30,988G)
