Final Bets: white - 25 bets for 11,539G (55.3%, x0.81); black - 19 bets for 9,321G (44.7%, x1.24)

white bets:
Lydian_C: 1,648G (14.3%, 3,233G)
Lodrak: 1,001G (8.7%, 7,918G)
OmnibotGamma: 1,000G (8.7%, 9,967G)
kai_shee: 1,000G (8.7%, 38,093G)
ForagerCats: 739G (6.4%, 739G)
UmaiJam: 705G (6.1%, 7,052G)
Goust18: 600G (5.2%, 21,887G)
Aldrammech: 600G (5.2%, 600G)
NovaKnight21: 517G (4.5%, 517G)
volgrathemoose: 448G (3.9%, 448G)
Psychomidget: 407G (3.5%, 407G)
luminarii: 376G (3.3%, 6,700G)
fenaen: 300G (2.6%, 2,711G)
TheOneRanger: 276G (2.4%, 276G)
Lazerkick: 252G (2.2%, 252G)
Rogueain: 250G (2.2%, 5,018G)
TheGuesty: 250G (2.2%, 2,896G)
urieltheflameofgod: 220G (1.9%, 220G)
Kellios11: 200G (1.7%, 7,355G)
Treapvort: 200G (1.7%, 17,783G)
AlenaZarek: 150G (1.3%, 20,587G)
red_celt: 100G (0.9%, 3,504G)
Oshimi12: 100G (0.9%, 786G)
datadrivenbot: 100G (0.9%, 15,937G)
WoooBlaaa: 100G (0.9%, 4,058G)

black bets:
SkylerBunny: 1,000G (10.7%, 62,132G)
BirbBrainsBot: 1,000G (10.7%, 7,315G)
bad1dea: 1,000G (10.7%, 238,318G)
BadBlanket: 954G (10.2%, 954G)
getthemoneyz: 890G (9.5%, 394,761G)
Axelrod: 766G (8.2%, 15,336G)
maakur_: 718G (7.7%, 718G)
ko2q: 575G (6.2%, 575G)
DejaPoo21: 500G (5.4%, 25,848G)
WireLord: 397G (4.3%, 397G)
Ungaiii: 345G (3.7%, 3,549G)
ZephyrTempest: 208G (2.2%, 3,885G)
Aeolus_000: 200G (2.1%, 1,186G)
robespyah: 200G (2.1%, 1,114G)
mpghappiness: 160G (1.7%, 160G)
commandlistfgc: 108G (1.2%, 108G)
Nizaha: 100G (1.1%, 5,453G)
a_mo22: 100G (1.1%, 5,572G)
WillFitzgerald: 100G (1.1%, 3,776G)
