Final Bets: red - 16 bets for 7,407G (24.2%, x3.14); yellow - 32 bets for 23,232G (75.8%, x0.32)

red bets:
sinnyil2: 1,200G (16.2%, 4,530G)
OmnibotGamma: 1,000G (13.5%, 9,282G)
BirbBrainsBot: 1,000G (13.5%, 7,553G)
bad1dea: 1,000G (13.5%, 238,556G)
Axelrod: 806G (10.9%, 16,122G)
mpghappiness: 471G (6.4%, 471G)
Psychomidget: 447G (6.0%, 447G)
kekkerscrew: 327G (4.4%, 327G)
Rytor: 300G (4.1%, 11,113G)
getthemoneyz: 188G (2.5%, 395,521G)
ZephyrTempest: 168G (2.3%, 3,952G)
Kellios11: 100G (1.4%, 7,055G)
red_celt: 100G (1.4%, 3,499G)
AlenaZarek: 100G (1.4%, 20,500G)
Alc_Trinity: 100G (1.4%, 27,033G)
WillFitzgerald: 100G (1.4%, 3,900G)

yellow bets:
SkylerBunny: 5,000G (21.5%, 62,370G)
Nizaha: 3,228G (13.9%, 6,456G)
Lydian_C: 2,085G (9.0%, 2,085G)
MoonSlayerRS: 1,029G (4.4%, 1,029G)
DejaPoo21: 1,000G (4.3%, 26,467G)
kai_shee: 1,000G (4.3%, 36,093G)
WireLord: 888G (3.8%, 888G)
Aldrammech: 789G (3.4%, 789G)
volgrathemoose: 589G (2.5%, 589G)
luminarii: 575G (2.5%, 6,497G)
UmaiJam: 571G (2.5%, 5,713G)
NovaKnight21: 568G (2.4%, 568G)
TheGuesty: 500G (2.2%, 2,804G)
HaplessOne: 500G (2.2%, 42,793G)
Treapvort: 500G (2.2%, 17,483G)
reinoe: 500G (2.2%, 5,426G)
galkife: 500G (2.2%, 61,351G)
Ungaiii: 423G (1.8%, 4,188G)
fenaen: 400G (1.7%, 2,537G)
MattMan119: 400G (1.7%, 5,513G)
ko2q: 378G (1.6%, 378G)
TheOneRanger: 363G (1.6%, 363G)
commandlistfgc: 322G (1.4%, 322G)
urieltheflameofgod: 242G (1.0%, 242G)
robespyah: 200G (0.9%, 1,425G)
klonoa331: 132G (0.6%, 132G)
Oshimi12: 100G (0.4%, 586G)
BadBlanket: 100G (0.4%, 2,167G)
Lordminsc: 100G (0.4%, 17,059G)
RuneS_77: 100G (0.4%, 5,149G)
datadrivenbot: 100G (0.4%, 15,869G)
GrayGhostGaming: 50G (0.2%, 925G)
