Final Bets: blue - 12 bets for 5,888G (36.7%, x1.73); brown - 19 bets for 10,163G (63.3%, x0.58)

blue bets:
Nocturnal_Perspective: 1,980G (33.6%, 1,980G)
Zbgs: 1,000G (17.0%, 34,668G)
mirapoix: 512G (8.7%, 512G)
pandasforsale: 444G (7.5%, 12,597G)
Cha0sRuler: 400G (6.8%, 5,014G)
Aldrammech: 350G (5.9%, 3,505G)
proper__noun__: 300G (5.1%, 2,786G)
JackOnFire1: 218G (3.7%, 11,118G)
AllInBot: 212G (3.6%, 212G)
V3rdeni: 200G (3.4%, 4,691G)
getthemoneyz: 160G (2.7%, 444,003G)
astrozin11: 112G (1.9%, 19,112G)

brown bets:
sinnyil2: 2,560G (25.2%, 5,120G)
HaplessOne: 1,500G (14.8%, 133,150G)
cougboi: 1,000G (9.8%, 4,215G)
BirbBrainsBot: 1,000G (9.8%, 246,766G)
HaateXIII: 644G (6.3%, 644G)
CapnChaos12: 500G (4.9%, 7,938G)
tinytittyfiend: 500G (4.9%, 16,107G)
Meta_Five: 400G (3.9%, 3,494G)
Meanderandreturn: 400G (3.9%, 8,688G)
lijarkh: 352G (3.5%, 352G)
silentperogy: 300G (3.0%, 13,823G)
BlinkFS: 220G (2.2%, 220G)
byrdturbo: 169G (1.7%, 6,332G)
ungabunga_bot: 118G (1.2%, 77,360G)
Tougou: 100G (1.0%, 3,942G)
ANFz: 100G (1.0%, 2,375G)
ScarletSpiderBen: 100G (1.0%, 1,041G)
victoriolue: 100G (1.0%, 1,545G)
datadrivenbot: 100G (1.0%, 26,351G)
