Final Bets: blue - 14 bets for 11,497G (53.6%, x0.87); brown - 14 bets for 9,957G (46.4%, x1.15)

blue bets:
SkylerBunny: 5,000G (43.5%, 337,082G)
ko2q: 1,414G (12.3%, 1,414G)
latebit: 1,308G (11.4%, 1,308G)
Lord_Burrah: 1,022G (8.9%, 77,522G)
Aldrammech: 628G (5.5%, 628G)
Lanshaft: 564G (4.9%, 13,656G)
Lemonjohns: 420G (3.7%, 7,447G)
soren_of_tyto: 240G (2.1%, 240G)
AllInBot: 200G (1.7%, 200G)
OniXiion: 200G (1.7%, 2,857G)
datadrivenbot: 200G (1.7%, 49,464G)
ANFz: 101G (0.9%, 46,079G)
DHaveWord: 100G (0.9%, 4,762G)
Drusiform: 100G (0.9%, 2,239G)

brown bets:
mpghappiness: 2,956G (29.7%, 2,956G)
CT_5_Holy: 2,500G (25.1%, 5,979G)
Amorial: 953G (9.6%, 953G)
getthemoneyz: 732G (7.4%, 1,555,406G)
Lumberinjack: 500G (5.0%, 8,341G)
Skjodo: 500G (5.0%, 5,011G)
SephDarkheart: 496G (5.0%, 14,656G)
dogsandcatsand: 400G (4.0%, 1,382G)
BirbBrainsBot: 286G (2.9%, 106,929G)
PantherIscariot: 222G (2.2%, 2,967G)
Vahn_Blade: 112G (1.1%, 112G)
MinBetBot: 100G (1.0%, 16,823G)
CorpusCav: 100G (1.0%, 4,161G)
Pbjellytimez: 100G (1.0%, 2,069G)
