Final Bets: green - 16 bets for 9,727G (30.1%, x2.33); brown - 15 bets for 22,621G (69.9%, x0.43)

green bets:
HaateXIII: 3,971G (40.8%, 7,942G)
Lord_Burrah: 1,456G (15.0%, 85,456G)
dogsandcatsand: 568G (5.8%, 568G)
VolgraTheMoose: 501G (5.2%, 17,756G)
BlueAbs: 500G (5.1%, 2,608G)
TasisSai: 500G (5.1%, 8,720G)
Aldrammech: 472G (4.9%, 472G)
Patreseus: 300G (3.1%, 2,060G)
benticore: 250G (2.6%, 19,583G)
Treafa: 240G (2.5%, 240G)
BirbBrainsBot: 200G (2.1%, 200G)
Lemonjohns: 200G (2.1%, 1,912G)
getthemoneyz: 188G (1.9%, 1,304,271G)
dtrain332: 181G (1.9%, 181G)
fluffskull: 100G (1.0%, 8,309G)
Miku_Shikhu: 100G (1.0%, 17,037G)

brown bets:
porkchop5158: 6,001G (26.5%, 53,601G)
WitchHunterIX: 6,000G (26.5%, 32,618G)
Creggers: 5,000G (22.1%, 56,971G)
randgridr: 1,000G (4.4%, 6,528G)
sinnyil2: 916G (4.0%, 916G)
roofiepops: 669G (3.0%, 669G)
Phi_Sig: 555G (2.5%, 54,949G)
Zeroroute: 500G (2.2%, 500G)
Evewho: 500G (2.2%, 6,519G)
Error72: 408G (1.8%, 408G)
Xoomwaffle: 371G (1.6%, 1,485G)
gorgewall: 201G (0.9%, 9,904G)
AllInBot: 200G (0.9%, 200G)
datadrivenbot: 200G (0.9%, 30,886G)
nifboy: 100G (0.4%, 4,168G)
