Final Bets: red - 8 bets for 8,091G (49.5%, x1.02); blue - 22 bets for 8,250G (50.5%, x0.98)

red bets:
Aldrammech: 5,135G (63.5%, 10,270G)
Vampire_Killer: 1,000G (12.4%, 4,623G)
Shalloween: 1,000G (12.4%, 97,221G)
Lodrak: 501G (6.2%, 34,021G)
robespyah: 250G (3.1%, 1,608G)
AllInBot: 100G (1.2%, 100G)
Aneyus: 100G (1.2%, 10,359G)
ko2q: 5G (0.1%, 3,899G)

blue bets:
fenaen: 1,267G (15.4%, 1,267G)
BirbBrainsBot: 1,000G (12.1%, 220,259G)
bad1dea: 1,000G (12.1%, 40,275G)
BenYuPoker: 612G (7.4%, 612G)
Lanshaft: 600G (7.3%, 11,553G)
catfashions: 500G (6.1%, 4,068G)
RunicMagus: 400G (4.8%, 42,794G)
b0shii: 358G (4.3%, 358G)
Baron_von_Scrub: 314G (3.8%, 12,668G)
Rytor: 300G (3.6%, 10,128G)
ShintaroNayaka: 300G (3.6%, 2,737G)
exaltedhamster: 250G (3.0%, 1,840G)
Thed63: 200G (2.4%, 1,650G)
ig_ats: 200G (2.4%, 13,435G)
sect_cor: 200G (2.4%, 19,744G)
ungabunga_bot: 177G (2.1%, 22,019G)
Tithonus: 100G (1.2%, 7,486G)
McGooferson: 100G (1.2%, 1,092G)
datadrivenbot: 100G (1.2%, 19,182G)
Kellios11: 100G (1.2%, 7,019G)
SeedSC: 100G (1.2%, 137,858G)
getthemoneyz: 72G (0.9%, 437,698G)
