Final Bets: red - 10 bets for 7,232G (45.1%, x1.22); blue - 14 bets for 8,806G (54.9%, x0.82)

red bets:
leakimiko: 1,897G (26.2%, 23,718G)
HorusTaurus: 1,000G (13.8%, 10,320G)
ungabunga_bot: 1,000G (13.8%, 289,197G)
BirbBrainsBot: 1,000G (13.8%, 153,658G)
reinoe: 1,000G (13.8%, 28,175G)
katgreen: 500G (6.9%, 2,535G)
ko2q: 424G (5.9%, 424G)
superneol: 200G (2.8%, 455G)
Dexef: 111G (1.5%, 3,956G)
belife42: 100G (1.4%, 100G)

blue bets:
Phytik: 1,470G (16.7%, 20,758G)
ccordc: 1,002G (11.4%, 3,341G)
Mesmaster: 1,000G (11.4%, 53,927G)
Mtueni: 1,000G (11.4%, 249,931G)
aStatue: 850G (9.7%, 850G)
ShintaroNayaka: 816G (9.3%, 816G)
xxnamexx: 593G (6.7%, 593G)
FoxtrotNovemberCharlie: 515G (5.8%, 515G)
Goust18: 500G (5.7%, 11,265G)
mayormcfunbags: 460G (5.2%, 460G)
7Cerulean7: 210G (2.4%, 2,844G)
SaintOmerville: 200G (2.3%, 4,173G)
datadrivenbot: 100G (1.1%, 11,720G)
getthemoneyz: 90G (1.0%, 609,370G)
