Final Bets: white - 17 bets for 12,907G (83.1%, x0.20); black - 8 bets for 2,617G (16.9%, x4.93)

white bets:
Mesmaster: 3,000G (23.2%, 53,444G)
reinoe: 2,000G (15.5%, 28,393G)
ko2q: 1,183G (9.2%, 1,183G)
Phytik: 1,000G (7.7%, 19,288G)
HorusTaurus: 1,000G (7.7%, 11,667G)
superneol: 828G (6.4%, 828G)
ColetteMSLP: 800G (6.2%, 37,460G)
ShintaroNayaka: 580G (4.5%, 580G)
SarrgeQc: 501G (3.9%, 10,962G)
CassiePhoenix: 500G (3.9%, 7,506G)
BirbBrainsBot: 389G (3.0%, 155,134G)
FoxtrotNovemberCharlie: 352G (2.7%, 352G)
xxnamexx: 260G (2.0%, 260G)
ungabunga_bot: 164G (1.3%, 290,641G)
7Cerulean7: 150G (1.2%, 2,454G)
Squatting_Bear: 100G (0.8%, 1,107G)
datadrivenbot: 100G (0.8%, 11,520G)

black bets:
ccordc: 756G (28.9%, 2,520G)
aStatue: 600G (22.9%, 600G)
getthemoneyz: 506G (19.3%, 609,538G)
TheChainNerd: 376G (14.4%, 376G)
SaintOmerville: 200G (7.6%, 3,973G)
belife42: 79G (3.0%, 279G)
DrAntiSocial: 50G (1.9%, 8,451G)
emperor_knight: 50G (1.9%, 816G)
