Final Bets: red - 8 bets for 2,629G (19.1%, x4.25); yellow - 16 bets for 11,171G (80.9%, x0.24)

red bets:
ColetteMSLP: 800G (30.4%, 37,622G)
Dexsana: 400G (15.2%, 21,257G)
TheChainNerd: 376G (14.3%, 376G)
Dexef: 333G (12.7%, 4,091G)
Lydian_C: 300G (11.4%, 1,937G)
superneol: 200G (7.6%, 996G)
getthemoneyz: 120G (4.6%, 608,888G)
katgreen: 100G (3.8%, 3,044G)

yellow bets:
Mesmaster: 3,000G (26.9%, 53,052G)
ShintaroNayaka: 1,913G (17.1%, 1,913G)
Phytik: 1,298G (11.6%, 21,586G)
sinnyil2: 1,200G (10.7%, 18,860G)
BirbBrainsBot: 1,000G (9.0%, 154,213G)
aStatue: 600G (5.4%, 600G)
SarrgeQc: 501G (4.5%, 10,063G)
ungabunga_bot: 366G (3.3%, 291,404G)
xxnamexx: 313G (2.8%, 313G)
FoxtrotNovemberCharlie: 280G (2.5%, 280G)
belife42: 200G (1.8%, 200G)
7Cerulean7: 150G (1.3%, 2,745G)
Squatting_Bear: 100G (0.9%, 1,127G)
datadrivenbot: 100G (0.9%, 11,714G)
SaintOmerville: 100G (0.9%, 3,773G)
DrAntiSocial: 50G (0.4%, 8,351G)
