Final Bets: yellow - 19 bets for 16,543G (22.8%, x3.39); champion - 8 bets for 55,999G (77.2%, x0.30)

yellow bets:
Artea_: 9,171G (55.4%, 18,343G)
volgrathemoose: 1,001G (6.1%, 10,882G)
ungabunga_bot: 1,000G (6.0%, 431,054G)
BirbBrainsBot: 1,000G (6.0%, 161,484G)
Practice_Pad: 512G (3.1%, 512G)
Tomion: 500G (3.0%, 2,956G)
LordSDB: 449G (2.7%, 449G)
Estan_AD: 424G (2.6%, 424G)
bobc777: 370G (2.2%, 370G)
Mudrockk: 350G (2.1%, 8,000G)
Smashy: 300G (1.8%, 3,397G)
Eyepoor_: 284G (1.7%, 284G)
edgehead62888: 280G (1.7%, 280G)
Miyokari: 250G (1.5%, 5,502G)
OverlordCuddles: 236G (1.4%, 236G)
getthemoneyz: 116G (0.7%, 653,578G)
datadrivenbot: 100G (0.6%, 11,280G)
Arkreaver: 100G (0.6%, 10,885G)
E_Ballard: 100G (0.6%, 5,722G)

champion bets:
theNGUYENNER: 30,000G (53.6%, 45,869G)
cupholderr: 20,000G (35.7%, 31,749G)
killth3kid: 2,000G (3.6%, 40,569G)
Mtueni: 2,000G (3.6%, 229,013G)
leakimiko: 1,000G (1.8%, 26,218G)
roqqqpsi: 491G (0.9%, 4,468G)
Cataphract116: 400G (0.7%, 17,303G)
foofermoofer: 108G (0.2%, 108G)
