Final Bets: purple - 22 bets for 16,678G (64.8%, x0.54); brown - 16 bets for 9,040G (35.2%, x1.84)

purple bets:
resjudicata3: 2,750G (16.5%, 2,750G)
OneHundredFists: 2,000G (12.0%, 51,934G)
NicoSavoy: 2,000G (12.0%, 74,054G)
Xeiphyer: 1,461G (8.8%, 1,461G)
latebit: 1,431G (8.6%, 2,806G)
BappleTrees: 948G (5.7%, 948G)
ColetteMSLP: 852G (5.1%, 852G)
BirbBrainsBot: 769G (4.6%, 168,937G)
Raixelol: 600G (3.6%, 20,552G)
Lord_Gwarth: 540G (3.2%, 540G)
krombobreaker: 500G (3.0%, 2,977G)
killth3kid: 500G (3.0%, 20,704G)
Zeroroute: 412G (2.5%, 412G)
regios91: 390G (2.3%, 390G)
DracoknightZero: 276G (1.7%, 1,591G)
hotpocketsofficial: 272G (1.6%, 272G)
khelor_: 200G (1.2%, 1,391G)
datadrivenbot: 200G (1.2%, 60,708G)
WhiteDog420: 200G (1.2%, 272G)
AllInBot: 177G (1.1%, 177G)
douchetron: 100G (0.6%, 15,200G)
MemoriesofFinal: 100G (0.6%, 14,537G)

brown bets:
DeathTaxesAndAnime: 3,398G (37.6%, 6,664G)
CorpusCav: 1,201G (13.3%, 19,280G)
Leonidusx: 1,000G (11.1%, 33,243G)
solomongrundy85: 600G (6.6%, 600G)
Zbgs: 532G (5.9%, 1,878G)
Dasutin23: 516G (5.7%, 9,652G)
technominari: 500G (5.5%, 76,738G)
bpc2163: 308G (3.4%, 308G)
tripaplex: 200G (2.2%, 1,952G)
action_otter: 185G (2.0%, 185G)
BartTradingCompany: 100G (1.1%, 9,779G)
grishhammer: 100G (1.1%, 504G)
nhammen: 100G (1.1%, 382,799G)
maakur_: 100G (1.1%, 4,556G)
getthemoneyz: 100G (1.1%, 1,950,105G)
DHaveWord: 100G (1.1%, 6,463G)
