Final Bets: red - 13 bets for 12,040G (72.0%, x0.39); blue - 12 bets for 4,671G (28.0%, x2.58)

red bets:
DarrenDinosaurs: 2,898G (24.1%, 2,898G)
Nizaha: 1,636G (13.6%, 1,636G)
DLJuggernaut: 1,617G (13.4%, 1,617G)
SkylerBunny: 1,400G (11.6%, 577,021G)
DustBirdEX: 1,385G (11.5%, 1,385G)
BirbBrainsBot: 1,000G (8.3%, 100,858G)
metagameface: 666G (5.5%, 666G)
killth3kid: 480G (4.0%, 10,613G)
Chuckolator: 358G (3.0%, 37,180G)
Magicandy: 200G (1.7%, 4,626G)
Evewho: 200G (1.7%, 2,890G)
ApplesauceBoss: 100G (0.8%, 10,607G)
datadrivenbot: 100G (0.8%, 48,821G)

blue bets:
serperemagus: 871G (18.6%, 871G)
MattMan119: 750G (16.1%, 3,273G)
DavenIII: 500G (10.7%, 13,290G)
Shalloween: 500G (10.7%, 48,637G)
JumbocactuarX27: 412G (8.8%, 412G)
RunicMagus: 400G (8.6%, 44,048G)
Flameatron: 300G (6.4%, 2,201G)
CapnChaos12: 300G (6.4%, 4,249G)
just_here2: 200G (4.3%, 9,906G)
BeibeLoide: 192G (4.1%, 192G)
getthemoneyz: 146G (3.1%, 1,006,012G)
Firesheath: 100G (2.1%, 2,725G)
