Final Bets: red - 11 bets for 3,683G (12.8%, x6.80); blue - 15 bets for 25,056G (87.2%, x0.15)

red bets:
Laserman1000: 661G (17.9%, 12,361G)
Willjin: 600G (16.3%, 19,707G)
Snowfats: 500G (13.6%, 13,175G)
Lolthsmeat: 500G (13.6%, 3,042G)
bigbongsmoker: 396G (10.8%, 5,480G)
CorpusCav: 300G (8.1%, 28,567G)
Evewho: 200G (5.4%, 2,518G)
datadrivenbot: 200G (5.4%, 79,010G)
getthemoneyz: 126G (3.4%, 2,132,101G)
grimthegameking: 100G (2.7%, 100G)
troublesometree: 100G (2.7%, 808G)

blue bets:
OneHundredFists: 11,132G (44.4%, 21,829G)
Mesmaster: 3,000G (12.0%, 12,929G)
AllInBot: 2,816G (11.2%, 2,816G)
LuckyLuckLuc2: 2,222G (8.9%, 5,161G)
NovaKnight21: 1,521G (6.1%, 1,521G)
nok____: 1,000G (4.0%, 14,250G)
BirbBrainsBot: 969G (3.9%, 133,398G)
goth_Applebees_hostess: 675G (2.7%, 3,498G)
TheBrett: 500G (2.0%, 7,758G)
lijarkh: 316G (1.3%, 1,466G)
GeNoFPaniC: 300G (1.2%, 300G)
resjudicata3: 200G (0.8%, 10,316G)
ValensEXP_: 200G (0.8%, 8,930G)
chaosdesigned: 104G (0.4%, 104G)
gorgewall: 101G (0.4%, 11,955G)
