Final Bets: blue - 11 bets for 21,734G (65.7%, x0.52); champion - 17 bets for 11,342G (34.3%, x1.92)

blue bets:
OneHundredFists: 15,305G (70.4%, 30,011G)
AllInBot: 1,900G (8.7%, 1,900G)
Sairentozon7: 1,000G (4.6%, 36,010G)
lowlf: 624G (2.9%, 17,380G)
Laserman1000: 600G (2.8%, 13,200G)
NicoSavoy: 528G (2.4%, 528G)
CorpusCav: 500G (2.3%, 29,492G)
Lolthsmeat: 461G (2.1%, 461G)
lijarkh: 316G (1.5%, 1,626G)
old_overholt_: 300G (1.4%, 60,879G)
datadrivenbot: 200G (0.9%, 78,610G)

champion bets:
HaplessOne: 3,190G (28.1%, 5,690G)
J2Reed: 1,398G (12.3%, 1,398G)
LuckyLuckLuc2: 1,111G (9.8%, 4,037G)
BirbBrainsBot: 1,000G (8.8%, 133,285G)
nok____: 1,000G (8.8%, 17,334G)
BoneMiser: 896G (7.9%, 896G)
reddwind_: 488G (4.3%, 488G)
ValensEXP_: 436G (3.8%, 9,177G)
bigbongsmoker: 396G (3.5%, 4,341G)
getthemoneyz: 314G (2.8%, 2,131,008G)
Genkidou: 268G (2.4%, 2,790G)
TheBrett: 240G (2.1%, 8,324G)
resjudicata3: 200G (1.8%, 5,592G)
chaosdesigned: 104G (0.9%, 104G)
gorgewall: 101G (0.9%, 11,618G)
Evewho: 100G (0.9%, 2,486G)
grimthegameking: 100G (0.9%, 100G)
