Final Bets: white - 13 bets for 5,100G (29.0%, x2.45); black - 9 bets for 12,494G (71.0%, x0.41)

white bets:
latebit: 1,100G (21.6%, 17,639G)
Aldrammech: 1,000G (19.6%, 68,587G)
brenogarwin: 803G (15.7%, 803G)
douchetron: 500G (9.8%, 9,691G)
Rikrizen: 443G (8.7%, 8,879G)
WhiteTigress: 300G (5.9%, 7,598G)
AllInBot: 290G (5.7%, 290G)
datadrivenbot: 200G (3.9%, 61,619G)
ar_tactic: 150G (2.9%, 78,409G)
Lazarus_DS: 121G (2.4%, 121G)
gorgewall: 101G (2.0%, 6,172G)
theBinklive: 76G (1.5%, 305G)
getthemoneyz: 16G (0.3%, 1,682,628G)

black bets:
DavenIII: 7,491G (60.0%, 74,911G)
Thyrandaal: 1,234G (9.9%, 474,487G)
BirbBrainsBot: 1,000G (8.0%, 48,377G)
FalseLobster: 800G (6.4%, 3,273G)
skillomono: 645G (5.2%, 645G)
ko2q: 524G (4.2%, 524G)
Draconis345: 500G (4.0%, 14,676G)
CosmicTactician: 200G (1.6%, 29,372G)
Raixelol: 100G (0.8%, 6,653G)
