Final Bets: purple - 9 bets for 10,857G (30.4%, x2.29); brown - 14 bets for 24,904G (69.6%, x0.44)

purple bets:
Aldrammech: 5,000G (46.1%, 67,591G)
Zeroroute: 2,252G (20.7%, 6,088G)
dogsandcatsand: 1,405G (12.9%, 2,756G)
latebit: 1,100G (10.1%, 16,539G)
FalseLobster: 400G (3.7%, 3,600G)
WhiteTigress: 300G (2.8%, 7,298G)
peanutvendor: 200G (1.8%, 781G)
AllInBot: 100G (0.9%, 100G)
CosmicTactician: 100G (0.9%, 29,454G)

brown bets:
DavenIII: 11,695G (47.0%, 77,969G)
douchetron: 9,191G (36.9%, 9,191G)
BirbBrainsBot: 1,000G (4.0%, 48,785G)
ko2q: 738G (3.0%, 738G)
getthemoneyz: 604G (2.4%, 1,682,612G)
Draconis345: 500G (2.0%, 14,880G)
Rikrizen: 421G (1.7%, 8,436G)
datadrivenbot: 200G (0.8%, 61,419G)
Lazarus_DS: 104G (0.4%, 104G)
gorgewall: 101G (0.4%, 6,071G)
Thyrandaal: 100G (0.4%, 474,991G)
milk_tea9919: 100G (0.4%, 100G)
Raixelol: 100G (0.4%, 6,694G)
captainmilestw: 50G (0.2%, 2,443G)
