Final Bets: green - 16 bets for 7,385G (33.8%, x1.96); yellow - 8 bets for 14,495G (66.2%, x0.51)

green bets:
Lydian_C: 1,200G (16.2%, 13,741G)
BirbBrainsBot: 1,000G (13.5%, 71,707G)
kaidykat: 1,000G (13.5%, 22,317G)
DuraiPapers: 672G (9.1%, 672G)
DeathTaxesAndAnime: 656G (8.9%, 656G)
prince_rogers_nelson_: 500G (6.8%, 5,140G)
Evewho: 460G (6.2%, 460G)
getthemoneyz: 434G (5.9%, 975,195G)
TeaTime29: 300G (4.1%, 8,755G)
LAGBOT30000: 300G (4.1%, 2,037G)
alithesillybird: 200G (2.7%, 4,784G)
twelfthrootoftwo: 200G (2.7%, 2,874G)
AllInBot: 139G (1.9%, 139G)
jaik1231: 124G (1.7%, 124G)
Ring_Wyrm: 100G (1.4%, 2,631G)
datadrivenbot: 100G (1.4%, 44,013G)

yellow bets:
reinoe: 10,000G (69.0%, 31,685G)
Digitalsocrates: 1,000G (6.9%, 62,207G)
NicoSavoy: 1,000G (6.9%, 4,388G)
Paperthinhere: 886G (6.1%, 886G)
moonliquor: 500G (3.4%, 2,231G)
NovaKnight21: 492G (3.4%, 492G)
gorgewall: 401G (2.8%, 20,809G)
placidphoenix: 216G (1.5%, 216G)
