Final Bets: blue - 14 bets for 11,031G (72.3%, x0.38); green - 8 bets for 4,220G (27.7%, x2.61)

blue bets:
Evewho: 2,767G (25.1%, 2,767G)
CrownOfHorns: 1,687G (15.3%, 1,687G)
AllInBot: 1,684G (15.3%, 1,684G)
Digitalsocrates: 1,000G (9.1%, 61,223G)
NicoSavoy: 1,000G (9.1%, 2,888G)
alithesillybird: 500G (4.5%, 5,477G)
moonliquor: 500G (4.5%, 2,740G)
NovaKnight21: 492G (4.5%, 492G)
gorgewall: 401G (3.6%, 21,320G)
LAGBOT30000: 300G (2.7%, 2,526G)
twelfthrootoftwo: 300G (2.7%, 2,967G)
Magicandy: 200G (1.8%, 1,518G)
serperemagus: 100G (0.9%, 8,407G)
datadrivenbot: 100G (0.9%, 44,009G)

green bets:
Lydian_C: 1,200G (28.4%, 16,598G)
BirbBrainsBot: 1,000G (23.7%, 71,670G)
getthemoneyz: 714G (16.9%, 975,417G)
DuraiPapers: 650G (15.4%, 3,307G)
Spuzzmocker: 256G (6.1%, 256G)
TeaTime29: 200G (4.7%, 9,644G)
Ring_Wyrm: 100G (2.4%, 3,127G)
victoriolue: 100G (2.4%, 5,060G)
