Final Bets: black - 11 bets for 9,174G (52.7%, x0.90); purple - 10 bets for 8,218G (47.3%, x1.12)

black bets:
AllInBot: 2,328G (25.4%, 2,328G)
sinnyil2: 2,001G (21.8%, 2,001G)
reinoe: 2,000G (21.8%, 23,201G)
Digitalsocrates: 1,000G (10.9%, 61,606G)
TeaTime29: 444G (4.8%, 9,444G)
gorgewall: 401G (4.4%, 21,473G)
LAGBOT30000: 300G (3.3%, 2,641G)
twelfthrootoftwo: 300G (3.3%, 3,082G)
Magicandy: 200G (2.2%, 1,595G)
moonliquor: 100G (1.1%, 2,931G)
datadrivenbot: 100G (1.1%, 44,047G)

purple bets:
bruubarg: 5,000G (60.8%, 25,269G)
solomongrundy85: 1,000G (12.2%, 9,292G)
BlackFireUK: 1,000G (12.2%, 31,920G)
DuraiPapers: 300G (3.7%, 2,657G)
Spuzzmocker: 256G (3.1%, 256G)
alithesillybird: 200G (2.4%, 5,668G)
Evewho: 200G (2.4%, 3,826G)
BirbBrainsBot: 140G (1.7%, 70,670G)
Lydian_C: 120G (1.5%, 15,398G)
getthemoneyz: 2G (0.0%, 974,703G)
