Final Bets: yellow - 16 bets for 6,437G (53.8%, x0.86); brown - 13 bets for 5,533G (46.2%, x1.16)

yellow bets:
BirbBrainsBot: 1,000G (15.5%, 134,474G)
E_Ballard: 902G (14.0%, 902G)
killth3kid: 700G (10.9%, 103,475G)
silentkaster: 700G (10.9%, 16,700G)
EnemyController: 555G (8.6%, 1,431,081G)
powergems: 555G (8.6%, 16,978G)
EvilLego6: 500G (7.8%, 7,397G)
Digitalsocrates: 420G (6.5%, 5,805G)
Kellios11: 200G (3.1%, 32,705G)
shineeyo: 200G (3.1%, 10,439G)
TasisSai: 187G (2.9%, 368G)
getthemoneyz: 118G (1.8%, 1,281,700G)
nhammen: 100G (1.6%, 9,363G)
furrytomahawkk: 100G (1.6%, 1,627G)
DeathTaxesAndAnime: 100G (1.6%, 6,931G)
victoriolue: 100G (1.6%, 3,610G)

brown bets:
DamnThatShark: 1,000G (18.1%, 4,690G)
NicoSavoy: 1,000G (18.1%, 184,589G)
twelfthrootoftwo: 671G (12.1%, 1,316G)
Rislyeu: 623G (11.3%, 623G)
midnight_blues3: 620G (11.2%, 620G)
letdowncity: 412G (7.4%, 10,169G)
fluffskull: 300G (5.4%, 1,089G)
Xoomwaffle: 205G (3.7%, 205G)
gorgewall: 201G (3.6%, 6,040G)
lijerrr: 200G (3.6%, 1,243G)
datadrivenbot: 200G (3.6%, 57,054G)
RedRiderAyame: 100G (1.8%, 388G)
moonliquor: 1G (0.0%, 15,014G)
