Final Bets: purple - 7 bets for 12,301G (53.8%, x0.86); brown - 17 bets for 10,549G (46.2%, x1.17)

purple bets:
AllInBot: 7,588G (61.7%, 7,588G)
Zeroroute: 1,657G (13.5%, 1,657G)
ColetteMSLP: 1,200G (9.8%, 33,050G)
Willjin: 1,000G (8.1%, 23,571G)
Estan_AD: 500G (4.1%, 5,247G)
HeroponThrawn: 256G (2.1%, 256G)
bahumat989: 100G (0.8%, 4,294G)

brown bets:
MattMan119: 3,000G (28.4%, 10,934G)
ungabunga_bot: 1,000G (9.5%, 206,395G)
BirbBrainsBot: 1,000G (9.5%, 85,832G)
getthemoneyz: 702G (6.7%, 545,767G)
rechaun: 616G (5.8%, 616G)
Dexsana: 600G (5.7%, 3,622G)
DavenIII: 544G (5.2%, 544G)
aStatue: 500G (4.7%, 500G)
JumbocactuarX27: 500G (4.7%, 11,116G)
TheChainNerd: 500G (4.7%, 2,172G)
megaman2202: 490G (4.6%, 980G)
Justice0320: 407G (3.9%, 4,074G)
CassiePhoenix: 264G (2.5%, 264G)
Treapvort: 200G (1.9%, 6,258G)
marin1987: 116G (1.1%, 116G)
datadrivenbot: 100G (0.9%, 362G)
GingerDynomite: 10G (0.1%, 7,637G)
