Final Bets: red - 14 bets for 10,035G (67.8%, x0.47); yellow - 10 bets for 4,758G (32.2%, x2.11)

red bets:
prince_rogers_nelson_: 2,373G (23.6%, 2,373G)
VolgraTheMoose: 2,001G (19.9%, 20,718G)
reinoe: 1,000G (10.0%, 16,136G)
BirbBrainsBot: 1,000G (10.0%, 140,790G)
twelfthrootoftwo: 1,000G (10.0%, 14,358G)
moonliquor: 500G (5.0%, 1,957G)
DaKoopa49: 500G (5.0%, 1,743G)
killth3kid: 444G (4.4%, 1,889G)
sososteve: 350G (3.5%, 6,322G)
null_sett: 250G (2.5%, 2,958G)
CosmicTactician: 200G (2.0%, 25,585G)
username123132: 200G (2.0%, 3,579G)
ChaoreLance: 117G (1.2%, 117G)
datadrivenbot: 100G (1.0%, 46,696G)

yellow bets:
Nizaha: 1,760G (37.0%, 3,520G)
SkylerBunny: 1,200G (25.2%, 501,253G)
Forkmore: 750G (15.8%, 3,296G)
KasugaiRoastedPeas: 209G (4.4%, 17,332G)
casteia: 200G (4.2%, 1,327G)
getthemoneyz: 168G (3.5%, 1,111,066G)
Lub1s: 150G (3.2%, 196G)
Lydian_C: 121G (2.5%, 162,704G)
Ring_Wyrm: 100G (2.1%, 2,392G)
Twisted_Nutsatchel: 100G (2.1%, 3,752G)
