Final Bets: yellow - 14 bets for 8,778G (46.6%, x1.15); black - 8 bets for 10,075G (53.4%, x0.87)

yellow bets:
Nizaha: 1,809G (20.6%, 3,618G)
moonliquor: 1,357G (15.5%, 1,357G)
lowlf: 1,212G (13.8%, 93,337G)
BirbBrainsBot: 1,000G (11.4%, 138,790G)
Forkmore: 500G (5.7%, 4,578G)
HaateXIII: 500G (5.7%, 3,658G)
null_sett: 500G (5.7%, 2,208G)
RaIshtar: 500G (5.7%, 7,482G)
killth3kid: 444G (5.1%, 2,589G)
getthemoneyz: 256G (2.9%, 1,110,518G)
benticore: 250G (2.8%, 3,481G)
flacococo: 200G (2.3%, 200G)
Lub1s: 150G (1.7%, 512G)
datadrivenbot: 100G (1.1%, 46,496G)

black bets:
Lydian_C: 4,200G (41.7%, 173,785G)
prince_rogers_nelson_: 2,147G (21.3%, 2,147G)
VolgraTheMoose: 1,501G (14.9%, 16,217G)
Zagorsek: 827G (8.2%, 827G)
username123132: 800G (7.9%, 2,979G)
sososteve: 400G (4.0%, 5,622G)
Firesheath: 100G (1.0%, 18,059G)
CosmicTactician: 100G (1.0%, 25,385G)
