Final Bets: black - 10 bets for 4,028G (26.3%, x2.80); purple - 14 bets for 11,278G (73.7%, x0.36)

black bets:
ANFz: 1,000G (24.8%, 45,760G)
coralreeferz: 650G (16.1%, 3,378G)
getthemoneyz: 504G (12.5%, 1,322,380G)
BirbBrainsBot: 462G (11.5%, 68,589G)
IDruggedShamu: 420G (10.4%, 7,205G)
randgridr: 408G (10.1%, 5,063G)
megamax667: 234G (5.8%, 8,984G)
JiroDoge: 150G (3.7%, 3,323G)
Miku_Shikhu: 100G (2.5%, 16,742G)
Royal_Ruckus: 100G (2.5%, 1,296G)

purple bets:
reinoe: 3,000G (26.6%, 84,049G)
rockmem21: 2,000G (17.7%, 11,617G)
SkylerBunny: 1,200G (10.6%, 50,800G)
dogsandcatsand: 1,000G (8.9%, 26,191G)
BlueAbs: 967G (8.6%, 967G)
Thyrandaal: 800G (7.1%, 800G)
Xoomwaffle: 760G (6.7%, 760G)
furrytomahawkk: 400G (3.5%, 1,963G)
gorgewall: 301G (2.7%, 8,088G)
Treafa: 250G (2.2%, 1,151G)
AllInBot: 200G (1.8%, 200G)
datadrivenbot: 200G (1.8%, 32,481G)
DouglasDragonThePoet: 100G (0.9%, 630G)
TasisSai: 100G (0.9%, 1,936G)
