Final Bets: green - 9 bets for 4,225G (26.8%, x2.73); yellow - 12 bets for 11,548G (73.2%, x0.37)

green bets:
YaBoy125: 1,250G (29.6%, 8,553G)
BirbBrainsBot: 1,000G (23.7%, 74,300G)
getthemoneyz: 518G (12.3%, 480,538G)
z32o: 500G (11.8%, 3,877G)
UmbraKnights: 300G (7.1%, 735G)
JackOnFire1: 260G (6.2%, 260G)
zackyap87: 197G (4.7%, 197G)
AllInBot: 100G (2.4%, 100G)
CassiePhoenix: 100G (2.4%, 2,252G)

yellow bets:
MoonSlayerRS: 3,257G (28.2%, 3,257G)
LanseDM: 1,500G (13.0%, 10,217G)
HaplessOne: 1,500G (13.0%, 49,771G)
lijarkh: 1,411G (12.2%, 2,822G)
ShintaroNayaka: 1,000G (8.7%, 11,408G)
Jeeboheebo: 977G (8.5%, 977G)
datadrivenbot: 932G (8.1%, 25,372G)
rechaun: 324G (2.8%, 324G)
Sitiran: 212G (1.8%, 212G)
Aneyus: 208G (1.8%, 20,896G)
ungabunga_bot: 127G (1.1%, 120,248G)
Maeveen: 100G (0.9%, 4,029G)
