Final Bets: white - 21 bets for 11,415G (45.9%, x1.18); champion - 18 bets for 13,464G (54.1%, x0.85)

white bets:
TheMM42: 2,000G (17.5%, 4,462G)
Evewho: 1,935G (17.0%, 3,796G)
reinoe: 1,000G (8.8%, 14,291G)
ungabunga_bot: 1,000G (8.8%, 433,211G)
BirbBrainsBot: 1,000G (8.8%, 143,665G)
Lionhermit: 1,000G (8.8%, 32,461G)
concles: 777G (6.8%, 13,579G)
CorpusCav: 517G (4.5%, 5,429G)
kaidykat: 349G (3.1%, 349G)
OverlordCuddles: 343G (3.0%, 343G)
Eyepoor_: 300G (2.6%, 983G)
Dexsana: 200G (1.8%, 1,945G)
Kyune: 200G (1.8%, 2,217G)
itsadud: 112G (1.0%, 112G)
SirCherish: 104G (0.9%, 104G)
ApplesauceBoss: 100G (0.9%, 8,910G)
mikesk1: 100G (0.9%, 100G)
ANFz: 100G (0.9%, 32,838G)
Yasmosis: 100G (0.9%, 635G)
datadrivenbot: 100G (0.9%, 12,881G)
getthemoneyz: 78G (0.7%, 649,009G)

champion bets:
josephiroth_143: 2,082G (15.5%, 2,082G)
cupholderr: 2,003G (14.9%, 2,003G)
Zbgs: 1,500G (11.1%, 78,077G)
sinnyil2: 1,200G (8.9%, 27,841G)
Who_lio42: 1,000G (7.4%, 10,258G)
EnemyController: 1,000G (7.4%, 235,114G)
RestIessNight: 726G (5.4%, 726G)
Lali_Lulelo: 588G (4.4%, 588G)
nifboy: 548G (4.1%, 548G)
HorusTaurus: 540G (4.0%, 540G)
CapnChaos12: 500G (3.7%, 3,154G)
ZephyrTempest: 456G (3.4%, 6,791G)
sir_sugarboogerz: 300G (2.2%, 867G)
solomongrundy85: 300G (2.2%, 18,638G)
ko2q: 277G (2.1%, 2,080G)
GnielKnows: 212G (1.6%, 212G)
metagameface: 116G (0.9%, 116G)
theNGUYENNER: 116G (0.9%, 116G)
